0.0375
0.043
0.0455
0.0555
0.0545
0.057
0.0535
0.045
0.043
0.04
0.037
0.0315
0.0445
0.051
0.0535
0.053
0.0605
0.0595
0.0685
0.0705
0.0735
0.0695
0.069
0.075
0.071
0.0715
0.0565
0.0465
0.047
0.05
0.051
0.059
0.057
0.0495
0.056
0.0565
0.059
0.0575
0.05
0.0435
0.0435
0.0485
0.0495
0.0385
0.0375
0.0465
0.0505
0.0505
0.052
0.059
0.0565
0.0575
0.0525
0.045
0.0455
0.04
0.05
0.0585
0.0595
0.063
0.0665
0.072
0.0705
0.0745
0.0715
0.0525
0.052
0.0615
0.059
0.0585
0.0605
0.054
0.0505
0.0655
0.072
0.064
0.0555
0.047
0.058
0.052
0.061
0.062
0.066
0.0665
0.0615
0.06
0.0635
0.062
0.0655
0.0635
0.0605
0.072
0.0825
0.0835
0.0795
0.074
0.0595
0.074
0.0715
0.0765
0.0725
0.074
0.0735
0.071
0.073
0.0825
0.0805
0.089
0.0875
0.089
0.089
0.0935
0.103
0.0915
0.0825
0.0915
0.0925
0.0965
0.0955
0.0805
0.0875
0.0785
0.068
0.069
0.0805
0.08
0.0675
0.0735
0.0685
0.0585
0.0535
0.0595
0.064
0.0695
0.075
0.0865
0.083
0.0895
0.0765
0.086
0.0825
0.0715
0.068
0.06
0.0705
0.058
0.0535
0.059
0.056
0.049
0.0455
0.0535
0.044
0.042
0.0425
0.042
0.0545
0.0635
0.0675
0.066
0.076
0.0745
0.085
0.075
0.079
0.068
0.072
0.0655
0.061
0.0495
0.0515
0.056
0.0465
0.059
0.0665
0.0655
0.0615
0.0455
0.0495
0.054
0.05
0.037
0.03
0.024
0.0235
0.0245
0.032
0.0325
0.0275
0.028
0.0305
0.0305
0.033
0.0275
0.0385
0.042
0.039
0.055
0.0625
0.0705
0.065
0.0765
0.0665
0.069
0.061
0.0595
0.07
0.0605
0.06
0.057
0.059
0.0575
0.049
0.0565
0.061
0.058
0.0585
0.0505
0.0455
0.047
0.047
0.051
0.0465
0.042
0.035
0.051
0.0535
0.0405
0.029
0.036
0.028
0.03
0.03
0.031
0.042
0.036
0.035
0.036
0.0325
0.033
0.029
0.025
0.0265
0.0275
0.0315
0.044
0.0455
0.0575
0.056
0.0605
0.0565
0.059
0.0585
0.055
0.061
0.057
0.062
0.0625
0.0605
0.062
0.0745
0.071
0.0775
0.0845
0.0835
0.085
0.078
0.0645
0.065
0.0695
0.064
0.055
0.056
0.059
0.0715
0.071
0.0695
0.0695
0.0705
0.0685
0.0685
0.071
0.0695
0.077
0.078
0.0825
0.0825
0.0695
0.0635
0.0755
0.0715
0.078
0.071
0.0605
0.0545
0.049
0.0465
0.0495
0.05
0.046
0.046
0.0545
0.053
0.057
0.052
0.065
0.0645
0.072
0.0585
0.0565
0.05
0.051
0.0545
0.047
0.0495
0.049
0.05
0.05
0.0405
0.044
0.0495
0.043
0.0425
0.046
0.0435
0.06
0.0695
0.068
0.075
0.07
0.071
0.0685
0.0635
0.0615
0.055
0.0645
0.07
0.072
0.07
0.0645
0.0505
0.0555
0.065
0.0815
0.0825
0.089
0.0885
0.101
0.099
0.0895
0.077
0.07
0.0785
0.073
0.08
0.0715
0.052
0.0595
0.0585
0.059
0.0545
0.0595
0.0545
0.058
0.0535
0.0555
0.0555
0.052
0.0515
0.055
0.0545
0.063
0.0645
0.059
0.07
0.062
0.065
0.057
0.0635
0.0635
0.056
0.068
0.0565
0.0555
0.0585
0.055
0.0615
0.0505
0.0545
0.0655
0.0655
0.061
0.0575
0.0525
0.0535
0.0535
0.053
0.0505
0.047
0.0405
0.0395
0.0345
0.036
0.039
0.0365
0.037
0.0435
0.0475
0.056
0.059
0.0575
0.0625
0.0565
0.053
0.061
0.074
0.067
0.0715
0.0695
0.066
0.0635
0.0665
0.065
0.0705
0.074
0.0665
0.0785
0.1
0.0875
0.0925
0.0875
0.073
0.0705
0.065
0.0745
0.0875
0.0895
0.087
0.077
0.0825
0.087
0.0755
0.0725
0.0715
0.07
0.074
0.065
0.0705
0.0625
0.0605
0.066
0.0705
0.0785
0.0875
0.1085
0.104
0.1025
0.0955
0.084
0.0735
0.0735
0.0695
0.065
0.0695
0.066
0.075
0.07
0.0705
0.083
0.0865
0.0665
0.057
0.0555
0.059
0.061
0.079
0.08
0.0785
0.0765
0.0675
0.063
0.072
0.0655
0.0595
0.0535
0.0605
0.0545
0.061
0.0665
0.069
0.0725
0.056
0.0455
0.06
0.0645
0.0635
0.0675
0.0595
0.078
0.078
0.067
0.073
0.071
0.065
0.0725
0.0665
0.066
0.06
0.057
0.0485
0.054
0.0495
0.036
0.034
0.0395
0.0325
0.043
0.0395
0.037
0.0375
0.043
0.039
0.0435
0.038
0.0395
0.037
0.0345
0.03
0.042
0.0305
0.0375
0.045
0.044
0.04
0.034
0.0325
0.0395
0.034
0.032
0.0345
0.043
0.0525
0.051
0.0555
0.054
0.054
0.0535
0.054
0.0585
0.056
0.046
0.0505
0.0405
0.035
0.0285
0.0335
0.038
0.046
0.0495
0.0515
0.0475
0.054
0.059
0.058
0.063
0.066
0.0655
0.056
0.0565
0.0625
0.0545
0.0475
0.058
0.064
0.0755
0.0695
0.08
0.072
0.0675
0.069
0.0685
0.07
0.052
0.0655
0.0635
0.0735
0.068
0.0625
0.071
0.076
0.097
0.0905
0.093
0.086
0.0745
0.0765
0.0755
0.0845
0.0685
0.086
0.1025
0.0945
0.0955
0.108
0.102
0.101
0.0945
0.1015
0.1095
0.107
0.099
0.094
0.089
0.0925
0.095
0.093
0.0815
0.0935
0.0975
0.09
0.0895
0.087
0.086
0.087
0.0885
0.083
0.0795
0.0705
0.071
0.0755
0.066
0.0595
0.0545
0.059
0.051
0.0565
0.0535
0.067
0.0735
0.0645
0.065
0.0585
0.0525
0.052
0.0615
0.071
0.0685
0.072
0.073
0.0735
0.0665
0.0635
0.061
0.0715
0.068
0.0585
0.0485
0.0475
0.05
0.055
0.0535
0.061
0.0515
0.0495
0.0465
0.064
0.0675
0.057
0.0585
0.06
0.0595
0.056
0.057
0.059
0.052
0.0625
0.055
0.055
0.0575
0.051
0.04
0.043
0.05
0.0415
0.054
0.039
0.0425
0.0455
0.0425
0.0535
0.049
0.058
0.0585
0.064
0.0725
0.07
0.0755
0.076
0.066
0.067
0.069
0.076
0.0845
0.086
0.077
0.07
0.0725
0.0825
0.079
0.0875
0.0765
0.0695
0.06
0.065
0.0695
0.069
0.072
0.067
0.0615
0.0605
0.061
0.0635
0.0675
0.0775
0.08
0.0805
0.071
0.0615
0.0625
0.067
0.059
0.0675
0.069
0.069
0.074
0.073
0.067
0.054
0.0405
0.043
0.038
0.0355
0.0345
0.034
0.0445
0.0575
0.056
0.0635
0.068
0.068
0.068
0.077
0.0645
0.0495
0.0585
0.0655
0.0565
0.0555
0.0505
0.0605
0.0675
0.0735
0.0735
0.071
0.07
0.0665
0.0745
0.082
0.0735
0.0725
0.0815
0.063
0.0575
0.06
0.0545
0.054
0.0415
0.0485
0.044
0.0575
0.0605
0.0595
0.0565
0.0555
0.074
0.0785
0.068
0.0595
0.0655
0.0495
0.0375
0.0405
0.037
0.04
0.032
0.034
0.032
0.0295
0.034
0.034
0.0335
0.035
0.0275
0.0275
0.022
0.025
0.022
0.027
0.026
0.0285
0.036
0.035
0.0325
0.0305
0.0365
0.05
0.051
0.0495
0.044
0.036
0.036
0.0425
0.047
0.0515
0.049
0.0465
0.037
0.041
0.049
0.0435
0.051
0.0445
0.0435
0.052
0.054
0.0565
0.06
0.0635
0.066
0.058
0.067
0.075
0.0725
0.083
0.0715
0.0725
0.067
0.059
0.065
0.0675
0.0695
0.0655
0.059
0.061
0.058
0.0545
0.0625
0.0745
0.075
0.071
0.0875
0.0885
0.0895
0.099
0.103
0.086
0.087
0.071
0.073
0.073
0.068
0.0715
0.0605
0.0665
0.0585
0.0605
0.067
0.067
0.0645
0.0595
0.044
0.0405
0.04
0.034
0.032
0.0335
0.0325
0.033
0.039
0.043
0.0435
0.04
0.052
0.042
0.0375
0.029
0.037
0.042
0.036
0.044
0.05
0.037
0.0335
0.031
0.0245
0.0345
0.0365
0.044
0.0445
0.0335
0.046
0.037
0.0385
0.039
0.0365
0.038
0.0355
0.0385
0.039
0.0385
0.0385
0.0385
0.038
0.0435
0.041
0.06
0.0525
0.058
0.0595
0.067
0.075
0.079
0.074
0.072
0.0675
0.0625
0.0455
0.0505
0.053
0.0505
0.065
0.0775
0.081
0.0685
0.068
0.075
0.0785
0.0785
0.0725
0.067
0.0615
0.0555
0.054
0.057
0.0625
0.0585
0.079
0.078
0.085
0.0815
0.0805
0.0775
0.07
0.0725
0.0705
0.069
0.058
0.075
0.074
0.0735
0.061
0.0645
0.0685
0.073
0.069
0.0555
0.048
0.047
0.043
0.0455
0.051
0.052
0.0555
0.0635
0.057
0.072
0.0735
0.076
0.062
0.071
0.092
0.0945
0.091
0.0905
0.09
0.095
0.1075
0.0935
0.087
0.081
