0.053
0.048
0.056
0.048
0.0385
0.0505
0.0605
0.063
0.061
0.0625
0.0665
0.069
0.069
0.059
0.0555
0.0465
0.049
0.057
0.062
0.0645
0.0605
0.07
0.065
0.0485
0.052
0.052
0.0535
0.05
0.0365
0.038
0.0395
0.0395
0.049
0.054
0.0705
0.073
0.0695
0.0655
0.0545
0.055
0.0645
0.071
0.0735
0.063
0.0565
0.0565
0.0585
0.058
0.0575
0.06
0.0495
0.0425
0.046
0.055
0.059
0.077
0.065
0.07
0.068
0.0515
0.0445
0.036
0.035
0.0335
0.03
0.0245
0.0295
0.0405
0.0415
0.0575
0.0475
0.0445
0.0415
0.0395
0.0305
0.0285
0.029
0.028
0.0345
0.0365
0.043
0.0475
0.0515
0.045
0.0365
0.0365
0.0405
0.048
0.048
0.0485
0.042
0.0435
0.051
0.053
0.049
0.0635
0.069
0.0635
0.0635
0.0695
0.0785
0.0905
0.079
0.079
0.079
0.084
0.0655
0.0655
0.0565
0.0565
0.056
0.0615
0.072
0.075
0.0745
0.0815
0.0775
0.069
0.063
0.058
0.0575
0.0655
0.0605
0.0685
0.0625
0.044
0.046
0.06
0.055
0.0595
0.066
0.064
0.0605
0.0785
0.083
0.0725
0.0735
0.071
0.0785
0.0705
0.088
0.085
0.089
0.087
0.077
0.071
0.0735
0.067
0.068
0.0765
0.075
0.077
0.0775
0.07
0.067
0.0705
0.0795
0.0755
0.067
0.0675
0.065
0.074
0.072
0.066
0.0645
0.0645
0.068
0.075
0.07
0.066
0.0585
0.054
0.0525
0.0485
0.058
0.0575
0.053
0.054
0.0575
0.0535
0.0575
0.0475
0.051
0.0555
0.0605
0.0585
0.0555
0.0645
0.055
0.0575
0.064
0.0735
0.0795
0.0745
0.076
0.074
0.077
0.0745
0.0745
0.074
0.072
0.067
0.0785
0.0835
0.076
0.0765
0.0755
0.0735
0.0685
0.082
0.0805
0.0665
0.074
0.07
0.0775
0.0785
0.088
0.0945
0.0995
0.104
0.0905
0.0885
0.115
0.0875
0.0845
0.078
0.078
0.0655
0.059
0.0625
0.066
0.063
0.0595
0.06
0.0505
0.056
0.0535
0.0465
0.0515
0.0565
0.0495
0.057
0.055
0.054
0.051
0.0515
0.0645
0.072
0.08
0.092
0.11
0.113
0.09
0.0905
0.0975
0.0875
0.0845
0.0835
0.071
0.064
0.066
0.068
0.0655
0.0635
0.0615
0.0675
0.07
0.071
0.082
0.0675
0.0755
0.0615
0.0735
0.0675
0.0595
0.0585
0.0655
0.0555
0.057
0.059
0.059
0.0615
0.0595
0.067
0.073
0.0695
0.058
0.056
0.04
0.0425
0.041
0.043
0.0465
0.038
0.034
0.049
0.0385
0.041
0.0535
0.051
0.054
0.0485
0.0515
0.049
0.052
0.0475
0.0535
0.06
0.065
0.0715
0.085
0.08
0.079
0.0875
0.076
0.071
0.073
0.0835
0.081
0.0825
0.0925
0.084
0.0825
0.0645
0.0565
0.0725
0.077
0.0825
0.084
0.087
0.083
0.0805
0.0705
0.0665
0.071
0.067
0.056
0.064
0.079
0.07
0.079
0.077
0.069
0.0635
0.074
0.0705
0.078
0.0785
0.0925
0.0865
0.0965
0.0875
0.081
0.078
0.0805
0.0805
0.0825
0.08
0.088
0.0835
0.085
0.0975
0.0935
0.1035
0.107
0.1005
0.098
0.0925
0.0815
0.076
0.0745
0.07
0.067
0.0585
0.0595
0.058
0.054
0.0605
0.063
0.063
0.0625
0.0705
0.058
0.069
0.0735
0.0705
0.0815
0.073
0.0715
0.064
0.0545
0.0585
0.055
0.0535
0.0565
0.067
0.068
0.073
0.0705
0.07
0.0665
0.0555
0.0585
0.062
0.0515
0.0545
0.0615
0.0675
0.0565
0.0635
0.0635
0.0555
0.0505
0.0505
0.046
0.0435
0.046
0.039
0.034
0.038
0.0475
0.053
0.0645
0.0605
0.068
0.078
0.0815
0.0795
0.074
0.074
0.0665
0.067
0.053
0.0525
0.048
0.0405
0.044
0.0575
0.066
0.068
0.0675
0.0735
0.0765
0.0745
0.0735
0.07
0.0775
0.085
0.0845
0.0945
0.0875
0.0975
0.0905
0.0835
0.0685
0.0665
0.062
0.0625
0.073
0.085
0.064
0.065
0.0695
0.07
0.0685
0.059
0.0545
0.064
0.0675
0.0585
0.061
0.0535
0.0665
0.078
0.0795
0.0735
0.081
0.08
0.0765
0.08
0.085
0.069
0.077
0.0795
0.068
0.0695
0.069
0.0685
0.0755
0.0795
0.076
0.059
0.0685
0.0625
0.0675
0.072
0.06
0.052
0.0585
0.0575
0.066
0.0705
0.0735
0.077
0.075
0.075
0.0845
0.0925
0.085
0.1005
0.103
0.0935
0.0745
0.09
0.077
0.0775
0.084
0.0805
0.0685
0.0745
0.0845
0.092
0.101
0.0845
0.079
0.0745
0.0795
0.067
0.0565
0.057
0.0545
0.047
0.0495
0.054
0.061
0.051
0.053
0.0475
0.048
0.0405
0.0445
0.0335
0.038
0.0445
0.038
0.0395
0.0405
0.0455
0.0435
0.0475
0.052
0.05
0.0595
0.0605
0.06
0.057
0.055
0.056
0.055
0.0525
0.049
0.048
0.045
0.0525
0.0495
0.0505
0.0445
0.0475
0.0415
0.0475
0.057
0.0525
0.0535
0.0575
0.0525
0.0495
0.0555
0.0555
0.0575
0.062
0.052
0.0605
0.0685
0.0845
0.079
0.0815
0.0935
0.086
0.075
0.085
0.0825
0.0875
0.0905
0.087
0.077
0.08
0.079
0.0805
0.074
0.0655
0.0765
0.076
0.067
0.0555
0.0635
0.0585
0.0625
0.0455
0.0465
0.0445
0.0585
0.0595
0.054
0.047
0.0445
0.0435
0.053
0.049
0.045
0.042
0.0385
0.0355
0.0355
0.0345
0.0395
0.0525
0.0465
0.055
0.057
0.0445
0.037
0.045
0.054
0.0625
0.0595
0.074
0.077
0.0895
0.0865
0.0785
0.084
0.084
0.0795
0.075
0.084
0.0775
0.073
0.073
0.0765
0.091
0.092
0.0825
0.089
0.081
0.0665
0.0715
0.055
0.055
0.059
0.0585
0.044
0.06
0.068
0.0725
0.066
0.064
0.061
0.0635
0.0655
0.0705
0.068
0.0755
0.0615
0.063
0.073
0.0675
0.064
0.0665
0.0595
0.051
0.048
0.041
0.05
0.054
0.052
0.049
0.057
0.0555
0.057
0.057
0.0595
0.0585
0.0655
0.054
0.047
0.058
0.064
0.0645
0.081
0.0775
0.0705
0.0795
0.072
0.068
0.0695
0.0675
0.0595
0.0575
0.0605
0.0635
0.0535
0.053
0.0575
0.0685
0.0525
0.0565
0.052
0.048
0.0515
0.0475
0.062
0.0605
0.0595
0.0635
0.0695
0.0565
0.0565
0.0555
0.064
0.046
0.0475
0.0425
0.0455
0.0475
0.051
0.0555
0.065
0.064
0.061
0.0535
0.0575
0.0555
0.052
0.0545
0.0665
0.073
0.0665
0.0555
0.056
0.0515
0.0585
0.0615
0.061
0.071
0.06
0.0695
0.0615
0.068
0.0705
0.08
0.0805
0.078
0.0755
0.0705
0.07
0.0625
0.0715
0.064
0.0625
0.055
0.0645
0.059
0.0535
0.062
0.0575
0.0545
0.038
0.038
0.046
0.0425
0.0495
0.058
0.066
0.073
0.0755
0.0775
0.076
0.072
0.0775
0.0785
0.0835
0.078
0.0785
0.069
0.064
0.075
0.06
0.07
0.0665
0.069
0.063
0.055
0.0705
0.068
0.061
0.061
0.051
0.0625
0.0625
0.0625
0.0605
0.0625
0.06
0.061
0.056
0.067
0.069
0.062
0.083
0.0875
0.0805
0.08
0.069
0.0715
0.0815
0.089
0.078
0.0735
0.08
0.078
0.0715
0.061
0.052
0.046
0.041
0.0455
0.0365
0.042
0.045
0.0405
0.042
0.048
0.0535
0.0505
0.0515
0.046
0.039
0.0385
0.0285
0.029
0.037
0.0345
0.038
0.04
0.0345
0.0355
0.041
0.041
0.0365
0.031
0.0235
0.025
0.0305
0.023
0.027
0.023
0.027
0.0315
0.042
0.0305
0.0335
0.028
0.0225
0.0255
0.0235
0.0255
0.0295
0.032
0.0345
0.0425
0.0415
0.042
0.0365
0.041
0.036
0.04
0.0365
0.028
0.03
0.0275
0.025
0.024
0.018
0.0245
0.028
0.025
0.018
0.0255
0.028
0.0355
0.0325
0.041
0.051
0.0555
0.061
0.0605
0.0655
0.074
0.0785
0.079
0.073
0.0605
0.063
0.079
0.0785
0.0785
0.0785
0.082
0.0725
0.0725
0.05
0.051
0.0465
0.057
0.05
0.0515
0.0675
0.077
0.0865
0.0825
0.0765
0.08
0.0735
0.0655
0.078
0.0825
0.072
0.0645
0.052
0.0595
0.048
0.0575
0.0725
0.0765
0.071
0.0645
0.0635
0.061
0.073
0.0755
0.075
0.074
0.083
0.074
0.059
0.057
0.0575
0.06
0.062
0.0785
0.073
0.0725
0.062
0.0735
0.083
0.0825
0.083
0.085
0.0735
0.0745
0.071
0.077
0.0705
0.078
0.0615
0.0595
0.0475
0.056
0.0555
0.065
0.0785
0.085
0.088
0.0825
0.083
0.0905
0.083
0.084
0.0835
0.0915
0.0935
0.105
0.11
0.1025
0.103
0.0975
0.0925
0.095
0.109
0.1055
