0.084
0.078
0.0865
0.0765
0.075
0.0795
0.069
0.0645
0.064
0.0685
0.0675
0.057
0.0515
0.0495
0.0505
0.0545
0.047
0.051
0.0505
0.0545
0.0495
0.0505
0.0675
0.066
0.0635
0.0605
0.066
0.0765
0.08
0.082
0.0955
0.091
0.078
0.073
0.072
0.0705
0.0745
0.068
0.0595
0.066
0.078
0.072
0.074
0.074
0.0665
0.065
0.0685
0.0725
0.067
0.062
0.0495
0.0575
0.0475
0.048
0.0625
0.066
0.0575
0.0615
0.0675
0.07
0.064
0.069
0.07
0.072
0.0605
0.0635
0.0755
0.074
0.0695
0.068
0.064
0.0695
0.0715
0.0815
0.055
0.0515
0.045
0.0445
0.0535
0.0615
0.0555
0.0615
0.056
0.046
0.0475
0.0495
0.0435
0.05
0.047
0.0595
0.057
0.0585
0.061
0.0725
0.0575
0.055
0.053
0.047
0.042
0.032
0.037
0.035
0.0455
0.045
0.044
0.0415
0.0405
0.0335
0.0395
0.048
0.0555
0.0505
0.0585
0.0675
0.0645
0.0595
0.0655
0.0675
0.0645
0.05
0.0495
0.0475
0.046
0.056
0.052
0.063
0.0765
0.0745
0.0705
0.081
0.0755
0.073
0.0705
0.0715
0.072
0.0615
0.0525
0.0605
0.057
0.061
0.0725
0.055
0.066
0.0705
0.082
0.093
0.0895
0.0935
0.0975
0.095
0.0845
0.0875
0.0875
0.0885
0.0835
0.089
0.083
0.092
0.0865
0.083
0.072
0.0565
0.047
0.0505
0.0535
0.055
0.0575
0.0695
0.052
0.045
0.0445
0.045
0.049
0.059
0.059
0.0645
0.0615
0.0525
0.0465
0.0475
0.044
0.0475
0.0385
0.042
0.0455
0.046
0.051
0.04
0.048
0.052
0.055
0.0705
0.074
0.079
0.0755
0.088
0.0845
0.0755
0.071
0.07
0.073
0.0745
0.0855
0.0705
0.063
0.074
0.075
0.0815
0.0725
0.0745
0.0595
0.0575
0.061
0.0675
0.073
0.0715
0.074
0.0715
0.076
0.0805
0.0815
0.076
0.083
0.091
0.1025
0.0945
0.0945
0.091
0.098
0.1145
0.1085
0.099
0.094
0.092
0.068
0.066
0.075
0.0835
0.069
0.0675
0.067
0.063
0.0515
0.066
0.072
0.067
0.05
0.0565
0.05
0.067
0.075
0.088
0.0815
0.082
0.0805
0.0715
0.0785
0.0975
0.0935
0.084
0.0825
0.0695
0.062
0.0525
0.0615
0.0565
0.0585
0.058
0.058
0.064
0.06
0.0535
0.0415
0.0455
0.0365
0.042
0.0395
0.0365
0.039
0.03
0.0295
0.0305
0.0275
0.0245
0.03
0.041
0.0415
0.0425
0.044
0.0485
0.049
0.0395
0.0305
0.024
0.0245
0.0295
0.029
0.0335
0.033
0.0395
0.033
0.0415
0.039
0.0445
0.043
0.0555
0.063
0.06
0.0675
0.0725
0.0785
0.072
0.0565
0.0635
0.0605
0.0695
0.0775
0.061
0.059
0.07
0.084
0.076
0.0705
0.067
0.0515
0.0565
0.0555
0.0545
0.0595
0.066
0.068
0.0635
0.0605
0.0625
0.0725
0.073
0.054
0.052
0.0475
0.047
0.0485
0.047
0.046
0.046
0.037
0.037
0.039
0.0375
0.0365
0.0285
0.036
0.042
0.0375
0.046
0.0495
0.053
0.0515
0.0415
0.04
0.0405
0.049
0.0545
0.051
0.0565
0.0555
0.059
0.0585
0.0495
0.055
0.0495
0.051
0.0595
0.0645
0.071
0.063
0.052
0.06
0.0665
0.058
0.0575
0.0615
0.0825
0.0775
0.0685
0.0695
0.058
0.0615
0.0545
0.055
0.056
0.055
0.052
0.0595
0.063
0.058
0.0525
0.051
0.056
0.062
0.0685
0.0695
0.0825
0.071
0.079
0.0795
0.0765
0.086
0.0855
0.0915
0.089
0.0685
0.0735
0.0635
0.055
0.0635
0.069
0.074
0.07
0.076
0.07
0.067
0.0645
0.051
0.0565
0.06
0.059
0.066
0.044
0.0395
0.0415
0.046
0.0365
0.029
0.0285
0.026
0.035
0.04
0.042
0.0555
0.057
0.063
0.0605
0.0575
0.049
0.0395
0.037
0.0365
0.04
0.048
0.0375
0.0295
0.028
0.034
0.032
0.0335
0.031
0.0275
0.023
0.0205
0.022
0.0255
0.031
0.0365
0.0475
0.046
0.0495
0.058
0.0545
0.0485
0.0535
0.058
0.0585
0.0475
0.0415
0.0385
0.0405
0.0465
0.055
0.06
0.0585
0.0505
0.038
0.0335
0.0375
0.041
0.0415
0.043
0.0355
0.0395
0.039
0.0315
0.04
0.051
0.058
0.047
0.0565
0.0535
0.051
0.043
0.05
0.053
0.0475
0.0485
0.0535
0.0555
0.051
0.057
0.0555
0.04
0.0405
0.0455
0.043
0.037
0.0345
0.0325
0.0355
0.0455
0.05
0.0405
0.0265
0.0165
0.017
0.017
0.0185
0.02
0.0375
0.0335
0.039
0.036
0.0375
0.0285
0.036
0.049
0.0545
0.052
0.051
0.057
0.0585
0.062
0.0745
0.0765
0.081
0.078
0.0755
0.091
0.0985
0.0845
0.0815
0.0605
0.054
0.0695
0.064
0.067
0.055
0.067
0.0595
0.0665
0.0635
0.0685
0.055
0.065
0.075
0.065
0.068
0.073
0.0785
0.078
0.1025
0.0875
0.072
0.073
0.0795
0.083
0.0705
0.069
0.0625
0.082
0.0645
0.0615
0.07
0.0645
0.0665
0.0685
0.08
0.0835
0.0815
0.0815
0.0985
0.097
0.0975
0.0935
0.098
0.094
0.0865
0.0885
0.0895
0.106
0.1
0.0835
0.076
0.0805
0.095
0.1045
0.111
0.101
0.1095
0.0985
0.108
0.0955
0.0975
0.0875
0.0745
0.067
0.066
0.058
0.0675
0.065
0.076
0.075
0.069
0.0705
0.074
0.0735
0.072
0.0585
0.052
0.054
0.0585
0.0485
0.0525
0.058
0.058
0.0565
0.0545
0.0485
0.0535
0.056
0.0615
0.063
0.0785
0.0865
0.075
0.0875
0.0825
0.0645
0.059
0.062
0.0605
0.0575
0.066
0.059
0.0745
0.084
0.077
0.0755
0.064
0.068
0.078
0.065
0.085
0.0775
0.074
0.074
0.074
0.075
0.071
0.0815
0.0845
0.0755
0.0915
0.0705
0.064
0.074
0.064
0.0745
0.0755
0.0735
0.0745
0.0755
0.067
0.062
0.0705
0.0735
0.0875
0.087
0.0825
0.0795
0.074
0.0665
0.0665
0.067
0.075
0.0765
0.078
0.078
0.0925
0.09
0.083
0.0805
0.092
0.0825
0.1
0.1045
0.0995
0.0845
0.082
0.0725
0.078
0.073
0.0655
0.065
0.0635
0.074
0.0805
0.0865
0.075
0.0805
0.074
0.0745
0.0645
0.0695
0.065
0.074
0.0725
0.0615
0.0725
0.073
0.0715
0.0655
0.0585
0.06
0.0625
0.067
0.068
0.0635
0.0545
0.055
0.0505
0.062
0.061
0.065
0.0705
0.0715
0.065
0.056
0.048
0.0475
0.0445
0.049
0.05
0.0445
0.0435
0.048
0.058
0.056
0.054
0.0685
0.0705
0.0635
0.064
0.0505
0.05
0.043
0.0485
0.0515
0.0495
0.052
0.0535
0.0575
0.067
0.0705
0.0845
0.0785
0.0865
0.0925
0.083
0.084
0.081
0.0765
0.059
0.048
0.0565
0.0615
0.067
0.068
0.0665
0.0655
0.0595
0.048
0.0445
0.048
0.056
0.0585
0.0625
0.0615
0.069
0.0635
0.064
0.062
0.061
0.0585
0.053
0.064
0.066
0.0605
0.0795
0.078
0.0735
0.0575
0.0565
0.062
0.07
0.08
0.078
0.075
0.063
0.0625
0.06
0.055
0.051
0.0435
0.0415
0.035
0.028
0.03
0.0385
0.054
0.0505
0.051
0.045
0.0485
0.0445
0.0455
0.0435
0.057
0.057
0.066
0.0665
0.0635
0.054
0.0495
0.05
0.04
0.0455
0.0405
0.0305
0.042
0.0405
0.04
0.04
0.0475
0.0655
0.07
0.067
0.072
0.0715
0.072
0.087
0.088
0.077
0.068
0.0725
0.066
0.0675
0.074
0.0725
0.074
0.0775
0.0745
0.067
0.0615
0.0775
0.0745
0.08
0.0855
0.0885
0.094
0.084
0.0865
0.0975
0.1035
0.101
0.1065
0.0995
0.086
0.088
0.0755
0.0755
0.074
0.072
0.072
0.079
0.08
0.0825
0.0845
0.066
0.0595
0.0605
0.07
0.0885
0.097
0.088
0.1025
0.108
0.1125
0.1055
0.1025
0.09
0.096
0.0975
0.0915
0.084
0.085
0.0845
0.0855
0.083
0.0785
0.0725
0.0815
0.088
0.0905
0.1035
0.1065
0.1035
0.0985
0.0905
0.0835
0.069
0.0655
0.0565
0.056
0.0545
0.0515
0.048
0.051
0.053
0.039
0.049
0.0455
0.0505
0.057
0.066
0.0775
0.084
0.08
0.0655
0.0735
0.0715
0.074
0.078
0.077
0.0795
0.0715
0.0745
0.0725
0.0795
0.0715
0.0665
0.0655
0.089
0.0815
0.09
0.087
0.082
0.086
0.09
0.0845
0.085
0.083
0.0915
0.0925
0.1015
0.095
0.0925
0.076
0.072
0.073
0.062
0.0595
0.058
0.0625
0.063
0.056
0.0625
0.0485
0.046
0.046
0.049
0.0555
0.068
0.0685
0.0775
0.078
0.084
0.0795
0.09
0.089
0.077
0.0685
0.076
