0.1905
0.1995
0.193
0.1915
0.203
0.19
0.189
0.1975
0.1945
0.198
0.19
0.209
0.2095
0.2065
0.2065
0.215
0.2115
0.2215
0.2
0.2065
0.193
0.2015
0.2195
0.205
0.1745
0.176
0.19
0.1845
0.2035
0.1945
0.2
0.192
0.2015
0.2
0.195
0.2115
0.203
0.2095
0.2175
0.2145
0.2105
0.2065
0.2005
0.1905
0.1935
0.1845
0.189
0.2
0.2075
0.2225
0.211
0.2285
0.2265
0.2115
0.2065
0.2165
0.21
0.206
0.214
0.2155
0.209
0.197
0.1935
0.209
0.212
0.21
0.1985
0.197
0.203
0.191
0.1905
0.215
0.236
0.2295
0.222
0.2155
0.2245
0.224
0.2265
0.2065
0.212
0.2115
0.197
0.1825
0.197
0.1995
0.194
0.211
0.205
0.204
0.1895
0.1795
0.197
0.191
0.208
0.1935
0.2015
0.1915
0.1985
0.1965
0.2135
0.202
0.1985
0.198
0.207
0.2055
0.1985
0.203
0.212
0.2115
0.2035
0.2095
0.201
0.2095
0.1945
0.2105
0.199
0.2015
0.1995
0.186
0.2005
0.1965
0.204
0.2035
0.2025
0.2
0.1975
0.216
0.1995
0.187
0.2085
0.2095
0.2055
0.2075
0.195
0.2005
0.204
0.197
0.1905
0.197
0.181
0.1905
0.195
0.199
0.194
0.1945
0.1965
0.206
0.21
0.2185
0.207
0.199
0.208
0.193
0.1845
0.1855
0.1895
0.195
0.206
0.193
0.1975
0.206
0.2115
0.2
0.203
0.2105
0.222
0.2115
0.2105
0.216
0.2105
0.199
0.207
0.202
0.2045
0.2095
0.2095
0.213
0.2055
0.2
0.195
0.198
0.2025
0.207
0.224
0.221
0.2105
0.188
0.204
0.2045
0.2115
0.2015
0.192
0.1805
0.1835
0.2125
0.205
0.2115
0.1985
0.1905
0.21
0.2135
0.207
0.205
0.1855
0.187
0.191
0.197
0.206
0.214
0.2165
0.219
0.2115
0.2025
0.199
0.1975
0.196
0.214
0.207
0.2095
0.198
0.188
0.1825
0.177
0.2005
0.214
0.215
0.1945
0.201
0.204
0.2095
0.196
0.19
0.184
0.189
0.1885
0.193
0.207
0.206
0.2135
0.2175
0.204
0.1925
0.1925
0.1755
0.1895
0.1765
0.179
0.1825
0.193
0.198
0.2185
0.205
0.202
0.2125
0.2135
0.197
0.197
0.2065
0.2025
0.2025
0.191
0.193
0.1885
0.1915
0.204
0.2115
0.2105
0.2085
0.216
0.2095
0.2085
0.2005
0.191
0.2025
0.2055
0.1975
0.21
0.206
0.2095
0.198
0.2005
0.1955
0.2005
0.184
0.1765
0.186
0.1895
0.1925
0.1985
0.194
0.1855
0.186
0.2135
0.2105
0.207
0.2115
0.212
0.197
0.2
0.2195
0.217
0.1975
0.19
0.203
0.208
0.2225
0.212
0.2035
0.197
0.199
0.219
0.199
0.204
0.2055
0.202
0.1915
0.1875
0.1885
0.185
0.1825
0.189
0.191
0.1845
0.1985
0.192
0.211
0.1955
0.205
0.197
0.209
0.204
0.203
0.22
0.217
0.2
0.192
0.1985
0.199
0.195
0.201
0.1975
0.2055
0.187
0.1855
0.1825
0.186
0.186
0.1875
0.193
0.1995
0.19
0.2
0.194
0.2
0.184
0.198
0.211
0.212
0.1945
0.1935
0.1925
0.193
0.2015
0.2075
0.2105
0.2225
0.2145
0.2165
0.212
0.2135
0.2085
0.214
0.21
0.192
0.1755
0.175
0.1775
0.1675
0.1715
0.1865
0.1915
0.1985
0.1995
0.195
0.188
0.1795
0.18
0.1965
0.206
0.205
0.209
0.204
0.2115
0.2155
0.2135
0.203
0.1915
0.2005
0.2045
0.222
0.2145
0.214
0.205
0.212
0.224
0.199
0.1935
0.1985
0.188
0.1955
0.196
0.196
0.1985
0.195
0.194
0.183
0.1985
0.2055
0.1965
0.1715
0.178
0.175
0.188
0.1945
0.2025
0.2055
0.2
0.186
0.1965
0.1965
0.2115
0.214
0.208
0.2125
0.2015
0.204
0.1925
0.207
0.207
0.2115
0.215
0.1955
0.1905
0.1965
0.186
0.182
0.1715
0.1855
0.19
0.195
0.19
0.1995
0.2095
0.2235
0.2135
0.199
0.199
0.2
0.197
0.2045
0.1905
0.188
0.202
0.199
0.184
0.2015
0.192
0.188
0.1885
0.1985
0.2035
0.1965
0.18
0.1805
0.1935
0.194
0.185
0.195
0.1995
0.192
0.1935
0.2025
0.204
0.2055
0.2055
0.207
0.216
0.202
0.2145
0.2015
0.214
0.2075
0.194
0.184
0.189
0.203
0.207
0.211
0.2095
0.203
0.211
0.2135
0.2105
0.2015
0.2035
0.189
0.1925
0.213
0.225
0.211
0.2155
0.2045
0.203
0.2095
0.195
0.1915
0.181
0.204
0.204
0.1955
0.2045
0.202
0.1915
0.19
0.1985
0.178
0.1735
0.187
0.2045
0.2045
0.209
0.2115
0.201
0.1875
0.1945
0.191
0.1915
0.1995
0.1995
0.1985
0.1985
0.2005
0.211
0.212
0.191
0.189
0.195
0.1935
0.188
0.1995
0.193
0.214
0.2105
0.1985
0.196
0.1845
0.18
0.1815
0.1805
0.1815
0.1905
0.1905
0.188
0.1965
0.1975
0.1975
0.177
0.193
0.1955
0.2125
0.2175
0.2215
0.2115
0.2005
0.202
0.208
0.2145
0.215
0.2195
0.21
0.2115
0.2155
0.2115
0.2185
0.207
0.213
0.204
0.1945
0.1885
0.1845
0.201
0.2085
0.2035
0.211
0.214
0.1935
0.193
0.192
0.194
0.2095
0.1915
0.1765
0.183
0.205
0.203
0.212
0.208
0.211
0.204
0.201
0.2055
0.204
0.201
0.197
0.2005
0.1935
0.1825
0.183
0.176
0.183
0.208
0.1935
0.19
0.206
0.202
0.201
0.214
0.196
0.195
0.201
0.207
0.2005
0.2005
0.192
0.194
0.198
0.208
0.198
0.1925
0.197
0.199
0.1945
0.1995
0.1925
0.191
0.1965
0.2005
0.2015
0.213
0.19
0.2015
0.201
0.197
0.1905
0.199
0.205
0.211
0.1955
0.2055
0.196
0.18
0.1915
0.185
0.1915
0.201
0.21
0.1945
0.194
0.193
0.2115
0.209
0.204
0.223
0.2095
0.2035
0.195
0.19
0.1845
0.197
0.202
0.2055
0.217
0.2135
0.21
0.203
0.1925
0.1965
0.184
0.189
0.1895
0.1795
0.194
0.2055
0.2045
0.21
0.205
0.2015
0.198
0.206
0.198
0.221
0.232
0.232
0.2125
0.212
0.226
0.2155
0.199
0.195
0.2005
0.209
0.1955
0.192
0.181
0.1945
0.221
0.2155
0.1965
0.1895
0.2195
0.2255
0.209
0.215
0.23
0.218
0.214
0.2095
0.21
0.201
0.1905
0.1795
0.1755
0.1945
0.1805
0.192
0.2095
0.2165
0.203
0.2
0.2155
0.2035
0.2055
0.207
0.2075
0.1985
0.202
0.217
0.223
0.213
0.224
0.207
0.2045
0.19
0.2005
0.1995
0.2
0.198
0.2135
0.208
0.2105
0.2145
0.2175
0.209
0.1845
0.201
0.1955
0.2
0.207
0.207
0.2085
0.215
0.2
0.1905
0.2125
0.199
0.1955
0.189
0.2055
0.2055
0.2105
0.206
0.192
0.1805
0.191
0.1985
0.1995
0.1915
0.193
0.2065
0.202
0.205
0.193
0.198
0.2045
0.203
0.192
0.204
0.2045
0.205
0.217
0.2115
0.2235
0.2035
0.202
0.198
0.2065
0.2075
0.2185
0.205
0.199
0.213
0.2075
0.198
0.207
0.2085
0.201
0.194
0.191
0.2005
0.1855
0.206
0.1965
0.1975
0.191
0.1815
0.195
0.196
0.1985
0.1925
0.195
0.2065
0.203
0.212
0.2035
0.2135
0.21
0.189
0.1935
0.196
0.1965
0.201
0.196
0.1955
0.2015
0.1995
0.191
0.196
0.1935
0.1935
0.211
0.2105
0.2135
0.2245
0.207
0.206
0.193
0.1895
0.2015
0.1975
0.2065
0.2055
0.202
0.203
0.2145
0.2075
0.225
0.225
0.219
0.2045
0.202
0.1885
0.189
0.196
0.209
0.203
0.225
0.2065
0.2085
0.213
0.2105
0.2015
0.203
0.195
0.2025
0.197
0.191
0.192
0.1895
0.189
0.205
0.201
0.2055
0.221
0.2025
0.2035
0.2
0.1935
0.2025
0.206
0.2045
0.2055
0.1895
0.1695
0.175
0.197
0.199
0.1955
0.193
0.2165
0.2
0.197
0.1815
0.198
0.2
0.184
0.207
0.213
0.2055
0.2055
0.202
0.203
0.2045
0.2145
0.2075
0.208
0.1955
0.22
0.211
0.206
0.2085
0.209
0.2
0.207
0.193
0.1985
0.2015
0.2025
0.2
0.2045
0.2075
0.206
0.198
0.216
0.2055
0.1915
0.202
0.1895
0.191
0.1895
0.2095
0.2045
0.1975
0.206
0.1875
0.2
0.1995
0.191
0.1945
0.1895
0.1935
0.214
0.212
0.1995
0.2025
0.198
0.207
0.1945
0.211
0.199
0.2005
0.2125
0.213
0.215
0.217
0.2225
0.2215
0.2225
0.204
0.188
0.196
0.1975
0.1895
0.188
0.1835
0.1895
0.206
0.2025
0.219
0.2105
0.21
0.1925
0.1965
0.2055
0.1775
0.184
0.204
0.2035
0.195
0.187
