0.327
0.327
0.3275
0.3315
0.3385
0.3275
0.335
0.3395
0.3265
0.3365
0.3405
0.354
0.3305
0.3295
0.3365
0.3295
0.3305
0.3375
0.335
0.331
0.3275
0.3365
0.3325
0.344
0.3305
0.329
0.3335
0.327
0.3355
0.3305
0.33
0.3325
0.3325
0.3335
0.3305
0.337
0.329
0.3295
0.3235
0.329
0.339
0.3255
0.334
0.33
0.341
0.335
0.339
0.3285
0.3335
0.3345
0.334
0.341
0.339
0.3285
0.3305
0.333
0.336
0.34
0.3325
0.3395
0.3365
0.3345
0.336
0.3285
0.3255
0.343
0.3345
0.328
0.33
0.329
0.33
0.3295
0.334
0.337
0.3335
0.3355
0.3275
0.329
0.323
0.3255
0.337
0.33
0.336
0.33
0.3385
0.333
0.3345
0.343
0.338
0.3375
0.3315
0.335
0.3225
0.3315
0.33
0.3415
0.331
0.3315
0.3345
0.3355
0.3465
0.3335
0.329
0.3375
0.3365
0.3475
0.337
0.3345
0.334
0.3395
0.3395
0.3365
0.3305
0.3385
0.33
0.33
0.329
0.331
0.328
0.326
0.338
0.339
0.3365
0.335
0.3285
0.338
0.337
0.332
0.3325
0.33
0.3365
0.34
0.3335
0.3285
0.337
0.3365
0.336
0.327
0.3315
0.333
0.3385
0.341
0.336
0.3335
0.3365
0.321
0.3335
0.3335
0.332
0.3355
0.3375
0.3275
0.3325
0.33
0.3335
0.341
0.337
0.3395
0.339
0.327
0.3345
0.344
0.329
0.328
0.3315
0.332
0.3345
0.3265
0.3325
0.3395
0.334
0.3335
0.334
0.337
0.3255
0.3255
0.3285
0.3315
0.3275
0.324
0.337
0.333
0.346
0.3395
0.3275
0.3445
0.337
0.3335
0.3305
0.3315
0.333
0.335
0.327
0.335
0.3285
0.326
0.328
0.3375
0.337
0.325
0.3295
0.3395
0.333
0.339
0.329
0.3315
0.325
0.3355
0.3375
0.3285
0.335
0.3365
0.33
0.332
0.337
0.333
0.3255
0.329
0.326
0.332
0.328
0.338
0.332
0.33
0.3325
0.338
0.337
0.337
0.3305
0.3395
0.3335
0.3335
0.3415
0.331
0.336
0.332
0.325
0.3335
0.3305
0.333
0.3325
0.3385
0.3365
0.3345
0.333
0.3385
0.341
0.3305
0.3265
0.3285
0.3285
0.34
0.3355
0.3325
0.3365
0.3265
0.3375
0.3385
0.332
0.3265
0.3355
0.3345
0.3335
0.3445
0.335
0.3285
0.3355
0.339
0.335
0.3295
0.335
0.3295
0.3335
0.3345
0.328
0.334
0.3355
0.343
0.3375
0.3365
0.3425
0.336
0.3335
0.339
0.322
0.334
0.328
0.327
0.3225
0.336
0.319
0.3285
0.319
0.3255
0.333
0.3345
0.3285
0.331
0.347
0.3455
0.324
0.336
0.3275
0.34
0.3355
0.3335
0.343
0.333
0.321
0.3355
0.337
0.334
0.3255
0.328
0.331
0.337
0.337
0.3385
0.334
0.3445
0.326
0.338
0.3265
0.3355
0.3335
0.334
0.326
0.3315
0.329
0.331
0.3415
0.3395
0.342
0.3305
0.334
0.3345
0.3325
0.338
0.345
0.343
0.3325
0.3355
0.336
0.33
0.329
0.3295
0.332
0.329
0.324
0.334
0.334
0.329
0.3425
0.338
0.339
0.3355
0.329
0.3345
0.331
0.33
0.3335
0.331
0.3415
0.322
0.339
0.332
0.329
0.3345
0.338
0.342
0.3355
0.329
0.3315
0.3325
0.3245
0.3305
0.3315
0.3395
0.342
0.3325
0.338
0.3385
0.3395
0.335
0.329
0.3235
0.328
0.322
0.3275
0.3305
0.328
0.3355
0.342
0.3415
0.345
0.322
0.336
0.334
0.3315
0.327
0.3405
0.3385
0.33
0.3275
0.3355
0.337
0.3325
0.3285
0.338
0.3255
0.3345
0.3255
0.332
0.333
0.327
0.343
0.3265
0.3415
0.34
0.331
0.3275
0.334
0.331
0.33
0.3385
0.3365
0.3265
0.331
0.336
0.3435
0.328
0.3335
0.331
0.329
0.331
0.3285
0.329
0.3335
0.333
0.325
0.336
0.3375
0.333
0.3375
0.3325
0.3395
0.34
0.3325
0.3355
0.3305
0.3375
0.329
0.335
0.338
0.3365
0.334
0.3405
0.335
0.3345
0.3245
0.3305
0.34
0.3405
0.327
0.333
0.336
0.3305
0.3205
0.324
0.3215
0.3255
0.321
0.328
0.3335
0.3425
0.33
0.342
0.337
0.328
0.3245
0.331
0.3355
0.33
0.3305
0.334
0.337
0.331
0.3295
0.3335
0.3445
0.3365
0.3335
0.334
0.3455
0.337
0.3415
0.336
0.3315
0.343
0.3375
0.34
0.334
0.334
0.331
0.327
0.332
0.3275
0.3345
0.3425
0.337
0.3305
0.337
0.3355
0.331
0.3335
0.3265
0.336
0.3375
0.3215
0.327
0.331
0.328
0.3255
0.325
0.3245
0.3345
0.338
0.3255
0.328
0.332
0.3395
0.33
0.336
0.336
0.3375
0.3315
0.3375
0.331
0.3415
0.3405
0.3355
0.33
0.334
0.329
0.3345
0.327
0.34
0.339
0.3375
0.3365
0.341
0.335
0.34
0.3355
0.3385
0.333
0.336
0.339
0.335
0.335
0.3325
0.3295
0.336
0.325
0.3405
0.3455
0.324
0.329
0.3315
0.3265
0.3385
0.325
0.34
0.3365
0.3215
0.341
0.3385
0.343
0.338
0.336
0.3285
0.3335
0.331
0.335
0.331
0.33
0.329
0.316
0.3325
0.329
0.341
0.3335
0.3385
0.3305
0.33
0.3375
0.327
0.3385
0.335
0.337
0.3395
0.344
0.338
0.341
0.3395
0.336
0.333
0.33
0.335
0.332
0.346
0.331
0.3255
0.328
0.3335
0.335
0.3305
0.3325
0.324
0.3305
0.335
0.3365
0.321
0.325
0.3405
0.336
0.337
0.335
0.3325
0.3215
0.343
0.3355
0.3355
0.3265
0.329
0.325
0.3335
0.315
0.3355
0.334
0.338
0.3435
0.3325
0.3325
0.333
0.34
0.336
0.337
0.336
0.3345
0.3275
0.3415
0.34
0.334
0.33
0.333
0.331
0.334
0.338
0.3315
0.3335
0.332
0.3355
0.3335
0.341
0.333
0.3355
0.3325
0.3365
0.3345
0.324
0.339
0.334
0.326
0.335
0.335
0.3405
0.3455
0.344
0.3405
0.338
0.337
0.329
0.3355
0.3435
0.346
0.3255
0.335
0.3375
0.339
0.3335
0.3425
0.339
0.3315
0.339
0.332
0.3355
0.321
0.329
0.3265
0.3335
0.33
0.3325
0.332
0.3365
0.332
0.34
0.332
0.333
0.3335
0.345
0.332
0.332
0.3395
0.3375
0.3315
0.3295
0.324
0.327
0.332
0.334
0.3235
0.328
0.34
0.331
0.3325
0.3385
0.336
0.341
0.3405
0.3375
0.3315
0.3385
0.328
0.3195
0.336
0.3455
0.3395
0.331
0.336
0.344
0.339
0.324
0.342
0.3365
0.338
0.332
0.3305
0.332
0.34
0.342
0.3445
0.3335
0.337
0.329
0.341
0.338
0.3385
0.344
0.331
0.3305
0.3335
0.3315
0.3345
0.333
0.3235
0.338
0.3415
0.3225
0.336
0.329
0.3405
0.336
0.324
0.33
0.336
0.3425
0.33
0.335
0.341
0.3295
0.33
0.3385
0.33
0.327
0.329
0.3295
0.3415
0.334
0.3315
0.3255
0.332
0.337
0.3375
0.337
0.332
0.331
0.3375
0.331
0.3365
0.339
0.3355
0.339
0.33
0.3335
0.3295
0.331
0.333
0.3405
0.339
0.3325
0.33
0.324
0.328
0.3275
0.3265
0.3295
0.332
0.332
0.3345
0.335
0.337
0.338
0.3365
0.3345
0.336
0.3265
0.3265
0.327
0.3355
0.326
0.342
0.3315
0.333
0.329
0.3255
0.3315
0.33
0.336
0.335
0.343
0.3355
0.3355
0.3255
0.324
0.33
0.3345
0.3345
0.3255
0.3265
0.3285
0.334
0.3265
0.338
0.336
0.3295
0.339
0.3245
0.329
0.341
0.337
0.329
0.3305
0.3365
0.3305
0.332
0.3305
0.3335
0.3345
0.329
0.339
0.3395
0.3305
0.3335
0.3395
0.342
0.337
0.3335
0.3395
0.335
0.3295
0.326
0.337
0.3325
0.337
0.3395
0.3375
0.338
0.338
0.3335
0.337
0.3385
0.3455
0.333
0.3355
0.3285
0.336
0.346
0.3375
0.3365
0.3215
0.3305
0.324
0.334
0.3395
0.329
0.3315
0.3395
0.333
0.339
0.339
0.3385
0.3355
0.3315
0.3445
0.3305
0.3365
0.3385
0.3425
0.3435
0.3315
0.332
0.338
0.3385
0.3335
0.336
0.329
0.331
0.331
0.334
0.3375
0.335
0.3225
0.333
0.322
0.3385
0.336
0.333
0.3335
0.334
0.333
0.3255
0.339
0.3375
0.3315
0.33
0.3285
0.334
0.3315
0.339
0.3435
0.332
0.326
0.3255
0.3275
0.3295
0.332
0.334
0.328
0.3325
0.332
0.336
0.332
0.3285
0.3315
0.3315
0.3305
0.3365
0.335
0.332
0.3385
0.335
0.331
0.3245
0.335
0.327
0.333
0.3295
0.329
0.3385
0.3435
0.33
0.334
0.33
0.3325
0.335
0.334
0.3325
0.3335
0.346
0.3255
0.337
0.3375
0.3385
0.33
0.3415
0.3335
0.328
0.3345
0.333
