0.063
0.077
0.0745
0.0655
0.0525
0.0495
0.059
0.0635
0.061
0.06
0.0515
0.0525
0.061
0.065
0.0565
0.054
0.049
0.0575
0.056
0.059
0.0545
0.0555
0.062
0.0685
0.076
0.069
0.068
0.072
0.078
0.079
0.089
0.089
0.104
0.092
0.076
0.079
0.0745
0.0725
0.075
0.0795
0.083
0.077
0.0805
0.084
0.0795
0.0825
0.0865
0.081
0.074
0.073
0.079
0.083
0.0745
0.072
0.0675
0.0645
0.074
0.0725
0.0775
0.0715
0.0735
0.0675
0.069
0.0515
0.047
0.0475
0.0355
0.039
0.0415
0.0435
0.0425
0.0445
0.048
0.05
0.0625
0.0695
0.068
0.061
0.0695
0.063
0.064
0.0625
0.0705
0.0685
0.061
0.059
0.051
0.0485
0.0555
0.068
0.0755
0.069
0.064
0.0605
0.064
0.0685
0.0655
0.07
0.0855
0.09
0.0865
0.0725
0.0855
0.0865
0.087
0.0925
0.0985
0.093
0.0885
0.0825
0.098
0.093
0.0945
0.096
0.096
0.105
0.116
0.1155
0.1065
0.0915
0.1005
0.093
0.0785
0.074
0.0645
0.0555
0.0435
0.0385
0.0425
0.0475
0.046
0.0455
0.047
0.052
0.041
0.0435
0.0455
0.0525
0.0515
0.0495
0.0625
0.059
0.062
0.067
0.0585
0.0695
0.0615
0.048
0.0455
0.047
0.038
0.05
0.06
0.0615
0.0685
0.081
0.0945
0.0885
0.082
0.074
0.0625
0.0655
0.0665
0.0545
0.051
0.0485
0.0385
0.0385
0.0445
0.0425
0.0525
0.05
0.05
0.051
0.0515
0.0495
0.0435
0.0395
0.0355
0.04
0.042
0.036
0.0355
0.039
0.0315
0.027
0.032
0.039
0.035
0.042
0.0515
0.0505
0.0495
0.0615
0.0765
0.0805
0.075
0.077
0.0745
0.0835
0.085
0.0775
0.0745
0.093
0.094
0.097
0.091
0.091
0.089
0.09
0.0975
0.084
0.096
0.0945
0.0785
0.0865
0.078
0.0735
0.0835
0.071
0.0665
0.0615
0.0495
0.0365
0.0385
0.0335
0.0235
0.0195
0.0265
0.0235
0.027
0.022
0.0245
0.0225
0.02
0.02
0.027
0.0295
0.0275
0.0275
0.035
0.022
0.0275
0.039
0.0495
0.058
0.0605
0.0585
0.0545
0.0625
0.0585
0.079
0.084
0.069
0.069
0.0725
0.0695
0.066
0.059
0.057
0.064
0.072
0.07
0.066
0.0565
0.057
0.052
0.045
0.043
0.041
0.0485
0.046
0.058
0.057
0.057
0.061
0.058
0.0605
0.0555
0.0525
0.058
0.045
0.041
0.0485
0.0505
0.0465
0.047
0.054
0.0545
0.049
0.0515
0.05
0.053
0.0515
0.0515
0.0545
0.058
0.0495
0.0525
0.054
0.0445
0.0335
0.038
0.0475
0.042
0.049
0.0465
0.049
0.052
0.052
0.05
0.054
0.055
0.066
0.0675
0.065
0.07
0.072
0.077
0.0715
0.066
0.069
0.0665
0.0705
0.0795
0.074
0.076
0.0765
0.0725
0.079
0.0765
0.0815
0.08
0.081
0.071
0.058
0.0715
0.0695
0.0635
0.06
0.055
0.0475
0.0475
0.0455
0.048
0.048
0.05
0.051
0.0585
0.0585
0.0635
0.0685
0.0665
0.0555
0.056
0.054
0.058
0.0645
0.0695
0.0645
0.0565
0.062
0.0715
0.0635
0.0775
0.0725
0.065
0.0625
0.0585
0.0695
0.071
0.0705
0.0665
0.07
0.07
0.0555
0.062
0.082
0.078
0.0705
0.0715
0.0725
0.072
0.0725
0.073
0.0615
0.0635
0.0555
0.06
0.064
0.0555
0.06
0.062
0.0675
0.064
0.0705
0.0725
0.0735
0.0615
0.0625
0.064
0.062
0.055
0.058
0.0585
0.0535
0.0605
0.065
0.0645
0.0715
0.0585
0.0625
0.0555
0.055
0.0625
0.0695
0.0725
0.0795
0.075
0.072
0.066
0.0725
0.079
0.081
0.0785
0.079
0.077
0.091
0.0865
0.076
0.076
0.0695
0.0715
0.063
0.072
0.068
0.073
0.0765
0.0745
0.082
0.0935
0.095
0.104
0.115
0.104
0.1075
0.1095
0.107
0.1105
0.0965
0.1045
0.101
0.1065
0.117
0.0935
0.088
0.075
0.074
0.075
0.0655
0.0775
0.0665
0.0565
0.0645
0.059
0.076
0.071
0.0685
0.068
0.06
0.0605
0.061
0.0725
0.068
0.0715
0.073
0.074
0.0825
0.074
0.0725
0.079
0.088
0.0865
0.099
0.094
0.0995
0.1045
0.104
0.0915
0.0975
0.075
0.064
0.0715
0.0745
0.084
0.1035
0.0955
0.092
0.0865
0.081
0.083
0.082
0.079
0.0825
0.082
0.0765
0.083
0.0885
0.108
0.1115
0.1015
0.0855
0.078
0.0755
0.0805
0.0865
0.0795
0.065
0.064
0.0635
0.0605
0.0605
0.0655
0.0855
0.0665
0.072
0.077
0.083
0.076
0.076
0.0675
0.0625
0.065
0.0595
0.059
0.057
0.0535
0.05
0.0485
0.0535
0.061
0.0645
0.0665
0.0485
0.05
0.052
0.0355
0.0275
0.028
0.034
0.041
0.0495
0.051
0.057
0.0535
0.06
0.075
0.086
0.078
0.0825
0.0865
0.08
0.0885
0.078
0.0785
0.087
0.0805
0.081
0.082
0.086
0.0835
0.0825
0.0675
0.066
0.059
0.0705
0.074
0.071
0.087
0.0755
0.065
0.077
0.086
0.092
0.0895
0.0915
0.0975
0.083
0.0745
0.076
0.08
0.077
0.074
0.068
0.056
0.0665
0.068
0.0825
0.083
0.0875
0.0925
0.071
0.068
0.0685
0.0725
0.0845
0.0835
0.103
0.0975
0.103
0.0955
0.0965
0.108
0.11
0.117
0.116
0.118
0.115
0.1205
0.105
0.0945
0.0985
0.097
0.103
0.0985
0.106
0.0915
0.091
0.0985
0.088
0.0835
0.0835
0.0705
0.066
0.0625
0.0605
0.063
0.07
0.0595
0.0525
0.0645
0.054
0.063
0.063
0.079
0.0755
0.069
0.0795
0.0735
0.068
0.0665
0.0715
0.074
0.0745
0.078
0.0775
0.0765
0.0705
0.0715
0.064
0.0645
0.0595
0.0615
0.0675
0.068
0.059
0.0565
0.0545
0.0635
0.066
0.0675
0.07
0.0755
0.077
0.0725
0.0675
0.0615
0.0525
0.06
0.0635
0.0695
0.065
0.0565
0.0545
0.048
0.045
0.0475
0.052
0.053
0.057
0.066
0.0845
0.092
0.1025
0.0985
0.086
0.08
0.0885
0.0905
0.0965
0.0905
0.081
0.0845
0.073
0.0765
0.073
0.077
0.0775
0.074
0.0675
0.0585
0.0745
0.076
0.07
0.07
0.056
0.0555
0.0485
0.051
0.053
0.0595
0.053
0.043
0.0375
0.048
0.047
0.049
0.0385
0.0365
0.0285
0.034
0.031
0.035
0.0315
0.035
0.0385
0.0395
0.0425
0.047
0.059
0.0435
0.042
0.041
0.043
0.047
0.0565
0.05
0.049
0.046
0.041
0.041
0.0445
0.042
0.034
0.036
0.0365
0.039
0.051
0.0445
0.0405
0.042
0.0335
0.0355
0.0335
0.036
0.035
0.035
0.044
0.055
0.05
0.0645
0.0635
0.0635
0.0815
0.0775
0.079
0.0815
0.0755
0.06
0.0635
0.062
0.0655
0.068
0.057
0.057
0.0615
0.0705
0.0845
0.0785
0.0775
0.06
0.053
0.047
0.049
0.0515
0.0575
0.0615
0.0595
0.061
0.0675
0.07
0.0675
0.0795
0.0765
0.089
0.0925
0.09
0.089
0.078
0.0745
0.066
0.066
0.068
0.07
0.07
0.084
0.083
0.0855
0.102
0.0965
0.087
0.0935
0.097
0.0975
0.0915
0.0825
0.081
0.09
0.0945
0.0885
0.101
0.093
0.087
0.082
0.0805
0.0925
0.0945
0.0905
0.095
0.1
0.094
0.0745
0.0845
0.085
0.0865
0.0775
0.08
0.076
0.063
0.0735
0.0805
0.086
0.0785
0.069
0.074
0.0765
0.064
0.063
0.055
0.0675
0.0645
0.0645
0.066
0.069
0.076
0.084
0.0905
0.087
0.0875
0.09
0.089
0.085
0.0755
0.071
0.0905
0.0785
0.078
0.093
0.087
0.083
0.0895
0.1035
0.11
0.1005
0.0845
0.0765
0.072
0.072
0.088
0.0955
0.099
0.0925
0.098
0.099
0.088
0.0655
0.062
0.068
0.0765
0.0685
0.0675
0.062
0.0535
0.0465
0.053
0.05
0.054
0.052
0.0535
0.06
0.0655
0.0685
0.0695
0.065
0.067
0.0545
0.0625
0.057
0.0685
0.067
0.0695
0.0755
0.0795
0.0585
0.0575
0.066
0.0685
0.057
0.0545
0.067
0.0795
0.0675
0.0715
0.075
0.0715
0.0605
0.0525
0.065
0.0725
0.082
0.081
0.0785
0.0775
0.0855
0.087
0.0805
0.0795
0.0825
0.093
0.0955
0.0965
0.1005
0.102
0.0905
0.094
0.085
0.082
0.0955
0.102
0.0885
0.096
0.101
0.0945
0.091
0.087
0.092
0.089
0.0885
0.094
0.089
0.076
0.073
0.082
0.084
0.0835
0.0695
0.0715
0.068
0.0745
0.072
0.088
0.086
0.0925
0.0835
0.0755
0.077
0.083
0.0775
0.066
0.0715
0.073
0.069
0.07
0.0745
0.08
0.0665
0.0565
0.0635
0.062
0.0655
