0.065
0.0585
0.061
0.069
0.055
0.0525
0.047
0.053
0.0585
0.069
0.065
0.0785
0.07
0.06
0.0495
0.0475
0.047
0.0425
0.035
0.037
0.034
0.028
0.0305
0.04
0.053
0.0555
0.05
0.0615
0.0675
0.071
0.076
0.0685
0.0735
0.087
0.09
0.074
0.06
0.0795
0.076
0.081
0.0725
0.0765
0.0875
0.0835
0.088
0.0795
0.087
0.089
0.091
0.0925
0.0965
0.0885
0.0985
0.0955
0.093
0.0945
0.1075
0.0935
0.088
0.08
0.0795
0.0825
0.091
0.068
0.078
0.0705
0.0805
0.0745
0.078
0.0725
0.071
0.066
0.064
0.0545
0.069
0.0595
0.0665
0.0685
0.0685
0.067
0.0685
0.0725
0.066
0.0575
0.0535
0.058
0.051
0.056
0.065
0.0685
0.065
0.0665
0.0675
0.0675
0.073
0.0685
0.0695
0.067
0.074
0.074
0.062
0.071
0.0825
0.0795
0.0795
0.0725
0.0715
0.0705
0.074
0.0635
0.0455
0.0635
0.0685
0.0715
0.0855
0.081
0.0845
0.09
0.0835
0.0895
0.069
0.086
0.077
0.069
0.073
0.066
0.0615
0.054
0.0585
0.0555
0.05
0.063
0.0675
0.059
0.065
0.064
0.0615
0.0675
0.068
0.0565
0.067
0.059
0.0665
0.063
0.081
0.0805
0.075
0.0815
0.099
0.099
0.095
0.0805
0.093
0.0865
0.085
0.078
0.0795
0.068
0.0795
0.0735
0.0685
0.079
0.0875
0.088
0.0885
0.08
0.0725
0.0615
0.0505
0.0645
0.0685
0.066
0.067
0.074
0.0665
0.054
0.0545
0.0535
0.0555
0.057
0.061
0.0635
0.073
0.071
0.08
0.0745
0.0825
0.0895
0.0895
0.0825
0.077
0.0805
0.076
0.0745
0.0835
0.074
0.05
0.04
0.044
0.046
0.049
0.0485
0.0555
0.069
0.064
0.0805
0.077
0.076
0.065
0.064
0.076
0.089
0.0835
0.082
0.088
0.097
0.086
0.085
0.0835
0.089
0.094
0.0915
0.084
0.089
0.095
0.0905
0.0865
0.083
0.0805
0.087
0.0945
0.0815
0.0775
0.071
0.0865
0.087
0.0855
0.088
0.0875
0.09
0.0695
0.077
0.077
0.076
0.0805
0.0685
0.064
0.069
0.0745
0.07
0.063
0.056
0.0575
0.054
0.055
0.0505
0.046
0.05
0.0475
0.05
0.0565
0.0625
0.065
0.062
0.0675
0.078
0.077
0.0805
0.0905
0.0775
0.075
0.0815
0.07
0.0625
0.0745
0.078
0.078
0.076
0.066
0.08
0.069
0.0785
0.073
0.074
0.074
0.067
0.0705
0.072
0.072
0.078
0.0845
0.095
0.101
0.0965
0.0995
0.1105
0.095
0.103
0.1005
0.0965
0.0965
0.091
0.093
0.086
0.081
0.0965
0.09
0.08
0.065
0.058
0.0545
0.056
0.064
0.065
0.0565
0.0485
0.0525
0.0685
0.0745
0.08
0.072
0.066
0.0695
0.0705
0.0735
0.069
0.0685
0.0585
0.054
0.0605
0.054
0.066
0.074
0.0665
0.0525
0.059
0.0595
0.054
0.059
0.061
0.0685
0.051
0.0485
0.05
0.0475
0.048
0.055
0.0595
0.056
0.0575
0.0595
0.0765
0.073
0.072
0.0695
0.0705
0.078
0.076
0.076
0.0815
0.0845
0.069
0.0775
0.0815
0.0775
0.075
0.071
0.0745
0.0555
0.058
0.051
0.0525
0.071
0.074
0.058
0.0615
0.06
0.0585
0.0715
0.0835
0.08
0.0865
0.0795
0.094
0.0925
0.0945
0.0985
0.098
0.0935
0.083
0.081
0.0925
0.081
0.0805
0.081
0.0775
0.0715
0.084
0.0865
0.087
0.073
0.073
0.063
0.062
0.061
0.054
0.0575
0.0425
0.053
0.0515
0.0535
0.059
0.0605
0.0625
0.0585
0.069
0.076
0.07
0.0645
0.0865
0.0865
0.08
0.0615
0.0585
0.071
0.0615
0.062
0.0485
0.038
0.0525
0.056
0.0555
0.06
0.0575
0.067
0.076
0.0755
0.0745
0.0665
0.08
0.079
0.0755
0.0635
0.064
0.056
0.0585
0.0715
0.0665
0.069
0.0685
0.068
0.072
0.0685
0.065
0.069
0.0695
0.078
0.081
0.0795
0.072
0.079
0.0555
0.0645
0.061
0.0615
0.0665
0.065
0.071
0.059
0.0555
0.055
0.066
0.072
0.0725
0.061
0.066
0.0665
0.07
0.0775
0.068
0.078
0.075
0.072
0.079
0.0805
0.091
0.098
0.101
0.114
0.114
0.117
0.1195
0.1135
0.106
0.1
0.0915
0.094
0.0985
0.108
0.09
0.0835
0.077
0.088
0.0815
0.091
0.086
0.088
0.081
0.084
0.0775
0.0745
0.0745
0.074
0.066
0.075
0.084
0.0755
0.087
0.0835
0.0965
0.0905
0.098
0.097
0.0795
0.074
0.0685
0.0725
0.0765
0.083
0.0675
0.0575
0.057
0.058
0.0725
0.0715
0.0635
0.0655
0.0515
0.04
0.0485
0.059
0.0555
0.0575
0.0565
0.0615
0.066
0.065
0.057
0.0595
0.05
0.0475
0.0585
0.074
0.081
0.0815
0.071
0.0705
0.071
0.0655
0.074
0.0855
0.085
0.079
0.075
0.0815
0.06
0.063
0.0655
0.065
0.0755
0.083
0.08
0.077
0.0725
0.0685
0.0765
0.0885
0.0905
0.0835
0.0805
0.0785
0.073
0.074
0.077
0.079
0.094
0.0875
0.09
0.0735
0.069
0.055
0.0615
0.0705
0.07
0.075
0.0845
0.0695
0.0715
0.071
0.0835
0.0835
0.078
0.0765
0.0815
0.0745
0.085
0.0795
0.0735
0.0675
0.0735
0.08
0.083
0.069
0.06
0.065
0.0585
0.0615
0.057
0.0665
0.0635
0.067
0.078
0.0755
0.059
0.073
0.066
0.0685
0.0745
0.082
0.086
0.0835
0.085
0.073
0.0755
0.0785
0.0905
0.079
0.0715
0.073
0.0785
0.0835
0.085
0.081
0.073
0.061
0.0595
0.056
0.059
0.0655
0.0725
0.062
0.0675
0.0755
0.0715
0.074
0.088
0.0795
0.07
0.065
0.08
0.081
0.068
0.0705
0.08
0.079
0.082
0.076
0.0665
0.073
0.0805
0.061
0.07
0.0865
0.076
0.0815
0.0835
0.087
0.0775
0.076
0.074
0.0695
0.06
0.054
0.061
0.0695
0.073
0.071
0.07
0.067
0.0705
0.0605
0.073
0.0795
0.077
0.0705
0.0555
0.0655
0.0655
0.064
0.064
0.053
0.0515
0.0425
0.0415
0.0355
0.0385
0.0385
0.042
0.059
0.0515
0.0445
0.042
0.0445
0.048
0.066
0.0715
0.066
0.075
0.08
0.0715
0.072
0.073
0.07
0.076
0.0725
0.0655
0.073
0.0775
0.0825
0.084
0.08
0.09
0.092
0.096
0.089
0.0825
0.097
0.0835
0.0865
0.0775
0.0705
0.0755
0.0745
0.078
0.0695
0.075
0.0785
0.0715
0.0665
0.062
0.066
0.072
0.067
0.067
0.0465
0.045
0.0615
0.0615
0.0635
0.052
0.06
0.058
0.062
0.056
0.051
0.0465
0.0595
0.0665
0.0625
0.0645
0.0565
0.0595
0.065
0.0585
0.05
0.0355
0.044
0.037
0.039
0.042
0.045
0.046
0.0445
0.044
0.0545
0.0425
0.0505
0.05
0.0445
0.049
0.0435
0.0375
0.041
0.0385
0.0345
0.041
0.0355
0.037
0.0415
0.0345
0.029
0.022
0.02
0.015
0.0145
0.0135
0.0195
0.015
0.0095
0.0125
0.0225
0.024
0.0185
0.0215
0.023
0.0345
0.035
0.037
0.039
0.037
0.033
0.025
0.025
0.0235
0.023
0.029
0.027
0.03
0.032
0.031
0.0385
0.032
0.0455
0.053
0.059
0.0485
0.0445
0.0475
0.0545
0.0545
0.0685
0.0645
0.071
0.0655
0.058
0.0535
0.0565
0.0615
0.059
0.0615
0.0555
0.0545
0.0475
0.052
0.0515
0.052
0.05
0.0445
0.054
0.053
0.0505
0.047
0.0445
0.0465
0.049
0.043
0.041
0.028
0.0325
0.034
0.0355
0.0365
0.043
0.054
0.0525
0.074
0.0725
0.0585
0.058
0.059
0.0645
0.07
0.0715
0.085
0.077
0.075
0.0775
0.0845
0.079
0.0835
0.0855
0.0775
0.0695
0.064
0.0595
0.069
0.0685
0.0655
0.073
0.0675
0.0685
0.062
0.0555
0.0665
0.0845
0.0985
0.0825
0.09
0.097
0.089
0.083
0.0845
0.0895
0.0875
0.1
0.0915
0.1
0.101
0.086
0.0725
0.07
0.071
0.0715
0.064
0.0545
0.049
0.0565
0.067
0.0645
0.0765
0.074
0.085
0.0825
0.0715
0.0685
0.076
0.077
0.074
0.071
0.077
0.0855
0.0805
0.0765
0.06
0.056
0.0445
0.055
0.0485
0.044
0.05
0.062
0.069
0.07
0.0705
0.0645
0.0705
0.078
0.086
0.0795
0.0915
0.099
0.085
0.074
0.0695
0.0735
0.0735
0.0755
0.0595
0.048
0.0515
0.0695
0.0735
0.066
0.066
0.053
0.056
0.062
0.0685
0.0685
0.07
0.079
0.0875
0.08
0.0665
0.067
0.072
0.0715
0.0785
0.0795
0.0795
0.0745
0.077
0.0645
0.0605
0.0525
0.0605
0.058
0.06
0.054
0.0655
