0.1075
0.107
0.1015
0.117
0.121
0.133
0.1475
0.142
0.1295
0.1345
0.1405
0.1475
0.1475
0.1455
0.1475
0.1415
0.1355
0.1425
0.1415
0.1325
0.1535
0.1465
0.145
0.1365
0.139
0.147
0.1585
0.17
0.174
0.1635
0.1455
0.146
0.146
0.1395
0.1445
0.1265
0.1155
0.1075
0.1155
0.108
0.108
0.1195
0.1205
0.1205
0.129
0.11
0.0975
0.0835
0.0905
0.094
0.079
0.0865
0.0955
0.101
0.117
0.111
0.1175
0.124
0.126
0.118
0.1155
0.129
0.1245
0.1285
0.147
0.1315
0.143
0.129
0.121
0.1305
0.14
0.119
0.1175
0.1225
0.1135
0.1065
0.1075
0.13
0.1255
0.112
0.1315
0.131
0.125
0.109
0.1045
0.1135
0.1395
0.125
0.1255
0.119
0.1245
0.1265
0.1345
0.1365
0.1475
0.137
0.136
0.1355
0.1335
0.1335
0.1245
0.1075
0.121
0.1225
0.132
0.1415
0.1375
0.1275
0.1345
0.135
0.1195
0.11
0.1145
0.1125
0.1235
0.144
0.1325
0.1315
0.1295
0.1415
0.1325
0.1125
0.1215
0.107
0.1175
0.126
0.135
0.119
0.1115
0.108
0.1055
0.103
0.104
0.1095
0.104
0.12
0.1105
0.104
0.1045
0.1155
0.119
0.126
0.1185
0.131
0.1335
0.1365
0.1205
0.137
0.13
0.133
0.1235
0.1235
0.1265
0.126
0.1245
0.125
0.1365
0.1375
0.1325
0.137
0.134
0.1325
0.132
0.126
0.121
0.134
0.135
0.1455
0.146
0.158
0.1545
0.149
0.1375
0.1325
0.1365
0.1325
0.127
0.1225
0.127
0.1345
0.1275
0.131
0.119
0.1165
0.1145
0.106
0.12
0.1225
0.121
0.118
0.1125
0.12
0.127
0.138
0.139
0.128
0.14
0.1415
0.1335
0.133
0.1405
0.15
0.128
0.1325
0.133
0.1315
0.1
0.103
0.09
0.1085
0.114
0.109
0.102
0.117
0.1225
0.12
0.123
0.139
0.129
0.1255
0.109
0.095
0.105
0.106
0.1165
0.13
0.146
0.1355
0.132
0.129
0.1445
0.1355
0.13
0.113
0.106
0.1165
0.129
0.124
0.121
0.1185
0.1305
0.1275
0.1355
0.129
0.1145
0.1155
0.122
0.1205
0.1415
0.1425
0.151
0.138
0.132
0.1345
0.1285
0.12
0.1345
0.1455
0.124
0.129
0.134
0.136
0.1385
0.127
0.134
0.1505
0.152
0.1425
0.1325
0.121
0.1385
0.1365
0.132
0.1245
0.118
0.124
0.1155
0.119
0.1125
0.1035
0.1145
0.115
0.109
0.122
0.1425
0.142
0.1385
0.13
0.1245
0.1165
0.1305
0.133
0.1565
0.157
0.1475
0.1595
0.1365
0.141
0.1325
0.148
0.159
0.1525
0.156
0.1545
0.1565
0.1585
0.1495
0.16
0.163
0.153
0.134
0.1235
0.13
0.1305
0.1265
0.12
0.1335
0.1315
0.1315
0.123
0.1315
0.131
0.131
0.1385
0.1265
0.119
0.1325
0.123
0.128
0.1265
0.1075
0.1185
0.1235
0.1285
0.1165
0.129
0.1435
0.131
0.135
0.1235
0.1305
0.128
0.131
0.1285
0.12
0.125
0.1385
0.1385
0.137
0.1435
0.147
0.1305
0.13
0.137
0.134
0.1475
0.152
0.1435
0.14
0.138
0.137
0.1435
0.145
0.129
0.131
0.1295
0.1175
0.12
0.1065
0.1075
0.109
0.1145
0.1275
0.135
0.124
0.1295
0.1265
0.1265
0.113
0.112
0.123
0.122
0.1345
0.1235
0.132
0.1355
0.1455
0.14
0.1325
0.1375
0.143
0.143
0.135
0.125
0.1235
0.127
0.112
0.103
0.107
0.1115
0.108
0.109
0.1075
0.117
0.122
0.124
0.1375
0.138
0.1435
0.1425
0.1325
0.1445
0.133
0.1245
0.123
0.121
0.128
0.122
0.1135
0.115
0.1275
0.1335
0.1325
0.1225
0.1235
0.11
0.138
0.132
0.14
0.1375
0.146
0.131
0.1385
0.139
0.151
0.1495
0.143
0.1435
0.131
0.1265
0.1235
0.127
0.1225
0.125
0.1205
0.128
0.118
0.114
0.119
0.1225
0.1205
0.1235
0.125
0.119
0.125
0.1315
0.1195
0.1235
0.1195
0.1375
0.12
0.115
0.112
0.1175
0.112
0.1115
0.112
0.122
0.1315
0.1185
0.1245
0.1195
0.1235
0.121
0.1205
0.1095
0.1295
0.1365
0.151
0.1425
0.141
0.139
0.139
0.1255
0.128
0.128
0.1235
0.1255
0.11
0.096
0.1145
0.1135
0.1135
0.126
0.117
0.1155
0.1165
0.1085
0.1005
0.104
0.1065
0.1225
0.1275
0.1345
0.1305
0.1365
0.137
0.134
0.1425
0.134
0.133
0.123
0.1275
0.127
0.132
0.1325
0.1425
0.135
0.122
0.139
0.1375
0.136
0.145
0.133
0.1355
0.1255
0.1135
0.1165
0.1185
0.12
0.1135
0.1265
0.123
0.124
0.121
0.119
0.1285
0.125
0.1245
0.1185
0.1145
0.106
0.112
0.107
0.102
0.109
0.105
0.105
0.097
0.1095
0.1175
0.121
0.116
0.1225
0.145
0.1535
0.1495
0.12
0.1155
0.1295
0.1195
0.1285
0.122
0.126
0.1175
0.1015
0.094
0.0935
0.104
0.1095
0.1065
0.1125
0.1265
0.135
0.1215
0.136
0.132
0.1175
0.1155
0.121
0.115
0.1245
0.124
0.1395
0.1415
0.1525
0.1585
0.145
0.154
0.144
0.132
0.1495
0.1285
0.122
0.12
0.128
0.126
0.1255
0.1285
0.1335
0.138
0.131
0.15
0.147
0.152
0.145
0.1425
0.1315
0.1295
0.1345
0.1245
0.1175
0.112
0.12
0.1245
0.1365
0.126
0.126
0.126
0.123
0.1225
0.111
0.105
0.0985
0.107
0.115
0.116
0.1215
0.127
0.12
0.114
0.114
0.122
0.1335
0.128
0.1165
0.1105
0.11
0.1235
0.139
0.1365
0.1265
0.142
0.158
0.1565
0.1485
0.1525
0.142
0.131
0.13
0.1375
0.149
0.139
0.1255
0.123
0.1405
0.1445
0.152
0.143
0.1415
0.1295
0.1265
0.1345
0.1275
0.1225
0.139
0.122
0.13
0.125
0.114
0.124
0.136
0.15
0.153
0.134
0.1425
0.142
0.144
0.1325
0.135
0.1375
0.1245
0.1095
0.1235
0.126
0.124
0.133
0.144
0.1375
0.144
0.1375
0.133
0.1225
0.117
0.1085
0.118
0.122
0.1245
0.126
0.1155
0.117
0.13
0.1375
0.139
0.139
0.138
0.123
0.125
0.1115
0.116
0.1225
0.114
0.112
0.1235
0.1285
0.117
0.11
0.1115
0.127
0.135
0.124
0.135
0.131
0.142
0.124
0.137
0.125
0.1255
0.135
0.141
0.144
0.1365
0.125
0.1205
0.1185
0.117
0.12
0.133
0.1315
0.136
0.1435
0.1535
0.15
0.149
0.148
0.1385
0.1385
0.1235
0.119
0.114
0.1275
0.1175
0.114
0.121
0.129
0.116
0.1175
0.121
0.125
0.124
0.1275
0.1125
0.109
0.1175
0.1125
0.1255
0.137
0.126
0.126
0.1225
0.1225
0.128
0.124
0.132
0.119
0.1295
0.1145
0.111
0.1075
0.097
0.117
0.123
0.111
0.1205
0.1195
0.127
0.127
0.122
0.1205
0.1155
0.1175
0.129
0.12
0.1485
0.1395
0.1465
0.128
0.126
0.14
0.1485
0.145
0.1405
0.1405
0.1315
0.134
0.1225
0.1345
0.111
0.104
0.1115
0.107
0.1235
0.134
0.1205
0.1135
0.125
0.142
0.147
0.149
0.1425
0.144
0.1355
0.139
0.1315
0.13
0.1335
0.1375
0.145
0.1345
0.146
0.1375
0.1515
0.1405
0.1445
0.1335
0.128
0.1375
0.132
0.1255
0.141
0.1275
0.115
0.1135
0.119
0.117
0.1225
0.118
0.1315
0.1245
0.127
0.143
0.123
0.1225
0.1085
0.121
0.1225
0.114
0.1315
0.138
0.139
0.144
0.1515
0.158
0.1535
0.1425
0.141
0.1425
0.137
0.1565
0.146
0.1415
0.1405
0.149
0.148
0.1475
0.1485
0.132
0.1535
0.1515
0.1315
0.1375
0.134
0.1235
0.115
0.1225
0.1195
0.131
0.1465
0.135
0.137
0.12
0.1025
0.12
0.1185
0.1255
0.137
0.1485
0.1585
0.17
0.147
0.139
0.154
0.139
0.1245
0.1285
0.1275
0.1195
0.1165
0.101
0.1095
0.112
0.1135
0.1095
0.1355
0.1415
0.118
0.107
0.1185
0.1245
0.109
0.0975
0.127
0.129
0.1275
0.116
0.126
0.109
0.1195
0.121
0.122
0.147
0.1475
0.1495
0.134
0.141
0.1375
0.1405
0.132
0.13
0.128
0.112
0.1255
0.1285
0.122
0.1355
0.134
0.1305
0.1415
0.132
0.114
0.1045
0.119
0.1135
0.1045
0.116
0.1205
0.1185
0.121
0.121
0.1315
0.107
0.0985
0.1015
0.1155
0.115
0.1145
0.1095
0.1215
0.1065
0.112
0.1035
0.11
0.1085
0.092
0.107
0.122
0.1255
0.1305
0.122
0.1275
0.1335
0.1255
0.1275
0.132
0.1465
0.135
0.132
0.136
0.1275
0.119
0.12
0.1145
0.1155
0.124
0.1305
0.128
0.102
0.0895
0.092
0.0935
