0.259
0.253
0.2405
0.2375
0.24
0.2495
0.254
0.258
0.2605
0.2615
0.2585
0.2495
0.246
0.2485
0.2525
0.252
0.238
0.2305
0.236
0.2505
0.243
0.2565
0.2645
0.2625
0.2725
0.262
0.254
0.246
0.266
0.256
0.2375
0.2505
0.2475
0.2565
0.254
0.251
0.258
0.2475
0.258
0.2555
0.2355
0.231
0.239
0.2295
0.2345
0.2485
0.2485
0.2435
0.264
0.259
0.2475
0.246
0.259
0.243
0.2545
0.249
0.253
0.2555
0.257
0.251
0.2595
0.2485
0.2655
0.2595
0.2515
0.253
0.2535
0.26
0.2295
0.238
0.2485
0.246
0.2455
0.2515
0.261
0.249
0.263
0.2575
0.2515
0.2445
0.247
0.2565
0.259
0.2625
0.2645
0.258
0.246
0.247
0.251
0.2535
0.2575
0.254
0.254
0.239
0.259
0.2455
0.2615
0.2585
0.2485
0.235
0.241
0.255
0.256
0.241
0.2455
0.2555
0.259
0.2485
0.244
0.253
0.256
0.25
0.2515
0.2495
0.2525
0.2475
0.244
0.2375
0.2375
0.2405
0.2595
0.2665
0.252
0.2425
0.25
0.255
0.26
0.2525
0.254
0.246
0.2325
0.253
0.2695
0.2635
0.2525
0.243
0.24
0.2515
0.252
0.245
0.2545
0.27
0.261
0.247
0.256
0.2465
0.246
0.258
0.2565
0.2545
0.245
0.233
0.2505
0.2695
0.267
0.2655
0.254
0.2445
0.242
0.2575
0.2525
0.25
0.2425
0.2515
0.2585
0.228
0.241
0.2315
0.2475
0.2425
0.251
0.244
0.244
0.2495
0.2605
0.2475
0.2425
0.251
0.24
0.2465
0.245
0.2355
0.2505
0.2545
0.2525
0.258
0.244
0.2355
0.2475
0.251
0.267
0.249
0.2505
0.2445
0.2515
0.2425
0.2415
0.246
0.237
0.249
0.2585
0.2535
0.253
0.2485
0.2425
0.2585
0.2475
0.247
0.2475
0.246
0.233
0.245
0.228
0.2465
0.254
0.256
0.2455
0.25
0.243
0.234
0.24
0.24
0.239
0.246
0.247
0.241
0.254
0.249
0.2475
0.254
0.2455
0.251
0.2515
0.255
0.243
0.2435
0.2555
0.2495
0.24
0.25
0.2455
0.2295
0.242
0.252
0.2555
0.2465
0.2435
0.253
0.239
0.226
0.245
0.2405
0.2495
0.236
0.2395
0.2455
0.2425
0.246
0.243
0.2505
0.2485
0.2635
0.251
0.257
0.2565
0.249
0.25
0.2495
0.241
0.246
0.2465
0.247
0.2395
0.2565
0.242
0.2445
0.2485
0.2445
0.234
0.2345
0.25
0.247
0.25
0.245
0.2515
0.239
0.2375
0.246
0.2465
0.2525
0.259
0.249
0.258
0.245
0.2425
0.237
0.246
0.2455
0.249
0.239
0.2415
0.238
0.248
0.2605
0.24
0.232
0.2385
0.2375
0.2625
0.2515
0.2505
0.253
0.25
0.2405
0.244
0.2465
0.2445
0.2555
0.26
0.273
0.261
0.23
0.239
0.2485
0.243
0.231
0.251
0.2535
0.24
0.243
0.234
0.24
0.2465
0.263
0.256
0.252
0.253
0.243
0.2565
0.2565
0.258
0.2415
0.2355
0.251
0.254
0.2505
0.2425
0.254
0.268
0.257
0.264
0.255
0.2455
0.254
0.2555
0.2525
0.254
0.246
0.2375
0.2385
0.227
0.2295
0.2405
0.2495
0.25
0.239
0.26
0.263
0.2445
0.2515
0.241
0.241
0.239
0.2565
0.244
0.25
0.256
0.2435
0.2505
0.251
0.256
0.2395
0.222
0.23
0.236
0.247
0.236
0.251
0.2495
0.2535
0.254
0.2505
0.248
0.253
0.255
0.2575
0.261
0.2565
0.251
0.25
0.245
0.243
0.241
0.247
0.2585
0.249
0.241
0.256
0.245
0.248
0.2385
0.2245
0.246
0.249
0.2525
0.2605
0.259
0.2695
0.258
0.246
0.253
0.2545
0.262
0.2705
0.239
0.252
0.26
0.2465
0.25
0.2645
0.2635
0.259
0.2585
0.264
0.2505
0.25
0.255
0.26
0.24
0.255
0.2605
0.25
0.2405
0.24
0.2425
0.2545
0.2425
0.257
0.246
0.2675
0.264
0.271
0.2615
0.2565
0.265
0.2485
0.242
0.2325
0.246
0.2455
0.262
0.2525
0.2515
0.242
0.247
0.256
0.253
0.248
0.251
0.2565
0.2545
0.2425
0.2465
0.2415
0.254
0.265
0.2675
0.2545
0.2415
0.246
0.256
0.263
0.2725
0.2525
0.249
0.2555
0.2555
0.249
0.2515
0.2375
0.244
0.248
0.241
0.2395
0.2555
0.251
0.2485
0.2465
0.2615
0.2505
0.2615
0.26
0.259
0.246
0.2495
0.263
0.272
0.256
0.27
0.242
0.237
0.2455
0.2475
0.255
0.2515
0.259
0.244
0.236
0.244
0.262
0.2575
0.2455
0.244
0.26
0.2455
0.256
0.25
0.2445
0.2405
0.2465
0.2505
0.2335
0.2455
0.236
0.232
0.253
0.253
0.2405
0.249
0.248
0.2515
0.255
0.2475
0.25
0.2465
0.2445
0.2505
0.247
0.2345
0.2475
0.247
0.2535
0.255
0.253
0.2595
0.2505
0.2525
0.2595
0.264
0.25
0.2295
0.2355
0.2445
0.243
0.248
0.255
0.227
0.2345
0.247
0.2445
0.2405
0.2595
0.24
0.2435
0.251
0.257
0.252
0.2565
0.2575
0.2515
0.2455
0.25
0.2585
0.2475
0.244
0.2565
0.254
0.2555
0.2445
0.252
0.2555
0.251
0.2545
0.245
0.2385
0.232
0.2355
0.235
0.2545
0.2475
0.256
0.2495
0.2575
0.273
0.2585
0.262
0.2515
0.25
0.2485
0.2495
0.2455
0.23
0.229
0.2265
0.2305
0.2375
0.265
0.258
0.255
0.251
0.2495
0.247
0.2525
0.25
0.245
0.2385
0.246
0.2495
0.2565
0.25
0.2365
0.255
0.254
0.2645
0.2605
0.2515
0.2485
0.252
0.252
0.243
0.2385
0.2555
0.252
0.254
0.2615
0.2335
0.247
0.262
0.2475
0.25
0.2495
0.2545
0.257
0.2475
0.244
0.2435
0.243
0.244
0.2395
0.2495
0.245
0.246
0.2495
0.241
0.2495
0.265
0.256
0.2485
0.233
0.2425
0.2455
0.25
0.2545
0.259
0.2465
0.2415
0.253
0.2365
0.242
0.249
0.2475
0.235
0.2615
0.2505
0.2475
0.2345
0.249
0.2505
0.2345
0.251
0.2475
0.2425
0.243
0.2465
0.253
0.2535
0.253
0.2495
0.253
0.255
0.2505
0.236
0.233
0.2385
0.2565
0.245
0.2465
0.245
0.2395
0.241
0.2475
0.249
0.241
0.2505
0.2405
0.248
0.257
0.262
0.237
0.2295
0.2385
0.236
0.2535
0.245
0.242
0.259
0.2555
0.249
0.2525
0.246
0.248
0.25
0.2445
0.2545
0.254
0.264
0.2535
0.2355
0.239
0.251
0.2455
0.255
0.257
0.2535
0.2505
0.255
0.2515
0.2505
0.24
0.2645
0.269
0.259
0.2515
0.245
0.263
0.2675
0.2585
0.246
0.2395
0.2445
0.235
0.2515
0.263
0.2555
0.2515
0.256
0.2475
0.2435
0.2585
0.2515
0.245
0.2435
0.261
0.252
0.253
0.24
0.253
0.25
0.2505
0.249
0.2575
0.243
0.24
0.252
0.2475
0.2555
0.253
0.2545
0.2505
0.2625
0.26
0.2635
0.261
0.2595
0.252
0.237
0.2445
0.248
0.2535
0.2485
0.252
0.2475
0.2425
0.242
0.258
0.25
0.2335
0.2395
0.249
0.2295
0.237
0.239
0.25
0.248
0.249
0.255
0.247
0.249
0.2485
0.26
0.2535
0.2575
0.259
0.245
0.2595
0.2575
0.2645
0.254
0.2495
0.2445
0.2545
0.242
0.2365
0.2405
0.2455
0.2525
0.26
0.264
0.232
0.246
0.2545
0.251
0.2485
0.2465
0.2515
0.2535
0.2535
0.2515
0.2415
0.2425
0.2335
0.2505
0.243
0.233
0.242
0.24
0.235
0.2485
0.2505
0.244
0.239
0.246
0.2445
0.243
0.234
0.246
0.2505
0.2585
0.2605
0.239
0.259
0.247
0.252
0.2655
0.2615
0.2515
0.2495
0.246
0.265
0.248
0.252
0.2655
0.2645
0.257
0.263
0.2485
0.244
0.238
0.252
0.2545
0.253
0.257
0.26
0.2505
0.249
0.2455
0.2465
0.247
0.25
0.255
0.2435
0.273
0.24
0.2435
0.2505
0.248
0.229
0.233
0.2455
0.2495
0.247
0.2335
0.2485
0.248
0.2395
0.2425
0.242
0.2375
0.2485
0.25
0.243
0.243
0.2505
0.2445
0.252
0.2465
0.2535
0.2575
0.2565
0.261
0.262
0.2605
0.2595
0.2425
0.2625
0.2585
0.2515
0.2485
0.249
0.248
0.256
0.252
0.238
0.2445
0.244
0.2485
0.2635
0.25
0.2655
0.27
0.253
0.262
0.2555
0.2525
0.247
0.2555
0.245
0.2465
0.251
0.2575
0.256
0.24
0.24
0.246
0.2525
0.259
0.261
0.24
0.255
0.2585
0.2525
0.2505
0.2565
0.2535
0.255
0.2405
0.2445
0.257
0.255
0.259
0.2515
0.2575
0.265
0.2575
0.2505
0.2545
0.2475
0.2435
0.251
0.2465
0.259
0.2595
0.2575
0.244
0.24
0.237
0.244
0.258
0.255
0.233
