0.329
0.334
0.3265
0.3285
0.3295
0.332
0.337
0.333
0.3385
0.3405
0.333
0.333
0.338
0.332
0.339
0.338
0.343
0.3325
0.3415
0.338
0.335
0.317
0.329
0.3305
0.332
0.3405
0.336
0.334
0.3325
0.331
0.3355
0.343
0.3355
0.3395
0.3385
0.3385
0.337
0.334
0.3315
0.3345
0.3295
0.328
0.3325
0.3305
0.33
0.3375
0.338
0.33
0.336
0.335
0.3365
0.329
0.338
0.3275
0.3305
0.3215
0.336
0.346
0.341
0.3335
0.3375
0.3345
0.3245
0.3285
0.3305
0.334
0.337
0.329
0.338
0.3305
0.3255
0.3295
0.329
0.3335
0.3305
0.331
0.327
0.323
0.3365
0.326
0.331
0.326
0.334
0.3385
0.3315
0.3245
0.3325
0.328
0.3365
0.3345
0.3265
0.3375
0.3405
0.3365
0.329
0.3355
0.336
0.328
0.335
0.3375
0.3295
0.332
0.344
0.342
0.3335
0.3365
0.3375
0.336
0.342
0.3365
0.33
0.341
0.3365
0.331
0.3325
0.338
0.341
0.333
0.3255
0.3295
0.3405
0.3315
0.3285
0.3275
0.335
0.332
0.3355
0.324
0.321
0.333
0.3315
0.3375
0.323
0.335
0.334
0.339
0.337
0.3295
0.339
0.328
0.337
0.3375
0.3385
0.328
0.3315
0.329
0.332
0.329
0.335
0.3315
0.331
0.3195
0.327
0.335
0.3385
0.343
0.33
0.331
0.3305
0.3345
0.3295
0.3355
0.332
0.333
0.3225
0.336
0.3195
0.325
0.3275
0.335
0.3405
0.3385
0.3305
0.331
0.3325
0.331
0.336
0.3365
0.34
0.3285
0.3395
0.3255
0.327
0.339
0.333
0.3315
0.3325
0.323
0.3355
0.3405
0.335
0.3365
0.3305
0.3325
0.3295
0.338
0.3325
0.3275
0.3375
0.342
0.3345
0.3365
0.329
0.327
0.3375
0.3235
0.3375
0.3375
0.3365
0.345
0.3315
0.328
0.3325
0.339
0.3385
0.328
0.3325
0.3345
0.3275
0.3265
0.34
0.3355
0.3395
0.3275
0.339
0.3335
0.33
0.3335
0.3375
0.3325
0.3345
0.3345
0.3375
0.339
0.3305
0.336
0.3285
0.3285
0.332
0.3215
0.328
0.3335
0.339
0.333
0.327
0.338
0.345
0.3275
0.326
0.3325
0.3335
0.3355
0.3335
0.3375
0.3285
0.3385
0.3225
0.329
0.3295
0.3275
0.3305
0.3325
0.3415
0.34
0.3245
0.3275
0.3245
0.333
0.3225
0.3325
0.3375
0.334
0.3345
0.3255
0.326
0.3295
0.325
0.332
0.3275
0.3375
0.337
0.3335
0.338
0.339
0.3415
0.338
0.3345
0.333
0.335
0.333
0.3365
0.3255
0.327
0.3295
0.338
0.346
0.3295
0.3335
0.3385
0.33
0.3445
0.334
0.334
0.332
0.332
0.3285
0.3395
0.3355
0.335
0.333
0.33
0.3295
0.3275
0.333
0.3285
0.3355
0.3385
0.3295
0.3355
0.326
0.3345
0.332
0.337
0.327
0.3345
0.3375
0.33
0.3315
0.337
0.339
0.3365
0.331
0.332
0.3285
0.332
0.331
0.335
0.336
0.3395
0.3365
0.339
0.338
0.3355
0.3235
0.3355
0.331
0.326
0.329
0.327
0.336
0.3425
0.3375
0.339
0.3435
0.34
0.338
0.324
0.3285
0.3245
0.3315
0.3245
0.329
0.3275
0.33
0.3255
0.3355
0.326
0.335
0.3405
0.3315
0.329
0.329
0.332
0.326
0.3325
0.33
0.3415
0.326
0.3345
0.332
0.33
0.342
0.3405
0.33
0.335
0.325
0.3285
0.3415
0.3405
0.3425
0.3435
0.3405
0.3315
0.3335
0.329
0.3365
0.332
0.327
0.3365
0.33
0.3435
0.33
0.335
0.3355
0.328
0.3265
0.3315
0.328
0.335
0.338
0.338
0.3375
0.3325
0.331
0.332
0.3365
0.3345
0.3315
0.334
0.3335
0.3425
0.3345
0.328
0.3285
0.331
0.344
0.3295
0.3385
0.3285
0.332
0.342
0.328
0.337
0.3355
0.333
0.33
0.3205
0.332
0.333
0.333
0.33
0.3265
0.332
0.3375
0.3405
0.337
0.3285
0.327
0.3325
0.333
0.321
0.339
0.3415
0.334
0.3285
0.333
0.3355
0.33
0.333
0.3285
0.33
0.345
0.3435
0.3275
0.329
0.3355
0.335
0.3365
0.327
0.331
0.3375
0.3305
0.336
0.33
0.328
0.3325
0.325
0.333
0.332
0.335
0.3355
0.339
0.329
0.3415
0.3355
0.3285
0.327
0.328
0.322
0.3305
0.335
0.3355
0.321
0.335
0.3305
0.3375
0.339
0.345
0.331
0.342
0.3265
0.338
0.337
0.3365
0.3295
0.334
0.3355
0.3295
0.338
0.334
0.3215
0.3415
0.3435
0.339
0.34
0.33
0.3325
0.332
0.329
0.337
0.337
0.33
0.331
0.3265
0.332
0.334
0.3275
0.332
0.3295
0.3295
0.321
0.3315
0.33
0.3345
0.3345
0.3315
0.333
0.3305
0.3365
0.329
0.3345
0.337
0.3285
0.338
0.3205
0.3305
0.3275
0.338
0.3305
0.336
0.34
0.33
0.321
0.3325
0.3185
0.329
0.3375
0.335
0.3335
0.3285
0.338
0.334
0.334
0.33
0.334
0.34
0.3475
0.325
0.328
0.3365
0.33
0.34
0.3265
0.3365
0.335
0.332
0.336
0.3345
0.3305
0.341
0.337
0.3375
0.342
0.3415
0.3395
0.3275
0.3355
0.3315
0.329
0.3315
0.3375
0.324
0.328
0.3175
0.341
0.339
0.336
0.325
0.327
0.334
0.329
0.327
0.341
0.34
0.332
0.3275
0.341
0.3405
0.3425
0.334
0.3265
0.333
0.334
0.3285
0.324
0.338
0.3365
0.3335
0.337
0.3335
0.3365
0.3345
0.335
0.334
0.331
0.3295
0.3375
0.339
0.3365
0.3385
0.3405
0.333
0.336
0.3315
0.3355
0.3375
0.33
0.3265
0.3365
0.3455
0.333
0.329
0.329
0.3305
0.3285
0.335
0.3375
0.33
0.3315
0.3435
0.332
0.3355
0.33
0.329
0.3345
0.343
0.342
0.333
0.335
0.3315
0.337
0.338
0.3345
0.332
0.328
0.328
0.3215
0.326
0.338
0.324
0.331
0.3335
0.3395
0.3385
0.341
0.3325
0.3345
0.341
0.3295
0.325
0.339
0.3325
0.332
0.3385
0.326
0.3275
0.3305
0.346
0.335
0.3275
0.3285
0.3185
0.329
0.332
0.331
0.3345
0.3315
0.3365
0.343
0.332
0.33
0.335
0.331
0.334
0.33
0.334
0.3415
0.342
0.3305
0.3265
0.3285
0.339
0.3445
0.3385
0.342
0.34
0.325
0.3285
0.331
0.3335
0.337
0.319
0.3295
0.3305
0.3285
0.3255
0.325
0.331
0.342
0.334
0.3405
0.337
0.335
0.3275
0.331
0.3375
0.345
0.3405
0.328
0.3345
0.331
0.3315
0.3345
0.3405
0.332
0.3395
0.3365
0.3325
0.3365
0.3295
0.3345
0.3385
0.342
0.341
0.3345
0.3245
0.3285
0.335
0.34
0.332
0.338
0.342
0.33
0.3325
0.331
0.329
0.3325
0.329
0.335
0.337
0.327
0.334
0.337
0.335
0.3375
0.3335
0.3355
0.334
0.338
0.3285
0.346
0.331
0.333
0.3325
0.336
0.3375
0.339
0.333
0.3465
0.3245
0.334
0.3465
0.3315
0.3275
0.341
0.3245
0.3265
0.3355
0.331
0.3375
0.3435
0.338
0.3275
0.335
0.335
0.327
0.341
0.3435
0.341
0.3335
0.3285
0.3305
0.3375
0.3255
0.3325
0.326
0.333
0.328
0.329
0.324
0.3335
0.3345
0.335
0.334
0.345
0.328
0.332
0.333
0.3285
0.332
0.334
0.3285
0.331
0.3305
0.331
0.342
0.3415
0.332
0.332
0.3335
0.341
0.3245
0.3255
0.3395
0.3335
0.3375
0.3355
0.3455
0.329
0.339
0.3345
0.3325
0.34
0.3345
0.34
0.332
0.339
0.346
0.337
0.3415
0.34
0.338
0.332
0.33
0.328
0.3345
0.3355
0.339
0.33
0.333
0.3405
0.3375
0.3375
0.341
0.3245
0.3345
0.333
0.325
0.332
0.3295
0.33
0.3305
0.336
0.329
0.3305
0.34
0.343
0.3335
0.3345
0.328
0.3385
0.334
0.346
0.342
0.338
0.3355
0.3335
0.332
0.326
0.332
0.3305
0.335
0.3365
0.3305
0.324
0.3195
0.3365
0.342
0.3365
0.3375
0.3415
0.335
0.327
0.3265
0.32
0.335
0.3265
0.335
0.328
0.342
0.3335
0.3245
0.336
0.3245
0.331
0.334
0.33
0.3355
0.34
0.332
0.3345
0.332
0.337
0.338
0.3355
0.334
0.34
0.328
0.3355
0.3465
0.3365
0.3255
0.342
0.341
0.33
0.3285
0.324
0.3295
0.3315
0.3315
0.3345
0.3335
0.336
0.3375
0.337
0.331
0.3275
0.313
0.3225
0.3315
0.32
0.329
0.3345
0.322
0.3275
0.3285
0.32
0.331
0.3415
0.337
0.336
0.33
0.3335
0.334
0.331
0.3295
0.339
0.333
0.3375
0.3425
0.3205
0.338
0.336
0.3275
0.331
0.3345
0.333
0.336
0.321
0.331
0.336
0.335
0.331
0.3355
0.3315
0.338
0.334
0.3255
0.3365
0.3265
