0.252
0.248
0.249
0.2445
0.2445
0.249
0.2475
0.264
0.2465
0.2675
0.261
0.2475
0.2425
0.258
0.246
0.2455
0.246
0.24
0.238
0.247
0.2405
0.2465
0.257
0.2565
0.252
0.2485
0.251
0.266
0.2475
0.2395
0.245
0.2425
0.2525
0.252
0.259
0.254
0.2495
0.2425
0.26
0.2535
0.2635
0.254
0.2455
0.2515
0.2585
0.2445
0.237
0.247
0.231
0.2435
0.238
0.2315
0.2605
0.2565
0.2445
0.2555
0.2595
0.2445
0.2565
0.2665
0.26
0.263
0.2485
0.252
0.247
0.241
0.245
0.2595
0.263
0.255
0.25
0.2455
0.2465
0.242
0.2475
0.2455
0.2355
0.237
0.26
0.2405
0.2595
0.2545
0.2535
0.2575
0.251
0.2295
0.2455
0.245
0.253
0.2515
0.261
0.246
0.237
0.246
0.241
0.236
0.246
0.257
0.2435
0.24
0.235
0.24
0.2645
0.256
0.251
0.2495
0.244
0.256
0.2575
0.2445
0.2465
0.253
0.2515
0.2445
0.247
0.2445
0.2425
0.2405
0.245
0.2415
0.2435
0.256
0.246
0.259
0.2515
0.2535
0.263
0.2515
0.249
0.24
0.2465
0.237
0.25
0.2435
0.253
0.2485
0.227
0.2455
0.241
0.233
0.2505
0.243
0.256
0.25
0.267
0.2535
0.262
0.259
0.231
0.222
0.2365
0.2555
0.251
0.2545
0.2545
0.2335
0.239
0.229
0.2545
0.254
0.255
0.253
0.2535
0.254
0.242
0.2615
0.2755
0.255
0.2565
0.2515
0.251
0.231
0.2415
0.236
0.245
0.246
0.249
0.2405
0.25
0.258
0.2565
0.245
0.253
0.2425
0.239
0.2475
0.2445
0.2415
0.2495
0.2535
0.247
0.246
0.2485
0.254
0.249
0.25
0.238
0.2555
0.2645
0.253
0.256
0.2525
0.246
0.2485
0.258
0.249
0.2625
0.259
0.2505
0.244
0.248
0.2435
0.2505
0.257
0.254
0.253
0.254
0.246
0.2435
0.25
0.2405
0.2455
0.244
0.2565
0.2505
0.229
0.2465
0.2535
0.259
0.2655
0.246
0.2485
0.254
0.249
0.2655
0.259
0.246
0.248
0.2595
0.2595
0.2525
0.248
0.246
0.2475
0.25
0.2425
0.227
0.236
0.2455
0.2375
0.239
0.246
0.2515
0.2475
0.248
0.2615
0.258
0.2615
0.2385
0.2455
0.252
0.2495
0.261
0.252
0.26
0.248
0.2465
0.252
0.2565
0.2615
0.2665
0.251
0.2575
0.254
0.244
0.2465
0.2505
0.2445
0.254
0.253
0.259
0.2475
0.2555
0.264
0.251
0.2515
0.232
0.2515
0.239
0.2465
0.2405
0.241
0.241
0.266
0.248
0.251
0.25
0.263
0.2535
0.2545
0.2445
0.245
0.2445
0.232
0.241
0.245
0.255
0.254
0.252
0.2605
0.249
0.245
0.2565
0.2595
0.2495
0.2415
0.2435
0.2555
0.242
0.248
0.256
0.2415
0.245
0.2525
0.2645
0.2625
0.2625
0.244
0.2435
0.256
0.2475
0.2475
0.256
0.252
0.25
0.2535
0.2335
0.2475
0.246
0.2455
0.243
0.259
0.246
0.2385
0.2475
0.245
0.246
0.256
0.2425
0.2485
0.24
0.239
0.2465
0.26
0.248
0.234
0.243
0.2435
0.2595
0.2655
0.258
0.254
0.249
0.25
0.2425
0.2515
0.243
0.2545
0.237
0.2555
0.249
0.2565
0.26
0.244
0.2505
0.256
0.2795
0.262
0.2455
0.2565
0.2585
0.266
0.2505
0.2485
0.25
0.2505
0.239
0.24
0.228
0.24
0.238
0.247
0.2495
0.253
0.254
0.2465
0.251
0.2565
0.2485
0.237
0.2395
0.2485
0.245
0.248
0.244
0.2365
0.236
0.2445
0.2555
0.247
0.254
0.243
0.246
0.2525
0.2325
0.239
0.248
0.243
0.2335
0.2455
0.234
0.2355
0.2365
0.2465
0.2535
0.2375
0.257
0.242
0.2415
0.2425
0.2375
0.2475
0.2545
0.253
0.239
0.245
0.242
0.237
0.2295
0.2505
0.2635
0.263
0.2555
0.2415
0.236
0.2565
0.2545
0.2495
0.25
0.224
0.235
0.246
0.2445
0.258
0.2535
0.239
0.255
0.256
0.256
0.2675
0.271
0.261
0.256
0.2635
0.258
0.266
0.252
0.245
0.255
0.2575
0.2575
0.251
0.253
0.249
0.2405
0.2655
0.2565
0.236
0.248
0.253
0.2585
0.2485
0.236
0.2445
0.2435
0.248
0.2525
0.248
0.2435
0.2555
0.2535
0.255
0.253
0.24
0.2495
0.251
0.2545
0.2665
0.247
0.2445
0.2445
0.234
0.2305
0.254
0.253
0.259
0.261
0.258
0.2475
0.244
0.2515
0.258
0.2585
0.26
0.242
0.2585
0.255
0.2525
0.2485
0.2485
0.235
0.2315
0.231
0.24
0.242
0.2515
0.2465
0.2515
0.251
0.245
0.2335
0.238
0.253
0.2465
0.2565
0.236
0.2465
0.2485
0.235
0.254
0.248
0.2435
0.258
0.256
0.26
0.2595
0.261
0.257
0.248
0.2495
0.243
0.2445
0.246
0.244
0.252
0.2495
0.2505
0.2535
0.243
0.2495
0.2605
0.2455
0.2505
0.253
0.247
0.2435
0.24
0.2485
0.253
0.2515
0.256
0.2465
0.248
0.264
0.2605
0.263
0.26
0.2635
0.25
0.254
0.252
0.2345
0.244
0.245
0.264
0.274
0.2655
0.2535
0.2415
0.2355
0.2475
0.2505
0.251
0.253
0.253
0.2455
0.244
0.2445
0.2555
0.254
0.2505
0.2595
0.2585
0.2405
0.2335
0.2375
0.2365
0.247
0.254
0.261
0.261
0.2515
0.246
0.2445
0.249
0.2465
0.2445
0.246
0.2485
0.247
0.2395
0.247
0.257
0.251
0.23
0.2355
0.2345
0.2375
0.237
0.2455
0.259
0.2545
0.249
0.248
0.2585
0.254
0.2585
0.249
0.25
0.261
0.257
0.263
0.2555
0.2385
0.2465
0.258
0.252
0.2585
0.253
0.253
0.2515
0.2455
0.2525
0.247
0.243
0.2295
0.25
0.2655
0.2615
0.2615
0.246
0.25
0.253
0.243
0.2485
0.2315
0.2415
0.2455
0.2415
0.252
0.2575
0.2475
0.2505
0.246
0.257
0.2675
0.261
0.2575
0.2595
0.2595
0.249
0.263
0.265
0.242
0.236
0.2565
0.254
0.251
0.2535
0.251
0.234
0.2505
0.248
0.24
0.2545
0.2585
0.259
0.256
0.263
0.264
0.245
0.25
0.255
0.2475
0.2595
0.2695
0.245
0.2595
0.2565
0.258
0.2485
0.252
0.2485
0.2545
0.2465
0.259
0.253
0.2455
0.251
0.243
0.241
0.2525
0.2465
0.24
0.241
0.247
0.2605
0.245
0.247
0.2485
0.2645
0.258
0.2565
0.26
0.258
0.2515
0.2575
0.2545
0.246
0.253
0.249
0.243
0.256
0.251
0.2625
0.259
0.238
0.262
0.265
0.264
0.241
0.2445
0.2475
0.2525
0.2455
0.242
0.2445
0.2455
0.247
0.2375
0.242
0.2395
0.256
0.253
0.241
0.249
0.2355
0.245
0.2525
0.2295
0.2375
0.2345
0.2365
0.255
0.248
0.249
0.2355
0.2495
0.249
0.2525
0.243
0.2485
0.2485
0.239
0.2735
0.2645
0.26
0.2665
0.2705
0.267
0.263
0.2625
0.261
0.2575
0.253
0.2425
0.247
0.2525
0.251
0.2585
0.2475
0.256
0.246
0.259
0.2505
0.249
0.2535
0.256
0.2435
0.242
0.2475
0.2485
0.243
0.243
0.243
0.235
0.2385
0.2475
0.2445
0.24
0.252
0.2495
0.2445
0.2455
0.258
0.2485
0.243
0.2515
0.253
0.255
0.248
0.2625
0.2455
0.2565
0.2725
0.2555
0.26
0.2585
0.25
0.251
0.2545
0.2385
0.258
0.261
0.243
0.2485
0.2415
0.2345
0.24
0.2565
0.261
0.2455
0.2395
0.236
0.229
0.253
0.2505
0.2515
0.253
0.254
0.2585
0.2585
0.259
0.249
0.245
0.2425
0.26
0.2485
0.2435
0.249
0.253
0.2385
0.2365
0.2475
0.2475
0.249
0.258
0.248
0.2495
0.249
0.25
0.2595
0.2575
0.254
0.249
0.261
0.243
0.2405
0.241
0.2375
0.25
0.2395
0.2495
0.2485
0.2385
0.2485
0.249
0.253
0.2585
0.2515
0.225
0.244
0.2465
0.237
0.2425
0.249
0.2525
0.2445
0.233
0.244
0.2535
0.249
0.25
0.256
0.2405
0.247
0.24
0.2575
0.247
0.2515
0.2455
0.2615
0.2635
0.2425
0.2535
0.249
0.2655
0.258
0.25
0.265
0.2545
0.2505
0.2555
0.254
0.2625
0.253
0.2415
0.251
0.2485
0.253
0.2485
0.252
0.2525
0.2285
0.2355
0.2405
0.242
0.2425
0.2325
0.262
0.243
0.252
0.247
0.251
0.254
0.245
0.247
0.239
0.2385
0.2525
0.2455
0.243
0.2485
0.258
0.259
0.249
0.256
0.2395
0.245
0.248
0.2615
0.262
0.245
0.252
0.247
0.2435
0.251
0.2485
0.2455
0.2575
0.2445
0.249
0.2515
0.2465
0.2485
0.2595
0.246
0.2435
0.238
0.238
0.2405
0.25
0.2475
0.238
0.2365
0.2465
0.2405
0.2435
0.2305
0.249
