0.153
0.1585
0.159
0.1675
0.1725
0.1565
0.1455
0.1505
0.171
0.1705
0.1715
0.1625
0.1645
0.164
0.171
0.165
0.173
0.158
0.163
0.165
0.173
0.176
0.165
0.1735
0.17
0.1635
0.1615
0.162
0.1615
0.1605
0.168
0.171
0.1685
0.161
0.149
0.1455
0.1435
0.1435
0.1465
0.1555
0.1635
0.155
0.157
0.157
0.169
0.169
0.174
0.1815
0.1675
0.166
0.1585
0.1535
0.1605
0.1565
0.151
0.16
0.1585
0.1825
0.172
0.1835
0.178
0.175
0.171
0.1735
0.168
0.151
0.1685
0.1605
0.162
0.1435
0.1715
0.175
0.173
0.1625
0.163
0.1495
0.1505
0.1595
0.1635
0.148
0.142
0.1535
0.153
0.1595
0.1675
0.156
0.1685
0.175
0.1535
0.1555
0.165
0.177
0.1655
0.174
0.177
0.176
0.1805
0.1715
0.1665
0.169
0.151
0.154
0.1635
0.1725
0.164
0.176
0.17
0.1735
0.1845
0.2045
0.1865
0.1655
0.1695
0.1605
0.1655
0.178
0.1725
0.157
0.1475
0.1425
0.1435
0.1605
0.1515
0.1595
0.1745
0.1675
0.162
0.1675
0.1595
0.143
0.1565
0.1585
0.158
0.155
0.161
0.181
0.1935
0.19
0.172
0.1815
0.18
0.186
0.182
0.1885
0.171
0.183
0.185
0.169
0.141
0.1525
0.1535
0.148
0.161
0.1685
0.171
0.173
0.1605
0.168
0.18
0.1745
0.167
0.1765
0.18
0.168
0.161
0.1645
0.1465
0.143
0.1395
0.148
0.16
0.1595
0.164
0.1675
0.173
0.1665
0.159
0.161
0.1645
0.167
0.161
0.1625
0.1645
0.17
0.164
0.157
0.159
0.162
0.1685
0.172
0.1735
0.1545
0.1525
0.1635
0.159
0.1585
0.164
0.1505
0.152
0.147
0.1565
0.1695
0.1685
0.1655
0.168
0.175
0.164
0.163
0.171
0.177
0.1745
0.181
0.1985
0.167
0.16
0.15
0.1645
0.188
0.1855
0.17
0.169
0.1685
0.1485
0.1525
0.1495
0.1575
0.1595
0.1735
0.175
0.174
0.1825
0.179
0.1655
0.1565
0.157
0.1665
0.144
0.1535
0.164
0.1645
0.168
0.166
0.1595
0.1535
0.17
0.174
0.177
0.172
0.1675
0.148
0.156
0.1385
0.1545
0.1685
0.1765
0.162
0.1775
0.164
0.164
0.182
0.168
0.1735
0.1615
0.1585
0.1655
0.1525
0.152
0.1595
0.1565
0.1675
0.1635
0.158
0.16
0.159
0.1585
0.166
0.1565
0.176
0.178
0.1675
0.1755
0.1815
0.191
0.191
0.174
0.17
0.155
0.1605
0.153
0.155
0.1445
0.1615
0.1705
0.1845
0.197
0.1885
0.179
0.182
0.167
0.177
0.1765
0.173
0.188
0.169
0.1575
0.1515
0.1345
0.146
0.1455
0.171
0.1795
0.185
0.2
0.1955
0.179
0.1665
0.1645
0.1665
0.174
0.1725
0.156
0.17
0.169
0.1695
0.175
0.1655
0.1705
0.175
0.188
0.189
0.187
0.1795
0.1805
0.1795
0.183
0.178
0.1825
0.1815
0.1725
0.165
0.1655
0.182
0.1825
0.176
0.1925
0.1895
0.191
0.1775
0.1735
0.1795
0.172
0.1665
0.1625
0.164
0.1575
0.1815
0.1915
0.18
0.1675
0.1635
0.1665
0.17
0.1835
0.1755
0.1885
0.1875
0.1905
0.1765
0.144
0.1595
0.16
0.163
0.1545
0.1565
0.1585
0.166
0.1685
0.167
0.14
0.1445
0.1495
0.165
0.148
0.1455
0.1525
0.154
0.1545
0.1495
0.173
0.177
0.1665
0.1705
0.164
0.149
0.1325
0.1385
0.1535
0.1535
0.1575
0.1605
0.166
0.168
0.1685
0.1715
0.173
0.171
0.1645
0.1745
0.165
0.164
0.1485
0.165
0.1675
0.167
0.1615
0.1525
0.164
0.163
0.168
0.181
0.1575
0.154
0.1735
0.1815
0.19
0.1795
0.1755
0.168
0.168
0.178
0.1735
0.1595
0.1575
0.158
0.1505
0.1615
0.1805
0.1745
0.164
0.166
0.166
0.163
0.174
0.1765
0.1735
0.17
0.1755
0.171
0.1655
0.1685
0.179
0.185
0.1785
0.1765
0.1725
0.1625
0.1635
0.163
0.154
0.1665
0.16
0.159
0.154
0.151
0.137
0.1535
0.1625
0.156
0.1575
0.1595
0.1785
0.1725
0.164
0.1465
0.1635
0.175
0.155
0.143
0.1415
0.147
0.1345
0.1475
0.143
0.144
0.1415
0.141
0.148
0.1505
0.1585
0.1545
0.1525
0.147
0.1525
0.1515
0.1445
0.1635
0.164
0.151
0.1505
0.1595
0.139
0.15
0.1645
0.1615
0.165
0.1565
0.167
0.1585
0.1515
0.1555
0.166
0.154
0.164
0.157
0.162
0.168
0.1695
0.1735
0.1865
0.1805
0.177
0.167
0.1785
0.164
0.1645
0.159
0.156
0.177
0.178
0.1885
0.17
0.184
0.1715
0.154
0.1645
0.1665
0.15
0.17
0.1685
0.1695
0.1555
0.1575
0.1555
0.1535
0.159
0.1445
0.146
0.1585
0.146
0.1465
0.1605
0.1705
0.1565
0.1635
0.1615
0.156
0.1715
0.1655
0.181
0.173
0.172
0.183
0.1755
0.1725
0.1655
0.1785
0.165
0.1645
0.1585
0.1705
0.177
0.1705
0.1665
0.18
0.167
0.1605
0.1705
0.1775
0.18
0.174
0.1875
0.1865
0.1665
0.17
0.171
0.182
0.191
0.187
0.186
0.1695
0.177
0.1775
0.173
0.1665
0.147
0.141
0.145
0.1785
0.165
0.169
0.174
0.154
0.1465
0.1565
0.1585
0.186
0.1655
0.18
0.1695
0.1755
0.1635
0.178
0.173
0.1715
0.175
0.191
0.2115
0.188
0.177
0.178
0.1835
0.2035
0.1905
0.1815
0.1845
0.1755
0.1665
0.1615
0.153
0.168
0.202
0.185
0.1755
0.171
0.1845
0.171
0.1545
0.1745
0.181
0.1445
0.1665
0.153
0.157
0.1715
0.1815
0.1765
0.1575
0.1785
0.1815
0.178
0.1785
0.1905
0.181
0.1765
0.1885
0.191
0.173
0.1905
0.1825
0.171
0.1525
0.154
0.1675
0.165
0.162
0.1595
0.158
0.1585
0.153
0.1575
0.1635
0.16
0.166
0.1575
0.1665
0.1585
0.17
0.188
0.167
0.157
0.17
0.1645
0.153
0.162
0.165
0.159
0.1705
0.1715
0.18
0.175
0.152
0.1625
0.1535
0.162
0.1605
0.1665
0.1815
0.185
0.192
0.17
0.1635
0.1715
0.176
0.176
0.186
0.163
0.1535
0.1655
0.162
0.1585
0.165
0.17
0.18
0.1855
0.1815
0.192
0.201
0.1955
0.18
0.1665
0.1705
0.171
0.183
0.158
0.154
0.1575
0.161
0.164
0.162
0.1575
0.1675
0.1675
0.151
0.1515
0.1595
0.155
0.1555
0.136
0.1285
0.1485
0.1495
0.156
0.1465
0.1545
0.157
0.1605
0.149
0.1555
0.1605
0.1725
0.1615
0.1595
0.1655
0.156
0.1625
0.153
0.159
0.149
0.1505
0.1645
0.154
0.1625
0.162
0.1635
0.157
0.1555
0.1505
0.15
0.142
0.1465
0.152
0.163
0.161
0.155
0.1595
0.1745
0.1635
0.177
0.1735
0.18
0.181
0.175
0.1625
0.169
0.1645
0.161
0.1575
0.1435
0.136
0.138
0.1555
0.1715
0.1675
0.1655
0.168
0.1695
0.173
0.162
0.159
0.151
0.1495
0.134
0.133
0.1315
0.146
0.152
0.1375
0.143
0.1625
0.173
0.1665
0.171
0.1755
0.1625
0.1655
0.175
0.1645
0.169
0.1695
0.1765
0.1785
0.178
0.167
0.1685
0.169
0.1755
0.168
0.158
0.1545
0.141
0.147
0.16
0.1535
0.176
0.1635
0.18
0.1815
0.167
0.1665
0.1645
0.1685
0.173
0.17
0.176
0.1725
0.171
0.161
0.1605
0.1575
0.1625
0.162
0.17
0.162
0.166
0.1595
0.17
0.169
0.1725
0.1545
0.162
0.1675
0.1645
0.1665
0.158
0.16
0.1465
0.153
0.159
0.1765
0.1845
0.1715
0.1725
0.1645
0.178
0.1715
0.179
0.1865
0.1825
0.187
0.1775
0.156
0.163
0.1675
0.153
0.138
0.171
0.1645
0.1645
0.1565
0.156
0.169
0.173
0.18
0.153
0.1575
0.151
0.157
0.152
0.1495
0.1515
0.158
0.1695
0.166
0.163
0.167
0.1675
0.174
0.179
0.184
0.175
0.1695
0.1655
0.156
0.153
0.149
0.154
0.1585
0.1595
0.173
0.1705
0.148
0.1465
0.1565
0.1545
0.155
0.1685
0.169
0.1565
0.1475
0.141
0.1485
0.1545
0.1495
0.1325
0.145
0.134
0.14
0.1325
0.1595
0.1575
0.148
0.151
0.161
0.178
0.1595
0.149
0.142
0.141
0.1615
0.1755
0.176
0.19
0.1895
0.1765
0.1875
0.1855
0.1715
0.1675
0.154
0.1765
0.1565
0.1665
0.1665
0.1635
0.1625
0.156
0.1645
0.1645
0.161
0.161
0.1575
0.165
0.161
0.1515
0.155
0.17
0.156
0.1505
0.1515
0.1535
0.1475
0.1415
0.149
0.1305
0.129
0.133
0.158
0.148
0.152
0.165
0.156
0.1605
0.1535
0.1565
0.1625
0.153
0.1455
0.149
0.152
0.152
