0.1075
0.1205
0.1255
0.114
0.1245
0.1225
0.128
0.124
0.1285
0.1335
0.1355
0.148
0.1475
0.139
0.141
0.141
0.14
0.1355
0.133
0.1165
0.1235
0.1125
0.113
0.1245
0.123
0.128
0.1275
0.1115
0.1155
0.114
0.109
0.12
0.1205
0.116
0.107
0.108
0.1035
0.11
0.114
0.118
0.12
0.118
0.128
0.105
0.105
0.098
0.104
0.103
0.092
0.0915
0.0955
0.094
0.1055
0.0935
0.087
0.0845
0.087
0.0915
0.1015
0.1145
0.123
0.1205
0.1325
0.136
0.137
0.1195
0.1205
0.118
0.104
0.1025
0.1135
0.1175
0.116
0.113
0.1055
0.1125
0.114
0.1335
0.1255
0.1295
0.123
0.126
0.1295
0.126
0.128
0.1215
0.131
0.1285
0.1205
0.1255
0.1285
0.1375
0.126
0.1295
0.1125
0.126
0.1395
0.13
0.113
0.115
0.1165
0.1425
0.144
0.137
0.119
0.122
0.117
0.119
0.127
0.1275
0.1095
0.0995
0.1165
0.103
0.1175
0.114
0.0905
0.1105
0.1205
0.115
0.1235
0.1155
0.101
0.0875
0.0865
0.079
0.0825
0.0925
0.0945
0.1045
0.1075
0.113
0.1125
0.114
0.1185
0.124
0.119
0.1135
0.1185
0.1255
0.123
0.1225
0.111
0.1015
0.1075
0.1165
0.1295
0.1375
0.115
0.1265
0.1145
0.107
0.111
0.1195
0.1305
0.1395
0.136
0.144
0.1435
0.131
0.133
0.127
0.129
0.132
0.1155
0.1195
0.109
0.102
0.106
0.1085
0.0985
0.11
0.1085
0.103
0.1045
0.097
0.1075
0.1025
0.104
0.111
0.1105
0.111
0.1275
0.132
0.1245
0.1
0.1005
0.1085
0.109
0.1125
0.094
0.1065
0.1005
0.105
0.101
0.095
0.0985
0.0895
0.095
0.111
0.1045
0.107
0.1175
0.106
0.0995
0.098
0.094
0.0835
0.091
0.089
0.093
0.101
0.098
0.096
0.101
0.106
0.098
0.118
0.102
0.106
0.112
0.1185
0.113
0.1115
0.1055
0.1045
0.1065
0.1055
0.1
0.104
0.0995
0.1075
0.1055
0.106
0.1155
0.1095
0.1005
0.104
0.1045
0.106
0.1165
0.104
0.1035
0.0935
0.105
0.1145
0.1275
0.1115
0.105
0.0955
0.086
0.0815
0.082
0.0805
0.08
0.0925
0.095
0.1155
0.122
0.1205
0.105
0.102
0.111
0.0985
0.102
0.111
0.1115
0.1145
0.1465
0.1445
0.147
0.143
0.1435
0.1365
0.1335
0.122
0.1135
0.112
0.105
0.102
0.0945
0.092
0.096
0.1085
0.108
0.1
0.1075
0.1005
0.0955
0.0985
0.0945
0.089
0.083
0.0865
0.096
0.0835
0.0715
0.074
0.0955
0.076
0.081
0.089
0.098
0.0995
0.107
0.104
0.091
0.0875
0.0855
0.0805
0.0905
0.0935
0.1055
0.117
0.109
0.104
0.106
0.115
0.1035
0.1125
0.114
0.1175
0.106
0.111
0.1115
0.101
0.1055
0.0995
0.1045
0.1105
0.1135
0.1095
0.1185
0.1
0.112
0.113
0.111
0.117
0.1045
0.1025
0.086
0.101
0.0955
0.091
0.1095
0.105
0.1075
0.115
0.13
0.1185
0.112
0.1115
0.13
0.1105
0.1165
0.1295
0.134
0.1295
0.128
0.121
0.117
0.1115
0.117
0.1125
0.1115
0.1085
0.0985
0.0875
0.091
0.081
0.083
0.091
0.0885
0.081
0.092
0.094
0.1035
0.1055
0.0985
0.088
0.0925
0.093
0.096
0.0925
0.099
0.1275
0.116
0.105
0.123
0.1145
0.1125
0.0985
0.099
0.1005
0.111
0.1
0.092
0.104
0.1115
0.109
0.112
0.1075
0.1015
0.104
0.0935
0.1085
0.113
0.1125
0.1075
0.086
0.093
0.0895
0.097
0.1065
0.115
0.1135
0.1175
0.1105
0.108
0.1055
0.099
0.0985
0.1075
0.1075
0.1175
0.103
0.094
0.0935
0.106
0.104
0.104
0.11
0.126
0.1315
0.1235
0.124
0.125
0.129
0.1315
0.1285
0.1435
0.143
0.133
0.134
0.1305
0.1325
0.1545
0.138
0.132
0.128
0.11
0.124
0.1175
0.1215
0.1085
0.1095
0.1065
0.108
0.118
0.138
0.1315
0.135
0.127
0.13
0.128
0.1275
0.1395
0.127
0.119
0.1175
0.1215
0.1135
0.126
0.1235
0.119
0.1345
0.123
0.1115
0.111
0.1215
0.103
0.118
0.1285
0.1165
0.103
0.1015
0.1005
0.0945
0.102
0.099
0.0985
0.1135
0.1085
0.1195
0.116
0.108
0.1095
0.092
0.0885
0.0805
0.083
0.0895
0.091
0.0955
0.093
0.0885
0.089
0.0985
0.0985
0.0935
0.087
0.0825
0.105
0.0945
0.0905
0.102
0.096
0.103
0.1025
0.1045
0.0965
0.103
0.1085
0.1025
0.1015
0.0935
0.113
0.12
0.109
0.1165
0.13
0.1195
0.0985
0.0945
0.1115
0.127
0.1235
0.1095
0.105
0.0955
0.107
0.1115
0.111
0.112
0.114
0.1035
0.0965
0.1045
0.1105
0.119
0.12
0.132
0.129
0.132
0.127
0.116
0.1165
0.1135
0.114
0.126
0.1255
0.112
0.097
0.0975
0.0765
0.08
0.083
0.085
0.081
0.0965
0.1
0.103
0.108
0.115
0.121
0.1115
0.101
0.101
0.11
0.1075
0.111
0.114
0.0975
0.1055
0.0915
0.0805
0.0755
0.0855
0.0895
0.089
0.0945
0.0995
0.0905
0.1015
0.0985
0.1045
0.1065
0.1125
0.114
0.1225
0.138
0.1265
0.1245
0.1275
0.126
0.138
0.141
0.127
0.1125
0.116
0.12
0.125
0.117
0.1085
0.098
0.116
0.125
0.1245
0.122
0.1315
0.121
0.111
0.0965
0.105
0.1075
0.1145
0.1155
0.1055
0.1115
0.1
0.09
0.102
0.097
0.09
0.1095
0.1145
0.116
0.1215
0.118
0.1115
0.13
0.131
0.1275
0.13
0.142
0.1265
0.1135
0.107
0.098
0.103
0.0925
0.097
0.098
0.1015
0.112
0.1175
0.1085
0.0955
0.1025
0.1055
0.0945
0.101
0.1075
0.1055
0.1165
0.129
0.1315
0.1295
0.1395
0.1285
0.133
0.128
0.132
0.1235
0.1105
0.123
0.1275
0.144
0.141
0.136
0.121
0.1115
0.111
0.108
0.104
0.1005
0.1115
0.115
0.1195
0.1145
0.102
0.093
0.0885
0.0835
0.094
0.0975
0.0935
0.093
0.1185
0.1065
0.1105
0.1115
0.0985
0.1025
0.1105
0.1205
0.12
0.1055
0.104
0.097
0.0985
0.086
0.104
0.096
0.1095
0.1135
0.0995
0.086
0.0795
0.087
0.084
0.077
0.0845
0.0895
0.085
0.0805
0.099
0.112
0.1005
0.0985
0.1005
0.082
0.086
0.103
0.0985
0.105
0.1025
0.099
0.096
0.102
0.089
0.091
0.0885
0.099
0.0965
0.107
0.106
0.1115
0.115
0.1265
0.1135
0.1205
0.118
0.112
0.118
0.1075
0.106
0.1035
0.11
0.118
0.1175
0.116
0.1245
0.12
0.1065
0.1045
0.1005
0.112
0.1235
0.134
0.1275
0.123
0.1195
0.1085
0.117
0.103
0.1085
0.104
0.0935
0.1035
0.1275
0.13
0.1495
0.1505
0.1425
0.126
0.112
0.088
0.078
0.0715
0.085
0.097
0.103
0.118
0.1325
0.144
0.149
0.127
0.129
0.1165
0.1255
0.1085
0.097
0.0885
0.085
0.088
0.087
0.079
0.0855
0.089
0.0915
0.101
0.095
0.101
0.1135
0.115
0.1025
0.11
0.1085
0.115
0.1205
0.119
0.122
0.1135
0.1145
0.1235
0.118
0.113
0.111
0.104
0.111
0.1245
0.1315
0.126
0.116
0.1255
0.1395
0.1375
0.14
0.1395
0.131
0.134
0.1275
0.1165
0.1115
0.1165
0.1175
0.12
0.133
0.135
0.1325
0.1235
0.1215
0.112
0.1025
0.096
0.0985
0.1055
0.088
0.0795
0.0885
0.098
0.106
0.1005
0.0865
0.079
0.0825
0.096
0.0935
0.1055
0.0875
0.1
0.121
0.129
0.143
0.121
0.1105
0.111
0.1025
0.0945
0.098
0.1035
0.1045
0.094
0.0785
0.0815
0.0785
0.086
0.0815
0.09
0.0995
0.0925
0.0995
0.097
0.1075
0.102
0.096
0.0775
0.0885
0.0995
0.0985
0.1075
0.1035
0.0965
0.1
0.1015
0.0985
0.1
0.1005
0.093
0.1025
0.1045
0.1095
0.1065
0.1185
0.1175
0.115
0.1245
0.1275
0.129
0.125
0.119
0.11
0.1095
0.113
0.1145
0.122
0.117
0.1245
0.122
0.1135
0.1195
0.1105
0.0965
0.0885
0.0845
0.099
0.1
0.106
0.1015
0.1005
0.108
0.1095
0.1065
0.1115
0.099
0.098
0.0895
0.0985
0.0955
0.0935
0.09
0.09
0.0975
0.104
0.1105
0.1095
0.1
0.1055
0.1005
0.121
0.125
0.1235
0.126
0.13
0.1305
0.1235
0.118
0.139
0.1415
0.1295
0.1245
0.1195
0.1155
0.109
0.111
0.1095
0.0995
0.095
0.1045
0.1025
0.097
0.097
0.097
0.1005
0.1025
0.1005
0.1085
0.106
0.1105
0.1025
0.102
0.0915
0.0995
0.1115
0.1145
0.11
0.1
0.102
0.1075
