0.328
0.324
0.3295
0.333
0.3335
0.334
0.3305
0.3295
0.328
0.338
0.3305
0.332
0.332
0.3275
0.322
0.3385
0.333
0.331
0.339
0.3445
0.3305
0.3295
0.336
0.3345
0.3365
0.345
0.3325
0.333
0.328
0.3315
0.339
0.334
0.329
0.3305
0.333
0.329
0.3255
0.334
0.338
0.332
0.334
0.33
0.339
0.3375
0.3465
0.3335
0.3285
0.3245
0.3405
0.334
0.33
0.3335
0.3385
0.3455
0.3345
0.3235
0.3375
0.342
0.333
0.3275
0.325
0.3315
0.3375
0.337
0.3255
0.3295
0.3355
0.3295
0.332
0.345
0.326
0.3315
0.3275
0.337
0.3265
0.341
0.334
0.3395
0.3415
0.343
0.3175
0.3265
0.328
0.3345
0.3375
0.336
0.3325
0.34
0.3295
0.327
0.335
0.333
0.3285
0.332
0.3355
0.333
0.3245
0.337
0.3375
0.3325
0.34
0.335
0.3375
0.3325
0.3365
0.341
0.3355
0.321
0.3255
0.327
0.33
0.3355
0.3365
0.3315
0.331
0.34
0.3375
0.3365
0.3325
0.3275
0.34
0.342
0.339
0.33
0.3425
0.328
0.335
0.3315
0.342
0.3375
0.3385
0.337
0.34
0.34
0.3305
0.3415
0.333
0.323
0.328
0.33
0.3345
0.331
0.34
0.3345
0.342
0.337
0.335
0.339
0.3435
0.333
0.3395
0.3315
0.3445
0.3365
0.329
0.3315
0.3385
0.3405
0.3425
0.331
0.341
0.3365
0.3285
0.3325
0.331
0.3355
0.331
0.3295
0.335
0.3285
0.3445
0.334
0.316
0.334
0.3335
0.3215
0.324
0.32
0.332
0.3325
0.331
0.3255
0.338
0.3355
0.3385
0.334
0.3315
0.3395
0.3385
0.3215
0.3225
0.342
0.3395
0.335
0.3415
0.3315
0.3395
0.3225
0.3325
0.336
0.336
0.322
0.339
0.332
0.328
0.331
0.3335
0.34
0.3355
0.34
0.331
0.3335
0.333
0.3295
0.3325
0.339
0.344
0.338
0.3375
0.33
0.325
0.34
0.3305
0.333
0.317
0.334
0.3305
0.3305
0.3385
0.329
0.3315
0.3355
0.3315
0.3255
0.34
0.3285
0.33
0.3275
0.3315
0.333
0.3415
0.336
0.3365
0.341
0.344
0.3335
0.334
0.3355
0.329
0.3405
0.3385
0.342
0.3345
0.328
0.3285
0.3245
0.329
0.3425
0.3375
0.3265
0.3285
0.3295
0.335
0.3435
0.3335
0.3285
0.345
0.331
0.33
0.3395
0.3305
0.3425
0.3315
0.3315
0.344
0.332
0.3345
0.335
0.335
0.3265
0.3305
0.3285
0.335
0.326
0.328
0.34
0.3305
0.3335
0.33
0.3345
0.328
0.339
0.335
0.3265
0.333
0.3355
0.3275
0.332
0.3365
0.333
0.3415
0.3275
0.3375
0.3245
0.33
0.335
0.337
0.3375
0.3345
0.333
0.328
0.3275
0.3405
0.3295
0.33
0.327
0.33
0.3365
0.339
0.332
0.33
0.3285
0.3385
0.33
0.3355
0.33
0.3285
0.341
0.33
0.342
0.328
0.3265
0.3365
0.336
0.3325
0.323
0.3295
0.335
0.333
0.3285
0.3275
0.3355
0.3335
0.3315
0.332
0.334
0.333
0.326
0.3295
0.3355
0.326
0.3275
0.3285
0.3355
0.3385
0.333
0.327
0.3295
0.3385
0.33
0.332
0.3385
0.334
0.321
0.33
0.336
0.3375
0.335
0.33
0.3425
0.3275
0.3365
0.333
0.3305
0.329
0.34
0.3225
0.337
0.3405
0.332
0.331
0.3225
0.332
0.3355
0.3375
0.3285
0.3345
0.3335
0.33
0.3255
0.3265
0.3255
0.339
0.3235
0.34
0.3325
0.341
0.3295
0.335
0.327
0.3335
0.338
0.3395
0.331
0.3355
0.338
0.3325
0.3315
0.336
0.3425
0.3325
0.336
0.3415
0.3335
0.335
0.3375
0.3315
0.3335
0.3345
0.322
0.3325
0.3205
0.331
0.33
0.3325
0.3375
0.321
0.3265
0.329
0.3345
0.3215
0.336
0.3335
0.3285
0.3325
0.3295
0.3295
0.333
0.3305
0.335
0.3265
0.333
0.3335
0.33
0.334
0.3305
0.3315
0.3335
0.3275
0.332
0.338
0.342
0.3415
0.3285
0.3365
0.336
0.3345
0.33
0.3355
0.336
0.3325
0.3285
0.33
0.3235
0.328
0.3355
0.333
0.33
0.333
0.3275
0.334
0.318
0.326
0.342
0.3375
0.334
0.33
0.331
0.335
0.341
0.318
0.325
0.3375
0.3225
0.3225
0.328
0.328
0.332
0.329
0.3345
0.326
0.331
0.3345
0.335
0.341
0.34
0.3375
0.333
0.3335
0.3275
0.3335
0.3335
0.3235
0.3295
0.3355
0.3375
0.325
0.3295
0.33
0.325
0.318
0.338
0.3435
0.331
0.337
0.336
0.339
0.336
0.333
0.3405
0.3345
0.3265
0.334
0.3325
0.333
0.332
0.336
0.3335
0.344
0.326
0.336
0.3245
0.33
0.343
0.3315
0.3375
0.334
0.334
0.3295
0.3355
0.333
0.3365
0.3335
0.336
0.3365
0.3385
0.3305
0.3405
0.3365
0.342
0.345
0.326
0.3295
0.341
0.34
0.3305
0.3245
0.3255
0.329
0.332
0.334
0.3315
0.331
0.3315
0.3365
0.3325
0.3385
0.3225
0.3335
0.3255
0.3325
0.3355
0.3315
0.323
0.3225
0.3395
0.3315
0.331
0.333
0.336
0.3345
0.3385
0.336
0.337
0.3295
0.331
0.341
0.335
0.344
0.333
0.333
0.326
0.336
0.324
0.3285
0.3295
0.3285
0.3335
0.345
0.3425
0.329
0.339
0.3265
0.3385
0.3315
0.324
0.3285
0.34
0.338
0.3265
0.342
0.333
0.336
0.3315
0.337
0.334
0.331
0.329
0.3395
0.3315
0.335
0.333
0.3335
0.3395
0.3345
0.3245
0.333
0.3335
0.334
0.343
0.339
0.337
0.321
0.3405
0.3375
0.332
0.347
0.3235
0.3285
0.335
0.3365
0.3375
0.3295
0.3305
0.334
0.3445
0.3315
0.333
0.325
0.33
0.338
0.3385
0.333
0.3395
0.3245
0.335
0.336
0.343
0.3305
0.329
0.332
0.333
0.3395
0.332
0.3335
0.3265
0.339
0.334
0.329
0.3335
0.337
0.333
0.3285
0.3295
0.333
0.3345
0.3295
0.343
0.3315
0.327
0.3335
0.3355
0.3345
0.3335
0.328
0.334
0.3355
0.3305
0.336
0.329
0.3415
0.34
0.3385
0.3325
0.3425
0.3405
0.3385
0.3355
0.3315
0.324
0.338
0.338
0.333
0.329
0.3365
0.336
0.3275
0.3365
0.326
0.327
0.3275
0.335
0.3245
0.3355
0.324
0.3345
0.33
0.3295
0.337
0.3365
0.337
0.3345
0.3385
0.339
0.3255
0.335
0.3395
0.342
0.333
0.332
0.342
0.3375
0.333
0.3305
0.3335
0.328
0.3335
0.332
0.327
0.329
0.33
0.3325
0.3315
0.333
0.3305
0.3315
0.334
0.3365
0.3405
0.3325
0.3365
0.3275
0.323
0.324
0.33
0.3335
0.3315
0.331
0.336
0.34
0.328
0.335
0.3335
0.337
0.3285
0.3275
0.3335
0.334
0.329
0.324
0.3285
0.3345
0.335
0.327
0.3355
0.334
0.3355
0.335
0.3255
0.335
0.3235
0.333
0.336
0.3385
0.342
0.3365
0.323
0.3295
0.3295
0.333
0.341
0.322
0.3315
0.3335
0.3325
0.3295
0.3375
0.329
0.3275
0.333
0.332
0.3365
0.3365
0.3315
0.331
0.343
0.3325
0.336
0.337
0.325
0.331
0.3355
0.333
0.328
0.3345
0.3385
0.339
0.3285
0.333
0.3335
0.33
0.335
0.3235
0.3355
0.3435
0.3345
0.3335
0.329
0.334
0.3355
0.328
0.335
0.342
0.3275
0.336
0.332
0.331
0.335
0.333
0.3275
0.3325
0.3275
0.3235
0.3335
0.335
0.324
0.334
0.3335
0.3375
0.3305
0.333
0.3395
0.34
0.3375
0.3405
0.331
0.3345
0.3365
0.3345
0.3305
0.3315
0.327
0.3325
0.3345
0.3325
0.3375
0.33
0.3285
0.332
0.337
0.328
0.342
0.328
0.3305
0.328
0.3275
0.3295
0.3315
0.339
0.3355
0.3315
0.34
0.333
0.334
0.328
0.3245
0.3425
0.328
0.328
0.3265
0.331
0.332
0.3355
0.3365
0.3295
0.3295
0.3265
0.336
0.321
0.331
0.327
0.3215
0.335
0.3375
0.338
0.336
0.3365
0.332
0.3315
0.338
0.3275
0.3295
0.33
0.33
0.3235
0.3255
0.326
0.335
0.335
0.3315
0.341
0.3315
0.3305
0.3315
0.337
0.335
0.3295
0.334
0.34
0.3355
0.326
0.328
0.321
0.3355
0.337
0.3345
0.339
0.329
0.335
0.33
0.324
0.332
0.3365
0.3345
0.328
0.3285
0.3225
0.332
0.339
0.337
0.332
0.333
0.3325
0.3345
0.328
0.336
0.3395
0.3335
0.333
0.336
0.335
0.334
0.325
0.34
0.3315
0.3315
0.3275
0.331
0.326
0.341
0.3305
0.333
0.3395
0.337
0.329
0.3315
0.3395
0.33
0.3365
0.3355
0.337
0.3255
0.3335
0.35
0.3425
0.336
0.3445
0.3375
0.3265
0.3395
0.337
0.3295
0.3305
0.336
0.3395
0.337
0.335
0.332
0.3265
0.3405
