0.246
0.256
0.253
0.2495
0.257
0.243
0.247
0.248
0.247
0.252
0.241
0.246
0.2405
0.262
0.2475
0.248
0.2495
0.2545
0.2405
0.2365
0.258
0.249
0.2475
0.2475
0.262
0.262
0.2535
0.2585
0.249
0.2335
0.2305
0.2435
0.2445
0.2525
0.2505
0.2385
0.2535
0.239
0.241
0.255
0.2635
0.259
0.265
0.2455
0.263
0.2605
0.2695
0.2495
0.2485
0.252
0.247
0.257
0.2515
0.247
0.2475
0.2445
0.255
0.245
0.2525
0.243
0.2575
0.255
0.2625
0.243
0.254
0.2495
0.247
0.247
0.243
0.244
0.25
0.2535
0.246
0.2425
0.2505
0.241
0.259
0.2595
0.2475
0.2515
0.249
0.2625
0.2585
0.271
0.24
0.238
0.247
0.2455
0.241
0.238
0.2625
0.268
0.256
0.2505
0.25
0.2395
0.2435
0.2415
0.266
0.2545
0.2705
0.256
0.2505
0.2545
0.2345
0.246
0.248
0.251
0.2585
0.2575
0.251
0.2515
0.2485
0.2565
0.253
0.2605
0.2555
0.25
0.2495
0.265
0.2565
0.248
0.258
0.249
0.248
0.2485
0.258
0.25
0.2475
0.235
0.2525
0.256
0.2595
0.2425
0.2325
0.243
0.2475
0.2425
0.2245
0.24
0.2505
0.2495
0.2395
0.235
0.252
0.241
0.233
0.2435
0.2355
0.246
0.259
0.2555
0.257
0.254
0.2625
0.2525
0.257
0.25
0.2555
0.263
0.2585
0.2405
0.2495
0.25
0.2505
0.242
0.244
0.247
0.258
0.2515
0.253
0.2675
0.2505
0.244
0.2525
0.245
0.249
0.257
0.2585
0.2545
0.2425
0.2505
0.2665
0.2545
0.24
0.2395
0.24
0.236
0.257
0.249
0.25
0.2395
0.238
0.249
0.26
0.243
0.2455
0.246
0.2555
0.241
0.248
0.251
0.2535
0.2555
0.2485
0.2385
0.252
0.244
0.2365
0.2505
0.2365
0.241
0.2505
0.2415
0.262
0.254
0.257
0.255
0.2605
0.261
0.255
0.249
0.245
0.2525
0.261
0.2555
0.2485
0.252
0.2385
0.2625
0.2545
0.2485
0.2445
0.262
0.259
0.268
0.2645
0.2435
0.2455
0.2465
0.26
0.2615
0.236
0.252
0.252
0.252
0.2575
0.2535
0.26
0.2465
0.2485
0.2495
0.2455
0.2305
0.2395
0.2445
0.2325
0.238
0.2365
0.254
0.252
0.2415
0.249
0.257
0.257
0.253
0.249
0.2435
0.2435
0.251
0.2475
0.247
0.261
0.2525
0.2525
0.2405
0.24
0.2575
0.255
0.2395
0.253
0.232
0.248
0.258
0.258
0.238
0.2555
0.256
0.245
0.242
0.2505
0.247
0.245
0.25
0.256
0.256
0.256
0.2505
0.251
0.2515
0.2545
0.2485
0.254
0.2615
0.2605
0.261
0.2445
0.237
0.252
0.2425
0.2425
0.2475
0.231
0.249
0.256
0.2585
0.2415
0.2515
0.2645
0.2745
0.2465
0.247
0.244
0.2445
0.251
0.2495
0.2455
0.2385
0.2395
0.2415
0.2515
0.248
0.2555
0.231
0.2485
0.262
0.259
0.2715
0.2625
0.2565
0.2425
0.2435
0.248
0.2355
0.2175
0.2405
0.256
0.2475
0.243
0.254
0.2465
0.251
0.2485
0.2515
0.2545
0.2595
0.2405
0.248
0.2555
0.25
0.2435
0.27
0.252
0.2535
0.2525
0.2665
0.249
0.2435
0.247
0.252
0.248
0.251
0.2595
0.2545
0.2455
0.2375
0.2505
0.253
0.248
0.247
0.2425
0.238
0.241
0.252
0.2575
0.241
0.2365
0.2505
0.249
0.251
0.246
0.2485
0.249
0.2625
0.2765
0.2745
0.2655
0.252
0.251
0.241
0.2525
0.2315
0.23
0.242
0.2255
0.2425
0.2525
0.2605
0.2555
0.259
0.2635
0.269
0.259
0.255
0.2565
0.246
0.2475
0.2375
0.2415
0.2435
0.242
0.2385
0.245
0.2595
0.2475
0.249
0.26
0.2655
0.2535
0.252
0.251
0.2615
0.2625
0.264
0.2615
0.2465
0.2515
0.2405
0.2445
0.2665
0.253
0.256
0.2535
0.2485
0.252
0.2365
0.252
0.2445
0.252
0.2565
0.253
0.257
0.236
0.2405
0.2685
0.2595
0.258
0.258
0.259
0.248
0.255
0.262
0.2555
0.256
0.2545
0.2535
0.2495
0.249
0.244
0.253
0.26
0.2605
0.2465
0.258
0.2555
0.258
0.245
0.247
0.2515
0.257
0.2575
0.256
0.254
0.262
0.2755
0.258
0.2335
0.2345
0.238
0.256
0.2535
0.253
0.2545
0.247
0.242
0.2395
0.2485
0.243
0.2435
0.2545
0.271
0.278
0.262
0.2555
0.261
0.267
0.259
0.2535
0.2565
0.2515
0.2615
0.2555
0.24
0.2415
0.255
0.263
0.258
0.262
0.247
0.245
0.259
0.25
0.244
0.251
0.2415
0.2405
0.245
0.2445
0.246
0.2465
0.256
0.241
0.258
0.2585
0.246
0.252
0.247
0.252
0.2525
0.26
0.2475
0.239
0.25
0.2595
0.253
0.249
0.259
0.258
0.2495
0.25
0.256
0.267
0.2635
0.2515
0.2415
0.24
0.2345
0.2525
0.257
0.2425
0.248
0.251
0.2445
0.2385
0.2385
0.2465
0.259
0.262
0.2585
0.2455
0.2595
0.2535
0.2595
0.254
0.2445
0.2615
0.255
0.2465
0.265
0.262
0.2585
0.2575
0.258
0.2655
0.2665
0.253
0.2555
0.24
0.2405
0.246
0.2455
0.25
0.2565
0.2525
0.25
0.2445
0.247
0.248
0.2525
0.247
0.2545
0.2515
0.259
0.242
0.2465
0.242
0.2595
0.2475
0.2445
0.2345
0.245
0.247
0.2375
0.2305
0.2345
0.2325
0.2325
0.243
0.2345
0.241
0.243
0.2405
0.2425
0.2505
0.2475
0.253
0.2325
0.23
0.2575
0.2485
0.2455
0.253
0.2575
0.2535
0.2395
0.2405
0.25
0.245
0.245
0.2515
0.239
0.245
0.252
0.2455
0.248
0.2565
0.2495
0.2495
0.2585
0.256
0.2505
0.254
0.2545
0.245
0.245
0.2475
0.2485
0.2535
0.242
0.2405
0.245
0.262
0.2515
0.239
0.257
0.255
0.256
0.252
0.254
0.242
0.246
0.247
0.247
0.237
0.2325
0.228
0.238
0.242
0.239
0.2565
0.26
0.2435
0.2495
0.252
0.2615
0.2565
0.248
0.244
0.2495
0.253
0.244
0.245
0.238
0.243
0.241
0.243
0.2405
0.246
0.25
0.237
0.249
0.2415
0.247
0.2645
0.258
0.2525
0.261
0.2555
0.244
0.238
0.2505
0.2445
0.235
0.2395
0.2595
0.257
0.2565
0.239
0.243
0.255
0.261
0.256
0.2415
0.244
0.2475
0.252
0.238
0.2395
0.2365
0.2375
0.2525
0.256
0.2465
0.243
0.2355
0.248
0.2535
0.242
0.2395
0.24
0.233
0.2485
0.2555
0.272
0.243
0.2425
0.254
0.2515
0.2465
0.2445
0.245
0.2515
0.241
0.251
0.25
0.2365
0.24
0.251
0.2435
0.244
0.2495
0.2485
0.238
0.2655
0.2605
0.2505
0.2605
0.248
0.2405
0.251
0.247
0.241
0.244
0.2485
0.25
0.2535
0.2575
0.261
0.2585
0.257
0.248
0.2505
0.249
0.249
0.255
0.2565
0.246
0.2365
0.2335
0.251
0.2385
0.253
0.2425
0.2335
0.257
0.2445
0.246
0.245
0.238
0.2495
0.2605
0.239
0.2375
0.235
0.2345
0.246
0.2495
0.2405
0.255
0.248
0.2505
0.2545
0.2525
0.2495
0.2465
0.2425
0.2495
0.257
0.2525
0.247
0.2585
0.242
0.239
0.2505
0.2425
0.2305
0.2395
0.244
0.253
0.248
0.263
0.2655
0.2525
0.26
0.2585
0.2575
0.245
0.2415
0.2475
0.258
0.2435
0.2365
0.2445
0.2395
0.2455
0.255
0.2565
0.242
0.251
0.2505
0.244
0.2415
0.2485
0.257
0.2495
0.257
0.248
0.2415
0.259
0.2565
0.2445
0.242
0.24
0.2465
0.253
0.244
0.235
0.243
0.245
0.244
0.2525
0.25
0.24
0.238
0.247
0.253
0.233
0.2435
0.2475
0.251
0.226
0.244
0.257
0.26
0.261
0.247
0.2455
0.2525
0.244
0.2465
0.246
0.241
0.244
0.249
0.252
0.2555
0.2325
0.2575
0.255
0.2555
0.256
0.2535
0.253
0.2495
0.2465
0.2565
0.2535
0.2435
0.2465
0.254
0.259
0.259
0.2625
0.2355
0.242
0.2315
0.25
0.258
0.2595
0.2525
0.2595
0.2575
0.261
0.252
0.2495
0.2535
0.2545
0.25
0.255
0.2575
0.2605
0.271
0.265
0.254
0.2495
0.2585
0.2475
0.2525
0.2455
0.242
0.251
0.248
0.264
0.26
0.246
0.262
0.266
0.2575
0.2625
0.258
0.2385
0.246
0.2545
0.255
0.2605
0.239
0.2395
0.2545
0.2555
0.2415
0.245
0.236
0.2485
0.2415
0.234
0.245
0.2495
0.251
0.2555
0.2505
0.257
0.2475
0.2565
0.2605
0.2575
0.272
0.261
0.262
0.2505
0.246
0.255
0.2465
0.2505
0.2545
0.2525
0.254
0.2455
0.251
0.2385
0.234
0.247
0.247
0.252
0.251
0.2655
0.2565
0.263
0.257
0.257
0.2665
