0.1445
0.1225
0.109
0.1115
0.118
0.13
0.133
0.135
0.133
0.149
0.1655
0.172
0.1815
0.165
0.164
0.155
0.1505
0.1395
0.1485
0.155
0.1415
0.1295
0.134
0.1415
0.139
0.135
0.145
0.1355
0.1405
0.144
0.1455
0.15
0.1535
0.131
0.14
0.1465
0.1455
0.1485
0.1545
0.1405
0.141
0.1385
0.134
0.125
0.1225
0.1225
0.121
0.125
0.133
0.1305
0.126
0.1305
0.121
0.126
0.1355
0.131
0.144
0.1365
0.139
0.136
0.1335
0.146
0.1235
0.1195
0.1355
0.1365
0.1345
0.141
0.143
0.1515
0.1515
0.159
0.1665
0.1645
0.1605
0.168
0.1545
0.148
0.1485
0.145
0.1375
0.1375
0.1535
0.1315
0.137
0.1455
0.1525
0.1555
0.157
0.1575
0.1415
0.155
0.1555
0.142
0.1385
0.15
0.1455
0.14
0.133
0.1365
0.138
0.1375
0.152
0.15
0.144
0.1355
0.14
0.1305
0.1345
0.129
0.1325
0.132
0.135
0.138
0.129
0.1245
0.1355
0.1265
0.132
0.1315
0.1145
0.121
0.1215
0.1315
0.1255
0.1425
0.1275
0.137
0.15
0.155
0.151
0.1495
0.1525
0.1355
0.124
0.131
0.128
0.1335
0.1595
0.1535
0.1515
0.1455
0.1615
0.181
0.1755
0.164
0.1655
0.1665
0.155
0.1555
0.1495
0.154
0.161
0.153
0.137
0.1395
0.133
0.146
0.142
0.1265
0.1225
0.1305
0.1455
0.1475
0.136
0.153
0.1485
0.1505
0.1385
0.148
0.144
0.1375
0.144
0.1375
0.1325
0.1375
0.1295
0.1295
0.1205
0.1145
0.1285
0.1065
0.1075
0.113
0.1185
0.1265
0.1155
0.1315
0.1345
0.136
0.137
0.1485
0.1545
0.1615
0.1715
0.152
0.137
0.1265
0.128
0.1355
0.136
0.13
0.134
0.135
0.134
0.149
0.1405
0.1505
0.1465
0.1365
0.149
0.1485
0.15
0.1455
0.134
0.109
0.1095
0.115
0.1235
0.139
0.147
0.149
0.134
0.126
0.124
0.1245
0.1275
0.116
0.124
0.135
0.141
0.151
0.1525
0.168
0.177
0.166
0.164
0.171
0.1705
0.1865
0.1645
0.1385
0.149
0.1405
0.1475
0.1485
0.1555
0.1365
0.133
0.1475
0.153
0.15
0.153
0.1535
0.162
0.172
0.166
0.1635
0.174
0.1555
0.143
0.1565
0.151
0.1425
0.133
0.133
0.137
0.136
0.1315
0.131
0.136
0.139
0.143
0.1515
0.167
0.153
0.1455
0.1445
0.139
0.1305
0.125
0.143
0.136
0.1435
0.142
0.145
0.1395
0.144
0.153
0.138
0.1305
0.125
0.1105
0.116
0.113
0.1225
0.1265
0.1155
0.112
0.12
0.125
0.134
0.1275
0.129
0.1285
0.131
0.1545
0.1705
0.164
0.157
0.153
0.1495
0.152
0.1355
0.127
0.126
0.1415
0.138
0.1425
0.1385
0.1495
0.145
0.1435
0.1345
0.1455
0.1415
0.1475
0.1415
0.136
0.151
0.14
0.1295
0.134
0.134
0.1185
0.1275
0.135
0.1375
0.131
0.128
0.135
0.149
0.1425
0.14
0.149
0.15
0.1425
0.1485
0.136
0.1435
0.1405
0.142
0.1545
0.147
0.1425
0.137
0.1405
0.138
0.1445
0.1475
0.141
0.124
0.131
0.1265
0.13
0.1235
0.12
0.1185
0.1155
0.123
0.13
0.125
0.1335
0.14
0.143
0.158
0.1545
0.1465
0.15
0.155
0.1545
0.1595
0.169
0.167
0.1485
0.1675
0.169
0.177
0.1805
0.1555
0.1535
0.157
0.149
0.146
0.1445
0.134
0.126
0.133
0.137
0.1305
0.144
0.1475
0.1445
0.1495
0.1585
0.162
0.1555
0.1525
0.152
0.132
0.1345
0.1285
0.131
0.1205
0.1295
0.123
0.115
0.126
0.1155
0.1155
0.1225
0.125
0.1265
0.135
0.1285
0.1245
0.12
0.12
0.1235
0.127
0.1235
0.1215
0.138
0.137
0.1215
0.12
0.126
0.1355
0.145
0.1285
0.141
0.139
0.1185
0.128
0.1325
0.14
0.1375
0.1345
0.137
0.1405
0.1345
0.1385
0.141
0.147
0.1505
0.1675
0.154
0.1575
0.151
0.1555
0.1605
0.1645
0.163
0.167
0.155
0.151
0.1345
0.1255
0.134
0.1255
0.1165
0.1145
0.1265
0.131
0.133
0.1345
0.1385
0.1385
0.135
0.14
0.1385
0.1525
0.142
0.155
0.1505
0.155
0.159
0.169
0.17
0.1585
0.158
0.1415
0.1295
0.148
0.146
0.1475
0.157
0.1625
0.1405
0.1565
0.168
0.159
0.1435
0.1545
0.159
0.1655
0.1575
0.164
0.1425
0.1575
0.1585
0.16
0.1685
0.155
0.1495
0.132
0.144
0.148
0.1525
0.1585
0.1475
0.1535
0.159
0.155
0.155
0.1535
0.1525
0.1605
0.165
0.1635
0.1615
0.157
0.1505
0.147
0.152
0.1345
0.138
0.141
0.138
0.1245
0.1335
0.132
0.1185
0.1255
0.12
0.1185
0.113
0.12
0.1245
0.132
0.129
0.1265
0.1285
0.1265
0.1345
0.148
0.1555
0.149
0.1455
0.153
0.148
0.152
0.1395
0.154
0.152
0.138
0.122
0.116
0.114
0.1255
0.122
0.128
0.1215
0.1385
0.145
0.135
0.1505
0.149
0.142
0.146
0.163
0.159
0.1615
0.158
0.1575
0.155
0.1595
0.157
0.16
0.154
0.1595
0.162
0.165
0.1605
0.1445
0.1525
0.1445
0.1325
0.1385
0.1305
0.1375
0.142
0.133
0.129
0.1285
0.1175
0.1135
0.1315
0.132
0.1275
0.1425
0.154
0.148
0.141
0.149
0.144
0.142
0.14
0.155
0.16
0.1605
0.1505
0.152
0.1325
0.1355
0.1295
0.153
0.158
0.1425
0.1535
0.15
0.158
0.1415
0.1395
0.1515
0.1595
0.149
0.144
0.155
0.1385
0.1445
0.1325
0.133
0.128
0.125
0.1275
0.1265
0.1295
0.1375
0.1385
0.1445
0.1365
0.1325
0.129
0.138
0.135
0.132
0.1315
0.14
0.1535
0.1465
0.147
0.128
0.1345
0.136
0.1505
0.147
0.1495
0.1615
0.1625
0.1515
0.1565
0.1535
0.162
0.1665
0.1725
0.1545
0.1645
0.173
0.1415
0.145
0.165
0.145
0.1405
0.131
0.135
0.135
0.14
0.142
0.1475
0.1495
0.16
0.1595
0.1525
0.143
0.1585
0.168
0.1525
0.1275
0.1505
0.1515
0.145
0.1445
0.1385
0.1205
0.1165
0.122
0.1215
0.1125
0.1215
0.118
0.1305
0.151
0.1515
0.1425
0.132
0.132
0.133
0.135
0.1215
0.1245
0.1295
0.145
0.1555
0.1395
0.14
0.157
0.1495
0.15
0.157
0.156
0.1485
0.157
0.151
0.1565
0.1455
0.1515
0.1495
0.1445
0.144
0.147
0.149
0.168
0.157
0.1695
0.1645
0.171
0.168
0.157
0.1455
0.1285
0.142
0.134
0.1325
0.147
0.15
0.1545
0.1365
0.1365
0.1325
0.1275
0.1355
0.151
0.143
0.156
0.157
0.1555
0.171
0.151
0.152
0.155
0.1645
0.159
0.1585
0.1575
0.1595
0.1545
0.154
0.149
0.1485
0.151
0.155
0.15
0.135
0.136
0.136
0.135
0.146
0.1635
0.134
0.1395
0.138
0.1455
0.1515
0.1345
0.1325
0.13
0.142
0.137
0.1365
0.136
0.1395
0.139
0.1605
0.163
0.1595
0.164
0.1365
0.1335
0.1405
0.1475
0.1425
0.1315
0.129
0.136
0.142
0.151
0.145
0.152
0.164
0.1605
0.1495
0.143
0.1375
0.1365
0.145
0.138
0.138
0.1465
0.1455
0.144
0.146
0.1595
0.152
0.1565
0.1475
0.1445
0.1625
0.1645
0.1615
0.1475
0.1495
0.147
0.1555
0.155
0.145
0.1405
0.156
0.1575
0.148
0.146
0.142
0.14
0.149
0.155
0.149
0.131
0.146
0.143
0.1525
0.16
0.152
0.1505
0.1325
0.138
0.136
0.1335
0.158
0.1525
0.1575
0.148
0.158
0.163
0.146
0.142
0.1375
0.15
0.1495
0.1475
0.168
0.169
0.1515
0.1325
0.13
0.1295
0.1325
0.137
0.1355
0.142
0.148
0.1475
0.1545
0.1565
0.1535
0.146
0.148
0.144
0.137
0.1425
0.1505
0.132
0.126
0.125
0.131
0.13
0.1415
0.1385
0.14
0.131
0.139
0.1485
0.1575
0.16
0.164
0.175
0.166
0.1535
0.154
0.1595
0.1555
0.1615
0.1715
0.157
0.1505
0.153
0.153
0.138
0.1505
0.16
0.1565
0.1425
0.139
0.154
0.1565
0.1595
0.149
0.1345
0.1465
0.1355
0.1465
0.1495
0.1505
0.1425
0.1445
0.1605
0.1445
0.1365
0.1385
0.135
0.138
0.1485
0.149
0.1595
0.1545
0.164
0.1575
0.1535
0.1465
0.146
0.1475
0.143
0.152
0.159
0.1655
0.146
0.1615
0.155
0.148
0.1395
0.1405
0.1225
0.1255
0.128
0.129
0.12
0.115
0.114
0.113
0.133
0.133
0.134
0.125
0.132
0.125
0.1175
0.1245
0.1565
0.152
0.165
0.1615
0.1515
0.1425
0.1375
0.143
0.139
0.1435
0.128
0.138
0.14
0.116
