0.0995
0.101
0.0895
0.0885
0.086
0.08
0.0715
0.0825
0.0795
0.0815
0.0855
0.0895
0.086
0.084
0.079
0.079
0.094
0.09
0.073
0.07
0.067
0.0695
0.065
0.076
0.084
0.095
0.088
0.0965
0.095
0.0865
0.0765
0.076
0.0775
0.0885
0.0845
0.0805
0.093
0.0845
0.0775
0.0775
0.0725
0.074
0.081
0.0785
0.058
0.057
0.052
0.05
0.0685
0.077
0.0835
0.083
0.067
0.0595
0.061
0.061
0.0535
0.052
0.0575
0.0615
0.052
0.053
0.056
0.0515
0.0695
0.0745
0.074
0.072
0.068
0.0665
0.055
0.051
0.044
0.041
0.0495
0.0465
0.047
0.048
0.043
0.044
0.0415
0.0385
0.0315
0.0345
0.037
0.0375
0.0355
0.043
0.041
0.0365
0.033
0.0375
0.0405
0.051
0.052
0.0495
0.05
0.033
0.0345
0.045
0.048
0.0395
0.0365
0.044
0.045
0.0535
0.045
0.0565
0.0665
0.047
0.055
0.054
0.0475
0.06
0.0665
0.0695
0.0725
0.0625
0.0665
0.0615
0.067
0.0665
0.0605
0.0655
0.0615
0.0665
0.062
0.056
0.0545
0.055
0.0605
0.0555
0.0575
0.06
0.0695
0.0775
0.083
0.068
0.0715
0.0665
0.062
0.0795
0.0865
0.1055
0.1055
0.0945
0.1055
0.104
0.1
0.102
0.096
0.0825
0.077
0.0755
0.069
0.076
0.0815
0.091
0.0715
0.0695
0.0755
0.0805
0.074
0.076
0.098
0.089
0.095
0.0865
0.086
0.0775
0.0805
0.0825
0.089
0.088
0.0765
0.078
0.097
0.1025
0.1005
0.095
0.094
0.077
0.078
0.0675
0.069
0.07
0.0695
0.064
0.0675
0.057
0.048
0.037
0.04
0.043
0.047
0.0565
0.0505
0.0595
0.048
0.046
0.062
0.057
0.053
0.057
0.0505
0.053
0.063
0.0635
0.0705
0.0555
0.0575
0.064
0.064
0.057
0.056
0.0545
0.0565
0.066
0.0665
0.0605
0.0695
0.065
0.079
0.088
0.0945
0.0885
0.078
0.0685
0.063
0.062
0.064
0.049
0.0605
0.062
0.0585
0.053
0.0575
0.058
0.052
0.051
0.0555
0.053
0.0625
0.074
0.0605
0.0725
0.0745
0.069
0.0805
0.0845
0.085
0.092
0.091
0.085
0.0955
0.081
0.085
0.097
0.0915
0.0815
0.0735
0.0725
0.071
0.0605
0.0585
0.0655
0.0875
0.085
0.088
0.087
0.098
0.0905
0.0845
0.0755
0.075
0.067
0.0725
0.0725
0.076
0.086
0.078
0.08
0.0845
0.075
0.076
0.069
0.071
0.06
0.066
0.0665
0.0615
0.0565
0.059
0.065
0.054
0.0505
0.0525
0.0595
0.071
0.068
0.059
0.0525
0.06
0.05
0.052
0.057
0.0525
0.061
0.0645
0.0655
0.064
0.066
0.051
0.063
0.07
0.0655
0.075
0.084
0.0815
0.0795
0.073
0.0765
0.07
0.09
0.093
0.0875
0.1095
0.1165
0.119
0.125
0.0965
0.0995
0.102
0.0935
0.087
0.0825
0.0855
0.0795
0.07
0.084
0.066
0.069
0.0825
0.0745
0.071
0.084
0.081
0.084
0.0795
0.079
0.082
0.0855
0.098
0.0895
0.093
0.079
0.092
0.0825
0.077
0.1055
0.104
0.103
0.1105
0.103
0.095
0.0895
0.095
0.084
0.0755
0.08
0.0875
0.106
0.1005
0.0755
0.074
0.072
0.071
0.064
0.0635
0.043
0.033
0.039
0.0385
0.041
0.047
0.0475
0.0515
0.055
0.063
0.054
0.0505
0.0595
0.059
0.056
0.0475
0.0575
0.065
0.06
0.0595
0.0605
0.054
0.0485
0.0525
0.0565
0.07
0.074
0.0765
0.0825
0.088
0.0735
0.079
0.075
0.08
0.086
0.083
0.082
0.0915
0.0875
0.065
0.069
0.076
0.0675
0.07
0.071
0.0735
0.0745
0.081
0.0835
0.073
0.078
0.0865
0.0795
0.07
0.0605
0.0655
0.07
0.078
0.071
0.07
0.0715
0.0655
0.0635
0.0635
0.063
0.06
0.0705
0.0765
0.081
0.073
0.0765
0.0785
0.071
0.0705
0.0595
0.0695
0.054
0.049
0.05
0.0505
0.054
0.0485
0.0535
0.062
0.063
0.0525
0.061
0.077
0.093
0.084
0.1
0.0865
0.0965
0.094
0.073
0.066
0.058
0.0565
0.054
0.054
0.063
0.0555
0.0675
0.052
0.0525
0.0415
0.036
0.0495
0.052
0.052
0.049
0.049
0.052
0.046
0.042
0.039
0.043
0.0455
0.0525
0.0585
0.057
0.065
0.0725
0.074
0.068
0.074
0.067
0.073
0.0615
0.066
0.0685
0.072
0.079
0.0695
0.081
0.067
0.0835
0.0845
0.085
0.0795
0.0775
0.083
0.074
0.0815
0.0815
0.0875
0.0895
0.088
0.0995
0.096
0.085
0.085
0.08
0.0835
0.075
0.085
0.0685
0.0715
0.064
0.07
0.058
0.0555
0.049
0.041
0.051
0.046
0.045
0.05
0.0445
0.041
0.0475
0.037
0.035
0.04
0.0545
0.07
0.068
0.0675
0.055
0.049
0.0505
0.0535
0.0575
0.0645
0.0525
0.047
0.0445
0.0455
0.0425
0.047
0.0465
0.0555
0.0395
0.047
0.054
0.0595
0.0625
0.0675
0.0735
0.097
0.0875
0.099
0.099
0.0905
0.0915
0.083
0.09
0.0735
0.0605
0.063
0.0625
0.065
0.057
0.0595
0.074
0.0815
0.0885
0.0885
0.0965
0.076
0.087
0.097
0.095
0.1065
0.1085
0.1
0.0955
0.094
0.1005
0.095
0.1
0.093
0.0875
0.087
0.083
0.096
0.0885
0.0865
0.091
0.083
0.0885
0.091
0.0825
0.0825
0.08
0.0745
0.062
0.062
0.062
0.062
0.0585
0.061
0.0645
0.068
0.0615
0.0715
0.0755
0.0705
0.0725
0.064
0.0575
0.0725
0.0755
0.073
0.0865
0.089
0.0965
0.109
0.089
0.0925
0.0855
0.0965
0.095
0.0855
0.088
0.067
0.0585
0.0515
0.058
0.057
0.053
0.0695
0.0755
0.0655
0.0635
0.0615
0.0645
0.066
0.0665
0.057
0.0515
0.058
0.0715
0.082
0.0845
0.073
0.0735
0.0725
0.0815
0.0725
0.0705
0.0725
0.075
0.08
0.0785
0.072
0.084
0.0885
0.0825
0.0795
0.082
0.094
0.1
0.103
0.1095
0.109
0.101
0.0985
0.08
0.0795
0.0755
0.087
0.082
0.0895
0.0855
0.0795
0.065
0.061
0.069
0.0665
0.064
0.071
0.087
0.0705
0.083
0.0785
0.062
0.0535
0.0485
0.051
0.0465
0.0495
0.0485
0.045
0.0425
0.039
0.0445
0.055
0.054
0.051
0.06
0.0655
0.0785
0.0795
0.0815
0.0935
0.0935
0.098
0.0975
0.0965
0.0905
0.089
0.083
0.087
0.091
0.072
0.07
0.063
0.054
0.054
0.046
0.0425
0.042
0.0425
0.048
0.065
0.0685
0.069
0.0695
0.065
0.0655
0.0505
0.0475
0.0555
0.0525
0.0505
0.049
0.054
0.0485
0.056
0.0505
0.0555
0.055
0.058
0.0645
0.051
0.063
0.056
0.057
0.051
0.044
0.0375
0.0365
0.0445
0.0415
0.047
0.0485
0.0575
0.0565
0.0525
0.0485
0.055
0.0465
0.0495
0.057
0.0585
0.05
0.046
0.05
0.047
0.034
0.0425
0.052
0.0575
0.0595
0.0635
0.067
0.0705
0.086
0.093
0.105
0.1125
0.102
0.1145
0.109
0.1115
0.11
0.099
0.102
0.0945
0.091
0.074
0.071
0.065
0.0625
0.0595
0.057
0.0545
0.047
0.054
0.0565
0.07
0.079
0.073
0.061
0.055
0.0665
0.061
0.0695
0.0745
0.071
0.064
0.067
0.08
0.0835
0.0705
0.078
0.077
0.0865
0.07
0.0695
0.098
0.0845
0.089
0.0795
0.0975
0.0915
0.096
0.0815
0.0825
0.08
0.077
0.0595
0.0665
0.0695
0.0655
0.072
0.067
0.0645
0.068
0.07
0.0645
0.047
0.0515
0.059
0.064
0.073
0.0805
0.0745
0.0905
0.092
0.092
0.076
0.076
0.093
0.1055
0.113
0.11
0.12
0.115
0.104
0.115
0.115
0.114
0.121
0.1135
0.106
0.0995
0.09
0.084
0.0845
0.075
0.074
0.0645
0.064
0.0625
0.0595
0.0715
0.067
0.063
0.0645
0.064
0.0635
0.054
0.07
0.061
0.071
0.059
0.0565
0.0675
0.062
0.0675
0.054
0.071
0.0765
0.0765
0.0815
0.075
0.08
0.0855
0.077
0.083
0.089
0.0835
0.1025
0.1255
0.1045
0.1135
0.0975
0.084
0.0785
0.0735
0.0535
0.051
0.046
0.064
0.063
0.0695
0.061
0.0695
0.0715
0.0715
0.078
0.0655
0.0665
0.072
0.079
0.0845
0.0975
0.09
0.0915
0.0935
0.098
0.096
0.0975
0.084
0.0885
0.089
0.095
0.1065
0.1155
0.104
0.106
0.0975
0.093
0.093
0.0835
0.088
0.085
0.0805
0.079
0.092
0.0835
0.0695
0.0765
0.084
0.0765
0.0645
0.055
0.0535
0.061
0.0555
0.0505
0.0505
0.052
0.054
0.0635
0.0525
0.0525
0.0555
0.0565
