0.058
0.056
0.0605
0.073
0.0595
0.0575
0.0585
0.0585
0.062
0.072
0.0655
0.074
0.0705
0.0625
0.0485
0.0495
0.051
0.044
0.038
0.0395
0.0365
0.03
0.0345
0.0445
0.058
0.0555
0.05
0.061
0.0665
0.065
0.0735
0.065
0.065
0.0735
0.0805
0.069
0.056
0.0815
0.0745
0.077
0.0755
0.0785
0.0865
0.085
0.074
0.0665
0.0765
0.083
0.081
0.0875
0.088
0.0765
0.088
0.0825
0.076
0.0755
0.0875
0.0795
0.077
0.0725
0.0705
0.0745
0.0835
0.066
0.072
0.0685
0.0775
0.0745
0.0805
0.0695
0.0715
0.0675
0.0625
0.059
0.072
0.0685
0.0735
0.075
0.082
0.075
0.0765
0.079
0.063
0.0575
0.051
0.056
0.0455
0.051
0.0505
0.059
0.0525
0.053
0.0505
0.056
0.0665
0.063
0.0625
0.062
0.068
0.067
0.0545
0.0665
0.081
0.0775
0.071
0.068
0.0645
0.0695
0.0745
0.0615
0.046
0.061
0.063
0.0665
0.081
0.076
0.078
0.0825
0.0795
0.0815
0.0645
0.071
0.0665
0.0555
0.051
0.041
0.036
0.0415
0.05
0.048
0.0475
0.055
0.0585
0.057
0.0615
0.0625
0.052
0.0595
0.065
0.0485
0.0565
0.0555
0.063
0.06
0.073
0.0725
0.077
0.0815
0.102
0.0975
0.092
0.0785
0.0905
0.082
0.0795
0.072
0.0765
0.0685
0.082
0.0745
0.069
0.079
0.0855
0.088
0.0875
0.081
0.067
0.0545
0.0455
0.056
0.0605
0.0615
0.062
0.0695
0.0665
0.054
0.0515
0.055
0.0565
0.063
0.063
0.068
0.072
0.0665
0.0745
0.075
0.0805
0.086
0.087
0.0775
0.077
0.081
0.0775
0.0725
0.084
0.0685
0.05
0.0445
0.049
0.054
0.057
0.0535
0.063
0.074
0.076
0.0855
0.077
0.07
0.062
0.06
0.068
0.0785
0.0705
0.0665
0.0735
0.0785
0.0725
0.0755
0.0745
0.0795
0.082
0.0835
0.0735
0.0835
0.0875
0.0865
0.0845
0.082
0.0775
0.0845
0.091
0.081
0.077
0.0715
0.0875
0.0875
0.086
0.088
0.0875
0.089
0.0685
0.0765
0.077
0.0765
0.081
0.07
0.0655
0.071
0.0745
0.07
0.0635
0.0555
0.057
0.052
0.0535
0.048
0.0405
0.045
0.044
0.046
0.052
0.0585
0.0595
0.055
0.0615
0.07
0.07
0.0745
0.0855
0.074
0.0715
0.0785
0.067
0.06
0.0725
0.0775
0.078
0.076
0.066
0.08
0.069
0.078
0.0725
0.0735
0.073
0.0665
0.0705
0.071
0.0715
0.077
0.084
0.0935
0.098
0.0955
0.0975
0.107
0.093
0.1
0.0965
0.0935
0.094
0.09
0.0925
0.085
0.0795
0.094
0.0845
0.0755
0.061
0.0565
0.052
0.053
0.0605
0.063
0.056
0.047
0.0505
0.0665
0.076
0.0795
0.0775
0.067
0.0675
0.0665
0.0705
0.063
0.0675
0.0575
0.0545
0.0575
0.059
0.071
0.0755
0.0615
0.05
0.058
0.0595
0.0545
0.062
0.064
0.0745
0.0585
0.061
0.059
0.056
0.0595
0.0645
0.066
0.0575
0.0575
0.0595
0.075
0.072
0.0715
0.0715
0.073
0.0795
0.0765
0.076
0.0815
0.085
0.0745
0.086
0.092
0.0925
0.086
0.0805
0.082
0.065
0.0665
0.0565
0.0565
0.0765
0.079
0.062
0.0655
0.0625
0.063
0.0755
0.0895
0.0855
0.0915
0.084
0.0965
0.0945
0.0965
0.0995
0.099
0.094
0.083
0.081
0.0925
0.081
0.0805
0.081
0.0775
0.072
0.084
0.0865
0.087
0.072
0.0715
0.061
0.0575
0.059
0.053
0.0565
0.042
0.053
0.0515
0.0535
0.059
0.0605
0.0625
0.0585
0.069
0.0755
0.0685
0.063
0.0835
0.0855
0.078
0.058
0.056
0.0675
0.0605
0.0605
0.0475
0.0365
0.0525
0.0555
0.058
0.0605
0.059
0.0705
0.0775
0.0775
0.0765
0.067
0.0805
0.0805
0.076
0.064
0.064
0.055
0.058
0.0705
0.0665
0.0685
0.0675
0.068
0.072
0.0685
0.0655
0.069
0.0695
0.078
0.0815
0.0795
0.072
0.079
0.056
0.065
0.0625
0.062
0.0675
0.0645
0.071
0.0625
0.06
0.0625
0.077
0.08
0.0795
0.0685
0.074
0.073
0.0735
0.08
0.0695
0.078
0.075
0.072
0.079
0.0805
0.0905
0.098
0.102
0.114
0.114
0.117
0.119
0.113
0.106
0.1005
0.095
0.095
0.0985
0.108
0.089
0.083
0.077
0.089
0.0815
0.091
0.086
0.088
0.081
0.084
0.077
0.074
0.073
0.072
0.065
0.075
0.084
0.0755
0.087
0.0835
0.0965
0.0905
0.098
0.097
0.0795
0.074
0.0685
0.0725
0.077
0.0845
0.07
0.0655
0.065
0.0655
0.08
0.078
0.071
0.074
0.0625
0.0555
0.063
0.0745
0.071
0.074
0.071
0.074
0.0755
0.0745
0.0605
0.0615
0.051
0.0475
0.0565
0.072
0.0785
0.08
0.0695
0.068
0.068
0.063
0.0725
0.0835
0.081
0.0745
0.0715
0.0775
0.0555
0.0605
0.0685
0.07
0.0855
0.092
0.0925
0.092
0.094
0.0895
0.092
0.105
0.111
0.1145
0.1005
0.1035
0.0945
0.0795
0.087
0.0855
0.084
0.0795
0.07
0.0605
0.0535
0.053
0.059
0.0645
0.059
0.0715
0.0675
0.068
0.0635
0.069
0.078
0.0705
0.0815
0.067
0.0645
0.063
0.063
0.0625
0.0515
0.051
0.045
0.0495
0.0465
0.047
0.047
0.043
0.038
0.044
0.036
0.0325
0.043
0.059
0.0675
0.053
0.048
0.051
0.0495
0.0435
0.0555
0.048
0.051
0.0435
0.05
0.056
0.072
0.071
0.073
0.079
0.081
0.0935
0.1
0.095
0.089
0.0885
0.0955
0.098
0.0955
0.093
0.0875
0.089
0.089
0.074
0.0745
0.072
0.0765
0.073
0.071
0.0785
0.0755
0.0625
0.063
0.0585
0.057
0.054
0.0495
0.0495
0.0665
0.064
0.063
0.0625
0.069
0.079
0.061
0.0595
0.0815
0.0765
0.078
0.074
0.073
0.069
0.062
0.068
0.0605
0.069
0.0585
0.05
0.042
0.05
0.055
0.057
0.047
0.0485
0.0525
0.063
0.0645
0.06
0.057
0.0635
0.0695
0.071
0.0685
0.0665
0.06
0.0735
0.0755
0.074
0.0805
0.0705
0.0585
0.0595
0.0605
0.071
0.075
0.0755
0.0815
0.087
0.081
0.063
0.07
0.0705
0.0775
0.071
0.08
0.077
0.0715
0.066
0.072
0.062
0.053
0.0535
0.067
0.0545
0.0435
0.0485
0.0615
0.066
0.0695
0.061
0.076
0.0785
0.0635
0.0635
0.062
0.0685
0.064
0.0575
0.0535
0.059
0.0505
0.054
0.046
0.043
0.0465
0.0495
0.054
0.046
0.0425
0.0465
0.0545
0.0515
0.055
0.052
0.0515
0.0695
0.0715
0.071
0.063
0.06
0.081
0.0695
0.07
0.063
0.062
0.061
0.0745
0.066
0.0735
0.0795
0.0735
0.082
0.078
0.0685
0.072
0.0795
0.0715
0.0855
0.0925
0.086
0.075
0.0705
0.072
0.0735
0.0735
0.081
0.082
0.088
0.0795
0.0805
0.081
0.0905
0.087
0.0835
0.0855
0.081
0.0755
0.074
0.0735
0.0725
0.0735
0.068
0.075
0.0705
0.07
0.072
0.076
0.077
0.0685
0.066
0.0655
0.0655
0.0715
0.057
0.0595
0.067
0.059
0.06
0.0635
0.0685
0.0595
0.0585
0.0655
0.0635
0.0585
0.075
0.083
0.0945
0.1
0.103
0.11
0.099
0.099
0.097
0.084
0.0855
0.088
0.082
0.0865
0.1025
0.0905
0.0885
0.093
0.102
0.094
0.0925
0.1025
0.091
0.0785
0.0635
0.0625
0.0565
0.0665
0.0655
0.069
0.067
0.071
0.075
0.0715
0.061
0.065
0.07
0.06
0.0535
0.048
0.0445
0.0425
0.0395
0.0405
0.042
0.0445
0.057
0.0585
0.0615
0.065
0.052
0.0495
0.058
0.042
0.0395
0.0315
0.024
0.025
0.031
0.037
0.0385
0.031
0.0255
0.0225
0.028
0.0315
0.036
0.0375
0.038
0.031
0.029
0.0285
0.037
0.049
0.044
0.05
0.058
0.0485
0.0455
0.044
0.0475
0.047
0.0605
0.0575
0.069
0.0785
0.068
0.072
0.0675
0.07
0.073
0.0555
0.0505
0.0525
0.0525
0.052
0.0485
0.04
0.05
0.062
0.0605
0.059
0.057
0.0555
0.0505
0.05
0.054
0.0535
0.059
0.0605
0.056
0.0575
0.0525
0.0615
0.0595
0.065
0.07
0.0735
0.08
0.0705
0.064
0.0625
0.062
0.0655
0.072
0.069
0.058
0.0425
0.0385
0.0465
0.0575
0.0545
0.049
0.0435
0.0445
0.0415
0.0405
0.044
0.0405
0.0425
0.0415
0.044
0.063
0.0695
0.073
0.0715
0.062
0.067
0.071
0.0725
0.0795
0.0865
0.0745
0.0605
0.0605
0.067
0.065
0.0645
0.062
0.065
0.0585
0.058
0.056
0.058
0.062
0.0505
0.05
0.0415
