0.3405
0.326
0.337
0.327
0.3385
0.3395
0.3395
0.328
0.336
0.3365
0.334
0.336
0.3345
0.338
0.3335
0.321
0.3295
0.3305
0.3395
0.333
0.3345
0.339
0.333
0.3345
0.33
0.3215
0.3325
0.3385
0.335
0.335
0.3435
0.334
0.3255
0.3335
0.3375
0.3295
0.3355
0.3325
0.3395
0.34
0.3385
0.336
0.34
0.334
0.338
0.336
0.339
0.341
0.339
0.3395
0.3365
0.3265
0.3305
0.3275
0.3385
0.3375
0.3355
0.3295
0.3325
0.336
0.334
0.333
0.3295
0.3335
0.331
0.3285
0.334
0.332
0.349
0.329
0.334
0.325
0.3385
0.334
0.332
0.3295
0.3365
0.3325
0.336
0.3325
0.329
0.325
0.334
0.334
0.3325
0.321
0.329
0.337
0.341
0.3355
0.332
0.3335
0.331
0.3395
0.333
0.3275
0.335
0.3385
0.338
0.334
0.339
0.335
0.347
0.3415
0.3315
0.3415
0.33
0.328
0.328
0.3375
0.3325
0.329
0.331
0.342
0.3425
0.337
0.335
0.3345
0.3445
0.347
0.3345
0.34
0.33
0.336
0.338
0.332
0.3365
0.338
0.332
0.3245
0.3395
0.332
0.3225
0.329
0.333
0.32
0.33
0.3285
0.336
0.3315
0.3265
0.339
0.333
0.3245
0.3305
0.3425
0.32
0.3255
0.3415
0.331
0.325
0.335
0.3315
0.324
0.3315
0.337
0.3385
0.3345
0.332
0.331
0.331
0.3385
0.3325
0.3365
0.337
0.346
0.34
0.3415
0.325
0.3385
0.34
0.333
0.3405
0.3325
0.3315
0.3315
0.3335
0.3265
0.3275
0.34
0.338
0.336
0.337
0.335
0.331
0.326
0.329
0.3305
0.332
0.3335
0.339
0.3375
0.339
0.344
0.335
0.336
0.334
0.333
0.3275
0.3305
0.3305
0.3345
0.328
0.334
0.338
0.3415
0.3315
0.3305
0.3325
0.3365
0.333
0.3315
0.3325
0.333
0.3245
0.33
0.3385
0.3355
0.332
0.3245
0.334
0.331
0.3295
0.3395
0.336
0.337
0.3245
0.332
0.3375
0.336
0.3295
0.333
0.3435
0.333
0.331
0.333
0.337
0.3405
0.335
0.3305
0.3385
0.331
0.3365
0.34
0.3385
0.3385
0.33
0.339
0.3335
0.33
0.329
0.3355
0.3375
0.3345
0.336
0.335
0.3295
0.334
0.3365
0.3285
0.3335
0.3345
0.3355
0.341
0.324
0.3385
0.3305
0.3285
0.3265
0.328
0.3285
0.3335
0.3335
0.3335
0.327
0.3325
0.328
0.332
0.3195
0.3345
0.3305
0.3425
0.3385
0.3345
0.3335
0.329
0.3355
0.331
0.335
0.3455
0.341
0.3425
0.3405
0.34
0.338
0.3375
0.334
0.3365
0.336
0.333
0.329
0.328
0.33
0.34
0.3405
0.3415
0.34
0.3435
0.3375
0.3395
0.3355
0.3375
0.337
0.339
0.33
0.336
0.3345
0.339
0.3415
0.3335
0.3385
0.333
0.328
0.33
0.3365
0.336
0.3305
0.339
0.328
0.337
0.329
0.3345
0.341
0.3355
0.33
0.3305
0.3395
0.3365
0.336
0.3325
0.33
0.346
0.3365
0.337
0.3415
0.3315
0.332
0.3385
0.343
0.3315
0.3365
0.341
0.325
0.338
0.3365
0.3415
0.336
0.326
0.336
0.328
0.331
0.345
0.3305
0.333
0.338
0.335
0.337
0.3345
0.3355
0.339
0.3395
0.3245
0.327
0.329
0.3215
0.328
0.34
0.3355
0.3395
0.336
0.328
0.3295
0.334
0.3445
0.335
0.3385
0.335
0.332
0.339
0.3275
0.3355
0.324
0.3255
0.3305
0.323
0.329
0.341
0.339
0.3285
0.3355
0.332
0.3315
0.337
0.338
0.3405
0.331
0.3345
0.327
0.335
0.341
0.3425
0.333
0.3375
0.3455
0.3385
0.3305
0.328
0.337
0.3415
0.333
0.336
0.3325
0.3335
0.3285
0.328
0.3385
0.3325
0.3325
0.3325
0.3285
0.343
0.333
0.332
0.334
0.332
0.3365
0.337
0.3335
0.3355
0.32
0.342
0.334
0.3315
0.3405
0.3375
0.3365
0.3365
0.344
0.331
0.3255
0.3295
0.3265
0.337
0.335
0.3375
0.3305
0.335
0.3285
0.3305
0.338
0.333
0.338
0.328
0.3365
0.333
0.3325
0.3365
0.3205
0.327
0.3355
0.328
0.3355
0.334
0.3235
0.327
0.3345
0.33
0.3295
0.3425
0.339
0.336
0.3405
0.333
0.329
0.3305
0.3415
0.3405
0.333
0.3315
0.3435
0.336
0.337
0.342
0.3375
0.3405
0.332
0.339
0.3345
0.333
0.3315
0.331
0.3265
0.34
0.3365
0.3355
0.3355
0.3295
0.341
0.335
0.331
0.328
0.334
0.336
0.324
0.3325
0.3335
0.333
0.3345
0.33
0.3385
0.3315
0.331
0.328
0.3305
0.3335
0.3355
0.3375
0.3355
0.322
0.3305
0.336
0.3295
0.3345
0.3305
0.337
0.335
0.3385
0.3355
0.3325
0.3405
0.3375
0.337
0.33
0.3255
0.3305
0.3375
0.3375
0.334
0.335
0.3315
0.3355
0.3355
0.332
0.3315
0.3355
0.3255
0.3325
0.3355
0.331
0.341
0.335
0.334
0.3275
0.331
0.3315
0.3395
0.328
0.332
0.3335
0.326
0.3315
0.336
0.341
0.3335
0.338
0.3275
0.334
0.3305
0.3305
0.333
0.3335
0.3355
0.336
0.3345
0.334
0.331
0.321
0.337
0.3315
0.3275
0.3285
0.339
0.3425
0.3355
0.328
0.325
0.335
0.3365
0.3345
0.3405
0.3435
0.336
0.336
0.3325
0.335
0.331
0.3285
0.324
0.3305
0.3375
0.3345
0.3225
0.325
0.332
0.317
0.3315
0.3275
0.3405
0.3325
0.34
0.34
0.3285
0.3325
0.345
0.331
0.337
0.339
0.334
0.332
0.3265
0.3335
0.334
0.335
0.3325
0.336
0.3315
0.3355
0.3315
0.328
0.3285
0.341
0.3405
0.3375
0.3295
0.333
0.3395
0.331
0.3405
0.334
0.33
0.3295
0.329
0.326
0.338
0.3415
0.3325
0.3265
0.329
0.3355
0.3435
0.328
0.3245
0.326
0.3295
0.3355
0.3355
0.3405
0.341
0.3365
0.335
0.338
0.34
0.3335
0.331
0.3335
0.336
0.338
0.3265
0.324
0.3255
0.3315
0.335
0.34
0.331
0.3355
0.3335
0.336
0.336
0.3425
0.3345
0.334
0.339
0.3335
0.3325
0.3355
0.3455
0.3325
0.3365
0.3335
0.3305
0.3205
0.3295
0.336
0.335
0.334
0.3395
0.324
0.327
0.3315
0.328
0.3245
0.3355
0.3275
0.3365
0.3255
0.338
0.336
0.3425
0.337
0.3415
0.3375
0.3305
0.331
0.335
0.3335
0.336
0.3395
0.339
0.342
0.332
0.3375
0.3335
0.3395
0.3375
0.334
0.3265
0.3265
0.328
0.3365
0.326
0.336
0.3355
0.333
0.3385
0.3365
0.3305
0.341
0.3295
0.3215
0.333
0.3385
0.335
0.334
0.337
0.338
0.342
0.3315
0.335
0.329
0.333
0.3305
0.3345
0.3235
0.335
0.338
0.3275
0.3425
0.3305
0.3365
0.329
0.326
0.3325
0.3405
0.328
0.325
0.332
0.329
0.339
0.336
0.335
0.328
0.331
0.328
0.334
0.3295
0.326
0.335
0.338
0.3285
0.3385
0.3325
0.3255
0.333
0.3405
0.33
0.3305
0.3275
0.3385
0.324
0.327
0.3175
0.3315
0.3365
0.3395
0.337
0.3255
0.329
0.3235
0.33
0.331
0.3205
0.332
0.331
0.3415
0.3325
0.3415
0.338
0.336
0.331
0.332
0.334
0.341
0.339
0.3365
0.331
0.3405
0.337
0.337
0.3265
0.3365
0.3345
0.3445
0.329
0.331
0.3255
0.3385
0.329
0.321
0.3385
0.331
0.342
0.328
0.325
0.34
0.34
0.3405
0.332
0.3325
0.3285
0.327
0.328
0.336
0.337
0.3335
0.3345
0.3295
0.3395
0.336
0.328
0.3305
0.3405
0.342
0.334
0.3365
0.3325
0.3325
0.3405
0.3365
0.3375
0.3335
0.3295
0.327
0.3205
0.3265
0.322
0.3345
0.331
0.327
0.3315
0.3255
0.34
0.3275
0.3295
0.331
0.341
0.338
0.3335
0.3365
0.3275
0.338
0.3355
0.329
0.3205
0.33
0.342
0.339
0.335
0.3345
0.3345
0.336
0.329
0.326
0.333
0.333
0.3335
0.331
0.3315
0.3345
0.339
0.33
0.3305
0.33
0.332
0.3415
0.3305
0.3385
0.3345
0.334
0.335
0.338
0.346
0.3325
0.34
0.334
0.3315
0.331
0.3295
0.332
0.332
0.3295
0.3325
0.339
0.3365
0.3365
0.333
0.337
0.325
0.329
0.339
0.3315
0.3295
0.3275
0.3325
0.342
0.3355
0.331
0.342
0.325
0.341
0.327
0.3345
0.3265
0.331
0.3365
0.3385
0.335
0.3315
0.3325
0.3395
0.333
0.33
0.332
0.3275
0.337
0.3395
0.3355
0.346
0.334
0.337
0.3375
0.345
0.331
0.3305
0.331
0.333
0.333
0.3305
0.3345
0.3365
0.323
0.3265
0.3305
0.3315
0.329
0.3345
0.3335
0.3335
0.327
0.34
0.329
0.33
0.335
0.3335
0.338
0.338
0.338
0.335
0.3315
0.3275
0.3335
