0.2125
0.2105
0.2015
0.21
0.1945
0.1925
0.1935
0.193
0.1905
0.1965
0.1925
0.204
0.2045
0.2145
0.2105
0.2225
0.212
0.211
0.228
0.2155
0.2135
0.202
0.201
0.198
0.2015
0.201
0.2095
0.2075
0.2045
0.2
0.204
0.1945
0.203
0.1885
0.192
0.19
0.1855
0.1935
0.1915
0.194
0.2075
0.2065
0.203
0.2005
0.191
0.2055
0.206
0.1905
0.1915
0.1885
0.2075
0.2155
0.2065
0.2205
0.214
0.2085
0.2105
0.2145
0.209
0.195
0.205
0.198
0.2195
0.2035
0.205
0.2045
0.1815
0.1845
0.19
0.1905
0.1845
0.189
0.198
0.189
0.198
0.2025
0.2115
0.221
0.211
0.207
0.206
0.2005
0.203
0.214
0.205
0.2035
0.1995
0.206
0.219
0.2195
0.214
0.2135
0.201
0.2095
0.2035
0.2025
0.198
0.2085
0.226
0.218
0.206
0.2115
0.2065
0.2045
0.1995
0.1925
0.186
0.1725
0.1875
0.194
0.1985
0.196
0.203
0.2035
0.1955
0.2015
0.1975
0.201
0.212
0.209
0.212
0.2015
0.2235
0.206
0.2055
0.1965
0.1885
0.1905
0.1955
0.202
0.193
0.189
0.2035
0.201
0.189
0.196
0.1965
0.1985
0.198
0.193
0.2035
0.198
0.2105
0.1975
0.1865
0.195
0.218
0.2095
0.2025
0.1965
0.194
0.1925
0.176
0.1895
0.1975
0.2045
0.195
0.2045
0.2055
0.2005
0.2075
0.2
0.1995
0.2095
0.2115
0.202
0.2035
0.2125
0.2015
0.198
0.2225
0.196
0.1925
0.1805
0.1925
0.208
0.2035
0.206
0.2065
0.195
0.192
0.19
0.1785
0.188
0.1855
0.1865
0.196
0.182
0.173
0.1875
0.1965
0.201
0.207
0.205
0.212
0.2245
0.2125
0.206
0.211
0.217
0.2095
0.215
0.2105
0.213
0.22
0.219
0.206
0.1995
0.214
0.207
0.2
0.1895
0.195
0.212
0.203
0.186
0.199
0.2025
0.1995
0.214
0.205
0.205
0.2005
0.202
0.213
0.1865
0.2
0.1885
0.192
0.1925
0.1945
0.199
0.196
0.206
0.1905
0.197
0.1975
0.2035
0.1865
0.182
0.208
0.196
0.2075
0.2015
0.2
0.2005
0.198
0.2035
0.2035
0.2025
0.192
0.2055
0.2085
0.21
0.2015
0.205
0.1915
0.195
0.209
0.2295
0.2085
0.209
0.196
0.1805
0.179
0.1775
0.193
0.188
0.198
0.192
0.1865
0.2005
0.19
0.203
0.189
0.2025
0.1895
0.208
0.208
0.2
0.194
0.206
0.2035
0.199
0.203
0.1965
0.209
0.1975
0.198
0.2035
0.201
0.1965
0.183
0.1895
0.1935
0.2035
0.1945
0.19
0.193
0.2075
0.201
0.193
0.19
0.1915
0.2005
0.2095
0.2265
0.214
0.1925
0.2065
0.216
0.2095
0.207
0.213
0.207
0.204
0.183
0.1905
0.2045
0.1945
0.1945
0.199
0.2165
0.2075
0.2095
0.2025
0.198
0.2055
0.193
0.1795
0.183
0.193
0.2055
0.2135
0.207
0.2085
0.199
0.194
0.1965
0.196
0.195
0.198
0.212
0.22
0.2135
0.1945
0.1915
0.2015
0.1975
0.1985
0.2005
0.2075
0.1985
0.206
0.201
0.206
0.208
0.201
0.21
0.2085
0.2055
0.213
0.1985
0.1985
0.203
0.205
0.204
0.1905
0.1975
0.211
0.2015
0.1945
0.2115
0.225
0.2105
0.2075
0.2015
0.197
0.2025
0.186
0.193
0.2145
0.215
0.2215
0.2215
0.195
0.206
0.1965
0.1935
0.1775
0.184
0.188
0.1925
0.174
0.1835
0.189
0.1975
0.194
0.1975
0.199
0.205
0.188
0.185
0.1945
0.203
0.2075
0.213
0.1965
0.178
0.1885
0.1935
0.198
0.2045
0.2125
0.2105
0.2155
0.22
0.2005
0.2115
0.21
0.2075
0.195
0.201
0.206
0.193
0.197
0.205
0.1885
0.201
0.205
0.2
0.196
0.2085
0.216
0.1865
0.201
0.196
0.1965
0.181
0.1995
0.206
0.1905
0.207
0.2015
0.205
0.218
0.224
0.214
0.207
0.1995
0.1915
0.1975
0.178
0.181
0.196
0.19
0.1955
0.1985
0.209
0.216
0.224
0.205
0.2155
0.201
0.1955
0.1955
0.2085
0.2245
0.211
0.206
0.205
0.1965
0.1985
0.1855
0.1765
0.19
0.176
0.182
0.203
0.2045
0.206
0.208
0.199
0.2025
0.1965
0.208
0.21
0.2025
0.1835
0.184
0.182
0.19
0.192
0.203
0.2075
0.1935
0.201
0.1985
0.1955
0.1905
0.195
0.2015
0.204
0.2135
0.207
0.201
0.2045
0.212
0.2095
0.2155
0.1945
0.2
0.1965
0.1945
0.1905
0.201
0.196
0.1945
0.2015
0.2
0.1835
0.2015
0.201
0.197
0.1925
0.1905
0.1875
0.184
0.196
0.204
0.195
0.1905
0.193
0.207
0.1995
0.201
0.1965
0.201
0.1985
0.2055
0.198
0.213
0.1995
0.1905
0.199
0.197
0.2075
0.2105
0.211
0.2065
0.2015
0.218
0.2065
0.2
0.188
0.1895
0.179
0.1815
0.1995
0.2
0.189
0.18
0.194
0.187
0.1875
0.19
0.1995
0.1975
0.2065
0.2015
0.204
0.216
0.2075
0.208
0.2015
0.1955
0.2135
0.2135
0.1935
0.207
0.212
0.2175
0.1955
0.194
0.1985
0.2175
0.197
0.1995
0.208
0.215
0.2175
0.1845
0.192
0.183
0.1885
0.196
0.194
0.1875
0.191
0.205
0.205
0.192
0.1965
0.1965
0.2035
0.1965
0.1845
0.1885
0.1825
0.182
0.199
0.205
0.198
0.213
0.204
0.2025
0.1965
0.207
0.205
0.191
0.1915
0.19
0.1785
0.1795
0.186
0.1935
0.1925
0.1945
0.189
0.203
0.2045
0.2055
0.1955
0.186
0.1855
0.1975
0.1915
0.1865
0.2035
0.209
0.21
0.208
0.203
0.21
0.204
0.2025
0.1945
0.1835
0.185
0.19
0.187
0.196
0.185
0.184
0.1935
0.199
0.1905
0.184
0.1945
0.1965
0.19
0.1935
0.202
0.2115
0.194
0.1895
0.184
0.183
0.1915
0.1895
0.1985
0.196
0.217
0.2175
0.2205
0.198
0.2015
0.203
0.197
0.2
0.195
0.191
0.192
0.1955
0.189
0.1895
0.194
0.197
0.1845
0.198
0.199
0.194
0.198
0.177
0.176
0.195
0.1875
0.194
0.198
0.193
0.1855
0.2005
0.2075
0.21
0.2025
0.218
0.2175
0.2155
0.2105
0.202
0.2045
0.184
0.205
0.213
0.215
0.208
0.2045
0.1985
0.1965
0.2085
0.2045
0.193
0.1995
0.2145
0.197
0.195
0.1925
0.2035
0.202
0.205
0.2135
0.2195
0.2095
0.2
0.1955
0.208
0.2175
0.213
0.2115
0.209
0.191
0.1995
0.207
0.215
0.2105
0.193
0.208
0.208
0.1875
0.195
0.209
0.19
0.192
0.1985
0.22
0.2045
0.22
0.2285
0.218
0.211
0.2075
0.2115
0.214
0.198
0.176
0.184
0.1945
0.194
0.2
0.1995
0.193
0.2095
0.201
0.205
0.1975
0.2
0.212
0.206
0.2085
0.2055
0.195
0.2025
0.1865
0.193
0.1985
0.2055
0.1865
0.2025
0.2075
0.21
0.2245
0.2185
0.208
0.189
0.201
0.1975
0.206
0.209
0.211
0.215
0.212
0.2065
0.2055
0.204
0.1995
0.2025
0.2045
0.2105
0.214
0.2005
0.21
0.196
0.19
0.193
0.185
0.184
0.1855
0.197
0.204
0.2055
0.198
0.225
0.221
0.216
0.2005
0.193
0.202
0.192
0.2005
0.203
0.191
0.2015
0.192
0.202
0.2065
0.199
0.2115
0.193
0.2055
0.205
0.2025
0.191
0.204
0.206
0.1895
0.2
0.204
0.188
0.1895
0.1945
0.2105
0.211
0.217
0.2
0.1965
0.184
0.18
0.1745
0.193
0.1995
0.205
0.2185
0.2145
0.2015
0.1955
0.203
0.207
0.193
0.195
0.2075
0.1975
0.1955
0.1925
0.2025
0.2
0.2045
0.2095
0.2195
0.202
0.2005
0.201
0.2125
0.2115
0.204
0.1905
0.1865
0.1845
0.1955
0.198
0.198
0.21
0.2055
0.1895
0.2
0.207
0.215
0.1985
0.1925
0.192
0.194
0.188
0.188
0.2025
0.21
0.1985
0.1895
0.1915
0.188
0.2095
0.1985
0.2025
0.2015
0.196
0.198
0.1765
0.192
0.2095
0.2005
0.2175
0.2115
0.1995
0.201
0.197
0.2095
0.2005
0.1945
0.196
0.183
0.189
0.2
0.2135
0.2025
0.1905
0.195
0.1985
0.199
0.2055
0.1995
0.198
0.1845
0.189
0.186
0.1895
0.198
0.1915
0.2035
0.1985
0.1915
0.199
0.196
0.1995
0.1975
0.1985
0.209
0.204
0.196
0.2055
0.208
0.206
0.195
0.1975
0.2035
0.201
0.201
0.1985
0.205
0.1845
0.192
0.1885
0.195
0.208
0.204
0.216
0.2035
0.2005
0.1935
0.207
0.2005
0.198
0.194
0.1885
0.192
0.1955
0.191
0.193
0.195
0.204
0.2145
0.21
0.208
0.2165
0.202
0.1905
0.194
0.194
0.2005
0.1735
0.1925
0.192
0.191
