0.337
0.3335
0.346
0.327
0.3335
0.3355
0.3305
0.3235
0.338
0.3285
0.334
0.332
0.3375
0.335
0.3375
0.3285
0.334
0.3335
0.3385
0.3275
0.338
0.3305
0.3345
0.326
0.323
0.3345
0.3335
0.336
0.3335
0.3375
0.334
0.3405
0.3335
0.325
0.328
0.3345
0.3275
0.3345
0.3375
0.341
0.331
0.3365
0.3405
0.3305
0.329
0.337
0.335
0.336
0.3415
0.33
0.328
0.3295
0.337
0.348
0.3375
0.343
0.3405
0.3285
0.3345
0.3335
0.3355
0.339
0.3245
0.334
0.3315
0.3345
0.3315
0.3435
0.3425
0.333
0.3265
0.3235
0.3335
0.339
0.33
0.338
0.33
0.331
0.333
0.3385
0.3325
0.323
0.323
0.339
0.3295
0.327
0.329
0.327
0.3275
0.3305
0.325
0.336
0.3315
0.3335
0.3325
0.3425
0.3315
0.3345
0.341
0.3345
0.34
0.331
0.339
0.3345
0.3335
0.335
0.3435
0.328
0.3335
0.3285
0.335
0.3305
0.332
0.3315
0.3365
0.335
0.317
0.324
0.339
0.3275
0.3365
0.333
0.3295
0.321
0.3325
0.3315
0.3315
0.338
0.3295
0.34
0.3435
0.343
0.333
0.345
0.35
0.337
0.327
0.339
0.326
0.3405
0.335
0.332
0.3315
0.3405
0.3285
0.329
0.333
0.3385
0.3355
0.335
0.338
0.327
0.34
0.335
0.339
0.344
0.334
0.3225
0.3295
0.3415
0.3355
0.3305
0.336
0.331
0.343
0.3355
0.331
0.3305
0.329
0.3285
0.3385
0.338
0.331
0.333
0.3275
0.3295
0.336
0.3355
0.338
0.341
0.327
0.3375
0.33
0.3305
0.3435
0.3295
0.336
0.3265
0.338
0.329
0.3345
0.3365
0.34
0.3415
0.344
0.329
0.329
0.3275
0.3275
0.335
0.333
0.3415
0.332
0.333
0.333
0.335
0.332
0.3335
0.349
0.334
0.3355
0.3255
0.343
0.339
0.3365
0.33
0.339
0.3365
0.338
0.3315
0.3355
0.3335
0.334
0.3365
0.345
0.3495
0.339
0.33
0.3325
0.332
0.336
0.3385
0.336
0.338
0.333
0.332
0.3265
0.3355
0.329
0.3375
0.337
0.336
0.338
0.3395
0.33
0.3255
0.3285
0.318
0.3335
0.334
0.329
0.328
0.333
0.3365
0.3455
0.34
0.3325
0.329
0.325
0.332
0.335
0.3275
0.3295
0.3375
0.342
0.332
0.3405
0.328
0.329
0.333
0.332
0.335
0.327
0.338
0.341
0.3425
0.331
0.336
0.335
0.333
0.341
0.341
0.328
0.337
0.335
0.3345
0.3275
0.326
0.332
0.3315
0.336
0.3345
0.33
0.3295
0.342
0.328
0.3335
0.3395
0.3375
0.3275
0.3285
0.3375
0.3335
0.3395
0.335
0.324
0.3245
0.3335
0.332
0.332
0.325
0.3325
0.3285
0.332
0.3295
0.334
0.3305
0.3375
0.3295
0.342
0.336
0.3355
0.336
0.326
0.3395
0.335
0.334
0.3405
0.34
0.3375
0.331
0.336
0.335
0.3305
0.33
0.3305
0.335
0.3375
0.335
0.3435
0.339
0.342
0.332
0.3305
0.326
0.3295
0.332
0.334
0.3385
0.335
0.3375
0.34
0.334
0.3315
0.337
0.3235
0.328
0.3225
0.326
0.336
0.3275
0.3355
0.333
0.338
0.333
0.3305
0.3275
0.335
0.3255
0.337
0.3385
0.3325
0.3355
0.334
0.3355
0.3295
0.334
0.334
0.334
0.3315
0.336
0.334
0.3335
0.34
0.332
0.3365
0.328
0.328
0.329
0.339
0.3375
0.3345
0.319
0.331
0.333
0.334
0.3315
0.3415
0.325
0.34
0.3385
0.331
0.333
0.327
0.325
0.33
0.3295
0.338
0.3365
0.324
0.339
0.3365
0.3285
0.3325
0.335
0.3295
0.336
0.336
0.3365
0.3345
0.337
0.3335
0.3355
0.337
0.33
0.3315
0.3415
0.3205
0.333
0.333
0.3345
0.3445
0.334
0.326
0.327
0.3255
0.338
0.3315
0.3365
0.3335
0.3335
0.324
0.334
0.33
0.336
0.328
0.334
0.341
0.339
0.336
0.33
0.332
0.336
0.3355
0.3355
0.3345
0.332
0.336
0.34
0.337
0.339
0.34
0.338
0.339
0.339
0.341
0.335
0.338
0.336
0.335
0.33
0.337
0.329
0.3375
0.333
0.3335
0.3205
0.334
0.329
0.3305
0.339
0.3355
0.326
0.334
0.3315
0.334
0.3345
0.3385
0.333
0.34
0.329
0.3335
0.339
0.325
0.3395
0.328
0.3265
0.3255
0.333
0.3265
0.324
0.3355
0.345
0.3405
0.3415
0.3325
0.323
0.3295
0.334
0.323
0.324
0.3365
0.3365
0.3295
0.3255
0.327
0.3415
0.33
0.3305
0.3265
0.3245
0.333
0.3385
0.337
0.329
0.3325
0.331
0.3255
0.3375
0.3385
0.335
0.338
0.327
0.327
0.33
0.3285
0.331
0.3335
0.333
0.332
0.3255
0.328
0.327
0.328
0.33
0.335
0.3365
0.3275
0.326
0.3365
0.335
0.336
0.3245
0.3345
0.3315
0.334
0.3285
0.329
0.3305
0.3255
0.336
0.3305
0.338
0.3285
0.342
0.3255
0.3265
0.325
0.3315
0.3355
0.332
0.331
0.333
0.337
0.314
0.336
0.33
0.331
0.3285
0.3245
0.3225
0.33
0.33
0.336
0.3345
0.3415
0.334
0.3365
0.335
0.334
0.3365
0.333
0.3305
0.342
0.3255
0.334
0.331
0.3325
0.333
0.3355
0.333
0.33
0.3365
0.329
0.345
0.329
0.33
0.337
0.3325
0.3415
0.3425
0.3325
0.336
0.3365
0.333
0.338
0.3245
0.339
0.3315
0.33
0.3375
0.3285
0.331
0.329
0.336
0.333
0.3305
0.3355
0.336
0.3295
0.331
0.3385
0.344
0.3295
0.3305
0.3285
0.331
0.34
0.333
0.3385
0.3335
0.3395
0.339
0.3305
0.323
0.328
0.3245
0.331
0.331
0.3265
0.3275
0.324
0.3385
0.335
0.3335
0.334
0.3435
0.335
0.328
0.335
0.323
0.324
0.3305
0.343
0.338
0.3425
0.34
0.339
0.342
0.333
0.341
0.3365
0.3325
0.333
0.326
0.3375
0.3385
0.332
0.3305
0.334
0.324
0.3245
0.3365
0.3295
0.331
0.3325
0.343
0.337
0.34
0.3355
0.34
0.3375
0.3315
0.3435
0.3335
0.3365
0.3315
0.3375
0.3335
0.337
0.3305
0.3325
0.335
0.3335
0.32
0.3385
0.3355
0.326
0.326
0.342
0.337
0.334
0.3355
0.333
0.3275
0.33
0.34
0.3475
0.343
0.337
0.3335
0.3355
0.329
0.333
0.326
0.331
0.3405
0.3255
0.3405
0.3305
0.325
0.336
0.3265
0.334
0.3295
0.3265
0.337
0.3275
0.3325
0.3345
0.3295
0.315
0.3355
0.3325
0.336
0.335
0.3345
0.3245
0.3335
0.3325
0.333
0.34
0.339
0.341
0.337
0.3285
0.329
0.327
0.3305
0.333
0.3415
0.333
0.339
0.335
0.3305
0.3355
0.3365
0.336
0.3415
0.334
0.329
0.332
0.34
0.336
0.3355
0.3285
0.3295
0.342
0.323
0.3335
0.333
0.334
0.327
0.329
0.3325
0.3315
0.3335
0.329
0.3275
0.3285
0.332
0.3285
0.3225
0.3365
0.332
0.3295
0.3345
0.321
0.333
0.327
0.3325
0.3335
0.333
0.3315
0.335
0.3285
0.3305
0.3205
0.3275
0.333
0.3275
0.334
0.33
0.339
0.3345
0.327
0.3325
0.33
0.3395
0.33
0.335
0.3285
0.328
0.3285
0.326
0.331
0.323
0.3245
0.331
0.332
0.331
0.336
0.337
0.339
0.338
0.34
0.33
0.333
0.329
0.335
0.3345
0.3395
0.3185
0.325
0.3295
0.3365
0.3265
0.324
0.33
0.334
0.338
0.339
0.3255
0.334
0.3255
0.328
0.332
0.332
0.3245
0.332
0.338
0.3305
0.3315
0.343
0.331
0.335
0.3265
0.3235
0.3325
0.3275
0.3355
0.333
0.3335
0.3345
0.343
0.3405
0.3435
0.3325
0.332
0.339
0.332
0.343
0.329
0.3345
0.341
0.3265
0.3385
0.339
0.329
0.332
0.3305
0.337
0.333
0.3395
0.335
0.338
0.339
0.321
0.3365
0.3395
0.33
0.343
0.341
0.3335
0.3205
0.333
0.3375
0.338
0.3355
0.3285
0.3305
0.3275
0.329
0.332
0.339
0.3385
0.336
0.3295
0.333
0.3355
0.333
0.341
0.339
0.335
0.334
0.3315
0.3315
0.3415
0.3345
0.33
0.3325
0.3355
0.322
0.3275
0.335
0.329
0.3315
0.339
0.331
0.3325
0.337
0.3365
0.3355
0.34
0.3235
0.3365
0.3345
0.3405
0.3345
0.337
0.3395
0.3375
0.337
0.331
0.3405
0.3305
0.328
0.3375
0.3325
0.3325
0.3295
0.3245
0.328
0.338
0.3425
0.328
0.3285
0.33
0.3255
0.3345
0.3415
0.341
0.33
0.3335
0.3435
0.331
0.336
0.3265
0.3315
0.3285
0.338
0.329
0.33
0.3315
0.3325
0.327
0.3385
0.317
0.3245
0.335
0.3315
0.344
0.3335
0.33
0.3385
0.3355
0.3315
0.333
0.325
0.3285
