1,3
2,3
3,3
4,3
5,3
6,4
7,4
8,4
9,4
10,4
11,4
12,4
13,4
14,4
15,4
16,4
17,4
18,4
19,4
20,4
21,4
22,4
23,4
24,4
25,4
26,4
27,4
28,4
29,4
30,4
31,4
32,4
33,4
34,4
35,4
36,4
37,4
38,4
39,4
40,4
41,4
42,4
43,4
44,4
45,4
46,4
47,4
48,4
49,4
50,4
51,4
52,4
53,4
54,4
55,4
56,4
57,4
58,4
59,4
60,4
61,4
62,4
63,4
64,4
65,4
66,4
67,4
68,4
69,4
70,4
71,4
72,4
73,4
74,4
75,4
76,4
77,4
78,4
79,4
80,4
81,4
82,4
83,4
84,4
85,4
86,4
87,4
88,4
89,4
90,4
91,4
92,4
93,4
94,4
95,4
96,4
97,4
98,4
99,4
100,4
101,4
102,4
103,4
104,4
105,4
106,4
107,4
108,4
109,4
110,4
111,4
112,4
113,4
114,4
115,4
116,4
117,4
118,4
119,4
120,4
121,4
122,4
123,4
124,4
125,4
126,4
127,4
128,4
129,4
130,4
131,4
132,4
133,4
134,4
135,4
136,4
137,4
138,4
139,4
140,4
141,4
142,4
143,4
144,4
145,4
146,4
147,4
148,4
149,4
150,4
151,4
152,4
153,4
154,4
155,4
156,4
157,4
158,4
159,4
160,4
161,4
162,4
163,4
164,4
165,4
166,4
167,4
168,4
169,4
170,4
171,4
172,4
173,4
174,4
175,4
176,4
177,4
178,4
179,4
180,4
181,4
182,4
183,4
184,5
185,5
186,5
187,5
188,5
189,5
190,5
191,5
192,5
193,5
194,5
195,5
196,5
197,5
198,5
199,5
200,5
201,5
202,5
203,5
204,5
205,5
206,5
207,5
208,5
209,5
210,5
211,5
212,5
213,5
214,5
215,5
216,5
217,5
218,5
219,5
220,5
221,5
222,5
223,5
224,5
225,5
226,5
227,5
228,5
229,5
230,5
231,5
232,5
233,5
234,5
235,5
236,6
237,6
238,6
239,6
240,5
241,5
242,5
243,5
244,5
245,5
246,5
247,5
248,5
249,5
250,5
251,5
252,5
253,5
254,5
255,5
256,5
257,5
258,5
259,5
260,5
261,5
262,5
263,5
264,5
265,5
266,5
267,5
268,5
269,5
270,5
271,5
272,5
273,5
274,5
275,5
276,5
277,5
278,5
279,5
280,5
281,5
282,5
283,5
284,5
285,5
286,5
287,5
288,5
289,5
290,5
291,5
292,5
293,5
294,5
295,5
296,5
297,5
298,5
299,5
300,5
301,5
302,5
303,5
304,5
305,5
306,5
307,5
308,5
309,5
310,5
311,5
312,5
313,5
314,5
315,5
316,5
317,5
318,5
319,5
320,5
321,5
322,5
323,5
324,5
325,5
326,5
327,5
328,5
329,5
330,5
331,5
332,5
333,5
334,5
335,5
336,5
337,5
338,5
339,5
340,5
341,5
342,5
343,5
344,5
345,5
346,5
347,5
348,5
349,5
350,5
351,5
352,5
353,5
354,5
355,6
356,6
357,6
358,7
359,7
360,7
361,7
362,7
363,7
364,7
365,7
366,7
367,7
368,7
369,7
370,7
371,7
372,7
373,7
374,7
375,7
376,7
377,7
378,7
379,7
380,7
381,7
382,7
383,7
384,7
385,7
386,7
387,7
388,7
389,7
390,7
391,7
392,7
393,7
394,7
395,7
396,7
397,7
398,7
399,7
400,7
401,7
402,7
403,7
404,7
405,7
406,7
407,8
408,8
409,7
410,7
411,7
412,7
413,7
414,7
415,7
416,7
417,7
418,7
419,7
420,7
421,7
422,7
423,7
424,7
425,7
426,7
427,7
428,7
429,7
430,7
431,7
432,7
433,7
434,7
435,7
436,7
437,7
438,7
439,7
440,7
441,7
442,7
443,7
444,7
445,7
446,7
447,7
448,7
449,7
450,7
451,7
452,7
453,7
454,7
455,7
456,7
457,7
458,7
459,7
460,7
461,7
462,7
463,7
464,7
465,7
466,7
467,7
468,7
469,7
470,7
471,7
472,7
473,7
474,7
475,7
476,7
477,7
478,7
479,7
480,7
481,7
482,7
483,7
484,7
485,7
486,7
487,7
488,7
489,7
490,7
491,7
492,7
493,7
494,7
495,7
496,7
497,7
498,7
499,7
500,7
501,7
502,7
503,7
504,7
505,7
506,7
507,7
508,7
509,7
510,7
511,7
512,7
513,7
514,7
515,7
516,7
517,7
518,7
519,7
520,7
521,7
522,7
523,7
524,7
525,7
526,7
527,7
528,7
529,7
530,7
531,7
532,7
533,7
534,7
535,7
536,7
537,7
538,7
539,7
540,7
541,7
542,7
543,7
544,7
545,7
546,7
547,7
548,7
549,7
550,8
551,7
552,7
553,7
554,7
555,7
556,7
557,7
558,7
559,7
560,7
561,7
562,7
563,7
564,7
565,7
566,7
567,7
568,7
569,7
570,7
571,7
572,7
573,7
574,7
575,7
576,7
577,7
578,7
579,7
580,7
581,7
582,7
583,7
584,7
585,7
586,7
587,7
588,7
589,7
590,7
591,7
592,7
593,7
594,7
595,7
596,7
597,8
598,8
599,8
600,8
601,8
602,7
603,7
604,7
605,7
606,7
607,7
608,7
609,7
610,7
611,7
612,7
613,7
614,7
615,7
616,7
617,7
618,7
619,7
620,7
621,7
622,7
623,7
624,7
625,7
626,7
627,7
628,7
629,7
630,7
631,7
632,7
633,7
634,7
635,7
636,7
637,7
638,7
639,7
640,7
641,7
642,7
643,7
644,7
645,7
646,7
647,7
648,7
649,7
650,7
651,7
652,7
653,7
654,7
655,7
656,7
657,7
658,7
659,7
660,7
661,7
662,7
663,7
664,7
665,7
666,7
667,7
668,7
669,7
670,7
671,7
672,7
673,7
674,7
675,7
676,7
677,7
678,7
679,7
680,7
681,7
682,7
683,7
684,7
685,7
686,7
687,7
688,7
689,7
690,7
691,7
692,7
693,7
694,7
695,7
696,7
697,7
698,7
699,7
700,7
701,7
702,7
703,7
704,7
705,7
706,7
707,7
708,7
709,7
710,7
711,7
712,7
713,7
714,7
715,7
716,7
717,7
718,7
719,7
720,7
721,7
722,7
723,7
724,7
725,7
726,7
727,7
728,7
729,7
730,7
731,7
732,7
733,7
734,7
735,7
736,7
737,7
738,7
739,7
740,7
741,7
742,7
743,7
744,7
745,7
746,7
747,7
748,7
749,7
750,7
751,7
752,7
753,7
754,8
755,8
756,7
757,7
758,7
759,7
760,8
761,7
762,7
763,7
764,7
765,7
766,7
767,7
768,7
769,7
770,7
771,7
772,7
773,7
774,7
775,7
776,7
777,7
778,7
779,7
780,7
781,7
782,7
783,7
784,7
785,7
786,7
787,7
788,7
789,7
790,7
791,7
792,7
793,7
794,7
795,7
796,7
797,7
798,7
799,7
800,7
801,7
802,7
803,7
804,7
805,7
806,7
807,7
808,7
809,7
810,7
811,7
812,7
813,7
814,7
815,7
816,7
817,7
818,7
819,7
820,7
821,7
822,7
823,7
824,7
825,7
826,7
827,7
828,7
829,7
830,7
831,7
832,7
833,7
834,7
835,7
836,7
837,7
838,7
839,7
840,7
841,7
842,7
843,7
844,7
845,7
846,7
847,7
848,7
849,7
850,7
851,7
852,7
853,7
854,7
855,7
856,8
857,8
858,8
859,8
860,8
861,8
862,8
863,8
864,8
865,8
866,8
867,8
868,8
869,9
870,9
871,9
872,9
873,9
874,9
875,9
876,10
877,10
878,10
879,10
880,9
881,9
882,9
883,9
884,9
885,9
886,9
887,9
888,9
889,9
890,9
891,9
892,9
893,9
894,9
895,9
896,9
897,9
898,9
899,9
900,9
901,9
902,9
903,9
904,10
905,9
906,9
907,9
908,9
909,9
910,9
911,9
912,9
913,9
914,9
915,9
916,9
917,9
918,9
919,9
920,9
921,9
922,9
923,9
924,9
925,9
926,9
927,9
928,9
929,9
930,9
931,9
932,9
933,9
934,9
935,9
936,9
937,9
938,9
939,9
940,9
941,9
942,9
943,9
944,9
945,9
946,9
947,9
948,10
949,10
950,10
951,10
952,10
953,10
954,10
955,10
956,10
957,10
958,10
959,10
960,10
961,10
962,10
963,10
964,10
965,10
966,10
967,10
968,10
969,10
970,10
971,11
972,11
973,11
974,10
975,10
976,10
977,10
978,10
979,10
980,10
981,10
982,10
983,10
984,10
985,10
986,10
987,10
988,10
989,10
990,10
991,10
992,10
993,10
994,10
995,10
996,10
997,10
998,10
999,10
1000,10
1001,10
1002,10
1003,10
1004,10
1005,10
1006,10
1007,10
1008,10
1009,10
1010,10
1011,10
1012,10
1013,10
1014,10
1015,10
1016,10
1017,10
1018,10
1019,10
1020,10
1021,10
1022,10
1023,10
1024,10
1025,10
1026,10
1027,10
1028,10
1029,10
1030,10
1031,10
1032,10
1033,10
1034,10
1035,10
1036,10
1037,10
1038,10
1039,10
1040,10
1041,10
1042,10
1043,10
1044,10
1045,10
1046,10
1047,10
1048,10
1049,10
1050,10
1051,10
1052,10
1053,10
1054,10
1055,10
1056,10
1057,10
1058,10
1059,10
1060,10
1061,10
1062,10
1063,10
1064,10
1065,10
1066,10
1067,10
1068,10
1069,10
1070,10
1071,10
1072,10
1073,10
1074,10
1075,10
1076,10
1077,10
1078,10
1079,10
1080,10
1081,10
1082,10
1083,10
1084,10
1085,10
1086,10
1087,10
1088,10
1089,10
1090,11
1091,11
1092,10
1093,10
1094,10
1095,10
1096,10
1097,10
1098,10
1099,10
1100,10
1101,10
1102,10
1103,10
1104,10
1105,10
1106,10
1107,10
1108,10
1109,10
1110,10
1111,10
1112,10
1113,10
1114,10
1115,10
1116,10
1117,10
1118,10
1119,10
1120,10
1121,10
1122,10
1123,10
1124,10
1125,10
1126,10
1127,10
1128,10
1129,10
1130,10
1131,10
1132,10
1133,10
1134,10
1135,10
1136,10
1137,10
1138,10
1139,10
1140,10
1141,10
1142,10
1143,10
1144,10
1145,10
1146,10
1147,10
1148,10
1149,10
1150,11
1151,10
1152,10
1153,10
1154,10
1155,10
1156,10
1157,10
1158,10
1159,10
1160,10
1161,10
1162,10
1163,10
1164,10
1165,10
1166,10
1167,10
1168,10
1169,10
1170,10
1171,10
1172,10
1173,10
1174,10
1175,10
1176,10
1177,10
1178,10
1179,10
1180,10
1181,10
1182,10
1183,10
1184,10
1185,10
1186,10
1187,10
1188,10
1189,10
1190,10
1191,10
1192,10
1193,10
1194,10
1195,10
1196,10
1197,10
1198,10
1199,10
1200,10
1201,10
1202,10
1203,10
1204,10
1205,10
1206,10
1207,10
1208,10
1209,10
1210,10
1211,10
1212,10
1213,10
1214,10
1215,10
1216,10
1217,10
1218,10
1219,10
1220,10
1221,10
1222,10
1223,10
1224,10
1225,10
1226,10
1227,10
1228,10
1229,10
1230,10
1231,10
1232,10
1233,10
1234,10
1235,10
1236,10
1237,10
1238,10
1239,10
1240,10
1241,10
1242,10
1243,10
1244,10
1245,10
1246,10
1247,10
1248,10
1249,10
1250,10
1251,10
1252,10
1253,10
1254,10
1255,10
1256,10
1257,10
1258,10
1259,10
1260,10
1261,10
1262,10
1263,10
1264,10
1265,10
1266,10
1267,10
1268,10
1269,10
1270,10
1271,10
1272,10
1273,10
1274,10
1275,10
1276,10
1277,10
1278,10
1279,10
1280,10
1281,10
1282,10
1283,10
1284,10
1285,10
1286,10
1287,10
1288,10
1289,10
1290,10
1291,10
1292,10
1293,10
1294,10
1295,10
1296,10
1297,10
1298,10
1299,10
1300,10
1301,10
1302,10
1303,10
1304,10
1305,10
1306,10
1307,10
1308,10
1309,10
1310,10
1311,10
1312,10
1313,10
1314,10
1315,10
1316,10
1317,10
1318,10
1319,10
1320,10
1321,10
1322,10
1323,10
1324,10
1325,10
1326,10
1327,10
1328,10
1329,10
1330,10
1331,10
1332,10
1333,10
1334,10
1335,10
1336,10
1337,10
1338,10
1339,10
1340,10
1341,10
1342,10
1343,10
1344,10
1345,10
1346,10
1347,10
1348,10
1349,10
1350,10
1351,10
1352,10
1353,10
1354,10
1355,10
1356,10
1357,10
1358,10
1359,10
1360,10
1361,10
1362,10
1363,10
1364,10
1365,10
1366,10
1367,10
1368,10
1369,10
1370,10
1371,10
1372,10
1373,10
1374,10
1375,10
1376,10
1377,10
1378,10
1379,10
1380,10
1381,10
1382,10
1383,10
1384,10
1385,10
1386,10
1387,10
1388,10
1389,10
1390,10
1391,10
1392,10
1393,10
1394,10
1395,10
1396,10
1397,10
1398,10
1399,10
1400,10
1401,10
1402,10
1403,10
1404,10
1405,10
1406,10
1407,10
1408,10
1409,10
1410,10
1411,10
1412,10
1413,10
1414,10
1415,10
1416,10
1417,10
1418,10
1419,10
1420,10
1421,10
1422,10
1423,10
1424,10
1425,10
1426,10
1427,10
1428,10
1429,10
1430,10
1431,10
1432,10
1433,10
1434,10
1435,10
1436,10
1437,11
1438,10
1439,10
1440,10
1441,10
1442,10
1443,10
1444,10
1445,10
1446,10
1447,10
1448,10
1449,10
1450,10
1451,10
1452,10
1453,10
1454,10
1455,10
1456,10
1457,10
1458,10
1459,10
1460,10
1461,10
1462,10
1463,10
1464,10
1465,10
1466,10
1467,10
1468,10
1469,10
1470,10
1471,10
1472,10
1473,10
1474,10
1475,10
1476,10
1477,10
1478,10
1479,10
1480,10
1481,10
1482,10
1483,10
1484,10
1485,10
1486,10
1487,10
1488,10
1489,10
1490,10
1491,10
1492,10
1493,10
1494,10
1495,10
1496,10
1497,10
1498,10
1499,10
1500,10
1501,10
1502,10
1503,10
1504,10
1505,10
1506,10
1507,10
1508,10
1509,10
1510,10
1511,10
1512,10
1513,10
1514,10
1515,10
1516,10
1517,10
1518,10
1519,10
1520,10
1521,10
1522,10
1523,10
1524,10
1525,10
1526,10
1527,10
1528,10
1529,10
1530,10
1531,10
1532,10
1533,10
1534,10
1535,10
1536,10
1537,10
1538,10
1539,10
1540,10
1541,10
1542,10
1543,10
1544,10
1545,10
1546,11
1547,11
1548,11
1549,11
1550,11
1551,11
1552,11
1553,11
1554,11
1555,11
1556,11
1557,10
1558,10
1559,10
1560,10
1561,10
1562,10
1563,10
1564,10
1565,10
1566,10
1567,10
1568,10
1569,10
1570,10
1571,10
1572,10
1573,10
1574,10
1575,10
1576,10
1577,10
1578,10
1579,10
1580,10
1581,10
1582,10
1583,10
1584,10
1585,10
1586,10
1587,10
1588,10
1589,10
1590,10
1591,10
1592,10
1593,10
1594,10
1595,10
1596,10
1597,10
1598,10
1599,10
1600,10
1601,10
1602,10
1603,10
1604,10
1605,10
1606,10
1607,10
1608,10
1609,10
1610,10
1611,10
1612,10
1613,10
1614,10
1615,10
1616,10
1617,10
1618,10
1619,10
1620,10
1621,10
1622,10
1623,10
1624,10
1625,10
1626,10
1627,10
1628,10
1629,10
1630,10
1631,10
1632,10
1633,10
1634,10
1635,10
1636,10
1637,10
1638,10
1639,10
1640,10
1641,10
1642,10
1643,10
1644,10
1645,10
1646,10
1647,10
1648,10
1649,10
1650,10
1651,10
1652,10
1653,10
1654,10
1655,10
1656,10
1657,10
1658,10
1659,10
1660,10
1661,10
1662,10
1663,10
1664,10
1665,10
1666,10
1667,10
1668,10
1669,10
1670,10
1671,10
1672,10
1673,10
1674,10
1675,10
1676,10
1677,10
1678,10
1679,10
1680,10
1681,10
1682,10
1683,10
1684,10
1685,10
1686,10
1687,10
1688,10
1689,10
1690,10
1691,10
1692,10
1693,10
1694,10
1695,10
1696,10
1697,10
1698,10
1699,10
1700,10
1701,10
1702,10
1703,10
1704,10
1705,10
1706,10
1707,10
1708,10
1709,10
1710,10
1711,10
1712,10
1713,10
1714,10
1715,10
1716,10
1717,10
1718,10
1719,10
1720,10
1721,10
1722,10
1723,10
1724,10
1725,10
1726,10
1727,10
1728,10
1729,10
1730,10
1731,10
1732,10
1733,10
1734,10
1735,10
1736,10
1737,10
1738,10
1739,10
1740,10
1741,10
1742,10
1743,10
1744,10
1745,10
1746,10
1747,10
1748,10
1749,10
1750,10
1751,10
1752,10
1753,10
1754,10
1755,10
1756,10
1757,10
1758,10
1759,10
1760,10
1761,10
1762,10
1763,10
1764,10
1765,10
1766,10
1767,10
1768,10
1769,10
1770,10
1771,10
1772,10
1773,10
1774,10
1775,10
1776,10
1777,10
1778,10
1779,10
1780,10
1781,10
1782,10
1783,10
1784,10
1785,10
1786,10
1787,10
1788,10
1789,10
1790,10
1791,10
1792,10
1793,10
1794,10
1795,10
1796,10
1797,10
1798,10
1799,10
1800,10
1801,10
1802,10
1803,10
1804,10
1805,10
1806,10
1807,10
1808,10
1809,10
1810,10
1811,11
1812,10
1813,10
1814,10
1815,10
1816,10
1817,10
1818,10
1819,10
1820,11
1821,11
1822,11
1823,11
1824,11
1825,11
1826,11
1827,11
1828,11
1829,11
1830,11
1831,11
1832,11
1833,11
1834,11
1835,11
1836,11
1837,11
1838,11
1839,11
1840,11
1841,11
1842,11
1843,11
1844,11
1845,11
1846,11
1847,11
1848,11
1849,11
1850,11
1851,11
1852,11
1853,11
1854,11
1855,11
1856,11
1857,11
1858,11
1859,11
1860,11
1861,11
1862,11
1863,11
1864,11
1865,11
1866,11
1867,11
1868,11
1869,11
1870,11
1871,11
1872,11
1873,11
1874,11
1875,11
1876,11
1877,11
1878,11
1879,11
1880,11
1881,11
1882,11
1883,11
1884,11
1885,11
1886,11
1887,11
1888,11
1889,11
1890,11
1891,11
1892,11
1893,11
1894,11
1895,11
1896,11
1897,11
1898,11
1899,11
1900,11
1901,11
1902,11
1903,11
1904,11
1905,11
1906,11
1907,11
1908,11
1909,11
1910,11
1911,11
1912,12
1913,12
1914,12
1915,12
1916,12
1917,12
1918,12
1919,12
1920,12
1921,12
1922,12
1923,12
1924,12
1925,12
1926,12
1927,12
1928,12
1929,12
1930,12
1931,12
1932,12
1933,12
1934,12
1935,12
1936,12
1937,12
1938,12
1939,12
1940,12
1941,12
1942,12
1943,12
1944,12
1945,12
1946,12
1947,12
1948,12
1949,12
1950,12
1951,12
1952,12
1953,12
1954,12
1955,12
1956,12
1957,12
1958,12
1959,12
1960,12
1961,12
1962,12
1963,12
1964,12
1965,12
1966,12
1967,12
1968,12
1969,12
1970,12
1971,12
1972,12
1973,12
1974,12
1975,12
1976,12
1977,12
1978,12
1979,12
1980,12
1981,12
1982,12
1983,12
1984,12
1985,12
1986,12
1987,13
1988,13
1989,12
1990,12
1991,12
1992,12
1993,12
1994,12
1995,12
1996,12
1997,12
1998,12
1999,12
2000,12
2001,12
2002,12
2003,12
2004,12
2005,12
2006,12
2007,12
2008,12
2009,12
2010,12
2011,12
2012,12
2013,12
2014,12
2015,12
2016,12
2017,12
2018,12
2019,12
2020,12
2021,12
2022,12
2023,12
2024,12
2025,12
2026,12
2027,12
2028,12
2029,12
2030,12
2031,12
2032,12
2033,12
2034,12
2035,12
2036,12
2037,12
2038,12
2039,12
2040,12
2041,12
2042,12
2043,12
2044,12
2045,12
2046,12
2047,12
2048,12
2049,12
2050,12
2051,12
2052,12
2053,12
2054,12
2055,12
2056,12
2057,12
2058,12
2059,12
2060,12
2061,12
2062,12
2063,12
2064,12
2065,12
2066,12
2067,12
2068,12
2069,12
2070,12
2071,12
2072,12
2073,12
2074,12
2075,12
2076,12
2077,12
2078,12
2079,12
2080,12
2081,12
2082,12
2083,12
2084,12
2085,12
2086,12
2087,12
2088,12
2089,12
2090,12
2091,12
2092,12
2093,12
2094,12
2095,12
2096,12
2097,12
2098,12
2099,12
2100,12
2101,13
2102,12
2103,12
2104,12
2105,12
2106,12
2107,12
2108,12
2109,12
2110,12
2111,12
2112,12
2113,12
2114,12
2115,12
2116,12
2117,12
2118,12
2119,12
2120,12
2121,12
2122,12
2123,12
2124,12
2125,12
2126,12
2127,12
2128,12
2129,12
2130,12
2131,12
2132,12
2133,12
2134,12
2135,12
2136,12
2137,12
2138,12
2139,12
2140,12
2141,12
2142,12
2143,12
2144,12
2145,12
2146,12
2147,12
2148,12
2149,12
2150,12
2151,12
2152,12
2153,12
2154,12
2155,12
2156,12
2157,12
2158,12
2159,12
2160,12
2161,12
2162,12
2163,12
2164,12
2165,12
2166,12
2167,12
2168,12
2169,12
2170,12
2171,12
2172,12
2173,12
2174,12
2175,12
2176,12
2177,12
2178,12
2179,12
2180,12
2181,13
2182,12
2183,12
2184,12
2185,12
2186,12
2187,12
2188,12
2189,12
2190,12
2191,12
2192,12
2193,12
2194,12
2195,12
2196,13
2197,13
2198,12
2199,13
2200,13
2201,13
2202,13
2203,13
2204,12
2205,12
2206,12
2207,12
2208,12
2209,12
2210,12
2211,12
2212,12
2213,12
2214,12
2215,12
2216,12
2217,12
2218,12
2219,12
2220,12
2221,12
2222,12
2223,12
2224,12
2225,12
2226,12
2227,12
2228,12
2229,12
2230,12
2231,12
2232,12
2233,12
2234,12
2235,12
2236,12
2237,12
2238,12
2239,12
2240,12
2241,12
2242,12
2243,13
2244,13
2245,13
2246,13
2247,13
2248,12
2249,12
2250,12
2251,12
2252,12
2253,12
2254,12
2255,12
2256,12
2257,12
2258,12
2259,12
2260,12
2261,12
2262,12
2263,12
2264,12
2265,12
2266,12
2267,12
2268,12
2269,12
2270,12
2271,12
2272,12
2273,12
2274,12
2275,12
2276,12
2277,12
2278,12
2279,12
2280,12
2281,12
2282,12
2283,12
2284,12
2285,12
2286,12
2287,12
2288,12
2289,12
2290,12
2291,12
2292,12
2293,12
2294,12
2295,12
2296,12
2297,12
2298,12
2299,12
2300,12
2301,12
2302,12
2303,12
2304,12
2305,13
2306,12
2307,12
2308,12
2309,12
2310,12
2311,12
2312,12
2313,12
2314,12
2315,12
2316,12
2317,12
2318,12
2319,12
2320,12
2321,12
2322,12
2323,12
2324,12
2325,12
2326,12
2327,12
2328,12
2329,12
2330,12
2331,12
2332,12
2333,12
2334,12
2335,12
2336,12
2337,12
2338,12
2339,12
2340,12
2341,12
2342,12
2343,12
2344,12
2345,12
2346,12
2347,12
2348,12
2349,12
2350,12
2351,12
2352,12
2353,12
2354,12
2355,12
2356,12
2357,12
2358,12
2359,12
2360,12
2361,12
2362,12
2363,12
2364,12
2365,12
2366,12
2367,12
2368,12
2369,12
2370,12
2371,12
2372,12
2373,12
2374,12
2375,12
2376,12
2377,12
2378,12
2379,12
2380,12
2381,12
2382,12
2383,12
2384,12
2385,12
2386,12
2387,12
2388,12
2389,12
2390,12
2391,12
2392,12
2393,12
2394,12
2395,12
2396,12
2397,12
2398,12
2399,12
2400,12
2401,12
2402,12
2403,12
2404,12
2405,12
2406,12
2407,12
2408,12
2409,12
2410,12
2411,12
2412,12
2413,12
2414,12
2415,12
2416,12
2417,12
2418,12
2419,12
2420,12
2421,12
2422,12
2423,12
2424,12
2425,12
2426,12
2427,12
2428,12
2429,12
2430,12
2431,12
2432,12
2433,12
2434,12
2435,13
2436,12
2437,12
2438,12
2439,12
2440,12
2441,12
2442,12
2443,12
2444,12
2445,12
2446,12
2447,12
2448,12
2449,12
2450,12
2451,12
2452,12
2453,12
2454,12
2455,12
2456,12
2457,12
2458,12
2459,12
2460,12
2461,12
2462,12
2463,12
2464,12
2465,12
2466,12
2467,12
2468,12
2469,12
2470,12
2471,12
2472,12
2473,12
2474,12
2475,12
2476,12
2477,12
2478,12
2479,12
2480,12
2481,12
2482,12
2483,12
2484,12
2485,12
2486,12
2487,12
2488,12
2489,12
2490,12
2491,12
2492,12
2493,12
2494,12
2495,12
2496,12
2497,12
2498,12
2499,12
2500,12
2501,12
2502,12
2503,12
2504,12
2505,12
2506,12
2507,12
2508,12
2509,12
2510,12
2511,12
2512,12
2513,12
2514,12
2515,12
2516,12
2517,12
2518,12
2519,12
2520,12
2521,12
2522,12
2523,12
2524,12
2525,12
2526,12
2527,12
2528,12
2529,12
2530,12
2531,14
2532,13
2533,12
2534,12
2535,12
2536,12
2537,12
2538,12
2539,12
2540,12
2541,12
2542,12
2543,12
2544,12
2545,12
2546,12
2547,12
2548,12
2549,12
2550,12
2551,12
2552,12
2553,12
2554,12
2555,12
2556,12
2557,12
2558,12
2559,12
2560,12
2561,12
2562,12
2563,12
2564,12
2565,12
2566,12
2567,12
2568,12
2569,12
2570,12
2571,12
2572,12
2573,12
2574,12
2575,12
2576,12
2577,12
2578,12
2579,12
2580,12
2581,12
2582,12
2583,12
2584,12
2585,12
2586,12
2587,12
2588,12
2589,12
2590,12
2591,12
2592,12
2593,12
2594,12
2595,12
2596,12
2597,12
2598,12
2599,12
2600,12
2601,12
2602,12
2603,12
2604,12
2605,12
2606,12
2607,12
2608,12
2609,12
2610,12
2611,12
2612,12
2613,12
2614,12
2615,12
2616,12
2617,12
2618,12
2619,12
2620,12
2621,12
2622,12
2623,12
2624,12
2625,12
2626,12
2627,12
2628,12
2629,12
2630,12
2631,12
2632,12
2633,12
2634,12
2635,12
2636,12
2637,12
2638,12
2639,12
2640,12
2641,12
2642,12
2643,12
2644,12
2645,12
2646,12
2647,12
2648,12
2649,12
2650,12
2651,12
2652,12
2653,12
2654,12
2655,12
2656,12
2657,12
2658,12
2659,12
2660,12
2661,12
2662,12
2663,12
2664,12
2665,12
2666,12
2667,12
2668,12
2669,12
2670,12
2671,12
2672,12
2673,12
2674,12
2675,12
2676,12
2677,12
2678,12
2679,12
2680,12
2681,12
2682,12
2683,12
2684,12
2685,12
2686,12
2687,12
2688,12
2689,12
2690,12
2691,12
2692,12
2693,12
2694,12
2695,12
2696,12
2697,12
2698,12
2699,12
2700,12
2701,12
2702,12
2703,12
2704,12
2705,12
2706,12
2707,12
2708,12
2709,12
2710,12
2711,12
2712,12
2713,12
2714,12
2715,12
2716,12
2717,12
2718,12
2719,12
2720,12
2721,12
2722,12
2723,12
2724,12
2725,12
2726,12
2727,12
2728,12
2729,12
2730,12
2731,12
2732,12
2733,12
2734,13
2735,12
2736,12
2737,12
2738,12
2739,12
2740,12
2741,12
2742,12
2743,12
2744,12
2745,12
2746,12
2747,12
2748,12
2749,12
2750,12
2751,12
2752,12
2753,12
2754,12
2755,12
2756,12
2757,12
2758,12
2759,12
2760,12
2761,12
2762,12
2763,12
2764,12
2765,12
2766,12
2767,12
2768,12
2769,12
2770,12
2771,12
2772,12
2773,12
2774,12
2775,12
2776,12
2777,12
2778,12
2779,12
2780,12
2781,12
2782,12
2783,12
2784,12
2785,12
2786,12
2787,12
2788,12
2789,12
2790,12
2791,12
2792,12
2793,12
2794,12
2795,12
2796,12
2797,12
2798,12
2799,12
2800,12
2801,12
2802,12
2803,12
2804,12
2805,12
2806,12
2807,12
2808,12
2809,12
2810,12
2811,12
2812,12
2813,12
2814,12
2815,12
2816,12
2817,12
2818,12
2819,12
2820,12
2821,12
2822,12
2823,12
2824,12
2825,12
2826,12
2827,12
2828,12
2829,12
2830,12
2831,12
2832,12
2833,12
2834,12
2835,12
2836,12
2837,12
2838,12
2839,12
2840,12
2841,12
2842,12
2843,12
2844,12
2845,12
2846,12
2847,12
2848,13
2849,12
2850,12
2851,12
2852,12
2853,12
2854,12
2855,12
2856,12
2857,12
2858,12
2859,12
2860,12
2861,12
2862,12
2863,12
2864,12
2865,12
2866,12
2867,12
2868,12
2869,12
2870,12
2871,12
2872,12
2873,12
2874,12
2875,12
2876,12
2877,12
2878,12
2879,12
2880,12
2881,12
2882,12
2883,12
2884,12
2885,12
2886,12
2887,12
2888,12
2889,12
2890,12
2891,12
2892,12
2893,12
2894,12
2895,12
2896,12
2897,12
2898,12
2899,12
2900,12
2901,12
2902,12
2903,12
2904,12
2905,12
2906,12
2907,12
2908,12
2909,12
2910,12
2911,12
2912,12
2913,12
2914,12
2915,12
2916,12
2917,12
2918,12
2919,12
2920,12
2921,12
2922,12
2923,12
2924,12
2925,12
2926,12
2927,12
2928,12
2929,12
2930,12
2931,12
2932,12
2933,12
2934,12
2935,12
2936,12
2937,12
2938,12
2939,12
2940,12
2941,12
2942,12
2943,12
2944,12
2945,12
2946,12
2947,12
2948,12
2949,12
2950,12
2951,12
2952,12
2953,12
2954,12
2955,12
2956,12
2957,12
2958,12
2959,12
2960,12
2961,12
2962,12
2963,12
2964,12
2965,12
2966,12
2967,12
2968,12
2969,12
2970,12
2971,12
2972,12
2973,12
2974,12
2975,12
2976,12
2977,12
2978,12
2979,12
2980,12
2981,12
2982,12
2983,12
2984,12
2985,12
2986,12
2987,12
2988,12
2989,12
2990,12
2991,12
2992,12
2993,12
2994,12
2995,12
2996,12
2997,12
2998,12
2999,12
3000,12
3001,12
3002,12
3003,12
3004,12
3005,12
3006,12
3007,12
3008,12
3009,12
3010,12
3011,12
3012,12
3013,12
3014,12
3015,12
3016,12
3017,12
3018,12
3019,12
3020,12
3021,12
3022,12
3023,12
3024,12
3025,12
3026,12
3027,12
3028,12
3029,12
3030,12
3031,12
3032,12
3033,12
3034,12
3035,12
3036,12
3037,12
3038,12
3039,12
3040,13
3041,13
3042,13
3043,13
3044,13
3045,13
3046,13
3047,13
3048,13
3049,13
3050,13
3051,13
3052,13
3053,13
3054,13
3055,13
3056,13
3057,13
3058,13
3059,13
3060,13
3061,13
3062,13
3063,13
3064,13
3065,13
3066,13
3067,13
3068,13
3069,13
3070,13
3071,13
3072,13
3073,13
3074,13
3075,13
3076,13
3077,13
3078,13
3079,13
3080,13
3081,13
3082,13
3083,13
3084,13
3085,13
3086,13
3087,13
3088,13
3089,13
3090,13
3091,13
3092,13
3093,13
3094,13
3095,13
3096,13
3097,13
3098,13
3099,13
3100,13
3101,13
3102,13
3103,13
3104,13
3105,13
3106,13
3107,13
3108,13
3109,13
3110,13
3111,13
3112,13
3113,13
3114,13
3115,13
3116,13
3117,13
3118,13
3119,13
3120,13
3121,13
3122,13
3123,13
3124,13
3125,13
3126,13
3127,13
3128,14
3129,14
3130,13
3131,13
3132,13
3133,13
3134,13
3135,13
3136,13
3137,13
3138,13
3139,13
3140,13
3141,13
3142,13
3143,13
3144,13
3145,13
3146,13
3147,13
3148,13
3149,13
3150,13
3151,13
3152,13
3153,13
3154,13
3155,13
3156,13
3157,13
3158,13
3159,13
3160,13
3161,13
3162,13
3163,13
3164,13
3165,13
3166,13
3167,13
3168,13
3169,13
3170,13
3171,14
3172,13
3173,13
3174,13
3175,13
3176,13
3177,13
3178,13
3179,13
3180,13
3181,13
3182,13
3183,13
3184,13
3185,13
3186,13
3187,13
3188,13
3189,13
3190,13
3191,13
3192,13
3193,13
3194,13
3195,13
3196,13
3197,13
3198,13
3199,13
3200,13
3201,13
3202,13
3203,13
3204,13
3205,13
3206,13
3207,13
3208,13
3209,13
3210,13
3211,13
3212,13
3213,13
3214,13
3215,13
3216,13
3217,13
3218,13
3219,13
3220,13
3221,13
3222,13
3223,13
3224,13
3225,13
3226,13
3227,13
3228,13
3229,13
3230,13
3231,13
3232,13
3233,13
3234,13
3235,13
3236,13
3237,13
3238,13
3239,13
3240,13
3241,13
3242,13
3243,13
3244,13
3245,13
3246,13
3247,13
3248,13
3249,13
3250,13
3251,13
3252,13
3253,13
3254,13
3255,13
3256,13
3257,13
3258,13
3259,13
3260,13
3261,13
3262,13
3263,13
3264,13
3265,13
3266,13
3267,13
3268,14
3269,14
3270,14
3271,14
3272,14
3273,13
3274,13
3275,14
3276,13
3277,13
3278,13
3279,13
3280,13
3281,13
3282,13
3283,13
3284,13
3285,13
3286,13
3287,13
3288,13
3289,13
3290,13
3291,13
3292,13
3293,13
3294,13
3295,13
3296,13
3297,13
3298,13
3299,13
3300,13
3301,13
3302,13
3303,13
3304,13
3305,13
3306,13
3307,13
3308,13
3309,13
3310,13
3311,13
3312,13
3313,13
3314,13
3315,13
3316,13
3317,13
3318,13
3319,13
3320,13
3321,13
3322,13
3323,13
3324,13
3325,13
3326,13
3327,13
3328,13
3329,13
3330,13
3331,13
3332,13
3333,13
3334,13
3335,13
3336,13
3337,13
3338,13
3339,13
3340,13
3341,13
3342,13
3343,13
3344,13
3345,13
3346,13
3347,13
3348,13
3349,13
3350,13
3351,13
3352,13
3353,13
3354,13
3355,13
3356,13
3357,13
3358,13
3359,13
3360,13
3361,13
3362,13
3363,13
3364,13
3365,13
3366,13
3367,14
3368,14
3369,14
3370,14
3371,14
3372,14
3373,14
3374,14
3375,14
3376,14
3377,14
3378,14
3379,14
3380,14
3381,14
3382,14
3383,14
3384,14
3385,14
3386,14
3387,14
3388,14
3389,14
3390,14
3391,14
3392,14
3393,15
3394,15
3395,15
3396,14
3397,14
3398,14
3399,14
3400,14
3401,14
3402,14
3403,14
3404,14
3405,14
3406,14
3407,14
3408,14
3409,14
3410,14
3411,14
3412,14
3413,14
3414,14
3415,14
3416,14
3417,14
3418,14
3419,14
3420,14
3421,14
3422,14
3423,14
3424,14
3425,14
3426,14
3427,14
3428,14
3429,14
3430,14
3431,14
3432,14
3433,14
3434,14
3435,14
3436,14
3437,14
3438,14
3439,14
3440,14
3441,14
3442,14
3443,14
3444,14
3445,14
3446,14
3447,14
3448,14
3449,14
3450,14
3451,14
3452,14
3453,14
3454,14
3455,14
3456,14
3457,14
3458,14
3459,14
3460,14
3461,14
3462,14
3463,14
3464,14
3465,14
3466,14
3467,14
3468,14
3469,14
3470,14
3471,14
3472,14
3473,14
3474,14
3475,14
3476,14
3477,14
3478,14
3479,14
3480,14
3481,14
3482,15
3483,14
3484,14
3485,14
3486,14
3487,14
3488,14
3489,14
3490,14
3491,14
3492,14
3493,14
3494,14
3495,14
3496,15
3497,15
3498,15
3499,14
3500,14
3501,14
3502,14
3503,14
3504,14
3505,14
3506,14
3507,14
3508,14
3509,14
3510,14
3511,14
3512,14
3513,14
3514,14
3515,14
3516,14
3517,14
3518,14
3519,14
3520,14
3521,14
3522,14
3523,14
3524,15
3525,15
3526,15
3527,15
3528,15
3529,14
3530,14
3531,14
3532,14
3533,14
3534,14
3535,14
3536,14
3537,14
3538,14
3539,14
3540,14
3541,14
3542,14
3543,14
3544,14
3545,14
3546,14
3547,14
3548,14
3549,14
3550,14
3551,14
3552,14
3553,14
3554,14
3555,14
3556,14
3557,14
3558,14
3559,14
3560,14
3561,14
3562,14
3563,14
3564,14
3565,14
3566,14
3567,14
3568,14
3569,14
3570,14
3571,14
3572,14
3573,14
3574,14
3575,14
3576,14
3577,14
3578,15
3579,14
3580,14
3581,14
3582,14
3583,14
3584,14
3585,14
3586,14
3587,14
3588,14
3589,14
3590,14
3591,14
3592,14
3593,14
3594,14
3595,14
3596,14
3597,14
3598,14
3599,14
3600,14
3601,14
3602,14
3603,14
3604,14
3605,14
3606,14
3607,14
3608,14
3609,14
3610,14
3611,14
3612,14
3613,14
3614,14
3615,14
3616,14
3617,14
3618,14
3619,14
3620,14
3621,14
3622,14
3623,14
3624,14
3625,15
3626,14
3627,14
3628,14
3629,14
3630,14
3631,14
3632,14
3633,14
3634,14
3635,14
3636,14
3637,14
3638,14
3639,14
3640,14
3641,14
3642,14
3643,14
3644,14
3645,14
3646,14
3647,14
3648,14
3649,14
3650,14
3651,14
3652,14
3653,14
3654,14
3655,14
3656,14
3657,14
3658,14
3659,14
3660,14
3661,14
3662,14
3663,14
3664,14
3665,14
3666,14
3667,14
3668,14
3669,14
3670,14
3671,14
3672,14
3673,14
3674,14
3675,14
3676,14
3677,14
3678,14
3679,14
3680,14
3681,14
3682,14
3683,14
3684,14
3685,14
3686,14
3687,14
3688,14
3689,14
3690,14
3691,15
3692,15
3693,15
3694,15
3695,15
3696,15
3697,15
3698,15
3699,15
3700,15
3701,15
3702,15
3703,15
3704,15
3705,15
3706,15
3707,15
3708,15
3709,16
3710,16
3711,16
3712,16
3713,16
3714,16
3715,16
3716,16
3717,16
3718,16
3719,16
3720,16
3721,16
3722,16
3723,16
3724,16
3725,16
3726,16
3727,16
3728,16
3729,16
3730,16
3731,16
3732,16
3733,16
3734,16
3735,16
3736,16
3737,16
3738,16
3739,16
3740,16
3741,16
3742,16
3743,16
3744,16
3745,16
3746,16
3747,16
3748,16
3749,16
3750,16
3751,16
3752,17
3753,17
3754,17
3755,17
3756,16
3757,16
3758,16
3759,16
3760,16
3761,16
3762,16
3763,16
3764,16
3765,16
3766,16
3767,16
3768,16
3769,16
3770,16
3771,16
3772,16
3773,16
3774,16
3775,16
3776,16
3777,16
3778,16
3779,16
3780,16
3781,16
3782,16
3783,16
3784,16
3785,16
3786,16
3787,16
3788,16
3789,16
3790,16
3791,16
3792,16
3793,16
3794,16
3795,16
3796,16
3797,16
3798,16
3799,16
3800,16
3801,16
3802,16
3803,16
3804,16
3805,16
3806,16
3807,16
3808,16
3809,16
3810,16
3811,16
3812,16
3813,16
3814,16
3815,16
3816,16
3817,16
3818,16
3819,16
3820,16
3821,16
3822,16
3823,16
3824,16
3825,16
3826,16
3827,16
3828,16
3829,16
3830,16
3831,16
3832,16
3833,16
3834,16
3835,16
3836,16
3837,16
3838,16
3839,16
3840,16
3841,16
3842,16
3843,16
3844,16
3845,16
3846,16
3847,16
3848,16
3849,16
3850,16
3851,16
3852,16
3853,16
3854,16
3855,16
3856,16
3857,16
3858,16
3859,16
3860,16
3861,16
3862,16
3863,16
3864,16
3865,16
3866,16
3867,16
3868,16
3869,16
3870,16
3871,16
3872,16
3873,16
3874,16
3875,16
3876,16
3877,16
3878,16
3879,16
3880,16
3881,16
3882,16
3883,16
3884,16
3885,16
3886,16
3887,16
3888,16
3889,16
3890,16
3891,16
3892,16
3893,16
3894,16
3895,16
3896,16
3897,16
3898,16
3899,16
3900,16
3901,16
3902,16
3903,16
3904,16
3905,16
3906,16
3907,16
3908,16
3909,16
3910,16
3911,16
3912,16
3913,16
3914,16
3915,16
3916,16
3917,16
3918,16
3919,16
3920,16
3921,16
3922,16
3923,16
3924,16
3925,16
3926,16
3927,16
3928,16
3929,16
3930,16
3931,16
3932,16
3933,16
3934,16
3935,16
3936,16
3937,16
3938,16
3939,16
3940,16
3941,16
3942,16
3943,16
3944,16
3945,16
3946,16
3947,16
3948,16
3949,17
3950,16
3951,16
3952,16
3953,16
3954,16
3955,16
3956,16
3957,16
3958,16
3959,16
3960,16
3961,16
3962,16
3963,16
3964,16
3965,16
3966,16
3967,16
3968,16
3969,16
3970,16
3971,16
3972,16
3973,16
3974,16
3975,16
3976,16
3977,16
3978,16
3979,16
3980,16
3981,16
3982,16
3983,16
3984,16
3985,16
3986,16
3987,16
3988,16
3989,16
3990,16
3991,16
3992,16
3993,16
3994,16
3995,16
3996,16
3997,16
3998,16
3999,16
4000,16
4001,16
4002,16
4003,16
4004,16
4005,16
4006,16
4007,16
4008,16
4009,16
4010,16
4011,16
4012,16
4013,16
4014,16
4015,16
4016,16
4017,16
4018,16
4019,16
4020,16
4021,16
4022,16
4023,16
4024,17
4025,17
4026,17
4027,17
4028,17
4029,17
4030,17
4031,17
4032,17
4033,17
4034,18
4035,17
4036,17
4037,17
4038,17
4039,16
4040,16
4041,16
4042,16
4043,16
4044,16
4045,16
4046,16
4047,16
4048,16
4049,16
4050,16
4051,16
4052,16
4053,16
4054,16
4055,16
4056,16
4057,16
4058,16
4059,16
4060,17
4061,17
4062,17
4063,16
4064,16
4065,16
4066,16
4067,16
4068,16
4069,16
4070,16
4071,16
4072,16
4073,16
4074,16
4075,16
4076,16
4077,16
4078,16
4079,16
4080,16
4081,16
4082,16
4083,16
4084,16
4085,16
4086,16
4087,16
4088,16
4089,16
4090,16
4091,16
4092,16
4093,16
4094,16
4095,16
4096,16
4097,16
4098,16
4099,16
4100,16
4101,16
4102,16
4103,16
4104,16
4105,16
4106,17
4107,17
4108,17
4109,17
4110,17
4111,17
4112,18
4113,18
4114,17
4115,17
4116,17
4117,17
4118,17
4119,17
4120,17
4121,17
4122,18
4123,18
4124,18
4125,17
4126,17
4127,17
4128,17
4129,17
4130,16
4131,16
4132,16
4133,16
4134,16
4135,16
4136,16
4137,16
4138,16
4139,16
4140,16
4141,16
4142,16
4143,16
4144,16
4145,16
4146,16
4147,16
4148,16
4149,16
4150,16
4151,16
4152,16
4153,16
4154,16
4155,16
4156,16
4157,16
4158,16
4159,16
4160,16
4161,16
4162,16
4163,16
4164,16
4165,16
4166,16
4167,16
4168,16
4169,16
4170,16
4171,16
4172,16
4173,16
4174,16
4175,16
4176,16
4177,16
4178,16
4179,16
4180,16
4181,16
4182,16
4183,16
4184,16
4185,16
4186,16
4187,16
4188,16
4189,16
4190,16
4191,16
4192,16
4193,16
4194,16
4195,16
4196,16
4197,16
4198,16
4199,16
4200,16
4201,16
4202,16
4203,16
4204,16
4205,16
4206,16
4207,16
4208,16
4209,16
4210,16
4211,16
4212,16
4213,16
4214,16
4215,16
4216,16
4217,16
4218,16
4219,16
4220,16
4221,16
4222,16
4223,16
4224,16
4225,16
4226,16
4227,16
4228,16
4229,16
4230,16
4231,16
4232,16
4233,16
4234,16
4235,16
4236,16
4237,16
4238,16
4239,16
4240,16
4241,16
4242,16
4243,16
4244,16
4245,16
4246,16
4247,16
4248,16
4249,16
4250,16
4251,16
4252,16
4253,16
4254,16
4255,16
4256,16
4257,16
4258,16
4259,16
4260,16
4261,16
4262,16
4263,16
4264,16
4265,16
4266,16
4267,16
4268,16
4269,16
4270,16
4271,16
4272,16
4273,16
4274,17
4275,18
4276,17
4277,17
4278,17
4279,17
4280,17
4281,17
4282,17
4283,17
4284,17
4285,17
4286,17
4287,17
4288,17
4289,17
4290,17
4291,17
4292,17
4293,17
4294,16
4295,16
4296,16
4297,16
4298,16
4299,17
4300,17
4301,17
4302,16
4303,16
4304,17
4305,17
4306,17
4307,17
4308,17
4309,17
4310,17
4311,17
4312,17
4313,17
4314,17
4315,17
4316,17
4317,17
4318,17
4319,17
4320,17
4321,18
4322,18
4323,18
4324,18
4325,18
4326,17
4327,17
4328,17
4329,17
4330,17
4331,17
4332,17
4333,17
4334,17
4335,17
4336,17
4337,17
4338,17
4339,17
4340,17
4341,17
4342,17
4343,17
4344,17
4345,17
4346,17
4347,17
4348,17
4349,17
4350,17
4351,17
4352,17
4353,17
4354,17
4355,17
4356,17
4357,17
4358,17
4359,18
4360,17
4361,17
4362,17
4363,17
4364,17
4365,17
4366,17
4367,17
4368,17
4369,17
4370,17
4371,17
4372,17
4373,17
4374,17
4375,17
4376,17
4377,17
4378,17
4379,17
4380,17
4381,17
4382,17
4383,17
4384,17
4385,17
4386,17
4387,17
4388,17
4389,17
4390,17
4391,17
4392,17
4393,17
4394,17
4395,17
4396,17
4397,17
4398,17
4399,17
4400,17
4401,17
4402,17
4403,17
4404,17
4405,17
4406,17
4407,17
4408,17
4409,17
4410,17
4411,17
4412,17
4413,17
4414,17
4415,17
4416,17
4417,17
4418,17
4419,17
4420,17
4421,17
4422,17
4423,17
4424,17
4425,17
4426,17
4427,17
4428,17
4429,17
4430,17
4431,17
4432,18
4433,18
4434,18
4435,17
4436,17
4437,17
4438,17
4439,17
4440,17
4441,17
4442,17
4443,17
4444,17
4445,17
4446,17
4447,17
4448,17
4449,17
4450,17
4451,17
4452,17
4453,17
4454,17
4455,17
4456,17
4457,17
4458,17
4459,17
4460,17
4461,17
4462,17
4463,17
4464,17
4465,17
4466,17
4467,17
4468,17
4469,17
4470,17
4471,17
4472,17
4473,17
4474,17
4475,17
4476,17
4477,17
4478,17
4479,17
4480,17
4481,17
4482,17
4483,17
4484,17
4485,17
4486,18
4487,18
4488,18
4489,17
4490,17
4491,17
4492,17
4493,17
4494,17
4495,17
4496,17
4497,17
4498,17
4499,17
4500,17
4501,17
4502,17
4503,17
4504,17
4505,17
4506,17
4507,17
4508,17
4509,17
4510,17
4511,17
4512,17
4513,17
4514,17
4515,17
4516,17
4517,17
4518,17
4519,17
4520,17
4521,17
4522,17
4523,17
4524,17
4525,17
4526,17
4527,17
4528,17
4529,17
4530,17
4531,17
4532,17
4533,17
4534,17
4535,17
4536,17
4537,17
4538,17
4539,17
4540,17
4541,17
4542,17
4543,17
4544,17
4545,17
4546,17
4547,17
4548,17
4549,17
4550,17
4551,17
4552,17
4553,17
4554,17
4555,17
4556,17
4557,17
4558,17
4559,17
4560,17
4561,17
4562,17
4563,17
4564,17
4565,18
4566,18
4567,17
4568,17
4569,17
4570,17
4571,17
4572,17
4573,17
4574,17
4575,17
4576,17
4577,17
4578,17
4579,17
4580,17
4581,17
4582,17
4583,17
4584,17
4585,17
4586,17
4587,17
4588,17
4589,17
4590,17
4591,17
4592,17
4593,17
4594,17
4595,17
4596,17
4597,17
4598,17
4599,17
4600,17
4601,17
4602,17
4603,17
4604,17
4605,17
4606,17
4607,17
4608,17
4609,17
4610,17
4611,17
4612,17
4613,17
4614,17
4615,17
4616,17
4617,17
4618,17
4619,17
4620,17
4621,17
4622,17
4623,17
4624,17
4625,17
4626,17
4627,17
4628,17
4629,17
4630,17
4631,17
4632,17
4633,17
4634,17
4635,17
4636,17
4637,17
4638,17
4639,17
4640,17
4641,17
4642,17
4643,17
4644,17
4645,17
4646,17
4647,17
4648,17
4649,17
4650,17
4651,17
4652,17
4653,17
4654,17
4655,17
4656,17
4657,17
4658,17
4659,17
4660,17
4661,17
4662,17
4663,17
4664,17
4665,17
4666,17
4667,17
4668,17
4669,17
4670,17
4671,17
4672,17
4673,17
4674,17
4675,17
4676,17
4677,17
4678,17
4679,17
4680,17
4681,17
4682,17
4683,17
4684,17
4685,17
4686,17
4687,17
4688,17
4689,17
4690,17
4691,17
4692,17
4693,17
4694,17
4695,17
4696,17
4697,17
4698,17
4699,17
4700,17
4701,17
4702,17
4703,17
4704,17
4705,17
4706,17
4707,17
4708,17
4709,17
4710,17
4711,18
4712,18
4713,17
4714,17
4715,17
4716,17
4717,17
4718,17
4719,17
4720,17
4721,17
4722,17
4723,17
4724,17
4725,17
4726,17
4727,17
4728,17
4729,17
4730,17
4731,17
4732,17
4733,17
4734,17
4735,17
4736,17
4737,17
4738,17
4739,17
4740,17
4741,17
4742,17
4743,17
4744,17
4745,17
4746,17
4747,17
4748,17
4749,17
4750,17
4751,17
4752,18
4753,18
4754,18
4755,17
4756,17
4757,17
4758,17
4759,17
4760,17
4761,17
4762,17
4763,17
4764,17
4765,17
4766,17
4767,17
4768,17
4769,17
4770,17
4771,17
4772,17
4773,17
4774,17
4775,17
4776,17
4777,17
4778,17
4779,17
4780,17
4781,17
4782,17
4783,17
4784,17
4785,17
4786,17
4787,17
4788,17
4789,17
4790,17
4791,17
4792,17
4793,17
4794,17
4795,17
4796,17
4797,17
4798,17
4799,17
4800,17
4801,17
4802,17
4803,17
4804,17
4805,17
4806,17
4807,17
4808,17
4809,17
4810,17
4811,17
4812,17
4813,17
4814,17
4815,17
4816,17
4817,17
4818,17
4819,17
4820,17
4821,17
4822,17
4823,17
4824,17
4825,17
4826,17
4827,17
4828,17
4829,17
4830,18
4831,17
4832,17
4833,17
4834,17
4835,17
4836,17
4837,17
4838,17
4839,17
4840,17
4841,17
4842,17
4843,17
4844,17
4845,17
4846,17
4847,17
4848,17
4849,17
4850,18
4851,18
4852,17
4853,17
4854,17
4855,17
4856,17
4857,17
4858,17
4859,17
4860,17
4861,17
4862,17
4863,17
4864,17
4865,17
4866,17
4867,17
4868,17
4869,17
4870,17
4871,17
4872,17
4873,17
4874,17
4875,17
4876,17
4877,17
4878,17
4879,17
4880,17
4881,17
4882,17
4883,17
4884,17
4885,17
4886,17
4887,17
4888,17
4889,17
4890,17
4891,17
4892,17
4893,17
4894,17
4895,17
4896,17
4897,17
4898,17
4899,17
4900,17
4901,17
4902,17
4903,17
4904,17
4905,17
4906,17
4907,17
4908,17
4909,17
4910,17
4911,17
4912,17
4913,17
4914,17
4915,17
4916,17
4917,17
4918,17
4919,17
4920,17
4921,17
4922,17
4923,17
4924,17
4925,17
4926,17
4927,17
4928,17
4929,17
4930,17
4931,17
4932,17
4933,17
4934,17
4935,17
4936,17
4937,17
4938,17
4939,17
4940,17
4941,17
4942,17
4943,17
4944,17
4945,17
4946,17
4947,17
4948,17
4949,17
4950,17
4951,17
4952,17
4953,17
4954,17
4955,17
4956,17
4957,17
4958,17
4959,17
4960,17
4961,17
4962,17
4963,17
4964,17
4965,17
4966,17
4967,17
4968,17
4969,17
4970,17
4971,17
4972,17
4973,17
4974,17
4975,17
4976,17
4977,17
4978,17
4979,17
4980,17
4981,17
4982,17
4983,17
4984,17
4985,17
4986,17
4987,17
4988,17
4989,17
4990,17
4991,17
4992,17
4993,17
4994,17
4995,17
4996,17
4997,17
4998,17
4999,17
5000,17
5001,17
5002,17
5003,17
5004,17
5005,17
5006,17
5007,17
5008,17
5009,17
5010,17
5011,17
5012,17
5013,17
5014,17
5015,17
5016,17
5017,17
5018,17
5019,17
5020,17
5021,17
5022,17
5023,17
5024,17
5025,18
5026,18
5027,18
5028,17
5029,17
5030,17
5031,17
5032,17
5033,17
5034,17
5035,17
5036,17
5037,17
5038,17
5039,17
5040,17
5041,17
5042,17
5043,17
5044,17
5045,17
5046,17
5047,17
5048,17
5049,17
5050,17
5051,17
5052,17
5053,17
5054,17
5055,17
5056,17
5057,17
5058,17
5059,17
5060,17
5061,17
5062,17
5063,17
5064,17
5065,17
5066,17
5067,17
5068,17
5069,17
5070,17
5071,17
5072,17
5073,17
5074,17
5075,17
5076,17
5077,17
5078,17
5079,17
5080,17
5081,17
5082,17
5083,17
5084,17
5085,17
5086,17
5087,17
5088,17
5089,17
5090,17
5091,17
5092,17
5093,17
5094,17
5095,17
5096,17
5097,17
5098,17
5099,17
5100,17
5101,17
5102,17
5103,17
5104,17
5105,17
5106,17
5107,17
5108,17
5109,17
5110,17
5111,17
5112,17
5113,17
5114,17
5115,17
5116,17
5117,17
5118,17
5119,17
5120,17
5121,17
5122,17
5123,17
5124,17
5125,17
5126,17
5127,17
5128,17
5129,18
5130,18
5131,18
5132,18
5133,18
5134,18
5135,17
5136,17
5137,17
5138,17
5139,17
5140,17
5141,17
5142,17
5143,17
5144,17
5145,17
5146,17
5147,17
5148,17
5149,17
5150,17
5151,17
5152,17
5153,17
5154,17
5155,17
5156,17
5157,17
5158,17
5159,17
5160,17
5161,17
5162,17
5163,17
5164,17
5165,17
5166,17
5167,17
5168,17
5169,18
5170,17
5171,17
5172,17
5173,17
5174,17
5175,17
5176,17
5177,17
5178,17
5179,17
5180,18
5181,18
5182,18
5183,18
5184,18
5185,18
5186,18
5187,18
5188,18
5189,18
5190,18
5191,18
5192,18
5193,19
5194,19
5195,19
5196,19
5197,18
5198,18
5199,18
5200,18
5201,18
5202,18
5203,18
5204,18
5205,18
5206,18
5207,18
5208,18
5209,18
5210,18
5211,18
5212,18
5213,18
5214,18
5215,18
5216,18
5217,18
5218,18
5219,18
5220,18
5221,18
5222,18
5223,18
5224,18
5225,18
5226,18
5227,18
5228,18
5229,18
5230,18
5231,18
5232,18
5233,18
5234,18
5235,18
5236,18
5237,18
5238,18
5239,18
5240,18
5241,18
5242,18
5243,18
5244,18
5245,18
5246,18
5247,18
5248,18
5249,18
5250,18
5251,18
5252,18
5253,18
5254,18
5255,18
5256,18
5257,18
5258,18
5259,18
5260,18
5261,18
5262,18
5263,18
5264,19
5265,19
5266,18
5267,18
5268,18
5269,18
5270,18
5271,18
5272,18
5273,18
5274,18
5275,18
5276,18
5277,18
5278,18
5279,18
5280,18
5281,18
5282,18
5283,18
5284,18
5285,18
5286,18
5287,18
5288,18
5289,18
5290,18
5291,18
5292,18
5293,18
5294,18
5295,18
5296,18
5297,18
5298,18
5299,18
5300,18
5301,18
5302,18
5303,18
5304,18
5305,18
5306,18
5307,18
5308,18
5309,18
5310,18
5311,18
5312,18
5313,18
5314,18
5315,18
5316,18
5317,18
5318,18
5319,18
5320,19
5321,18
5322,18
5323,18
5324,18
5325,18
5326,18
5327,18
5328,18
5329,18
5330,18
5331,18
5332,18
5333,18
5334,18
5335,18
5336,18
5337,18
5338,18
5339,18
5340,18
5341,18
5342,18
5343,18
5344,18
5345,18
5346,18
5347,18
5348,18
5349,18
5350,18
5351,18
5352,18
5353,18
5354,18
5355,18
5356,18
5357,18
5358,18
5359,18
5360,18
5361,18
5362,18
5363,18
5364,18
5365,18
5366,18
5367,18
5368,18
5369,18
5370,18
5371,18
5372,18
5373,18
5374,18
5375,18
5376,18
5377,18
5378,18
5379,18
5380,18
5381,18
5382,18
5383,18
5384,18
5385,18
5386,18
5387,18
5388,18
5389,18
5390,18
5391,18
5392,18
5393,19
5394,18
5395,18
5396,18
5397,18
5398,18
5399,18
5400,18
5401,18
5402,18
5403,18
5404,18
5405,18
5406,18
5407,18
5408,18
5409,18
5410,18
5411,18
5412,18
5413,18
5414,18
5415,18
5416,18
5417,18
5418,18
5419,18
5420,18
5421,18
5422,18
5423,18
5424,18
5425,18
5426,18
5427,18
5428,18
5429,18
5430,18
5431,18
5432,18
5433,18
5434,18
5435,18
5436,18
5437,18
5438,18
5439,18
5440,18
5441,18
5442,18
5443,18
5444,18
5445,18
5446,18
5447,18
5448,18
5449,18
5450,18
5451,18
5452,18
5453,18
5454,18
5455,18
5456,18
5457,18
5458,18
5459,18
5460,18
5461,18
5462,18
5463,18
5464,18
5465,18
5466,18
5467,18
5468,18
5469,18
5470,18
5471,18
5472,18
5473,18
5474,18
5475,18
5476,18
5477,18
5478,18
5479,18
5480,18
5481,18
5482,18
5483,18
5484,18
5485,18
5486,18
5487,18
5488,18
5489,18
5490,18
5491,18
5492,18
5493,18
5494,18
5495,18
5496,18
5497,18
5498,18
5499,18
5500,18
5501,18
5502,18
5503,18
5504,18
5505,18
5506,18
5507,18
5508,18
5509,18
5510,18
5511,18
5512,18
5513,18
5514,18
5515,18
5516,18
5517,18
5518,18
5519,18
5520,18
5521,18
5522,18
5523,18
5524,18
5525,18
5526,18
5527,18
5528,18
5529,18
5530,18
5531,18
5532,18
5533,18
5534,18
5535,18
5536,18
5537,18
5538,18
5539,18
5540,18
5541,18
5542,18
5543,18
5544,18
5545,18
5546,18
5547,18
5548,18
5549,18
5550,18
5551,18
5552,18
5553,18
5554,18
5555,18
5556,18
5557,18
5558,18
5559,18
5560,18
5561,18
5562,18
5563,18
5564,18
5565,18
5566,18
5567,18
5568,18
5569,18
5570,18
5571,18
5572,18
5573,19
5574,19
5575,19
5576,18
5577,18
5578,18
5579,18
5580,18
5581,18
5582,18
5583,18
5584,18
5585,19
5586,19
5587,18
5588,18
5589,18
5590,18
5591,18
5592,18
5593,18
5594,18
5595,18
5596,18
5597,18
5598,18
5599,18
5600,18
5601,18
5602,18
5603,18
5604,18
5605,18
5606,18
5607,18
5608,18
5609,18
5610,18
5611,18
5612,18
5613,18
5614,18
5615,18
5616,18
5617,18
5618,18
5619,18
5620,18
5621,18
5622,18
5623,18
5624,18
5625,18
5626,18
5627,18
5628,18
5629,18
5630,18
5631,18
5632,18
5633,18
5634,18
5635,18
5636,18
5637,18
5638,18
5639,18
5640,18
5641,18
5642,18
5643,18
5644,18
5645,18
5646,18
5647,18
5648,18
5649,18
5650,18
5651,18
5652,18
5653,18
5654,18
5655,18
5656,18
5657,18
5658,18
5659,18
5660,18
5661,18
5662,18
5663,18
5664,18
5665,18
5666,18
5667,18
5668,18
5669,18
5670,18
5671,18
5672,18
5673,18
5674,18
5675,18
5676,18
5677,18
5678,18
5679,18
5680,18
5681,18
5682,18
5683,18
5684,18
5685,18
5686,18
5687,18
5688,19
5689,18
5690,18
5691,18
5692,18
5693,18
5694,18
5695,18
5696,18
5697,18
5698,18
5699,18
5700,18
5701,18
5702,19
5703,18
5704,18
5705,18
5706,18
5707,18
5708,18
5709,18
5710,18
5711,18
5712,18
5713,18
5714,18
5715,18
5716,18
5717,18
5718,18
5719,18
5720,18
5721,19
5722,19
5723,19
5724,18
5725,18
5726,18
5727,18
5728,18
5729,18
5730,18
5731,18
5732,18
5733,18
5734,18
5735,18
5736,18
5737,18
5738,18
5739,18
5740,18
5741,18
5742,18
5743,18
5744,18
5745,18
5746,18
5747,18
5748,18
5749,18
5750,18
5751,18
5752,18
5753,18
5754,18
5755,18
5756,18
5757,18
5758,18
5759,18
5760,18
5761,18
5762,18
5763,18
5764,18
5765,18
5766,18
5767,18
5768,18
5769,18
5770,18
5771,18
5772,18
5773,18
5774,18
5775,18
5776,18
5777,18
5778,18
5779,18
5780,18
5781,18
5782,18
5783,18
5784,18
5785,18
5786,18
5787,18
5788,18
5789,18
5790,18
5791,18
5792,18
5793,18
5794,18
5795,18
5796,19
5797,19
5798,19
5799,18
5800,18
5801,18
5802,18
5803,18
5804,18
5805,18
5806,18
5807,18
5808,18
5809,18
5810,18
5811,18
5812,18
5813,18
5814,18
5815,18
5816,18
5817,18
5818,18
5819,18
5820,18
5821,18
5822,18
5823,18
5824,18
5825,18
5826,18
5827,19
5828,19
5829,19
5830,19
5831,19
5832,19
5833,19
5834,19
5835,19
5836,19
5837,19
5838,19
5839,19
5840,19
5841,19
5842,19
5843,19
5844,19
5845,19
5846,19
5847,19
5848,19
5849,19
5850,19
5851,19
5852,19
5853,19
5854,19
5855,19
5856,19
5857,19
5858,19
5859,19
5860,19
5861,20
5862,19
5863,19
5864,19
5865,19
5866,19
5867,19
5868,19
5869,19
5870,19
5871,19
5872,19
5873,19
5874,19
5875,19
5876,19
5877,19
5878,19
5879,19
5880,19
5881,19
5882,19
5883,19
5884,19
5885,19
5886,19
5887,19
5888,19
5889,19
5890,19
5891,19
5892,19
5893,19
5894,19
5895,19
5896,19
5897,19
5898,19
5899,19
5900,19
5901,19
5902,19
5903,19
5904,19
5905,19
5906,19
5907,19
5908,19
5909,19
5910,19
5911,19
5912,19
5913,19
5914,19
5915,19
5916,19
5917,19
5918,19
5919,19
5920,19
5921,19
5922,19
5923,19
5924,19
5925,19
5926,19
5927,19
5928,19
5929,19
5930,19
5931,19
5932,19
5933,19
5934,19
5935,19
5936,19
5937,19
5938,19
5939,19
5940,19
5941,19
5942,19
5943,19
5944,19
5945,19
5946,19
5947,19
5948,19
5949,19
5950,19
5951,19
5952,19
5953,19
5954,19
5955,19
5956,19
5957,19
5958,19
5959,19
5960,19
5961,19
5962,19
5963,19
5964,19
5965,19
5966,19
5967,19
5968,19
5969,19
5970,19
5971,19
5972,19
5973,19
5974,19
5975,19
5976,19
5977,19
5978,19
5979,19
5980,19
5981,19
5982,19
5983,19
5984,19
5985,19
5986,19
5987,19
5988,19
5989,19
5990,19
5991,19
5992,19
5993,19
5994,19
5995,19
5996,19
5997,19
5998,19
5999,19
6000,19
6001,19
6002,19
6003,19
6004,19
6005,19
6006,19
6007,19
6008,19
6009,19
6010,19
6011,19
6012,19
6013,19
6014,19
6015,19
6016,19
6017,20
6018,19
6019,19
6020,19
6021,19
6022,19
6023,19
6024,19
6025,19
6026,19
6027,19
6028,19
6029,19
6030,19
6031,19
6032,19
6033,19
6034,19
6035,19
6036,19
6037,19
6038,19
6039,19
6040,19
6041,19
6042,19
6043,19
6044,19
6045,19
6046,19
6047,19
6048,19
6049,19
6050,19
6051,19
6052,19
6053,19
6054,19
6055,19
6056,19
6057,19
6058,19
6059,19
6060,19
6061,19
6062,19
6063,19
6064,19
6065,19
6066,19
6067,19
6068,19
6069,19
6070,19
6071,19
6072,19
6073,19
6074,19
6075,19
6076,19
6077,19
6078,19
6079,19
6080,19
6081,19
6082,19
6083,19
6084,19
6085,19
6086,19
6087,19
6088,19
6089,19
6090,19
6091,19
6092,19
6093,19
6094,19
6095,19
6096,19
6097,19
6098,20
6099,19
6100,19
6101,19
6102,19
6103,19
6104,19
6105,19
6106,19
6107,19
6108,19
6109,19
6110,19
6111,19
6112,19
6113,19
6114,19
6115,19
6116,19
6117,19
6118,19
6119,19
6120,19
6121,19
6122,19
6123,19
6124,19
6125,19
6126,19
6127,19
6128,19
6129,19
6130,19
6131,19
6132,19
6133,19
6134,19
6135,19
6136,19
6137,19
6138,19
6139,19
6140,19
6141,19
6142,19
6143,19
6144,19
6145,19
6146,19
6147,20
6148,19
6149,19
6150,19
6151,19
6152,19
6153,19
6154,19
6155,19
6156,19
6157,19
6158,19
6159,19
6160,19
6161,19
6162,19
6163,19
6164,19
6165,19
6166,19
6167,19
6168,19
6169,19
6170,19
6171,19
6172,19
6173,19
6174,19
6175,19
6176,19
6177,19
6178,19
6179,19
6180,19
6181,19
6182,19
6183,19
6184,19
6185,19
6186,19
6187,19
6188,19
6189,19
6190,19
6191,19
6192,19
6193,19
6194,19
6195,19
6196,19
6197,19
6198,19
6199,19
6200,19
6201,19
6202,19
6203,19
6204,19
6205,19
6206,19
6207,19
6208,19
6209,19
6210,19
6211,19
6212,19
6213,19
6214,19
6215,19
6216,19
6217,19
6218,19
6219,19
6220,19
6221,19
6222,19
6223,19
6224,19
6225,19
6226,19
6227,19
6228,19
6229,19
6230,19
6231,19
6232,19
6233,19
6234,19
6235,19
6236,19
6237,19
6238,19
6239,19
6240,19
6241,19
6242,19
6243,19
6244,19
6245,19
6246,19
6247,19
6248,19
6249,19
6250,19
6251,19
6252,19
6253,19
6254,19
6255,19
6256,19
6257,19
6258,19
6259,19
6260,19
6261,19
6262,19
6263,19
6264,19
6265,19
6266,19
6267,19
6268,19
6269,19
6270,19
6271,19
6272,19
6273,19
6274,19
6275,19
6276,19
6277,19
6278,19
6279,19
6280,19
6281,19
6282,19
6283,19
6284,19
6285,19
6286,20
6287,20
6288,19
6289,19
6290,19
6291,19
6292,19
6293,19
6294,19
6295,19
6296,19
6297,19
6298,19
6299,19
6300,19
6301,19
6302,19
6303,19
6304,19
6305,19
6306,19
6307,19
6308,19
6309,19
6310,19
6311,19
6312,19
6313,19
6314,19
6315,19
6316,19
6317,19
6318,19
6319,19
6320,19
6321,19
6322,19
6323,19
6324,19
6325,19
6326,19
6327,19
6328,19
6329,19
6330,20
6331,20
6332,20
6333,20
6334,20
6335,20
6336,20
6337,20
6338,20
6339,20
6340,20
6341,20
6342,20
6343,20
6344,20
6345,20
6346,20
6347,20
6348,20
6349,20
6350,20
6351,20
6352,20
6353,20
6354,20
6355,20
6356,20
6357,20
6358,20
6359,20
6360,20
6361,20
6362,20
6363,20
6364,20
6365,20
6366,20
6367,20
6368,20
6369,20
6370,20
6371,20
6372,20
6373,20
6374,20
6375,20
6376,20
6377,20
6378,20
6379,20
6380,20
6381,20
6382,20
6383,20
6384,20
6385,20
6386,20
6387,20
6388,20
6389,20
6390,20
6391,20
6392,20
6393,20
6394,20
6395,20
6396,20
6397,20
6398,20
6399,20
6400,20
6401,20
6402,20
6403,20
6404,20
6405,20
6406,20
6407,20
6408,20
6409,20
6410,20
6411,20
6412,20
6413,20
6414,20
6415,20
6416,20
6417,20
6418,20
6419,20
6420,20
6421,20
6422,20
6423,20
6424,20
6425,20
6426,20
6427,20
6428,20
6429,20
6430,20
6431,20
6432,20
6433,20
6434,20
6435,20
6436,20
6437,20
6438,20
6439,20
6440,20
6441,20
6442,20
6443,20
6444,20
6445,20
6446,20
6447,20
6448,20
6449,20
6450,20
6451,20
6452,20
6453,20
6454,20
6455,20
6456,20
6457,20
6458,20
6459,20
6460,20
6461,20
6462,20
6463,20
6464,20
6465,20
6466,20
6467,20
6468,20
6469,20
6470,20
6471,20
6472,20
6473,20
6474,20
6475,20
6476,20
6477,20
6478,20
6479,20
6480,20
6481,20
6482,20
6483,20
6484,20
6485,20
6486,20
6487,20
6488,20
6489,20
6490,20
6491,20
6492,20
6493,20
6494,20
6495,20
6496,20
6497,20
6498,20
6499,20
6500,20
6501,20
6502,20
6503,20
6504,20
6505,20
6506,20
6507,20
6508,20
6509,20
6510,20
6511,20
6512,20
6513,20
6514,20
6515,20
6516,20
6517,20
6518,20
6519,20
6520,20
6521,20
6522,20
6523,20
6524,20
6525,20
6526,20
6527,20
6528,20
6529,20
6530,20
6531,20
6532,20
6533,20
6534,20
6535,20
6536,20
6537,20
6538,20
6539,20
6540,20
6541,20
6542,20
6543,20
6544,20
6545,20
6546,20
6547,20
6548,20
6549,21
6550,21
6551,21
6552,20
6553,20
6554,20
6555,20
6556,20
6557,20
6558,20
6559,20
6560,20
6561,20
6562,20
6563,20
6564,20
6565,20
6566,20
6567,20
6568,20
6569,20
6570,20
6571,20
6572,20
6573,20
6574,20
6575,20
6576,20
6577,20
6578,20
6579,20
6580,20
6581,20
6582,20
6583,20
6584,20
6585,20
6586,20
6587,20
6588,20
6589,20
6590,20
6591,20
6592,20
6593,20
6594,20
6595,20
6596,20
6597,20
6598,20
6599,20
6600,20
6601,20
6602,20
6603,20
6604,20
6605,20
6606,20
6607,20
6608,20
6609,20
6610,20
6611,21
6612,20
6613,20
6614,21
6615,21
6616,21
6617,21
6618,21
6619,20
6620,20
6621,20
6622,20
6623,20
6624,20
6625,20
6626,20
6627,20
6628,20
6629,20
6630,20
6631,20
6632,20
6633,20
6634,20
6635,20
6636,20
6637,20
6638,20
6639,20
6640,20
6641,20
6642,20
6643,20
6644,20
6645,20
6646,20
6647,20
6648,20
6649,20
6650,20
6651,20
6652,20
6653,20
6654,20
6655,20
6656,20
6657,20
6658,20
6659,20
6660,20
6661,20
6662,20
6663,20
6664,20
6665,20
6666,21
6667,20
6668,20
6669,20
6670,20
6671,20
6672,20
6673,20
6674,20
6675,20
6676,20
6677,20
6678,20
6679,20
6680,20
6681,20
6682,20
6683,20
6684,20
6685,20
6686,20
6687,20
6688,20
6689,20
6690,20
6691,20
6692,20
6693,20
6694,20
6695,20
6696,20
6697,20
6698,20
6699,20
6700,20
6701,20
6702,20
6703,20
6704,20
6705,20
6706,20
6707,20
6708,20
6709,20
6710,20
6711,20
6712,20
6713,20
6714,20
6715,20
6716,20
6717,20
6718,20
6719,20
6720,21
6721,20
6722,20
6723,20
6724,20
6725,20
6726,20
6727,20
6728,20
6729,20
6730,20
6731,20
6732,20
6733,20
6734,20
6735,20
6736,20
6737,20
6738,20
6739,20
6740,20
6741,20
6742,20
6743,20
6744,20
6745,20
6746,20
6747,20
6748,20
6749,20
6750,20
6751,20
6752,20
6753,20
6754,20
6755,20
6756,20
6757,20
6758,20
6759,20
6760,20
6761,20
6762,20
6763,20
6764,20
6765,20
6766,20
6767,20
6768,20
6769,20
6770,20
6771,20
6772,20
6773,20
6774,20
6775,20
6776,20
6777,20
6778,20
6779,20
6780,20
6781,20
6782,20
6783,20
6784,20
6785,20
6786,21
6787,21
6788,21
6789,21
6790,21
6791,21
6792,21
6793,21
6794,21
6795,21
6796,21
6797,21
6798,20
6799,20
6800,20
6801,20
6802,20
6803,20
6804,20
6805,20
6806,20
6807,20
6808,20
6809,20
6810,20
6811,20
6812,20
6813,20
6814,20
6815,20
6816,20
6817,20
6818,20
6819,20
6820,20
6821,20
6822,20
6823,20
6824,20
6825,20
6826,20
6827,20
6828,20
6829,20
6830,20
6831,20
6832,20
6833,20
6834,20
6835,20
6836,20
6837,20
6838,20
6839,20
6840,20
6841,20
6842,20
6843,20
6844,20
6845,20
6846,20
6847,20
6848,21
6849,20
6850,20
6851,20
6852,20
6853,20
6854,20
6855,20
6856,20
6857,20
6858,20
6859,20
6860,20
6861,20
6862,20
6863,20
6864,20
6865,20
6866,20
6867,20
6868,20
6869,20
6870,20
6871,20
6872,21
6873,21
6874,20
6875,20
6876,20
6877,20
6878,20
6879,20
6880,20
6881,20
6882,20
6883,20
6884,20
6885,20
6886,20
6887,20
6888,20
6889,20
6890,20
6891,20
6892,20
6893,20
6894,20
6895,20
6896,20
6897,20
6898,20
6899,20
6900,20
6901,20
6902,20
6903,20
6904,20
6905,20
6906,20
6907,20
6908,20
6909,20
6910,20
6911,20
6912,20
6913,20
6914,20
6915,20
6916,20
6917,20
6918,20
6919,20
6920,20
6921,20
6922,20
6923,20
6924,20
6925,20
6926,20
6927,20
6928,20
6929,20
6930,20
6931,20
6932,20
6933,20
6934,20
6935,20
6936,20
6937,20
6938,20
6939,20
6940,20
6941,20
6942,20
6943,20
6944,20
6945,20
6946,20
6947,20
6948,20
6949,20
6950,20
6951,20
6952,20
6953,20
6954,20
6955,20
6956,20
6957,20
6958,20
6959,20
6960,20
6961,20
6962,20
6963,20
6964,20
6965,20
6966,20
6967,20
6968,20
6969,20
6970,20
6971,20
6972,20
6973,20
6974,20
6975,20
6976,20
6977,20
6978,20
6979,20
6980,20
6981,20
6982,20
6983,20
6984,20
6985,20
6986,20
6987,20
6988,20
6989,20
6990,20
6991,20
6992,20
6993,20
6994,20
6995,20
6996,20
6997,20
6998,20
6999,20
7000,20
7001,20
7002,20
7003,20
7004,20
7005,20
7006,20
7007,20
7008,20
7009,20
7010,20
7011,20
7012,20
7013,20
7014,20
7015,20
7016,20
7017,20
7018,20
7019,20
7020,20
7021,20
7022,20
7023,20
7024,20
7025,20
7026,20
7027,20
7028,20
7029,20
7030,20
7031,20
7032,20
7033,20
7034,20
7035,20
7036,20
7037,20
7038,20
7039,20
7040,20
7041,20
7042,20
7043,20
7044,20
7045,20
7046,20
7047,20
7048,20
7049,20
7050,20
7051,20
7052,20
7053,20
7054,20
7055,20
7056,20
7057,20
7058,20
7059,21
7060,21
7061,21
7062,21
7063,21
7064,21
7065,21
7066,21
7067,21
7068,21
7069,21
7070,21
7071,21
7072,21
7073,20
7074,20
7075,20
7076,20
7077,20
7078,20
7079,20
7080,20
7081,20
7082,20
7083,20
7084,20
7085,20
7086,20
7087,20
7088,20
7089,20
7090,20
7091,20
7092,20
7093,20
7094,20
7095,20
7096,20
7097,20
7098,20
7099,20
7100,20
7101,20
7102,20
7103,20
7104,20
7105,20
7106,20
7107,20
7108,20
7109,20
7110,20
7111,20
7112,20
7113,20
7114,20
7115,20
7116,20
7117,20
7118,20
7119,20
7120,20
7121,20
7122,20
7123,20
7124,20
7125,20
7126,20
7127,20
7128,20
7129,20
7130,20
7131,20
7132,20
7133,20
7134,20
7135,20
7136,20
7137,20
7138,20
7139,20
7140,20
7141,20
7142,20
7143,20
7144,20
7145,20
7146,20
7147,20
7148,20
7149,20
7150,20
7151,20
7152,20
7153,20
7154,20
7155,20
7156,20
7157,20
7158,20
7159,20
7160,20
7161,20
7162,20
7163,20
7164,20
7165,20
7166,20
7167,20
7168,20
7169,20
7170,20
7171,20
7172,20
7173,20
7174,20
7175,20
7176,20
7177,20
7178,20
7179,20
7180,20
7181,20
7182,20
7183,20
7184,20
7185,20
7186,20
7187,20
7188,20
7189,20
7190,20
7191,20
7192,20
7193,20
7194,20
7195,21
7196,20
7197,20
7198,20
7199,20
7200,20
7201,20
7202,20
7203,20
7204,20
7205,20
7206,20
7207,21
7208,21
7209,21
7210,21
7211,21
7212,21
7213,21
7214,21
7215,21
7216,21
7217,21
7218,21
7219,21
7220,21
7221,21
7222,21
7223,21
7224,21
7225,21
7226,21
7227,21
7228,21
7229,21
7230,21
7231,21
7232,21
7233,21
7234,21
7235,21
7236,21
7237,21
7238,21
7239,21
7240,21
7241,21
7242,21
7243,21
7244,21
7245,21
7246,22
7247,22
7248,22
7249,22
7250,21
7251,21
7252,21
7253,21
7254,20
7255,20
7256,20
7257,20
7258,20
7259,20
7260,20
7261,20
7262,20
7263,20
7264,20
7265,20
7266,20
7267,20
7268,20
7269,20
7270,20
7271,20
7272,20
7273,20
7274,20
7275,20
7276,20
7277,20
7278,20
7279,20
7280,20
7281,20
7282,20
7283,20
7284,20
7285,20
7286,20
7287,20
7288,20
7289,20
7290,20
7291,20
7292,20
7293,20
7294,20
7295,20
7296,20
7297,20
7298,20
7299,20
7300,20
7301,20
7302,20
7303,20
7304,20
7305,20
7306,20
7307,20
7308,20
7309,20
7310,20
7311,20
7312,20
7313,20
7314,20
7315,20
7316,20
7317,20
7318,20
7319,20
7320,20
7321,21
7322,21
7323,21
7324,21
7325,21
7326,21
7327,21
7328,21
7329,21
7330,21
7331,21
7332,21
7333,21
7334,21
7335,21
7336,21
7337,21
7338,21
7339,21
7340,21
7341,21
7342,21
7343,21
7344,21
7345,21
7346,21
7347,21
7348,21
7349,21
7350,21
7351,22
7352,22
7353,22
7354,22
7355,22
7356,21
7357,21
7358,21
7359,21
7360,21
7361,21
7362,21
7363,21
7364,21
7365,21
7366,21
7367,21
7368,21
7369,21
7370,21
7371,21
7372,21
7373,21
7374,21
7375,21
7376,22
7377,21
7378,21
7379,21
7380,21
7381,21
7382,21
7383,21
7384,21
7385,21
7386,21
7387,21
7388,21
7389,21
7390,21
7391,21
7392,21
7393,21
7394,21
7395,21
7396,21
7397,21
7398,21
7399,21
7400,21
7401,21
7402,21
7403,21
7404,21
7405,21
7406,21
7407,21
7408,21
7409,21
7410,21
7411,21
7412,21
7413,21
7414,21
7415,21
7416,21
7417,21
7418,21
7419,21
7420,21
7421,21
7422,21
7423,21
7424,21
7425,21
7426,21
7427,21
7428,21
7429,21
7430,21
7431,21
7432,21
7433,21
7434,21
7435,21
7436,21
7437,21
7438,21
7439,21
7440,21
7441,21
7442,21
7443,21
7444,21
7445,21
7446,21
7447,21
7448,21
7449,21
7450,21
7451,21
7452,21
7453,21
7454,21
7455,21
7456,21
7457,21
7458,21
7459,21
7460,21
7461,21
7462,21
7463,21
7464,21
7465,21
7466,21
7467,21
7468,21
7469,22
7470,22
7471,22
7472,22
7473,21
7474,21
7475,21
7476,21
7477,21
7478,21
7479,21
7480,21
7481,21
7482,21
7483,21
7484,21
7485,21
7486,21
7487,21
7488,21
7489,21
7490,21
7491,21
7492,21
7493,21
7494,21
7495,21
7496,21
7497,21
7498,21
7499,21
7500,21
7501,21
7502,21
7503,21
7504,21
7505,21
7506,21
7507,21
7508,21
7509,21
7510,21
7511,21
7512,21
7513,21
7514,21
7515,21
7516,21
7517,21
7518,21
7519,21
7520,21
7521,21
7522,21
7523,21
7524,21
7525,21
7526,21
7527,21
7528,21
7529,21
7530,21
7531,21
7532,21
7533,21
7534,21
7535,21
7536,21
7537,21
7538,21
7539,21
7540,21
7541,21
7542,21
7543,21
7544,21
7545,21
7546,21
7547,21
7548,21
7549,21
7550,21
7551,21
7552,21
7553,21
7554,21
7555,21
7556,21
7557,21
7558,21
7559,21
7560,21
7561,21
7562,21
7563,21
7564,21
7565,21
7566,21
7567,21
7568,21
7569,21
7570,21
7571,21
7572,21
7573,21
7574,21
7575,21
7576,21
7577,21
7578,21
7579,21
7580,21
7581,21
7582,21
7583,21
7584,21
7585,21
7586,21
7587,21
7588,21
7589,21
7590,21
7591,21
7592,21
7593,21
7594,21
7595,21
7596,21
7597,21
7598,21
7599,21
7600,21
7601,21
7602,21
7603,21
7604,21
7605,21
7606,21
7607,21
7608,21
7609,21
7610,21
7611,21
7612,21
7613,21
7614,21
7615,21
7616,21
7617,21
7618,21
7619,21
7620,21
7621,21
7622,21
7623,21
7624,21
7625,21
7626,21
7627,21
7628,21
7629,21
7630,21
7631,21
7632,21
7633,21
7634,21
7635,21
7636,21
7637,21
7638,21
7639,21
7640,21
7641,21
7642,21
7643,21
7644,21
7645,21
7646,21
7647,21
7648,21
7649,21
7650,21
7651,21
7652,21
7653,21
7654,21
7655,21
7656,21
7657,21
7658,21
7659,21
7660,21
7661,21
7662,21
7663,21
7664,21
7665,21
7666,21
7667,21
7668,21
7669,21
7670,21
7671,21
7672,21
7673,21
7674,21
7675,21
7676,21
7677,21
7678,21
7679,21
7680,21
7681,21
7682,21
7683,21
7684,21
7685,21
7686,21
7687,21
7688,21
7689,21
7690,21
7691,21
7692,21
7693,21
7694,21
7695,21
7696,21
7697,21
7698,21
7699,21
7700,21
7701,21
7702,21
7703,21
7704,21
7705,21
7706,21
7707,21
7708,21
7709,21
7710,21
7711,21
7712,21
7713,21
7714,21
7715,21
7716,21
7717,21
7718,21
7719,21
7720,21
7721,21
7722,21
7723,21
7724,21
7725,21
7726,21
7727,21
7728,21
7729,21
7730,21
7731,21
7732,21
7733,21
7734,21
7735,21
7736,21
7737,21
7738,21
7739,21
7740,21
7741,21
7742,21
7743,21
7744,21
7745,21
7746,21
7747,21
7748,21
7749,21
7750,21
7751,21
7752,21
7753,21
7754,21
7755,21
7756,21
7757,21
7758,21
7759,21
7760,21
7761,21
7762,21
7763,21
7764,21
7765,21
7766,21
7767,21
7768,21
7769,21
7770,21
7771,21
7772,21
7773,21
7774,21
7775,21
7776,21
7777,21
7778,21
7779,21
7780,22
7781,22
7782,22
7783,21
7784,21
7785,21
7786,21
7787,21
7788,21
7789,21
7790,21
7791,21
7792,21
7793,21
7794,21
7795,21
7796,21
7797,21
7798,21
7799,21
7800,21
7801,21
7802,21
7803,21
7804,21
7805,21
7806,21
7807,21
7808,21
7809,21
7810,21
7811,21
7812,21
7813,21
7814,21
7815,21
7816,21
7817,21
7818,21
7819,21
7820,21
7821,21
7822,21
7823,21
7824,21
7825,21
7826,21
7827,21
7828,21
7829,21
7830,21
7831,21
7832,21
7833,21
7834,21
7835,21
7836,21
7837,21
7838,21
7839,21
7840,21
7841,21
7842,21
7843,21
7844,21
7845,21
7846,21
7847,21
7848,21
7849,21
7850,21
7851,21
7852,21
7853,21
7854,21
7855,21
7856,21
7857,21
7858,21
7859,21
7860,21
7861,21
7862,21
7863,21
7864,21
7865,21
7866,21
7867,21
7868,21
7869,22
7870,21
7871,21
7872,21
7873,21
7874,21
7875,21
7876,21
7877,21
7878,21
7879,21
7880,21
7881,21
7882,21
7883,21
7884,21
7885,21
7886,21
7887,21
7888,21
7889,21
7890,21
7891,21
7892,21
7893,21
7894,21
7895,21
7896,21
7897,21
7898,21
7899,21
7900,21
7901,21
7902,21
7903,21
7904,21
7905,21
7906,21
7907,21
7908,21
7909,21
7910,21
7911,21
7912,21
7913,21
7914,21
7915,21
7916,21
7917,21
7918,21
7919,21
7920,21
7921,21
7922,21
7923,21
7924,21
7925,21
7926,21
7927,21
7928,21
7929,21
7930,21
7931,21
7932,21
7933,21
7934,21
7935,21
7936,21
7937,21
7938,21
7939,21
7940,21
7941,21
7942,21
7943,21
7944,21
7945,21
7946,21
7947,21
7948,21
7949,21
7950,21
7951,21
7952,21
7953,21
7954,21
7955,21
7956,21
7957,21
7958,21
7959,21
7960,21
7961,21
7962,21
7963,22
7964,21
7965,21
7966,21
7967,21
7968,21
7969,21
7970,21
7971,21
7972,21
7973,21
7974,21
7975,21
7976,22
7977,22
7978,21
7979,21
7980,21
7981,21
7982,21
7983,21
7984,21
7985,21
7986,21
7987,21
7988,21
7989,21
7990,21
7991,21
7992,21
7993,21
7994,21
7995,21
7996,21
7997,21
7998,21
7999,21
8000,21
8001,21
8002,21
8003,21
8004,21
8005,21
8006,21
8007,21
8008,21
8009,21
8010,21
8011,21
8012,21
8013,21
8014,21
8015,21
8016,21
8017,21
8018,21
8019,21
8020,21
8021,21
8022,21
8023,21
8024,21
8025,21
8026,21
8027,21
8028,21
8029,21
8030,21
8031,21
8032,21
8033,21
8034,21
8035,21
8036,21
8037,21
8038,21
8039,21
8040,21
8041,21
8042,21
8043,21
8044,21
8045,21
8046,21
8047,21
8048,21
8049,21
8050,21
8051,21
8052,21
8053,21
8054,21
8055,21
8056,21
8057,21
8058,21
8059,21
8060,21
8061,21
8062,21
8063,21
8064,21
8065,21
8066,21
8067,21
8068,21
8069,21
8070,21
8071,21
8072,21
8073,21
8074,21
8075,21
8076,21
8077,21
8078,21
8079,21
8080,21
8081,21
8082,21
8083,21
8084,21
8085,21
8086,21
8087,21
8088,21
8089,21
8090,21
8091,21
8092,21
8093,21
8094,21
8095,21
8096,21
8097,21
8098,21
8099,21
8100,21
8101,21
8102,21
8103,21
8104,21
8105,21
8106,21
8107,21
8108,21
8109,21
8110,21
8111,21
8112,21
8113,21
8114,21
8115,21
8116,21
8117,21
8118,21
8119,21
8120,21
8121,21
8122,21
8123,21
8124,21
8125,21
8126,21
8127,21
8128,21
8129,21
8130,21
8131,21
8132,21
8133,21
8134,21
8135,21
8136,21
8137,21
8138,21
8139,21
8140,21
8141,21
8142,21
8143,21
8144,21
8145,21
8146,21
8147,21
8148,21
8149,21
8150,21
8151,21
8152,21
8153,21
8154,21
8155,21
8156,21
8157,21
8158,21
8159,21
8160,21
8161,21
8162,21
8163,21
8164,21
8165,21
8166,21
8167,21
8168,21
8169,21
8170,21
8171,21
8172,21
8173,21
8174,21
8175,21
8176,21
8177,21
8178,21
8179,21
8180,21
8181,21
8182,21
8183,21
8184,21
8185,21
8186,21
8187,21
8188,21
8189,21
8190,21
8191,21
8192,21
8193,21
8194,21
8195,22
8196,22
8197,22
8198,22
8199,22
8200,22
8201,22
8202,22
8203,22
8204,22
8205,21
8206,21
8207,21
8208,21
8209,21
8210,21
8211,21
8212,21
8213,21
8214,21
8215,21
8216,21
8217,21
8218,21
8219,21
8220,21
8221,21
8222,21
8223,21
8224,21
8225,21
8226,21
8227,21
8228,21
8229,21
8230,21
8231,21
8232,21
8233,21
8234,21
8235,21
8236,21
8237,21
8238,21
8239,21
8240,21
8241,21
8242,21
8243,21
8244,21
8245,21
8246,21
8247,21
8248,21
8249,21
8250,21
8251,21
8252,21
8253,21
8254,21
8255,21
8256,22
8257,21
8258,21
8259,21
8260,21
8261,21
8262,21
8263,21
8264,21
8265,21
8266,21
8267,21
8268,21
8269,21
8270,21
8271,21
8272,21
8273,21
8274,21
8275,21
8276,21
8277,21
8278,21
8279,21
8280,21
8281,21
8282,22
8283,21
8284,21
8285,21
8286,21
8287,22
8288,21
8289,21
8290,21
8291,21
8292,21
8293,21
8294,21
8295,21
8296,21
8297,21
8298,21
8299,21
8300,21
8301,21
8302,21
8303,21
8304,21
8305,21
8306,22
8307,22
8308,21
8309,21
8310,21
8311,21
8312,21
8313,21
8314,21
8315,21
8316,21
8317,21
8318,21
8319,21
8320,21
8321,21
8322,21
8323,21
8324,21
8325,21
8326,21
8327,21
8328,21
8329,21
8330,21
8331,21
8332,21
8333,21
8334,21
8335,21
8336,21
8337,21
8338,21
8339,21
8340,21
8341,21
8342,21
8343,21
8344,21
8345,21
8346,21
8347,21
8348,21
8349,21
8350,22
8351,21
8352,21
8353,21
8354,21
8355,21
8356,21
8357,21
8358,21
8359,21
8360,21
8361,21
8362,21
8363,21
8364,21
8365,21
8366,21
8367,21
8368,21
8369,21
8370,21
8371,21
8372,21
8373,21
8374,21
8375,21
8376,21
8377,21
8378,21
8379,21
8380,21
8381,21
8382,21
8383,21
8384,21
8385,21
8386,21
8387,21
8388,21
8389,21
8390,21
8391,21
8392,21
8393,21
8394,21
8395,21
8396,21
8397,21
8398,21
8399,21
8400,21
8401,21
8402,21
8403,21
8404,21
8405,21
8406,21
8407,21
8408,21
8409,21
8410,21
8411,21
8412,21
8413,21
8414,21
8415,21
8416,21
8417,21
8418,21
8419,21
8420,21
8421,21
8422,21
8423,21
8424,21
8425,21
8426,21
8427,21
8428,21
8429,21
8430,21
8431,21
8432,21
8433,21
8434,21
8435,21
8436,21
8437,21
8438,21
8439,21
8440,21
8441,21
8442,21
8443,21
8444,21
8445,21
8446,21
8447,21
8448,21
8449,21
8450,21
8451,21
8452,21
8453,21
8454,21
8455,21
8456,21
8457,21
8458,21
8459,21
8460,21
8461,22
8462,21
8463,21
8464,21
8465,21
8466,21
8467,21
8468,21
8469,21
8470,21
8471,21
8472,21
8473,21
8474,21
8475,21
8476,22
8477,22
8478,22
8479,21
8480,21
8481,21
8482,21
8483,21
8484,21
8485,21
8486,21
8487,21
8488,21
8489,21
8490,21
8491,21
8492,21
8493,21
8494,21
8495,21
8496,21
8497,21
8498,21
8499,21
8500,21
8501,21
8502,21
8503,21
8504,21
8505,21
8506,21
8507,21
8508,21
8509,21
8510,21
8511,21
8512,21
8513,21
8514,21
8515,21
8516,21
8517,21
8518,21
8519,21
8520,21
8521,21
8522,21
8523,21
8524,21
8525,21
8526,21
8527,21
8528,21
8529,21
8530,21
8531,21
8532,21
8533,21
8534,21
8535,21
8536,21
8537,21
8538,21
8539,21
8540,21
8541,21
8542,21
8543,21
8544,21
8545,21
8546,21
8547,21
8548,21
8549,21
8550,22
8551,22
8552,22
8553,22
8554,22
8555,22
8556,22
8557,22
8558,22
8559,22
8560,22
8561,22
8562,22
8563,22
8564,22
8565,22
8566,22
8567,22
8568,22
8569,22
8570,22
8571,22
8572,22
8573,22
8574,22
8575,22
8576,22
8577,22
8578,22
8579,22
8580,22
8581,22
8582,22
8583,22
8584,22
8585,22
8586,22
8587,22
8588,22
8589,22
8590,22
8591,22
8592,22
8593,22
8594,22
8595,22
8596,22
8597,22
8598,22
8599,22
8600,22
8601,22
8602,22
8603,22
8604,22
8605,22
8606,22
8607,22
8608,22
8609,22
8610,22
8611,22
8612,22
8613,23
8614,22
8615,22
8616,22
8617,22
8618,22
8619,22
8620,22
8621,22
8622,22
8623,22
8624,22
8625,22
8626,22
8627,22
8628,22
8629,22
8630,22
8631,22
8632,23
8633,23
8634,23
8635,23
8636,23
8637,22
8638,22
8639,22
8640,22
8641,22
8642,22
8643,22
8644,22
8645,22
8646,22
8647,22
8648,22
8649,22
8650,22
8651,22
8652,22
8653,22
8654,22
8655,22
8656,22
8657,22
8658,22
8659,22
8660,22
8661,22
8662,22
8663,22
8664,22
8665,22
8666,22
8667,22
8668,22
8669,23
8670,22
8671,22
8672,22
8673,22
8674,22
8675,22
8676,22
8677,22
8678,22
8679,22
8680,22
8681,22
8682,22
8683,22
8684,22
8685,22
8686,22
8687,22
8688,22
8689,22
8690,22
8691,22
8692,22
8693,22
8694,22
8695,22
8696,22
8697,22
8698,22
8699,22
8700,22
8701,22
8702,22
8703,22
8704,22
8705,22
8706,22
8707,22
8708,22
8709,22
8710,22
8711,22
8712,22
8713,22
8714,22
8715,22
8716,22
8717,22
8718,22
8719,22
8720,22
8721,22
8722,22
8723,22
8724,22
8725,22
8726,22
8727,22
8728,22
8729,22
8730,22
8731,22
8732,22
8733,22
8734,22
8735,22
8736,22
8737,22
8738,22
8739,22
8740,22
8741,22
8742,22
8743,22
8744,22
8745,22
8746,22
8747,22
8748,22
8749,22
8750,22
8751,22
8752,22
8753,22
8754,22
8755,22
8756,22
8757,22
8758,22
8759,22
8760,22
8761,22
8762,22
8763,22
8764,22
8765,22
8766,22
8767,22
8768,22
8769,22
8770,22
8771,22
8772,22
8773,22
8774,22
8775,22
8776,22
8777,22
8778,22
8779,22
8780,22
8781,22
8782,22
8783,22
8784,22
8785,22
8786,22
8787,22
8788,22
8789,22
8790,22
8791,22
8792,22
8793,22
8794,22
8795,22
8796,22
8797,22
8798,22
8799,22
8800,22
8801,22
8802,22
8803,22
8804,22
8805,22
8806,22
8807,22
8808,22
8809,22
8810,22
8811,22
8812,22
8813,22
8814,22
8815,22
8816,22
8817,22
8818,22
8819,22
8820,22
8821,22
8822,22
8823,22
8824,22
8825,22
8826,22
8827,22
8828,22
8829,22
8830,22
8831,22
8832,22
8833,22
8834,22
8835,22
8836,22
8837,22
8838,22
8839,22
8840,22
8841,22
8842,22
8843,22
8844,22
8845,22
8846,22
8847,22
8848,22
8849,22
8850,22
8851,22
8852,22
8853,22
8854,22
8855,22
8856,22
8857,22
8858,22
8859,22
8860,22
8861,22
8862,22
8863,22
8864,22
8865,22
8866,22
8867,22
8868,22
8869,22
8870,22
8871,22
8872,22
8873,22
8874,22
8875,22
8876,22
8877,22
8878,22
8879,22
8880,22
8881,22
8882,22
8883,22
8884,22
8885,22
8886,22
8887,22
8888,22
8889,22
8890,22
8891,22
8892,22
8893,22
8894,22
8895,22
8896,22
8897,22
8898,22
8899,22
8900,22
8901,22
8902,22
8903,22
8904,22
8905,22
8906,22
8907,22
8908,22
8909,22
8910,23
8911,22
8912,22
8913,22
8914,22
8915,22
8916,22
8917,22
8918,22
8919,22
8920,22
8921,22
8922,22
8923,22
8924,22
8925,23
8926,23
8927,23
8928,23
8929,23
8930,22
8931,22
8932,22
8933,22
8934,22
8935,22
8936,22
8937,22
8938,22
8939,22
8940,22
8941,22
8942,22
8943,22
8944,22
8945,22
8946,22
8947,22
8948,22
8949,22
8950,22
8951,22
8952,22
8953,22
8954,22
8955,22
8956,22
8957,22
8958,22
8959,22
8960,22
8961,22
8962,22
8963,22
8964,22
8965,22
8966,22
8967,22
8968,22
8969,22
8970,22
8971,22
8972,22
8973,22
8974,22
8975,22
8976,22
8977,22
8978,22
8979,22
8980,22
8981,22
8982,22
8983,22
8984,22
8985,22
8986,22
8987,22
8988,22
8989,22
8990,22
8991,22
8992,22
8993,22
8994,22
8995,22
8996,22
8997,22
8998,22
8999,22
9000,22
9001,22
9002,22
9003,22
9004,22
9005,22
9006,22
9007,22
9008,22
9009,22
9010,22
9011,22
9012,22
9013,22
9014,22
9015,22
9016,22
9017,22
9018,22
9019,22
9020,22
9021,22
9022,22
9023,22
9024,22
9025,22
9026,22
9027,22
9028,22
9029,22
9030,22
9031,22
9032,22
9033,22
9034,22
9035,22
9036,22
9037,22
9038,22
9039,22
9040,22
9041,22
9042,22
9043,22
9044,22
9045,22
9046,22
9047,22
9048,22
9049,22
9050,22
9051,22
9052,22
9053,22
9054,22
9055,22
9056,22
9057,22
9058,22
9059,22
9060,22
9061,22
9062,22
9063,22
9064,22
9065,22
9066,22
9067,22
9068,22
9069,22
9070,23
9071,23
9072,22
9073,22
9074,22
9075,22
9076,22
9077,22
9078,22
9079,22
9080,22
9081,22
9082,22
9083,22
9084,22
9085,22
9086,22
9087,22
9088,22
9089,23
9090,22
9091,22
9092,22
9093,22
9094,22
9095,22
9096,22
9097,22
9098,22
9099,22
9100,22
9101,22
9102,22
9103,22
9104,22
9105,22
9106,22
9107,22
9108,22
9109,22
9110,22
9111,22
9112,22
9113,22
9114,22
9115,22
9116,22
9117,22
9118,22
9119,22
9120,22
9121,22
9122,22
9123,22
9124,22
9125,22
9126,22
9127,22
9128,22
9129,22
9130,22
9131,22
9132,22
9133,22
9134,22
9135,22
9136,22
9137,22
9138,22
9139,22
9140,22
9141,22
9142,22
9143,22
9144,22
9145,22
9146,22
9147,22
9148,22
9149,22
9150,22
9151,22
9152,22
9153,22
9154,22
9155,22
9156,22
9157,22
9158,22
9159,23
9160,23
9161,23
9162,23
9163,23
9164,23
9165,23
9166,23
9167,23
9168,23
9169,23
9170,23
9171,23
9172,23
9173,23
9174,23
9175,23
9176,23
9177,23
9178,23
9179,23
9180,23
9181,23
9182,23
9183,23
9184,23
9185,23
9186,23
9187,23
9188,23
9189,23
9190,23
9191,23
9192,23
9193,23
9194,23
9195,23
9196,23
9197,23
9198,23
9199,23
9200,23
9201,23
9202,23
9203,23
9204,23
9205,23
9206,23
9207,23
9208,23
9209,23
9210,23
9211,23
9212,23
9213,23
9214,23
9215,23
9216,23
9217,23
9218,23
9219,23
9220,23
9221,23
9222,23
9223,23
9224,23
9225,23
9226,23
9227,23
9228,23
9229,23
9230,23
9231,23
9232,23
9233,23
9234,23
9235,23
9236,23
9237,23
9238,23
9239,23
9240,23
9241,23
9242,23
9243,23
9244,23
9245,23
9246,23
9247,23
9248,23
9249,23
9250,23
9251,23
9252,23
9253,23
9254,23
9255,23
9256,23
9257,23
9258,23
9259,23
9260,23
9261,23
9262,23
9263,23
9264,23
9265,23
9266,23
9267,23
9268,23
9269,23
9270,23
9271,23
9272,23
9273,23
9274,23
9275,23
9276,24
9277,24
9278,24
9279,23
9280,23
9281,23
9282,23
9283,23
9284,23
9285,23
9286,23
9287,23
9288,23
9289,23
9290,23
9291,23
9292,23
9293,23
9294,23
9295,23
9296,23
9297,23
9298,23
9299,23
9300,23
9301,23
9302,23
9303,23
9304,23
9305,23
9306,23
9307,23
9308,23
9309,23
9310,23
9311,23
9312,23
9313,23
9314,23
9315,23
9316,23
9317,23
9318,23
9319,23
9320,23
9321,23
9322,23
9323,23
9324,23
9325,24
9326,23
9327,23
9328,23
9329,23
9330,23
9331,23
9332,23
9333,23
9334,23
9335,23
9336,23
9337,23
9338,23
9339,23
9340,23
9341,23
9342,23
9343,23
9344,23
9345,23
9346,23
9347,23
9348,23
9349,23
9350,23
9351,23
9352,23
9353,23
9354,23
9355,23
9356,23
9357,23
9358,23
9359,24
9360,24
9361,24
9362,23
9363,23
9364,23
9365,23
9366,23
9367,23
9368,23
9369,23
9370,23
9371,23
9372,23
9373,23
9374,23
9375,23
9376,23
9377,23
9378,23
9379,23
9380,23
9381,23
9382,23
9383,23
9384,23
9385,23
9386,23
9387,23
9388,23
9389,23
9390,23
9391,23
9392,23
9393,23
9394,23
9395,23
9396,23
9397,23
9398,23
9399,23
9400,23
9401,23
9402,23
9403,23
9404,23
9405,23
9406,23
9407,23
9408,23
9409,23
9410,23
9411,23
9412,23
9413,23
9414,23
9415,23
9416,23
9417,23
9418,23
9419,23
9420,24
9421,24
9422,24
9423,24
9424,24
9425,24
9426,24
9427,24
9428,24
9429,24
9430,24
9431,24
9432,24
9433,25
9434,24
9435,24
9436,24
9437,24
9438,24
9439,24
9440,24
9441,24
9442,24
9443,24
9444,25
9445,24
9446,24
9447,24
9448,24
9449,24
9450,24
9451,24
9452,24
9453,24
9454,24
9455,24
9456,24
9457,24
9458,24
9459,24
9460,24
9461,24
9462,24
9463,24
9464,24
9465,24
9466,24
9467,24
9468,24
9469,24
9470,24
9471,24
9472,24
9473,24
9474,24
9475,24
9476,24
9477,24
9478,24
9479,25
9480,25
9481,25
9482,25
9483,25
9484,24
9485,24
9486,24
9487,24
9488,24
9489,24
9490,24
9491,24
9492,24
9493,24
9494,24
9495,24
9496,24
9497,24
9498,24
9499,24
9500,24
9501,24
9502,24
9503,24
9504,24
9505,24
9506,24
9507,24
9508,24
9509,24
9510,24
9511,24
9512,24
9513,24
9514,24
9515,24
9516,24
9517,24
9518,24
9519,25
9520,25
9521,25
9522,25
9523,25
9524,25
9525,25
9526,24
9527,24
9528,24
9529,24
9530,24
9531,24
9532,24
9533,24
9534,24
9535,24
9536,24
9537,24
9538,24
9539,24
9540,24
9541,24
9542,24
9543,24
9544,24
9545,24
9546,24
9547,24
9548,24
9549,24
9550,24
9551,24
9552,24
9553,24
9554,24
9555,24
9556,24
9557,24
9558,24
9559,24
9560,24
9561,24
9562,24
9563,24
9564,24
9565,24
9566,24
9567,24
9568,25
9569,25
9570,24
9571,24
9572,24
9573,24
9574,24
9575,24
9576,24
9577,24
9578,24
9579,24
9580,24
9581,24
9582,24
9583,24
9584,24
9585,24
9586,24
9587,24
9588,24
9589,24
9590,24
9591,24
9592,24
9593,24
9594,24
9595,24
9596,24
9597,24
9598,24
9599,24
9600,24
9601,24
9602,24
9603,24
9604,24
9605,24
9606,24
9607,24
9608,24
9609,24
9610,24
9611,24
9612,24
9613,24
9614,24
9615,24
9616,24
9617,24
9618,24
9619,24
9620,24
9621,24
9622,24
9623,24
9624,24
9625,24
9626,24
9627,24
9628,24
9629,24
9630,24
9631,24
9632,24
9633,24
9634,24
9635,24
9636,24
9637,24
9638,24
9639,24
9640,24
9641,24
9642,24
9643,24
9644,24
9645,24
9646,24
9647,24
9648,24
9649,24
9650,24
9651,24
9652,24
9653,24
9654,24
9655,24
9656,24
9657,24
9658,24
9659,24
9660,24
9661,24
9662,24
9663,24
9664,24
9665,24
9666,24
9667,24
9668,24
9669,24
9670,24
9671,24
9672,24
9673,24
9674,24
9675,24
9676,24
9677,24
9678,24
9679,25
9680,24
9681,24
9682,24
9683,24
9684,24
9685,24
9686,24
9687,24
9688,24
9689,24
9690,24
9691,24
9692,24
9693,24
9694,24
9695,24
9696,24
9697,24
9698,24
9699,24
9700,24
9701,24
9702,24
9703,24
9704,24
9705,24
9706,24
9707,24
9708,24
9709,24
9710,24
9711,24
9712,24
9713,24
9714,24
9715,24
9716,24
9717,24
9718,24
9719,24
9720,24
9721,24
9722,24
9723,24
9724,24
9725,24
9726,24
9727,24
9728,24
9729,25
9730,24
9731,24
9732,24
9733,24
9734,24
9735,24
9736,24
9737,24
9738,24
9739,24
9740,24
9741,24
9742,24
9743,24
9744,24
9745,24
9746,24
9747,24
9748,24
9749,24
9750,24
9751,24
9752,24
9753,24
9754,24
9755,24
9756,24
9757,24
9758,24
9759,24
9760,24
9761,24
9762,24
9763,24
9764,24
9765,24
9766,24
9767,24
9768,24
9769,24
9770,24
9771,24
9772,24
9773,24
9774,24
9775,24
9776,24
9777,24
9778,24
9779,24
9780,24
9781,24
9782,24
9783,24
9784,24
9785,24
9786,24
9787,24
9788,24
9789,24
9790,24
9791,24
9792,24
9793,24
9794,24
9795,24
9796,24
9797,24
9798,24
9799,24
9800,24
9801,24
9802,24
9803,24
9804,24
9805,24
9806,24
9807,24
9808,24
9809,24
9810,24
9811,24
9812,24
9813,24
9814,24
9815,24
9816,24
9817,24
9818,24
9819,24
9820,24
9821,24
9822,24
9823,24
9824,24
9825,24
9826,24
9827,24
9828,24
9829,24
9830,24
9831,24
9832,24
9833,24
9834,24
9835,24
9836,24
9837,24
9838,24
9839,24
9840,24
9841,24
9842,24
9843,24
9844,24
9845,24
9846,24
9847,24
9848,24
9849,24
9850,24
9851,24
9852,24
9853,24
9854,24
9855,24
9856,24
9857,24
9858,24
9859,24
9860,25
9861,24
9862,24
9863,24
9864,24
9865,24
9866,24
9867,24
9868,24
9869,24
9870,24
9871,24
9872,24
9873,24
9874,24
9875,24
9876,24
9877,24
9878,24
9879,24
9880,24
9881,24
9882,24
9883,24
9884,24
9885,24
9886,24
9887,24
9888,24
9889,24
9890,24
9891,24
9892,24
9893,24
9894,24
9895,24
9896,24
9897,24
9898,24
9899,24
9900,24
9901,24
9902,24
9903,24
9904,24
9905,24
9906,24
9907,24
9908,24
9909,24
9910,24
9911,24
9912,24
9913,24
9914,24
9915,24
9916,24
9917,24
9918,24
9919,24
9920,24
9921,24
9922,24
9923,24
9924,24
9925,24
9926,24
9927,24
9928,24
9929,24
9930,24
9931,24
9932,24
9933,24
9934,24
9935,24
9936,24
9937,24
9938,24
9939,24
9940,24
9941,24
9942,24
9943,24
9944,24
9945,24
9946,24
9947,24
9948,24
9949,24
9950,24
9951,24
9952,24
9953,24
9954,24
9955,24
9956,24
9957,24
9958,24
9959,24
9960,24
9961,24
9962,24
9963,24
9964,24
9965,24
9966,24
9967,24
9968,24
9969,24
9970,24
9971,24
9972,24
9973,24
9974,24
9975,24
9976,24
9977,24
9978,24
9979,24
9980,24
9981,24
9982,24
9983,24
9984,24
9985,24
9986,25
9987,25
9988,25
9989,25
9990,25
9991,24
9992,24
9993,24
9994,24
9995,24
9996,24
9997,24
9998,24
9999,24
10000,24
