1,3
2,3
3,3
4,3
5,3
6,3
7,3
8,3
9,3
10,3
11,3
12,3
13,3
14,3
15,3
16,3
17,3
18,3
19,3
20,3
21,3
22,3
23,3
24,3
25,3
26,3
27,3
28,3
29,3
30,3
31,3
32,3
33,3
34,3
35,3
36,3
37,3
38,3
39,3
40,3
41,3
42,3
43,3
44,3
45,3
46,3
47,3
48,3
49,3
50,3
51,3
52,3
53,3
54,3
55,3
56,3
57,3
58,3
59,3
60,4
61,4
62,4
63,4
64,4
65,4
66,4
67,4
68,4
69,4
70,4
71,4
72,4
73,4
74,4
75,4
76,4
77,4
78,4
79,4
80,4
81,4
82,4
83,4
84,4
85,4
86,4
87,4
88,4
89,4
90,4
91,4
92,4
93,4
94,4
95,4
96,4
97,4
98,4
99,4
100,4
101,4
102,4
103,4
104,4
105,4
106,4
107,4
108,4
109,4
110,4
111,4
112,4
113,4
114,4
115,4
116,4
117,4
118,4
119,4
120,4
121,4
122,4
123,4
124,4
125,4
126,4
127,5
128,5
129,4
130,4
131,4
132,4
133,5
134,4
135,4
136,4
137,4
138,4
139,4
140,4
141,4
142,4
143,4
144,4
145,4
146,4
147,4
148,4
149,4
150,4
151,4
152,4
153,4
154,4
155,4
156,4
157,4
158,4
159,4
160,4
161,4
162,4
163,4
164,4
165,4
166,4
167,4
168,4
169,4
170,4
171,4
172,4
173,4
174,4
175,5
176,5
177,5
178,5
179,5
180,5
181,5
182,5
183,5
184,5
185,5
186,5
187,5
188,5
189,5
190,5
191,5
192,5
193,5
194,5
195,5
196,5
197,6
198,6
199,5
200,5
201,5
202,5
203,5
204,5
205,5
206,5
207,5
208,5
209,5
210,5
211,5
212,5
213,5
214,5
215,5
216,5
217,5
218,5
219,5
220,5
221,5
222,5
223,5
224,5
225,5
226,5
227,5
228,5
229,5
230,5
231,5
232,5
233,5
234,5
235,5
236,5
237,5
238,5
239,5
240,5
241,5
242,5
243,5
244,5
245,5
246,5
247,5
248,5
249,5
250,5
251,5
252,5
253,5
254,5
255,5
256,5
257,5
258,5
259,5
260,5
261,5
262,5
263,5
264,5
265,5
266,5
267,5
268,5
269,5
270,5
271,5
272,5
273,5
274,5
275,5
276,5
277,5
278,5
279,5
280,5
281,5
282,5
283,5
284,5
285,5
286,5
287,5
288,5
289,5
290,5
291,5
292,5
293,5
294,5
295,5
296,5
297,5
298,5
299,5
300,5
301,5
302,5
303,6
304,5
305,5
306,5
307,5
308,5
309,5
310,5
311,5
312,5
313,5
314,5
315,5
316,5
317,5
318,5
319,5
320,5
321,5
322,5
323,5
324,5
325,5
326,5
327,5
328,5
329,5
330,5
331,5
332,5
333,5
334,5
335,5
336,5
337,5
338,5
339,5
340,5
341,5
342,5
343,5
344,5
345,5
346,5
347,5
348,5
349,5
350,5
351,5
352,5
353,5
354,5
355,5
356,5
357,5
358,5
359,5
360,5
361,5
362,5
363,5
364,5
365,5
366,5
367,5
368,5
369,5
370,5
371,5
372,5
373,5
374,5
375,5
376,5
377,5
378,5
379,5
380,5
381,5
382,5
383,5
384,5
385,5
386,5
387,5
388,5
389,5
390,5
391,5
392,5
393,5
394,5
395,5
396,5
397,5
398,5
399,5
400,5
401,5
402,5
403,5
404,5
405,5
406,5
407,5
408,5
409,5
410,5
411,5
412,5
413,6
414,6
415,6
416,6
417,6
418,6
419,6
420,6
421,6
422,6
423,6
424,6
425,6
426,6
427,6
428,6
429,6
430,6
431,6
432,6
433,6
434,6
435,6
436,6
437,6
438,6
439,6
440,6
441,6
442,6
443,6
444,6
445,6
446,6
447,6
448,6
449,6
450,6
451,6
452,6
453,6
454,6
455,6
456,6
457,6
458,6
459,6
460,6
461,6
462,6
463,6
464,6
465,6
466,6
467,6
468,6
469,6
470,6
471,6
472,6
473,6
474,6
475,6
476,6
477,6
478,6
479,6
480,6
481,6
482,6
483,6
484,6
485,6
486,6
487,6
488,6
489,6
490,6
491,6
492,6
493,6
494,6
495,6
496,6
497,6
498,6
499,6
500,6
501,6
502,6
503,6
504,6
505,6
506,6
507,6
508,6
509,6
510,6
511,6
512,6
513,6
514,6
515,6
516,6
517,6
518,6
519,6
520,6
521,6
522,6
523,6
524,6
525,6
526,6
527,6
528,6
529,6
530,6
531,6
532,6
533,6
534,6
535,6
536,6
537,6
538,6
539,6
540,6
541,6
542,6
543,6
544,6
545,6
546,6
547,6
548,6
549,6
550,6
551,6
552,6
553,6
554,6
555,6
556,6
557,6
558,6
559,6
560,6
561,6
562,6
563,6
564,7
565,6
566,6
567,6
568,6
569,6
570,6
571,6
572,6
573,6
574,6
575,6
576,6
577,6
578,6
579,6
580,6
581,6
582,6
583,6
584,6
585,6
586,6
587,6
588,6
589,6
590,6
591,6
592,6
593,6
594,6
595,6
596,6
597,6
598,6
599,6
600,6
601,6
602,6
603,6
604,6
605,6
606,6
607,6
608,6
609,6
610,6
611,6
612,6
613,6
614,6
615,6
616,6
617,6
618,6
619,6
620,6
621,6
622,6
623,6
624,6
625,6
626,6
627,6
628,6
629,6
630,6
631,6
632,6
633,6
634,6
635,6
636,6
637,6
638,6
639,6
640,6
641,6
642,6
643,6
644,6
645,6
646,6
647,6
648,6
649,6
650,6
651,6
652,6
653,6
654,6
655,6
656,6
657,6
658,6
659,6
660,6
661,6
662,6
663,6
664,6
665,6
666,6
667,6
668,6
669,6
670,6
671,6
672,6
673,7
674,7
675,7
676,7
677,7
678,7
679,7
680,7
681,7
682,7
683,7
684,7
685,7
686,7
687,7
688,7
689,7
690,7
691,7
692,7
693,7
694,7
695,7
696,7
697,7
698,7
699,7
700,7
701,7
702,7
703,7
704,7
705,7
706,7
707,7
708,7
709,7
710,7
711,7
712,7
713,7
714,7
715,7
716,7
717,7
718,7
719,7
720,7
721,7
722,7
723,7
724,7
725,7
726,7
727,7
728,7
729,7
730,7
731,7
732,7
733,7
734,7
735,7
736,7
737,7
738,7
739,7
740,7
741,7
742,7
743,7
744,7
745,7
746,7
747,7
748,7
749,7
750,7
751,7
752,7
753,7
754,7
755,7
756,7
757,7
758,7
759,7
760,7
761,7
762,7
763,7
764,7
765,7
766,7
767,7
768,7
769,7
770,7
771,7
772,7
773,7
774,7
775,7
776,7
777,7
778,7
779,7
780,7
781,7
782,7
783,7
784,7
785,7
786,7
787,7
788,7
789,7
790,7
791,7
792,7
793,7
794,7
795,7
796,7
797,7
798,7
799,7
800,7
801,7
802,7
803,7
804,7
805,7
806,7
807,7
808,7
809,7
810,7
811,7
812,7
813,7
814,7
815,7
816,7
817,7
818,7
819,7
820,7
821,7
822,7
823,7
824,7
825,8
826,7
827,7
828,7
829,7
830,7
831,7
832,7
833,7
834,7
835,7
836,7
837,7
838,7
839,7
840,7
841,7
842,7
843,7
844,8
845,7
846,7
847,7
848,7
849,7
850,7
851,7
852,7
853,7
854,7
855,7
856,7
857,7
858,8
859,7
860,7
861,7
862,7
863,7
864,7
865,7
866,7
867,7
868,7
869,7
870,7
871,7
872,7
873,7
874,7
875,7
876,7
877,7
878,7
879,7
880,7
881,7
882,7
883,7
884,7
885,7
886,7
887,7
888,7
889,7
890,7
891,7
892,7
893,7
894,7
895,7
896,7
897,7
898,7
899,7
900,7
901,7
902,7
903,7
904,7
905,7
906,7
907,7
908,7
909,7
910,7
911,7
912,7
913,7
914,7
915,7
916,7
917,7
918,7
919,8
920,8
921,8
922,8
923,7
924,7
925,7
926,7
927,7
928,7
929,7
930,7
931,7
932,7
933,7
934,7
935,7
936,7
937,7
938,7
939,7
940,7
941,7
942,7
943,7
944,7
945,7
946,7
947,7
948,7
949,7
950,7
951,7
952,7
953,7
954,7
955,7
956,7
957,7
958,7
959,7
960,7
961,7
962,7
963,7
964,7
965,7
966,7
967,7
968,7
969,7
970,7
971,7
972,7
973,7
974,7
975,7
976,7
977,7
978,7
979,7
980,7
981,7
982,7
983,7
984,7
985,7
986,7
987,7
988,7
989,7
990,7
991,7
992,7
993,7
994,7
995,7
996,7
997,7
998,7
999,7
1000,7
1001,7
1002,7
1003,7
1004,7
1005,7
1006,7
1007,7
1008,7
1009,7
1010,7
1011,7
1012,7
1013,7
1014,7
1015,7
1016,7
1017,7
1018,7
1019,7
1020,7
1021,7
1022,8
1023,8
1024,8
1025,8
1026,7
1027,7
1028,7
1029,7
1030,7
1031,7
1032,7
1033,7
1034,7
1035,7
1036,7
1037,7
1038,7
1039,7
1040,7
1041,7
1042,7
1043,7
1044,7
1045,7
1046,7
1047,7
1048,7
1049,7
1050,7
1051,7
1052,7
1053,7
1054,7
1055,7
1056,7
1057,7
1058,7
1059,7
1060,7
1061,7
1062,7
1063,7
1064,7
1065,7
1066,7
1067,7
1068,7
1069,7
1070,7
1071,7
1072,7
1073,7
1074,7
1075,7
1076,7
1077,7
1078,7
1079,7
1080,7
1081,7
1082,8
1083,8
1084,8
1085,7
1086,7
1087,7
1088,7
1089,7
1090,7
1091,7
1092,7
1093,7
1094,7
1095,7
1096,7
1097,7
1098,7
1099,7
1100,7
1101,7
1102,7
1103,7
1104,7
1105,7
1106,7
1107,7
1108,7
1109,7
1110,7
1111,7
1112,7
1113,7
1114,7
1115,7
1116,7
1117,7
1118,7
1119,7
1120,7
1121,7
1122,7
1123,7
1124,7
1125,7
1126,7
1127,7
1128,7
1129,7
1130,7
1131,7
1132,7
1133,7
1134,7
1135,7
1136,7
1137,7
1138,7
1139,7
1140,7
1141,7
1142,7
1143,7
1144,7
1145,7
1146,7
1147,7
1148,7
1149,7
1150,7
1151,7
1152,7
1153,7
1154,7
1155,7
1156,7
1157,7
1158,7
1159,7
1160,7
1161,7
1162,7
1163,7
1164,7
1165,7
1166,7
1167,7
1168,7
1169,7
1170,8
1171,8
1172,8
1173,8
1174,8
1175,8
1176,8
1177,8
1178,8
1179,8
1180,8
1181,8
1182,8
1183,8
1184,8
1185,8
1186,8
1187,8
1188,8
1189,8
1190,8
1191,8
1192,8
1193,8
1194,8
1195,8
1196,8
1197,8
1198,8
1199,8
1200,8
1201,8
1202,8
1203,8
1204,8
1205,8
1206,8
1207,8
1208,8
1209,8
1210,8
1211,8
1212,8
1213,8
1214,8
1215,8
1216,8
1217,8
1218,8
1219,8
1220,8
1221,8
1222,8
1223,8
1224,8
1225,8
1226,8
1227,8
1228,8
1229,8
1230,8
1231,8
1232,8
1233,8
1234,8
1235,8
1236,8
1237,8
1238,8
1239,8
1240,8
1241,8
1242,8
1243,8
1244,8
1245,8
1246,8
1247,8
1248,8
1249,8
1250,8
1251,8
1252,8
1253,8
1254,8
1255,8
1256,8
1257,8
1258,8
1259,8
1260,8
1261,8
1262,8
1263,8
1264,8
1265,8
1266,8
1267,8
1268,8
1269,8
1270,8
1271,8
1272,8
1273,8
1274,8
1275,8
1276,8
1277,8
1278,8
1279,8
1280,8
1281,8
1282,8
1283,8
1284,8
1285,8
1286,8
1287,9
1288,9
1289,9
1290,8
1291,8
1292,8
1293,8
1294,8
1295,8
1296,8
1297,8
1298,8
1299,8
1300,8
1301,8
1302,8
1303,8
1304,8
1305,8
1306,8
1307,8
1308,8
1309,8
1310,8
1311,8
1312,8
1313,8
1314,8
1315,8
1316,8
1317,8
1318,8
1319,8
1320,8
1321,8
1322,8
1323,8
1324,8
1325,8
1326,9
1327,8
1328,8
1329,8
1330,8
1331,8
1332,8
1333,8
1334,8
1335,8
1336,8
1337,8
1338,8
1339,8
1340,8
1341,8
1342,8
1343,8
1344,8
1345,8
1346,8
1347,8
1348,8
1349,8
1350,8
1351,8
1352,8
1353,8
1354,8
1355,8
1356,8
1357,8
1358,8
1359,8
1360,8
1361,8
1362,8
1363,8
1364,8
1365,8
1366,8
1367,8
1368,8
1369,8
1370,8
1371,8
1372,8
1373,8
1374,8
1375,8
1376,8
1377,8
1378,8
1379,8
1380,8
1381,8
1382,8
1383,8
1384,8
1385,8
1386,8
1387,8
1388,8
1389,8
1390,8
1391,8
1392,8
1393,8
1394,8
1395,8
1396,8
1397,8
1398,8
1399,8
1400,8
1401,8
1402,8
1403,8
1404,8
1405,8
1406,8
1407,8
1408,8
1409,8
1410,8
1411,8
1412,8
1413,9
1414,8
1415,8
1416,8
1417,8
1418,8
1419,8
1420,8
1421,8
1422,8
1423,8
1424,8
1425,8
1426,8
1427,8
1428,8
1429,8
1430,8
1431,8
1432,8
1433,8
1434,8
1435,8
1436,8
1437,8
1438,8
1439,8
1440,8
1441,8
1442,8
1443,8
1444,8
1445,8
1446,8
1447,8
1448,8
1449,8
1450,8
1451,8
1452,8
1453,9
1454,9
1455,9
1456,9
1457,9
1458,9
1459,9
1460,9
1461,9
1462,9
1463,10
1464,9
1465,9
1466,9
1467,9
1468,9
1469,9
1470,9
1471,9
1472,9
1473,9
1474,9
1475,9
1476,9
1477,9
1478,9
1479,9
1480,9
1481,9
1482,9
1483,9
1484,9
1485,9
1486,9
1487,9
1488,9
1489,9
1490,9
1491,9
1492,9
1493,9
1494,9
1495,9
1496,9
1497,9
1498,9
1499,9
1500,9
1501,9
1502,9
1503,9
1504,9
1505,9
1506,9
1507,9
1508,9
1509,9
1510,9
1511,9
1512,9
1513,9
1514,9
1515,9
1516,9
1517,9
1518,9
1519,9
1520,9
1521,9
1522,9
1523,9
1524,9
1525,9
1526,9
1527,9
1528,9
1529,9
1530,9
1531,9
1532,9
1533,9
1534,9
1535,9
1536,9
1537,9
1538,9
1539,9
1540,9
1541,9
1542,9
1543,9
1544,9
1545,9
1546,9
1547,9
1548,9
1549,9
1550,9
1551,9
1552,9
1553,9
1554,9
1555,9
1556,9
1557,9
1558,10
1559,10
1560,9
1561,9
1562,9
1563,9
1564,9
1565,9
1566,9
1567,9
1568,9
1569,9
1570,9
1571,9
1572,9
1573,9
1574,9
1575,9
1576,9
1577,9
1578,9
1579,9
1580,9
1581,9
1582,9
1583,9
1584,9
1585,9
1586,9
1587,9
1588,9
1589,9
1590,10
1591,10
1592,10
1593,10
1594,10
1595,10
1596,9
1597,9
1598,9
1599,9
1600,9
1601,9
1602,9
1603,9
1604,9
1605,9
1606,9
1607,9
1608,9
1609,9
1610,9
1611,9
1612,9
1613,9
1614,9
1615,9
1616,9
1617,9
1618,9
1619,9
1620,9
1621,9
1622,9
1623,9
1624,9
1625,9
1626,9
1627,9
1628,9
1629,9
1630,9
1631,9
1632,9
1633,9
1634,9
1635,9
1636,9
1637,9
1638,9
1639,9
1640,9
1641,9
1642,9
1643,9
1644,9
1645,9
1646,9
1647,9
1648,9
1649,9
1650,9
1651,9
1652,9
1653,9
1654,9
1655,9
1656,9
1657,9
1658,9
1659,9
1660,9
1661,9
1662,9
1663,9
1664,9
1665,9
1666,9
1667,9
1668,9
1669,9
1670,9
1671,9
1672,9
1673,9
1674,9
1675,9
1676,9
1677,9
1678,9
1679,9
1680,9
1681,9
1682,9
1683,9
1684,9
1685,9
1686,9
1687,9
1688,9
1689,9
1690,9
1691,9
1692,9
1693,9
1694,9
1695,9
1696,9
1697,9
1698,9
1699,9
1700,9
1701,9
1702,9
1703,9
1704,9
1705,9
1706,9
1707,9
1708,9
1709,9
1710,9
1711,9
1712,9
1713,9
1714,9
1715,9
1716,9
1717,9
1718,9
1719,9
1720,9
1721,9
1722,9
1723,9
1724,9
1725,9
1726,9
1727,9
1728,9
1729,9
1730,9
1731,9
1732,9
1733,9
1734,9
1735,9
1736,9
1737,9
1738,9
1739,9
1740,9
1741,9
1742,9
1743,9
1744,9
1745,9
1746,9
1747,9
1748,9
1749,10
1750,10
1751,9
1752,9
1753,9
1754,9
1755,9
1756,9
1757,9
1758,9
1759,9
1760,9
1761,9
1762,9
1763,9
1764,9
1765,9
1766,9
1767,9
1768,9
1769,9
1770,10
1771,9
1772,9
1773,9
1774,9
1775,9
1776,9
1777,9
1778,9
1779,9
1780,9
1781,9
1782,9
1783,9
1784,9
1785,9
1786,9
1787,9
1788,9
1789,9
1790,9
1791,9
1792,9
1793,9
1794,9
1795,9
1796,9
1797,9
1798,9
1799,9
1800,9
1801,9
1802,9
1803,9
1804,9
1805,9
1806,9
1807,9
1808,9
1809,9
1810,9
1811,9
1812,9
1813,9
1814,9
1815,9
1816,9
1817,9
1818,9
1819,9
1820,9
1821,9
1822,9
1823,9
1824,9
1825,9
1826,9
1827,9
1828,9
1829,9
1830,9
1831,9
1832,9
1833,9
1834,9
1835,9
1836,9
1837,9
1838,9
1839,9
1840,9
1841,9
1842,9
1843,9
1844,9
1845,9
1846,9
1847,9
1848,9
1849,9
1850,9
1851,9
1852,9
1853,9
1854,9
1855,9
1856,9
1857,9
1858,9
1859,9
1860,9
1861,9
1862,9
1863,9
1864,9
1865,9
1866,9
1867,9
1868,9
1869,9
1870,9
1871,9
1872,9
1873,9
1874,9
1875,10
1876,10
1877,10
1878,10
1879,10
1880,10
1881,10
1882,10
1883,10
1884,10
1885,10
1886,10
1887,10
1888,10
1889,10
1890,10
1891,10
1892,10
1893,10
1894,10
1895,10
1896,10
1897,10
1898,10
1899,10
1900,10
1901,10
1902,10
1903,10
1904,10
1905,10
1906,10
1907,10
1908,10
1909,10
1910,10
1911,10
1912,10
1913,10
1914,10
1915,10
1916,10
1917,10
1918,10
1919,10
1920,10
1921,10
1922,10
1923,10
1924,10
1925,10
1926,10
1927,10
1928,10
1929,10
1930,10
1931,10
1932,10
1933,10
1934,10
1935,10
1936,10
1937,10
1938,10
1939,11
1940,11
1941,11
1942,10
1943,10
1944,10
1945,10
1946,10
1947,10
1948,10
1949,10
1950,10
1951,10
1952,10
1953,10
1954,10
1955,10
1956,10
1957,10
1958,10
1959,10
1960,10
1961,10
1962,10
1963,10
1964,10
1965,10
1966,10
1967,10
1968,10
1969,10
1970,10
1971,10
1972,10
1973,10
1974,10
1975,10
1976,10
1977,10
1978,10
1979,10
1980,10
1981,10
1982,10
1983,10
1984,10
1985,10
1986,10
1987,10
1988,10
1989,10
1990,10
1991,10
1992,10
1993,10
1994,10
1995,10
1996,10
1997,10
1998,10
1999,10
2000,10
2001,10
2002,10
2003,10
2004,10
2005,10
2006,10
2007,10
2008,10
2009,10
2010,10
2011,11
2012,11
2013,12
2014,11
2015,11
2016,11
2017,11
2018,11
2019,10
2020,10
2021,10
2022,10
2023,10
2024,10
2025,10
2026,10
2027,10
2028,11
2029,11
2030,10
2031,11
2032,10
2033,10
2034,10
2035,10
2036,10
2037,10
2038,10
2039,10
2040,10
2041,10
2042,10
2043,10
2044,10
2045,10
2046,10
2047,10
2048,10
2049,10
2050,10
2051,10
2052,10
2053,10
2054,10
2055,10
2056,10
2057,10
2058,10
2059,10
2060,10
2061,10
2062,10
2063,10
2064,10
2065,10
2066,10
2067,10
2068,10
2069,10
2070,10
2071,10
2072,10
2073,10
2074,10
2075,10
2076,10
2077,10
2078,10
2079,10
2080,10
2081,10
2082,10
2083,10
2084,10
2085,10
2086,10
2087,10
2088,10
2089,10
2090,10
2091,10
2092,10
2093,10
2094,10
2095,10
2096,10
2097,10
2098,10
2099,10
2100,10
2101,10
2102,10
2103,10
2104,10
2105,10
2106,10
2107,10
2108,10
2109,10
2110,10
2111,10
2112,10
2113,10
2114,10
2115,10
2116,10
2117,10
2118,10
2119,10
2120,10
2121,10
2122,10
2123,10
2124,10
2125,10
2126,10
2127,10
2128,10
2129,10
2130,10
2131,10
2132,10
2133,10
2134,10
2135,10
2136,10
2137,10
2138,10
2139,10
2140,10
2141,10
2142,10
2143,10
2144,10
2145,10
2146,10
2147,10
2148,10
2149,10
2150,10
2151,10
2152,10
2153,10
2154,10
2155,10
2156,10
2157,10
2158,10
2159,10
2160,10
2161,10
2162,10
2163,10
2164,11
2165,11
2166,11
2167,11
2168,11
2169,11
2170,11
2171,11
2172,11
2173,11
2174,11
2175,11
2176,11
2177,11
2178,11
2179,11
2180,11
2181,11
2182,11
2183,11
2184,11
2185,11
2186,11
2187,11
2188,11
2189,11
2190,11
2191,11
2192,11
2193,11
2194,11
2195,11
2196,11
2197,11
2198,11
2199,11
2200,11
2201,11
2202,11
2203,11
2204,11
2205,11
2206,11
2207,11
2208,11
2209,11
2210,11
2211,11
2212,11
2213,11
2214,11
2215,11
2216,11
2217,11
2218,11
2219,11
2220,11
2221,11
2222,11
2223,11
2224,11
2225,11
2226,11
2227,11
2228,11
2229,11
2230,11
2231,11
2232,11
2233,11
2234,11
2235,11
2236,11
2237,11
2238,11
2239,11
2240,11
2241,11
2242,11
2243,11
2244,11
2245,11
2246,11
2247,11
2248,11
2249,11
2250,11
2251,11
2252,11
2253,11
2254,11
2255,11
2256,11
2257,11
2258,11
2259,11
2260,11
2261,11
2262,11
2263,11
2264,11
2265,11
2266,11
2267,11
2268,11
2269,11
2270,11
2271,11
2272,11
2273,11
2274,11
2275,11
2276,11
2277,11
2278,11
2279,11
2280,11
2281,12
2282,11
2283,11
2284,12
2285,12
2286,11
2287,11
2288,11
2289,11
2290,11
2291,11
2292,11
2293,11
2294,11
2295,11
2296,11
2297,11
2298,11
2299,11
2300,11
2301,11
2302,11
2303,11
2304,11
2305,11
2306,11
2307,11
2308,11
2309,11
2310,11
2311,11
2312,11
2313,11
2314,11
2315,11
2316,11
2317,11
2318,11
2319,11
2320,11
2321,11
2322,11
2323,11
2324,11
2325,11
2326,11
2327,11
2328,11
2329,11
2330,11
2331,11
2332,11
2333,11
2334,11
2335,11
2336,11
2337,11
2338,11
2339,11
2340,11
2341,11
2342,11
2343,11
2344,11
2345,11
2346,11
2347,11
2348,11
2349,11
2350,11
2351,11
2352,11
2353,11
2354,11
2355,11
2356,11
2357,11
2358,11
2359,11
2360,11
2361,11
2362,11
2363,11
2364,11
2365,11
2366,11
2367,11
2368,11
2369,11
2370,11
2371,11
2372,11
2373,11
2374,11
2375,11
2376,11
2377,11
2378,11
2379,11
2380,11
2381,11
2382,11
2383,11
2384,11
2385,11
2386,11
2387,11
2388,11
2389,11
2390,11
2391,11
2392,11
2393,11
2394,11
2395,11
2396,11
2397,11
2398,11
2399,11
2400,11
2401,11
2402,11
2403,11
2404,11
2405,11
2406,11
2407,11
2408,11
2409,11
2410,11
2411,11
2412,11
2413,11
2414,11
2415,11
2416,11
2417,11
2418,11
2419,11
2420,11
2421,11
2422,11
2423,11
2424,11
2425,11
2426,11
2427,11
2428,11
2429,11
2430,11
2431,11
2432,11
2433,11
2434,11
2435,11
2436,11
2437,11
2438,11
2439,11
2440,11
2441,11
2442,11
2443,11
2444,11
2445,11
2446,11
2447,11
2448,11
2449,11
2450,11
2451,11
2452,11
2453,11
2454,11
2455,11
2456,11
2457,11
2458,11
2459,11
2460,11
2461,11
2462,11
2463,11
2464,11
2465,11
2466,11
2467,11
2468,11
2469,11
2470,11
2471,11
2472,11
2473,11
2474,11
2475,11
2476,11
2477,11
2478,11
2479,11
2480,11
2481,11
2482,11
2483,11
2484,11
2485,11
2486,11
2487,11
2488,11
2489,11
2490,11
2491,11
2492,11
2493,11
2494,11
2495,11
2496,11
2497,11
2498,11
2499,11
2500,11
2501,11
2502,11
2503,11
2504,11
2505,11
2506,11
2507,11
2508,11
2509,11
2510,11
2511,11
2512,11
2513,11
2514,11
2515,11
2516,11
2517,11
2518,11
2519,11
2520,11
2521,11
2522,11
2523,11
2524,11
2525,11
2526,11
2527,11
2528,11
2529,11
2530,11
2531,11
2532,11
2533,11
2534,11
2535,11
2536,11
2537,11
2538,11
2539,11
2540,11
2541,11
2542,11
2543,11
2544,11
2545,11
2546,11
2547,11
2548,11
2549,11
2550,11
2551,11
2552,11
2553,11
2554,11
2555,11
2556,11
2557,11
2558,11
2559,11
2560,11
2561,11
2562,11
2563,11
2564,11
2565,11
2566,11
2567,11
2568,11
2569,11
2570,11
2571,11
2572,11
2573,11
2574,11
2575,11
2576,11
2577,11
2578,11
2579,11
2580,11
2581,11
2582,11
2583,11
2584,11
2585,11
2586,11
2587,11
2588,11
2589,11
2590,11
2591,11
2592,11
2593,11
2594,11
2595,11
2596,11
2597,11
2598,11
2599,11
2600,11
2601,11
2602,11
2603,11
2604,11
2605,11
2606,11
2607,11
2608,11
2609,11
2610,11
2611,11
2612,11
2613,11
2614,11
2615,11
2616,11
2617,11
2618,11
2619,11
2620,11
2621,11
2622,11
2623,11
2624,11
2625,11
2626,11
2627,11
2628,11
2629,11
2630,11
2631,11
2632,11
2633,11
2634,11
2635,11
2636,11
2637,11
2638,11
2639,11
2640,11
2641,11
2642,11
2643,11
2644,11
2645,11
2646,12
2647,12
2648,12
2649,12
2650,12
2651,12
2652,12
2653,12
2654,12
2655,12
2656,12
2657,12
2658,12
2659,11
2660,11
2661,11
2662,11
2663,11
2664,11
2665,11
2666,11
2667,11
2668,11
2669,11
2670,11
2671,11
2672,11
2673,11
2674,11
2675,11
2676,11
2677,11
2678,11
2679,11
2680,11
2681,11
2682,11
2683,11
2684,11
2685,11
2686,11
2687,11
2688,11
2689,11
2690,11
2691,11
2692,11
2693,11
2694,11
2695,11
2696,11
2697,11
2698,11
2699,11
2700,11
2701,11
2702,11
2703,11
2704,11
2705,11
2706,11
2707,11
2708,11
2709,11
2710,11
2711,11
2712,11
2713,11
2714,11
2715,11
2716,11
2717,11
2718,11
2719,11
2720,11
2721,11
2722,11
2723,11
2724,11
2725,11
2726,11
2727,11
2728,11
2729,11
2730,11
2731,11
2732,11
2733,11
2734,11
2735,11
2736,11
2737,11
2738,11
2739,11
2740,11
2741,11
2742,11
2743,11
2744,11
2745,11
2746,11
2747,11
2748,11
2749,11
2750,11
2751,11
2752,11
2753,11
2754,11
2755,11
2756,11
2757,11
2758,11
2759,11
2760,11
2761,11
2762,11
2763,11
2764,11
2765,11
2766,11
2767,11
2768,11
2769,11
2770,11
2771,11
2772,11
2773,11
2774,11
2775,11
2776,11
2777,11
2778,11
2779,11
2780,11
2781,11
2782,11
2783,11
2784,11
2785,11
2786,11
2787,11
2788,11
2789,11
2790,11
2791,11
2792,11
2793,12
2794,12
2795,12
2796,12
2797,12
2798,12
2799,12
2800,12
2801,12
2802,12
2803,12
2804,12
2805,12
2806,12
2807,12
2808,12
2809,12
2810,12
2811,12
2812,13
2813,12
2814,12
2815,12
2816,12
2817,12
2818,12
2819,12
2820,12
2821,12
2822,12
2823,12
2824,12
2825,12
2826,12
2827,12
2828,12
2829,12
2830,12
2831,12
2832,12
2833,12
2834,12
2835,12
2836,12
2837,12
2838,12
2839,12
2840,12
2841,12
2842,12
2843,12
2844,12
2845,12
2846,12
2847,12
2848,12
2849,12
2850,12
2851,12
2852,12
2853,12
2854,12
2855,12
2856,12
2857,12
2858,12
2859,12
2860,12
2861,12
2862,12
2863,12
2864,12
2865,12
2866,12
2867,12
2868,12
2869,12
2870,12
2871,12
2872,12
2873,12
2874,12
2875,12
2876,12
2877,12
2878,12
2879,12
2880,12
2881,12
2882,12
2883,12
2884,12
2885,12
2886,12
2887,12
2888,12
2889,12
2890,12
2891,13
2892,13
2893,12
2894,12
2895,12
2896,12
2897,12
2898,12
2899,12
2900,12
2901,12
2902,12
2903,12
2904,12
2905,12
2906,12
2907,12
2908,12
2909,12
2910,12
2911,12
2912,12
2913,12
2914,12
2915,12
2916,12
2917,12
2918,12
2919,12
2920,12
2921,13
2922,13
2923,13
2924,13
2925,13
2926,13
2927,13
2928,13
2929,13
2930,13
2931,13
2932,13
2933,13
2934,13
2935,13
2936,13
2937,13
2938,13
2939,13
2940,13
2941,13
2942,13
2943,13
2944,13
2945,13
2946,13
2947,13
2948,13
2949,13
2950,14
2951,14
2952,14
2953,14
2954,14
2955,14
2956,14
2957,14
2958,14
2959,14
2960,13
2961,13
2962,13
2963,13
2964,13
2965,13
2966,13
2967,13
2968,13
2969,13
2970,13
2971,13
2972,13
2973,13
2974,13
2975,13
2976,13
2977,13
2978,13
2979,13
2980,13
2981,13
2982,13
2983,13
2984,13
2985,13
2986,13
2987,13
2988,13
2989,13
2990,13
2991,13
2992,13
2993,13
2994,13
2995,13
2996,13
2997,13
2998,13
2999,13
3000,13
3001,13
3002,13
3003,14
3004,13
3005,13
3006,13
3007,13
3008,13
3009,13
3010,13
3011,13
3012,13
3013,13
3014,13
3015,13
3016,13
3017,13
3018,13
3019,13
3020,13
3021,13
3022,13
3023,13
3024,13
3025,13
3026,13
3027,13
3028,13
3029,13
3030,13
3031,13
3032,13
3033,13
3034,13
3035,13
3036,13
3037,13
3038,13
3039,13
3040,13
3041,13
3042,13
3043,13
3044,13
3045,13
3046,13
3047,13
3048,13
3049,13
3050,13
3051,13
3052,13
3053,13
3054,13
3055,13
3056,13
3057,13
3058,13
3059,13
3060,13
3061,13
3062,13
3063,13
3064,13
3065,13
3066,13
3067,13
3068,13
3069,13
3070,13
3071,13
3072,13
3073,13
3074,13
3075,13
3076,13
3077,13
3078,13
3079,13
3080,13
3081,13
3082,13
3083,13
3084,13
3085,13
3086,13
3087,13
3088,13
3089,13
3090,13
3091,13
3092,13
3093,13
3094,13
3095,13
3096,13
3097,13
3098,13
3099,13
3100,13
3101,13
3102,13
3103,13
3104,13
3105,13
3106,13
3107,13
3108,13
3109,13
3110,13
3111,13
3112,13
3113,13
3114,13
3115,13
3116,13
3117,13
3118,13
3119,13
3120,13
3121,13
3122,13
3123,13
3124,13
3125,13
3126,13
3127,13
3128,13
3129,13
3130,13
3131,13
3132,13
3133,13
3134,13
3135,13
3136,13
3137,13
3138,13
3139,13
3140,13
3141,13
3142,13
3143,13
3144,13
3145,13
3146,13
3147,13
3148,13
3149,13
3150,13
3151,13
3152,13
3153,13
3154,13
3155,13
3156,13
3157,13
3158,13
3159,13
3160,13
3161,13
3162,13
3163,13
3164,13
3165,13
3166,13
3167,13
3168,13
3169,13
3170,13
3171,13
3172,13
3173,13
3174,13
3175,13
3176,13
3177,13
3178,13
3179,13
3180,13
3181,13
3182,13
3183,13
3184,13
3185,13
3186,13
3187,13
3188,13
3189,13
3190,13
3191,13
3192,13
3193,13
3194,13
3195,13
3196,13
3197,13
3198,13
3199,13
3200,13
3201,13
3202,13
3203,13
3204,13
3205,13
3206,13
3207,13
3208,13
3209,13
3210,13
3211,13
3212,13
3213,13
3214,13
3215,13
3216,13
3217,13
3218,13
3219,13
3220,13
3221,13
3222,13
3223,13
3224,13
3225,13
3226,13
3227,13
3228,13
3229,13
3230,13
3231,13
3232,13
3233,13
3234,13
3235,13
3236,13
3237,13
3238,13
3239,13
3240,13
3241,13
3242,13
3243,13
3244,13
3245,13
3246,13
3247,13
3248,13
3249,13
3250,13
3251,13
3252,13
3253,13
3254,13
3255,13
3256,13
3257,13
3258,13
3259,13
3260,13
3261,13
3262,13
3263,13
3264,13
3265,13
3266,13
3267,13
3268,13
3269,13
3270,13
3271,13
3272,13
3273,13
3274,13
3275,13
3276,13
3277,13
3278,13
3279,13
3280,13
3281,14
3282,14
3283,13
3284,13
3285,13
3286,13
3287,13
3288,13
3289,13
3290,13
3291,13
3292,13
3293,13
3294,14
3295,13
3296,13
3297,14
3298,14
3299,15
3300,14
3301,14
3302,14
3303,14
3304,14
3305,14
3306,14
3307,14
3308,14
3309,14
3310,14
3311,14
3312,13
3313,13
3314,13
3315,13
3316,13
3317,13
3318,13
3319,13
3320,13
3321,13
3322,14
3323,14
3324,13
3325,13
3326,13
3327,13
3328,13
3329,13
3330,13
3331,13
3332,13
3333,13
3334,13
3335,13
3336,13
3337,13
3338,13
3339,13
3340,13
3341,13
3342,13
3343,13
3344,13
3345,13
3346,13
3347,13
3348,13
3349,13
3350,13
3351,13
3352,13
3353,13
3354,13
3355,13
3356,13
3357,13
3358,13
3359,13
3360,13
3361,13
3362,13
3363,14
3364,14
3365,14
3366,14
3367,14
3368,13
3369,13
3370,13
3371,13
3372,13
3373,14
3374,14
3375,14
3376,13
3377,13
3378,13
3379,13
3380,13
3381,13
3382,13
3383,13
3384,13
3385,13
3386,13
3387,14
3388,15
3389,14
3390,13
3391,13
3392,13
3393,13
3394,13
3395,13
3396,13
3397,13
3398,13
3399,13
3400,13
3401,13
3402,13
3403,13
3404,13
3405,13
3406,13
3407,13
3408,13
3409,13
3410,13
3411,13
3412,13
3413,13
3414,13
3415,13
3416,13
3417,13
3418,13
3419,13
3420,13
3421,13
3422,13
3423,13
3424,13
3425,13
3426,13
3427,13
3428,13
3429,13
3430,13
3431,13
3432,13
3433,13
3434,13
3435,13
3436,13
3437,13
3438,13
3439,13
3440,13
3441,13
3442,13
3443,13
3444,13
3445,13
3446,13
3447,13
3448,13
3449,13
3450,13
3451,13
3452,13
3453,13
3454,13
3455,13
3456,13
3457,13
3458,13
3459,13
3460,13
3461,13
3462,13
3463,13
3464,13
3465,13
3466,13
3467,13
3468,13
3469,13
3470,13
3471,13
3472,13
3473,13
3474,13
3475,13
3476,13
3477,13
3478,13
3479,13
3480,13
3481,13
3482,13
3483,13
3484,13
3485,13
3486,13
3487,13
3488,13
3489,13
3490,13
3491,13
3492,13
3493,13
3494,13
3495,13
3496,13
3497,13
3498,13
3499,13
3500,13
3501,13
3502,13
3503,13
3504,13
3505,13
3506,13
3507,13
3508,13
3509,13
3510,13
3511,13
3512,13
3513,13
3514,13
3515,13
3516,13
3517,13
3518,13
3519,13
3520,13
3521,13
3522,13
3523,13
3524,13
3525,13
3526,13
3527,13
3528,13
3529,13
3530,13
3531,13
3532,13
3533,13
3534,13
3535,13
3536,13
3537,13
3538,13
3539,13
3540,13
3541,13
3542,13
3543,13
3544,13
3545,14
3546,14
3547,13
3548,13
3549,13
3550,13
3551,13
3552,13
3553,13
3554,13
3555,13
3556,13
3557,13
3558,13
3559,13
3560,13
3561,13
3562,13
3563,13
3564,13
3565,13
3566,13
3567,13
3568,13
3569,13
3570,13
3571,13
3572,13
3573,13
3574,13
3575,13
3576,13
3577,13
3578,13
3579,13
3580,13
3581,13
3582,13
3583,13
3584,13
3585,13
3586,13
3587,13
3588,13
3589,13
3590,13
3591,13
3592,13
3593,13
3594,13
3595,13
3596,13
3597,13
3598,13
3599,13
3600,13
3601,13
3602,13
3603,13
3604,13
3605,13
3606,13
3607,13
3608,13
3609,13
3610,13
3611,14
3612,14
3613,14
3614,14
3615,14
3616,14
3617,14
3618,14
3619,14
3620,14
3621,14
3622,14
3623,14
3624,14
3625,14
3626,14
3627,14
3628,14
3629,14
3630,14
3631,14
3632,14
3633,14
3634,14
3635,14
3636,14
3637,14
3638,14
3639,14
3640,14
3641,14
3642,14
3643,14
3644,15
3645,14
3646,14
3647,14
3648,14
3649,14
3650,14
3651,14
3652,14
3653,14
3654,14
3655,14
3656,14
3657,14
3658,14
3659,14
3660,14
3661,14
3662,14
3663,14
3664,14
3665,14
3666,14
3667,14
3668,14
3669,14
3670,14
3671,14
3672,14
3673,14
3674,14
3675,14
3676,14
3677,14
3678,14
3679,14
3680,14
3681,14
3682,14
3683,14
3684,14
3685,14
3686,14
3687,14
3688,14
3689,14
3690,14
3691,14
3692,14
3693,14
3694,14
3695,14
3696,14
3697,14
3698,14
3699,14
3700,14
3701,14
3702,14
3703,14
3704,14
3705,14
3706,14
3707,14
3708,14
3709,14
3710,14
3711,14
3712,14
3713,14
3714,14
3715,14
3716,14
3717,14
3718,14
3719,14
3720,14
3721,14
3722,14
3723,14
3724,14
3725,14
3726,14
3727,14
3728,14
3729,14
3730,14
3731,14
3732,14
3733,14
3734,14
3735,14
3736,14
3737,14
3738,14
3739,14
3740,14
3741,14
3742,14
3743,14
3744,14
3745,14
3746,14
3747,14
3748,14
3749,14
3750,14
3751,14
3752,14
3753,14
3754,14
3755,14
3756,14
3757,14
3758,14
3759,14
3760,14
3761,14
3762,14
3763,14
3764,14
3765,14
3766,14
3767,14
3768,14
3769,14
3770,14
3771,14
3772,14
3773,14
3774,14
3775,14
3776,14
3777,14
3778,14
3779,14
3780,14
3781,14
3782,14
3783,14
3784,16
3785,15
3786,15
3787,14
3788,14
3789,14
3790,14
3791,14
3792,14
3793,14
3794,14
3795,14
3796,14
3797,14
3798,14
3799,14
3800,14
3801,14
3802,14
3803,14
3804,14
3805,14
3806,14
3807,14
3808,14
3809,14
3810,14
3811,14
3812,14
3813,14
3814,14
3815,14
3816,14
3817,14
3818,14
3819,14
3820,14
3821,14
3822,14
3823,14
3824,14
3825,14
3826,14
3827,14
3828,14
3829,14
3830,14
3831,14
3832,14
3833,14
3834,14
3835,14
3836,14
3837,14
3838,14
3839,14
3840,14
3841,14
3842,14
3843,14
3844,14
3845,14
3846,14
3847,15
3848,14
3849,14
3850,14
3851,15
3852,14
3853,14
3854,14
3855,14
3856,14
3857,14
3858,14
3859,14
3860,14
3861,14
3862,14
3863,14
3864,14
3865,14
3866,14
3867,14
3868,14
3869,14
3870,14
3871,14
3872,14
3873,14
3874,14
3875,14
3876,14
3877,14
3878,14
3879,14
3880,14
3881,14
3882,14
3883,14
3884,14
3885,14
3886,14
3887,14
3888,14
3889,14
3890,14
3891,15
3892,14
3893,14
3894,14
3895,14
3896,14
3897,14
3898,14
3899,14
3900,14
3901,14
3902,14
3903,14
3904,14
3905,14
3906,14
3907,14
3908,14
3909,14
3910,14
3911,14
3912,14
3913,14
3914,14
3915,14
3916,14
3917,14
3918,14
3919,14
3920,14
3921,14
3922,14
3923,14
3924,14
3925,14
3926,14
3927,14
3928,14
3929,14
3930,14
3931,14
3932,14
3933,14
3934,14
3935,14
3936,14
3937,14
3938,14
3939,14
3940,14
3941,14
3942,14
3943,15
3944,15
3945,14
3946,14
3947,14
3948,14
3949,14
3950,14
3951,14
3952,14
3953,14
3954,14
3955,14
3956,14
3957,14
3958,14
3959,14
3960,14
3961,14
3962,14
3963,14
3964,15
3965,14
3966,14
3967,14
3968,14
3969,14
3970,14
3971,14
3972,14
3973,14
3974,14
3975,14
3976,14
3977,14
3978,14
3979,14
3980,14
3981,14
3982,14
3983,14
3984,14
3985,14
3986,14
3987,14
3988,14
3989,15
3990,15
3991,15
3992,15
3993,14
3994,14
3995,14
3996,14
3997,14
3998,14
3999,14
4000,14
4001,14
4002,14
4003,14
4004,14
4005,14
4006,14
4007,14
4008,14
4009,14
4010,14
4011,14
4012,14
4013,14
4014,14
4015,14
4016,14
4017,14
4018,14
4019,14
4020,14
4021,14
4022,14
4023,14
4024,14
4025,14
4026,14
4027,14
4028,14
4029,14
4030,14
4031,14
4032,14
4033,14
4034,14
4035,14
4036,14
4037,14
4038,14
4039,14
4040,14
4041,14
4042,14
4043,14
4044,14
4045,14
4046,14
4047,14
4048,14
4049,14
4050,14
4051,14
4052,14
4053,14
4054,14
4055,14
4056,14
4057,14
4058,14
4059,14
4060,14
4061,14
4062,14
4063,14
4064,14
4065,14
4066,14
4067,14
4068,14
4069,15
4070,15
4071,15
4072,15
4073,14
4074,14
4075,14
4076,14
4077,14
4078,14
4079,14
4080,14
4081,14
4082,14
4083,14
4084,14
4085,14
4086,14
4087,14
4088,14
4089,14
4090,14
4091,14
4092,14
4093,14
4094,14
4095,14
4096,14
4097,14
4098,14
4099,14
4100,14
4101,14
4102,14
4103,14
4104,14
4105,14
4106,14
4107,14
4108,14
4109,14
4110,14
4111,14
4112,14
4113,14
4114,14
4115,14
4116,14
4117,14
4118,14
4119,14
4120,14
4121,14
4122,14
4123,14
4124,14
4125,14
4126,14
4127,14
4128,14
4129,14
4130,14
4131,14
4132,14
4133,14
4134,14
4135,14
4136,14
4137,14
4138,14
4139,14
4140,14
4141,14
4142,14
4143,14
4144,14
4145,14
4146,14
4147,14
4148,14
4149,14
4150,14
4151,14
4152,14
4153,14
4154,14
4155,14
4156,14
4157,14
4158,14
4159,14
4160,14
4161,14
4162,14
4163,14
4164,14
4165,14
4166,14
4167,14
4168,14
4169,14
4170,14
4171,14
4172,14
4173,14
4174,14
4175,14
4176,14
4177,14
4178,14
4179,14
4180,14
4181,14
4182,14
4183,14
4184,14
4185,14
4186,14
4187,14
4188,14
4189,14
4190,14
4191,14
4192,14
4193,14
4194,14
4195,14
4196,14
4197,14
4198,14
4199,14
4200,14
4201,14
4202,14
4203,14
4204,14
4205,14
4206,14
4207,14
4208,14
4209,14
4210,14
4211,14
4212,14
4213,14
4214,14
4215,14
4216,14
4217,14
4218,14
4219,14
4220,14
4221,14
4222,14
4223,14
4224,14
4225,15
4226,16
4227,15
4228,15
4229,14
4230,14
4231,14
4232,14
4233,14
4234,14
4235,14
4236,14
4237,14
4238,14
4239,14
4240,14
4241,14
4242,15
4243,14
4244,14
4245,14
4246,14
4247,14
4248,14
4249,14
4250,14
4251,14
4252,14
4253,14
4254,14
4255,14
4256,14
4257,14
4258,14
4259,14
4260,14
4261,14
4262,14
4263,14
4264,14
4265,14
4266,14
4267,14
4268,14
4269,14
4270,14
4271,14
4272,14
4273,14
4274,14
4275,14
4276,14
4277,14
4278,14
4279,14
4280,14
4281,14
4282,14
4283,14
4284,14
4285,14
4286,14
4287,14
4288,14
4289,14
4290,14
4291,14
4292,14
4293,14
4294,14
4295,14
4296,14
4297,14
4298,14
4299,14
4300,14
4301,14
4302,14
4303,14
4304,14
4305,14
4306,14
4307,14
4308,14
4309,14
4310,14
4311,14
4312,14
4313,14
4314,14
4315,14
4316,14
4317,14
4318,14
4319,14
4320,14
4321,14
4322,14
4323,14
4324,14
4325,14
4326,14
4327,14
4328,15
4329,14
4330,14
4331,14
4332,14
4333,14
4334,14
4335,14
4336,14
4337,14
4338,14
4339,14
4340,14
4341,14
4342,14
4343,14
4344,14
4345,14
4346,14
4347,14
4348,14
4349,14
4350,14
4351,14
4352,14
4353,14
4354,14
4355,14
4356,14
4357,14
4358,14
4359,14
4360,14
4361,14
4362,14
4363,14
4364,14
4365,14
4366,14
4367,14
4368,14
4369,14
4370,14
4371,14
4372,14
4373,14
4374,14
4375,14
4376,14
4377,14
4378,14
4379,14
4380,14
4381,14
4382,14
4383,14
4384,14
4385,14
4386,14
4387,14
4388,14
4389,14
4390,14
4391,14
4392,14
4393,14
4394,15
4395,14
4396,14
4397,14
4398,14
4399,14
4400,14
4401,14
4402,14
4403,14
4404,14
4405,14
4406,14
4407,14
4408,14
4409,14
4410,14
4411,14
4412,14
4413,14
4414,14
4415,14
4416,14
4417,14
4418,14
4419,14
4420,14
4421,14
4422,14
4423,14
4424,14
4425,14
4426,14
4427,14
4428,14
4429,14
4430,14
4431,14
4432,14
4433,14
4434,14
4435,14
4436,14
4437,14
4438,14
4439,14
4440,14
4441,14
4442,14
4443,14
4444,14
4445,14
4446,14
4447,14
4448,14
4449,14
4450,14
4451,14
4452,14
4453,14
4454,14
4455,14
4456,14
4457,14
4458,14
4459,14
4460,14
4461,14
4462,14
4463,14
4464,14
4465,14
4466,14
4467,14
4468,14
4469,14
4470,14
4471,14
4472,14
4473,14
4474,14
4475,14
4476,14
4477,14
4478,14
4479,14
4480,14
4481,14
4482,14
4483,14
4484,14
4485,14
4486,14
4487,14
4488,14
4489,14
4490,14
4491,14
4492,14
4493,14
4494,14
4495,14
4496,14
4497,14
4498,14
4499,14
4500,14
4501,14
4502,14
4503,14
4504,14
4505,15
4506,15
4507,15
4508,14
4509,14
4510,14
4511,14
4512,14
4513,14
4514,14
4515,14
4516,14
4517,14
4518,14
4519,14
4520,14
4521,14
4522,14
4523,14
4524,14
4525,14
4526,14
4527,14
4528,14
4529,14
4530,14
4531,14
4532,14
4533,14
4534,14
4535,14
4536,14
4537,14
4538,14
4539,14
4540,14
4541,14
4542,14
4543,14
4544,14
4545,14
4546,14
4547,14
4548,14
4549,14
4550,14
4551,14
4552,14
4553,14
4554,14
4555,14
4556,14
4557,14
4558,14
4559,14
4560,14
4561,14
4562,14
4563,14
4564,14
4565,15
4566,15
4567,14
4568,14
4569,14
4570,14
4571,14
4572,14
4573,14
4574,14
4575,14
4576,14
4577,14
4578,14
4579,14
4580,14
4581,14
4582,14
4583,14
4584,14
4585,14
4586,14
4587,14
4588,14
4589,14
4590,14
4591,14
4592,14
4593,14
4594,14
4595,14
4596,14
4597,14
4598,14
4599,14
4600,14
4601,14
4602,14
4603,14
4604,14
4605,14
4606,14
4607,14
4608,14
4609,14
4610,14
4611,14
4612,14
4613,14
4614,14
4615,14
4616,14
4617,14
4618,14
4619,14
4620,15
4621,15
4622,15
4623,15
4624,14
4625,14
4626,14
4627,14
4628,14
4629,14
4630,14
4631,14
4632,14
4633,14
4634,14
4635,14
4636,14
4637,14
4638,14
4639,14
4640,14
4641,14
4642,15
4643,15
4644,15
4645,15
4646,15
4647,15
4648,15
4649,15
4650,15
4651,15
4652,15
4653,15
4654,15
4655,15
4656,15
4657,15
4658,15
4659,15
4660,15
4661,15
4662,15
4663,15
4664,15
4665,15
4666,15
4667,15
4668,15
4669,15
4670,15
4671,15
4672,15
4673,15
4674,15
4675,15
4676,15
4677,15
4678,15
4679,15
4680,15
4681,15
4682,15
4683,15
4684,15
4685,15
4686,15
4687,15
4688,15
4689,15
4690,15
4691,15
4692,15
4693,15
4694,15
4695,15
4696,15
4697,15
4698,15
4699,15
4700,15
4701,15
4702,15
4703,15
4704,15
4705,15
4706,15
4707,15
4708,15
4709,15
4710,15
4711,15
4712,15
4713,15
4714,15
4715,15
4716,15
4717,15
4718,15
4719,15
4720,15
4721,15
4722,15
4723,15
4724,15
4725,15
4726,15
4727,15
4728,15
4729,15
4730,15
4731,15
4732,15
4733,15
4734,15
4735,15
4736,15
4737,15
4738,15
4739,15
4740,15
4741,15
4742,15
4743,15
4744,15
4745,15
4746,15
4747,15
4748,15
4749,15
4750,15
4751,15
4752,15
4753,15
4754,15
4755,15
4756,15
4757,15
4758,15
4759,15
4760,15
4761,15
4762,15
4763,15
4764,15
4765,15
4766,15
4767,15
4768,15
4769,15
4770,15
4771,15
4772,15
4773,15
4774,15
4775,15
4776,15
4777,15
4778,15
4779,15
4780,15
4781,15
4782,15
4783,15
4784,15
4785,15
4786,15
4787,15
4788,15
4789,15
4790,15
4791,15
4792,15
4793,15
4794,15
4795,15
4796,15
4797,15
4798,15
4799,15
4800,15
4801,15
4802,15
4803,15
4804,15
4805,15
4806,15
4807,15
4808,15
4809,15
4810,15
4811,15
4812,15
4813,15
4814,15
4815,15
4816,15
4817,15
4818,15
4819,15
4820,15
4821,15
4822,15
4823,15
4824,15
4825,15
4826,15
4827,15
4828,15
4829,15
4830,15
4831,15
4832,16
4833,15
4834,15
4835,15
4836,15
4837,15
4838,15
4839,15
4840,15
4841,15
4842,15
4843,15
4844,15
4845,15
4846,15
4847,15
4848,15
4849,15
4850,15
4851,15
4852,15
4853,15
4854,15
4855,15
4856,15
4857,15
4858,16
4859,15
4860,15
4861,15
4862,15
4863,15
4864,15
4865,15
4866,15
4867,15
4868,16
4869,15
4870,15
4871,15
4872,15
4873,15
4874,15
4875,15
4876,15
4877,15
4878,15
4879,15
4880,15
4881,15
4882,15
4883,15
4884,15
4885,15
4886,15
4887,15
4888,15
4889,15
4890,15
4891,15
4892,15
4893,15
4894,16
4895,15
4896,16
4897,16
4898,16
4899,16
4900,16
4901,16
4902,16
4903,16
4904,16
4905,16
4906,16
4907,16
4908,16
4909,16
4910,15
4911,16
4912,16
4913,16
4914,16
4915,16
4916,16
4917,16
4918,16
4919,16
4920,16
4921,16
4922,16
4923,16
4924,16
4925,16
4926,16
4927,16
4928,16
4929,16
4930,16
4931,16
4932,16
4933,16
4934,16
4935,16
4936,16
4937,16
4938,16
4939,16
4940,16
4941,16
4942,16
4943,16
4944,16
4945,16
4946,16
4947,16
4948,16
4949,16
4950,16
4951,16
4952,16
4953,16
4954,16
4955,16
4956,16
4957,16
4958,16
4959,16
4960,16
4961,16
4962,16
4963,16
4964,16
4965,16
4966,16
4967,16
4968,16
4969,16
4970,17
4971,16
4972,16
4973,16
4974,16
4975,16
4976,16
4977,16
4978,16
4979,16
4980,16
4981,16
4982,16
4983,16
4984,16
4985,16
4986,16
4987,16
4988,16
4989,16
4990,16
4991,16
4992,16
4993,16
4994,16
4995,16
4996,16
4997,16
4998,17
4999,16
5000,16
5001,16
5002,16
5003,16
5004,16
5005,16
5006,16
5007,16
5008,16
5009,16
5010,16
5011,16
5012,16
5013,16
5014,16
5015,16
5016,16
5017,16
5018,16
5019,16
5020,16
5021,16
5022,16
5023,16
5024,16
5025,16
5026,16
5027,16
5028,16
5029,16
5030,16
5031,16
5032,16
5033,16
5034,16
5035,16
5036,16
5037,16
5038,16
5039,16
5040,16
5041,16
5042,16
5043,16
5044,16
5045,16
5046,16
5047,16
5048,16
5049,16
5050,16
5051,16
5052,16
5053,16
5054,16
5055,16
5056,16
5057,16
5058,16
5059,16
5060,16
5061,16
5062,16
5063,16
5064,16
5065,16
5066,16
5067,16
5068,16
5069,16
5070,16
5071,16
5072,16
5073,16
5074,16
5075,16
5076,16
5077,16
5078,16
5079,16
5080,16
5081,16
5082,16
5083,16
5084,16
5085,16
5086,16
5087,16
5088,16
5089,16
5090,16
5091,16
5092,16
5093,16
5094,16
5095,16
5096,16
5097,16
5098,16
5099,16
5100,16
5101,16
5102,16
5103,16
5104,16
5105,16
5106,16
5107,16
5108,16
5109,16
5110,16
5111,16
5112,16
5113,16
5114,16
5115,16
5116,16
5117,16
5118,16
5119,16
5120,16
5121,16
5122,16
5123,16
5124,16
5125,16
5126,16
5127,16
5128,16
5129,16
5130,16
5131,16
5132,16
5133,16
5134,16
5135,16
5136,16
5137,16
5138,16
5139,16
5140,16
5141,16
5142,16
5143,16
5144,16
5145,16
5146,16
5147,16
5148,16
5149,16
5150,16
5151,16
5152,16
5153,16
5154,16
5155,16
5156,16
5157,16
5158,16
5159,16
5160,16
5161,16
5162,16
5163,16
5164,16
5165,16
5166,16
5167,16
5168,16
5169,16
5170,16
5171,16
5172,16
5173,16
5174,16
5175,16
5176,16
5177,16
5178,16
5179,16
5180,16
5181,16
5182,16
5183,16
5184,16
5185,16
5186,16
5187,16
5188,16
5189,16
5190,16
5191,16
5192,16
5193,16
5194,16
5195,16
5196,16
5197,16
5198,16
5199,16
5200,16
5201,16
5202,16
5203,16
5204,16
5205,16
5206,17
5207,16
5208,16
5209,16
5210,16
5211,16
5212,16
5213,16
5214,16
5215,16
5216,16
5217,16
5218,16
5219,16
5220,16
5221,16
5222,16
5223,16
5224,16
5225,16
5226,16
5227,16
5228,16
5229,16
5230,16
5231,16
5232,16
5233,16
5234,16
5235,16
5236,16
5237,16
5238,16
5239,16
5240,16
5241,16
5242,16
5243,16
5244,16
5245,16
5246,16
5247,16
5248,16
5249,16
5250,16
5251,16
5252,16
5253,16
5254,16
5255,16
5256,16
5257,16
5258,16
5259,16
5260,16
5261,16
5262,16
5263,16
5264,17
5265,17
5266,16
5267,16
5268,16
5269,16
5270,16
5271,16
5272,16
5273,16
5274,16
5275,16
5276,16
5277,16
5278,16
5279,16
5280,16
5281,16
5282,16
5283,16
5284,16
5285,16
5286,16
5287,16
5288,16
5289,16
5290,16
5291,16
5292,16
5293,16
5294,16
5295,16
5296,16
5297,16
5298,16
5299,16
5300,16
5301,16
5302,16
5303,16
5304,16
5305,16
5306,16
5307,16
5308,16
5309,16
5310,16
5311,16
5312,16
5313,16
5314,16
5315,16
5316,16
5317,16
5318,16
5319,16
5320,16
5321,16
5322,16
5323,16
5324,16
5325,17
5326,16
5327,16
5328,16
5329,16
5330,16
5331,16
5332,16
5333,16
5334,16
5335,16
5336,16
5337,16
5338,16
5339,16
5340,16
5341,16
5342,16
5343,16
5344,16
5345,16
5346,16
5347,16
5348,16
5349,16
5350,16
5351,16
5352,16
5353,16
5354,16
5355,16
5356,16
5357,16
5358,16
5359,16
5360,16
5361,16
5362,16
5363,16
5364,16
5365,16
5366,16
5367,16
5368,16
5369,16
5370,16
5371,16
5372,16
5373,16
5374,17
5375,17
5376,17
5377,17
5378,18
5379,17
5380,17
5381,16
5382,16
5383,16
5384,16
5385,16
5386,16
5387,16
5388,16
5389,16
5390,17
5391,17
5392,17
5393,17
5394,17
5395,17
5396,17
5397,17
5398,17
5399,17
5400,17
5401,17
5402,17
5403,17
5404,17
5405,17
5406,17
5407,17
5408,17
5409,17
5410,17
5411,17
5412,17
5413,17
5414,17
5415,17
5416,17
5417,17
5418,17
5419,17
5420,17
5421,17
5422,17
5423,17
5424,17
5425,17
5426,17
5427,17
5428,17
5429,17
5430,17
5431,17
5432,17
5433,17
5434,17
5435,17
5436,17
5437,17
5438,17
5439,17
5440,17
5441,17
5442,17
5443,17
5444,17
5445,17
5446,17
5447,17
5448,17
5449,17
5450,17
5451,17
5452,17
5453,17
5454,17
5455,17
5456,17
5457,18
5458,17
5459,17
5460,17
5461,17
5462,17
5463,17
5464,17
5465,17
5466,17
5467,17
5468,17
5469,17
5470,17
5471,17
5472,17
5473,17
5474,17
5475,17
5476,17
5477,17
5478,17
5479,17
5480,17
5481,17
5482,17
5483,17
5484,17
5485,17
5486,17
5487,17
5488,17
5489,17
5490,17
5491,17
5492,17
5493,17
5494,17
5495,18
5496,18
5497,17
5498,17
5499,17
5500,17
5501,17
5502,17
5503,17
5504,17
5505,17
5506,17
5507,17
5508,17
5509,18
5510,18
5511,18
5512,17
5513,17
5514,17
5515,17
5516,17
5517,17
5518,17
5519,17
5520,17
5521,17
5522,17
5523,17
5524,17
5525,17
5526,17
5527,17
5528,17
5529,18
5530,18
5531,18
5532,17
5533,17
5534,17
5535,17
5536,17
5537,17
5538,17
5539,17
5540,17
5541,17
5542,17
5543,17
5544,17
5545,17
5546,17
5547,17
5548,17
5549,17
5550,17
5551,17
5552,17
5553,17
5554,17
5555,17
5556,17
5557,17
5558,17
5559,17
5560,17
5561,17
5562,17
5563,17
5564,17
5565,17
5566,17
5567,17
5568,17
5569,17
5570,17
5571,17
5572,17
5573,17
5574,17
5575,17
5576,17
5577,17
5578,17
5579,17
5580,17
5581,17
5582,17
5583,17
5584,17
5585,17
5586,17
5587,17
5588,17
5589,17
5590,17
5591,17
5592,17
5593,17
5594,17
5595,17
5596,17
5597,17
5598,17
5599,17
5600,17
5601,17
5602,17
5603,17
5604,17
5605,17
5606,17
5607,17
5608,17
5609,17
5610,17
5611,17
5612,17
5613,17
5614,17
5615,17
5616,17
5617,17
5618,17
5619,17
5620,17
5621,17
5622,17
5623,17
5624,17
5625,17
5626,17
5627,17
5628,17
5629,17
5630,17
5631,17
5632,17
5633,17
5634,17
5635,17
5636,17
5637,17
5638,17
5639,17
5640,17
5641,17
5642,17
5643,17
5644,17
5645,17
5646,17
5647,17
5648,17
5649,17
5650,17
5651,17
5652,17
5653,17
5654,17
5655,17
5656,17
5657,17
5658,17
5659,17
5660,17
5661,17
5662,17
5663,17
5664,17
5665,17
5666,17
5667,17
5668,17
5669,17
5670,17
5671,17
5672,17
5673,17
5674,17
5675,17
5676,17
5677,17
5678,17
5679,17
5680,17
5681,17
5682,17
5683,17
5684,17
5685,17
5686,17
5687,17
5688,17
5689,17
5690,17
5691,17
5692,17
5693,17
5694,17
5695,17
5696,17
5697,17
5698,17
5699,18
5700,17
5701,17
5702,17
5703,17
5704,17
5705,17
5706,17
5707,17
5708,17
5709,17
5710,17
5711,17
5712,17
5713,17
5714,17
5715,17
5716,17
5717,17
5718,17
5719,17
5720,17
5721,17
5722,17
5723,17
5724,17
5725,17
5726,17
5727,17
5728,17
5729,17
5730,17
5731,17
5732,17
5733,17
5734,17
5735,17
5736,17
5737,17
5738,17
5739,17
5740,17
5741,17
5742,17
5743,17
5744,17
5745,17
5746,17
5747,17
5748,17
5749,17
5750,17
5751,17
5752,17
5753,17
5754,18
5755,18
5756,18
5757,18
5758,19
5759,18
5760,18
5761,18
5762,18
5763,18
5764,18
5765,18
5766,18
5767,18
5768,18
5769,18
5770,18
5771,18
5772,18
5773,18
5774,18
5775,18
5776,18
5777,18
5778,18
5779,18
5780,18
5781,18
5782,18
5783,18
5784,18
5785,18
5786,18
5787,18
5788,18
5789,18
5790,18
5791,18
5792,18
5793,18
5794,18
5795,18
5796,18
5797,18
5798,18
5799,18
5800,18
5801,18
5802,18
5803,18
5804,18
5805,18
5806,18
5807,18
5808,18
5809,18
5810,18
5811,18
5812,18
5813,18
5814,18
5815,18
5816,18
5817,18
5818,18
5819,18
5820,18
5821,18
5822,18
5823,18
5824,18
5825,18
5826,18
5827,18
5828,18
5829,18
5830,18
5831,18
5832,18
5833,18
5834,18
5835,18
5836,18
5837,18
5838,18
5839,18
5840,18
5841,18
5842,18
5843,18
5844,18
5845,18
5846,18
5847,18
5848,18
5849,18
5850,18
5851,18
5852,18
5853,18
5854,18
5855,18
5856,18
5857,18
5858,18
5859,18
5860,18
5861,18
5862,18
5863,18
5864,18
5865,18
5866,18
5867,18
5868,18
5869,18
5870,18
5871,18
5872,18
5873,18
5874,18
5875,18
5876,18
5877,18
5878,18
5879,18
5880,18
5881,18
5882,19
5883,19
5884,19
5885,19
5886,19
5887,19
5888,18
5889,18
5890,18
5891,18
5892,18
5893,18
5894,18
5895,18
5896,18
5897,18
5898,18
5899,18
5900,18
5901,18
5902,18
5903,18
5904,18
5905,18
5906,18
5907,18
5908,18
5909,18
5910,18
5911,18
5912,18
5913,18
5914,18
5915,18
5916,18
5917,18
5918,18
5919,18
5920,18
5921,18
5922,18
5923,18
5924,18
5925,18
5926,18
5927,18
5928,18
5929,18
5930,18
5931,18
5932,18
5933,18
5934,18
5935,18
5936,18
5937,18
5938,18
5939,18
5940,18
5941,18
5942,18
5943,18
5944,18
5945,18
5946,18
5947,18
5948,18
5949,18
5950,18
5951,18
5952,18
5953,18
5954,18
5955,18
5956,18
5957,18
5958,18
5959,18
5960,18
5961,18
5962,18
5963,18
5964,18
5965,18
5966,18
5967,18
5968,18
5969,18
5970,18
5971,18
5972,18
5973,18
5974,18
5975,18
5976,19
5977,19
5978,19
5979,19
5980,19
5981,19
5982,19
5983,19
5984,19
5985,19
5986,19
5987,19
5988,19
5989,19
5990,19
5991,19
5992,19
5993,19
5994,19
5995,19
5996,19
5997,19
5998,19
5999,19
6000,19
6001,19
6002,19
6003,18
6004,18
6005,18
6006,18
6007,18
6008,18
6009,18
6010,18
6011,18
6012,18
6013,18
6014,18
6015,18
6016,18
6017,18
6018,18
6019,18
6020,18
6021,18
6022,18
6023,18
6024,18
6025,18
6026,18
6027,18
6028,18
6029,18
6030,18
6031,18
6032,18
6033,18
6034,18
6035,18
6036,18
6037,18
6038,18
6039,18
6040,18
6041,19
6042,19
6043,19
6044,19
6045,19
6046,19
6047,19
6048,19
6049,19
6050,19
6051,19
6052,19
6053,19
6054,19
6055,19
6056,19
6057,19
6058,19
6059,19
6060,19
6061,19
6062,19
6063,18
6064,18
6065,18
6066,18
6067,18
6068,18
6069,18
6070,18
6071,18
6072,18
6073,18
6074,18
6075,18
6076,18
6077,18
6078,18
6079,18
6080,18
6081,18
6082,18
6083,18
6084,18
6085,18
6086,18
6087,18
6088,18
6089,18
6090,18
6091,18
6092,18
6093,19
6094,19
6095,18
6096,18
6097,18
6098,18
6099,18
6100,18
6101,18
6102,18
6103,18
6104,18
6105,18
6106,18
6107,18
6108,18
6109,18
6110,18
6111,18
6112,18
6113,18
6114,18
6115,18
6116,18
6117,18
6118,18
6119,18
6120,18
6121,18
6122,18
6123,18
6124,18
6125,18
6126,18
6127,18
6128,18
6129,18
6130,18
6131,18
6132,18
6133,18
6134,18
6135,18
6136,18
6137,18
6138,18
6139,18
6140,18
6141,18
6142,18
6143,18
6144,18
6145,18
6146,18
6147,18
6148,18
6149,18
6150,18
6151,18
6152,18
6153,18
6154,18
6155,18
6156,18
6157,18
6158,18
6159,18
6160,18
6161,18
6162,18
6163,18
6164,18
6165,18
6166,18
6167,18
6168,18
6169,18
6170,18
6171,18
6172,18
6173,18
6174,18
6175,18
6176,18
6177,18
6178,18
6179,18
6180,18
6181,18
6182,18
6183,18
6184,18
6185,18
6186,18
6187,18
6188,18
6189,18
6190,18
6191,18
6192,18
6193,18
6194,18
6195,18
6196,18
6197,18
6198,18
6199,18
6200,18
6201,18
6202,18
6203,18
6204,18
6205,18
6206,18
6207,18
6208,18
6209,18
6210,18
6211,18
6212,18
6213,18
6214,18
6215,18
6216,19
6217,18
6218,18
6219,18
6220,18
6221,18
6222,18
6223,18
6224,18
6225,18
6226,18
6227,18
6228,18
6229,18
6230,18
6231,18
6232,18
6233,18
6234,18
6235,18
6236,18
6237,18
6238,18
6239,18
6240,18
6241,18
6242,18
6243,18
6244,18
6245,18
6246,18
6247,18
6248,18
6249,18
6250,18
6251,18
6252,18
6253,18
6254,18
6255,18
6256,18
6257,18
6258,18
6259,18
6260,18
6261,18
6262,19
6263,19
6264,19
6265,18
6266,18
6267,18
6268,18
6269,18
6270,18
6271,18
6272,18
6273,18
6274,18
6275,18
6276,18
6277,18
6278,18
6279,18
6280,18
6281,18
6282,18
6283,18
6284,19
6285,19
6286,19
6287,19
6288,19
6289,19
6290,19
6291,19
6292,19
6293,19
6294,19
6295,19
6296,19
6297,19
6298,19
6299,20
6300,19
6301,19
6302,19
6303,19
6304,19
6305,19
6306,19
6307,19
6308,19
6309,19
6310,19
6311,19
6312,19
6313,19
6314,19
6315,19
6316,19
6317,20
6318,20
6319,20
6320,20
6321,20
6322,20
6323,20
6324,20
6325,20
6326,20
6327,20
6328,20
6329,20
6330,20
6331,20
6332,20
6333,20
6334,20
6335,20
6336,20
6337,20
6338,20
6339,20
6340,20
6341,20
6342,20
6343,20
6344,20
6345,20
6346,20
6347,20
6348,20
6349,20
6350,20
6351,20
6352,20
6353,20
6354,20
6355,20
6356,20
6357,20
6358,20
6359,20
6360,20
6361,20
6362,20
6363,20
6364,20
6365,20
6366,20
6367,20
6368,20
6369,20
6370,20
6371,20
6372,20
6373,20
6374,20
6375,20
6376,20
6377,20
6378,20
6379,20
6380,20
6381,20
6382,20
6383,21
6384,21
6385,21
6386,21
6387,21
6388,21
6389,21
6390,20
6391,20
6392,20
6393,20
6394,20
6395,20
6396,21
6397,21
6398,21
6399,21
6400,21
6401,21
6402,21
6403,21
6404,21
6405,21
6406,21
6407,21
6408,21
6409,21
6410,21
6411,21
6412,21
6413,21
6414,21
6415,21
6416,21
6417,21
6418,21
6419,21
6420,21
6421,21
6422,21
6423,21
6424,21
6425,21
6426,21
6427,21
6428,21
6429,21
6430,22
6431,22
6432,21
6433,21
6434,21
6435,21
6436,21
6437,21
6438,21
6439,21
6440,21
6441,21
6442,21
6443,21
6444,21
6445,21
6446,21
6447,21
6448,21
6449,21
6450,21
6451,21
6452,21
6453,21
6454,21
6455,21
6456,21
6457,21
6458,21
6459,21
6460,21
6461,21
6462,21
6463,21
6464,21
6465,21
6466,21
6467,21
6468,21
6469,21
6470,21
6471,21
6472,21
6473,21
6474,21
6475,21
6476,21
6477,21
6478,21
6479,21
6480,21
6481,21
6482,21
6483,21
6484,21
6485,21
6486,21
6487,21
6488,21
6489,21
6490,21
6491,21
6492,21
6493,21
6494,21
6495,21
6496,21
6497,21
6498,21
6499,21
6500,21
6501,21
6502,21
6503,21
6504,21
6505,21
6506,21
6507,21
6508,21
6509,21
6510,21
6511,21
6512,21
6513,21
6514,21
6515,21
6516,21
6517,21
6518,21
6519,21
6520,21
6521,21
6522,21
6523,21
6524,21
6525,21
6526,21
6527,21
6528,21
6529,21
6530,21
6531,21
6532,21
6533,21
6534,21
6535,21
6536,21
6537,21
6538,21
6539,21
6540,21
6541,21
6542,21
6543,21
6544,21
6545,21
6546,21
6547,21
6548,21
6549,21
6550,21
6551,21
6552,21
6553,21
6554,21
6555,21
6556,21
6557,21
6558,21
6559,21
6560,21
6561,21
6562,21
6563,21
6564,21
6565,21
6566,21
6567,21
6568,21
6569,21
6570,21
6571,21
6572,21
6573,21
6574,21
6575,21
6576,21
6577,21
6578,21
6579,21
6580,21
6581,21
6582,21
6583,21
6584,21
6585,21
6586,21
6587,21
6588,21
6589,21
6590,21
6591,21
6592,21
6593,21
6594,21
6595,21
6596,21
6597,21
6598,21
6599,21
6600,21
6601,21
6602,21
6603,21
6604,21
6605,21
6606,21
6607,21
6608,22
6609,21
6610,21
6611,21
6612,21
6613,21
6614,21
6615,21
6616,21
6617,21
6618,21
6619,21
6620,21
6621,21
6622,21
6623,21
6624,21
6625,21
6626,21
6627,21
6628,21
6629,21
6630,21
6631,21
6632,21
6633,21
6634,21
6635,21
6636,21
6637,21
6638,21
6639,21
6640,21
6641,21
6642,21
6643,21
6644,21
6645,21
6646,21
6647,21
6648,21
6649,21
6650,21
6651,21
6652,21
6653,21
6654,21
6655,21
6656,21
6657,21
6658,21
6659,21
6660,21
6661,21
6662,21
6663,21
6664,21
6665,21
6666,21
6667,21
6668,21
6669,21
6670,21
6671,21
6672,21
6673,21
6674,21
6675,21
6676,21
6677,21
6678,21
6679,21
6680,21
6681,21
6682,21
6683,21
6684,21
6685,21
6686,21
6687,21
6688,21
6689,21
6690,21
6691,21
6692,21
6693,21
6694,21
6695,21
6696,21
6697,21
6698,21
6699,21
6700,21
6701,21
6702,21
6703,21
6704,21
6705,21
6706,21
6707,21
6708,21
6709,21
6710,21
6711,21
6712,21
6713,21
6714,21
6715,21
6716,21
6717,21
6718,21
6719,21
6720,21
6721,21
6722,21
6723,21
6724,21
6725,21
6726,21
6727,21
6728,21
6729,21
6730,21
6731,21
6732,21
6733,21
6734,21
6735,21
6736,21
6737,21
6738,21
6739,21
6740,21
6741,21
6742,21
6743,21
6744,21
6745,21
6746,21
6747,21
6748,21
6749,21
6750,21
6751,21
6752,21
6753,21
6754,21
6755,21
6756,21
6757,21
6758,21
6759,21
6760,22
6761,22
6762,22
6763,21
6764,21
6765,21
6766,21
6767,21
6768,21
6769,21
6770,21
6771,21
6772,22
6773,22
6774,21
6775,21
6776,21
6777,21
6778,21
6779,21
6780,21
6781,21
6782,21
6783,21
6784,21
6785,21
6786,21
6787,21
6788,21
6789,21
6790,21
6791,21
6792,21
6793,21
6794,21
6795,21
6796,21
6797,21
6798,21
6799,21
6800,21
6801,21
6802,21
6803,21
6804,21
6805,21
6806,21
6807,21
6808,21
6809,21
6810,21
6811,21
6812,21
6813,21
6814,21
6815,21
6816,21
6817,21
6818,22
6819,22
6820,22
6821,22
6822,21
6823,21
6824,21
6825,21
6826,21
6827,21
6828,21
6829,21
6830,21
6831,21
6832,21
6833,21
6834,21
6835,21
6836,21
6837,21
6838,21
6839,21
6840,21
6841,21
6842,21
6843,21
6844,21
6845,21
6846,21
6847,21
6848,21
6849,21
6850,21
6851,21
6852,21
6853,21
6854,21
6855,21
6856,21
6857,21
6858,21
6859,21
6860,21
6861,21
6862,21
6863,21
6864,21
6865,21
6866,21
6867,21
6868,21
6869,21
6870,21
6871,21
6872,21
6873,21
6874,21
6875,22
6876,21
6877,21
6878,21
6879,21
6880,21
6881,21
6882,21
6883,21
6884,21
6885,21
6886,21
6887,21
6888,21
6889,21
6890,21
6891,21
6892,21
6893,21
6894,21
6895,21
6896,21
6897,21
6898,21
6899,21
6900,21
6901,21
6902,21
6903,21
6904,21
6905,21
6906,21
6907,21
6908,21
6909,21
6910,21
6911,21
6912,21
6913,21
6914,21
6915,21
6916,21
6917,21
6918,21
6919,21
6920,21
6921,21
6922,21
6923,21
6924,21
6925,21
6926,21
6927,21
6928,21
6929,21
6930,21
6931,21
6932,21
6933,21
6934,21
6935,21
6936,21
6937,21
6938,21
6939,21
6940,21
6941,21
6942,21
6943,21
6944,21
6945,21
6946,21
6947,21
6948,21
6949,21
6950,21
6951,21
6952,21
6953,21
6954,21
6955,21
6956,21
6957,21
6958,21
6959,21
6960,21
6961,21
6962,21
6963,21
6964,21
6965,21
6966,21
6967,21
6968,21
6969,21
6970,21
6971,21
6972,21
6973,21
6974,21
6975,21
6976,21
6977,21
6978,21
6979,21
6980,21
6981,21
6982,21
6983,21
6984,21
6985,21
6986,21
6987,21
6988,21
6989,21
6990,21
6991,21
6992,21
6993,21
6994,21
6995,21
6996,21
6997,21
6998,21
6999,21
7000,21
7001,21
7002,21
7003,21
7004,21
7005,21
7006,21
7007,21
7008,21
7009,21
7010,21
7011,21
7012,21
7013,21
7014,21
7015,21
7016,21
7017,21
7018,21
7019,21
7020,21
7021,21
7022,21
7023,21
7024,22
7025,21
7026,21
7027,21
7028,21
7029,21
7030,21
7031,21
7032,21
7033,21
7034,21
7035,21
7036,21
7037,21
7038,21
7039,21
7040,21
7041,21
7042,21
7043,21
7044,21
7045,21
7046,21
7047,21
7048,21
7049,21
7050,21
7051,21
7052,21
7053,21
7054,21
7055,21
7056,21
7057,21
7058,21
7059,21
7060,21
7061,21
7062,21
7063,21
7064,21
7065,21
7066,21
7067,21
7068,21
7069,21
7070,21
7071,21
7072,21
7073,21
7074,21
7075,21
7076,21
7077,21
7078,21
7079,22
7080,21
7081,21
7082,21
7083,21
7084,21
7085,21
7086,21
7087,21
7088,21
7089,21
7090,21
7091,21
7092,21
7093,21
7094,21
7095,21
7096,21
7097,21
7098,21
7099,21
7100,21
7101,21
7102,21
7103,21
7104,21
7105,21
7106,21
7107,21
7108,21
7109,21
7110,21
7111,21
7112,21
7113,21
7114,21
7115,21
7116,21
7117,21
7118,21
7119,21
7120,21
7121,21
7122,21
7123,21
7124,21
7125,21
7126,21
7127,21
7128,21
7129,21
7130,21
7131,21
7132,21
7133,21
7134,21
7135,21
7136,21
7137,21
7138,21
7139,21
7140,21
7141,21
7142,21
7143,21
7144,21
7145,21
7146,21
7147,21
7148,21
7149,21
7150,21
7151,21
7152,21
7153,21
7154,21
7155,21
7156,21
7157,21
7158,21
7159,21
7160,21
7161,21
7162,21
7163,21
7164,21
7165,21
7166,21
7167,21
7168,21
7169,21
7170,21
7171,21
7172,21
7173,21
7174,21
7175,21
7176,21
7177,21
7178,21
7179,21
7180,21
7181,21
7182,21
7183,21
7184,21
7185,21
7186,21
7187,21
7188,21
7189,21
7190,21
7191,21
7192,21
7193,21
7194,21
7195,21
7196,21
7197,21
7198,21
7199,21
7200,21
7201,21
7202,21
7203,21
7204,21
7205,22
7206,22
7207,22
7208,22
7209,22
7210,22
7211,22
7212,22
7213,22
7214,22
7215,22
7216,22
7217,22
7218,22
7219,22
7220,22
7221,21
7222,21
7223,21
7224,21
7225,21
7226,21
7227,21
7228,21
7229,21
7230,21
7231,21
7232,21
7233,21
7234,21
7235,21
7236,21
7237,21
7238,21
7239,21
7240,21
7241,21
7242,21
7243,21
7244,21
7245,21
7246,21
7247,21
7248,21
7249,21
7250,21
7251,21
7252,21
7253,21
7254,21
7255,21
7256,21
7257,21
7258,22
7259,22
7260,22
7261,22
7262,22
7263,22
7264,22
7265,21
7266,21
7267,21
7268,21
7269,21
7270,21
7271,21
7272,21
7273,21
7274,21
7275,21
7276,21
7277,21
7278,21
7279,21
7280,21
7281,21
7282,21
7283,21
7284,21
7285,21
7286,21
7287,21
7288,21
7289,21
7290,21
7291,21
7292,21
7293,21
7294,21
7295,21
7296,21
7297,21
7298,21
7299,21
7300,21
7301,21
7302,21
7303,21
7304,21
7305,21
7306,21
7307,21
7308,21
7309,21
7310,21
7311,21
7312,21
7313,21
7314,21
7315,21
7316,21
7317,21
7318,21
7319,21
7320,21
7321,21
7322,21
7323,21
7324,21
7325,21
7326,21
7327,21
7328,21
7329,21
7330,21
7331,21
7332,21
7333,21
7334,21
7335,21
7336,21
7337,21
7338,21
7339,21
7340,21
7341,21
7342,21
7343,21
7344,21
7345,21
7346,21
7347,21
7348,21
7349,21
7350,21
7351,21
7352,21
7353,21
7354,21
7355,21
7356,21
7357,21
7358,21
7359,21
7360,21
7361,21
7362,21
7363,21
7364,21
7365,21
7366,22
7367,21
7368,21
7369,21
7370,21
7371,21
7372,21
7373,21
7374,21
7375,21
7376,21
7377,21
7378,21
7379,21
7380,21
7381,21
7382,21
7383,21
7384,21
7385,21
7386,21
7387,21
7388,21
7389,21
7390,21
7391,21
7392,21
7393,21
7394,21
7395,21
7396,21
7397,21
7398,21
7399,21
7400,21
7401,21
7402,21
7403,21
7404,21
7405,21
7406,21
7407,21
7408,21
7409,21
7410,21
7411,21
7412,21
7413,21
7414,21
7415,21
7416,21
7417,21
7418,21
7419,21
7420,21
7421,21
7422,21
7423,21
7424,21
7425,21
7426,21
7427,21
7428,21
7429,21
7430,21
7431,21
7432,21
7433,21
7434,21
7435,21
7436,21
7437,21
7438,21
7439,21
7440,21
7441,21
7442,21
7443,21
7444,21
7445,21
7446,21
7447,21
7448,21
7449,21
7450,21
7451,21
7452,21
7453,21
7454,21
7455,21
7456,21
7457,21
7458,21
7459,21
7460,21
7461,21
7462,21
7463,21
7464,21
7465,21
7466,21
7467,21
7468,21
7469,21
7470,21
7471,21
7472,21
7473,21
7474,21
7475,21
7476,21
7477,21
7478,21
7479,21
7480,21
7481,21
7482,21
7483,21
7484,21
7485,21
7486,21
7487,21
7488,21
7489,21
7490,21
7491,21
7492,21
7493,21
7494,21
7495,21
7496,21
7497,21
7498,21
7499,21
7500,21
7501,21
7502,21
7503,21
7504,21
7505,21
7506,21
7507,21
7508,21
7509,21
7510,21
7511,21
7512,21
7513,21
7514,21
7515,21
7516,21
7517,21
7518,21
7519,21
7520,21
7521,21
7522,21
7523,21
7524,21
7525,21
7526,21
7527,21
7528,21
7529,21
7530,21
7531,21
7532,21
7533,21
7534,21
7535,21
7536,21
7537,21
7538,21
7539,21
7540,21
7541,21
7542,21
7543,21
7544,21
7545,21
7546,21
7547,21
7548,21
7549,21
7550,21
7551,21
7552,21
7553,21
7554,21
7555,21
7556,21
7557,21
7558,21
7559,21
7560,21
7561,21
7562,21
7563,21
7564,21
7565,21
7566,21
7567,21
7568,21
7569,21
7570,21
7571,21
7572,21
7573,21
7574,21
7575,21
7576,21
7577,21
7578,21
7579,21
7580,21
7581,21
7582,21
7583,21
7584,21
7585,21
7586,21
7587,21
7588,21
7589,21
7590,21
7591,21
7592,21
7593,21
7594,21
7595,21
7596,21
7597,21
7598,21
7599,21
7600,21
7601,21
7602,21
7603,21
7604,21
7605,21
7606,21
7607,21
7608,21
7609,21
7610,21
7611,21
7612,21
7613,22
7614,22
7615,22
7616,22
7617,22
7618,22
7619,22
7620,22
7621,22
7622,22
7623,22
7624,22
7625,22
7626,22
7627,22
7628,22
7629,22
7630,22
7631,22
7632,22
7633,22
7634,22
7635,22
7636,22
7637,22
7638,22
7639,22
7640,22
7641,22
7642,22
7643,22
7644,22
7645,22
7646,22
7647,22
7648,22
7649,22
7650,22
7651,22
7652,22
7653,22
7654,22
7655,22
7656,22
7657,22
7658,22
7659,22
7660,22
7661,22
7662,22
7663,22
7664,22
7665,22
7666,22
7667,22
7668,22
7669,22
7670,23
7671,22
7672,22
7673,22
7674,22
7675,22
7676,22
7677,22
7678,22
7679,22
7680,22
7681,22
7682,22
7683,22
7684,22
7685,22
7686,22
7687,22
7688,22
7689,22
7690,22
7691,22
7692,22
7693,22
7694,22
7695,22
7696,22
7697,22
7698,22
7699,22
7700,22
7701,22
7702,22
7703,22
7704,22
7705,22
7706,22
7707,23
7708,22
7709,22
7710,22
7711,22
7712,22
7713,22
7714,22
7715,22
7716,22
7717,22
7718,22
7719,22
7720,22
7721,22
7722,22
7723,22
7724,22
7725,22
7726,22
7727,22
7728,22
7729,22
7730,22
7731,22
7732,22
7733,22
7734,22
7735,22
7736,22
7737,22
7738,22
7739,22
7740,22
7741,22
7742,22
7743,22
7744,22
7745,22
7746,22
7747,22
7748,22
7749,22
7750,22
7751,22
7752,22
7753,22
7754,22
7755,22
7756,22
7757,22
7758,22
7759,22
7760,22
7761,22
7762,22
7763,22
7764,22
7765,22
7766,22
7767,22
7768,22
7769,22
7770,22
7771,22
7772,22
7773,22
7774,22
7775,22
7776,22
7777,22
7778,22
7779,22
7780,23
7781,23
7782,23
7783,23
7784,22
7785,22
7786,22
7787,22
7788,22
7789,22
7790,22
7791,22
7792,22
7793,22
7794,22
7795,22
7796,22
7797,22
7798,22
7799,22
7800,22
7801,22
7802,22
7803,22
7804,22
7805,22
7806,22
7807,22
7808,22
7809,22
7810,22
7811,22
7812,22
7813,22
7814,22
7815,22
7816,22
7817,22
7818,22
7819,22
7820,22
7821,22
7822,22
7823,22
7824,22
7825,22
7826,22
7827,22
7828,22
7829,22
7830,22
7831,22
7832,22
7833,22
7834,22
7835,22
7836,22
7837,22
7838,22
7839,22
7840,22
7841,22
7842,22
7843,22
7844,22
7845,22
7846,22
7847,22
7848,22
7849,22
7850,22
7851,22
7852,22
7853,22
7854,22
7855,22
7856,22
7857,22
7858,22
7859,22
7860,22
7861,23
7862,23
7863,23
7864,22
7865,22
7866,22
7867,22
7868,22
7869,22
7870,22
7871,22
7872,22
7873,22
7874,22
7875,22
7876,22
7877,22
7878,22
7879,22
7880,22
7881,22
7882,22
7883,22
7884,22
7885,22
7886,22
7887,22
7888,22
7889,22
7890,22
7891,22
7892,22
7893,22
7894,22
7895,22
7896,22
7897,22
7898,22
7899,22
7900,22
7901,22
7902,22
7903,22
7904,22
7905,22
7906,22
7907,22
7908,22
7909,22
7910,22
7911,22
7912,22
7913,22
7914,22
7915,22
7916,22
7917,22
7918,22
7919,22
7920,22
7921,22
7922,22
7923,22
7924,22
7925,22
7926,22
7927,22
7928,22
7929,22
7930,22
7931,22
7932,22
7933,22
7934,22
7935,22
7936,22
7937,22
7938,22
7939,22
7940,22
7941,22
7942,22
7943,22
7944,22
7945,22
7946,22
7947,22
7948,22
7949,22
7950,22
7951,22
7952,22
7953,22
7954,22
7955,22
7956,22
7957,22
7958,22
7959,22
7960,22
7961,22
7962,22
7963,22
7964,23
7965,22
7966,22
7967,22
7968,22
7969,22
7970,22
7971,22
7972,22
7973,22
7974,22
7975,22
7976,22
7977,22
7978,22
7979,22
7980,22
7981,22
7982,22
7983,22
7984,22
7985,22
7986,22
7987,22
7988,22
7989,22
7990,22
7991,22
7992,22
7993,22
7994,22
7995,22
7996,22
7997,22
7998,22
7999,22
8000,22
8001,22
8002,22
8003,22
8004,22
8005,22
8006,22
8007,22
8008,22
8009,22
8010,22
8011,22
8012,22
8013,22
8014,22
8015,22
8016,22
8017,22
8018,22
8019,22
8020,22
8021,22
8022,22
8023,22
8024,22
8025,22
8026,22
8027,22
8028,22
8029,22
8030,22
8031,22
8032,22
8033,22
8034,22
8035,22
8036,22
8037,22
8038,22
8039,22
8040,22
8041,22
8042,22
8043,22
8044,22
8045,22
8046,22
8047,22
8048,22
8049,22
8050,22
8051,22
8052,22
8053,22
8054,22
8055,22
8056,22
8057,22
8058,22
8059,22
8060,22
8061,22
8062,22
8063,22
8064,22
8065,22
8066,22
8067,22
8068,22
8069,22
8070,22
8071,22
8072,22
8073,22
8074,22
8075,22
8076,22
8077,22
8078,22
8079,22
8080,22
8081,22
8082,22
8083,22
8084,22
8085,22
8086,22
8087,22
8088,22
8089,22
8090,22
8091,22
8092,22
8093,22
8094,22
8095,22
8096,23
8097,22
8098,22
8099,22
8100,22
8101,22
8102,22
8103,22
8104,22
8105,22
8106,22
8107,22
8108,22
8109,22
8110,22
8111,22
8112,22
8113,22
8114,22
8115,22
8116,22
8117,22
8118,22
8119,22
8120,22
8121,22
8122,22
8123,22
8124,22
8125,22
8126,22
8127,22
8128,22
8129,22
8130,22
8131,22
8132,22
8133,22
8134,22
8135,22
8136,22
8137,22
8138,22
8139,22
8140,22
8141,22
8142,22
8143,22
8144,22
8145,22
8146,22
8147,22
8148,22
8149,22
8150,22
8151,22
8152,22
8153,22
8154,22
8155,22
8156,22
8157,22
8158,22
8159,22
8160,22
8161,22
8162,22
8163,22
8164,22
8165,22
8166,22
8167,22
8168,22
8169,22
8170,22
8171,23
8172,22
8173,22
8174,22
8175,22
8176,22
8177,22
8178,22
8179,22
8180,22
8181,22
8182,22
8183,22
8184,22
8185,22
8186,22
8187,22
8188,22
8189,22
8190,22
8191,22
8192,22
8193,22
8194,22
8195,22
8196,22
8197,22
8198,22
8199,22
8200,22
8201,22
8202,22
8203,22
8204,22
8205,22
8206,22
8207,22
8208,22
8209,22
8210,22
8211,22
8212,22
8213,22
8214,22
8215,22
8216,22
8217,22
8218,22
8219,22
8220,22
8221,22
8222,22
8223,22
8224,22
8225,22
8226,22
8227,22
8228,22
8229,22
8230,22
8231,22
8232,22
8233,22
8234,22
8235,22
8236,22
8237,22
8238,22
8239,22
8240,22
8241,22
8242,22
8243,22
8244,22
8245,22
8246,22
8247,22
8248,22
8249,22
8250,22
8251,22
8252,22
8253,22
8254,22
8255,22
8256,22
8257,22
8258,22
8259,22
8260,22
8261,22
8262,22
8263,22
8264,22
8265,22
8266,22
8267,22
8268,22
8269,22
8270,22
8271,22
8272,22
8273,22
8274,22
8275,22
8276,22
8277,22
8278,22
8279,22
8280,22
8281,22
8282,22
8283,22
8284,22
8285,22
8286,22
8287,22
8288,22
8289,22
8290,22
8291,22
8292,22
8293,22
8294,22
8295,22
8296,22
8297,23
8298,22
8299,22
8300,22
8301,22
8302,22
8303,22
8304,22
8305,22
8306,22
8307,22
8308,22
8309,22
8310,22
8311,22
8312,22
8313,22
8314,22
8315,22
8316,22
8317,22
8318,22
8319,22
8320,22
8321,22
8322,22
8323,22
8324,22
8325,22
8326,22
8327,22
8328,22
8329,22
8330,22
8331,22
8332,22
8333,22
8334,22
8335,22
8336,22
8337,22
8338,22
8339,22
8340,22
8341,22
8342,22
8343,22
8344,22
8345,22
8346,22
8347,22
8348,22
8349,22
8350,22
8351,22
8352,22
8353,22
8354,22
8355,22
8356,22
8357,22
8358,22
8359,22
8360,22
8361,22
8362,22
8363,22
8364,22
8365,22
8366,22
8367,22
8368,22
8369,22
8370,22
8371,22
8372,22
8373,22
8374,22
8375,22
8376,22
8377,22
8378,22
8379,22
8380,22
8381,22
8382,22
8383,22
8384,22
8385,22
8386,22
8387,22
8388,22
8389,22
8390,22
8391,22
8392,22
8393,22
8394,22
8395,22
8396,22
8397,22
8398,22
8399,22
8400,22
8401,22
8402,22
8403,22
8404,22
8405,22
8406,22
8407,22
8408,22
8409,22
8410,22
8411,22
8412,22
8413,22
8414,22
8415,22
8416,22
8417,22
8418,22
8419,22
8420,22
8421,22
8422,22
8423,22
8424,22
8425,22
8426,22
8427,22
8428,22
8429,22
8430,22
8431,22
8432,22
8433,22
8434,22
8435,22
8436,22
8437,22
8438,22
8439,22
8440,22
8441,22
8442,22
8443,22
8444,22
8445,22
8446,22
8447,22
8448,22
8449,22
8450,22
8451,22
8452,22
8453,22
8454,22
8455,22
8456,22
8457,22
8458,22
8459,22
8460,22
8461,22
8462,22
8463,22
8464,22
8465,22
8466,22
8467,22
8468,22
8469,22
8470,22
8471,23
8472,23
8473,23
8474,23
8475,23
8476,23
8477,23
8478,23
8479,23
8480,23
8481,23
8482,23
8483,23
8484,23
8485,23
8486,23
8487,23
8488,23
8489,23
8490,23
8491,23
8492,23
8493,23
8494,23
8495,22
8496,22
8497,22
8498,22
8499,22
8500,22
8501,22
8502,22
8503,22
8504,22
8505,22
8506,22
8507,22
8508,22
8509,22
8510,22
8511,22
8512,22
8513,22
8514,22
8515,22
8516,22
8517,22
8518,22
8519,22
8520,22
8521,22
8522,22
8523,22
8524,22
8525,22
8526,22
8527,22
8528,22
8529,22
8530,22
8531,22
8532,22
8533,22
8534,22
8535,22
8536,22
8537,23
8538,23
8539,23
8540,22
8541,22
8542,22
8543,22
8544,22
8545,22
8546,22
8547,22
8548,22
8549,22
8550,22
8551,22
8552,22
8553,22
8554,22
8555,22
8556,22
8557,22
8558,22
8559,22
8560,22
8561,22
8562,22
8563,22
8564,22
8565,22
8566,22
8567,22
8568,22
8569,22
8570,22
8571,22
8572,22
8573,22
8574,22
8575,22
8576,22
8577,22
8578,22
8579,22
8580,22
8581,22
8582,22
8583,22
8584,22
8585,22
8586,22
8587,22
8588,23
8589,23
8590,23
8591,22
8592,22
8593,22
8594,22
8595,22
8596,22
8597,22
8598,22
8599,22
8600,22
8601,22
8602,22
8603,22
8604,22
8605,22
8606,22
8607,22
8608,22
8609,22
8610,22
8611,22
8612,22
8613,22
8614,22
8615,22
8616,22
8617,22
8618,22
8619,22
8620,22
8621,22
8622,22
8623,22
8624,22
8625,22
8626,22
8627,22
8628,22
8629,22
8630,22
8631,22
8632,22
8633,22
8634,22
8635,22
8636,22
8637,22
8638,22
8639,22
8640,22
8641,22
8642,22
8643,22
8644,23
8645,22
8646,22
8647,22
8648,22
8649,22
8650,22
8651,22
8652,22
8653,22
8654,22
8655,22
8656,22
8657,22
8658,22
8659,22
8660,22
8661,22
8662,22
8663,22
8664,22
8665,22
8666,22
8667,22
8668,22
8669,22
8670,22
8671,22
8672,22
8673,22
8674,22
8675,22
8676,22
8677,22
8678,22
8679,22
8680,22
8681,23
8682,22
8683,22
8684,22
8685,22
8686,22
8687,22
8688,22
8689,22
8690,22
8691,22
8692,22
8693,22
8694,22
8695,22
8696,22
8697,22
8698,22
8699,22
8700,22
8701,22
8702,22
8703,22
8704,22
8705,22
8706,22
8707,22
8708,22
8709,22
8710,22
8711,22
8712,22
8713,22
8714,22
8715,22
8716,22
8717,22
8718,22
8719,22
8720,22
8721,22
8722,22
8723,22
8724,22
8725,22
8726,22
8727,22
8728,22
8729,22
8730,22
8731,22
8732,22
8733,22
8734,22
8735,22
8736,22
8737,22
8738,22
8739,22
8740,22
8741,22
8742,22
8743,22
8744,22
8745,22
8746,22
8747,22
8748,22
8749,22
8750,22
8751,22
8752,22
8753,22
8754,22
8755,22
8756,22
8757,22
8758,22
8759,22
8760,22
8761,22
8762,22
8763,22
8764,22
8765,22
8766,22
8767,22
8768,22
8769,22
8770,22
8771,22
8772,22
8773,22
8774,22
8775,22
8776,22
8777,22
8778,22
8779,22
8780,22
8781,22
8782,22
8783,22
8784,22
8785,22
8786,22
8787,22
8788,22
8789,22
8790,22
8791,22
8792,22
8793,22
8794,22
8795,22
8796,22
8797,22
8798,22
8799,22
8800,22
8801,22
8802,22
8803,22
8804,22
8805,22
8806,22
8807,22
8808,22
8809,22
8810,22
8811,22
8812,22
8813,22
8814,22
8815,22
8816,22
8817,22
8818,22
8819,22
8820,22
8821,22
8822,22
8823,22
8824,22
8825,22
8826,22
8827,22
8828,22
8829,22
8830,22
8831,22
8832,22
8833,22
8834,22
8835,22
8836,22
8837,22
8838,22
8839,22
8840,22
8841,22
8842,22
8843,22
8844,22
8845,22
8846,22
8847,22
8848,22
8849,22
8850,22
8851,22
8852,22
8853,22
8854,23
8855,22
8856,22
8857,22
8858,22
8859,22
8860,22
8861,22
8862,22
8863,22
8864,22
8865,22
8866,22
8867,22
8868,22
8869,22
8870,22
8871,22
8872,22
8873,22
8874,22
8875,22
8876,22
8877,22
8878,22
8879,22
8880,22
8881,22
8882,22
8883,22
8884,22
8885,22
8886,22
8887,22
8888,22
8889,22
8890,22
8891,22
8892,22
8893,22
8894,22
8895,22
8896,22
8897,22
8898,22
8899,22
8900,22
8901,22
8902,22
8903,22
8904,22
8905,22
8906,22
8907,22
8908,23
8909,22
8910,22
8911,22
8912,22
8913,22
8914,22
8915,22
8916,22
8917,22
8918,22
8919,22
8920,22
8921,22
8922,22
8923,22
8924,22
8925,22
8926,22
8927,22
8928,22
8929,22
8930,22
8931,22
8932,22
8933,22
8934,22
8935,22
8936,22
8937,22
8938,22
8939,22
8940,22
8941,22
8942,22
8943,22
8944,22
8945,22
8946,22
8947,22
8948,22
8949,22
8950,22
8951,22
8952,22
8953,22
8954,22
8955,22
8956,22
8957,22
8958,22
8959,22
8960,22
8961,22
8962,22
8963,22
8964,22
8965,22
8966,22
8967,22
8968,22
8969,22
8970,22
8971,22
8972,22
8973,22
8974,22
8975,22
8976,22
8977,22
8978,22
8979,22
8980,22
8981,22
8982,22
8983,22
8984,22
8985,22
8986,22
8987,22
8988,22
8989,22
8990,22
8991,22
8992,22
8993,22
8994,22
8995,22
8996,22
8997,22
8998,22
8999,22
9000,23
9001,22
9002,22
9003,22
9004,22
9005,22
9006,22
9007,22
9008,22
9009,22
9010,22
9011,22
9012,22
9013,22
9014,22
9015,22
9016,22
9017,22
9018,22
9019,22
9020,22
9021,22
9022,22
9023,22
9024,22
9025,22
9026,22
9027,22
9028,22
9029,22
9030,22
9031,22
9032,22
9033,22
9034,22
9035,22
9036,22
9037,22
9038,22
9039,22
9040,22
9041,22
9042,22
9043,22
9044,22
9045,22
9046,22
9047,22
9048,22
9049,22
9050,22
9051,22
9052,22
9053,22
9054,22
9055,22
9056,22
9057,22
9058,22
9059,22
9060,22
9061,22
9062,22
9063,22
9064,22
9065,22
9066,22
9067,22
9068,22
9069,22
9070,22
9071,22
9072,22
9073,22
9074,22
9075,22
9076,22
9077,22
9078,22
9079,22
9080,22
9081,22
9082,22
9083,22
9084,23
9085,23
9086,23
9087,23
9088,23
9089,23
9090,23
9091,23
9092,23
9093,23
9094,23
9095,23
9096,23
9097,23
9098,23
9099,23
9100,23
9101,23
9102,23
9103,23
9104,23
9105,23
9106,23
9107,23
9108,22
9109,22
9110,22
9111,22
9112,22
9113,22
9114,22
9115,22
9116,22
9117,22
9118,22
9119,22
9120,22
9121,22
9122,22
9123,22
9124,22
9125,22
9126,22
9127,22
9128,22
9129,22
9130,22
9131,22
9132,22
9133,22
9134,22
9135,22
9136,22
9137,22
9138,22
9139,22
9140,22
9141,22
9142,22
9143,22
9144,22
9145,22
9146,22
9147,22
9148,22
9149,22
9150,23
9151,22
9152,22
9153,22
9154,22
9155,22
9156,22
9157,22
9158,22
9159,22
9160,22
9161,22
9162,22
9163,22
9164,22
9165,22
9166,22
9167,22
9168,22
9169,22
9170,22
9171,22
9172,22
9173,22
9174,22
9175,22
9176,22
9177,22
9178,22
9179,22
9180,22
9181,22
9182,22
9183,22
9184,22
9185,22
9186,22
9187,22
9188,22
9189,22
9190,22
9191,22
9192,22
9193,22
9194,22
9195,22
9196,22
9197,22
9198,22
9199,22
9200,22
9201,22
9202,22
9203,22
9204,22
9205,22
9206,22
9207,22
9208,22
9209,22
9210,22
9211,22
9212,22
9213,22
9214,22
9215,22
9216,22
9217,22
9218,22
9219,22
9220,22
9221,22
9222,22
9223,22
9224,22
9225,22
9226,22
9227,22
9228,22
9229,22
9230,22
9231,22
9232,22
9233,22
9234,22
9235,22
9236,22
9237,22
9238,22
9239,22
9240,22
9241,22
9242,22
9243,22
9244,22
9245,22
9246,22
9247,22
9248,22
9249,22
9250,22
9251,22
9252,22
9253,22
9254,22
9255,22
9256,22
9257,22
9258,22
9259,22
9260,22
9261,22
9262,22
9263,22
9264,22
9265,22
9266,22
9267,22
9268,23
9269,23
9270,23
9271,23
9272,23
9273,23
9274,23
9275,23
9276,23
9277,23
9278,23
9279,23
9280,23
9281,23
9282,23
9283,23
9284,23
9285,23
9286,23
9287,23
9288,23
9289,23
9290,23
9291,23
9292,23
9293,23
9294,23
9295,23
9296,23
9297,23
9298,23
9299,22
9300,22
9301,22
9302,22
9303,22
9304,22
9305,22
9306,22
9307,22
9308,22
9309,22
9310,22
9311,22
9312,22
9313,22
9314,22
9315,22
9316,22
9317,22
9318,22
9319,22
9320,22
9321,22
9322,22
9323,22
9324,22
9325,22
9326,22
9327,22
9328,22
9329,22
9330,22
9331,22
9332,22
9333,22
9334,22
9335,22
9336,22
9337,22
9338,22
9339,22
9340,22
9341,22
9342,22
9343,22
9344,22
9345,22
9346,22
9347,22
9348,22
9349,22
9350,22
9351,22
9352,22
9353,22
9354,22
9355,22
9356,22
9357,22
9358,22
9359,22
9360,22
9361,22
9362,22
9363,22
9364,22
9365,22
9366,22
9367,22
9368,22
9369,22
9370,22
9371,22
9372,22
9373,22
9374,22
9375,22
9376,22
9377,22
9378,22
9379,22
9380,22
9381,22
9382,22
9383,22
9384,22
9385,22
9386,22
9387,22
9388,22
9389,22
9390,22
9391,22
9392,22
9393,22
9394,22
9395,22
9396,22
9397,22
9398,22
9399,22
9400,22
9401,22
9402,22
9403,22
9404,22
9405,22
9406,22
9407,22
9408,22
9409,22
9410,22
9411,22
9412,22
9413,22
9414,22
9415,22
9416,22
9417,22
9418,22
9419,22
9420,22
9421,22
9422,22
9423,22
9424,22
9425,22
9426,22
9427,22
9428,22
9429,22
9430,22
9431,22
9432,22
9433,22
9434,22
9435,22
9436,22
9437,22
9438,22
9439,22
9440,22
9441,22
9442,22
9443,22
9444,22
9445,22
9446,22
9447,22
9448,22
9449,22
9450,22
9451,22
9452,22
9453,22
9454,22
9455,22
9456,22
9457,22
9458,22
9459,22
9460,22
9461,22
9462,22
9463,22
9464,23
9465,22
9466,22
9467,22
9468,22
9469,22
9470,22
9471,22
9472,22
9473,22
9474,22
9475,22
9476,22
9477,22
9478,22
9479,22
9480,22
9481,22
9482,22
9483,22
9484,22
9485,22
9486,22
9487,22
9488,22
9489,22
9490,23
9491,23
9492,23
9493,23
9494,23
9495,23
9496,23
9497,23
9498,23
9499,23
9500,23
9501,23
9502,23
9503,23
9504,23
9505,23
9506,23
9507,23
9508,23
9509,23
9510,23
9511,23
9512,22
9513,22
9514,22
9515,22
9516,22
9517,22
9518,22
9519,22
9520,22
9521,22
9522,22
9523,22
9524,22
9525,22
9526,22
9527,22
9528,22
9529,22
9530,22
9531,22
9532,22
9533,22
9534,22
9535,22
9536,22
9537,22
9538,22
9539,22
9540,22
9541,22
9542,22
9543,22
9544,22
9545,22
9546,22
9547,22
9548,22
9549,22
9550,22
9551,22
9552,22
9553,22
9554,22
9555,22
9556,22
9557,22
9558,22
9559,22
9560,22
9561,22
9562,22
9563,22
9564,22
9565,22
9566,22
9567,22
9568,22
9569,22
9570,22
9571,22
9572,22
9573,22
9574,22
9575,22
9576,22
9577,22
9578,22
9579,22
9580,22
9581,22
9582,22
9583,22
9584,22
9585,22
9586,22
9587,22
9588,22
9589,22
9590,22
9591,22
9592,22
9593,22
9594,22
9595,22
9596,22
9597,22
9598,22
9599,22
9600,22
9601,22
9602,22
9603,23
9604,22
9605,22
9606,22
9607,22
9608,22
9609,22
9610,22
9611,22
9612,22
9613,22
9614,22
9615,22
9616,22
9617,22
9618,22
9619,22
9620,22
9621,22
9622,22
9623,22
9624,22
9625,22
9626,22
9627,22
9628,22
9629,22
9630,22
9631,22
9632,22
9633,22
9634,22
9635,22
9636,22
9637,22
9638,22
9639,22
9640,22
9641,22
9642,22
9643,22
9644,22
9645,22
9646,22
9647,22
9648,22
9649,22
9650,22
9651,22
9652,22
9653,22
9654,22
9655,22
9656,22
9657,22
9658,22
9659,22
9660,22
9661,22
9662,22
9663,22
9664,22
9665,22
9666,22
9667,22
9668,22
9669,22
9670,22
9671,22
9672,22
9673,22
9674,22
9675,22
9676,22
9677,22
9678,22
9679,22
9680,22
9681,22
9682,22
9683,23
9684,22
9685,22
9686,22
9687,22
9688,22
9689,22
9690,22
9691,22
9692,22
9693,22
9694,22
9695,22
9696,22
9697,22
9698,22
9699,22
9700,22
9701,22
9702,22
9703,22
9704,22
9705,22
9706,22
9707,22
9708,22
9709,22
9710,22
9711,22
9712,22
9713,22
9714,22
9715,22
9716,22
9717,22
9718,22
9719,22
9720,22
9721,22
9722,22
9723,22
9724,22
9725,22
9726,22
9727,22
9728,22
9729,22
9730,22
9731,22
9732,22
9733,22
9734,22
9735,22
9736,22
9737,22
9738,22
9739,22
9740,22
9741,22
9742,22
9743,22
9744,22
9745,22
9746,22
9747,22
9748,22
9749,22
9750,22
9751,22
9752,22
9753,22
9754,22
9755,22
9756,22
9757,22
9758,22
9759,22
9760,22
9761,22
9762,22
9763,22
9764,22
9765,22
9766,22
9767,22
9768,22
9769,22
9770,22
9771,22
9772,22
9773,22
9774,22
9775,22
9776,22
9777,22
9778,22
9779,22
9780,22
9781,22
9782,22
9783,22
9784,22
9785,22
9786,22
9787,22
9788,22
9789,22
9790,22
9791,22
9792,22
9793,22
9794,22
9795,22
9796,22
9797,22
9798,22
9799,22
9800,22
9801,22
9802,22
9803,22
9804,22
9805,22
9806,22
9807,22
9808,22
9809,22
9810,22
9811,22
9812,22
9813,22
9814,22
9815,22
9816,22
9817,22
9818,22
9819,22
9820,22
9821,22
9822,22
9823,22
9824,22
9825,22
9826,22
9827,22
9828,22
9829,22
9830,22
9831,22
9832,22
9833,22
9834,22
9835,22
9836,22
9837,22
9838,22
9839,22
9840,22
9841,22
9842,22
9843,22
9844,22
9845,22
9846,22
9847,22
9848,22
9849,22
9850,22
9851,22
9852,22
9853,22
9854,22
9855,22
9856,22
9857,22
9858,22
9859,22
9860,22
9861,22
9862,22
9863,22
9864,22
9865,22
9866,22
9867,22
9868,22
9869,22
9870,22
9871,22
9872,22
9873,22
9874,22
9875,22
9876,22
9877,22
9878,22
9879,22
9880,22
9881,22
9882,22
9883,22
9884,22
9885,22
9886,22
9887,22
9888,22
9889,22
9890,22
9891,22
9892,22
9893,22
9894,22
9895,22
9896,22
9897,22
9898,22
9899,22
9900,22
9901,22
9902,22
9903,22
9904,22
9905,22
9906,22
9907,22
9908,22
9909,22
9910,22
9911,22
9912,22
9913,22
9914,22
9915,22
9916,22
9917,22
9918,22
9919,22
9920,22
9921,22
9922,22
9923,22
9924,22
9925,22
9926,22
9927,22
9928,22
9929,22
9930,22
9931,22
9932,22
9933,22
9934,22
9935,22
9936,22
9937,22
9938,22
9939,22
9940,22
9941,22
9942,23
9943,23
9944,22
9945,22
9946,22
9947,22
9948,22
9949,22
9950,22
9951,22
9952,22
9953,22
9954,22
9955,22
9956,22
9957,22
9958,22
9959,22
9960,22
9961,22
9962,22
9963,22
9964,22
9965,22
9966,22
9967,22
9968,22
9969,22
9970,22
9971,22
9972,22
9973,22
9974,22
9975,22
9976,22
9977,22
9978,22
9979,22
9980,22
9981,22
9982,22
9983,22
9984,22
9985,22
9986,22
9987,22
9988,22
9989,22
9990,22
9991,22
9992,22
9993,22
9994,22
9995,22
9996,22
9997,22
9998,22
9999,22
10000,22
