1,3
2,3
3,3
4,3
5,3
6,3
7,3
8,3
9,3
10,3
11,3
12,3
13,3
14,3
15,3
16,3
17,3
18,3
19,3
20,3
21,3
22,3
23,3
24,3
25,3
26,3
27,3
28,3
29,3
30,3
31,3
32,3
33,3
34,3
35,3
36,3
37,3
38,3
39,3
40,4
41,4
42,4
43,4
44,4
45,4
46,4
47,4
48,4
49,4
50,4
51,4
52,4
53,4
54,4
55,4
56,4
57,4
58,4
59,4
60,4
61,4
62,4
63,4
64,4
65,4
66,4
67,4
68,4
69,4
70,4
71,4
72,4
73,4
74,4
75,4
76,4
77,4
78,4
79,5
80,4
81,4
82,4
83,4
84,4
85,4
86,4
87,4
88,4
89,4
90,4
91,4
92,4
93,4
94,4
95,4
96,4
97,4
98,4
99,4
100,4
101,4
102,4
103,4
104,4
105,4
106,4
107,4
108,4
109,4
110,4
111,4
112,4
113,4
114,4
115,4
116,4
117,4
118,4
119,4
120,4
121,4
122,4
123,4
124,4
125,4
126,4
127,4
128,4
129,4
130,4
131,4
132,4
133,4
134,4
135,4
136,4
137,4
138,4
139,4
140,4
141,4
142,4
143,4
144,4
145,4
146,4
147,4
148,4
149,4
150,4
151,4
152,4
153,4
154,4
155,4
156,4
157,4
158,4
159,4
160,4
161,4
162,4
163,4
164,4
165,4
166,4
167,4
168,4
169,4
170,4
171,4
172,4
173,4
174,4
175,4
176,4
177,4
178,4
179,4
180,4
181,4
182,4
183,4
184,4
185,4
186,4
187,4
188,4
189,4
190,4
191,4
192,4
193,4
194,4
195,4
196,4
197,4
198,4
199,4
200,4
201,4
202,4
203,4
204,4
205,4
206,4
207,4
208,4
209,4
210,4
211,4
212,4
213,4
214,4
215,4
216,4
217,4
218,4
219,4
220,4
221,4
222,4
223,4
224,4
225,4
226,4
227,4
228,4
229,4
230,4
231,4
232,4
233,4
234,4
235,4
236,4
237,4
238,4
239,4
240,4
241,4
242,4
243,4
244,4
245,4
246,4
247,4
248,4
249,4
250,4
251,4
252,4
253,4
254,4
255,4
256,4
257,4
258,4
259,4
260,4
261,4
262,4
263,4
264,4
265,4
266,4
267,4
268,4
269,4
270,4
271,4
272,4
273,4
274,4
275,4
276,4
277,4
278,4
279,4
280,4
281,5
282,5
283,5
284,5
285,5
286,5
287,5
288,5
289,5
290,5
291,5
292,5
293,5
294,5
295,5
296,5
297,5
298,5
299,5
300,5
301,5
302,5
303,5
304,5
305,5
306,5
307,5
308,5
309,5
310,5
311,5
312,5
313,5
314,5
315,5
316,5
317,5
318,5
319,5
320,5
321,5
322,5
323,5
324,5
325,5
326,5
327,5
328,5
329,5
330,5
331,5
332,5
333,5
334,5
335,5
336,5
337,5
338,5
339,5
340,5
341,5
342,5
343,5
344,5
345,5
346,5
347,5
348,5
349,5
350,5
351,5
352,5
353,5
354,5
355,5
356,5
357,5
358,5
359,5
360,5
361,5
362,5
363,5
364,5
365,5
366,5
367,5
368,5
369,5
370,5
371,5
372,5
373,5
374,5
375,5
376,5
377,5
378,5
379,5
380,5
381,5
382,5
383,5
384,5
385,5
386,5
387,5
388,5
389,5
390,5
391,5
392,5
393,5
394,5
395,5
396,5
397,5
398,5
399,5
400,5
401,5
402,5
403,5
404,5
405,5
406,5
407,5
408,5
409,5
410,5
411,5
412,5
413,5
414,5
415,5
416,5
417,5
418,5
419,5
420,5
421,5
422,5
423,5
424,5
425,5
426,5
427,5
428,5
429,5
430,5
431,5
432,5
433,5
434,5
435,5
436,5
437,5
438,5
439,5
440,5
441,5
442,5
443,5
444,5
445,5
446,5
447,5
448,5
449,5
450,5
451,5
452,5
453,5
454,5
455,5
456,5
457,5
458,5
459,5
460,5
461,5
462,5
463,5
464,5
465,5
466,5
467,5
468,5
469,5
470,5
471,5
472,5
473,5
474,5
475,5
476,5
477,5
478,5
479,5
480,5
481,5
482,5
483,5
484,5
485,5
486,5
487,5
488,5
489,5
490,5
491,5
492,5
493,5
494,5
495,5
496,5
497,5
498,5
499,5
500,5
501,5
502,5
503,5
504,5
505,5
506,5
507,5
508,5
509,5
510,5
511,5
512,5
513,5
514,5
515,5
516,5
517,5
518,5
519,5
520,5
521,5
522,5
523,5
524,5
525,5
526,5
527,5
528,5
529,5
530,5
531,5
532,5
533,5
534,5
535,5
536,5
537,5
538,5
539,5
540,5
541,5
542,5
543,5
544,5
545,5
546,5
547,6
548,6
549,6
550,6
551,6
552,6
553,6
554,6
555,6
556,6
557,6
558,6
559,6
560,6
561,6
562,6
563,6
564,6
565,6
566,6
567,6
568,6
569,6
570,6
571,6
572,6
573,6
574,6
575,6
576,6
577,6
578,6
579,6
580,6
581,6
582,6
583,6
584,6
585,6
586,6
587,6
588,6
589,6
590,6
591,6
592,6
593,6
594,6
595,6
596,6
597,6
598,6
599,6
600,6
601,6
602,6
603,6
604,6
605,6
606,6
607,6
608,6
609,6
610,6
611,6
612,6
613,6
614,6
615,6
616,6
617,6
618,6
619,6
620,6
621,6
622,6
623,6
624,6
625,6
626,6
627,6
628,6
629,7
630,7
631,7
632,7
633,7
634,7
635,7
636,7
637,7
638,7
639,7
640,7
641,7
642,7
643,7
644,7
645,7
646,7
647,7
648,7
649,7
650,7
651,7
652,7
653,7
654,7
655,7
656,7
657,7
658,7
659,7
660,7
661,7
662,7
663,7
664,7
665,7
666,7
667,7
668,7
669,7
670,7
671,7
672,7
673,7
674,7
675,7
676,7
677,7
678,7
679,7
680,7
681,7
682,7
683,7
684,7
685,8
686,8
687,8
688,8
689,8
690,8
691,8
692,8
693,8
694,8
695,8
696,8
697,8
698,8
699,8
700,8
701,8
702,8
703,8
704,9
705,9
706,9
707,9
708,9
709,9
710,9
711,9
712,9
713,9
714,9
715,9
716,9
717,9
718,9
719,9
720,9
721,9
722,9
723,9
724,9
725,9
726,9
727,9
728,9
729,9
730,9
731,9
732,9
733,9
734,9
735,9
736,9
737,9
738,9
739,9
740,9
741,9
742,9
743,9
744,9
745,9
746,9
747,9
748,9
749,9
750,9
751,9
752,9
753,9
754,9
755,9
756,10
757,10
758,10
759,10
760,9
761,9
762,9
763,9
764,9
765,9
766,9
767,9
768,9
769,9
770,9
771,9
772,9
773,9
774,9
775,9
776,9
777,9
778,9
779,9
780,9
781,9
782,9
783,9
784,9
785,9
786,9
787,9
788,9
789,9
790,9
791,9
792,9
793,9
794,9
795,9
796,10
797,10
798,9
799,9
800,9
801,9
802,9
803,9
804,9
805,9
806,9
807,9
808,9
809,9
810,9
811,9
812,9
813,9
814,9
815,9
816,9
817,9
818,9
819,9
820,9
821,9
822,9
823,9
824,9
825,9
826,9
827,9
828,9
829,9
830,9
831,9
832,9
833,9
834,9
835,9
836,9
837,9
838,9
839,9
840,9
841,9
842,9
843,9
844,9
845,9
846,9
847,9
848,9
849,9
850,9
851,9
852,9
853,9
854,9
855,10
856,9
857,9
858,9
859,9
860,9
861,9
862,9
863,9
864,9
865,9
866,9
867,9
868,9
869,9
870,9
871,9
872,9
873,9
874,9
875,9
876,9
877,9
878,9
879,9
880,9
881,9
882,9
883,9
884,9
885,9
886,9
887,9
888,9
889,9
890,9
891,9
892,9
893,9
894,9
895,9
896,9
897,9
898,9
899,9
900,9
901,9
902,9
903,9
904,9
905,9
906,9
907,9
908,9
909,9
910,9
911,9
912,9
913,9
914,9
915,9
916,9
917,9
918,9
919,9
920,9
921,9
922,9
923,9
924,9
925,9
926,9
927,9
928,9
929,9
930,9
931,9
932,9
933,9
934,9
935,9
936,9
937,9
938,9
939,9
940,9
941,9
942,9
943,9
944,9
945,9
946,9
947,9
948,9
949,9
950,9
951,9
952,9
953,9
954,9
955,9
956,9
957,9
958,9
959,9
960,10
961,10
962,10
963,10
964,10
965,10
966,10
967,10
968,10
969,10
970,10
971,10
972,10
973,10
974,10
975,10
976,10
977,10
978,10
979,10
980,10
981,10
982,11
983,10
984,10
985,10
986,10
987,10
988,10
989,10
990,10
991,10
992,10
993,10
994,10
995,10
996,10
997,10
998,10
999,10
1000,10
1001,10
1002,10
1003,10
1004,10
1005,10
1006,10
1007,10
1008,10
1009,10
1010,10
1011,10
1012,10
1013,10
1014,10
1015,10
1016,10
1017,10
1018,10
1019,10
1020,10
1021,10
1022,10
1023,10
1024,10
1025,10
1026,10
1027,10
1028,10
1029,10
1030,10
1031,10
1032,10
1033,10
1034,10
1035,10
1036,10
1037,10
1038,10
1039,10
1040,10
1041,10
1042,10
1043,10
1044,10
1045,10
1046,10
1047,10
1048,10
1049,10
1050,10
1051,10
1052,10
1053,10
1054,10
1055,10
1056,10
1057,10
1058,10
1059,10
1060,10
1061,10
1062,10
1063,10
1064,10
1065,10
1066,10
1067,10
1068,10
1069,10
1070,10
1071,10
1072,10
1073,10
1074,10
1075,10
1076,10
1077,10
1078,10
1079,10
1080,10
1081,10
1082,10
1083,10
1084,10
1085,10
1086,10
1087,10
1088,10
1089,10
1090,10
1091,10
1092,10
1093,10
1094,10
1095,10
1096,10
1097,10
1098,10
1099,10
1100,11
1101,10
1102,10
1103,10
1104,10
1105,10
1106,10
1107,10
1108,10
1109,10
1110,10
1111,10
1112,10
1113,10
1114,10
1115,10
1116,10
1117,10
1118,10
1119,10
1120,10
1121,10
1122,10
1123,10
1124,10
1125,10
1126,10
1127,10
1128,10
1129,10
1130,10
1131,10
1132,10
1133,10
1134,10
1135,10
1136,10
1137,10
1138,10
1139,10
1140,10
1141,10
1142,10
1143,10
1144,10
1145,10
1146,10
1147,10
1148,11
1149,11
1150,11
1151,10
1152,10
1153,10
1154,10
1155,10
1156,10
1157,10
1158,10
1159,10
1160,10
1161,10
1162,10
1163,10
1164,10
1165,11
1166,11
1167,11
1168,11
1169,10
1170,10
1171,10
1172,10
1173,10
1174,10
1175,10
1176,10
1177,10
1178,10
1179,10
1180,10
1181,10
1182,10
1183,10
1184,10
1185,10
1186,10
1187,10
1188,10
1189,10
1190,10
1191,10
1192,10
1193,10
1194,10
1195,10
1196,10
1197,10
1198,10
1199,10
1200,10
1201,11
1202,11
1203,11
1204,11
1205,11
1206,11
1207,11
1208,11
1209,11
1210,11
1211,11
1212,11
1213,11
1214,11
1215,12
1216,12
1217,12
1218,11
1219,11
1220,11
1221,11
1222,11
1223,11
1224,11
1225,11
1226,11
1227,11
1228,11
1229,11
1230,11
1231,11
1232,11
1233,11
1234,11
1235,11
1236,11
1237,11
1238,11
1239,11
1240,11
1241,11
1242,11
1243,11
1244,11
1245,11
1246,11
1247,11
1248,11
1249,11
1250,11
1251,11
1252,11
1253,11
1254,11
1255,11
1256,11
1257,11
1258,11
1259,11
1260,11
1261,11
1262,11
1263,11
1264,11
1265,11
1266,11
1267,11
1268,11
1269,11
1270,11
1271,11
1272,11
1273,11
1274,11
1275,11
1276,11
1277,11
1278,11
1279,11
1280,11
1281,11
1282,11
1283,11
1284,11
1285,11
1286,11
1287,11
1288,11
1289,11
1290,11
1291,11
1292,11
1293,11
1294,11
1295,11
1296,11
1297,11
1298,11
1299,11
1300,11
1301,11
1302,11
1303,11
1304,11
1305,11
1306,11
1307,11
1308,11
1309,11
1310,11
1311,11
1312,11
1313,11
1314,11
1315,11
1316,11
1317,11
1318,11
1319,11
1320,11
1321,11
1322,11
1323,11
1324,11
1325,12
1326,11
1327,11
1328,11
1329,11
1330,11
1331,11
1332,11
1333,11
1334,11
1335,11
1336,11
1337,11
1338,11
1339,11
1340,12
1341,12
1342,12
1343,12
1344,12
1345,12
1346,12
1347,12
1348,12
1349,12
1350,12
1351,12
1352,11
1353,11
1354,11
1355,11
1356,11
1357,11
1358,11
1359,11
1360,11
1361,11
1362,11
1363,11
1364,11
1365,11
1366,11
1367,11
1368,11
1369,11
1370,11
1371,11
1372,11
1373,11
1374,11
1375,11
1376,11
1377,11
1378,11
1379,11
1380,11
1381,11
1382,11
1383,11
1384,11
1385,11
1386,11
1387,11
1388,11
1389,11
1390,11
1391,11
1392,12
1393,12
1394,12
1395,12
1396,12
1397,12
1398,12
1399,12
1400,12
1401,12
1402,12
1403,12
1404,12
1405,12
1406,12
1407,12
1408,12
1409,12
1410,12
1411,12
1412,12
1413,12
1414,12
1415,12
1416,12
1417,12
1418,12
1419,12
1420,12
1421,12
1422,12
1423,12
1424,12
1425,12
1426,12
1427,12
1428,12
1429,12
1430,12
1431,12
1432,12
1433,12
1434,12
1435,12
1436,12
1437,12
1438,12
1439,12
1440,12
1441,12
1442,12
1443,12
1444,12
1445,12
1446,12
1447,12
1448,12
1449,12
1450,12
1451,12
1452,12
1453,12
1454,12
1455,12
1456,12
1457,12
1458,12
1459,12
1460,12
1461,12
1462,12
1463,12
1464,12
1465,12
1466,12
1467,12
1468,12
1469,12
1470,12
1471,12
1472,12
1473,12
1474,12
1475,12
1476,12
1477,12
1478,12
1479,12
1480,12
1481,12
1482,12
1483,12
1484,12
1485,12
1486,12
1487,12
1488,12
1489,12
1490,12
1491,12
1492,12
1493,12
1494,12
1495,12
1496,12
1497,12
1498,12
1499,12
1500,12
1501,12
1502,12
1503,12
1504,12
1505,12
1506,12
1507,12
1508,12
1509,12
1510,12
1511,12
1512,12
1513,12
1514,12
1515,12
1516,12
1517,12
1518,12
1519,12
1520,12
1521,12
1522,12
1523,12
1524,12
1525,12
1526,12
1527,12
1528,12
1529,12
1530,12
1531,12
1532,12
1533,12
1534,12
1535,12
1536,12
1537,12
1538,12
1539,12
1540,12
1541,12
1542,12
1543,12
1544,12
1545,12
1546,12
1547,12
1548,12
1549,12
1550,12
1551,12
1552,12
1553,12
1554,12
1555,12
1556,12
1557,12
1558,12
1559,13
1560,13
1561,12
1562,12
1563,12
1564,12
1565,12
1566,12
1567,12
1568,12
1569,12
1570,12
1571,12
1572,12
1573,12
1574,12
1575,12
1576,12
1577,12
1578,12
1579,12
1580,12
1581,12
1582,12
1583,12
1584,12
1585,12
1586,12
1587,12
1588,12
1589,12
1590,12
1591,12
1592,12
1593,12
1594,12
1595,12
1596,12
1597,12
1598,12
1599,12
1600,12
1601,12
1602,12
1603,12
1604,12
1605,13
1606,13
1607,13
1608,12
1609,12
1610,12
1611,12
1612,12
1613,12
1614,12
1615,12
1616,12
1617,12
1618,12
1619,12
1620,12
1621,12
1622,12
1623,12
1624,12
1625,12
1626,12
1627,12
1628,12
1629,12
1630,12
1631,12
1632,12
1633,12
1634,12
1635,12
1636,12
1637,12
1638,12
1639,12
1640,12
1641,12
1642,12
1643,12
1644,12
1645,12
1646,12
1647,12
1648,12
1649,12
1650,12
1651,12
1652,12
1653,13
1654,13
1655,13
1656,12
1657,12
1658,12
1659,12
1660,12
1661,12
1662,12
1663,12
1664,12
1665,12
1666,12
1667,12
1668,12
1669,12
1670,12
1671,12
1672,12
1673,12
1674,12
1675,12
1676,12
1677,12
1678,12
1679,12
1680,12
1681,12
1682,12
1683,12
1684,12
1685,12
1686,12
1687,12
1688,12
1689,12
1690,12
1691,12
1692,12
1693,12
1694,12
1695,12
1696,12
1697,12
1698,12
1699,12
1700,12
1701,12
1702,12
1703,12
1704,12
1705,12
1706,12
1707,12
1708,13
1709,12
1710,12
1711,12
1712,12
1713,13
1714,13
1715,13
1716,13
1717,13
1718,13
1719,13
1720,13
1721,12
1722,12
1723,12
1724,12
1725,12
1726,12
1727,12
1728,12
1729,12
1730,12
1731,12
1732,12
1733,12
1734,12
1735,12
1736,12
1737,12
1738,12
1739,12
1740,13
1741,13
1742,13
1743,13
1744,13
1745,13
1746,13
1747,13
1748,13
1749,13
1750,13
1751,13
1752,13
1753,13
1754,13
1755,13
1756,13
1757,13
1758,13
1759,13
1760,13
1761,13
1762,13
1763,13
1764,13
1765,13
1766,13
1767,13
1768,13
1769,13
1770,13
1771,13
1772,13
1773,13
1774,13
1775,13
1776,13
1777,13
1778,13
1779,13
1780,13
1781,13
1782,13
1783,13
1784,13
1785,13
1786,13
1787,13
1788,13
1789,13
1790,13
1791,13
1792,13
1793,13
1794,13
1795,13
1796,13
1797,13
1798,13
1799,13
1800,13
1801,13
1802,13
1803,13
1804,13
1805,13
1806,14
1807,14
1808,13
1809,13
1810,13
1811,13
1812,13
1813,13
1814,13
1815,13
1816,13
1817,13
1818,13
1819,13
1820,13
1821,13
1822,13
1823,13
1824,13
1825,13
1826,13
1827,13
1828,13
1829,13
1830,13
1831,13
1832,13
1833,13
1834,13
1835,13
1836,13
1837,13
1838,13
1839,13
1840,13
1841,13
1842,13
1843,13
1844,13
1845,13
1846,13
1847,13
1848,13
1849,13
1850,14
1851,14
1852,13
1853,13
1854,13
1855,13
1856,13
1857,13
1858,13
1859,13
1860,13
1861,13
1862,13
1863,13
1864,13
1865,13
1866,13
1867,13
1868,13
1869,13
1870,13
1871,13
1872,13
1873,13
1874,13
1875,13
1876,13
1877,13
1878,13
1879,13
1880,13
1881,13
1882,13
1883,13
1884,13
1885,13
1886,13
1887,13
1888,13
1889,13
1890,13
1891,13
1892,13
1893,13
1894,13
1895,13
1896,13
1897,13
1898,13
1899,13
1900,13
1901,13
1902,13
1903,13
1904,13
1905,13
1906,13
1907,13
1908,13
1909,13
1910,13
1911,13
1912,13
1913,13
1914,13
1915,13
1916,13
1917,13
1918,13
1919,13
1920,13
1921,13
1922,13
1923,13
1924,13
1925,13
1926,13
1927,13
1928,13
1929,13
1930,13
1931,13
1932,13
1933,13
1934,13
1935,13
1936,13
1937,13
1938,13
1939,13
1940,13
1941,13
1942,13
1943,13
1944,13
1945,13
1946,13
1947,13
1948,13
1949,13
1950,13
1951,13
1952,13
1953,13
1954,13
1955,13
1956,13
1957,13
1958,13
1959,13
1960,13
1961,13
1962,13
1963,13
1964,13
1965,13
1966,13
1967,13
1968,13
1969,13
1970,13
1971,13
1972,13
1973,13
1974,13
1975,13
1976,13
1977,13
1978,13
1979,13
1980,13
1981,13
1982,13
1983,13
1984,13
1985,13
1986,13
1987,13
1988,13
1989,13
1990,13
1991,13
1992,13
1993,13
1994,13
1995,13
1996,13
1997,13
1998,13
1999,13
2000,13
2001,13
2002,13
2003,13
2004,13
2005,13
2006,13
2007,13
2008,13
2009,13
2010,13
2011,13
2012,13
2013,13
2014,13
2015,13
2016,13
2017,13
2018,13
2019,13
2020,13
2021,13
2022,13
2023,13
2024,13
2025,13
2026,13
2027,13
2028,13
2029,13
2030,13
2031,13
2032,13
2033,13
2034,13
2035,13
2036,13
2037,13
2038,13
2039,13
2040,13
2041,13
2042,13
2043,13
2044,13
2045,13
2046,13
2047,13
2048,13
2049,13
2050,13
2051,13
2052,13
2053,13
2054,13
2055,13
2056,13
2057,13
2058,13
2059,13
2060,13
2061,13
2062,13
2063,13
2064,13
2065,13
2066,13
2067,13
2068,13
2069,13
2070,13
2071,13
2072,13
2073,13
2074,13
2075,13
2076,13
2077,13
2078,13
2079,13
2080,13
2081,13
2082,13
2083,13
2084,13
2085,13
2086,13
2087,13
2088,13
2089,13
2090,13
2091,13
2092,13
2093,13
2094,13
2095,13
2096,13
2097,13
2098,14
2099,13
2100,13
2101,13
2102,13
2103,13
2104,13
2105,13
2106,13
2107,13
2108,13
2109,13
2110,13
2111,13
2112,13
2113,13
2114,13
2115,13
2116,14
2117,14
2118,14
2119,14
2120,14
2121,14
2122,14
2123,14
2124,14
2125,14
2126,14
2127,14
2128,14
2129,14
2130,14
2131,14
2132,13
2133,13
2134,13
2135,13
2136,13
2137,13
2138,13
2139,13
2140,13
2141,13
2142,13
2143,13
2144,13
2145,13
2146,13
2147,13
2148,13
2149,13
2150,13
2151,13
2152,13
2153,13
2154,13
2155,13
2156,13
2157,13
2158,13
2159,13
2160,13
2161,13
2162,13
2163,13
2164,13
2165,13
2166,13
2167,13
2168,13
2169,13
2170,13
2171,13
2172,13
2173,13
2174,13
2175,13
2176,13
2177,13
2178,13
2179,13
2180,13
2181,13
2182,13
2183,13
2184,13
2185,13
2186,13
2187,13
2188,13
2189,13
2190,13
2191,13
2192,13
2193,13
2194,13
2195,13
2196,13
2197,13
2198,13
2199,13
2200,13
2201,13
2202,13
2203,13
2204,13
2205,13
2206,13
2207,13
2208,13
2209,13
2210,13
2211,13
2212,13
2213,13
2214,13
2215,13
2216,13
2217,13
2218,13
2219,13
2220,13
2221,13
2222,13
2223,13
2224,13
2225,13
2226,13
2227,13
2228,13
2229,13
2230,13
2231,13
2232,13
2233,13
2234,13
2235,13
2236,13
2237,13
2238,13
2239,13
2240,13
2241,13
2242,13
2243,13
2244,13
2245,13
2246,13
2247,13
2248,14
2249,13
2250,13
2251,13
2252,13
2253,13
2254,13
2255,13
2256,13
2257,13
2258,13
2259,13
2260,13
2261,13
2262,13
2263,13
2264,13
2265,13
2266,13
2267,13
2268,13
2269,13
2270,13
2271,13
2272,13
2273,13
2274,13
2275,13
2276,13
2277,13
2278,13
2279,13
2280,13
2281,13
2282,13
2283,13
2284,13
2285,13
2286,13
2287,13
2288,13
2289,13
2290,13
2291,13
2292,13
2293,13
2294,13
2295,13
2296,13
2297,13
2298,13
2299,13
2300,13
2301,13
2302,13
2303,13
2304,13
2305,13
2306,13
2307,13
2308,13
2309,13
2310,13
2311,13
2312,13
2313,13
2314,13
2315,13
2316,13
2317,13
2318,13
2319,13
2320,13
2321,13
2322,13
2323,13
2324,13
2325,13
2326,13
2327,13
2328,13
2329,13
2330,13
2331,13
2332,13
2333,13
2334,13
2335,13
2336,13
2337,13
2338,13
2339,13
2340,13
2341,13
2342,13
2343,13
2344,13
2345,13
2346,13
2347,13
2348,13
2349,13
2350,13
2351,13
2352,13
2353,13
2354,13
2355,13
2356,13
2357,13
2358,13
2359,13
2360,13
2361,13
2362,13
2363,13
2364,13
2365,13
2366,13
2367,13
2368,13
2369,13
2370,13
2371,13
2372,13
2373,13
2374,13
2375,13
2376,13
2377,13
2378,13
2379,13
2380,13
2381,13
2382,13
2383,13
2384,13
2385,13
2386,13
2387,13
2388,13
2389,13
2390,13
2391,13
2392,13
2393,13
2394,13
2395,13
2396,13
2397,13
2398,13
2399,13
2400,13
2401,13
2402,13
2403,13
2404,13
2405,13
2406,13
2407,13
2408,13
2409,13
2410,13
2411,13
2412,13
2413,13
2414,13
2415,13
2416,13
2417,13
2418,13
2419,13
2420,13
2421,13
2422,13
2423,13
2424,13
2425,13
2426,13
2427,13
2428,14
2429,14
2430,14
2431,14
2432,14
2433,14
2434,14
2435,14
2436,14
2437,14
2438,14
2439,13
2440,13
2441,13
2442,14
2443,13
2444,13
2445,13
2446,13
2447,13
2448,13
2449,13
2450,14
2451,13
2452,13
2453,13
2454,13
2455,13
2456,13
2457,13
2458,13
2459,13
2460,13
2461,13
2462,13
2463,13
2464,13
2465,13
2466,13
2467,13
2468,13
2469,13
2470,13
2471,13
2472,13
2473,13
2474,13
2475,13
2476,13
2477,13
2478,13
2479,13
2480,13
2481,13
2482,13
2483,13
2484,13
2485,13
2486,13
2487,13
2488,13
2489,13
2490,13
2491,13
2492,13
2493,13
2494,13
2495,13
2496,13
2497,13
2498,13
2499,13
2500,13
2501,13
2502,13
2503,13
2504,13
2505,13
2506,13
2507,13
2508,13
2509,13
2510,13
2511,13
2512,13
2513,13
2514,13
2515,13
2516,13
2517,13
2518,13
2519,13
2520,13
2521,13
2522,13
2523,13
2524,13
2525,13
2526,13
2527,13
2528,13
2529,13
2530,13
2531,13
2532,13
2533,13
2534,13
2535,13
2536,13
2537,13
2538,13
2539,13
2540,13
2541,13
2542,13
2543,13
2544,13
2545,13
2546,13
2547,13
2548,13
2549,13
2550,13
2551,13
2552,13
2553,13
2554,14
2555,13
2556,13
2557,13
2558,13
2559,13
2560,13
2561,13
2562,13
2563,13
2564,13
2565,13
2566,13
2567,13
2568,13
2569,13
2570,13
2571,13
2572,13
2573,13
2574,13
2575,13
2576,13
2577,13
2578,13
2579,13
2580,13
2581,13
2582,13
2583,13
2584,13
2585,14
2586,13
2587,13
2588,13
2589,13
2590,13
2591,13
2592,13
2593,13
2594,13
2595,13
2596,13
2597,13
2598,13
2599,13
2600,13
2601,14
2602,14
2603,14
2604,13
2605,13
2606,13
2607,13
2608,13
2609,13
2610,13
2611,13
2612,13
2613,13
2614,13
2615,13
2616,13
2617,13
2618,13
2619,13
2620,13
2621,13
2622,13
2623,13
2624,13
2625,13
2626,13
2627,13
2628,13
2629,13
2630,13
2631,13
2632,13
2633,13
2634,13
2635,13
2636,13
2637,13
2638,13
2639,13
2640,13
2641,13
2642,13
2643,13
2644,13
2645,13
2646,13
2647,13
2648,13
2649,13
2650,13
2651,13
2652,13
2653,13
2654,13
2655,13
2656,13
2657,13
2658,13
2659,13
2660,13
2661,13
2662,13
2663,13
2664,13
2665,13
2666,13
2667,13
2668,13
2669,13
2670,13
2671,13
2672,13
2673,13
2674,13
2675,13
2676,13
2677,13
2678,13
2679,13
2680,13
2681,13
2682,13
2683,13
2684,13
2685,13
2686,13
2687,13
2688,13
2689,13
2690,13
2691,13
2692,13
2693,13
2694,13
2695,13
2696,13
2697,13
2698,13
2699,13
2700,13
2701,13
2702,13
2703,13
2704,13
2705,13
2706,13
2707,13
2708,13
2709,13
2710,13
2711,13
2712,13
2713,13
2714,13
2715,13
2716,13
2717,13
2718,13
2719,13
2720,13
2721,13
2722,13
2723,13
2724,13
2725,13
2726,13
2727,13
2728,13
2729,13
2730,13
2731,13
2732,13
2733,13
2734,13
2735,13
2736,13
2737,13
2738,13
2739,13
2740,13
2741,13
2742,13
2743,13
2744,13
2745,13
2746,13
2747,13
2748,13
2749,13
2750,13
2751,13
2752,13
2753,13
2754,13
2755,13
2756,13
2757,13
2758,13
2759,13
2760,13
2761,13
2762,13
2763,13
2764,13
2765,13
2766,13
2767,13
2768,13
2769,13
2770,13
2771,13
2772,13
2773,13
2774,13
2775,13
2776,13
2777,13
2778,13
2779,13
2780,13
2781,13
2782,13
2783,13
2784,13
2785,13
2786,13
2787,13
2788,13
2789,13
2790,13
2791,13
2792,13
2793,13
2794,13
2795,13
2796,13
2797,13
2798,13
2799,13
2800,13
2801,13
2802,13
2803,13
2804,13
2805,13
2806,13
2807,13
2808,13
2809,13
2810,13
2811,13
2812,13
2813,13
2814,13
2815,13
2816,13
2817,13
2818,14
2819,13
2820,13
2821,13
2822,13
2823,13
2824,13
2825,13
2826,13
2827,13
2828,13
2829,13
2830,13
2831,13
2832,13
2833,13
2834,13
2835,13
2836,13
2837,13
2838,13
2839,13
2840,13
2841,13
2842,13
2843,13
2844,13
2845,13
2846,13
2847,13
2848,13
2849,13
2850,13
2851,13
2852,13
2853,13
2854,13
2855,13
2856,13
2857,13
2858,13
2859,13
2860,13
2861,13
2862,13
2863,13
2864,13
2865,13
2866,13
2867,13
2868,13
2869,13
2870,13
2871,13
2872,13
2873,13
2874,13
2875,13
2876,13
2877,13
2878,13
2879,13
2880,13
2881,13
2882,13
2883,13
2884,13
2885,13
2886,13
2887,13
2888,13
2889,13
2890,13
2891,13
2892,13
2893,13
2894,13
2895,13
2896,13
2897,13
2898,13
2899,13
2900,13
2901,13
2902,13
2903,13
2904,13
2905,13
2906,13
2907,13
2908,13
2909,13
2910,13
2911,13
2912,13
2913,13
2914,13
2915,13
2916,13
2917,13
2918,13
2919,13
2920,13
2921,13
2922,13
2923,13
2924,13
2925,13
2926,13
2927,13
2928,13
2929,13
2930,13
2931,13
2932,13
2933,13
2934,13
2935,13
2936,13
2937,13
2938,13
2939,13
2940,13
2941,13
2942,13
2943,13
2944,13
2945,13
2946,13
2947,13
2948,13
2949,13
2950,13
2951,13
2952,13
2953,13
2954,13
2955,13
2956,13
2957,13
2958,13
2959,13
2960,13
2961,13
2962,13
2963,13
2964,13
2965,13
2966,13
2967,13
2968,13
2969,13
2970,13
2971,13
2972,13
2973,13
2974,13
2975,13
2976,13
2977,13
2978,13
2979,13
2980,13
2981,13
2982,13
2983,13
2984,13
2985,13
2986,13
2987,13
2988,13
2989,13
2990,13
2991,13
2992,13
2993,13
2994,13
2995,13
2996,13
2997,13
2998,13
2999,13
3000,13
3001,13
3002,13
3003,13
3004,13
3005,13
3006,13
3007,13
3008,13
3009,13
3010,13
3011,13
3012,13
3013,13
3014,13
3015,13
3016,13
3017,13
3018,13
3019,13
3020,13
3021,14
3022,14
3023,14
3024,13
3025,13
3026,13
3027,13
3028,13
3029,13
3030,13
3031,13
3032,13
3033,13
3034,13
3035,13
3036,13
3037,13
3038,13
3039,13
3040,13
3041,13
3042,13
3043,13
3044,13
3045,13
3046,13
3047,13
3048,13
3049,13
3050,13
3051,13
3052,13
3053,13
3054,13
3055,13
3056,13
3057,13
3058,13
3059,13
3060,13
3061,13
3062,13
3063,13
3064,13
3065,13
3066,13
3067,13
3068,13
3069,13
3070,13
3071,13
3072,13
3073,13
3074,13
3075,13
3076,13
3077,13
3078,13
3079,13
3080,13
3081,13
3082,13
3083,13
3084,13
3085,13
3086,13
3087,13
3088,13
3089,13
3090,13
3091,13
3092,13
3093,13
3094,13
3095,13
3096,13
3097,13
3098,13
3099,13
3100,13
3101,13
3102,13
3103,13
3104,13
3105,13
3106,13
3107,13
3108,13
3109,13
3110,13
3111,13
3112,13
3113,13
3114,13
3115,13
3116,13
3117,13
3118,13
3119,14
3120,13
3121,13
3122,13
3123,13
3124,13
3125,13
3126,13
3127,13
3128,13
3129,13
3130,13
3131,13
3132,13
3133,13
3134,13
3135,13
3136,13
3137,13
3138,13
3139,13
3140,13
3141,13
3142,13
3143,13
3144,13
3145,13
3146,13
3147,13
3148,13
3149,13
3150,13
3151,13
3152,13
3153,13
3154,13
3155,13
3156,13
3157,13
3158,13
3159,13
3160,13
3161,13
3162,13
3163,13
3164,14
3165,14
3166,14
3167,14
3168,14
3169,14
3170,14
3171,14
3172,14
3173,14
3174,14
3175,14
3176,14
3177,14
3178,14
3179,14
3180,14
3181,14
3182,14
3183,14
3184,14
3185,14
3186,14
3187,14
3188,14
3189,14
3190,14
3191,14
3192,13
3193,13
3194,13
3195,13
3196,13
3197,13
3198,13
3199,13
3200,13
3201,13
3202,13
3203,13
3204,13
3205,13
3206,13
3207,13
3208,13
3209,13
3210,13
3211,13
3212,13
3213,13
3214,13
3215,13
3216,13
3217,13
3218,14
3219,14
3220,13
3221,13
3222,13
3223,13
3224,13
3225,13
3226,13
3227,13
3228,13
3229,13
3230,13
3231,13
3232,13
3233,13
3234,13
3235,13
3236,13
3237,13
3238,13
3239,13
3240,13
3241,13
3242,13
3243,13
3244,13
3245,13
3246,13
3247,13
3248,13
3249,13
3250,13
3251,13
3252,13
3253,13
3254,13
3255,13
3256,13
3257,13
3258,13
3259,13
3260,13
3261,13
3262,13
3263,13
3264,13
3265,13
3266,13
3267,13
3268,13
3269,13
3270,13
3271,13
3272,13
3273,13
3274,13
3275,13
3276,13
3277,13
3278,13
3279,13
3280,13
3281,13
3282,13
3283,13
3284,13
3285,13
3286,13
3287,13
3288,13
3289,13
3290,13
3291,13
3292,13
3293,13
3294,13
3295,13
3296,13
3297,13
3298,13
3299,13
3300,13
3301,13
3302,13
3303,13
3304,13
3305,14
3306,13
3307,13
3308,13
3309,13
3310,13
3311,13
3312,13
3313,13
3314,13
3315,13
3316,13
3317,14
3318,13
3319,13
3320,13
3321,13
3322,13
3323,13
3324,13
3325,13
3326,13
3327,13
3328,13
3329,13
3330,13
3331,13
3332,13
3333,13
3334,13
3335,13
3336,13
3337,13
3338,13
3339,13
3340,13
3341,13
3342,13
3343,13
3344,13
3345,13
3346,13
3347,13
3348,13
3349,13
3350,13
3351,13
3352,13
3353,13
3354,13
3355,13
3356,13
3357,13
3358,13
3359,13
3360,13
3361,13
3362,13
3363,13
3364,13
3365,13
3366,13
3367,13
3368,13
3369,13
3370,13
3371,13
3372,13
3373,13
3374,13
3375,13
3376,13
3377,13
3378,13
3379,13
3380,13
3381,13
3382,13
3383,13
3384,13
3385,13
3386,13
3387,13
3388,13
3389,13
3390,13
3391,13
3392,13
3393,14
3394,14
3395,14
3396,14
3397,14
3398,14
3399,14
3400,14
3401,14
3402,14
3403,14
3404,14
3405,14
3406,14
3407,14
3408,14
3409,14
3410,14
3411,14
3412,14
3413,14
3414,14
3415,14
3416,14
3417,14
3418,14
3419,14
3420,14
3421,14
3422,14
3423,14
3424,14
3425,14
3426,14
3427,14
3428,14
3429,14
3430,14
3431,14
3432,14
3433,14
3434,14
3435,14
3436,14
3437,14
3438,14
3439,14
3440,14
3441,14
3442,14
3443,14
3444,14
3445,14
3446,14
3447,14
3448,14
3449,14
3450,14
3451,14
3452,14
3453,14
3454,14
3455,14
3456,14
3457,14
3458,14
3459,14
3460,14
3461,14
3462,14
3463,14
3464,14
3465,14
3466,14
3467,14
3468,14
3469,14
3470,14
3471,14
3472,14
3473,14
3474,14
3475,14
3476,14
3477,14
3478,14
3479,14
3480,14
3481,14
3482,14
3483,14
3484,14
3485,14
3486,14
3487,14
3488,14
3489,14
3490,14
3491,14
3492,14
3493,14
3494,14
3495,14
3496,14
3497,14
3498,14
3499,14
3500,14
3501,14
3502,14
3503,14
3504,14
3505,14
3506,15
3507,15
3508,14
3509,14
3510,14
3511,14
3512,14
3513,15
3514,14
3515,14
3516,14
3517,14
3518,14
3519,14
3520,14
3521,14
3522,14
3523,14
3524,14
3525,14
3526,14
3527,14
3528,14
3529,14
3530,14
3531,14
3532,14
3533,14
3534,14
3535,14
3536,14
3537,14
3538,14
3539,14
3540,14
3541,14
3542,14
3543,14
3544,14
3545,14
3546,14
3547,14
3548,14
3549,14
3550,14
3551,14
3552,14
3553,14
3554,14
3555,14
3556,14
3557,14
3558,14
3559,14
3560,14
3561,14
3562,14
3563,14
3564,14
3565,14
3566,14
3567,14
3568,14
3569,14
3570,14
3571,14
3572,14
3573,14
3574,14
3575,14
3576,14
3577,14
3578,14
3579,14
3580,14
3581,14
3582,14
3583,14
3584,14
3585,14
3586,14
3587,14
3588,14
3589,14
3590,14
3591,14
3592,14
3593,14
3594,14
3595,14
3596,14
3597,14
3598,14
3599,14
3600,14
3601,14
3602,14
3603,14
3604,14
3605,14
3606,14
3607,14
3608,14
3609,14
3610,14
3611,14
3612,14
3613,14
3614,14
3615,14
3616,14
3617,14
3618,14
3619,14
3620,14
3621,14
3622,14
3623,14
3624,15
3625,15
3626,15
3627,15
3628,14
3629,14
3630,14
3631,14
3632,14
3633,14
3634,14
3635,14
3636,14
3637,14
3638,14
3639,14
3640,14
3641,14
3642,14
3643,14
3644,14
3645,14
3646,14
3647,14
3648,14
3649,14
3650,14
3651,14
3652,14
3653,14
3654,14
3655,14
3656,14
3657,14
3658,14
3659,14
3660,14
3661,14
3662,14
3663,14
3664,14
3665,14
3666,14
3667,14
3668,14
3669,14
3670,14
3671,14
3672,14
3673,14
3674,14
3675,14
3676,14
3677,14
3678,14
3679,14
3680,14
3681,14
3682,14
3683,14
3684,14
3685,14
3686,14
3687,14
3688,14
3689,14
3690,14
3691,14
3692,14
3693,14
3694,14
3695,14
3696,14
3697,14
3698,14
3699,14
3700,14
3701,14
3702,15
3703,15
3704,14
3705,14
3706,14
3707,14
3708,14
3709,14
3710,14
3711,14
3712,14
3713,14
3714,14
3715,14
3716,14
3717,14
3718,14
3719,14
3720,14
3721,14
3722,14
3723,14
3724,14
3725,14
3726,14
3727,14
3728,14
3729,14
3730,14
3731,14
3732,14
3733,14
3734,14
3735,14
3736,14
3737,14
3738,14
3739,14
3740,14
3741,14
3742,14
3743,14
3744,14
3745,14
3746,14
3747,14
3748,14
3749,14
3750,14
3751,14
3752,14
3753,14
3754,14
3755,14
3756,14
3757,14
3758,14
3759,14
3760,14
3761,14
3762,14
3763,14
3764,14
3765,14
3766,14
3767,14
3768,14
3769,14
3770,14
3771,14
3772,14
3773,15
3774,14
3775,14
3776,14
3777,14
3778,14
3779,14
3780,14
3781,14
3782,14
3783,14
3784,14
3785,14
3786,14
3787,14
3788,14
3789,14
3790,14
3791,14
3792,14
3793,14
3794,14
3795,14
3796,14
3797,14
3798,14
3799,14
3800,14
3801,14
3802,14
3803,14
3804,14
3805,14
3806,14
3807,14
3808,14
3809,14
3810,14
3811,14
3812,14
3813,14
3814,14
3815,14
3816,14
3817,14
3818,14
3819,14
3820,14
3821,14
3822,14
3823,14
3824,14
3825,14
3826,14
3827,14
3828,14
3829,14
3830,14
3831,14
3832,14
3833,14
3834,14
3835,14
3836,14
3837,14
3838,14
3839,14
3840,14
3841,14
3842,14
3843,14
3844,14
3845,14
3846,14
3847,14
3848,14
3849,14
3850,14
3851,14
3852,14
3853,14
3854,14
3855,14
3856,14
3857,14
3858,14
3859,14
3860,14
3861,14
3862,14
3863,14
3864,14
3865,14
3866,14
3867,14
3868,14
3869,14
3870,14
3871,14
3872,14
3873,14
3874,14
3875,14
3876,14
3877,14
3878,14
3879,14
3880,14
3881,14
3882,14
3883,14
3884,15
3885,14
3886,14
3887,14
3888,14
3889,14
3890,14
3891,14
3892,14
3893,14
3894,14
3895,14
3896,14
3897,14
3898,14
3899,14
3900,14
3901,14
3902,14
3903,14
3904,14
3905,14
3906,14
3907,14
3908,14
3909,14
3910,14
3911,14
3912,14
3913,14
3914,14
3915,14
3916,14
3917,14
3918,14
3919,14
3920,14
3921,14
3922,14
3923,14
3924,14
3925,14
3926,14
3927,14
3928,14
3929,14
3930,15
3931,15
3932,15
3933,15
3934,15
3935,15
3936,15
3937,15
3938,15
3939,15
3940,15
3941,15
3942,15
3943,15
3944,15
3945,15
3946,14
3947,14
3948,14
3949,14
3950,14
3951,14
3952,14
3953,14
3954,14
3955,14
3956,14
3957,14
3958,14
3959,14
3960,14
3961,14
3962,14
3963,14
3964,14
3965,14
3966,14
3967,14
3968,14
3969,14
3970,14
3971,14
3972,14
3973,14
3974,14
3975,14
3976,14
3977,14
3978,14
3979,14
3980,14
3981,14
3982,14
3983,14
3984,14
3985,14
3986,14
3987,14
3988,14
3989,14
3990,14
3991,14
3992,14
3993,14
3994,14
3995,14
3996,14
3997,14
3998,14
3999,14
4000,14
4001,14
4002,14
4003,14
4004,14
4005,14
4006,14
4007,14
4008,14
4009,14
4010,14
4011,14
4012,14
4013,14
4014,14
4015,14
4016,14
4017,14
4018,14
4019,14
4020,14
4021,14
4022,14
4023,14
4024,14
4025,14
4026,14
4027,14
4028,14
4029,14
4030,14
4031,14
4032,14
4033,14
4034,14
4035,14
4036,14
4037,14
4038,14
4039,14
4040,14
4041,14
4042,14
4043,14
4044,14
4045,14
4046,14
4047,14
4048,14
4049,14
4050,14
4051,14
4052,14
4053,14
4054,14
4055,14
4056,14
4057,14
4058,14
4059,14
4060,14
4061,14
4062,14
4063,14
4064,14
4065,14
4066,14
4067,14
4068,14
4069,14
4070,14
4071,14
4072,14
4073,14
4074,14
4075,14
4076,14
4077,14
4078,14
4079,14
4080,14
4081,14
4082,14
4083,14
4084,14
4085,14
4086,14
4087,14
4088,14
4089,14
4090,14
4091,14
4092,14
4093,14
4094,14
4095,14
4096,14
4097,15
4098,15
4099,14
4100,14
4101,14
4102,14
4103,14
4104,14
4105,14
4106,14
4107,14
4108,14
4109,14
4110,14
4111,14
4112,14
4113,14
4114,14
4115,14
4116,14
4117,14
4118,14
4119,14
4120,14
4121,14
4122,14
4123,14
4124,14
4125,14
4126,14
4127,14
4128,14
4129,14
4130,14
4131,14
4132,14
4133,14
4134,14
4135,14
4136,14
4137,14
4138,14
4139,14
4140,14
4141,14
4142,14
4143,14
4144,14
4145,14
4146,14
4147,14
4148,14
4149,14
4150,14
4151,14
4152,14
4153,14
4154,14
4155,14
4156,14
4157,14
4158,14
4159,14
4160,14
4161,14
4162,14
4163,14
4164,14
4165,14
4166,14
4167,14
4168,14
4169,14
4170,14
4171,14
4172,14
4173,14
4174,14
4175,14
4176,14
4177,14
4178,14
4179,14
4180,14
4181,14
4182,14
4183,14
4184,14
4185,14
4186,14
4187,14
4188,14
4189,14
4190,14
4191,14
4192,14
4193,14
4194,14
4195,14
4196,14
4197,14
4198,14
4199,14
4200,14
4201,14
4202,14
4203,14
4204,14
4205,14
4206,14
4207,14
4208,14
4209,14
4210,14
4211,14
4212,14
4213,14
4214,14
4215,14
4216,14
4217,14
4218,14
4219,14
4220,14
4221,14
4222,14
4223,14
4224,14
4225,14
4226,14
4227,14
4228,14
4229,14
4230,14
4231,14
4232,14
4233,14
4234,14
4235,14
4236,14
4237,14
4238,14
4239,14
4240,14
4241,14
4242,14
4243,14
4244,14
4245,14
4246,14
4247,14
4248,14
4249,14
4250,14
4251,14
4252,14
4253,14
4254,14
4255,14
4256,14
4257,14
4258,14
4259,14
4260,14
4261,14
4262,14
4263,14
4264,14
4265,14
4266,14
4267,14
4268,14
4269,14
4270,14
4271,14
4272,14
4273,14
4274,14
4275,14
4276,14
4277,14
4278,14
4279,14
4280,14
4281,14
4282,14
4283,14
4284,14
4285,14
4286,14
4287,14
4288,14
4289,14
4290,14
4291,14
4292,14
4293,14
4294,14
4295,14
4296,14
4297,14
4298,14
4299,14
4300,14
4301,14
4302,14
4303,14
4304,14
4305,14
4306,14
4307,14
4308,14
4309,14
4310,14
4311,14
4312,14
4313,14
4314,14
4315,14
4316,14
4317,14
4318,14
4319,14
4320,14
4321,14
4322,14
4323,14
4324,14
4325,14
4326,14
4327,14
4328,14
4329,14
4330,14
4331,14
4332,14
4333,14
4334,14
4335,14
4336,14
4337,14
4338,14
4339,14
4340,14
4341,14
4342,14
4343,14
4344,14
4345,14
4346,14
4347,14
4348,14
4349,14
4350,14
4351,14
4352,14
4353,14
4354,14
4355,14
4356,14
4357,14
4358,14
4359,14
4360,14
4361,14
4362,14
4363,14
4364,14
4365,14
4366,14
4367,14
4368,14
4369,14
4370,14
4371,14
4372,14
4373,14
4374,14
4375,14
4376,14
4377,14
4378,14
4379,14
4380,14
4381,14
4382,14
4383,14
4384,14
4385,14
4386,14
4387,14
4388,14
4389,14
4390,14
4391,14
4392,14
4393,14
4394,14
4395,14
4396,14
4397,14
4398,14
4399,14
4400,14
4401,14
4402,14
4403,14
4404,14
4405,14
4406,14
4407,14
4408,14
4409,14
4410,14
4411,14
4412,14
4413,14
4414,14
4415,14
4416,14
4417,14
4418,14
4419,14
4420,14
4421,14
4422,14
4423,14
4424,14
4425,14
4426,14
4427,14
4428,14
4429,14
4430,14
4431,14
4432,14
4433,14
4434,14
4435,14
4436,14
4437,14
4438,14
4439,14
4440,14
4441,14
4442,14
4443,14
4444,14
4445,14
4446,14
4447,14
4448,14
4449,14
4450,14
4451,14
4452,14
4453,14
4454,14
4455,14
4456,14
4457,14
4458,14
4459,14
4460,14
4461,14
4462,14
4463,14
4464,14
4465,14
4466,14
4467,14
4468,15
4469,14
4470,14
4471,14
4472,14
4473,14
4474,14
4475,14
4476,14
4477,14
4478,14
4479,14
4480,14
4481,14
4482,14
4483,14
4484,14
4485,14
4486,14
4487,14
4488,14
4489,14
4490,14
4491,14
4492,14
4493,14
4494,14
4495,14
4496,14
4497,14
4498,14
4499,14
4500,14
4501,14
4502,14
4503,14
4504,14
4505,14
4506,14
4507,14
4508,14
4509,14
4510,14
4511,14
4512,14
4513,14
4514,14
4515,14
4516,14
4517,14
4518,14
4519,14
4520,14
4521,14
4522,14
4523,14
4524,14
4525,14
4526,14
4527,14
4528,14
4529,14
4530,14
4531,14
4532,14
4533,14
4534,14
4535,14
4536,14
4537,14
4538,14
4539,14
4540,14
4541,14
4542,14
4543,14
4544,14
4545,14
4546,14
4547,14
4548,14
4549,14
4550,14
4551,14
4552,14
4553,14
4554,14
4555,14
4556,14
4557,14
4558,14
4559,14
4560,14
4561,14
4562,14
4563,14
4564,14
4565,14
4566,14
4567,14
4568,14
4569,14
4570,14
4571,14
4572,14
4573,14
4574,14
4575,14
4576,14
4577,14
4578,14
4579,14
4580,14
4581,14
4582,14
4583,14
4584,14
4585,14
4586,14
4587,14
4588,14
4589,14
4590,14
4591,14
4592,14
4593,14
4594,14
4595,14
4596,14
4597,14
4598,14
4599,14
4600,14
4601,14
4602,14
4603,14
4604,14
4605,14
4606,14
4607,14
4608,14
4609,14
4610,14
4611,14
4612,14
4613,14
4614,14
4615,14
4616,14
4617,14
4618,14
4619,14
4620,14
4621,14
4622,14
4623,15
4624,14
4625,14
4626,14
4627,14
4628,15
4629,14
4630,14
4631,14
4632,14
4633,14
4634,14
4635,14
4636,14
4637,14
4638,14
4639,14
4640,14
4641,14
4642,14
4643,14
4644,14
4645,14
4646,14
4647,14
4648,14
4649,14
4650,14
4651,14
4652,14
4653,14
4654,14
4655,14
4656,14
4657,14
4658,14
4659,14
4660,14
4661,14
4662,14
4663,14
4664,14
4665,14
4666,14
4667,14
4668,14
4669,14
4670,14
4671,14
4672,14
4673,14
4674,14
4675,14
4676,14
4677,14
4678,14
4679,14
4680,14
4681,14
4682,14
4683,14
4684,14
4685,14
4686,14
4687,14
4688,14
4689,14
4690,14
4691,14
4692,14
4693,14
4694,14
4695,14
4696,14
4697,14
4698,14
4699,14
4700,14
4701,14
4702,14
4703,14
4704,14
4705,14
4706,14
4707,14
4708,14
4709,14
4710,14
4711,14
4712,14
4713,14
4714,14
4715,14
4716,14
4717,14
4718,14
4719,14
4720,14
4721,14
4722,14
4723,14
4724,14
4725,14
4726,14
4727,14
4728,14
4729,14
4730,14
4731,14
4732,14
4733,14
4734,14
4735,14
4736,14
4737,14
4738,14
4739,14
4740,14
4741,14
4742,14
4743,14
4744,14
4745,14
4746,14
4747,14
4748,14
4749,14
4750,14
4751,14
4752,14
4753,15
4754,15
4755,14
4756,14
4757,14
4758,14
4759,14
4760,14
4761,14
4762,14
4763,14
4764,14
4765,14
4766,14
4767,14
4768,14
4769,14
4770,14
4771,14
4772,14
4773,14
4774,14
4775,14
4776,14
4777,14
4778,14
4779,14
4780,14
4781,14
4782,14
4783,14
4784,14
4785,14
4786,14
4787,14
4788,14
4789,14
4790,14
4791,14
4792,15
4793,15
4794,15
4795,15
4796,16
4797,15
4798,15
4799,15
4800,15
4801,15
4802,15
4803,15
4804,15
4805,15
4806,15
4807,15
4808,15
4809,15
4810,15
4811,15
4812,15
4813,15
4814,15
4815,15
4816,15
4817,15
4818,15
4819,15
4820,15
4821,15
4822,15
4823,15
4824,15
4825,15
4826,15
4827,15
4828,15
4829,15
4830,15
4831,15
4832,16
4833,16
4834,16
4835,15
4836,15
4837,15
4838,15
4839,15
4840,15
4841,15
4842,15
4843,15
4844,15
4845,15
4846,15
4847,15
4848,15
4849,15
4850,15
4851,15
4852,15
4853,15
4854,15
4855,15
4856,15
4857,15
4858,15
4859,15
4860,15
4861,15
4862,15
4863,15
4864,15
4865,15
4866,15
4867,15
4868,15
4869,15
4870,15
4871,15
4872,15
4873,15
4874,15
4875,15
4876,15
4877,15
4878,16
4879,16
4880,16
4881,16
4882,16
4883,16
4884,16
4885,16
4886,16
4887,16
4888,16
4889,16
4890,16
4891,16
4892,16
4893,16
4894,16
4895,16
4896,16
4897,16
4898,16
4899,16
4900,16
4901,16
4902,16
4903,16
4904,16
4905,16
4906,16
4907,16
4908,16
4909,16
4910,16
4911,16
4912,16
4913,16
4914,16
4915,16
4916,16
4917,16
4918,16
4919,16
4920,16
4921,16
4922,16
4923,16
4924,16
4925,16
4926,16
4927,16
4928,16
4929,16
4930,16
4931,16
4932,16
4933,16
4934,16
4935,16
4936,16
4937,16
4938,16
4939,16
4940,16
4941,16
4942,16
4943,16
4944,16
4945,16
4946,16
4947,16
4948,16
4949,16
4950,16
4951,16
4952,16
4953,16
4954,16
4955,16
4956,16
4957,16
4958,16
4959,16
4960,16
4961,16
4962,16
4963,16
4964,16
4965,16
4966,16
4967,16
4968,16
4969,16
4970,16
4971,16
4972,16
4973,16
4974,16
4975,16
4976,16
4977,16
4978,16
4979,16
4980,16
4981,16
4982,16
4983,16
4984,17
4985,17
4986,17
4987,17
4988,17
4989,16
4990,16
4991,16
4992,16
4993,16
4994,16
4995,16
4996,16
4997,16
4998,16
4999,16
5000,17
5001,16
5002,16
5003,16
5004,16
5005,16
5006,16
5007,16
5008,16
5009,16
5010,16
5011,16
5012,16
5013,16
5014,16
5015,16
5016,16
5017,16
5018,16
5019,16
5020,16
5021,16
5022,16
5023,16
5024,16
5025,16
5026,17
5027,16
5028,16
5029,16
5030,16
5031,16
5032,16
5033,16
5034,16
5035,16
5036,16
5037,16
5038,16
5039,16
5040,16
5041,16
5042,16
5043,16
5044,16
5045,16
5046,16
5047,16
5048,16
5049,16
5050,16
5051,16
5052,16
5053,16
5054,16
5055,16
5056,16
5057,16
5058,16
5059,16
5060,16
5061,16
5062,16
5063,16
5064,16
5065,16
5066,16
5067,16
5068,16
5069,16
5070,16
5071,16
5072,16
5073,16
5074,16
5075,16
5076,16
5077,16
5078,16
5079,16
5080,16
5081,16
5082,16
5083,17
5084,16
5085,16
5086,16
5087,16
5088,16
5089,16
5090,16
5091,16
5092,16
5093,16
5094,16
5095,16
5096,16
5097,16
5098,16
5099,16
5100,16
5101,16
5102,16
5103,16
5104,16
5105,16
5106,16
5107,16
5108,16
5109,16
5110,16
5111,17
5112,16
5113,16
5114,16
5115,16
5116,16
5117,16
5118,16
5119,16
5120,16
5121,16
5122,16
5123,16
5124,16
5125,16
5126,16
5127,16
5128,16
5129,16
5130,16
5131,16
5132,16
5133,16
5134,16
5135,16
5136,16
5137,16
5138,16
5139,16
5140,16
5141,16
5142,16
5143,16
5144,16
5145,16
5146,16
5147,16
5148,16
5149,16
5150,16
5151,16
5152,16
5153,16
5154,16
5155,16
5156,16
5157,16
5158,16
5159,16
5160,16
5161,16
5162,16
5163,16
5164,16
5165,16
5166,16
5167,16
5168,16
5169,16
5170,16
5171,16
5172,16
5173,16
5174,16
5175,16
5176,16
5177,16
5178,16
5179,16
5180,16
5181,16
5182,16
5183,16
5184,16
5185,16
5186,16
5187,16
5188,16
5189,16
5190,16
5191,16
5192,16
5193,16
5194,16
5195,16
5196,16
5197,16
5198,16
5199,16
5200,16
5201,16
5202,16
5203,16
5204,16
5205,16
5206,16
5207,16
5208,16
5209,16
5210,16
5211,16
5212,16
5213,16
5214,16
5215,16
5216,16
5217,16
5218,16
5219,16
5220,16
5221,16
5222,16
5223,16
5224,16
5225,16
5226,16
5227,16
5228,16
5229,16
5230,16
5231,16
5232,16
5233,16
5234,16
5235,16
5236,16
5237,16
5238,16
5239,16
5240,16
5241,16
5242,16
5243,16
5244,16
5245,16
5246,16
5247,16
5248,16
5249,16
5250,16
5251,16
5252,16
5253,16
5254,16
5255,16
5256,16
5257,16
5258,16
5259,16
5260,16
5261,16
5262,16
5263,16
5264,16
5265,16
5266,16
5267,16
5268,16
5269,16
5270,16
5271,16
5272,16
5273,16
5274,16
5275,16
5276,16
5277,16
5278,16
5279,16
5280,16
5281,16
5282,16
5283,16
5284,16
5285,16
5286,16
5287,16
5288,16
5289,16
5290,16
5291,16
5292,16
5293,16
5294,16
5295,16
5296,16
5297,16
5298,16
5299,17
5300,17
5301,17
5302,17
5303,17
5304,16
5305,16
5306,16
5307,16
5308,16
5309,16
5310,16
5311,16
5312,16
5313,16
5314,16
5315,16
5316,16
5317,16
5318,16
5319,16
5320,16
5321,16
5322,16
5323,16
5324,16
5325,17
5326,16
5327,16
5328,16
5329,16
5330,16
5331,16
5332,16
5333,16
5334,16
5335,16
5336,16
5337,16
5338,16
5339,16
5340,16
5341,16
5342,16
5343,16
5344,16
5345,16
5346,17
5347,16
5348,16
5349,16
5350,16
5351,16
5352,16
5353,16
5354,16
5355,16
5356,16
5357,16
5358,16
5359,16
5360,16
5361,16
5362,16
5363,16
5364,16
5365,16
5366,16
5367,16
5368,16
5369,16
5370,16
5371,16
5372,16
5373,16
5374,16
5375,16
5376,16
5377,16
5378,16
5379,16
5380,16
5381,16
5382,16
5383,16
5384,16
5385,16
5386,16
5387,16
5388,16
5389,16
5390,16
5391,16
5392,16
5393,16
5394,16
5395,16
5396,16
5397,16
5398,16
5399,16
5400,16
5401,16
5402,16
5403,16
5404,16
5405,16
5406,16
5407,16
5408,16
5409,16
5410,16
5411,16
5412,16
5413,16
5414,16
5415,16
5416,16
5417,16
5418,16
5419,16
5420,16
5421,16
5422,16
5423,16
5424,16
5425,16
5426,16
5427,16
5428,16
5429,16
5430,16
5431,16
5432,16
5433,16
5434,16
5435,16
5436,16
5437,16
5438,16
5439,16
5440,16
5441,16
5442,16
5443,16
5444,16
5445,16
5446,16
5447,16
5448,16
5449,16
5450,16
5451,16
5452,16
5453,16
5454,16
5455,16
5456,16
5457,16
5458,16
5459,16
5460,16
5461,16
5462,16
5463,16
5464,16
5465,16
5466,16
5467,16
5468,16
5469,16
5470,16
5471,16
5472,16
5473,16
5474,16
5475,16
5476,16
5477,16
5478,16
5479,16
5480,16
5481,16
5482,16
5483,16
5484,16
5485,16
5486,16
5487,16
5488,16
5489,16
5490,16
5491,16
5492,16
5493,16
5494,16
5495,16
5496,16
5497,16
5498,16
5499,16
5500,16
5501,16
5502,16
5503,16
5504,16
5505,16
5506,16
5507,16
5508,16
5509,16
5510,16
5511,16
5512,16
5513,16
5514,16
5515,16
5516,16
5517,16
5518,16
5519,16
5520,16
5521,16
5522,16
5523,16
5524,16
5525,16
5526,16
5527,16
5528,16
5529,16
5530,16
5531,16
5532,16
5533,16
5534,16
5535,16
5536,16
5537,16
5538,16
5539,16
5540,16
5541,16
5542,16
5543,16
5544,16
5545,16
5546,16
5547,16
5548,16
5549,16
5550,16
5551,16
5552,16
5553,16
5554,16
5555,16
5556,16
5557,16
5558,16
5559,16
5560,16
5561,16
5562,16
5563,16
5564,16
5565,16
5566,16
5567,16
5568,16
5569,16
5570,16
5571,16
5572,16
5573,16
5574,16
5575,16
5576,16
5577,16
5578,16
5579,16
5580,16
5581,16
5582,16
5583,16
5584,16
5585,16
5586,16
5587,16
5588,16
5589,16
5590,16
5591,16
5592,16
5593,16
5594,16
5595,16
5596,16
5597,16
5598,16
5599,16
5600,16
5601,16
5602,16
5603,16
5604,16
5605,16
5606,16
5607,16
5608,16
5609,16
5610,16
5611,16
5612,16
5613,16
5614,16
5615,16
5616,16
5617,16
5618,16
5619,16
5620,16
5621,16
5622,16
5623,16
5624,16
5625,16
5626,16
5627,16
5628,16
5629,16
5630,16
5631,16
5632,16
5633,16
5634,16
5635,16
5636,16
5637,16
5638,16
5639,16
5640,16
5641,16
5642,16
5643,16
5644,16
5645,16
5646,16
5647,16
5648,16
5649,16
5650,16
5651,16
5652,16
5653,16
5654,16
5655,16
5656,16
5657,16
5658,16
5659,16
5660,16
5661,16
5662,16
5663,16
5664,16
5665,16
5666,16
5667,16
5668,16
5669,16
5670,16
5671,16
5672,16
5673,16
5674,16
5675,16
5676,16
5677,16
5678,16
5679,16
5680,16
5681,16
5682,16
5683,16
5684,16
5685,16
5686,16
5687,16
5688,16
5689,16
5690,16
5691,16
5692,16
5693,16
5694,16
5695,16
5696,16
5697,16
5698,16
5699,16
5700,16
5701,16
5702,16
5703,16
5704,16
5705,16
5706,16
5707,16
5708,16
5709,16
5710,16
5711,16
5712,16
5713,16
5714,16
5715,16
5716,16
5717,16
5718,16
5719,16
5720,16
5721,16
5722,16
5723,16
5724,16
5725,16
5726,16
5727,16
5728,16
5729,16
5730,16
5731,16
5732,16
5733,16
5734,16
5735,16
5736,16
5737,16
5738,16
5739,16
5740,16
5741,16
5742,16
5743,16
5744,16
5745,16
5746,16
5747,16
5748,16
5749,16
5750,16
5751,16
5752,16
5753,16
5754,16
5755,16
5756,16
5757,16
5758,16
5759,16
5760,16
5761,16
5762,16
5763,16
5764,16
5765,16
5766,16
5767,16
5768,16
5769,16
5770,16
5771,16
5772,16
5773,16
5774,16
5775,16
5776,16
5777,16
5778,16
5779,16
5780,16
5781,16
5782,16
5783,16
5784,16
5785,16
5786,16
5787,16
5788,16
5789,16
5790,16
5791,16
5792,16
5793,16
5794,16
5795,16
5796,16
5797,16
5798,16
5799,16
5800,16
5801,16
5802,16
5803,16
5804,16
5805,16
5806,16
5807,16
5808,16
5809,16
5810,16
5811,16
5812,16
5813,16
5814,16
5815,16
5816,16
5817,16
5818,16
5819,16
5820,16
5821,16
5822,16
5823,16
5824,16
5825,16
5826,16
5827,16
5828,16
5829,16
5830,16
5831,16
5832,16
5833,16
5834,16
5835,16
5836,16
5837,16
5838,16
5839,16
5840,16
5841,16
5842,16
5843,16
5844,16
5845,16
5846,16
5847,16
5848,16
5849,16
5850,16
5851,16
5852,16
5853,17
5854,17
5855,17
5856,17
5857,17
5858,16
5859,16
5860,16
5861,16
5862,16
5863,16
5864,16
5865,16
5866,16
5867,16
5868,16
5869,16
5870,16
5871,16
5872,16
5873,16
5874,16
5875,16
5876,16
5877,16
5878,16
5879,16
5880,16
5881,16
5882,16
5883,16
5884,16
5885,16
5886,16
5887,16
5888,16
5889,16
5890,16
5891,16
5892,16
5893,16
5894,16
5895,16
5896,16
5897,16
5898,16
5899,16
5900,16
5901,16
5902,16
5903,16
5904,16
5905,16
5906,16
5907,16
5908,16
5909,16
5910,16
5911,16
5912,16
5913,16
5914,16
5915,16
5916,16
5917,16
5918,16
5919,16
5920,16
5921,16
5922,16
5923,16
5924,16
5925,16
5926,16
5927,16
5928,16
5929,16
5930,16
5931,16
5932,16
5933,16
5934,16
5935,16
5936,16
5937,16
5938,16
5939,16
5940,16
5941,16
5942,16
5943,16
5944,16
5945,16
5946,16
5947,16
5948,16
5949,16
5950,16
5951,16
5952,16
5953,16
5954,16
5955,16
5956,16
5957,16
5958,16
5959,16
5960,16
5961,16
5962,16
5963,16
5964,16
5965,16
5966,16
5967,16
5968,16
5969,16
5970,16
5971,16
5972,16
5973,16
5974,16
5975,16
5976,16
5977,16
5978,16
5979,16
5980,16
5981,16
5982,16
5983,16
5984,16
5985,16
5986,16
5987,16
5988,16
5989,16
5990,16
5991,16
5992,16
5993,16
5994,16
5995,16
5996,16
5997,16
5998,16
5999,16
6000,16
6001,16
6002,16
6003,16
6004,16
6005,16
6006,16
6007,16
6008,16
6009,16
6010,16
6011,16
6012,16
6013,16
6014,16
6015,16
6016,16
6017,16
6018,16
6019,16
6020,16
6021,16
6022,16
6023,16
6024,16
6025,16
6026,17
6027,17
6028,16
6029,16
6030,16
6031,16
6032,16
6033,16
6034,16
6035,16
6036,16
6037,16
6038,16
6039,16
6040,16
6041,16
6042,16
6043,16
6044,16
6045,16
6046,16
6047,16
6048,16
6049,16
6050,16
6051,16
6052,16
6053,16
6054,16
6055,16
6056,16
6057,16
6058,16
6059,16
6060,16
6061,16
6062,16
6063,16
6064,16
6065,16
6066,16
6067,16
6068,17
6069,17
6070,17
6071,17
6072,16
6073,16
6074,16
6075,16
6076,16
6077,16
6078,16
6079,16
6080,16
6081,16
6082,16
6083,16
6084,16
6085,16
6086,16
6087,16
6088,16
6089,16
6090,16
6091,16
6092,16
6093,16
6094,16
6095,16
6096,16
6097,16
6098,16
6099,16
6100,16
6101,16
6102,16
6103,16
6104,16
6105,16
6106,16
6107,16
6108,16
6109,16
6110,16
6111,16
6112,16
6113,16
6114,16
6115,16
6116,16
6117,16
6118,16
6119,16
6120,16
6121,16
6122,16
6123,16
6124,16
6125,16
6126,16
6127,16
6128,16
6129,16
6130,16
6131,16
6132,16
6133,16
6134,16
6135,16
6136,16
6137,16
6138,16
6139,16
6140,16
6141,16
6142,16
6143,16
6144,16
6145,16
6146,16
6147,16
6148,16
6149,16
6150,16
6151,16
6152,16
6153,16
6154,16
6155,16
6156,16
6157,16
6158,16
6159,16
6160,16
6161,16
6162,16
6163,16
6164,16
6165,16
6166,16
6167,16
6168,16
6169,16
6170,16
6171,16
6172,16
6173,16
6174,16
6175,16
6176,16
6177,16
6178,16
6179,16
6180,16
6181,16
6182,16
6183,16
6184,16
6185,16
6186,16
6187,16
6188,16
6189,16
6190,16
6191,16
6192,16
6193,16
6194,16
6195,16
6196,16
6197,16
6198,16
6199,16
6200,16
6201,16
6202,16
6203,16
6204,16
6205,16
6206,16
6207,16
6208,16
6209,16
6210,16
6211,16
6212,16
6213,16
6214,16
6215,16
6216,16
6217,16
6218,16
6219,16
6220,16
6221,16
6222,16
6223,16
6224,16
6225,16
6226,16
6227,16
6228,16
6229,16
6230,16
6231,16
6232,16
6233,16
6234,16
6235,16
6236,16
6237,16
6238,16
6239,16
6240,16
6241,16
6242,16
6243,16
6244,16
6245,16
6246,16
6247,16
6248,16
6249,16
6250,16
6251,16
6252,16
6253,16
6254,16
6255,16
6256,16
6257,16
6258,16
6259,16
6260,16
6261,16
6262,16
6263,16
6264,16
6265,16
6266,16
6267,16
6268,16
6269,16
6270,16
6271,16
6272,16
6273,16
6274,16
6275,16
6276,16
6277,16
6278,16
6279,16
6280,16
6281,16
6282,16
6283,16
6284,16
6285,16
6286,16
6287,16
6288,16
6289,16
6290,16
6291,16
6292,16
6293,16
6294,16
6295,16
6296,16
6297,16
6298,16
6299,16
6300,16
6301,16
6302,16
6303,16
6304,16
6305,16
6306,16
6307,16
6308,16
6309,16
6310,16
6311,16
6312,16
6313,16
6314,16
6315,16
6316,16
6317,16
6318,16
6319,16
6320,16
6321,16
6322,16
6323,16
6324,16
6325,16
6326,16
6327,16
6328,16
6329,16
6330,16
6331,16
6332,16
6333,16
6334,16
6335,16
6336,16
6337,16
6338,16
6339,16
6340,16
6341,16
6342,16
6343,16
6344,16
6345,16
6346,16
6347,16
6348,16
6349,16
6350,16
6351,16
6352,16
6353,16
6354,17
6355,16
6356,16
6357,16
6358,16
6359,16
6360,16
6361,16
6362,16
6363,16
6364,16
6365,16
6366,16
6367,16
6368,16
6369,16
6370,16
6371,17
6372,17
6373,17
6374,17
6375,17
6376,17
6377,17
6378,18
6379,17
6380,17
6381,17
6382,17
6383,17
6384,17
6385,17
6386,17
6387,17
6388,17
6389,17
6390,17
6391,17
6392,17
6393,17
6394,17
6395,17
6396,17
6397,17
6398,17
6399,17
6400,17
6401,17
6402,17
6403,17
6404,17
6405,17
6406,17
6407,17
6408,17
6409,17
6410,17
6411,17
6412,17
6413,17
6414,17
6415,17
6416,17
6417,17
6418,17
6419,17
6420,17
6421,17
6422,17
6423,17
6424,17
6425,17
6426,17
6427,17
6428,17
6429,17
6430,17
6431,17
6432,17
6433,17
6434,17
6435,17
6436,17
6437,17
6438,17
6439,17
6440,17
6441,17
6442,17
6443,17
6444,17
6445,17
6446,17
6447,17
6448,17
6449,17
6450,17
6451,17
6452,17
6453,17
6454,17
6455,17
6456,17
6457,17
6458,17
6459,17
6460,17
6461,17
6462,17
6463,17
6464,17
6465,17
6466,17
6467,17
6468,17
6469,17
6470,17
6471,17
6472,17
6473,17
6474,17
6475,17
6476,17
6477,17
6478,17
6479,17
6480,17
6481,17
6482,17
6483,17
6484,17
6485,17
6486,17
6487,17
6488,17
6489,17
6490,17
6491,17
6492,17
6493,17
6494,17
6495,17
6496,17
6497,17
6498,17
6499,17
6500,17
6501,17
6502,17
6503,17
6504,17
6505,17
6506,17
6507,17
6508,17
6509,17
6510,17
6511,17
6512,17
6513,17
6514,17
6515,17
6516,17
6517,17
6518,17
6519,17
6520,17
6521,17
6522,17
6523,17
6524,17
6525,17
6526,17
6527,17
6528,18
6529,18
6530,18
6531,18
6532,18
6533,18
6534,18
6535,17
6536,17
6537,17
6538,17
6539,17
6540,17
6541,17
6542,17
6543,17
6544,17
6545,17
6546,17
6547,17
6548,17
6549,17
6550,17
6551,17
6552,17
6553,17
6554,17
6555,17
6556,17
6557,17
6558,17
6559,17
6560,17
6561,17
6562,17
6563,17
6564,17
6565,17
6566,17
6567,17
6568,17
6569,17
6570,17
6571,17
6572,17
6573,17
6574,17
6575,17
6576,17
6577,17
6578,17
6579,18
6580,17
6581,17
6582,17
6583,17
6584,17
6585,17
6586,17
6587,17
6588,17
6589,17
6590,17
6591,17
6592,17
6593,17
6594,17
6595,17
6596,17
6597,17
6598,17
6599,17
6600,17
6601,17
6602,17
6603,17
6604,17
6605,17
6606,17
6607,17
6608,17
6609,17
6610,17
6611,17
6612,17
6613,17
6614,17
6615,17
6616,17
6617,17
6618,17
6619,17
6620,17
6621,17
6622,17
6623,17
6624,17
6625,17
6626,17
6627,17
6628,17
6629,17
6630,17
6631,17
6632,17
6633,17
6634,17
6635,17
6636,17
6637,17
6638,17
6639,17
6640,17
6641,17
6642,17
6643,17
6644,17
6645,17
6646,17
6647,17
6648,17
6649,17
6650,17
6651,17
6652,17
6653,17
6654,17
6655,17
6656,17
6657,17
6658,17
6659,17
6660,17
6661,17
6662,17
6663,17
6664,17
6665,17
6666,17
6667,17
6668,17
6669,17
6670,17
6671,17
6672,17
6673,17
6674,17
6675,17
6676,17
6677,17
6678,17
6679,17
6680,17
6681,17
6682,17
6683,17
6684,17
6685,17
6686,17
6687,17
6688,17
6689,17
6690,17
6691,17
6692,17
6693,17
6694,17
6695,17
6696,17
6697,17
6698,17
6699,17
6700,17
6701,17
6702,17
6703,17
6704,17
6705,17
6706,17
6707,17
6708,17
6709,17
6710,17
6711,17
6712,17
6713,17
6714,17
6715,17
6716,17
6717,17
6718,17
6719,17
6720,17
6721,17
6722,17
6723,17
6724,17
6725,17
6726,17
6727,17
6728,17
6729,17
6730,17
6731,17
6732,17
6733,17
6734,17
6735,17
6736,17
6737,17
6738,17
6739,17
6740,17
6741,17
6742,17
6743,17
6744,17
6745,18
6746,17
6747,17
6748,17
6749,17
6750,17
6751,17
6752,17
6753,17
6754,17
6755,17
6756,17
6757,17
6758,17
6759,17
6760,17
6761,17
6762,17
6763,17
6764,17
6765,17
6766,17
6767,17
6768,17
6769,17
6770,17
6771,17
6772,17
6773,17
6774,17
6775,17
6776,17
6777,17
6778,17
6779,17
6780,17
6781,17
6782,17
6783,17
6784,17
6785,17
6786,17
6787,17
6788,17
6789,17
6790,17
6791,17
6792,17
6793,17
6794,17
6795,17
6796,17
6797,17
6798,17
6799,17
6800,17
6801,17
6802,17
6803,17
6804,18
6805,18
6806,18
6807,18
6808,18
6809,17
6810,17
6811,17
6812,17
6813,17
6814,17
6815,17
6816,17
6817,17
6818,17
6819,17
6820,17
6821,17
6822,17
6823,17
6824,17
6825,17
6826,17
6827,17
6828,17
6829,17
6830,17
6831,17
6832,17
6833,17
6834,18
6835,17
6836,17
6837,17
6838,17
6839,17
6840,17
6841,17
6842,17
6843,17
6844,17
6845,17
6846,17
6847,17
6848,17
6849,17
6850,17
6851,17
6852,17
6853,17
6854,17
6855,17
6856,17
6857,17
6858,17
6859,17
6860,17
6861,17
6862,17
6863,17
6864,17
6865,17
6866,17
6867,17
6868,17
6869,17
6870,17
6871,17
6872,17
6873,17
6874,17
6875,17
6876,17
6877,17
6878,17
6879,17
6880,17
6881,17
6882,17
6883,17
6884,17
6885,17
6886,17
6887,17
6888,17
6889,17
6890,17
6891,17
6892,17
6893,17
6894,17
6895,18
6896,17
6897,17
6898,17
6899,17
6900,17
6901,17
6902,17
6903,17
6904,17
6905,17
6906,17
6907,17
6908,17
6909,17
6910,17
6911,17
6912,17
6913,17
6914,17
6915,17
6916,18
6917,18
6918,18
6919,18
6920,18
6921,18
6922,18
6923,18
6924,18
6925,17
6926,17
6927,17
6928,17
6929,17
6930,17
6931,17
6932,17
6933,17
6934,17
6935,17
6936,17
6937,17
6938,17
6939,17
6940,17
6941,17
6942,17
6943,17
6944,17
6945,17
6946,17
6947,17
6948,17
6949,17
6950,17
6951,17
6952,17
6953,17
6954,17
6955,17
6956,17
6957,17
6958,17
6959,17
6960,17
6961,17
6962,17
6963,17
6964,17
6965,17
6966,17
6967,17
6968,17
6969,17
6970,17
6971,17
6972,17
6973,17
6974,17
6975,17
6976,17
6977,17
6978,17
6979,17
6980,17
6981,17
6982,17
6983,17
6984,17
6985,17
6986,17
6987,17
6988,17
6989,17
6990,17
6991,17
6992,17
6993,17
6994,17
6995,17
6996,17
6997,17
6998,17
6999,17
7000,17
7001,17
7002,17
7003,17
7004,17
7005,17
7006,17
7007,17
7008,17
7009,17
7010,17
7011,17
7012,17
7013,17
7014,17
7015,17
7016,17
7017,17
7018,17
7019,17
7020,17
7021,17
7022,17
7023,17
7024,17
7025,17
7026,17
7027,17
7028,17
7029,17
7030,17
7031,17
7032,17
7033,17
7034,18
7035,18
7036,18
7037,18
7038,18
7039,18
7040,18
7041,18
7042,18
7043,18
7044,18
7045,18
7046,18
7047,18
7048,18
7049,18
7050,18
7051,18
7052,18
7053,18
7054,18
7055,18
7056,18
7057,18
7058,18
7059,18
7060,18
7061,18
7062,18
7063,18
7064,18
7065,18
7066,18
7067,18
7068,18
7069,18
7070,18
7071,18
7072,18
7073,18
7074,18
7075,18
7076,18
7077,18
7078,18
7079,18
7080,18
7081,18
7082,18
7083,18
7084,18
7085,18
7086,18
7087,18
7088,18
7089,18
7090,18
7091,18
7092,18
7093,18
7094,18
7095,18
7096,18
7097,18
7098,18
7099,18
7100,18
7101,18
7102,18
7103,18
7104,18
7105,18
7106,18
7107,18
7108,18
7109,18
7110,18
7111,18
7112,18
7113,18
7114,18
7115,18
7116,18
7117,18
7118,18
7119,18
7120,18
7121,18
7122,18
7123,18
7124,18
7125,18
7126,18
7127,18
7128,18
7129,18
7130,18
7131,18
7132,18
7133,18
7134,18
7135,18
7136,18
7137,19
7138,18
7139,18
7140,18
7141,18
7142,18
7143,18
7144,18
7145,18
7146,18
7147,18
7148,18
7149,18
7150,18
7151,18
7152,18
7153,18
7154,18
7155,18
7156,18
7157,18
7158,18
7159,18
7160,18
7161,18
7162,18
7163,18
7164,18
7165,18
7166,18
7167,18
7168,18
7169,18
7170,18
7171,18
7172,18
7173,18
7174,18
7175,18
7176,18
7177,18
7178,18
7179,18
7180,18
7181,18
7182,18
7183,18
7184,18
7185,18
7186,18
7187,18
7188,18
7189,18
7190,18
7191,18
7192,18
7193,18
7194,18
7195,18
7196,18
7197,18
7198,18
7199,18
7200,18
7201,18
7202,18
7203,18
7204,18
7205,18
7206,18
7207,18
7208,18
7209,18
7210,18
7211,18
7212,18
7213,18
7214,18
7215,18
7216,18
7217,18
7218,18
7219,18
7220,18
7221,18
7222,18
7223,18
7224,18
7225,18
7226,19
7227,19
7228,19
7229,19
7230,19
7231,19
7232,19
7233,18
7234,18
7235,18
7236,18
7237,18
7238,18
7239,18
7240,18
7241,18
7242,18
7243,18
7244,18
7245,18
7246,18
7247,18
7248,18
7249,18
7250,18
7251,18
7252,18
7253,18
7254,18
7255,18
7256,18
7257,18
7258,18
7259,18
7260,18
7261,18
7262,18
7263,18
7264,18
7265,18
7266,18
7267,18
7268,18
7269,18
7270,18
7271,18
7272,18
7273,18
7274,18
7275,18
7276,18
7277,18
7278,18
7279,18
7280,18
7281,18
7282,18
7283,19
7284,19
7285,18
7286,18
7287,18
7288,18
7289,18
7290,18
7291,18
7292,18
7293,18
7294,18
7295,18
7296,18
7297,18
7298,18
7299,18
7300,18
7301,18
7302,18
7303,18
7304,18
7305,18
7306,18
7307,18
7308,18
7309,18
7310,18
7311,18
7312,18
7313,18
7314,18
7315,18
7316,18
7317,18
7318,18
7319,18
7320,18
7321,18
7322,18
7323,18
7324,18
7325,18
7326,18
7327,18
7328,18
7329,18
7330,18
7331,18
7332,18
7333,18
7334,18
7335,18
7336,18
7337,18
7338,18
7339,18
7340,18
7341,18
7342,18
7343,18
7344,18
7345,18
7346,18
7347,18
7348,18
7349,18
7350,18
7351,18
7352,18
7353,18
7354,18
7355,18
7356,18
7357,18
7358,18
7359,18
7360,18
7361,18
7362,18
7363,18
7364,18
7365,18
7366,19
7367,19
7368,18
7369,18
7370,18
7371,18
7372,18
7373,18
7374,18
7375,18
7376,18
7377,18
7378,18
7379,18
7380,18
7381,18
7382,18
7383,18
7384,18
7385,18
7386,18
7387,18
7388,18
7389,18
7390,18
7391,18
7392,18
7393,18
7394,18
7395,18
7396,18
7397,18
7398,18
7399,18
7400,18
7401,18
7402,18
7403,18
7404,18
7405,18
7406,18
7407,18
7408,18
7409,18
7410,18
7411,18
7412,18
7413,18
7414,18
7415,18
7416,18
7417,18
7418,18
7419,18
7420,18
7421,18
7422,18
7423,18
7424,18
7425,18
7426,18
7427,18
7428,18
7429,18
7430,18
7431,18
7432,18
7433,18
7434,18
7435,18
7436,18
7437,18
7438,18
7439,18
7440,18
7441,18
7442,18
7443,18
7444,18
7445,18
7446,18
7447,18
7448,18
7449,18
7450,18
7451,18
7452,18
7453,18
7454,18
7455,18
7456,18
7457,18
7458,18
7459,18
7460,18
7461,18
7462,18
7463,18
7464,18
7465,18
7466,18
7467,18
7468,18
7469,18
7470,18
7471,18
7472,18
7473,18
7474,18
7475,18
7476,18
7477,18
7478,18
7479,18
7480,18
7481,18
7482,18
7483,18
7484,18
7485,18
7486,18
7487,18
7488,18
7489,18
7490,18
7491,20
7492,18
7493,18
7494,18
7495,18
7496,18
7497,18
7498,18
7499,18
7500,18
7501,18
7502,18
7503,18
7504,18
7505,18
7506,18
7507,18
7508,18
7509,18
7510,18
7511,18
7512,18
7513,18
7514,18
7515,18
7516,18
7517,18
7518,18
7519,18
7520,18
7521,18
7522,18
7523,18
7524,18
7525,18
7526,18
7527,18
7528,18
7529,18
7530,18
7531,18
7532,18
7533,18
7534,18
7535,19
7536,18
7537,18
7538,18
7539,18
7540,18
7541,18
7542,18
7543,18
7544,18
7545,18
7546,18
7547,18
7548,18
7549,18
7550,18
7551,18
7552,18
7553,18
7554,18
7555,18
7556,18
7557,18
7558,18
7559,18
7560,18
7561,18
7562,18
7563,18
7564,18
7565,18
7566,18
7567,18
7568,18
7569,18
7570,18
7571,18
7572,18
7573,18
7574,18
7575,18
7576,18
7577,18
7578,18
7579,19
7580,19
7581,19
7582,19
7583,19
7584,19
7585,19
7586,19
7587,19
7588,19
7589,19
7590,19
7591,19
7592,19
7593,19
7594,19
7595,19
7596,19
7597,19
7598,19
7599,19
7600,19
7601,19
7602,19
7603,19
7604,19
7605,19
7606,19
7607,19
7608,19
7609,19
7610,19
7611,19
7612,19
7613,19
7614,19
7615,19
7616,19
7617,19
7618,19
7619,19
7620,19
7621,19
7622,19
7623,19
7624,19
7625,19
7626,19
7627,19
7628,19
7629,19
7630,19
7631,19
7632,19
7633,19
7634,19
7635,19
7636,19
7637,19
7638,19
7639,19
7640,19
7641,19
7642,19
7643,19
7644,19
7645,19
7646,19
7647,19
7648,19
7649,19
7650,19
7651,19
7652,19
7653,19
7654,19
7655,19
7656,19
7657,19
7658,19
7659,19
7660,19
7661,19
7662,19
7663,19
7664,19
7665,19
7666,19
7667,19
7668,19
7669,19
7670,19
7671,19
7672,19
7673,19
7674,19
7675,19
7676,19
7677,19
7678,19
7679,19
7680,19
7681,19
7682,19
7683,19
7684,19
7685,19
7686,19
7687,19
7688,19
7689,19
7690,19
7691,19
7692,19
7693,19
7694,19
7695,19
7696,19
7697,19
7698,19
7699,19
7700,19
7701,19
7702,19
7703,19
7704,19
7705,19
7706,20
7707,19
7708,19
7709,19
7710,19
7711,19
7712,19
7713,19
7714,19
7715,19
7716,19
7717,19
7718,19
7719,19
7720,19
7721,19
7722,19
7723,19
7724,19
7725,19
7726,19
7727,19
7728,19
7729,19
7730,19
7731,19
7732,19
7733,19
7734,19
7735,19
7736,19
7737,19
7738,19
7739,19
7740,19
7741,19
7742,19
7743,19
7744,19
7745,19
7746,19
7747,19
7748,19
7749,19
7750,19
7751,19
7752,19
7753,19
7754,19
7755,19
7756,19
7757,19
7758,19
7759,19
7760,19
7761,19
7762,19
7763,19
7764,19
7765,19
7766,19
7767,19
7768,19
7769,19
7770,19
7771,19
7772,19
7773,19
7774,19
7775,19
7776,19
7777,19
7778,19
7779,19
7780,19
7781,19
7782,19
7783,19
7784,19
7785,19
7786,19
7787,19
7788,19
7789,19
7790,19
7791,19
7792,19
7793,19
7794,19
7795,19
7796,19
7797,19
7798,19
7799,19
7800,19
7801,19
7802,19
7803,19
7804,19
7805,19
7806,19
7807,19
7808,19
7809,19
7810,19
7811,19
7812,19
7813,19
7814,19
7815,19
7816,19
7817,19
7818,19
7819,19
7820,19
7821,19
7822,19
7823,19
7824,19
7825,19
7826,19
7827,19
7828,19
7829,19
7830,19
7831,19
7832,19
7833,20
7834,19
7835,19
7836,19
7837,19
7838,19
7839,19
7840,19
7841,19
7842,19
7843,19
7844,19
7845,19
7846,19
7847,19
7848,19
7849,19
7850,19
7851,19
7852,19
7853,19
7854,19
7855,19
7856,19
7857,19
7858,19
7859,19
7860,19
7861,19
7862,19
7863,19
7864,19
7865,19
7866,20
7867,20
7868,19
7869,19
7870,19
7871,19
7872,19
7873,19
7874,19
7875,19
7876,19
7877,19
7878,19
7879,19
7880,19
7881,19
7882,19
7883,19
7884,19
7885,19
7886,19
7887,19
7888,19
7889,19
7890,19
7891,20
7892,19
7893,19
7894,19
7895,19
7896,19
7897,19
7898,19
7899,19
7900,19
7901,19
7902,19
7903,19
7904,19
7905,19
7906,19
7907,19
7908,19
7909,19
7910,19
7911,19
7912,19
7913,19
7914,19
7915,19
7916,19
7917,19
7918,19
7919,19
7920,19
7921,19
7922,19
7923,19
7924,19
7925,19
7926,19
7927,19
7928,19
7929,19
7930,19
7931,19
7932,19
7933,20
7934,20
7935,20
7936,20
7937,19
7938,19
7939,19
7940,19
7941,19
7942,19
7943,19
7944,19
7945,19
7946,19
7947,19
7948,19
7949,19
7950,19
7951,19
7952,19
7953,19
7954,19
7955,19
7956,19
7957,19
7958,19
7959,19
7960,19
7961,19
7962,19
7963,19
7964,19
7965,19
7966,19
7967,19
7968,19
7969,19
7970,19
7971,19
7972,19
7973,19
7974,19
7975,19
7976,19
7977,19
7978,19
7979,19
7980,19
7981,19
7982,19
7983,19
7984,19
7985,19
7986,19
7987,19
7988,19
7989,19
7990,19
7991,19
7992,19
7993,19
7994,19
7995,19
7996,19
7997,19
7998,19
7999,19
8000,19
8001,19
8002,19
8003,19
8004,19
8005,19
8006,19
8007,19
8008,19
8009,19
8010,19
8011,19
8012,19
8013,19
8014,19
8015,19
8016,19
8017,19
8018,19
8019,19
8020,19
8021,19
8022,19
8023,19
8024,19
8025,19
8026,19
8027,19
8028,19
8029,19
8030,19
8031,19
8032,19
8033,19
8034,19
8035,19
8036,19
8037,19
8038,19
8039,19
8040,19
8041,19
8042,19
8043,19
8044,19
8045,19
8046,19
8047,19
8048,19
8049,19
8050,19
8051,19
8052,19
8053,19
8054,19
8055,19
8056,19
8057,19
8058,19
8059,19
8060,19
8061,19
8062,19
8063,19
8064,19
8065,19
8066,19
8067,19
8068,19
8069,19
8070,19
8071,19
8072,19
8073,19
8074,19
8075,19
8076,19
8077,19
8078,19
8079,19
8080,19
8081,19
8082,19
8083,19
8084,19
8085,19
8086,19
8087,19
8088,19
8089,19
8090,19
8091,19
8092,19
8093,19
8094,19
8095,19
8096,19
8097,19
8098,19
8099,19
8100,19
8101,19
8102,19
8103,19
8104,19
8105,19
8106,19
8107,19
8108,19
8109,19
8110,19
8111,19
8112,19
8113,19
8114,19
8115,19
8116,19
8117,19
8118,19
8119,19
8120,19
8121,19
8122,19
8123,19
8124,19
8125,19
8126,19
8127,19
8128,19
8129,19
8130,19
8131,19
8132,19
8133,19
8134,19
8135,19
8136,19
8137,19
8138,19
8139,19
8140,19
8141,19
8142,19
8143,19
8144,19
8145,19
8146,19
8147,19
8148,19
8149,19
8150,19
8151,19
8152,19
8153,19
8154,19
8155,19
8156,19
8157,20
8158,19
8159,19
8160,19
8161,19
8162,20
8163,19
8164,19
8165,19
8166,19
8167,19
8168,19
8169,19
8170,19
8171,19
8172,19
8173,19
8174,19
8175,19
8176,19
8177,19
8178,19
8179,19
8180,19
8181,19
8182,19
8183,19
8184,19
8185,19
8186,19
8187,19
8188,19
8189,19
8190,19
8191,19
8192,19
8193,19
8194,19
8195,19
8196,19
8197,19
8198,19
8199,19
8200,19
8201,19
8202,19
8203,19
8204,19
8205,19
8206,19
8207,19
8208,19
8209,19
8210,19
8211,19
8212,19
8213,19
8214,19
8215,19
8216,19
8217,19
8218,19
8219,19
8220,19
8221,19
8222,19
8223,19
8224,19
8225,19
8226,19
8227,19
8228,19
8229,19
8230,19
8231,19
8232,19
8233,19
8234,19
8235,19
8236,19
8237,19
8238,19
8239,19
8240,19
8241,19
8242,19
8243,19
8244,19
8245,19
8246,19
8247,19
8248,19
8249,19
8250,19
8251,19
8252,19
8253,19
8254,19
8255,19
8256,19
8257,19
8258,19
8259,19
8260,19
8261,19
8262,19
8263,19
8264,19
8265,19
8266,19
8267,19
8268,19
8269,19
8270,19
8271,19
8272,19
8273,19
8274,19
8275,19
8276,19
8277,19
8278,19
8279,19
8280,19
8281,19
8282,19
8283,19
8284,19
8285,19
8286,19
8287,19
8288,19
8289,19
8290,19
8291,19
8292,19
8293,19
8294,19
8295,19
8296,19
8297,19
8298,19
8299,19
8300,19
8301,19
8302,19
8303,19
8304,19
8305,19
8306,19
8307,19
8308,19
8309,19
8310,19
8311,19
8312,19
8313,19
8314,19
8315,19
8316,19
8317,19
8318,19
8319,19
8320,19
8321,19
8322,19
8323,19
8324,19
8325,19
8326,19
8327,19
8328,19
8329,19
8330,19
8331,19
8332,19
8333,19
8334,19
8335,19
8336,19
8337,19
8338,19
8339,19
8340,19
8341,19
8342,19
8343,19
8344,19
8345,19
8346,19
8347,19
8348,19
8349,19
8350,19
8351,19
8352,19
8353,19
8354,19
8355,19
8356,19
8357,19
8358,19
8359,19
8360,19
8361,19
8362,19
8363,19
8364,19
8365,19
8366,19
8367,19
8368,19
8369,19
8370,19
8371,19
8372,19
8373,19
8374,19
8375,19
8376,19
8377,19
8378,19
8379,19
8380,19
8381,19
8382,19
8383,19
8384,19
8385,19
8386,19
8387,19
8388,19
8389,19
8390,19
8391,19
8392,19
8393,19
8394,20
8395,20
8396,19
8397,19
8398,19
8399,19
8400,19
8401,19
8402,19
8403,19
8404,19
8405,19
8406,19
8407,19
8408,19
8409,19
8410,19
8411,19
8412,19
8413,19
8414,19
8415,19
8416,19
8417,19
8418,19
8419,19
8420,19
8421,19
8422,19
8423,19
8424,19
8425,19
8426,19
8427,19
8428,19
8429,19
8430,19
8431,19
8432,19
8433,19
8434,19
8435,19
8436,19
8437,19
8438,19
8439,19
8440,19
8441,19
8442,19
8443,19
8444,19
8445,19
8446,19
8447,19
8448,19
8449,19
8450,19
8451,19
8452,19
8453,19
8454,19
8455,19
8456,19
8457,19
8458,19
8459,19
8460,20
8461,19
8462,19
8463,19
8464,19
8465,19
8466,19
8467,19
8468,19
8469,19
8470,19
8471,19
8472,19
8473,19
8474,19
8475,19
8476,19
8477,19
8478,19
8479,19
8480,19
8481,19
8482,20
8483,20
8484,20
8485,20
8486,20
8487,20
8488,20
8489,19
8490,19
8491,19
8492,19
8493,19
8494,19
8495,19
8496,19
8497,19
8498,19
8499,19
8500,19
8501,19
8502,19
8503,19
8504,19
8505,19
8506,19
8507,19
8508,19
8509,19
8510,19
8511,19
8512,19
8513,19
8514,19
8515,19
8516,19
8517,19
8518,19
8519,19
8520,19
8521,19
8522,19
8523,19
8524,19
8525,19
8526,19
8527,19
8528,19
8529,19
8530,19
8531,19
8532,19
8533,19
8534,19
8535,19
8536,19
8537,19
8538,19
8539,19
8540,19
8541,19
8542,19
8543,19
8544,19
8545,19
8546,19
8547,19
8548,19
8549,19
8550,19
8551,19
8552,19
8553,19
8554,19
8555,19
8556,19
8557,19
8558,19
8559,19
8560,19
8561,19
8562,19
8563,19
8564,19
8565,19
8566,19
8567,19
8568,19
8569,19
8570,19
8571,19
8572,19
8573,19
8574,19
8575,19
8576,19
8577,19
8578,19
8579,19
8580,19
8581,19
8582,20
8583,20
8584,20
8585,19
8586,19
8587,20
8588,20
8589,20
8590,20
8591,20
8592,20
8593,20
8594,20
8595,20
8596,20
8597,20
8598,20
8599,20
8600,20
8601,20
8602,20
8603,20
8604,20
8605,20
8606,20
8607,20
8608,20
8609,20
8610,20
8611,20
8612,20
8613,20
8614,20
8615,20
8616,20
8617,20
8618,20
8619,20
8620,20
8621,20
8622,20
8623,20
8624,20
8625,20
8626,20
8627,20
8628,20
8629,20
8630,20
8631,20
8632,20
8633,20
8634,20
8635,20
8636,20
8637,20
8638,20
8639,20
8640,20
8641,20
8642,20
8643,20
8644,20
8645,20
8646,20
8647,20
8648,20
8649,20
8650,20
8651,20
8652,20
8653,20
8654,20
8655,20
8656,20
8657,20
8658,20
8659,20
8660,20
8661,20
8662,20
8663,20
8664,20
8665,20
8666,20
8667,20
8668,20
8669,20
8670,20
8671,20
8672,20
8673,20
8674,20
8675,20
8676,20
8677,20
8678,20
8679,20
8680,20
8681,20
8682,20
8683,20
8684,20
8685,20
8686,20
8687,20
8688,20
8689,20
8690,20
8691,20
8692,20
8693,20
8694,20
8695,20
8696,20
8697,20
8698,20
8699,20
8700,20
8701,20
8702,20
8703,21
8704,20
8705,20
8706,20
8707,20
8708,20
8709,20
8710,20
8711,20
8712,20
8713,20
8714,20
8715,20
8716,21
8717,21
8718,20
8719,20
8720,20
8721,20
8722,20
8723,20
8724,20
8725,20
8726,20
8727,20
8728,20
8729,20
8730,20
8731,20
8732,20
8733,20
8734,20
8735,20
8736,20
8737,20
8738,20
8739,20
8740,20
8741,20
8742,20
8743,20
8744,20
8745,20
8746,20
8747,20
8748,20
8749,20
8750,20
8751,20
8752,20
8753,20
8754,20
8755,20
8756,20
8757,20
8758,20
8759,20
8760,20
8761,20
8762,20
8763,20
8764,20
8765,20
8766,20
8767,20
8768,20
8769,20
8770,20
8771,20
8772,20
8773,20
8774,20
8775,20
8776,20
8777,20
8778,20
8779,20
8780,20
8781,20
8782,20
8783,20
8784,20
8785,20
8786,20
8787,20
8788,20
8789,20
8790,20
8791,20
8792,20
8793,20
8794,20
8795,20
8796,20
8797,20
8798,20
8799,20
8800,20
8801,20
8802,20
8803,20
8804,20
8805,20
8806,20
8807,20
8808,20
8809,20
8810,20
8811,20
8812,20
8813,20
8814,20
8815,20
8816,20
8817,20
8818,20
8819,20
8820,20
8821,20
8822,20
8823,20
8824,20
8825,20
8826,20
8827,20
8828,20
8829,20
8830,20
8831,20
8832,20
8833,20
8834,20
8835,20
8836,20
8837,20
8838,20
8839,20
8840,20
8841,20
8842,20
8843,20
8844,20
8845,20
8846,20
8847,20
8848,20
8849,20
8850,20
8851,20
8852,20
8853,20
8854,20
8855,20
8856,20
8857,20
8858,20
8859,20
8860,20
8861,20
8862,20
8863,20
8864,20
8865,20
8866,20
8867,20
8868,20
8869,20
8870,20
8871,20
8872,20
8873,20
8874,20
8875,20
8876,20
8877,20
8878,20
8879,20
8880,20
8881,20
8882,20
8883,20
8884,20
8885,20
8886,20
8887,20
8888,20
8889,20
8890,20
8891,20
8892,20
8893,20
8894,20
8895,20
8896,20
8897,20
8898,20
8899,20
8900,20
8901,20
8902,20
8903,20
8904,20
8905,20
8906,20
8907,20
8908,20
8909,20
8910,20
8911,20
8912,20
8913,20
8914,20
8915,20
8916,20
8917,20
8918,20
8919,20
8920,20
8921,20
8922,20
8923,20
8924,20
8925,20
8926,20
8927,20
8928,20
8929,20
8930,20
8931,20
8932,20
8933,20
8934,20
8935,20
8936,20
8937,20
8938,20
8939,20
8940,20
8941,20
8942,20
8943,20
8944,20
8945,20
8946,20
8947,20
8948,20
8949,20
8950,20
8951,20
8952,20
8953,20
8954,20
8955,20
8956,20
8957,20
8958,20
8959,20
8960,20
8961,20
8962,20
8963,20
8964,20
8965,20
8966,20
8967,20
8968,20
8969,20
8970,20
8971,20
8972,20
8973,20
8974,20
8975,20
8976,20
8977,20
8978,20
8979,20
8980,20
8981,20
8982,20
8983,20
8984,20
8985,20
8986,20
8987,20
8988,20
8989,20
8990,20
8991,20
8992,20
8993,20
8994,20
8995,20
8996,20
8997,20
8998,20
8999,20
9000,20
9001,20
9002,20
9003,20
9004,20
9005,20
9006,20
9007,20
9008,20
9009,20
9010,20
9011,20
9012,20
9013,20
9014,20
9015,20
9016,20
9017,20
9018,20
9019,20
9020,20
9021,20
9022,20
9023,20
9024,20
9025,20
9026,20
9027,20
9028,20
9029,20
9030,20
9031,20
9032,20
9033,20
9034,20
9035,20
9036,20
9037,20
9038,20
9039,20
9040,20
9041,20
9042,20
9043,20
9044,20
9045,20
9046,20
9047,20
9048,20
9049,20
9050,20
9051,20
9052,20
9053,20
9054,20
9055,20
9056,20
9057,20
9058,20
9059,20
9060,20
9061,20
9062,20
9063,20
9064,20
9065,20
9066,20
9067,20
9068,20
9069,20
9070,20
9071,20
9072,20
9073,20
9074,20
9075,20
9076,20
9077,20
9078,20
9079,20
9080,20
9081,20
9082,20
9083,20
9084,20
9085,20
9086,20
9087,20
9088,20
9089,20
9090,20
9091,20
9092,20
9093,20
9094,20
9095,20
9096,20
9097,20
9098,20
9099,20
9100,20
9101,20
9102,20
9103,20
9104,20
9105,20
9106,20
9107,20
9108,20
9109,20
9110,20
9111,20
9112,20
9113,20
9114,20
9115,20
9116,20
9117,20
9118,20
9119,20
9120,20
9121,20
9122,20
9123,20
9124,20
9125,20
9126,20
9127,20
9128,20
9129,20
9130,20
9131,20
9132,20
9133,20
9134,20
9135,20
9136,20
9137,21
9138,21
9139,21
9140,21
9141,21
9142,21
9143,21
9144,21
9145,21
9146,20
9147,20
9148,20
9149,20
9150,20
9151,20
9152,20
9153,20
9154,20
9155,20
9156,20
9157,20
9158,20
9159,20
9160,20
9161,20
9162,21
9163,21
9164,21
9165,21
9166,21
9167,21
9168,21
9169,21
9170,21
9171,21
9172,22
9173,21
9174,21
9175,21
9176,21
9177,21
9178,21
9179,21
9180,21
9181,21
9182,21
9183,21
9184,21
9185,21
9186,21
9187,21
9188,21
9189,21
9190,21
9191,21
9192,21
9193,21
9194,21
9195,21
9196,21
9197,21
9198,21
9199,21
9200,21
9201,21
9202,21
9203,21
9204,21
9205,21
9206,21
9207,21
9208,21
9209,21
9210,21
9211,21
9212,21
9213,21
9214,21
9215,21
9216,21
9217,22
9218,21
9219,21
9220,21
9221,21
9222,21
9223,21
9224,21
9225,21
9226,21
9227,21
9228,21
9229,21
9230,21
9231,21
9232,21
9233,21
9234,21
9235,21
9236,21
9237,21
9238,21
9239,21
9240,21
9241,21
9242,22
9243,22
9244,22
9245,22
9246,22
9247,22
9248,22
9249,21
9250,21
9251,21
9252,21
9253,21
9254,21
9255,21
9256,21
9257,21
9258,21
9259,21
9260,21
9261,21
9262,21
9263,21
9264,21
9265,21
9266,21
9267,21
9268,22
9269,21
9270,21
9271,21
9272,21
9273,21
9274,21
9275,21
9276,21
9277,21
9278,21
9279,21
9280,21
9281,21
9282,21
9283,21
9284,21
9285,21
9286,21
9287,21
9288,21
9289,21
9290,21
9291,21
9292,21
9293,21
9294,21
9295,21
9296,21
9297,21
9298,21
9299,21
9300,21
9301,21
9302,21
9303,21
9304,21
9305,21
9306,21
9307,21
9308,21
9309,21
9310,21
9311,21
9312,21
9313,21
9314,21
9315,21
9316,21
9317,21
9318,21
9319,21
9320,21
9321,21
9322,21
9323,21
9324,21
9325,21
9326,21
9327,21
9328,21
9329,21
9330,21
9331,21
9332,21
9333,21
9334,21
9335,21
9336,21
9337,21
9338,21
9339,21
9340,21
9341,21
9342,21
9343,21
9344,21
9345,21
9346,21
9347,21
9348,21
9349,21
9350,21
9351,21
9352,21
9353,21
9354,21
9355,21
9356,21
9357,21
9358,21
9359,21
9360,21
9361,21
9362,21
9363,21
9364,21
9365,21
9366,21
9367,21
9368,21
9369,21
9370,21
9371,21
9372,21
9373,21
9374,21
9375,21
9376,21
9377,21
9378,21
9379,21
9380,21
9381,21
9382,21
9383,21
9384,21
9385,21
9386,21
9387,21
9388,21
9389,21
9390,21
9391,21
9392,21
9393,21
9394,21
9395,22
9396,22
9397,22
9398,22
9399,22
9400,22
9401,22
9402,22
9403,22
9404,22
9405,22
9406,22
9407,22
9408,22
9409,22
9410,22
9411,22
9412,22
9413,22
9414,22
9415,22
9416,22
9417,22
9418,22
9419,22
9420,22
9421,22
9422,22
9423,22
9424,22
9425,22
9426,22
9427,22
9428,22
9429,22
9430,22
9431,22
9432,22
9433,22
9434,22
9435,22
9436,22
9437,22
9438,22
9439,22
9440,22
9441,22
9442,22
9443,22
9444,22
9445,22
9446,22
9447,22
9448,22
9449,22
9450,22
9451,22
9452,22
9453,22
9454,22
9455,22
9456,22
9457,22
9458,22
9459,22
9460,22
9461,22
9462,22
9463,22
9464,22
9465,22
9466,22
9467,22
9468,22
9469,22
9470,22
9471,22
9472,22
9473,22
9474,22
9475,22
9476,22
9477,22
9478,22
9479,22
9480,22
9481,22
9482,22
9483,22
9484,22
9485,22
9486,22
9487,22
9488,22
9489,22
9490,22
9491,22
9492,22
9493,22
9494,22
9495,22
9496,22
9497,22
9498,22
9499,22
9500,22
9501,22
9502,22
9503,22
9504,22
9505,22
9506,22
9507,22
9508,22
9509,22
9510,22
9511,22
9512,22
9513,22
9514,22
9515,22
9516,22
9517,22
9518,22
9519,22
9520,22
9521,22
9522,22
9523,22
9524,22
9525,22
9526,22
9527,22
9528,22
9529,22
9530,22
9531,22
9532,22
9533,22
9534,22
9535,22
9536,22
9537,22
9538,22
9539,22
9540,22
9541,22
9542,23
9543,23
9544,23
9545,23
9546,23
9547,23
9548,23
9549,23
9550,23
9551,23
9552,23
9553,23
9554,23
9555,23
9556,23
9557,23
9558,23
9559,23
9560,23
9561,23
9562,23
9563,22
9564,22
9565,22
9566,22
9567,22
9568,22
9569,22
9570,22
9571,22
9572,22
9573,22
9574,22
9575,22
9576,22
9577,22
9578,22
9579,22
9580,22
9581,22
9582,22
9583,22
9584,22
9585,22
9586,22
9587,22
9588,22
9589,22
9590,22
9591,22
9592,22
9593,22
9594,22
9595,22
9596,22
9597,22
9598,22
9599,22
9600,22
9601,22
9602,22
9603,22
9604,22
9605,22
9606,22
9607,22
9608,22
9609,22
9610,22
9611,22
9612,22
9613,22
9614,22
9615,22
9616,22
9617,22
9618,22
9619,22
9620,22
9621,22
9622,22
9623,22
9624,22
9625,22
9626,22
9627,22
9628,22
9629,22
9630,22
9631,22
9632,22
9633,22
9634,22
9635,22
9636,22
9637,22
9638,22
9639,22
9640,22
9641,22
9642,22
9643,22
9644,22
9645,22
9646,22
9647,22
9648,22
9649,22
9650,22
9651,22
9652,22
9653,22
9654,22
9655,22
9656,22
9657,23
9658,23
9659,23
9660,23
9661,22
9662,23
9663,22
9664,22
9665,22
9666,22
9667,22
9668,22
9669,22
9670,22
9671,22
9672,22
9673,22
9674,22
9675,22
9676,22
9677,22
9678,22
9679,22
9680,22
9681,22
9682,22
9683,22
9684,22
9685,22
9686,22
9687,22
9688,22
9689,22
9690,22
9691,22
9692,22
9693,22
9694,22
9695,22
9696,22
9697,22
9698,22
9699,22
9700,22
9701,22
9702,22
9703,22
9704,22
9705,22
9706,22
9707,22
9708,22
9709,22
9710,22
9711,22
9712,22
9713,22
9714,22
9715,22
9716,22
9717,22
9718,22
9719,22
9720,22
9721,22
9722,22
9723,22
9724,22
9725,22
9726,22
9727,22
9728,22
9729,22
9730,22
9731,22
9732,23
9733,22
9734,22
9735,22
9736,22
9737,22
9738,22
9739,22
9740,22
9741,22
9742,22
9743,22
9744,22
9745,22
9746,22
9747,22
9748,22
9749,22
9750,22
9751,22
9752,22
9753,22
9754,22
9755,22
9756,22
9757,22
9758,22
9759,22
9760,22
9761,22
9762,22
9763,22
9764,22
9765,22
9766,22
9767,22
9768,22
9769,22
9770,22
9771,22
9772,22
9773,22
9774,22
9775,22
9776,22
9777,22
9778,22
9779,22
9780,22
9781,22
9782,22
9783,22
9784,22
9785,22
9786,22
9787,22
9788,22
9789,22
9790,22
9791,22
9792,22
9793,22
9794,22
9795,22
9796,22
9797,22
9798,22
9799,22
9800,22
9801,22
9802,22
9803,22
9804,22
9805,22
9806,22
9807,22
9808,22
9809,22
9810,22
9811,22
9812,22
9813,22
9814,22
9815,23
9816,23
9817,22
9818,22
9819,22
9820,22
9821,22
9822,22
9823,22
9824,22
9825,22
9826,22
9827,22
9828,22
9829,22
9830,22
9831,22
9832,22
9833,22
9834,22
9835,22
9836,22
9837,22
9838,22
9839,22
9840,22
9841,22
9842,22
9843,22
9844,22
9845,22
9846,22
9847,22
9848,22
9849,22
9850,22
9851,22
9852,22
9853,22
9854,22
9855,22
9856,22
9857,22
9858,22
9859,22
9860,22
9861,22
9862,22
9863,22
9864,23
9865,23
9866,23
9867,23
9868,23
9869,23
9870,23
9871,23
9872,23
9873,23
9874,22
9875,22
9876,22
9877,22
9878,22
9879,22
9880,22
9881,22
9882,22
9883,22
9884,22
9885,22
9886,22
9887,22
9888,22
9889,22
9890,22
9891,22
9892,22
9893,22
9894,22
9895,22
9896,22
9897,22
9898,22
9899,22
9900,22
9901,22
9902,22
9903,22
9904,22
9905,22
9906,22
9907,22
9908,22
9909,22
9910,22
9911,22
9912,22
9913,22
9914,22
9915,23
9916,23
9917,23
9918,23
9919,23
9920,23
9921,23
9922,23
9923,23
9924,23
9925,23
9926,22
9927,22
9928,22
9929,22
9930,22
9931,22
9932,22
9933,22
9934,22
9935,22
9936,22
9937,22
9938,22
9939,22
9940,22
9941,22
9942,22
9943,22
9944,22
9945,22
9946,22
9947,22
9948,22
9949,22
9950,22
9951,22
9952,22
9953,22
9954,22
9955,22
9956,22
9957,22
9958,22
9959,22
9960,22
9961,22
9962,22
9963,22
9964,22
9965,22
9966,22
9967,22
9968,22
9969,22
9970,22
9971,22
9972,22
9973,22
9974,22
9975,22
9976,22
9977,22
9978,22
9979,22
9980,22
9981,22
9982,22
9983,22
9984,22
9985,22
9986,22
9987,22
9988,22
9989,22
9990,22
9991,22
9992,22
9993,22
9994,22
9995,22
9996,22
9997,22
9998,22
9999,22
10000,22
