1,3
2,3
3,3
4,3
5,3
6,3
7,3
8,3
9,3
10,3
11,3
12,3
13,3
14,3
15,3
16,3
17,3
18,3
19,3
20,3
21,3
22,3
23,3
24,3
25,3
26,3
27,3
28,3
29,3
30,3
31,3
32,3
33,3
34,3
35,3
36,3
37,3
38,3
39,3
40,3
41,3
42,3
43,3
44,3
45,3
46,3
47,3
48,3
49,3
50,3
51,3
52,3
53,3
54,3
55,3
56,3
57,3
58,3
59,3
60,3
61,3
62,3
63,3
64,3
65,3
66,3
67,3
68,3
69,3
70,3
71,3
72,3
73,3
74,3
75,3
76,3
77,3
78,3
79,3
80,3
81,3
82,3
83,3
84,3
85,3
86,3
87,3
88,3
89,3
90,3
91,3
92,3
93,3
94,3
95,3
96,3
97,3
98,3
99,3
100,3
101,3
102,3
103,3
104,3
105,3
106,3
107,3
108,3
109,3
110,3
111,3
112,3
113,3
114,3
115,3
116,3
117,3
118,3
119,4
120,4
121,4
122,4
123,4
124,4
125,4
126,4
127,4
128,4
129,4
130,4
131,4
132,4
133,4
134,4
135,4
136,4
137,4
138,4
139,4
140,4
141,4
142,4
143,4
144,4
145,4
146,4
147,4
148,4
149,4
150,4
151,4
152,4
153,4
154,4
155,4
156,4
157,5
158,5
159,5
160,5
161,5
162,5
163,5
164,5
165,5
166,5
167,5
168,5
169,5
170,5
171,5
172,5
173,5
174,5
175,5
176,5
177,5
178,5
179,5
180,5
181,5
182,5
183,5
184,5
185,5
186,5
187,5
188,5
189,5
190,5
191,5
192,5
193,5
194,5
195,5
196,5
197,5
198,5
199,5
200,5
201,5
202,5
203,5
204,5
205,5
206,5
207,5
208,5
209,5
210,5
211,5
212,5
213,5
214,5
215,5
216,5
217,5
218,5
219,5
220,5
221,6
222,5
223,5
224,5
225,5
226,5
227,5
228,5
229,5
230,5
231,5
232,5
233,5
234,5
235,5
236,5
237,5
238,5
239,5
240,5
241,5
242,5
243,5
244,6
245,5
246,5
247,5
248,5
249,5
250,5
251,5
252,5
253,5
254,5
255,5
256,5
257,5
258,5
259,5
260,5
261,5
262,5
263,5
264,5
265,5
266,5
267,5
268,5
269,5
270,5
271,5
272,5
273,5
274,5
275,5
276,5
277,5
278,5
279,5
280,5
281,5
282,5
283,5
284,5
285,5
286,6
287,6
288,6
289,6
290,6
291,6
292,6
293,6
294,6
295,6
296,6
297,6
298,6
299,6
300,6
301,6
302,6
303,6
304,6
305,6
306,6
307,6
308,6
309,6
310,6
311,6
312,6
313,6
314,6
315,6
316,6
317,6
318,6
319,6
320,6
321,6
322,6
323,6
324,6
325,6
326,6
327,6
328,6
329,6
330,6
331,6
332,6
333,6
334,6
335,6
336,6
337,6
338,6
339,6
340,6
341,6
342,6
343,6
344,6
345,6
346,6
347,6
348,6
349,6
350,6
351,6
352,6
353,6
354,6
355,6
356,6
357,6
358,6
359,6
360,7
361,6
362,6
363,6
364,6
365,6
366,6
367,6
368,6
369,6
370,6
371,6
372,6
373,6
374,6
375,6
376,6
377,6
378,6
379,6
380,6
381,6
382,6
383,6
384,6
385,6
386,6
387,6
388,6
389,6
390,6
391,6
392,6
393,6
394,6
395,6
396,6
397,6
398,6
399,6
400,6
401,6
402,6
403,6
404,6
405,6
406,6
407,6
408,6
409,6
410,6
411,6
412,6
413,6
414,6
415,6
416,6
417,6
418,6
419,7
420,6
421,6
422,6
423,6
424,6
425,6
426,6
427,6
428,6
429,6
430,6
431,6
432,6
433,6
434,6
435,6
436,6
437,6
438,6
439,6
440,6
441,6
442,6
443,6
444,6
445,6
446,6
447,6
448,6
449,6
450,6
451,6
452,6
453,6
454,6
455,6
456,6
457,6
458,6
459,6
460,6
461,6
462,6
463,6
464,6
465,6
466,6
467,6
468,6
469,6
470,6
471,6
472,6
473,6
474,6
475,6
476,6
477,6
478,6
479,6
480,6
481,6
482,6
483,6
484,6
485,6
486,6
487,6
488,6
489,6
490,6
491,6
492,6
493,6
494,6
495,6
496,6
497,6
498,6
499,6
500,6
501,6
502,6
503,6
504,6
505,6
506,6
507,6
508,6
509,6
510,6
511,6
512,6
513,6
514,6
515,6
516,6
517,6
518,6
519,6
520,6
521,6
522,6
523,6
524,6
525,6
526,6
527,6
528,6
529,6
530,6
531,6
532,6
533,6
534,6
535,6
536,6
537,6
538,6
539,6
540,6
541,6
542,6
543,6
544,6
545,6
546,6
547,6
548,6
549,6
550,6
551,6
552,6
553,6
554,6
555,6
556,6
557,6
558,6
559,7
560,7
561,7
562,7
563,6
564,6
565,6
566,6
567,6
568,6
569,6
570,6
571,6
572,6
573,6
574,6
575,6
576,6
577,6
578,6
579,6
580,6
581,6
582,6
583,6
584,6
585,6
586,6
587,6
588,6
589,6
590,6
591,6
592,6
593,6
594,6
595,6
596,6
597,6
598,6
599,6
600,6
601,6
602,6
603,6
604,6
605,6
606,6
607,6
608,6
609,6
610,6
611,6
612,6
613,6
614,6
615,6
616,6
617,6
618,6
619,6
620,6
621,6
622,6
623,6
624,6
625,6
626,6
627,6
628,6
629,6
630,6
631,6
632,6
633,6
634,6
635,6
636,6
637,6
638,6
639,6
640,6
641,6
642,6
643,6
644,6
645,6
646,6
647,6
648,6
649,6
650,6
651,6
652,6
653,6
654,6
655,6
656,6
657,6
658,6
659,6
660,6
661,6
662,6
663,6
664,6
665,6
666,6
667,6
668,6
669,6
670,6
671,6
672,6
673,6
674,6
675,6
676,6
677,6
678,6
679,6
680,6
681,6
682,6
683,6
684,6
685,6
686,6
687,6
688,6
689,6
690,6
691,6
692,6
693,6
694,6
695,6
696,7
697,7
698,7
699,7
700,7
701,7
702,7
703,7
704,7
705,7
706,7
707,7
708,7
709,7
710,7
711,7
712,7
713,7
714,7
715,7
716,7
717,7
718,7
719,7
720,7
721,7
722,7
723,7
724,7
725,7
726,7
727,7
728,7
729,7
730,7
731,7
732,7
733,7
734,7
735,7
736,7
737,7
738,7
739,7
740,7
741,7
742,7
743,7
744,7
745,7
746,7
747,7
748,7
749,7
750,7
751,7
752,7
753,7
754,7
755,7
756,7
757,7
758,7
759,7
760,7
761,7
762,7
763,7
764,7
765,7
766,7
767,7
768,7
769,7
770,7
771,7
772,7
773,7
774,7
775,7
776,7
777,7
778,7
779,7
780,7
781,7
782,7
783,7
784,7
785,7
786,7
787,7
788,7
789,7
790,7
791,7
792,7
793,7
794,7
795,7
796,7
797,7
798,7
799,7
800,7
801,7
802,7
803,7
804,7
805,7
806,7
807,7
808,7
809,7
810,7
811,7
812,7
813,7
814,7
815,7
816,7
817,7
818,7
819,7
820,7
821,7
822,7
823,7
824,7
825,7
826,7
827,7
828,7
829,7
830,7
831,7
832,7
833,7
834,7
835,7
836,7
837,7
838,7
839,7
840,7
841,7
842,7
843,7
844,7
845,7
846,7
847,7
848,7
849,7
850,7
851,7
852,7
853,7
854,7
855,7
856,7
857,7
858,7
859,7
860,7
861,7
862,7
863,7
864,7
865,7
866,7
867,7
868,7
869,7
870,7
871,7
872,7
873,7
874,7
875,7
876,7
877,7
878,7
879,7
880,7
881,7
882,7
883,7
884,7
885,7
886,7
887,7
888,7
889,7
890,7
891,7
892,7
893,7
894,7
895,7
896,7
897,7
898,7
899,7
900,7
901,7
902,7
903,8
904,8
905,8
906,7
907,7
908,7
909,7
910,7
911,7
912,7
913,7
914,7
915,7
916,7
917,8
918,7
919,7
920,7
921,7
922,7
923,7
924,7
925,7
926,7
927,7
928,7
929,7
930,7
931,7
932,7
933,7
934,7
935,7
936,7
937,7
938,7
939,7
940,7
941,8
942,7
943,7
944,7
945,7
946,7
947,7
948,7
949,7
950,7
951,7
952,7
953,7
954,7
955,7
956,7
957,7
958,7
959,7
960,7
961,7
962,7
963,7
964,7
965,7
966,7
967,7
968,7
969,7
970,7
971,7
972,7
973,7
974,7
975,7
976,7
977,7
978,7
979,7
980,7
981,7
982,7
983,7
984,7
985,7
986,7
987,7
988,7
989,7
990,7
991,7
992,7
993,7
994,7
995,7
996,7
997,7
998,7
999,7
1000,7
1001,7
1002,7
1003,7
1004,7
1005,7
1006,7
1007,7
1008,7
1009,7
1010,7
1011,7
1012,7
1013,7
1014,7
1015,7
1016,7
1017,7
1018,7
1019,7
1020,7
1021,8
1022,7
1023,7
1024,7
1025,7
1026,7
1027,7
1028,7
1029,7
1030,7
1031,7
1032,7
1033,7
1034,7
1035,7
1036,7
1037,7
1038,7
1039,7
1040,7
1041,7
1042,7
1043,7
1044,7
1045,7
1046,7
1047,7
1048,7
1049,7
1050,7
1051,7
1052,7
1053,7
1054,7
1055,7
1056,7
1057,7
1058,7
1059,7
1060,7
1061,7
1062,7
1063,7
1064,7
1065,7
1066,7
1067,7
1068,7
1069,7
1070,7
1071,7
1072,7
1073,7
1074,7
1075,7
1076,7
1077,7
1078,7
1079,8
1080,8
1081,8
1082,8
1083,8
1084,8
1085,8
1086,7
1087,7
1088,7
1089,7
1090,7
1091,7
1092,7
1093,7
1094,7
1095,7
1096,7
1097,7
1098,7
1099,7
1100,7
1101,7
1102,7
1103,7
1104,7
1105,7
1106,7
1107,7
1108,7
1109,7
1110,7
1111,7
1112,7
1113,7
1114,7
1115,7
1116,7
1117,7
1118,7
1119,7
1120,7
1121,7
1122,7
1123,7
1124,7
1125,7
1126,7
1127,7
1128,7
1129,7
1130,7
1131,7
1132,7
1133,7
1134,7
1135,7
1136,7
1137,7
1138,7
1139,7
1140,7
1141,7
1142,7
1143,7
1144,7
1145,7
1146,7
1147,7
1148,7
1149,7
1150,7
1151,7
1152,7
1153,7
1154,7
1155,7
1156,7
1157,7
1158,7
1159,7
1160,7
1161,7
1162,7
1163,7
1164,7
1165,7
1166,7
1167,7
1168,7
1169,7
1170,7
1171,7
1172,7
1173,7
1174,7
1175,7
1176,7
1177,7
1178,7
1179,7
1180,7
1181,7
1182,7
1183,7
1184,7
1185,7
1186,7
1187,7
1188,7
1189,7
1190,7
1191,7
1192,7
1193,7
1194,7
1195,7
1196,7
1197,7
1198,7
1199,7
1200,7
1201,7
1202,7
1203,7
1204,7
1205,7
1206,7
1207,8
1208,8
1209,7
1210,7
1211,7
1212,7
1213,7
1214,7
1215,7
1216,7
1217,7
1218,7
1219,7
1220,7
1221,7
1222,7
1223,7
1224,7
1225,7
1226,7
1227,7
1228,8
1229,7
1230,7
1231,7
1232,7
1233,7
1234,7
1235,7
1236,7
1237,7
1238,8
1239,8
1240,8
1241,8
1242,8
1243,8
1244,8
1245,8
1246,8
1247,8
1248,8
1249,8
1250,8
1251,8
1252,8
1253,8
1254,8
1255,8
1256,8
1257,8
1258,8
1259,8
1260,8
1261,8
1262,8
1263,8
1264,8
1265,8
1266,8
1267,8
1268,8
1269,8
1270,8
1271,8
1272,8
1273,8
1274,8
1275,8
1276,8
1277,8
1278,8
1279,8
1280,8
1281,8
1282,8
1283,8
1284,8
1285,8
1286,8
1287,8
1288,8
1289,8
1290,8
1291,8
1292,8
1293,8
1294,8
1295,9
1296,9
1297,9
1298,9
1299,8
1300,8
1301,8
1302,8
1303,8
1304,8
1305,8
1306,8
1307,8
1308,8
1309,8
1310,8
1311,8
1312,8
1313,8
1314,8
1315,8
1316,8
1317,8
1318,8
1319,8
1320,8
1321,8
1322,8
1323,8
1324,8
1325,8
1326,8
1327,8
1328,8
1329,8
1330,8
1331,8
1332,9
1333,9
1334,8
1335,8
1336,8
1337,8
1338,8
1339,8
1340,8
1341,8
1342,8
1343,8
1344,8
1345,8
1346,8
1347,8
1348,8
1349,8
1350,8
1351,8
1352,8
1353,8
1354,8
1355,8
1356,8
1357,8
1358,8
1359,8
1360,8
1361,9
1362,9
1363,8
1364,8
1365,8
1366,8
1367,8
1368,8
1369,8
1370,8
1371,8
1372,8
1373,8
1374,8
1375,8
1376,8
1377,8
1378,8
1379,8
1380,8
1381,8
1382,8
1383,8
1384,8
1385,8
1386,8
1387,8
1388,8
1389,8
1390,8
1391,8
1392,8
1393,8
1394,8
1395,8
1396,8
1397,8
1398,8
1399,8
1400,8
1401,8
1402,8
1403,8
1404,8
1405,8
1406,8
1407,8
1408,8
1409,8
1410,8
1411,8
1412,8
1413,8
1414,8
1415,8
1416,8
1417,8
1418,8
1419,8
1420,8
1421,8
1422,8
1423,8
1424,8
1425,8
1426,8
1427,8
1428,8
1429,8
1430,8
1431,8
1432,8
1433,8
1434,8
1435,8
1436,8
1437,8
1438,8
1439,8
1440,8
1441,8
1442,8
1443,8
1444,8
1445,8
1446,8
1447,8
1448,8
1449,8
1450,8
1451,8
1452,8
1453,8
1454,8
1455,8
1456,8
1457,8
1458,8
1459,8
1460,8
1461,8
1462,8
1463,8
1464,8
1465,8
1466,8
1467,8
1468,8
1469,8
1470,8
1471,8
1472,8
1473,8
1474,8
1475,8
1476,8
1477,8
1478,8
1479,8
1480,8
1481,8
1482,8
1483,8
1484,8
1485,8
1486,8
1487,8
1488,8
1489,8
1490,8
1491,8
1492,8
1493,8
1494,8
1495,8
1496,8
1497,8
1498,8
1499,8
1500,8
1501,8
1502,8
1503,8
1504,8
1505,8
1506,8
1507,8
1508,8
1509,8
1510,8
1511,8
1512,8
1513,8
1514,8
1515,8
1516,8
1517,8
1518,8
1519,8
1520,8
1521,8
1522,8
1523,8
1524,8
1525,8
1526,8
1527,8
1528,8
1529,8
1530,8
1531,8
1532,8
1533,8
1534,8
1535,8
1536,8
1537,8
1538,8
1539,8
1540,8
1541,8
1542,8
1543,8
1544,8
1545,8
1546,8
1547,8
1548,8
1549,8
1550,8
1551,8
1552,8
1553,8
1554,8
1555,8
1556,8
1557,8
1558,8
1559,8
1560,8
1561,8
1562,8
1563,8
1564,8
1565,8
1566,8
1567,8
1568,8
1569,8
1570,8
1571,8
1572,8
1573,8
1574,8
1575,8
1576,8
1577,8
1578,8
1579,8
1580,8
1581,8
1582,8
1583,8
1584,8
1585,8
1586,8
1587,8
1588,8
1589,8
1590,8
1591,8
1592,8
1593,8
1594,8
1595,8
1596,8
1597,8
1598,8
1599,8
1600,8
1601,8
1602,8
1603,8
1604,8
1605,8
1606,8
1607,8
1608,8
1609,8
1610,8
1611,8
1612,8
1613,8
1614,8
1615,8
1616,8
1617,8
1618,8
1619,8
1620,8
1621,8
1622,8
1623,8
1624,8
1625,8
1626,8
1627,8
1628,8
1629,8
1630,8
1631,8
1632,8
1633,8
1634,8
1635,8
1636,8
1637,8
1638,8
1639,8
1640,8
1641,8
1642,8
1643,8
1644,8
1645,8
1646,8
1647,8
1648,8
1649,8
1650,8
1651,8
1652,8
1653,8
1654,8
1655,8
1656,8
1657,8
1658,8
1659,8
1660,8
1661,8
1662,8
1663,8
1664,8
1665,8
1666,8
1667,8
1668,8
1669,8
1670,8
1671,8
1672,8
1673,8
1674,8
1675,8
1676,8
1677,9
1678,9
1679,9
1680,9
1681,8
1682,8
1683,8
1684,8
1685,8
1686,8
1687,8
1688,8
1689,8
1690,8
1691,8
1692,8
1693,8
1694,8
1695,8
1696,8
1697,8
1698,8
1699,8
1700,8
1701,8
1702,8
1703,8
1704,8
1705,8
1706,8
1707,8
1708,8
1709,8
1710,8
1711,8
1712,8
1713,8
1714,8
1715,8
1716,8
1717,8
1718,8
1719,8
1720,8
1721,8
1722,8
1723,8
1724,8
1725,8
1726,8
1727,8
1728,8
1729,8
1730,8
1731,8
1732,8
1733,8
1734,8
1735,8
1736,8
1737,8
1738,8
1739,8
1740,8
1741,8
1742,8
1743,8
1744,8
1745,8
1746,8
1747,8
1748,8
1749,8
1750,8
1751,8
1752,8
1753,8
1754,8
1755,8
1756,8
1757,8
1758,8
1759,8
1760,8
1761,8
1762,8
1763,8
1764,8
1765,8
1766,8
1767,8
1768,8
1769,8
1770,8
1771,8
1772,8
1773,8
1774,8
1775,8
1776,8
1777,8
1778,8
1779,8
1780,8
1781,8
1782,8
1783,8
1784,8
1785,8
1786,8
1787,8
1788,8
1789,8
1790,8
1791,8
1792,8
1793,8
1794,8
1795,8
1796,8
1797,8
1798,8
1799,8
1800,8
1801,8
1802,8
1803,8
1804,8
1805,8
1806,8
1807,8
1808,8
1809,8
1810,8
1811,8
1812,8
1813,8
1814,8
1815,8
1816,8
1817,8
1818,8
1819,8
1820,8
1821,8
1822,8
1823,8
1824,8
1825,8
1826,8
1827,8
1828,8
1829,8
1830,8
1831,8
1832,8
1833,8
1834,8
1835,8
1836,8
1837,8
1838,8
1839,8
1840,8
1841,8
1842,8
1843,8
1844,8
1845,8
1846,8
1847,8
1848,8
1849,8
1850,8
1851,8
1852,8
1853,8
1854,8
1855,8
1856,8
1857,8
1858,8
1859,8
1860,8
1861,8
1862,8
1863,8
1864,8
1865,8
1866,8
1867,8
1868,8
1869,8
1870,8
1871,8
1872,8
1873,8
1874,8
1875,8
1876,8
1877,8
1878,8
1879,8
1880,8
1881,8
1882,8
1883,8
1884,8
1885,8
1886,8
1887,8
1888,8
1889,8
1890,8
1891,8
1892,8
1893,8
1894,8
1895,8
1896,8
1897,8
1898,8
1899,8
1900,8
1901,8
1902,8
1903,8
1904,9
1905,9
1906,8
1907,8
1908,8
1909,8
1910,8
1911,8
1912,8
1913,8
1914,8
1915,9
1916,9
1917,8
1918,8
1919,8
1920,8
1921,8
1922,8
1923,8
1924,8
1925,8
1926,8
1927,8
1928,8
1929,8
1930,8
1931,8
1932,8
1933,8
1934,8
1935,8
1936,8
1937,8
1938,8
1939,8
1940,8
1941,8
1942,8
1943,8
1944,8
1945,8
1946,8
1947,8
1948,8
1949,8
1950,8
1951,8
1952,8
1953,8
1954,8
1955,8
1956,8
1957,8
1958,8
1959,8
1960,8
1961,8
1962,8
1963,8
1964,8
1965,8
1966,8
1967,8
1968,8
1969,8
1970,8
1971,8
1972,8
1973,8
1974,8
1975,8
1976,8
1977,8
1978,8
1979,8
1980,8
1981,8
1982,8
1983,8
1984,8
1985,8
1986,8
1987,8
1988,8
1989,8
1990,8
1991,8
1992,8
1993,8
1994,8
1995,8
1996,8
1997,8
1998,8
1999,8
2000,8
2001,8
2002,8
2003,8
2004,8
2005,8
2006,8
2007,8
2008,8
2009,8
2010,8
2011,8
2012,8
2013,8
2014,8
2015,8
2016,8
2017,8
2018,8
2019,8
2020,8
2021,8
2022,8
2023,8
2024,8
2025,8
2026,8
2027,8
2028,8
2029,8
2030,8
2031,8
2032,8
2033,8
2034,8
2035,8
2036,8
2037,8
2038,8
2039,8
2040,8
2041,8
2042,8
2043,8
2044,8
2045,8
2046,8
2047,8
2048,8
2049,8
2050,8
2051,8
2052,8
2053,8
2054,8
2055,8
2056,8
2057,8
2058,8
2059,8
2060,8
2061,8
2062,8
2063,8
2064,8
2065,8
2066,8
2067,8
2068,8
2069,8
2070,8
2071,8
2072,8
2073,8
2074,8
2075,8
2076,8
2077,8
2078,8
2079,8
2080,8
2081,8
2082,8
2083,8
2084,8
2085,8
2086,8
2087,8
2088,8
2089,8
2090,8
2091,8
2092,8
2093,8
2094,8
2095,8
2096,8
2097,8
2098,9
2099,8
2100,8
2101,8
2102,8
2103,8
2104,8
2105,8
2106,8
2107,8
2108,8
2109,8
2110,8
2111,8
2112,8
2113,8
2114,8
2115,8
2116,8
2117,8
2118,8
2119,8
2120,8
2121,8
2122,8
2123,8
2124,8
2125,8
2126,8
2127,8
2128,8
2129,8
2130,8
2131,8
2132,8
2133,8
2134,8
2135,8
2136,8
2137,8
2138,8
2139,8
2140,8
2141,8
2142,8
2143,8
2144,8
2145,8
2146,8
2147,8
2148,8
2149,8
2150,8
2151,8
2152,8
2153,8
2154,8
2155,8
2156,8
2157,8
2158,8
2159,8
2160,8
2161,8
2162,8
2163,8
2164,8
2165,8
2166,8
2167,8
2168,8
2169,8
2170,8
2171,8
2172,8
2173,8
2174,8
2175,8
2176,8
2177,8
2178,8
2179,8
2180,8
2181,8
2182,8
2183,8
2184,8
2185,8
2186,8
2187,8
2188,8
2189,8
2190,8
2191,8
2192,8
2193,8
2194,8
2195,8
2196,8
2197,8
2198,8
2199,8
2200,8
2201,8
2202,8
2203,8
2204,8
2205,8
2206,8
2207,8
2208,8
2209,8
2210,8
2211,8
2212,8
2213,8
2214,8
2215,8
2216,8
2217,8
2218,8
2219,8
2220,8
2221,8
2222,8
2223,8
2224,8
2225,8
2226,8
2227,8
2228,9
2229,9
2230,9
2231,8
2232,8
2233,8
2234,8
2235,8
2236,8
2237,8
2238,8
2239,8
2240,8
2241,8
2242,8
2243,8
2244,8
2245,8
2246,8
2247,8
2248,8
2249,8
2250,9
2251,9
2252,9
2253,9
2254,9
2255,8
2256,8
2257,8
2258,8
2259,8
2260,8
2261,8
2262,8
2263,8
2264,8
2265,8
2266,8
2267,8
2268,8
2269,8
2270,8
2271,8
2272,8
2273,8
2274,8
2275,8
2276,8
2277,8
2278,8
2279,8
2280,8
2281,8
2282,8
2283,8
2284,8
2285,8
2286,8
2287,8
2288,8
2289,8
2290,8
2291,8
2292,8
2293,8
2294,8
2295,8
2296,8
2297,8
2298,8
2299,8
2300,8
2301,8
2302,8
2303,8
2304,8
2305,8
2306,8
2307,8
2308,8
2309,8
2310,8
2311,8
2312,8
2313,8
2314,8
2315,8
2316,8
2317,8
2318,8
2319,8
2320,8
2321,8
2322,8
2323,8
2324,8
2325,8
2326,8
2327,8
2328,8
2329,8
2330,8
2331,8
2332,8
2333,8
2334,8
2335,8
2336,8
2337,8
2338,9
2339,8
2340,8
2341,8
2342,8
2343,8
2344,8
2345,8
2346,8
2347,8
2348,8
2349,9
2350,9
2351,9
2352,9
2353,9
2354,9
2355,8
2356,9
2357,9
2358,9
2359,9
2360,9
2361,9
2362,9
2363,9
2364,9
2365,9
2366,9
2367,9
2368,9
2369,9
2370,9
2371,9
2372,9
2373,9
2374,9
2375,9
2376,9
2377,9
2378,9
2379,9
2380,9
2381,9
2382,9
2383,9
2384,9
2385,9
2386,9
2387,9
2388,9
2389,9
2390,9
2391,9
2392,9
2393,9
2394,9
2395,9
2396,9
2397,9
2398,9
2399,9
2400,9
2401,10
2402,10
2403,9
2404,9
2405,9
2406,9
2407,9
2408,9
2409,9
2410,9
2411,10
2412,10
2413,10
2414,9
2415,9
2416,9
2417,9
2418,9
2419,9
2420,9
2421,9
2422,9
2423,9
2424,9
2425,9
2426,9
2427,9
2428,9
2429,9
2430,9
2431,9
2432,9
2433,9
2434,9
2435,9
2436,9
2437,9
2438,9
2439,9
2440,9
2441,9
2442,9
2443,9
2444,9
2445,9
2446,9
2447,9
2448,9
2449,9
2450,9
2451,9
2452,9
2453,9
2454,9
2455,9
2456,9
2457,9
2458,9
2459,9
2460,9
2461,9
2462,9
2463,9
2464,9
2465,9
2466,9
2467,9
2468,9
2469,9
2470,9
2471,9
2472,9
2473,9
2474,9
2475,9
2476,9
2477,9
2478,9
2479,9
2480,9
2481,9
2482,9
2483,9
2484,9
2485,9
2486,9
2487,9
2488,9
2489,9
2490,9
2491,9
2492,9
2493,9
2494,9
2495,9
2496,9
2497,9
2498,9
2499,9
2500,9
2501,9
2502,9
2503,9
2504,9
2505,9
2506,9
2507,9
2508,9
2509,9
2510,9
2511,9
2512,9
2513,9
2514,9
2515,9
2516,9
2517,9
2518,9
2519,9
2520,9
2521,9
2522,9
2523,10
2524,9
2525,9
2526,9
2527,9
2528,9
2529,9
2530,9
2531,9
2532,9
2533,9
2534,9
2535,9
2536,9
2537,9
2538,9
2539,9
2540,9
2541,9
2542,9
2543,9
2544,9
2545,9
2546,9
2547,9
2548,9
2549,9
2550,9
2551,9
2552,9
2553,9
2554,9
2555,9
2556,9
2557,9
2558,9
2559,9
2560,9
2561,9
2562,9
2563,9
2564,9
2565,9
2566,9
2567,9
2568,9
2569,9
2570,9
2571,9
2572,9
2573,9
2574,9
2575,9
2576,9
2577,9
2578,9
2579,9
2580,9
2581,9
2582,9
2583,9
2584,9
2585,9
2586,9
2587,9
2588,9
2589,9
2590,9
2591,9
2592,9
2593,9
2594,9
2595,9
2596,9
2597,9
2598,9
2599,9
2600,9
2601,9
2602,9
2603,9
2604,9
2605,9
2606,9
2607,9
2608,9
2609,9
2610,9
2611,9
2612,9
2613,9
2614,9
2615,9
2616,9
2617,9
2618,9
2619,9
2620,9
2621,9
2622,9
2623,9
2624,9
2625,9
2626,9
2627,9
2628,9
2629,9
2630,9
2631,9
2632,9
2633,9
2634,9
2635,9
2636,9
2637,9
2638,9
2639,9
2640,9
2641,9
2642,9
2643,9
2644,9
2645,9
2646,9
2647,9
2648,9
2649,9
2650,9
2651,9
2652,9
2653,9
2654,9
2655,9
2656,9
2657,9
2658,9
2659,9
2660,9
2661,9
2662,9
2663,9
2664,9
2665,9
2666,9
2667,9
2668,9
2669,9
2670,9
2671,9
2672,9
2673,9
2674,9
2675,9
2676,9
2677,9
2678,9
2679,9
2680,9
2681,9
2682,9
2683,9
2684,9
2685,9
2686,9
2687,9
2688,9
2689,9
2690,9
2691,9
2692,9
2693,9
2694,9
2695,10
2696,10
2697,10
2698,10
2699,10
2700,9
2701,9
2702,9
2703,9
2704,9
2705,9
2706,9
2707,9
2708,9
2709,9
2710,9
2711,9
2712,9
2713,9
2714,9
2715,9
2716,9
2717,9
2718,9
2719,9
2720,9
2721,9
2722,9
2723,9
2724,9
2725,9
2726,9
2727,9
2728,9
2729,9
2730,9
2731,9
2732,9
2733,9
2734,9
2735,9
2736,9
2737,9
2738,9
2739,9
2740,9
2741,9
2742,9
2743,9
2744,9
2745,9
2746,9
2747,9
2748,9
2749,9
2750,9
2751,9
2752,9
2753,9
2754,9
2755,9
2756,9
2757,9
2758,9
2759,9
2760,9
2761,9
2762,9
2763,9
2764,9
2765,9
2766,9
2767,9
2768,9
2769,9
2770,9
2771,9
2772,9
2773,9
2774,9
2775,9
2776,9
2777,9
2778,9
2779,9
2780,9
2781,9
2782,9
2783,9
2784,9
2785,9
2786,9
2787,9
2788,9
2789,9
2790,9
2791,9
2792,9
2793,9
2794,9
2795,9
2796,9
2797,9
2798,9
2799,9
2800,9
2801,9
2802,9
2803,9
2804,9
2805,9
2806,9
2807,9
2808,9
2809,9
2810,9
2811,9
2812,9
2813,9
2814,9
2815,9
2816,9
2817,9
2818,9
2819,9
2820,9
2821,9
2822,9
2823,9
2824,9
2825,9
2826,9
2827,9
2828,9
2829,9
2830,9
2831,9
2832,9
2833,9
2834,9
2835,9
2836,9
2837,9
2838,9
2839,9
2840,9
2841,9
2842,9
2843,9
2844,9
2845,9
2846,9
2847,9
2848,9
2849,9
2850,9
2851,9
2852,9
2853,9
2854,9
2855,9
2856,9
2857,9
2858,9
2859,9
2860,9
2861,9
2862,9
2863,9
2864,9
2865,9
2866,9
2867,9
2868,9
2869,9
2870,9
2871,9
2872,9
2873,9
2874,9
2875,9
2876,9
2877,9
2878,9
2879,9
2880,9
2881,9
2882,9
2883,9
2884,9
2885,9
2886,9
2887,9
2888,9
2889,9
2890,9
2891,9
2892,9
2893,9
2894,9
2895,9
2896,9
2897,9
2898,9
2899,9
2900,9
2901,9
2902,9
2903,9
2904,9
2905,9
2906,9
2907,9
2908,9
2909,9
2910,9
2911,9
2912,9
2913,9
2914,9
2915,9
2916,9
2917,9
2918,9
2919,9
2920,9
2921,9
2922,9
2923,9
2924,9
2925,9
2926,9
2927,9
2928,9
2929,9
2930,9
2931,9
2932,9
2933,9
2934,9
2935,9
2936,9
2937,9
2938,9
2939,9
2940,9
2941,9
2942,10
2943,10
2944,10
2945,10
2946,10
2947,10
2948,10
2949,10
2950,10
2951,10
2952,10
2953,10
2954,10
2955,10
2956,10
2957,10
2958,10
2959,10
2960,10
2961,10
2962,10
2963,10
2964,10
2965,10
2966,10
2967,9
2968,9
2969,9
2970,9
2971,9
2972,9
2973,9
2974,9
2975,9
2976,9
2977,9
2978,9
2979,9
2980,9
2981,9
2982,9
2983,9
2984,9
2985,9
2986,9
2987,9
2988,9
2989,9
2990,9
2991,9
2992,9
2993,9
2994,9
2995,9
2996,9
2997,9
2998,9
2999,9
3000,9
3001,9
3002,9
3003,9
3004,9
3005,9
3006,9
3007,9
3008,9
3009,9
3010,9
3011,9
3012,9
3013,9
3014,9
3015,9
3016,9
3017,9
3018,9
3019,9
3020,9
3021,9
3022,9
3023,9
3024,9
3025,9
3026,9
3027,9
3028,9
3029,9
3030,9
3031,9
3032,9
3033,9
3034,9
3035,9
3036,9
3037,9
3038,9
3039,9
3040,9
3041,9
3042,9
3043,9
3044,9
3045,9
3046,9
3047,9
3048,9
3049,9
3050,9
3051,9
3052,9
3053,9
3054,9
3055,9
3056,9
3057,9
3058,9
3059,9
3060,9
3061,9
3062,9
3063,9
3064,9
3065,9
3066,9
3067,9
3068,9
3069,9
3070,9
3071,9
3072,9
3073,9
3074,9
3075,9
3076,9
3077,9
3078,9
3079,9
3080,9
3081,9
3082,9
3083,9
3084,9
3085,9
3086,9
3087,9
3088,9
3089,9
3090,9
3091,9
3092,9
3093,9
3094,9
3095,9
3096,9
3097,9
3098,9
3099,9
3100,10
3101,9
3102,9
3103,9
3104,10
3105,9
3106,9
3107,9
3108,9
3109,9
3110,9
3111,9
3112,9
3113,9
3114,9
3115,9
3116,9
3117,9
3118,9
3119,9
3120,9
3121,9
3122,9
3123,9
3124,9
3125,9
3126,9
3127,9
3128,9
3129,9
3130,9
3131,9
3132,9
3133,9
3134,9
3135,9
3136,9
3137,9
3138,9
3139,9
3140,9
3141,9
3142,9
3143,9
3144,9
3145,9
3146,9
3147,9
3148,9
3149,9
3150,9
3151,9
3152,9
3153,9
3154,9
3155,9
3156,9
3157,9
3158,9
3159,9
3160,9
3161,9
3162,9
3163,9
3164,9
3165,9
3166,9
3167,9
3168,9
3169,9
3170,9
3171,9
3172,9
3173,9
3174,9
3175,9
3176,9
3177,9
3178,9
3179,9
3180,9
3181,9
3182,9
3183,9
3184,9
3185,9
3186,9
3187,9
3188,9
3189,10
3190,9
3191,9
3192,9
3193,9
3194,9
3195,9
3196,9
3197,9
3198,9
3199,9
3200,9
3201,9
3202,9
3203,9
3204,9
3205,9
3206,9
3207,9
3208,9
3209,9
3210,9
3211,9
3212,9
3213,9
3214,9
3215,9
3216,9
3217,9
3218,9
3219,9
3220,9
3221,9
3222,9
3223,9
3224,9
3225,10
3226,10
3227,10
3228,10
3229,10
3230,10
3231,10
3232,10
3233,10
3234,10
3235,10
3236,10
3237,10
3238,10
3239,10
3240,10
3241,10
3242,10
3243,10
3244,10
3245,10
3246,10
3247,10
3248,10
3249,10
3250,10
3251,10
3252,10
3253,10
3254,10
3255,10
3256,10
3257,10
3258,10
3259,10
3260,10
3261,10
3262,10
3263,10
3264,10
3265,10
3266,10
3267,10
3268,10
3269,10
3270,10
3271,10
3272,10
3273,10
3274,10
3275,10
3276,10
3277,10
3278,10
3279,10
3280,10
3281,10
3282,10
3283,10
3284,10
3285,10
3286,10
3287,10
3288,10
3289,10
3290,10
3291,11
3292,11
3293,11
3294,10
3295,10
3296,10
3297,10
3298,10
3299,10
3300,10
3301,10
3302,10
3303,10
3304,10
3305,10
3306,10
3307,10
3308,10
3309,10
3310,10
3311,10
3312,10
3313,10
3314,10
3315,10
3316,10
3317,10
3318,10
3319,10
3320,10
3321,10
3322,10
3323,10
3324,10
3325,10
3326,10
3327,10
3328,10
3329,10
3330,10
3331,10
3332,10
3333,10
3334,10
3335,10
3336,10
3337,10
3338,10
3339,10
3340,10
3341,10
3342,10
3343,10
3344,10
3345,10
3346,10
3347,10
3348,10
3349,10
3350,10
3351,10
3352,10
3353,10
3354,10
3355,10
3356,10
3357,10
3358,10
3359,10
3360,10
3361,10
3362,10
3363,10
3364,10
3365,10
3366,10
3367,10
3368,10
3369,10
3370,10
3371,10
3372,10
3373,10
3374,10
3375,10
3376,10
3377,10
3378,10
3379,10
3380,10
3381,10
3382,10
3383,10
3384,10
3385,10
3386,10
3387,10
3388,10
3389,10
3390,10
3391,10
3392,10
3393,10
3394,10
3395,10
3396,10
3397,10
3398,10
3399,10
3400,10
3401,10
3402,10
3403,10
3404,10
3405,10
3406,10
3407,10
3408,10
3409,10
3410,10
3411,10
3412,10
3413,10
3414,10
3415,10
3416,10
3417,10
3418,10
3419,10
3420,10
3421,10
3422,10
3423,10
3424,10
3425,10
3426,10
3427,10
3428,10
3429,10
3430,10
3431,10
3432,10
3433,10
3434,10
3435,10
3436,10
3437,10
3438,10
3439,10
3440,10
3441,10
3442,10
3443,10
3444,10
3445,10
3446,10
3447,10
3448,10
3449,10
3450,10
3451,10
3452,10
3453,10
3454,10
3455,10
3456,10
3457,10
3458,10
3459,10
3460,10
3461,10
3462,10
3463,10
3464,10
3465,10
3466,10
3467,10
3468,12
3469,12
3470,11
3471,10
3472,10
3473,10
3474,10
3475,10
3476,10
3477,10
3478,10
3479,10
3480,10
3481,10
3482,10
3483,10
3484,10
3485,10
3486,10
3487,10
3488,10
3489,10
3490,10
3491,10
3492,10
3493,10
3494,10
3495,10
3496,10
3497,10
3498,10
3499,10
3500,10
3501,10
3502,10
3503,10
3504,10
3505,10
3506,10
3507,10
3508,10
3509,10
3510,10
3511,10
3512,10
3513,10
3514,10
3515,10
3516,10
3517,10
3518,10
3519,10
3520,10
3521,10
3522,10
3523,10
3524,10
3525,10
3526,10
3527,10
3528,10
3529,10
3530,10
3531,10
3532,10
3533,10
3534,10
3535,10
3536,10
3537,10
3538,10
3539,10
3540,10
3541,10
3542,10
3543,10
3544,10
3545,10
3546,10
3547,10
3548,10
3549,10
3550,10
3551,10
3552,10
3553,10
3554,10
3555,10
3556,10
3557,10
3558,10
3559,10
3560,10
3561,10
3562,10
3563,10
3564,10
3565,10
3566,10
3567,10
3568,10
3569,10
3570,10
3571,10
3572,10
3573,10
3574,10
3575,10
3576,10
3577,10
3578,10
3579,10
3580,10
3581,10
3582,10
3583,10
3584,10
3585,10
3586,10
3587,10
3588,10
3589,10
3590,10
3591,10
3592,10
3593,10
3594,10
3595,10
3596,10
3597,10
3598,10
3599,10
3600,10
3601,10
3602,10
3603,10
3604,10
3605,10
3606,10
3607,10
3608,10
3609,10
3610,10
3611,10
3612,10
3613,10
3614,10
3615,10
3616,10
3617,10
3618,10
3619,10
3620,10
3621,10
3622,10
3623,10
3624,10
3625,10
3626,10
3627,11
3628,11
3629,10
3630,10
3631,10
3632,10
3633,10
3634,10
3635,10
3636,10
3637,10
3638,10
3639,10
3640,10
3641,10
3642,10
3643,10
3644,10
3645,10
3646,10
3647,10
3648,10
3649,10
3650,10
3651,10
3652,10
3653,10
3654,10
3655,10
3656,10
3657,10
3658,10
3659,10
3660,10
3661,10
3662,10
3663,10
3664,10
3665,10
3666,10
3667,10
3668,10
3669,10
3670,10
3671,10
3672,10
3673,10
3674,10
3675,10
3676,10
3677,10
3678,10
3679,10
3680,10
3681,10
3682,10
3683,10
3684,10
3685,10
3686,10
3687,10
3688,10
3689,11
3690,11
3691,11
3692,11
3693,11
3694,11
3695,11
3696,11
3697,11
3698,11
3699,11
3700,11
3701,11
3702,11
3703,11
3704,11
3705,11
3706,11
3707,11
3708,11
3709,11
3710,11
3711,11
3712,11
3713,11
3714,11
3715,11
3716,11
3717,11
3718,11
3719,11
3720,11
3721,11
3722,11
3723,11
3724,11
3725,11
3726,11
3727,11
3728,11
3729,11
3730,11
3731,11
3732,11
3733,11
3734,11
3735,11
3736,11
3737,11
3738,11
3739,11
3740,11
3741,11
3742,11
3743,11
3744,11
3745,11
3746,11
3747,11
3748,11
3749,11
3750,11
3751,11
3752,11
3753,11
3754,11
3755,11
3756,11
3757,11
3758,12
3759,11
3760,11
3761,11
3762,11
3763,11
3764,11
3765,11
3766,11
3767,11
3768,11
3769,11
3770,11
3771,11
3772,11
3773,11
3774,11
3775,11
3776,11
3777,11
3778,11
3779,11
3780,11
3781,11
3782,11
3783,11
3784,11
3785,11
3786,12
3787,12
3788,12
3789,11
3790,11
3791,11
3792,11
3793,11
3794,11
3795,11
3796,11
3797,11
3798,11
3799,11
3800,11
3801,11
3802,11
3803,11
3804,11
3805,11
3806,11
3807,11
3808,11
3809,11
3810,11
3811,11
3812,11
3813,11
3814,11
3815,11
3816,11
3817,11
3818,11
3819,11
3820,11
3821,11
3822,11
3823,11
3824,11
3825,11
3826,11
3827,11
3828,11
3829,11
3830,11
3831,11
3832,11
3833,11
3834,11
3835,11
3836,11
3837,11
3838,12
3839,11
3840,11
3841,11
3842,11
3843,11
3844,11
3845,11
3846,11
3847,11
3848,11
3849,11
3850,11
3851,11
3852,11
3853,11
3854,11
3855,11
3856,11
3857,11
3858,11
3859,11
3860,11
3861,11
3862,11
3863,11
3864,11
3865,11
3866,11
3867,11
3868,11
3869,11
3870,11
3871,11
3872,11
3873,11
3874,11
3875,11
3876,11
3877,11
3878,11
3879,11
3880,11
3881,11
3882,11
3883,11
3884,11
3885,11
3886,11
3887,11
3888,11
3889,11
3890,12
3891,12
3892,12
3893,12
3894,12
3895,12
3896,12
3897,12
3898,12
3899,12
3900,12
3901,12
3902,12
3903,12
3904,12
3905,12
3906,12
3907,12
3908,12
3909,12
3910,12
3911,12
3912,12
3913,12
3914,12
3915,12
3916,12
3917,12
3918,12
3919,12
3920,12
3921,12
3922,12
3923,12
3924,12
3925,12
3926,12
3927,12
3928,12
3929,12
3930,12
3931,12
3932,12
3933,12
3934,12
3935,12
3936,12
3937,12
3938,12
3939,12
3940,12
3941,12
3942,12
3943,12
3944,12
3945,12
3946,12
3947,12
3948,12
3949,12
3950,12
3951,12
3952,12
3953,12
3954,12
3955,12
3956,12
3957,12
3958,12
3959,12
3960,12
3961,12
3962,12
3963,12
3964,12
3965,12
3966,12
3967,12
3968,12
3969,12
3970,12
3971,12
3972,12
3973,12
3974,12
3975,12
3976,12
3977,12
3978,12
3979,12
3980,12
3981,12
3982,12
3983,12
3984,12
3985,12
3986,12
3987,12
3988,12
3989,12
3990,12
3991,12
3992,12
3993,12
3994,12
3995,12
3996,12
3997,12
3998,12
3999,12
4000,12
4001,12
4002,12
4003,12
4004,12
4005,12
4006,12
4007,12
4008,12
4009,12
4010,12
4011,12
4012,12
4013,12
4014,12
4015,12
4016,12
4017,12
4018,12
4019,12
4020,12
4021,12
4022,12
4023,12
4024,12
4025,13
4026,13
4027,12
4028,12
4029,13
4030,13
4031,12
4032,12
4033,12
4034,12
4035,12
4036,12
4037,12
4038,12
4039,12
4040,12
4041,12
4042,12
4043,12
4044,12
4045,12
4046,12
4047,12
4048,12
4049,12
4050,12
4051,12
4052,12
4053,12
4054,12
4055,12
4056,12
4057,12
4058,12
4059,12
4060,12
4061,12
4062,12
4063,12
4064,12
4065,12
4066,12
4067,12
4068,12
4069,12
4070,12
4071,12
4072,12
4073,12
4074,12
4075,12
4076,12
4077,12
4078,12
4079,12
4080,12
4081,12
4082,12
4083,12
4084,12
4085,12
4086,12
4087,12
4088,12
4089,12
4090,12
4091,12
4092,12
4093,12
4094,12
4095,12
4096,12
4097,12
4098,12
4099,12
4100,12
4101,12
4102,12
4103,12
4104,12
4105,12
4106,12
4107,12
4108,12
4109,12
4110,12
4111,12
4112,12
4113,12
4114,12
4115,12
4116,12
4117,12
4118,12
4119,12
4120,12
4121,12
4122,12
4123,12
4124,12
4125,12
4126,12
4127,12
4128,12
4129,12
4130,12
4131,12
4132,12
4133,12
4134,12
4135,12
4136,12
4137,12
4138,12
4139,12
4140,12
4141,12
4142,12
4143,12
4144,12
4145,12
4146,12
4147,12
4148,12
4149,12
4150,12
4151,12
4152,12
4153,12
4154,12
4155,12
4156,12
4157,13
4158,13
4159,13
4160,12
4161,12
4162,12
4163,12
4164,12
4165,12
4166,12
4167,12
4168,12
4169,12
4170,12
4171,12
4172,12
4173,12
4174,12
4175,12
4176,12
4177,12
4178,12
4179,12
4180,12
4181,12
4182,12
4183,12
4184,12
4185,12
4186,12
4187,12
4188,12
4189,12
4190,12
4191,12
4192,12
4193,12
4194,12
4195,12
4196,12
4197,12
4198,12
4199,12
4200,12
4201,12
4202,12
4203,12
4204,12
4205,12
4206,12
4207,12
4208,12
4209,12
4210,12
4211,12
4212,12
4213,12
4214,12
4215,12
4216,12
4217,12
4218,12
4219,12
4220,12
4221,12
4222,12
4223,12
4224,12
4225,12
4226,12
4227,12
4228,12
4229,12
4230,12
4231,12
4232,12
4233,12
4234,12
4235,12
4236,12
4237,12
4238,12
4239,12
4240,12
4241,12
4242,12
4243,12
4244,12
4245,12
4246,12
4247,12
4248,13
4249,12
4250,12
4251,12
4252,12
4253,12
4254,12
4255,12
4256,12
4257,12
4258,12
4259,12
4260,12
4261,12
4262,12
4263,12
4264,12
4265,12
4266,13
4267,13
4268,13
4269,13
4270,13
4271,12
4272,12
4273,12
4274,12
4275,12
4276,12
4277,12
4278,12
4279,12
4280,12
4281,12
4282,12
4283,12
4284,12
4285,12
4286,12
4287,12
4288,12
4289,12
4290,12
4291,12
4292,12
4293,12
4294,12
4295,12
4296,12
4297,12
4298,12
4299,12
4300,12
4301,12
4302,12
4303,12
4304,12
4305,12
4306,12
4307,12
4308,12
4309,12
4310,12
4311,12
4312,12
4313,12
4314,12
4315,12
4316,12
4317,12
4318,12
4319,12
4320,12
4321,12
4322,12
4323,12
4324,12
4325,12
4326,12
4327,12
4328,12
4329,12
4330,12
4331,12
4332,12
4333,12
4334,12
4335,12
4336,12
4337,12
4338,12
4339,12
4340,12
4341,12
4342,12
4343,12
4344,12
4345,12
4346,12
4347,12
4348,12
4349,12
4350,12
4351,12
4352,12
4353,12
4354,12
4355,12
4356,12
4357,12
4358,12
4359,12
4360,13
4361,12
4362,12
4363,12
4364,12
4365,12
4366,12
4367,12
4368,12
4369,12
4370,12
4371,12
4372,12
4373,12
4374,13
4375,13
4376,13
4377,12
4378,12
4379,12
4380,12
4381,12
4382,12
4383,12
4384,12
4385,12
4386,12
4387,12
4388,13
4389,12
4390,12
4391,12
4392,12
4393,12
4394,13
4395,12
4396,12
4397,12
4398,12
4399,12
4400,12
4401,12
4402,12
4403,12
4404,12
4405,12
4406,12
4407,12
4408,12
4409,12
4410,12
4411,12
4412,12
4413,12
4414,12
4415,12
4416,12
4417,12
4418,12
4419,12
4420,12
4421,12
4422,12
4423,12
4424,12
4425,12
4426,12
4427,12
4428,12
4429,12
4430,12
4431,12
4432,12
4433,12
4434,12
4435,12
4436,12
4437,12
4438,12
4439,12
4440,12
4441,12
4442,12
4443,12
4444,12
4445,12
4446,12
4447,12
4448,12
4449,12
4450,12
4451,12
4452,12
4453,12
4454,12
4455,12
4456,12
4457,12
4458,12
4459,12
4460,12
4461,12
4462,12
4463,12
4464,12
4465,12
4466,12
4467,12
4468,12
4469,12
4470,12
4471,12
4472,12
4473,12
4474,12
4475,12
4476,12
4477,12
4478,12
4479,12
4480,12
4481,12
4482,12
4483,12
4484,12
4485,12
4486,12
4487,12
4488,12
4489,12
4490,12
4491,12
4492,12
4493,12
4494,12
4495,12
4496,12
4497,12
4498,12
4499,12
4500,12
4501,12
4502,12
4503,12
4504,12
4505,12
4506,12
4507,12
4508,12
4509,12
4510,12
4511,12
4512,12
4513,12
4514,12
4515,12
4516,12
4517,12
4518,12
4519,12
4520,12
4521,12
4522,12
4523,12
4524,12
4525,12
4526,12
4527,12
4528,12
4529,12
4530,12
4531,12
4532,12
4533,12
4534,12
4535,12
4536,12
4537,12
4538,12
4539,12
4540,12
4541,12
4542,12
4543,12
4544,12
4545,12
4546,12
4547,12
4548,12
4549,12
4550,12
4551,12
4552,12
4553,12
4554,12
4555,12
4556,12
4557,12
4558,12
4559,12
4560,12
4561,12
4562,12
4563,12
4564,12
4565,12
4566,12
4567,12
4568,12
4569,12
4570,12
4571,12
4572,12
4573,12
4574,12
4575,12
4576,12
4577,12
4578,12
4579,12
4580,12
4581,12
4582,12
4583,12
4584,12
4585,12
4586,12
4587,12
4588,12
4589,12
4590,12
4591,12
4592,12
4593,12
4594,12
4595,12
4596,12
4597,12
4598,12
4599,12
4600,12
4601,12
4602,12
4603,12
4604,12
4605,12
4606,12
4607,12
4608,12
4609,12
4610,12
4611,12
4612,12
4613,12
4614,12
4615,12
4616,12
4617,12
4618,12
4619,12
4620,12
4621,12
4622,12
4623,12
4624,12
4625,12
4626,12
4627,12
4628,12
4629,12
4630,12
4631,12
4632,12
4633,12
4634,12
4635,12
4636,12
4637,12
4638,12
4639,12
4640,12
4641,12
4642,12
4643,12
4644,12
4645,12
4646,12
4647,12
4648,12
4649,12
4650,12
4651,12
4652,12
4653,12
4654,12
4655,12
4656,12
4657,12
4658,12
4659,12
4660,12
4661,12
4662,12
4663,12
4664,12
4665,12
4666,12
4667,12
4668,12
4669,12
4670,12
4671,12
4672,12
4673,12
4674,12
4675,12
4676,12
4677,12
4678,12
4679,12
4680,12
4681,12
4682,12
4683,12
4684,12
4685,12
4686,12
4687,12
4688,12
4689,12
4690,12
4691,12
4692,12
4693,12
4694,12
4695,12
4696,12
4697,12
4698,12
4699,12
4700,12
4701,12
4702,12
4703,12
4704,12
4705,12
4706,12
4707,12
4708,12
4709,12
4710,12
4711,12
4712,12
4713,12
4714,13
4715,13
4716,13
4717,13
4718,13
4719,13
4720,13
4721,13
4722,13
4723,13
4724,13
4725,13
4726,13
4727,13
4728,13
4729,13
4730,14
4731,14
4732,13
4733,13
4734,13
4735,13
4736,13
4737,13
4738,13
4739,13
4740,13
4741,13
4742,13
4743,13
4744,13
4745,13
4746,13
4747,13
4748,13
4749,13
4750,13
4751,13
4752,13
4753,13
4754,13
4755,13
4756,13
4757,13
4758,13
4759,13
4760,13
4761,13
4762,13
4763,13
4764,13
4765,13
4766,13
4767,13
4768,13
4769,13
4770,13
4771,13
4772,13
4773,13
4774,13
4775,13
4776,13
4777,13
4778,13
4779,13
4780,13
4781,13
4782,13
4783,13
4784,13
4785,13
4786,13
4787,13
4788,13
4789,13
4790,13
4791,13
4792,13
4793,13
4794,13
4795,13
4796,13
4797,13
4798,13
4799,13
4800,13
4801,13
4802,13
4803,13
4804,13
4805,13
4806,13
4807,13
4808,13
4809,13
4810,13
4811,13
4812,13
4813,13
4814,13
4815,13
4816,13
4817,13
4818,13
4819,13
4820,13
4821,13
4822,13
4823,13
4824,13
4825,13
4826,13
4827,13
4828,13
4829,13
4830,13
4831,13
4832,13
4833,13
4834,13
4835,13
4836,13
4837,13
4838,13
4839,13
4840,13
4841,13
4842,13
4843,13
4844,13
4845,13
4846,13
4847,13
4848,13
4849,13
4850,13
4851,13
4852,13
4853,13
4854,13
4855,13
4856,13
4857,13
4858,13
4859,13
4860,13
4861,13
4862,13
4863,13
4864,13
4865,13
4866,13
4867,13
4868,13
4869,13
4870,13
4871,13
4872,13
4873,13
4874,13
4875,13
4876,13
4877,13
4878,13
4879,14
4880,14
4881,14
4882,14
4883,13
4884,13
4885,13
4886,13
4887,13
4888,13
4889,13
4890,13
4891,13
4892,13
4893,13
4894,13
4895,13
4896,13
4897,13
4898,13
4899,13
4900,13
4901,13
4902,13
4903,13
4904,14
4905,13
4906,13
4907,13
4908,13
4909,13
4910,13
4911,13
4912,13
4913,13
4914,13
4915,13
4916,13
4917,13
4918,13
4919,13
4920,13
4921,13
4922,13
4923,13
4924,13
4925,13
4926,13
4927,13
4928,13
4929,13
4930,13
4931,13
4932,13
4933,13
4934,13
4935,13
4936,13
4937,13
4938,13
4939,13
4940,13
4941,13
4942,13
4943,13
4944,13
4945,13
4946,13
4947,13
4948,13
4949,13
4950,13
4951,13
4952,13
4953,13
4954,13
4955,13
4956,13
4957,13
4958,13
4959,13
4960,13
4961,13
4962,13
4963,13
4964,13
4965,13
4966,13
4967,13
4968,13
4969,13
4970,13
4971,13
4972,13
4973,13
4974,13
4975,13
4976,13
4977,13
4978,13
4979,13
4980,13
4981,13
4982,13
4983,13
4984,13
4985,13
4986,13
4987,13
4988,13
4989,13
4990,13
4991,14
4992,14
4993,14
4994,14
4995,14
4996,14
4997,14
4998,14
4999,13
5000,13
5001,13
5002,13
5003,13
5004,13
5005,13
5006,13
5007,14
5008,13
5009,13
5010,13
5011,13
5012,13
5013,13
5014,13
5015,13
5016,13
5017,13
5018,13
5019,13
5020,13
5021,13
5022,13
5023,13
5024,13
5025,13
5026,13
5027,13
5028,13
5029,13
5030,13
5031,13
5032,13
5033,13
5034,13
5035,13
5036,13
5037,13
5038,13
5039,13
5040,13
5041,13
5042,13
5043,13
5044,13
5045,13
5046,13
5047,13
5048,13
5049,13
5050,13
5051,13
5052,13
5053,13
5054,13
5055,13
5056,13
5057,13
5058,13
5059,13
5060,13
5061,13
5062,13
5063,13
5064,13
5065,13
5066,13
5067,13
5068,13
5069,13
5070,13
5071,13
5072,13
5073,13
5074,13
5075,13
5076,14
5077,14
5078,14
5079,14
5080,14
5081,14
5082,14
5083,14
5084,13
5085,13
5086,13
5087,13
5088,13
5089,13
5090,13
5091,13
5092,13
5093,13
5094,13
5095,13
5096,13
5097,13
5098,13
5099,13
5100,13
5101,13
5102,13
5103,13
5104,13
5105,13
5106,13
5107,13
5108,13
5109,13
5110,13
5111,13
5112,13
5113,13
5114,13
5115,13
5116,13
5117,13
5118,13
5119,13
5120,13
5121,13
5122,13
5123,13
5124,13
5125,13
5126,13
5127,13
5128,13
5129,13
5130,13
5131,13
5132,13
5133,13
5134,13
5135,13
5136,13
5137,13
5138,13
5139,13
5140,13
5141,13
5142,13
5143,13
5144,13
5145,13
5146,13
5147,13
5148,13
5149,13
5150,13
5151,13
5152,13
5153,13
5154,13
5155,13
5156,13
5157,13
5158,13
5159,13
5160,13
5161,13
5162,13
5163,13
5164,13
5165,13
5166,13
5167,13
5168,13
5169,13
5170,13
5171,13
5172,13
5173,13
5174,13
5175,13
5176,14
5177,14
5178,14
5179,14
5180,14
5181,13
5182,13
5183,13
5184,13
5185,13
5186,13
5187,13
5188,13
5189,13
5190,13
5191,13
5192,13
5193,13
5194,13
5195,13
5196,13
5197,13
5198,13
5199,13
5200,13
5201,13
5202,13
5203,13
5204,13
5205,13
5206,13
5207,13
5208,13
5209,13
5210,13
5211,13
5212,13
5213,13
5214,13
5215,13
5216,13
5217,13
5218,13
5219,13
5220,13
5221,13
5222,13
5223,13
5224,13
5225,13
5226,13
5227,13
5228,13
5229,13
5230,13
5231,13
5232,13
5233,13
5234,13
5235,13
5236,13
5237,13
5238,13
5239,13
5240,13
5241,13
5242,13
5243,13
5244,13
5245,13
5246,13
5247,13
5248,13
5249,13
5250,13
5251,13
5252,13
5253,13
5254,13
5255,13
5256,13
5257,13
5258,13
5259,13
5260,13
5261,13
5262,13
5263,13
5264,13
5265,13
5266,13
5267,13
5268,13
5269,13
5270,13
5271,13
5272,13
5273,13
5274,13
5275,13
5276,13
5277,13
5278,13
5279,13
5280,13
5281,13
5282,13
5283,13
5284,13
5285,13
5286,13
5287,13
5288,13
5289,13
5290,13
5291,13
5292,13
5293,13
5294,13
5295,13
5296,13
5297,13
5298,13
5299,13
5300,13
5301,13
5302,13
5303,13
5304,13
5305,13
5306,13
5307,13
5308,13
5309,13
5310,13
5311,13
5312,13
5313,13
5314,13
5315,13
5316,13
5317,13
5318,13
5319,13
5320,13
5321,13
5322,13
5323,13
5324,13
5325,13
5326,13
5327,13
5328,13
5329,13
5330,13
5331,13
5332,13
5333,13
5334,13
5335,13
5336,13
5337,13
5338,13
5339,13
5340,13
5341,13
5342,13
5343,13
5344,13
5345,13
5346,13
5347,13
5348,13
5349,13
5350,13
5351,13
5352,13
5353,13
5354,13
5355,13
5356,13
5357,13
5358,13
5359,13
5360,13
5361,13
5362,13
5363,13
5364,13
5365,13
5366,13
5367,13
5368,13
5369,13
5370,13
5371,13
5372,13
5373,13
5374,13
5375,13
5376,13
5377,13
5378,13
5379,13
5380,13
5381,13
5382,13
5383,13
5384,13
5385,13
5386,13
5387,13
5388,13
5389,13
5390,13
5391,13
5392,13
5393,13
5394,13
5395,13
5396,13
5397,13
5398,13
5399,13
5400,13
5401,13
5402,13
5403,13
5404,13
5405,13
5406,13
5407,13
5408,13
5409,13
5410,13
5411,13
5412,13
5413,13
5414,13
5415,13
5416,13
5417,13
5418,13
5419,13
5420,13
5421,14
5422,14
5423,13
5424,13
5425,13
5426,13
5427,13
5428,13
5429,13
5430,13
5431,13
5432,13
5433,13
5434,13
5435,13
5436,13
5437,13
5438,13
5439,13
5440,13
5441,13
5442,13
5443,13
5444,13
5445,13
5446,13
5447,13
5448,13
5449,13
5450,13
5451,13
5452,13
5453,13
5454,13
5455,13
5456,13
5457,13
5458,13
5459,13
5460,13
5461,13
5462,13
5463,13
5464,13
5465,13
5466,13
5467,13
5468,13
5469,13
5470,13
5471,13
5472,13
5473,13
5474,14
5475,14
5476,14
5477,14
5478,14
5479,14
5480,14
5481,14
5482,14
5483,14
5484,14
5485,14
5486,14
5487,14
5488,14
5489,14
5490,14
5491,15
5492,14
5493,14
5494,14
5495,14
5496,14
5497,14
5498,14
5499,14
5500,14
5501,14
5502,14
5503,14
5504,14
5505,14
5506,14
5507,14
5508,14
5509,14
5510,14
5511,14
5512,14
5513,14
5514,14
5515,14
5516,14
5517,14
5518,14
5519,15
5520,15
5521,15
5522,15
5523,14
5524,14
5525,14
5526,14
5527,14
5528,14
5529,14
5530,14
5531,14
5532,14
5533,14
5534,14
5535,14
5536,15
5537,15
5538,15
5539,15
5540,15
5541,15
5542,15
5543,15
5544,15
5545,15
5546,15
5547,14
5548,14
5549,14
5550,14
5551,14
5552,14
5553,14
5554,14
5555,14
5556,14
5557,14
5558,14
5559,14
5560,14
5561,14
5562,14
5563,14
5564,14
5565,14
5566,14
5567,14
5568,15
5569,14
5570,14
5571,14
5572,14
5573,14
5574,14
5575,14
5576,14
5577,14
5578,14
5579,14
5580,14
5581,14
5582,14
5583,14
5584,14
5585,14
5586,14
5587,14
5588,14
5589,14
5590,14
5591,14
5592,14
5593,14
5594,14
5595,14
5596,14
5597,14
5598,14
5599,14
5600,14
5601,14
5602,14
5603,14
5604,14
5605,14
5606,14
5607,14
5608,14
5609,14
5610,14
5611,14
5612,14
5613,14
5614,14
5615,14
5616,14
5617,14
5618,14
5619,14
5620,14
5621,14
5622,14
5623,14
5624,14
5625,14
5626,14
5627,14
5628,14
5629,14
5630,14
5631,14
5632,14
5633,14
5634,14
5635,14
5636,14
5637,14
5638,14
5639,14
5640,14
5641,14
5642,14
5643,14
5644,14
5645,14
5646,14
5647,14
5648,14
5649,14
5650,14
5651,14
5652,14
5653,14
5654,14
5655,14
5656,14
5657,14
5658,14
5659,14
5660,14
5661,14
5662,14
5663,14
5664,14
5665,14
5666,14
5667,14
5668,14
5669,14
5670,14
5671,14
5672,14
5673,14
5674,14
5675,14
5676,14
5677,14
5678,14
5679,14
5680,14
5681,14
5682,14
5683,14
5684,14
5685,14
5686,14
5687,14
5688,14
5689,14
5690,14
5691,14
5692,14
5693,14
5694,14
5695,14
5696,14
5697,14
5698,14
5699,14
5700,14
5701,14
5702,14
5703,14
5704,14
5705,14
5706,14
5707,14
5708,14
5709,14
5710,14
5711,14
5712,14
5713,14
5714,14
5715,14
5716,14
5717,14
5718,14
5719,14
5720,14
5721,14
5722,14
5723,14
5724,14
5725,14
5726,14
5727,14
5728,14
5729,14
5730,14
5731,14
5732,14
5733,14
5734,14
5735,14
5736,14
5737,14
5738,14
5739,14
5740,14
5741,14
5742,14
5743,14
5744,14
5745,14
5746,14
5747,14
5748,14
5749,14
5750,14
5751,15
5752,14
5753,14
5754,14
5755,14
5756,14
5757,14
5758,14
5759,14
5760,14
5761,14
5762,14
5763,14
5764,14
5765,14
5766,14
5767,14
5768,14
5769,14
5770,14
5771,14
5772,14
5773,14
5774,14
5775,14
5776,14
5777,14
5778,14
5779,14
5780,14
5781,14
5782,14
5783,14
5784,14
5785,14
5786,14
5787,14
5788,14
5789,14
5790,14
5791,14
5792,14
5793,14
5794,14
5795,14
5796,14
5797,14
5798,14
5799,14
5800,14
5801,14
5802,14
5803,14
5804,14
5805,14
5806,14
5807,14
5808,14
5809,14
5810,14
5811,14
5812,14
5813,14
5814,14
5815,14
5816,14
5817,14
5818,14
5819,14
5820,14
5821,14
5822,14
5823,14
5824,14
5825,14
5826,14
5827,14
5828,14
5829,14
5830,14
5831,14
5832,14
5833,14
5834,14
5835,14
5836,14
5837,14
5838,14
5839,14
5840,14
5841,14
5842,14
5843,14
5844,14
5845,14
5846,14
5847,14
5848,14
5849,14
5850,14
5851,14
5852,14
5853,14
5854,14
5855,14
5856,14
5857,14
5858,14
5859,14
5860,14
5861,14
5862,14
5863,14
5864,14
5865,14
5866,14
5867,14
5868,14
5869,14
5870,14
5871,14
5872,14
5873,14
5874,14
5875,14
5876,14
5877,14
5878,14
5879,14
5880,14
5881,14
5882,14
5883,14
5884,14
5885,14
5886,15
5887,15
5888,15
5889,14
5890,14
5891,14
5892,14
5893,15
5894,15
5895,15
5896,15
5897,15
5898,15
5899,15
5900,15
5901,15
5902,15
5903,15
5904,15
5905,15
5906,15
5907,15
5908,14
5909,14
5910,14
5911,14
5912,14
5913,14
5914,14
5915,14
5916,14
5917,14
5918,14
5919,14
5920,14
5921,14
5922,14
5923,14
5924,14
5925,14
5926,14
5927,14
5928,14
5929,14
5930,14
5931,14
5932,14
5933,14
5934,14
5935,14
5936,14
5937,14
5938,14
5939,14
5940,14
5941,14
5942,14
5943,14
5944,14
5945,14
5946,14
5947,14
5948,14
5949,14
5950,14
5951,14
5952,14
5953,14
5954,14
5955,14
5956,14
5957,14
5958,14
5959,14
5960,14
5961,14
5962,14
5963,14
5964,14
5965,14
5966,14
5967,14
5968,14
5969,14
5970,15
5971,15
5972,15
5973,15
5974,15
5975,15
5976,15
5977,14
5978,14
5979,14
5980,14
5981,14
5982,14
5983,14
5984,14
5985,14
5986,14
5987,14
5988,14
5989,14
5990,14
5991,14
5992,14
5993,14
5994,14
5995,14
5996,14
5997,14
5998,14
5999,14
6000,14
6001,14
6002,14
6003,14
6004,14
6005,14
6006,14
6007,14
6008,14
6009,14
6010,14
6011,14
6012,14
6013,14
6014,14
6015,14
6016,14
6017,14
6018,14
6019,14
6020,14
6021,14
6022,14
6023,14
6024,14
6025,14
6026,14
6027,14
6028,14
6029,14
6030,14
6031,14
6032,14
6033,14
6034,14
6035,14
6036,14
6037,14
6038,14
6039,14
6040,14
6041,14
6042,14
6043,14
6044,14
6045,14
6046,14
6047,14
6048,14
6049,14
6050,14
6051,14
6052,14
6053,14
6054,14
6055,14
6056,14
6057,14
6058,14
6059,14
6060,14
6061,14
6062,14
6063,14
6064,14
6065,14
6066,14
6067,14
6068,14
6069,14
6070,14
6071,14
6072,14
6073,14
6074,14
6075,14
6076,14
6077,14
6078,14
6079,14
6080,14
6081,14
6082,14
6083,14
6084,14
6085,14
6086,14
6087,14
6088,14
6089,14
6090,14
6091,14
6092,14
6093,14
6094,14
6095,14
6096,14
6097,14
6098,14
6099,14
6100,14
6101,14
6102,14
6103,14
6104,14
6105,14
6106,14
6107,14
6108,14
6109,15
6110,14
6111,14
6112,14
6113,14
6114,14
6115,14
6116,14
6117,14
6118,14
6119,14
6120,14
6121,14
6122,14
6123,15
6124,15
6125,15
6126,15
6127,15
6128,15
6129,15
6130,15
6131,15
6132,15
6133,15
6134,15
6135,15
6136,15
6137,15
6138,15
6139,15
6140,15
6141,15
6142,15
6143,15
6144,15
6145,15
6146,15
6147,15
6148,15
6149,15
6150,15
6151,15
6152,15
6153,15
6154,15
6155,15
6156,15
6157,15
6158,15
6159,15
6160,15
6161,15
6162,15
6163,15
6164,15
6165,15
6166,15
6167,15
6168,15
6169,15
6170,15
6171,15
6172,16
6173,16
6174,15
6175,15
6176,15
6177,15
6178,15
6179,15
6180,15
6181,15
6182,15
6183,15
6184,15
6185,15
6186,15
6187,15
6188,15
6189,15
6190,15
6191,16
6192,16
6193,15
6194,15
6195,15
6196,15
6197,15
6198,15
6199,15
6200,15
6201,15
6202,15
6203,15
6204,15
6205,15
6206,15
6207,15
6208,15
6209,15
6210,15
6211,15
6212,15
6213,15
6214,15
6215,15
6216,15
6217,15
6218,15
6219,15
6220,15
6221,15
6222,15
6223,15
6224,15
6225,15
6226,15
6227,15
6228,15
6229,15
6230,15
6231,15
6232,16
6233,16
6234,17
6235,17
6236,17
6237,16
6238,16
6239,16
6240,16
6241,16
6242,16
6243,16
6244,16
6245,16
6246,16
6247,16
6248,16
6249,16
6250,16
6251,16
6252,16
6253,16
6254,16
6255,16
6256,16
6257,16
6258,16
6259,16
6260,16
6261,16
6262,16
6263,16
6264,16
6265,16
6266,16
6267,16
6268,16
6269,16
6270,16
6271,16
6272,16
6273,16
6274,16
6275,17
6276,16
6277,16
6278,16
6279,16
6280,16
6281,16
6282,16
6283,16
6284,16
6285,16
6286,16
6287,16
6288,16
6289,16
6290,16
6291,16
6292,16
6293,16
6294,16
6295,16
6296,16
6297,16
6298,16
6299,16
6300,16
6301,16
6302,16
6303,16
6304,16
6305,16
6306,16
6307,16
6308,16
6309,16
6310,16
6311,16
6312,16
6313,16
6314,16
6315,16
6316,16
6317,16
6318,17
6319,17
6320,17
6321,16
6322,16
6323,17
6324,17
6325,16
6326,16
6327,16
6328,16
6329,16
6330,16
6331,16
6332,16
6333,16
6334,16
6335,16
6336,16
6337,16
6338,16
6339,16
6340,16
6341,16
6342,16
6343,16
6344,16
6345,16
6346,16
6347,16
6348,16
6349,16
6350,16
6351,16
6352,16
6353,16
6354,16
6355,16
6356,16
6357,16
6358,16
6359,16
6360,16
6361,16
6362,16
6363,16
6364,16
6365,16
6366,16
6367,16
6368,16
6369,16
6370,16
6371,16
6372,16
6373,16
6374,16
6375,16
6376,16
6377,16
6378,16
6379,16
6380,16
6381,16
6382,16
6383,16
6384,16
6385,16
6386,17
6387,17
6388,16
6389,16
6390,16
6391,16
6392,16
6393,16
6394,16
6395,16
6396,16
6397,16
6398,16
6399,16
6400,16
6401,16
6402,16
6403,16
6404,16
6405,16
6406,16
6407,16
6408,16
6409,16
6410,16
6411,16
6412,16
6413,16
6414,16
6415,16
6416,16
6417,16
6418,16
6419,16
6420,16
6421,16
6422,16
6423,16
6424,16
6425,16
6426,16
6427,16
6428,16
6429,16
6430,16
6431,16
6432,16
6433,16
6434,16
6435,16
6436,16
6437,16
6438,16
6439,16
6440,16
6441,16
6442,16
6443,16
6444,16
6445,16
6446,16
6447,16
6448,16
6449,16
6450,16
6451,16
6452,16
6453,16
6454,16
6455,16
6456,16
6457,16
6458,16
6459,16
6460,16
6461,16
6462,16
6463,16
6464,16
6465,16
6466,16
6467,16
6468,16
6469,16
6470,16
6471,16
6472,16
6473,16
6474,16
6475,16
6476,16
6477,16
6478,16
6479,16
6480,16
6481,16
6482,16
6483,16
6484,16
6485,16
6486,16
6487,16
6488,16
6489,16
6490,16
6491,16
6492,16
6493,16
6494,16
6495,16
6496,16
6497,16
6498,16
6499,16
6500,16
6501,16
6502,16
6503,16
6504,16
6505,16
6506,16
6507,16
6508,16
6509,16
6510,16
6511,16
6512,16
6513,16
6514,16
6515,16
6516,16
6517,16
6518,16
6519,16
6520,16
6521,16
6522,16
6523,16
6524,16
6525,16
6526,16
6527,16
6528,16
6529,16
6530,16
6531,16
6532,16
6533,16
6534,16
6535,16
6536,16
6537,16
6538,16
6539,16
6540,16
6541,16
6542,16
6543,16
6544,16
6545,16
6546,16
6547,16
6548,16
6549,16
6550,16
6551,16
6552,16
6553,16
6554,16
6555,16
6556,16
6557,16
6558,16
6559,16
6560,16
6561,16
6562,16
6563,16
6564,16
6565,16
6566,16
6567,16
6568,16
6569,16
6570,16
6571,16
6572,16
6573,16
6574,16
6575,16
6576,16
6577,16
6578,16
6579,16
6580,16
6581,16
6582,16
6583,16
6584,16
6585,16
6586,16
6587,16
6588,16
6589,16
6590,16
6591,16
6592,16
6593,16
6594,16
6595,16
6596,16
6597,16
6598,16
6599,16
6600,16
6601,16
6602,16
6603,16
6604,16
6605,16
6606,16
6607,16
6608,16
6609,16
6610,16
6611,16
6612,16
6613,16
6614,16
6615,16
6616,16
6617,16
6618,16
6619,16
6620,16
6621,16
6622,16
6623,16
6624,16
6625,16
6626,16
6627,16
6628,16
6629,16
6630,16
6631,16
6632,16
6633,16
6634,16
6635,16
6636,16
6637,16
6638,16
6639,16
6640,16
6641,16
6642,16
6643,16
6644,17
6645,16
6646,16
6647,16
6648,16
6649,16
6650,16
6651,16
6652,16
6653,16
6654,16
6655,16
6656,16
6657,16
6658,16
6659,16
6660,16
6661,16
6662,16
6663,16
6664,16
6665,16
6666,16
6667,16
6668,16
6669,16
6670,16
6671,16
6672,16
6673,16
6674,16
6675,16
6676,16
6677,16
6678,16
6679,16
6680,16
6681,16
6682,16
6683,16
6684,16
6685,16
6686,16
6687,16
6688,16
6689,16
6690,16
6691,16
6692,16
6693,16
6694,16
6695,16
6696,16
6697,16
6698,16
6699,16
6700,16
6701,16
6702,16
6703,16
6704,16
6705,16
6706,16
6707,16
6708,16
6709,16
6710,16
6711,16
6712,16
6713,16
6714,16
6715,16
6716,16
6717,16
6718,16
6719,16
6720,16
6721,16
6722,16
6723,16
6724,16
6725,16
6726,16
6727,16
6728,16
6729,16
6730,16
6731,16
6732,16
6733,16
6734,16
6735,16
6736,16
6737,16
6738,16
6739,16
6740,16
6741,16
6742,16
6743,16
6744,16
6745,16
6746,16
6747,16
6748,16
6749,16
6750,16
6751,16
6752,16
6753,16
6754,16
6755,16
6756,16
6757,16
6758,16
6759,16
6760,16
6761,16
6762,16
6763,16
6764,16
6765,16
6766,16
6767,16
6768,16
6769,16
6770,16
6771,16
6772,16
6773,16
6774,16
6775,16
6776,16
6777,16
6778,16
6779,16
6780,16
6781,16
6782,16
6783,16
6784,16
6785,16
6786,16
6787,16
6788,16
6789,16
6790,16
6791,16
6792,16
6793,16
6794,16
6795,16
6796,16
6797,16
6798,16
6799,16
6800,16
6801,16
6802,16
6803,16
6804,16
6805,16
6806,16
6807,16
6808,16
6809,16
6810,16
6811,16
6812,16
6813,16
6814,16
6815,17
6816,17
6817,16
6818,16
6819,16
6820,16
6821,16
6822,16
6823,16
6824,16
6825,16
6826,16
6827,16
6828,16
6829,16
6830,16
6831,16
6832,16
6833,16
6834,16
6835,16
6836,16
6837,16
6838,16
6839,16
6840,16
6841,16
6842,16
6843,16
6844,16
6845,16
6846,16
6847,17
6848,16
6849,16
6850,16
6851,16
6852,16
6853,16
6854,16
6855,16
6856,16
6857,16
6858,16
6859,16
6860,16
6861,16
6862,16
6863,16
6864,16
6865,16
6866,16
6867,16
6868,16
6869,16
6870,16
6871,16
6872,16
6873,16
6874,16
6875,16
6876,16
6877,16
6878,16
6879,16
6880,16
6881,16
6882,16
6883,16
6884,16
6885,16
6886,16
6887,16
6888,16
6889,16
6890,16
6891,16
6892,16
6893,16
6894,16
6895,16
6896,16
6897,16
6898,16
6899,16
6900,16
6901,16
6902,16
6903,16
6904,16
6905,16
6906,16
6907,16
6908,16
6909,16
6910,16
6911,16
6912,16
6913,16
6914,16
6915,16
6916,16
6917,16
6918,16
6919,16
6920,16
6921,16
6922,16
6923,16
6924,16
6925,16
6926,16
6927,16
6928,16
6929,16
6930,16
6931,16
6932,16
6933,16
6934,17
6935,17
6936,17
6937,17
6938,17
6939,18
6940,17
6941,17
6942,17
6943,17
6944,17
6945,17
6946,17
6947,17
6948,17
6949,17
6950,17
6951,17
6952,17
6953,17
6954,17
6955,17
6956,17
6957,17
6958,17
6959,17
6960,17
6961,17
6962,17
6963,17
6964,17
6965,17
6966,17
6967,17
6968,17
6969,17
6970,17
6971,17
6972,17
6973,17
6974,17
6975,17
6976,17
6977,17
6978,17
6979,17
6980,17
6981,17
6982,17
6983,17
6984,17
6985,17
6986,17
6987,17
6988,17
6989,17
6990,17
6991,17
6992,17
6993,17
6994,17
6995,17
6996,17
6997,17
6998,17
6999,17
7000,17
7001,17
7002,17
7003,17
7004,17
7005,17
7006,17
7007,17
7008,17
7009,17
7010,17
7011,17
7012,17
7013,17
7014,17
7015,17
7016,17
7017,17
7018,17
7019,17
7020,17
7021,17
7022,17
7023,17
7024,17
7025,17
7026,17
7027,17
7028,17
7029,17
7030,17
7031,17
7032,17
7033,17
7034,17
7035,17
7036,17
7037,17
7038,17
7039,17
7040,17
7041,17
7042,17
7043,17
7044,17
7045,17
7046,17
7047,17
7048,17
7049,17
7050,17
7051,17
7052,17
7053,17
7054,17
7055,17
7056,17
7057,17
7058,17
7059,17
7060,17
7061,17
7062,17
7063,17
7064,17
7065,17
7066,18
7067,18
7068,17
7069,17
7070,18
7071,18
7072,18
7073,18
7074,18
7075,18
7076,18
7077,18
7078,18
7079,18
7080,18
7081,18
7082,18
7083,18
7084,18
7085,18
7086,18
7087,18
7088,18
7089,18
7090,18
7091,18
7092,18
7093,18
7094,18
7095,18
7096,18
7097,18
7098,18
7099,18
7100,18
7101,18
7102,18
7103,18
7104,17
7105,17
7106,17
7107,17
7108,17
7109,17
7110,17
7111,17
7112,17
7113,17
7114,17
7115,17
7116,17
7117,17
7118,17
7119,17
7120,17
7121,17
7122,17
7123,17
7124,17
7125,17
7126,17
7127,17
7128,17
7129,17
7130,17
7131,17
7132,17
7133,17
7134,17
7135,17
7136,17
7137,17
7138,17
7139,17
7140,17
7141,17
7142,17
7143,17
7144,17
7145,17
7146,17
7147,18
7148,18
7149,17
7150,17
7151,18
7152,18
7153,18
7154,18
7155,18
7156,18
7157,18
7158,18
7159,18
7160,18
7161,18
7162,18
7163,18
7164,18
7165,18
7166,18
7167,18
7168,18
7169,18
7170,18
7171,18
7172,18
7173,18
7174,18
7175,18
7176,18
7177,18
7178,18
7179,18
7180,18
7181,18
7182,18
7183,18
7184,18
7185,18
7186,18
7187,18
7188,18
7189,18
7190,18
7191,18
7192,18
7193,18
7194,18
7195,18
7196,18
7197,18
7198,18
7199,18
7200,18
7201,18
7202,18
7203,18
7204,18
7205,18
7206,18
7207,18
7208,18
7209,18
7210,18
7211,18
7212,18
7213,18
7214,18
7215,18
7216,18
7217,18
7218,18
7219,18
7220,18
7221,18
7222,18
7223,18
7224,18
7225,18
7226,18
7227,18
7228,18
7229,18
7230,18
7231,18
7232,19
7233,19
7234,19
7235,18
7236,18
7237,18
7238,18
7239,18
7240,18
7241,18
7242,18
7243,18
7244,18
7245,18
7246,18
7247,18
7248,18
7249,18
7250,18
7251,18
7252,18
7253,18
7254,18
7255,19
7256,18
7257,18
7258,18
7259,18
7260,18
7261,18
7262,18
7263,18
7264,18
7265,18
7266,18
7267,18
7268,18
7269,18
7270,18
7271,19
7272,18
7273,18
7274,18
7275,18
7276,18
7277,18
7278,18
7279,18
7280,18
7281,18
7282,18
7283,18
7284,19
7285,19
7286,18
7287,18
7288,18
7289,18
7290,18
7291,18
7292,18
7293,18
7294,18
7295,18
7296,18
7297,18
7298,18
7299,18
7300,18
7301,18
7302,18
7303,18
7304,18
7305,18
7306,18
7307,18
7308,18
7309,18
7310,18
7311,18
7312,18
7313,18
7314,18
7315,18
7316,18
7317,18
7318,18
7319,18
7320,18
7321,18
7322,18
7323,18
7324,18
7325,18
7326,18
7327,18
7328,18
7329,18
7330,18
7331,18
7332,18
7333,18
7334,18
7335,18
7336,18
7337,18
7338,18
7339,18
7340,18
7341,18
7342,18
7343,18
7344,18
7345,18
7346,18
7347,18
7348,18
7349,18
7350,18
7351,18
7352,18
7353,18
7354,18
7355,18
7356,18
7357,18
7358,18
7359,18
7360,18
7361,18
7362,18
7363,18
7364,18
7365,18
7366,18
7367,18
7368,18
7369,18
7370,18
7371,18
7372,18
7373,18
7374,18
7375,18
7376,18
7377,18
7378,18
7379,18
7380,18
7381,18
7382,18
7383,18
7384,19
7385,19
7386,19
7387,18
7388,18
7389,18
7390,18
7391,18
7392,18
7393,18
7394,18
7395,18
7396,18
7397,18
7398,18
7399,18
7400,18
7401,18
7402,18
7403,18
7404,18
7405,18
7406,18
7407,18
7408,18
7409,18
7410,18
7411,18
7412,18
7413,18
7414,18
7415,18
7416,18
7417,18
7418,18
7419,18
7420,18
7421,18
7422,18
7423,18
7424,18
7425,18
7426,18
7427,18
7428,18
7429,18
7430,18
7431,18
7432,18
7433,18
7434,18
7435,18
7436,18
7437,18
7438,18
7439,18
7440,18
7441,18
7442,18
7443,18
7444,18
7445,18
7446,18
7447,18
7448,18
7449,18
7450,18
7451,18
7452,18
7453,18
7454,18
7455,18
7456,18
7457,18
7458,18
7459,18
7460,18
7461,18
7462,18
7463,18
7464,18
7465,18
7466,18
7467,18
7468,18
7469,18
7470,18
7471,18
7472,18
7473,18
7474,18
7475,18
7476,18
7477,18
7478,18
7479,18
7480,18
7481,18
7482,18
7483,18
7484,18
7485,18
7486,18
7487,18
7488,18
7489,18
7490,18
7491,18
7492,18
7493,18
7494,18
7495,18
7496,18
7497,18
7498,18
7499,18
7500,18
7501,18
7502,18
7503,18
7504,18
7505,18
7506,18
7507,18
7508,18
7509,18
7510,18
7511,18
7512,18
7513,18
7514,18
7515,18
7516,18
7517,18
7518,18
7519,18
7520,18
7521,18
7522,18
7523,18
7524,18
7525,18
7526,18
7527,18
7528,18
7529,18
7530,18
7531,18
7532,18
7533,18
7534,18
7535,18
7536,18
7537,18
7538,18
7539,18
7540,18
7541,18
7542,18
7543,18
7544,18
7545,18
7546,18
7547,18
7548,18
7549,18
7550,18
7551,18
7552,18
7553,18
7554,18
7555,19
7556,19
7557,18
7558,18
7559,18
7560,18
7561,18
7562,18
7563,18
7564,18
7565,18
7566,18
7567,18
7568,18
7569,18
7570,18
7571,18
7572,18
7573,18
7574,18
7575,18
7576,18
7577,18
7578,18
7579,18
7580,18
7581,18
7582,18
7583,18
7584,18
7585,18
7586,18
7587,18
7588,18
7589,18
7590,18
7591,18
7592,18
7593,18
7594,18
7595,18
7596,18
7597,18
7598,18
7599,18
7600,18
7601,18
7602,18
7603,18
7604,18
7605,18
7606,18
7607,18
7608,18
7609,18
7610,18
7611,18
7612,18
7613,18
7614,18
7615,18
7616,18
7617,18
7618,18
7619,18
7620,18
7621,18
7622,18
7623,18
7624,18
7625,18
7626,18
7627,18
7628,18
7629,18
7630,18
7631,18
7632,18
7633,18
7634,18
7635,18
7636,18
7637,18
7638,18
7639,18
7640,18
7641,18
7642,18
7643,18
7644,18
7645,18
7646,18
7647,18
7648,18
7649,18
7650,18
7651,18
7652,18
7653,18
7654,18
7655,18
7656,18
7657,18
7658,18
7659,18
7660,18
7661,18
7662,18
7663,18
7664,18
7665,19
7666,18
7667,18
7668,18
7669,18
7670,18
7671,18
7672,18
7673,18
7674,18
7675,18
7676,18
7677,18
7678,18
7679,18
7680,18
7681,18
7682,18
7683,18
7684,18
7685,18
7686,18
7687,18
7688,18
7689,18
7690,18
7691,18
7692,18
7693,18
7694,18
7695,18
7696,18
7697,18
7698,18
7699,18
7700,18
7701,18
7702,18
7703,18
7704,18
7705,18
7706,18
7707,18
7708,18
7709,18
7710,18
7711,18
7712,18
7713,18
7714,18
7715,18
7716,18
7717,18
7718,18
7719,18
7720,18
7721,18
7722,18
7723,18
7724,18
7725,18
7726,18
7727,18
7728,18
7729,18
7730,18
7731,18
7732,18
7733,18
7734,18
7735,18
7736,18
7737,18
7738,18
7739,18
7740,18
7741,18
7742,18
7743,18
7744,18
7745,18
7746,18
7747,18
7748,18
7749,18
7750,18
7751,18
7752,18
7753,18
7754,18
7755,18
7756,18
7757,18
7758,18
7759,18
7760,18
7761,18
7762,18
7763,18
7764,18
7765,18
7766,18
7767,18
7768,18
7769,18
7770,18
7771,18
7772,18
7773,18
7774,18
7775,18
7776,18
7777,18
7778,18
7779,18
7780,18
7781,18
7782,18
7783,18
7784,18
7785,19
7786,18
7787,18
7788,18
7789,18
7790,19
7791,19
7792,19
7793,19
7794,19
7795,19
7796,19
7797,19
7798,19
7799,19
7800,19
7801,19
7802,19
7803,19
7804,19
7805,19
7806,19
7807,19
7808,19
7809,18
7810,18
7811,18
7812,18
7813,18
7814,18
7815,18
7816,18
7817,18
7818,18
7819,18
7820,18
7821,18
7822,18
7823,18
7824,18
7825,18
7826,18
7827,18
7828,18
7829,18
7830,18
7831,18
7832,18
7833,18
7834,18
7835,18
7836,18
7837,18
7838,18
7839,18
7840,18
7841,18
7842,18
7843,18
7844,18
7845,18
7846,18
7847,18
7848,18
7849,18
7850,18
7851,18
7852,18
7853,18
7854,18
7855,18
7856,18
7857,18
7858,18
7859,18
7860,18
7861,18
7862,18
7863,18
7864,18
7865,18
7866,18
7867,18
7868,18
7869,18
7870,18
7871,18
7872,18
7873,18
7874,18
7875,18
7876,18
7877,18
7878,18
7879,18
7880,18
7881,18
7882,18
7883,18
7884,18
7885,18
7886,18
7887,18
7888,18
7889,18
7890,18
7891,18
7892,18
7893,18
7894,18
7895,18
7896,18
7897,18
7898,18
7899,18
7900,18
7901,18
7902,18
7903,18
7904,18
7905,18
7906,18
7907,18
7908,18
7909,18
7910,18
7911,18
7912,18
7913,18
7914,18
7915,18
7916,18
7917,18
7918,18
7919,18
7920,18
7921,18
7922,18
7923,18
7924,18
7925,18
7926,18
7927,18
7928,18
7929,18
7930,18
7931,18
7932,18
7933,18
7934,18
7935,18
7936,18
7937,18
7938,18
7939,18
7940,18
7941,18
7942,18
7943,18
7944,18
7945,18
7946,18
7947,18
7948,18
7949,18
7950,18
7951,18
7952,18
7953,19
7954,20
7955,19
7956,19
7957,19
7958,19
7959,18
7960,18
7961,18
7962,18
7963,18
7964,18
7965,18
7966,18
7967,18
7968,18
7969,18
7970,18
7971,18
7972,18
7973,18
7974,18
7975,18
7976,18
7977,18
7978,18
7979,18
7980,18
7981,18
7982,18
7983,18
7984,18
7985,18
7986,18
7987,18
7988,18
7989,18
7990,18
7991,18
7992,18
7993,18
7994,18
7995,18
7996,18
7997,18
7998,18
7999,18
8000,18
8001,18
8002,18
8003,18
8004,18
8005,18
8006,18
8007,18
8008,18
8009,19
8010,18
8011,18
8012,18
8013,18
8014,18
8015,18
8016,18
8017,18
8018,18
8019,18
8020,18
8021,18
8022,18
8023,18
8024,18
8025,18
8026,18
8027,18
8028,18
8029,18
8030,18
8031,18
8032,18
8033,18
8034,18
8035,18
8036,18
8037,18
8038,18
8039,18
8040,18
8041,18
8042,18
8043,18
8044,18
8045,18
8046,18
8047,18
8048,18
8049,18
8050,18
8051,18
8052,19
8053,19
8054,19
8055,19
8056,19
8057,19
8058,19
8059,19
8060,19
8061,19
8062,19
8063,19
8064,19
8065,19
8066,19
8067,19
8068,19
8069,19
8070,19
8071,19
8072,19
8073,19
8074,19
8075,19
8076,19
8077,19
8078,19
8079,19
8080,19
8081,19
8082,19
8083,19
8084,19
8085,19
8086,19
8087,19
8088,19
8089,19
8090,19
8091,19
8092,19
8093,19
8094,19
8095,19
8096,19
8097,19
8098,19
8099,19
8100,19
8101,19
8102,19
8103,19
8104,19
8105,19
8106,19
8107,19
8108,19
8109,19
8110,19
8111,19
8112,19
8113,19
8114,19
8115,19
8116,19
8117,19
8118,19
8119,19
8120,19
8121,19
8122,19
8123,19
8124,19
8125,19
8126,19
8127,19
8128,19
8129,19
8130,19
8131,19
8132,19
8133,19
8134,19
8135,19
8136,19
8137,19
8138,19
8139,19
8140,19
8141,19
8142,19
8143,19
8144,19
8145,19
8146,19
8147,19
8148,19
8149,19
8150,19
8151,19
8152,19
8153,19
8154,19
8155,19
8156,19
8157,19
8158,19
8159,19
8160,19
8161,19
8162,19
8163,19
8164,19
8165,19
8166,19
8167,19
8168,19
8169,19
8170,19
8171,19
8172,19
8173,19
8174,19
8175,19
8176,19
8177,19
8178,19
8179,19
8180,19
8181,19
8182,19
8183,19
8184,19
8185,19
8186,19
8187,19
8188,19
8189,19
8190,19
8191,19
8192,19
8193,19
8194,19
8195,19
8196,19
8197,19
8198,19
8199,19
8200,19
8201,19
8202,19
8203,20
8204,20
8205,20
8206,20
8207,19
8208,19
8209,19
8210,19
8211,19
8212,19
8213,19
8214,19
8215,19
8216,19
8217,19
8218,19
8219,19
8220,19
8221,19
8222,19
8223,19
8224,19
8225,19
8226,19
8227,19
8228,19
8229,19
8230,19
8231,19
8232,19
8233,19
8234,19
8235,19
8236,19
8237,19
8238,19
8239,19
8240,19
8241,19
8242,19
8243,19
8244,19
8245,19
8246,19
8247,19
8248,19
8249,19
8250,19
8251,19
8252,19
8253,19
8254,19
8255,19
8256,19
8257,19
8258,19
8259,19
8260,19
8261,19
8262,19
8263,19
8264,19
8265,19
8266,19
8267,19
8268,19
8269,19
8270,19
8271,19
8272,19
8273,19
8274,19
8275,19
8276,19
8277,19
8278,19
8279,19
8280,19
8281,19
8282,19
8283,19
8284,19
8285,19
8286,19
8287,19
8288,19
8289,19
8290,19
8291,19
8292,19
8293,19
8294,19
8295,19
8296,19
8297,19
8298,19
8299,19
8300,19
8301,19
8302,19
8303,19
8304,19
8305,19
8306,19
8307,19
8308,19
8309,19
8310,19
8311,19
8312,19
8313,19
8314,19
8315,19
8316,19
8317,19
8318,19
8319,19
8320,19
8321,19
8322,19
8323,19
8324,19
8325,19
8326,19
8327,19
8328,19
8329,19
8330,19
8331,19
8332,19
8333,19
8334,19
8335,19
8336,19
8337,19
8338,19
8339,19
8340,19
8341,19
8342,19
8343,19
8344,19
8345,19
8346,19
8347,19
8348,20
8349,19
8350,19
8351,19
8352,19
8353,19
8354,19
8355,19
8356,19
8357,19
8358,19
8359,19
8360,19
8361,19
8362,19
8363,19
8364,19
8365,19
8366,19
8367,19
8368,19
8369,19
8370,19
8371,19
8372,19
8373,19
8374,19
8375,19
8376,19
8377,19
8378,19
8379,19
8380,19
8381,19
8382,19
8383,19
8384,19
8385,19
8386,19
8387,19
8388,19
8389,19
8390,19
8391,19
8392,19
8393,19
8394,19
8395,19
8396,19
8397,19
8398,19
8399,19
8400,19
8401,19
8402,19
8403,19
8404,19
8405,19
8406,19
8407,19
8408,19
8409,19
8410,19
8411,19
8412,19
8413,19
8414,19
8415,19
8416,19
8417,19
8418,19
8419,19
8420,19
8421,19
8422,19
8423,19
8424,19
8425,19
8426,19
8427,19
8428,19
8429,19
8430,19
8431,19
8432,19
8433,19
8434,19
8435,19
8436,19
8437,19
8438,19
8439,19
8440,19
8441,19
8442,19
8443,19
8444,19
8445,19
8446,19
8447,19
8448,19
8449,19
8450,19
8451,19
8452,19
8453,19
8454,19
8455,19
8456,19
8457,19
8458,19
8459,19
8460,19
8461,19
8462,19
8463,19
8464,19
8465,19
8466,20
8467,20
8468,20
8469,20
8470,20
8471,20
8472,20
8473,20
8474,20
8475,20
8476,20
8477,20
8478,20
8479,20
8480,20
8481,20
8482,20
8483,20
8484,20
8485,20
8486,19
8487,19
8488,19
8489,19
8490,19
8491,19
8492,19
8493,19
8494,19
8495,19
8496,19
8497,19
8498,19
8499,19
8500,19
8501,19
8502,19
8503,19
8504,19
8505,19
8506,19
8507,19
8508,19
8509,19
8510,19
8511,19
8512,19
8513,19
8514,19
8515,19
8516,19
8517,19
8518,19
8519,19
8520,19
8521,19
8522,19
8523,19
8524,19
8525,19
8526,19
8527,19
8528,19
8529,19
8530,19
8531,19
8532,19
8533,19
8534,19
8535,19
8536,19
8537,19
8538,19
8539,19
8540,19
8541,19
8542,19
8543,19
8544,19
8545,19
8546,19
8547,19
8548,19
8549,19
8550,19
8551,19
8552,19
8553,19
8554,19
8555,19
8556,19
8557,19
8558,19
8559,19
8560,19
8561,19
8562,19
8563,19
8564,19
8565,19
8566,19
8567,19
8568,19
8569,19
8570,19
8571,19
8572,19
8573,19
8574,19
8575,19
8576,19
8577,19
8578,19
8579,19
8580,19
8581,19
8582,19
8583,19
8584,19
8585,19
8586,19
8587,19
8588,19
8589,19
8590,19
8591,19
8592,19
8593,19
8594,20
8595,20
8596,20
8597,20
8598,19
8599,19
8600,19
8601,19
8602,19
8603,19
8604,19
8605,19
8606,19
8607,19
8608,19
8609,19
8610,19
8611,19
8612,19
8613,19
8614,19
8615,19
8616,19
8617,19
8618,19
8619,19
8620,19
8621,19
8622,19
8623,19
8624,19
8625,19
8626,19
8627,19
8628,19
8629,19
8630,19
8631,19
8632,19
8633,19
8634,19
8635,19
8636,19
8637,19
8638,19
8639,19
8640,19
8641,19
8642,19
8643,19
8644,19
8645,19
8646,19
8647,19
8648,19
8649,19
8650,19
8651,19
8652,19
8653,19
8654,19
8655,19
8656,19
8657,19
8658,19
8659,19
8660,19
8661,19
8662,19
8663,19
8664,19
8665,19
8666,19
8667,19
8668,19
8669,19
8670,19
8671,19
8672,19
8673,19
8674,19
8675,19
8676,19
8677,19
8678,19
8679,19
8680,19
8681,19
8682,19
8683,19
8684,19
8685,19
8686,19
8687,19
8688,19
8689,20
8690,20
8691,19
8692,19
8693,19
8694,19
8695,19
8696,19
8697,19
8698,19
8699,19
8700,19
8701,19
8702,19
8703,19
8704,19
8705,19
8706,19
8707,19
8708,19
8709,19
8710,19
8711,19
8712,19
8713,19
8714,19
8715,19
8716,19
8717,19
8718,19
8719,19
8720,19
8721,19
8722,19
8723,19
8724,19
8725,19
8726,19
8727,19
8728,19
8729,19
8730,19
8731,19
8732,19
8733,19
8734,19
8735,19
8736,19
8737,19
8738,19
8739,19
8740,19
8741,19
8742,19
8743,19
8744,19
8745,19
8746,19
8747,19
8748,19
8749,19
8750,19
8751,19
8752,19
8753,19
8754,20
8755,20
8756,20
8757,20
8758,19
8759,19
8760,19
8761,19
8762,19
8763,19
8764,19
8765,19
8766,19
8767,19
8768,19
8769,19
8770,19
8771,19
8772,19
8773,19
8774,19
8775,19
8776,19
8777,19
8778,19
8779,19
8780,19
8781,19
8782,19
8783,19
8784,19
8785,19
8786,19
8787,19
8788,19
8789,19
8790,19
8791,19
8792,19
8793,19
8794,19
8795,19
8796,19
8797,19
8798,19
8799,19
8800,19
8801,19
8802,19
8803,19
8804,19
8805,19
8806,19
8807,19
8808,19
8809,19
8810,19
8811,19
8812,19
8813,19
8814,19
8815,19
8816,19
8817,19
8818,19
8819,19
8820,19
8821,19
8822,19
8823,19
8824,19
8825,19
8826,19
8827,19
8828,19
8829,19
8830,19
8831,19
8832,19
8833,19
8834,19
8835,19
8836,19
8837,19
8838,19
8839,19
8840,19
8841,19
8842,19
8843,19
8844,19
8845,19
8846,19
8847,19
8848,19
8849,19
8850,19
8851,19
8852,19
8853,19
8854,19
8855,19
8856,19
8857,19
8858,19
8859,19
8860,19
8861,19
8862,19
8863,19
8864,19
8865,19
8866,19
8867,19
8868,19
8869,19
8870,19
8871,19
8872,19
8873,19
8874,19
8875,19
8876,19
8877,19
8878,19
8879,19
8880,20
8881,20
8882,20
8883,19
8884,19
8885,19
8886,19
8887,19
8888,19
8889,19
8890,19
8891,19
8892,19
8893,19
8894,19
8895,19
8896,19
8897,19
8898,19
8899,19
8900,19
8901,19
8902,19
8903,19
8904,19
8905,19
8906,19
8907,19
8908,19
8909,19
8910,19
8911,19
8912,19
8913,19
8914,19
8915,19
8916,19
8917,19
8918,19
8919,19
8920,19
8921,19
8922,19
8923,19
8924,19
8925,19
8926,19
8927,19
8928,19
8929,19
8930,19
8931,19
8932,19
8933,19
8934,19
8935,19
8936,19
8937,19
8938,19
8939,19
8940,19
8941,19
8942,19
8943,19
8944,19
8945,19
8946,19
8947,19
8948,19
8949,20
8950,20
8951,20
8952,20
8953,20
8954,20
8955,20
8956,20
8957,20
8958,20
8959,20
8960,19
8961,19
8962,19
8963,19
8964,19
8965,19
8966,19
8967,19
8968,19
8969,19
8970,19
8971,19
8972,19
8973,19
8974,19
8975,19
8976,19
8977,19
8978,19
8979,19
8980,19
8981,19
8982,19
8983,19
8984,20
8985,21
8986,20
8987,19
8988,19
8989,19
8990,19
8991,19
8992,19
8993,19
8994,19
8995,19
8996,19
8997,19
8998,19
8999,19
9000,19
9001,19
9002,19
9003,19
9004,19
9005,19
9006,19
9007,19
9008,19
9009,19
9010,19
9011,19
9012,19
9013,19
9014,19
9015,19
9016,19
9017,19
9018,19
9019,19
9020,19
9021,19
9022,19
9023,19
9024,19
9025,19
9026,19
9027,19
9028,19
9029,19
9030,19
9031,19
9032,19
9033,19
9034,19
9035,19
9036,19
9037,19
9038,19
9039,19
9040,19
9041,19
9042,19
9043,19
9044,19
9045,20
9046,19
9047,19
9048,19
9049,19
9050,19
9051,19
9052,19
9053,19
9054,19
9055,19
9056,19
9057,20
9058,19
9059,19
9060,19
9061,19
9062,19
9063,19
9064,19
9065,19
9066,19
9067,19
9068,19
9069,19
9070,19
9071,19
9072,19
9073,19
9074,19
9075,19
9076,19
9077,19
9078,19
9079,19
9080,19
9081,19
9082,19
9083,19
9084,19
9085,19
9086,19
9087,19
9088,19
9089,19
9090,19
9091,19
9092,19
9093,19
9094,19
9095,19
9096,19
9097,19
9098,19
9099,19
9100,19
9101,19
9102,19
9103,19
9104,19
9105,19
9106,19
9107,19
9108,19
9109,19
9110,19
9111,19
9112,19
9113,19
9114,19
9115,19
9116,19
9117,19
9118,19
9119,19
9120,19
9121,19
9122,19
9123,19
9124,19
9125,19
9126,19
9127,19
9128,19
9129,19
9130,19
9131,19
9132,19
9133,19
9134,19
9135,19
9136,19
9137,19
9138,19
9139,19
9140,19
9141,19
9142,19
9143,19
9144,19
9145,19
9146,19
9147,19
9148,19
9149,19
9150,19
9151,19
9152,19
9153,19
9154,19
9155,19
9156,19
9157,19
9158,19
9159,19
9160,19
9161,19
9162,19
9163,19
9164,19
9165,19
9166,19
9167,19
9168,19
9169,19
9170,19
9171,19
9172,19
9173,20
9174,20
9175,19
9176,19
9177,19
9178,19
9179,19
9180,19
9181,19
9182,19
9183,19
9184,19
9185,19
9186,19
9187,19
9188,19
9189,19
9190,19
9191,19
9192,19
9193,19
9194,19
9195,19
9196,19
9197,19
9198,19
9199,19
9200,19
9201,19
9202,19
9203,19
9204,19
9205,19
9206,19
9207,19
9208,19
9209,19
9210,19
9211,19
9212,19
9213,19
9214,19
9215,19
9216,19
9217,19
9218,19
9219,19
9220,19
9221,19
9222,19
9223,19
9224,19
9225,19
9226,19
9227,19
9228,19
9229,19
9230,19
9231,19
9232,19
9233,19
9234,19
9235,19
9236,19
9237,19
9238,19
9239,19
9240,19
9241,19
9242,19
9243,19
9244,19
9245,19
9246,19
9247,19
9248,19
9249,19
9250,19
9251,19
9252,19
9253,19
9254,19
9255,19
9256,19
9257,19
9258,19
9259,19
9260,19
9261,19
9262,19
9263,19
9264,19
9265,19
9266,19
9267,19
9268,19
9269,19
9270,19
9271,19
9272,19
9273,19
9274,19
9275,19
9276,19
9277,19
9278,19
9279,19
9280,19
9281,19
9282,19
9283,19
9284,19
9285,19
9286,19
9287,19
9288,19
9289,19
9290,19
9291,19
9292,19
9293,19
9294,19
9295,19
9296,19
9297,19
9298,19
9299,19
9300,19
9301,19
9302,19
9303,19
9304,19
9305,19
9306,19
9307,19
9308,19
9309,19
9310,19
9311,19
9312,19
9313,19
9314,19
9315,19
9316,19
9317,19
9318,19
9319,19
9320,19
9321,19
9322,19
9323,19
9324,19
9325,19
9326,19
9327,19
9328,19
9329,19
9330,19
9331,19
9332,19
9333,19
9334,19
9335,19
9336,19
9337,19
9338,19
9339,19
9340,19
9341,19
9342,19
9343,19
9344,19
9345,19
9346,19
9347,19
9348,19
9349,19
9350,19
9351,19
9352,19
9353,19
9354,19
9355,19
9356,19
9357,19
9358,19
9359,19
9360,19
9361,19
9362,19
9363,19
9364,19
9365,19
9366,19
9367,19
9368,19
9369,19
9370,19
9371,19
9372,19
9373,19
9374,19
9375,19
9376,19
9377,19
9378,19
9379,19
9380,19
9381,19
9382,19
9383,19
9384,19
9385,19
9386,19
9387,19
9388,19
9389,19
9390,19
9391,19
9392,19
9393,19
9394,19
9395,19
9396,19
9397,19
9398,19
9399,19
9400,19
9401,19
9402,19
9403,19
9404,19
9405,19
9406,19
9407,19
9408,19
9409,19
9410,19
9411,19
9412,19
9413,19
9414,19
9415,19
9416,19
9417,19
9418,19
9419,19
9420,19
9421,19
9422,19
9423,19
9424,19
9425,19
9426,19
9427,19
9428,19
9429,19
9430,19
9431,19
9432,19
9433,19
9434,19
9435,19
9436,19
9437,19
9438,19
9439,19
9440,19
9441,19
9442,19
9443,19
9444,19
9445,19
9446,19
9447,19
9448,19
9449,19
9450,19
9451,19
9452,19
9453,19
9454,19
9455,19
9456,19
9457,19
9458,19
9459,19
9460,19
9461,19
9462,19
9463,19
9464,19
9465,19
9466,19
9467,19
9468,19
9469,19
9470,19
9471,19
9472,19
9473,19
9474,19
9475,19
9476,19
9477,19
9478,19
9479,19
9480,19
9481,19
9482,19
9483,19
9484,19
9485,19
9486,19
9487,19
9488,19
9489,19
9490,19
9491,19
9492,19
9493,19
9494,19
9495,19
9496,19
9497,19
9498,19
9499,19
9500,19
9501,19
9502,19
9503,19
9504,19
9505,19
9506,19
9507,19
9508,19
9509,19
9510,19
9511,19
9512,19
9513,19
9514,19
9515,19
9516,19
9517,19
9518,19
9519,19
9520,19
9521,19
9522,19
9523,19
9524,19
9525,19
9526,19
9527,19
9528,19
9529,19
9530,19
9531,19
9532,19
9533,19
9534,19
9535,19
9536,19
9537,19
9538,19
9539,19
9540,19
9541,19
9542,19
9543,19
9544,19
9545,19
9546,19
9547,19
9548,19
9549,19
9550,19
9551,19
9552,19
9553,19
9554,19
9555,19
9556,19
9557,19
9558,19
9559,19
9560,19
9561,20
9562,19
9563,19
9564,19
9565,19
9566,19
9567,19
9568,19
9569,19
9570,19
9571,19
9572,19
9573,19
9574,19
9575,19
9576,19
9577,19
9578,19
9579,19
9580,19
9581,19
9582,19
9583,19
9584,19
9585,19
9586,19
9587,19
9588,19
9589,19
9590,19
9591,19
9592,19
9593,19
9594,19
9595,19
9596,19
9597,19
9598,19
9599,19
9600,19
9601,19
9602,19
9603,19
9604,19
9605,19
9606,19
9607,19
9608,19
9609,19
9610,19
9611,19
9612,19
9613,19
9614,19
9615,19
9616,19
9617,19
9618,19
9619,19
9620,19
9621,19
9622,19
9623,19
9624,19
9625,19
9626,19
9627,19
9628,19
9629,19
9630,19
9631,19
9632,19
9633,19
9634,20
9635,20
9636,20
9637,19
9638,19
9639,19
9640,19
9641,19
9642,19
9643,19
9644,19
9645,19
9646,19
9647,19
9648,19
9649,19
9650,19
9651,19
9652,19
9653,19
9654,19
9655,19
9656,19
9657,19
9658,19
9659,19
9660,19
9661,19
9662,19
9663,19
9664,19
9665,19
9666,19
9667,19
9668,19
9669,19
9670,20
9671,19
9672,19
9673,19
9674,19
9675,19
9676,19
9677,19
9678,19
9679,19
9680,19
9681,19
9682,19
9683,19
9684,19
9685,19
9686,19
9687,19
9688,19
9689,19
9690,19
9691,19
9692,19
9693,19
9694,19
9695,19
9696,19
9697,19
9698,19
9699,19
9700,19
9701,19
9702,19
9703,19
9704,19
9705,19
9706,19
9707,19
9708,19
9709,19
9710,19
9711,19
9712,19
9713,19
9714,19
9715,19
9716,19
9717,19
9718,19
9719,19
9720,19
9721,19
9722,19
9723,19
9724,19
9725,19
9726,19
9727,19
9728,19
9729,19
9730,19
9731,19
9732,19
9733,19
9734,19
9735,19
9736,19
9737,19
9738,19
9739,19
9740,19
9741,19
9742,19
9743,19
9744,19
9745,19
9746,19
9747,19
9748,19
9749,19
9750,19
9751,19
9752,19
9753,19
9754,19
9755,19
9756,19
9757,19
9758,19
9759,19
9760,19
9761,19
9762,19
9763,19
9764,19
9765,19
9766,19
9767,19
9768,19
9769,19
9770,19
9771,19
9772,19
9773,19
9774,19
9775,19
9776,19
9777,19
9778,19
9779,19
9780,19
9781,19
9782,19
9783,19
9784,19
9785,19
9786,19
9787,19
9788,19
9789,19
9790,19
9791,19
9792,19
9793,19
9794,19
9795,19
9796,19
9797,19
9798,19
9799,19
9800,19
9801,19
9802,19
9803,19
9804,19
9805,19
9806,19
9807,19
9808,19
9809,19
9810,19
9811,20
9812,19
9813,19
9814,19
9815,19
9816,19
9817,19
9818,19
9819,19
9820,19
9821,19
9822,19
9823,19
9824,19
9825,19
9826,19
9827,19
9828,19
9829,19
9830,19
9831,19
9832,19
9833,19
9834,19
9835,19
9836,19
9837,19
9838,19
9839,19
9840,19
9841,19
9842,19
9843,19
9844,19
9845,19
9846,19
9847,19
9848,19
9849,20
9850,20
9851,20
9852,20
9853,20
9854,20
9855,20
9856,20
9857,19
9858,19
9859,19
9860,19
9861,19
9862,19
9863,19
9864,19
9865,19
9866,19
9867,19
9868,19
9869,19
9870,19
9871,19
9872,19
9873,19
9874,19
9875,19
9876,19
9877,19
9878,19
9879,19
9880,19
9881,19
9882,19
9883,19
9884,19
9885,19
9886,19
9887,19
9888,19
9889,19
9890,19
9891,19
9892,19
9893,19
9894,19
9895,19
9896,20
9897,20
9898,20
9899,20
9900,19
9901,19
9902,19
9903,19
9904,19
9905,19
9906,19
9907,19
9908,19
9909,19
9910,19
9911,19
9912,19
9913,19
9914,19
9915,19
9916,19
9917,19
9918,19
9919,19
9920,19
9921,19
9922,19
9923,20
9924,19
9925,19
9926,19
9927,19
9928,19
9929,19
9930,19
9931,19
9932,19
9933,19
9934,19
9935,19
9936,19
9937,19
9938,19
9939,19
9940,19
9941,19
9942,19
9943,19
9944,19
9945,19
9946,19
9947,19
9948,19
9949,19
9950,19
9951,19
9952,19
9953,19
9954,19
9955,20
9956,19
9957,19
9958,19
9959,19
9960,19
9961,19
9962,19
9963,19
9964,19
9965,19
9966,19
9967,19
9968,19
9969,19
9970,19
9971,19
9972,19
9973,19
9974,19
9975,19
9976,19
9977,19
9978,19
9979,19
9980,19
9981,19
9982,19
9983,19
9984,19
9985,19
9986,19
9987,19
9988,19
9989,19
9990,19
9991,19
9992,19
9993,19
9994,19
9995,19
9996,19
9997,19
9998,19
9999,19
10000,19
