1,3
2,3
3,3
4,3
5,3
6,3
7,3
8,3
9,3
10,3
11,3
12,3
13,3
14,4
15,4
16,4
17,4
18,4
19,4
20,4
21,4
22,4
23,4
24,4
25,4
26,4
27,4
28,4
29,4
30,4
31,4
32,4
33,4
34,4
35,4
36,4
37,4
38,4
39,4
40,4
41,4
42,4
43,4
44,4
45,4
46,4
47,4
48,4
49,4
50,4
51,4
52,4
53,4
54,4
55,4
56,4
57,4
58,4
59,4
60,4
61,4
62,4
63,4
64,4
65,4
66,4
67,4
68,4
69,4
70,4
71,4
72,4
73,4
74,4
75,4
76,4
77,4
78,4
79,4
80,4
81,4
82,4
83,4
84,4
85,4
86,4
87,4
88,4
89,4
90,4
91,4
92,4
93,4
94,4
95,4
96,4
97,4
98,4
99,4
100,4
101,4
102,4
103,4
104,4
105,4
106,4
107,4
108,4
109,4
110,4
111,4
112,4
113,4
114,4
115,4
116,4
117,4
118,4
119,4
120,4
121,4
122,4
123,4
124,4
125,4
126,4
127,4
128,4
129,4
130,4
131,4
132,4
133,4
134,4
135,4
136,4
137,4
138,4
139,4
140,4
141,4
142,4
143,4
144,4
145,4
146,4
147,4
148,4
149,4
150,4
151,4
152,4
153,4
154,4
155,4
156,4
157,4
158,4
159,4
160,4
161,4
162,4
163,4
164,4
165,4
166,4
167,4
168,4
169,4
170,4
171,5
172,5
173,4
174,4
175,4
176,4
177,4
178,4
179,4
180,4
181,4
182,4
183,4
184,4
185,4
186,4
187,4
188,4
189,4
190,4
191,4
192,4
193,4
194,4
195,4
196,4
197,4
198,4
199,4
200,4
201,4
202,4
203,4
204,4
205,4
206,4
207,4
208,4
209,4
210,4
211,4
212,4
213,4
214,4
215,4
216,4
217,4
218,4
219,4
220,4
221,4
222,4
223,4
224,4
225,4
226,4
227,4
228,4
229,4
230,4
231,4
232,4
233,4
234,4
235,4
236,4
237,4
238,4
239,4
240,4
241,4
242,4
243,5
244,5
245,5
246,5
247,5
248,5
249,6
250,6
251,6
252,6
253,6
254,6
255,6
256,6
257,6
258,6
259,6
260,6
261,6
262,6
263,6
264,6
265,6
266,6
267,6
268,6
269,6
270,6
271,6
272,6
273,6
274,6
275,6
276,6
277,6
278,6
279,6
280,6
281,6
282,6
283,6
284,6
285,6
286,6
287,6
288,6
289,6
290,6
291,6
292,6
293,6
294,6
295,6
296,6
297,6
298,6
299,6
300,6
301,6
302,6
303,6
304,6
305,6
306,6
307,6
308,6
309,6
310,6
311,6
312,6
313,6
314,6
315,6
316,6
317,6
318,6
319,6
320,6
321,6
322,6
323,6
324,6
325,6
326,7
327,6
328,6
329,6
330,6
331,6
332,6
333,6
334,6
335,6
336,6
337,6
338,6
339,6
340,6
341,6
342,6
343,6
344,6
345,6
346,6
347,6
348,6
349,6
350,6
351,6
352,6
353,6
354,6
355,6
356,6
357,6
358,6
359,6
360,6
361,6
362,6
363,6
364,6
365,6
366,6
367,6
368,6
369,6
370,6
371,6
372,6
373,6
374,6
375,6
376,6
377,6
378,6
379,6
380,6
381,6
382,6
383,6
384,6
385,6
386,6
387,6
388,6
389,6
390,6
391,6
392,6
393,6
394,6
395,6
396,6
397,6
398,7
399,6
400,6
401,6
402,6
403,6
404,6
405,6
406,7
407,7
408,7
409,7
410,7
411,7
412,7
413,7
414,7
415,7
416,7
417,7
418,7
419,7
420,7
421,7
422,7
423,7
424,7
425,7
426,7
427,7
428,7
429,7
430,7
431,7
432,7
433,7
434,7
435,7
436,7
437,7
438,7
439,7
440,7
441,7
442,7
443,7
444,7
445,7
446,7
447,7
448,7
449,7
450,7
451,7
452,7
453,7
454,7
455,7
456,7
457,7
458,7
459,7
460,8
461,8
462,8
463,8
464,8
465,8
466,8
467,8
468,8
469,8
470,8
471,8
472,8
473,8
474,8
475,8
476,8
477,8
478,8
479,8
480,8
481,8
482,8
483,8
484,8
485,8
486,8
487,8
488,8
489,8
490,8
491,8
492,8
493,8
494,8
495,8
496,8
497,8
498,8
499,8
500,8
501,8
502,8
503,8
504,8
505,8
506,8
507,8
508,8
509,8
510,8
511,8
512,8
513,8
514,8
515,8
516,8
517,8
518,8
519,8
520,8
521,8
522,8
523,8
524,8
525,8
526,8
527,8
528,8
529,8
530,8
531,8
532,8
533,8
534,8
535,8
536,8
537,8
538,8
539,8
540,9
541,8
542,8
543,8
544,8
545,8
546,8
547,8
548,8
549,8
550,8
551,8
552,8
553,8
554,8
555,8
556,8
557,8
558,8
559,8
560,8
561,8
562,8
563,8
564,8
565,8
566,8
567,8
568,8
569,8
570,8
571,8
572,8
573,8
574,8
575,8
576,8
577,8
578,8
579,8
580,8
581,8
582,8
583,8
584,8
585,8
586,8
587,8
588,8
589,8
590,8
591,8
592,8
593,8
594,8
595,8
596,8
597,8
598,8
599,8
600,8
601,8
602,8
603,8
604,8
605,8
606,8
607,8
608,8
609,8
610,8
611,8
612,8
613,8
614,8
615,8
616,8
617,8
618,8
619,8
620,8
621,8
622,9
623,8
624,8
625,8
626,8
627,8
628,8
629,8
630,8
631,8
632,8
633,8
634,8
635,8
636,8
637,8
638,8
639,8
640,8
641,8
642,8
643,8
644,8
645,8
646,8
647,8
648,8
649,8
650,8
651,8
652,8
653,8
654,8
655,8
656,8
657,8
658,8
659,8
660,8
661,8
662,8
663,8
664,8
665,8
666,8
667,8
668,8
669,8
670,8
671,8
672,8
673,8
674,8
675,8
676,8
677,8
678,8
679,8
680,8
681,8
682,8
683,8
684,8
685,8
686,8
687,8
688,8
689,8
690,8
691,8
692,8
693,8
694,8
695,8
696,8
697,8
698,8
699,8
700,8
701,8
702,8
703,8
704,8
705,8
706,8
707,8
708,8
709,8
710,8
711,8
712,8
713,8
714,8
715,8
716,8
717,8
718,8
719,8
720,8
721,8
722,8
723,8
724,8
725,8
726,8
727,8
728,8
729,8
730,8
731,8
732,8
733,8
734,8
735,8
736,8
737,8
738,8
739,8
740,8
741,8
742,8
743,8
744,8
745,8
746,8
747,9
748,8
749,8
750,8
751,8
752,8
753,8
754,8
755,8
756,8
757,8
758,8
759,8
760,8
761,8
762,9
763,8
764,8
765,8
766,8
767,8
768,8
769,8
770,8
771,8
772,8
773,8
774,8
775,8
776,8
777,8
778,8
779,8
780,8
781,8
782,8
783,8
784,8
785,8
786,8
787,8
788,8
789,8
790,8
791,8
792,8
793,8
794,8
795,8
796,9
797,8
798,8
799,8
800,8
801,9
802,9
803,9
804,9
805,9
806,8
807,8
808,8
809,8
810,8
811,8
812,8
813,8
814,8
815,8
816,8
817,8
818,8
819,8
820,8
821,8
822,8
823,8
824,8
825,8
826,8
827,8
828,8
829,8
830,8
831,8
832,8
833,8
834,8
835,8
836,8
837,8
838,8
839,8
840,8
841,8
842,8
843,8
844,8
845,8
846,8
847,8
848,8
849,8
850,8
851,8
852,8
853,8
854,8
855,8
856,8
857,8
858,8
859,8
860,8
861,8
862,8
863,8
864,8
865,8
866,8
867,8
868,8
869,8
870,8
871,8
872,8
873,8
874,8
875,8
876,8
877,8
878,8
879,8
880,8
881,8
882,8
883,8
884,8
885,8
886,8
887,8
888,8
889,8
890,8
891,8
892,8
893,8
894,8
895,8
896,8
897,8
898,8
899,8
900,8
901,8
902,8
903,8
904,8
905,8
906,8
907,8
908,8
909,8
910,8
911,8
912,8
913,8
914,8
915,8
916,8
917,8
918,8
919,8
920,8
921,8
922,8
923,8
924,8
925,9
926,8
927,8
928,8
929,8
930,9
931,8
932,8
933,8
934,8
935,8
936,8
937,8
938,8
939,8
940,8
941,8
942,8
943,8
944,8
945,8
946,8
947,8
948,8
949,8
950,8
951,8
952,8
953,8
954,8
955,8
956,8
957,8
958,8
959,8
960,8
961,8
962,8
963,8
964,8
965,8
966,8
967,8
968,8
969,8
970,8
971,8
972,8
973,8
974,8
975,8
976,8
977,8
978,8
979,8
980,8
981,8
982,8
983,8
984,8
985,8
986,8
987,8
988,8
989,8
990,8
991,8
992,8
993,8
994,8
995,8
996,8
997,8
998,8
999,8
1000,8
1001,8
1002,8
1003,8
1004,8
1005,8
1006,8
1007,8
1008,8
1009,8
1010,8
1011,8
1012,8
1013,8
1014,8
1015,8
1016,8
1017,8
1018,8
1019,8
1020,8
1021,8
1022,8
1023,8
1024,8
1025,8
1026,8
1027,8
1028,8
1029,8
1030,8
1031,8
1032,8
1033,8
1034,8
1035,8
1036,8
1037,8
1038,8
1039,8
1040,8
1041,8
1042,8
1043,8
1044,8
1045,8
1046,8
1047,8
1048,8
1049,8
1050,8
1051,8
1052,8
1053,8
1054,8
1055,8
1056,8
1057,8
1058,8
1059,8
1060,8
1061,8
1062,8
1063,8
1064,8
1065,8
1066,8
1067,8
1068,8
1069,8
1070,8
1071,8
1072,8
1073,8
1074,8
1075,8
1076,8
1077,8
1078,8
1079,8
1080,8
1081,8
1082,8
1083,8
1084,8
1085,8
1086,8
1087,8
1088,8
1089,8
1090,8
1091,8
1092,8
1093,8
1094,8
1095,8
1096,8
1097,8
1098,8
1099,8
1100,8
1101,8
1102,8
1103,8
1104,8
1105,8
1106,8
1107,8
1108,8
1109,8
1110,8
1111,8
1112,8
1113,8
1114,8
1115,8
1116,8
1117,8
1118,8
1119,8
1120,8
1121,8
1122,8
1123,8
1124,8
1125,8
1126,8
1127,8
1128,8
1129,8
1130,8
1131,8
1132,8
1133,8
1134,8
1135,8
1136,8
1137,8
1138,8
1139,8
1140,8
1141,9
1142,9
1143,9
1144,9
1145,9
1146,9
1147,9
1148,9
1149,9
1150,8
1151,8
1152,8
1153,8
1154,8
1155,8
1156,8
1157,8
1158,8
1159,9
1160,8
1161,8
1162,8
1163,8
1164,8
1165,8
1166,8
1167,8
1168,8
1169,8
1170,8
1171,8
1172,8
1173,8
1174,8
1175,8
1176,8
1177,8
1178,8
1179,8
1180,8
1181,8
1182,8
1183,8
1184,8
1185,8
1186,8
1187,8
1188,8
1189,8
1190,8
1191,8
1192,8
1193,8
1194,8
1195,8
1196,8
1197,8
1198,8
1199,8
1200,8
1201,8
1202,8
1203,8
1204,8
1205,8
1206,8
1207,8
1208,8
1209,8
1210,8
1211,8
1212,8
1213,8
1214,8
1215,8
1216,8
1217,8
1218,8
1219,8
1220,8
1221,8
1222,8
1223,8
1224,8
1225,8
1226,8
1227,8
1228,8
1229,8
1230,8
1231,8
1232,8
1233,8
1234,8
1235,8
1236,9
1237,9
1238,9
1239,9
1240,9
1241,9
1242,9
1243,9
1244,9
1245,9
1246,9
1247,9
1248,9
1249,9
1250,9
1251,9
1252,9
1253,9
1254,9
1255,9
1256,9
1257,9
1258,9
1259,9
1260,9
1261,9
1262,9
1263,9
1264,9
1265,9
1266,9
1267,9
1268,9
1269,9
1270,9
1271,9
1272,9
1273,9
1274,9
1275,9
1276,9
1277,9
1278,9
1279,9
1280,9
1281,9
1282,9
1283,9
1284,9
1285,9
1286,9
1287,9
1288,9
1289,9
1290,9
1291,9
1292,9
1293,9
1294,9
1295,9
1296,9
1297,9
1298,9
1299,9
1300,9
1301,9
1302,9
1303,9
1304,9
1305,9
1306,9
1307,9
1308,9
1309,9
1310,9
1311,9
1312,9
1313,9
1314,9
1315,9
1316,9
1317,9
1318,10
1319,9
1320,9
1321,9
1322,9
1323,9
1324,9
1325,9
1326,9
1327,9
1328,9
1329,9
1330,9
1331,9
1332,9
1333,9
1334,9
1335,9
1336,9
1337,9
1338,9
1339,9
1340,9
1341,9
1342,9
1343,9
1344,9
1345,9
1346,9
1347,9
1348,9
1349,9
1350,9
1351,9
1352,9
1353,9
1354,9
1355,9
1356,9
1357,9
1358,9
1359,9
1360,9
1361,9
1362,9
1363,9
1364,9
1365,9
1366,9
1367,9
1368,9
1369,9
1370,9
1371,9
1372,9
1373,9
1374,9
1375,9
1376,9
1377,9
1378,9
1379,9
1380,9
1381,9
1382,9
1383,9
1384,9
1385,9
1386,9
1387,9
1388,9
1389,9
1390,9
1391,9
1392,9
1393,9
1394,9
1395,9
1396,9
1397,9
1398,9
1399,9
1400,9
1401,9
1402,9
1403,9
1404,9
1405,9
1406,9
1407,9
1408,9
1409,9
1410,9
1411,9
1412,9
1413,9
1414,9
1415,9
1416,9
1417,9
1418,9
1419,9
1420,9
1421,9
1422,9
1423,9
1424,9
1425,9
1426,9
1427,9
1428,9
1429,9
1430,9
1431,9
1432,9
1433,9
1434,9
1435,9
1436,9
1437,9
1438,9
1439,9
1440,9
1441,9
1442,9
1443,9
1444,9
1445,9
1446,9
1447,9
1448,9
1449,9
1450,9
1451,9
1452,9
1453,9
1454,9
1455,9
1456,9
1457,9
1458,9
1459,9
1460,9
1461,9
1462,9
1463,9
1464,9
1465,9
1466,9
1467,9
1468,9
1469,9
1470,9
1471,9
1472,9
1473,9
1474,9
1475,9
1476,9
1477,9
1478,9
1479,9
1480,9
1481,9
1482,9
1483,9
1484,9
1485,9
1486,9
1487,9
1488,9
1489,9
1490,9
1491,9
1492,9
1493,9
1494,9
1495,9
1496,9
1497,9
1498,9
1499,9
1500,9
1501,9
1502,9
1503,9
1504,9
1505,9
1506,9
1507,9
1508,9
1509,9
1510,9
1511,9
1512,9
1513,9
1514,9
1515,9
1516,9
1517,9
1518,9
1519,9
1520,9
1521,9
1522,9
1523,9
1524,9
1525,9
1526,9
1527,9
1528,9
1529,9
1530,9
1531,9
1532,9
1533,9
1534,9
1535,9
1536,10
1537,10
1538,10
1539,10
1540,10
1541,10
1542,9
1543,9
1544,9
1545,9
1546,9
1547,9
1548,9
1549,9
1550,9
1551,9
1552,9
1553,9
1554,9
1555,9
1556,9
1557,9
1558,9
1559,9
1560,9
1561,9
1562,9
1563,9
1564,9
1565,9
1566,9
1567,9
1568,9
1569,9
1570,9
1571,9
1572,9
1573,9
1574,9
1575,9
1576,9
1577,9
1578,9
1579,9
1580,9
1581,9
1582,9
1583,9
1584,9
1585,9
1586,9
1587,9
1588,9
1589,10
1590,10
1591,10
1592,10
1593,10
1594,10
1595,10
1596,10
1597,10
1598,10
1599,10
1600,10
1601,10
1602,10
1603,10
1604,10
1605,10
1606,10
1607,10
1608,11
1609,10
1610,10
1611,10
1612,10
1613,10
1614,10
1615,10
1616,10
1617,10
1618,10
1619,10
1620,10
1621,10
1622,10
1623,10
1624,10
1625,10
1626,10
1627,10
1628,10
1629,10
1630,10
1631,10
1632,10
1633,10
1634,10
1635,10
1636,10
1637,10
1638,10
1639,10
1640,10
1641,10
1642,10
1643,10
1644,10
1645,10
1646,10
1647,10
1648,10
1649,10
1650,10
1651,10
1652,10
1653,10
1654,10
1655,10
1656,10
1657,10
1658,10
1659,10
1660,10
1661,10
1662,10
1663,10
1664,11
1665,10
1666,10
1667,10
1668,11
1669,11
1670,11
1671,11
1672,11
1673,11
1674,11
1675,11
1676,11
1677,11
1678,11
1679,11
1680,11
1681,11
1682,11
1683,11
1684,11
1685,11
1686,11
1687,11
1688,11
1689,11
1690,11
1691,11
1692,11
1693,11
1694,11
1695,11
1696,11
1697,11
1698,11
1699,11
1700,11
1701,11
1702,11
1703,11
1704,11
1705,11
1706,11
1707,11
1708,11
1709,11
1710,11
1711,11
1712,11
1713,11
1714,11
1715,11
1716,11
1717,11
1718,11
1719,11
1720,11
1721,11
1722,12
1723,12
1724,12
1725,12
1726,12
1727,12
1728,12
1729,12
1730,12
1731,12
1732,12
1733,12
1734,12
1735,12
1736,12
1737,12
1738,12
1739,12
1740,12
1741,12
1742,12
1743,12
1744,12
1745,12
1746,12
1747,12
1748,12
1749,12
1750,12
1751,12
1752,12
1753,12
1754,12
1755,12
1756,12
1757,12
1758,12
1759,12
1760,12
1761,12
1762,12
1763,12
1764,12
1765,12
1766,12
1767,12
1768,12
1769,12
1770,12
1771,12
1772,12
1773,12
1774,12
1775,12
1776,12
1777,12
1778,12
1779,12
1780,12
1781,12
1782,12
1783,12
1784,12
1785,12
1786,12
1787,12
1788,12
1789,12
1790,12
1791,12
1792,12
1793,12
1794,12
1795,13
1796,13
1797,13
1798,13
1799,13
1800,13
1801,13
1802,13
1803,13
1804,13
1805,13
1806,12
1807,12
1808,12
1809,12
1810,12
1811,12
1812,12
1813,12
1814,12
1815,12
1816,12
1817,12
1818,12
1819,12
1820,12
1821,12
1822,12
1823,12
1824,12
1825,12
1826,12
1827,12
1828,12
1829,12
1830,12
1831,12
1832,12
1833,12
1834,12
1835,12
1836,12
1837,12
1838,12
1839,12
1840,12
1841,12
1842,12
1843,12
1844,12
1845,12
1846,12
1847,12
1848,12
1849,12
1850,12
1851,12
1852,12
1853,12
1854,12
1855,12
1856,12
1857,12
1858,12
1859,12
1860,12
1861,12
1862,12
1863,12
1864,12
1865,12
1866,12
1867,12
1868,12
1869,12
1870,12
1871,12
1872,12
1873,12
1874,12
1875,12
1876,12
1877,12
1878,12
1879,12
1880,12
1881,12
1882,12
1883,12
1884,12
1885,12
1886,12
1887,12
1888,12
1889,12
1890,12
1891,12
1892,12
1893,12
1894,12
1895,12
1896,12
1897,12
1898,12
1899,12
1900,12
1901,12
1902,12
1903,12
1904,12
1905,12
1906,12
1907,12
1908,12
1909,12
1910,12
1911,12
1912,12
1913,12
1914,12
1915,12
1916,12
1917,12
1918,12
1919,12
1920,12
1921,12
1922,12
1923,12
1924,12
1925,12
1926,12
1927,12
1928,12
1929,12
1930,13
1931,13
1932,13
1933,13
1934,13
1935,13
1936,13
1937,13
1938,13
1939,13
1940,13
1941,13
1942,13
1943,13
1944,13
1945,13
1946,13
1947,13
1948,13
1949,13
1950,13
1951,13
1952,13
1953,13
1954,13
1955,13
1956,13
1957,13
1958,13
1959,13
1960,13
1961,13
1962,13
1963,13
1964,13
1965,13
1966,13
1967,13
1968,13
1969,13
1970,13
1971,13
1972,13
1973,13
1974,13
1975,13
1976,13
1977,13
1978,13
1979,13
1980,13
1981,13
1982,13
1983,13
1984,13
1985,13
1986,13
1987,13
1988,13
1989,13
1990,13
1991,13
1992,13
1993,13
1994,13
1995,13
1996,13
1997,13
1998,13
1999,13
2000,13
2001,13
2002,13
2003,13
2004,13
2005,13
2006,13
2007,13
2008,13
2009,13
2010,13
2011,13
2012,13
2013,13
2014,13
2015,13
2016,13
2017,13
2018,13
2019,13
2020,13
2021,13
2022,13
2023,13
2024,13
2025,13
2026,13
2027,13
2028,13
2029,13
2030,13
2031,13
2032,13
2033,13
2034,13
2035,13
2036,13
2037,13
2038,13
2039,13
2040,13
2041,13
2042,13
2043,13
2044,13
2045,13
2046,13
2047,13
2048,13
2049,13
2050,13
2051,13
2052,13
2053,13
2054,13
2055,13
2056,13
2057,13
2058,13
2059,13
2060,13
2061,13
2062,13
2063,13
2064,13
2065,13
2066,13
2067,13
2068,13
2069,13
2070,13
2071,13
2072,13
2073,13
2074,13
2075,13
2076,13
2077,13
2078,13
2079,13
2080,13
2081,13
2082,13
2083,13
2084,13
2085,13
2086,13
2087,13
2088,13
2089,13
2090,13
2091,13
2092,13
2093,13
2094,13
2095,13
2096,13
2097,14
2098,14
2099,14
2100,13
2101,13
2102,13
2103,13
2104,13
2105,13
2106,13
2107,13
2108,13
2109,13
2110,13
2111,13
2112,13
2113,13
2114,13
2115,13
2116,13
2117,13
2118,13
2119,13
2120,13
2121,13
2122,13
2123,13
2124,13
2125,13
2126,13
2127,13
2128,13
2129,13
2130,13
2131,13
2132,13
2133,13
2134,13
2135,13
2136,13
2137,13
2138,13
2139,13
2140,13
2141,13
2142,13
2143,13
2144,13
2145,13
2146,13
2147,13
2148,13
2149,13
2150,13
2151,13
2152,13
2153,13
2154,13
2155,13
2156,13
2157,13
2158,13
2159,13
2160,13
2161,13
2162,13
2163,13
2164,13
2165,13
2166,13
2167,13
2168,14
2169,14
2170,13
2171,13
2172,13
2173,13
2174,13
2175,13
2176,13
2177,13
2178,13
2179,13
2180,13
2181,13
2182,13
2183,13
2184,13
2185,13
2186,13
2187,13
2188,13
2189,13
2190,13
2191,13
2192,13
2193,13
2194,13
2195,13
2196,13
2197,13
2198,13
2199,13
2200,13
2201,13
2202,13
2203,13
2204,13
2205,13
2206,13
2207,13
2208,13
2209,13
2210,13
2211,13
2212,13
2213,13
2214,13
2215,13
2216,13
2217,13
2218,13
2219,13
2220,13
2221,13
2222,13
2223,13
2224,13
2225,13
2226,13
2227,13
2228,13
2229,13
2230,13
2231,13
2232,13
2233,13
2234,13
2235,13
2236,13
2237,13
2238,13
2239,13
2240,13
2241,13
2242,13
2243,13
2244,13
2245,13
2246,13
2247,13
2248,13
2249,13
2250,13
2251,13
2252,13
2253,13
2254,13
2255,13
2256,13
2257,13
2258,13
2259,13
2260,13
2261,13
2262,13
2263,13
2264,13
2265,13
2266,13
2267,13
2268,13
2269,13
2270,13
2271,13
2272,13
2273,13
2274,13
2275,13
2276,13
2277,13
2278,13
2279,13
2280,13
2281,13
2282,13
2283,13
2284,13
2285,13
2286,13
2287,13
2288,13
2289,13
2290,13
2291,13
2292,13
2293,13
2294,13
2295,13
2296,13
2297,13
2298,13
2299,13
2300,14
2301,13
2302,13
2303,13
2304,13
2305,13
2306,13
2307,13
2308,13
2309,13
2310,13
2311,13
2312,13
2313,13
2314,13
2315,13
2316,13
2317,13
2318,13
2319,13
2320,13
2321,13
2322,13
2323,13
2324,13
2325,13
2326,13
2327,13
2328,13
2329,13
2330,13
2331,13
2332,13
2333,13
2334,13
2335,13
2336,13
2337,13
2338,13
2339,13
2340,13
2341,13
2342,13
2343,13
2344,13
2345,14
2346,14
2347,13
2348,13
2349,13
2350,13
2351,13
2352,13
2353,13
2354,13
2355,13
2356,13
2357,13
2358,13
2359,13
2360,13
2361,13
2362,14
2363,14
2364,13
2365,13
2366,13
2367,13
2368,13
2369,13
2370,13
2371,13
2372,13
2373,13
2374,13
2375,13
2376,13
2377,13
2378,13
2379,13
2380,13
2381,13
2382,13
2383,13
2384,13
2385,13
2386,13
2387,13
2388,13
2389,13
2390,13
2391,13
2392,13
2393,13
2394,13
2395,13
2396,13
2397,13
2398,13
2399,13
2400,13
2401,13
2402,13
2403,13
2404,13
2405,13
2406,13
2407,13
2408,13
2409,13
2410,13
2411,13
2412,13
2413,13
2414,13
2415,13
2416,13
2417,13
2418,13
2419,13
2420,13
2421,13
2422,13
2423,13
2424,13
2425,13
2426,13
2427,13
2428,13
2429,13
2430,13
2431,13
2432,13
2433,13
2434,13
2435,14
2436,14
2437,14
2438,14
2439,14
2440,14
2441,14
2442,14
2443,14
2444,14
2445,14
2446,14
2447,14
2448,14
2449,14
2450,14
2451,14
2452,14
2453,14
2454,14
2455,14
2456,14
2457,14
2458,14
2459,14
2460,14
2461,14
2462,14
2463,14
2464,14
2465,14
2466,14
2467,14
2468,14
2469,14
2470,14
2471,14
2472,14
2473,14
2474,14
2475,14
2476,14
2477,14
2478,14
2479,14
2480,14
2481,14
2482,14
2483,14
2484,14
2485,14
2486,14
2487,14
2488,14
2489,14
2490,14
2491,14
2492,14
2493,14
2494,14
2495,14
2496,14
2497,14
2498,14
2499,14
2500,14
2501,14
2502,14
2503,14
2504,14
2505,14
2506,14
2507,14
2508,14
2509,14
2510,14
2511,14
2512,14
2513,14
2514,14
2515,14
2516,14
2517,14
2518,14
2519,14
2520,14
2521,14
2522,14
2523,14
2524,14
2525,14
2526,14
2527,14
2528,14
2529,14
2530,14
2531,14
2532,14
2533,14
2534,14
2535,14
2536,14
2537,14
2538,14
2539,14
2540,14
2541,14
2542,14
2543,14
2544,14
2545,14
2546,14
2547,14
2548,14
2549,14
2550,14
2551,14
2552,14
2553,14
2554,14
2555,14
2556,14
2557,14
2558,14
2559,14
2560,14
2561,14
2562,14
2563,14
2564,14
2565,14
2566,14
2567,14
2568,14
2569,14
2570,14
2571,14
2572,14
2573,14
2574,14
2575,14
2576,14
2577,14
2578,14
2579,14
2580,14
2581,14
2582,14
2583,14
2584,14
2585,14
2586,14
2587,14
2588,14
2589,14
2590,14
2591,14
2592,14
2593,14
2594,14
2595,14
2596,14
2597,14
2598,14
2599,14
2600,14
2601,14
2602,14
2603,14
2604,14
2605,14
2606,14
2607,14
2608,14
2609,14
2610,14
2611,14
2612,14
2613,14
2614,14
2615,14
2616,14
2617,14
2618,14
2619,14
2620,14
2621,14
2622,14
2623,14
2624,14
2625,14
2626,15
2627,14
2628,14
2629,14
2630,14
2631,14
2632,14
2633,14
2634,14
2635,14
2636,14
2637,14
2638,14
2639,14
2640,14
2641,14
2642,14
2643,14
2644,14
2645,14
2646,14
2647,14
2648,14
2649,14
2650,14
2651,14
2652,14
2653,14
2654,14
2655,14
2656,14
2657,14
2658,14
2659,14
2660,14
2661,14
2662,14
2663,14
2664,14
2665,14
2666,14
2667,14
2668,14
2669,14
2670,14
2671,14
2672,14
2673,14
2674,14
2675,14
2676,14
2677,14
2678,14
2679,14
2680,14
2681,14
2682,14
2683,14
2684,14
2685,14
2686,14
2687,14
2688,14
2689,14
2690,14
2691,14
2692,14
2693,14
2694,14
2695,14
2696,14
2697,14
2698,14
2699,14
2700,14
2701,14
2702,14
2703,14
2704,14
2705,14
2706,14
2707,14
2708,14
2709,14
2710,14
2711,14
2712,14
2713,14
2714,14
2715,14
2716,14
2717,14
2718,14
2719,14
2720,14
2721,14
2722,14
2723,14
2724,14
2725,14
2726,14
2727,14
2728,14
2729,14
2730,14
2731,14
2732,14
2733,14
2734,14
2735,14
2736,14
2737,14
2738,14
2739,14
2740,14
2741,14
2742,14
2743,14
2744,14
2745,14
2746,14
2747,14
2748,14
2749,14
2750,14
2751,14
2752,14
2753,14
2754,14
2755,14
2756,14
2757,14
2758,14
2759,14
2760,14
2761,14
2762,14
2763,14
2764,14
2765,15
2766,14
2767,14
2768,14
2769,14
2770,14
2771,14
2772,14
2773,14
2774,14
2775,14
2776,14
2777,14
2778,14
2779,14
2780,14
2781,14
2782,14
2783,14
2784,14
2785,14
2786,14
2787,14
2788,14
2789,14
2790,14
2791,14
2792,14
2793,14
2794,14
2795,14
2796,14
2797,14
2798,14
2799,14
2800,14
2801,14
2802,15
2803,14
2804,14
2805,14
2806,14
2807,14
2808,14
2809,14
2810,14
2811,14
2812,14
2813,14
2814,14
2815,14
2816,14
2817,14
2818,14
2819,14
2820,14
2821,14
2822,14
2823,14
2824,14
2825,14
2826,14
2827,14
2828,14
2829,14
2830,14
2831,14
2832,14
2833,14
2834,14
2835,14
2836,14
2837,14
2838,14
2839,14
2840,14
2841,14
2842,14
2843,14
2844,14
2845,14
2846,14
2847,14
2848,14
2849,14
2850,14
2851,14
2852,14
2853,14
2854,14
2855,14
2856,14
2857,14
2858,14
2859,14
2860,14
2861,14
2862,14
2863,14
2864,14
2865,14
2866,14
2867,14
2868,14
2869,14
2870,14
2871,14
2872,14
2873,14
2874,14
2875,14
2876,14
2877,14
2878,15
2879,14
2880,14
2881,14
2882,14
2883,14
2884,14
2885,14
2886,14
2887,14
2888,14
2889,14
2890,14
2891,14
2892,14
2893,14
2894,14
2895,14
2896,14
2897,14
2898,14
2899,14
2900,14
2901,14
2902,14
2903,14
2904,14
2905,14
2906,14
2907,14
2908,14
2909,15
2910,15
2911,15
2912,15
2913,15
2914,15
2915,15
2916,15
2917,15
2918,15
2919,15
2920,15
2921,15
2922,15
2923,15
2924,15
2925,15
2926,15
2927,15
2928,15
2929,15
2930,15
2931,15
2932,15
2933,15
2934,15
2935,15
2936,15
2937,15
2938,15
2939,15
2940,15
2941,15
2942,15
2943,15
2944,15
2945,15
2946,15
2947,15
2948,15
2949,15
2950,15
2951,15
2952,15
2953,15
2954,15
2955,15
2956,15
2957,15
2958,15
2959,15
2960,15
2961,15
2962,15
2963,15
2964,15
2965,15
2966,15
2967,15
2968,15
2969,15
2970,15
2971,15
2972,15
2973,15
2974,15
2975,15
2976,15
2977,15
2978,15
2979,15
2980,15
2981,15
2982,15
2983,15
2984,15
2985,15
2986,15
2987,15
2988,15
2989,15
2990,16
2991,15
2992,15
2993,15
2994,15
2995,15
2996,15
2997,15
2998,15
2999,15
3000,15
3001,15
3002,15
3003,15
3004,15
3005,16
3006,16
3007,16
3008,16
3009,16
3010,16
3011,16
3012,16
3013,16
3014,16
3015,16
3016,16
3017,16
3018,16
3019,16
3020,16
3021,16
3022,16
3023,16
3024,16
3025,16
3026,16
3027,16
3028,16
3029,16
3030,16
3031,16
3032,16
3033,16
3034,16
3035,16
3036,16
3037,16
3038,16
3039,16
3040,16
3041,16
3042,16
3043,16
3044,16
3045,16
3046,16
3047,16
3048,16
3049,16
3050,16
3051,16
3052,16
3053,17
3054,16
3055,16
3056,16
3057,16
3058,16
3059,16
3060,16
3061,16
3062,16
3063,16
3064,16
3065,16
3066,16
3067,16
3068,16
3069,16
3070,16
3071,16
3072,16
3073,16
3074,16
3075,16
3076,16
3077,16
3078,16
3079,16
3080,16
3081,16
3082,16
3083,16
3084,17
3085,17
3086,16
3087,16
3088,16
3089,16
3090,16
3091,16
3092,16
3093,16
3094,16
3095,16
3096,16
3097,16
3098,16
3099,16
3100,16
3101,16
3102,16
3103,16
3104,16
3105,16
3106,16
3107,16
3108,16
3109,16
3110,16
3111,16
3112,16
3113,16
3114,16
3115,16
3116,16
3117,16
3118,16
3119,16
3120,16
3121,16
3122,16
3123,16
3124,16
3125,16
3126,16
3127,16
3128,16
3129,16
3130,16
3131,16
3132,16
3133,16
3134,16
3135,16
3136,16
3137,16
3138,16
3139,16
3140,16
3141,16
3142,16
3143,16
3144,16
3145,16
3146,16
3147,16
3148,16
3149,16
3150,16
3151,16
3152,16
3153,16
3154,16
3155,16
3156,16
3157,16
3158,16
3159,16
3160,16
3161,16
3162,16
3163,16
3164,16
3165,16
3166,16
3167,16
3168,16
3169,16
3170,16
3171,16
3172,16
3173,16
3174,16
3175,16
3176,16
3177,16
3178,16
3179,16
3180,16
3181,16
3182,16
3183,16
3184,16
3185,16
3186,16
3187,16
3188,16
3189,16
3190,16
3191,16
3192,16
3193,16
3194,16
3195,16
3196,16
3197,16
3198,16
3199,16
3200,16
3201,16
3202,17
3203,16
3204,16
3205,16
3206,16
3207,16
3208,16
3209,16
3210,16
3211,16
3212,16
3213,16
3214,16
3215,16
3216,16
3217,16
3218,16
3219,16
3220,16
3221,16
3222,16
3223,16
3224,16
3225,16
3226,16
3227,16
3228,16
3229,16
3230,16
3231,16
3232,16
3233,16
3234,16
3235,16
3236,16
3237,16
3238,16
3239,16
3240,16
3241,16
3242,16
3243,16
3244,16
3245,16
3246,16
3247,16
3248,16
3249,16
3250,16
3251,16
3252,16
3253,16
3254,16
3255,16
3256,16
3257,16
3258,16
3259,16
3260,16
3261,16
3262,16
3263,16
3264,16
3265,16
3266,16
3267,16
3268,16
3269,16
3270,16
3271,16
3272,16
3273,16
3274,16
3275,16
3276,16
3277,16
3278,16
3279,16
3280,16
3281,16
3282,16
3283,16
3284,16
3285,16
3286,16
3287,16
3288,16
3289,16
3290,16
3291,16
3292,16
3293,16
3294,16
3295,16
3296,16
3297,16
3298,16
3299,16
3300,16
3301,16
3302,16
3303,16
3304,16
3305,16
3306,16
3307,16
3308,16
3309,16
3310,16
3311,16
3312,16
3313,16
3314,16
3315,16
3316,16
3317,16
3318,16
3319,16
3320,16
3321,16
3322,16
3323,16
3324,16
3325,16
3326,16
3327,16
3328,16
3329,16
3330,16
3331,16
3332,16
3333,16
3334,16
3335,16
3336,16
3337,16
3338,16
3339,16
3340,16
3341,16
3342,16
3343,16
3344,16
3345,16
3346,16
3347,16
3348,16
3349,16
3350,16
3351,16
3352,16
3353,16
3354,16
3355,16
3356,16
3357,16
3358,16
3359,16
3360,16
3361,16
3362,16
3363,16
3364,16
3365,16
3366,16
3367,16
3368,16
3369,16
3370,16
3371,16
3372,16
3373,16
3374,16
3375,16
3376,16
3377,16
3378,16
3379,16
3380,16
3381,16
3382,16
3383,16
3384,16
3385,16
3386,17
3387,16
3388,16
3389,16
3390,16
3391,16
3392,16
3393,16
3394,16
3395,16
3396,16
3397,16
3398,16
3399,16
3400,16
3401,16
3402,16
3403,16
3404,16
3405,16
3406,16
3407,16
3408,16
3409,16
3410,16
3411,16
3412,16
3413,16
3414,16
3415,16
3416,16
3417,16
3418,16
3419,16
3420,16
3421,16
3422,16
3423,16
3424,16
3425,16
3426,16
3427,16
3428,16
3429,16
3430,16
3431,16
3432,16
3433,16
3434,16
3435,16
3436,16
3437,16
3438,16
3439,16
3440,16
3441,16
3442,16
3443,16
3444,16
3445,16
3446,16
3447,16
3448,16
3449,16
3450,17
3451,16
3452,16
3453,16
3454,17
3455,16
3456,16
3457,16
3458,16
3459,16
3460,16
3461,16
3462,16
3463,16
3464,16
3465,16
3466,16
3467,16
3468,16
3469,16
3470,16
3471,16
3472,16
3473,16
3474,16
3475,17
3476,17
3477,17
3478,17
3479,17
3480,17
3481,18
3482,18
3483,18
3484,17
3485,17
3486,17
3487,17
3488,17
3489,17
3490,18
3491,17
3492,17
3493,16
3494,16
3495,16
3496,16
3497,16
3498,16
3499,16
3500,16
3501,16
3502,16
3503,16
3504,16
3505,16
3506,16
3507,16
3508,16
3509,16
3510,16
3511,16
3512,16
3513,16
3514,16
3515,16
3516,16
3517,16
3518,16
3519,16
3520,16
3521,16
3522,16
3523,16
3524,16
3525,16
3526,16
3527,16
3528,16
3529,16
3530,16
3531,16
3532,16
3533,16
3534,16
3535,17
3536,16
3537,16
3538,16
3539,16
3540,16
3541,16
3542,16
3543,16
3544,16
3545,16
3546,16
3547,16
3548,16
3549,16
3550,16
3551,16
3552,16
3553,16
3554,16
3555,16
3556,16
3557,16
3558,16
3559,16
3560,16
3561,16
3562,16
3563,16
3564,16
3565,16
3566,16
3567,16
3568,16
3569,16
3570,16
3571,16
3572,16
3573,16
3574,17
3575,17
3576,17
3577,17
3578,18
3579,18
3580,17
3581,17
3582,17
3583,17
3584,17
3585,17
3586,17
3587,17
3588,17
3589,17
3590,17
3591,17
3592,17
3593,17
3594,17
3595,17
3596,17
3597,17
3598,17
3599,17
3600,17
3601,17
3602,17
3603,17
3604,17
3605,17
3606,17
3607,17
3608,17
3609,17
3610,17
3611,17
3612,17
3613,17
3614,17
3615,17
3616,17
3617,17
3618,17
3619,17
3620,17
3621,17
3622,17
3623,17
3624,17
3625,17
3626,17
3627,17
3628,18
3629,18
3630,18
3631,18
3632,18
3633,18
3634,18
3635,18
3636,18
3637,18
3638,18
3639,18
3640,18
3641,18
3642,18
3643,18
3644,18
3645,18
3646,18
3647,18
3648,18
3649,17
3650,17
3651,17
3652,17
3653,17
3654,17
3655,17
3656,17
3657,17
3658,17
3659,17
3660,17
3661,17
3662,17
3663,17
3664,17
3665,17
3666,17
3667,17
3668,17
3669,17
3670,17
3671,17
3672,17
3673,17
3674,17
3675,17
3676,17
3677,17
3678,17
3679,17
3680,17
3681,17
3682,17
3683,17
3684,17
3685,17
3686,17
3687,17
3688,17
3689,17
3690,17
3691,18
3692,17
3693,17
3694,17
3695,17
3696,17
3697,17
3698,17
3699,17
3700,17
3701,17
3702,17
3703,17
3704,17
3705,17
3706,17
3707,17
3708,17
3709,17
3710,17
3711,17
3712,17
3713,17
3714,17
3715,17
3716,17
3717,17
3718,17
3719,17
3720,17
3721,17
3722,17
3723,17
3724,17
3725,17
3726,17
3727,17
3728,17
3729,17
3730,17
3731,17
3732,17
3733,17
3734,17
3735,17
3736,17
3737,17
3738,17
3739,17
3740,17
3741,17
3742,17
3743,17
3744,17
3745,17
3746,17
3747,17
3748,17
3749,17
3750,17
3751,17
3752,17
3753,17
3754,17
3755,17
3756,17
3757,17
3758,17
3759,17
3760,17
3761,17
3762,17
3763,17
3764,17
3765,17
3766,17
3767,17
3768,17
3769,17
3770,17
3771,17
3772,17
3773,17
3774,17
3775,17
3776,17
3777,17
3778,17
3779,17
3780,17
3781,17
3782,17
3783,17
3784,17
3785,17
3786,17
3787,17
3788,17
3789,17
3790,17
3791,17
3792,17
3793,17
3794,17
3795,17
3796,17
3797,17
3798,17
3799,17
3800,17
3801,17
3802,17
3803,17
3804,17
3805,17
3806,17
3807,17
3808,17
3809,17
3810,17
3811,17
3812,17
3813,17
3814,17
3815,17
3816,17
3817,17
3818,17
3819,17
3820,17
3821,17
3822,17
3823,17
3824,17
3825,17
3826,17
3827,17
3828,17
3829,17
3830,17
3831,17
3832,17
3833,17
3834,17
3835,17
3836,18
3837,17
3838,17
3839,17
3840,17
3841,17
3842,17
3843,17
3844,17
3845,17
3846,17
3847,17
3848,17
3849,17
3850,17
3851,17
3852,17
3853,17
3854,17
3855,17
3856,17
3857,17
3858,17
3859,17
3860,17
3861,17
3862,17
3863,17
3864,17
3865,17
3866,17
3867,17
3868,17
3869,17
3870,17
3871,17
3872,17
3873,17
3874,17
3875,17
3876,17
3877,17
3878,17
3879,17
3880,17
3881,17
3882,17
3883,17
3884,17
3885,17
3886,17
3887,17
3888,17
3889,17
3890,17
3891,17
3892,17
3893,17
3894,18
3895,18
3896,18
3897,17
3898,17
3899,17
3900,17
3901,17
3902,17
3903,17
3904,17
3905,18
3906,17
3907,17
3908,17
3909,17
3910,17
3911,17
3912,17
3913,17
3914,17
3915,17
3916,17
3917,17
3918,17
3919,17
3920,17
3921,17
3922,17
3923,17
3924,17
3925,17
3926,17
3927,17
3928,17
3929,17
3930,17
3931,17
3932,17
3933,17
3934,17
3935,17
3936,17
3937,17
3938,18
3939,18
3940,18
3941,17
3942,17
3943,17
3944,17
3945,17
3946,17
3947,17
3948,17
3949,17
3950,17
3951,17
3952,17
3953,17
3954,17
3955,17
3956,17
3957,17
3958,17
3959,17
3960,17
3961,17
3962,17
3963,17
3964,17
3965,17
3966,17
3967,17
3968,17
3969,17
3970,17
3971,17
3972,17
3973,17
3974,17
3975,17
3976,17
3977,18
3978,17
3979,17
3980,17
3981,17
3982,17
3983,17
3984,17
3985,17
3986,17
3987,17
3988,17
3989,17
3990,17
3991,17
3992,17
3993,17
3994,17
3995,18
3996,18
3997,18
3998,18
3999,18
4000,18
4001,18
4002,18
4003,18
4004,18
4005,18
4006,18
4007,17
4008,17
4009,17
4010,17
4011,17
4012,17
4013,17
4014,17
4015,17
4016,17
4017,17
4018,17
4019,17
4020,17
4021,17
4022,17
4023,17
4024,18
4025,17
4026,17
4027,17
4028,17
4029,17
4030,17
4031,17
4032,17
4033,17
4034,17
4035,17
4036,17
4037,17
4038,17
4039,17
4040,17
4041,17
4042,17
4043,17
4044,17
4045,17
4046,17
4047,17
4048,17
4049,17
4050,17
4051,17
4052,17
4053,17
4054,17
4055,17
4056,17
4057,17
4058,17
4059,17
4060,17
4061,17
4062,17
4063,17
4064,17
4065,17
4066,17
4067,17
4068,17
4069,17
4070,17
4071,18
4072,18
4073,17
4074,17
4075,17
4076,17
4077,17
4078,17
4079,17
4080,17
4081,17
4082,17
4083,17
4084,17
4085,17
4086,17
4087,17
4088,17
4089,17
4090,17
4091,17
4092,17
4093,17
4094,17
4095,17
4096,17
4097,17
4098,17
4099,17
4100,17
4101,17
4102,17
4103,17
4104,17
4105,17
4106,17
4107,17
4108,17
4109,17
4110,17
4111,17
4112,17
4113,17
4114,17
4115,17
4116,17
4117,17
4118,17
4119,17
4120,17
4121,17
4122,17
4123,17
4124,17
4125,17
4126,17
4127,17
4128,17
4129,17
4130,17
4131,17
4132,17
4133,17
4134,17
4135,17
4136,17
4137,17
4138,17
4139,17
4140,17
4141,17
4142,17
4143,17
4144,17
4145,17
4146,17
4147,17
4148,17
4149,17
4150,17
4151,17
4152,17
4153,17
4154,17
4155,17
4156,17
4157,17
4158,17
4159,17
4160,17
4161,17
4162,17
4163,17
4164,17
4165,17
4166,17
4167,17
4168,17
4169,17
4170,17
4171,17
4172,17
4173,17
4174,17
4175,17
4176,17
4177,17
4178,17
4179,17
4180,17
4181,18
4182,18
4183,18
4184,17
4185,17
4186,17
4187,17
4188,17
4189,17
4190,17
4191,17
4192,17
4193,17
4194,17
4195,17
4196,17
4197,17
4198,17
4199,17
4200,17
4201,17
4202,17
4203,17
4204,17
4205,17
4206,17
4207,17
4208,17
4209,17
4210,17
4211,17
4212,17
4213,17
4214,17
4215,17
4216,17
4217,17
4218,18
4219,17
4220,17
4221,17
4222,17
4223,17
4224,17
4225,17
4226,17
4227,17
4228,18
4229,18
4230,17
4231,17
4232,17
4233,17
4234,17
4235,17
4236,17
4237,17
4238,17
4239,17
4240,17
4241,17
4242,17
4243,17
4244,17
4245,18
4246,18
4247,18
4248,17
4249,17
4250,17
4251,17
4252,17
4253,17
4254,17
4255,17
4256,17
4257,17
4258,17
4259,17
4260,17
4261,17
4262,17
4263,17
4264,17
4265,17
4266,17
4267,17
4268,17
4269,17
4270,17
4271,17
4272,17
4273,17
4274,17
4275,17
4276,17
4277,17
4278,17
4279,17
4280,17
4281,17
4282,17
4283,17
4284,17
4285,17
4286,17
4287,17
4288,17
4289,17
4290,17
4291,17
4292,17
4293,17
4294,17
4295,17
4296,17
4297,17
4298,17
4299,17
4300,17
4301,17
4302,17
4303,17
4304,17
4305,17
4306,17
4307,17
4308,17
4309,17
4310,17
4311,17
4312,17
4313,18
4314,18
4315,17
4316,17
4317,17
4318,17
4319,17
4320,17
4321,17
4322,17
4323,17
4324,17
4325,17
4326,17
4327,17
4328,17
4329,17
4330,17
4331,17
4332,18
4333,18
4334,18
4335,18
4336,18
4337,18
4338,18
4339,18
4340,18
4341,18
4342,18
4343,18
4344,18
4345,18
4346,18
4347,18
4348,18
4349,18
4350,18
4351,18
4352,18
4353,18
4354,18
4355,18
4356,18
4357,18
4358,18
4359,18
4360,18
4361,18
4362,18
4363,18
4364,18
4365,18
4366,18
4367,18
4368,18
4369,18
4370,18
4371,18
4372,18
4373,18
4374,18
4375,18
4376,18
4377,19
4378,19
4379,19
4380,19
4381,19
4382,19
4383,19
4384,19
4385,19
4386,19
4387,19
4388,19
4389,19
4390,19
4391,19
4392,19
4393,19
4394,19
4395,19
4396,19
4397,18
4398,18
4399,18
4400,19
4401,19
4402,19
4403,19
4404,19
4405,19
4406,19
4407,19
4408,19
4409,19
4410,19
4411,19
4412,19
4413,19
4414,19
4415,19
4416,19
4417,19
4418,19
4419,19
4420,19
4421,19
4422,18
4423,18
4424,18
4425,18
4426,18
4427,18
4428,18
4429,18
4430,18
4431,18
4432,18
4433,18
4434,18
4435,19
4436,18
4437,18
4438,18
4439,18
4440,18
4441,18
4442,18
4443,18
4444,18
4445,18
4446,18
4447,18
4448,18
4449,18
4450,18
4451,18
4452,19
4453,18
4454,18
4455,18
4456,18
4457,18
4458,18
4459,18
4460,18
4461,18
4462,18
4463,18
4464,18
4465,18
4466,18
4467,18
4468,18
4469,18
4470,18
4471,18
4472,18
4473,18
4474,18
4475,18
4476,18
4477,18
4478,18
4479,18
4480,19
4481,18
4482,18
4483,18
4484,18
4485,18
4486,18
4487,18
4488,18
4489,18
4490,18
4491,18
4492,18
4493,18
4494,18
4495,18
4496,18
4497,18
4498,18
4499,18
4500,18
4501,18
4502,18
4503,18
4504,18
4505,18
4506,18
4507,18
4508,18
4509,18
4510,18
4511,18
4512,18
4513,18
4514,18
4515,18
4516,18
4517,18
4518,18
4519,18
4520,18
4521,18
4522,18
4523,18
4524,18
4525,18
4526,18
4527,18
4528,18
4529,18
4530,18
4531,18
4532,18
4533,18
4534,18
4535,18
4536,18
4537,18
4538,18
4539,18
4540,18
4541,18
4542,18
4543,18
4544,18
4545,18
4546,18
4547,18
4548,18
4549,18
4550,18
4551,18
4552,18
4553,18
4554,18
4555,18
4556,18
4557,18
4558,18
4559,18
4560,18
4561,18
4562,18
4563,18
4564,18
4565,18
4566,18
4567,18
4568,18
4569,18
4570,18
4571,18
4572,18
4573,18
4574,18
4575,18
4576,18
4577,18
4578,18
4579,18
4580,18
4581,18
4582,18
4583,18
4584,18
4585,18
4586,18
4587,18
4588,18
4589,18
4590,18
4591,18
4592,18
4593,18
4594,18
4595,18
4596,18
4597,18
4598,18
4599,18
4600,18
4601,18
4602,18
4603,18
4604,18
4605,18
4606,18
4607,18
4608,18
4609,18
4610,18
4611,18
4612,18
4613,18
4614,18
4615,18
4616,18
4617,18
4618,18
4619,18
4620,18
4621,18
4622,18
4623,18
4624,18
4625,18
4626,18
4627,18
4628,18
4629,18
4630,18
4631,18
4632,18
4633,18
4634,18
4635,18
4636,18
4637,18
4638,18
4639,18
4640,18
4641,19
4642,18
4643,18
4644,18
4645,18
4646,18
4647,18
4648,18
4649,18
4650,18
4651,18
4652,18
4653,18
4654,18
4655,18
4656,18
4657,18
4658,18
4659,18
4660,18
4661,18
4662,18
4663,18
4664,18
4665,18
4666,18
4667,18
4668,18
4669,18
4670,18
4671,18
4672,18
4673,18
4674,18
4675,18
4676,18
4677,18
4678,18
4679,18
4680,18
4681,18
4682,18
4683,18
4684,18
4685,18
4686,18
4687,18
4688,18
4689,18
4690,18
4691,18
4692,18
4693,18
4694,18
4695,18
4696,18
4697,18
4698,18
4699,18
4700,18
4701,18
4702,18
4703,18
4704,18
4705,18
4706,18
4707,18
4708,18
4709,18
4710,18
4711,18
4712,18
4713,18
4714,18
4715,18
4716,18
4717,18
4718,18
4719,18
4720,18
4721,18
4722,18
4723,18
4724,18
4725,18
4726,18
4727,18
4728,18
4729,18
4730,18
4731,18
4732,18
4733,18
4734,18
4735,18
4736,18
4737,18
4738,18
4739,18
4740,18
4741,18
4742,18
4743,18
4744,18
4745,18
4746,18
4747,18
4748,18
4749,18
4750,18
4751,18
4752,18
4753,18
4754,18
4755,18
4756,18
4757,18
4758,18
4759,18
4760,18
4761,18
4762,18
4763,18
4764,18
4765,18
4766,18
4767,18
4768,18
4769,18
4770,18
4771,18
4772,18
4773,18
4774,18
4775,18
4776,19
4777,19
4778,18
4779,18
4780,18
4781,18
4782,18
4783,18
4784,18
4785,18
4786,18
4787,18
4788,18
4789,18
4790,18
4791,18
4792,18
4793,18
4794,18
4795,18
4796,18
4797,18
4798,18
4799,18
4800,18
4801,18
4802,18
4803,18
4804,18
4805,18
4806,18
4807,18
4808,18
4809,18
4810,18
4811,18
4812,18
4813,18
4814,18
4815,18
4816,18
4817,18
4818,18
4819,18
4820,18
4821,18
4822,18
4823,18
4824,18
4825,18
4826,18
4827,18
4828,18
4829,18
4830,18
4831,18
4832,18
4833,18
4834,18
4835,18
4836,18
4837,18
4838,18
4839,18
4840,18
4841,18
4842,18
4843,18
4844,18
4845,18
4846,18
4847,18
4848,18
4849,18
4850,18
4851,18
4852,18
4853,18
4854,18
4855,18
4856,18
4857,18
4858,18
4859,18
4860,18
4861,18
4862,18
4863,18
4864,18
4865,18
4866,18
4867,18
4868,18
4869,18
4870,18
4871,18
4872,18
4873,18
4874,18
4875,18
4876,18
4877,18
4878,18
4879,18
4880,18
4881,18
4882,18
4883,18
4884,18
4885,18
4886,18
4887,18
4888,18
4889,18
4890,18
4891,18
4892,18
4893,18
4894,18
4895,18
4896,18
4897,18
4898,18
4899,18
4900,18
4901,19
4902,19
4903,18
4904,18
4905,18
4906,18
4907,18
4908,18
4909,18
4910,18
4911,18
4912,18
4913,18
4914,18
4915,18
4916,18
4917,18
4918,18
4919,18
4920,18
4921,18
4922,18
4923,18
4924,18
4925,18
4926,18
4927,18
4928,18
4929,18
4930,18
4931,18
4932,18
4933,18
4934,18
4935,18
4936,18
4937,18
4938,18
4939,18
4940,18
4941,18
4942,18
4943,19
4944,18
4945,18
4946,18
4947,18
4948,18
4949,18
4950,18
4951,18
4952,18
4953,18
4954,18
4955,18
4956,18
4957,18
4958,18
4959,18
4960,18
4961,18
4962,18
4963,18
4964,18
4965,18
4966,18
4967,18
4968,18
4969,18
4970,18
4971,18
4972,18
4973,18
4974,18
4975,18
4976,18
4977,19
4978,19
4979,19
4980,19
4981,19
4982,19
4983,19
4984,19
4985,19
4986,19
4987,19
4988,19
4989,19
4990,19
4991,19
4992,19
4993,19
4994,19
4995,19
4996,19
4997,19
4998,19
4999,19
5000,19
5001,19
5002,19
5003,19
5004,19
5005,19
5006,19
5007,19
5008,19
5009,19
5010,19
5011,19
5012,19
5013,19
5014,19
5015,19
5016,19
5017,19
5018,19
5019,19
5020,19
5021,19
5022,19
5023,19
5024,19
5025,19
5026,19
5027,19
5028,19
5029,19
5030,19
5031,19
5032,19
5033,19
5034,19
5035,19
5036,19
5037,19
5038,19
5039,19
5040,19
5041,19
5042,19
5043,19
5044,19
5045,19
5046,19
5047,19
5048,19
5049,19
5050,19
5051,19
5052,19
5053,19
5054,19
5055,19
5056,19
5057,20
5058,20
5059,19
5060,19
5061,19
5062,19
5063,19
5064,19
5065,19
5066,19
5067,19
5068,19
5069,19
5070,19
5071,19
5072,19
5073,19
5074,19
5075,19
5076,19
5077,19
5078,19
5079,19
5080,19
5081,19
5082,19
5083,19
5084,19
5085,19
5086,19
5087,19
5088,19
5089,19
5090,19
5091,19
5092,19
5093,19
5094,19
5095,19
5096,19
5097,19
5098,19
5099,19
5100,19
5101,19
5102,19
5103,19
5104,19
5105,19
5106,19
5107,19
5108,19
5109,19
5110,19
5111,19
5112,19
5113,19
5114,19
5115,19
5116,19
5117,19
5118,19
5119,19
5120,19
5121,19
5122,19
5123,19
5124,19
5125,19
5126,19
5127,19
5128,19
5129,19
5130,20
5131,19
5132,19
5133,19
5134,19
5135,19
5136,19
5137,19
5138,19
5139,19
5140,19
5141,19
5142,19
5143,19
5144,19
5145,19
5146,19
5147,19
5148,19
5149,19
5150,19
5151,19
5152,19
5153,19
5154,19
5155,19
5156,19
5157,19
5158,19
5159,19
5160,19
5161,19
5162,19
5163,19
5164,19
5165,19
5166,19
5167,19
5168,19
5169,19
5170,19
5171,19
5172,19
5173,19
5174,19
5175,19
5176,19
5177,19
5178,19
5179,19
5180,19
5181,19
5182,19
5183,19
5184,19
5185,19
5186,19
5187,19
5188,19
5189,19
5190,19
5191,19
5192,19
5193,19
5194,19
5195,19
5196,19
5197,19
5198,19
5199,19
5200,19
5201,19
5202,19
5203,19
5204,19
5205,19
5206,19
5207,20
5208,20
5209,20
5210,20
5211,20
5212,20
5213,20
5214,20
5215,20
5216,20
5217,19
5218,19
5219,19
5220,19
5221,19
5222,19
5223,19
5224,19
5225,19
5226,19
5227,19
5228,19
5229,19
5230,19
5231,19
5232,19
5233,19
5234,19
5235,19
5236,19
5237,19
5238,19
5239,19
5240,19
5241,19
5242,19
5243,19
5244,19
5245,19
5246,19
5247,19
5248,19
5249,19
5250,19
5251,19
5252,19
5253,19
5254,19
5255,19
5256,19
5257,19
5258,19
5259,19
5260,19
5261,19
5262,19
5263,19
5264,19
5265,19
5266,19
5267,19
5268,19
5269,19
5270,19
5271,19
5272,20
5273,19
5274,19
5275,19
5276,19
5277,19
5278,19
5279,19
5280,19
5281,19
5282,19
5283,19
5284,19
5285,19
5286,19
5287,19
5288,19
5289,19
5290,19
5291,19
5292,19
5293,19
5294,19
5295,19
5296,19
5297,19
5298,19
5299,19
5300,19
5301,19
5302,19
5303,19
5304,19
5305,19
5306,19
5307,19
5308,19
5309,19
5310,19
5311,19
5312,19
5313,19
5314,19
5315,19
5316,20
5317,20
5318,20
5319,20
5320,20
5321,20
5322,20
5323,20
5324,20
5325,20
5326,20
5327,20
5328,20
5329,20
5330,20
5331,20
5332,20
5333,20
5334,20
5335,20
5336,20
5337,20
5338,20
5339,20
5340,20
5341,20
5342,20
5343,20
5344,20
5345,20
5346,20
5347,20
5348,20
5349,20
5350,20
5351,20
5352,20
5353,20
5354,20
5355,20
5356,20
5357,20
5358,20
5359,20
5360,20
5361,20
5362,20
5363,20
5364,20
5365,20
5366,20
5367,20
5368,20
5369,20
5370,20
5371,20
5372,20
5373,20
5374,20
5375,20
5376,20
5377,20
5378,20
5379,20
5380,20
5381,20
5382,20
5383,20
5384,20
5385,20
5386,20
5387,20
5388,20
5389,20
5390,20
5391,20
5392,20
5393,20
5394,20
5395,20
5396,20
5397,20
5398,20
5399,20
5400,20
5401,20
5402,20
5403,20
5404,20
5405,20
5406,20
5407,20
5408,20
5409,20
5410,20
5411,20
5412,20
5413,20
5414,20
5415,20
5416,20
5417,20
5418,20
5419,20
5420,20
5421,20
5422,20
5423,20
5424,20
5425,20
5426,20
5427,20
5428,20
5429,20
5430,20
5431,20
5432,20
5433,20
5434,20
5435,20
5436,20
5437,20
5438,20
5439,20
5440,20
5441,20
5442,20
5443,20
5444,20
5445,20
5446,20
5447,20
5448,20
5449,20
5450,20
5451,20
5452,20
5453,21
5454,21
5455,21
5456,21
5457,21
5458,21
5459,21
5460,21
5461,21
5462,21
5463,21
5464,21
5465,21
5466,21
5467,21
5468,21
5469,21
5470,20
5471,20
5472,20
5473,20
5474,20
5475,20
5476,20
5477,20
5478,20
5479,20
5480,20
5481,20
5482,20
5483,20
5484,20
5485,20
5486,20
5487,20
5488,20
5489,20
5490,20
5491,20
5492,20
5493,20
5494,20
5495,20
5496,20
5497,20
5498,20
5499,20
5500,20
5501,20
5502,20
5503,20
5504,20
5505,20
5506,20
5507,20
5508,20
5509,20
5510,20
5511,20
5512,20
5513,20
5514,20
5515,20
5516,20
5517,20
5518,20
5519,20
5520,20
5521,20
5522,20
5523,20
5524,20
5525,20
5526,20
5527,20
5528,20
5529,20
5530,20
5531,20
5532,20
5533,20
5534,20
5535,20
5536,20
5537,20
5538,20
5539,20
5540,20
5541,20
5542,20
5543,20
5544,20
5545,20
5546,20
5547,20
5548,21
5549,22
5550,21
5551,21
5552,21
5553,21
5554,21
5555,21
5556,21
5557,21
5558,21
5559,21
5560,21
5561,21
5562,21
5563,21
5564,21
5565,21
5566,21
5567,21
5568,21
5569,21
5570,21
5571,21
5572,21
5573,21
5574,21
5575,21
5576,21
5577,21
5578,21
5579,21
5580,21
5581,21
5582,21
5583,21
5584,21
5585,21
5586,21
5587,21
5588,21
5589,21
5590,21
5591,21
5592,21
5593,21
5594,21
5595,21
5596,21
5597,21
5598,21
5599,21
5600,21
5601,21
5602,21
5603,21
5604,21
5605,21
5606,21
5607,21
5608,21
5609,21
5610,21
5611,21
5612,21
5613,21
5614,21
5615,21
5616,21
5617,21
5618,21
5619,21
5620,21
5621,21
5622,21
5623,21
5624,21
5625,21
5626,21
5627,21
5628,21
5629,21
5630,21
5631,21
5632,21
5633,21
5634,21
5635,21
5636,21
5637,21
5638,21
5639,21
5640,21
5641,21
5642,21
5643,21
5644,21
5645,21
5646,21
5647,21
5648,21
5649,21
5650,21
5651,21
5652,21
5653,21
5654,21
5655,21
5656,21
5657,21
5658,21
5659,21
5660,21
5661,21
5662,21
5663,21
5664,21
5665,21
5666,21
5667,21
5668,21
5669,21
5670,21
5671,21
5672,21
5673,21
5674,21
5675,21
5676,21
5677,21
5678,21
5679,21
5680,21
5681,21
5682,21
5683,21
5684,21
5685,21
5686,21
5687,21
5688,21
5689,21
5690,21
5691,21
5692,21
5693,21
5694,21
5695,21
5696,21
5697,21
5698,21
5699,21
5700,21
5701,21
5702,21
5703,21
5704,21
5705,21
5706,21
5707,21
5708,21
5709,21
5710,21
5711,21
5712,21
5713,21
5714,21
5715,21
5716,21
5717,21
5718,21
5719,21
5720,21
5721,21
5722,21
5723,21
5724,21
5725,21
5726,21
5727,21
5728,21
5729,21
5730,21
5731,21
5732,21
5733,21
5734,21
5735,21
5736,21
5737,21
5738,21
5739,21
5740,21
5741,21
5742,21
5743,21
5744,21
5745,21
5746,21
5747,21
5748,21
5749,21
5750,21
5751,21
5752,21
5753,21
5754,21
5755,21
5756,21
5757,21
5758,21
5759,21
5760,21
5761,21
5762,21
5763,21
5764,22
5765,22
5766,22
5767,22
5768,22
5769,21
5770,21
5771,21
5772,21
5773,21
5774,21
5775,21
5776,21
5777,21
5778,21
5779,21
5780,21
5781,21
5782,21
5783,21
5784,21
5785,21
5786,21
5787,21
5788,21
5789,21
5790,21
5791,21
5792,21
5793,21
5794,21
5795,21
5796,21
5797,21
5798,21
5799,21
5800,21
5801,21
5802,21
5803,21
5804,21
5805,21
5806,21
5807,21
5808,21
5809,21
5810,21
5811,21
5812,21
5813,21
5814,21
5815,21
5816,21
5817,21
5818,21
5819,21
5820,21
5821,21
5822,21
5823,21
5824,21
5825,21
5826,21
5827,21
5828,21
5829,21
5830,21
5831,21
5832,21
5833,21
5834,21
5835,21
5836,21
5837,21
5838,21
5839,21
5840,21
5841,21
5842,21
5843,21
5844,21
5845,21
5846,21
5847,21
5848,21
5849,21
5850,21
5851,21
5852,21
5853,21
5854,21
5855,21
5856,21
5857,21
5858,21
5859,21
5860,21
5861,21
5862,21
5863,21
5864,21
5865,21
5866,21
5867,21
5868,21
5869,21
5870,21
5871,21
5872,21
5873,21
5874,21
5875,21
5876,21
5877,21
5878,21
5879,21
5880,21
5881,21
5882,21
5883,21
5884,21
5885,22
5886,22
5887,22
5888,21
5889,21
5890,21
5891,21
5892,21
5893,21
5894,21
5895,21
5896,21
5897,21
5898,21
5899,21
5900,21
5901,21
5902,21
5903,21
5904,21
5905,21
5906,21
5907,21
5908,21
5909,21
5910,21
5911,21
5912,21
5913,21
5914,21
5915,21
5916,21
5917,21
5918,21
5919,21
5920,21
5921,21
5922,21
5923,21
5924,21
5925,21
5926,21
5927,21
5928,21
5929,21
5930,21
5931,21
5932,21
5933,21
5934,21
5935,21
5936,21
5937,21
5938,21
5939,21
5940,21
5941,21
5942,21
5943,21
5944,21
5945,21
5946,21
5947,21
5948,21
5949,21
5950,21
5951,21
5952,21
5953,21
5954,21
5955,21
5956,21
5957,21
5958,21
5959,21
5960,21
5961,21
5962,21
5963,21
5964,21
5965,22
5966,22
5967,21
5968,21
5969,22
5970,21
5971,21
5972,21
5973,21
5974,21
5975,21
5976,21
5977,21
5978,21
5979,21
5980,21
5981,21
5982,21
5983,21
5984,21
5985,21
5986,21
5987,21
5988,21
5989,21
5990,21
5991,21
5992,21
5993,21
5994,21
5995,21
5996,21
5997,21
5998,21
5999,21
6000,21
6001,21
6002,21
6003,21
6004,21
6005,21
6006,21
6007,21
6008,21
6009,21
6010,21
6011,21
6012,21
6013,21
6014,21
6015,21
6016,21
6017,21
6018,21
6019,21
6020,21
6021,21
6022,21
6023,21
6024,21
6025,21
6026,21
6027,21
6028,21
6029,21
6030,21
6031,21
6032,21
6033,21
6034,21
6035,21
6036,21
6037,21
6038,21
6039,21
6040,21
6041,21
6042,21
6043,21
6044,21
6045,21
6046,21
6047,21
6048,21
6049,21
6050,21
6051,21
6052,21
6053,21
6054,21
6055,21
6056,21
6057,21
6058,21
6059,21
6060,21
6061,21
6062,21
6063,21
6064,21
6065,21
6066,21
6067,21
6068,21
6069,21
6070,21
6071,21
6072,21
6073,21
6074,21
6075,21
6076,21
6077,21
6078,21
6079,21
6080,21
6081,21
6082,21
6083,21
6084,21
6085,21
6086,21
6087,21
6088,21
6089,21
6090,21
6091,21
6092,21
6093,21
6094,21
6095,21
6096,21
6097,21
6098,21
6099,21
6100,21
6101,21
6102,21
6103,21
6104,21
6105,21
6106,21
6107,21
6108,21
6109,21
6110,21
6111,21
6112,21
6113,21
6114,21
6115,21
6116,21
6117,21
6118,21
6119,21
6120,21
6121,21
6122,21
6123,21
6124,21
6125,21
6126,21
6127,21
6128,21
6129,21
6130,21
6131,21
6132,21
6133,21
6134,21
6135,21
6136,21
6137,21
6138,21
6139,21
6140,21
6141,21
6142,21
6143,21
6144,21
6145,21
6146,21
6147,21
6148,21
6149,21
6150,21
6151,21
6152,21
6153,21
6154,21
6155,21
6156,21
6157,21
6158,21
6159,21
6160,21
6161,21
6162,21
6163,21
6164,21
6165,21
6166,21
6167,21
6168,21
6169,21
6170,21
6171,21
6172,21
6173,21
6174,21
6175,21
6176,21
6177,21
6178,21
6179,21
6180,21
6181,21
6182,21
6183,21
6184,21
6185,22
6186,23
6187,22
6188,22
6189,21
6190,21
6191,21
6192,21
6193,21
6194,21
6195,21
6196,21
6197,21
6198,21
6199,21
6200,21
6201,21
6202,21
6203,22
6204,22
6205,22
6206,22
6207,22
6208,22
6209,22
6210,22
6211,22
6212,22
6213,22
6214,22
6215,22
6216,22
6217,22
6218,22
6219,22
6220,22
6221,22
6222,22
6223,22
6224,22
6225,22
6226,22
6227,22
6228,22
6229,22
6230,23
6231,23
6232,23
6233,23
6234,24
6235,24
6236,24
6237,24
6238,24
6239,24
6240,24
6241,24
6242,24
6243,24
6244,24
6245,24
6246,24
6247,24
6248,24
6249,24
6250,23
6251,23
6252,23
6253,23
6254,23
6255,23
6256,23
6257,23
6258,23
6259,23
6260,23
6261,23
6262,23
6263,23
6264,23
6265,23
6266,23
6267,23
6268,23
6269,23
6270,23
6271,23
6272,23
6273,23
6274,23
6275,23
6276,23
6277,23
6278,23
6279,23
6280,23
6281,23
6282,23
6283,23
6284,23
6285,23
6286,23
6287,23
6288,23
6289,23
6290,23
6291,23
6292,23
6293,23
6294,23
6295,23
6296,23
6297,23
6298,23
6299,23
6300,23
6301,23
6302,23
6303,23
6304,23
6305,23
6306,23
6307,23
6308,23
6309,23
6310,23
6311,23
6312,23
6313,23
6314,23
6315,23
6316,23
6317,23
6318,23
6319,23
6320,23
6321,23
6322,23
6323,23
6324,23
6325,23
6326,23
6327,24
6328,24
6329,24
6330,23
6331,23
6332,23
6333,23
6334,23
6335,23
6336,24
6337,24
6338,24
6339,24
6340,24
6341,24
6342,24
6343,24
6344,24
6345,23
6346,23
6347,23
6348,23
6349,23
6350,23
6351,23
6352,23
6353,23
6354,23
6355,23
6356,23
6357,23
6358,23
6359,23
6360,23
6361,23
6362,23
6363,23
6364,23
6365,23
6366,23
6367,23
6368,23
6369,23
6370,23
6371,23
6372,23
6373,23
6374,23
6375,23
6376,23
6377,23
6378,23
6379,23
6380,23
6381,23
6382,23
6383,23
6384,23
6385,23
6386,23
6387,23
6388,23
6389,23
6390,23
6391,23
6392,23
6393,23
6394,23
6395,23
6396,23
6397,23
6398,23
6399,23
6400,23
6401,23
6402,23
6403,23
6404,23
6405,23
6406,23
6407,23
6408,23
6409,23
6410,23
6411,23
6412,23
6413,23
6414,23
6415,23
6416,23
6417,23
6418,23
6419,23
6420,23
6421,23
6422,23
6423,23
6424,23
6425,23
6426,23
6427,23
6428,23
6429,23
6430,23
6431,23
6432,23
6433,23
6434,23
6435,24
6436,24
6437,24
6438,24
6439,23
6440,23
6441,23
6442,23
6443,23
6444,23
6445,23
6446,23
6447,23
6448,23
6449,23
6450,23
6451,23
6452,23
6453,23
6454,23
6455,23
6456,23
6457,23
6458,23
6459,23
6460,23
6461,23
6462,23
6463,23
6464,23
6465,23
6466,23
6467,23
6468,23
6469,23
6470,23
6471,23
6472,23
6473,23
6474,23
6475,23
6476,23
6477,23
6478,23
6479,23
6480,23
6481,23
6482,23
6483,23
6484,23
6485,23
6486,23
6487,23
6488,23
6489,23
6490,23
6491,23
6492,23
6493,23
6494,23
6495,23
6496,23
6497,23
6498,23
6499,23
6500,23
6501,23
6502,23
6503,23
6504,23
6505,23
6506,23
6507,23
6508,23
6509,23
6510,23
6511,23
6512,23
6513,23
6514,23
6515,23
6516,23
6517,23
6518,23
6519,23
6520,23
6521,23
6522,23
6523,23
6524,23
6525,23
6526,23
6527,23
6528,23
6529,23
6530,23
6531,23
6532,23
6533,23
6534,23
6535,23
6536,23
6537,23
6538,23
6539,23
6540,23
6541,23
6542,23
6543,23
6544,23
6545,23
6546,23
6547,23
6548,23
6549,23
6550,23
6551,23
6552,23
6553,23
6554,23
6555,23
6556,23
6557,23
6558,23
6559,23
6560,23
6561,23
6562,23
6563,23
6564,23
6565,23
6566,23
6567,23
6568,23
6569,23
6570,23
6571,23
6572,23
6573,23
6574,23
6575,23
6576,23
6577,23
6578,23
6579,23
6580,23
6581,23
6582,23
6583,23
6584,23
6585,23
6586,23
6587,23
6588,23
6589,23
6590,23
6591,23
6592,23
6593,24
6594,24
6595,24
6596,24
6597,24
6598,24
6599,24
6600,24
6601,24
6602,24
6603,23
6604,23
6605,23
6606,23
6607,23
6608,23
6609,23
6610,23
6611,23
6612,23
6613,23
6614,23
6615,23
6616,23
6617,23
6618,23
6619,23
6620,23
6621,23
6622,23
6623,23
6624,23
6625,23
6626,23
6627,23
6628,23
6629,23
6630,23
6631,23
6632,23
6633,23
6634,23
6635,23
6636,23
6637,23
6638,23
6639,23
6640,23
6641,23
6642,23
6643,23
6644,23
6645,23
6646,23
6647,23
6648,23
6649,23
6650,23
6651,23
6652,23
6653,23
6654,23
6655,23
6656,23
6657,23
6658,23
6659,23
6660,23
6661,23
6662,23
6663,23
6664,23
6665,23
6666,23
6667,23
6668,23
6669,23
6670,23
6671,23
6672,23
6673,23
6674,23
6675,23
6676,23
6677,23
6678,23
6679,23
6680,23
6681,23
6682,23
6683,23
6684,23
6685,23
6686,23
6687,23
6688,23
6689,23
6690,23
6691,23
6692,23
6693,23
6694,23
6695,23
6696,23
6697,23
6698,23
6699,23
6700,24
6701,23
6702,23
6703,23
6704,23
6705,23
6706,23
6707,23
6708,23
6709,23
6710,23
6711,23
6712,23
6713,23
6714,23
6715,23
6716,23
6717,23
6718,23
6719,23
6720,23
6721,23
6722,23
6723,23
6724,23
6725,23
6726,23
6727,23
6728,23
6729,23
6730,23
6731,23
6732,23
6733,23
6734,23
6735,23
6736,23
6737,23
6738,23
6739,23
6740,23
6741,24
6742,23
6743,23
6744,23
6745,23
6746,23
6747,23
6748,23
6749,23
6750,23
6751,23
6752,23
6753,24
6754,24
6755,24
6756,24
6757,24
6758,24
6759,25
6760,25
6761,25
6762,25
6763,25
6764,25
6765,25
6766,25
6767,25
6768,25
6769,25
6770,25
6771,25
6772,25
6773,25
6774,25
6775,25
6776,25
6777,25
6778,25
6779,25
6780,25
6781,25
6782,25
6783,25
6784,25
6785,25
6786,25
6787,24
6788,24
6789,24
6790,24
6791,24
6792,24
6793,24
6794,24
6795,24
6796,24
6797,24
6798,24
6799,24
6800,24
6801,24
6802,24
6803,24
6804,24
6805,24
6806,24
6807,24
6808,24
6809,24
6810,24
6811,24
6812,24
6813,24
6814,24
6815,24
6816,24
6817,24
6818,24
6819,24
6820,25
6821,24
6822,24
6823,24
6824,24
6825,24
6826,24
6827,24
6828,24
6829,24
6830,24
6831,24
6832,24
6833,24
6834,24
6835,24
6836,24
6837,24
6838,24
6839,24
6840,24
6841,24
6842,24
6843,24
6844,24
6845,24
6846,24
6847,24
6848,24
6849,24
6850,24
6851,24
6852,24
6853,24
6854,24
6855,24
6856,24
6857,24
6858,24
6859,24
6860,25
6861,24
6862,24
6863,24
6864,24
6865,24
6866,24
6867,24
6868,24
6869,24
6870,24
6871,24
6872,24
6873,24
6874,24
6875,24
6876,24
6877,24
6878,24
6879,24
6880,24
6881,24
6882,24
6883,24
6884,24
6885,24
6886,24
6887,24
6888,24
6889,24
6890,24
6891,24
6892,24
6893,24
6894,24
6895,24
6896,24
6897,24
6898,25
6899,26
6900,25
6901,25
6902,25
6903,25
6904,25
6905,25
6906,25
6907,25
6908,25
6909,25
6910,25
6911,25
6912,25
6913,25
6914,25
6915,25
6916,25
6917,25
6918,25
6919,25
6920,25
6921,25
6922,25
6923,25
6924,25
6925,25
6926,25
6927,25
6928,25
6929,25
6930,25
6931,25
6932,24
6933,24
6934,24
6935,24
6936,24
6937,24
6938,24
6939,24
6940,24
6941,24
6942,24
6943,24
6944,24
6945,24
6946,24
6947,24
6948,24
6949,24
6950,24
6951,24
6952,24
6953,24
6954,24
6955,24
6956,24
6957,24
6958,24
6959,24
6960,24
6961,24
6962,24
6963,24
6964,24
6965,24
6966,24
6967,24
6968,24
6969,24
6970,24
6971,24
6972,24
6973,24
6974,24
6975,24
6976,24
6977,24
6978,24
6979,24
6980,24
6981,24
6982,24
6983,24
6984,24
6985,24
6986,24
6987,24
6988,24
6989,24
6990,24
6991,24
6992,24
6993,24
6994,24
6995,24
6996,24
6997,24
6998,24
6999,24
7000,24
7001,24
7002,24
7003,24
7004,24
7005,24
7006,24
7007,24
7008,24
7009,24
7010,24
7011,24
7012,24
7013,24
7014,24
7015,24
7016,24
7017,24
7018,24
7019,24
7020,24
7021,24
7022,24
7023,24
7024,24
7025,24
7026,24
7027,24
7028,24
7029,24
7030,24
7031,24
7032,24
7033,24
7034,24
7035,24
7036,24
7037,24
7038,24
7039,24
7040,24
7041,24
7042,24
7043,24
7044,24
7045,24
7046,24
7047,24
7048,24
7049,24
7050,24
7051,24
7052,24
7053,24
7054,24
7055,24
7056,24
7057,24
7058,24
7059,24
7060,24
7061,24
7062,24
7063,24
7064,24
7065,24
7066,24
7067,24
7068,24
7069,24
7070,24
7071,24
7072,24
7073,24
7074,24
7075,24
7076,24
7077,24
7078,24
7079,24
7080,24
7081,24
7082,24
7083,24
7084,24
7085,24
7086,24
7087,24
7088,24
7089,24
7090,24
7091,24
7092,24
7093,24
7094,24
7095,24
7096,24
7097,24
7098,24
7099,24
7100,24
7101,24
7102,24
7103,24
7104,24
7105,24
7106,24
7107,24
7108,24
7109,24
7110,24
7111,24
7112,24
7113,24
7114,24
7115,24
7116,24
7117,24
7118,24
7119,24
7120,24
7121,24
7122,24
7123,24
7124,24
7125,25
7126,25
7127,25
7128,25
7129,25
7130,24
7131,24
7132,24
7133,24
7134,24
7135,24
7136,24
7137,24
7138,24
7139,25
7140,25
7141,24
7142,24
7143,24
7144,24
7145,24
7146,24
7147,24
7148,24
7149,24
7150,24
7151,24
7152,24
7153,24
7154,24
7155,24
7156,24
7157,24
7158,24
7159,24
7160,24
7161,24
7162,24
7163,24
7164,24
7165,24
7166,24
7167,24
7168,24
7169,24
7170,24
7171,24
7172,24
7173,24
7174,24
7175,24
7176,24
7177,24
7178,24
7179,24
7180,24
7181,24
7182,24
7183,25
7184,24
7185,24
7186,24
7187,24
7188,24
7189,24
7190,25
7191,25
7192,24
7193,24
7194,24
7195,25
7196,24
7197,24
7198,24
7199,24
7200,24
7201,24
7202,24
7203,24
7204,24
7205,24
7206,24
7207,24
7208,24
7209,24
7210,24
7211,24
7212,24
7213,24
7214,24
7215,24
7216,24
7217,24
7218,24
7219,24
7220,24
7221,24
7222,24
7223,24
7224,24
7225,24
7226,24
7227,24
7228,24
7229,24
7230,24
7231,24
7232,24
7233,24
7234,24
7235,24
7236,24
7237,24
7238,24
7239,24
7240,24
7241,24
7242,24
7243,24
7244,24
7245,24
7246,24
7247,24
7248,24
7249,24
7250,24
7251,24
7252,24
7253,24
7254,24
7255,24
7256,24
7257,24
7258,24
7259,24
7260,24
7261,24
7262,24
7263,24
7264,24
7265,24
7266,24
7267,24
7268,24
7269,24
7270,24
7271,24
7272,24
7273,24
7274,24
7275,24
7276,24
7277,24
7278,24
7279,24
7280,24
7281,24
7282,24
7283,24
7284,24
7285,24
7286,24
7287,24
7288,24
7289,24
7290,24
7291,24
7292,24
7293,24
7294,24
7295,24
7296,24
7297,24
7298,24
7299,24
7300,24
7301,24
7302,24
7303,24
7304,24
7305,24
7306,24
7307,24
7308,24
7309,24
7310,24
7311,24
7312,24
7313,24
7314,24
7315,25
7316,25
7317,25
7318,25
7319,25
7320,25
7321,25
7322,25
7323,25
7324,25
7325,25
7326,25
7327,26
7328,26
7329,26
7330,25
7331,25
7332,25
7333,25
7334,25
7335,25
7336,25
7337,25
7338,25
7339,25
7340,25
7341,25
7342,25
7343,25
7344,25
7345,25
7346,25
7347,25
7348,25
7349,25
7350,25
7351,25
7352,25
7353,25
7354,25
7355,25
7356,25
7357,25
7358,25
7359,25
7360,25
7361,25
7362,25
7363,25
7364,25
7365,25
7366,25
7367,25
7368,25
7369,25
7370,25
7371,25
7372,25
7373,25
7374,25
7375,25
7376,25
7377,25
7378,25
7379,25
7380,25
7381,25
7382,25
7383,25
7384,25
7385,25
7386,25
7387,25
7388,25
7389,25
7390,25
7391,25
7392,25
7393,25
7394,25
7395,25
7396,25
7397,25
7398,25
7399,25
7400,25
7401,25
7402,25
7403,25
7404,25
7405,25
7406,25
7407,25
7408,25
7409,25
7410,25
7411,25
7412,25
7413,25
7414,25
7415,25
7416,25
7417,25
7418,25
7419,25
7420,25
7421,25
7422,25
7423,25
7424,25
7425,25
7426,25
7427,25
7428,25
7429,25
7430,25
7431,25
7432,25
7433,25
7434,25
7435,25
7436,25
7437,25
7438,25
7439,25
7440,25
7441,25
7442,25
7443,25
7444,25
7445,25
7446,25
7447,25
7448,25
7449,25
7450,25
7451,25
7452,25
7453,25
7454,25
7455,25
7456,25
7457,25
7458,25
7459,25
7460,25
7461,25
7462,25
7463,25
7464,25
7465,25
7466,25
7467,25
7468,25
7469,25
7470,25
7471,25
7472,25
7473,25
7474,25
7475,25
7476,25
7477,25
7478,25
7479,25
7480,25
7481,25
7482,25
7483,25
7484,25
7485,25
7486,25
7487,25
7488,25
7489,25
7490,25
7491,25
7492,25
7493,25
7494,25
7495,25
7496,25
7497,25
7498,25
7499,25
7500,25
7501,25
7502,25
7503,25
7504,25
7505,25
7506,25
7507,25
7508,25
7509,25
7510,25
7511,25
7512,25
7513,25
7514,25
7515,25
7516,25
7517,25
7518,25
7519,25
7520,25
7521,25
7522,25
7523,25
7524,25
7525,25
7526,25
7527,25
7528,25
7529,25
7530,25
7531,25
7532,25
7533,25
7534,25
7535,25
7536,25
7537,25
7538,25
7539,25
7540,25
7541,25
7542,25
7543,25
7544,25
7545,25
7546,25
7547,25
7548,25
7549,25
7550,25
7551,25
7552,25
7553,25
7554,25
7555,25
7556,25
7557,25
7558,25
7559,25
7560,25
7561,25
7562,25
7563,25
7564,25
7565,25
7566,25
7567,25
7568,25
7569,25
7570,25
7571,25
7572,25
7573,25
7574,25
7575,26
7576,26
7577,25
7578,25
7579,25
7580,25
7581,25
7582,25
7583,25
7584,25
7585,26
7586,25
7587,25
7588,25
7589,25
7590,25
7591,25
7592,25
7593,25
7594,25
7595,25
7596,25
7597,25
7598,25
7599,25
7600,25
7601,25
7602,25
7603,25
7604,25
7605,25
7606,25
7607,25
7608,25
7609,25
7610,25
7611,25
7612,25
7613,25
7614,25
7615,25
7616,25
7617,25
7618,25
7619,25
7620,25
7621,25
7622,25
7623,25
7624,25
7625,25
7626,25
7627,25
7628,25
7629,25
7630,25
7631,25
7632,25
7633,25
7634,25
7635,25
7636,25
7637,25
7638,25
7639,25
7640,25
7641,25
7642,25
7643,25
7644,25
7645,25
7646,25
7647,25
7648,25
7649,25
7650,25
7651,25
7652,25
7653,25
7654,25
7655,25
7656,25
7657,25
7658,25
7659,25
7660,25
7661,25
7662,25
7663,25
7664,25
7665,25
7666,25
7667,25
7668,25
7669,25
7670,25
7671,25
7672,25
7673,25
7674,25
7675,25
7676,25
7677,25
7678,25
7679,25
7680,25
7681,25
7682,25
7683,25
7684,25
7685,25
7686,25
7687,25
7688,25
7689,25
7690,25
7691,25
7692,25
7693,25
7694,25
7695,25
7696,25
7697,25
7698,25
7699,25
7700,25
7701,25
7702,25
7703,25
7704,25
7705,25
7706,25
7707,25
7708,25
7709,25
7710,25
7711,25
7712,25
7713,25
7714,25
7715,25
7716,25
7717,25
7718,26
7719,26
7720,25
7721,25
7722,25
7723,25
7724,25
7725,25
7726,25
7727,25
7728,25
7729,25
7730,25
7731,25
7732,25
7733,25
7734,25
7735,25
7736,25
7737,25
7738,25
7739,25
7740,25
7741,25
7742,25
7743,25
7744,25
7745,25
7746,25
7747,25
7748,25
7749,25
7750,25
7751,25
7752,25
7753,25
7754,25
7755,25
7756,25
7757,25
7758,25
7759,25
7760,25
7761,25
7762,25
7763,25
7764,25
7765,25
7766,25
7767,25
7768,25
7769,25
7770,25
7771,25
7772,25
7773,25
7774,25
7775,25
7776,25
7777,25
7778,25
7779,25
7780,25
7781,25
7782,25
7783,25
7784,25
7785,25
7786,25
7787,25
7788,25
7789,25
7790,25
7791,25
7792,25
7793,25
7794,25
7795,25
7796,25
7797,25
7798,25
7799,25
7800,25
7801,25
7802,25
7803,25
7804,25
7805,25
7806,25
7807,25
7808,25
7809,25
7810,25
7811,25
7812,25
7813,25
7814,25
7815,25
7816,25
7817,25
7818,25
7819,25
7820,25
7821,25
7822,25
7823,25
7824,25
7825,25
7826,25
7827,25
7828,25
7829,25
7830,25
7831,25
7832,25
7833,25
7834,25
7835,25
7836,25
7837,25
7838,26
7839,26
7840,26
7841,26
7842,26
7843,26
7844,26
7845,26
7846,26
7847,26
7848,26
7849,26
7850,26
7851,26
7852,26
7853,26
7854,26
7855,27
7856,27
7857,26
7858,26
7859,26
7860,26
7861,26
7862,26
7863,26
7864,26
7865,26
7866,26
7867,26
7868,26
7869,26
7870,26
7871,26
7872,26
7873,26
7874,26
7875,26
7876,26
7877,26
7878,25
7879,25
7880,25
7881,25
7882,25
7883,25
7884,25
7885,25
7886,25
7887,25
7888,25
7889,25
7890,25
7891,25
7892,25
7893,25
7894,25
7895,25
7896,25
7897,25
7898,25
7899,25
7900,25
7901,25
7902,25
7903,25
7904,25
7905,25
7906,25
7907,25
7908,26
7909,25
7910,25
7911,25
7912,25
7913,25
7914,25
7915,25
7916,25
7917,25
7918,25
7919,25
7920,25
7921,25
7922,25
7923,25
7924,25
7925,25
7926,25
7927,25
7928,25
7929,25
7930,25
7931,25
7932,25
7933,25
7934,25
7935,25
7936,25
7937,25
7938,25
7939,25
7940,25
7941,25
7942,25
7943,25
7944,25
7945,25
7946,25
7947,25
7948,25
7949,25
7950,25
7951,25
7952,25
7953,25
7954,25
7955,25
7956,25
7957,25
7958,25
7959,25
7960,25
7961,25
7962,25
7963,25
7964,25
7965,25
7966,25
7967,25
7968,25
7969,25
7970,25
7971,25
7972,25
7973,25
7974,25
7975,25
7976,25
7977,25
7978,25
7979,25
7980,25
7981,25
7982,25
7983,25
7984,25
7985,25
7986,25
7987,25
7988,25
7989,25
7990,25
7991,25
7992,25
7993,25
7994,25
7995,25
7996,25
7997,25
7998,25
7999,25
8000,25
8001,25
8002,25
8003,25
8004,25
8005,25
8006,25
8007,25
8008,25
8009,25
8010,25
8011,25
8012,25
8013,25
8014,25
8015,25
8016,25
8017,25
8018,25
8019,25
8020,25
8021,25
8022,25
8023,25
8024,25
8025,25
8026,25
8027,25
8028,25
8029,25
8030,25
8031,25
8032,25
8033,25
8034,25
8035,25
8036,25
8037,25
8038,25
8039,25
8040,25
8041,25
8042,25
8043,25
8044,25
8045,25
8046,25
8047,25
8048,25
8049,25
8050,25
8051,25
8052,25
8053,25
8054,25
8055,25
8056,25
8057,25
8058,25
8059,25
8060,25
8061,26
8062,26
8063,26
8064,26
8065,26
8066,25
8067,25
8068,25
8069,25
8070,25
8071,25
8072,25
8073,25
8074,25
8075,25
8076,25
8077,25
8078,25
8079,25
8080,25
8081,25
8082,25
8083,25
8084,25
8085,25
8086,25
8087,25
8088,25
8089,25
8090,25
8091,25
8092,25
8093,25
8094,25
8095,25
8096,25
8097,25
8098,25
8099,25
8100,25
8101,25
8102,25
8103,25
8104,25
8105,25
8106,25
8107,25
8108,25
8109,25
8110,25
8111,25
8112,25
8113,25
8114,25
8115,25
8116,25
8117,25
8118,25
8119,25
8120,25
8121,25
8122,25
8123,25
8124,25
8125,25
8126,25
8127,25
8128,25
8129,25
8130,25
8131,25
8132,25
8133,25
8134,25
8135,25
8136,25
8137,25
8138,25
8139,25
8140,25
8141,25
8142,25
8143,25
8144,25
8145,25
8146,25
8147,25
8148,25
8149,25
8150,25
8151,25
8152,25
8153,25
8154,25
8155,25
8156,25
8157,25
8158,25
8159,25
8160,25
8161,25
8162,25
8163,25
8164,25
8165,25
8166,25
8167,25
8168,25
8169,25
8170,27
8171,27
8172,27
8173,26
8174,25
8175,25
8176,25
8177,25
8178,25
8179,25
8180,25
8181,25
8182,25
8183,25
8184,25
8185,25
8186,25
8187,25
8188,25
8189,25
8190,25
8191,25
8192,25
8193,25
8194,25
8195,25
8196,25
8197,25
8198,25
8199,25
8200,25
8201,25
8202,25
8203,25
8204,25
8205,25
8206,25
8207,25
8208,25
8209,25
8210,25
8211,25
8212,25
8213,25
8214,25
8215,25
8216,25
8217,25
8218,25
8219,25
8220,25
8221,25
8222,25
8223,25
8224,25
8225,25
8226,25
8227,25
8228,25
8229,25
8230,25
8231,25
8232,25
8233,25
8234,25
8235,25
8236,25
8237,25
8238,25
8239,25
8240,25
8241,25
8242,25
8243,25
8244,25
8245,25
8246,25
8247,25
8248,25
8249,25
8250,25
8251,25
8252,25
8253,25
8254,25
8255,25
8256,25
8257,25
8258,25
8259,25
8260,25
8261,25
8262,25
8263,25
8264,25
8265,25
8266,25
8267,25
8268,25
8269,25
8270,25
8271,25
8272,25
8273,25
8274,25
8275,25
8276,25
8277,25
8278,25
8279,25
8280,25
8281,25
8282,25
8283,25
8284,25
8285,25
8286,25
8287,25
8288,25
8289,25
8290,25
8291,25
8292,25
8293,25
8294,25
8295,25
8296,25
8297,25
8298,25
8299,25
8300,25
8301,25
8302,25
8303,25
8304,25
8305,25
8306,25
8307,25
8308,25
8309,25
8310,25
8311,25
8312,25
8313,25
8314,26
8315,26
8316,25
8317,25
8318,26
8319,25
8320,25
8321,25
8322,25
8323,25
8324,25
8325,25
8326,25
8327,25
8328,25
8329,25
8330,25
8331,25
8332,25
8333,25
8334,25
8335,25
8336,25
8337,25
8338,25
8339,25
8340,25
8341,25
8342,25
8343,25
8344,25
8345,25
8346,25
8347,25
8348,25
8349,25
8350,25
8351,25
8352,25
8353,25
8354,25
8355,25
8356,25
8357,25
8358,25
8359,25
8360,25
8361,25
8362,25
8363,25
8364,25
8365,25
8366,25
8367,25
8368,25
8369,25
8370,25
8371,25
8372,25
8373,25
8374,25
8375,25
8376,25
8377,25
8378,25
8379,25
8380,25
8381,25
8382,25
8383,25
8384,25
8385,25
8386,25
8387,25
8388,25
8389,25
8390,25
8391,25
8392,25
8393,25
8394,25
8395,25
8396,25
8397,25
8398,25
8399,25
8400,25
8401,25
8402,25
8403,25
8404,25
8405,25
8406,25
8407,25
8408,25
8409,25
8410,25
8411,25
8412,25
8413,25
8414,25
8415,25
8416,25
8417,25
8418,25
8419,25
8420,25
8421,25
8422,25
8423,25
8424,25
8425,25
8426,25
8427,25
8428,25
8429,25
8430,25
8431,25
8432,25
8433,25
8434,25
8435,25
8436,25
8437,25
8438,25
8439,25
8440,25
8441,25
8442,25
8443,25
8444,25
8445,25
8446,25
8447,25
8448,25
8449,25
8450,25
8451,25
8452,25
8453,25
8454,25
8455,25
8456,25
8457,25
8458,26
8459,26
8460,26
8461,26
8462,27
8463,27
8464,26
8465,26
8466,26
8467,26
8468,25
8469,25
8470,25
8471,25
8472,25
8473,25
8474,25
8475,25
8476,25
8477,25
8478,25
8479,25
8480,25
8481,25
8482,25
8483,25
8484,25
8485,25
8486,25
8487,25
8488,25
8489,25
8490,25
8491,25
8492,25
8493,25
8494,25
8495,25
8496,25
8497,25
8498,25
8499,25
8500,25
8501,25
8502,25
8503,25
8504,25
8505,25
8506,25
8507,25
8508,25
8509,25
8510,25
8511,25
8512,25
8513,25
8514,25
8515,25
8516,25
8517,25
8518,25
8519,25
8520,25
8521,25
8522,25
8523,25
8524,25
8525,25
8526,25
8527,25
8528,25
8529,25
8530,25
8531,25
8532,25
8533,25
8534,25
8535,25
8536,25
8537,25
8538,25
8539,25
8540,25
8541,25
8542,25
8543,25
8544,26
8545,25
8546,25
8547,25
8548,25
8549,25
8550,25
8551,25
8552,25
8553,25
8554,25
8555,25
8556,25
8557,25
8558,25
8559,25
8560,25
8561,25
8562,25
8563,25
8564,25
8565,25
8566,25
8567,25
8568,25
8569,25
8570,25
8571,25
8572,25
8573,25
8574,25
8575,25
8576,25
8577,25
8578,25
8579,25
8580,25
8581,25
8582,25
8583,25
8584,25
8585,25
8586,25
8587,25
8588,25
8589,25
8590,25
8591,25
8592,25
8593,25
8594,25
8595,25
8596,25
8597,25
8598,25
8599,25
8600,25
8601,25
8602,25
8603,25
8604,25
8605,25
8606,25
8607,25
8608,25
8609,25
8610,25
8611,25
8612,25
8613,25
8614,26
8615,26
8616,26
8617,26
8618,26
8619,26
8620,26
8621,26
8622,26
8623,26
8624,26
8625,26
8626,26
8627,26
8628,26
8629,26
8630,26
8631,26
8632,26
8633,26
8634,26
8635,26
8636,27
8637,26
8638,26
8639,26
8640,26
8641,26
8642,26
8643,26
8644,26
8645,26
8646,26
8647,26
8648,26
8649,26
8650,26
8651,26
8652,26
8653,26
8654,26
8655,26
8656,26
8657,26
8658,26
8659,26
8660,26
8661,25
8662,25
8663,25
8664,25
8665,25
8666,25
8667,25
8668,25
8669,25
8670,25
8671,25
8672,25
8673,25
8674,25
8675,25
8676,25
8677,25
8678,25
8679,25
8680,25
8681,26
8682,26
8683,26
8684,26
8685,26
8686,26
8687,25
8688,25
8689,25
8690,25
8691,25
8692,25
8693,25
8694,25
8695,25
8696,25
8697,25
8698,25
8699,25
8700,25
8701,25
8702,25
8703,25
8704,26
8705,25
8706,25
8707,25
8708,25
8709,25
8710,25
8711,25
8712,25
8713,25
8714,25
8715,25
8716,25
8717,25
8718,25
8719,25
8720,25
8721,25
8722,25
8723,25
8724,25
8725,25
8726,25
8727,25
8728,25
8729,25
8730,25
8731,25
8732,25
8733,25
8734,25
8735,25
8736,25
8737,25
8738,25
8739,25
8740,25
8741,25
8742,25
8743,25
8744,25
8745,25
8746,25
8747,25
8748,25
8749,25
8750,25
8751,25
8752,25
8753,25
8754,25
8755,25
8756,25
8757,25
8758,25
8759,25
8760,25
8761,25
8762,25
8763,25
8764,25
8765,25
8766,25
8767,25
8768,25
8769,25
8770,25
8771,25
8772,25
8773,25
8774,25
8775,25
8776,25
8777,25
8778,25
8779,25
8780,25
8781,25
8782,25
8783,25
8784,25
8785,25
8786,25
8787,25
8788,25
8789,25
8790,25
8791,25
8792,25
8793,25
8794,25
8795,25
8796,25
8797,25
8798,25
8799,25
8800,25
8801,25
8802,25
8803,25
8804,25
8805,25
8806,25
8807,25
8808,25
8809,25
8810,25
8811,25
8812,25
8813,25
8814,25
8815,25
8816,25
8817,25
8818,25
8819,25
8820,25
8821,25
8822,25
8823,25
8824,25
8825,25
8826,25
8827,25
8828,25
8829,25
8830,25
8831,25
8832,25
8833,25
8834,25
8835,25
8836,25
8837,25
8838,25
8839,25
8840,25
8841,25
8842,25
8843,25
8844,25
8845,25
8846,25
8847,25
8848,25
8849,25
8850,25
8851,25
8852,25
8853,25
8854,25
8855,25
8856,25
8857,25
8858,25
8859,25
8860,25
8861,25
8862,25
8863,25
8864,25
8865,25
8866,25
8867,25
8868,25
8869,25
8870,25
8871,25
8872,26
8873,26
8874,26
8875,27
8876,27
8877,27
8878,27
8879,27
8880,27
8881,27
8882,27
8883,27
8884,27
8885,27
8886,27
8887,27
8888,27
8889,27
8890,27
8891,27
8892,27
8893,26
8894,26
8895,26
8896,26
8897,26
8898,26
8899,26
8900,26
8901,26
8902,26
8903,26
8904,26
8905,26
8906,26
8907,26
8908,26
8909,26
8910,26
8911,26
8912,26
8913,26
8914,26
8915,27
8916,26
8917,26
8918,26
8919,26
8920,26
8921,26
8922,26
8923,26
8924,26
8925,26
8926,26
8927,26
8928,26
8929,26
8930,26
8931,26
8932,26
8933,26
8934,26
8935,26
8936,26
8937,26
8938,26
8939,26
8940,27
8941,26
8942,26
8943,26
8944,26
8945,26
8946,26
8947,26
8948,26
8949,26
8950,26
8951,26
8952,26
8953,26
8954,26
8955,26
8956,26
8957,26
8958,26
8959,26
8960,27
8961,27
8962,27
8963,27
8964,27
8965,26
8966,26
8967,26
8968,26
8969,26
8970,26
8971,26
8972,26
8973,26
8974,26
8975,26
8976,26
8977,26
8978,26
8979,26
8980,26
8981,26
8982,26
8983,26
8984,26
8985,26
8986,26
8987,26
8988,26
8989,26
8990,26
8991,26
8992,26
8993,26
8994,26
8995,26
8996,26
8997,26
8998,26
8999,26
9000,26
9001,26
9002,26
9003,26
9004,26
9005,26
9006,26
9007,26
9008,26
9009,26
9010,26
9011,26
9012,26
9013,26
9014,26
9015,26
9016,26
9017,26
9018,27
9019,26
9020,26
9021,26
9022,26
9023,26
9024,26
9025,26
9026,26
9027,26
9028,26
9029,26
9030,26
9031,26
9032,26
9033,26
9034,26
9035,26
9036,26
9037,27
9038,27
9039,27
9040,27
9041,27
9042,27
9043,27
9044,27
9045,27
9046,27
9047,27
9048,27
9049,27
9050,27
9051,27
9052,27
9053,27
9054,27
9055,27
9056,27
9057,27
9058,27
9059,27
9060,27
9061,26
9062,26
9063,26
9064,26
9065,26
9066,26
9067,26
9068,26
9069,26
9070,26
9071,26
9072,26
9073,26
9074,26
9075,26
9076,26
9077,26
9078,26
9079,26
9080,26
9081,26
9082,26
9083,26
9084,26
9085,26
9086,26
9087,26
9088,26
9089,26
9090,26
9091,26
9092,26
9093,26
9094,26
9095,26
9096,26
9097,26
9098,26
9099,26
9100,26
9101,26
9102,26
9103,26
9104,26
9105,26
9106,26
9107,26
9108,26
9109,27
9110,27
9111,27
9112,27
9113,27
9114,27
9115,27
9116,27
9117,27
9118,27
9119,27
9120,27
9121,27
9122,27
9123,27
9124,27
9125,27
9126,27
9127,27
9128,27
9129,27
9130,27
9131,27
9132,27
9133,27
9134,27
9135,27
9136,27
9137,27
9138,27
9139,27
9140,27
9141,27
9142,27
9143,27
9144,27
9145,27
9146,27
9147,27
9148,27
9149,27
9150,27
9151,27
9152,27
9153,27
9154,27
9155,27
9156,27
9157,27
9158,27
9159,27
9160,27
9161,27
9162,27
9163,27
9164,27
9165,27
9166,27
9167,27
9168,27
9169,27
9170,27
9171,27
9172,27
9173,27
9174,27
9175,27
9176,27
9177,27
9178,27
9179,27
9180,27
9181,27
9182,27
9183,27
9184,27
9185,27
9186,27
9187,27
9188,27
9189,27
9190,27
9191,27
9192,27
9193,27
9194,27
9195,27
9196,27
9197,27
9198,27
9199,27
9200,27
9201,27
9202,27
9203,27
9204,27
9205,27
9206,27
9207,27
9208,27
9209,27
9210,27
9211,27
9212,27
9213,27
9214,27
9215,27
9216,27
9217,27
9218,27
9219,27
9220,27
9221,27
9222,27
9223,27
9224,27
9225,27
9226,27
9227,27
9228,27
9229,27
9230,27
9231,27
9232,27
9233,27
9234,27
9235,27
9236,27
9237,27
9238,28
9239,28
9240,28
9241,28
9242,28
9243,28
9244,28
9245,28
9246,28
9247,28
9248,28
9249,28
9250,28
9251,28
9252,28
9253,28
9254,28
9255,28
9256,28
9257,28
9258,27
9259,27
9260,27
9261,27
9262,27
9263,27
9264,27
9265,27
9266,27
9267,27
9268,27
9269,27
9270,27
9271,27
9272,27
9273,27
9274,27
9275,27
9276,27
9277,28
9278,27
9279,27
9280,27
9281,27
9282,28
9283,28
9284,28
9285,27
9286,27
9287,27
9288,27
9289,27
9290,27
9291,27
9292,27
9293,27
9294,28
9295,28
9296,28
9297,28
9298,28
9299,28
9300,27
9301,27
9302,27
9303,27
9304,27
9305,27
9306,27
9307,27
9308,27
9309,27
9310,27
9311,27
9312,27
9313,27
9314,27
9315,27
9316,27
9317,27
9318,27
9319,27
9320,27
9321,27
9322,27
9323,27
9324,27
9325,27
9326,27
9327,27
9328,27
9329,27
9330,27
9331,27
9332,27
9333,27
9334,27
9335,27
9336,27
9337,27
9338,28
9339,27
9340,27
9341,27
9342,27
9343,27
9344,27
9345,27
9346,27
9347,27
9348,27
9349,27
9350,27
9351,27
9352,27
9353,27
9354,27
9355,27
9356,27
9357,27
9358,27
9359,27
9360,27
9361,27
9362,27
9363,27
9364,27
9365,27
9366,27
9367,27
9368,27
9369,27
9370,27
9371,27
9372,27
9373,27
9374,27
9375,27
9376,27
9377,27
9378,27
9379,27
9380,27
9381,27
9382,27
9383,27
9384,27
9385,27
9386,27
9387,27
9388,27
9389,27
9390,27
9391,28
9392,27
9393,27
9394,27
9395,27
9396,27
9397,27
9398,27
9399,27
9400,27
9401,27
9402,27
9403,27
9404,27
9405,27
9406,27
9407,27
9408,27
9409,27
9410,27
9411,27
9412,27
9413,27
9414,27
9415,27
9416,27
9417,27
9418,27
9419,27
9420,27
9421,27
9422,27
9423,27
9424,27
9425,27
9426,27
9427,27
9428,27
9429,27
9430,27
9431,27
9432,27
9433,27
9434,27
9435,27
9436,27
9437,27
9438,27
9439,27
9440,27
9441,27
9442,27
9443,27
9444,27
9445,27
9446,27
9447,27
9448,27
9449,27
9450,27
9451,27
9452,27
9453,27
9454,27
9455,27
9456,27
9457,27
9458,27
9459,27
9460,27
9461,27
9462,27
9463,27
9464,27
9465,27
9466,27
9467,27
9468,27
9469,27
9470,27
9471,27
9472,27
9473,27
9474,27
9475,27
9476,27
9477,27
9478,27
9479,28
9480,27
9481,27
9482,27
9483,27
9484,27
9485,27
9486,27
9487,27
9488,27
9489,27
9490,27
9491,27
9492,27
9493,27
9494,27
9495,27
9496,27
9497,27
9498,27
9499,27
9500,27
9501,27
9502,27
9503,27
9504,27
9505,27
9506,27
9507,27
9508,27
9509,27
9510,27
9511,27
9512,27
9513,27
9514,27
9515,27
9516,27
9517,27
9518,27
9519,27
9520,27
9521,27
9522,27
9523,27
9524,27
9525,27
9526,27
9527,27
9528,27
9529,27
9530,27
9531,27
9532,27
9533,27
9534,27
9535,27
9536,27
9537,27
9538,27
9539,27
9540,27
9541,27
9542,27
9543,27
9544,27
9545,27
9546,27
9547,27
9548,27
9549,27
9550,27
9551,27
9552,27
9553,27
9554,27
9555,27
9556,27
9557,27
9558,27
9559,27
9560,27
9561,27
9562,27
9563,27
9564,27
9565,27
9566,27
9567,27
9568,27
9569,27
9570,27
9571,27
9572,27
9573,27
9574,27
9575,27
9576,27
9577,27
9578,27
9579,28
9580,28
9581,27
9582,27
9583,27
9584,27
9585,27
9586,28
9587,27
9588,27
9589,27
9590,27
9591,27
9592,27
9593,27
9594,27
9595,27
9596,27
9597,27
9598,27
9599,27
9600,27
9601,27
9602,27
9603,27
9604,28
9605,28
9606,28
9607,29
9608,28
9609,28
9610,28
9611,28
9612,28
9613,28
9614,28
9615,28
9616,28
9617,28
9618,28
9619,28
9620,28
9621,28
9622,28
9623,28
9624,28
9625,28
9626,28
9627,28
9628,28
9629,28
9630,28
9631,28
9632,28
9633,28
9634,28
9635,28
9636,28
9637,28
9638,28
9639,28
9640,28
9641,28
9642,28
9643,28
9644,28
9645,28
9646,28
9647,28
9648,28
9649,28
9650,28
9651,28
9652,28
9653,28
9654,28
9655,28
9656,28
9657,28
9658,28
9659,28
9660,28
9661,28
9662,28
9663,28
9664,28
9665,28
9666,28
9667,28
9668,28
9669,28
9670,28
9671,28
9672,28
9673,28
9674,28
9675,28
9676,28
9677,28
9678,28
9679,28
9680,28
9681,28
9682,28
9683,28
9684,28
9685,28
9686,28
9687,28
9688,28
9689,28
9690,28
9691,28
9692,28
9693,28
9694,28
9695,28
9696,28
9697,28
9698,28
9699,28
9700,28
9701,28
9702,28
9703,28
9704,28
9705,28
9706,28
9707,28
9708,28
9709,29
9710,29
9711,29
9712,29
9713,28
9714,28
9715,29
9716,29
9717,28
9718,28
9719,28
9720,28
9721,28
9722,28
9723,28
9724,28
9725,28
9726,28
9727,28
9728,28
9729,28
9730,28
9731,28
9732,28
9733,28
9734,28
9735,28
9736,28
9737,28
9738,28
9739,28
9740,28
9741,28
9742,28
9743,28
9744,28
9745,28
9746,28
9747,28
9748,28
9749,28
9750,28
9751,28
9752,28
9753,28
9754,28
9755,28
9756,28
9757,28
9758,28
9759,28
9760,29
9761,29
9762,28
9763,28
9764,28
9765,28
9766,28
9767,28
9768,28
9769,28
9770,28
9771,28
9772,28
9773,28
9774,28
9775,28
9776,28
9777,28
9778,28
9779,28
9780,28
9781,28
9782,28
9783,28
9784,28
9785,28
9786,28
9787,28
9788,28
9789,28
9790,28
9791,28
9792,28
9793,28
9794,28
9795,28
9796,28
9797,28
9798,28
9799,28
9800,28
9801,28
9802,28
9803,28
9804,28
9805,28
9806,28
9807,28
9808,28
9809,28
9810,28
9811,28
9812,28
9813,28
9814,28
9815,28
9816,28
9817,28
9818,28
9819,28
9820,28
9821,28
9822,28
9823,28
9824,28
9825,28
9826,28
9827,28
9828,28
9829,28
9830,28
9831,28
9832,28
9833,28
9834,28
9835,28
9836,28
9837,28
9838,28
9839,28
9840,28
9841,28
9842,28
9843,28
9844,28
9845,28
9846,28
9847,28
9848,28
9849,28
9850,28
9851,28
9852,28
9853,28
9854,28
9855,28
9856,28
9857,28
9858,28
9859,28
9860,28
9861,28
9862,28
9863,28
9864,28
9865,28
9866,28
9867,28
9868,28
9869,28
9870,28
9871,28
9872,28
9873,28
9874,28
9875,28
9876,28
9877,28
9878,28
9879,28
9880,28
9881,28
9882,28
9883,28
9884,28
9885,28
9886,28
9887,28
9888,28
9889,29
9890,28
9891,28
9892,28
9893,28
9894,28
9895,28
9896,28
9897,28
9898,28
9899,28
9900,28
9901,28
9902,28
9903,28
9904,28
9905,28
9906,28
9907,28
9908,28
9909,28
9910,28
9911,28
9912,28
9913,28
9914,28
9915,28
9916,28
9917,28
9918,29
9919,29
9920,29
9921,29
9922,29
9923,29
9924,29
9925,29
9926,29
9927,29
9928,29
9929,29
9930,29
9931,28
9932,28
9933,28
9934,28
9935,28
9936,28
9937,28
9938,28
9939,28
9940,28
9941,28
9942,28
9943,28
9944,28
9945,28
9946,28
9947,28
9948,28
9949,28
9950,28
9951,28
9952,28
9953,28
9954,28
9955,28
9956,28
9957,28
9958,28
9959,28
9960,28
9961,28
9962,28
9963,28
9964,28
9965,28
9966,28
9967,28
9968,28
9969,28
9970,28
9971,28
9972,28
9973,28
9974,28
9975,28
9976,28
9977,28
9978,28
9979,28
9980,28
9981,28
9982,28
9983,28
9984,28
9985,28
9986,28
9987,28
9988,28
9989,28
9990,28
9991,28
9992,28
9993,28
9994,28
9995,28
9996,28
9997,28
9998,28
9999,28
10000,28
