1,3
2,3
3,3
4,3
5,3
6,3
7,3
8,3
9,3
10,3
11,3
12,3
13,3
14,3
15,3
16,3
17,3
18,3
19,3
20,3
21,3
22,3
23,3
24,3
25,3
26,3
27,3
28,3
29,3
30,3
31,3
32,3
33,3
34,3
35,3
36,3
37,3
38,3
39,3
40,3
41,3
42,3
43,3
44,3
45,3
46,3
47,3
48,3
49,3
50,3
51,3
52,3
53,3
54,3
55,3
56,3
57,3
58,3
59,3
60,3
61,3
62,3
63,3
64,3
65,3
66,3
67,3
68,3
69,3
70,3
71,3
72,3
73,3
74,3
75,3
76,3
77,3
78,3
79,3
80,3
81,3
82,4
83,4
84,4
85,4
86,4
87,4
88,4
89,4
90,4
91,4
92,4
93,4
94,4
95,4
96,4
97,4
98,4
99,4
100,4
101,4
102,4
103,4
104,4
105,4
106,4
107,4
108,4
109,4
110,4
111,4
112,4
113,4
114,4
115,4
116,4
117,4
118,4
119,4
120,4
121,4
122,4
123,4
124,4
125,4
126,4
127,4
128,4
129,4
130,4
131,4
132,4
133,4
134,4
135,4
136,4
137,4
138,4
139,4
140,4
141,4
142,4
143,5
144,4
145,4
146,4
147,4
148,4
149,4
150,4
151,4
152,4
153,4
154,4
155,4
156,5
157,5
158,5
159,5
160,5
161,5
162,5
163,5
164,5
165,5
166,5
167,5
168,5
169,5
170,5
171,5
172,5
173,5
174,5
175,5
176,5
177,5
178,5
179,5
180,5
181,5
182,5
183,5
184,5
185,5
186,5
187,5
188,5
189,5
190,5
191,5
192,5
193,5
194,5
195,5
196,5
197,5
198,5
199,5
200,5
201,5
202,5
203,5
204,5
205,5
206,5
207,5
208,5
209,5
210,5
211,5
212,5
213,5
214,5
215,5
216,5
217,5
218,5
219,5
220,5
221,5
222,5
223,5
224,5
225,5
226,5
227,5
228,5
229,5
230,5
231,5
232,5
233,5
234,5
235,5
236,5
237,5
238,5
239,5
240,5
241,5
242,5
243,5
244,5
245,5
246,5
247,5
248,5
249,5
250,5
251,5
252,6
253,5
254,5
255,5
256,5
257,5
258,5
259,5
260,5
261,5
262,5
263,5
264,5
265,5
266,5
267,5
268,5
269,5
270,5
271,5
272,5
273,5
274,5
275,5
276,5
277,5
278,5
279,5
280,5
281,5
282,5
283,5
284,5
285,5
286,5
287,5
288,5
289,5
290,5
291,5
292,5
293,5
294,5
295,5
296,5
297,5
298,5
299,5
300,5
301,5
302,5
303,5
304,5
305,5
306,5
307,5
308,5
309,5
310,5
311,5
312,5
313,5
314,5
315,5
316,5
317,5
318,5
319,5
320,5
321,5
322,5
323,5
324,5
325,5
326,5
327,5
328,5
329,5
330,5
331,5
332,5
333,5
334,5
335,5
336,5
337,5
338,5
339,5
340,5
341,5
342,5
343,5
344,5
345,5
346,5
347,5
348,5
349,5
350,5
351,5
352,5
353,5
354,5
355,5
356,5
357,5
358,5
359,5
360,5
361,5
362,5
363,5
364,5
365,5
366,6
367,5
368,5
369,5
370,5
371,5
372,5
373,5
374,5
375,5
376,5
377,5
378,5
379,5
380,5
381,5
382,5
383,5
384,5
385,5
386,5
387,5
388,5
389,5
390,5
391,5
392,5
393,5
394,5
395,5
396,5
397,5
398,5
399,5
400,5
401,5
402,5
403,5
404,5
405,5
406,5
407,5
408,5
409,5
410,5
411,5
412,5
413,5
414,5
415,5
416,5
417,5
418,5
419,5
420,5
421,5
422,5
423,5
424,5
425,5
426,5
427,5
428,5
429,5
430,5
431,5
432,5
433,5
434,5
435,5
436,5
437,5
438,5
439,5
440,5
441,5
442,5
443,5
444,5
445,5
446,5
447,5
448,5
449,5
450,5
451,5
452,5
453,5
454,5
455,5
456,5
457,5
458,5
459,5
460,5
461,5
462,5
463,5
464,5
465,5
466,5
467,5
468,5
469,5
470,5
471,5
472,5
473,5
474,5
475,5
476,5
477,5
478,5
479,5
480,5
481,5
482,5
483,5
484,5
485,5
486,5
487,5
488,5
489,5
490,5
491,5
492,5
493,5
494,5
495,5
496,5
497,5
498,5
499,5
500,5
501,5
502,5
503,5
504,5
505,5
506,5
507,5
508,5
509,5
510,5
511,5
512,5
513,5
514,5
515,5
516,5
517,5
518,5
519,5
520,5
521,5
522,5
523,5
524,5
525,5
526,5
527,5
528,5
529,5
530,5
531,5
532,5
533,5
534,5
535,5
536,5
537,5
538,5
539,5
540,5
541,5
542,5
543,5
544,5
545,5
546,5
547,5
548,5
549,5
550,5
551,5
552,5
553,5
554,5
555,5
556,5
557,5
558,5
559,5
560,5
561,5
562,5
563,5
564,5
565,5
566,5
567,5
568,5
569,5
570,5
571,5
572,5
573,5
574,5
575,5
576,5
577,5
578,5
579,5
580,5
581,5
582,5
583,5
584,5
585,5
586,5
587,5
588,5
589,5
590,5
591,5
592,5
593,5
594,5
595,5
596,5
597,5
598,5
599,5
600,5
601,5
602,5
603,5
604,5
605,5
606,5
607,5
608,5
609,5
610,5
611,5
612,5
613,5
614,5
615,5
616,5
617,5
618,5
619,5
620,5
621,5
622,5
623,5
624,5
625,5
626,5
627,5
628,5
629,5
630,5
631,5
632,5
633,5
634,5
635,5
636,5
637,5
638,5
639,5
640,5
641,5
642,5
643,5
644,5
645,5
646,5
647,5
648,5
649,5
650,5
651,5
652,5
653,5
654,5
655,5
656,5
657,5
658,5
659,5
660,5
661,5
662,5
663,5
664,5
665,5
666,5
667,5
668,6
669,6
670,6
671,5
672,5
673,5
674,5
675,5
676,5
677,5
678,5
679,5
680,5
681,5
682,5
683,5
684,5
685,5
686,5
687,5
688,5
689,5
690,5
691,5
692,5
693,5
694,5
695,5
696,5
697,5
698,5
699,5
700,5
701,5
702,5
703,5
704,5
705,5
706,5
707,5
708,5
709,5
710,5
711,5
712,5
713,5
714,5
715,5
716,5
717,5
718,5
719,5
720,5
721,5
722,5
723,5
724,5
725,5
726,5
727,5
728,5
729,5
730,5
731,5
732,5
733,5
734,5
735,5
736,5
737,5
738,5
739,5
740,5
741,5
742,5
743,5
744,5
745,5
746,5
747,5
748,5
749,5
750,5
751,6
752,5
753,5
754,5
755,5
756,5
757,5
758,5
759,5
760,5
761,5
762,5
763,5
764,5
765,5
766,5
767,5
768,5
769,5
770,5
771,5
772,5
773,5
774,5
775,5
776,5
777,5
778,5
779,5
780,5
781,5
782,5
783,5
784,5
785,5
786,5
787,5
788,5
789,5
790,5
791,5
792,5
793,5
794,5
795,5
796,5
797,5
798,5
799,5
800,5
801,5
802,5
803,5
804,5
805,5
806,5
807,5
808,5
809,5
810,5
811,5
812,5
813,5
814,5
815,5
816,5
817,5
818,5
819,5
820,5
821,5
822,5
823,5
824,5
825,5
826,5
827,5
828,5
829,5
830,5
831,5
832,5
833,5
834,5
835,5
836,5
837,5
838,5
839,5
840,5
841,5
842,5
843,5
844,5
845,5
846,5
847,5
848,5
849,5
850,5
851,5
852,5
853,5
854,5
855,5
856,5
857,5
858,5
859,5
860,5
861,5
862,5
863,5
864,5
865,5
866,5
867,5
868,5
869,5
870,5
871,5
872,5
873,5
874,5
875,5
876,5
877,5
878,5
879,5
880,5
881,5
882,5
883,5
884,5
885,5
886,5
887,5
888,5
889,5
890,5
891,5
892,5
893,6
894,6
895,6
896,6
897,6
898,6
899,6
900,6
901,6
902,6
903,6
904,6
905,6
906,6
907,6
908,6
909,6
910,6
911,6
912,6
913,6
914,6
915,6
916,6
917,6
918,6
919,6
920,6
921,7
922,6
923,6
924,6
925,6
926,6
927,6
928,6
929,6
930,6
931,6
932,6
933,6
934,6
935,6
936,6
937,6
938,6
939,6
940,6
941,6
942,6
943,6
944,6
945,6
946,6
947,6
948,6
949,6
950,6
951,6
952,6
953,6
954,6
955,6
956,6
957,6
958,6
959,6
960,6
961,6
962,6
963,7
964,7
965,7
966,7
967,7
968,7
969,7
970,7
971,7
972,7
973,7
974,7
975,7
976,7
977,7
978,7
979,7
980,7
981,7
982,7
983,7
984,7
985,7
986,7
987,7
988,7
989,7
990,7
991,7
992,7
993,7
994,7
995,7
996,7
997,7
998,7
999,7
1000,7
1001,7
1002,7
1003,7
1004,7
1005,7
1006,7
1007,7
1008,7
1009,7
1010,7
1011,7
1012,7
1013,7
1014,7
1015,7
1016,7
1017,7
1018,7
1019,7
1020,8
1021,8
1022,7
1023,7
1024,7
1025,7
1026,7
1027,7
1028,7
1029,7
1030,7
1031,7
1032,7
1033,7
1034,7
1035,7
1036,7
1037,7
1038,7
1039,7
1040,7
1041,7
1042,7
1043,7
1044,7
1045,7
1046,7
1047,7
1048,7
1049,7
1050,7
1051,7
1052,7
1053,7
1054,7
1055,7
1056,7
1057,7
1058,7
1059,7
1060,7
1061,7
1062,7
1063,7
1064,7
1065,7
1066,7
1067,7
1068,7
1069,7
1070,7
1071,8
1072,8
1073,8
1074,8
1075,8
1076,8
1077,8
1078,7
1079,7
1080,7
1081,7
1082,7
1083,7
1084,7
1085,7
1086,7
1087,7
1088,7
1089,7
1090,7
1091,7
1092,7
1093,7
1094,7
1095,7
1096,7
1097,7
1098,7
1099,7
1100,7
1101,7
1102,7
1103,7
1104,7
1105,7
1106,7
1107,7
1108,7
1109,7
1110,8
1111,7
1112,7
1113,7
1114,7
1115,7
1116,7
1117,7
1118,7
1119,7
1120,7
1121,7
1122,7
1123,7
1124,7
1125,7
1126,7
1127,7
1128,7
1129,7
1130,7
1131,7
1132,7
1133,7
1134,7
1135,7
1136,7
1137,7
1138,7
1139,7
1140,7
1141,7
1142,7
1143,8
1144,8
1145,8
1146,8
1147,8
1148,8
1149,8
1150,8
1151,7
1152,7
1153,7
1154,7
1155,7
1156,7
1157,7
1158,7
1159,7
1160,7
1161,7
1162,7
1163,7
1164,7
1165,7
1166,7
1167,7
1168,7
1169,7
1170,7
1171,7
1172,7
1173,7
1174,7
1175,7
1176,7
1177,7
1178,7
1179,7
1180,7
1181,7
1182,7
1183,7
1184,7
1185,7
1186,7
1187,7
1188,7
1189,7
1190,7
1191,7
1192,7
1193,7
1194,7
1195,7
1196,7
1197,7
1198,7
1199,7
1200,7
1201,7
1202,7
1203,7
1204,7
1205,7
1206,7
1207,7
1208,7
1209,7
1210,7
1211,7
1212,7
1213,7
1214,7
1215,7
1216,7
1217,7
1218,7
1219,7
1220,7
1221,7
1222,7
1223,7
1224,7
1225,7
1226,7
1227,7
1228,7
1229,7
1230,7
1231,7
1232,7
1233,7
1234,7
1235,7
1236,7
1237,7
1238,7
1239,7
1240,7
1241,7
1242,7
1243,7
1244,7
1245,7
1246,7
1247,7
1248,7
1249,7
1250,7
1251,7
1252,7
1253,7
1254,7
1255,7
1256,7
1257,7
1258,7
1259,7
1260,7
1261,7
1262,7
1263,7
1264,7
1265,7
1266,7
1267,7
1268,7
1269,7
1270,8
1271,7
1272,7
1273,7
1274,7
1275,7
1276,7
1277,7
1278,7
1279,7
1280,7
1281,8
1282,8
1283,8
1284,8
1285,8
1286,8
1287,7
1288,7
1289,7
1290,7
1291,7
1292,7
1293,7
1294,7
1295,7
1296,7
1297,7
1298,7
1299,7
1300,7
1301,7
1302,7
1303,7
1304,7
1305,7
1306,7
1307,7
1308,8
1309,8
1310,9
1311,8
1312,8
1313,8
1314,8
1315,8
1316,8
1317,9
1318,9
1319,9
1320,8
1321,8
1322,8
1323,8
1324,8
1325,8
1326,8
1327,8
1328,9
1329,8
1330,8
1331,8
1332,8
1333,8
1334,8
1335,8
1336,8
1337,8
1338,8
1339,8
1340,8
1341,8
1342,8
1343,8
1344,8
1345,8
1346,8
1347,8
1348,8
1349,8
1350,8
1351,8
1352,8
1353,8
1354,8
1355,8
1356,8
1357,8
1358,8
1359,9
1360,8
1361,8
1362,8
1363,8
1364,8
1365,8
1366,8
1367,8
1368,8
1369,8
1370,8
1371,8
1372,8
1373,8
1374,8
1375,8
1376,8
1377,8
1378,8
1379,8
1380,8
1381,8
1382,8
1383,8
1384,8
1385,8
1386,8
1387,8
1388,8
1389,8
1390,8
1391,8
1392,8
1393,8
1394,8
1395,8
1396,8
1397,8
1398,8
1399,8
1400,8
1401,8
1402,8
1403,8
1404,8
1405,8
1406,8
1407,8
1408,8
1409,8
1410,8
1411,8
1412,8
1413,8
1414,8
1415,8
1416,8
1417,8
1418,8
1419,8
1420,8
1421,8
1422,8
1423,8
1424,8
1425,8
1426,8
1427,8
1428,8
1429,8
1430,8
1431,8
1432,8
1433,8
1434,9
1435,9
1436,9
1437,9
1438,9
1439,9
1440,9
1441,9
1442,9
1443,9
1444,9
1445,9
1446,9
1447,9
1448,9
1449,9
1450,9
1451,9
1452,9
1453,9
1454,9
1455,9
1456,9
1457,9
1458,9
1459,9
1460,9
1461,9
1462,9
1463,9
1464,9
1465,9
1466,9
1467,9
1468,9
1469,9
1470,9
1471,9
1472,9
1473,9
1474,9
1475,9
1476,9
1477,9
1478,9
1479,9
1480,9
1481,11
1482,11
1483,11
1484,11
1485,11
1486,10
1487,10
1488,10
1489,10
1490,10
1491,10
1492,10
1493,10
1494,10
1495,10
1496,10
1497,10
1498,10
1499,10
1500,10
1501,10
1502,10
1503,10
1504,10
1505,10
1506,10
1507,10
1508,10
1509,10
1510,10
1511,10
1512,10
1513,10
1514,10
1515,10
1516,10
1517,10
1518,10
1519,10
1520,10
1521,10
1522,10
1523,10
1524,10
1525,10
1526,10
1527,11
1528,10
1529,10
1530,10
1531,10
1532,10
1533,10
1534,10
1535,10
1536,10
1537,10
1538,10
1539,10
1540,10
1541,10
1542,10
1543,10
1544,10
1545,10
1546,10
1547,10
1548,10
1549,10
1550,10
1551,10
1552,10
1553,10
1554,10
1555,10
1556,10
1557,10
1558,10
1559,10
1560,10
1561,10
1562,10
1563,10
1564,10
1565,10
1566,10
1567,10
1568,10
1569,10
1570,10
1571,10
1572,10
1573,10
1574,10
1575,10
1576,10
1577,10
1578,10
1579,10
1580,10
1581,10
1582,10
1583,10
1584,10
1585,10
1586,10
1587,10
1588,10
1589,10
1590,10
1591,10
1592,10
1593,10
1594,11
1595,11
1596,11
1597,11
1598,11
1599,11
1600,11
1601,11
1602,10
1603,10
1604,10
1605,10
1606,10
1607,10
1608,10
1609,10
1610,10
1611,10
1612,10
1613,10
1614,10
1615,10
1616,10
1617,10
1618,10
1619,10
1620,10
1621,10
1622,10
1623,10
1624,10
1625,10
1626,10
1627,10
1628,10
1629,10
1630,10
1631,10
1632,11
1633,11
1634,11
1635,10
1636,10
1637,10
1638,10
1639,10
1640,10
1641,10
1642,10
1643,10
1644,10
1645,10
1646,10
1647,10
1648,10
1649,10
1650,10
1651,10
1652,10
1653,10
1654,10
1655,10
1656,10
1657,10
1658,10
1659,10
1660,10
1661,10
1662,10
1663,10
1664,10
1665,10
1666,10
1667,10
1668,10
1669,10
1670,10
1671,10
1672,10
1673,10
1674,10
1675,10
1676,10
1677,10
1678,10
1679,10
1680,10
1681,10
1682,10
1683,10
1684,10
1685,10
1686,10
1687,10
1688,10
1689,10
1690,10
1691,10
1692,10
1693,10
1694,10
1695,10
1696,10
1697,10
1698,10
1699,10
1700,10
1701,10
1702,10
1703,10
1704,10
1705,10
1706,10
1707,10
1708,10
1709,10
1710,10
1711,10
1712,10
1713,10
1714,10
1715,10
1716,10
1717,10
1718,10
1719,10
1720,10
1721,10
1722,10
1723,10
1724,10
1725,10
1726,10
1727,10
1728,10
1729,10
1730,10
1731,10
1732,10
1733,10
1734,10
1735,10
1736,10
1737,10
1738,10
1739,10
1740,10
1741,10
1742,10
1743,10
1744,10
1745,10
1746,10
1747,10
1748,10
1749,10
1750,10
1751,10
1752,10
1753,10
1754,10
1755,10
1756,10
1757,10
1758,10
1759,10
1760,10
1761,10
1762,10
1763,10
1764,10
1765,10
1766,10
1767,10
1768,10
1769,10
1770,10
1771,10
1772,10
1773,10
1774,10
1775,10
1776,10
1777,10
1778,11
1779,11
1780,10
1781,10
1782,10
1783,10
1784,10
1785,10
1786,10
1787,10
1788,10
1789,10
1790,10
1791,10
1792,10
1793,10
1794,10
1795,10
1796,10
1797,10
1798,10
1799,10
1800,10
1801,10
1802,10
1803,10
1804,10
1805,10
1806,10
1807,10
1808,10
1809,10
1810,10
1811,10
1812,10
1813,10
1814,10
1815,10
1816,10
1817,10
1818,10
1819,10
1820,10
1821,10
1822,10
1823,10
1824,10
1825,10
1826,10
1827,10
1828,10
1829,10
1830,10
1831,10
1832,10
1833,10
1834,10
1835,10
1836,10
1837,10
1838,10
1839,10
1840,10
1841,10
1842,10
1843,10
1844,10
1845,11
1846,11
1847,11
1848,11
1849,11
1850,11
1851,11
1852,11
1853,11
1854,11
1855,11
1856,11
1857,11
1858,11
1859,11
1860,11
1861,11
1862,11
1863,11
1864,11
1865,11
1866,11
1867,11
1868,11
1869,11
1870,11
1871,11
1872,11
1873,11
1874,11
1875,11
1876,11
1877,11
1878,11
1879,11
1880,11
1881,11
1882,11
1883,11
1884,11
1885,11
1886,11
1887,11
1888,11
1889,11
1890,11
1891,11
1892,11
1893,12
1894,11
1895,11
1896,11
1897,11
1898,11
1899,11
1900,11
1901,11
1902,11
1903,11
1904,11
1905,11
1906,11
1907,11
1908,11
1909,11
1910,11
1911,11
1912,11
1913,11
1914,11
1915,11
1916,11
1917,11
1918,11
1919,11
1920,11
1921,11
1922,11
1923,11
1924,11
1925,11
1926,11
1927,11
1928,11
1929,11
1930,11
1931,11
1932,11
1933,11
1934,11
1935,11
1936,11
1937,11
1938,11
1939,11
1940,11
1941,11
1942,11
1943,11
1944,11
1945,11
1946,11
1947,11
1948,11
1949,11
1950,11
1951,11
1952,11
1953,11
1954,12
1955,11
1956,11
1957,11
1958,11
1959,11
1960,11
1961,11
1962,11
1963,11
1964,11
1965,11
1966,11
1967,11
1968,11
1969,11
1970,11
1971,11
1972,11
1973,11
1974,11
1975,11
1976,11
1977,11
1978,11
1979,11
1980,11
1981,11
1982,11
1983,11
1984,11
1985,11
1986,11
1987,11
1988,11
1989,11
1990,11
1991,11
1992,11
1993,11
1994,11
1995,11
1996,11
1997,11
1998,11
1999,11
2000,11
2001,11
2002,11
2003,11
2004,11
2005,11
2006,11
2007,11
2008,11
2009,11
2010,11
2011,11
2012,11
2013,11
2014,11
2015,11
2016,11
2017,11
2018,11
2019,11
2020,11
2021,11
2022,11
2023,11
2024,11
2025,11
2026,11
2027,11
2028,11
2029,11
2030,11
2031,11
2032,11
2033,11
2034,11
2035,11
2036,11
2037,11
2038,12
2039,11
2040,11
2041,11
2042,11
2043,11
2044,11
2045,11
2046,11
2047,11
2048,11
2049,11
2050,11
2051,11
2052,11
2053,11
2054,11
2055,11
2056,11
2057,11
2058,11
2059,11
2060,11
2061,11
2062,11
2063,11
2064,11
2065,11
2066,11
2067,11
2068,11
2069,11
2070,11
2071,11
2072,11
2073,11
2074,11
2075,11
2076,11
2077,11
2078,11
2079,11
2080,11
2081,11
2082,11
2083,11
2084,11
2085,11
2086,11
2087,11
2088,11
2089,11
2090,11
2091,11
2092,11
2093,11
2094,11
2095,11
2096,11
2097,11
2098,11
2099,11
2100,11
2101,11
2102,11
2103,11
2104,11
2105,11
2106,11
2107,11
2108,11
2109,11
2110,11
2111,11
2112,11
2113,11
2114,11
2115,11
2116,11
2117,11
2118,11
2119,11
2120,11
2121,11
2122,11
2123,11
2124,11
2125,11
2126,11
2127,11
2128,11
2129,11
2130,11
2131,11
2132,11
2133,11
2134,11
2135,11
2136,11
2137,11
2138,11
2139,11
2140,11
2141,11
2142,11
2143,11
2144,11
2145,11
2146,11
2147,11
2148,11
2149,11
2150,11
2151,11
2152,11
2153,11
2154,11
2155,11
2156,11
2157,11
2158,11
2159,11
2160,11
2161,11
2162,11
2163,11
2164,11
2165,11
2166,11
2167,11
2168,11
2169,11
2170,11
2171,11
2172,11
2173,11
2174,11
2175,11
2176,11
2177,11
2178,11
2179,11
2180,11
2181,11
2182,11
2183,11
2184,11
2185,11
2186,11
2187,11
2188,11
2189,11
2190,11
2191,11
2192,11
2193,11
2194,11
2195,11
2196,11
2197,11
2198,11
2199,11
2200,11
2201,11
2202,11
2203,11
2204,11
2205,11
2206,11
2207,11
2208,11
2209,11
2210,11
2211,11
2212,11
2213,11
2214,11
2215,11
2216,11
2217,11
2218,11
2219,11
2220,11
2221,11
2222,11
2223,11
2224,11
2225,11
2226,11
2227,12
2228,12
2229,12
2230,12
2231,12
2232,12
2233,12
2234,12
2235,12
2236,12
2237,12
2238,12
2239,12
2240,12
2241,12
2242,12
2243,12
2244,12
2245,12
2246,12
2247,12
2248,12
2249,12
2250,12
2251,12
2252,12
2253,12
2254,12
2255,12
2256,12
2257,12
2258,12
2259,12
2260,12
2261,12
2262,12
2263,12
2264,12
2265,12
2266,12
2267,12
2268,12
2269,12
2270,12
2271,12
2272,12
2273,12
2274,12
2275,12
2276,12
2277,12
2278,12
2279,12
2280,12
2281,12
2282,12
2283,12
2284,12
2285,12
2286,13
2287,13
2288,13
2289,14
2290,14
2291,12
2292,12
2293,12
2294,12
2295,12
2296,12
2297,12
2298,12
2299,12
2300,12
2301,12
2302,12
2303,12
2304,12
2305,12
2306,12
2307,12
2308,12
2309,12
2310,12
2311,12
2312,12
2313,12
2314,12
2315,12
2316,12
2317,12
2318,12
2319,12
2320,12
2321,12
2322,12
2323,12
2324,12
2325,12
2326,12
2327,12
2328,12
2329,12
2330,12
2331,12
2332,12
2333,12
2334,12
2335,12
2336,12
2337,12
2338,12
2339,12
2340,12
2341,12
2342,12
2343,12
2344,12
2345,12
2346,12
2347,12
2348,12
2349,12
2350,12
2351,12
2352,12
2353,12
2354,12
2355,12
2356,12
2357,12
2358,12
2359,12
2360,12
2361,12
2362,12
2363,12
2364,12
2365,12
2366,12
2367,12
2368,12
2369,12
2370,12
2371,12
2372,12
2373,12
2374,12
2375,12
2376,12
2377,12
2378,12
2379,12
2380,12
2381,12
2382,12
2383,12
2384,12
2385,12
2386,12
2387,12
2388,12
2389,12
2390,12
2391,12
2392,12
2393,12
2394,12
2395,12
2396,12
2397,12
2398,12
2399,12
2400,12
2401,12
2402,12
2403,12
2404,12
2405,12
2406,12
2407,12
2408,12
2409,12
2410,12
2411,12
2412,12
2413,12
2414,12
2415,12
2416,12
2417,12
2418,12
2419,12
2420,12
2421,12
2422,12
2423,12
2424,12
2425,12
2426,12
2427,12
2428,12
2429,12
2430,12
2431,12
2432,12
2433,12
2434,12
2435,12
2436,12
2437,12
2438,12
2439,12
2440,12
2441,12
2442,12
2443,12
2444,12
2445,12
2446,12
2447,12
2448,12
2449,12
2450,12
2451,12
2452,12
2453,12
2454,12
2455,12
2456,12
2457,12
2458,12
2459,12
2460,12
2461,12
2462,12
2463,12
2464,12
2465,12
2466,12
2467,12
2468,12
2469,12
2470,13
2471,13
2472,13
2473,13
2474,13
2475,13
2476,13
2477,13
2478,13
2479,13
2480,13
2481,13
2482,13
2483,12
2484,12
2485,12
2486,12
2487,12
2488,12
2489,12
2490,12
2491,12
2492,12
2493,12
2494,12
2495,12
2496,12
2497,12
2498,12
2499,12
2500,12
2501,12
2502,12
2503,12
2504,12
2505,12
2506,12
2507,12
2508,12
2509,12
2510,12
2511,12
2512,12
2513,12
2514,12
2515,12
2516,12
2517,12
2518,12
2519,12
2520,12
2521,12
2522,12
2523,12
2524,12
2525,12
2526,12
2527,12
2528,12
2529,12
2530,12
2531,12
2532,12
2533,12
2534,12
2535,12
2536,12
2537,12
2538,12
2539,12
2540,12
2541,12
2542,12
2543,12
2544,12
2545,12
2546,12
2547,12
2548,12
2549,12
2550,12
2551,12
2552,12
2553,12
2554,12
2555,12
2556,12
2557,12
2558,12
2559,12
2560,12
2561,12
2562,12
2563,12
2564,12
2565,12
2566,12
2567,12
2568,12
2569,12
2570,12
2571,12
2572,13
2573,13
2574,13
2575,13
2576,13
2577,13
2578,13
2579,13
2580,13
2581,14
2582,14
2583,14
2584,14
2585,14
2586,14
2587,14
2588,14
2589,14
2590,14
2591,14
2592,14
2593,14
2594,14
2595,14
2596,14
2597,14
2598,14
2599,14
2600,14
2601,14
2602,14
2603,13
2604,13
2605,13
2606,13
2607,13
2608,13
2609,13
2610,13
2611,13
2612,13
2613,13
2614,13
2615,13
2616,13
2617,13
2618,13
2619,13
2620,13
2621,13
2622,13
2623,13
2624,13
2625,13
2626,13
2627,13
2628,13
2629,13
2630,13
2631,13
2632,13
2633,13
2634,13
2635,13
2636,13
2637,13
2638,13
2639,13
2640,13
2641,13
2642,13
2643,13
2644,13
2645,13
2646,13
2647,13
2648,13
2649,13
2650,13
2651,13
2652,13
2653,13
2654,13
2655,13
2656,13
2657,13
2658,13
2659,13
2660,13
2661,13
2662,13
2663,13
2664,13
2665,13
2666,13
2667,13
2668,13
2669,13
2670,13
2671,13
2672,13
2673,13
2674,13
2675,13
2676,13
2677,13
2678,13
2679,13
2680,13
2681,13
2682,13
2683,13
2684,13
2685,13
2686,13
2687,13
2688,13
2689,13
2690,13
2691,13
2692,13
2693,13
2694,13
2695,13
2696,13
2697,13
2698,13
2699,13
2700,13
2701,13
2702,13
2703,13
2704,13
2705,13
2706,13
2707,13
2708,13
2709,13
2710,13
2711,13
2712,13
2713,13
2714,13
2715,13
2716,13
2717,13
2718,13
2719,13
2720,13
2721,13
2722,13
2723,13
2724,13
2725,13
2726,13
2727,13
2728,13
2729,13
2730,13
2731,13
2732,13
2733,13
2734,13
2735,13
2736,13
2737,13
2738,13
2739,13
2740,13
2741,13
2742,13
2743,13
2744,13
2745,13
2746,13
2747,13
2748,13
2749,13
2750,13
2751,13
2752,13
2753,13
2754,13
2755,13
2756,13
2757,13
2758,13
2759,13
2760,13
2761,13
2762,13
2763,13
2764,13
2765,13
2766,13
2767,13
2768,13
2769,13
2770,13
2771,13
2772,13
2773,13
2774,13
2775,13
2776,13
2777,13
2778,13
2779,13
2780,13
2781,13
2782,13
2783,13
2784,13
2785,13
2786,13
2787,14
2788,14
2789,13
2790,13
2791,13
2792,13
2793,13
2794,13
2795,13
2796,13
2797,13
2798,13
2799,13
2800,13
2801,13
2802,13
2803,13
2804,13
2805,13
2806,13
2807,13
2808,13
2809,13
2810,13
2811,13
2812,13
2813,13
2814,13
2815,13
2816,13
2817,13
2818,13
2819,13
2820,13
2821,13
2822,13
2823,13
2824,13
2825,13
2826,13
2827,13
2828,13
2829,13
2830,13
2831,13
2832,13
2833,13
2834,13
2835,13
2836,13
2837,13
2838,13
2839,13
2840,13
2841,13
2842,13
2843,13
2844,13
2845,13
2846,13
2847,13
2848,13
2849,13
2850,13
2851,13
2852,13
2853,13
2854,13
2855,13
2856,13
2857,13
2858,13
2859,13
2860,13
2861,13
2862,13
2863,13
2864,13
2865,13
2866,13
2867,13
2868,13
2869,13
2870,13
2871,13
2872,13
2873,13
2874,13
2875,13
2876,13
2877,13
2878,13
2879,13
2880,13
2881,13
2882,13
2883,13
2884,13
2885,13
2886,13
2887,13
2888,13
2889,13
2890,13
2891,13
2892,13
2893,13
2894,13
2895,13
2896,13
2897,13
2898,13
2899,13
2900,13
2901,13
2902,13
2903,13
2904,13
2905,13
2906,13
2907,13
2908,13
2909,13
2910,13
2911,13
2912,13
2913,13
2914,13
2915,13
2916,13
2917,13
2918,13
2919,13
2920,13
2921,13
2922,13
2923,13
2924,13
2925,13
2926,13
2927,13
2928,13
2929,13
2930,13
2931,13
2932,13
2933,13
2934,13
2935,13
2936,13
2937,13
2938,13
2939,13
2940,13
2941,13
2942,13
2943,13
2944,13
2945,13
2946,13
2947,13
2948,13
2949,13
2950,13
2951,13
2952,13
2953,13
2954,13
2955,13
2956,13
2957,13
2958,13
2959,13
2960,13
2961,13
2962,13
2963,13
2964,13
2965,13
2966,13
2967,13
2968,13
2969,13
2970,13
2971,13
2972,13
2973,13
2974,13
2975,13
2976,13
2977,13
2978,13
2979,13
2980,13
2981,13
2982,13
2983,13
2984,13
2985,13
2986,13
2987,13
2988,13
2989,13
2990,13
2991,13
2992,13
2993,13
2994,13
2995,13
2996,13
2997,13
2998,13
2999,13
3000,13
3001,13
3002,13
3003,13
3004,13
3005,13
3006,13
3007,13
3008,13
3009,13
3010,13
3011,13
3012,13
3013,13
3014,13
3015,13
3016,13
3017,13
3018,13
3019,13
3020,13
3021,13
3022,13
3023,13
3024,13
3025,13
3026,13
3027,13
3028,13
3029,13
3030,13
3031,13
3032,13
3033,13
3034,13
3035,13
3036,13
3037,13
3038,13
3039,13
3040,13
3041,13
3042,13
3043,13
3044,13
3045,13
3046,13
3047,13
3048,13
3049,13
3050,13
3051,13
3052,13
3053,13
3054,13
3055,13
3056,13
3057,13
3058,13
3059,13
3060,13
3061,13
3062,13
3063,13
3064,13
3065,13
3066,13
3067,13
3068,13
3069,13
3070,13
3071,13
3072,13
3073,13
3074,13
3075,13
3076,13
3077,13
3078,13
3079,13
3080,13
3081,13
3082,13
3083,13
3084,13
3085,13
3086,13
3087,13
3088,13
3089,13
3090,13
3091,13
3092,13
3093,13
3094,13
3095,13
3096,13
3097,13
3098,13
3099,13
3100,13
3101,13
3102,13
3103,13
3104,13
3105,13
3106,13
3107,13
3108,13
3109,13
3110,13
3111,13
3112,13
3113,13
3114,13
3115,13
3116,13
3117,13
3118,13
3119,13
3120,13
3121,13
3122,13
3123,13
3124,13
3125,13
3126,13
3127,13
3128,13
3129,13
3130,13
3131,13
3132,13
3133,13
3134,13
3135,13
3136,13
3137,13
3138,13
3139,13
3140,13
3141,13
3142,13
3143,13
3144,13
3145,13
3146,13
3147,13
3148,13
3149,13
3150,13
3151,13
3152,13
3153,13
3154,13
3155,13
3156,13
3157,13
3158,13
3159,13
3160,13
3161,13
3162,13
3163,13
3164,13
3165,13
3166,13
3167,13
3168,13
3169,13
3170,13
3171,13
3172,14
3173,14
3174,14
3175,13
3176,13
3177,13
3178,13
3179,13
3180,13
3181,13
3182,13
3183,13
3184,13
3185,13
3186,13
3187,13
3188,13
3189,13
3190,13
3191,13
3192,13
3193,13
3194,13
3195,13
3196,13
3197,13
3198,13
3199,13
3200,13
3201,13
3202,13
3203,13
3204,13
3205,13
3206,13
3207,13
3208,13
3209,13
3210,13
3211,13
3212,13
3213,13
3214,13
3215,13
3216,13
3217,13
3218,13
3219,13
3220,13
3221,13
3222,13
3223,13
3224,13
3225,13
3226,14
3227,14
3228,14
3229,13
3230,13
3231,13
3232,13
3233,13
3234,13
3235,13
3236,13
3237,13
3238,13
3239,13
3240,13
3241,13
3242,13
3243,13
3244,13
3245,13
3246,13
3247,13
3248,13
3249,13
3250,13
3251,13
3252,13
3253,13
3254,13
3255,13
3256,13
3257,13
3258,13
3259,13
3260,13
3261,13
3262,13
3263,13
3264,13
3265,13
3266,13
3267,13
3268,13
3269,13
3270,13
3271,13
3272,13
3273,13
3274,13
3275,13
3276,13
3277,13
3278,13
3279,13
3280,13
3281,13
3282,13
3283,13
3284,13
3285,13
3286,13
3287,13
3288,13
3289,13
3290,13
3291,13
3292,13
3293,13
3294,13
3295,13
3296,13
3297,13
3298,13
3299,13
3300,13
3301,13
3302,13
3303,13
3304,13
3305,13
3306,13
3307,13
3308,13
3309,13
3310,13
3311,13
3312,13
3313,13
3314,13
3315,13
3316,13
3317,13
3318,13
3319,13
3320,13
3321,13
3322,13
3323,13
3324,13
3325,13
3326,13
3327,13
3328,13
3329,13
3330,13
3331,13
3332,13
3333,13
3334,13
3335,13
3336,13
3337,13
3338,13
3339,13
3340,13
3341,13
3342,13
3343,13
3344,13
3345,13
3346,13
3347,13
3348,13
3349,13
3350,13
3351,13
3352,13
3353,13
3354,13
3355,13
3356,13
3357,13
3358,13
3359,13
3360,13
3361,13
3362,13
3363,13
3364,13
3365,13
3366,13
3367,13
3368,13
3369,13
3370,13
3371,13
3372,13
3373,13
3374,13
3375,13
3376,13
3377,13
3378,13
3379,13
3380,13
3381,13
3382,13
3383,13
3384,13
3385,13
3386,13
3387,13
3388,13
3389,13
3390,13
3391,13
3392,13
3393,14
3394,14
3395,14
3396,14
3397,14
3398,15
3399,15
3400,15
3401,15
3402,15
3403,15
3404,14
3405,14
3406,14
3407,14
3408,14
3409,14
3410,14
3411,14
3412,14
3413,14
3414,15
3415,14
3416,14
3417,14
3418,14
3419,14
3420,14
3421,14
3422,14
3423,14
3424,14
3425,14
3426,15
3427,15
3428,15
3429,15
3430,15
3431,15
3432,15
3433,15
3434,15
3435,15
3436,15
3437,15
3438,15
3439,15
3440,15
3441,15
3442,15
3443,15
3444,15
3445,15
3446,15
3447,14
3448,14
3449,14
3450,14
3451,14
3452,14
3453,14
3454,14
3455,14
3456,14
3457,14
3458,14
3459,14
3460,14
3461,14
3462,14
3463,14
3464,14
3465,14
3466,14
3467,14
3468,14
3469,14
3470,14
3471,14
3472,14
3473,14
3474,14
3475,14
3476,14
3477,14
3478,14
3479,14
3480,14
3481,14
3482,14
3483,14
3484,14
3485,14
3486,14
3487,14
3488,14
3489,14
3490,14
3491,14
3492,14
3493,15
3494,15
3495,15
3496,15
3497,15
3498,15
3499,15
3500,15
3501,15
3502,15
3503,15
3504,15
3505,15
3506,15
3507,15
3508,15
3509,15
3510,15
3511,15
3512,15
3513,15
3514,15
3515,15
3516,15
3517,15
3518,15
3519,15
3520,15
3521,15
3522,15
3523,15
3524,15
3525,15
3526,15
3527,15
3528,15
3529,15
3530,15
3531,15
3532,15
3533,15
3534,15
3535,15
3536,15
3537,15
3538,15
3539,15
3540,15
3541,15
3542,15
3543,15
3544,15
3545,15
3546,15
3547,15
3548,15
3549,15
3550,15
3551,15
3552,15
3553,15
3554,15
3555,15
3556,15
3557,15
3558,15
3559,15
3560,15
3561,15
3562,15
3563,15
3564,15
3565,15
3566,15
3567,15
3568,15
3569,15
3570,15
3571,15
3572,15
3573,15
3574,15
3575,15
3576,15
3577,15
3578,15
3579,15
3580,15
3581,15
3582,15
3583,15
3584,15
3585,15
3586,15
3587,15
3588,15
3589,15
3590,15
3591,15
3592,15
3593,15
3594,15
3595,15
3596,15
3597,15
3598,15
3599,15
3600,15
3601,15
3602,15
3603,15
3604,15
3605,15
3606,15
3607,15
3608,15
3609,15
3610,15
3611,15
3612,15
3613,15
3614,15
3615,15
3616,15
3617,15
3618,15
3619,15
3620,15
3621,15
3622,15
3623,15
3624,15
3625,15
3626,15
3627,15
3628,15
3629,15
3630,15
3631,15
3632,15
3633,15
3634,15
3635,15
3636,15
3637,15
3638,15
3639,15
3640,15
3641,15
3642,15
3643,15
3644,15
3645,15
3646,15
3647,15
3648,15
3649,15
3650,15
3651,15
3652,15
3653,15
3654,15
3655,15
3656,15
3657,15
3658,15
3659,15
3660,15
3661,15
3662,15
3663,15
3664,15
3665,15
3666,15
3667,15
3668,15
3669,15
3670,15
3671,15
3672,15
3673,15
3674,15
3675,15
3676,15
3677,15
3678,15
3679,15
3680,15
3681,15
3682,15
3683,15
3684,15
3685,15
3686,15
3687,15
3688,15
3689,15
3690,15
3691,15
3692,15
3693,15
3694,15
3695,15
3696,15
3697,15
3698,15
3699,15
3700,15
3701,15
3702,15
3703,15
3704,15
3705,15
3706,15
3707,15
3708,15
3709,15
3710,15
3711,15
3712,15
3713,15
3714,15
3715,15
3716,15
3717,15
3718,15
3719,15
3720,15
3721,15
3722,15
3723,15
3724,15
3725,15
3726,15
3727,15
3728,15
3729,15
3730,15
3731,15
3732,15
3733,15
3734,15
3735,15
3736,15
3737,15
3738,15
3739,15
3740,15
3741,15
3742,15
3743,15
3744,15
3745,15
3746,15
3747,15
3748,15
3749,15
3750,15
3751,15
3752,15
3753,15
3754,15
3755,15
3756,15
3757,15
3758,15
3759,15
3760,15
3761,15
3762,15
3763,15
3764,15
3765,15
3766,15
3767,15
3768,15
3769,15
3770,15
3771,15
3772,15
3773,15
3774,15
3775,15
3776,15
3777,15
3778,15
3779,15
3780,15
3781,15
3782,15
3783,15
3784,15
3785,15
3786,15
3787,15
3788,15
3789,15
3790,15
3791,15
3792,15
3793,15
3794,15
3795,15
3796,15
3797,15
3798,15
3799,15
3800,15
3801,15
3802,15
3803,15
3804,15
3805,15
3806,15
3807,15
3808,15
3809,15
3810,15
3811,15
3812,15
3813,15
3814,15
3815,15
3816,15
3817,15
3818,15
3819,15
3820,15
3821,15
3822,15
3823,15
3824,15
3825,15
3826,15
3827,15
3828,15
3829,15
3830,15
3831,15
3832,15
3833,16
3834,16
3835,16
3836,16
3837,16
3838,15
3839,15
3840,15
3841,15
3842,15
3843,15
3844,15
3845,15
3846,15
3847,16
3848,16
3849,16
3850,16
3851,16
3852,16
3853,16
3854,16
3855,16
3856,16
3857,16
3858,16
3859,16
3860,16
3861,16
3862,16
3863,16
3864,16
3865,16
3866,16
3867,16
3868,16
3869,15
3870,15
3871,15
3872,15
3873,15
3874,15
3875,15
3876,15
3877,15
3878,15
3879,15
3880,15
3881,15
3882,15
3883,15
3884,15
3885,15
3886,15
3887,15
3888,15
3889,15
3890,15
3891,15
3892,15
3893,15
3894,15
3895,15
3896,15
3897,15
3898,15
3899,15
3900,15
3901,15
3902,15
3903,15
3904,15
3905,15
3906,15
3907,15
3908,15
3909,15
3910,15
3911,15
3912,15
3913,15
3914,15
3915,15
3916,15
3917,15
3918,15
3919,15
3920,15
3921,15
3922,15
3923,15
3924,15
3925,15
3926,15
3927,15
3928,15
3929,15
3930,15
3931,15
3932,15
3933,15
3934,15
3935,15
3936,15
3937,15
3938,15
3939,15
3940,15
3941,15
3942,15
3943,15
3944,15
3945,15
3946,15
3947,15
3948,15
3949,15
3950,15
3951,15
3952,15
3953,15
3954,15
3955,15
3956,15
3957,15
3958,15
3959,15
3960,15
3961,15
3962,15
3963,15
3964,15
3965,15
3966,15
3967,15
3968,15
3969,15
3970,15
3971,15
3972,15
3973,15
3974,15
3975,15
3976,15
3977,15
3978,15
3979,15
3980,15
3981,15
3982,15
3983,15
3984,15
3985,15
3986,15
3987,15
3988,15
3989,15
3990,15
3991,15
3992,15
3993,15
3994,15
3995,15
3996,15
3997,15
3998,15
3999,15
4000,15
4001,15
4002,15
4003,15
4004,15
4005,15
4006,15
4007,15
4008,15
4009,15
4010,15
4011,15
4012,15
4013,15
4014,15
4015,15
4016,15
4017,15
4018,15
4019,15
4020,15
4021,15
4022,15
4023,15
4024,15
4025,15
4026,15
4027,15
4028,15
4029,15
4030,15
4031,15
4032,15
4033,15
4034,15
4035,15
4036,15
4037,15
4038,15
4039,15
4040,15
4041,15
4042,15
4043,15
4044,15
4045,15
4046,15
4047,15
4048,15
4049,15
4050,15
4051,15
4052,15
4053,15
4054,15
4055,15
4056,15
4057,15
4058,15
4059,15
4060,15
4061,15
4062,15
4063,15
4064,15
4065,15
4066,15
4067,15
4068,15
4069,15
4070,15
4071,15
4072,15
4073,15
4074,15
4075,15
4076,15
4077,15
4078,15
4079,15
4080,15
4081,15
4082,15
4083,15
4084,15
4085,15
4086,15
4087,15
4088,15
4089,15
4090,15
4091,15
4092,15
4093,15
4094,15
4095,15
4096,15
4097,15
4098,15
4099,15
4100,15
4101,15
4102,15
4103,15
4104,15
4105,15
4106,15
4107,15
4108,15
4109,15
4110,15
4111,15
4112,15
4113,15
4114,15
4115,15
4116,15
4117,15
4118,15
4119,15
4120,15
4121,15
4122,15
4123,15
4124,15
4125,15
4126,15
4127,15
4128,15
4129,15
4130,15
4131,15
4132,15
4133,15
4134,15
4135,15
4136,15
4137,15
4138,15
4139,15
4140,15
4141,15
4142,15
4143,15
4144,15
4145,15
4146,15
4147,15
4148,15
4149,15
4150,16
4151,16
4152,16
4153,16
4154,16
4155,16
4156,15
4157,15
4158,15
4159,15
4160,15
4161,15
4162,15
4163,15
4164,15
4165,15
4166,16
4167,16
4168,16
4169,16
4170,15
4171,15
4172,15
4173,15
4174,15
4175,15
4176,15
4177,15
4178,15
4179,15
4180,15
4181,15
4182,15
4183,15
4184,15
4185,15
4186,15
4187,15
4188,15
4189,16
4190,16
4191,16
4192,16
4193,15
4194,15
4195,15
4196,15
4197,15
4198,15
4199,15
4200,15
4201,15
4202,15
4203,15
4204,15
4205,15
4206,15
4207,15
4208,15
4209,15
4210,15
4211,15
4212,15
4213,15
4214,15
4215,15
4216,15
4217,15
4218,15
4219,15
4220,15
4221,15
4222,15
4223,15
4224,15
4225,15
4226,15
4227,16
4228,15
4229,15
4230,15
4231,15
4232,15
4233,15
4234,15
4235,15
4236,15
4237,15
4238,15
4239,15
4240,15
4241,15
4242,15
4243,15
4244,15
4245,15
4246,16
4247,15
4248,15
4249,15
4250,15
4251,15
4252,15
4253,15
4254,15
4255,15
4256,15
4257,16
4258,15
4259,15
4260,15
4261,15
4262,15
4263,15
4264,15
4265,15
4266,15
4267,15
4268,15
4269,15
4270,15
4271,15
4272,15
4273,15
4274,15
4275,15
4276,15
4277,15
4278,15
4279,15
4280,15
4281,15
4282,15
4283,15
4284,15
4285,15
4286,15
4287,15
4288,15
4289,15
4290,15
4291,15
4292,15
4293,15
4294,15
4295,15
4296,15
4297,15
4298,15
4299,15
4300,15
4301,15
4302,15
4303,15
4304,15
4305,15
4306,15
4307,15
4308,15
4309,15
4310,15
4311,15
4312,15
4313,15
4314,15
4315,15
4316,15
4317,15
4318,15
4319,15
4320,15
4321,15
4322,15
4323,15
4324,15
4325,15
4326,15
4327,15
4328,15
4329,15
4330,15
4331,15
4332,15
4333,15
4334,15
4335,15
4336,15
4337,16
4338,15
4339,15
4340,15
4341,15
4342,15
4343,15
4344,15
4345,15
4346,15
4347,15
4348,15
4349,15
4350,15
4351,15
4352,15
4353,15
4354,15
4355,15
4356,15
4357,15
4358,15
4359,15
4360,15
4361,15
4362,15
4363,15
4364,15
4365,15
4366,15
4367,15
4368,15
4369,15
4370,15
4371,15
4372,15
4373,16
4374,16
4375,15
4376,15
4377,15
4378,15
4379,15
4380,15
4381,15
4382,15
4383,15
4384,15
4385,15
4386,15
4387,15
4388,15
4389,15
4390,15
4391,15
4392,15
4393,15
4394,15
4395,15
4396,15
4397,15
4398,15
4399,15
4400,15
4401,15
4402,15
4403,15
4404,15
4405,15
4406,15
4407,15
4408,15
4409,15
4410,16
4411,16
4412,16
4413,16
4414,16
4415,15
4416,15
4417,15
4418,15
4419,15
4420,15
4421,15
4422,15
4423,15
4424,15
4425,15
4426,15
4427,15
4428,15
4429,15
4430,15
4431,15
4432,16
4433,15
4434,15
4435,15
4436,15
4437,15
4438,15
4439,15
4440,15
4441,15
4442,15
4443,15
4444,15
4445,15
4446,15
4447,15
4448,15
4449,15
4450,15
4451,15
4452,15
4453,15
4454,15
4455,15
4456,15
4457,15
4458,15
4459,15
4460,15
4461,15
4462,15
4463,15
4464,15
4465,15
4466,15
4467,15
4468,15
4469,15
4470,15
4471,15
4472,15
4473,15
4474,15
4475,15
4476,16
4477,16
4478,16
4479,16
4480,16
4481,16
4482,16
4483,16
4484,16
4485,16
4486,16
4487,16
4488,16
4489,16
4490,16
4491,16
4492,16
4493,16
4494,15
4495,15
4496,15
4497,15
4498,15
4499,15
4500,15
4501,15
4502,15
4503,15
4504,15
4505,15
4506,15
4507,15
4508,15
4509,15
4510,15
4511,15
4512,15
4513,15
4514,15
4515,15
4516,15
4517,15
4518,15
4519,15
4520,15
4521,15
4522,15
4523,15
4524,15
4525,15
4526,15
4527,15
4528,15
4529,15
4530,15
4531,15
4532,15
4533,15
4534,15
4535,15
4536,15
4537,15
4538,15
4539,15
4540,15
4541,15
4542,15
4543,15
4544,15
4545,16
4546,16
4547,15
4548,15
4549,15
4550,15
4551,15
4552,15
4553,15
4554,15
4555,15
4556,15
4557,15
4558,15
4559,15
4560,15
4561,15
4562,15
4563,15
4564,15
4565,15
4566,15
4567,15
4568,15
4569,15
4570,15
4571,15
4572,15
4573,15
4574,15
4575,15
4576,15
4577,15
4578,15
4579,15
4580,15
4581,15
4582,15
4583,15
4584,15
4585,15
4586,15
4587,15
4588,15
4589,15
4590,15
4591,15
4592,15
4593,15
4594,15
4595,15
4596,15
4597,15
4598,15
4599,15
4600,15
4601,15
4602,15
4603,15
4604,15
4605,15
4606,15
4607,15
4608,15
4609,15
4610,15
4611,15
4612,15
4613,15
4614,15
4615,15
4616,15
4617,15
4618,15
4619,15
4620,15
4621,15
4622,15
4623,15
4624,15
4625,15
4626,15
4627,15
4628,15
4629,15
4630,15
4631,15
4632,15
4633,15
4634,15
4635,15
4636,15
4637,15
4638,15
4639,15
4640,15
4641,15
4642,16
4643,15
4644,15
4645,15
4646,15
4647,15
4648,15
4649,15
4650,15
4651,15
4652,15
4653,15
4654,15
4655,15
4656,15
4657,15
4658,16
4659,16
4660,16
4661,16
4662,16
4663,15
4664,15
4665,15
4666,15
4667,15
4668,15
4669,15
4670,15
4671,15
4672,15
4673,15
4674,15
4675,15
4676,15
4677,15
4678,15
4679,15
4680,15
4681,15
4682,15
4683,15
4684,15
4685,15
4686,15
4687,15
4688,15
4689,15
4690,15
4691,15
4692,15
4693,15
4694,15
4695,15
4696,15
4697,15
4698,15
4699,15
4700,15
4701,15
4702,15
4703,15
4704,15
4705,15
4706,15
4707,15
4708,15
4709,15
4710,15
4711,15
4712,15
4713,15
4714,15
4715,15
4716,15
4717,15
4718,15
4719,15
4720,15
4721,15
4722,15
4723,15
4724,15
4725,15
4726,15
4727,15
4728,15
4729,15
4730,15
4731,15
4732,15
4733,15
4734,15
4735,15
4736,15
4737,15
4738,15
4739,15
4740,15
4741,15
4742,15
4743,15
4744,15
4745,15
4746,15
4747,15
4748,15
4749,15
4750,15
4751,15
4752,15
4753,15
4754,15
4755,15
4756,15
4757,15
4758,15
4759,15
4760,15
4761,15
4762,15
4763,15
4764,15
4765,15
4766,15
4767,15
4768,15
4769,15
4770,15
4771,15
4772,15
4773,15
4774,15
4775,15
4776,15
4777,15
4778,15
4779,15
4780,15
4781,15
4782,15
4783,15
4784,15
4785,15
4786,15
4787,15
4788,15
4789,15
4790,15
4791,15
4792,15
4793,15
4794,15
4795,15
4796,15
4797,15
4798,15
4799,15
4800,15
4801,15
4802,16
4803,16
4804,16
4805,16
4806,15
4807,15
4808,15
4809,15
4810,15
4811,15
4812,15
4813,15
4814,15
4815,15
4816,15
4817,15
4818,15
4819,15
4820,15
4821,15
4822,15
4823,15
4824,15
4825,15
4826,15
4827,15
4828,15
4829,15
4830,15
4831,15
4832,15
4833,15
4834,16
4835,16
4836,16
4837,15
4838,15
4839,15
4840,15
4841,15
4842,15
4843,15
4844,15
4845,15
4846,15
4847,15
4848,15
4849,15
4850,15
4851,15
4852,15
4853,15
4854,15
4855,15
4856,15
4857,15
4858,15
4859,15
4860,15
4861,16
4862,16
4863,16
4864,15
4865,15
4866,15
4867,15
4868,15
4869,15
4870,15
4871,15
4872,15
4873,15
4874,15
4875,15
4876,15
4877,15
4878,15
4879,15
4880,15
4881,15
4882,15
4883,15
4884,15
4885,15
4886,15
4887,15
4888,15
4889,15
4890,15
4891,15
4892,15
4893,15
4894,15
4895,15
4896,15
4897,15
4898,15
4899,15
4900,15
4901,15
4902,15
4903,15
4904,15
4905,15
4906,15
4907,15
4908,15
4909,15
4910,15
4911,15
4912,15
4913,15
4914,15
4915,15
4916,15
4917,15
4918,15
4919,15
4920,15
4921,15
4922,15
4923,15
4924,15
4925,15
4926,15
4927,15
4928,15
4929,15
4930,15
4931,15
4932,15
4933,15
4934,15
4935,15
4936,15
4937,15
4938,15
4939,15
4940,15
4941,15
4942,15
4943,15
4944,15
4945,15
4946,15
4947,15
4948,15
4949,15
4950,15
4951,15
4952,15
4953,15
4954,15
4955,15
4956,15
4957,15
4958,15
4959,15
4960,15
4961,15
4962,15
4963,15
4964,15
4965,15
4966,15
4967,15
4968,15
4969,15
4970,15
4971,15
4972,15
4973,15
4974,15
4975,15
4976,15
4977,15
4978,15
4979,15
4980,15
4981,15
4982,15
4983,15
4984,15
4985,15
4986,15
4987,15
4988,15
4989,15
4990,15
4991,15
4992,15
4993,15
4994,15
4995,15
4996,15
4997,16
4998,15
4999,15
5000,15
5001,15
5002,15
5003,15
5004,15
5005,15
5006,15
5007,15
5008,15
5009,15
5010,15
5011,15
5012,15
5013,15
5014,15
5015,15
5016,15
5017,15
5018,15
5019,15
5020,15
5021,15
5022,15
5023,15
5024,16
5025,16
5026,15
5027,15
5028,15
5029,15
5030,15
5031,15
5032,15
5033,15
5034,15
5035,15
5036,15
5037,15
5038,15
5039,15
5040,15
5041,15
5042,15
5043,15
5044,15
5045,15
5046,15
5047,15
5048,15
5049,15
5050,15
5051,15
5052,15
5053,15
5054,15
5055,15
5056,15
5057,15
5058,15
5059,15
5060,15
5061,15
5062,15
5063,15
5064,15
5065,15
5066,15
5067,15
5068,15
5069,15
5070,15
5071,15
5072,15
5073,15
5074,15
5075,15
5076,15
5077,15
5078,15
5079,15
5080,15
5081,15
5082,15
5083,15
5084,15
5085,15
5086,15
5087,16
5088,15
5089,16
5090,15
5091,15
5092,15
5093,15
5094,15
5095,15
5096,15
5097,15
5098,15
5099,16
5100,16
5101,16
5102,16
5103,16
5104,16
5105,16
5106,16
5107,16
5108,16
5109,16
5110,16
5111,16
5112,16
5113,16
5114,16
5115,16
5116,16
5117,16
5118,16
5119,16
5120,16
5121,16
5122,16
5123,16
5124,16
5125,16
5126,16
5127,16
5128,16
5129,16
5130,16
5131,16
5132,16
5133,16
5134,16
5135,16
5136,16
5137,16
5138,16
5139,16
5140,16
5141,16
5142,17
5143,16
5144,16
5145,16
5146,16
5147,16
5148,16
5149,16
5150,16
5151,16
5152,16
5153,16
5154,16
5155,16
5156,16
5157,16
5158,16
5159,16
5160,16
5161,16
5162,16
5163,16
5164,16
5165,16
5166,16
5167,16
5168,16
5169,16
5170,16
5171,16
5172,16
5173,16
5174,16
5175,16
5176,16
5177,16
5178,16
5179,16
5180,16
5181,17
5182,17
5183,17
5184,17
5185,17
5186,17
5187,17
5188,17
5189,17
5190,17
5191,17
5192,17
5193,17
5194,17
5195,17
5196,17
5197,17
5198,17
5199,17
5200,16
5201,16
5202,16
5203,16
5204,16
5205,16
5206,16
5207,16
5208,16
5209,16
5210,16
5211,16
5212,16
5213,16
5214,16
5215,16
5216,16
5217,16
5218,16
5219,16
5220,16
5221,16
5222,16
5223,16
5224,16
5225,16
5226,16
5227,16
5228,16
5229,16
5230,16
5231,16
5232,16
5233,16
5234,16
5235,16
5236,16
5237,16
5238,16
5239,16
5240,16
5241,16
5242,16
5243,16
5244,16
5245,16
5246,16
5247,16
5248,16
5249,16
5250,16
5251,16
5252,16
5253,16
5254,16
5255,16
5256,16
5257,16
5258,16
5259,16
5260,16
5261,16
5262,16
5263,16
5264,16
5265,16
5266,16
5267,16
5268,16
5269,16
5270,16
5271,16
5272,16
5273,17
5274,16
5275,16
5276,16
5277,16
5278,16
5279,16
5280,16
5281,16
5282,16
5283,16
5284,16
5285,16
5286,16
5287,16
5288,16
5289,16
5290,16
5291,16
5292,16
5293,16
5294,16
5295,16
5296,16
5297,16
5298,16
5299,16
5300,16
5301,16
5302,16
5303,16
5304,16
5305,16
5306,16
5307,16
5308,16
5309,16
5310,16
5311,16
5312,16
5313,16
5314,16
5315,16
5316,16
5317,17
5318,16
5319,16
5320,16
5321,16
5322,16
5323,16
5324,16
5325,16
5326,16
5327,16
5328,16
5329,16
5330,16
5331,16
5332,16
5333,16
5334,16
5335,16
5336,16
5337,16
5338,16
5339,16
5340,16
5341,16
5342,16
5343,16
5344,16
5345,16
5346,16
5347,16
5348,16
5349,16
5350,16
5351,16
5352,16
5353,16
5354,16
5355,16
5356,16
5357,16
5358,16
5359,16
5360,16
5361,16
5362,16
5363,16
5364,16
5365,16
5366,16
5367,16
5368,16
5369,16
5370,16
5371,16
5372,16
5373,16
5374,16
5375,16
5376,16
5377,16
5378,16
5379,16
5380,16
5381,16
5382,16
5383,16
5384,16
5385,16
5386,16
5387,16
5388,16
5389,16
5390,16
5391,16
5392,16
5393,16
5394,16
5395,16
5396,16
5397,16
5398,16
5399,16
5400,16
5401,16
5402,16
5403,16
5404,16
5405,16
5406,16
5407,17
5408,16
5409,16
5410,16
5411,16
5412,16
5413,16
5414,16
5415,16
5416,16
5417,16
5418,16
5419,16
5420,16
5421,16
5422,16
5423,16
5424,16
5425,16
5426,16
5427,16
5428,16
5429,16
5430,16
5431,16
5432,16
5433,16
5434,16
5435,16
5436,16
5437,16
5438,16
5439,16
5440,16
5441,16
5442,16
5443,16
5444,16
5445,16
5446,16
5447,17
5448,17
5449,17
5450,16
5451,16
5452,16
5453,16
5454,16
5455,16
5456,16
5457,16
5458,16
5459,16
5460,16
5461,16
5462,16
5463,16
5464,16
5465,16
5466,16
5467,16
5468,16
5469,16
5470,16
5471,17
5472,17
5473,17
5474,17
5475,17
5476,17
5477,17
5478,17
5479,17
5480,17
5481,17
5482,17
5483,17
5484,17
5485,17
5486,17
5487,17
5488,18
5489,17
5490,17
5491,17
5492,17
5493,17
5494,16
5495,16
5496,16
5497,16
5498,16
5499,16
5500,16
5501,16
5502,16
5503,16
5504,16
5505,16
5506,16
5507,16
5508,16
5509,16
5510,16
5511,16
5512,16
5513,16
5514,16
5515,16
5516,16
5517,16
5518,16
5519,16
5520,16
5521,16
5522,16
5523,16
5524,16
5525,16
5526,17
5527,16
5528,16
5529,16
5530,16
5531,16
5532,16
5533,16
5534,16
5535,16
5536,16
5537,16
5538,16
5539,16
5540,16
5541,16
5542,16
5543,16
5544,16
5545,16
5546,16
5547,16
5548,16
5549,16
5550,16
5551,16
5552,16
5553,16
5554,16
5555,16
5556,16
5557,16
5558,16
5559,16
5560,16
5561,16
5562,16
5563,16
5564,16
5565,16
5566,16
5567,16
5568,16
5569,16
5570,16
5571,16
5572,16
5573,16
5574,16
5575,16
5576,16
5577,16
5578,16
5579,16
5580,16
5581,16
5582,16
5583,16
5584,16
5585,16
5586,16
5587,16
5588,16
5589,16
5590,16
5591,16
5592,16
5593,16
5594,16
5595,16
5596,16
5597,16
5598,16
5599,16
5600,16
5601,16
5602,16
5603,16
5604,16
5605,16
5606,16
5607,16
5608,16
5609,16
5610,16
5611,16
5612,16
5613,16
5614,16
5615,16
5616,16
5617,16
5618,16
5619,16
5620,16
5621,16
5622,16
5623,16
5624,16
5625,16
5626,16
5627,16
5628,16
5629,16
5630,16
5631,16
5632,16
5633,16
5634,16
5635,16
5636,16
5637,16
5638,16
5639,16
5640,16
5641,16
5642,16
5643,16
5644,16
5645,16
5646,16
5647,16
5648,16
5649,16
5650,16
5651,16
5652,16
5653,16
5654,16
5655,16
5656,16
5657,16
5658,16
5659,16
5660,16
5661,16
5662,16
5663,16
5664,16
5665,16
5666,16
5667,16
5668,16
5669,16
5670,16
5671,16
5672,16
5673,16
5674,16
5675,16
5676,16
5677,16
5678,16
5679,16
5680,16
5681,16
5682,16
5683,16
5684,16
5685,16
5686,16
5687,16
5688,16
5689,16
5690,16
5691,16
5692,16
5693,16
5694,16
5695,16
5696,16
5697,16
5698,16
5699,16
5700,16
5701,16
5702,16
5703,16
5704,16
5705,16
5706,16
5707,16
5708,16
5709,16
5710,16
5711,16
5712,16
5713,16
5714,16
5715,16
5716,16
5717,16
5718,16
5719,16
5720,16
5721,16
5722,16
5723,16
5724,16
5725,16
5726,16
5727,16
5728,16
5729,16
5730,16
5731,16
5732,16
5733,16
5734,16
5735,16
5736,16
5737,16
5738,16
5739,17
5740,16
5741,16
5742,16
5743,16
5744,16
5745,16
5746,16
5747,16
5748,16
5749,16
5750,16
5751,16
5752,16
5753,16
5754,16
5755,16
5756,16
5757,16
5758,16
5759,16
5760,16
5761,16
5762,16
5763,16
5764,16
5765,16
5766,16
5767,16
5768,16
5769,16
5770,16
5771,16
5772,16
5773,16
5774,16
5775,16
5776,16
5777,16
5778,16
5779,16
5780,16
5781,16
5782,16
5783,16
5784,16
5785,16
5786,16
5787,16
5788,16
5789,16
5790,16
5791,16
5792,16
5793,16
5794,16
5795,16
5796,16
5797,16
5798,16
5799,16
5800,16
5801,17
5802,16
5803,16
5804,16
5805,16
5806,16
5807,16
5808,16
5809,16
5810,16
5811,16
5812,16
5813,16
5814,16
5815,16
5816,16
5817,16
5818,16
5819,16
5820,16
5821,16
5822,16
5823,16
5824,16
5825,16
5826,16
5827,16
5828,16
5829,16
5830,16
5831,16
5832,16
5833,16
5834,16
5835,17
5836,17
5837,16
5838,16
5839,16
5840,16
5841,16
5842,16
5843,16
5844,16
5845,16
5846,16
5847,16
5848,16
5849,16
5850,16
5851,16
5852,16
5853,16
5854,16
5855,16
5856,16
5857,16
5858,16
5859,16
5860,16
5861,16
5862,16
5863,16
5864,16
5865,16
5866,16
5867,16
5868,16
5869,16
5870,16
5871,16
5872,16
5873,16
5874,16
5875,16
5876,16
5877,16
5878,16
5879,16
5880,16
5881,16
5882,16
5883,16
5884,16
5885,16
5886,16
5887,16
5888,16
5889,16
5890,16
5891,16
5892,16
5893,16
5894,16
5895,16
5896,16
5897,16
5898,16
5899,16
5900,16
5901,16
5902,16
5903,16
5904,16
5905,16
5906,16
5907,16
5908,16
5909,16
5910,16
5911,16
5912,16
5913,16
5914,16
5915,16
5916,17
5917,17
5918,17
5919,17
5920,17
5921,16
5922,16
5923,16
5924,16
5925,16
5926,16
5927,16
5928,16
5929,16
5930,16
5931,16
5932,16
5933,16
5934,16
5935,16
5936,16
5937,16
5938,16
5939,16
5940,16
5941,16
5942,16
5943,16
5944,16
5945,16
5946,16
5947,16
5948,16
5949,16
5950,16
5951,16
5952,16
5953,16
5954,16
5955,16
5956,16
5957,16
5958,16
5959,16
5960,16
5961,16
5962,16
5963,16
5964,16
5965,16
5966,16
5967,16
5968,16
5969,16
5970,16
5971,16
5972,16
5973,16
5974,16
5975,16
5976,16
5977,16
5978,16
5979,16
5980,16
5981,16
5982,16
5983,16
5984,16
5985,16
5986,16
5987,16
5988,16
5989,16
5990,16
5991,16
5992,16
5993,16
5994,16
5995,16
5996,16
5997,16
5998,16
5999,16
6000,16
6001,16
6002,16
6003,16
6004,16
6005,16
6006,16
6007,16
6008,16
6009,16
6010,16
6011,16
6012,16
6013,16
6014,16
6015,16
6016,16
6017,16
6018,16
6019,16
6020,16
6021,16
6022,16
6023,16
6024,16
6025,16
6026,16
6027,16
6028,16
6029,16
6030,16
6031,16
6032,16
6033,16
6034,17
6035,17
6036,16
6037,16
6038,16
6039,16
6040,16
6041,16
6042,16
6043,16
6044,16
6045,16
6046,16
6047,16
6048,16
6049,16
6050,16
6051,16
6052,16
6053,16
6054,16
6055,16
6056,16
6057,16
6058,16
6059,16
6060,16
6061,16
6062,16
6063,16
6064,16
6065,16
6066,16
6067,16
6068,17
6069,17
6070,17
6071,17
6072,17
6073,17
6074,17
6075,17
6076,17
6077,17
6078,17
6079,17
6080,17
6081,17
6082,17
6083,17
6084,17
6085,17
6086,17
6087,17
6088,17
6089,17
6090,17
6091,17
6092,17
6093,17
6094,17
6095,17
6096,17
6097,17
6098,17
6099,17
6100,17
6101,17
6102,17
6103,17
6104,17
6105,17
6106,17
6107,17
6108,17
6109,17
6110,17
6111,17
6112,17
6113,17
6114,17
6115,17
6116,17
6117,17
6118,17
6119,17
6120,17
6121,17
6122,17
6123,17
6124,17
6125,17
6126,17
6127,17
6128,17
6129,17
6130,17
6131,17
6132,17
6133,17
6134,17
6135,17
6136,17
6137,17
6138,17
6139,17
6140,17
6141,17
6142,17
6143,17
6144,17
6145,17
6146,17
6147,17
6148,17
6149,17
6150,17
6151,17
6152,17
6153,17
6154,17
6155,17
6156,17
6157,17
6158,17
6159,17
6160,17
6161,17
6162,17
6163,17
6164,17
6165,17
6166,17
6167,17
6168,17
6169,17
6170,17
6171,17
6172,17
6173,17
6174,17
6175,17
6176,17
6177,17
6178,17
6179,17
6180,17
6181,17
6182,17
6183,17
6184,17
6185,17
6186,17
6187,17
6188,17
6189,17
6190,17
6191,17
6192,17
6193,17
6194,17
6195,17
6196,17
6197,17
6198,17
6199,17
6200,17
6201,17
6202,17
6203,17
6204,17
6205,17
6206,17
6207,17
6208,17
6209,17
6210,17
6211,17
6212,17
6213,17
6214,17
6215,17
6216,17
6217,17
6218,17
6219,17
6220,17
6221,17
6222,17
6223,17
6224,17
6225,17
6226,17
6227,17
6228,17
6229,17
6230,17
6231,17
6232,17
6233,17
6234,17
6235,17
6236,17
6237,17
6238,17
6239,17
6240,17
6241,17
6242,18
6243,17
6244,17
6245,17
6246,17
6247,18
6248,18
6249,18
6250,18
6251,18
6252,18
6253,18
6254,18
6255,18
6256,18
6257,18
6258,18
6259,18
6260,18
6261,18
6262,18
6263,18
6264,18
6265,18
6266,18
6267,18
6268,18
6269,18
6270,18
6271,18
6272,18
6273,18
6274,18
6275,18
6276,18
6277,18
6278,18
6279,18
6280,18
6281,18
6282,18
6283,18
6284,18
6285,18
6286,18
6287,18
6288,18
6289,18
6290,18
6291,18
6292,18
6293,18
6294,18
6295,18
6296,18
6297,18
6298,18
6299,18
6300,18
6301,18
6302,18
6303,18
6304,18
6305,18
6306,18
6307,18
6308,18
6309,18
6310,18
6311,18
6312,18
6313,18
6314,18
6315,18
6316,18
6317,18
6318,18
6319,18
6320,18
6321,18
6322,18
6323,18
6324,18
6325,18
6326,18
6327,18
6328,18
6329,18
6330,18
6331,18
6332,18
6333,18
6334,18
6335,18
6336,18
6337,18
6338,18
6339,18
6340,18
6341,18
6342,18
6343,18
6344,18
6345,18
6346,18
6347,18
6348,18
6349,18
6350,18
6351,18
6352,18
6353,18
6354,18
6355,18
6356,18
6357,18
6358,18
6359,18
6360,18
6361,18
6362,18
6363,18
6364,18
6365,18
6366,18
6367,18
6368,18
6369,18
6370,18
6371,18
6372,18
6373,18
6374,18
6375,18
6376,18
6377,18
6378,18
6379,18
6380,18
6381,18
6382,18
6383,18
6384,18
6385,18
6386,18
6387,18
6388,18
6389,18
6390,19
6391,19
6392,19
6393,18
6394,18
6395,18
6396,18
6397,19
6398,19
6399,19
6400,19
6401,19
6402,19
6403,19
6404,19
6405,19
6406,19
6407,19
6408,19
6409,19
6410,19
6411,19
6412,19
6413,19
6414,19
6415,19
6416,19
6417,19
6418,19
6419,19
6420,19
6421,19
6422,19
6423,19
6424,19
6425,19
6426,19
6427,19
6428,19
6429,19
6430,19
6431,19
6432,19
6433,19
6434,19
6435,19
6436,19
6437,19
6438,19
6439,19
6440,19
6441,19
6442,19
6443,19
6444,19
6445,19
6446,19
6447,19
6448,19
6449,19
6450,19
6451,19
6452,19
6453,19
6454,19
6455,19
6456,19
6457,19
6458,19
6459,19
6460,19
6461,19
6462,19
6463,19
6464,19
6465,19
6466,19
6467,19
6468,19
6469,19
6470,19
6471,19
6472,19
6473,19
6474,19
6475,19
6476,19
6477,19
6478,19
6479,19
6480,19
6481,19
6482,19
6483,19
6484,19
6485,19
6486,19
6487,19
6488,19
6489,19
6490,19
6491,19
6492,19
6493,19
6494,19
6495,19
6496,19
6497,19
6498,19
6499,19
6500,19
6501,19
6502,19
6503,19
6504,19
6505,19
6506,19
6507,19
6508,19
6509,19
6510,19
6511,19
6512,19
6513,19
6514,19
6515,19
6516,19
6517,19
6518,19
6519,19
6520,19
6521,19
6522,19
6523,19
6524,19
6525,19
6526,19
6527,20
6528,19
6529,19
6530,19
6531,19
6532,19
6533,19
6534,19
6535,19
6536,19
6537,19
6538,19
6539,19
6540,19
6541,19
6542,19
6543,19
6544,19
6545,19
6546,19
6547,19
6548,19
6549,19
6550,19
6551,19
6552,19
6553,19
6554,19
6555,20
6556,19
6557,19
6558,19
6559,19
6560,19
6561,19
6562,19
6563,19
6564,19
6565,19
6566,19
6567,19
6568,19
6569,19
6570,19
6571,19
6572,19
6573,19
6574,19
6575,19
6576,19
6577,19
6578,19
6579,19
6580,19
6581,19
6582,19
6583,19
6584,19
6585,19
6586,19
6587,19
6588,19
6589,19
6590,19
6591,19
6592,19
6593,19
6594,19
6595,19
6596,19
6597,19
6598,19
6599,19
6600,19
6601,19
6602,19
6603,19
6604,19
6605,19
6606,19
6607,19
6608,19
6609,19
6610,19
6611,19
6612,19
6613,19
6614,19
6615,19
6616,19
6617,19
6618,19
6619,19
6620,19
6621,19
6622,19
6623,19
6624,19
6625,19
6626,19
6627,19
6628,19
6629,19
6630,19
6631,20
6632,19
6633,19
6634,19
6635,19
6636,19
6637,19
6638,19
6639,19
6640,19
6641,19
6642,19
6643,19
6644,19
6645,19
6646,19
6647,19
6648,19
6649,19
6650,19
6651,19
6652,19
6653,19
6654,19
6655,19
6656,19
6657,19
6658,19
6659,19
6660,19
6661,19
6662,19
6663,19
6664,19
6665,19
6666,19
6667,19
6668,19
6669,19
6670,19
6671,19
6672,19
6673,19
6674,19
6675,19
6676,19
6677,19
6678,19
6679,19
6680,19
6681,19
6682,19
6683,19
6684,19
6685,19
6686,19
6687,19
6688,19
6689,19
6690,19
6691,19
6692,19
6693,19
6694,19
6695,19
6696,19
6697,19
6698,19
6699,19
6700,19
6701,19
6702,19
6703,19
6704,19
6705,19
6706,19
6707,19
6708,19
6709,19
6710,19
6711,19
6712,19
6713,19
6714,19
6715,19
6716,19
6717,19
6718,19
6719,19
6720,19
6721,19
6722,19
6723,19
6724,19
6725,19
6726,19
6727,19
6728,19
6729,19
6730,19
6731,19
6732,19
6733,19
6734,19
6735,19
6736,19
6737,19
6738,19
6739,19
6740,19
6741,19
6742,19
6743,19
6744,19
6745,19
6746,19
6747,19
6748,19
6749,19
6750,19
6751,19
6752,19
6753,19
6754,19
6755,19
6756,19
6757,19
6758,19
6759,19
6760,19
6761,19
6762,19
6763,19
6764,19
6765,19
6766,19
6767,19
6768,19
6769,19
6770,19
6771,19
6772,19
6773,19
6774,19
6775,19
6776,19
6777,19
6778,19
6779,19
6780,19
6781,19
6782,19
6783,19
6784,19
6785,20
6786,20
6787,19
6788,19
6789,19
6790,19
6791,19
6792,20
6793,20
6794,19
6795,19
6796,19
6797,19
6798,19
6799,19
6800,19
6801,19
6802,19
6803,19
6804,19
6805,19
6806,19
6807,19
6808,19
6809,19
6810,19
6811,19
6812,19
6813,19
6814,19
6815,19
6816,19
6817,19
6818,19
6819,19
6820,19
6821,19
6822,19
6823,19
6824,19
6825,19
6826,19
6827,19
6828,19
6829,19
6830,19
6831,19
6832,19
6833,19
6834,19
6835,19
6836,19
6837,19
6838,19
6839,19
6840,19
6841,19
6842,19
6843,19
6844,19
6845,19
6846,19
6847,19
6848,19
6849,19
6850,19
6851,19
6852,19
6853,19
6854,19
6855,19
6856,19
6857,19
6858,19
6859,19
6860,19
6861,19
6862,19
6863,19
6864,19
6865,20
6866,20
6867,20
6868,20
6869,19
6870,19
6871,19
6872,19
6873,19
6874,19
6875,19
6876,19
6877,19
6878,19
6879,19
6880,19
6881,19
6882,19
6883,19
6884,19
6885,19
6886,19
6887,19
6888,19
6889,19
6890,19
6891,19
6892,19
6893,19
6894,19
6895,19
6896,19
6897,19
6898,19
6899,19
6900,19
6901,19
6902,19
6903,19
6904,19
6905,19
6906,19
6907,19
6908,19
6909,19
6910,19
6911,19
6912,19
6913,19
6914,19
6915,19
6916,19
6917,19
6918,19
6919,19
6920,19
6921,19
6922,19
6923,19
6924,19
6925,19
6926,19
6927,19
6928,19
6929,19
6930,19
6931,19
6932,19
6933,19
6934,19
6935,19
6936,19
6937,19
6938,19
6939,19
6940,19
6941,19
6942,19
6943,19
6944,19
6945,19
6946,19
6947,19
6948,19
6949,19
6950,19
6951,19
6952,19
6953,19
6954,20
6955,20
6956,19
6957,19
6958,19
6959,19
6960,19
6961,19
6962,19
6963,19
6964,19
6965,19
6966,19
6967,19
6968,19
6969,19
6970,19
6971,19
6972,19
6973,19
6974,19
6975,19
6976,19
6977,19
6978,19
6979,19
6980,19
6981,19
6982,19
6983,19
6984,19
6985,19
6986,19
6987,19
6988,19
6989,19
6990,20
6991,20
6992,19
6993,19
6994,19
6995,19
6996,19
6997,19
6998,19
6999,19
7000,19
7001,19
7002,19
7003,19
7004,19
7005,19
7006,19
7007,19
7008,19
7009,19
7010,19
7011,19
7012,19
7013,19
7014,19
7015,19
7016,19
7017,19
7018,19
7019,19
7020,19
7021,19
7022,19
7023,19
7024,19
7025,19
7026,19
7027,19
7028,19
7029,19
7030,19
7031,19
7032,19
7033,19
7034,19
7035,19
7036,19
7037,19
7038,19
7039,19
7040,19
7041,19
7042,19
7043,19
7044,19
7045,19
7046,19
7047,19
7048,19
7049,19
7050,19
7051,19
7052,19
7053,19
7054,19
7055,19
7056,19
7057,19
7058,19
7059,19
7060,19
7061,19
7062,19
7063,19
7064,19
7065,20
7066,20
7067,19
7068,19
7069,19
7070,19
7071,19
7072,19
7073,19
7074,19
7075,19
7076,19
7077,19
7078,19
7079,20
7080,20
7081,20
7082,20
7083,20
7084,20
7085,19
7086,19
7087,19
7088,19
7089,19
7090,19
7091,19
7092,19
7093,19
7094,19
7095,19
7096,19
7097,19
7098,19
7099,19
7100,19
7101,19
7102,19
7103,19
7104,19
7105,19
7106,19
7107,19
7108,19
7109,19
7110,19
7111,19
7112,19
7113,19
7114,19
7115,19
7116,19
7117,19
7118,19
7119,19
7120,19
7121,19
7122,19
7123,19
7124,19
7125,19
7126,19
7127,19
7128,19
7129,19
7130,19
7131,19
7132,19
7133,19
7134,19
7135,19
7136,19
7137,19
7138,19
7139,19
7140,19
7141,19
7142,19
7143,19
7144,19
7145,19
7146,19
7147,19
7148,19
7149,19
7150,19
7151,19
7152,19
7153,19
7154,19
7155,19
7156,19
7157,19
7158,19
7159,19
7160,19
7161,19
7162,19
7163,19
7164,19
7165,19
7166,19
7167,19
7168,19
7169,19
7170,19
7171,19
7172,19
7173,19
7174,19
7175,19
7176,19
7177,19
7178,19
7179,19
7180,19
7181,19
7182,19
7183,19
7184,19
7185,19
7186,19
7187,19
7188,19
7189,19
7190,19
7191,19
7192,19
7193,19
7194,19
7195,19
7196,19
7197,19
7198,19
7199,19
7200,19
7201,19
7202,19
7203,19
7204,19
7205,19
7206,19
7207,19
7208,19
7209,19
7210,19
7211,19
7212,19
7213,19
7214,19
7215,19
7216,19
7217,19
7218,19
7219,19
7220,19
7221,19
7222,19
7223,19
7224,19
7225,19
7226,19
7227,19
7228,19
7229,19
7230,19
7231,19
7232,19
7233,19
7234,19
7235,19
7236,19
7237,19
7238,19
7239,19
7240,19
7241,19
7242,19
7243,19
7244,19
7245,19
7246,19
7247,19
7248,19
7249,19
7250,19
7251,19
7252,19
7253,19
7254,19
7255,19
7256,19
7257,19
7258,19
7259,19
7260,19
7261,19
7262,19
7263,19
7264,19
7265,19
7266,19
7267,19
7268,19
7269,19
7270,19
7271,19
7272,19
7273,19
7274,19
7275,19
7276,19
7277,19
7278,19
7279,19
7280,19
7281,20
7282,19
7283,19
7284,19
7285,19
7286,19
7287,19
7288,19
7289,19
7290,19
7291,19
7292,19
7293,19
7294,19
7295,19
7296,19
7297,19
7298,19
7299,19
7300,19
7301,19
7302,19
7303,19
7304,19
7305,19
7306,19
7307,19
7308,19
7309,19
7310,19
7311,19
7312,19
7313,19
7314,19
7315,19
7316,19
7317,19
7318,19
7319,19
7320,19
7321,19
7322,19
7323,19
7324,19
7325,19
7326,19
7327,19
7328,19
7329,19
7330,19
7331,19
7332,19
7333,19
7334,19
7335,19
7336,19
7337,19
7338,19
7339,19
7340,19
7341,19
7342,19
7343,19
7344,19
7345,19
7346,19
7347,19
7348,19
7349,19
7350,19
7351,19
7352,19
7353,19
7354,19
7355,19
7356,19
7357,19
7358,19
7359,19
7360,19
7361,19
7362,19
7363,19
7364,19
7365,19
7366,19
7367,19
7368,19
7369,19
7370,19
7371,19
7372,19
7373,19
7374,19
7375,19
7376,19
7377,19
7378,19
7379,19
7380,19
7381,19
7382,19
7383,19
7384,19
7385,19
7386,19
7387,19
7388,19
7389,19
7390,19
7391,19
7392,19
7393,19
7394,19
7395,19
7396,19
7397,19
7398,19
7399,19
7400,19
7401,19
7402,19
7403,19
7404,19
7405,19
7406,19
7407,19
7408,19
7409,19
7410,19
7411,19
7412,19
7413,19
7414,19
7415,19
7416,19
7417,19
7418,19
7419,19
7420,19
7421,19
7422,19
7423,19
7424,19
7425,19
7426,19
7427,19
7428,19
7429,19
7430,19
7431,19
7432,19
7433,19
7434,19
7435,19
7436,19
7437,19
7438,19
7439,19
7440,19
7441,19
7442,19
7443,19
7444,19
7445,19
7446,19
7447,19
7448,19
7449,19
7450,19
7451,19
7452,19
7453,19
7454,19
7455,19
7456,19
7457,19
7458,19
7459,19
7460,19
7461,19
7462,19
7463,20
7464,20
7465,19
7466,19
7467,19
7468,19
7469,19
7470,19
7471,19
7472,19
7473,19
7474,19
7475,19
7476,19
7477,19
7478,19
7479,19
7480,19
7481,19
7482,19
7483,19
7484,19
7485,19
7486,19
7487,19
7488,19
7489,19
7490,19
7491,19
7492,19
7493,19
7494,19
7495,19
7496,19
7497,19
7498,19
7499,19
7500,19
7501,19
7502,19
7503,19
7504,19
7505,19
7506,20
7507,19
7508,19
7509,19
7510,19
7511,19
7512,19
7513,19
7514,19
7515,19
7516,19
7517,19
7518,19
7519,19
7520,19
7521,19
7522,19
7523,19
7524,19
7525,19
7526,19
7527,19
7528,19
7529,19
7530,19
7531,19
7532,19
7533,19
7534,19
7535,19
7536,19
7537,19
7538,19
7539,19
7540,19
7541,19
7542,19
7543,19
7544,19
7545,19
7546,19
7547,19
7548,19
7549,19
7550,19
7551,19
7552,19
7553,19
7554,20
7555,19
7556,19
7557,19
7558,19
7559,19
7560,19
7561,19
7562,19
7563,19
7564,19
7565,19
7566,19
7567,19
7568,19
7569,19
7570,19
7571,19
7572,19
7573,19
7574,19
7575,19
7576,19
7577,19
7578,19
7579,19
7580,19
7581,19
7582,19
7583,19
7584,19
7585,19
7586,19
7587,19
7588,19
7589,19
7590,19
7591,19
7592,19
7593,19
7594,19
7595,19
7596,19
7597,19
7598,19
7599,19
7600,19
7601,19
7602,19
7603,19
7604,19
7605,19
7606,19
7607,19
7608,19
7609,19
7610,19
7611,19
7612,19
7613,19
7614,19
7615,19
7616,19
7617,19
7618,19
7619,19
7620,19
7621,19
7622,19
7623,19
7624,19
7625,19
7626,19
7627,19
7628,19
7629,19
7630,19
7631,19
7632,19
7633,19
7634,19
7635,19
7636,19
7637,19
7638,19
7639,19
7640,19
7641,19
7642,19
7643,19
7644,19
7645,19
7646,19
7647,19
7648,19
7649,19
7650,19
7651,19
7652,19
7653,19
7654,19
7655,19
7656,20
7657,19
7658,19
7659,19
7660,19
7661,19
7662,19
7663,19
7664,19
7665,19
7666,19
7667,19
7668,19
7669,19
7670,19
7671,19
7672,19
7673,19
7674,19
7675,19
7676,19
7677,19
7678,19
7679,19
7680,19
7681,19
7682,19
7683,19
7684,19
7685,19
7686,19
7687,20
7688,20
7689,20
7690,20
7691,20
7692,20
7693,19
7694,19
7695,19
7696,19
7697,19
7698,19
7699,19
7700,19
7701,19
7702,19
7703,19
7704,19
7705,19
7706,19
7707,19
7708,19
7709,19
7710,19
7711,19
7712,19
7713,19
7714,19
7715,19
7716,19
7717,19
7718,19
7719,19
7720,19
7721,19
7722,19
7723,19
7724,19
7725,19
7726,19
7727,19
7728,19
7729,19
7730,19
7731,19
7732,19
7733,19
7734,19
7735,19
7736,19
7737,19
7738,19
7739,19
7740,19
7741,19
7742,19
7743,19
7744,19
7745,19
7746,19
7747,19
7748,19
7749,19
7750,19
7751,19
7752,19
7753,19
7754,19
7755,19
7756,19
7757,19
7758,19
7759,19
7760,19
7761,19
7762,19
7763,19
7764,19
7765,19
7766,19
7767,19
7768,19
7769,19
7770,19
7771,19
7772,19
7773,19
7774,19
7775,19
7776,19
7777,19
7778,19
7779,19
7780,19
7781,19
7782,19
7783,19
7784,19
7785,19
7786,19
7787,19
7788,19
7789,19
7790,19
7791,19
7792,19
7793,19
7794,19
7795,19
7796,20
7797,20
7798,19
7799,19
7800,19
7801,19
7802,19
7803,19
7804,19
7805,19
7806,19
7807,19
7808,19
7809,19
7810,19
7811,19
7812,19
7813,19
7814,19
7815,19
7816,19
7817,19
7818,19
7819,19
7820,19
7821,19
7822,19
7823,19
7824,19
7825,20
7826,19
7827,19
7828,19
7829,19
7830,19
7831,19
7832,19
7833,19
7834,19
7835,19
7836,19
7837,19
7838,19
7839,19
7840,19
7841,19
7842,19
7843,19
7844,19
7845,19
7846,19
7847,19
7848,19
7849,19
7850,19
7851,19
7852,19
7853,19
7854,19
7855,19
7856,19
7857,19
7858,19
7859,19
7860,19
7861,19
7862,19
7863,19
7864,19
7865,19
7866,19
7867,19
7868,19
7869,19
7870,19
7871,19
7872,19
7873,19
7874,19
7875,19
7876,19
7877,19
7878,19
7879,19
7880,19
7881,19
7882,19
7883,19
7884,19
7885,19
7886,19
7887,19
7888,19
7889,19
7890,19
7891,19
7892,19
7893,19
7894,19
7895,19
7896,19
7897,19
7898,19
7899,19
7900,19
7901,19
7902,19
7903,19
7904,19
7905,19
7906,19
7907,19
7908,19
7909,19
7910,19
7911,19
7912,19
7913,19
7914,19
7915,19
7916,19
7917,20
7918,20
7919,19
7920,19
7921,19
7922,19
7923,19
7924,19
7925,19
7926,19
7927,19
7928,19
7929,19
7930,19
7931,19
7932,19
7933,19
7934,19
7935,19
7936,19
7937,19
7938,19
7939,19
7940,19
7941,19
7942,19
7943,19
7944,19
7945,19
7946,19
7947,19
7948,19
7949,19
7950,19
7951,19
7952,19
7953,19
7954,19
7955,19
7956,19
7957,19
7958,19
7959,19
7960,19
7961,19
7962,19
7963,20
7964,20
7965,20
7966,20
7967,19
7968,19
7969,19
7970,19
7971,20
7972,20
7973,20
7974,20
7975,20
7976,20
7977,20
7978,20
7979,20
7980,20
7981,20
7982,20
7983,20
7984,20
7985,20
7986,20
7987,20
7988,20
7989,20
7990,20
7991,20
7992,20
7993,20
7994,20
7995,20
7996,20
7997,20
7998,20
7999,20
8000,20
8001,20
8002,20
8003,20
8004,20
8005,20
8006,20
8007,20
8008,20
8009,20
8010,20
8011,20
8012,20
8013,20
8014,20
8015,20
8016,20
8017,20
8018,20
8019,20
8020,20
8021,20
8022,20
8023,20
8024,20
8025,20
8026,20
8027,20
8028,20
8029,20
8030,20
8031,20
8032,20
8033,20
8034,20
8035,20
8036,20
8037,20
8038,20
8039,20
8040,20
8041,20
8042,20
8043,20
8044,20
8045,20
8046,20
8047,20
8048,20
8049,20
8050,20
8051,20
8052,20
8053,20
8054,20
8055,20
8056,20
8057,20
8058,20
8059,20
8060,20
8061,20
8062,20
8063,20
8064,20
8065,20
8066,20
8067,20
8068,20
8069,20
8070,20
8071,20
8072,20
8073,20
8074,20
8075,20
8076,20
8077,20
8078,20
8079,20
8080,20
8081,20
8082,20
8083,20
8084,20
8085,20
8086,20
8087,20
8088,20
8089,20
8090,20
8091,20
8092,20
8093,20
8094,20
8095,20
8096,20
8097,20
8098,20
8099,20
8100,20
8101,20
8102,20
8103,20
8104,20
8105,20
8106,20
8107,20
8108,20
8109,20
8110,20
8111,20
8112,20
8113,20
8114,20
8115,20
8116,20
8117,20
8118,20
8119,20
8120,20
8121,20
8122,20
8123,20
8124,20
8125,20
8126,20
8127,20
8128,20
8129,20
8130,20
8131,20
8132,20
8133,20
8134,20
8135,20
8136,20
8137,20
8138,20
8139,20
8140,20
8141,20
8142,20
8143,20
8144,21
8145,21
8146,21
8147,21
8148,21
8149,21
8150,20
8151,20
8152,20
8153,20
8154,20
8155,20
8156,20
8157,20
8158,20
8159,20
8160,20
8161,20
8162,20
8163,20
8164,20
8165,20
8166,20
8167,20
8168,20
8169,20
8170,20
8171,20
8172,20
8173,20
8174,20
8175,20
8176,20
8177,20
8178,20
8179,20
8180,20
8181,20
8182,20
8183,20
8184,20
8185,20
8186,20
8187,20
8188,20
8189,20
8190,20
8191,20
8192,20
8193,20
8194,20
8195,20
8196,20
8197,20
8198,20
8199,20
8200,20
8201,20
8202,20
8203,20
8204,20
8205,20
8206,20
8207,20
8208,21
8209,21
8210,21
8211,21
8212,20
8213,20
8214,20
8215,20
8216,20
8217,20
8218,20
8219,20
8220,20
8221,20
8222,20
8223,20
8224,20
8225,20
8226,20
8227,20
8228,20
8229,20
8230,20
8231,20
8232,20
8233,20
8234,20
8235,20
8236,20
8237,20
8238,20
8239,20
8240,20
8241,20
8242,20
8243,20
8244,20
8245,20
8246,20
8247,20
8248,20
8249,20
8250,20
8251,20
8252,20
8253,20
8254,20
8255,20
8256,20
8257,20
8258,20
8259,20
8260,20
8261,20
8262,20
8263,20
8264,20
8265,20
8266,20
8267,20
8268,20
8269,20
8270,20
8271,20
8272,20
8273,20
8274,20
8275,20
8276,20
8277,20
8278,20
8279,20
8280,20
8281,20
8282,20
8283,20
8284,20
8285,20
8286,20
8287,20
8288,20
8289,20
8290,20
8291,20
8292,20
8293,20
8294,20
8295,20
8296,20
8297,20
8298,20
8299,20
8300,20
8301,20
8302,20
8303,20
8304,20
8305,20
8306,20
8307,20
8308,20
8309,20
8310,20
8311,20
8312,20
8313,20
8314,20
8315,20
8316,20
8317,20
8318,20
8319,20
8320,20
8321,20
8322,20
8323,20
8324,20
8325,20
8326,20
8327,20
8328,20
8329,20
8330,20
8331,20
8332,20
8333,20
8334,20
8335,20
8336,20
8337,20
8338,20
8339,20
8340,20
8341,20
8342,20
8343,20
8344,20
8345,20
8346,20
8347,20
8348,20
8349,20
8350,20
8351,20
8352,20
8353,20
8354,20
8355,20
8356,20
8357,20
8358,20
8359,20
8360,20
8361,20
8362,20
8363,20
8364,20
8365,20
8366,20
8367,20
8368,20
8369,20
8370,20
8371,20
8372,20
8373,20
8374,20
8375,20
8376,20
8377,20
8378,21
8379,20
8380,20
8381,20
8382,20
8383,20
8384,21
8385,20
8386,20
8387,20
8388,20
8389,20
8390,20
8391,20
8392,20
8393,20
8394,20
8395,20
8396,20
8397,20
8398,20
8399,20
8400,20
8401,20
8402,20
8403,20
8404,20
8405,20
8406,20
8407,20
8408,20
8409,20
8410,20
8411,20
8412,20
8413,20
8414,20
8415,20
8416,20
8417,20
8418,20
8419,20
8420,20
8421,20
8422,20
8423,20
8424,20
8425,20
8426,20
8427,20
8428,20
8429,20
8430,20
8431,20
8432,20
8433,20
8434,20
8435,20
8436,20
8437,20
8438,20
8439,20
8440,20
8441,20
8442,20
8443,20
8444,20
8445,20
8446,20
8447,20
8448,21
8449,20
8450,20
8451,20
8452,20
8453,20
8454,20
8455,20
8456,20
8457,20
8458,20
8459,20
8460,20
8461,20
8462,20
8463,20
8464,20
8465,20
8466,20
8467,20
8468,20
8469,20
8470,20
8471,20
8472,20
8473,20
8474,20
8475,20
8476,20
8477,20
8478,20
8479,20
8480,20
8481,20
8482,20
8483,21
8484,21
8485,21
8486,21
8487,21
8488,20
8489,21
8490,20
8491,20
8492,20
8493,20
8494,20
8495,20
8496,20
8497,20
8498,20
8499,20
8500,20
8501,20
8502,20
8503,20
8504,20
8505,20
8506,20
8507,20
8508,20
8509,20
8510,20
8511,20
8512,20
8513,20
8514,20
8515,20
8516,20
8517,20
8518,20
8519,20
8520,20
8521,20
8522,20
8523,20
8524,20
8525,20
8526,20
8527,20
8528,20
8529,20
8530,20
8531,20
8532,20
8533,20
8534,20
8535,20
8536,20
8537,20
8538,20
8539,20
8540,20
8541,20
8542,20
8543,20
8544,20
8545,20
8546,20
8547,20
8548,20
8549,20
8550,20
8551,20
8552,20
8553,20
8554,20
8555,20
8556,20
8557,20
8558,20
8559,20
8560,20
8561,20
8562,20
8563,20
8564,20
8565,20
8566,20
8567,20
8568,20
8569,20
8570,20
8571,20
8572,20
8573,20
8574,20
8575,20
8576,20
8577,20
8578,20
8579,20
8580,20
8581,20
8582,20
8583,20
8584,20
8585,20
8586,20
8587,20
8588,20
8589,20
8590,20
8591,20
8592,20
8593,20
8594,20
8595,20
8596,20
8597,20
8598,20
8599,20
8600,20
8601,20
8602,20
8603,20
8604,20
8605,20
8606,20
8607,20
8608,20
8609,20
8610,20
8611,20
8612,20
8613,20
8614,20
8615,20
8616,20
8617,20
8618,20
8619,20
8620,20
8621,20
8622,20
8623,20
8624,20
8625,20
8626,20
8627,20
8628,20
8629,20
8630,20
8631,20
8632,20
8633,20
8634,20
8635,20
8636,20
8637,20
8638,20
8639,20
8640,20
8641,20
8642,20
8643,20
8644,20
8645,20
8646,20
8647,20
8648,20
8649,20
8650,20
8651,20
8652,20
8653,20
8654,20
8655,20
8656,20
8657,20
8658,20
8659,20
8660,20
8661,20
8662,20
8663,20
8664,20
8665,20
8666,20
8667,20
8668,20
8669,20
8670,20
8671,20
8672,20
8673,20
8674,20
8675,20
8676,20
8677,20
8678,20
8679,20
8680,20
8681,20
8682,20
8683,20
8684,20
8685,20
8686,20
8687,20
8688,20
8689,20
8690,20
8691,20
8692,20
8693,20
8694,21
8695,21
8696,21
8697,21
8698,21
8699,21
8700,21
8701,21
8702,21
8703,21
8704,21
8705,20
8706,20
8707,20
8708,20
8709,20
8710,20
8711,20
8712,20
8713,20
8714,20
8715,20
8716,20
8717,20
8718,20
8719,20
8720,20
8721,20
8722,20
8723,20
8724,20
8725,20
8726,20
8727,20
8728,20
8729,20
8730,20
8731,20
8732,20
8733,20
8734,20
8735,20
8736,20
8737,20
8738,20
8739,20
8740,20
8741,20
8742,20
8743,20
8744,20
8745,20
8746,20
8747,20
8748,20
8749,20
8750,20
8751,20
8752,20
8753,20
8754,20
8755,20
8756,20
8757,20
8758,20
8759,20
8760,20
8761,20
8762,20
8763,20
8764,20
8765,20
8766,21
8767,21
8768,20
8769,20
8770,20
8771,20
8772,20
8773,20
8774,20
8775,20
8776,20
8777,20
8778,20
8779,20
8780,20
8781,20
8782,20
8783,20
8784,20
8785,20
8786,20
8787,20
8788,20
8789,20
8790,20
8791,20
8792,20
8793,20
8794,20
8795,20
8796,20
8797,20
8798,20
8799,20
8800,20
8801,20
8802,20
8803,20
8804,20
8805,20
8806,20
8807,20
8808,20
8809,20
8810,20
8811,20
8812,20
8813,20
8814,20
8815,20
8816,20
8817,20
8818,20
8819,20
8820,20
8821,20
8822,20
8823,20
8824,20
8825,20
8826,20
8827,20
8828,20
8829,20
8830,20
8831,20
8832,21
8833,21
8834,21
8835,21
8836,21
8837,20
8838,20
8839,20
8840,20
8841,20
8842,20
8843,20
8844,20
8845,20
8846,20
8847,20
8848,20
8849,20
8850,20
8851,20
8852,20
8853,20
8854,20
8855,20
8856,20
8857,20
8858,20
8859,20
8860,20
8861,20
8862,20
8863,20
8864,20
8865,20
8866,20
8867,20
8868,20
8869,20
8870,20
8871,20
8872,20
8873,20
8874,20
8875,20
8876,20
8877,20
8878,20
8879,20
8880,20
8881,20
8882,20
8883,20
8884,20
8885,20
8886,20
8887,20
8888,20
8889,20
8890,20
8891,20
8892,20
8893,20
8894,20
8895,20
8896,20
8897,20
8898,20
8899,20
8900,20
8901,20
8902,20
8903,20
8904,20
8905,20
8906,20
8907,20
8908,20
8909,20
8910,20
8911,20
8912,20
8913,20
8914,20
8915,20
8916,20
8917,20
8918,20
8919,20
8920,20
8921,20
8922,20
8923,20
8924,20
8925,20
8926,20
8927,20
8928,20
8929,20
8930,20
8931,20
8932,20
8933,20
8934,20
8935,20
8936,20
8937,20
8938,20
8939,20
8940,20
8941,20
8942,20
8943,20
8944,20
8945,20
8946,20
8947,20
8948,20
8949,20
8950,20
8951,20
8952,20
8953,21
8954,21
8955,21
8956,20
8957,21
8958,21
8959,20
8960,20
8961,20
8962,20
8963,20
8964,20
8965,20
8966,20
8967,20
8968,20
8969,20
8970,20
8971,20
8972,20
8973,20
8974,20
8975,20
8976,20
8977,20
8978,20
8979,20
8980,20
8981,20
8982,20
8983,20
8984,20
8985,20
8986,20
8987,20
8988,21
8989,20
8990,20
8991,20
8992,20
8993,20
8994,20
8995,20
8996,20
8997,20
8998,20
8999,20
9000,20
9001,20
9002,20
9003,20
9004,20
9005,20
9006,20
9007,20
9008,20
9009,20
9010,20
9011,20
9012,20
9013,20
9014,20
9015,21
9016,21
9017,20
9018,20
9019,20
9020,20
9021,20
9022,20
9023,20
9024,20
9025,20
9026,20
9027,20
9028,20
9029,20
9030,20
9031,20
9032,20
9033,20
9034,20
9035,20
9036,20
9037,20
9038,20
9039,20
9040,20
9041,20
9042,20
9043,20
9044,20
9045,20
9046,20
9047,20
9048,20
9049,20
9050,20
9051,20
9052,20
9053,20
9054,20
9055,20
9056,20
9057,21
9058,21
9059,21
9060,20
9061,20
9062,20
9063,20
9064,20
9065,20
9066,20
9067,20
9068,20
9069,20
9070,20
9071,20
9072,20
9073,20
9074,20
9075,20
9076,20
9077,20
9078,21
9079,20
9080,20
9081,20
9082,20
9083,20
9084,20
9085,21
9086,21
9087,20
9088,20
9089,20
9090,20
9091,20
9092,20
9093,20
9094,20
9095,20
9096,21
9097,21
9098,21
9099,21
9100,20
9101,20
9102,20
9103,20
9104,20
9105,20
9106,20
9107,20
9108,20
9109,20
9110,20
9111,20
9112,20
9113,20
9114,20
9115,20
9116,20
9117,20
9118,20
9119,20
9120,20
9121,20
9122,20
9123,20
9124,20
9125,20
9126,20
9127,20
9128,20
9129,20
9130,20
9131,20
9132,20
9133,20
9134,20
9135,20
9136,20
9137,20
9138,20
9139,20
9140,20
9141,20
9142,20
9143,20
9144,20
9145,20
9146,20
9147,20
9148,20
9149,20
9150,20
9151,20
9152,20
9153,20
9154,20
9155,20
9156,20
9157,20
9158,20
9159,20
9160,20
9161,20
9162,20
9163,20
9164,20
9165,20
9166,20
9167,20
9168,20
9169,20
9170,20
9171,20
9172,20
9173,20
9174,20
9175,20
9176,20
9177,20
9178,20
9179,20
9180,20
9181,20
9182,21
9183,21
9184,21
9185,21
9186,21
9187,21
9188,21
9189,21
9190,21
9191,21
9192,21
9193,21
9194,21
9195,22
9196,21
9197,21
9198,21
9199,21
9200,21
9201,21
9202,21
9203,21
9204,21
9205,21
9206,21
9207,21
9208,21
9209,21
9210,21
9211,21
9212,22
9213,21
9214,21
9215,21
9216,21
9217,21
9218,21
9219,21
9220,21
9221,21
9222,21
9223,21
9224,21
9225,21
9226,21
9227,21
9228,21
9229,21
9230,21
9231,21
9232,21
9233,21
9234,21
9235,21
9236,21
9237,21
9238,21
9239,21
9240,21
9241,21
9242,21
9243,21
9244,22
9245,22
9246,22
9247,22
9248,22
9249,22
9250,22
9251,22
9252,22
9253,22
9254,22
9255,22
9256,22
9257,22
9258,22
9259,22
9260,22
9261,22
9262,22
9263,22
9264,22
9265,22
9266,22
9267,22
9268,22
9269,22
9270,22
9271,22
9272,22
9273,22
9274,22
9275,22
9276,22
9277,22
9278,22
9279,22
9280,22
9281,22
9282,22
9283,22
9284,22
9285,22
9286,22
9287,22
9288,22
9289,22
9290,22
9291,22
9292,22
9293,22
9294,22
9295,22
9296,22
9297,22
9298,22
9299,22
9300,22
9301,22
9302,22
9303,22
9304,22
9305,22
9306,22
9307,22
9308,22
9309,22
9310,22
9311,22
9312,22
9313,22
9314,22
9315,22
9316,22
9317,22
9318,22
9319,22
9320,22
9321,22
9322,22
9323,22
9324,22
9325,22
9326,22
9327,22
9328,22
9329,22
9330,22
9331,22
9332,22
9333,22
9334,22
9335,22
9336,22
9337,22
9338,22
9339,22
9340,22
9341,22
9342,22
9343,22
9344,22
9345,22
9346,22
9347,22
9348,22
9349,22
9350,22
9351,22
9352,22
9353,23
9354,23
9355,23
9356,22
9357,22
9358,22
9359,22
9360,23
9361,23
9362,23
9363,23
9364,23
9365,23
9366,23
9367,23
9368,23
9369,22
9370,22
9371,22
9372,22
9373,22
9374,22
9375,22
9376,22
9377,22
9378,22
9379,22
9380,22
9381,22
9382,22
9383,22
9384,22
9385,22
9386,22
9387,22
9388,22
9389,22
9390,22
9391,22
9392,22
9393,22
9394,22
9395,22
9396,22
9397,22
9398,22
9399,22
9400,22
9401,22
9402,22
9403,22
9404,22
9405,22
9406,22
9407,22
9408,22
9409,22
9410,22
9411,22
9412,22
9413,22
9414,22
9415,22
9416,22
9417,22
9418,22
9419,22
9420,22
9421,22
9422,22
9423,22
9424,22
9425,22
9426,22
9427,22
9428,22
9429,22
9430,22
9431,22
9432,22
9433,22
9434,22
9435,22
9436,22
9437,22
9438,22
9439,22
9440,22
9441,22
9442,22
9443,22
9444,22
9445,22
9446,22
9447,22
9448,22
9449,22
9450,22
9451,22
9452,22
9453,22
9454,22
9455,22
9456,22
9457,22
9458,22
9459,22
9460,22
9461,22
9462,22
9463,22
9464,22
9465,22
9466,22
9467,22
9468,22
9469,22
9470,22
9471,22
9472,22
9473,22
9474,22
9475,22
9476,22
9477,22
9478,22
9479,22
9480,22
9481,22
9482,22
9483,22
9484,22
9485,22
9486,22
9487,22
9488,22
9489,22
9490,22
9491,22
9492,22
9493,22
9494,22
9495,22
9496,22
9497,22
9498,22
9499,22
9500,22
9501,22
9502,22
9503,22
9504,22
9505,22
9506,22
9507,22
9508,22
9509,22
9510,22
9511,22
9512,22
9513,22
9514,22
9515,22
9516,22
9517,22
9518,22
9519,22
9520,22
9521,22
9522,22
9523,22
9524,22
9525,22
9526,22
9527,22
9528,22
9529,22
9530,22
9531,22
9532,22
9533,22
9534,22
9535,22
9536,22
9537,22
9538,22
9539,22
9540,22
9541,22
9542,22
9543,22
9544,22
9545,22
9546,22
9547,22
9548,22
9549,22
9550,22
9551,22
9552,22
9553,22
9554,22
9555,22
9556,22
9557,22
9558,22
9559,22
9560,22
9561,22
9562,22
9563,22
9564,22
9565,22
9566,22
9567,22
9568,22
9569,22
9570,22
9571,22
9572,22
9573,22
9574,22
9575,22
9576,22
9577,22
9578,22
9579,22
9580,22
9581,22
9582,22
9583,22
9584,22
9585,22
9586,22
9587,22
9588,22
9589,22
9590,22
9591,22
9592,22
9593,22
9594,22
9595,22
9596,22
9597,22
9598,22
9599,22
9600,22
9601,22
9602,22
9603,22
9604,22
9605,22
9606,22
9607,22
9608,22
9609,22
9610,22
9611,22
9612,22
9613,22
9614,22
9615,22
9616,22
9617,22
9618,22
9619,22
9620,22
9621,22
9622,22
9623,22
9624,22
9625,22
9626,22
9627,22
9628,22
9629,22
9630,22
9631,22
9632,22
9633,22
9634,22
9635,22
9636,22
9637,22
9638,22
9639,22
9640,22
9641,22
9642,22
9643,22
9644,22
9645,22
9646,22
9647,23
9648,22
9649,22
9650,22
9651,22
9652,22
9653,22
9654,22
9655,22
9656,22
9657,22
9658,22
9659,22
9660,22
9661,22
9662,22
9663,22
9664,22
9665,22
9666,22
9667,22
9668,22
9669,22
9670,22
9671,22
9672,22
9673,22
9674,22
9675,22
9676,22
9677,22
9678,22
9679,22
9680,22
9681,23
9682,23
9683,22
9684,22
9685,22
9686,22
9687,22
9688,22
9689,22
9690,22
9691,22
9692,22
9693,22
9694,22
9695,22
9696,22
9697,22
9698,22
9699,22
9700,22
9701,22
9702,22
9703,22
9704,22
9705,22
9706,22
9707,22
9708,22
9709,22
9710,22
9711,22
9712,22
9713,22
9714,22
9715,22
9716,22
9717,22
9718,22
9719,22
9720,22
9721,22
9722,22
9723,22
9724,22
9725,22
9726,22
9727,22
9728,22
9729,22
9730,22
9731,22
9732,22
9733,22
9734,22
9735,22
9736,22
9737,22
9738,22
9739,22
9740,22
9741,22
9742,22
9743,22
9744,22
9745,22
9746,22
9747,22
9748,22
9749,22
9750,22
9751,22
9752,22
9753,22
9754,22
9755,22
9756,22
9757,22
9758,22
9759,22
9760,22
9761,22
9762,22
9763,22
9764,22
9765,22
9766,22
9767,22
9768,22
9769,22
9770,22
9771,22
9772,22
9773,22
9774,22
9775,22
9776,22
9777,22
9778,22
9779,22
9780,22
9781,22
9782,22
9783,22
9784,22
9785,22
9786,22
9787,22
9788,22
9789,22
9790,22
9791,22
9792,22
9793,22
9794,22
9795,22
9796,22
9797,22
9798,22
9799,22
9800,22
9801,22
9802,22
9803,22
9804,22
9805,22
9806,22
9807,22
9808,22
9809,22
9810,22
9811,22
9812,22
9813,22
9814,22
9815,22
9816,22
9817,22
9818,22
9819,22
9820,22
9821,22
9822,22
9823,22
9824,22
9825,22
9826,22
9827,22
9828,22
9829,22
9830,22
9831,22
9832,22
9833,22
9834,22
9835,22
9836,22
9837,22
9838,22
9839,22
9840,22
9841,22
9842,22
9843,22
9844,22
9845,22
9846,22
9847,22
9848,22
9849,22
9850,22
9851,22
9852,22
9853,22
9854,22
9855,22
9856,22
9857,22
9858,22
9859,22
9860,22
9861,22
9862,22
9863,22
9864,22
9865,22
9866,22
9867,22
9868,22
9869,22
9870,22
9871,22
9872,22
9873,22
9874,22
9875,22
9876,22
9877,22
9878,22
9879,22
9880,22
9881,22
9882,22
9883,22
9884,22
9885,22
9886,22
9887,22
9888,22
9889,22
9890,22
9891,22
9892,22
9893,22
9894,22
9895,22
9896,22
9897,22
9898,22
9899,22
9900,22
9901,22
9902,22
9903,22
9904,22
9905,22
9906,22
9907,22
9908,22
9909,22
9910,22
9911,22
9912,22
9913,22
9914,22
9915,22
9916,22
9917,23
9918,23
9919,23
9920,23
9921,23
9922,23
9923,23
9924,22
9925,22
9926,22
9927,22
9928,23
9929,23
9930,22
9931,22
9932,22
9933,22
9934,22
9935,22
9936,22
9937,22
9938,22
9939,22
9940,22
9941,22
9942,22
9943,22
9944,22
9945,23
9946,23
9947,23
9948,22
9949,22
9950,22
9951,22
9952,22
9953,22
9954,22
9955,22
9956,22
9957,22
9958,22
9959,22
9960,22
9961,22
9962,22
9963,22
9964,22
9965,22
9966,22
9967,22
9968,22
9969,22
9970,22
9971,22
9972,22
9973,22
9974,22
9975,22
9976,22
9977,22
9978,22
9979,22
9980,22
9981,22
9982,22
9983,22
9984,22
9985,22
9986,22
9987,22
9988,22
9989,22
9990,22
9991,22
9992,22
9993,22
9994,22
9995,22
9996,22
9997,22
9998,22
9999,22
10000,22
