1,3
2,3
3,3
4,3
5,3
6,3
7,3
8,3
9,3
10,3
11,3
12,3
13,3
14,3
15,3
16,3
17,3
18,3
19,3
20,3
21,3
22,3
23,3
24,3
25,3
26,3
27,3
28,3
29,3
30,3
31,3
32,3
33,3
34,3
35,3
36,3
37,3
38,3
39,3
40,3
41,3
42,3
43,3
44,3
45,3
46,3
47,3
48,3
49,3
50,3
51,3
52,3
53,3
54,3
55,3
56,3
57,3
58,3
59,3
60,3
61,3
62,3
63,3
64,3
65,3
66,3
67,3
68,3
69,3
70,3
71,3
72,3
73,3
74,3
75,3
76,3
77,3
78,3
79,3
80,3
81,3
82,3
83,3
84,3
85,3
86,3
87,3
88,3
89,3
90,3
91,3
92,3
93,3
94,3
95,3
96,3
97,3
98,3
99,3
100,3
101,3
102,3
103,3
104,3
105,3
106,3
107,3
108,3
109,3
110,3
111,3
112,3
113,3
114,3
115,3
116,3
117,3
118,3
119,3
120,3
121,3
122,3
123,3
124,3
125,3
126,3
127,3
128,3
129,4
130,4
131,4
132,4
133,4
134,4
135,4
136,4
137,4
138,4
139,4
140,4
141,4
142,4
143,4
144,4
145,4
146,4
147,4
148,4
149,4
150,4
151,4
152,4
153,4
154,4
155,4
156,4
157,4
158,4
159,4
160,4
161,4
162,4
163,4
164,4
165,4
166,4
167,4
168,4
169,4
170,4
171,4
172,4
173,4
174,4
175,4
176,4
177,4
178,4
179,4
180,4
181,4
182,4
183,4
184,4
185,4
186,4
187,4
188,4
189,4
190,4
191,4
192,4
193,4
194,4
195,4
196,4
197,4
198,4
199,4
200,4
201,4
202,4
203,4
204,4
205,4
206,4
207,4
208,4
209,4
210,4
211,4
212,4
213,4
214,4
215,4
216,4
217,4
218,4
219,4
220,4
221,4
222,4
223,4
224,4
225,4
226,4
227,4
228,4
229,4
230,4
231,4
232,4
233,4
234,4
235,4
236,4
237,4
238,4
239,4
240,4
241,4
242,4
243,4
244,4
245,4
246,4
247,4
248,4
249,4
250,4
251,4
252,4
253,4
254,4
255,4
256,4
257,4
258,4
259,4
260,4
261,4
262,4
263,4
264,4
265,4
266,4
267,4
268,4
269,4
270,5
271,5
272,5
273,5
274,5
275,6
276,6
277,6
278,6
279,6
280,6
281,6
282,5
283,5
284,5
285,5
286,5
287,5
288,5
289,5
290,5
291,5
292,5
293,5
294,5
295,5
296,5
297,5
298,6
299,6
300,6
301,6
302,6
303,6
304,6
305,6
306,6
307,6
308,6
309,6
310,6
311,6
312,6
313,6
314,6
315,6
316,6
317,6
318,6
319,6
320,6
321,6
322,6
323,6
324,6
325,6
326,6
327,6
328,6
329,6
330,6
331,6
332,6
333,6
334,6
335,6
336,6
337,6
338,6
339,6
340,6
341,6
342,6
343,6
344,6
345,6
346,6
347,6
348,6
349,6
350,6
351,6
352,6
353,6
354,6
355,6
356,6
357,6
358,6
359,6
360,6
361,6
362,6
363,6
364,6
365,6
366,6
367,6
368,6
369,6
370,6
371,6
372,6
373,6
374,6
375,6
376,6
377,6
378,6
379,6
380,6
381,6
382,6
383,6
384,6
385,6
386,6
387,6
388,6
389,6
390,6
391,6
392,6
393,6
394,6
395,6
396,6
397,6
398,6
399,6
400,6
401,6
402,6
403,6
404,6
405,6
406,6
407,6
408,6
409,6
410,6
411,6
412,6
413,6
414,6
415,6
416,6
417,6
418,6
419,6
420,6
421,6
422,6
423,6
424,6
425,6
426,6
427,6
428,6
429,6
430,6
431,6
432,6
433,6
434,6
435,6
436,6
437,6
438,6
439,6
440,6
441,6
442,6
443,6
444,6
445,6
446,6
447,6
448,6
449,6
450,6
451,6
452,6
453,6
454,6
455,6
456,6
457,6
458,6
459,6
460,6
461,6
462,6
463,6
464,6
465,6
466,6
467,6
468,6
469,6
470,6
471,6
472,6
473,6
474,6
475,6
476,6
477,6
478,6
479,6
480,6
481,6
482,6
483,6
484,6
485,6
486,6
487,6
488,6
489,6
490,6
491,6
492,6
493,6
494,6
495,6
496,6
497,6
498,6
499,6
500,6
501,6
502,6
503,6
504,6
505,6
506,6
507,6
508,6
509,6
510,7
511,7
512,7
513,7
514,7
515,7
516,7
517,7
518,7
519,7
520,7
521,7
522,7
523,7
524,7
525,7
526,7
527,7
528,7
529,7
530,7
531,7
532,7
533,7
534,7
535,7
536,7
537,7
538,7
539,7
540,7
541,7
542,7
543,7
544,7
545,7
546,7
547,7
548,7
549,7
550,7
551,7
552,7
553,7
554,7
555,7
556,7
557,7
558,7
559,7
560,8
561,7
562,7
563,7
564,7
565,7
566,7
567,7
568,7
569,7
570,7
571,7
572,7
573,7
574,7
575,7
576,7
577,7
578,7
579,7
580,7
581,7
582,7
583,7
584,7
585,7
586,7
587,7
588,7
589,7
590,7
591,7
592,7
593,7
594,7
595,7
596,7
597,7
598,7
599,7
600,7
601,7
602,7
603,7
604,7
605,7
606,7
607,7
608,7
609,7
610,7
611,7
612,7
613,7
614,7
615,7
616,7
617,7
618,7
619,7
620,7
621,7
622,7
623,7
624,7
625,7
626,7
627,7
628,7
629,7
630,7
631,7
632,7
633,7
634,7
635,7
636,7
637,7
638,7
639,7
640,7
641,7
642,7
643,7
644,7
645,7
646,7
647,7
648,7
649,7
650,7
651,7
652,7
653,7
654,7
655,7
656,7
657,7
658,7
659,8
660,8
661,8
662,7
663,7
664,7
665,7
666,7
667,7
668,7
669,7
670,7
671,7
672,7
673,7
674,7
675,7
676,7
677,7
678,7
679,7
680,7
681,7
682,7
683,7
684,7
685,7
686,7
687,7
688,7
689,7
690,7
691,7
692,7
693,7
694,7
695,7
696,7
697,7
698,7
699,7
700,7
701,7
702,7
703,7
704,7
705,7
706,7
707,7
708,7
709,7
710,7
711,7
712,7
713,7
714,7
715,7
716,7
717,7
718,7
719,7
720,7
721,7
722,7
723,7
724,7
725,7
726,7
727,7
728,7
729,7
730,7
731,7
732,7
733,7
734,7
735,7
736,7
737,7
738,7
739,8
740,8
741,8
742,8
743,8
744,8
745,8
746,8
747,8
748,8
749,8
750,8
751,8
752,8
753,8
754,8
755,8
756,8
757,8
758,8
759,8
760,9
761,9
762,9
763,9
764,9
765,9
766,9
767,9
768,9
769,9
770,9
771,9
772,9
773,9
774,9
775,9
776,9
777,9
778,9
779,9
780,9
781,9
782,9
783,9
784,9
785,9
786,9
787,9
788,9
789,9
790,9
791,9
792,9
793,9
794,9
795,9
796,9
797,9
798,9
799,9
800,9
801,9
802,9
803,9
804,9
805,9
806,9
807,9
808,9
809,9
810,9
811,9
812,9
813,9
814,9
815,9
816,9
817,9
818,10
819,10
820,10
821,10
822,10
823,10
824,10
825,10
826,10
827,10
828,10
829,10
830,10
831,10
832,11
833,11
834,11
835,10
836,10
837,10
838,10
839,10
840,10
841,10
842,10
843,10
844,10
845,10
846,10
847,10
848,10
849,10
850,10
851,10
852,10
853,10
854,10
855,10
856,10
857,10
858,10
859,10
860,10
861,10
862,10
863,10
864,10
865,10
866,10
867,10
868,10
869,10
870,10
871,10
872,10
873,10
874,10
875,10
876,10
877,10
878,10
879,10
880,10
881,10
882,10
883,10
884,10
885,10
886,10
887,10
888,10
889,10
890,10
891,10
892,10
893,10
894,10
895,10
896,10
897,10
898,10
899,10
900,10
901,10
902,10
903,10
904,10
905,10
906,10
907,10
908,10
909,10
910,10
911,10
912,10
913,10
914,10
915,10
916,10
917,10
918,10
919,10
920,10
921,10
922,10
923,10
924,10
925,10
926,10
927,10
928,10
929,10
930,10
931,10
932,10
933,10
934,10
935,10
936,10
937,10
938,10
939,10
940,10
941,10
942,10
943,11
944,11
945,11
946,11
947,11
948,11
949,11
950,11
951,11
952,11
953,11
954,11
955,11
956,11
957,11
958,11
959,11
960,11
961,11
962,11
963,11
964,11
965,11
966,11
967,10
968,10
969,10
970,10
971,10
972,10
973,10
974,10
975,10
976,10
977,10
978,10
979,11
980,11
981,11
982,10
983,10
984,10
985,10
986,10
987,10
988,10
989,10
990,10
991,10
992,10
993,10
994,10
995,11
996,11
997,11
998,11
999,11
1000,11
1001,11
1002,11
1003,11
1004,11
1005,11
1006,11
1007,11
1008,11
1009,11
1010,11
1011,11
1012,11
1013,11
1014,11
1015,11
1016,11
1017,11
1018,11
1019,11
1020,11
1021,11
1022,11
1023,11
1024,11
1025,11
1026,11
1027,11
1028,11
1029,11
1030,11
1031,11
1032,11
1033,11
1034,11
1035,11
1036,11
1037,11
1038,11
1039,11
1040,11
1041,11
1042,11
1043,11
1044,11
1045,11
1046,11
1047,11
1048,11
1049,11
1050,11
1051,11
1052,11
1053,11
1054,11
1055,11
1056,11
1057,11
1058,11
1059,11
1060,11
1061,11
1062,11
1063,11
1064,11
1065,11
1066,11
1067,11
1068,11
1069,11
1070,11
1071,11
1072,11
1073,11
1074,11
1075,11
1076,11
1077,11
1078,11
1079,11
1080,11
1081,11
1082,12
1083,12
1084,12
1085,12
1086,12
1087,12
1088,12
1089,12
1090,12
1091,12
1092,12
1093,12
1094,12
1095,13
1096,12
1097,12
1098,12
1099,12
1100,12
1101,12
1102,12
1103,12
1104,12
1105,12
1106,12
1107,12
1108,12
1109,12
1110,12
1111,12
1112,12
1113,12
1114,12
1115,12
1116,12
1117,12
1118,12
1119,12
1120,12
1121,12
1122,12
1123,12
1124,12
1125,12
1126,12
1127,12
1128,12
1129,12
1130,12
1131,12
1132,12
1133,12
1134,12
1135,12
1136,12
1137,12
1138,12
1139,12
1140,12
1141,12
1142,12
1143,12
1144,12
1145,12
1146,12
1147,12
1148,12
1149,12
1150,12
1151,12
1152,12
1153,12
1154,12
1155,12
1156,12
1157,12
1158,12
1159,12
1160,12
1161,12
1162,12
1163,12
1164,12
1165,12
1166,12
1167,12
1168,12
1169,12
1170,12
1171,12
1172,12
1173,12
1174,12
1175,12
1176,12
1177,12
1178,12
1179,12
1180,12
1181,12
1182,12
1183,12
1184,12
1185,12
1186,12
1187,12
1188,12
1189,12
1190,12
1191,12
1192,12
1193,12
1194,12
1195,12
1196,12
1197,12
1198,12
1199,12
1200,12
1201,12
1202,12
1203,12
1204,12
1205,12
1206,12
1207,12
1208,12
1209,12
1210,12
1211,12
1212,12
1213,12
1214,12
1215,12
1216,12
1217,12
1218,12
1219,12
1220,12
1221,12
1222,12
1223,12
1224,12
1225,12
1226,12
1227,12
1228,12
1229,12
1230,12
1231,12
1232,12
1233,12
1234,12
1235,12
1236,12
1237,12
1238,12
1239,12
1240,12
1241,12
1242,12
1243,12
1244,12
1245,12
1246,12
1247,12
1248,13
1249,13
1250,13
1251,13
1252,13
1253,13
1254,13
1255,13
1256,13
1257,13
1258,13
1259,13
1260,13
1261,13
1262,13
1263,13
1264,12
1265,12
1266,12
1267,12
1268,12
1269,12
1270,12
1271,12
1272,12
1273,12
1274,12
1275,12
1276,12
1277,12
1278,12
1279,12
1280,12
1281,12
1282,12
1283,12
1284,12
1285,12
1286,12
1287,12
1288,12
1289,12
1290,12
1291,12
1292,12
1293,12
1294,12
1295,12
1296,12
1297,12
1298,12
1299,12
1300,12
1301,12
1302,12
1303,12
1304,12
1305,12
1306,12
1307,12
1308,12
1309,12
1310,12
1311,12
1312,12
1313,12
1314,12
1315,12
1316,12
1317,12
1318,12
1319,12
1320,12
1321,12
1322,12
1323,12
1324,12
1325,12
1326,12
1327,12
1328,12
1329,12
1330,12
1331,12
1332,12
1333,12
1334,12
1335,12
1336,12
1337,12
1338,12
1339,12
1340,12
1341,12
1342,12
1343,12
1344,12
1345,12
1346,12
1347,12
1348,12
1349,12
1350,12
1351,12
1352,12
1353,12
1354,12
1355,12
1356,12
1357,12
1358,12
1359,12
1360,12
1361,12
1362,12
1363,12
1364,12
1365,12
1366,12
1367,12
1368,12
1369,12
1370,12
1371,12
1372,12
1373,12
1374,12
1375,12
1376,12
1377,12
1378,12
1379,12
1380,12
1381,12
1382,12
1383,12
1384,12
1385,12
1386,12
1387,12
1388,12
1389,12
1390,12
1391,12
1392,12
1393,12
1394,12
1395,12
1396,12
1397,12
1398,12
1399,12
1400,12
1401,12
1402,12
1403,12
1404,12
1405,12
1406,12
1407,12
1408,12
1409,12
1410,12
1411,12
1412,12
1413,12
1414,12
1415,12
1416,12
1417,12
1418,12
1419,12
1420,12
1421,12
1422,12
1423,12
1424,12
1425,12
1426,12
1427,12
1428,12
1429,12
1430,12
1431,12
1432,12
1433,12
1434,12
1435,12
1436,12
1437,12
1438,12
1439,12
1440,12
1441,12
1442,12
1443,12
1444,12
1445,12
1446,12
1447,12
1448,12
1449,12
1450,12
1451,12
1452,12
1453,12
1454,12
1455,12
1456,12
1457,12
1458,12
1459,12
1460,12
1461,12
1462,12
1463,12
1464,12
1465,12
1466,12
1467,12
1468,12
1469,12
1470,12
1471,12
1472,12
1473,12
1474,12
1475,12
1476,12
1477,12
1478,12
1479,12
1480,12
1481,12
1482,12
1483,12
1484,12
1485,12
1486,12
1487,12
1488,12
1489,12
1490,12
1491,12
1492,12
1493,12
1494,12
1495,12
1496,12
1497,12
1498,12
1499,12
1500,12
1501,12
1502,12
1503,12
1504,12
1505,12
1506,12
1507,12
1508,13
1509,13
1510,13
1511,13
1512,13
1513,13
1514,13
1515,13
1516,13
1517,13
1518,14
1519,14
1520,14
1521,14
1522,14
1523,13
1524,13
1525,13
1526,13
1527,13
1528,13
1529,13
1530,13
1531,13
1532,13
1533,13
1534,13
1535,13
1536,13
1537,13
1538,13
1539,13
1540,13
1541,13
1542,13
1543,13
1544,13
1545,13
1546,13
1547,13
1548,13
1549,13
1550,14
1551,14
1552,14
1553,13
1554,13
1555,13
1556,13
1557,13
1558,13
1559,13
1560,13
1561,13
1562,13
1563,13
1564,13
1565,13
1566,13
1567,13
1568,13
1569,13
1570,13
1571,13
1572,13
1573,13
1574,13
1575,13
1576,13
1577,13
1578,13
1579,13
1580,13
1581,13
1582,13
1583,13
1584,13
1585,13
1586,13
1587,13
1588,13
1589,13
1590,13
1591,14
1592,14
1593,13
1594,13
1595,13
1596,13
1597,13
1598,13
1599,13
1600,13
1601,13
1602,13
1603,13
1604,13
1605,13
1606,13
1607,13
1608,13
1609,13
1610,13
1611,13
1612,13
1613,13
1614,13
1615,13
1616,13
1617,13
1618,13
1619,13
1620,13
1621,13
1622,13
1623,13
1624,13
1625,13
1626,13
1627,13
1628,13
1629,13
1630,13
1631,13
1632,13
1633,13
1634,13
1635,13
1636,13
1637,13
1638,13
1639,13
1640,13
1641,13
1642,13
1643,13
1644,13
1645,13
1646,13
1647,13
1648,13
1649,13
1650,13
1651,14
1652,14
1653,14
1654,14
1655,14
1656,14
1657,14
1658,14
1659,14
1660,14
1661,14
1662,14
1663,14
1664,14
1665,14
1666,14
1667,14
1668,14
1669,14
1670,14
1671,14
1672,14
1673,14
1674,14
1675,14
1676,14
1677,14
1678,14
1679,14
1680,14
1681,14
1682,14
1683,14
1684,14
1685,14
1686,14
1687,14
1688,14
1689,14
1690,14
1691,14
1692,14
1693,14
1694,14
1695,14
1696,14
1697,14
1698,14
1699,14
1700,14
1701,14
1702,14
1703,14
1704,14
1705,14
1706,14
1707,14
1708,14
1709,14
1710,14
1711,14
1712,14
1713,14
1714,14
1715,14
1716,14
1717,14
1718,14
1719,14
1720,14
1721,14
1722,14
1723,14
1724,14
1725,14
1726,14
1727,14
1728,14
1729,14
1730,14
1731,14
1732,14
1733,14
1734,14
1735,14
1736,14
1737,14
1738,14
1739,14
1740,14
1741,14
1742,14
1743,14
1744,14
1745,14
1746,14
1747,14
1748,14
1749,14
1750,14
1751,14
1752,14
1753,14
1754,14
1755,14
1756,14
1757,14
1758,14
1759,14
1760,14
1761,14
1762,14
1763,14
1764,14
1765,14
1766,14
1767,14
1768,14
1769,14
1770,14
1771,14
1772,14
1773,14
1774,14
1775,14
1776,14
1777,14
1778,14
1779,14
1780,14
1781,14
1782,14
1783,14
1784,14
1785,14
1786,14
1787,14
1788,14
1789,14
1790,14
1791,14
1792,14
1793,14
1794,14
1795,14
1796,14
1797,14
1798,14
1799,14
1800,14
1801,14
1802,14
1803,14
1804,14
1805,14
1806,14
1807,14
1808,14
1809,14
1810,14
1811,14
1812,14
1813,14
1814,14
1815,14
1816,14
1817,14
1818,14
1819,14
1820,14
1821,14
1822,14
1823,14
1824,14
1825,14
1826,14
1827,14
1828,14
1829,14
1830,14
1831,14
1832,14
1833,14
1834,14
1835,14
1836,14
1837,14
1838,14
1839,14
1840,14
1841,14
1842,14
1843,14
1844,14
1845,14
1846,14
1847,14
1848,14
1849,14
1850,14
1851,14
1852,14
1853,14
1854,14
1855,14
1856,14
1857,14
1858,14
1859,14
1860,14
1861,14
1862,14
1863,14
1864,14
1865,14
1866,14
1867,14
1868,14
1869,14
1870,14
1871,14
1872,14
1873,14
1874,14
1875,14
1876,14
1877,14
1878,14
1879,14
1880,14
1881,14
1882,14
1883,14
1884,14
1885,14
1886,14
1887,14
1888,14
1889,14
1890,14
1891,14
1892,14
1893,14
1894,14
1895,14
1896,14
1897,14
1898,14
1899,14
1900,14
1901,14
1902,15
1903,15
1904,15
1905,14
1906,14
1907,14
1908,14
1909,14
1910,14
1911,14
1912,14
1913,14
1914,14
1915,14
1916,14
1917,15
1918,15
1919,14
1920,14
1921,14
1922,14
1923,14
1924,14
1925,14
1926,14
1927,14
1928,14
1929,14
1930,14
1931,14
1932,14
1933,14
1934,14
1935,14
1936,14
1937,14
1938,14
1939,14
1940,14
1941,14
1942,14
1943,14
1944,14
1945,14
1946,14
1947,14
1948,14
1949,14
1950,14
1951,14
1952,14
1953,14
1954,14
1955,14
1956,14
1957,14
1958,14
1959,14
1960,14
1961,14
1962,14
1963,14
1964,14
1965,14
1966,14
1967,14
1968,14
1969,14
1970,14
1971,14
1972,14
1973,14
1974,14
1975,14
1976,14
1977,14
1978,14
1979,15
1980,15
1981,15
1982,14
1983,14
1984,14
1985,14
1986,14
1987,14
1988,14
1989,14
1990,14
1991,14
1992,14
1993,14
1994,14
1995,14
1996,14
1997,14
1998,14
1999,14
2000,14
2001,14
2002,14
2003,14
2004,14
2005,14
2006,14
2007,15
2008,15
2009,14
2010,14
2011,14
2012,14
2013,15
2014,15
2015,15
2016,15
2017,15
2018,15
2019,15
2020,15
2021,15
2022,15
2023,15
2024,15
2025,15
2026,15
2027,16
2028,16
2029,15
2030,15
2031,15
2032,15
2033,15
2034,15
2035,14
2036,14
2037,14
2038,14
2039,14
2040,14
2041,14
2042,14
2043,14
2044,14
2045,14
2046,14
2047,14
2048,14
2049,14
2050,14
2051,14
2052,14
2053,14
2054,14
2055,14
2056,14
2057,14
2058,14
2059,14
2060,14
2061,14
2062,14
2063,14
2064,14
2065,14
2066,14
2067,14
2068,14
2069,14
2070,14
2071,14
2072,15
2073,14
2074,14
2075,14
2076,14
2077,14
2078,14
2079,14
2080,14
2081,14
2082,14
2083,14
2084,14
2085,14
2086,14
2087,14
2088,14
2089,14
2090,14
2091,14
2092,14
2093,14
2094,14
2095,14
2096,14
2097,14
2098,14
2099,14
2100,14
2101,14
2102,14
2103,14
2104,14
2105,14
2106,14
2107,14
2108,14
2109,14
2110,14
2111,14
2112,14
2113,14
2114,14
2115,14
2116,14
2117,14
2118,14
2119,14
2120,14
2121,14
2122,14
2123,14
2124,14
2125,14
2126,14
2127,14
2128,14
2129,14
2130,14
2131,14
2132,14
2133,14
2134,14
2135,14
2136,14
2137,14
2138,14
2139,14
2140,14
2141,14
2142,14
2143,14
2144,14
2145,14
2146,14
2147,14
2148,14
2149,14
2150,14
2151,14
2152,14
2153,14
2154,14
2155,14
2156,14
2157,14
2158,14
2159,14
2160,14
2161,14
2162,14
2163,14
2164,14
2165,14
2166,14
2167,14
2168,14
2169,14
2170,14
2171,14
2172,14
2173,14
2174,14
2175,14
2176,14
2177,14
2178,14
2179,14
2180,14
2181,14
2182,14
2183,15
2184,15
2185,14
2186,14
2187,14
2188,14
2189,14
2190,14
2191,14
2192,14
2193,14
2194,14
2195,14
2196,14
2197,14
2198,14
2199,14
2200,14
2201,14
2202,14
2203,14
2204,14
2205,14
2206,15
2207,15
2208,14
2209,14
2210,14
2211,14
2212,14
2213,14
2214,14
2215,14
2216,14
2217,14
2218,14
2219,14
2220,14
2221,14
2222,14
2223,14
2224,14
2225,14
2226,14
2227,14
2228,14
2229,14
2230,14
2231,14
2232,14
2233,14
2234,14
2235,14
2236,14
2237,14
2238,14
2239,15
2240,15
2241,15
2242,15
2243,15
2244,15
2245,15
2246,15
2247,15
2248,15
2249,15
2250,15
2251,14
2252,14
2253,14
2254,14
2255,14
2256,14
2257,14
2258,14
2259,14
2260,14
2261,14
2262,14
2263,14
2264,14
2265,14
2266,14
2267,14
2268,14
2269,14
2270,14
2271,14
2272,14
2273,14
2274,14
2275,14
2276,14
2277,14
2278,14
2279,14
2280,14
2281,14
2282,14
2283,14
2284,14
2285,14
2286,14
2287,14
2288,14
2289,14
2290,14
2291,14
2292,14
2293,14
2294,14
2295,14
2296,14
2297,14
2298,14
2299,14
2300,14
2301,14
2302,14
2303,14
2304,14
2305,14
2306,14
2307,14
2308,14
2309,14
2310,14
2311,14
2312,14
2313,14
2314,14
2315,14
2316,14
2317,14
2318,14
2319,14
2320,14
2321,14
2322,14
2323,14
2324,14
2325,14
2326,14
2327,14
2328,14
2329,14
2330,14
2331,14
2332,14
2333,14
2334,14
2335,14
2336,14
2337,14
2338,14
2339,14
2340,14
2341,14
2342,14
2343,14
2344,14
2345,14
2346,14
2347,14
2348,14
2349,14
2350,14
2351,14
2352,14
2353,14
2354,14
2355,14
2356,14
2357,14
2358,14
2359,14
2360,14
2361,14
2362,14
2363,14
2364,14
2365,14
2366,14
2367,14
2368,14
2369,14
2370,14
2371,14
2372,14
2373,14
2374,14
2375,14
2376,14
2377,14
2378,14
2379,14
2380,14
2381,14
2382,14
2383,14
2384,14
2385,14
2386,14
2387,14
2388,14
2389,14
2390,14
2391,14
2392,14
2393,14
2394,14
2395,14
2396,14
2397,14
2398,14
2399,14
2400,14
2401,14
2402,15
2403,15
2404,15
2405,15
2406,15
2407,15
2408,15
2409,15
2410,15
2411,15
2412,15
2413,15
2414,15
2415,15
2416,16
2417,16
2418,16
2419,16
2420,16
2421,16
2422,16
2423,16
2424,16
2425,16
2426,16
2427,16
2428,16
2429,16
2430,16
2431,15
2432,15
2433,15
2434,15
2435,15
2436,15
2437,15
2438,15
2439,15
2440,15
2441,15
2442,15
2443,15
2444,15
2445,15
2446,15
2447,15
2448,15
2449,15
2450,15
2451,15
2452,15
2453,15
2454,15
2455,15
2456,15
2457,15
2458,15
2459,15
2460,15
2461,15
2462,15
2463,15
2464,15
2465,15
2466,15
2467,15
2468,15
2469,15
2470,15
2471,15
2472,15
2473,15
2474,15
2475,15
2476,15
2477,15
2478,15
2479,15
2480,15
2481,15
2482,15
2483,15
2484,15
2485,15
2486,15
2487,15
2488,15
2489,15
2490,15
2491,15
2492,15
2493,15
2494,15
2495,15
2496,15
2497,15
2498,15
2499,15
2500,15
2501,16
2502,16
2503,16
2504,15
2505,15
2506,15
2507,15
2508,15
2509,15
2510,15
2511,15
2512,15
2513,15
2514,15
2515,15
2516,15
2517,15
2518,15
2519,15
2520,15
2521,15
2522,15
2523,15
2524,15
2525,15
2526,15
2527,15
2528,15
2529,15
2530,15
2531,15
2532,15
2533,15
2534,15
2535,15
2536,15
2537,15
2538,15
2539,15
2540,15
2541,15
2542,15
2543,15
2544,15
2545,15
2546,15
2547,15
2548,15
2549,15
2550,15
2551,15
2552,16
2553,16
2554,15
2555,15
2556,15
2557,15
2558,15
2559,15
2560,15
2561,15
2562,16
2563,15
2564,15
2565,15
2566,15
2567,15
2568,15
2569,15
2570,15
2571,15
2572,15
2573,15
2574,15
2575,15
2576,15
2577,15
2578,15
2579,15
2580,15
2581,15
2582,15
2583,15
2584,15
2585,15
2586,15
2587,15
2588,15
2589,15
2590,15
2591,15
2592,15
2593,15
2594,15
2595,15
2596,15
2597,15
2598,15
2599,15
2600,15
2601,15
2602,15
2603,15
2604,15
2605,15
2606,15
2607,15
2608,15
2609,15
2610,15
2611,15
2612,15
2613,15
2614,15
2615,15
2616,15
2617,15
2618,15
2619,15
2620,15
2621,15
2622,15
2623,15
2624,15
2625,15
2626,15
2627,15
2628,15
2629,15
2630,15
2631,15
2632,15
2633,16
2634,15
2635,15
2636,15
2637,15
2638,15
2639,15
2640,15
2641,15
2642,15
2643,15
2644,15
2645,15
2646,15
2647,15
2648,15
2649,15
2650,15
2651,15
2652,15
2653,15
2654,15
2655,15
2656,15
2657,15
2658,15
2659,15
2660,15
2661,15
2662,16
2663,15
2664,15
2665,15
2666,15
2667,15
2668,15
2669,15
2670,15
2671,15
2672,15
2673,15
2674,15
2675,15
2676,15
2677,15
2678,15
2679,15
2680,15
2681,15
2682,15
2683,15
2684,15
2685,15
2686,15
2687,15
2688,15
2689,15
2690,15
2691,15
2692,15
2693,15
2694,15
2695,15
2696,15
2697,15
2698,15
2699,15
2700,15
2701,15
2702,16
2703,16
2704,15
2705,15
2706,15
2707,15
2708,15
2709,15
2710,15
2711,15
2712,15
2713,15
2714,15
2715,15
2716,15
2717,15
2718,15
2719,15
2720,15
2721,15
2722,15
2723,15
2724,15
2725,15
2726,15
2727,15
2728,15
2729,15
2730,15
2731,15
2732,15
2733,15
2734,15
2735,15
2736,15
2737,15
2738,15
2739,15
2740,15
2741,15
2742,15
2743,15
2744,15
2745,17
2746,17
2747,16
2748,16
2749,16
2750,16
2751,16
2752,16
2753,16
2754,16
2755,16
2756,16
2757,16
2758,15
2759,15
2760,15
2761,15
2762,15
2763,15
2764,15
2765,15
2766,15
2767,15
2768,15
2769,15
2770,15
2771,15
2772,15
2773,15
2774,15
2775,15
2776,15
2777,15
2778,15
2779,15
2780,15
2781,15
2782,15
2783,15
2784,15
2785,15
2786,15
2787,15
2788,15
2789,15
2790,15
2791,15
2792,15
2793,15
2794,15
2795,15
2796,15
2797,15
2798,15
2799,15
2800,15
2801,15
2802,15
2803,15
2804,15
2805,15
2806,15
2807,15
2808,15
2809,15
2810,15
2811,15
2812,15
2813,15
2814,15
2815,15
2816,15
2817,15
2818,15
2819,15
2820,15
2821,15
2822,16
2823,15
2824,15
2825,16
2826,16
2827,16
2828,16
2829,15
2830,15
2831,15
2832,15
2833,15
2834,15
2835,15
2836,15
2837,15
2838,15
2839,15
2840,15
2841,15
2842,15
2843,15
2844,15
2845,15
2846,15
2847,15
2848,15
2849,15
2850,15
2851,15
2852,15
2853,15
2854,15
2855,15
2856,15
2857,15
2858,15
2859,15
2860,15
2861,15
2862,15
2863,15
2864,15
2865,15
2866,15
2867,15
2868,15
2869,15
2870,15
2871,15
2872,15
2873,15
2874,15
2875,15
2876,15
2877,15
2878,15
2879,15
2880,15
2881,15
2882,15
2883,15
2884,15
2885,15
2886,15
2887,15
2888,15
2889,15
2890,15
2891,15
2892,15
2893,15
2894,15
2895,15
2896,15
2897,15
2898,15
2899,15
2900,15
2901,15
2902,15
2903,15
2904,15
2905,15
2906,15
2907,15
2908,15
2909,15
2910,15
2911,15
2912,15
2913,15
2914,15
2915,15
2916,15
2917,15
2918,15
2919,15
2920,15
2921,15
2922,15
2923,16
2924,16
2925,15
2926,15
2927,15
2928,15
2929,15
2930,15
2931,15
2932,15
2933,15
2934,15
2935,15
2936,15
2937,15
2938,15
2939,15
2940,15
2941,15
2942,15
2943,15
2944,15
2945,15
2946,15
2947,15
2948,15
2949,15
2950,15
2951,15
2952,15
2953,15
2954,15
2955,15
2956,15
2957,15
2958,15
2959,15
2960,15
2961,15
2962,15
2963,15
2964,15
2965,15
2966,15
2967,15
2968,15
2969,15
2970,15
2971,15
2972,15
2973,15
2974,15
2975,15
2976,15
2977,15
2978,15
2979,15
2980,15
2981,15
2982,15
2983,15
2984,15
2985,15
2986,15
2987,15
2988,15
2989,16
2990,15
2991,15
2992,15
2993,15
2994,15
2995,15
2996,15
2997,15
2998,15
2999,15
3000,15
3001,15
3002,15
3003,15
3004,15
3005,15
3006,15
3007,15
3008,15
3009,15
3010,15
3011,15
3012,15
3013,15
3014,15
3015,15
3016,15
3017,15
3018,15
3019,15
3020,15
3021,15
3022,15
3023,15
3024,15
3025,15
3026,15
3027,15
3028,15
3029,15
3030,15
3031,15
3032,15
3033,15
3034,15
3035,15
3036,15
3037,15
3038,15
3039,15
3040,15
3041,15
3042,15
3043,15
3044,15
3045,15
3046,15
3047,15
3048,15
3049,15
3050,15
3051,15
3052,15
3053,15
3054,15
3055,15
3056,15
3057,15
3058,15
3059,15
3060,15
3061,15
3062,15
3063,15
3064,15
3065,15
3066,15
3067,15
3068,15
3069,15
3070,15
3071,15
3072,15
3073,15
3074,15
3075,15
3076,15
3077,15
3078,15
3079,15
3080,15
3081,15
3082,15
3083,15
3084,15
3085,15
3086,15
3087,15
3088,15
3089,15
3090,15
3091,15
3092,15
3093,15
3094,15
3095,15
3096,15
3097,15
3098,15
3099,15
3100,15
3101,15
3102,15
3103,15
3104,15
3105,15
3106,15
3107,15
3108,15
3109,15
3110,15
3111,15
3112,15
3113,15
3114,15
3115,15
3116,15
3117,15
3118,15
3119,15
3120,15
3121,15
3122,15
3123,15
3124,15
3125,15
3126,15
3127,15
3128,15
3129,15
3130,15
3131,15
3132,15
3133,15
3134,15
3135,15
3136,15
3137,15
3138,15
3139,15
3140,15
3141,15
3142,15
3143,15
3144,15
3145,15
3146,15
3147,15
3148,15
3149,15
3150,15
3151,15
3152,15
3153,15
3154,15
3155,15
3156,15
3157,15
3158,15
3159,15
3160,15
3161,15
3162,15
3163,15
3164,15
3165,15
3166,15
3167,15
3168,15
3169,15
3170,15
3171,15
3172,15
3173,15
3174,15
3175,15
3176,15
3177,15
3178,15
3179,15
3180,15
3181,15
3182,15
3183,15
3184,15
3185,15
3186,15
3187,15
3188,15
3189,15
3190,15
3191,15
3192,15
3193,15
3194,15
3195,15
3196,15
3197,15
3198,16
3199,16
3200,16
3201,16
3202,16
3203,16
3204,15
3205,15
3206,15
3207,15
3208,15
3209,15
3210,15
3211,15
3212,15
3213,15
3214,15
3215,15
3216,15
3217,15
3218,15
3219,15
3220,15
3221,15
3222,15
3223,15
3224,15
3225,15
3226,15
3227,15
3228,15
3229,16
3230,16
3231,16
3232,16
3233,16
3234,16
3235,15
3236,15
3237,15
3238,15
3239,15
3240,15
3241,15
3242,15
3243,15
3244,15
3245,15
3246,15
3247,15
3248,15
3249,15
3250,15
3251,15
3252,15
3253,15
3254,15
3255,15
3256,15
3257,15
3258,15
3259,15
3260,15
3261,15
3262,15
3263,15
3264,15
3265,15
3266,15
3267,15
3268,15
3269,15
3270,15
3271,15
3272,15
3273,15
3274,15
3275,15
3276,15
3277,15
3278,15
3279,15
3280,15
3281,15
3282,15
3283,15
3284,15
3285,15
3286,15
3287,15
3288,15
3289,15
3290,15
3291,15
3292,15
3293,15
3294,15
3295,15
3296,15
3297,15
3298,15
3299,15
3300,15
3301,15
3302,15
3303,15
3304,15
3305,15
3306,15
3307,15
3308,15
3309,15
3310,15
3311,15
3312,15
3313,15
3314,15
3315,15
3316,15
3317,15
3318,15
3319,15
3320,15
3321,15
3322,15
3323,15
3324,15
3325,15
3326,15
3327,15
3328,15
3329,15
3330,15
3331,15
3332,15
3333,15
3334,15
3335,15
3336,15
3337,15
3338,15
3339,15
3340,15
3341,15
3342,15
3343,15
3344,15
3345,15
3346,15
3347,15
3348,15
3349,15
3350,15
3351,15
3352,15
3353,15
3354,15
3355,15
3356,15
3357,15
3358,15
3359,15
3360,15
3361,15
3362,15
3363,15
3364,15
3365,15
3366,15
3367,15
3368,15
3369,15
3370,15
3371,15
3372,15
3373,15
3374,15
3375,15
3376,15
3377,15
3378,15
3379,15
3380,15
3381,15
3382,15
3383,15
3384,15
3385,15
3386,15
3387,15
3388,15
3389,15
3390,15
3391,15
3392,15
3393,15
3394,15
3395,15
3396,15
3397,15
3398,15
3399,15
3400,15
3401,15
3402,15
3403,15
3404,15
3405,15
3406,15
3407,15
3408,15
3409,15
3410,15
3411,15
3412,15
3413,15
3414,15
3415,15
3416,15
3417,15
3418,15
3419,15
3420,15
3421,15
3422,15
3423,15
3424,15
3425,15
3426,15
3427,15
3428,15
3429,15
3430,15
3431,16
3432,16
3433,16
3434,16
3435,15
3436,15
3437,16
3438,16
3439,16
3440,16
3441,16
3442,16
3443,16
3444,16
3445,16
3446,16
3447,16
3448,16
3449,16
3450,16
3451,16
3452,16
3453,16
3454,16
3455,16
3456,16
3457,16
3458,16
3459,16
3460,16
3461,16
3462,16
3463,16
3464,16
3465,16
3466,16
3467,16
3468,16
3469,16
3470,16
3471,16
3472,16
3473,16
3474,16
3475,16
3476,16
3477,16
3478,16
3479,16
3480,16
3481,16
3482,16
3483,16
3484,16
3485,16
3486,16
3487,16
3488,16
3489,16
3490,16
3491,16
3492,16
3493,16
3494,16
3495,16
3496,16
3497,16
3498,16
3499,16
3500,16
3501,16
3502,16
3503,16
3504,16
3505,16
3506,16
3507,16
3508,16
3509,16
3510,16
3511,16
3512,16
3513,16
3514,16
3515,16
3516,16
3517,16
3518,16
3519,16
3520,16
3521,16
3522,16
3523,16
3524,16
3525,16
3526,16
3527,16
3528,16
3529,16
3530,16
3531,16
3532,16
3533,16
3534,16
3535,16
3536,16
3537,16
3538,16
3539,16
3540,16
3541,16
3542,16
3543,16
3544,16
3545,16
3546,16
3547,16
3548,16
3549,16
3550,16
3551,16
3552,16
3553,16
3554,16
3555,16
3556,16
3557,16
3558,16
3559,16
3560,16
3561,16
3562,16
3563,16
3564,16
3565,16
3566,16
3567,16
3568,16
3569,16
3570,16
3571,16
3572,16
3573,16
3574,16
3575,16
3576,16
3577,16
3578,16
3579,16
3580,16
3581,16
3582,16
3583,16
3584,16
3585,16
3586,16
3587,16
3588,16
3589,16
3590,16
3591,16
3592,16
3593,16
3594,16
3595,16
3596,16
3597,16
3598,16
3599,16
3600,16
3601,16
3602,16
3603,16
3604,16
3605,16
3606,16
3607,16
3608,16
3609,16
3610,16
3611,16
3612,16
3613,16
3614,16
3615,16
3616,16
3617,16
3618,16
3619,16
3620,16
3621,16
3622,16
3623,16
3624,16
3625,16
3626,16
3627,16
3628,16
3629,16
3630,16
3631,16
3632,16
3633,16
3634,16
3635,16
3636,16
3637,16
3638,16
3639,16
3640,16
3641,16
3642,16
3643,16
3644,16
3645,16
3646,16
3647,16
3648,16
3649,16
3650,16
3651,16
3652,16
3653,16
3654,16
3655,16
3656,16
3657,16
3658,16
3659,16
3660,16
3661,16
3662,16
3663,16
3664,16
3665,16
3666,16
3667,16
3668,16
3669,16
3670,16
3671,16
3672,16
3673,16
3674,16
3675,16
3676,16
3677,16
3678,16
3679,16
3680,16
3681,16
3682,16
3683,16
3684,16
3685,16
3686,16
3687,16
3688,16
3689,16
3690,16
3691,17
3692,16
3693,16
3694,16
3695,16
3696,16
3697,16
3698,16
3699,16
3700,16
3701,16
3702,16
3703,16
3704,16
3705,16
3706,16
3707,16
3708,16
3709,16
3710,16
3711,16
3712,16
3713,16
3714,16
3715,16
3716,16
3717,16
3718,16
3719,16
3720,16
3721,16
3722,16
3723,16
3724,16
3725,16
3726,16
3727,16
3728,16
3729,16
3730,16
3731,16
3732,16
3733,16
3734,16
3735,16
3736,16
3737,16
3738,16
3739,16
3740,16
3741,16
3742,16
3743,16
3744,16
3745,16
3746,16
3747,17
3748,16
3749,16
3750,16
3751,16
3752,16
3753,16
3754,16
3755,16
3756,16
3757,16
3758,16
3759,16
3760,16
3761,16
3762,16
3763,16
3764,16
3765,16
3766,16
3767,16
3768,16
3769,16
3770,16
3771,16
3772,16
3773,17
3774,17
3775,16
3776,16
3777,16
3778,16
3779,16
3780,16
3781,16
3782,16
3783,16
3784,16
3785,16
3786,16
3787,16
3788,16
3789,16
3790,16
3791,16
3792,16
3793,16
3794,16
3795,16
3796,16
3797,16
3798,16
3799,16
3800,16
3801,16
3802,16
3803,16
3804,16
3805,16
3806,16
3807,16
3808,16
3809,16
3810,16
3811,16
3812,16
3813,16
3814,16
3815,16
3816,16
3817,16
3818,16
3819,16
3820,16
3821,16
3822,16
3823,16
3824,16
3825,16
3826,16
3827,16
3828,16
3829,16
3830,16
3831,16
3832,16
3833,16
3834,16
3835,16
3836,16
3837,16
3838,16
3839,16
3840,16
3841,16
3842,16
3843,16
3844,16
3845,16
3846,16
3847,16
3848,16
3849,16
3850,16
3851,16
3852,16
3853,16
3854,16
3855,16
3856,16
3857,16
3858,16
3859,16
3860,16
3861,16
3862,16
3863,16
3864,16
3865,16
3866,16
3867,16
3868,16
3869,16
3870,16
3871,16
3872,16
3873,16
3874,16
3875,16
3876,16
3877,16
3878,16
3879,16
3880,16
3881,16
3882,16
3883,16
3884,16
3885,16
3886,16
3887,16
3888,16
3889,16
3890,16
3891,16
3892,16
3893,16
3894,16
3895,16
3896,16
3897,16
3898,16
3899,16
3900,16
3901,16
3902,16
3903,16
3904,16
3905,16
3906,16
3907,16
3908,16
3909,16
3910,16
3911,16
3912,16
3913,16
3914,16
3915,16
3916,16
3917,16
3918,16
3919,16
3920,16
3921,16
3922,16
3923,16
3924,16
3925,16
3926,16
3927,16
3928,16
3929,16
3930,16
3931,16
3932,16
3933,16
3934,16
3935,16
3936,16
3937,16
3938,16
3939,17
3940,17
3941,17
3942,17
3943,17
3944,17
3945,17
3946,17
3947,17
3948,17
3949,17
3950,17
3951,17
3952,17
3953,17
3954,17
3955,17
3956,17
3957,17
3958,17
3959,17
3960,17
3961,17
3962,17
3963,17
3964,16
3965,16
3966,16
3967,16
3968,16
3969,16
3970,16
3971,16
3972,16
3973,16
3974,16
3975,16
3976,16
3977,16
3978,16
3979,16
3980,16
3981,16
3982,16
3983,16
3984,16
3985,16
3986,16
3987,16
3988,16
3989,16
3990,16
3991,16
3992,16
3993,16
3994,16
3995,16
3996,16
3997,16
3998,16
3999,16
4000,16
4001,16
4002,16
4003,16
4004,16
4005,16
4006,16
4007,16
4008,16
4009,16
4010,16
4011,16
4012,16
4013,16
4014,16
4015,16
4016,17
4017,17
4018,17
4019,16
4020,16
4021,16
4022,16
4023,16
4024,16
4025,16
4026,16
4027,16
4028,16
4029,16
4030,16
4031,16
4032,16
4033,16
4034,16
4035,16
4036,16
4037,16
4038,16
4039,16
4040,16
4041,16
4042,16
4043,16
4044,16
4045,16
4046,16
4047,16
4048,16
4049,16
4050,16
4051,16
4052,16
4053,16
4054,16
4055,16
4056,16
4057,16
4058,16
4059,16
4060,16
4061,16
4062,16
4063,16
4064,16
4065,16
4066,16
4067,16
4068,16
4069,16
4070,16
4071,16
4072,16
4073,16
4074,16
4075,16
4076,16
4077,16
4078,16
4079,16
4080,16
4081,16
4082,16
4083,16
4084,16
4085,16
4086,16
4087,16
4088,16
4089,16
4090,16
4091,16
4092,16
4093,16
4094,16
4095,16
4096,16
4097,16
4098,16
4099,16
4100,16
4101,16
4102,16
4103,16
4104,16
4105,16
4106,16
4107,16
4108,16
4109,16
4110,16
4111,16
4112,16
4113,16
4114,16
4115,16
4116,16
4117,16
4118,16
4119,16
4120,16
4121,16
4122,16
4123,16
4124,16
4125,16
4126,16
4127,16
4128,16
4129,16
4130,16
4131,16
4132,16
4133,16
4134,16
4135,16
4136,16
4137,16
4138,16
4139,16
4140,16
4141,16
4142,16
4143,16
4144,16
4145,16
4146,16
4147,16
4148,17
4149,16
4150,16
4151,16
4152,16
4153,16
4154,16
4155,16
4156,16
4157,16
4158,16
4159,16
4160,16
4161,16
4162,16
4163,16
4164,16
4165,16
4166,16
4167,16
4168,16
4169,16
4170,16
4171,16
4172,16
4173,16
4174,16
4175,16
4176,16
4177,16
4178,16
4179,16
4180,16
4181,16
4182,16
4183,16
4184,16
4185,16
4186,16
4187,16
4188,16
4189,16
4190,16
4191,16
4192,16
4193,16
4194,16
4195,16
4196,16
4197,16
4198,16
4199,16
4200,16
4201,16
4202,16
4203,16
4204,16
4205,16
4206,16
4207,16
4208,16
4209,16
4210,16
4211,16
4212,16
4213,16
4214,16
4215,16
4216,16
4217,16
4218,16
4219,16
4220,16
4221,16
4222,16
4223,16
4224,16
4225,16
4226,16
4227,16
4228,16
4229,16
4230,16
4231,16
4232,16
4233,16
4234,16
4235,16
4236,16
4237,16
4238,16
4239,16
4240,16
4241,16
4242,16
4243,16
4244,16
4245,16
4246,16
4247,16
4248,16
4249,16
4250,16
4251,16
4252,16
4253,16
4254,16
4255,16
4256,16
4257,16
4258,16
4259,16
4260,16
4261,16
4262,16
4263,16
4264,17
4265,16
4266,16
4267,16
4268,16
4269,16
4270,16
4271,16
4272,16
4273,16
4274,16
4275,16
4276,16
4277,17
4278,17
4279,17
4280,17
4281,16
4282,16
4283,16
4284,16
4285,16
4286,16
4287,16
4288,16
4289,16
4290,16
4291,16
4292,16
4293,16
4294,16
4295,16
4296,16
4297,16
4298,16
4299,16
4300,16
4301,16
4302,16
4303,16
4304,16
4305,16
4306,16
4307,16
4308,16
4309,16
4310,16
4311,16
4312,16
4313,16
4314,16
4315,16
4316,16
4317,16
4318,16
4319,16
4320,16
4321,16
4322,16
4323,16
4324,16
4325,16
4326,16
4327,16
4328,16
4329,16
4330,16
4331,16
4332,16
4333,16
4334,16
4335,16
4336,16
4337,16
4338,16
4339,16
4340,16
4341,16
4342,16
4343,16
4344,16
4345,16
4346,16
4347,16
4348,16
4349,16
4350,16
4351,16
4352,16
4353,16
4354,16
4355,16
4356,16
4357,16
4358,17
4359,17
4360,17
4361,17
4362,16
4363,16
4364,16
4365,16
4366,16
4367,16
4368,16
4369,16
4370,16
4371,16
4372,16
4373,16
4374,16
4375,16
4376,16
4377,16
4378,16
4379,16
4380,16
4381,16
4382,16
4383,16
4384,16
4385,16
4386,16
4387,16
4388,16
4389,16
4390,16
4391,16
4392,16
4393,16
4394,16
4395,16
4396,16
4397,16
4398,16
4399,16
4400,16
4401,16
4402,16
4403,16
4404,16
4405,16
4406,16
4407,16
4408,16
4409,16
4410,16
4411,16
4412,16
4413,16
4414,16
4415,16
4416,16
4417,16
4418,16
4419,16
4420,16
4421,16
4422,16
4423,16
4424,16
4425,16
4426,16
4427,16
4428,16
4429,16
4430,16
4431,16
4432,16
4433,17
4434,17
4435,17
4436,16
4437,16
4438,16
4439,16
4440,16
4441,16
4442,16
4443,16
4444,16
4445,16
4446,16
4447,16
4448,16
4449,16
4450,16
4451,16
4452,16
4453,16
4454,16
4455,16
4456,16
4457,16
4458,16
4459,16
4460,16
4461,16
4462,16
4463,16
4464,16
4465,16
4466,16
4467,16
4468,16
4469,16
4470,16
4471,16
4472,16
4473,16
4474,16
4475,16
4476,16
4477,16
4478,16
4479,16
4480,16
4481,16
4482,16
4483,16
4484,16
4485,16
4486,16
4487,16
4488,16
4489,16
4490,16
4491,16
4492,16
4493,16
4494,16
4495,16
4496,16
4497,16
4498,16
4499,16
4500,16
4501,16
4502,16
4503,16
4504,16
4505,16
4506,16
4507,16
4508,16
4509,16
4510,16
4511,16
4512,16
4513,16
4514,16
4515,16
4516,16
4517,16
4518,16
4519,16
4520,16
4521,16
4522,16
4523,16
4524,16
4525,17
4526,16
4527,16
4528,16
4529,16
4530,16
4531,16
4532,16
4533,16
4534,16
4535,16
4536,16
4537,16
4538,16
4539,16
4540,16
4541,16
4542,16
4543,16
4544,16
4545,16
4546,16
4547,16
4548,16
4549,16
4550,16
4551,16
4552,16
4553,16
4554,16
4555,16
4556,16
4557,16
4558,16
4559,16
4560,16
4561,16
4562,16
4563,16
4564,16
4565,16
4566,16
4567,16
4568,16
4569,16
4570,16
4571,16
4572,16
4573,16
4574,16
4575,16
4576,16
4577,16
4578,16
4579,16
4580,16
4581,16
4582,16
4583,16
4584,16
4585,16
4586,16
4587,16
4588,16
4589,16
4590,16
4591,16
4592,16
4593,16
4594,16
4595,16
4596,16
4597,16
4598,16
4599,16
4600,16
4601,16
4602,16
4603,16
4604,16
4605,16
4606,16
4607,16
4608,16
4609,16
4610,16
4611,16
4612,16
4613,16
4614,16
4615,16
4616,16
4617,16
4618,16
4619,16
4620,16
4621,16
4622,16
4623,16
4624,16
4625,16
4626,16
4627,16
4628,16
4629,16
4630,16
4631,16
4632,16
4633,16
4634,16
4635,16
4636,16
4637,16
4638,16
4639,16
4640,16
4641,16
4642,16
4643,16
4644,16
4645,16
4646,16
4647,16
4648,16
4649,16
4650,16
4651,16
4652,16
4653,16
4654,16
4655,16
4656,16
4657,16
4658,16
4659,16
4660,16
4661,16
4662,16
4663,16
4664,16
4665,16
4666,16
4667,16
4668,16
4669,16
4670,16
4671,16
4672,16
4673,16
4674,16
4675,16
4676,16
4677,16
4678,16
4679,16
4680,16
4681,16
4682,16
4683,16
4684,16
4685,16
4686,16
4687,16
4688,16
4689,16
4690,16
4691,16
4692,16
4693,16
4694,16
4695,16
4696,16
4697,16
4698,16
4699,16
4700,16
4701,16
4702,16
4703,16
4704,16
4705,16
4706,16
4707,16
4708,16
4709,16
4710,16
4711,16
4712,16
4713,16
4714,16
4715,16
4716,16
4717,16
4718,16
4719,16
4720,16
4721,16
4722,16
4723,16
4724,16
4725,16
4726,16
4727,16
4728,16
4729,16
4730,16
4731,16
4732,16
4733,16
4734,16
4735,16
4736,16
4737,16
4738,16
4739,16
4740,16
4741,16
4742,16
4743,16
4744,16
4745,16
4746,16
4747,16
4748,16
4749,16
4750,16
4751,16
4752,16
4753,16
4754,16
4755,16
4756,16
4757,16
4758,16
4759,16
4760,16
4761,16
4762,16
4763,16
4764,16
4765,16
4766,16
4767,16
4768,16
4769,16
4770,16
4771,16
4772,16
4773,16
4774,16
4775,17
4776,16
4777,16
4778,16
4779,16
4780,16
4781,16
4782,16
4783,16
4784,16
4785,16
4786,16
4787,16
4788,16
4789,16
4790,16
4791,16
4792,16
4793,16
4794,16
4795,16
4796,16
4797,16
4798,16
4799,16
4800,16
4801,16
4802,16
4803,16
4804,16
4805,16
4806,16
4807,16
4808,16
4809,16
4810,16
4811,16
4812,16
4813,16
4814,16
4815,16
4816,16
4817,16
4818,16
4819,16
4820,16
4821,16
4822,16
4823,16
4824,16
4825,16
4826,16
4827,16
4828,16
4829,16
4830,16
4831,16
4832,16
4833,16
4834,16
4835,16
4836,16
4837,16
4838,16
4839,16
4840,16
4841,16
4842,16
4843,16
4844,16
4845,16
4846,16
4847,16
4848,16
4849,16
4850,16
4851,16
4852,16
4853,16
4854,16
4855,16
4856,16
4857,16
4858,16
4859,16
4860,16
4861,16
4862,16
4863,16
4864,16
4865,16
4866,16
4867,16
4868,16
4869,16
4870,16
4871,16
4872,16
4873,16
4874,16
4875,16
4876,16
4877,16
4878,16
4879,16
4880,16
4881,16
4882,16
4883,16
4884,16
4885,16
4886,16
4887,16
4888,16
4889,16
4890,16
4891,16
4892,16
4893,16
4894,16
4895,16
4896,16
4897,16
4898,16
4899,16
4900,16
4901,16
4902,16
4903,16
4904,16
4905,16
4906,16
4907,17
4908,17
4909,17
4910,16
4911,16
4912,16
4913,16
4914,16
4915,16
4916,16
4917,16
4918,16
4919,16
4920,16
4921,16
4922,16
4923,16
4924,16
4925,16
4926,16
4927,16
4928,16
4929,16
4930,16
4931,16
4932,16
4933,16
4934,16
4935,16
4936,16
4937,16
4938,16
4939,16
4940,16
4941,16
4942,16
4943,16
4944,16
4945,16
4946,16
4947,16
4948,16
4949,16
4950,16
4951,16
4952,16
4953,16
4954,16
4955,16
4956,16
4957,16
4958,16
4959,16
4960,16
4961,16
4962,16
4963,16
4964,16
4965,16
4966,16
4967,16
4968,16
4969,16
4970,16
4971,16
4972,16
4973,16
4974,16
4975,16
4976,16
4977,16
4978,16
4979,16
4980,16
4981,16
4982,16
4983,16
4984,16
4985,16
4986,16
4987,16
4988,17
4989,17
4990,17
4991,17
4992,17
4993,17
4994,17
4995,17
4996,17
4997,17
4998,17
4999,17
5000,17
5001,17
5002,17
5003,17
5004,17
5005,17
5006,17
5007,17
5008,17
5009,17
5010,17
5011,17
5012,17
5013,17
5014,17
5015,17
5016,17
5017,17
5018,17
5019,17
5020,17
5021,17
5022,17
5023,17
5024,17
5025,17
5026,17
5027,17
5028,17
5029,17
5030,17
5031,17
5032,17
5033,17
5034,17
5035,17
5036,17
5037,17
5038,17
5039,17
5040,18
5041,18
5042,18
5043,18
5044,18
5045,18
5046,18
5047,18
5048,18
5049,18
5050,17
5051,17
5052,17
5053,17
5054,17
5055,17
5056,17
5057,17
5058,17
5059,17
5060,17
5061,18
5062,18
5063,18
5064,18
5065,18
5066,18
5067,18
5068,18
5069,18
5070,17
5071,17
5072,17
5073,17
5074,17
5075,17
5076,17
5077,17
5078,17
5079,17
5080,17
5081,17
5082,17
5083,17
5084,17
5085,17
5086,17
5087,17
5088,17
5089,17
5090,17
5091,17
5092,17
5093,17
5094,17
5095,17
5096,17
5097,17
5098,17
5099,17
5100,17
5101,17
5102,17
5103,17
5104,17
5105,17
5106,17
5107,17
5108,17
5109,17
5110,17
5111,17
5112,17
5113,17
5114,17
5115,17
5116,17
5117,17
5118,17
5119,17
5120,17
5121,17
5122,17
5123,17
5124,17
5125,17
5126,17
5127,17
5128,17
5129,17
5130,17
5131,17
5132,17
5133,17
5134,17
5135,17
5136,17
5137,17
5138,17
5139,17
5140,17
5141,17
5142,17
5143,17
5144,17
5145,17
5146,17
5147,17
5148,18
5149,18
5150,18
5151,18
5152,18
5153,18
5154,18
5155,18
5156,18
5157,18
5158,18
5159,18
5160,18
5161,18
5162,18
5163,18
5164,18
5165,17
5166,17
5167,17
5168,17
5169,17
5170,17
5171,17
5172,17
5173,17
5174,17
5175,17
5176,17
5177,17
5178,17
5179,17
5180,17
5181,17
5182,17
5183,17
5184,17
5185,17
5186,17
5187,17
5188,17
5189,17
5190,17
5191,17
5192,17
5193,17
5194,17
5195,17
5196,17
5197,17
5198,17
5199,17
5200,17
5201,17
5202,17
5203,17
5204,17
5205,17
5206,17
5207,17
5208,17
5209,17
5210,17
5211,17
5212,17
5213,17
5214,17
5215,17
5216,17
5217,17
5218,17
5219,17
5220,17
5221,17
5222,17
5223,17
5224,17
5225,17
5226,17
5227,17
5228,18
5229,18
5230,18
5231,18
5232,18
5233,18
5234,18
5235,18
5236,18
5237,18
5238,18
5239,18
5240,18
5241,18
5242,18
5243,18
5244,18
5245,18
5246,18
5247,18
5248,18
5249,18
5250,18
5251,18
5252,18
5253,18
5254,18
5255,18
5256,18
5257,18
5258,18
5259,18
5260,18
5261,18
5262,18
5263,18
5264,18
5265,18
5266,18
5267,18
5268,18
5269,18
5270,18
5271,18
5272,18
5273,18
5274,18
5275,18
5276,18
5277,18
5278,18
5279,18
5280,18
5281,18
5282,18
5283,18
5284,18
5285,18
5286,19
5287,19
5288,19
5289,19
5290,19
5291,19
5292,19
5293,19
5294,19
5295,19
5296,19
5297,19
5298,20
5299,20
5300,20
5301,20
5302,20
5303,20
5304,19
5305,19
5306,19
5307,19
5308,19
5309,19
5310,19
5311,19
5312,19
5313,19
5314,19
5315,19
5316,19
5317,19
5318,19
5319,19
5320,19
5321,19
5322,19
5323,19
5324,19
5325,19
5326,19
5327,19
5328,19
5329,19
5330,19
5331,19
5332,19
5333,19
5334,19
5335,19
5336,19
5337,19
5338,19
5339,19
5340,19
5341,19
5342,19
5343,19
5344,19
5345,19
5346,19
5347,19
5348,19
5349,19
5350,19
5351,20
5352,19
5353,19
5354,19
5355,19
5356,19
5357,19
5358,19
5359,19
5360,19
5361,19
5362,19
5363,19
5364,19
5365,19
5366,19
5367,19
5368,19
5369,19
5370,19
5371,19
5372,19
5373,19
5374,19
5375,19
5376,19
5377,19
5378,19
5379,19
5380,19
5381,19
5382,19
5383,19
5384,19
5385,19
5386,19
5387,19
5388,19
5389,19
5390,19
5391,19
5392,19
5393,19
5394,19
5395,19
5396,19
5397,19
5398,19
5399,19
5400,19
5401,19
5402,19
5403,19
5404,19
5405,19
5406,20
5407,20
5408,20
5409,20
5410,20
5411,20
5412,20
5413,20
5414,20
5415,20
5416,20
5417,20
5418,20
5419,20
5420,19
5421,19
5422,19
5423,19
5424,19
5425,19
5426,19
5427,19
5428,19
5429,19
5430,19
5431,19
5432,19
5433,19
5434,19
5435,19
5436,19
5437,19
5438,19
5439,19
5440,19
5441,19
5442,19
5443,19
5444,19
5445,19
5446,19
5447,19
5448,19
5449,19
5450,19
5451,19
5452,19
5453,19
5454,19
5455,19
5456,19
5457,19
5458,19
5459,19
5460,19
5461,19
5462,19
5463,19
5464,19
5465,19
5466,19
5467,19
5468,19
5469,19
5470,19
5471,19
5472,19
5473,19
5474,19
5475,19
5476,19
5477,19
5478,19
5479,19
5480,19
5481,19
5482,19
5483,19
5484,19
5485,19
5486,19
5487,19
5488,19
5489,19
5490,19
5491,19
5492,19
5493,19
5494,19
5495,19
5496,19
5497,19
5498,19
5499,19
5500,19
5501,19
5502,19
5503,19
5504,19
5505,19
5506,20
5507,20
5508,20
5509,19
5510,19
5511,19
5512,19
5513,19
5514,19
5515,19
5516,19
5517,19
5518,19
5519,19
5520,19
5521,19
5522,19
5523,19
5524,19
5525,19
5526,19
5527,19
5528,19
5529,19
5530,19
5531,19
5532,19
5533,19
5534,19
5535,19
5536,19
5537,19
5538,19
5539,19
5540,19
5541,19
5542,19
5543,19
5544,19
5545,19
5546,19
5547,19
5548,19
5549,19
5550,19
5551,19
5552,19
5553,19
5554,19
5555,19
5556,20
5557,19
5558,19
5559,19
5560,19
5561,19
5562,19
5563,19
5564,19
5565,19
5566,19
5567,19
5568,19
5569,19
5570,19
5571,19
5572,19
5573,19
5574,19
5575,19
5576,19
5577,19
5578,19
5579,19
5580,19
5581,19
5582,19
5583,19
5584,19
5585,19
5586,20
5587,19
5588,19
5589,19
5590,19
5591,19
5592,19
5593,19
5594,19
5595,19
5596,19
5597,19
5598,19
5599,19
5600,19
5601,19
5602,19
5603,19
5604,19
5605,19
5606,19
5607,19
5608,19
5609,19
5610,19
5611,19
5612,19
5613,19
5614,19
5615,19
5616,19
5617,19
5618,19
5619,19
5620,19
5621,19
5622,19
5623,20
5624,20
5625,20
5626,19
5627,19
5628,19
5629,19
5630,19
5631,19
5632,19
5633,19
5634,19
5635,19
5636,19
5637,19
5638,19
5639,19
5640,19
5641,19
5642,19
5643,19
5644,19
5645,19
5646,19
5647,19
5648,19
5649,19
5650,19
5651,19
5652,19
5653,19
5654,19
5655,19
5656,19
5657,19
5658,19
5659,19
5660,19
5661,19
5662,19
5663,19
5664,19
5665,19
5666,19
5667,19
5668,19
5669,19
5670,19
5671,19
5672,19
5673,19
5674,19
5675,19
5676,19
5677,19
5678,19
5679,19
5680,19
5681,19
5682,19
5683,19
5684,19
5685,19
5686,19
5687,19
5688,19
5689,19
5690,19
5691,19
5692,19
5693,19
5694,19
5695,19
5696,19
5697,19
5698,19
5699,19
5700,19
5701,19
5702,19
5703,19
5704,19
5705,19
5706,19
5707,19
5708,19
5709,19
5710,19
5711,19
5712,19
5713,19
5714,19
5715,19
5716,19
5717,19
5718,19
5719,19
5720,19
5721,19
5722,19
5723,19
5724,19
5725,19
5726,19
5727,19
5728,19
5729,19
5730,19
5731,19
5732,19
5733,19
5734,19
5735,19
5736,19
5737,19
5738,19
5739,19
5740,19
5741,19
5742,19
5743,19
5744,19
5745,19
5746,19
5747,19
5748,19
5749,19
5750,19
5751,19
5752,19
5753,19
5754,19
5755,19
5756,19
5757,19
5758,19
5759,19
5760,19
5761,19
5762,19
5763,19
5764,19
5765,19
5766,19
5767,19
5768,19
5769,19
5770,19
5771,19
5772,19
5773,19
5774,19
5775,19
5776,19
5777,19
5778,19
5779,19
5780,19
5781,19
5782,19
5783,19
5784,19
5785,19
5786,19
5787,19
5788,19
5789,19
5790,19
5791,19
5792,19
5793,19
5794,19
5795,19
5796,19
5797,19
5798,19
5799,19
5800,19
5801,19
5802,19
5803,19
5804,19
5805,19
5806,19
5807,19
5808,19
5809,19
5810,19
5811,19
5812,19
5813,19
5814,19
5815,19
5816,19
5817,19
5818,19
5819,19
5820,19
5821,19
5822,19
5823,19
5824,19
5825,19
5826,19
5827,19
5828,19
5829,19
5830,19
5831,19
5832,19
5833,19
5834,19
5835,19
5836,19
5837,19
5838,19
5839,19
5840,19
5841,19
5842,19
5843,19
5844,19
5845,19
5846,19
5847,19
5848,19
5849,19
5850,19
5851,19
5852,19
5853,19
5854,19
5855,19
5856,19
5857,19
5858,19
5859,19
5860,19
5861,19
5862,19
5863,19
5864,19
5865,19
5866,19
5867,19
5868,19
5869,19
5870,19
5871,19
5872,19
5873,19
5874,19
5875,19
5876,19
5877,19
5878,19
5879,19
5880,19
5881,19
5882,19
5883,19
5884,19
5885,19
5886,20
5887,20
5888,20
5889,19
5890,19
5891,19
5892,19
5893,19
5894,19
5895,19
5896,19
5897,19
5898,19
5899,19
5900,19
5901,19
5902,19
5903,19
5904,19
5905,19
5906,19
5907,19
5908,19
5909,19
5910,19
5911,19
5912,19
5913,19
5914,19
5915,19
5916,19
5917,19
5918,19
5919,19
5920,19
5921,19
5922,19
5923,19
5924,19
5925,19
5926,19
5927,19
5928,20
5929,20
5930,20
5931,20
5932,20
5933,20
5934,20
5935,20
5936,20
5937,20
5938,20
5939,20
5940,20
5941,20
5942,20
5943,20
5944,20
5945,20
5946,20
5947,20
5948,20
5949,20
5950,20
5951,20
5952,20
5953,20
5954,20
5955,20
5956,20
5957,21
5958,21
5959,21
5960,21
5961,21
5962,21
5963,21
5964,21
5965,21
5966,21
5967,21
5968,21
5969,21
5970,21
5971,21
5972,21
5973,21
5974,20
5975,20
5976,20
5977,20
5978,20
5979,20
5980,20
5981,20
5982,20
5983,20
5984,20
5985,20
5986,20
5987,20
5988,20
5989,20
5990,20
5991,20
5992,20
5993,20
5994,20
5995,20
5996,20
5997,20
5998,20
5999,20
6000,20
6001,20
6002,20
6003,20
6004,20
6005,20
6006,20
6007,20
6008,20
6009,20
6010,20
6011,20
6012,20
6013,20
6014,20
6015,20
6016,20
6017,20
6018,20
6019,20
6020,20
6021,20
6022,20
6023,20
6024,20
6025,20
6026,20
6027,20
6028,21
6029,20
6030,20
6031,20
6032,20
6033,20
6034,20
6035,20
6036,20
6037,20
6038,20
6039,20
6040,20
6041,20
6042,20
6043,20
6044,20
6045,20
6046,20
6047,20
6048,20
6049,20
6050,20
6051,20
6052,20
6053,20
6054,20
6055,20
6056,20
6057,20
6058,20
6059,20
6060,20
6061,20
6062,20
6063,20
6064,20
6065,20
6066,20
6067,20
6068,20
6069,20
6070,20
6071,20
6072,20
6073,20
6074,20
6075,20
6076,20
6077,20
6078,20
6079,20
6080,20
6081,20
6082,20
6083,20
6084,20
6085,20
6086,20
6087,20
6088,20
6089,20
6090,20
6091,20
6092,20
6093,20
6094,20
6095,20
6096,20
6097,20
6098,20
6099,20
6100,20
6101,20
6102,20
6103,20
6104,20
6105,20
6106,20
6107,20
6108,20
6109,20
6110,20
6111,20
6112,20
6113,20
6114,20
6115,20
6116,20
6117,20
6118,20
6119,20
6120,20
6121,20
6122,20
6123,20
6124,20
6125,20
6126,21
6127,21
6128,20
6129,20
6130,20
6131,20
6132,20
6133,20
6134,20
6135,20
6136,20
6137,21
6138,21
6139,20
6140,20
6141,20
6142,20
6143,20
6144,20
6145,20
6146,20
6147,20
6148,20
6149,20
6150,20
6151,20
6152,20
6153,20
6154,20
6155,20
6156,20
6157,20
6158,20
6159,20
6160,20
6161,20
6162,20
6163,20
6164,20
6165,20
6166,20
6167,20
6168,20
6169,20
6170,20
6171,20
6172,20
6173,20
6174,20
6175,20
6176,20
6177,20
6178,20
6179,20
6180,20
6181,20
6182,20
6183,20
6184,20
6185,20
6186,20
6187,20
6188,20
6189,20
6190,20
6191,20
6192,20
6193,20
6194,20
6195,20
6196,20
6197,20
6198,20
6199,20
6200,20
6201,20
6202,20
6203,20
6204,20
6205,20
6206,20
6207,20
6208,20
6209,20
6210,20
6211,20
6212,20
6213,20
6214,20
6215,20
6216,20
6217,20
6218,20
6219,20
6220,20
6221,20
6222,20
6223,20
6224,20
6225,20
6226,20
6227,20
6228,20
6229,20
6230,20
6231,20
6232,20
6233,20
6234,20
6235,20
6236,20
6237,20
6238,20
6239,20
6240,20
6241,20
6242,20
6243,20
6244,20
6245,20
6246,20
6247,20
6248,20
6249,20
6250,20
6251,20
6252,20
6253,20
6254,20
6255,20
6256,20
6257,20
6258,20
6259,20
6260,20
6261,20
6262,20
6263,20
6264,20
6265,20
6266,20
6267,20
6268,20
6269,20
6270,20
6271,20
6272,20
6273,20
6274,20
6275,20
6276,20
6277,20
6278,20
6279,20
6280,20
6281,20
6282,20
6283,20
6284,20
6285,20
6286,20
6287,20
6288,20
6289,20
6290,20
6291,20
6292,20
6293,20
6294,20
6295,20
6296,20
6297,20
6298,20
6299,20
6300,20
6301,20
6302,20
6303,20
6304,20
6305,20
6306,20
6307,20
6308,20
6309,20
6310,20
6311,20
6312,20
6313,20
6314,20
6315,20
6316,20
6317,20
6318,20
6319,20
6320,20
6321,20
6322,20
6323,20
6324,20
6325,20
6326,20
6327,20
6328,20
6329,20
6330,20
6331,20
6332,20
6333,20
6334,20
6335,20
6336,20
6337,20
6338,20
6339,20
6340,20
6341,20
6342,20
6343,20
6344,20
6345,20
6346,20
6347,20
6348,20
6349,20
6350,20
6351,20
6352,20
6353,20
6354,20
6355,20
6356,20
6357,20
6358,20
6359,20
6360,20
6361,20
6362,20
6363,20
6364,20
6365,20
6366,20
6367,20
6368,20
6369,20
6370,20
6371,20
6372,20
6373,20
6374,20
6375,20
6376,20
6377,20
6378,20
6379,20
6380,20
6381,20
6382,20
6383,20
6384,20
6385,20
6386,20
6387,20
6388,20
6389,20
6390,20
6391,20
6392,20
6393,20
6394,21
6395,21
6396,21
6397,21
6398,21
6399,21
6400,21
6401,21
6402,21
6403,21
6404,20
6405,20
6406,20
6407,20
6408,20
6409,20
6410,20
6411,20
6412,20
6413,20
6414,20
6415,20
6416,20
6417,20
6418,20
6419,20
6420,20
6421,20
6422,20
6423,20
6424,20
6425,20
6426,20
6427,20
6428,20
6429,20
6430,20
6431,20
6432,20
6433,20
6434,20
6435,20
6436,20
6437,20
6438,20
6439,20
6440,20
6441,20
6442,20
6443,20
6444,20
6445,20
6446,20
6447,20
6448,20
6449,20
6450,20
6451,20
6452,20
6453,20
6454,20
6455,20
6456,20
6457,20
6458,20
6459,20
6460,20
6461,20
6462,20
6463,20
6464,20
6465,20
6466,20
6467,20
6468,20
6469,20
6470,20
6471,20
6472,20
6473,20
6474,20
6475,20
6476,20
6477,20
6478,20
6479,20
6480,20
6481,20
6482,20
6483,20
6484,20
6485,20
6486,20
6487,20
6488,20
6489,20
6490,20
6491,20
6492,20
6493,20
6494,20
6495,20
6496,20
6497,20
6498,20
6499,20
6500,20
6501,20
6502,20
6503,20
6504,20
6505,20
6506,20
6507,20
6508,20
6509,20
6510,20
6511,20
6512,20
6513,20
6514,20
6515,20
6516,20
6517,20
6518,20
6519,20
6520,20
6521,20
6522,20
6523,20
6524,20
6525,20
6526,20
6527,20
6528,20
6529,21
6530,20
6531,20
6532,20
6533,20
6534,20
6535,20
6536,20
6537,20
6538,20
6539,20
6540,20
6541,20
6542,20
6543,20
6544,20
6545,20
6546,20
6547,20
6548,20
6549,20
6550,20
6551,20
6552,20
6553,20
6554,20
6555,20
6556,20
6557,20
6558,20
6559,20
6560,20
6561,20
6562,20
6563,20
6564,21
6565,21
6566,21
6567,21
6568,21
6569,21
6570,21
6571,21
6572,21
6573,21
6574,21
6575,21
6576,21
6577,21
6578,21
6579,21
6580,21
6581,21
6582,21
6583,21
6584,21
6585,21
6586,21
6587,20
6588,20
6589,20
6590,20
6591,20
6592,20
6593,21
6594,20
6595,20
6596,20
6597,20
6598,20
6599,20
6600,20
6601,20
6602,20
6603,20
6604,20
6605,20
6606,20
6607,20
6608,20
6609,20
6610,20
6611,20
6612,20
6613,20
6614,20
6615,20
6616,20
6617,20
6618,20
6619,20
6620,20
6621,20
6622,20
6623,20
6624,20
6625,20
6626,20
6627,20
6628,20
6629,21
6630,21
6631,20
6632,20
6633,20
6634,20
6635,20
6636,20
6637,20
6638,20
6639,20
6640,20
6641,20
6642,20
6643,20
6644,20
6645,20
6646,20
6647,20
6648,20
6649,20
6650,20
6651,20
6652,20
6653,20
6654,20
6655,20
6656,20
6657,20
6658,20
6659,20
6660,20
6661,20
6662,20
6663,20
6664,20
6665,20
6666,20
6667,20
6668,20
6669,20
6670,20
6671,20
6672,20
6673,20
6674,20
6675,20
6676,20
6677,20
6678,20
6679,20
6680,20
6681,20
6682,20
6683,20
6684,20
6685,20
6686,20
6687,20
6688,20
6689,20
6690,20
6691,20
6692,20
6693,20
6694,20
6695,20
6696,20
6697,20
6698,20
6699,20
6700,20
6701,20
6702,20
6703,20
6704,20
6705,20
6706,20
6707,20
6708,20
6709,20
6710,20
6711,20
6712,20
6713,20
6714,20
6715,20
6716,20
6717,20
6718,20
6719,20
6720,20
6721,20
6722,20
6723,20
6724,20
6725,20
6726,20
6727,20
6728,20
6729,20
6730,20
6731,20
6732,20
6733,20
6734,20
6735,21
6736,21
6737,21
6738,21
6739,21
6740,21
6741,21
6742,21
6743,21
6744,21
6745,21
6746,21
6747,21
6748,21
6749,21
6750,21
6751,21
6752,21
6753,21
6754,21
6755,21
6756,21
6757,21
6758,21
6759,21
6760,21
6761,21
6762,21
6763,21
6764,21
6765,21
6766,21
6767,21
6768,21
6769,21
6770,21
6771,21
6772,21
6773,21
6774,21
6775,21
6776,21
6777,21
6778,21
6779,21
6780,21
6781,21
6782,21
6783,21
6784,21
6785,21
6786,21
6787,21
6788,21
6789,21
6790,21
6791,21
6792,21
6793,21
6794,21
6795,21
6796,21
6797,21
6798,21
6799,21
6800,21
6801,21
6802,21
6803,21
6804,21
6805,21
6806,21
6807,21
6808,21
6809,21
6810,21
6811,21
6812,21
6813,21
6814,21
6815,21
6816,21
6817,21
6818,21
6819,21
6820,21
6821,21
6822,21
6823,21
6824,21
6825,21
6826,21
6827,21
6828,21
6829,21
6830,21
6831,21
6832,21
6833,21
6834,21
6835,21
6836,21
6837,21
6838,21
6839,21
6840,21
6841,21
6842,21
6843,21
6844,21
6845,21
6846,21
6847,21
6848,21
6849,21
6850,21
6851,21
6852,21
6853,21
6854,21
6855,21
6856,21
6857,21
6858,21
6859,21
6860,21
6861,21
6862,21
6863,21
6864,21
6865,21
6866,21
6867,21
6868,22
6869,22
6870,22
6871,22
6872,22
6873,22
6874,22
6875,22
6876,22
6877,22
6878,22
6879,22
6880,23
6881,23
6882,23
6883,23
6884,23
6885,22
6886,22
6887,22
6888,22
6889,22
6890,22
6891,22
6892,22
6893,22
6894,22
6895,22
6896,22
6897,22
6898,22
6899,22
6900,22
6901,22
6902,22
6903,22
6904,22
6905,22
6906,22
6907,22
6908,22
6909,22
6910,22
6911,22
6912,22
6913,22
6914,22
6915,22
6916,22
6917,22
6918,22
6919,22
6920,22
6921,22
6922,22
6923,22
6924,22
6925,22
6926,22
6927,22
6928,22
6929,22
6930,22
6931,22
6932,22
6933,22
6934,22
6935,22
6936,22
6937,22
6938,22
6939,22
6940,22
6941,22
6942,22
6943,22
6944,22
6945,22
6946,22
6947,22
6948,22
6949,22
6950,22
6951,22
6952,22
6953,23
6954,23
6955,22
6956,22
6957,22
6958,22
6959,22
6960,22
6961,22
6962,22
6963,22
6964,22
6965,22
6966,22
6967,22
6968,22
6969,22
6970,22
6971,22
6972,22
6973,22
6974,22
6975,22
6976,22
6977,22
6978,22
6979,22
6980,22
6981,22
6982,22
6983,22
6984,22
6985,22
6986,22
6987,22
6988,22
6989,22
6990,22
6991,22
6992,22
6993,22
6994,22
6995,22
6996,22
6997,22
6998,22
6999,22
7000,22
7001,22
7002,22
7003,22
7004,23
7005,23
7006,22
7007,22
7008,22
7009,22
7010,22
7011,22
7012,22
7013,22
7014,22
7015,22
7016,22
7017,22
7018,22
7019,22
7020,22
7021,22
7022,22
7023,22
7024,22
7025,22
7026,22
7027,22
7028,22
7029,22
7030,22
7031,22
7032,22
7033,22
7034,22
7035,22
7036,22
7037,22
7038,22
7039,22
7040,22
7041,22
7042,22
7043,22
7044,22
7045,22
7046,22
7047,22
7048,22
7049,22
7050,22
7051,22
7052,22
7053,22
7054,22
7055,22
7056,22
7057,22
7058,22
7059,22
7060,22
7061,22
7062,22
7063,22
7064,22
7065,22
7066,22
7067,22
7068,22
7069,22
7070,22
7071,22
7072,22
7073,22
7074,22
7075,22
7076,22
7077,22
7078,22
7079,22
7080,22
7081,22
7082,22
7083,22
7084,22
7085,22
7086,22
7087,22
7088,22
7089,22
7090,22
7091,22
7092,22
7093,22
7094,22
7095,22
7096,22
7097,22
7098,22
7099,22
7100,22
7101,22
7102,22
7103,22
7104,22
7105,22
7106,22
7107,22
7108,22
7109,22
7110,23
7111,23
7112,23
7113,23
7114,23
7115,23
7116,23
7117,23
7118,23
7119,23
7120,23
7121,23
7122,23
7123,23
7124,23
7125,23
7126,23
7127,23
7128,23
7129,23
7130,23
7131,23
7132,23
7133,23
7134,23
7135,23
7136,23
7137,23
7138,23
7139,23
7140,23
7141,23
7142,23
7143,23
7144,23
7145,23
7146,23
7147,23
7148,23
7149,23
7150,23
7151,23
7152,23
7153,23
7154,23
7155,23
7156,23
7157,23
7158,23
7159,23
7160,23
7161,23
7162,23
7163,23
7164,23
7165,23
7166,23
7167,23
7168,23
7169,23
7170,23
7171,23
7172,23
7173,23
7174,23
7175,23
7176,23
7177,23
7178,23
7179,23
7180,23
7181,23
7182,23
7183,23
7184,23
7185,23
7186,23
7187,23
7188,23
7189,23
7190,23
7191,23
7192,23
7193,23
7194,23
7195,23
7196,23
7197,23
7198,23
7199,23
7200,23
7201,23
7202,23
7203,23
7204,23
7205,23
7206,23
7207,23
7208,23
7209,23
7210,23
7211,23
7212,23
7213,23
7214,23
7215,23
7216,23
7217,23
7218,23
7219,23
7220,23
7221,23
7222,23
7223,23
7224,23
7225,23
7226,23
7227,23
7228,23
7229,23
7230,23
7231,23
7232,23
7233,23
7234,24
7235,24
7236,24
7237,24
7238,24
7239,24
7240,24
7241,24
7242,24
7243,24
7244,24
7245,24
7246,24
7247,24
7248,24
7249,24
7250,24
7251,23
7252,23
7253,23
7254,23
7255,23
7256,23
7257,23
7258,23
7259,23
7260,23
7261,23
7262,23
7263,23
7264,23
7265,23
7266,23
7267,23
7268,23
7269,23
7270,23
7271,23
7272,23
7273,23
7274,23
7275,23
7276,23
7277,23
7278,23
7279,23
7280,23
7281,23
7282,23
7283,23
7284,23
7285,23
7286,23
7287,23
7288,23
7289,23
7290,23
7291,23
7292,23
7293,23
7294,23
7295,23
7296,23
7297,23
7298,23
7299,23
7300,23
7301,23
7302,23
7303,23
7304,23
7305,23
7306,23
7307,23
7308,23
7309,23
7310,23
7311,23
7312,23
7313,23
7314,23
7315,23
7316,23
7317,23
7318,23
7319,23
7320,23
7321,23
7322,23
7323,23
7324,23
7325,23
7326,23
7327,23
7328,23
7329,23
7330,23
7331,23
7332,23
7333,23
7334,23
7335,23
7336,23
7337,23
7338,23
7339,23
7340,23
7341,23
7342,23
7343,23
7344,23
7345,23
7346,23
7347,23
7348,23
7349,23
7350,23
7351,23
7352,23
7353,23
7354,23
7355,23
7356,23
7357,23
7358,23
7359,23
7360,23
7361,23
7362,23
7363,23
7364,23
7365,23
7366,23
7367,23
7368,23
7369,23
7370,23
7371,23
7372,23
7373,23
7374,23
7375,23
7376,23
7377,23
7378,23
7379,23
7380,23
7381,23
7382,23
7383,23
7384,23
7385,23
7386,23
7387,23
7388,23
7389,23
7390,23
7391,23
7392,23
7393,23
7394,23
7395,23
7396,23
7397,23
7398,23
7399,23
7400,23
7401,23
7402,23
7403,23
7404,23
7405,23
7406,23
7407,23
7408,23
7409,23
7410,23
7411,23
7412,23
7413,23
7414,23
7415,23
7416,23
7417,23
7418,23
7419,23
7420,23
7421,23
7422,23
7423,23
7424,23
7425,23
7426,23
7427,23
7428,23
7429,23
7430,23
7431,23
7432,23
7433,23
7434,23
7435,23
7436,23
7437,23
7438,23
7439,23
7440,23
7441,23
7442,23
7443,23
7444,23
7445,23
7446,23
7447,23
7448,23
7449,23
7450,23
7451,23
7452,23
7453,23
7454,23
7455,23
7456,23
7457,23
7458,23
7459,23
7460,23
7461,23
7462,23
7463,23
7464,23
7465,23
7466,23
7467,23
7468,23
7469,23
7470,23
7471,23
7472,23
7473,23
7474,23
7475,23
7476,23
7477,23
7478,23
7479,23
7480,23
7481,23
7482,23
7483,23
7484,23
7485,23
7486,23
7487,23
7488,23
7489,23
7490,23
7491,23
7492,23
7493,23
7494,23
7495,23
7496,23
7497,23
7498,23
7499,23
7500,23
7501,23
7502,23
7503,23
7504,23
7505,23
7506,23
7507,23
7508,23
7509,23
7510,23
7511,23
7512,23
7513,23
7514,23
7515,23
7516,23
7517,23
7518,23
7519,23
7520,24
7521,23
7522,23
7523,23
7524,23
7525,23
7526,23
7527,23
7528,23
7529,23
7530,23
7531,23
7532,23
7533,23
7534,23
7535,23
7536,23
7537,23
7538,23
7539,23
7540,23
7541,23
7542,23
7543,23
7544,23
7545,23
7546,23
7547,23
7548,23
7549,23
7550,23
7551,23
7552,23
7553,23
7554,23
7555,23
7556,23
7557,23
7558,23
7559,23
7560,23
7561,23
7562,23
7563,23
7564,23
7565,23
7566,23
7567,23
7568,23
7569,23
7570,23
7571,23
7572,23
7573,23
7574,23
7575,23
7576,23
7577,23
7578,23
7579,23
7580,23
7581,23
7582,23
7583,23
7584,23
7585,23
7586,23
7587,23
7588,23
7589,23
7590,23
7591,23
7592,23
7593,23
7594,24
7595,23
7596,23
7597,23
7598,23
7599,23
7600,23
7601,23
7602,23
7603,23
7604,23
7605,23
7606,23
7607,23
7608,23
7609,23
7610,23
7611,23
7612,23
7613,23
7614,23
7615,23
7616,23
7617,23
7618,23
7619,23
7620,23
7621,23
7622,23
7623,23
7624,23
7625,23
7626,23
7627,23
7628,23
7629,23
7630,23
7631,23
7632,23
7633,23
7634,23
7635,23
7636,23
7637,23
7638,23
7639,23
7640,23
7641,23
7642,23
7643,23
7644,23
7645,23
7646,23
7647,23
7648,23
7649,23
7650,23
7651,23
7652,23
7653,23
7654,23
7655,23
7656,23
7657,23
7658,23
7659,23
7660,23
7661,23
7662,23
7663,23
7664,23
7665,23
7666,23
7667,23
7668,23
7669,23
7670,23
7671,23
7672,23
7673,23
7674,23
7675,23
7676,23
7677,23
7678,23
7679,23
7680,23
7681,23
7682,23
7683,23
7684,23
7685,23
7686,23
7687,23
7688,23
7689,23
7690,23
7691,23
7692,23
7693,23
7694,23
7695,23
7696,23
7697,23
7698,23
7699,23
7700,23
7701,23
7702,23
7703,23
7704,23
7705,23
7706,23
7707,23
7708,23
7709,23
7710,23
7711,23
7712,23
7713,23
7714,23
7715,23
7716,23
7717,23
7718,23
7719,23
7720,23
7721,23
7722,23
7723,23
7724,23
7725,23
7726,23
7727,23
7728,23
7729,23
7730,23
7731,23
7732,23
7733,23
7734,23
7735,23
7736,23
7737,23
7738,23
7739,23
7740,23
7741,23
7742,23
7743,23
7744,23
7745,23
7746,23
7747,23
7748,23
7749,24
7750,24
7751,24
7752,24
7753,24
7754,24
7755,24
7756,24
7757,24
7758,24
7759,24
7760,24
7761,24
7762,24
7763,23
7764,23
7765,23
7766,23
7767,23
7768,23
7769,23
7770,23
7771,23
7772,23
7773,23
7774,23
7775,23
7776,23
7777,23
7778,23
7779,23
7780,23
7781,23
7782,23
7783,23
7784,23
7785,23
7786,23
7787,23
7788,23
7789,23
7790,24
7791,24
7792,23
7793,23
7794,23
7795,23
7796,23
7797,23
7798,23
7799,23
7800,23
7801,23
7802,23
7803,23
7804,23
7805,23
7806,23
7807,23
7808,23
7809,23
7810,23
7811,23
7812,23
7813,23
7814,23
7815,23
7816,24
7817,23
7818,23
7819,23
7820,23
7821,23
7822,23
7823,23
7824,23
7825,23
7826,23
7827,23
7828,23
7829,23
7830,23
7831,23
7832,23
7833,23
7834,23
7835,23
7836,23
7837,23
7838,23
7839,23
7840,23
7841,23
7842,23
7843,23
7844,23
7845,23
7846,23
7847,23
7848,23
7849,23
7850,23
7851,23
7852,23
7853,23
7854,23
7855,23
7856,23
7857,23
7858,23
7859,23
7860,23
7861,23
7862,23
7863,23
7864,23
7865,23
7866,23
7867,23
7868,23
7869,23
7870,23
7871,23
7872,23
7873,23
7874,23
7875,23
7876,23
7877,23
7878,23
7879,23
7880,23
7881,23
7882,23
7883,23
7884,23
7885,23
7886,23
7887,23
7888,23
7889,23
7890,23
7891,23
7892,23
7893,23
7894,23
7895,23
7896,23
7897,23
7898,23
7899,23
7900,23
7901,23
7902,23
7903,23
7904,23
7905,23
7906,23
7907,23
7908,23
7909,23
7910,23
7911,23
7912,23
7913,23
7914,23
7915,23
7916,23
7917,23
7918,23
7919,23
7920,23
7921,23
7922,23
7923,23
7924,23
7925,23
7926,23
7927,23
7928,23
7929,23
7930,23
7931,23
7932,23
7933,23
7934,23
7935,23
7936,23
7937,23
7938,23
7939,23
7940,23
7941,23
7942,23
7943,23
7944,23
7945,23
7946,23
7947,23
7948,23
7949,23
7950,23
7951,23
7952,23
7953,23
7954,23
7955,23
7956,23
7957,23
7958,23
7959,23
7960,23
7961,23
7962,23
7963,23
7964,23
7965,23
7966,23
7967,23
7968,23
7969,23
7970,23
7971,23
7972,24
7973,24
7974,23
7975,23
7976,23
7977,23
7978,23
7979,23
7980,23
7981,24
7982,23
7983,23
7984,23
7985,23
7986,23
7987,23
7988,23
7989,23
7990,23
7991,23
7992,23
7993,23
7994,23
7995,23
7996,23
7997,23
7998,23
7999,23
8000,23
8001,23
8002,23
8003,23
8004,23
8005,23
8006,23
8007,23
8008,23
8009,23
8010,23
8011,23
8012,23
8013,23
8014,23
8015,23
8016,23
8017,23
8018,23
8019,23
8020,23
8021,23
8022,23
8023,23
8024,23
8025,23
8026,23
8027,23
8028,23
8029,23
8030,23
8031,23
8032,23
8033,23
8034,23
8035,23
8036,23
8037,23
8038,23
8039,23
8040,23
8041,23
8042,23
8043,23
8044,23
8045,23
8046,23
8047,23
8048,23
8049,23
8050,23
8051,23
8052,23
8053,23
8054,23
8055,23
8056,23
8057,23
8058,23
8059,23
8060,23
8061,23
8062,23
8063,23
8064,23
8065,23
8066,23
8067,23
8068,23
8069,23
8070,23
8071,23
8072,23
8073,23
8074,23
8075,23
8076,23
8077,23
8078,23
8079,23
8080,23
8081,23
8082,23
8083,23
8084,23
8085,23
8086,23
8087,23
8088,23
8089,23
8090,23
8091,23
8092,23
8093,23
8094,23
8095,23
8096,23
8097,23
8098,23
8099,23
8100,23
8101,23
8102,23
8103,23
8104,23
8105,23
8106,23
8107,23
8108,23
8109,23
8110,23
8111,23
8112,23
8113,23
8114,23
8115,23
8116,23
8117,23
8118,23
8119,23
8120,23
8121,23
8122,23
8123,23
8124,23
8125,24
8126,23
8127,23
8128,23
8129,23
8130,23
8131,23
8132,23
8133,23
8134,23
8135,23
8136,23
8137,23
8138,23
8139,23
8140,23
8141,23
8142,23
8143,23
8144,23
8145,23
8146,23
8147,23
8148,23
8149,23
8150,23
8151,23
8152,23
8153,23
8154,23
8155,23
8156,23
8157,23
8158,23
8159,23
8160,23
8161,23
8162,23
8163,23
8164,23
8165,23
8166,23
8167,23
8168,23
8169,23
8170,23
8171,23
8172,23
8173,23
8174,23
8175,23
8176,23
8177,23
8178,23
8179,23
8180,23
8181,23
8182,23
8183,23
8184,23
8185,23
8186,23
8187,23
8188,23
8189,23
8190,23
8191,23
8192,23
8193,23
8194,23
8195,23
8196,23
8197,23
8198,23
8199,23
8200,23
8201,23
8202,23
8203,23
8204,23
8205,23
8206,23
8207,23
8208,23
8209,23
8210,23
8211,23
8212,23
8213,23
8214,23
8215,23
8216,23
8217,23
8218,23
8219,23
8220,23
8221,23
8222,23
8223,23
8224,23
8225,23
8226,23
8227,23
8228,23
8229,23
8230,23
8231,23
8232,23
8233,23
8234,23
8235,23
8236,23
8237,23
8238,23
8239,23
8240,23
8241,23
8242,23
8243,23
8244,23
8245,23
8246,23
8247,23
8248,23
8249,23
8250,23
8251,23
8252,23
8253,23
8254,23
8255,23
8256,23
8257,23
8258,23
8259,23
8260,23
8261,23
8262,23
8263,23
8264,23
8265,23
8266,23
8267,23
8268,23
8269,23
8270,23
8271,23
8272,23
8273,23
8274,23
8275,23
8276,23
8277,23
8278,23
8279,23
8280,23
8281,23
8282,23
8283,23
8284,23
8285,23
8286,23
8287,23
8288,23
8289,23
8290,23
8291,23
8292,23
8293,23
8294,23
8295,23
8296,23
8297,23
8298,23
8299,23
8300,23
8301,23
8302,23
8303,23
8304,23
8305,23
8306,24
8307,23
8308,23
8309,23
8310,23
8311,23
8312,23
8313,23
8314,23
8315,23
8316,23
8317,23
8318,23
8319,23
8320,23
8321,23
8322,23
8323,23
8324,23
8325,23
8326,23
8327,23
8328,23
8329,23
8330,23
8331,23
8332,23
8333,23
8334,23
8335,23
8336,23
8337,23
8338,23
8339,23
8340,23
8341,23
8342,23
8343,23
8344,23
8345,23
8346,23
8347,23
8348,23
8349,23
8350,23
8351,23
8352,23
8353,23
8354,23
8355,23
8356,23
8357,23
8358,23
8359,23
8360,23
8361,23
8362,23
8363,23
8364,23
8365,23
8366,23
8367,23
8368,23
8369,23
8370,23
8371,23
8372,23
8373,23
8374,23
8375,23
8376,23
8377,23
8378,23
8379,23
8380,23
8381,23
8382,23
8383,23
8384,23
8385,24
8386,23
8387,23
8388,23
8389,23
8390,23
8391,23
8392,23
8393,23
8394,23
8395,23
8396,23
8397,23
8398,23
8399,23
8400,23
8401,23
8402,23
8403,23
8404,23
8405,23
8406,23
8407,23
8408,23
8409,23
8410,23
8411,23
8412,23
8413,23
8414,23
8415,23
8416,23
8417,23
8418,23
8419,23
8420,23
8421,23
8422,23
8423,23
8424,23
8425,23
8426,23
8427,23
8428,23
8429,23
8430,23
8431,23
8432,23
8433,23
8434,24
8435,24
8436,24
8437,24
8438,24
8439,24
8440,24
8441,24
8442,24
8443,24
8444,24
8445,24
8446,24
8447,24
8448,24
8449,24
8450,24
8451,24
8452,24
8453,24
8454,24
8455,24
8456,25
8457,25
8458,25
8459,25
8460,25
8461,25
8462,25
8463,25
8464,25
8465,25
8466,26
8467,26
8468,25
8469,25
8470,24
8471,24
8472,24
8473,24
8474,24
8475,24
8476,24
8477,24
8478,24
8479,24
8480,24
8481,24
8482,24
8483,24
8484,24
8485,24
8486,24
8487,24
8488,24
8489,24
8490,24
8491,24
8492,24
8493,24
8494,24
8495,24
8496,24
8497,24
8498,24
8499,24
8500,24
8501,24
8502,24
8503,24
8504,24
8505,24
8506,24
8507,24
8508,24
8509,24
8510,24
8511,24
8512,24
8513,24
8514,24
8515,24
8516,24
8517,24
8518,24
8519,24
8520,24
8521,24
8522,24
8523,24
8524,24
8525,24
8526,24
8527,24
8528,24
8529,24
8530,24
8531,24
8532,24
8533,24
8534,24
8535,24
8536,24
8537,24
8538,24
8539,24
8540,24
8541,24
8542,24
8543,24
8544,24
8545,24
8546,24
8547,24
8548,24
8549,24
8550,24
8551,24
8552,24
8553,24
8554,24
8555,24
8556,24
8557,24
8558,24
8559,24
8560,24
8561,24
8562,24
8563,24
8564,24
8565,24
8566,24
8567,24
8568,24
8569,24
8570,24
8571,24
8572,24
8573,24
8574,24
8575,24
8576,24
8577,24
8578,24
8579,24
8580,24
8581,24
8582,24
8583,24
8584,24
8585,24
8586,24
8587,24
8588,24
8589,24
8590,24
8591,24
8592,24
8593,24
8594,24
8595,24
8596,24
8597,24
8598,24
8599,24
8600,24
8601,24
8602,24
8603,24
8604,24
8605,24
8606,24
8607,24
8608,24
8609,24
8610,24
8611,24
8612,24
8613,24
8614,24
8615,24
8616,24
8617,24
8618,24
8619,24
8620,24
8621,24
8622,24
8623,24
8624,24
8625,24
8626,24
8627,24
8628,24
8629,24
8630,24
8631,24
8632,24
8633,24
8634,24
8635,24
8636,24
8637,24
8638,24
8639,24
8640,24
8641,24
8642,24
8643,24
8644,24
8645,24
8646,24
8647,24
8648,24
8649,24
8650,24
8651,24
8652,24
8653,24
8654,24
8655,24
8656,24
8657,24
8658,24
8659,24
8660,24
8661,24
8662,24
8663,24
8664,24
8665,24
8666,24
8667,24
8668,24
8669,24
8670,24
8671,24
8672,24
8673,24
8674,24
8675,24
8676,24
8677,24
8678,24
8679,24
8680,24
8681,24
8682,24
8683,24
8684,24
8685,24
8686,24
8687,24
8688,24
8689,24
8690,24
8691,24
8692,24
8693,24
8694,24
8695,24
8696,24
8697,24
8698,24
8699,24
8700,24
8701,24
8702,24
8703,24
8704,24
8705,24
8706,24
8707,24
8708,24
8709,24
8710,24
8711,24
8712,24
8713,24
8714,24
8715,24
8716,24
8717,25
8718,25
8719,25
8720,25
8721,25
8722,25
8723,24
8724,24
8725,24
8726,24
8727,24
8728,24
8729,24
8730,24
8731,24
8732,24
8733,24
8734,24
8735,24
8736,24
8737,24
8738,24
8739,24
8740,24
8741,24
8742,24
8743,24
8744,24
8745,24
8746,24
8747,24
8748,24
8749,24
8750,24
8751,24
8752,24
8753,24
8754,24
8755,24
8756,24
8757,24
8758,24
8759,24
8760,24
8761,24
8762,24
8763,24
8764,24
8765,24
8766,24
8767,24
8768,24
8769,24
8770,24
8771,24
8772,24
8773,24
8774,24
8775,24
8776,24
8777,24
8778,24
8779,24
8780,24
8781,24
8782,24
8783,24
8784,25
8785,25
8786,25
8787,24
8788,24
8789,24
8790,24
8791,24
8792,24
8793,24
8794,24
8795,24
8796,24
8797,24
8798,24
8799,24
8800,24
8801,24
8802,24
8803,24
8804,24
8805,24
8806,24
8807,24
8808,24
8809,24
8810,24
8811,24
8812,24
8813,24
8814,24
8815,24
8816,24
8817,24
8818,24
8819,24
8820,24
8821,24
8822,24
8823,24
8824,24
8825,24
8826,24
8827,24
8828,24
8829,24
8830,24
8831,24
8832,25
8833,24
8834,24
8835,24
8836,24
8837,24
8838,24
8839,24
8840,24
8841,24
8842,24
8843,24
8844,24
8845,24
8846,24
8847,24
8848,24
8849,24
8850,24
8851,24
8852,24
8853,24
8854,24
8855,24
8856,25
8857,24
8858,24
8859,24
8860,24
8861,24
8862,24
8863,24
8864,24
8865,24
8866,24
8867,24
8868,24
8869,24
8870,24
8871,24
8872,24
8873,24
8874,24
8875,24
8876,24
8877,24
8878,24
8879,24
8880,24
8881,24
8882,24
8883,24
8884,24
8885,24
8886,24
8887,24
8888,24
8889,24
8890,24
8891,24
8892,24
8893,24
8894,24
8895,24
8896,24
8897,24
8898,24
8899,24
8900,24
8901,24
8902,24
8903,24
8904,24
8905,24
8906,24
8907,24
8908,24
8909,24
8910,24
8911,24
8912,24
8913,24
8914,24
8915,24
8916,24
8917,24
8918,24
8919,24
8920,24
8921,24
8922,24
8923,24
8924,24
8925,25
8926,24
8927,24
8928,24
8929,24
8930,24
8931,24
8932,24
8933,24
8934,24
8935,24
8936,24
8937,24
8938,24
8939,24
8940,24
8941,24
8942,24
8943,24
8944,24
8945,24
8946,24
8947,24
8948,24
8949,24
8950,24
8951,24
8952,24
8953,24
8954,24
8955,24
8956,24
8957,24
8958,24
8959,24
8960,24
8961,24
8962,24
8963,24
8964,24
8965,24
8966,24
8967,24
8968,24
8969,24
8970,24
8971,24
8972,24
8973,24
8974,24
8975,24
8976,24
8977,24
8978,24
8979,24
8980,24
8981,24
8982,24
8983,24
8984,24
8985,24
8986,24
8987,24
8988,24
8989,24
8990,24
8991,24
8992,24
8993,24
8994,24
8995,24
8996,24
8997,24
8998,24
8999,24
9000,24
9001,24
9002,24
9003,24
9004,24
9005,24
9006,24
9007,24
9008,24
9009,24
9010,24
9011,24
9012,24
9013,24
9014,24
9015,24
9016,24
9017,24
9018,24
9019,24
9020,24
9021,24
9022,24
9023,24
9024,24
9025,24
9026,24
9027,24
9028,24
9029,24
9030,24
9031,24
9032,24
9033,24
9034,24
9035,24
9036,25
9037,25
9038,24
9039,24
9040,24
9041,24
9042,24
9043,24
9044,24
9045,24
9046,24
9047,24
9048,24
9049,24
9050,24
9051,24
9052,24
9053,24
9054,24
9055,24
9056,24
9057,24
9058,24
9059,25
9060,24
9061,24
9062,24
9063,24
9064,24
9065,24
9066,24
9067,24
9068,24
9069,24
9070,24
9071,24
9072,24
9073,24
9074,24
9075,24
9076,24
9077,24
9078,24
9079,24
9080,24
9081,24
9082,24
9083,24
9084,24
9085,24
9086,24
9087,24
9088,24
9089,24
9090,24
9091,24
9092,24
9093,25
9094,24
9095,24
9096,24
9097,24
9098,24
9099,24
9100,24
9101,24
9102,24
9103,24
9104,24
9105,24
9106,24
9107,24
9108,24
9109,24
9110,24
9111,24
9112,24
9113,24
9114,24
9115,24
9116,24
9117,24
9118,24
9119,24
9120,24
9121,24
9122,24
9123,24
9124,24
9125,24
9126,24
9127,24
9128,24
9129,24
9130,24
9131,24
9132,24
9133,24
9134,24
9135,24
9136,24
9137,24
9138,24
9139,24
9140,24
9141,24
9142,24
9143,24
9144,24
9145,24
9146,24
9147,24
9148,24
9149,24
9150,24
9151,24
9152,24
9153,24
9154,24
9155,24
9156,24
9157,24
9158,24
9159,24
9160,24
9161,24
9162,24
9163,24
9164,24
9165,24
9166,24
9167,24
9168,24
9169,24
9170,24
9171,24
9172,24
9173,24
9174,24
9175,24
9176,24
9177,24
9178,24
9179,24
9180,24
9181,24
9182,24
9183,24
9184,24
9185,24
9186,24
9187,24
9188,24
9189,24
9190,24
9191,24
9192,24
9193,24
9194,24
9195,24
9196,24
9197,24
9198,24
9199,24
9200,24
9201,24
9202,24
9203,24
9204,24
9205,24
9206,24
9207,24
9208,24
9209,24
9210,24
9211,24
9212,24
9213,24
9214,24
9215,24
9216,24
9217,24
9218,24
9219,24
9220,24
9221,24
9222,24
9223,24
9224,24
9225,24
9226,24
9227,24
9228,25
9229,25
9230,25
9231,25
9232,24
9233,24
9234,24
9235,24
9236,24
9237,24
9238,24
9239,24
9240,24
9241,24
9242,24
9243,24
9244,24
9245,24
9246,24
9247,24
9248,24
9249,24
9250,24
9251,24
9252,24
9253,24
9254,24
9255,24
9256,24
9257,24
9258,24
9259,24
9260,24
9261,24
9262,24
9263,24
9264,24
9265,24
9266,24
9267,24
9268,24
9269,24
9270,24
9271,24
9272,24
9273,24
9274,24
9275,24
9276,24
9277,24
9278,24
9279,24
9280,24
9281,24
9282,24
9283,24
9284,24
9285,24
9286,24
9287,24
9288,24
9289,24
9290,24
9291,24
9292,24
9293,24
9294,24
9295,24
9296,24
9297,24
9298,24
9299,24
9300,24
9301,24
9302,24
9303,24
9304,24
9305,24
9306,24
9307,24
9308,24
9309,24
9310,24
9311,24
9312,24
9313,24
9314,24
9315,24
9316,24
9317,24
9318,24
9319,24
9320,24
9321,24
9322,24
9323,24
9324,24
9325,24
9326,24
9327,24
9328,24
9329,24
9330,24
9331,24
9332,24
9333,24
9334,24
9335,24
9336,24
9337,24
9338,24
9339,24
9340,24
9341,24
9342,24
9343,24
9344,24
9345,24
9346,24
9347,24
9348,24
9349,24
9350,24
9351,24
9352,24
9353,24
9354,24
9355,24
9356,24
9357,24
9358,24
9359,24
9360,24
9361,24
9362,24
9363,24
9364,24
9365,24
9366,24
9367,24
9368,24
9369,24
9370,24
9371,24
9372,24
9373,24
9374,24
9375,24
9376,24
9377,24
9378,24
9379,24
9380,24
9381,24
9382,24
9383,24
9384,24
9385,24
9386,24
9387,24
9388,24
9389,24
9390,24
9391,24
9392,24
9393,24
9394,24
9395,24
9396,24
9397,24
9398,24
9399,24
9400,24
9401,24
9402,24
9403,24
9404,24
9405,24
9406,24
9407,24
9408,24
9409,24
9410,24
9411,24
9412,24
9413,24
9414,24
9415,24
9416,24
9417,24
9418,24
9419,24
9420,24
9421,24
9422,24
9423,24
9424,24
9425,24
9426,24
9427,24
9428,24
9429,24
9430,24
9431,24
9432,24
9433,24
9434,25
9435,24
9436,24
9437,24
9438,24
9439,24
9440,24
9441,24
9442,24
9443,24
9444,24
9445,24
9446,24
9447,24
9448,24
9449,24
9450,24
9451,24
9452,24
9453,24
9454,24
9455,24
9456,24
9457,24
9458,24
9459,24
9460,24
9461,24
9462,24
9463,24
9464,24
9465,24
9466,24
9467,24
9468,24
9469,24
9470,24
9471,25
9472,25
9473,24
9474,24
9475,24
9476,24
9477,24
9478,24
9479,24
9480,24
9481,24
9482,24
9483,24
9484,24
9485,24
9486,24
9487,24
9488,24
9489,24
9490,24
9491,24
9492,24
9493,24
9494,24
9495,24
9496,24
9497,24
9498,24
9499,24
9500,24
9501,24
9502,24
9503,24
9504,24
9505,24
9506,24
9507,24
9508,24
9509,24
9510,24
9511,24
9512,24
9513,24
9514,24
9515,24
9516,24
9517,24
9518,24
9519,24
9520,24
9521,24
9522,24
9523,24
9524,24
9525,24
9526,24
9527,24
9528,24
9529,24
9530,24
9531,24
9532,24
9533,24
9534,24
9535,24
9536,24
9537,24
9538,24
9539,24
9540,24
9541,24
9542,24
9543,24
9544,24
9545,24
9546,24
9547,24
9548,24
9549,24
9550,24
9551,24
9552,24
9553,24
9554,24
9555,24
9556,24
9557,24
9558,24
9559,24
9560,24
9561,24
9562,24
9563,24
9564,24
9565,24
9566,24
9567,24
9568,24
9569,24
9570,24
9571,24
9572,24
9573,24
9574,24
9575,24
9576,24
9577,24
9578,24
9579,24
9580,24
9581,24
9582,24
9583,24
9584,24
9585,24
9586,24
9587,24
9588,24
9589,24
9590,24
9591,24
9592,24
9593,24
9594,24
9595,24
9596,24
9597,24
9598,24
9599,24
9600,24
9601,24
9602,24
9603,24
9604,24
9605,24
9606,24
9607,24
9608,24
9609,24
9610,24
9611,24
9612,24
9613,24
9614,24
9615,24
9616,24
9617,24
9618,24
9619,24
9620,24
9621,24
9622,24
9623,24
9624,24
9625,24
9626,24
9627,24
9628,24
9629,24
9630,24
9631,24
9632,24
9633,24
9634,24
9635,24
9636,24
9637,24
9638,24
9639,24
9640,24
9641,24
9642,24
9643,24
9644,24
9645,24
9646,24
9647,24
9648,24
9649,24
9650,24
9651,24
9652,24
9653,24
9654,24
9655,24
9656,24
9657,24
9658,24
9659,24
9660,24
9661,24
9662,24
9663,24
9664,24
9665,24
9666,24
9667,24
9668,24
9669,24
9670,24
9671,24
9672,24
9673,24
9674,24
9675,24
9676,24
9677,24
9678,24
9679,24
9680,24
9681,24
9682,24
9683,24
9684,24
9685,24
9686,24
9687,24
9688,24
9689,24
9690,24
9691,24
9692,24
9693,24
9694,24
9695,24
9696,24
9697,24
9698,24
9699,24
9700,24
9701,24
9702,24
9703,24
9704,24
9705,24
9706,24
9707,24
9708,24
9709,24
9710,24
9711,24
9712,24
9713,24
9714,24
9715,24
9716,25
9717,25
9718,25
9719,25
9720,24
9721,24
9722,24
9723,24
9724,24
9725,24
9726,25
9727,24
9728,24
9729,24
9730,24
9731,24
9732,24
9733,24
9734,24
9735,24
9736,24
9737,24
9738,24
9739,24
9740,24
9741,24
9742,24
9743,24
9744,24
9745,24
9746,24
9747,24
9748,24
9749,24
9750,24
9751,24
9752,24
9753,24
9754,24
9755,24
9756,24
9757,24
9758,24
9759,24
9760,24
9761,24
9762,24
9763,24
9764,24
9765,24
9766,24
9767,24
9768,24
9769,24
9770,24
9771,24
9772,24
9773,24
9774,24
9775,24
9776,24
9777,24
9778,24
9779,24
9780,24
9781,24
9782,24
9783,24
9784,24
9785,24
9786,24
9787,24
9788,24
9789,24
9790,24
9791,24
9792,24
9793,24
9794,24
9795,24
9796,24
9797,24
9798,24
9799,24
9800,24
9801,24
9802,24
9803,24
9804,24
9805,24
9806,24
9807,24
9808,25
9809,25
9810,25
9811,25
9812,25
9813,25
9814,25
9815,25
9816,25
9817,25
9818,25
9819,25
9820,24
9821,24
9822,24
9823,24
9824,24
9825,24
9826,24
9827,24
9828,24
9829,24
9830,24
9831,24
9832,24
9833,24
9834,24
9835,24
9836,24
9837,24
9838,24
9839,24
9840,24
9841,24
9842,24
9843,24
9844,24
9845,24
9846,24
9847,24
9848,24
9849,24
9850,24
9851,24
9852,24
9853,24
9854,24
9855,24
9856,24
9857,24
9858,24
9859,24
9860,24
9861,24
9862,24
9863,24
9864,24
9865,24
9866,25
9867,25
9868,24
9869,25
9870,24
9871,24
9872,24
9873,24
9874,24
9875,24
9876,24
9877,24
9878,24
9879,24
9880,24
9881,24
9882,24
9883,24
9884,24
9885,24
9886,24
9887,24
9888,24
9889,24
9890,24
9891,24
9892,24
9893,24
9894,24
9895,25
9896,25
9897,25
9898,24
9899,24
9900,24
9901,24
9902,24
9903,24
9904,24
9905,24
9906,24
9907,24
9908,24
9909,24
9910,24
9911,24
9912,24
9913,24
9914,24
9915,24
9916,24
9917,24
9918,24
9919,24
9920,24
9921,24
9922,24
9923,25
9924,25
9925,25
9926,25
9927,25
9928,25
9929,25
9930,25
9931,25
9932,25
9933,25
9934,25
9935,25
9936,25
9937,25
9938,25
9939,25
9940,25
9941,25
9942,25
9943,25
9944,25
9945,25
9946,25
9947,25
9948,25
9949,25
9950,25
9951,25
9952,25
9953,25
9954,25
9955,24
9956,24
9957,24
9958,24
9959,24
9960,24
9961,24
9962,24
9963,24
9964,24
9965,24
9966,24
9967,24
9968,24
9969,24
9970,24
9971,24
9972,24
9973,24
9974,24
9975,24
9976,24
9977,24
9978,24
9979,24
9980,24
9981,24
9982,24
9983,24
9984,24
9985,24
9986,24
9987,24
9988,24
9989,24
9990,24
9991,24
9992,24
9993,24
9994,24
9995,24
9996,24
9997,24
9998,24
9999,24
10000,24
