1,3
2,3
3,3
4,3
5,3
6,3
7,3
8,3
9,3
10,3
11,3
12,3
13,3
14,3
15,3
16,3
17,3
18,3
19,3
20,3
21,3
22,3
23,3
24,3
25,3
26,3
27,3
28,3
29,3
30,3
31,4
32,3
33,3
34,3
35,3
36,3
37,3
38,3
39,3
40,3
41,3
42,3
43,3
44,3
45,3
46,3
47,3
48,3
49,3
50,3
51,3
52,3
53,3
54,3
55,3
56,3
57,3
58,3
59,3
60,3
61,3
62,3
63,3
64,3
65,3
66,3
67,3
68,3
69,3
70,3
71,3
72,3
73,3
74,3
75,3
76,3
77,3
78,3
79,3
80,3
81,3
82,3
83,3
84,3
85,3
86,3
87,3
88,3
89,3
90,3
91,3
92,3
93,3
94,3
95,3
96,3
97,3
98,3
99,3
100,3
101,3
102,3
103,3
104,3
105,3
106,3
107,3
108,3
109,3
110,3
111,3
112,3
113,3
114,3
115,3
116,3
117,3
118,3
119,3
120,3
121,3
122,3
123,3
124,3
125,3
126,3
127,3
128,3
129,3
130,3
131,3
132,4
133,4
134,4
135,4
136,4
137,4
138,4
139,4
140,4
141,4
142,4
143,4
144,4
145,4
146,4
147,4
148,4
149,4
150,4
151,4
152,4
153,4
154,4
155,4
156,4
157,4
158,4
159,4
160,4
161,4
162,4
163,4
164,4
165,4
166,4
167,4
168,4
169,4
170,4
171,4
172,4
173,4
174,4
175,4
176,4
177,4
178,4
179,4
180,4
181,4
182,4
183,4
184,4
185,4
186,4
187,4
188,4
189,4
190,4
191,4
192,4
193,4
194,4
195,4
196,4
197,4
198,4
199,4
200,4
201,4
202,4
203,4
204,4
205,4
206,4
207,5
208,5
209,5
210,5
211,5
212,5
213,5
214,5
215,5
216,5
217,5
218,5
219,5
220,5
221,5
222,5
223,5
224,5
225,5
226,5
227,5
228,5
229,5
230,5
231,5
232,5
233,5
234,5
235,5
236,5
237,5
238,5
239,5
240,5
241,5
242,5
243,5
244,5
245,5
246,5
247,5
248,5
249,5
250,5
251,5
252,5
253,5
254,5
255,5
256,5
257,5
258,5
259,5
260,5
261,6
262,6
263,6
264,6
265,6
266,6
267,6
268,6
269,6
270,6
271,6
272,6
273,6
274,6
275,6
276,6
277,6
278,6
279,6
280,6
281,6
282,6
283,6
284,6
285,6
286,6
287,6
288,6
289,6
290,6
291,6
292,6
293,6
294,6
295,6
296,6
297,6
298,6
299,6
300,6
301,6
302,6
303,6
304,6
305,6
306,6
307,6
308,6
309,6
310,6
311,6
312,6
313,6
314,6
315,6
316,6
317,6
318,6
319,6
320,6
321,6
322,6
323,6
324,6
325,6
326,6
327,6
328,6
329,6
330,6
331,6
332,6
333,6
334,6
335,6
336,6
337,6
338,6
339,6
340,6
341,6
342,6
343,6
344,6
345,6
346,6
347,6
348,6
349,6
350,6
351,6
352,7
353,6
354,6
355,6
356,6
357,7
358,7
359,7
360,7
361,7
362,7
363,7
364,7
365,7
366,7
367,7
368,7
369,7
370,7
371,7
372,7
373,7
374,7
375,7
376,7
377,7
378,7
379,7
380,7
381,7
382,7
383,7
384,7
385,7
386,7
387,7
388,7
389,7
390,7
391,7
392,7
393,7
394,7
395,7
396,7
397,7
398,7
399,7
400,7
401,7
402,7
403,7
404,7
405,7
406,7
407,7
408,7
409,7
410,7
411,7
412,7
413,7
414,7
415,7
416,7
417,7
418,7
419,7
420,7
421,7
422,7
423,7
424,7
425,7
426,7
427,7
428,7
429,7
430,7
431,7
432,7
433,7
434,7
435,7
436,7
437,7
438,7
439,7
440,7
441,7
442,7
443,7
444,7
445,7
446,7
447,7
448,7
449,7
450,7
451,7
452,7
453,7
454,7
455,7
456,7
457,7
458,7
459,7
460,7
461,7
462,7
463,7
464,7
465,7
466,7
467,7
468,7
469,7
470,7
471,7
472,7
473,7
474,7
475,7
476,7
477,8
478,7
479,7
480,7
481,7
482,7
483,7
484,7
485,7
486,7
487,7
488,7
489,7
490,7
491,7
492,8
493,7
494,7
495,7
496,7
497,7
498,7
499,7
500,7
501,7
502,7
503,7
504,7
505,7
506,7
507,7
508,7
509,7
510,7
511,7
512,7
513,7
514,7
515,7
516,7
517,7
518,7
519,7
520,7
521,7
522,7
523,7
524,7
525,7
526,7
527,7
528,7
529,7
530,7
531,7
532,7
533,7
534,7
535,7
536,7
537,7
538,7
539,7
540,7
541,7
542,7
543,7
544,7
545,7
546,7
547,7
548,7
549,7
550,7
551,7
552,7
553,7
554,7
555,7
556,7
557,7
558,7
559,7
560,7
561,7
562,8
563,7
564,7
565,7
566,7
567,7
568,8
569,8
570,8
571,7
572,7
573,7
574,7
575,7
576,7
577,7
578,7
579,7
580,7
581,7
582,7
583,7
584,7
585,7
586,7
587,7
588,7
589,7
590,7
591,7
592,7
593,7
594,7
595,7
596,7
597,7
598,7
599,7
600,7
601,7
602,7
603,7
604,7
605,7
606,7
607,7
608,7
609,7
610,7
611,7
612,7
613,7
614,8
615,9
616,9
617,9
618,9
619,9
620,9
621,9
622,9
623,9
624,9
625,9
626,9
627,9
628,9
629,9
630,9
631,9
632,9
633,9
634,9
635,9
636,9
637,9
638,9
639,9
640,9
641,9
642,9
643,9
644,9
645,9
646,9
647,9
648,9
649,9
650,9
651,9
652,9
653,9
654,9
655,9
656,9
657,9
658,9
659,9
660,9
661,9
662,9
663,9
664,9
665,9
666,9
667,9
668,9
669,9
670,9
671,9
672,9
673,9
674,9
675,9
676,9
677,10
678,10
679,10
680,10
681,9
682,9
683,9
684,9
685,9
686,9
687,10
688,9
689,9
690,9
691,9
692,10
693,10
694,10
695,10
696,10
697,10
698,10
699,10
700,10
701,10
702,10
703,10
704,10
705,10
706,10
707,10
708,10
709,10
710,9
711,9
712,9
713,9
714,9
715,9
716,9
717,9
718,9
719,9
720,9
721,9
722,9
723,9
724,9
725,9
726,9
727,9
728,9
729,9
730,9
731,9
732,9
733,9
734,9
735,9
736,9
737,9
738,9
739,9
740,9
741,9
742,9
743,9
744,9
745,9
746,9
747,9
748,9
749,9
750,9
751,9
752,9
753,9
754,9
755,9
756,9
757,9
758,9
759,9
760,9
761,9
762,9
763,9
764,9
765,9
766,9
767,9
768,9
769,9
770,9
771,9
772,9
773,9
774,9
775,9
776,9
777,9
778,9
779,9
780,9
781,9
782,9
783,9
784,9
785,9
786,9
787,10
788,10
789,10
790,10
791,10
792,10
793,10
794,10
795,10
796,10
797,10
798,10
799,10
800,10
801,10
802,10
803,10
804,10
805,10
806,10
807,10
808,10
809,10
810,10
811,10
812,10
813,10
814,10
815,10
816,10
817,10
818,10
819,10
820,10
821,10
822,10
823,10
824,10
825,10
826,10
827,10
828,10
829,10
830,10
831,10
832,11
833,10
834,10
835,10
836,10
837,10
838,10
839,10
840,10
841,10
842,10
843,10
844,10
845,10
846,10
847,10
848,10
849,10
850,10
851,10
852,10
853,10
854,10
855,10
856,10
857,10
858,10
859,10
860,10
861,10
862,10
863,10
864,10
865,10
866,10
867,10
868,10
869,10
870,10
871,10
872,10
873,10
874,10
875,10
876,10
877,10
878,10
879,10
880,10
881,10
882,10
883,10
884,10
885,10
886,10
887,10
888,10
889,10
890,10
891,10
892,10
893,10
894,10
895,10
896,10
897,10
898,10
899,10
900,10
901,10
902,10
903,10
904,10
905,10
906,10
907,10
908,10
909,10
910,10
911,10
912,10
913,10
914,10
915,10
916,10
917,10
918,10
919,10
920,10
921,10
922,10
923,10
924,10
925,10
926,10
927,10
928,10
929,10
930,10
931,10
932,10
933,10
934,10
935,10
936,10
937,10
938,10
939,10
940,10
941,10
942,10
943,10
944,10
945,10
946,10
947,10
948,10
949,10
950,10
951,10
952,10
953,10
954,10
955,10
956,10
957,10
958,10
959,10
960,10
961,10
962,10
963,10
964,10
965,10
966,10
967,10
968,10
969,10
970,10
971,10
972,10
973,10
974,10
975,10
976,10
977,10
978,10
979,10
980,10
981,10
982,10
983,10
984,10
985,10
986,10
987,10
988,10
989,10
990,10
991,10
992,10
993,10
994,10
995,10
996,10
997,10
998,10
999,10
1000,10
1001,10
1002,10
1003,10
1004,10
1005,10
1006,10
1007,10
1008,10
1009,10
1010,10
1011,10
1012,10
1013,10
1014,10
1015,10
1016,10
1017,10
1018,10
1019,10
1020,10
1021,10
1022,10
1023,10
1024,10
1025,10
1026,10
1027,10
1028,10
1029,10
1030,10
1031,10
1032,10
1033,10
1034,10
1035,10
1036,10
1037,10
1038,10
1039,10
1040,10
1041,10
1042,10
1043,10
1044,10
1045,10
1046,10
1047,10
1048,10
1049,10
1050,10
1051,10
1052,10
1053,10
1054,10
1055,10
1056,10
1057,10
1058,10
1059,10
1060,10
1061,10
1062,10
1063,10
1064,10
1065,10
1066,10
1067,10
1068,10
1069,10
1070,10
1071,10
1072,10
1073,10
1074,10
1075,10
1076,10
1077,10
1078,10
1079,10
1080,10
1081,10
1082,10
1083,10
1084,10
1085,10
1086,10
1087,10
1088,10
1089,10
1090,10
1091,10
1092,10
1093,10
1094,10
1095,10
1096,10
1097,10
1098,10
1099,10
1100,10
1101,10
1102,10
1103,10
1104,10
1105,10
1106,10
1107,10
1108,10
1109,10
1110,10
1111,10
1112,10
1113,10
1114,10
1115,10
1116,10
1117,10
1118,10
1119,10
1120,10
1121,10
1122,10
1123,10
1124,10
1125,10
1126,10
1127,10
1128,10
1129,10
1130,10
1131,10
1132,10
1133,10
1134,10
1135,10
1136,10
1137,10
1138,10
1139,10
1140,10
1141,10
1142,10
1143,10
1144,10
1145,10
1146,10
1147,10
1148,10
1149,10
1150,10
1151,10
1152,10
1153,10
1154,10
1155,10
1156,10
1157,10
1158,10
1159,10
1160,10
1161,10
1162,10
1163,10
1164,10
1165,10
1166,10
1167,10
1168,10
1169,10
1170,10
1171,10
1172,10
1173,10
1174,10
1175,10
1176,10
1177,10
1178,10
1179,10
1180,10
1181,10
1182,10
1183,10
1184,10
1185,10
1186,10
1187,10
1188,10
1189,10
1190,10
1191,10
1192,10
1193,10
1194,10
1195,10
1196,10
1197,10
1198,10
1199,10
1200,10
1201,10
1202,10
1203,10
1204,10
1205,10
1206,10
1207,10
1208,10
1209,10
1210,10
1211,10
1212,10
1213,10
1214,10
1215,10
1216,10
1217,10
1218,10
1219,10
1220,10
1221,10
1222,10
1223,10
1224,10
1225,10
1226,10
1227,10
1228,10
1229,10
1230,10
1231,10
1232,10
1233,10
1234,10
1235,10
1236,10
1237,10
1238,10
1239,10
1240,10
1241,10
1242,10
1243,10
1244,10
1245,10
1246,10
1247,10
1248,10
1249,10
1250,10
1251,10
1252,10
1253,10
1254,10
1255,10
1256,10
1257,10
1258,10
1259,10
1260,10
1261,10
1262,10
1263,10
1264,10
1265,10
1266,10
1267,10
1268,10
1269,10
1270,10
1271,10
1272,10
1273,10
1274,10
1275,10
1276,10
1277,10
1278,10
1279,11
1280,10
1281,10
1282,10
1283,10
1284,10
1285,10
1286,10
1287,10
1288,10
1289,10
1290,10
1291,10
1292,10
1293,10
1294,10
1295,10
1296,10
1297,10
1298,10
1299,10
1300,10
1301,10
1302,10
1303,10
1304,10
1305,10
1306,10
1307,10
1308,10
1309,10
1310,10
1311,10
1312,10
1313,10
1314,10
1315,10
1316,10
1317,10
1318,10
1319,10
1320,10
1321,10
1322,10
1323,10
1324,10
1325,10
1326,10
1327,10
1328,10
1329,10
1330,10
1331,10
1332,10
1333,10
1334,10
1335,10
1336,10
1337,10
1338,10
1339,10
1340,10
1341,10
1342,10
1343,10
1344,10
1345,10
1346,10
1347,10
1348,10
1349,10
1350,10
1351,10
1352,10
1353,10
1354,10
1355,10
1356,10
1357,10
1358,10
1359,10
1360,10
1361,10
1362,10
1363,10
1364,10
1365,10
1366,10
1367,10
1368,10
1369,10
1370,10
1371,10
1372,10
1373,10
1374,10
1375,10
1376,10
1377,10
1378,10
1379,10
1380,10
1381,10
1382,10
1383,10
1384,10
1385,10
1386,10
1387,10
1388,10
1389,10
1390,10
1391,10
1392,10
1393,11
1394,10
1395,10
1396,10
1397,10
1398,10
1399,10
1400,10
1401,10
1402,10
1403,10
1404,10
1405,10
1406,10
1407,10
1408,10
1409,10
1410,10
1411,10
1412,10
1413,10
1414,10
1415,10
1416,10
1417,10
1418,10
1419,10
1420,10
1421,11
1422,11
1423,11
1424,11
1425,11
1426,11
1427,11
1428,11
1429,11
1430,11
1431,11
1432,11
1433,11
1434,11
1435,11
1436,11
1437,11
1438,11
1439,10
1440,10
1441,10
1442,10
1443,10
1444,10
1445,10
1446,10
1447,10
1448,10
1449,10
1450,10
1451,10
1452,10
1453,10
1454,10
1455,10
1456,10
1457,10
1458,10
1459,10
1460,10
1461,10
1462,10
1463,10
1464,10
1465,10
1466,10
1467,10
1468,10
1469,10
1470,10
1471,10
1472,10
1473,10
1474,10
1475,10
1476,10
1477,10
1478,10
1479,10
1480,10
1481,10
1482,10
1483,10
1484,10
1485,10
1486,10
1487,10
1488,10
1489,10
1490,10
1491,10
1492,10
1493,10
1494,10
1495,10
1496,10
1497,10
1498,10
1499,10
1500,10
1501,10
1502,10
1503,10
1504,10
1505,10
1506,10
1507,10
1508,10
1509,10
1510,10
1511,10
1512,10
1513,10
1514,10
1515,10
1516,10
1517,10
1518,10
1519,10
1520,10
1521,10
1522,10
1523,10
1524,11
1525,11
1526,11
1527,11
1528,11
1529,11
1530,11
1531,11
1532,11
1533,11
1534,11
1535,11
1536,11
1537,11
1538,10
1539,10
1540,10
1541,10
1542,10
1543,10
1544,10
1545,10
1546,10
1547,10
1548,10
1549,10
1550,10
1551,10
1552,10
1553,10
1554,10
1555,10
1556,10
1557,10
1558,10
1559,10
1560,10
1561,10
1562,10
1563,10
1564,10
1565,10
1566,10
1567,10
1568,10
1569,10
1570,10
1571,10
1572,10
1573,10
1574,10
1575,10
1576,10
1577,10
1578,10
1579,10
1580,10
1581,10
1582,10
1583,10
1584,10
1585,10
1586,10
1587,10
1588,10
1589,10
1590,10
1591,10
1592,10
1593,10
1594,10
1595,10
1596,10
1597,10
1598,10
1599,10
1600,10
1601,10
1602,10
1603,10
1604,10
1605,10
1606,10
1607,10
1608,10
1609,11
1610,11
1611,11
1612,11
1613,11
1614,11
1615,10
1616,10
1617,10
1618,10
1619,10
1620,10
1621,10
1622,10
1623,10
1624,10
1625,10
1626,10
1627,10
1628,10
1629,10
1630,10
1631,10
1632,10
1633,10
1634,10
1635,10
1636,10
1637,10
1638,10
1639,10
1640,10
1641,10
1642,10
1643,10
1644,10
1645,10
1646,10
1647,10
1648,10
1649,10
1650,10
1651,10
1652,10
1653,10
1654,10
1655,10
1656,10
1657,10
1658,10
1659,10
1660,10
1661,10
1662,10
1663,10
1664,10
1665,10
1666,10
1667,10
1668,10
1669,10
1670,10
1671,10
1672,10
1673,10
1674,10
1675,10
1676,10
1677,10
1678,10
1679,10
1680,10
1681,10
1682,10
1683,10
1684,10
1685,10
1686,10
1687,10
1688,10
1689,10
1690,10
1691,10
1692,10
1693,10
1694,10
1695,10
1696,10
1697,10
1698,10
1699,10
1700,10
1701,10
1702,10
1703,10
1704,10
1705,10
1706,10
1707,10
1708,10
1709,10
1710,10
1711,10
1712,10
1713,10
1714,10
1715,10
1716,10
1717,10
1718,10
1719,10
1720,10
1721,10
1722,10
1723,11
1724,10
1725,10
1726,10
1727,10
1728,10
1729,10
1730,10
1731,10
1732,10
1733,10
1734,10
1735,10
1736,10
1737,10
1738,10
1739,10
1740,10
1741,10
1742,10
1743,10
1744,10
1745,10
1746,10
1747,10
1748,10
1749,10
1750,10
1751,10
1752,10
1753,10
1754,10
1755,10
1756,10
1757,10
1758,10
1759,10
1760,10
1761,10
1762,10
1763,10
1764,10
1765,11
1766,10
1767,10
1768,10
1769,10
1770,10
1771,10
1772,10
1773,10
1774,10
1775,10
1776,10
1777,10
1778,10
1779,10
1780,10
1781,10
1782,10
1783,10
1784,10
1785,10
1786,10
1787,10
1788,10
1789,10
1790,10
1791,10
1792,10
1793,10
1794,10
1795,10
1796,10
1797,10
1798,10
1799,10
1800,10
1801,10
1802,10
1803,10
1804,10
1805,10
1806,10
1807,10
1808,10
1809,10
1810,10
1811,10
1812,10
1813,10
1814,10
1815,10
1816,11
1817,11
1818,11
1819,11
1820,11
1821,11
1822,11
1823,11
1824,11
1825,11
1826,11
1827,11
1828,11
1829,11
1830,11
1831,11
1832,11
1833,11
1834,11
1835,11
1836,11
1837,11
1838,11
1839,11
1840,11
1841,11
1842,11
1843,11
1844,11
1845,11
1846,11
1847,11
1848,11
1849,11
1850,11
1851,11
1852,11
1853,11
1854,11
1855,11
1856,11
1857,11
1858,11
1859,11
1860,11
1861,11
1862,11
1863,11
1864,11
1865,11
1866,11
1867,11
1868,11
1869,11
1870,11
1871,11
1872,11
1873,11
1874,11
1875,11
1876,11
1877,11
1878,11
1879,11
1880,11
1881,11
1882,11
1883,11
1884,11
1885,11
1886,11
1887,11
1888,11
1889,11
1890,11
1891,11
1892,11
1893,11
1894,11
1895,11
1896,11
1897,11
1898,11
1899,11
1900,11
1901,11
1902,11
1903,11
1904,11
1905,11
1906,12
1907,12
1908,12
1909,11
1910,11
1911,11
1912,11
1913,11
1914,12
1915,11
1916,11
1917,11
1918,11
1919,11
1920,11
1921,11
1922,11
1923,11
1924,11
1925,11
1926,11
1927,11
1928,11
1929,11
1930,11
1931,11
1932,11
1933,11
1934,11
1935,11
1936,11
1937,11
1938,12
1939,12
1940,12
1941,12
1942,12
1943,12
1944,12
1945,12
1946,12
1947,12
1948,12
1949,12
1950,12
1951,12
1952,12
1953,12
1954,12
1955,12
1956,12
1957,12
1958,12
1959,12
1960,12
1961,12
1962,12
1963,12
1964,12
1965,12
1966,12
1967,12
1968,12
1969,12
1970,12
1971,12
1972,12
1973,12
1974,12
1975,12
1976,12
1977,12
1978,12
1979,12
1980,12
1981,12
1982,12
1983,12
1984,12
1985,12
1986,12
1987,12
1988,12
1989,12
1990,12
1991,12
1992,12
1993,12
1994,12
1995,12
1996,12
1997,12
1998,12
1999,12
2000,12
2001,12
2002,12
2003,12
2004,13
2005,12
2006,12
2007,12
2008,12
2009,12
2010,12
2011,12
2012,12
2013,12
2014,12
2015,12
2016,12
2017,12
2018,12
2019,12
2020,12
2021,12
2022,12
2023,12
2024,12
2025,12
2026,12
2027,12
2028,12
2029,12
2030,12
2031,12
2032,12
2033,12
2034,12
2035,12
2036,12
2037,12
2038,12
2039,12
2040,12
2041,12
2042,12
2043,12
2044,12
2045,12
2046,12
2047,12
2048,12
2049,12
2050,12
2051,12
2052,12
2053,12
2054,12
2055,12
2056,12
2057,12
2058,12
2059,12
2060,12
2061,12
2062,12
2063,12
2064,12
2065,12
2066,12
2067,12
2068,12
2069,12
2070,12
2071,12
2072,12
2073,12
2074,12
2075,12
2076,12
2077,12
2078,12
2079,12
2080,12
2081,12
2082,12
2083,12
2084,12
2085,12
2086,12
2087,12
2088,12
2089,12
2090,12
2091,12
2092,12
2093,12
2094,12
2095,12
2096,12
2097,12
2098,12
2099,12
2100,12
2101,12
2102,12
2103,12
2104,12
2105,12
2106,12
2107,12
2108,12
2109,12
2110,12
2111,12
2112,12
2113,12
2114,12
2115,12
2116,12
2117,12
2118,12
2119,12
2120,12
2121,12
2122,12
2123,12
2124,12
2125,13
2126,12
2127,12
2128,12
2129,12
2130,12
2131,12
2132,12
2133,12
2134,12
2135,12
2136,12
2137,12
2138,12
2139,12
2140,12
2141,12
2142,12
2143,12
2144,12
2145,12
2146,12
2147,12
2148,12
2149,12
2150,12
2151,12
2152,12
2153,12
2154,12
2155,12
2156,12
2157,12
2158,12
2159,12
2160,12
2161,12
2162,12
2163,12
2164,12
2165,12
2166,12
2167,12
2168,12
2169,12
2170,12
2171,12
2172,12
2173,12
2174,12
2175,12
2176,12
2177,12
2178,12
2179,12
2180,12
2181,12
2182,12
2183,12
2184,12
2185,12
2186,12
2187,12
2188,12
2189,12
2190,12
2191,12
2192,12
2193,12
2194,12
2195,12
2196,12
2197,12
2198,12
2199,14
2200,13
2201,13
2202,13
2203,13
2204,12
2205,12
2206,12
2207,12
2208,12
2209,12
2210,12
2211,12
2212,12
2213,12
2214,12
2215,12
2216,12
2217,12
2218,12
2219,12
2220,12
2221,12
2222,12
2223,12
2224,12
2225,12
2226,12
2227,12
2228,12
2229,12
2230,12
2231,12
2232,12
2233,12
2234,12
2235,12
2236,12
2237,12
2238,12
2239,12
2240,12
2241,12
2242,12
2243,12
2244,12
2245,12
2246,12
2247,12
2248,12
2249,12
2250,12
2251,12
2252,12
2253,12
2254,12
2255,12
2256,12
2257,12
2258,12
2259,12
2260,12
2261,12
2262,12
2263,12
2264,12
2265,12
2266,12
2267,12
2268,12
2269,12
2270,12
2271,12
2272,12
2273,12
2274,12
2275,12
2276,12
2277,12
2278,12
2279,12
2280,12
2281,12
2282,12
2283,12
2284,12
2285,12
2286,12
2287,12
2288,12
2289,12
2290,12
2291,12
2292,12
2293,12
2294,12
2295,12
2296,12
2297,12
2298,12
2299,12
2300,12
2301,12
2302,12
2303,12
2304,12
2305,12
2306,12
2307,12
2308,12
2309,12
2310,12
2311,12
2312,12
2313,12
2314,12
2315,12
2316,12
2317,12
2318,12
2319,12
2320,12
2321,12
2322,12
2323,12
2324,12
2325,12
2326,12
2327,12
2328,12
2329,12
2330,12
2331,12
2332,12
2333,12
2334,12
2335,12
2336,12
2337,12
2338,12
2339,12
2340,12
2341,12
2342,12
2343,12
2344,12
2345,12
2346,12
2347,12
2348,12
2349,12
2350,12
2351,12
2352,12
2353,12
2354,12
2355,12
2356,12
2357,12
2358,12
2359,12
2360,12
2361,12
2362,12
2363,12
2364,12
2365,12
2366,12
2367,12
2368,12
2369,12
2370,12
2371,12
2372,12
2373,12
2374,12
2375,12
2376,12
2377,12
2378,12
2379,12
2380,12
2381,12
2382,12
2383,12
2384,12
2385,12
2386,12
2387,12
2388,12
2389,12
2390,12
2391,12
2392,13
2393,13
2394,12
2395,12
2396,12
2397,12
2398,12
2399,12
2400,12
2401,12
2402,12
2403,12
2404,12
2405,12
2406,12
2407,12
2408,12
2409,12
2410,12
2411,12
2412,12
2413,12
2414,12
2415,12
2416,12
2417,12
2418,12
2419,12
2420,12
2421,12
2422,12
2423,12
2424,12
2425,12
2426,12
2427,12
2428,12
2429,12
2430,12
2431,12
2432,12
2433,12
2434,12
2435,12
2436,12
2437,12
2438,12
2439,12
2440,12
2441,12
2442,12
2443,12
2444,12
2445,12
2446,12
2447,12
2448,12
2449,12
2450,12
2451,12
2452,12
2453,12
2454,12
2455,12
2456,12
2457,12
2458,12
2459,12
2460,12
2461,12
2462,12
2463,12
2464,12
2465,12
2466,12
2467,12
2468,12
2469,12
2470,12
2471,12
2472,12
2473,12
2474,12
2475,12
2476,12
2477,12
2478,12
2479,12
2480,12
2481,12
2482,12
2483,12
2484,12
2485,12
2486,12
2487,12
2488,12
2489,12
2490,12
2491,12
2492,12
2493,12
2494,12
2495,12
2496,12
2497,12
2498,12
2499,12
2500,12
2501,12
2502,12
2503,12
2504,12
2505,12
2506,12
2507,12
2508,12
2509,12
2510,12
2511,12
2512,12
2513,12
2514,12
2515,12
2516,12
2517,12
2518,12
2519,12
2520,12
2521,12
2522,12
2523,12
2524,12
2525,12
2526,12
2527,12
2528,12
2529,13
2530,12
2531,12
2532,12
2533,12
2534,12
2535,12
2536,12
2537,12
2538,12
2539,12
2540,12
2541,12
2542,12
2543,12
2544,12
2545,12
2546,12
2547,12
2548,12
2549,12
2550,12
2551,12
2552,12
2553,12
2554,12
2555,12
2556,12
2557,12
2558,12
2559,12
2560,12
2561,12
2562,12
2563,12
2564,12
2565,12
2566,12
2567,12
2568,12
2569,12
2570,12
2571,12
2572,12
2573,12
2574,12
2575,12
2576,12
2577,12
2578,12
2579,12
2580,12
2581,12
2582,12
2583,12
2584,12
2585,12
2586,12
2587,12
2588,12
2589,12
2590,12
2591,12
2592,12
2593,12
2594,12
2595,12
2596,13
2597,13
2598,12
2599,12
2600,12
2601,12
2602,12
2603,12
2604,12
2605,12
2606,12
2607,12
2608,12
2609,12
2610,12
2611,12
2612,12
2613,12
2614,12
2615,12
2616,12
2617,12
2618,12
2619,12
2620,12
2621,12
2622,12
2623,12
2624,12
2625,12
2626,12
2627,12
2628,12
2629,12
2630,12
2631,12
2632,12
2633,12
2634,12
2635,12
2636,12
2637,12
2638,12
2639,12
2640,12
2641,12
2642,12
2643,12
2644,12
2645,12
2646,12
2647,12
2648,12
2649,12
2650,12
2651,12
2652,12
2653,12
2654,12
2655,12
2656,12
2657,12
2658,12
2659,12
2660,13
2661,12
2662,12
2663,12
2664,12
2665,12
2666,12
2667,12
2668,12
2669,12
2670,12
2671,12
2672,12
2673,12
2674,12
2675,12
2676,12
2677,12
2678,12
2679,12
2680,12
2681,12
2682,12
2683,12
2684,12
2685,12
2686,12
2687,12
2688,12
2689,12
2690,12
2691,12
2692,12
2693,12
2694,12
2695,12
2696,12
2697,12
2698,12
2699,12
2700,12
2701,12
2702,12
2703,12
2704,12
2705,12
2706,12
2707,12
2708,12
2709,12
2710,12
2711,12
2712,12
2713,12
2714,12
2715,12
2716,12
2717,12
2718,12
2719,12
2720,12
2721,12
2722,12
2723,12
2724,12
2725,12
2726,13
2727,13
2728,13
2729,13
2730,13
2731,13
2732,13
2733,12
2734,12
2735,12
2736,12
2737,12
2738,12
2739,12
2740,12
2741,12
2742,12
2743,12
2744,12
2745,12
2746,12
2747,12
2748,12
2749,12
2750,12
2751,12
2752,12
2753,12
2754,12
2755,12
2756,12
2757,12
2758,12
2759,12
2760,12
2761,12
2762,12
2763,12
2764,12
2765,12
2766,12
2767,12
2768,12
2769,12
2770,12
2771,12
2772,12
2773,12
2774,12
2775,12
2776,12
2777,12
2778,12
2779,12
2780,12
2781,12
2782,12
2783,12
2784,12
2785,12
2786,12
2787,12
2788,12
2789,12
2790,12
2791,12
2792,12
2793,12
2794,12
2795,12
2796,12
2797,12
2798,12
2799,12
2800,12
2801,12
2802,12
2803,12
2804,12
2805,12
2806,12
2807,12
2808,12
2809,12
2810,12
2811,12
2812,12
2813,12
2814,12
2815,12
2816,12
2817,12
2818,12
2819,12
2820,12
2821,12
2822,12
2823,12
2824,12
2825,12
2826,12
2827,12
2828,12
2829,12
2830,12
2831,12
2832,12
2833,12
2834,12
2835,12
2836,12
2837,12
2838,12
2839,12
2840,12
2841,12
2842,12
2843,12
2844,12
2845,12
2846,12
2847,12
2848,12
2849,12
2850,12
2851,12
2852,12
2853,12
2854,12
2855,12
2856,12
2857,13
2858,12
2859,12
2860,12
2861,12
2862,12
2863,12
2864,12
2865,12
2866,12
2867,12
2868,12
2869,12
2870,12
2871,12
2872,12
2873,12
2874,12
2875,12
2876,12
2877,12
2878,12
2879,12
2880,13
2881,13
2882,13
2883,13
2884,13
2885,13
2886,13
2887,13
2888,13
2889,13
2890,13
2891,12
2892,12
2893,12
2894,12
2895,12
2896,12
2897,12
2898,12
2899,12
2900,12
2901,12
2902,12
2903,12
2904,12
2905,12
2906,12
2907,12
2908,12
2909,12
2910,12
2911,12
2912,12
2913,12
2914,12
2915,12
2916,12
2917,12
2918,12
2919,13
2920,13
2921,13
2922,13
2923,13
2924,13
2925,13
2926,13
2927,13
2928,13
2929,13
2930,13
2931,13
2932,13
2933,13
2934,13
2935,13
2936,13
2937,13
2938,13
2939,13
2940,13
2941,13
2942,13
2943,13
2944,13
2945,13
2946,13
2947,13
2948,13
2949,13
2950,13
2951,13
2952,13
2953,13
2954,13
2955,13
2956,13
2957,13
2958,13
2959,13
2960,13
2961,13
2962,13
2963,13
2964,13
2965,13
2966,13
2967,13
2968,13
2969,13
2970,13
2971,13
2972,13
2973,13
2974,13
2975,13
2976,13
2977,13
2978,13
2979,13
2980,13
2981,13
2982,13
2983,13
2984,13
2985,13
2986,13
2987,13
2988,13
2989,13
2990,13
2991,13
2992,13
2993,13
2994,13
2995,13
2996,13
2997,13
2998,13
2999,13
3000,13
3001,13
3002,13
3003,13
3004,13
3005,13
3006,13
3007,13
3008,13
3009,13
3010,13
3011,13
3012,13
3013,13
3014,13
3015,13
3016,13
3017,13
3018,13
3019,13
3020,13
3021,14
3022,13
3023,13
3024,13
3025,13
3026,13
3027,13
3028,13
3029,13
3030,13
3031,13
3032,13
3033,13
3034,13
3035,13
3036,13
3037,13
3038,13
3039,13
3040,13
3041,13
3042,13
3043,13
3044,13
3045,13
3046,13
3047,13
3048,13
3049,13
3050,13
3051,13
3052,13
3053,13
3054,13
3055,13
3056,13
3057,13
3058,13
3059,13
3060,13
3061,13
3062,13
3063,13
3064,13
3065,13
3066,13
3067,13
3068,13
3069,13
3070,13
3071,13
3072,13
3073,13
3074,13
3075,13
3076,13
3077,13
3078,13
3079,13
3080,13
3081,13
3082,13
3083,13
3084,13
3085,13
3086,13
3087,13
3088,13
3089,13
3090,13
3091,13
3092,13
3093,13
3094,13
3095,13
3096,13
3097,13
3098,13
3099,13
3100,13
3101,13
3102,13
3103,13
3104,13
3105,13
3106,13
3107,13
3108,13
3109,13
3110,13
3111,13
3112,13
3113,13
3114,13
3115,13
3116,13
3117,13
3118,13
3119,13
3120,13
3121,13
3122,13
3123,13
3124,13
3125,13
3126,13
3127,13
3128,13
3129,13
3130,13
3131,13
3132,13
3133,13
3134,13
3135,13
3136,13
3137,13
3138,13
3139,13
3140,13
3141,13
3142,13
3143,13
3144,13
3145,13
3146,13
3147,13
3148,13
3149,13
3150,13
3151,13
3152,13
3153,13
3154,13
3155,13
3156,13
3157,13
3158,13
3159,13
3160,13
3161,13
3162,13
3163,13
3164,13
3165,13
3166,13
3167,13
3168,13
3169,13
3170,13
3171,13
3172,13
3173,13
3174,13
3175,13
3176,13
3177,14
3178,14
3179,14
3180,13
3181,13
3182,13
3183,13
3184,13
3185,13
3186,13
3187,13
3188,13
3189,13
3190,13
3191,13
3192,13
3193,13
3194,13
3195,13
3196,13
3197,13
3198,13
3199,13
3200,13
3201,13
3202,13
3203,14
3204,13
3205,13
3206,13
3207,13
3208,13
3209,13
3210,13
3211,13
3212,13
3213,13
3214,13
3215,13
3216,13
3217,13
3218,13
3219,13
3220,13
3221,13
3222,13
3223,13
3224,13
3225,13
3226,13
3227,13
3228,13
3229,13
3230,13
3231,13
3232,13
3233,13
3234,13
3235,13
3236,13
3237,13
3238,13
3239,13
3240,13
3241,13
3242,13
3243,13
3244,13
3245,13
3246,13
3247,13
3248,13
3249,13
3250,13
3251,13
3252,13
3253,13
3254,13
3255,13
3256,13
3257,13
3258,13
3259,13
3260,13
3261,13
3262,13
3263,13
3264,13
3265,13
3266,13
3267,13
3268,13
3269,13
3270,13
3271,13
3272,13
3273,13
3274,13
3275,13
3276,13
3277,13
3278,13
3279,13
3280,13
3281,13
3282,13
3283,13
3284,13
3285,13
3286,13
3287,13
3288,13
3289,13
3290,13
3291,13
3292,13
3293,13
3294,13
3295,13
3296,13
3297,13
3298,13
3299,13
3300,13
3301,13
3302,13
3303,13
3304,13
3305,13
3306,13
3307,13
3308,13
3309,13
3310,13
3311,13
3312,13
3313,13
3314,13
3315,13
3316,13
3317,13
3318,13
3319,13
3320,13
3321,13
3322,13
3323,13
3324,13
3325,13
3326,13
3327,13
3328,13
3329,13
3330,13
3331,13
3332,13
3333,13
3334,13
3335,13
3336,13
3337,13
3338,13
3339,13
3340,13
3341,13
3342,13
3343,13
3344,13
3345,13
3346,13
3347,13
3348,13
3349,13
3350,13
3351,13
3352,13
3353,13
3354,13
3355,13
3356,13
3357,13
3358,13
3359,13
3360,13
3361,13
3362,13
3363,13
3364,13
3365,13
3366,13
3367,13
3368,13
3369,13
3370,13
3371,13
3372,13
3373,13
3374,13
3375,13
3376,13
3377,13
3378,13
3379,13
3380,13
3381,13
3382,13
3383,13
3384,13
3385,13
3386,13
3387,13
3388,13
3389,13
3390,13
3391,13
3392,13
3393,13
3394,13
3395,13
3396,13
3397,13
3398,13
3399,13
3400,13
3401,13
3402,13
3403,13
3404,13
3405,13
3406,13
3407,13
3408,13
3409,13
3410,13
3411,13
3412,13
3413,13
3414,13
3415,13
3416,13
3417,13
3418,13
3419,13
3420,13
3421,13
3422,13
3423,13
3424,13
3425,13
3426,13
3427,13
3428,13
3429,13
3430,13
3431,13
3432,13
3433,13
3434,13
3435,13
3436,13
3437,13
3438,13
3439,13
3440,13
3441,13
3442,13
3443,13
3444,13
3445,13
3446,13
3447,13
3448,13
3449,13
3450,13
3451,13
3452,13
3453,13
3454,13
3455,13
3456,13
3457,14
3458,14
3459,14
3460,14
3461,14
3462,14
3463,14
3464,15
3465,14
3466,14
3467,14
3468,14
3469,14
3470,14
3471,14
3472,14
3473,14
3474,14
3475,14
3476,14
3477,14
3478,14
3479,13
3480,13
3481,13
3482,13
3483,13
3484,13
3485,13
3486,13
3487,13
3488,13
3489,13
3490,13
3491,13
3492,13
3493,13
3494,13
3495,13
3496,13
3497,13
3498,13
3499,13
3500,13
3501,13
3502,13
3503,13
3504,13
3505,13
3506,13
3507,13
3508,13
3509,13
3510,13
3511,13
3512,13
3513,13
3514,13
3515,13
3516,13
3517,13
3518,13
3519,13
3520,13
3521,13
3522,13
3523,13
3524,13
3525,13
3526,13
3527,13
3528,13
3529,13
3530,13
3531,13
3532,13
3533,13
3534,13
3535,13
3536,13
3537,13
3538,13
3539,13
3540,13
3541,13
3542,13
3543,13
3544,13
3545,13
3546,13
3547,13
3548,13
3549,13
3550,13
3551,13
3552,13
3553,13
3554,13
3555,13
3556,13
3557,13
3558,13
3559,13
3560,13
3561,13
3562,13
3563,13
3564,13
3565,13
3566,13
3567,13
3568,13
3569,13
3570,13
3571,13
3572,13
3573,13
3574,13
3575,13
3576,13
3577,13
3578,13
3579,13
3580,13
3581,13
3582,13
3583,13
3584,13
3585,13
3586,13
3587,13
3588,13
3589,13
3590,13
3591,13
3592,13
3593,13
3594,13
3595,13
3596,13
3597,13
3598,13
3599,13
3600,13
3601,13
3602,13
3603,13
3604,13
3605,13
3606,13
3607,13
3608,13
3609,13
3610,13
3611,13
3612,13
3613,13
3614,13
3615,13
3616,13
3617,13
3618,13
3619,13
3620,13
3621,13
3622,13
3623,13
3624,13
3625,13
3626,13
3627,13
3628,13
3629,13
3630,13
3631,13
3632,13
3633,13
3634,13
3635,13
3636,13
3637,13
3638,13
3639,13
3640,13
3641,13
3642,13
3643,13
3644,13
3645,13
3646,13
3647,13
3648,13
3649,13
3650,13
3651,13
3652,13
3653,13
3654,13
3655,13
3656,13
3657,13
3658,14
3659,14
3660,14
3661,13
3662,13
3663,13
3664,13
3665,13
3666,13
3667,13
3668,13
3669,13
3670,13
3671,13
3672,13
3673,13
3674,13
3675,13
3676,13
3677,13
3678,13
3679,13
3680,13
3681,13
3682,13
3683,13
3684,13
3685,13
3686,13
3687,13
3688,13
3689,13
3690,13
3691,13
3692,13
3693,13
3694,13
3695,13
3696,13
3697,13
3698,13
3699,13
3700,13
3701,13
3702,13
3703,13
3704,13
3705,13
3706,13
3707,13
3708,13
3709,13
3710,13
3711,13
3712,13
3713,13
3714,13
3715,13
3716,13
3717,13
3718,13
3719,13
3720,13
3721,13
3722,13
3723,13
3724,13
3725,13
3726,13
3727,13
3728,13
3729,13
3730,13
3731,13
3732,13
3733,13
3734,13
3735,13
3736,13
3737,13
3738,13
3739,13
3740,13
3741,13
3742,13
3743,13
3744,13
3745,13
3746,13
3747,13
3748,13
3749,13
3750,13
3751,13
3752,13
3753,13
3754,13
3755,13
3756,13
3757,13
3758,13
3759,13
3760,13
3761,13
3762,13
3763,13
3764,13
3765,13
3766,13
3767,13
3768,13
3769,13
3770,13
3771,13
3772,13
3773,13
3774,13
3775,13
3776,13
3777,13
3778,13
3779,13
3780,13
3781,14
3782,14
3783,14
3784,14
3785,14
3786,13
3787,13
3788,13
3789,13
3790,13
3791,13
3792,13
3793,13
3794,13
3795,13
3796,13
3797,13
3798,13
3799,13
3800,13
3801,13
3802,13
3803,13
3804,13
3805,13
3806,13
3807,13
3808,13
3809,13
3810,13
3811,13
3812,13
3813,13
3814,13
3815,13
3816,13
3817,13
3818,13
3819,13
3820,13
3821,13
3822,13
3823,13
3824,13
3825,13
3826,13
3827,13
3828,13
3829,13
3830,13
3831,13
3832,13
3833,13
3834,13
3835,13
3836,13
3837,13
3838,13
3839,13
3840,13
3841,13
3842,13
3843,13
3844,13
3845,13
3846,13
3847,14
3848,14
3849,14
3850,13
3851,13
3852,13
3853,13
3854,13
3855,13
3856,13
3857,13
3858,13
3859,13
3860,13
3861,13
3862,13
3863,13
3864,13
3865,13
3866,13
3867,13
3868,14
3869,14
3870,14
3871,14
3872,14
3873,13
3874,13
3875,13
3876,13
3877,13
3878,13
3879,13
3880,13
3881,13
3882,13
3883,13
3884,13
3885,13
3886,13
3887,13
3888,13
3889,13
3890,13
3891,13
3892,13
3893,13
3894,13
3895,13
3896,13
3897,13
3898,13
3899,13
3900,13
3901,13
3902,13
3903,13
3904,13
3905,13
3906,13
3907,13
3908,13
3909,13
3910,13
3911,13
3912,13
3913,13
3914,13
3915,13
3916,13
3917,13
3918,13
3919,13
3920,13
3921,13
3922,13
3923,13
3924,13
3925,13
3926,13
3927,13
3928,13
3929,13
3930,13
3931,13
3932,13
3933,13
3934,13
3935,13
3936,13
3937,13
3938,13
3939,13
3940,13
3941,13
3942,13
3943,13
3944,13
3945,13
3946,13
3947,13
3948,13
3949,13
3950,13
3951,13
3952,13
3953,13
3954,13
3955,13
3956,13
3957,13
3958,13
3959,13
3960,13
3961,13
3962,13
3963,13
3964,13
3965,13
3966,13
3967,13
3968,13
3969,13
3970,13
3971,13
3972,13
3973,13
3974,13
3975,13
3976,13
3977,13
3978,13
3979,13
3980,13
3981,13
3982,13
3983,13
3984,13
3985,13
3986,13
3987,13
3988,13
3989,13
3990,13
3991,13
3992,13
3993,13
3994,13
3995,13
3996,13
3997,13
3998,13
3999,13
4000,13
4001,13
4002,13
4003,13
4004,13
4005,13
4006,13
4007,13
4008,13
4009,14
4010,13
4011,13
4012,13
4013,13
4014,13
4015,13
4016,13
4017,13
4018,13
4019,13
4020,13
4021,13
4022,13
4023,13
4024,13
4025,13
4026,13
4027,13
4028,13
4029,13
4030,13
4031,13
4032,13
4033,13
4034,13
4035,13
4036,13
4037,13
4038,13
4039,13
4040,13
4041,13
4042,13
4043,13
4044,13
4045,13
4046,13
4047,13
4048,13
4049,13
4050,13
4051,13
4052,13
4053,13
4054,13
4055,13
4056,13
4057,13
4058,13
4059,13
4060,13
4061,13
4062,13
4063,13
4064,13
4065,13
4066,13
4067,13
4068,13
4069,13
4070,13
4071,13
4072,13
4073,13
4074,13
4075,13
4076,13
4077,13
4078,13
4079,13
4080,13
4081,13
4082,13
4083,13
4084,13
4085,13
4086,13
4087,13
4088,13
4089,13
4090,13
4091,13
4092,13
4093,13
4094,13
4095,13
4096,13
4097,13
4098,13
4099,13
4100,13
4101,13
4102,13
4103,13
4104,13
4105,13
4106,13
4107,13
4108,13
4109,13
4110,13
4111,13
4112,13
4113,13
4114,13
4115,13
4116,13
4117,13
4118,13
4119,13
4120,13
4121,13
4122,13
4123,13
4124,13
4125,13
4126,13
4127,13
4128,13
4129,13
4130,13
4131,13
4132,13
4133,13
4134,13
4135,13
4136,13
4137,13
4138,13
4139,13
4140,13
4141,13
4142,13
4143,13
4144,13
4145,13
4146,13
4147,13
4148,13
4149,13
4150,13
4151,13
4152,13
4153,13
4154,14
4155,14
4156,14
4157,13
4158,13
4159,13
4160,13
4161,13
4162,13
4163,13
4164,13
4165,13
4166,13
4167,13
4168,13
4169,13
4170,13
4171,13
4172,13
4173,13
4174,13
4175,13
4176,13
4177,13
4178,13
4179,13
4180,13
4181,13
4182,13
4183,13
4184,13
4185,13
4186,13
4187,13
4188,13
4189,13
4190,13
4191,13
4192,13
4193,13
4194,13
4195,13
4196,13
4197,13
4198,13
4199,13
4200,13
4201,13
4202,13
4203,13
4204,13
4205,13
4206,13
4207,13
4208,13
4209,13
4210,13
4211,13
4212,13
4213,13
4214,13
4215,13
4216,13
4217,13
4218,13
4219,13
4220,13
4221,13
4222,13
4223,13
4224,13
4225,13
4226,13
4227,13
4228,13
4229,13
4230,13
4231,13
4232,13
4233,13
4234,13
4235,13
4236,13
4237,13
4238,13
4239,13
4240,13
4241,13
4242,13
4243,13
4244,13
4245,13
4246,13
4247,13
4248,13
4249,13
4250,13
4251,13
4252,13
4253,13
4254,13
4255,13
4256,13
4257,13
4258,13
4259,13
4260,13
4261,13
4262,13
4263,13
4264,13
4265,13
4266,13
4267,13
4268,13
4269,13
4270,13
4271,13
4272,13
4273,13
4274,13
4275,13
4276,13
4277,13
4278,13
4279,13
4280,13
4281,13
4282,13
4283,13
4284,13
4285,13
4286,13
4287,13
4288,13
4289,13
4290,13
4291,13
4292,13
4293,13
4294,13
4295,13
4296,13
4297,13
4298,13
4299,13
4300,13
4301,13
4302,13
4303,13
4304,13
4305,13
4306,13
4307,13
4308,13
4309,13
4310,13
4311,13
4312,13
4313,13
4314,13
4315,13
4316,13
4317,13
4318,13
4319,13
4320,13
4321,13
4322,13
4323,13
4324,13
4325,13
4326,13
4327,13
4328,13
4329,13
4330,13
4331,13
4332,13
4333,13
4334,13
4335,13
4336,13
4337,13
4338,13
4339,13
4340,13
4341,13
4342,13
4343,13
4344,13
4345,13
4346,13
4347,13
4348,13
4349,13
4350,13
4351,13
4352,13
4353,13
4354,13
4355,13
4356,13
4357,13
4358,13
4359,13
4360,13
4361,13
4362,13
4363,13
4364,13
4365,13
4366,13
4367,13
4368,13
4369,13
4370,13
4371,13
4372,13
4373,13
4374,13
4375,13
4376,13
4377,13
4378,13
4379,13
4380,13
4381,13
4382,13
4383,13
4384,13
4385,13
4386,13
4387,13
4388,13
4389,13
4390,13
4391,13
4392,13
4393,13
4394,13
4395,13
4396,13
4397,13
4398,13
4399,13
4400,13
4401,13
4402,13
4403,13
4404,13
4405,13
4406,13
4407,13
4408,13
4409,13
4410,13
4411,13
4412,13
4413,13
4414,13
4415,13
4416,13
4417,13
4418,13
4419,13
4420,13
4421,13
4422,13
4423,13
4424,13
4425,13
4426,13
4427,13
4428,13
4429,13
4430,13
4431,13
4432,13
4433,13
4434,13
4435,13
4436,13
4437,13
4438,13
4439,13
4440,13
4441,13
4442,13
4443,13
4444,13
4445,13
4446,13
4447,13
4448,13
4449,13
4450,13
4451,13
4452,13
4453,13
4454,13
4455,13
4456,13
4457,13
4458,13
4459,13
4460,13
4461,13
4462,13
4463,13
4464,13
4465,13
4466,13
4467,13
4468,13
4469,13
4470,13
4471,13
4472,13
4473,13
4474,13
4475,13
4476,13
4477,13
4478,13
4479,13
4480,13
4481,13
4482,13
4483,13
4484,13
4485,13
4486,14
4487,13
4488,13
4489,13
4490,13
4491,13
4492,13
4493,13
4494,13
4495,13
4496,13
4497,13
4498,13
4499,13
4500,13
4501,13
4502,13
4503,13
4504,13
4505,13
4506,13
4507,13
4508,13
4509,13
4510,13
4511,13
4512,13
4513,13
4514,13
4515,13
4516,13
4517,13
4518,13
4519,13
4520,13
4521,13
4522,13
4523,13
4524,13
4525,13
4526,13
4527,13
4528,13
4529,13
4530,13
4531,13
4532,13
4533,13
4534,13
4535,13
4536,13
4537,13
4538,13
4539,13
4540,13
4541,13
4542,13
4543,13
4544,13
4545,13
4546,13
4547,13
4548,13
4549,13
4550,13
4551,13
4552,13
4553,13
4554,13
4555,13
4556,13
4557,13
4558,13
4559,13
4560,13
4561,13
4562,13
4563,13
4564,13
4565,13
4566,13
4567,13
4568,13
4569,13
4570,13
4571,13
4572,13
4573,13
4574,13
4575,13
4576,13
4577,13
4578,13
4579,13
4580,13
4581,13
4582,13
4583,13
4584,13
4585,13
4586,13
4587,13
4588,13
4589,13
4590,13
4591,13
4592,14
4593,14
4594,14
4595,14
4596,14
4597,14
4598,14
4599,14
4600,14
4601,14
4602,14
4603,14
4604,14
4605,14
4606,14
4607,14
4608,14
4609,14
4610,14
4611,14
4612,14
4613,14
4614,14
4615,14
4616,14
4617,14
4618,14
4619,14
4620,14
4621,14
4622,14
4623,14
4624,14
4625,14
4626,14
4627,14
4628,14
4629,14
4630,14
4631,14
4632,14
4633,14
4634,14
4635,14
4636,14
4637,14
4638,14
4639,14
4640,14
4641,15
4642,15
4643,15
4644,15
4645,15
4646,15
4647,15
4648,15
4649,15
4650,15
4651,15
4652,15
4653,15
4654,15
4655,15
4656,15
4657,15
4658,15
4659,15
4660,15
4661,15
4662,15
4663,15
4664,15
4665,15
4666,15
4667,15
4668,15
4669,15
4670,15
4671,15
4672,15
4673,15
4674,15
4675,15
4676,15
4677,15
4678,15
4679,15
4680,15
4681,15
4682,15
4683,15
4684,15
4685,15
4686,15
4687,15
4688,15
4689,15
4690,15
4691,15
4692,15
4693,15
4694,15
4695,15
4696,15
4697,15
4698,15
4699,15
4700,15
4701,15
4702,15
4703,15
4704,15
4705,15
4706,15
4707,15
4708,15
4709,15
4710,15
4711,15
4712,15
4713,15
4714,15
4715,15
4716,15
4717,15
4718,15
4719,15
4720,15
4721,15
4722,15
4723,15
4724,15
4725,15
4726,15
4727,15
4728,15
4729,15
4730,15
4731,15
4732,15
4733,15
4734,15
4735,15
4736,15
4737,15
4738,15
4739,15
4740,15
4741,15
4742,15
4743,15
4744,15
4745,15
4746,15
4747,15
4748,15
4749,15
4750,15
4751,15
4752,15
4753,15
4754,15
4755,15
4756,15
4757,15
4758,15
4759,15
4760,15
4761,15
4762,15
4763,15
4764,15
4765,15
4766,15
4767,15
4768,15
4769,15
4770,15
4771,15
4772,16
4773,16
4774,16
4775,16
4776,16
4777,16
4778,16
4779,16
4780,17
4781,16
4782,16
4783,16
4784,16
4785,16
4786,16
4787,16
4788,16
4789,16
4790,16
4791,16
4792,16
4793,16
4794,16
4795,16
4796,16
4797,16
4798,16
4799,16
4800,16
4801,16
4802,16
4803,16
4804,16
4805,16
4806,16
4807,16
4808,16
4809,16
4810,16
4811,16
4812,16
4813,16
4814,16
4815,16
4816,16
4817,16
4818,16
4819,16
4820,16
4821,16
4822,16
4823,16
4824,16
4825,17
4826,17
4827,16
4828,16
4829,16
4830,16
4831,16
4832,16
4833,16
4834,16
4835,16
4836,16
4837,16
4838,16
4839,16
4840,16
4841,16
4842,16
4843,16
4844,16
4845,17
4846,17
4847,17
4848,17
4849,17
4850,17
4851,17
4852,17
4853,17
4854,17
4855,17
4856,17
4857,17
4858,17
4859,16
4860,16
4861,16
4862,16
4863,16
4864,16
4865,16
4866,16
4867,16
4868,16
4869,16
4870,16
4871,16
4872,16
4873,16
4874,16
4875,16
4876,16
4877,16
4878,16
4879,16
4880,16
4881,16
4882,16
4883,16
4884,16
4885,16
4886,16
4887,16
4888,17
4889,16
4890,16
4891,16
4892,16
4893,16
4894,16
4895,16
4896,16
4897,16
4898,16
4899,16
4900,16
4901,16
4902,16
4903,16
4904,16
4905,16
4906,16
4907,16
4908,16
4909,16
4910,16
4911,16
4912,16
4913,16
4914,16
4915,16
4916,16
4917,16
4918,17
4919,16
4920,16
4921,16
4922,16
4923,16
4924,16
4925,16
4926,16
4927,16
4928,16
4929,16
4930,16
4931,16
4932,16
4933,16
4934,16
4935,16
4936,16
4937,16
4938,16
4939,16
4940,16
4941,16
4942,16
4943,16
4944,16
4945,16
4946,16
4947,16
4948,16
4949,16
4950,16
4951,16
4952,16
4953,16
4954,16
4955,16
4956,16
4957,16
4958,16
4959,16
4960,16
4961,16
4962,16
4963,16
4964,16
4965,16
4966,16
4967,16
4968,16
4969,16
4970,16
4971,16
4972,16
4973,16
4974,16
4975,16
4976,16
4977,16
4978,16
4979,16
4980,16
4981,16
4982,16
4983,16
4984,16
4985,16
4986,16
4987,16
4988,16
4989,16
4990,16
4991,16
4992,16
4993,16
4994,16
4995,16
4996,16
4997,16
4998,16
4999,16
5000,16
5001,16
5002,16
5003,16
5004,16
5005,16
5006,16
5007,16
5008,16
5009,16
5010,16
5011,16
5012,16
5013,16
5014,16
5015,16
5016,16
5017,16
5018,16
5019,16
5020,16
5021,16
5022,16
5023,16
5024,16
5025,16
5026,16
5027,16
5028,16
5029,16
5030,16
5031,16
5032,16
5033,16
5034,16
5035,16
5036,16
5037,16
5038,16
5039,16
5040,16
5041,16
5042,16
5043,16
5044,16
5045,16
5046,16
5047,16
5048,16
5049,16
5050,16
5051,16
5052,16
5053,16
5054,16
5055,16
5056,16
5057,16
5058,16
5059,16
5060,16
5061,16
5062,16
5063,16
5064,16
5065,16
5066,16
5067,16
5068,16
5069,16
5070,16
5071,16
5072,16
5073,16
5074,16
5075,16
5076,16
5077,16
5078,16
5079,16
5080,16
5081,16
5082,16
5083,16
5084,16
5085,16
5086,16
5087,16
5088,16
5089,16
5090,16
5091,16
5092,16
5093,16
5094,16
5095,16
5096,16
5097,16
5098,16
5099,16
5100,16
5101,16
5102,16
5103,16
5104,16
5105,16
5106,16
5107,16
5108,16
5109,16
5110,16
5111,16
5112,16
5113,16
5114,16
5115,16
5116,16
5117,16
5118,16
5119,16
5120,16
5121,16
5122,16
5123,16
5124,16
5125,16
5126,16
5127,17
5128,16
5129,16
5130,16
5131,16
5132,16
5133,16
5134,16
5135,16
5136,16
5137,16
5138,16
5139,16
5140,16
5141,16
5142,16
5143,16
5144,16
5145,16
5146,16
5147,16
5148,16
5149,16
5150,16
5151,16
5152,16
5153,16
5154,16
5155,16
5156,16
5157,16
5158,16
5159,16
5160,16
5161,16
5162,16
5163,16
5164,16
5165,16
5166,16
5167,16
5168,16
5169,16
5170,16
5171,16
5172,16
5173,16
5174,16
5175,16
5176,16
5177,16
5178,16
5179,16
5180,16
5181,16
5182,16
5183,16
5184,16
5185,16
5186,16
5187,16
5188,16
5189,16
5190,16
5191,16
5192,16
5193,16
5194,16
5195,16
5196,16
5197,16
5198,17
5199,16
5200,16
5201,16
5202,16
5203,16
5204,16
5205,16
5206,16
5207,16
5208,16
5209,16
5210,16
5211,16
5212,16
5213,16
5214,16
5215,16
5216,16
5217,16
5218,16
5219,16
5220,16
5221,16
5222,16
5223,16
5224,16
5225,16
5226,16
5227,16
5228,16
5229,16
5230,16
5231,16
5232,16
5233,16
5234,16
5235,16
5236,16
5237,16
5238,16
5239,16
5240,16
5241,16
5242,16
5243,16
5244,16
5245,16
5246,16
5247,16
5248,16
5249,16
5250,16
5251,16
5252,16
5253,16
5254,16
5255,16
5256,16
5257,16
5258,16
5259,16
5260,16
5261,16
5262,16
5263,16
5264,16
5265,16
5266,16
5267,16
5268,16
5269,16
5270,16
5271,16
5272,16
5273,16
5274,16
5275,16
5276,16
5277,16
5278,16
5279,16
5280,16
5281,16
5282,16
5283,16
5284,16
5285,16
5286,16
5287,16
5288,16
5289,16
5290,16
5291,16
5292,16
5293,16
5294,16
5295,16
5296,16
5297,16
5298,17
5299,16
5300,16
5301,17
5302,17
5303,17
5304,17
5305,17
5306,17
5307,17
5308,17
5309,17
5310,17
5311,17
5312,17
5313,17
5314,17
5315,17
5316,17
5317,17
5318,17
5319,17
5320,17
5321,17
5322,17
5323,17
5324,17
5325,17
5326,16
5327,16
5328,16
5329,16
5330,16
5331,16
5332,16
5333,16
5334,16
5335,16
5336,16
5337,16
5338,16
5339,16
5340,16
5341,16
5342,16
5343,16
5344,16
5345,16
5346,16
5347,16
5348,16
5349,16
5350,16
5351,16
5352,16
5353,16
5354,16
5355,16
5356,16
5357,16
5358,16
5359,16
5360,16
5361,16
5362,16
5363,16
5364,16
5365,16
5366,16
5367,16
5368,16
5369,16
5370,16
5371,16
5372,16
5373,16
5374,16
5375,16
5376,16
5377,16
5378,16
5379,16
5380,16
5381,16
5382,16
5383,16
5384,16
5385,16
5386,16
5387,16
5388,16
5389,16
5390,16
5391,16
5392,16
5393,16
5394,16
5395,16
5396,16
5397,16
5398,16
5399,16
5400,16
5401,16
5402,16
5403,16
5404,16
5405,16
5406,16
5407,16
5408,16
5409,16
5410,16
5411,16
5412,16
5413,16
5414,16
5415,16
5416,16
5417,16
5418,16
5419,16
5420,16
5421,16
5422,16
5423,16
5424,16
5425,16
5426,16
5427,16
5428,16
5429,16
5430,16
5431,16
5432,16
5433,16
5434,16
5435,16
5436,16
5437,16
5438,16
5439,16
5440,16
5441,16
5442,16
5443,16
5444,16
5445,16
5446,16
5447,16
5448,16
5449,16
5450,16
5451,16
5452,16
5453,16
5454,16
5455,16
5456,16
5457,16
5458,16
5459,16
5460,16
5461,16
5462,16
5463,16
5464,16
5465,16
5466,16
5467,16
5468,16
5469,16
5470,16
5471,16
5472,16
5473,16
5474,16
5475,16
5476,16
5477,16
5478,16
5479,16
5480,16
5481,16
5482,16
5483,16
5484,16
5485,16
5486,16
5487,16
5488,16
5489,16
5490,16
5491,16
5492,16
5493,16
5494,16
5495,16
5496,16
5497,16
5498,16
5499,16
5500,16
5501,16
5502,16
5503,16
5504,16
5505,16
5506,16
5507,16
5508,16
5509,16
5510,16
5511,16
5512,16
5513,16
5514,16
5515,16
5516,16
5517,16
5518,16
5519,16
5520,16
5521,16
5522,16
5523,16
5524,16
5525,16
5526,16
5527,16
5528,16
5529,16
5530,16
5531,16
5532,16
5533,16
5534,16
5535,16
5536,16
5537,16
5538,16
5539,16
5540,16
5541,16
5542,16
5543,16
5544,16
5545,16
5546,16
5547,16
5548,16
5549,16
5550,16
5551,16
5552,16
5553,16
5554,16
5555,16
5556,16
5557,16
5558,16
5559,16
5560,16
5561,16
5562,16
5563,16
5564,16
5565,16
5566,16
5567,16
5568,16
5569,16
5570,16
5571,16
5572,16
5573,16
5574,16
5575,16
5576,16
5577,16
5578,16
5579,16
5580,16
5581,16
5582,16
5583,16
5584,16
5585,16
5586,16
5587,16
5588,16
5589,16
5590,16
5591,16
5592,16
5593,16
5594,16
5595,17
5596,17
5597,17
5598,16
5599,16
5600,16
5601,16
5602,16
5603,16
5604,16
5605,16
5606,16
5607,16
5608,16
5609,16
5610,16
5611,16
5612,16
5613,16
5614,16
5615,16
5616,16
5617,16
5618,16
5619,16
5620,16
5621,16
5622,16
5623,16
5624,16
5625,16
5626,16
5627,16
5628,16
5629,16
5630,16
5631,16
5632,16
5633,16
5634,16
5635,16
5636,16
5637,16
5638,16
5639,16
5640,16
5641,16
5642,16
5643,16
5644,16
5645,16
5646,16
5647,16
5648,16
5649,16
5650,16
5651,16
5652,16
5653,16
5654,16
5655,16
5656,16
5657,16
5658,16
5659,16
5660,16
5661,16
5662,16
5663,16
5664,16
5665,16
5666,16
5667,16
5668,16
5669,16
5670,16
5671,16
5672,16
5673,16
5674,16
5675,16
5676,16
5677,16
5678,16
5679,16
5680,16
5681,16
5682,16
5683,16
5684,16
5685,16
5686,16
5687,16
5688,16
5689,16
5690,16
5691,16
5692,16
5693,16
5694,16
5695,16
5696,16
5697,16
5698,16
5699,16
5700,16
5701,16
5702,16
5703,16
5704,16
5705,16
5706,16
5707,16
5708,16
5709,16
5710,16
5711,16
5712,16
5713,16
5714,16
5715,16
5716,16
5717,16
5718,16
5719,16
5720,16
5721,16
5722,16
5723,16
5724,16
5725,16
5726,16
5727,16
5728,16
5729,16
5730,16
5731,16
5732,16
5733,16
5734,16
5735,16
5736,16
5737,16
5738,16
5739,16
5740,16
5741,16
5742,16
5743,16
5744,16
5745,16
5746,16
5747,16
5748,16
5749,16
5750,16
5751,16
5752,16
5753,16
5754,16
5755,16
5756,16
5757,16
5758,16
5759,16
5760,16
5761,16
5762,16
5763,16
5764,16
5765,16
5766,16
5767,16
5768,16
5769,16
5770,16
5771,16
5772,17
5773,16
5774,16
5775,16
5776,16
5777,16
5778,16
5779,16
5780,16
5781,16
5782,16
5783,16
5784,16
5785,16
5786,16
5787,16
5788,16
5789,16
5790,16
5791,16
5792,16
5793,16
5794,16
5795,16
5796,16
5797,16
5798,16
5799,16
5800,16
5801,16
5802,16
5803,16
5804,16
5805,16
5806,17
5807,17
5808,17
5809,17
5810,17
5811,17
5812,17
5813,17
5814,17
5815,17
5816,17
5817,16
5818,16
5819,17
5820,17
5821,17
5822,17
5823,17
5824,17
5825,17
5826,16
5827,16
5828,16
5829,16
5830,16
5831,16
5832,16
5833,16
5834,16
5835,16
5836,16
5837,16
5838,16
5839,16
5840,16
5841,16
5842,16
5843,16
5844,16
5845,16
5846,16
5847,16
5848,16
5849,16
5850,16
5851,16
5852,16
5853,16
5854,16
5855,16
5856,16
5857,16
5858,16
5859,16
5860,16
5861,16
5862,16
5863,16
5864,16
5865,16
5866,16
5867,16
5868,16
5869,16
5870,16
5871,16
5872,16
5873,16
5874,16
5875,16
5876,16
5877,16
5878,16
5879,16
5880,16
5881,16
5882,16
5883,16
5884,16
5885,16
5886,16
5887,16
5888,16
5889,16
5890,16
5891,16
5892,16
5893,16
5894,16
5895,16
5896,16
5897,16
5898,16
5899,16
5900,16
5901,16
5902,16
5903,16
5904,16
5905,16
5906,16
5907,16
5908,16
5909,16
5910,16
5911,16
5912,16
5913,16
5914,16
5915,16
5916,16
5917,16
5918,16
5919,16
5920,16
5921,16
5922,16
5923,16
5924,16
5925,16
5926,16
5927,16
5928,16
5929,17
5930,17
5931,17
5932,17
5933,17
5934,17
5935,17
5936,17
5937,17
5938,17
5939,17
5940,17
5941,17
5942,17
5943,17
5944,17
5945,17
5946,17
5947,17
5948,17
5949,17
5950,17
5951,17
5952,17
5953,17
5954,17
5955,17
5956,17
5957,17
5958,17
5959,17
5960,17
5961,17
5962,17
5963,17
5964,17
5965,17
5966,17
5967,17
5968,17
5969,17
5970,17
5971,17
5972,17
5973,17
5974,17
5975,17
5976,17
5977,17
5978,17
5979,17
5980,17
5981,17
5982,17
5983,17
5984,17
5985,17
5986,17
5987,17
5988,17
5989,17
5990,17
5991,17
5992,17
5993,17
5994,17
5995,17
5996,17
5997,17
5998,17
5999,17
6000,17
6001,17
6002,17
6003,17
6004,17
6005,17
6006,17
6007,17
6008,17
6009,17
6010,17
6011,17
6012,17
6013,17
6014,17
6015,17
6016,17
6017,17
6018,17
6019,17
6020,17
6021,17
6022,17
6023,17
6024,17
6025,17
6026,18
6027,17
6028,17
6029,17
6030,17
6031,17
6032,17
6033,17
6034,17
6035,17
6036,17
6037,17
6038,17
6039,17
6040,17
6041,17
6042,17
6043,17
6044,17
6045,17
6046,17
6047,17
6048,17
6049,17
6050,17
6051,17
6052,17
6053,17
6054,17
6055,17
6056,17
6057,17
6058,17
6059,17
6060,17
6061,17
6062,17
6063,17
6064,17
6065,17
6066,17
6067,17
6068,17
6069,17
6070,17
6071,17
6072,17
6073,17
6074,17
6075,17
6076,17
6077,17
6078,17
6079,17
6080,17
6081,17
6082,17
6083,17
6084,17
6085,17
6086,17
6087,17
6088,17
6089,17
6090,17
6091,17
6092,17
6093,17
6094,17
6095,17
6096,17
6097,17
6098,17
6099,17
6100,17
6101,17
6102,17
6103,17
6104,17
6105,17
6106,17
6107,17
6108,17
6109,17
6110,17
6111,17
6112,17
6113,17
6114,17
6115,17
6116,17
6117,17
6118,17
6119,17
6120,17
6121,17
6122,17
6123,17
6124,17
6125,17
6126,17
6127,17
6128,17
6129,17
6130,17
6131,17
6132,17
6133,17
6134,17
6135,17
6136,17
6137,17
6138,17
6139,17
6140,17
6141,17
6142,17
6143,17
6144,17
6145,17
6146,17
6147,17
6148,17
6149,17
6150,17
6151,17
6152,17
6153,17
6154,17
6155,17
6156,17
6157,17
6158,17
6159,17
6160,17
6161,17
6162,17
6163,17
6164,17
6165,17
6166,17
6167,17
6168,17
6169,17
6170,17
6171,17
6172,17
6173,17
6174,17
6175,17
6176,17
6177,17
6178,17
6179,17
6180,17
6181,17
6182,17
6183,17
6184,17
6185,17
6186,17
6187,17
6188,17
6189,17
6190,17
6191,17
6192,17
6193,17
6194,17
6195,17
6196,17
6197,17
6198,17
6199,17
6200,17
6201,17
6202,17
6203,17
6204,17
6205,17
6206,17
6207,17
6208,17
6209,17
6210,17
6211,17
6212,17
6213,17
6214,17
6215,17
6216,17
6217,17
6218,17
6219,17
6220,17
6221,17
6222,17
6223,17
6224,17
6225,17
6226,17
6227,17
6228,17
6229,17
6230,17
6231,17
6232,17
6233,17
6234,17
6235,17
6236,17
6237,17
6238,17
6239,17
6240,17
6241,17
6242,17
6243,17
6244,17
6245,17
6246,17
6247,17
6248,17
6249,17
6250,17
6251,17
6252,17
6253,17
6254,17
6255,17
6256,17
6257,17
6258,17
6259,17
6260,17
6261,17
6262,17
6263,17
6264,17
6265,17
6266,17
6267,17
6268,17
6269,17
6270,17
6271,17
6272,17
6273,17
6274,17
6275,17
6276,17
6277,17
6278,17
6279,17
6280,17
6281,17
6282,17
6283,17
6284,17
6285,17
6286,17
6287,17
6288,17
6289,17
6290,17
6291,17
6292,17
6293,17
6294,17
6295,17
6296,17
6297,17
6298,17
6299,17
6300,17
6301,17
6302,17
6303,17
6304,17
6305,17
6306,17
6307,17
6308,17
6309,17
6310,17
6311,17
6312,17
6313,17
6314,17
6315,17
6316,17
6317,17
6318,17
6319,17
6320,17
6321,17
6322,17
6323,17
6324,17
6325,17
6326,17
6327,17
6328,17
6329,17
6330,17
6331,17
6332,17
6333,17
6334,17
6335,17
6336,17
6337,17
6338,17
6339,17
6340,17
6341,17
6342,17
6343,17
6344,17
6345,17
6346,17
6347,17
6348,17
6349,17
6350,17
6351,17
6352,17
6353,17
6354,17
6355,17
6356,17
6357,17
6358,17
6359,17
6360,17
6361,17
6362,17
6363,17
6364,17
6365,17
6366,17
6367,17
6368,17
6369,17
6370,17
6371,17
6372,17
6373,17
6374,17
6375,17
6376,17
6377,17
6378,17
6379,17
6380,17
6381,17
6382,17
6383,17
6384,17
6385,17
6386,17
6387,17
6388,17
6389,17
6390,17
6391,17
6392,17
6393,17
6394,17
6395,17
6396,17
6397,17
6398,17
6399,17
6400,17
6401,17
6402,17
6403,17
6404,17
6405,17
6406,17
6407,17
6408,17
6409,17
6410,17
6411,17
6412,17
6413,17
6414,17
6415,17
6416,17
6417,17
6418,17
6419,17
6420,17
6421,17
6422,17
6423,17
6424,17
6425,17
6426,17
6427,17
6428,17
6429,17
6430,17
6431,17
6432,17
6433,17
6434,17
6435,17
6436,17
6437,17
6438,17
6439,17
6440,17
6441,17
6442,17
6443,17
6444,17
6445,17
6446,17
6447,17
6448,17
6449,17
6450,17
6451,17
6452,17
6453,17
6454,17
6455,17
6456,17
6457,17
6458,17
6459,17
6460,17
6461,17
6462,17
6463,17
6464,17
6465,17
6466,17
6467,17
6468,17
6469,17
6470,17
6471,17
6472,17
6473,17
6474,17
6475,17
6476,17
6477,17
6478,17
6479,17
6480,17
6481,17
6482,17
6483,17
6484,17
6485,17
6486,17
6487,17
6488,18
6489,17
6490,17
6491,17
6492,17
6493,17
6494,17
6495,17
6496,17
6497,17
6498,17
6499,17
6500,17
6501,17
6502,17
6503,17
6504,17
6505,17
6506,17
6507,17
6508,17
6509,17
6510,17
6511,17
6512,17
6513,17
6514,17
6515,17
6516,17
6517,18
6518,18
6519,18
6520,18
6521,18
6522,17
6523,17
6524,17
6525,17
6526,17
6527,17
6528,17
6529,17
6530,17
6531,17
6532,17
6533,17
6534,17
6535,17
6536,17
6537,17
6538,17
6539,17
6540,17
6541,17
6542,17
6543,17
6544,17
6545,17
6546,17
6547,17
6548,17
6549,17
6550,17
6551,17
6552,17
6553,17
6554,17
6555,17
6556,17
6557,17
6558,17
6559,17
6560,17
6561,17
6562,17
6563,17
6564,17
6565,17
6566,17
6567,17
6568,17
6569,17
6570,17
6571,17
6572,17
6573,17
6574,17
6575,17
6576,17
6577,17
6578,17
6579,17
6580,17
6581,17
6582,17
6583,17
6584,17
6585,17
6586,17
6587,17
6588,17
6589,17
6590,17
6591,17
6592,17
6593,17
6594,17
6595,17
6596,17
6597,17
6598,17
6599,17
6600,17
6601,17
6602,17
6603,17
6604,17
6605,17
6606,17
6607,17
6608,17
6609,17
6610,17
6611,17
6612,17
6613,17
6614,17
6615,17
6616,17
6617,17
6618,17
6619,17
6620,17
6621,17
6622,17
6623,18
6624,17
6625,17
6626,17
6627,17
6628,17
6629,17
6630,17
6631,17
6632,17
6633,17
6634,17
6635,17
6636,17
6637,17
6638,17
6639,17
6640,17
6641,17
6642,17
6643,17
6644,17
6645,17
6646,17
6647,17
6648,17
6649,17
6650,17
6651,17
6652,17
6653,17
6654,17
6655,17
6656,17
6657,17
6658,17
6659,17
6660,17
6661,17
6662,17
6663,17
6664,17
6665,17
6666,17
6667,17
6668,17
6669,17
6670,17
6671,17
6672,17
6673,17
6674,17
6675,17
6676,17
6677,17
6678,17
6679,17
6680,17
6681,17
6682,17
6683,17
6684,17
6685,17
6686,17
6687,17
6688,17
6689,17
6690,17
6691,17
6692,17
6693,17
6694,17
6695,17
6696,17
6697,17
6698,17
6699,17
6700,17
6701,17
6702,17
6703,18
6704,18
6705,17
6706,17
6707,17
6708,17
6709,17
6710,17
6711,17
6712,17
6713,17
6714,17
6715,17
6716,17
6717,17
6718,17
6719,18
6720,18
6721,18
6722,18
6723,18
6724,18
6725,18
6726,18
6727,18
6728,18
6729,18
6730,18
6731,18
6732,18
6733,18
6734,18
6735,18
6736,18
6737,18
6738,18
6739,18
6740,18
6741,18
6742,18
6743,18
6744,18
6745,18
6746,18
6747,18
6748,18
6749,18
6750,18
6751,18
6752,18
6753,18
6754,18
6755,18
6756,18
6757,18
6758,18
6759,18
6760,18
6761,18
6762,18
6763,18
6764,18
6765,18
6766,18
6767,18
6768,18
6769,18
6770,18
6771,18
6772,18
6773,18
6774,18
6775,18
6776,18
6777,18
6778,18
6779,18
6780,18
6781,18
6782,18
6783,18
6784,18
6785,18
6786,18
6787,18
6788,18
6789,18
6790,18
6791,18
6792,18
6793,18
6794,18
6795,18
6796,18
6797,18
6798,18
6799,18
6800,18
6801,18
6802,18
6803,18
6804,18
6805,18
6806,18
6807,18
6808,18
6809,18
6810,18
6811,18
6812,18
6813,18
6814,18
6815,18
6816,18
6817,18
6818,18
6819,18
6820,18
6821,18
6822,18
6823,18
6824,18
6825,18
6826,18
6827,18
6828,18
6829,18
6830,18
6831,18
6832,18
6833,18
6834,18
6835,18
6836,18
6837,18
6838,18
6839,18
6840,18
6841,18
6842,18
6843,18
6844,18
6845,18
6846,18
6847,18
6848,18
6849,18
6850,18
6851,18
6852,18
6853,18
6854,18
6855,18
6856,18
6857,18
6858,18
6859,18
6860,18
6861,18
6862,18
6863,18
6864,18
6865,18
6866,18
6867,18
6868,18
6869,18
6870,18
6871,18
6872,18
6873,18
6874,18
6875,18
6876,18
6877,18
6878,18
6879,18
6880,18
6881,19
6882,19
6883,18
6884,18
6885,18
6886,18
6887,18
6888,18
6889,18
6890,18
6891,18
6892,18
6893,18
6894,18
6895,18
6896,18
6897,18
6898,18
6899,18
6900,18
6901,18
6902,18
6903,18
6904,18
6905,18
6906,18
6907,18
6908,18
6909,18
6910,18
6911,18
6912,18
6913,18
6914,18
6915,18
6916,18
6917,18
6918,18
6919,19
6920,19
6921,19
6922,19
6923,19
6924,19
6925,19
6926,19
6927,19
6928,19
6929,19
6930,20
6931,20
6932,20
6933,20
6934,20
6935,20
6936,20
6937,20
6938,19
6939,19
6940,19
6941,19
6942,19
6943,19
6944,18
6945,18
6946,18
6947,18
6948,18
6949,18
6950,18
6951,18
6952,18
6953,18
6954,18
6955,18
6956,18
6957,18
6958,18
6959,18
6960,18
6961,18
6962,18
6963,18
6964,18
6965,18
6966,18
6967,18
6968,18
6969,18
6970,18
6971,18
6972,18
6973,18
6974,18
6975,18
6976,18
6977,19
6978,19
6979,19
6980,19
6981,19
6982,19
6983,19
6984,19
6985,19
6986,19
6987,19
6988,19
6989,19
6990,19
6991,19
6992,19
6993,19
6994,19
6995,19
6996,19
6997,19
6998,19
6999,19
7000,19
7001,19
7002,19
7003,19
7004,19
7005,19
7006,19
7007,19
7008,19
7009,19
7010,19
7011,19
7012,19
7013,19
7014,19
7015,19
7016,19
7017,19
7018,19
7019,19
7020,19
7021,19
7022,19
7023,19
7024,19
7025,19
7026,19
7027,19
7028,19
7029,19
7030,19
7031,19
7032,19
7033,19
7034,19
7035,19
7036,19
7037,19
7038,19
7039,19
7040,19
7041,19
7042,19
7043,19
7044,19
7045,19
7046,19
7047,19
7048,19
7049,19
7050,19
7051,19
7052,19
7053,19
7054,19
7055,19
7056,19
7057,19
7058,19
7059,19
7060,19
7061,19
7062,19
7063,19
7064,19
7065,19
7066,19
7067,19
7068,19
7069,19
7070,19
7071,19
7072,19
7073,19
7074,19
7075,19
7076,19
7077,19
7078,19
7079,19
7080,19
7081,19
7082,19
7083,19
7084,19
7085,19
7086,19
7087,19
7088,19
7089,19
7090,19
7091,19
7092,19
7093,19
7094,19
7095,19
7096,19
7097,19
7098,19
7099,19
7100,19
7101,19
7102,19
7103,19
7104,19
7105,19
7106,19
7107,19
7108,19
7109,19
7110,19
7111,19
7112,19
7113,19
7114,19
7115,19
7116,19
7117,19
7118,19
7119,19
7120,19
7121,19
7122,19
7123,19
7124,19
7125,19
7126,19
7127,19
7128,19
7129,19
7130,19
7131,19
7132,19
7133,19
7134,19
7135,19
7136,19
7137,19
7138,19
7139,19
7140,19
7141,19
7142,19
7143,19
7144,19
7145,19
7146,19
7147,19
7148,19
7149,19
7150,19
7151,19
7152,19
7153,19
7154,19
7155,19
7156,19
7157,19
7158,19
7159,19
7160,19
7161,19
7162,19
7163,19
7164,19
7165,19
7166,19
7167,19
7168,19
7169,19
7170,19
7171,19
7172,19
7173,19
7174,19
7175,19
7176,19
7177,19
7178,19
7179,19
7180,19
7181,19
7182,20
7183,19
7184,19
7185,19
7186,19
7187,19
7188,19
7189,19
7190,19
7191,19
7192,19
7193,19
7194,19
7195,19
7196,19
7197,19
7198,19
7199,19
7200,19
7201,19
7202,19
7203,19
7204,19
7205,19
7206,19
7207,19
7208,19
7209,19
7210,19
7211,19
7212,19
7213,19
7214,19
7215,20
7216,20
7217,20
7218,20
7219,20
7220,20
7221,20
7222,20
7223,19
7224,19
7225,19
7226,19
7227,19
7228,19
7229,19
7230,19
7231,19
7232,19
7233,19
7234,19
7235,19
7236,19
7237,19
7238,19
7239,19
7240,19
7241,19
7242,19
7243,19
7244,19
7245,19
7246,19
7247,19
7248,19
7249,19
7250,19
7251,19
7252,19
7253,19
7254,19
7255,19
7256,19
7257,19
7258,19
7259,19
7260,19
7261,19
7262,19
7263,19
7264,19
7265,19
7266,19
7267,19
7268,19
7269,19
7270,19
7271,19
7272,19
7273,19
7274,19
7275,19
7276,19
7277,19
7278,19
7279,19
7280,19
7281,19
7282,19
7283,19
7284,19
7285,19
7286,19
7287,19
7288,19
7289,19
7290,19
7291,19
7292,19
7293,19
7294,19
7295,19
7296,19
7297,19
7298,19
7299,19
7300,19
7301,19
7302,19
7303,19
7304,19
7305,19
7306,19
7307,19
7308,19
7309,20
7310,20
7311,20
7312,20
7313,20
7314,19
7315,19
7316,19
7317,19
7318,19
7319,19
7320,19
7321,19
7322,19
7323,19
7324,19
7325,19
7326,19
7327,19
7328,19
7329,19
7330,19
7331,19
7332,19
7333,19
7334,19
7335,19
7336,19
7337,19
7338,19
7339,19
7340,19
7341,19
7342,19
7343,19
7344,19
7345,19
7346,19
7347,19
7348,19
7349,19
7350,19
7351,19
7352,19
7353,19
7354,19
7355,19
7356,19
7357,19
7358,19
7359,19
7360,19
7361,19
7362,19
7363,19
7364,20
7365,20
7366,20
7367,20
7368,20
7369,20
7370,20
7371,20
7372,20
7373,20
7374,20
7375,20
7376,20
7377,20
7378,20
7379,20
7380,20
7381,20
7382,20
7383,20
7384,20
7385,20
7386,20
7387,20
7388,20
7389,20
7390,20
7391,20
7392,20
7393,20
7394,20
7395,20
7396,20
7397,20
7398,20
7399,20
7400,20
7401,20
7402,20
7403,20
7404,20
7405,20
7406,20
7407,20
7408,20
7409,20
7410,20
7411,20
7412,20
7413,20
7414,20
7415,20
7416,20
7417,20
7418,20
7419,20
7420,20
7421,20
7422,20
7423,20
7424,20
7425,20
7426,20
7427,20
7428,20
7429,20
7430,20
7431,20
7432,20
7433,20
7434,20
7435,20
7436,20
7437,20
7438,20
7439,20
7440,20
7441,20
7442,20
7443,20
7444,20
7445,20
7446,20
7447,20
7448,20
7449,20
7450,20
7451,20
7452,20
7453,20
7454,20
7455,20
7456,20
7457,20
7458,20
7459,20
7460,20
7461,20
7462,20
7463,20
7464,20
7465,20
7466,20
7467,20
7468,20
7469,20
7470,20
7471,20
7472,20
7473,20
7474,20
7475,20
7476,20
7477,20
7478,20
7479,20
7480,20
7481,20
7482,20
7483,20
7484,20
7485,20
7486,20
7487,20
7488,20
7489,20
7490,20
7491,20
7492,20
7493,20
7494,20
7495,20
7496,20
7497,20
7498,20
7499,20
7500,20
7501,20
7502,20
7503,20
7504,20
7505,20
7506,20
7507,20
7508,20
7509,20
7510,20
7511,20
7512,20
7513,20
7514,20
7515,20
7516,20
7517,20
7518,20
7519,21
7520,21
7521,20
7522,20
7523,20
7524,20
7525,20
7526,20
7527,20
7528,20
7529,20
7530,20
7531,20
7532,20
7533,20
7534,20
7535,20
7536,20
7537,20
7538,20
7539,20
7540,20
7541,20
7542,20
7543,20
7544,20
7545,20
7546,20
7547,20
7548,20
7549,20
7550,20
7551,20
7552,20
7553,20
7554,20
7555,20
7556,20
7557,20
7558,20
7559,20
7560,20
7561,20
7562,20
7563,20
7564,20
7565,20
7566,20
7567,20
7568,20
7569,20
7570,20
7571,20
7572,20
7573,20
7574,20
7575,20
7576,20
7577,20
7578,20
7579,20
7580,20
7581,20
7582,20
7583,20
7584,20
7585,20
7586,20
7587,20
7588,20
7589,20
7590,20
7591,20
7592,20
7593,20
7594,20
7595,20
7596,20
7597,20
7598,20
7599,20
7600,20
7601,20
7602,20
7603,20
7604,20
7605,20
7606,20
7607,20
7608,20
7609,20
7610,20
7611,20
7612,20
7613,20
7614,20
7615,20
7616,20
7617,20
7618,20
7619,20
7620,20
7621,20
7622,20
7623,20
7624,20
7625,20
7626,20
7627,20
7628,20
7629,20
7630,20
7631,20
7632,20
7633,20
7634,20
7635,20
7636,20
7637,20
7638,21
7639,20
7640,20
7641,20
7642,20
7643,20
7644,20
7645,20
7646,20
7647,20
7648,20
7649,20
7650,20
7651,20
7652,20
7653,20
7654,20
7655,20
7656,20
7657,20
7658,20
7659,20
7660,20
7661,20
7662,20
7663,20
7664,20
7665,20
7666,20
7667,20
7668,20
7669,20
7670,20
7671,20
7672,20
7673,20
7674,20
7675,20
7676,20
7677,20
7678,20
7679,20
7680,20
7681,20
7682,20
7683,20
7684,20
7685,20
7686,20
7687,20
7688,20
7689,20
7690,20
7691,20
7692,20
7693,20
7694,20
7695,20
7696,20
7697,20
7698,20
7699,20
7700,20
7701,20
7702,20
7703,20
7704,20
7705,20
7706,20
7707,20
7708,20
7709,20
7710,20
7711,20
7712,20
7713,20
7714,20
7715,20
7716,20
7717,20
7718,20
7719,20
7720,20
7721,20
7722,20
7723,20
7724,20
7725,20
7726,20
7727,20
7728,20
7729,20
7730,20
7731,20
7732,20
7733,20
7734,20
7735,20
7736,20
7737,20
7738,20
7739,20
7740,20
7741,20
7742,20
7743,20
7744,20
7745,20
7746,20
7747,20
7748,20
7749,20
7750,20
7751,20
7752,20
7753,20
7754,20
7755,20
7756,21
7757,20
7758,20
7759,20
7760,20
7761,20
7762,20
7763,20
7764,20
7765,20
7766,20
7767,20
7768,20
7769,20
7770,20
7771,20
7772,20
7773,20
7774,20
7775,20
7776,20
7777,20
7778,20
7779,20
7780,20
7781,20
7782,20
7783,20
7784,20
7785,20
7786,20
7787,20
7788,20
7789,20
7790,20
7791,20
7792,20
7793,20
7794,20
7795,20
7796,20
7797,20
7798,20
7799,20
7800,20
7801,20
7802,20
7803,20
7804,20
7805,20
7806,20
7807,20
7808,20
7809,20
7810,20
7811,20
7812,20
7813,20
7814,20
7815,20
7816,20
7817,20
7818,20
7819,20
7820,20
7821,20
7822,20
7823,20
7824,20
7825,20
7826,20
7827,20
7828,20
7829,20
7830,20
7831,20
7832,20
7833,20
7834,20
7835,20
7836,20
7837,20
7838,20
7839,20
7840,20
7841,20
7842,20
7843,20
7844,20
7845,20
7846,20
7847,20
7848,20
7849,20
7850,20
7851,20
7852,20
7853,20
7854,20
7855,20
7856,20
7857,20
7858,20
7859,20
7860,20
7861,20
7862,20
7863,20
7864,20
7865,20
7866,20
7867,20
7868,20
7869,20
7870,20
7871,20
7872,20
7873,20
7874,20
7875,20
7876,20
7877,20
7878,20
7879,20
7880,20
7881,20
7882,20
7883,20
7884,20
7885,20
7886,20
7887,20
7888,20
7889,20
7890,20
7891,20
7892,20
7893,20
7894,20
7895,20
7896,20
7897,20
7898,20
7899,20
7900,20
7901,20
7902,20
7903,20
7904,20
7905,20
7906,20
7907,20
7908,20
7909,20
7910,20
7911,20
7912,20
7913,20
7914,20
7915,20
7916,20
7917,20
7918,20
7919,20
7920,20
7921,20
7922,20
7923,20
7924,20
7925,20
7926,20
7927,20
7928,20
7929,20
7930,20
7931,20
7932,20
7933,20
7934,20
7935,20
7936,20
7937,20
7938,20
7939,20
7940,20
7941,20
7942,20
7943,20
7944,20
7945,20
7946,20
7947,20
7948,20
7949,20
7950,20
7951,20
7952,20
7953,20
7954,20
7955,20
7956,20
7957,20
7958,20
7959,20
7960,20
7961,21
7962,22
7963,20
7964,20
7965,20
7966,20
7967,20
7968,20
7969,20
7970,20
7971,20
7972,20
7973,20
7974,20
7975,20
7976,20
7977,20
7978,20
7979,20
7980,20
7981,20
7982,20
7983,20
7984,20
7985,20
7986,20
7987,20
7988,20
7989,20
7990,20
7991,20
7992,20
7993,20
7994,20
7995,20
7996,20
7997,20
7998,20
7999,20
8000,20
8001,20
8002,20
8003,21
8004,21
8005,21
8006,20
8007,20
8008,20
8009,20
8010,20
8011,20
8012,20
8013,20
8014,20
8015,20
8016,20
8017,20
8018,20
8019,20
8020,20
8021,20
8022,20
8023,20
8024,20
8025,20
8026,20
8027,20
8028,20
8029,20
8030,20
8031,20
8032,20
8033,20
8034,20
8035,20
8036,20
8037,20
8038,20
8039,20
8040,20
8041,20
8042,20
8043,20
8044,20
8045,20
8046,20
8047,20
8048,20
8049,20
8050,20
8051,20
8052,20
8053,20
8054,20
8055,20
8056,20
8057,20
8058,20
8059,20
8060,20
8061,20
8062,20
8063,20
8064,20
8065,20
8066,20
8067,20
8068,20
8069,20
8070,20
8071,20
8072,20
8073,20
8074,20
8075,20
8076,20
8077,20
8078,20
8079,20
8080,20
8081,20
8082,20
8083,20
8084,20
8085,20
8086,20
8087,20
8088,20
8089,20
8090,20
8091,20
8092,20
8093,20
8094,21
8095,21
8096,21
8097,21
8098,21
8099,21
8100,21
8101,21
8102,21
8103,21
8104,21
8105,21
8106,21
8107,21
8108,21
8109,21
8110,21
8111,21
8112,21
8113,20
8114,20
8115,20
8116,20
8117,20
8118,20
8119,20
8120,20
8121,20
8122,20
8123,20
8124,20
8125,20
8126,20
8127,20
8128,20
8129,20
8130,20
8131,20
8132,20
8133,20
8134,20
8135,20
8136,20
8137,20
8138,20
8139,20
8140,20
8141,20
8142,20
8143,20
8144,20
8145,20
8146,20
8147,20
8148,20
8149,20
8150,20
8151,20
8152,20
8153,21
8154,21
8155,21
8156,21
8157,20
8158,20
8159,20
8160,20
8161,20
8162,20
8163,20
8164,20
8165,20
8166,20
8167,20
8168,20
8169,20
8170,20
8171,20
8172,20
8173,20
8174,20
8175,20
8176,20
8177,20
8178,20
8179,20
8180,20
8181,20
8182,20
8183,20
8184,20
8185,20
8186,20
8187,20
8188,20
8189,20
8190,20
8191,20
8192,20
8193,20
8194,20
8195,20
8196,20
8197,20
8198,20
8199,20
8200,20
8201,20
8202,20
8203,20
8204,20
8205,20
8206,20
8207,20
8208,20
8209,20
8210,20
8211,20
8212,20
8213,20
8214,20
8215,20
8216,20
8217,20
8218,20
8219,20
8220,20
8221,20
8222,20
8223,20
8224,20
8225,20
8226,20
8227,20
8228,20
8229,20
8230,20
8231,20
8232,20
8233,20
8234,20
8235,20
8236,20
8237,20
8238,20
8239,20
8240,20
8241,20
8242,20
8243,20
8244,20
8245,20
8246,20
8247,20
8248,20
8249,20
8250,20
8251,20
8252,20
8253,20
8254,20
8255,20
8256,20
8257,20
8258,20
8259,20
8260,20
8261,20
8262,20
8263,20
8264,20
8265,20
8266,20
8267,20
8268,20
8269,20
8270,20
8271,20
8272,20
8273,20
8274,20
8275,20
8276,20
8277,20
8278,20
8279,20
8280,20
8281,20
8282,20
8283,20
8284,20
8285,20
8286,20
8287,20
8288,20
8289,20
8290,20
8291,20
8292,20
8293,20
8294,20
8295,21
8296,21
8297,21
8298,21
8299,21
8300,21
8301,21
8302,20
8303,20
8304,20
8305,20
8306,20
8307,20
8308,20
8309,20
8310,20
8311,20
8312,20
8313,20
8314,20
8315,20
8316,20
8317,20
8318,20
8319,20
8320,20
8321,20
8322,20
8323,20
8324,20
8325,20
8326,20
8327,20
8328,20
8329,20
8330,20
8331,20
8332,20
8333,20
8334,20
8335,20
8336,20
8337,20
8338,20
8339,20
8340,20
8341,20
8342,20
8343,20
8344,20
8345,20
8346,20
8347,20
8348,20
8349,20
8350,20
8351,20
8352,20
8353,20
8354,20
8355,20
8356,20
8357,20
8358,20
8359,20
8360,20
8361,20
8362,20
8363,20
8364,20
8365,20
8366,20
8367,20
8368,20
8369,20
8370,20
8371,20
8372,20
8373,20
8374,20
8375,20
8376,20
8377,20
8378,21
8379,21
8380,21
8381,21
8382,21
8383,21
8384,22
8385,21
8386,21
8387,21
8388,21
8389,21
8390,21
8391,21
8392,21
8393,21
8394,21
8395,21
8396,22
8397,22
8398,22
8399,22
8400,21
8401,21
8402,21
8403,21
8404,21
8405,21
8406,21
8407,21
8408,21
8409,21
8410,21
8411,21
8412,21
8413,21
8414,21
8415,21
8416,21
8417,21
8418,21
8419,21
8420,21
8421,21
8422,21
8423,21
8424,21
8425,21
8426,21
8427,21
8428,21
8429,21
8430,21
8431,21
8432,21
8433,21
8434,21
8435,21
8436,21
8437,21
8438,21
8439,21
8440,21
8441,21
8442,21
8443,21
8444,21
8445,21
8446,21
8447,21
8448,21
8449,21
8450,21
8451,21
8452,21
8453,21
8454,21
8455,21
8456,21
8457,21
8458,21
8459,21
8460,21
8461,21
8462,21
8463,21
8464,21
8465,21
8466,21
8467,21
8468,21
8469,21
8470,21
8471,21
8472,21
8473,21
8474,21
8475,21
8476,21
8477,21
8478,21
8479,21
8480,21
8481,21
8482,21
8483,21
8484,21
8485,21
8486,21
8487,21
8488,21
8489,21
8490,21
8491,21
8492,21
8493,21
8494,21
8495,21
8496,21
8497,21
8498,21
8499,21
8500,21
8501,21
8502,21
8503,22
8504,22
8505,22
8506,22
8507,21
8508,21
8509,21
8510,21
8511,21
8512,21
8513,21
8514,21
8515,21
8516,21
8517,21
8518,21
8519,21
8520,21
8521,21
8522,21
8523,21
8524,21
8525,21
8526,21
8527,21
8528,21
8529,21
8530,21
8531,21
8532,21
8533,21
8534,21
8535,21
8536,21
8537,21
8538,21
8539,21
8540,21
8541,21
8542,21
8543,21
8544,21
8545,21
8546,21
8547,21
8548,21
8549,21
8550,21
8551,21
8552,21
8553,21
8554,21
8555,21
8556,21
8557,21
8558,21
8559,21
8560,21
8561,21
8562,21
8563,21
8564,21
8565,21
8566,21
8567,21
8568,21
8569,21
8570,21
8571,21
8572,21
8573,21
8574,21
8575,21
8576,21
8577,21
8578,21
8579,21
8580,21
8581,21
8582,21
8583,21
8584,21
8585,21
8586,21
8587,21
8588,21
8589,21
8590,21
8591,21
8592,21
8593,21
8594,21
8595,21
8596,21
8597,21
8598,21
8599,21
8600,21
8601,21
8602,21
8603,21
8604,21
8605,21
8606,21
8607,21
8608,21
8609,21
8610,21
8611,21
8612,21
8613,21
8614,21
8615,21
8616,21
8617,21
8618,21
8619,21
8620,21
8621,21
8622,21
8623,21
8624,21
8625,21
8626,21
8627,21
8628,21
8629,21
8630,21
8631,21
8632,21
8633,21
8634,21
8635,21
8636,22
8637,22
8638,22
8639,22
8640,22
8641,22
8642,22
8643,22
8644,22
8645,22
8646,21
8647,21
8648,21
8649,21
8650,21
8651,21
8652,21
8653,21
8654,21
8655,21
8656,21
8657,21
8658,21
8659,21
8660,21
8661,22
8662,22
8663,22
8664,22
8665,22
8666,22
8667,21
8668,21
8669,21
8670,21
8671,21
8672,21
8673,21
8674,21
8675,21
8676,21
8677,21
8678,21
8679,21
8680,21
8681,21
8682,21
8683,21
8684,21
8685,21
8686,21
8687,21
8688,21
8689,21
8690,21
8691,21
8692,21
8693,21
8694,21
8695,21
8696,21
8697,21
8698,21
8699,21
8700,21
8701,21
8702,21
8703,21
8704,21
8705,21
8706,21
8707,21
8708,21
8709,21
8710,21
8711,21
8712,21
8713,21
8714,21
8715,21
8716,21
8717,21
8718,21
8719,21
8720,21
8721,21
8722,21
8723,21
8724,21
8725,21
8726,21
8727,21
8728,21
8729,21
8730,21
8731,21
8732,21
8733,21
8734,21
8735,21
8736,21
8737,21
8738,21
8739,21
8740,21
8741,21
8742,21
8743,21
8744,21
8745,21
8746,21
8747,21
8748,21
8749,21
8750,21
8751,21
8752,21
8753,21
8754,21
8755,21
8756,21
8757,21
8758,21
8759,21
8760,21
8761,21
8762,21
8763,21
8764,21
8765,21
8766,21
8767,21
8768,21
8769,21
8770,21
8771,21
8772,21
8773,21
8774,21
8775,21
8776,21
8777,21
8778,21
8779,21
8780,21
8781,21
8782,21
8783,21
8784,21
8785,21
8786,21
8787,21
8788,21
8789,21
8790,21
8791,21
8792,21
8793,21
8794,21
8795,21
8796,21
8797,21
8798,21
8799,21
8800,21
8801,21
8802,21
8803,21
8804,21
8805,21
8806,21
8807,21
8808,21
8809,21
8810,21
8811,21
8812,21
8813,21
8814,21
8815,21
8816,21
8817,22
8818,22
8819,22
8820,22
8821,22
8822,22
8823,21
8824,21
8825,22
8826,22
8827,22
8828,22
8829,21
8830,22
8831,22
8832,22
8833,22
8834,22
8835,22
8836,22
8837,22
8838,22
8839,22
8840,22
8841,22
8842,22
8843,22
8844,21
8845,21
8846,21
8847,21
8848,21
8849,21
8850,21
8851,21
8852,21
8853,21
8854,21
8855,21
8856,21
8857,21
8858,21
8859,21
8860,21
8861,21
8862,21
8863,21
8864,21
8865,21
8866,21
8867,21
8868,21
8869,21
8870,21
8871,21
8872,21
8873,21
8874,21
8875,21
8876,21
8877,21
8878,21
8879,21
8880,21
8881,21
8882,21
8883,21
8884,21
8885,21
8886,21
8887,21
8888,21
8889,21
8890,21
8891,21
8892,21
8893,21
8894,21
8895,21
8896,21
8897,21
8898,21
8899,21
8900,21
8901,21
8902,21
8903,21
8904,21
8905,21
8906,21
8907,21
8908,21
8909,21
8910,21
8911,21
8912,21
8913,21
8914,21
8915,21
8916,21
8917,21
8918,21
8919,21
8920,21
8921,21
8922,21
8923,21
8924,21
8925,21
8926,21
8927,21
8928,21
8929,21
8930,21
8931,21
8932,21
8933,21
8934,22
8935,22
8936,21
8937,21
8938,21
8939,21
8940,21
8941,21
8942,21
8943,21
8944,21
8945,21
8946,21
8947,21
8948,22
8949,22
8950,21
8951,21
8952,21
8953,21
8954,21
8955,21
8956,21
8957,21
8958,21
8959,21
8960,21
8961,21
8962,21
8963,21
8964,21
8965,21
8966,21
8967,21
8968,21
8969,21
8970,21
8971,21
8972,21
8973,21
8974,21
8975,21
8976,21
8977,21
8978,21
8979,21
8980,21
8981,21
8982,21
8983,21
8984,21
8985,21
8986,21
8987,21
8988,21
8989,21
8990,22
8991,22
8992,22
8993,22
8994,21
8995,21
8996,21
8997,21
8998,21
8999,21
9000,21
9001,21
9002,21
9003,21
9004,21
9005,21
9006,21
9007,21
9008,21
9009,21
9010,21
9011,21
9012,21
9013,21
9014,21
9015,21
9016,21
9017,21
9018,21
9019,21
9020,21
9021,21
9022,21
9023,21
9024,21
9025,21
9026,21
9027,21
9028,21
9029,21
9030,21
9031,21
9032,21
9033,21
9034,21
9035,21
9036,21
9037,21
9038,21
9039,21
9040,21
9041,21
9042,21
9043,21
9044,21
9045,21
9046,21
9047,21
9048,21
9049,21
9050,21
9051,21
9052,21
9053,21
9054,21
9055,21
9056,21
9057,21
9058,21
9059,21
9060,21
9061,21
9062,21
9063,21
9064,21
9065,21
9066,21
9067,21
9068,21
9069,21
9070,21
9071,21
9072,21
9073,21
9074,21
9075,21
9076,21
9077,21
9078,21
9079,21
9080,21
9081,21
9082,21
9083,21
9084,21
9085,21
9086,21
9087,21
9088,21
9089,21
9090,21
9091,21
9092,21
9093,21
9094,21
9095,21
9096,21
9097,21
9098,21
9099,21
9100,21
9101,21
9102,21
9103,21
9104,21
9105,21
9106,21
9107,21
9108,21
9109,21
9110,21
9111,21
9112,21
9113,21
9114,21
9115,21
9116,21
9117,21
9118,21
9119,21
9120,21
9121,21
9122,21
9123,21
9124,21
9125,21
9126,21
9127,21
9128,21
9129,21
9130,21
9131,21
9132,22
9133,21
9134,21
9135,21
9136,21
9137,21
9138,21
9139,21
9140,21
9141,21
9142,21
9143,21
9144,21
9145,21
9146,21
9147,21
9148,21
9149,21
9150,21
9151,21
9152,21
9153,21
9154,21
9155,21
9156,21
9157,21
9158,21
9159,21
9160,21
9161,21
9162,21
9163,21
9164,21
9165,21
9166,21
9167,21
9168,21
9169,21
9170,21
9171,21
9172,21
9173,21
9174,21
9175,21
9176,21
9177,21
9178,21
9179,21
9180,21
9181,21
9182,21
9183,21
9184,21
9185,21
9186,21
9187,21
9188,21
9189,21
9190,21
9191,21
9192,21
9193,21
9194,21
9195,21
9196,21
9197,21
9198,21
9199,21
9200,21
9201,21
9202,21
9203,21
9204,21
9205,21
9206,21
9207,21
9208,21
9209,21
9210,21
9211,21
9212,21
9213,21
9214,21
9215,21
9216,21
9217,21
9218,21
9219,21
9220,21
9221,21
9222,21
9223,21
9224,21
9225,21
9226,21
9227,21
9228,21
9229,21
9230,21
9231,21
9232,21
9233,21
9234,21
9235,21
9236,21
9237,21
9238,21
9239,21
9240,21
9241,21
9242,21
9243,21
9244,21
9245,21
9246,21
9247,21
9248,21
9249,21
9250,21
9251,21
9252,21
9253,21
9254,21
9255,21
9256,21
9257,22
9258,22
9259,21
9260,21
9261,21
9262,21
9263,21
9264,21
9265,21
9266,21
9267,21
9268,21
9269,21
9270,21
9271,21
9272,21
9273,21
9274,22
9275,21
9276,21
9277,21
9278,21
9279,21
9280,21
9281,21
9282,21
9283,21
9284,21
9285,21
9286,21
9287,21
9288,21
9289,21
9290,21
9291,21
9292,21
9293,21
9294,21
9295,21
9296,21
9297,21
9298,21
9299,21
9300,21
9301,21
9302,21
9303,21
9304,21
9305,21
9306,21
9307,21
9308,21
9309,21
9310,21
9311,21
9312,21
9313,21
9314,21
9315,21
9316,21
9317,21
9318,21
9319,21
9320,21
9321,21
9322,21
9323,21
9324,21
9325,21
9326,21
9327,21
9328,21
9329,21
9330,21
9331,21
9332,21
9333,21
9334,21
9335,21
9336,21
9337,21
9338,21
9339,21
9340,21
9341,21
9342,21
9343,21
9344,21
9345,21
9346,21
9347,21
9348,21
9349,21
9350,21
9351,21
9352,21
9353,21
9354,21
9355,21
9356,21
9357,21
9358,21
9359,21
9360,21
9361,21
9362,21
9363,21
9364,21
9365,21
9366,21
9367,21
9368,21
9369,21
9370,21
9371,21
9372,21
9373,21
9374,21
9375,21
9376,21
9377,21
9378,21
9379,21
9380,21
9381,21
9382,21
9383,21
9384,21
9385,21
9386,21
9387,21
9388,21
9389,21
9390,21
9391,21
9392,21
9393,21
9394,21
9395,21
9396,21
9397,21
9398,21
9399,21
9400,21
9401,21
9402,21
9403,21
9404,21
9405,21
9406,21
9407,21
9408,21
9409,21
9410,21
9411,21
9412,21
9413,21
9414,21
9415,21
9416,21
9417,21
9418,21
9419,21
9420,21
9421,21
9422,21
9423,21
9424,21
9425,21
9426,21
9427,21
9428,21
9429,21
9430,21
9431,21
9432,21
9433,21
9434,21
9435,21
9436,21
9437,21
9438,21
9439,21
9440,21
9441,21
9442,21
9443,21
9444,21
9445,21
9446,21
9447,21
9448,21
9449,21
9450,21
9451,21
9452,21
9453,21
9454,21
9455,21
9456,21
9457,21
9458,21
9459,21
9460,21
9461,21
9462,21
9463,21
9464,21
9465,21
9466,21
9467,21
9468,21
9469,21
9470,21
9471,21
9472,21
9473,21
9474,21
9475,21
9476,21
9477,21
9478,21
9479,21
9480,21
9481,21
9482,21
9483,21
9484,21
9485,21
9486,21
9487,21
9488,21
9489,21
9490,21
9491,21
9492,21
9493,21
9494,21
9495,21
9496,21
9497,21
9498,21
9499,21
9500,21
9501,21
9502,21
9503,21
9504,21
9505,21
9506,21
9507,21
9508,21
9509,21
9510,21
9511,21
9512,21
9513,21
9514,21
9515,21
9516,21
9517,22
9518,22
9519,22
9520,22
9521,22
9522,21
9523,21
9524,21
9525,21
9526,21
9527,21
9528,21
9529,21
9530,21
9531,21
9532,21
9533,21
9534,21
9535,21
9536,21
9537,21
9538,21
9539,21
9540,21
9541,21
9542,21
9543,21
9544,21
9545,21
9546,21
9547,21
9548,21
9549,21
9550,21
9551,21
9552,21
9553,21
9554,21
9555,21
9556,21
9557,21
9558,21
9559,21
9560,21
9561,21
9562,21
9563,21
9564,21
9565,21
9566,22
9567,22
9568,22
9569,22
9570,22
9571,22
9572,22
9573,22
9574,22
9575,22
9576,22
9577,22
9578,22
9579,22
9580,22
9581,22
9582,22
9583,22
9584,22
9585,22
9586,22
9587,22
9588,22
9589,22
9590,22
9591,22
9592,21
9593,21
9594,21
9595,21
9596,21
9597,21
9598,21
9599,21
9600,21
9601,21
9602,21
9603,21
9604,21
9605,21
9606,21
9607,21
9608,21
9609,21
9610,21
9611,21
9612,21
9613,21
9614,21
9615,21
9616,21
9617,21
9618,21
9619,21
9620,21
9621,21
9622,21
9623,21
9624,21
9625,21
9626,21
9627,21
9628,21
9629,21
9630,21
9631,21
9632,21
9633,21
9634,21
9635,21
9636,21
9637,21
9638,21
9639,21
9640,21
9641,21
9642,21
9643,21
9644,21
9645,21
9646,21
9647,21
9648,21
9649,21
9650,21
9651,21
9652,21
9653,21
9654,21
9655,21
9656,21
9657,21
9658,21
9659,21
9660,21
9661,21
9662,21
9663,21
9664,21
9665,21
9666,21
9667,21
9668,21
9669,21
9670,21
9671,21
9672,21
9673,21
9674,21
9675,21
9676,21
9677,21
9678,21
9679,21
9680,21
9681,21
9682,21
9683,21
9684,21
9685,21
9686,21
9687,21
9688,21
9689,21
9690,21
9691,21
9692,21
9693,21
9694,21
9695,21
9696,21
9697,21
9698,21
9699,21
9700,21
9701,21
9702,21
9703,21
9704,21
9705,21
9706,21
9707,21
9708,21
9709,21
9710,21
9711,21
9712,21
9713,21
9714,21
9715,21
9716,21
9717,21
9718,21
9719,21
9720,21
9721,21
9722,21
9723,21
9724,21
9725,21
9726,21
9727,21
9728,21
9729,21
9730,21
9731,21
9732,21
9733,22
9734,22
9735,21
9736,21
9737,21
9738,21
9739,21
9740,21
9741,21
9742,21
9743,21
9744,21
9745,21
9746,21
9747,21
9748,21
9749,21
9750,21
9751,21
9752,21
9753,21
9754,21
9755,21
9756,21
9757,21
9758,21
9759,21
9760,21
9761,21
9762,21
9763,21
9764,21
9765,21
9766,21
9767,21
9768,21
9769,21
9770,21
9771,21
9772,21
9773,21
9774,21
9775,21
9776,21
9777,21
9778,21
9779,21
9780,21
9781,21
9782,21
9783,21
9784,21
9785,21
9786,21
9787,21
9788,21
9789,21
9790,21
9791,21
9792,22
9793,21
9794,21
9795,21
9796,21
9797,21
9798,21
9799,21
9800,21
9801,21
9802,21
9803,21
9804,21
9805,21
9806,21
9807,21
9808,21
9809,21
9810,21
9811,21
9812,21
9813,21
9814,21
9815,21
9816,21
9817,21
9818,21
9819,21
9820,21
9821,21
9822,21
9823,21
9824,21
9825,21
9826,21
9827,21
9828,21
9829,21
9830,21
9831,21
9832,21
9833,21
9834,21
9835,21
9836,21
9837,21
9838,21
9839,21
9840,21
9841,21
9842,21
9843,21
9844,21
9845,21
9846,21
9847,21
9848,21
9849,21
9850,21
9851,21
9852,21
9853,21
9854,21
9855,21
9856,21
9857,21
9858,21
9859,21
9860,21
9861,21
9862,21
9863,21
9864,21
9865,21
9866,21
9867,21
9868,21
9869,21
9870,21
9871,21
9872,21
9873,21
9874,21
9875,21
9876,21
9877,21
9878,21
9879,21
9880,21
9881,21
9882,22
9883,22
9884,22
9885,22
9886,22
9887,22
9888,22
9889,22
9890,22
9891,22
9892,22
9893,22
9894,22
9895,22
9896,22
9897,22
9898,22
9899,22
9900,22
9901,22
9902,22
9903,22
9904,22
9905,22
9906,22
9907,22
9908,22
9909,22
9910,22
9911,22
9912,22
9913,22
9914,22
9915,22
9916,22
9917,22
9918,22
9919,22
9920,22
9921,22
9922,22
9923,22
9924,22
9925,22
9926,22
9927,22
9928,22
9929,22
9930,22
9931,22
9932,22
9933,22
9934,22
9935,22
9936,22
9937,22
9938,22
9939,22
9940,22
9941,22
9942,22
9943,22
9944,22
9945,22
9946,22
9947,22
9948,22
9949,22
9950,22
9951,22
9952,22
9953,22
9954,22
9955,22
9956,22
9957,22
9958,22
9959,22
9960,22
9961,22
9962,22
9963,22
9964,22
9965,22
9966,22
9967,22
9968,22
9969,22
9970,22
9971,22
9972,22
9973,22
9974,22
9975,22
9976,23
9977,23
9978,23
9979,23
9980,23
9981,23
9982,23
9983,23
9984,23
9985,23
9986,23
9987,23
9988,23
9989,23
9990,23
9991,23
9992,23
9993,23
9994,23
9995,23
9996,23
9997,23
9998,23
9999,23
10000,23
