1,3
2,3
3,3
4,3
5,3
6,3
7,3
8,3
9,3
10,3
11,3
12,3
13,3
14,3
15,3
16,3
17,3
18,3
19,3
20,3
21,3
22,3
23,3
24,3
25,3
26,3
27,3
28,3
29,3
30,3
31,3
32,3
33,3
34,3
35,3
36,3
37,3
38,3
39,3
40,3
41,3
42,3
43,3
44,3
45,3
46,3
47,3
48,3
49,3
50,3
51,3
52,3
53,3
54,3
55,3
56,3
57,3
58,3
59,3
60,3
61,3
62,3
63,3
64,3
65,3
66,3
67,3
68,3
69,3
70,3
71,3
72,3
73,3
74,3
75,3
76,3
77,3
78,3
79,3
80,3
81,3
82,3
83,3
84,3
85,3
86,3
87,3
88,3
89,3
90,3
91,3
92,3
93,3
94,3
95,3
96,3
97,3
98,3
99,3
100,3
101,3
102,3
103,3
104,3
105,4
106,3
107,3
108,3
109,3
110,3
111,3
112,3
113,3
114,3
115,3
116,3
117,3
118,3
119,3
120,3
121,3
122,3
123,3
124,3
125,3
126,3
127,3
128,3
129,3
130,3
131,3
132,3
133,3
134,3
135,3
136,3
137,3
138,3
139,3
140,3
141,3
142,3
143,3
144,3
145,3
146,3
147,3
148,4
149,4
150,4
151,4
152,4
153,4
154,4
155,4
156,4
157,4
158,4
159,4
160,4
161,4
162,4
163,4
164,4
165,4
166,4
167,4
168,4
169,4
170,4
171,4
172,4
173,4
174,4
175,4
176,4
177,4
178,4
179,4
180,4
181,4
182,4
183,4
184,4
185,4
186,4
187,4
188,4
189,4
190,4
191,4
192,4
193,4
194,4
195,4
196,4
197,4
198,4
199,4
200,4
201,4
202,4
203,4
204,4
205,4
206,4
207,4
208,4
209,4
210,4
211,4
212,4
213,4
214,4
215,4
216,4
217,4
218,4
219,4
220,4
221,4
222,4
223,4
224,4
225,4
226,4
227,4
228,4
229,4
230,4
231,4
232,4
233,4
234,4
235,4
236,4
237,4
238,4
239,4
240,4
241,4
242,4
243,4
244,4
245,4
246,4
247,4
248,4
249,4
250,4
251,4
252,4
253,4
254,4
255,4
256,4
257,4
258,4
259,4
260,4
261,4
262,4
263,4
264,4
265,4
266,4
267,4
268,4
269,4
270,4
271,4
272,4
273,4
274,4
275,4
276,4
277,4
278,4
279,4
280,4
281,4
282,4
283,4
284,4
285,4
286,4
287,4
288,4
289,4
290,4
291,4
292,4
293,4
294,4
295,4
296,4
297,4
298,4
299,4
300,4
301,4
302,4
303,4
304,4
305,4
306,4
307,4
308,4
309,4
310,4
311,4
312,4
313,4
314,4
315,4
316,4
317,4
318,4
319,4
320,4
321,4
322,4
323,4
324,4
325,4
326,4
327,4
328,4
329,4
330,4
331,4
332,4
333,4
334,4
335,4
336,4
337,4
338,4
339,4
340,4
341,4
342,4
343,4
344,4
345,4
346,4
347,4
348,4
349,4
350,4
351,4
352,4
353,4
354,4
355,4
356,4
357,4
358,4
359,4
360,4
361,4
362,4
363,4
364,4
365,4
366,4
367,4
368,4
369,4
370,4
371,4
372,4
373,4
374,4
375,4
376,4
377,4
378,4
379,4
380,4
381,4
382,4
383,4
384,4
385,4
386,4
387,4
388,4
389,4
390,4
391,4
392,4
393,4
394,4
395,4
396,4
397,4
398,4
399,4
400,4
401,4
402,4
403,4
404,4
405,4
406,4
407,4
408,4
409,4
410,4
411,4
412,4
413,5
414,5
415,5
416,5
417,5
418,5
419,5
420,5
421,5
422,5
423,5
424,5
425,5
426,5
427,5
428,5
429,5
430,5
431,5
432,5
433,5
434,5
435,5
436,5
437,5
438,5
439,5
440,5
441,5
442,5
443,5
444,5
445,5
446,5
447,5
448,5
449,6
450,6
451,5
452,5
453,5
454,5
455,5
456,5
457,5
458,5
459,5
460,5
461,5
462,5
463,5
464,5
465,5
466,5
467,5
468,5
469,5
470,5
471,5
472,5
473,5
474,5
475,5
476,5
477,5
478,5
479,5
480,5
481,5
482,5
483,5
484,5
485,5
486,5
487,5
488,5
489,5
490,5
491,5
492,5
493,5
494,5
495,5
496,5
497,5
498,5
499,5
500,5
501,5
502,5
503,5
504,5
505,5
506,5
507,5
508,5
509,5
510,6
511,6
512,6
513,6
514,6
515,5
516,5
517,5
518,5
519,5
520,5
521,5
522,5
523,5
524,5
525,5
526,5
527,5
528,5
529,5
530,5
531,5
532,5
533,5
534,5
535,5
536,5
537,5
538,5
539,5
540,5
541,5
542,5
543,5
544,5
545,5
546,5
547,5
548,5
549,5
550,5
551,5
552,5
553,5
554,5
555,5
556,5
557,5
558,5
559,5
560,5
561,5
562,5
563,5
564,5
565,5
566,5
567,5
568,5
569,5
570,5
571,5
572,5
573,5
574,5
575,5
576,5
577,5
578,5
579,5
580,5
581,5
582,5
583,5
584,5
585,5
586,5
587,5
588,5
589,5
590,5
591,5
592,5
593,5
594,5
595,5
596,5
597,5
598,5
599,5
600,5
601,5
602,5
603,5
604,5
605,5
606,5
607,5
608,5
609,5
610,5
611,5
612,5
613,5
614,5
615,5
616,5
617,5
618,5
619,5
620,5
621,5
622,5
623,5
624,5
625,5
626,5
627,5
628,5
629,5
630,5
631,5
632,5
633,5
634,5
635,5
636,5
637,5
638,5
639,5
640,5
641,5
642,5
643,5
644,5
645,5
646,5
647,5
648,5
649,5
650,5
651,5
652,5
653,5
654,5
655,5
656,5
657,5
658,5
659,5
660,5
661,5
662,5
663,5
664,5
665,5
666,5
667,5
668,5
669,5
670,5
671,5
672,5
673,5
674,5
675,5
676,5
677,5
678,5
679,5
680,5
681,5
682,5
683,5
684,5
685,5
686,5
687,5
688,5
689,5
690,5
691,5
692,5
693,5
694,5
695,5
696,5
697,5
698,5
699,5
700,5
701,5
702,5
703,5
704,5
705,5
706,5
707,5
708,5
709,5
710,5
711,5
712,5
713,5
714,5
715,5
716,5
717,5
718,5
719,5
720,5
721,5
722,5
723,5
724,5
725,5
726,5
727,5
728,5
729,5
730,5
731,5
732,5
733,5
734,5
735,5
736,5
737,5
738,5
739,5
740,5
741,5
742,5
743,5
744,5
745,5
746,5
747,5
748,5
749,5
750,5
751,5
752,5
753,5
754,5
755,5
756,5
757,5
758,5
759,5
760,5
761,5
762,5
763,5
764,5
765,5
766,5
767,5
768,5
769,5
770,5
771,5
772,5
773,5
774,5
775,5
776,5
777,5
778,5
779,5
780,5
781,5
782,5
783,5
784,5
785,5
786,5
787,5
788,5
789,5
790,5
791,6
792,5
793,5
794,5
795,5
796,5
797,5
798,5
799,5
800,5
801,5
802,5
803,5
804,5
805,5
806,5
807,5
808,5
809,5
810,5
811,5
812,5
813,5
814,5
815,5
816,5
817,5
818,5
819,5
820,5
821,5
822,5
823,5
824,5
825,5
826,5
827,6
828,5
829,5
830,5
831,5
832,5
833,5
834,5
835,5
836,5
837,5
838,5
839,5
840,5
841,5
842,5
843,5
844,5
845,5
846,5
847,5
848,5
849,5
850,5
851,5
852,5
853,5
854,5
855,5
856,5
857,5
858,5
859,5
860,5
861,5
862,5
863,5
864,5
865,5
866,5
867,5
868,5
869,5
870,5
871,5
872,5
873,5
874,5
875,5
876,5
877,5
878,5
879,5
880,5
881,5
882,5
883,5
884,5
885,5
886,5
887,5
888,5
889,5
890,5
891,5
892,5
893,5
894,5
895,5
896,5
897,5
898,5
899,5
900,5
901,5
902,5
903,5
904,5
905,5
906,5
907,5
908,5
909,5
910,5
911,5
912,5
913,5
914,5
915,5
916,5
917,5
918,5
919,5
920,5
921,5
922,5
923,5
924,5
925,5
926,5
927,5
928,5
929,5
930,5
931,5
932,5
933,5
934,5
935,5
936,5
937,5
938,5
939,5
940,5
941,5
942,5
943,5
944,5
945,5
946,5
947,5
948,5
949,5
950,5
951,5
952,5
953,5
954,5
955,5
956,5
957,5
958,5
959,5
960,5
961,5
962,5
963,5
964,5
965,5
966,5
967,5
968,5
969,5
970,5
971,5
972,6
973,6
974,5
975,5
976,5
977,5
978,5
979,5
980,5
981,5
982,5
983,5
984,5
985,5
986,5
987,5
988,5
989,5
990,5
991,5
992,5
993,5
994,5
995,5
996,5
997,5
998,5
999,5
1000,5
1001,5
1002,6
1003,6
1004,5
1005,5
1006,5
1007,5
1008,5
1009,5
1010,5
1011,5
1012,5
1013,5
1014,5
1015,5
1016,5
1017,5
1018,5
1019,5
1020,5
1021,5
1022,5
1023,5
1024,5
1025,5
1026,5
1027,5
1028,5
1029,5
1030,5
1031,5
1032,5
1033,5
1034,5
1035,5
1036,5
1037,5
1038,5
1039,5
1040,5
1041,5
1042,5
1043,5
1044,5
1045,5
1046,5
1047,5
1048,5
1049,5
1050,5
1051,5
1052,5
1053,5
1054,5
1055,5
1056,5
1057,5
1058,5
1059,5
1060,5
1061,5
1062,5
1063,5
1064,5
1065,5
1066,5
1067,5
1068,5
1069,5
1070,5
1071,5
1072,5
1073,5
1074,5
1075,5
1076,5
1077,5
1078,5
1079,5
1080,5
1081,5
1082,5
1083,5
1084,5
1085,5
1086,5
1087,5
1088,5
1089,5
1090,5
1091,5
1092,5
1093,5
1094,5
1095,5
1096,5
1097,5
1098,5
1099,5
1100,5
1101,5
1102,5
1103,5
1104,5
1105,5
1106,5
1107,5
1108,5
1109,5
1110,5
1111,5
1112,5
1113,5
1114,5
1115,5
1116,5
1117,5
1118,5
1119,5
1120,5
1121,5
1122,5
1123,5
1124,5
1125,5
1126,5
1127,5
1128,5
1129,5
1130,5
1131,5
1132,5
1133,5
1134,5
1135,5
1136,5
1137,5
1138,5
1139,5
1140,5
1141,5
1142,5
1143,5
1144,5
1145,5
1146,5
1147,5
1148,5
1149,5
1150,5
1151,5
1152,5
1153,5
1154,5
1155,5
1156,5
1157,5
1158,5
1159,5
1160,5
1161,5
1162,5
1163,5
1164,5
1165,5
1166,5
1167,5
1168,5
1169,5
1170,5
1171,5
1172,5
1173,5
1174,5
1175,5
1176,5
1177,5
1178,5
1179,5
1180,5
1181,5
1182,5
1183,5
1184,5
1185,5
1186,5
1187,5
1188,5
1189,5
1190,5
1191,5
1192,5
1193,5
1194,5
1195,5
1196,5
1197,5
1198,5
1199,5
1200,5
1201,5
1202,5
1203,5
1204,5
1205,5
1206,5
1207,5
1208,5
1209,5
1210,5
1211,5
1212,5
1213,5
1214,5
1215,5
1216,5
1217,5
1218,5
1219,5
1220,5
1221,5
1222,5
1223,5
1224,5
1225,5
1226,5
1227,5
1228,5
1229,5
1230,5
1231,5
1232,6
1233,6
1234,6
1235,6
1236,6
1237,6
1238,6
1239,6
1240,6
1241,6
1242,6
1243,6
1244,6
1245,6
1246,6
1247,6
1248,6
1249,6
1250,6
1251,6
1252,6
1253,6
1254,6
1255,6
1256,6
1257,6
1258,6
1259,6
1260,6
1261,6
1262,6
1263,6
1264,6
1265,6
1266,6
1267,6
1268,6
1269,6
1270,6
1271,6
1272,6
1273,6
1274,6
1275,6
1276,6
1277,6
1278,6
1279,6
1280,6
1281,6
1282,6
1283,6
1284,6
1285,6
1286,6
1287,6
1288,6
1289,6
1290,6
1291,6
1292,6
1293,6
1294,6
1295,6
1296,6
1297,6
1298,6
1299,6
1300,6
1301,6
1302,6
1303,6
1304,6
1305,6
1306,6
1307,6
1308,6
1309,6
1310,6
1311,6
1312,6
1313,6
1314,6
1315,6
1316,6
1317,6
1318,6
1319,6
1320,6
1321,6
1322,6
1323,6
1324,6
1325,6
1326,6
1327,6
1328,6
1329,6
1330,7
1331,7
1332,7
1333,7
1334,7
1335,7
1336,7
1337,7
1338,7
1339,7
1340,7
1341,7
1342,7
1343,7
1344,7
1345,7
1346,7
1347,7
1348,7
1349,7
1350,7
1351,7
1352,7
1353,7
1354,7
1355,7
1356,7
1357,7
1358,7
1359,7
1360,7
1361,7
1362,7
1363,7
1364,7
1365,7
1366,7
1367,7
1368,7
1369,7
1370,7
1371,7
1372,7
1373,7
1374,7
1375,7
1376,7
1377,7
1378,7
1379,7
1380,7
1381,7
1382,7
1383,7
1384,7
1385,7
1386,7
1387,7
1388,7
1389,7
1390,7
1391,7
1392,7
1393,7
1394,7
1395,7
1396,7
1397,7
1398,7
1399,7
1400,7
1401,7
1402,7
1403,7
1404,7
1405,7
1406,7
1407,7
1408,7
1409,7
1410,7
1411,7
1412,7
1413,7
1414,7
1415,7
1416,7
1417,7
1418,7
1419,7
1420,7
1421,7
1422,7
1423,7
1424,7
1425,7
1426,7
1427,7
1428,7
1429,7
1430,7
1431,7
1432,7
1433,7
1434,7
1435,7
1436,7
1437,7
1438,7
1439,7
1440,7
1441,7
1442,7
1443,7
1444,7
1445,7
1446,7
1447,7
1448,7
1449,7
1450,7
1451,7
1452,7
1453,7
1454,7
1455,7
1456,7
1457,7
1458,7
1459,7
1460,7
1461,7
1462,7
1463,7
1464,7
1465,7
1466,7
1467,7
1468,7
1469,7
1470,7
1471,7
1472,7
1473,7
1474,7
1475,7
1476,7
1477,7
1478,7
1479,7
1480,7
1481,7
1482,7
1483,7
1484,7
1485,7
1486,7
1487,7
1488,7
1489,7
1490,7
1491,7
1492,7
1493,8
1494,7
1495,7
1496,7
1497,7
1498,7
1499,7
1500,7
1501,7
1502,7
1503,7
1504,7
1505,7
1506,7
1507,7
1508,7
1509,7
1510,7
1511,7
1512,7
1513,7
1514,7
1515,7
1516,7
1517,7
1518,7
1519,7
1520,7
1521,7
1522,7
1523,7
1524,7
1525,7
1526,7
1527,7
1528,7
1529,7
1530,7
1531,7
1532,7
1533,7
1534,7
1535,7
1536,7
1537,7
1538,7
1539,7
1540,7
1541,7
1542,7
1543,8
1544,8
1545,7
1546,7
1547,7
1548,7
1549,7
1550,7
1551,7
1552,7
1553,7
1554,7
1555,7
1556,7
1557,7
1558,7
1559,7
1560,7
1561,7
1562,7
1563,7
1564,7
1565,7
1566,7
1567,7
1568,7
1569,7
1570,7
1571,7
1572,7
1573,7
1574,8
1575,8
1576,8
1577,8
1578,8
1579,8
1580,8
1581,8
1582,8
1583,8
1584,8
1585,8
1586,8
1587,8
1588,8
1589,8
1590,8
1591,8
1592,8
1593,8
1594,8
1595,8
1596,8
1597,8
1598,8
1599,8
1600,8
1601,8
1602,8
1603,8
1604,8
1605,8
1606,8
1607,8
1608,8
1609,8
1610,8
1611,8
1612,8
1613,8
1614,8
1615,8
1616,8
1617,9
1618,8
1619,8
1620,8
1621,8
1622,8
1623,8
1624,8
1625,8
1626,8
1627,8
1628,8
1629,8
1630,8
1631,8
1632,8
1633,8
1634,8
1635,8
1636,8
1637,8
1638,8
1639,8
1640,8
1641,8
1642,8
1643,8
1644,8
1645,8
1646,8
1647,8
1648,8
1649,8
1650,8
1651,8
1652,8
1653,8
1654,8
1655,8
1656,8
1657,8
1658,8
1659,8
1660,8
1661,8
1662,8
1663,8
1664,8
1665,8
1666,8
1667,8
1668,8
1669,8
1670,8
1671,8
1672,8
1673,8
1674,8
1675,8
1676,8
1677,8
1678,8
1679,8
1680,8
1681,8
1682,8
1683,8
1684,8
1685,8
1686,8
1687,8
1688,8
1689,8
1690,8
1691,8
1692,8
1693,8
1694,8
1695,8
1696,8
1697,8
1698,8
1699,8
1700,8
1701,8
1702,8
1703,8
1704,8
1705,8
1706,8
1707,8
1708,8
1709,8
1710,8
1711,8
1712,8
1713,8
1714,8
1715,8
1716,8
1717,8
1718,8
1719,8
1720,8
1721,8
1722,8
1723,8
1724,8
1725,8
1726,8
1727,8
1728,8
1729,8
1730,8
1731,8
1732,8
1733,8
1734,8
1735,8
1736,8
1737,8
1738,8
1739,8
1740,8
1741,8
1742,8
1743,8
1744,8
1745,8
1746,8
1747,8
1748,8
1749,8
1750,8
1751,8
1752,8
1753,8
1754,8
1755,8
1756,8
1757,8
1758,8
1759,8
1760,8
1761,8
1762,8
1763,8
1764,8
1765,8
1766,8
1767,8
1768,8
1769,8
1770,8
1771,8
1772,8
1773,8
1774,8
1775,8
1776,9
1777,9
1778,9
1779,9
1780,9
1781,9
1782,9
1783,9
1784,9
1785,9
1786,9
1787,9
1788,9
1789,9
1790,9
1791,9
1792,10
1793,10
1794,10
1795,10
1796,10
1797,10
1798,10
1799,10
1800,10
1801,10
1802,10
1803,10
1804,10
1805,10
1806,10
1807,10
1808,10
1809,10
1810,10
1811,10
1812,10
1813,10
1814,10
1815,10
1816,10
1817,10
1818,10
1819,10
1820,10
1821,10
1822,10
1823,10
1824,10
1825,10
1826,10
1827,10
1828,10
1829,10
1830,10
1831,10
1832,10
1833,10
1834,10
1835,10
1836,10
1837,10
1838,10
1839,10
1840,10
1841,10
1842,10
1843,10
1844,10
1845,10
1846,10
1847,10
1848,10
1849,10
1850,10
1851,10
1852,10
1853,10
1854,10
1855,10
1856,10
1857,10
1858,10
1859,10
1860,10
1861,10
1862,10
1863,10
1864,10
1865,10
1866,10
1867,10
1868,10
1869,10
1870,10
1871,10
1872,10
1873,10
1874,10
1875,10
1876,10
1877,10
1878,10
1879,10
1880,10
1881,10
1882,10
1883,10
1884,10
1885,10
1886,10
1887,10
1888,10
1889,10
1890,10
1891,10
1892,10
1893,10
1894,10
1895,10
1896,10
1897,10
1898,10
1899,10
1900,10
1901,10
1902,10
1903,10
1904,10
1905,10
1906,10
1907,10
1908,10
1909,10
1910,10
1911,10
1912,10
1913,10
1914,10
1915,10
1916,10
1917,10
1918,10
1919,10
1920,10
1921,10
1922,10
1923,10
1924,10
1925,10
1926,10
1927,10
1928,10
1929,10
1930,10
1931,10
1932,10
1933,10
1934,10
1935,10
1936,10
1937,10
1938,10
1939,10
1940,10
1941,10
1942,10
1943,10
1944,10
1945,10
1946,10
1947,10
1948,10
1949,10
1950,10
1951,10
1952,10
1953,10
1954,10
1955,10
1956,10
1957,10
1958,10
1959,10
1960,10
1961,10
1962,10
1963,10
1964,10
1965,10
1966,10
1967,10
1968,10
1969,10
1970,10
1971,10
1972,10
1973,10
1974,10
1975,10
1976,10
1977,10
1978,10
1979,10
1980,10
1981,11
1982,10
1983,10
1984,10
1985,10
1986,10
1987,10
1988,10
1989,10
1990,10
1991,10
1992,10
1993,10
1994,10
1995,10
1996,10
1997,10
1998,10
1999,10
2000,10
2001,10
2002,10
2003,10
2004,10
2005,10
2006,10
2007,10
2008,10
2009,10
2010,10
2011,10
2012,10
2013,10
2014,10
2015,10
2016,10
2017,10
2018,10
2019,10
2020,10
2021,10
2022,10
2023,10
2024,10
2025,10
2026,10
2027,10
2028,10
2029,10
2030,10
2031,10
2032,10
2033,10
2034,10
2035,10
2036,10
2037,10
2038,10
2039,10
2040,10
2041,10
2042,10
2043,10
2044,10
2045,10
2046,10
2047,10
2048,10
2049,10
2050,10
2051,10
2052,10
2053,10
2054,10
2055,10
2056,10
2057,10
2058,10
2059,10
2060,10
2061,10
2062,10
2063,10
2064,10
2065,10
2066,10
2067,10
2068,10
2069,10
2070,10
2071,10
2072,10
2073,10
2074,10
2075,10
2076,10
2077,10
2078,10
2079,10
2080,10
2081,10
2082,10
2083,10
2084,11
2085,10
2086,10
2087,10
2088,10
2089,10
2090,10
2091,10
2092,10
2093,10
2094,10
2095,10
2096,10
2097,10
2098,10
2099,10
2100,10
2101,10
2102,10
2103,10
2104,10
2105,10
2106,10
2107,10
2108,10
2109,10
2110,10
2111,10
2112,10
2113,10
2114,10
2115,10
2116,10
2117,10
2118,10
2119,10
2120,10
2121,10
2122,10
2123,10
2124,10
2125,10
2126,10
2127,10
2128,10
2129,10
2130,10
2131,10
2132,10
2133,10
2134,10
2135,10
2136,10
2137,10
2138,10
2139,10
2140,10
2141,10
2142,10
2143,10
2144,10
2145,10
2146,10
2147,10
2148,10
2149,10
2150,10
2151,10
2152,10
2153,10
2154,10
2155,11
2156,11
2157,11
2158,10
2159,10
2160,10
2161,10
2162,10
2163,10
2164,10
2165,10
2166,10
2167,10
2168,10
2169,10
2170,10
2171,10
2172,10
2173,10
2174,10
2175,10
2176,10
2177,10
2178,10
2179,10
2180,10
2181,10
2182,10
2183,10
2184,10
2185,10
2186,10
2187,10
2188,10
2189,10
2190,10
2191,10
2192,10
2193,10
2194,10
2195,10
2196,10
2197,10
2198,10
2199,10
2200,10
2201,10
2202,10
2203,10
2204,10
2205,10
2206,10
2207,10
2208,10
2209,10
2210,10
2211,10
2212,10
2213,10
2214,10
2215,10
2216,10
2217,10
2218,10
2219,10
2220,10
2221,10
2222,10
2223,10
2224,10
2225,10
2226,10
2227,10
2228,11
2229,10
2230,10
2231,10
2232,10
2233,10
2234,10
2235,10
2236,10
2237,10
2238,10
2239,10
2240,10
2241,10
2242,10
2243,10
2244,10
2245,10
2246,10
2247,10
2248,10
2249,10
2250,10
2251,10
2252,10
2253,10
2254,10
2255,10
2256,10
2257,10
2258,10
2259,10
2260,10
2261,10
2262,10
2263,10
2264,10
2265,10
2266,10
2267,11
2268,11
2269,11
2270,10
2271,10
2272,10
2273,10
2274,10
2275,10
2276,10
2277,10
2278,10
2279,10
2280,10
2281,10
2282,10
2283,10
2284,10
2285,10
2286,10
2287,10
2288,10
2289,10
2290,10
2291,10
2292,10
2293,10
2294,10
2295,10
2296,10
2297,10
2298,10
2299,10
2300,10
2301,10
2302,10
2303,10
2304,10
2305,10
2306,10
2307,10
2308,10
2309,10
2310,10
2311,10
2312,10
2313,10
2314,10
2315,10
2316,10
2317,10
2318,10
2319,10
2320,10
2321,10
2322,10
2323,10
2324,10
2325,10
2326,10
2327,10
2328,10
2329,10
2330,10
2331,10
2332,10
2333,10
2334,10
2335,10
2336,10
2337,11
2338,11
2339,11
2340,10
2341,10
2342,10
2343,10
2344,10
2345,10
2346,10
2347,10
2348,10
2349,10
2350,10
2351,10
2352,10
2353,10
2354,10
2355,10
2356,10
2357,10
2358,10
2359,10
2360,10
2361,10
2362,10
2363,10
2364,10
2365,10
2366,10
2367,10
2368,10
2369,10
2370,10
2371,10
2372,10
2373,10
2374,10
2375,10
2376,10
2377,10
2378,10
2379,10
2380,10
2381,10
2382,10
2383,10
2384,10
2385,10
2386,10
2387,10
2388,10
2389,10
2390,10
2391,10
2392,10
2393,10
2394,10
2395,10
2396,10
2397,10
2398,10
2399,10
2400,10
2401,10
2402,10
2403,10
2404,10
2405,10
2406,10
2407,10
2408,10
2409,10
2410,10
2411,10
2412,10
2413,10
2414,10
2415,10
2416,10
2417,10
2418,11
2419,10
2420,10
2421,10
2422,10
2423,10
2424,10
2425,10
2426,10
2427,10
2428,10
2429,10
2430,10
2431,10
2432,10
2433,10
2434,10
2435,10
2436,10
2437,10
2438,10
2439,10
2440,10
2441,10
2442,10
2443,10
2444,10
2445,10
2446,10
2447,10
2448,10
2449,10
2450,10
2451,10
2452,10
2453,10
2454,10
2455,10
2456,10
2457,10
2458,10
2459,10
2460,10
2461,10
2462,10
2463,10
2464,10
2465,10
2466,10
2467,10
2468,10
2469,10
2470,10
2471,10
2472,10
2473,10
2474,10
2475,10
2476,10
2477,10
2478,10
2479,10
2480,10
2481,10
2482,10
2483,10
2484,10
2485,10
2486,11
2487,11
2488,11
2489,11
2490,11
2491,11
2492,11
2493,11
2494,11
2495,11
2496,11
2497,11
2498,11
2499,11
2500,11
2501,11
2502,11
2503,11
2504,11
2505,11
2506,11
2507,11
2508,11
2509,11
2510,11
2511,11
2512,11
2513,11
2514,11
2515,11
2516,11
2517,11
2518,11
2519,11
2520,11
2521,11
2522,11
2523,11
2524,11
2525,11
2526,11
2527,11
2528,11
2529,11
2530,11
2531,11
2532,11
2533,11
2534,11
2535,12
2536,12
2537,11
2538,11
2539,11
2540,11
2541,11
2542,11
2543,11
2544,11
2545,11
2546,11
2547,11
2548,11
2549,11
2550,11
2551,11
2552,11
2553,11
2554,11
2555,11
2556,11
2557,11
2558,11
2559,11
2560,11
2561,11
2562,11
2563,11
2564,11
2565,11
2566,11
2567,11
2568,11
2569,11
2570,11
2571,11
2572,11
2573,11
2574,11
2575,11
2576,11
2577,11
2578,11
2579,11
2580,11
2581,11
2582,11
2583,11
2584,11
2585,11
2586,11
2587,11
2588,11
2589,11
2590,11
2591,11
2592,11
2593,11
2594,12
2595,11
2596,11
2597,11
2598,11
2599,11
2600,11
2601,11
2602,11
2603,11
2604,11
2605,11
2606,11
2607,11
2608,11
2609,11
2610,12
2611,12
2612,12
2613,11
2614,11
2615,11
2616,11
2617,11
2618,11
2619,11
2620,11
2621,11
2622,11
2623,11
2624,11
2625,11
2626,11
2627,11
2628,11
2629,11
2630,11
2631,11
2632,11
2633,11
2634,11
2635,11
2636,11
2637,11
2638,11
2639,11
2640,11
2641,11
2642,11
2643,11
2644,11
2645,11
2646,11
2647,11
2648,11
2649,11
2650,11
2651,11
2652,11
2653,11
2654,11
2655,11
2656,11
2657,11
2658,11
2659,11
2660,11
2661,11
2662,11
2663,11
2664,11
2665,11
2666,11
2667,11
2668,11
2669,11
2670,11
2671,11
2672,11
2673,11
2674,11
2675,11
2676,11
2677,11
2678,11
2679,11
2680,11
2681,11
2682,11
2683,11
2684,11
2685,11
2686,11
2687,11
2688,11
2689,11
2690,11
2691,11
2692,11
2693,11
2694,11
2695,11
2696,11
2697,11
2698,11
2699,11
2700,11
2701,11
2702,11
2703,11
2704,11
2705,11
2706,11
2707,11
2708,11
2709,11
2710,11
2711,11
2712,11
2713,11
2714,11
2715,11
2716,11
2717,11
2718,11
2719,11
2720,11
2721,11
2722,11
2723,11
2724,11
2725,11
2726,11
2727,11
2728,11
2729,11
2730,12
2731,12
2732,12
2733,12
2734,12
2735,12
2736,12
2737,12
2738,12
2739,12
2740,12
2741,12
2742,12
2743,12
2744,12
2745,12
2746,12
2747,12
2748,12
2749,12
2750,12
2751,12
2752,12
2753,13
2754,12
2755,12
2756,12
2757,12
2758,12
2759,12
2760,12
2761,12
2762,12
2763,12
2764,12
2765,12
2766,12
2767,12
2768,12
2769,12
2770,12
2771,12
2772,12
2773,12
2774,12
2775,13
2776,13
2777,13
2778,13
2779,12
2780,12
2781,12
2782,13
2783,12
2784,12
2785,12
2786,12
2787,12
2788,12
2789,12
2790,12
2791,12
2792,12
2793,12
2794,12
2795,12
2796,12
2797,12
2798,12
2799,12
2800,12
2801,12
2802,12
2803,12
2804,12
2805,12
2806,12
2807,12
2808,12
2809,12
2810,12
2811,12
2812,12
2813,12
2814,12
2815,12
2816,12
2817,12
2818,12
2819,12
2820,12
2821,12
2822,12
2823,12
2824,12
2825,12
2826,12
2827,12
2828,12
2829,12
2830,12
2831,12
2832,12
2833,12
2834,12
2835,12
2836,12
2837,12
2838,12
2839,12
2840,12
2841,12
2842,12
2843,12
2844,12
2845,12
2846,12
2847,12
2848,12
2849,12
2850,12
2851,12
2852,12
2853,12
2854,12
2855,12
2856,12
2857,12
2858,12
2859,12
2860,12
2861,12
2862,12
2863,12
2864,12
2865,12
2866,12
2867,12
2868,12
2869,12
2870,12
2871,12
2872,12
2873,12
2874,12
2875,12
2876,12
2877,12
2878,12
2879,12
2880,12
2881,12
2882,12
2883,12
2884,12
2885,12
2886,12
2887,12
2888,12
2889,12
2890,12
2891,12
2892,12
2893,12
2894,12
2895,13
2896,13
2897,12
2898,12
2899,12
2900,12
2901,12
2902,12
2903,12
2904,12
2905,12
2906,12
2907,12
2908,12
2909,12
2910,12
2911,12
2912,12
2913,12
2914,12
2915,12
2916,12
2917,12
2918,12
2919,12
2920,12
2921,12
2922,12
2923,12
2924,12
2925,12
2926,12
2927,12
2928,12
2929,12
2930,12
2931,12
2932,12
2933,12
2934,12
2935,12
2936,12
2937,12
2938,12
2939,12
2940,12
2941,12
2942,12
2943,12
2944,12
2945,12
2946,12
2947,12
2948,12
2949,12
2950,12
2951,12
2952,12
2953,12
2954,12
2955,12
2956,12
2957,12
2958,12
2959,12
2960,12
2961,12
2962,12
2963,12
2964,12
2965,12
2966,12
2967,12
2968,12
2969,12
2970,12
2971,12
2972,12
2973,12
2974,12
2975,12
2976,12
2977,12
2978,12
2979,12
2980,12
2981,12
2982,12
2983,12
2984,12
2985,12
2986,12
2987,12
2988,12
2989,12
2990,12
2991,12
2992,12
2993,12
2994,12
2995,12
2996,12
2997,12
2998,12
2999,12
3000,12
3001,12
3002,12
3003,12
3004,12
3005,12
3006,12
3007,12
3008,12
3009,12
3010,12
3011,12
3012,12
3013,12
3014,12
3015,12
3016,12
3017,12
3018,12
3019,12
3020,12
3021,12
3022,12
3023,13
3024,13
3025,13
3026,13
3027,13
3028,13
3029,13
3030,13
3031,13
3032,13
3033,13
3034,13
3035,13
3036,13
3037,13
3038,13
3039,13
3040,13
3041,13
3042,13
3043,13
3044,13
3045,13
3046,13
3047,13
3048,13
3049,13
3050,13
3051,13
3052,13
3053,13
3054,13
3055,13
3056,13
3057,13
3058,13
3059,13
3060,13
3061,13
3062,13
3063,13
3064,13
3065,13
3066,13
3067,13
3068,13
3069,13
3070,13
3071,13
3072,13
3073,13
3074,13
3075,13
3076,13
3077,13
3078,13
3079,13
3080,13
3081,13
3082,13
3083,13
3084,13
3085,13
3086,13
3087,13
3088,13
3089,13
3090,13
3091,13
3092,13
3093,13
3094,13
3095,13
3096,13
3097,13
3098,13
3099,13
3100,13
3101,13
3102,13
3103,13
3104,13
3105,13
3106,13
3107,13
3108,13
3109,13
3110,13
3111,13
3112,13
3113,13
3114,13
3115,13
3116,13
3117,13
3118,13
3119,13
3120,13
3121,13
3122,13
3123,13
3124,13
3125,13
3126,13
3127,13
3128,13
3129,13
3130,13
3131,13
3132,13
3133,13
3134,13
3135,13
3136,13
3137,13
3138,13
3139,13
3140,13
3141,13
3142,13
3143,13
3144,13
3145,13
3146,13
3147,13
3148,13
3149,13
3150,13
3151,13
3152,13
3153,13
3154,13
3155,13
3156,13
3157,13
3158,13
3159,13
3160,13
3161,14
3162,13
3163,13
3164,13
3165,13
3166,13
3167,13
3168,13
3169,13
3170,13
3171,13
3172,13
3173,13
3174,13
3175,13
3176,13
3177,13
3178,13
3179,13
3180,13
3181,13
3182,13
3183,13
3184,13
3185,13
3186,13
3187,13
3188,13
3189,13
3190,13
3191,13
3192,13
3193,13
3194,13
3195,13
3196,13
3197,13
3198,14
3199,14
3200,14
3201,14
3202,14
3203,13
3204,13
3205,13
3206,13
3207,13
3208,13
3209,13
3210,13
3211,13
3212,13
3213,13
3214,13
3215,13
3216,13
3217,13
3218,13
3219,13
3220,13
3221,13
3222,13
3223,13
3224,13
3225,13
3226,13
3227,13
3228,13
3229,13
3230,13
3231,13
3232,13
3233,13
3234,13
3235,13
3236,13
3237,13
3238,14
3239,13
3240,13
3241,13
3242,13
3243,13
3244,13
3245,13
3246,13
3247,13
3248,14
3249,14
3250,14
3251,14
3252,14
3253,13
3254,13
3255,13
3256,13
3257,13
3258,13
3259,13
3260,13
3261,13
3262,13
3263,13
3264,13
3265,13
3266,13
3267,13
3268,13
3269,13
3270,13
3271,13
3272,13
3273,13
3274,13
3275,13
3276,13
3277,13
3278,13
3279,13
3280,13
3281,13
3282,13
3283,13
3284,13
3285,13
3286,13
3287,13
3288,13
3289,13
3290,13
3291,13
3292,13
3293,13
3294,13
3295,13
3296,13
3297,13
3298,13
3299,13
3300,13
3301,13
3302,13
3303,13
3304,13
3305,13
3306,13
3307,13
3308,13
3309,13
3310,13
3311,13
3312,13
3313,13
3314,13
3315,13
3316,13
3317,13
3318,13
3319,13
3320,13
3321,13
3322,13
3323,13
3324,13
3325,13
3326,13
3327,13
3328,13
3329,14
3330,14
3331,14
3332,13
3333,13
3334,13
3335,13
3336,13
3337,13
3338,13
3339,13
3340,13
3341,13
3342,13
3343,13
3344,13
3345,13
3346,13
3347,13
3348,13
3349,13
3350,13
3351,13
3352,13
3353,13
3354,13
3355,13
3356,13
3357,13
3358,13
3359,13
3360,13
3361,13
3362,13
3363,13
3364,13
3365,13
3366,13
3367,13
3368,13
3369,13
3370,13
3371,13
3372,13
3373,13
3374,13
3375,13
3376,13
3377,13
3378,13
3379,13
3380,13
3381,13
3382,13
3383,13
3384,14
3385,13
3386,13
3387,13
3388,13
3389,13
3390,13
3391,13
3392,13
3393,13
3394,13
3395,13
3396,13
3397,13
3398,13
3399,13
3400,13
3401,13
3402,13
3403,13
3404,13
3405,13
3406,13
3407,13
3408,14
3409,14
3410,14
3411,14
3412,14
3413,14
3414,14
3415,13
3416,13
3417,13
3418,13
3419,13
3420,13
3421,13
3422,13
3423,13
3424,13
3425,13
3426,13
3427,13
3428,13
3429,13
3430,13
3431,13
3432,13
3433,13
3434,13
3435,13
3436,14
3437,14
3438,14
3439,14
3440,14
3441,14
3442,14
3443,14
3444,14
3445,14
3446,14
3447,14
3448,14
3449,15
3450,15
3451,14
3452,14
3453,14
3454,14
3455,14
3456,14
3457,14
3458,14
3459,14
3460,14
3461,14
3462,14
3463,14
3464,14
3465,14
3466,14
3467,14
3468,14
3469,14
3470,14
3471,14
3472,14
3473,14
3474,14
3475,14
3476,14
3477,14
3478,14
3479,14
3480,14
3481,14
3482,14
3483,14
3484,14
3485,14
3486,14
3487,14
3488,14
3489,14
3490,14
3491,14
3492,14
3493,14
3494,14
3495,14
3496,14
3497,14
3498,14
3499,14
3500,14
3501,14
3502,14
3503,14
3504,14
3505,14
3506,14
3507,14
3508,14
3509,14
3510,14
3511,14
3512,14
3513,14
3514,14
3515,14
3516,14
3517,14
3518,14
3519,14
3520,14
3521,14
3522,14
3523,14
3524,14
3525,14
3526,14
3527,14
3528,14
3529,14
3530,14
3531,14
3532,14
3533,14
3534,14
3535,14
3536,14
3537,14
3538,14
3539,14
3540,14
3541,14
3542,14
3543,14
3544,14
3545,14
3546,14
3547,14
3548,14
3549,14
3550,14
3551,14
3552,14
3553,14
3554,14
3555,14
3556,14
3557,14
3558,14
3559,14
3560,14
3561,14
3562,14
3563,14
3564,14
3565,14
3566,14
3567,14
3568,14
3569,14
3570,14
3571,14
3572,14
3573,15
3574,15
3575,15
3576,15
3577,14
3578,14
3579,14
3580,14
3581,14
3582,14
3583,14
3584,14
3585,14
3586,14
3587,14
3588,14
3589,15
3590,15
3591,15
3592,14
3593,14
3594,14
3595,14
3596,14
3597,14
3598,14
3599,14
3600,14
3601,14
3602,14
3603,14
3604,14
3605,14
3606,14
3607,14
3608,14
3609,14
3610,14
3611,14
3612,14
3613,14
3614,14
3615,14
3616,14
3617,14
3618,14
3619,14
3620,14
3621,14
3622,14
3623,14
3624,14
3625,14
3626,14
3627,14
3628,14
3629,14
3630,14
3631,14
3632,14
3633,14
3634,14
3635,14
3636,14
3637,14
3638,14
3639,14
3640,14
3641,14
3642,14
3643,14
3644,14
3645,14
3646,14
3647,14
3648,14
3649,14
3650,14
3651,14
3652,14
3653,14
3654,14
3655,14
3656,14
3657,14
3658,14
3659,14
3660,14
3661,14
3662,14
3663,14
3664,14
3665,14
3666,14
3667,14
3668,14
3669,14
3670,14
3671,14
3672,14
3673,14
3674,14
3675,14
3676,14
3677,14
3678,14
3679,14
3680,14
3681,14
3682,14
3683,14
3684,14
3685,14
3686,14
3687,14
3688,14
3689,14
3690,14
3691,14
3692,14
3693,14
3694,14
3695,14
3696,14
3697,14
3698,14
3699,14
3700,14
3701,14
3702,14
3703,14
3704,14
3705,14
3706,14
3707,14
3708,14
3709,14
3710,14
3711,14
3712,14
3713,14
3714,14
3715,14
3716,14
3717,14
3718,14
3719,14
3720,14
3721,14
3722,15
3723,15
3724,15
3725,15
3726,14
3727,14
3728,14
3729,14
3730,14
3731,14
3732,14
3733,14
3734,14
3735,14
3736,14
3737,14
3738,14
3739,14
3740,14
3741,14
3742,14
3743,14
3744,14
3745,14
3746,14
3747,14
3748,14
3749,14
3750,14
3751,14
3752,14
3753,14
3754,14
3755,14
3756,14
3757,14
3758,14
3759,14
3760,14
3761,14
3762,14
3763,14
3764,14
3765,14
3766,14
3767,14
3768,14
3769,14
3770,14
3771,14
3772,14
3773,14
3774,14
3775,14
3776,14
3777,14
3778,14
3779,14
3780,14
3781,14
3782,14
3783,14
3784,14
3785,14
3786,14
3787,14
3788,14
3789,14
3790,14
3791,14
3792,14
3793,14
3794,14
3795,14
3796,15
3797,14
3798,14
3799,14
3800,14
3801,14
3802,14
3803,14
3804,14
3805,14
3806,14
3807,14
3808,14
3809,14
3810,14
3811,14
3812,14
3813,14
3814,14
3815,14
3816,14
3817,14
3818,14
3819,14
3820,14
3821,14
3822,14
3823,14
3824,14
3825,14
3826,14
3827,14
3828,14
3829,14
3830,14
3831,14
3832,14
3833,14
3834,14
3835,14
3836,14
3837,14
3838,14
3839,14
3840,14
3841,14
3842,14
3843,14
3844,14
3845,14
3846,14
3847,14
3848,14
3849,14
3850,14
3851,14
3852,14
3853,14
3854,14
3855,14
3856,14
3857,14
3858,14
3859,14
3860,14
3861,14
3862,14
3863,14
3864,14
3865,14
3866,14
3867,14
3868,14
3869,14
3870,14
3871,14
3872,14
3873,14
3874,14
3875,14
3876,14
3877,14
3878,14
3879,14
3880,14
3881,14
3882,14
3883,14
3884,14
3885,14
3886,14
3887,14
3888,14
3889,14
3890,14
3891,14
3892,14
3893,14
3894,14
3895,15
3896,15
3897,15
3898,15
3899,15
3900,15
3901,15
3902,15
3903,15
3904,15
3905,15
3906,15
3907,15
3908,15
3909,15
3910,15
3911,15
3912,15
3913,15
3914,15
3915,15
3916,15
3917,15
3918,15
3919,15
3920,15
3921,15
3922,15
3923,15
3924,15
3925,15
3926,15
3927,15
3928,15
3929,15
3930,15
3931,15
3932,15
3933,15
3934,15
3935,15
3936,15
3937,15
3938,15
3939,15
3940,15
3941,15
3942,15
3943,15
3944,15
3945,15
3946,15
3947,15
3948,15
3949,15
3950,15
3951,15
3952,15
3953,15
3954,15
3955,15
3956,15
3957,15
3958,15
3959,15
3960,15
3961,15
3962,15
3963,15
3964,15
3965,15
3966,15
3967,15
3968,15
3969,15
3970,15
3971,15
3972,15
3973,15
3974,15
3975,15
3976,15
3977,15
3978,15
3979,15
3980,15
3981,15
3982,15
3983,15
3984,15
3985,15
3986,15
3987,15
3988,15
3989,15
3990,15
3991,15
3992,15
3993,15
3994,15
3995,15
3996,15
3997,15
3998,15
3999,15
4000,15
4001,15
4002,15
4003,15
4004,15
4005,15
4006,15
4007,15
4008,15
4009,15
4010,15
4011,15
4012,15
4013,15
4014,15
4015,15
4016,15
4017,15
4018,15
4019,15
4020,15
4021,15
4022,15
4023,15
4024,15
4025,15
4026,15
4027,15
4028,15
4029,15
4030,15
4031,15
4032,15
4033,15
4034,15
4035,15
4036,15
4037,15
4038,15
4039,15
4040,15
4041,15
4042,15
4043,15
4044,15
4045,15
4046,15
4047,15
4048,15
4049,15
4050,15
4051,15
4052,15
4053,15
4054,15
4055,15
4056,15
4057,15
4058,15
4059,15
4060,15
4061,15
4062,15
4063,15
4064,15
4065,15
4066,15
4067,15
4068,15
4069,15
4070,15
4071,15
4072,15
4073,15
4074,15
4075,15
4076,15
4077,15
4078,15
4079,15
4080,15
4081,15
4082,15
4083,15
4084,15
4085,15
4086,15
4087,15
4088,15
4089,15
4090,15
4091,15
4092,15
4093,15
4094,15
4095,16
4096,16
4097,15
4098,15
4099,15
4100,15
4101,15
4102,15
4103,15
4104,15
4105,15
4106,15
4107,15
4108,15
4109,15
4110,15
4111,15
4112,15
4113,15
4114,15
4115,15
4116,15
4117,15
4118,15
4119,15
4120,15
4121,15
4122,15
4123,15
4124,15
4125,15
4126,15
4127,15
4128,15
4129,15
4130,15
4131,15
4132,15
4133,15
4134,15
4135,15
4136,15
4137,15
4138,15
4139,15
4140,15
4141,15
4142,15
4143,15
4144,15
4145,15
4146,15
4147,15
4148,15
4149,15
4150,15
4151,15
4152,15
4153,15
4154,15
4155,15
4156,15
4157,15
4158,15
4159,15
4160,15
4161,15
4162,15
4163,15
4164,15
4165,15
4166,15
4167,15
4168,15
4169,15
4170,15
4171,15
4172,15
4173,15
4174,15
4175,15
4176,15
4177,15
4178,15
4179,15
4180,15
4181,15
4182,15
4183,15
4184,15
4185,15
4186,15
4187,15
4188,15
4189,15
4190,15
4191,15
4192,15
4193,15
4194,15
4195,15
4196,15
4197,15
4198,15
4199,15
4200,15
4201,15
4202,15
4203,15
4204,15
4205,15
4206,15
4207,15
4208,15
4209,15
4210,15
4211,15
4212,15
4213,15
4214,15
4215,15
4216,15
4217,15
4218,15
4219,15
4220,15
4221,15
4222,15
4223,15
4224,15
4225,15
4226,15
4227,15
4228,15
4229,15
4230,15
4231,15
4232,15
4233,15
4234,15
4235,15
4236,15
4237,15
4238,15
4239,15
4240,15
4241,15
4242,15
4243,15
4244,15
4245,15
4246,15
4247,15
4248,15
4249,15
4250,15
4251,15
4252,15
4253,15
4254,15
4255,15
4256,15
4257,15
4258,15
4259,15
4260,15
4261,15
4262,15
4263,15
4264,15
4265,15
4266,15
4267,15
4268,15
4269,15
4270,15
4271,15
4272,15
4273,15
4274,15
4275,15
4276,15
4277,15
4278,15
4279,15
4280,15
4281,15
4282,15
4283,15
4284,15
4285,15
4286,15
4287,15
4288,15
4289,15
4290,15
4291,15
4292,15
4293,15
4294,15
4295,15
4296,15
4297,15
4298,15
4299,15
4300,15
4301,15
4302,16
4303,15
4304,15
4305,15
4306,15
4307,15
4308,15
4309,15
4310,15
4311,15
4312,15
4313,15
4314,15
4315,15
4316,15
4317,15
4318,15
4319,15
4320,15
4321,15
4322,15
4323,15
4324,15
4325,15
4326,15
4327,15
4328,15
4329,15
4330,15
4331,15
4332,15
4333,15
4334,15
4335,15
4336,15
4337,15
4338,15
4339,15
4340,15
4341,15
4342,15
4343,15
4344,15
4345,15
4346,15
4347,15
4348,15
4349,15
4350,15
4351,15
4352,15
4353,15
4354,15
4355,15
4356,15
4357,15
4358,15
4359,15
4360,15
4361,15
4362,15
4363,15
4364,15
4365,15
4366,15
4367,15
4368,15
4369,15
4370,15
4371,15
4372,15
4373,15
4374,15
4375,15
4376,15
4377,15
4378,15
4379,15
4380,15
4381,15
4382,15
4383,15
4384,15
4385,15
4386,15
4387,15
4388,15
4389,15
4390,15
4391,15
4392,15
4393,15
4394,15
4395,15
4396,15
4397,15
4398,15
4399,15
4400,15
4401,15
4402,15
4403,15
4404,15
4405,15
4406,15
4407,15
4408,15
4409,15
4410,15
4411,15
4412,15
4413,15
4414,15
4415,15
4416,15
4417,15
4418,15
4419,15
4420,15
4421,15
4422,15
4423,15
4424,15
4425,15
4426,15
4427,15
4428,15
4429,15
4430,15
4431,15
4432,15
4433,15
4434,15
4435,15
4436,15
4437,15
4438,15
4439,15
4440,15
4441,15
4442,15
4443,15
4444,15
4445,15
4446,15
4447,15
4448,15
4449,15
4450,15
4451,15
4452,15
4453,15
4454,15
4455,15
4456,15
4457,15
4458,15
4459,15
4460,15
4461,15
4462,15
4463,15
4464,15
4465,15
4466,15
4467,15
4468,15
4469,15
4470,15
4471,15
4472,15
4473,15
4474,15
4475,15
4476,15
4477,15
4478,15
4479,15
4480,15
4481,15
4482,15
4483,15
4484,15
4485,15
4486,15
4487,15
4488,15
4489,15
4490,15
4491,15
4492,15
4493,15
4494,15
4495,15
4496,15
4497,15
4498,15
4499,15
4500,15
4501,15
4502,15
4503,15
4504,15
4505,15
4506,15
4507,15
4508,15
4509,15
4510,15
4511,15
4512,15
4513,15
4514,15
4515,16
4516,16
4517,16
4518,16
4519,15
4520,15
4521,15
4522,15
4523,15
4524,15
4525,15
4526,15
4527,17
4528,16
4529,16
4530,16
4531,16
4532,16
4533,16
4534,16
4535,16
4536,16
4537,16
4538,16
4539,16
4540,16
4541,16
4542,16
4543,16
4544,16
4545,16
4546,16
4547,16
4548,16
4549,16
4550,17
4551,16
4552,16
4553,16
4554,16
4555,16
4556,16
4557,16
4558,16
4559,16
4560,16
4561,16
4562,16
4563,16
4564,16
4565,16
4566,16
4567,16
4568,16
4569,16
4570,16
4571,16
4572,16
4573,16
4574,16
4575,16
4576,16
4577,16
4578,16
4579,16
4580,16
4581,16
4582,16
4583,16
4584,16
4585,16
4586,16
4587,16
4588,16
4589,16
4590,16
4591,16
4592,16
4593,16
4594,16
4595,16
4596,16
4597,16
4598,16
4599,16
4600,16
4601,16
4602,16
4603,16
4604,16
4605,16
4606,16
4607,16
4608,16
4609,16
4610,16
4611,16
4612,16
4613,16
4614,16
4615,16
4616,16
4617,16
4618,16
4619,16
4620,16
4621,16
4622,16
4623,16
4624,16
4625,16
4626,16
4627,16
4628,16
4629,16
4630,16
4631,16
4632,16
4633,16
4634,16
4635,16
4636,16
4637,16
4638,16
4639,16
4640,16
4641,16
4642,16
4643,16
4644,16
4645,16
4646,16
4647,16
4648,16
4649,16
4650,16
4651,16
4652,16
4653,16
4654,16
4655,16
4656,16
4657,16
4658,16
4659,16
4660,16
4661,16
4662,16
4663,16
4664,16
4665,16
4666,16
4667,16
4668,16
4669,16
4670,16
4671,16
4672,16
4673,16
4674,16
4675,16
4676,16
4677,16
4678,16
4679,16
4680,16
4681,16
4682,16
4683,16
4684,16
4685,16
4686,16
4687,16
4688,16
4689,16
4690,16
4691,16
4692,16
4693,16
4694,16
4695,16
4696,16
4697,16
4698,16
4699,16
4700,17
4701,17
4702,17
4703,16
4704,16
4705,16
4706,16
4707,16
4708,16
4709,16
4710,16
4711,16
4712,16
4713,16
4714,16
4715,16
4716,16
4717,16
4718,16
4719,16
4720,16
4721,16
4722,16
4723,16
4724,16
4725,16
4726,16
4727,16
4728,16
4729,16
4730,16
4731,16
4732,16
4733,16
4734,16
4735,16
4736,16
4737,16
4738,16
4739,17
4740,17
4741,17
4742,17
4743,17
4744,17
4745,16
4746,16
4747,16
4748,16
4749,16
4750,16
4751,16
4752,16
4753,16
4754,16
4755,16
4756,16
4757,16
4758,16
4759,16
4760,16
4761,16
4762,16
4763,16
4764,16
4765,16
4766,16
4767,16
4768,16
4769,16
4770,16
4771,16
4772,16
4773,16
4774,16
4775,16
4776,16
4777,16
4778,16
4779,16
4780,16
4781,16
4782,16
4783,16
4784,16
4785,16
4786,16
4787,16
4788,16
4789,16
4790,16
4791,16
4792,16
4793,16
4794,16
4795,16
4796,16
4797,16
4798,16
4799,16
4800,16
4801,16
4802,16
4803,16
4804,16
4805,16
4806,16
4807,16
4808,16
4809,16
4810,16
4811,16
4812,16
4813,16
4814,16
4815,16
4816,16
4817,17
4818,17
4819,17
4820,17
4821,17
4822,17
4823,17
4824,17
4825,17
4826,17
4827,17
4828,17
4829,17
4830,17
4831,17
4832,17
4833,17
4834,17
4835,17
4836,17
4837,17
4838,17
4839,17
4840,17
4841,17
4842,17
4843,17
4844,17
4845,17
4846,17
4847,17
4848,17
4849,17
4850,17
4851,17
4852,17
4853,17
4854,17
4855,17
4856,17
4857,17
4858,17
4859,17
4860,17
4861,17
4862,17
4863,17
4864,17
4865,17
4866,17
4867,17
4868,17
4869,17
4870,17
4871,17
4872,17
4873,18
4874,17
4875,17
4876,17
4877,17
4878,17
4879,17
4880,18
4881,17
4882,17
4883,17
4884,17
4885,17
4886,17
4887,17
4888,17
4889,18
4890,17
4891,17
4892,17
4893,17
4894,17
4895,17
4896,17
4897,17
4898,17
4899,17
4900,17
4901,17
4902,17
4903,17
4904,17
4905,17
4906,17
4907,17
4908,17
4909,17
4910,18
4911,17
4912,17
4913,17
4914,17
4915,17
4916,17
4917,17
4918,17
4919,17
4920,18
4921,18
4922,18
4923,18
4924,18
4925,17
4926,17
4927,17
4928,17
4929,17
4930,17
4931,17
4932,17
4933,17
4934,17
4935,17
4936,17
4937,17
4938,17
4939,17
4940,17
4941,17
4942,17
4943,17
4944,17
4945,17
4946,17
4947,17
4948,17
4949,17
4950,17
4951,17
4952,17
4953,17
4954,17
4955,17
4956,17
4957,17
4958,17
4959,17
4960,17
4961,17
4962,17
4963,17
4964,17
4965,17
4966,17
4967,17
4968,17
4969,17
4970,17
4971,17
4972,17
4973,17
4974,17
4975,17
4976,18
4977,18
4978,17
4979,17
4980,17
4981,17
4982,17
4983,17
4984,17
4985,17
4986,17
4987,17
4988,17
4989,17
4990,17
4991,17
4992,17
4993,17
4994,17
4995,17
4996,17
4997,17
4998,17
4999,17
5000,17
5001,17
5002,17
5003,17
5004,17
5005,17
5006,17
5007,17
5008,17
5009,17
5010,17
5011,17
5012,17
5013,17
5014,17
5015,17
5016,17
5017,17
5018,17
5019,17
5020,17
5021,17
5022,17
5023,17
5024,17
5025,17
5026,17
5027,17
5028,17
5029,17
5030,17
5031,17
5032,17
5033,17
5034,17
5035,17
5036,17
5037,17
5038,17
5039,17
5040,17
5041,17
5042,17
5043,17
5044,17
5045,17
5046,17
5047,17
5048,17
5049,17
5050,17
5051,17
5052,17
5053,17
5054,17
5055,17
5056,17
5057,17
5058,17
5059,17
5060,17
5061,17
5062,17
5063,17
5064,17
5065,17
5066,17
5067,17
5068,17
5069,17
5070,17
5071,17
5072,17
5073,17
5074,17
5075,17
5076,17
5077,17
5078,17
5079,17
5080,17
5081,17
5082,17
5083,17
5084,17
5085,17
5086,17
5087,17
5088,17
5089,17
5090,17
5091,17
5092,17
5093,17
5094,17
5095,17
5096,17
5097,17
5098,17
5099,17
5100,17
5101,17
5102,17
5103,17
5104,17
5105,17
5106,17
5107,17
5108,17
5109,17
5110,17
5111,17
5112,17
5113,17
5114,17
5115,17
5116,17
5117,17
5118,17
5119,17
5120,17
5121,17
5122,17
5123,17
5124,17
5125,17
5126,17
5127,17
5128,17
5129,17
5130,17
5131,17
5132,17
5133,17
5134,17
5135,17
5136,17
5137,17
5138,17
5139,17
5140,17
5141,17
5142,17
5143,17
5144,17
5145,17
5146,17
5147,17
5148,17
5149,17
5150,17
5151,17
5152,17
5153,17
5154,17
5155,17
5156,17
5157,17
5158,17
5159,17
5160,17
5161,17
5162,17
5163,17
5164,17
5165,17
5166,17
5167,17
5168,17
5169,17
5170,17
5171,17
5172,17
5173,17
5174,17
5175,17
5176,17
5177,17
5178,17
5179,17
5180,17
5181,17
5182,17
5183,17
5184,17
5185,17
5186,17
5187,17
5188,17
5189,17
5190,17
5191,17
5192,17
5193,17
5194,17
5195,17
5196,17
5197,17
5198,17
5199,17
5200,17
5201,17
5202,17
5203,17
5204,17
5205,17
5206,17
5207,17
5208,17
5209,17
5210,17
5211,17
5212,17
5213,17
5214,17
5215,17
5216,17
5217,17
5218,17
5219,17
5220,17
5221,17
5222,17
5223,17
5224,17
5225,17
5226,17
5227,17
5228,17
5229,17
5230,17
5231,17
5232,17
5233,17
5234,17
5235,17
5236,17
5237,17
5238,17
5239,17
5240,17
5241,17
5242,17
5243,17
5244,17
5245,17
5246,17
5247,17
5248,17
5249,17
5250,17
5251,17
5252,17
5253,17
5254,17
5255,17
5256,17
5257,17
5258,17
5259,17
5260,17
5261,17
5262,17
5263,17
5264,17
5265,17
5266,17
5267,17
5268,17
5269,17
5270,17
5271,17
5272,17
5273,17
5274,17
5275,17
5276,17
5277,17
5278,17
5279,17
5280,17
5281,17
5282,17
5283,17
5284,17
5285,17
5286,17
5287,17
5288,17
5289,17
5290,17
5291,17
5292,17
5293,17
5294,17
5295,17
5296,17
5297,17
5298,17
5299,17
5300,17
5301,17
5302,17
5303,17
5304,17
5305,17
5306,17
5307,17
5308,17
5309,17
5310,17
5311,17
5312,17
5313,17
5314,17
5315,17
5316,17
5317,17
5318,17
5319,17
5320,17
5321,17
5322,17
5323,17
5324,17
5325,17
5326,17
5327,17
5328,17
5329,17
5330,17
5331,17
5332,17
5333,17
5334,17
5335,17
5336,17
5337,17
5338,17
5339,17
5340,17
5341,17
5342,17
5343,17
5344,17
5345,17
5346,17
5347,17
5348,17
5349,17
5350,17
5351,17
5352,17
5353,17
5354,17
5355,17
5356,17
5357,17
5358,17
5359,17
5360,17
5361,17
5362,17
5363,17
5364,17
5365,17
5366,17
5367,17
5368,17
5369,17
5370,18
5371,18
5372,17
5373,17
5374,17
5375,17
5376,17
5377,17
5378,17
5379,17
5380,17
5381,17
5382,17
5383,17
5384,17
5385,17
5386,17
5387,17
5388,17
5389,17
5390,17
5391,17
5392,17
5393,17
5394,17
5395,17
5396,17
5397,17
5398,17
5399,17
5400,17
5401,17
5402,17
5403,17
5404,17
5405,17
5406,17
5407,17
5408,17
5409,17
5410,17
5411,17
5412,17
5413,17
5414,17
5415,17
5416,17
5417,17
5418,18
5419,18
5420,18
5421,17
5422,17
5423,17
5424,17
5425,17
5426,17
5427,17
5428,17
5429,17
5430,17
5431,17
5432,17
5433,17
5434,17
5435,17
5436,17
5437,17
5438,17
5439,17
5440,17
5441,17
5442,17
5443,17
5444,17
5445,17
5446,17
5447,17
5448,17
5449,17
5450,17
5451,17
5452,17
5453,17
5454,17
5455,17
5456,17
5457,17
5458,17
5459,17
5460,17
5461,17
5462,17
5463,17
5464,17
5465,17
5466,17
5467,17
5468,17
5469,17
5470,17
5471,17
5472,17
5473,17
5474,17
5475,17
5476,17
5477,17
5478,17
5479,17
5480,17
5481,17
5482,17
5483,17
5484,17
5485,17
5486,17
5487,17
5488,17
5489,17
5490,17
5491,17
5492,17
5493,17
5494,17
5495,17
5496,17
5497,17
5498,17
5499,17
5500,17
5501,17
5502,17
5503,17
5504,17
5505,17
5506,17
5507,17
5508,17
5509,17
5510,17
5511,17
5512,17
5513,17
5514,17
5515,17
5516,17
5517,17
5518,17
5519,17
5520,17
5521,17
5522,17
5523,17
5524,17
5525,17
5526,17
5527,17
5528,17
5529,17
5530,17
5531,17
5532,17
5533,17
5534,17
5535,17
5536,17
5537,17
5538,17
5539,17
5540,17
5541,17
5542,17
5543,17
5544,17
5545,17
5546,17
5547,17
5548,17
5549,17
5550,17
5551,17
5552,17
5553,17
5554,17
5555,17
5556,17
5557,17
5558,17
5559,17
5560,17
5561,17
5562,17
5563,17
5564,17
5565,17
5566,17
5567,17
5568,17
5569,17
5570,17
5571,17
5572,17
5573,17
5574,17
5575,17
5576,17
5577,17
5578,17
5579,17
5580,17
5581,17
5582,17
5583,17
5584,17
5585,17
5586,17
5587,17
5588,17
5589,17
5590,17
5591,17
5592,17
5593,17
5594,17
5595,17
5596,17
5597,17
5598,17
5599,17
5600,17
5601,17
5602,17
5603,17
5604,17
5605,17
5606,17
5607,17
5608,17
5609,17
5610,17
5611,17
5612,17
5613,17
5614,17
5615,17
5616,17
5617,17
5618,17
5619,17
5620,17
5621,17
5622,17
5623,17
5624,17
5625,17
5626,17
5627,17
5628,17
5629,17
5630,17
5631,17
5632,17
5633,17
5634,17
5635,17
5636,17
5637,17
5638,17
5639,17
5640,17
5641,17
5642,17
5643,17
5644,17
5645,17
5646,17
5647,17
5648,17
5649,17
5650,17
5651,17
5652,18
5653,18
5654,17
5655,17
5656,17
5657,17
5658,17
5659,17
5660,17
5661,17
5662,17
5663,17
5664,17
5665,17
5666,17
5667,17
5668,17
5669,17
5670,17
5671,17
5672,17
5673,17
5674,17
5675,17
5676,17
5677,17
5678,17
5679,17
5680,17
5681,17
5682,17
5683,17
5684,17
5685,17
5686,17
5687,17
5688,17
5689,17
5690,17
5691,17
5692,17
5693,17
5694,17
5695,17
5696,17
5697,17
5698,17
5699,17
5700,17
5701,17
5702,17
5703,17
5704,17
5705,17
5706,17
5707,17
5708,17
5709,17
5710,17
5711,17
5712,17
5713,17
5714,17
5715,17
5716,17
5717,17
5718,17
5719,17
5720,17
5721,17
5722,17
5723,18
5724,18
5725,18
5726,18
5727,17
5728,17
5729,17
5730,17
5731,17
5732,17
5733,17
5734,17
5735,17
5736,17
5737,17
5738,18
5739,17
5740,17
5741,17
5742,17
5743,17
5744,17
5745,17
5746,17
5747,17
5748,17
5749,17
5750,17
5751,17
5752,17
5753,17
5754,17
5755,17
5756,17
5757,17
5758,17
5759,17
5760,17
5761,17
5762,17
5763,17
5764,17
5765,17
5766,17
5767,17
5768,17
5769,17
5770,17
5771,17
5772,17
5773,17
5774,17
5775,17
5776,17
5777,17
5778,17
5779,17
5780,17
5781,17
5782,17
5783,17
5784,17
5785,17
5786,17
5787,17
5788,17
5789,17
5790,17
5791,17
5792,17
5793,17
5794,17
5795,17
5796,17
5797,17
5798,17
5799,17
5800,17
5801,17
5802,17
5803,17
5804,17
5805,17
5806,17
5807,17
5808,17
5809,17
5810,17
5811,17
5812,17
5813,17
5814,17
5815,17
5816,17
5817,17
5818,17
5819,17
5820,17
5821,17
5822,17
5823,17
5824,17
5825,17
5826,17
5827,17
5828,17
5829,17
5830,17
5831,17
5832,17
5833,17
5834,17
5835,17
5836,17
5837,17
5838,17
5839,17
5840,17
5841,17
5842,17
5843,17
5844,17
5845,17
5846,17
5847,17
5848,17
5849,17
5850,17
5851,17
5852,17
5853,17
5854,17
5855,17
5856,17
5857,17
5858,17
5859,17
5860,17
5861,17
5862,17
5863,17
5864,17
5865,17
5866,17
5867,17
5868,17
5869,17
5870,17
5871,17
5872,17
5873,17
5874,17
5875,17
5876,17
5877,17
5878,17
5879,17
5880,17
5881,17
5882,17
5883,17
5884,17
5885,17
5886,17
5887,17
5888,17
5889,17
5890,17
5891,17
5892,17
5893,17
5894,17
5895,17
5896,17
5897,17
5898,17
5899,17
5900,17
5901,17
5902,17
5903,17
5904,17
5905,17
5906,17
5907,17
5908,17
5909,17
5910,17
5911,17
5912,17
5913,17
5914,17
5915,17
5916,17
5917,17
5918,17
5919,17
5920,17
5921,17
5922,17
5923,17
5924,17
5925,17
5926,17
5927,17
5928,17
5929,17
5930,17
5931,17
5932,17
5933,17
5934,17
5935,17
5936,17
5937,17
5938,17
5939,17
5940,17
5941,17
5942,17
5943,17
5944,17
5945,17
5946,17
5947,17
5948,17
5949,17
5950,17
5951,17
5952,17
5953,17
5954,17
5955,17
5956,17
5957,17
5958,17
5959,17
5960,17
5961,17
5962,17
5963,17
5964,17
5965,17
5966,17
5967,17
5968,17
5969,17
5970,17
5971,17
5972,17
5973,17
5974,17
5975,17
5976,17
5977,17
5978,17
5979,17
5980,17
5981,17
5982,17
5983,17
5984,17
5985,17
5986,17
5987,17
5988,17
5989,17
5990,17
5991,17
5992,17
5993,17
5994,17
5995,17
5996,17
5997,17
5998,17
5999,17
6000,17
6001,17
6002,17
6003,17
6004,17
6005,17
6006,17
6007,17
6008,17
6009,17
6010,17
6011,17
6012,17
6013,17
6014,17
6015,17
6016,17
6017,17
6018,17
6019,17
6020,17
6021,17
6022,17
6023,17
6024,17
6025,17
6026,17
6027,17
6028,17
6029,17
6030,17
6031,17
6032,17
6033,17
6034,17
6035,17
6036,17
6037,17
6038,17
6039,18
6040,18
6041,18
6042,18
6043,18
6044,18
6045,18
6046,18
6047,18
6048,18
6049,18
6050,18
6051,18
6052,18
6053,18
6054,18
6055,18
6056,19
6057,19
6058,18
6059,18
6060,18
6061,18
6062,18
6063,18
6064,18
6065,18
6066,18
6067,18
6068,18
6069,18
6070,18
6071,18
6072,18
6073,18
6074,18
6075,18
6076,18
6077,18
6078,18
6079,18
6080,18
6081,18
6082,18
6083,18
6084,18
6085,18
6086,18
6087,18
6088,18
6089,18
6090,18
6091,18
6092,18
6093,18
6094,18
6095,18
6096,18
6097,18
6098,18
6099,18
6100,18
6101,18
6102,18
6103,18
6104,18
6105,18
6106,18
6107,18
6108,18
6109,18
6110,18
6111,18
6112,19
6113,19
6114,19
6115,19
6116,19
6117,18
6118,18
6119,18
6120,18
6121,18
6122,18
6123,18
6124,18
6125,18
6126,18
6127,18
6128,18
6129,18
6130,18
6131,18
6132,18
6133,18
6134,18
6135,18
6136,18
6137,18
6138,18
6139,18
6140,18
6141,18
6142,18
6143,18
6144,18
6145,18
6146,18
6147,18
6148,18
6149,18
6150,18
6151,18
6152,18
6153,18
6154,18
6155,18
6156,18
6157,18
6158,18
6159,18
6160,18
6161,18
6162,18
6163,18
6164,18
6165,18
6166,18
6167,18
6168,18
6169,18
6170,18
6171,18
6172,18
6173,18
6174,18
6175,18
6176,18
6177,18
6178,18
6179,18
6180,18
6181,18
6182,18
6183,18
6184,18
6185,18
6186,18
6187,18
6188,18
6189,18
6190,18
6191,18
6192,18
6193,18
6194,18
6195,18
6196,18
6197,18
6198,18
6199,18
6200,18
6201,18
6202,18
6203,18
6204,18
6205,18
6206,18
6207,18
6208,18
6209,18
6210,18
6211,18
6212,18
6213,18
6214,18
6215,18
6216,18
6217,18
6218,18
6219,18
6220,18
6221,18
6222,18
6223,18
6224,18
6225,18
6226,18
6227,18
6228,18
6229,18
6230,18
6231,18
6232,18
6233,18
6234,18
6235,18
6236,18
6237,18
6238,18
6239,18
6240,18
6241,18
6242,18
6243,18
6244,18
6245,18
6246,18
6247,18
6248,18
6249,18
6250,18
6251,18
6252,18
6253,18
6254,18
6255,18
6256,18
6257,18
6258,18
6259,18
6260,18
6261,18
6262,18
6263,18
6264,18
6265,18
6266,18
6267,18
6268,18
6269,18
6270,18
6271,18
6272,18
6273,18
6274,18
6275,18
6276,18
6277,18
6278,18
6279,18
6280,18
6281,18
6282,18
6283,18
6284,18
6285,18
6286,18
6287,18
6288,18
6289,18
6290,18
6291,18
6292,18
6293,18
6294,18
6295,18
6296,18
6297,19
6298,19
6299,19
6300,19
6301,18
6302,18
6303,18
6304,18
6305,18
6306,18
6307,18
6308,18
6309,18
6310,18
6311,18
6312,18
6313,18
6314,18
6315,18
6316,18
6317,18
6318,18
6319,18
6320,18
6321,18
6322,18
6323,18
6324,18
6325,19
6326,20
6327,19
6328,19
6329,18
6330,18
6331,18
6332,18
6333,18
6334,18
6335,18
6336,18
6337,19
6338,18
6339,18
6340,18
6341,18
6342,18
6343,18
6344,18
6345,18
6346,18
6347,18
6348,18
6349,18
6350,19
6351,19
6352,19
6353,18
6354,18
6355,18
6356,18
6357,18
6358,18
6359,18
6360,18
6361,18
6362,18
6363,18
6364,18
6365,18
6366,18
6367,18
6368,18
6369,18
6370,18
6371,18
6372,18
6373,18
6374,18
6375,18
6376,18
6377,18
6378,18
6379,18
6380,18
6381,18
6382,18
6383,18
6384,18
6385,18
6386,18
6387,18
6388,18
6389,18
6390,18
6391,18
6392,18
6393,18
6394,18
6395,18
6396,18
6397,18
6398,18
6399,18
6400,18
6401,18
6402,18
6403,18
6404,18
6405,18
6406,18
6407,18
6408,18
6409,18
6410,18
6411,18
6412,18
6413,18
6414,18
6415,18
6416,18
6417,18
6418,18
6419,18
6420,18
6421,18
6422,18
6423,18
6424,18
6425,18
6426,18
6427,18
6428,18
6429,18
6430,18
6431,18
6432,18
6433,18
6434,18
6435,18
6436,18
6437,18
6438,18
6439,18
6440,19
6441,19
6442,19
6443,19
6444,19
6445,19
6446,19
6447,19
6448,19
6449,19
6450,19
6451,20
6452,19
6453,19
6454,19
6455,19
6456,19
6457,18
6458,18
6459,18
6460,18
6461,18
6462,18
6463,18
6464,18
6465,18
6466,18
6467,18
6468,18
6469,18
6470,18
6471,18
6472,18
6473,18
6474,18
6475,18
6476,18
6477,18
6478,18
6479,18
6480,18
6481,18
6482,18
6483,18
6484,18
6485,18
6486,18
6487,18
6488,18
6489,18
6490,18
6491,18
6492,18
6493,18
6494,18
6495,18
6496,18
6497,18
6498,18
6499,18
6500,18
6501,18
6502,18
6503,18
6504,18
6505,18
6506,18
6507,18
6508,18
6509,18
6510,18
6511,18
6512,18
6513,18
6514,18
6515,18
6516,18
6517,18
6518,18
6519,18
6520,18
6521,18
6522,18
6523,18
6524,18
6525,18
6526,18
6527,18
6528,18
6529,18
6530,18
6531,18
6532,18
6533,18
6534,18
6535,18
6536,18
6537,18
6538,18
6539,18
6540,18
6541,18
6542,18
6543,18
6544,18
6545,18
6546,18
6547,18
6548,18
6549,18
6550,18
6551,18
6552,18
6553,18
6554,18
6555,18
6556,18
6557,18
6558,18
6559,18
6560,18
6561,18
6562,18
6563,18
6564,18
6565,18
6566,19
6567,18
6568,18
6569,18
6570,18
6571,18
6572,18
6573,18
6574,18
6575,18
6576,18
6577,18
6578,18
6579,18
6580,18
6581,18
6582,18
6583,18
6584,18
6585,18
6586,18
6587,18
6588,18
6589,18
6590,18
6591,18
6592,19
6593,19
6594,18
6595,18
6596,18
6597,18
6598,18
6599,18
6600,18
6601,18
6602,18
6603,18
6604,19
6605,19
6606,19
6607,19
6608,19
6609,19
6610,19
6611,19
6612,19
6613,19
6614,19
6615,19
6616,19
6617,19
6618,19
6619,19
6620,19
6621,19
6622,19
6623,19
6624,19
6625,20
6626,20
6627,20
6628,19
6629,19
6630,19
6631,19
6632,19
6633,19
6634,19
6635,19
6636,19
6637,19
6638,19
6639,19
6640,19
6641,19
6642,19
6643,19
6644,19
6645,20
6646,19
6647,20
6648,20
6649,19
6650,19
6651,19
6652,19
6653,19
6654,19
6655,19
6656,19
6657,19
6658,19
6659,19
6660,19
6661,19
6662,19
6663,19
6664,19
6665,19
6666,19
6667,20
6668,20
6669,20
6670,21
6671,21
6672,21
6673,21
6674,21
6675,21
6676,21
6677,21
6678,21
6679,21
6680,21
6681,20
6682,20
6683,20
6684,20
6685,19
6686,19
6687,19
6688,19
6689,19
6690,19
6691,19
6692,19
6693,19
6694,19
6695,19
6696,19
6697,19
6698,19
6699,19
6700,19
6701,19
6702,19
6703,19
6704,19
6705,19
6706,19
6707,19
6708,19
6709,19
6710,19
6711,19
6712,19
6713,19
6714,19
6715,19
6716,19
6717,19
6718,19
6719,19
6720,19
6721,19
6722,19
6723,19
6724,19
6725,19
6726,19
6727,19
6728,19
6729,19
6730,19
6731,19
6732,19
6733,19
6734,19
6735,19
6736,19
6737,19
6738,19
6739,19
6740,19
6741,19
6742,19
6743,19
6744,19
6745,19
6746,19
6747,19
6748,19
6749,19
6750,19
6751,19
6752,19
6753,19
6754,19
6755,19
6756,19
6757,19
6758,19
6759,19
6760,19
6761,19
6762,19
6763,19
6764,19
6765,19
6766,19
6767,19
6768,19
6769,19
6770,19
6771,19
6772,19
6773,19
6774,19
6775,19
6776,19
6777,19
6778,19
6779,19
6780,19
6781,19
6782,19
6783,19
6784,19
6785,19
6786,19
6787,19
6788,19
6789,19
6790,19
6791,19
6792,19
6793,19
6794,19
6795,19
6796,19
6797,19
6798,19
6799,19
6800,19
6801,19
6802,19
6803,19
6804,19
6805,19
6806,19
6807,19
6808,19
6809,19
6810,19
6811,19
6812,19
6813,19
6814,19
6815,19
6816,19
6817,19
6818,19
6819,19
6820,19
6821,19
6822,19
6823,19
6824,19
6825,19
6826,19
6827,19
6828,19
6829,19
6830,19
6831,19
6832,19
6833,19
6834,19
6835,19
6836,19
6837,19
6838,19
6839,19
6840,19
6841,19
6842,19
6843,19
6844,19
6845,19
6846,19
6847,19
6848,19
6849,19
6850,19
6851,19
6852,19
6853,19
6854,19
6855,19
6856,19
6857,19
6858,19
6859,19
6860,19
6861,19
6862,19
6863,19
6864,19
6865,19
6866,19
6867,19
6868,19
6869,19
6870,19
6871,19
6872,19
6873,19
6874,19
6875,19
6876,19
6877,19
6878,19
6879,20
6880,20
6881,20
6882,20
6883,20
6884,19
6885,19
6886,19
6887,19
6888,19
6889,19
6890,19
6891,19
6892,19
6893,19
6894,19
6895,19
6896,19
6897,19
6898,19
6899,19
6900,19
6901,19
6902,19
6903,19
6904,19
6905,19
6906,19
6907,19
6908,19
6909,19
6910,19
6911,19
6912,19
6913,19
6914,19
6915,19
6916,19
6917,19
6918,19
6919,19
6920,19
6921,19
6922,19
6923,19
6924,19
6925,19
6926,19
6927,19
6928,19
6929,19
6930,19
6931,19
6932,19
6933,19
6934,19
6935,19
6936,19
6937,19
6938,19
6939,19
6940,19
6941,19
6942,19
6943,19
6944,19
6945,19
6946,19
6947,19
6948,19
6949,19
6950,19
6951,19
6952,19
6953,19
6954,19
6955,19
6956,19
6957,19
6958,19
6959,19
6960,19
6961,19
6962,19
6963,19
6964,19
6965,19
6966,19
6967,19
6968,19
6969,19
6970,19
6971,19
6972,19
6973,19
6974,19
6975,19
6976,19
6977,19
6978,19
6979,19
6980,19
6981,19
6982,19
6983,19
6984,20
6985,21
6986,21
6987,21
6988,21
6989,21
6990,21
6991,21
6992,21
6993,21
6994,21
6995,21
6996,21
6997,21
6998,21
6999,21
7000,21
7001,21
7002,21
7003,21
7004,21
7005,21
7006,21
7007,21
7008,21
7009,21
7010,21
7011,21
7012,21
7013,21
7014,21
7015,21
7016,21
7017,21
7018,21
7019,21
7020,21
7021,21
7022,21
7023,21
7024,21
7025,21
7026,21
7027,21
7028,21
7029,21
7030,21
7031,21
7032,21
7033,21
7034,21
7035,21
7036,21
7037,22
7038,22
7039,22
7040,22
7041,22
7042,22
7043,21
7044,21
7045,21
7046,21
7047,21
7048,21
7049,21
7050,21
7051,21
7052,22
7053,22
7054,22
7055,21
7056,21
7057,21
7058,21
7059,21
7060,21
7061,21
7062,21
7063,21
7064,21
7065,21
7066,21
7067,21
7068,21
7069,21
7070,21
7071,21
7072,21
7073,21
7074,21
7075,21
7076,21
7077,21
7078,21
7079,21
7080,21
7081,21
7082,21
7083,21
7084,21
7085,21
7086,21
7087,21
7088,21
7089,21
7090,21
7091,21
7092,21
7093,21
7094,21
7095,21
7096,21
7097,21
7098,21
7099,21
7100,21
7101,21
7102,21
7103,21
7104,21
7105,21
7106,21
7107,22
7108,21
7109,21
7110,21
7111,21
7112,21
7113,21
7114,21
7115,21
7116,21
7117,21
7118,21
7119,21
7120,21
7121,21
7122,21
7123,21
7124,21
7125,21
7126,21
7127,21
7128,21
7129,21
7130,21
7131,21
7132,21
7133,21
7134,21
7135,21
7136,21
7137,21
7138,21
7139,21
7140,21
7141,21
7142,21
7143,21
7144,21
7145,21
7146,21
7147,21
7148,21
7149,21
7150,21
7151,21
7152,21
7153,21
7154,21
7155,21
7156,21
7157,21
7158,21
7159,21
7160,21
7161,21
7162,21
7163,21
7164,21
7165,21
7166,21
7167,21
7168,21
7169,21
7170,21
7171,21
7172,21
7173,21
7174,21
7175,21
7176,21
7177,21
7178,21
7179,21
7180,21
7181,21
7182,21
7183,21
7184,21
7185,21
7186,21
7187,21
7188,21
7189,21
7190,21
7191,21
7192,21
7193,21
7194,21
7195,21
7196,21
7197,21
7198,21
7199,21
7200,21
7201,21
7202,22
7203,22
7204,22
7205,22
7206,21
7207,21
7208,21
7209,21
7210,21
7211,21
7212,21
7213,21
7214,21
7215,21
7216,21
7217,21
7218,21
7219,21
7220,22
7221,21
7222,21
7223,21
7224,21
7225,21
7226,21
7227,21
7228,21
7229,21
7230,21
7231,21
7232,21
7233,21
7234,21
7235,22
7236,22
7237,22
7238,21
7239,21
7240,21
7241,21
7242,21
7243,21
7244,21
7245,21
7246,21
7247,21
7248,21
7249,21
7250,21
7251,21
7252,21
7253,21
7254,21
7255,21
7256,21
7257,21
7258,21
7259,21
7260,21
7261,21
7262,21
7263,21
7264,21
7265,21
7266,21
7267,21
7268,21
7269,21
7270,21
7271,21
7272,21
7273,21
7274,21
7275,21
7276,21
7277,21
7278,21
7279,21
7280,21
7281,21
7282,21
7283,21
7284,21
7285,21
7286,21
7287,21
7288,21
7289,21
7290,21
7291,21
7292,21
7293,21
7294,21
7295,21
7296,21
7297,21
7298,21
7299,21
7300,21
7301,21
7302,21
7303,21
7304,21
7305,21
7306,21
7307,21
7308,21
7309,21
7310,21
7311,21
7312,21
7313,21
7314,21
7315,21
7316,21
7317,21
7318,21
7319,21
7320,21
7321,22
7322,21
7323,21
7324,21
7325,21
7326,21
7327,21
7328,21
7329,21
7330,21
7331,21
7332,21
7333,21
7334,21
7335,21
7336,21
7337,21
7338,21
7339,21
7340,21
7341,21
7342,21
7343,21
7344,21
7345,21
7346,21
7347,21
7348,21
7349,21
7350,21
7351,21
7352,21
7353,21
7354,21
7355,21
7356,21
7357,21
7358,21
7359,21
7360,21
7361,21
7362,21
7363,21
7364,21
7365,21
7366,21
7367,21
7368,21
7369,21
7370,21
7371,21
7372,21
7373,21
7374,21
7375,21
7376,21
7377,21
7378,21
7379,21
7380,21
7381,21
7382,21
7383,21
7384,21
7385,21
7386,21
7387,21
7388,21
7389,21
7390,21
7391,21
7392,21
7393,21
7394,21
7395,22
7396,22
7397,22
7398,22
7399,22
7400,21
7401,21
7402,21
7403,21
7404,21
7405,21
7406,21
7407,21
7408,21
7409,21
7410,21
7411,21
7412,21
7413,21
7414,21
7415,21
7416,21
7417,21
7418,21
7419,21
7420,21
7421,21
7422,21
7423,21
7424,21
7425,21
7426,21
7427,21
7428,21
7429,21
7430,21
7431,21
7432,21
7433,21
7434,21
7435,21
7436,21
7437,21
7438,21
7439,21
7440,21
7441,21
7442,21
7443,21
7444,21
7445,21
7446,21
7447,21
7448,21
7449,21
7450,21
7451,21
7452,21
7453,21
7454,21
7455,21
7456,21
7457,21
7458,21
7459,21
7460,21
7461,21
7462,21
7463,21
7464,21
7465,21
7466,21
7467,21
7468,21
7469,21
7470,21
7471,22
7472,22
7473,22
7474,21
7475,21
7476,21
7477,21
7478,21
7479,21
7480,21
7481,21
7482,21
7483,21
7484,21
7485,21
7486,21
7487,21
7488,21
7489,21
7490,21
7491,21
7492,21
7493,21
7494,21
7495,21
7496,21
7497,21
7498,21
7499,21
7500,21
7501,21
7502,21
7503,21
7504,21
7505,21
7506,21
7507,21
7508,21
7509,21
7510,21
7511,21
7512,21
7513,21
7514,21
7515,21
7516,21
7517,21
7518,21
7519,21
7520,21
7521,21
7522,21
7523,21
7524,21
7525,21
7526,21
7527,21
7528,21
7529,21
7530,21
7531,21
7532,21
7533,21
7534,21
7535,21
7536,21
7537,21
7538,21
7539,21
7540,21
7541,21
7542,21
7543,21
7544,21
7545,21
7546,21
7547,21
7548,21
7549,21
7550,21
7551,21
7552,21
7553,21
7554,21
7555,21
7556,21
7557,21
7558,21
7559,21
7560,21
7561,21
7562,21
7563,21
7564,21
7565,21
7566,21
7567,21
7568,21
7569,21
7570,21
7571,21
7572,21
7573,21
7574,21
7575,21
7576,21
7577,21
7578,21
7579,21
7580,21
7581,21
7582,21
7583,21
7584,21
7585,21
7586,21
7587,21
7588,21
7589,21
7590,21
7591,21
7592,21
7593,21
7594,21
7595,21
7596,21
7597,21
7598,21
7599,21
7600,21
7601,21
7602,21
7603,21
7604,21
7605,21
7606,21
7607,21
7608,21
7609,21
7610,21
7611,21
7612,21
7613,21
7614,21
7615,21
7616,21
7617,21
7618,21
7619,21
7620,21
7621,21
7622,21
7623,21
7624,21
7625,21
7626,21
7627,21
7628,21
7629,21
7630,22
7631,22
7632,22
7633,22
7634,22
7635,22
7636,22
7637,21
7638,21
7639,21
7640,21
7641,21
7642,21
7643,21
7644,21
7645,21
7646,21
7647,21
7648,21
7649,21
7650,21
7651,21
7652,21
7653,21
7654,21
7655,21
7656,21
7657,21
7658,21
7659,21
7660,21
7661,21
7662,21
7663,21
7664,21
7665,21
7666,21
7667,21
7668,21
7669,21
7670,21
7671,21
7672,21
7673,21
7674,21
7675,21
7676,21
7677,21
7678,21
7679,21
7680,21
7681,21
7682,21
7683,21
7684,21
7685,21
7686,21
7687,21
7688,21
7689,21
7690,21
7691,21
7692,21
7693,21
7694,21
7695,21
7696,21
7697,21
7698,21
7699,21
7700,21
7701,21
7702,21
7703,21
7704,21
7705,21
7706,21
7707,21
7708,21
7709,21
7710,21
7711,21
7712,21
7713,21
7714,21
7715,21
7716,21
7717,21
7718,21
7719,21
7720,21
7721,21
7722,21
7723,21
7724,21
7725,21
7726,21
7727,21
7728,21
7729,21
7730,21
7731,21
7732,21
7733,21
7734,21
7735,21
7736,21
7737,21
7738,21
7739,21
7740,21
7741,21
7742,21
7743,21
7744,21
7745,21
7746,21
7747,21
7748,21
7749,21
7750,21
7751,21
7752,21
7753,21
7754,21
7755,21
7756,21
7757,21
7758,21
7759,21
7760,21
7761,21
7762,21
7763,21
7764,21
7765,21
7766,21
7767,21
7768,21
7769,21
7770,21
7771,21
7772,21
7773,21
7774,21
7775,21
7776,21
7777,21
7778,21
7779,21
7780,21
7781,21
7782,21
7783,21
7784,21
7785,21
7786,21
7787,21
7788,21
7789,21
7790,21
7791,21
7792,21
7793,21
7794,21
7795,21
7796,21
7797,21
7798,21
7799,21
7800,21
7801,21
7802,21
7803,21
7804,21
7805,21
7806,21
7807,21
7808,21
7809,21
7810,21
7811,21
7812,21
7813,21
7814,21
7815,21
7816,21
7817,21
7818,21
7819,21
7820,21
7821,21
7822,21
7823,21
7824,21
7825,21
7826,21
7827,21
7828,21
7829,21
7830,21
7831,21
7832,21
7833,21
7834,21
7835,21
7836,21
7837,21
7838,21
7839,21
7840,21
7841,21
7842,21
7843,21
7844,21
7845,21
7846,21
7847,21
7848,21
7849,21
7850,21
7851,21
7852,21
7853,21
7854,21
7855,21
7856,21
7857,21
7858,22
7859,22
7860,22
7861,22
7862,22
7863,22
7864,22
7865,22
7866,22
7867,22
7868,21
7869,21
7870,21
7871,21
7872,21
7873,21
7874,21
7875,21
7876,21
7877,21
7878,21
7879,21
7880,21
7881,21
7882,21
7883,21
7884,21
7885,21
7886,21
7887,21
7888,21
7889,21
7890,21
7891,21
7892,21
7893,21
7894,21
7895,21
7896,21
7897,21
7898,21
7899,21
7900,21
7901,21
7902,21
7903,21
7904,21
7905,21
7906,21
7907,21
7908,21
7909,21
7910,21
7911,21
7912,21
7913,21
7914,21
7915,21
7916,21
7917,21
7918,21
7919,21
7920,21
7921,21
7922,21
7923,21
7924,21
7925,21
7926,21
7927,21
7928,21
7929,21
7930,21
7931,21
7932,21
7933,21
7934,21
7935,22
7936,21
7937,21
7938,21
7939,21
7940,21
7941,21
7942,22
7943,21
7944,21
7945,21
7946,21
7947,21
7948,21
7949,21
7950,21
7951,21
7952,21
7953,21
7954,21
7955,21
7956,21
7957,21
7958,21
7959,21
7960,21
7961,21
7962,21
7963,21
7964,21
7965,21
7966,21
7967,21
7968,21
7969,21
7970,21
7971,21
7972,21
7973,21
7974,21
7975,21
7976,21
7977,21
7978,21
7979,21
7980,21
7981,21
7982,21
7983,21
7984,21
7985,21
7986,21
7987,21
7988,21
7989,21
7990,21
7991,21
7992,21
7993,21
7994,21
7995,21
7996,21
7997,21
7998,21
7999,21
8000,21
8001,21
8002,21
8003,21
8004,21
8005,21
8006,21
8007,21
8008,21
8009,21
8010,21
8011,21
8012,21
8013,21
8014,21
8015,21
8016,21
8017,21
8018,21
8019,21
8020,21
8021,21
8022,21
8023,21
8024,21
8025,21
8026,21
8027,21
8028,21
8029,21
8030,21
8031,21
8032,21
8033,21
8034,21
8035,21
8036,21
8037,21
8038,21
8039,21
8040,21
8041,21
8042,21
8043,21
8044,21
8045,21
8046,21
8047,21
8048,21
8049,21
8050,21
8051,21
8052,21
8053,22
8054,22
8055,22
8056,22
8057,22
8058,22
8059,22
8060,22
8061,22
8062,22
8063,22
8064,22
8065,22
8066,22
8067,22
8068,22
8069,22
8070,22
8071,22
8072,22
8073,22
8074,22
8075,22
8076,22
8077,22
8078,22
8079,22
8080,22
8081,22
8082,22
8083,22
8084,22
8085,22
8086,22
8087,22
8088,23
8089,23
8090,23
8091,23
8092,23
8093,23
8094,23
8095,23
8096,23
8097,23
8098,23
8099,23
8100,23
8101,23
8102,23
8103,23
8104,23
8105,23
8106,23
8107,23
8108,23
8109,23
8110,23
8111,23
8112,22
8113,22
8114,23
8115,23
8116,22
8117,22
8118,22
8119,22
8120,22
8121,22
8122,22
8123,22
8124,22
8125,22
8126,23
8127,23
8128,23
8129,23
8130,23
8131,23
8132,23
8133,23
8134,23
8135,23
8136,23
8137,23
8138,23
8139,23
8140,23
8141,23
8142,23
8143,23
8144,23
8145,23
8146,23
8147,23
8148,23
8149,23
8150,23
8151,23
8152,23
8153,23
8154,23
8155,23
8156,23
8157,23
8158,23
8159,23
8160,23
8161,23
8162,23
8163,23
8164,23
8165,23
8166,23
8167,23
8168,23
8169,23
8170,23
8171,23
8172,23
8173,24
8174,24
8175,23
8176,23
8177,23
8178,23
8179,23
8180,23
8181,24
8182,24
8183,24
8184,24
8185,24
8186,24
8187,23
8188,23
8189,23
8190,23
8191,23
8192,23
8193,23
8194,23
8195,23
8196,23
8197,23
8198,24
8199,23
8200,23
8201,23
8202,23
8203,23
8204,23
8205,23
8206,23
8207,23
8208,23
8209,23
8210,23
8211,23
8212,23
8213,23
8214,23
8215,23
8216,23
8217,23
8218,23
8219,23
8220,23
8221,23
8222,23
8223,23
8224,23
8225,23
8226,23
8227,23
8228,23
8229,23
8230,23
8231,24
8232,24
8233,24
8234,24
8235,24
8236,23
8237,23
8238,23
8239,23
8240,23
8241,23
8242,23
8243,23
8244,23
8245,23
8246,23
8247,23
8248,23
8249,23
8250,23
8251,23
8252,23
8253,23
8254,23
8255,23
8256,23
8257,23
8258,23
8259,23
8260,23
8261,23
8262,23
8263,23
8264,23
8265,23
8266,23
8267,23
8268,23
8269,23
8270,23
8271,23
8272,23
8273,23
8274,23
8275,23
8276,23
8277,23
8278,23
8279,23
8280,23
8281,23
8282,23
8283,23
8284,23
8285,23
8286,23
8287,23
8288,23
8289,23
8290,23
8291,23
8292,23
8293,23
8294,24
8295,24
8296,23
8297,23
8298,23
8299,23
8300,23
8301,23
8302,23
8303,23
8304,23
8305,23
8306,23
8307,23
8308,23
8309,23
8310,23
8311,23
8312,23
8313,23
8314,23
8315,23
8316,23
8317,23
8318,23
8319,23
8320,23
8321,23
8322,23
8323,23
8324,23
8325,23
8326,23
8327,23
8328,23
8329,23
8330,23
8331,23
8332,23
8333,23
8334,23
8335,23
8336,23
8337,23
8338,23
8339,23
8340,23
8341,23
8342,23
8343,23
8344,23
8345,23
8346,23
8347,23
8348,23
8349,23
8350,23
8351,23
8352,23
8353,23
8354,23
8355,23
8356,23
8357,23
8358,23
8359,23
8360,23
8361,23
8362,23
8363,23
8364,23
8365,23
8366,23
8367,23
8368,23
8369,24
8370,23
8371,23
8372,23
8373,23
8374,23
8375,23
8376,23
8377,23
8378,23
8379,23
8380,23
8381,23
8382,23
8383,23
8384,23
8385,23
8386,23
8387,23
8388,23
8389,23
8390,23
8391,23
8392,23
8393,23
8394,23
8395,23
8396,23
8397,23
8398,23
8399,23
8400,23
8401,23
8402,23
8403,23
8404,23
8405,23
8406,23
8407,23
8408,23
8409,23
8410,23
8411,23
8412,23
8413,23
8414,23
8415,23
8416,23
8417,23
8418,23
8419,23
8420,23
8421,23
8422,23
8423,23
8424,23
8425,23
8426,23
8427,23
8428,23
8429,23
8430,23
8431,23
8432,23
8433,23
8434,23
8435,23
8436,23
8437,23
8438,23
8439,23
8440,23
8441,23
8442,23
8443,23
8444,23
8445,23
8446,23
8447,23
8448,23
8449,23
8450,23
8451,23
8452,23
8453,23
8454,23
8455,23
8456,23
8457,23
8458,23
8459,23
8460,23
8461,23
8462,23
8463,23
8464,23
8465,23
8466,23
8467,23
8468,23
8469,23
8470,23
8471,23
8472,23
8473,23
8474,23
8475,23
8476,23
8477,23
8478,23
8479,23
8480,23
8481,23
8482,23
8483,23
8484,23
8485,23
8486,23
8487,23
8488,24
8489,23
8490,23
8491,23
8492,23
8493,23
8494,23
8495,23
8496,23
8497,23
8498,23
8499,23
8500,23
8501,23
8502,23
8503,23
8504,23
8505,23
8506,23
8507,23
8508,23
8509,23
8510,23
8511,23
8512,23
8513,23
8514,23
8515,23
8516,23
8517,23
8518,23
8519,23
8520,23
8521,23
8522,23
8523,23
8524,23
8525,23
8526,23
8527,23
8528,23
8529,23
8530,23
8531,23
8532,23
8533,23
8534,23
8535,23
8536,23
8537,23
8538,23
8539,23
8540,23
8541,23
8542,23
8543,23
8544,23
8545,23
8546,23
8547,23
8548,23
8549,23
8550,23
8551,23
8552,23
8553,23
8554,23
8555,23
8556,23
8557,23
8558,23
8559,23
8560,23
8561,23
8562,23
8563,23
8564,23
8565,23
8566,23
8567,23
8568,23
8569,23
8570,23
8571,23
8572,23
8573,23
8574,23
8575,23
8576,23
8577,23
8578,23
8579,23
8580,23
8581,23
8582,23
8583,23
8584,23
8585,23
8586,23
8587,23
8588,23
8589,23
8590,23
8591,23
8592,23
8593,23
8594,23
8595,23
8596,23
8597,23
8598,23
8599,23
8600,23
8601,23
8602,23
8603,23
8604,23
8605,23
8606,23
8607,23
8608,23
8609,23
8610,23
8611,23
8612,23
8613,23
8614,23
8615,23
8616,23
8617,23
8618,23
8619,23
8620,23
8621,23
8622,23
8623,23
8624,23
8625,23
8626,23
8627,23
8628,23
8629,23
8630,24
8631,24
8632,24
8633,23
8634,23
8635,23
8636,23
8637,23
8638,23
8639,23
8640,23
8641,23
8642,23
8643,23
8644,23
8645,23
8646,23
8647,23
8648,23
8649,23
8650,23
8651,23
8652,23
8653,23
8654,23
8655,23
8656,23
8657,23
8658,23
8659,23
8660,23
8661,23
8662,23
8663,23
8664,23
8665,23
8666,23
8667,23
8668,23
8669,23
8670,23
8671,23
8672,23
8673,23
8674,23
8675,23
8676,23
8677,23
8678,23
8679,23
8680,23
8681,23
8682,23
8683,23
8684,23
8685,23
8686,23
8687,23
8688,23
8689,23
8690,23
8691,23
8692,23
8693,23
8694,23
8695,23
8696,23
8697,23
8698,23
8699,23
8700,23
8701,23
8702,23
8703,23
8704,23
8705,23
8706,23
8707,23
8708,23
8709,23
8710,23
8711,23
8712,23
8713,23
8714,23
8715,23
8716,23
8717,23
8718,23
8719,23
8720,23
8721,23
8722,23
8723,23
8724,23
8725,23
8726,23
8727,23
8728,23
8729,23
8730,23
8731,23
8732,23
8733,23
8734,23
8735,23
8736,23
8737,23
8738,23
8739,23
8740,23
8741,23
8742,23
8743,23
8744,23
8745,23
8746,23
8747,23
8748,23
8749,23
8750,23
8751,23
8752,23
8753,23
8754,23
8755,23
8756,23
8757,23
8758,23
8759,23
8760,23
8761,23
8762,23
8763,23
8764,23
8765,23
8766,23
8767,23
8768,23
8769,23
8770,23
8771,23
8772,23
8773,23
8774,23
8775,23
8776,23
8777,23
8778,23
8779,23
8780,23
8781,23
8782,23
8783,23
8784,23
8785,23
8786,23
8787,23
8788,23
8789,23
8790,23
8791,23
8792,23
8793,23
8794,23
8795,23
8796,23
8797,23
8798,23
8799,23
8800,23
8801,23
8802,23
8803,23
8804,23
8805,23
8806,23
8807,23
8808,23
8809,23
8810,23
8811,23
8812,23
8813,23
8814,23
8815,23
8816,23
8817,23
8818,23
8819,23
8820,23
8821,23
8822,23
8823,23
8824,23
8825,23
8826,23
8827,23
8828,23
8829,23
8830,23
8831,23
8832,23
8833,23
8834,23
8835,23
8836,23
8837,23
8838,23
8839,23
8840,23
8841,23
8842,23
8843,23
8844,23
8845,23
8846,23
8847,23
8848,23
8849,23
8850,23
8851,23
8852,23
8853,23
8854,23
8855,23
8856,23
8857,23
8858,23
8859,23
8860,23
8861,23
8862,23
8863,23
8864,23
8865,23
8866,23
8867,23
8868,23
8869,23
8870,23
8871,23
8872,23
8873,23
8874,23
8875,23
8876,23
8877,23
8878,23
8879,24
8880,23
8881,23
8882,23
8883,23
8884,23
8885,23
8886,23
8887,23
8888,23
8889,23
8890,23
8891,23
8892,23
8893,23
8894,23
8895,23
8896,23
8897,23
8898,23
8899,23
8900,23
8901,23
8902,23
8903,23
8904,23
8905,23
8906,23
8907,23
8908,23
8909,23
8910,23
8911,23
8912,23
8913,23
8914,23
8915,23
8916,23
8917,23
8918,23
8919,23
8920,23
8921,23
8922,23
8923,23
8924,23
8925,23
8926,23
8927,23
8928,23
8929,23
8930,23
8931,23
8932,23
8933,23
8934,23
8935,23
8936,23
8937,23
8938,23
8939,23
8940,23
8941,23
8942,23
8943,23
8944,23
8945,23
8946,23
8947,23
8948,23
8949,23
8950,23
8951,23
8952,23
8953,23
8954,23
8955,23
8956,23
8957,23
8958,23
8959,23
8960,23
8961,23
8962,23
8963,23
8964,23
8965,23
8966,23
8967,23
8968,23
8969,23
8970,23
8971,23
8972,24
8973,24
8974,24
8975,24
8976,24
8977,24
8978,24
8979,24
8980,24
8981,24
8982,24
8983,24
8984,24
8985,24
8986,24
8987,24
8988,24
8989,24
8990,24
8991,24
8992,24
8993,24
8994,24
8995,24
8996,24
8997,24
8998,24
8999,24
9000,24
9001,24
9002,24
9003,24
9004,24
9005,24
9006,24
9007,24
9008,24
9009,24
9010,24
9011,24
9012,24
9013,24
9014,24
9015,24
9016,24
9017,24
9018,24
9019,24
9020,24
9021,24
9022,24
9023,24
9024,24
9025,24
9026,24
9027,24
9028,24
9029,24
9030,24
9031,24
9032,24
9033,24
9034,24
9035,24
9036,24
9037,24
9038,24
9039,24
9040,24
9041,24
9042,24
9043,24
9044,24
9045,24
9046,24
9047,24
9048,24
9049,24
9050,24
9051,24
9052,24
9053,24
9054,24
9055,24
9056,24
9057,24
9058,24
9059,24
9060,25
9061,24
9062,24
9063,24
9064,24
9065,24
9066,24
9067,24
9068,24
9069,24
9070,24
9071,24
9072,24
9073,24
9074,24
9075,24
9076,24
9077,24
9078,24
9079,24
9080,24
9081,24
9082,24
9083,24
9084,24
9085,24
9086,24
9087,24
9088,24
9089,24
9090,24
9091,24
9092,24
9093,24
9094,24
9095,24
9096,24
9097,24
9098,24
9099,24
9100,24
9101,24
9102,24
9103,24
9104,24
9105,24
9106,24
9107,24
9108,24
9109,24
9110,24
9111,24
9112,24
9113,24
9114,24
9115,24
9116,24
9117,24
9118,24
9119,24
9120,24
9121,24
9122,25
9123,24
9124,24
9125,24
9126,24
9127,24
9128,24
9129,24
9130,24
9131,24
9132,24
9133,24
9134,24
9135,24
9136,24
9137,24
9138,24
9139,24
9140,24
9141,24
9142,24
9143,24
9144,24
9145,24
9146,24
9147,24
9148,24
9149,24
9150,24
9151,24
9152,24
9153,24
9154,24
9155,24
9156,24
9157,24
9158,24
9159,24
9160,24
9161,24
9162,24
9163,24
9164,24
9165,24
9166,24
9167,24
9168,24
9169,24
9170,24
9171,24
9172,24
9173,24
9174,24
9175,24
9176,24
9177,24
9178,24
9179,24
9180,24
9181,24
9182,24
9183,24
9184,24
9185,24
9186,24
9187,24
9188,24
9189,25
9190,24
9191,24
9192,24
9193,24
9194,24
9195,24
9196,24
9197,24
9198,24
9199,24
9200,24
9201,24
9202,24
9203,24
9204,24
9205,24
9206,24
9207,25
9208,24
9209,24
9210,24
9211,24
9212,24
9213,24
9214,24
9215,24
9216,24
9217,24
9218,24
9219,24
9220,24
9221,24
9222,24
9223,24
9224,24
9225,24
9226,24
9227,24
9228,24
9229,24
9230,24
9231,24
9232,24
9233,24
9234,24
9235,24
9236,24
9237,24
9238,24
9239,24
9240,24
9241,24
9242,24
9243,24
9244,24
9245,24
9246,24
9247,24
9248,24
9249,24
9250,24
9251,24
9252,24
9253,24
9254,24
9255,24
9256,24
9257,24
9258,24
9259,24
9260,24
9261,24
9262,24
9263,24
9264,24
9265,24
9266,24
9267,24
9268,24
9269,24
9270,24
9271,24
9272,24
9273,24
9274,24
9275,24
9276,24
9277,24
9278,24
9279,24
9280,24
9281,24
9282,24
9283,24
9284,24
9285,24
9286,24
9287,24
9288,24
9289,24
9290,24
9291,24
9292,24
9293,24
9294,24
9295,24
9296,24
9297,24
9298,24
9299,24
9300,24
9301,24
9302,24
9303,24
9304,24
9305,24
9306,24
9307,24
9308,24
9309,24
9310,24
9311,24
9312,24
9313,24
9314,24
9315,24
9316,24
9317,24
9318,24
9319,24
9320,24
9321,24
9322,24
9323,24
9324,24
9325,24
9326,24
9327,24
9328,24
9329,24
9330,24
9331,24
9332,24
9333,24
9334,24
9335,24
9336,24
9337,24
9338,24
9339,24
9340,24
9341,24
9342,24
9343,24
9344,24
9345,24
9346,24
9347,24
9348,24
9349,24
9350,24
9351,24
9352,24
9353,24
9354,24
9355,24
9356,24
9357,24
9358,24
9359,24
9360,24
9361,24
9362,24
9363,24
9364,24
9365,24
9366,24
9367,24
9368,24
9369,24
9370,24
9371,24
9372,24
9373,24
9374,24
9375,24
9376,24
9377,24
9378,24
9379,24
9380,24
9381,24
9382,24
9383,24
9384,24
9385,24
9386,24
9387,24
9388,24
9389,24
9390,24
9391,24
9392,24
9393,24
9394,24
9395,24
9396,24
9397,24
9398,24
9399,24
9400,24
9401,24
9402,25
9403,25
9404,24
9405,24
9406,24
9407,24
9408,24
9409,24
9410,24
9411,24
9412,24
9413,24
9414,24
9415,24
9416,24
9417,24
9418,24
9419,24
9420,24
9421,24
9422,24
9423,24
9424,24
9425,24
9426,24
9427,24
9428,24
9429,24
9430,24
9431,24
9432,24
9433,24
9434,24
9435,24
9436,24
9437,24
9438,24
9439,24
9440,24
9441,24
9442,24
9443,24
9444,24
9445,24
9446,24
9447,24
9448,24
9449,24
9450,24
9451,24
9452,24
9453,24
9454,24
9455,24
9456,24
9457,24
9458,24
9459,24
9460,24
9461,24
9462,24
9463,24
9464,25
9465,25
9466,24
9467,24
9468,24
9469,24
9470,24
9471,24
9472,24
9473,24
9474,24
9475,24
9476,24
9477,24
9478,24
9479,24
9480,24
9481,24
9482,24
9483,24
9484,24
9485,24
9486,24
9487,24
9488,24
9489,24
9490,24
9491,24
9492,24
9493,24
9494,24
9495,24
9496,24
9497,24
9498,24
9499,24
9500,24
9501,24
9502,24
9503,24
9504,24
9505,24
9506,24
9507,24
9508,24
9509,24
9510,24
9511,24
9512,24
9513,24
9514,24
9515,24
9516,24
9517,24
9518,24
9519,24
9520,24
9521,24
9522,24
9523,24
9524,24
9525,24
9526,24
9527,24
9528,24
9529,24
9530,24
9531,24
9532,25
9533,25
9534,25
9535,25
9536,25
9537,25
9538,25
9539,25
9540,24
9541,24
9542,24
9543,25
9544,24
9545,24
9546,24
9547,24
9548,24
9549,24
9550,24
9551,24
9552,24
9553,24
9554,24
9555,24
9556,24
9557,24
9558,24
9559,24
9560,24
9561,24
9562,24
9563,24
9564,24
9565,24
9566,24
9567,24
9568,24
9569,24
9570,24
9571,24
9572,24
9573,24
9574,24
9575,24
9576,24
9577,24
9578,24
9579,24
9580,24
9581,24
9582,24
9583,24
9584,24
9585,24
9586,24
9587,24
9588,24
9589,24
9590,24
9591,24
9592,24
9593,24
9594,24
9595,24
9596,24
9597,24
9598,24
9599,24
9600,24
9601,24
9602,24
9603,24
9604,24
9605,24
9606,24
9607,24
9608,24
9609,24
9610,24
9611,24
9612,24
9613,24
9614,24
9615,24
9616,24
9617,24
9618,24
9619,24
9620,24
9621,24
9622,24
9623,24
9624,24
9625,25
9626,25
9627,24
9628,24
9629,24
9630,25
9631,24
9632,24
9633,24
9634,24
9635,24
9636,24
9637,24
9638,24
9639,24
9640,24
9641,24
9642,24
9643,24
9644,24
9645,24
9646,24
9647,24
9648,24
9649,24
9650,24
9651,24
9652,24
9653,24
9654,24
9655,24
9656,24
9657,24
9658,24
9659,24
9660,24
9661,24
9662,24
9663,24
9664,24
9665,24
9666,24
9667,24
9668,24
9669,24
9670,24
9671,24
9672,24
9673,24
9674,24
9675,24
9676,24
9677,24
9678,24
9679,24
9680,24
9681,24
9682,24
9683,24
9684,24
9685,24
9686,24
9687,24
9688,24
9689,24
9690,24
9691,24
9692,24
9693,24
9694,24
9695,24
9696,24
9697,24
9698,24
9699,24
9700,24
9701,24
9702,24
9703,24
9704,24
9705,24
9706,24
9707,24
9708,24
9709,24
9710,24
9711,24
9712,24
9713,24
9714,24
9715,24
9716,24
9717,24
9718,24
9719,24
9720,24
9721,24
9722,24
9723,24
9724,24
9725,24
9726,24
9727,24
9728,24
9729,24
9730,24
9731,24
9732,24
9733,24
9734,24
9735,24
9736,24
9737,24
9738,24
9739,24
9740,24
9741,24
9742,24
9743,24
9744,24
9745,25
9746,25
9747,25
9748,25
9749,25
9750,25
9751,25
9752,25
9753,25
9754,25
9755,25
9756,25
9757,25
9758,25
9759,25
9760,24
9761,24
9762,24
9763,24
9764,24
9765,24
9766,24
9767,24
9768,24
9769,24
9770,24
9771,24
9772,24
9773,25
9774,25
9775,25
9776,25
9777,25
9778,24
9779,24
9780,24
9781,24
9782,24
9783,24
9784,24
9785,24
9786,24
9787,24
9788,24
9789,24
9790,24
9791,24
9792,24
9793,24
9794,24
9795,24
9796,24
9797,24
9798,24
9799,24
9800,24
9801,24
9802,24
9803,24
9804,24
9805,24
9806,24
9807,24
9808,24
9809,24
9810,24
9811,24
9812,24
9813,24
9814,24
9815,24
9816,24
9817,24
9818,24
9819,24
9820,24
9821,24
9822,24
9823,24
9824,24
9825,24
9826,24
9827,24
9828,24
9829,24
9830,24
9831,24
9832,24
9833,24
9834,24
9835,24
9836,24
9837,24
9838,24
9839,24
9840,24
9841,24
9842,24
9843,24
9844,24
9845,24
9846,24
9847,24
9848,24
9849,24
9850,24
9851,24
9852,24
9853,24
9854,24
9855,24
9856,24
9857,24
9858,24
9859,24
9860,24
9861,24
9862,24
9863,24
9864,24
9865,24
9866,24
9867,24
9868,24
9869,24
9870,24
9871,24
9872,24
9873,24
9874,24
9875,24
9876,24
9877,24
9878,24
9879,24
9880,24
9881,24
9882,24
9883,24
9884,24
9885,24
9886,24
9887,24
9888,24
9889,24
9890,24
9891,24
9892,24
9893,24
9894,24
9895,24
9896,24
9897,24
9898,24
9899,24
9900,24
9901,24
9902,24
9903,24
9904,24
9905,24
9906,24
9907,24
9908,24
9909,24
9910,24
9911,24
9912,24
9913,24
9914,24
9915,24
9916,24
9917,25
9918,24
9919,24
9920,24
9921,24
9922,24
9923,24
9924,24
9925,24
9926,24
9927,24
9928,24
9929,24
9930,24
9931,24
9932,24
9933,24
9934,24
9935,24
9936,24
9937,24
9938,24
9939,24
9940,24
9941,24
9942,24
9943,24
9944,24
9945,24
9946,24
9947,24
9948,24
9949,24
9950,24
9951,24
9952,24
9953,24
9954,24
9955,24
9956,24
9957,24
9958,24
9959,24
9960,24
9961,24
9962,24
9963,24
9964,24
9965,24
9966,24
9967,24
9968,24
9969,24
9970,24
9971,24
9972,24
9973,24
9974,24
9975,24
9976,24
9977,24
9978,24
9979,24
9980,24
9981,24
9982,24
9983,24
9984,24
9985,24
9986,24
9987,24
9988,24
9989,24
9990,24
9991,24
9992,24
9993,24
9994,24
9995,24
9996,24
9997,24
9998,24
9999,24
10000,24
