1,3
2,3
3,3
4,3
5,3
6,3
7,3
8,3
9,3
10,3
11,3
12,3
13,3
14,3
15,3
16,3
17,3
18,3
19,3
20,3
21,3
22,3
23,3
24,3
25,3
26,3
27,3
28,3
29,3
30,3
31,3
32,3
33,3
34,3
35,3
36,3
37,3
38,3
39,3
40,4
41,3
42,3
43,3
44,3
45,3
46,3
47,3
48,3
49,3
50,3
51,3
52,3
53,3
54,3
55,3
56,3
57,3
58,3
59,3
60,3
61,3
62,3
63,3
64,3
65,3
66,3
67,3
68,3
69,3
70,3
71,3
72,3
73,3
74,3
75,3
76,3
77,4
78,4
79,4
80,4
81,4
82,4
83,4
84,4
85,4
86,4
87,4
88,4
89,4
90,4
91,4
92,4
93,4
94,4
95,4
96,4
97,4
98,4
99,4
100,4
101,4
102,4
103,4
104,4
105,4
106,4
107,4
108,4
109,4
110,4
111,4
112,4
113,4
114,4
115,4
116,4
117,5
118,5
119,5
120,5
121,5
122,5
123,6
124,6
125,5
126,5
127,5
128,5
129,5
130,5
131,5
132,5
133,5
134,5
135,5
136,5
137,5
138,5
139,5
140,5
141,5
142,5
143,5
144,5
145,5
146,5
147,5
148,5
149,5
150,5
151,5
152,5
153,5
154,5
155,5
156,5
157,5
158,5
159,5
160,5
161,5
162,5
163,5
164,5
165,5
166,5
167,5
168,5
169,6
170,6
171,6
172,6
173,6
174,6
175,6
176,6
177,6
178,6
179,6
180,6
181,6
182,6
183,6
184,6
185,6
186,6
187,6
188,6
189,6
190,6
191,6
192,6
193,6
194,6
195,6
196,6
197,6
198,6
199,6
200,6
201,6
202,6
203,6
204,6
205,6
206,6
207,6
208,6
209,6
210,6
211,6
212,6
213,6
214,6
215,6
216,6
217,6
218,6
219,6
220,6
221,6
222,6
223,6
224,6
225,6
226,6
227,6
228,6
229,6
230,6
231,6
232,6
233,6
234,6
235,6
236,6
237,6
238,6
239,6
240,6
241,6
242,6
243,6
244,6
245,6
246,6
247,6
248,6
249,6
250,6
251,6
252,6
253,6
254,6
255,6
256,6
257,6
258,6
259,6
260,6
261,6
262,6
263,6
264,6
265,6
266,6
267,6
268,6
269,6
270,6
271,6
272,6
273,6
274,6
275,6
276,6
277,6
278,6
279,6
280,6
281,6
282,6
283,6
284,6
285,6
286,6
287,6
288,6
289,6
290,6
291,6
292,6
293,6
294,6
295,6
296,6
297,6
298,6
299,6
300,6
301,6
302,6
303,6
304,6
305,6
306,6
307,6
308,6
309,6
310,6
311,6
312,6
313,6
314,6
315,6
316,6
317,6
318,6
319,6
320,6
321,6
322,6
323,6
324,6
325,6
326,6
327,6
328,6
329,6
330,6
331,6
332,6
333,6
334,6
335,6
336,6
337,6
338,6
339,6
340,6
341,6
342,6
343,6
344,6
345,6
346,6
347,6
348,6
349,6
350,6
351,6
352,6
353,6
354,6
355,6
356,6
357,6
358,6
359,6
360,6
361,6
362,6
363,6
364,6
365,6
366,6
367,6
368,6
369,7
370,6
371,6
372,6
373,6
374,6
375,6
376,6
377,6
378,6
379,6
380,6
381,6
382,6
383,6
384,6
385,6
386,6
387,6
388,6
389,6
390,6
391,6
392,6
393,6
394,6
395,6
396,6
397,6
398,6
399,6
400,6
401,6
402,6
403,6
404,6
405,6
406,6
407,6
408,6
409,7
410,6
411,6
412,6
413,6
414,6
415,6
416,6
417,6
418,6
419,6
420,6
421,6
422,6
423,6
424,6
425,6
426,6
427,6
428,6
429,6
430,6
431,7
432,6
433,6
434,6
435,6
436,6
437,6
438,6
439,6
440,6
441,6
442,6
443,6
444,6
445,6
446,6
447,6
448,6
449,6
450,6
451,6
452,6
453,6
454,6
455,6
456,6
457,6
458,6
459,6
460,6
461,6
462,6
463,6
464,6
465,6
466,6
467,6
468,6
469,6
470,6
471,6
472,6
473,6
474,6
475,6
476,6
477,6
478,6
479,6
480,6
481,6
482,6
483,6
484,6
485,6
486,6
487,6
488,6
489,6
490,6
491,6
492,6
493,6
494,6
495,6
496,6
497,6
498,6
499,6
500,6
501,6
502,6
503,6
504,6
505,6
506,6
507,6
508,6
509,6
510,6
511,6
512,6
513,6
514,6
515,6
516,6
517,6
518,6
519,6
520,6
521,6
522,6
523,6
524,6
525,6
526,6
527,6
528,6
529,7
530,7
531,7
532,7
533,7
534,7
535,7
536,7
537,7
538,7
539,7
540,7
541,7
542,6
543,6
544,6
545,6
546,6
547,6
548,6
549,6
550,6
551,6
552,6
553,6
554,6
555,6
556,6
557,6
558,6
559,6
560,6
561,6
562,6
563,6
564,6
565,6
566,6
567,6
568,6
569,6
570,6
571,6
572,6
573,6
574,6
575,6
576,6
577,6
578,6
579,6
580,6
581,6
582,6
583,6
584,6
585,6
586,6
587,6
588,6
589,6
590,6
591,6
592,6
593,7
594,6
595,6
596,6
597,6
598,6
599,6
600,6
601,6
602,6
603,7
604,7
605,7
606,7
607,7
608,7
609,7
610,7
611,6
612,6
613,6
614,6
615,6
616,6
617,6
618,6
619,6
620,6
621,6
622,7
623,6
624,6
625,6
626,6
627,6
628,6
629,6
630,6
631,6
632,6
633,6
634,6
635,6
636,6
637,6
638,6
639,6
640,6
641,6
642,6
643,6
644,6
645,6
646,6
647,6
648,6
649,6
650,6
651,6
652,6
653,6
654,6
655,6
656,6
657,6
658,6
659,6
660,6
661,6
662,6
663,6
664,6
665,6
666,6
667,6
668,6
669,6
670,6
671,6
672,6
673,6
674,6
675,6
676,6
677,6
678,6
679,6
680,6
681,6
682,6
683,6
684,6
685,6
686,6
687,6
688,6
689,6
690,6
691,6
692,6
693,6
694,6
695,6
696,6
697,6
698,6
699,6
700,6
701,6
702,6
703,6
704,6
705,6
706,6
707,6
708,6
709,6
710,6
711,6
712,6
713,6
714,6
715,6
716,6
717,6
718,6
719,6
720,6
721,6
722,6
723,6
724,6
725,6
726,6
727,6
728,6
729,6
730,6
731,6
732,6
733,6
734,6
735,6
736,6
737,6
738,6
739,6
740,6
741,6
742,6
743,6
744,6
745,6
746,6
747,6
748,6
749,6
750,6
751,6
752,6
753,6
754,6
755,6
756,6
757,6
758,6
759,6
760,6
761,6
762,6
763,6
764,6
765,6
766,6
767,6
768,6
769,6
770,6
771,6
772,6
773,6
774,6
775,6
776,6
777,6
778,6
779,6
780,6
781,7
782,7
783,7
784,7
785,7
786,7
787,7
788,7
789,7
790,7
791,7
792,7
793,7
794,7
795,7
796,7
797,7
798,7
799,7
800,7
801,7
802,7
803,7
804,7
805,7
806,7
807,7
808,7
809,7
810,7
811,7
812,7
813,7
814,7
815,7
816,7
817,7
818,7
819,7
820,7
821,8
822,8
823,8
824,7
825,7
826,7
827,7
828,7
829,7
830,7
831,7
832,7
833,7
834,7
835,7
836,7
837,7
838,7
839,8
840,7
841,7
842,7
843,7
844,7
845,7
846,7
847,7
848,7
849,7
850,7
851,7
852,7
853,7
854,7
855,7
856,7
857,7
858,7
859,7
860,7
861,7
862,7
863,7
864,7
865,7
866,7
867,7
868,7
869,7
870,7
871,7
872,7
873,7
874,7
875,7
876,7
877,7
878,7
879,7
880,7
881,7
882,7
883,7
884,7
885,7
886,7
887,7
888,7
889,7
890,7
891,7
892,7
893,7
894,7
895,7
896,7
897,7
898,7
899,7
900,7
901,7
902,7
903,7
904,7
905,7
906,7
907,7
908,7
909,7
910,7
911,7
912,7
913,7
914,7
915,7
916,7
917,7
918,7
919,7
920,7
921,7
922,7
923,7
924,7
925,7
926,7
927,7
928,7
929,7
930,7
931,7
932,7
933,7
934,7
935,7
936,7
937,9
938,9
939,9
940,9
941,9
942,9
943,9
944,9
945,9
946,9
947,9
948,9
949,9
950,9
951,9
952,9
953,9
954,9
955,9
956,9
957,9
958,9
959,9
960,9
961,9
962,9
963,9
964,9
965,9
966,9
967,9
968,9
969,9
970,9
971,9
972,9
973,9
974,9
975,9
976,9
977,9
978,9
979,9
980,9
981,9
982,9
983,9
984,9
985,9
986,9
987,9
988,9
989,9
990,9
991,9
992,9
993,9
994,9
995,9
996,9
997,9
998,9
999,9
1000,9
1001,9
1002,9
1003,9
1004,9
1005,9
1006,9
1007,9
1008,9
1009,9
1010,9
1011,9
1012,9
1013,9
1014,9
1015,9
1016,9
1017,9
1018,9
1019,9
1020,9
1021,9
1022,9
1023,9
1024,9
1025,9
1026,9
1027,9
1028,9
1029,9
1030,9
1031,9
1032,9
1033,9
1034,9
1035,9
1036,9
1037,9
1038,9
1039,10
1040,10
1041,10
1042,10
1043,10
1044,10
1045,10
1046,10
1047,10
1048,10
1049,10
1050,10
1051,10
1052,10
1053,10
1054,10
1055,10
1056,10
1057,10
1058,10
1059,10
1060,10
1061,10
1062,10
1063,10
1064,10
1065,10
1066,10
1067,10
1068,10
1069,10
1070,10
1071,10
1072,10
1073,10
1074,10
1075,10
1076,10
1077,10
1078,10
1079,10
1080,10
1081,10
1082,10
1083,10
1084,10
1085,10
1086,10
1087,10
1088,10
1089,10
1090,10
1091,10
1092,10
1093,10
1094,10
1095,10
1096,10
1097,10
1098,10
1099,10
1100,10
1101,10
1102,10
1103,10
1104,10
1105,10
1106,10
1107,10
1108,10
1109,10
1110,10
1111,10
1112,10
1113,10
1114,10
1115,10
1116,10
1117,10
1118,10
1119,10
1120,10
1121,10
1122,10
1123,10
1124,10
1125,10
1126,10
1127,10
1128,10
1129,10
1130,10
1131,10
1132,10
1133,10
1134,10
1135,10
1136,10
1137,10
1138,10
1139,10
1140,10
1141,10
1142,10
1143,10
1144,10
1145,10
1146,10
1147,10
1148,10
1149,10
1150,10
1151,10
1152,10
1153,10
1154,10
1155,10
1156,10
1157,10
1158,10
1159,10
1160,10
1161,10
1162,10
1163,10
1164,10
1165,10
1166,10
1167,10
1168,10
1169,10
1170,10
1171,10
1172,10
1173,10
1174,10
1175,10
1176,10
1177,10
1178,10
1179,10
1180,10
1181,10
1182,10
1183,10
1184,10
1185,10
1186,10
1187,10
1188,11
1189,10
1190,10
1191,11
1192,11
1193,11
1194,11
1195,10
1196,10
1197,10
1198,10
1199,10
1200,10
1201,10
1202,10
1203,10
1204,10
1205,10
1206,10
1207,10
1208,10
1209,10
1210,10
1211,10
1212,10
1213,10
1214,10
1215,10
1216,10
1217,10
1218,10
1219,10
1220,10
1221,10
1222,10
1223,10
1224,10
1225,10
1226,10
1227,10
1228,10
1229,10
1230,10
1231,10
1232,10
1233,10
1234,10
1235,10
1236,10
1237,10
1238,10
1239,11
1240,11
1241,10
1242,10
1243,10
1244,10
1245,10
1246,10
1247,10
1248,10
1249,10
1250,10
1251,10
1252,10
1253,10
1254,10
1255,10
1256,10
1257,10
1258,10
1259,10
1260,10
1261,10
1262,10
1263,10
1264,10
1265,10
1266,10
1267,10
1268,10
1269,10
1270,10
1271,10
1272,10
1273,10
1274,10
1275,10
1276,10
1277,10
1278,10
1279,10
1280,10
1281,10
1282,10
1283,10
1284,10
1285,10
1286,10
1287,10
1288,10
1289,10
1290,10
1291,10
1292,10
1293,10
1294,10
1295,10
1296,10
1297,10
1298,10
1299,10
1300,10
1301,10
1302,10
1303,10
1304,10
1305,10
1306,10
1307,10
1308,10
1309,10
1310,10
1311,10
1312,10
1313,10
1314,10
1315,10
1316,10
1317,10
1318,10
1319,10
1320,10
1321,10
1322,10
1323,10
1324,10
1325,10
1326,10
1327,10
1328,10
1329,10
1330,11
1331,11
1332,11
1333,11
1334,11
1335,11
1336,11
1337,11
1338,11
1339,11
1340,11
1341,11
1342,11
1343,11
1344,11
1345,10
1346,10
1347,10
1348,10
1349,10
1350,10
1351,10
1352,10
1353,10
1354,10
1355,10
1356,10
1357,10
1358,10
1359,10
1360,10
1361,10
1362,10
1363,10
1364,10
1365,10
1366,10
1367,10
1368,10
1369,10
1370,10
1371,10
1372,10
1373,10
1374,10
1375,10
1376,10
1377,10
1378,10
1379,10
1380,10
1381,10
1382,10
1383,10
1384,10
1385,10
1386,10
1387,10
1388,10
1389,10
1390,10
1391,10
1392,10
1393,10
1394,10
1395,10
1396,10
1397,10
1398,10
1399,10
1400,10
1401,10
1402,10
1403,10
1404,10
1405,10
1406,10
1407,10
1408,10
1409,10
1410,10
1411,10
1412,10
1413,10
1414,10
1415,10
1416,10
1417,10
1418,10
1419,10
1420,10
1421,10
1422,10
1423,10
1424,10
1425,10
1426,10
1427,10
1428,10
1429,10
1430,10
1431,10
1432,10
1433,10
1434,10
1435,10
1436,10
1437,10
1438,10
1439,10
1440,10
1441,10
1442,10
1443,10
1444,10
1445,10
1446,10
1447,10
1448,10
1449,10
1450,10
1451,10
1452,10
1453,10
1454,10
1455,10
1456,10
1457,10
1458,10
1459,10
1460,10
1461,10
1462,10
1463,10
1464,10
1465,10
1466,10
1467,10
1468,10
1469,10
1470,10
1471,10
1472,10
1473,10
1474,10
1475,10
1476,10
1477,10
1478,10
1479,10
1480,10
1481,10
1482,10
1483,10
1484,10
1485,10
1486,10
1487,10
1488,10
1489,10
1490,10
1491,10
1492,10
1493,10
1494,10
1495,10
1496,10
1497,10
1498,10
1499,10
1500,10
1501,10
1502,10
1503,10
1504,10
1505,10
1506,10
1507,10
1508,10
1509,10
1510,10
1511,10
1512,10
1513,10
1514,10
1515,10
1516,10
1517,10
1518,10
1519,10
1520,10
1521,10
1522,10
1523,10
1524,10
1525,10
1526,10
1527,10
1528,10
1529,10
1530,10
1531,10
1532,10
1533,10
1534,10
1535,10
1536,10
1537,10
1538,10
1539,10
1540,10
1541,10
1542,10
1543,10
1544,10
1545,10
1546,10
1547,10
1548,10
1549,10
1550,10
1551,10
1552,10
1553,10
1554,10
1555,10
1556,10
1557,10
1558,10
1559,10
1560,10
1561,10
1562,10
1563,10
1564,10
1565,10
1566,10
1567,10
1568,10
1569,10
1570,10
1571,10
1572,10
1573,10
1574,10
1575,10
1576,10
1577,10
1578,10
1579,10
1580,10
1581,10
1582,10
1583,10
1584,10
1585,10
1586,10
1587,10
1588,10
1589,10
1590,10
1591,10
1592,10
1593,10
1594,10
1595,10
1596,10
1597,10
1598,10
1599,10
1600,10
1601,10
1602,10
1603,10
1604,10
1605,10
1606,10
1607,10
1608,10
1609,10
1610,10
1611,10
1612,10
1613,10
1614,10
1615,10
1616,10
1617,10
1618,10
1619,10
1620,10
1621,10
1622,10
1623,10
1624,10
1625,10
1626,10
1627,10
1628,10
1629,10
1630,10
1631,10
1632,10
1633,10
1634,10
1635,10
1636,10
1637,10
1638,10
1639,10
1640,10
1641,10
1642,10
1643,10
1644,10
1645,10
1646,10
1647,10
1648,10
1649,10
1650,10
1651,10
1652,10
1653,10
1654,10
1655,10
1656,10
1657,10
1658,10
1659,10
1660,10
1661,10
1662,10
1663,10
1664,10
1665,10
1666,10
1667,10
1668,10
1669,10
1670,10
1671,10
1672,10
1673,10
1674,10
1675,10
1676,10
1677,10
1678,10
1679,10
1680,10
1681,10
1682,10
1683,10
1684,10
1685,10
1686,10
1687,10
1688,10
1689,10
1690,10
1691,10
1692,10
1693,10
1694,10
1695,10
1696,10
1697,10
1698,10
1699,10
1700,10
1701,10
1702,10
1703,10
1704,10
1705,10
1706,10
1707,10
1708,10
1709,10
1710,10
1711,10
1712,10
1713,10
1714,10
1715,10
1716,10
1717,10
1718,10
1719,10
1720,10
1721,10
1722,10
1723,10
1724,10
1725,10
1726,10
1727,10
1728,10
1729,10
1730,10
1731,10
1732,10
1733,10
1734,10
1735,10
1736,10
1737,10
1738,10
1739,10
1740,10
1741,10
1742,10
1743,10
1744,10
1745,10
1746,10
1747,10
1748,10
1749,10
1750,10
1751,10
1752,10
1753,10
1754,10
1755,10
1756,10
1757,10
1758,10
1759,10
1760,10
1761,10
1762,10
1763,10
1764,10
1765,10
1766,10
1767,10
1768,10
1769,10
1770,10
1771,10
1772,10
1773,10
1774,10
1775,10
1776,10
1777,10
1778,10
1779,10
1780,10
1781,10
1782,10
1783,10
1784,10
1785,10
1786,10
1787,10
1788,10
1789,10
1790,10
1791,10
1792,10
1793,10
1794,10
1795,10
1796,10
1797,10
1798,10
1799,10
1800,10
1801,10
1802,10
1803,10
1804,10
1805,10
1806,10
1807,10
1808,10
1809,10
1810,10
1811,10
1812,10
1813,10
1814,10
1815,10
1816,10
1817,10
1818,10
1819,10
1820,10
1821,10
1822,10
1823,10
1824,10
1825,10
1826,10
1827,10
1828,10
1829,10
1830,10
1831,10
1832,10
1833,10
1834,10
1835,10
1836,10
1837,10
1838,10
1839,10
1840,10
1841,10
1842,10
1843,10
1844,10
1845,10
1846,10
1847,10
1848,10
1849,10
1850,10
1851,10
1852,10
1853,10
1854,10
1855,10
1856,10
1857,10
1858,10
1859,10
1860,10
1861,10
1862,10
1863,10
1864,10
1865,10
1866,11
1867,11
1868,10
1869,10
1870,10
1871,10
1872,10
1873,10
1874,10
1875,10
1876,10
1877,10
1878,10
1879,10
1880,10
1881,10
1882,10
1883,10
1884,10
1885,10
1886,10
1887,10
1888,10
1889,10
1890,10
1891,10
1892,10
1893,10
1894,10
1895,10
1896,10
1897,10
1898,10
1899,10
1900,10
1901,10
1902,10
1903,10
1904,10
1905,10
1906,10
1907,10
1908,10
1909,10
1910,10
1911,10
1912,10
1913,10
1914,10
1915,10
1916,10
1917,10
1918,10
1919,10
1920,10
1921,10
1922,10
1923,10
1924,10
1925,10
1926,10
1927,10
1928,10
1929,10
1930,10
1931,10
1932,10
1933,10
1934,10
1935,10
1936,10
1937,10
1938,10
1939,10
1940,10
1941,10
1942,10
1943,10
1944,10
1945,10
1946,10
1947,10
1948,10
1949,10
1950,10
1951,10
1952,10
1953,10
1954,10
1955,10
1956,10
1957,10
1958,10
1959,10
1960,10
1961,10
1962,10
1963,10
1964,10
1965,10
1966,10
1967,10
1968,10
1969,10
1970,10
1971,10
1972,10
1973,10
1974,10
1975,10
1976,10
1977,10
1978,10
1979,10
1980,10
1981,10
1982,10
1983,10
1984,10
1985,10
1986,10
1987,10
1988,10
1989,10
1990,10
1991,10
1992,10
1993,10
1994,10
1995,10
1996,10
1997,10
1998,11
1999,10
2000,10
2001,10
2002,10
2003,10
2004,10
2005,10
2006,10
2007,10
2008,10
2009,10
2010,10
2011,11
2012,10
2013,10
2014,10
2015,10
2016,10
2017,10
2018,10
2019,10
2020,10
2021,11
2022,11
2023,11
2024,11
2025,11
2026,10
2027,10
2028,10
2029,10
2030,10
2031,10
2032,10
2033,10
2034,10
2035,10
2036,10
2037,10
2038,10
2039,10
2040,10
2041,10
2042,10
2043,10
2044,10
2045,10
2046,10
2047,10
2048,10
2049,10
2050,10
2051,10
2052,10
2053,10
2054,10
2055,10
2056,10
2057,10
2058,10
2059,10
2060,10
2061,10
2062,10
2063,10
2064,10
2065,10
2066,10
2067,10
2068,10
2069,10
2070,10
2071,10
2072,10
2073,10
2074,10
2075,10
2076,10
2077,10
2078,10
2079,10
2080,10
2081,11
2082,10
2083,10
2084,10
2085,10
2086,10
2087,10
2088,10
2089,10
2090,10
2091,10
2092,10
2093,10
2094,10
2095,10
2096,10
2097,10
2098,10
2099,10
2100,10
2101,10
2102,10
2103,10
2104,10
2105,10
2106,10
2107,10
2108,10
2109,10
2110,10
2111,10
2112,10
2113,10
2114,10
2115,10
2116,10
2117,10
2118,10
2119,10
2120,10
2121,10
2122,10
2123,10
2124,10
2125,10
2126,10
2127,10
2128,10
2129,10
2130,10
2131,10
2132,10
2133,10
2134,10
2135,10
2136,10
2137,10
2138,10
2139,10
2140,10
2141,10
2142,10
2143,10
2144,10
2145,10
2146,10
2147,10
2148,10
2149,10
2150,10
2151,10
2152,10
2153,10
2154,10
2155,10
2156,10
2157,10
2158,10
2159,10
2160,10
2161,10
2162,10
2163,10
2164,10
2165,10
2166,10
2167,10
2168,10
2169,10
2170,10
2171,10
2172,10
2173,10
2174,10
2175,10
2176,10
2177,10
2178,10
2179,10
2180,10
2181,10
2182,10
2183,10
2184,10
2185,10
2186,10
2187,10
2188,10
2189,10
2190,10
2191,10
2192,10
2193,10
2194,10
2195,10
2196,10
2197,10
2198,10
2199,10
2200,11
2201,11
2202,11
2203,10
2204,10
2205,10
2206,10
2207,10
2208,10
2209,10
2210,10
2211,10
2212,10
2213,10
2214,10
2215,10
2216,10
2217,10
2218,10
2219,10
2220,10
2221,10
2222,10
2223,10
2224,10
2225,10
2226,10
2227,10
2228,10
2229,10
2230,10
2231,10
2232,10
2233,10
2234,10
2235,10
2236,10
2237,10
2238,10
2239,10
2240,10
2241,10
2242,10
2243,10
2244,10
2245,10
2246,10
2247,10
2248,10
2249,10
2250,10
2251,10
2252,10
2253,10
2254,10
2255,10
2256,10
2257,10
2258,10
2259,10
2260,10
2261,10
2262,10
2263,10
2264,10
2265,10
2266,10
2267,10
2268,10
2269,10
2270,10
2271,10
2272,10
2273,10
2274,10
2275,10
2276,10
2277,10
2278,10
2279,10
2280,10
2281,10
2282,10
2283,10
2284,10
2285,10
2286,10
2287,10
2288,10
2289,10
2290,10
2291,10
2292,10
2293,10
2294,10
2295,10
2296,10
2297,10
2298,10
2299,10
2300,10
2301,10
2302,10
2303,10
2304,10
2305,10
2306,10
2307,10
2308,10
2309,10
2310,10
2311,10
2312,10
2313,10
2314,10
2315,10
2316,10
2317,10
2318,10
2319,10
2320,10
2321,10
2322,10
2323,10
2324,10
2325,10
2326,10
2327,10
2328,10
2329,10
2330,10
2331,10
2332,10
2333,10
2334,10
2335,10
2336,10
2337,10
2338,10
2339,10
2340,10
2341,10
2342,10
2343,10
2344,10
2345,10
2346,10
2347,10
2348,10
2349,10
2350,10
2351,10
2352,10
2353,10
2354,10
2355,11
2356,11
2357,11
2358,11
2359,10
2360,10
2361,10
2362,10
2363,10
2364,10
2365,10
2366,10
2367,10
2368,10
2369,10
2370,10
2371,10
2372,10
2373,10
2374,10
2375,10
2376,10
2377,10
2378,10
2379,10
2380,10
2381,10
2382,10
2383,10
2384,10
2385,10
2386,10
2387,10
2388,10
2389,10
2390,10
2391,10
2392,11
2393,11
2394,10
2395,10
2396,10
2397,10
2398,10
2399,10
2400,10
2401,10
2402,10
2403,10
2404,10
2405,10
2406,10
2407,10
2408,10
2409,10
2410,11
2411,10
2412,10
2413,10
2414,10
2415,10
2416,10
2417,10
2418,10
2419,10
2420,10
2421,10
2422,10
2423,10
2424,10
2425,10
2426,10
2427,10
2428,10
2429,10
2430,10
2431,10
2432,10
2433,10
2434,10
2435,10
2436,10
2437,10
2438,10
2439,10
2440,10
2441,10
2442,10
2443,10
2444,10
2445,10
2446,10
2447,10
2448,10
2449,10
2450,10
2451,10
2452,10
2453,10
2454,10
2455,10
2456,10
2457,10
2458,10
2459,10
2460,10
2461,10
2462,10
2463,10
2464,10
2465,10
2466,10
2467,10
2468,10
2469,10
2470,10
2471,10
2472,10
2473,10
2474,10
2475,10
2476,10
2477,10
2478,10
2479,10
2480,10
2481,10
2482,10
2483,10
2484,10
2485,10
2486,10
2487,10
2488,10
2489,10
2490,10
2491,10
2492,10
2493,10
2494,10
2495,10
2496,10
2497,10
2498,10
2499,10
2500,10
2501,10
2502,10
2503,10
2504,10
2505,10
2506,10
2507,10
2508,10
2509,10
2510,10
2511,10
2512,10
2513,10
2514,10
2515,10
2516,10
2517,10
2518,10
2519,10
2520,10
2521,10
2522,10
2523,10
2524,10
2525,10
2526,10
2527,10
2528,10
2529,10
2530,10
2531,10
2532,10
2533,10
2534,10
2535,10
2536,10
2537,10
2538,10
2539,10
2540,10
2541,10
2542,10
2543,10
2544,10
2545,10
2546,10
2547,10
2548,10
2549,10
2550,10
2551,10
2552,10
2553,10
2554,10
2555,10
2556,10
2557,10
2558,10
2559,11
2560,11
2561,11
2562,11
2563,12
2564,12
2565,11
2566,11
2567,11
2568,11
2569,11
2570,11
2571,11
2572,11
2573,10
2574,10
2575,10
2576,10
2577,10
2578,10
2579,10
2580,10
2581,10
2582,10
2583,10
2584,10
2585,10
2586,10
2587,10
2588,10
2589,10
2590,10
2591,10
2592,10
2593,10
2594,10
2595,10
2596,10
2597,10
2598,10
2599,10
2600,10
2601,10
2602,10
2603,10
2604,10
2605,10
2606,10
2607,10
2608,10
2609,10
2610,10
2611,10
2612,10
2613,10
2614,10
2615,10
2616,10
2617,10
2618,10
2619,10
2620,10
2621,10
2622,10
2623,10
2624,10
2625,10
2626,10
2627,10
2628,10
2629,10
2630,10
2631,10
2632,10
2633,10
2634,10
2635,10
2636,10
2637,10
2638,10
2639,10
2640,10
2641,10
2642,10
2643,10
2644,10
2645,10
2646,10
2647,10
2648,10
2649,10
2650,10
2651,10
2652,10
2653,10
2654,10
2655,10
2656,10
2657,10
2658,10
2659,10
2660,10
2661,10
2662,10
2663,10
2664,10
2665,10
2666,10
2667,10
2668,10
2669,10
2670,10
2671,10
2672,10
2673,10
2674,10
2675,10
2676,10
2677,10
2678,11
2679,11
2680,11
2681,11
2682,10
2683,10
2684,10
2685,10
2686,10
2687,10
2688,10
2689,10
2690,10
2691,10
2692,10
2693,10
2694,10
2695,10
2696,10
2697,10
2698,10
2699,10
2700,10
2701,10
2702,10
2703,10
2704,10
2705,10
2706,10
2707,10
2708,10
2709,10
2710,10
2711,10
2712,10
2713,10
2714,10
2715,10
2716,10
2717,10
2718,10
2719,10
2720,10
2721,10
2722,10
2723,10
2724,10
2725,10
2726,10
2727,10
2728,10
2729,10
2730,10
2731,10
2732,10
2733,10
2734,10
2735,10
2736,11
2737,10
2738,10
2739,10
2740,10
2741,10
2742,10
2743,10
2744,10
2745,10
2746,10
2747,10
2748,10
2749,10
2750,10
2751,10
2752,10
2753,10
2754,10
2755,10
2756,10
2757,10
2758,10
2759,10
2760,10
2761,10
2762,10
2763,10
2764,10
2765,10
2766,10
2767,10
2768,10
2769,10
2770,10
2771,10
2772,10
2773,10
2774,10
2775,10
2776,10
2777,10
2778,10
2779,10
2780,10
2781,10
2782,10
2783,10
2784,10
2785,10
2786,10
2787,10
2788,10
2789,10
2790,10
2791,10
2792,10
2793,10
2794,10
2795,10
2796,10
2797,10
2798,10
2799,10
2800,10
2801,10
2802,10
2803,10
2804,10
2805,11
2806,11
2807,11
2808,11
2809,11
2810,10
2811,10
2812,10
2813,10
2814,10
2815,10
2816,10
2817,10
2818,10
2819,10
2820,10
2821,10
2822,10
2823,10
2824,10
2825,10
2826,10
2827,10
2828,10
2829,10
2830,10
2831,10
2832,10
2833,10
2834,10
2835,10
2836,10
2837,10
2838,10
2839,10
2840,10
2841,10
2842,10
2843,10
2844,10
2845,10
2846,10
2847,10
2848,10
2849,10
2850,10
2851,10
2852,10
2853,10
2854,10
2855,10
2856,10
2857,10
2858,10
2859,10
2860,10
2861,10
2862,10
2863,10
2864,10
2865,10
2866,10
2867,10
2868,10
2869,10
2870,10
2871,11
2872,10
2873,10
2874,10
2875,10
2876,10
2877,10
2878,10
2879,10
2880,10
2881,10
2882,10
2883,10
2884,10
2885,10
2886,10
2887,10
2888,10
2889,10
2890,10
2891,10
2892,10
2893,10
2894,10
2895,10
2896,10
2897,10
2898,10
2899,10
2900,10
2901,10
2902,10
2903,10
2904,10
2905,10
2906,10
2907,10
2908,10
2909,10
2910,10
2911,10
2912,10
2913,10
2914,10
2915,10
2916,10
2917,10
2918,10
2919,10
2920,10
2921,10
2922,10
2923,10
2924,10
2925,10
2926,10
2927,10
2928,10
2929,10
2930,10
2931,10
2932,10
2933,10
2934,10
2935,10
2936,10
2937,10
2938,10
2939,10
2940,10
2941,10
2942,10
2943,10
2944,10
2945,10
2946,10
2947,10
2948,10
2949,10
2950,10
2951,10
2952,10
2953,10
2954,10
2955,10
2956,10
2957,10
2958,10
2959,10
2960,10
2961,10
2962,10
2963,10
2964,10
2965,10
2966,10
2967,10
2968,10
2969,10
2970,10
2971,10
2972,10
2973,10
2974,10
2975,10
2976,10
2977,10
2978,10
2979,10
2980,10
2981,10
2982,10
2983,10
2984,10
2985,10
2986,10
2987,10
2988,10
2989,10
2990,10
2991,10
2992,10
2993,10
2994,10
2995,10
2996,10
2997,10
2998,10
2999,10
3000,10
3001,10
3002,10
3003,10
3004,10
3005,10
3006,10
3007,10
3008,10
3009,10
3010,10
3011,10
3012,10
3013,10
3014,10
3015,10
3016,10
3017,10
3018,10
3019,10
3020,10
3021,10
3022,10
3023,10
3024,10
3025,10
3026,10
3027,10
3028,10
3029,10
3030,10
3031,10
3032,10
3033,10
3034,10
3035,10
3036,11
3037,11
3038,10
3039,10
3040,10
3041,10
3042,10
3043,10
3044,10
3045,10
3046,10
3047,10
3048,10
3049,10
3050,10
3051,10
3052,10
3053,10
3054,10
3055,10
3056,10
3057,10
3058,10
3059,10
3060,10
3061,10
3062,10
3063,10
3064,10
3065,10
3066,10
3067,10
3068,10
3069,10
3070,10
3071,10
3072,10
3073,10
3074,10
3075,10
3076,10
3077,10
3078,10
3079,10
3080,10
3081,10
3082,10
3083,10
3084,10
3085,10
3086,10
3087,10
3088,10
3089,10
3090,10
3091,10
3092,10
3093,10
3094,10
3095,10
3096,10
3097,10
3098,10
3099,10
3100,10
3101,10
3102,10
3103,10
3104,10
3105,10
3106,10
3107,10
3108,10
3109,10
3110,10
3111,10
3112,10
3113,10
3114,10
3115,10
3116,11
3117,11
3118,11
3119,11
3120,11
3121,11
3122,11
3123,11
3124,11
3125,11
3126,11
3127,11
3128,11
3129,11
3130,11
3131,11
3132,11
3133,11
3134,11
3135,11
3136,11
3137,11
3138,11
3139,11
3140,11
3141,11
3142,11
3143,11
3144,11
3145,11
3146,11
3147,11
3148,11
3149,11
3150,11
3151,11
3152,11
3153,11
3154,11
3155,11
3156,11
3157,11
3158,11
3159,11
3160,11
3161,11
3162,11
3163,11
3164,11
3165,11
3166,11
3167,11
3168,11
3169,11
3170,11
3171,11
3172,11
3173,11
3174,11
3175,11
3176,11
3177,11
3178,11
3179,11
3180,11
3181,11
3182,11
3183,11
3184,11
3185,11
3186,11
3187,11
3188,11
3189,11
3190,12
3191,11
3192,11
3193,11
3194,11
3195,11
3196,11
3197,11
3198,11
3199,11
3200,11
3201,11
3202,12
3203,11
3204,11
3205,11
3206,11
3207,11
3208,11
3209,11
3210,11
3211,11
3212,11
3213,11
3214,11
3215,11
3216,11
3217,11
3218,11
3219,11
3220,11
3221,11
3222,11
3223,11
3224,11
3225,11
3226,11
3227,11
3228,11
3229,11
3230,11
3231,11
3232,11
3233,11
3234,11
3235,11
3236,11
3237,11
3238,11
3239,11
3240,11
3241,11
3242,11
3243,11
3244,11
3245,11
3246,11
3247,11
3248,11
3249,11
3250,11
3251,11
3252,11
3253,11
3254,11
3255,11
3256,11
3257,11
3258,11
3259,11
3260,11
3261,11
3262,11
3263,11
3264,11
3265,11
3266,11
3267,11
3268,11
3269,11
3270,11
3271,11
3272,11
3273,11
3274,11
3275,11
3276,11
3277,11
3278,11
3279,11
3280,11
3281,11
3282,12
3283,12
3284,12
3285,12
3286,11
3287,11
3288,11
3289,11
3290,11
3291,11
3292,11
3293,11
3294,11
3295,11
3296,11
3297,11
3298,11
3299,11
3300,11
3301,11
3302,11
3303,11
3304,11
3305,11
3306,11
3307,11
3308,11
3309,11
3310,11
3311,11
3312,11
3313,11
3314,11
3315,11
3316,11
3317,11
3318,11
3319,11
3320,11
3321,11
3322,11
3323,11
3324,11
3325,11
3326,11
3327,11
3328,11
3329,11
3330,11
3331,11
3332,11
3333,11
3334,11
3335,11
3336,11
3337,11
3338,11
3339,11
3340,11
3341,11
3342,11
3343,11
3344,11
3345,11
3346,11
3347,11
3348,11
3349,11
3350,11
3351,11
3352,11
3353,11
3354,11
3355,11
3356,11
3357,11
3358,11
3359,11
3360,11
3361,11
3362,11
3363,11
3364,11
3365,11
3366,11
3367,11
3368,11
3369,11
3370,11
3371,11
3372,11
3373,11
3374,11
3375,11
3376,11
3377,11
3378,11
3379,11
3380,11
3381,11
3382,11
3383,11
3384,11
3385,11
3386,11
3387,11
3388,11
3389,11
3390,11
3391,11
3392,11
3393,11
3394,11
3395,11
3396,11
3397,11
3398,11
3399,11
3400,11
3401,11
3402,11
3403,11
3404,11
3405,11
3406,11
3407,11
3408,11
3409,11
3410,11
3411,11
3412,11
3413,11
3414,11
3415,11
3416,11
3417,11
3418,11
3419,11
3420,11
3421,11
3422,11
3423,11
3424,11
3425,11
3426,11
3427,11
3428,11
3429,11
3430,11
3431,11
3432,11
3433,11
3434,11
3435,11
3436,11
3437,11
3438,11
3439,11
3440,11
3441,11
3442,11
3443,11
3444,11
3445,11
3446,11
3447,11
3448,11
3449,11
3450,11
3451,12
3452,11
3453,11
3454,11
3455,11
3456,11
3457,11
3458,11
3459,11
3460,11
3461,11
3462,11
3463,11
3464,11
3465,11
3466,11
3467,11
3468,11
3469,11
3470,11
3471,11
3472,11
3473,11
3474,11
3475,11
3476,11
3477,11
3478,11
3479,11
3480,11
3481,11
3482,11
3483,11
3484,11
3485,11
3486,11
3487,11
3488,11
3489,11
3490,11
3491,11
3492,11
3493,11
3494,11
3495,11
3496,12
3497,11
3498,11
3499,11
3500,11
3501,12
3502,11
3503,11
3504,11
3505,11
3506,11
3507,11
3508,11
3509,11
3510,12
3511,11
3512,11
3513,11
3514,11
3515,11
3516,11
3517,11
3518,11
3519,11
3520,11
3521,11
3522,11
3523,11
3524,11
3525,11
3526,11
3527,11
3528,11
3529,11
3530,11
3531,11
3532,11
3533,11
3534,11
3535,11
3536,11
3537,11
3538,11
3539,11
3540,11
3541,11
3542,11
3543,11
3544,11
3545,11
3546,11
3547,11
3548,11
3549,11
3550,11
3551,11
3552,11
3553,11
3554,11
3555,11
3556,11
3557,11
3558,11
3559,11
3560,11
3561,11
3562,11
3563,11
3564,11
3565,11
3566,11
3567,11
3568,11
3569,11
3570,11
3571,11
3572,11
3573,11
3574,11
3575,11
3576,11
3577,11
3578,11
3579,11
3580,11
3581,11
3582,11
3583,11
3584,11
3585,11
3586,11
3587,11
3588,11
3589,11
3590,11
3591,11
3592,11
3593,11
3594,11
3595,11
3596,11
3597,11
3598,11
3599,11
3600,11
3601,11
3602,12
3603,12
3604,12
3605,12
3606,12
3607,11
3608,11
3609,11
3610,11
3611,11
3612,11
3613,11
3614,11
3615,11
3616,11
3617,11
3618,11
3619,11
3620,11
3621,11
3622,11
3623,11
3624,11
3625,11
3626,11
3627,11
3628,11
3629,11
3630,11
3631,11
3632,11
3633,11
3634,11
3635,11
3636,11
3637,11
3638,11
3639,11
3640,11
3641,11
3642,11
3643,11
3644,11
3645,11
3646,11
3647,11
3648,11
3649,11
3650,11
3651,11
3652,11
3653,11
3654,11
3655,11
3656,11
3657,11
3658,11
3659,11
3660,11
3661,11
3662,11
3663,11
3664,11
3665,11
3666,11
3667,11
3668,11
3669,11
3670,11
3671,11
3672,11
3673,11
3674,11
3675,11
3676,11
3677,11
3678,11
3679,11
3680,11
3681,11
3682,11
3683,11
3684,11
3685,11
3686,11
3687,11
3688,11
3689,11
3690,11
3691,11
3692,11
3693,11
3694,11
3695,11
3696,11
3697,11
3698,11
3699,11
3700,11
3701,11
3702,11
3703,11
3704,11
3705,11
3706,11
3707,11
3708,11
3709,11
3710,11
3711,11
3712,11
3713,11
3714,11
3715,11
3716,11
3717,11
3718,11
3719,11
3720,11
3721,11
3722,11
3723,11
3724,11
3725,11
3726,11
3727,11
3728,11
3729,11
3730,11
3731,11
3732,11
3733,11
3734,11
3735,11
3736,11
3737,11
3738,11
3739,11
3740,11
3741,11
3742,11
3743,11
3744,11
3745,11
3746,11
3747,11
3748,11
3749,11
3750,11
3751,11
3752,11
3753,11
3754,11
3755,11
3756,11
3757,11
3758,11
3759,11
3760,11
3761,11
3762,11
3763,11
3764,11
3765,11
3766,11
3767,11
3768,11
3769,11
3770,11
3771,11
3772,11
3773,11
3774,11
3775,11
3776,11
3777,11
3778,11
3779,11
3780,11
3781,11
3782,11
3783,11
3784,11
3785,11
3786,11
3787,11
3788,11
3789,11
3790,12
3791,12
3792,12
3793,12
3794,12
3795,12
3796,12
3797,12
3798,12
3799,12
3800,12
3801,12
3802,12
3803,12
3804,12
3805,12
3806,12
3807,12
3808,11
3809,11
3810,11
3811,11
3812,11
3813,11
3814,11
3815,11
3816,11
3817,11
3818,11
3819,11
3820,11
3821,11
3822,11
3823,11
3824,11
3825,11
3826,12
3827,12
3828,11
3829,11
3830,11
3831,11
3832,11
3833,11
3834,11
3835,11
3836,11
3837,11
3838,11
3839,11
3840,11
3841,11
3842,11
3843,11
3844,11
3845,11
3846,11
3847,11
3848,11
3849,11
3850,11
3851,11
3852,11
3853,11
3854,11
3855,11
3856,11
3857,11
3858,11
3859,11
3860,11
3861,11
3862,11
3863,11
3864,11
3865,11
3866,11
3867,11
3868,11
3869,11
3870,11
3871,11
3872,11
3873,11
3874,11
3875,11
3876,11
3877,11
3878,11
3879,11
3880,11
3881,11
3882,11
3883,11
3884,11
3885,11
3886,11
3887,11
3888,11
3889,11
3890,11
3891,11
3892,11
3893,11
3894,11
3895,11
3896,11
3897,11
3898,11
3899,11
3900,11
3901,11
3902,11
3903,11
3904,11
3905,11
3906,11
3907,11
3908,11
3909,11
3910,11
3911,11
3912,11
3913,11
3914,11
3915,11
3916,11
3917,11
3918,11
3919,11
3920,11
3921,11
3922,11
3923,11
3924,11
3925,11
3926,11
3927,11
3928,11
3929,11
3930,11
3931,11
3932,11
3933,11
3934,11
3935,11
3936,11
3937,11
3938,11
3939,11
3940,11
3941,11
3942,11
3943,11
3944,11
3945,11
3946,11
3947,11
3948,11
3949,11
3950,11
3951,11
3952,11
3953,11
3954,11
3955,11
3956,11
3957,11
3958,11
3959,11
3960,11
3961,11
3962,11
3963,11
3964,11
3965,11
3966,11
3967,11
3968,11
3969,11
3970,11
3971,11
3972,11
3973,11
3974,11
3975,11
3976,11
3977,11
3978,11
3979,11
3980,11
3981,11
3982,11
3983,11
3984,11
3985,11
3986,11
3987,11
3988,11
3989,11
3990,11
3991,11
3992,11
3993,11
3994,11
3995,11
3996,11
3997,11
3998,11
3999,11
4000,11
4001,11
4002,11
4003,11
4004,11
4005,11
4006,11
4007,11
4008,11
4009,11
4010,11
4011,11
4012,11
4013,11
4014,11
4015,11
4016,11
4017,11
4018,11
4019,11
4020,11
4021,11
4022,11
4023,11
4024,11
4025,11
4026,11
4027,11
4028,11
4029,11
4030,11
4031,11
4032,11
4033,11
4034,11
4035,11
4036,11
4037,11
4038,11
4039,11
4040,11
4041,11
4042,11
4043,11
4044,11
4045,11
4046,11
4047,11
4048,11
4049,11
4050,11
4051,11
4052,11
4053,11
4054,11
4055,11
4056,11
4057,11
4058,12
4059,12
4060,12
4061,11
4062,11
4063,11
4064,11
4065,11
4066,11
4067,11
4068,11
4069,11
4070,11
4071,11
4072,11
4073,11
4074,11
4075,11
4076,11
4077,11
4078,11
4079,11
4080,11
4081,11
4082,11
4083,11
4084,11
4085,11
4086,11
4087,11
4088,11
4089,11
4090,11
4091,11
4092,11
4093,11
4094,11
4095,11
4096,11
4097,11
4098,11
4099,11
4100,11
4101,11
4102,11
4103,11
4104,11
4105,11
4106,11
4107,11
4108,11
4109,11
4110,11
4111,11
4112,11
4113,11
4114,11
4115,11
4116,11
4117,11
4118,11
4119,11
4120,11
4121,11
4122,11
4123,11
4124,11
4125,11
4126,11
4127,11
4128,11
4129,11
4130,11
4131,11
4132,11
4133,11
4134,11
4135,11
4136,11
4137,11
4138,11
4139,11
4140,11
4141,11
4142,11
4143,11
4144,11
4145,11
4146,11
4147,11
4148,11
4149,11
4150,11
4151,11
4152,11
4153,11
4154,11
4155,11
4156,11
4157,11
4158,11
4159,11
4160,11
4161,11
4162,11
4163,11
4164,11
4165,11
4166,11
4167,11
4168,11
4169,11
4170,11
4171,11
4172,11
4173,11
4174,11
4175,11
4176,11
4177,11
4178,11
4179,11
4180,11
4181,11
4182,11
4183,11
4184,11
4185,11
4186,11
4187,11
4188,11
4189,11
4190,11
4191,11
4192,11
4193,11
4194,11
4195,11
4196,11
4197,11
4198,11
4199,11
4200,11
4201,11
4202,11
4203,11
4204,11
4205,11
4206,11
4207,11
4208,11
4209,11
4210,11
4211,11
4212,11
4213,11
4214,11
4215,11
4216,11
4217,11
4218,11
4219,11
4220,11
4221,11
4222,11
4223,12
4224,11
4225,11
4226,11
4227,11
4228,11
4229,11
4230,11
4231,11
4232,11
4233,11
4234,11
4235,11
4236,11
4237,11
4238,11
4239,11
4240,11
4241,11
4242,11
4243,11
4244,11
4245,11
4246,11
4247,11
4248,11
4249,11
4250,11
4251,11
4252,11
4253,11
4254,11
4255,11
4256,11
4257,11
4258,11
4259,11
4260,11
4261,11
4262,11
4263,11
4264,11
4265,11
4266,11
4267,11
4268,11
4269,11
4270,11
4271,11
4272,11
4273,11
4274,11
4275,11
4276,11
4277,11
4278,11
4279,11
4280,11
4281,11
4282,11
4283,11
4284,11
4285,11
4286,11
4287,11
4288,11
4289,11
4290,11
4291,11
4292,11
4293,11
4294,11
4295,12
4296,11
4297,11
4298,11
4299,11
4300,11
4301,11
4302,11
4303,11
4304,11
4305,11
4306,11
4307,11
4308,11
4309,11
4310,11
4311,11
4312,11
4313,11
4314,11
4315,11
4316,11
4317,12
4318,13
4319,13
4320,13
4321,12
4322,12
4323,12
4324,12
4325,12
4326,12
4327,12
4328,12
4329,12
4330,12
4331,12
4332,12
4333,12
4334,12
4335,12
4336,12
4337,12
4338,12
4339,12
4340,13
4341,13
4342,13
4343,13
4344,13
4345,13
4346,13
4347,13
4348,13
4349,13
4350,13
4351,13
4352,13
4353,13
4354,13
4355,13
4356,13
4357,13
4358,13
4359,13
4360,13
4361,13
4362,13
4363,13
4364,13
4365,13
4366,13
4367,13
4368,13
4369,13
4370,13
4371,13
4372,13
4373,13
4374,13
4375,13
4376,13
4377,14
4378,15
4379,13
4380,13
4381,13
4382,13
4383,13
4384,13
4385,13
4386,13
4387,13
4388,13
4389,13
4390,13
4391,13
4392,13
4393,13
4394,13
4395,13
4396,13
4397,13
4398,13
4399,13
4400,13
4401,13
4402,13
4403,13
4404,13
4405,13
4406,13
4407,13
4408,13
4409,13
4410,13
4411,13
4412,13
4413,13
4414,13
4415,13
4416,13
4417,13
4418,13
4419,13
4420,13
4421,13
4422,13
4423,13
4424,13
4425,13
4426,13
4427,13
4428,13
4429,13
4430,13
4431,13
4432,13
4433,13
4434,13
4435,13
4436,13
4437,13
4438,13
4439,13
4440,13
4441,13
4442,13
4443,13
4444,13
4445,13
4446,13
4447,13
4448,13
4449,13
4450,13
4451,13
4452,13
4453,13
4454,13
4455,13
4456,13
4457,13
4458,13
4459,13
4460,13
4461,13
4462,13
4463,13
4464,13
4465,13
4466,13
4467,13
4468,13
4469,13
4470,13
4471,13
4472,13
4473,13
4474,13
4475,13
4476,13
4477,13
4478,13
4479,13
4480,13
4481,13
4482,13
4483,13
4484,13
4485,13
4486,13
4487,13
4488,13
4489,13
4490,13
4491,13
4492,13
4493,13
4494,13
4495,13
4496,13
4497,13
4498,13
4499,13
4500,13
4501,13
4502,13
4503,13
4504,14
4505,15
4506,14
4507,14
4508,14
4509,14
4510,14
4511,14
4512,14
4513,14
4514,14
4515,14
4516,14
4517,14
4518,14
4519,14
4520,14
4521,14
4522,14
4523,14
4524,14
4525,14
4526,14
4527,14
4528,14
4529,14
4530,14
4531,14
4532,14
4533,14
4534,14
4535,14
4536,14
4537,14
4538,14
4539,14
4540,14
4541,14
4542,14
4543,14
4544,14
4545,14
4546,14
4547,13
4548,13
4549,13
4550,13
4551,13
4552,13
4553,13
4554,13
4555,13
4556,13
4557,13
4558,13
4559,13
4560,13
4561,13
4562,13
4563,13
4564,13
4565,13
4566,13
4567,13
4568,13
4569,13
4570,13
4571,13
4572,13
4573,13
4574,13
4575,13
4576,13
4577,13
4578,13
4579,13
4580,13
4581,13
4582,13
4583,13
4584,13
4585,13
4586,13
4587,13
4588,13
4589,13
4590,13
4591,13
4592,13
4593,13
4594,14
4595,15
4596,15
4597,14
4598,14
4599,14
4600,14
4601,14
4602,14
4603,14
4604,14
4605,14
4606,14
4607,14
4608,14
4609,14
4610,14
4611,14
4612,14
4613,14
4614,14
4615,14
4616,14
4617,14
4618,14
4619,14
4620,14
4621,14
4622,14
4623,14
4624,14
4625,14
4626,14
4627,14
4628,14
4629,14
4630,14
4631,14
4632,14
4633,14
4634,14
4635,14
4636,14
4637,14
4638,14
4639,14
4640,14
4641,14
4642,14
4643,14
4644,14
4645,14
4646,14
4647,14
4648,14
4649,14
4650,14
4651,14
4652,14
4653,14
4654,14
4655,14
4656,14
4657,14
4658,14
4659,14
4660,14
4661,14
4662,14
4663,14
4664,14
4665,14
4666,14
4667,14
4668,14
4669,14
4670,14
4671,14
4672,14
4673,14
4674,14
4675,14
4676,14
4677,14
4678,14
4679,14
4680,14
4681,14
4682,14
4683,14
4684,14
4685,14
4686,14
4687,14
4688,15
4689,14
4690,14
4691,14
4692,14
4693,14
4694,14
4695,14
4696,14
4697,14
4698,14
4699,14
4700,14
4701,15
4702,15
4703,15
4704,15
4705,15
4706,15
4707,15
4708,15
4709,15
4710,15
4711,15
4712,15
4713,15
4714,15
4715,15
4716,15
4717,15
4718,15
4719,15
4720,14
4721,14
4722,14
4723,14
4724,14
4725,14
4726,14
4727,14
4728,14
4729,14
4730,14
4731,14
4732,14
4733,14
4734,14
4735,14
4736,14
4737,14
4738,14
4739,14
4740,14
4741,14
4742,14
4743,14
4744,14
4745,14
4746,14
4747,14
4748,14
4749,14
4750,14
4751,14
4752,14
4753,14
4754,14
4755,14
4756,14
4757,14
4758,14
4759,14
4760,14
4761,14
4762,14
4763,14
4764,14
4765,14
4766,14
4767,14
4768,14
4769,14
4770,14
4771,14
4772,14
4773,14
4774,14
4775,14
4776,14
4777,14
4778,14
4779,14
4780,14
4781,14
4782,14
4783,14
4784,14
4785,14
4786,14
4787,14
4788,14
4789,14
4790,14
4791,14
4792,14
4793,14
4794,14
4795,15
4796,14
4797,14
4798,14
4799,14
4800,14
4801,14
4802,14
4803,14
4804,14
4805,14
4806,14
4807,14
4808,14
4809,14
4810,14
4811,14
4812,14
4813,14
4814,14
4815,14
4816,14
4817,14
4818,14
4819,14
4820,14
4821,14
4822,14
4823,14
4824,14
4825,14
4826,14
4827,14
4828,14
4829,14
4830,14
4831,14
4832,14
4833,14
4834,14
4835,14
4836,14
4837,14
4838,14
4839,15
4840,15
4841,15
4842,15
4843,14
4844,14
4845,14
4846,14
4847,14
4848,14
4849,14
4850,14
4851,14
4852,14
4853,14
4854,14
4855,14
4856,14
4857,14
4858,14
4859,14
4860,14
4861,14
4862,14
4863,14
4864,14
4865,14
4866,14
4867,14
4868,14
4869,14
4870,14
4871,14
4872,14
4873,14
4874,14
4875,14
4876,14
4877,14
4878,14
4879,14
4880,14
4881,14
4882,14
4883,14
4884,14
4885,14
4886,14
4887,14
4888,14
4889,14
4890,14
4891,14
4892,14
4893,14
4894,14
4895,14
4896,14
4897,14
4898,14
4899,14
4900,14
4901,14
4902,14
4903,14
4904,14
4905,14
4906,14
4907,14
4908,14
4909,14
4910,14
4911,14
4912,14
4913,14
4914,14
4915,14
4916,14
4917,14
4918,14
4919,14
4920,14
4921,14
4922,14
4923,14
4924,14
4925,14
4926,14
4927,14
4928,14
4929,14
4930,14
4931,14
4932,14
4933,14
4934,14
4935,14
4936,14
4937,14
4938,14
4939,14
4940,14
4941,14
4942,14
4943,14
4944,14
4945,14
4946,14
4947,14
4948,14
4949,14
4950,14
4951,14
4952,14
4953,14
4954,14
4955,14
4956,14
4957,14
4958,14
4959,14
4960,14
4961,14
4962,14
4963,14
4964,14
4965,14
4966,14
4967,14
4968,14
4969,14
4970,14
4971,14
4972,14
4973,14
4974,14
4975,14
4976,14
4977,14
4978,14
4979,14
4980,14
4981,14
4982,14
4983,14
4984,14
4985,14
4986,14
4987,14
4988,14
4989,14
4990,14
4991,14
4992,14
4993,14
4994,14
4995,14
4996,14
4997,14
4998,14
4999,14
5000,14
5001,14
5002,14
5003,14
5004,14
5005,14
5006,14
5007,14
5008,14
5009,14
5010,14
5011,14
5012,14
5013,14
5014,14
5015,14
5016,14
5017,14
5018,14
5019,14
5020,14
5021,14
5022,14
5023,14
5024,14
5025,14
5026,14
5027,14
5028,14
5029,14
5030,14
5031,14
5032,14
5033,14
5034,14
5035,14
5036,14
5037,14
5038,14
5039,14
5040,14
5041,14
5042,14
5043,14
5044,14
5045,14
5046,14
5047,14
5048,14
5049,14
5050,14
5051,14
5052,14
5053,14
5054,14
5055,14
5056,15
5057,15
5058,15
5059,15
5060,15
5061,15
5062,14
5063,14
5064,14
5065,14
5066,14
5067,14
5068,14
5069,14
5070,14
5071,14
5072,14
5073,14
5074,14
5075,14
5076,14
5077,14
5078,14
5079,14
5080,14
5081,14
5082,14
5083,14
5084,14
5085,14
5086,14
5087,14
5088,14
5089,14
5090,15
5091,15
5092,14
5093,14
5094,14
5095,14
5096,14
5097,14
5098,14
5099,14
5100,14
5101,14
5102,14
5103,14
5104,14
5105,14
5106,14
5107,14
5108,14
5109,14
5110,14
5111,14
5112,14
5113,14
5114,14
5115,14
5116,14
5117,14
5118,14
5119,14
5120,14
5121,14
5122,14
5123,14
5124,14
5125,14
5126,14
5127,14
5128,14
5129,14
5130,14
5131,14
5132,14
5133,14
5134,14
5135,14
5136,14
5137,14
5138,14
5139,14
5140,14
5141,14
5142,14
5143,14
5144,14
5145,14
5146,14
5147,14
5148,14
5149,14
5150,14
5151,14
5152,14
5153,14
5154,14
5155,14
5156,14
5157,14
5158,14
5159,14
5160,14
5161,14
5162,14
5163,14
5164,14
5165,14
5166,14
5167,14
5168,14
5169,14
5170,14
5171,14
5172,14
5173,14
5174,14
5175,14
5176,14
5177,14
5178,14
5179,14
5180,14
5181,14
5182,14
5183,14
5184,14
5185,14
5186,14
5187,15
5188,14
5189,14
5190,14
5191,14
5192,14
5193,14
5194,14
5195,14
5196,14
5197,14
5198,14
5199,14
5200,14
5201,14
5202,14
5203,14
5204,14
5205,14
5206,14
5207,14
5208,14
5209,14
5210,14
5211,14
5212,14
5213,14
5214,14
5215,14
5216,14
5217,14
5218,14
5219,14
5220,14
5221,14
5222,14
5223,14
5224,14
5225,14
5226,14
5227,14
5228,14
5229,14
5230,14
5231,14
5232,14
5233,14
5234,14
5235,14
5236,14
5237,14
5238,14
5239,14
5240,14
5241,14
5242,14
5243,14
5244,14
5245,14
5246,14
5247,14
5248,14
5249,14
5250,14
5251,14
5252,14
5253,14
5254,14
5255,14
5256,14
5257,14
5258,14
5259,14
5260,14
5261,14
5262,14
5263,14
5264,14
5265,14
5266,14
5267,14
5268,14
5269,14
5270,14
5271,14
5272,14
5273,14
5274,14
5275,14
5276,14
5277,14
5278,14
5279,14
5280,14
5281,14
5282,14
5283,14
5284,14
5285,14
5286,14
5287,14
5288,14
5289,14
5290,14
5291,14
5292,14
5293,14
5294,14
5295,14
5296,14
5297,14
5298,14
5299,14
5300,14
5301,14
5302,14
5303,14
5304,14
5305,14
5306,14
5307,14
5308,14
5309,14
5310,14
5311,14
5312,14
5313,14
5314,14
5315,14
5316,14
5317,14
5318,14
5319,14
5320,14
5321,14
5322,14
5323,14
5324,14
5325,14
5326,14
5327,14
5328,14
5329,14
5330,14
5331,14
5332,14
5333,14
5334,14
5335,14
5336,14
5337,14
5338,14
5339,14
5340,14
5341,14
5342,14
5343,14
5344,14
5345,14
5346,14
5347,14
5348,14
5349,14
5350,14
5351,14
5352,14
5353,14
5354,14
5355,14
5356,14
5357,14
5358,14
5359,14
5360,14
5361,14
5362,14
5363,14
5364,14
5365,14
5366,14
5367,14
5368,14
5369,14
5370,14
5371,14
5372,14
5373,14
5374,14
5375,14
5376,14
5377,14
5378,14
5379,14
5380,14
5381,14
5382,14
5383,14
5384,14
5385,14
5386,14
5387,15
5388,15
5389,14
5390,14
5391,14
5392,14
5393,14
5394,14
5395,14
5396,14
5397,14
5398,14
5399,14
5400,14
5401,14
5402,14
5403,14
5404,14
5405,14
5406,14
5407,14
5408,14
5409,14
5410,14
5411,14
5412,14
5413,14
5414,14
5415,14
5416,14
5417,14
5418,14
5419,14
5420,14
5421,14
5422,14
5423,14
5424,14
5425,14
5426,14
5427,14
5428,14
5429,14
5430,14
5431,14
5432,14
5433,14
5434,14
5435,14
5436,14
5437,14
5438,14
5439,14
5440,14
5441,14
5442,14
5443,14
5444,14
5445,14
5446,14
5447,14
5448,14
5449,14
5450,14
5451,14
5452,14
5453,14
5454,14
5455,14
5456,14
5457,14
5458,14
5459,14
5460,14
5461,14
5462,14
5463,14
5464,14
5465,14
5466,14
5467,14
5468,14
5469,14
5470,14
5471,14
5472,14
5473,14
5474,14
5475,14
5476,14
5477,14
5478,14
5479,14
5480,14
5481,14
5482,14
5483,14
5484,14
5485,14
5486,14
5487,14
5488,14
5489,14
5490,14
5491,14
5492,14
5493,14
5494,14
5495,14
5496,14
5497,14
5498,14
5499,15
5500,14
5501,14
5502,14
5503,14
5504,14
5505,14
5506,14
5507,14
5508,14
5509,14
5510,14
5511,14
5512,14
5513,14
5514,14
5515,14
5516,14
5517,14
5518,14
5519,14
5520,14
5521,14
5522,14
5523,14
5524,14
5525,14
5526,14
5527,14
5528,14
5529,14
5530,14
5531,14
5532,14
5533,14
5534,14
5535,14
5536,14
5537,14
5538,14
5539,14
5540,14
5541,14
5542,14
5543,14
5544,14
5545,14
5546,14
5547,14
5548,14
5549,14
5550,14
5551,14
5552,14
5553,14
5554,14
5555,14
5556,14
5557,14
5558,14
5559,14
5560,14
5561,14
5562,14
5563,14
5564,14
5565,14
5566,14
5567,14
5568,14
5569,14
5570,14
5571,14
5572,14
5573,14
5574,14
5575,14
5576,14
5577,14
5578,14
5579,14
5580,14
5581,14
5582,14
5583,14
5584,14
5585,14
5586,14
5587,14
5588,14
5589,14
5590,14
5591,14
5592,14
5593,14
5594,14
5595,14
5596,14
5597,14
5598,14
5599,14
5600,14
5601,14
5602,14
5603,14
5604,14
5605,14
5606,14
5607,14
5608,14
5609,14
5610,14
5611,14
5612,14
5613,14
5614,14
5615,14
5616,14
5617,14
5618,14
5619,14
5620,14
5621,14
5622,14
5623,14
5624,14
5625,14
5626,14
5627,14
5628,14
5629,14
5630,14
5631,14
5632,14
5633,14
5634,14
5635,14
5636,14
5637,14
5638,14
5639,14
5640,14
5641,14
5642,14
5643,14
5644,14
5645,14
5646,14
5647,14
5648,14
5649,14
5650,14
5651,14
5652,14
5653,14
5654,14
5655,14
5656,14
5657,14
5658,14
5659,14
5660,14
5661,14
5662,14
5663,14
5664,14
5665,14
5666,14
5667,14
5668,14
5669,14
5670,14
5671,14
5672,14
5673,14
5674,14
5675,14
5676,14
5677,14
5678,14
5679,14
5680,14
5681,14
5682,14
5683,14
5684,14
5685,14
5686,14
5687,14
5688,14
5689,14
5690,14
5691,14
5692,14
5693,14
5694,14
5695,14
5696,14
5697,14
5698,14
5699,14
5700,14
5701,14
5702,14
5703,14
5704,14
5705,14
5706,14
5707,14
5708,14
5709,14
5710,14
5711,14
5712,15
5713,15
5714,14
5715,14
5716,14
5717,14
5718,14
5719,14
5720,14
5721,14
5722,14
5723,14
5724,14
5725,14
5726,14
5727,14
5728,14
5729,14
5730,14
5731,14
5732,14
5733,14
5734,14
5735,14
5736,14
5737,14
5738,14
5739,14
5740,14
5741,14
5742,14
5743,14
5744,14
5745,14
5746,14
5747,14
5748,14
5749,14
5750,14
5751,14
5752,14
5753,14
5754,15
5755,14
5756,14
5757,14
5758,14
5759,14
5760,14
5761,14
5762,14
5763,14
5764,14
5765,14
5766,14
5767,14
5768,14
5769,14
5770,14
5771,15
5772,15
5773,15
5774,15
5775,15
5776,15
5777,15
5778,15
5779,15
5780,15
5781,15
5782,15
5783,15
5784,15
5785,15
5786,15
5787,15
5788,15
5789,15
5790,15
5791,15
5792,15
5793,15
5794,15
5795,15
5796,15
5797,15
5798,15
5799,15
5800,15
5801,15
5802,15
5803,15
5804,15
5805,15
5806,15
5807,15
5808,15
5809,15
5810,15
5811,15
5812,15
5813,15
5814,15
5815,15
5816,15
5817,15
5818,15
5819,16
5820,17
5821,16
5822,16
5823,16
5824,16
5825,16
5826,16
5827,16
5828,16
5829,16
5830,16
5831,16
5832,16
5833,16
5834,16
5835,16
5836,16
5837,16
5838,16
5839,16
5840,16
5841,16
5842,16
5843,16
5844,16
5845,16
5846,16
5847,16
5848,16
5849,16
5850,16
5851,16
5852,16
5853,16
5854,16
5855,16
5856,16
5857,16
5858,16
5859,16
5860,16
5861,16
5862,16
5863,16
5864,16
5865,16
5866,16
5867,16
5868,16
5869,16
5870,16
5871,16
5872,16
5873,16
5874,16
5875,16
5876,16
5877,16
5878,16
5879,16
5880,16
5881,16
5882,16
5883,16
5884,16
5885,16
5886,16
5887,16
5888,16
5889,16
5890,16
5891,16
5892,16
5893,16
5894,16
5895,16
5896,16
5897,16
5898,16
5899,16
5900,16
5901,16
5902,16
5903,16
5904,16
5905,16
5906,16
5907,16
5908,16
5909,16
5910,16
5911,16
5912,16
5913,16
5914,16
5915,16
5916,16
5917,16
5918,16
5919,16
5920,16
5921,16
5922,16
5923,16
5924,16
5925,16
5926,16
5927,16
5928,16
5929,16
5930,16
5931,16
5932,16
5933,16
5934,16
5935,16
5936,16
5937,16
5938,16
5939,16
5940,16
5941,16
5942,16
5943,16
5944,16
5945,16
5946,16
5947,16
5948,16
5949,16
5950,16
5951,16
5952,16
5953,16
5954,16
5955,16
5956,16
5957,16
5958,16
5959,16
5960,16
5961,16
5962,16
5963,16
5964,16
5965,16
5966,16
5967,16
5968,16
5969,16
5970,16
5971,16
5972,16
5973,16
5974,16
5975,16
5976,16
5977,16
5978,16
5979,16
5980,16
5981,16
5982,16
5983,16
5984,16
5985,16
5986,16
5987,16
5988,16
5989,16
5990,16
5991,16
5992,16
5993,16
5994,16
5995,16
5996,16
5997,16
5998,16
5999,16
6000,16
6001,16
6002,16
6003,16
6004,16
6005,16
6006,16
6007,16
6008,16
6009,16
6010,16
6011,16
6012,16
6013,16
6014,16
6015,16
6016,16
6017,16
6018,16
6019,16
6020,16
6021,16
6022,16
6023,16
6024,16
6025,16
6026,16
6027,16
6028,16
6029,16
6030,16
6031,16
6032,16
6033,16
6034,16
6035,17
6036,17
6037,17
6038,16
6039,16
6040,16
6041,16
6042,16
6043,16
6044,16
6045,16
6046,16
6047,16
6048,16
6049,16
6050,16
6051,16
6052,16
6053,16
6054,16
6055,16
6056,16
6057,16
6058,16
6059,16
6060,16
6061,16
6062,16
6063,16
6064,16
6065,16
6066,16
6067,16
6068,16
6069,16
6070,16
6071,16
6072,16
6073,16
6074,16
6075,16
6076,16
6077,16
6078,16
6079,16
6080,16
6081,16
6082,16
6083,16
6084,16
6085,16
6086,16
6087,16
6088,16
6089,16
6090,16
6091,16
6092,16
6093,16
6094,16
6095,16
6096,16
6097,16
6098,16
6099,16
6100,16
6101,16
6102,16
6103,16
6104,16
6105,16
6106,16
6107,16
6108,16
6109,16
6110,16
6111,16
6112,16
6113,16
6114,16
6115,16
6116,16
6117,16
6118,16
6119,16
6120,16
6121,16
6122,16
6123,16
6124,16
6125,16
6126,16
6127,16
6128,16
6129,16
6130,16
6131,16
6132,16
6133,16
6134,16
6135,16
6136,16
6137,16
6138,16
6139,16
6140,16
6141,16
6142,16
6143,16
6144,16
6145,16
6146,16
6147,16
6148,16
6149,16
6150,16
6151,16
6152,16
6153,16
6154,16
6155,16
6156,16
6157,16
6158,16
6159,16
6160,16
6161,16
6162,16
6163,16
6164,16
6165,16
6166,16
6167,16
6168,16
6169,16
6170,16
6171,16
6172,16
6173,16
6174,16
6175,16
6176,16
6177,16
6178,16
6179,16
6180,16
6181,16
6182,16
6183,16
6184,16
6185,17
6186,17
6187,17
6188,17
6189,17
6190,17
6191,16
6192,16
6193,16
6194,16
6195,16
6196,16
6197,16
6198,16
6199,16
6200,16
6201,16
6202,16
6203,16
6204,16
6205,16
6206,16
6207,16
6208,16
6209,16
6210,16
6211,16
6212,16
6213,16
6214,16
6215,16
6216,16
6217,16
6218,16
6219,16
6220,16
6221,16
6222,16
6223,16
6224,16
6225,16
6226,16
6227,16
6228,16
6229,16
6230,16
6231,16
6232,16
6233,16
6234,16
6235,16
6236,16
6237,16
6238,16
6239,16
6240,16
6241,16
6242,16
6243,16
6244,16
6245,16
6246,16
6247,16
6248,16
6249,16
6250,16
6251,16
6252,16
6253,16
6254,16
6255,16
6256,16
6257,16
6258,16
6259,16
6260,16
6261,16
6262,16
6263,16
6264,16
6265,16
6266,16
6267,16
6268,16
6269,16
6270,16
6271,16
6272,16
6273,16
6274,16
6275,16
6276,16
6277,16
6278,16
6279,16
6280,16
6281,16
6282,16
6283,16
6284,16
6285,16
6286,16
6287,16
6288,16
6289,16
6290,16
6291,16
6292,16
6293,16
6294,16
6295,17
6296,16
6297,16
6298,16
6299,16
6300,16
6301,16
6302,16
6303,16
6304,16
6305,16
6306,16
6307,16
6308,16
6309,16
6310,16
6311,16
6312,16
6313,16
6314,16
6315,16
6316,16
6317,16
6318,16
6319,16
6320,16
6321,16
6322,16
6323,16
6324,16
6325,16
6326,16
6327,16
6328,16
6329,16
6330,16
6331,16
6332,16
6333,16
6334,16
6335,16
6336,16
6337,16
6338,16
6339,16
6340,16
6341,16
6342,16
6343,16
6344,16
6345,16
6346,16
6347,16
6348,16
6349,16
6350,16
6351,16
6352,16
6353,16
6354,16
6355,16
6356,16
6357,16
6358,16
6359,16
6360,16
6361,16
6362,16
6363,16
6364,16
6365,16
6366,16
6367,16
6368,16
6369,16
6370,17
6371,17
6372,17
6373,17
6374,16
6375,16
6376,16
6377,16
6378,16
6379,16
6380,16
6381,16
6382,16
6383,16
6384,16
6385,16
6386,16
6387,16
6388,16
6389,16
6390,16
6391,16
6392,16
6393,16
6394,16
6395,16
6396,16
6397,16
6398,16
6399,16
6400,16
6401,16
6402,16
6403,16
6404,16
6405,16
6406,16
6407,16
6408,16
6409,16
6410,16
6411,16
6412,16
6413,16
6414,16
6415,16
6416,16
6417,16
6418,16
6419,16
6420,16
6421,16
6422,16
6423,16
6424,16
6425,16
6426,16
6427,16
6428,16
6429,16
6430,16
6431,16
6432,16
6433,16
6434,16
6435,16
6436,16
6437,16
6438,16
6439,16
6440,16
6441,16
6442,16
6443,16
6444,16
6445,16
6446,16
6447,16
6448,16
6449,16
6450,16
6451,16
6452,16
6453,16
6454,16
6455,16
6456,16
6457,16
6458,16
6459,16
6460,16
6461,16
6462,16
6463,16
6464,16
6465,16
6466,17
6467,17
6468,17
6469,17
6470,17
6471,17
6472,17
6473,17
6474,17
6475,17
6476,17
6477,17
6478,17
6479,17
6480,17
6481,17
6482,17
6483,17
6484,17
6485,17
6486,17
6487,17
6488,17
6489,17
6490,17
6491,17
6492,17
6493,17
6494,17
6495,17
6496,17
6497,17
6498,17
6499,17
6500,17
6501,17
6502,17
6503,17
6504,17
6505,17
6506,18
6507,18
6508,17
6509,17
6510,17
6511,17
6512,17
6513,17
6514,17
6515,17
6516,17
6517,17
6518,17
6519,17
6520,17
6521,17
6522,17
6523,17
6524,17
6525,17
6526,17
6527,17
6528,17
6529,17
6530,17
6531,17
6532,18
6533,17
6534,17
6535,17
6536,17
6537,17
6538,17
6539,17
6540,17
6541,17
6542,17
6543,17
6544,17
6545,17
6546,17
6547,17
6548,17
6549,17
6550,17
6551,17
6552,17
6553,17
6554,17
6555,17
6556,17
6557,17
6558,17
6559,17
6560,17
6561,17
6562,17
6563,17
6564,17
6565,17
6566,17
6567,17
6568,17
6569,17
6570,17
6571,17
6572,17
6573,17
6574,17
6575,17
6576,17
6577,17
6578,17
6579,17
6580,17
6581,17
6582,17
6583,17
6584,17
6585,17
6586,17
6587,17
6588,18
6589,18
6590,17
6591,17
6592,17
6593,17
6594,17
6595,17
6596,17
6597,17
6598,17
6599,17
6600,17
6601,17
6602,17
6603,17
6604,17
6605,17
6606,17
6607,17
6608,17
6609,17
6610,17
6611,17
6612,17
6613,17
6614,17
6615,17
6616,17
6617,17
6618,17
6619,17
6620,17
6621,17
6622,17
6623,17
6624,17
6625,17
6626,17
6627,17
6628,17
6629,17
6630,17
6631,17
6632,17
6633,17
6634,17
6635,17
6636,17
6637,17
6638,17
6639,17
6640,17
6641,17
6642,17
6643,17
6644,17
6645,17
6646,17
6647,17
6648,17
6649,17
6650,17
6651,17
6652,17
6653,17
6654,17
6655,17
6656,17
6657,17
6658,17
6659,17
6660,17
6661,17
6662,17
6663,17
6664,17
6665,17
6666,17
6667,17
6668,17
6669,17
6670,17
6671,17
6672,17
6673,17
6674,17
6675,17
6676,17
6677,17
6678,17
6679,17
6680,17
6681,17
6682,17
6683,17
6684,17
6685,17
6686,17
6687,17
6688,17
6689,17
6690,17
6691,17
6692,17
6693,17
6694,17
6695,17
6696,17
6697,17
6698,17
6699,17
6700,17
6701,17
6702,17
6703,17
6704,17
6705,17
6706,17
6707,17
6708,17
6709,17
6710,17
6711,17
6712,17
6713,17
6714,17
6715,17
6716,17
6717,17
6718,17
6719,17
6720,17
6721,17
6722,17
6723,17
6724,17
6725,17
6726,17
6727,17
6728,17
6729,17
6730,17
6731,17
6732,17
6733,17
6734,17
6735,17
6736,17
6737,17
6738,17
6739,17
6740,17
6741,17
6742,17
6743,17
6744,17
6745,17
6746,17
6747,17
6748,17
6749,17
6750,17
6751,17
6752,17
6753,17
6754,17
6755,17
6756,17
6757,17
6758,17
6759,17
6760,17
6761,17
6762,17
6763,17
6764,17
6765,17
6766,17
6767,17
6768,17
6769,17
6770,17
6771,17
6772,17
6773,17
6774,17
6775,17
6776,17
6777,17
6778,17
6779,17
6780,17
6781,17
6782,17
6783,17
6784,17
6785,17
6786,17
6787,17
6788,17
6789,17
6790,17
6791,17
6792,17
6793,17
6794,17
6795,17
6796,17
6797,17
6798,17
6799,17
6800,17
6801,17
6802,17
6803,17
6804,17
6805,17
6806,17
6807,17
6808,17
6809,17
6810,17
6811,17
6812,17
6813,17
6814,17
6815,17
6816,17
6817,17
6818,17
6819,17
6820,17
6821,17
6822,17
6823,17
6824,17
6825,17
6826,17
6827,17
6828,17
6829,17
6830,17
6831,17
6832,17
6833,17
6834,17
6835,17
6836,17
6837,17
6838,17
6839,17
6840,17
6841,17
6842,17
6843,17
6844,17
6845,17
6846,17
6847,17
6848,17
6849,17
6850,17
6851,17
6852,17
6853,17
6854,17
6855,17
6856,17
6857,17
6858,17
6859,17
6860,17
6861,17
6862,17
6863,17
6864,17
6865,17
6866,17
6867,17
6868,17
6869,17
6870,17
6871,17
6872,17
6873,17
6874,17
6875,17
6876,17
6877,17
6878,17
6879,17
6880,17
6881,17
6882,17
6883,17
6884,17
6885,17
6886,17
6887,17
6888,17
6889,17
6890,17
6891,17
6892,17
6893,17
6894,17
6895,17
6896,17
6897,17
6898,17
6899,17
6900,17
6901,17
6902,17
6903,17
6904,17
6905,17
6906,17
6907,17
6908,17
6909,17
6910,17
6911,17
6912,17
6913,17
6914,17
6915,17
6916,17
6917,17
6918,17
6919,17
6920,17
6921,17
6922,17
6923,17
6924,17
6925,17
6926,17
6927,17
6928,17
6929,17
6930,17
6931,17
6932,18
6933,17
6934,17
6935,17
6936,17
6937,17
6938,17
6939,17
6940,17
6941,17
6942,17
6943,17
6944,17
6945,17
6946,17
6947,17
6948,17
6949,17
6950,17
6951,17
6952,17
6953,17
6954,17
6955,17
6956,17
6957,17
6958,17
6959,17
6960,17
6961,17
6962,17
6963,17
6964,17
6965,17
6966,17
6967,17
6968,17
6969,17
6970,17
6971,17
6972,17
6973,17
6974,17
6975,17
6976,17
6977,17
6978,17
6979,17
6980,17
6981,17
6982,17
6983,17
6984,17
6985,17
6986,17
6987,17
6988,17
6989,17
6990,17
6991,17
6992,17
6993,17
6994,17
6995,17
6996,17
6997,17
6998,17
6999,17
7000,17
7001,17
7002,17
7003,17
7004,17
7005,17
7006,17
7007,17
7008,17
7009,17
7010,17
7011,17
7012,17
7013,17
7014,17
7015,17
7016,17
7017,17
7018,17
7019,17
7020,17
7021,17
7022,17
7023,17
7024,17
7025,17
7026,17
7027,17
7028,17
7029,17
7030,17
7031,17
7032,17
7033,17
7034,17
7035,17
7036,17
7037,17
7038,17
7039,17
7040,17
7041,17
7042,17
7043,17
7044,17
7045,17
7046,17
7047,17
7048,17
7049,17
7050,17
7051,17
7052,17
7053,17
7054,17
7055,17
7056,17
7057,17
7058,17
7059,17
7060,17
7061,17
7062,17
7063,17
7064,17
7065,17
7066,17
7067,17
7068,17
7069,17
7070,17
7071,17
7072,17
7073,17
7074,17
7075,17
7076,17
7077,17
7078,17
7079,17
7080,17
7081,17
7082,17
7083,17
7084,17
7085,17
7086,17
7087,17
7088,17
7089,17
7090,17
7091,17
7092,17
7093,17
7094,17
7095,17
7096,17
7097,17
7098,17
7099,17
7100,17
7101,17
7102,17
7103,17
7104,17
7105,18
7106,17
7107,17
7108,17
7109,17
7110,17
7111,17
7112,17
7113,17
7114,17
7115,17
7116,17
7117,17
7118,17
7119,17
7120,17
7121,17
7122,17
7123,17
7124,17
7125,17
7126,17
7127,17
7128,17
7129,17
7130,17
7131,17
7132,17
7133,17
7134,17
7135,17
7136,17
7137,17
7138,17
7139,17
7140,17
7141,17
7142,17
7143,17
7144,17
7145,17
7146,17
7147,17
7148,17
7149,17
7150,17
7151,17
7152,17
7153,17
7154,17
7155,17
7156,17
7157,17
7158,17
7159,17
7160,17
7161,17
7162,17
7163,17
7164,17
7165,17
7166,17
7167,17
7168,17
7169,17
7170,17
7171,17
7172,17
7173,17
7174,17
7175,17
7176,17
7177,17
7178,17
7179,17
7180,17
7181,17
7182,17
7183,17
7184,17
7185,17
7186,17
7187,17
7188,17
7189,17
7190,17
7191,17
7192,17
7193,17
7194,17
7195,17
7196,17
7197,17
7198,17
7199,17
7200,17
7201,17
7202,17
7203,17
7204,17
7205,17
7206,17
7207,17
7208,17
7209,17
7210,17
7211,17
7212,17
7213,17
7214,17
7215,17
7216,17
7217,17
7218,17
7219,17
7220,17
7221,17
7222,17
7223,17
7224,17
7225,17
7226,17
7227,17
7228,17
7229,18
7230,17
7231,17
7232,17
7233,17
7234,17
7235,17
7236,17
7237,17
7238,17
7239,17
7240,17
7241,17
7242,17
7243,17
7244,17
7245,17
7246,18
7247,18
7248,18
7249,18
7250,17
7251,17
7252,17
7253,17
7254,17
7255,17
7256,17
7257,17
7258,17
7259,17
7260,17
7261,17
7262,17
7263,17
7264,17
7265,17
7266,17
7267,17
7268,17
7269,17
7270,17
7271,17
7272,17
7273,17
7274,17
7275,17
7276,17
7277,17
7278,17
7279,17
7280,17
7281,17
7282,17
7283,17
7284,17
7285,17
7286,17
7287,17
7288,17
7289,17
7290,17
7291,17
7292,17
7293,17
7294,17
7295,17
7296,17
7297,17
7298,17
7299,17
7300,18
7301,18
7302,17
7303,17
7304,17
7305,17
7306,17
7307,17
7308,17
7309,17
7310,17
7311,17
7312,17
7313,17
7314,17
7315,17
7316,17
7317,17
7318,17
7319,17
7320,17
7321,17
7322,17
7323,17
7324,17
7325,17
7326,17
7327,17
7328,17
7329,17
7330,17
7331,17
7332,17
7333,17
7334,17
7335,17
7336,17
7337,17
7338,17
7339,17
7340,17
7341,17
7342,17
7343,17
7344,17
7345,17
7346,17
7347,17
7348,17
7349,17
7350,17
7351,17
7352,17
7353,17
7354,17
7355,17
7356,17
7357,17
7358,17
7359,17
7360,17
7361,17
7362,17
7363,17
7364,17
7365,17
7366,17
7367,17
7368,17
7369,17
7370,17
7371,17
7372,17
7373,17
7374,17
7375,17
7376,17
7377,17
7378,17
7379,17
7380,17
7381,17
7382,17
7383,17
7384,17
7385,17
7386,17
7387,17
7388,17
7389,17
7390,17
7391,17
7392,17
7393,17
7394,17
7395,17
7396,17
7397,17
7398,17
7399,17
7400,17
7401,17
7402,17
7403,17
7404,17
7405,17
7406,17
7407,17
7408,17
7409,17
7410,17
7411,17
7412,17
7413,17
7414,17
7415,17
7416,17
7417,17
7418,17
7419,17
7420,17
7421,17
7422,17
7423,17
7424,17
7425,17
7426,17
7427,17
7428,17
7429,17
7430,17
7431,17
7432,17
7433,17
7434,17
7435,17
7436,17
7437,17
7438,17
7439,17
7440,17
7441,17
7442,17
7443,17
7444,17
7445,17
7446,17
7447,17
7448,17
7449,17
7450,17
7451,17
7452,17
7453,17
7454,17
7455,17
7456,17
7457,17
7458,17
7459,17
7460,17
7461,17
7462,17
7463,17
7464,17
7465,17
7466,17
7467,17
7468,17
7469,17
7470,17
7471,17
7472,17
7473,17
7474,17
7475,17
7476,17
7477,17
7478,17
7479,17
7480,17
7481,17
7482,17
7483,17
7484,17
7485,17
7486,17
7487,18
7488,18
7489,18
7490,18
7491,18
7492,18
7493,18
7494,18
7495,18
7496,17
7497,17
7498,17
7499,17
7500,17
7501,17
7502,17
7503,17
7504,17
7505,17
7506,17
7507,17
7508,17
7509,17
7510,17
7511,17
7512,17
7513,17
7514,17
7515,17
7516,17
7517,17
7518,17
7519,17
7520,17
7521,17
7522,17
7523,17
7524,17
7525,17
7526,17
7527,17
7528,17
7529,17
7530,18
7531,18
7532,18
7533,18
7534,18
7535,18
7536,18
7537,18
7538,17
7539,17
7540,17
7541,17
7542,17
7543,17
7544,17
7545,17
7546,17
7547,17
7548,17
7549,17
7550,17
7551,17
7552,17
7553,17
7554,17
7555,17
7556,17
7557,17
7558,17
7559,17
7560,17
7561,17
7562,17
7563,17
7564,17
7565,17
7566,17
7567,17
7568,17
7569,17
7570,17
7571,17
7572,17
7573,17
7574,17
7575,17
7576,17
7577,17
7578,17
7579,17
7580,17
7581,17
7582,17
7583,17
7584,17
7585,17
7586,17
7587,17
7588,17
7589,17
7590,17
7591,17
7592,17
7593,17
7594,17
7595,17
7596,17
7597,17
7598,17
7599,17
7600,17
7601,17
7602,17
7603,17
7604,17
7605,17
7606,17
7607,17
7608,17
7609,17
7610,17
7611,17
7612,17
7613,17
7614,17
7615,17
7616,17
7617,17
7618,17
7619,17
7620,17
7621,17
7622,17
7623,17
7624,17
7625,17
7626,17
7627,17
7628,17
7629,17
7630,17
7631,17
7632,17
7633,17
7634,18
7635,17
7636,17
7637,17
7638,17
7639,17
7640,17
7641,17
7642,17
7643,17
7644,17
7645,17
7646,17
7647,17
7648,17
7649,17
7650,17
7651,17
7652,17
7653,17
7654,17
7655,17
7656,17
7657,17
7658,17
7659,17
7660,17
7661,17
7662,17
7663,17
7664,17
7665,17
7666,17
7667,17
7668,17
7669,17
7670,17
7671,17
7672,17
7673,17
7674,17
7675,17
7676,17
7677,17
7678,17
7679,17
7680,17
7681,17
7682,17
7683,17
7684,17
7685,17
7686,17
7687,17
7688,17
7689,17
7690,17
7691,17
7692,17
7693,17
7694,17
7695,17
7696,17
7697,17
7698,17
7699,17
7700,17
7701,17
7702,17
7703,17
7704,17
7705,17
7706,17
7707,17
7708,17
7709,17
7710,17
7711,17
7712,17
7713,17
7714,17
7715,19
7716,19
7717,19
7718,19
7719,19
7720,19
7721,18
7722,19
7723,19
7724,18
7725,18
7726,17
7727,17
7728,17
7729,17
7730,17
7731,17
7732,17
7733,17
7734,17
7735,17
7736,17
7737,17
7738,17
7739,17
7740,17
7741,17
7742,17
7743,17
7744,17
7745,17
7746,17
7747,17
7748,17
7749,17
7750,17
7751,17
7752,17
7753,17
7754,17
7755,17
7756,17
7757,17
7758,17
7759,17
7760,17
7761,17
7762,17
7763,17
7764,17
7765,17
7766,17
7767,17
7768,17
7769,17
7770,17
7771,17
7772,17
7773,17
7774,17
7775,17
7776,17
7777,17
7778,17
7779,17
7780,17
7781,17
7782,17
7783,17
7784,17
7785,17
7786,17
7787,17
7788,17
7789,17
7790,17
7791,17
7792,17
7793,17
7794,17
7795,17
7796,17
7797,17
7798,17
7799,17
7800,17
7801,17
7802,17
7803,17
7804,17
7805,17
7806,17
7807,17
7808,17
7809,17
7810,17
7811,17
7812,17
7813,17
7814,17
7815,17
7816,17
7817,17
7818,17
7819,17
7820,17
7821,17
7822,17
7823,17
7824,17
7825,17
7826,17
7827,17
7828,17
7829,17
7830,17
7831,17
7832,17
7833,17
7834,17
7835,17
7836,17
7837,17
7838,17
7839,17
7840,17
7841,17
7842,17
7843,17
7844,17
7845,17
7846,17
7847,17
7848,17
7849,17
7850,17
7851,17
7852,17
7853,17
7854,17
7855,17
7856,17
7857,17
7858,17
7859,17
7860,17
7861,17
7862,17
7863,17
7864,17
7865,17
7866,17
7867,17
7868,17
7869,17
7870,17
7871,17
7872,17
7873,17
7874,17
7875,17
7876,17
7877,17
7878,17
7879,17
7880,17
7881,17
7882,17
7883,17
7884,17
7885,17
7886,17
7887,17
7888,17
7889,17
7890,17
7891,17
7892,17
7893,17
7894,17
7895,17
7896,17
7897,17
7898,17
7899,17
7900,17
7901,17
7902,17
7903,17
7904,17
7905,17
7906,17
7907,17
7908,17
7909,17
7910,17
7911,17
7912,17
7913,17
7914,17
7915,17
7916,17
7917,17
7918,17
7919,17
7920,17
7921,17
7922,17
7923,17
7924,17
7925,17
7926,17
7927,17
7928,17
7929,17
7930,17
7931,17
7932,17
7933,17
7934,17
7935,17
7936,17
7937,17
7938,17
7939,17
7940,17
7941,17
7942,17
7943,17
7944,17
7945,17
7946,17
7947,17
7948,17
7949,17
7950,17
7951,17
7952,17
7953,17
7954,17
7955,17
7956,17
7957,17
7958,17
7959,17
7960,17
7961,17
7962,17
7963,17
7964,17
7965,17
7966,17
7967,17
7968,17
7969,17
7970,17
7971,17
7972,17
7973,17
7974,17
7975,17
7976,17
7977,17
7978,17
7979,17
7980,17
7981,17
7982,17
7983,17
7984,17
7985,17
7986,17
7987,17
7988,17
7989,17
7990,17
7991,17
7992,17
7993,17
7994,17
7995,17
7996,17
7997,17
7998,17
7999,17
8000,17
8001,17
8002,17
8003,17
8004,17
8005,17
8006,17
8007,17
8008,17
8009,17
8010,17
8011,17
8012,17
8013,17
8014,17
8015,17
8016,17
8017,17
8018,17
8019,17
8020,17
8021,17
8022,17
8023,17
8024,17
8025,17
8026,17
8027,17
8028,17
8029,17
8030,17
8031,17
8032,17
8033,17
8034,17
8035,17
8036,17
8037,17
8038,17
8039,18
8040,18
8041,18
8042,18
8043,19
8044,19
8045,19
8046,19
8047,19
8048,19
8049,19
8050,19
8051,19
8052,19
8053,19
8054,19
8055,19
8056,19
8057,19
8058,19
8059,19
8060,19
8061,18
8062,18
8063,18
8064,19
8065,19
8066,19
8067,19
8068,19
8069,19
8070,19
8071,19
8072,18
8073,18
8074,18
8075,18
8076,18
8077,18
8078,18
8079,18
8080,18
8081,18
8082,18
8083,18
8084,18
8085,18
8086,18
8087,18
8088,18
8089,18
8090,18
8091,18
8092,18
8093,18
8094,18
8095,18
8096,18
8097,18
8098,18
8099,18
8100,18
8101,18
8102,18
8103,18
8104,18
8105,18
8106,18
8107,18
8108,18
8109,18
8110,18
8111,18
8112,18
8113,18
8114,18
8115,18
8116,18
8117,18
8118,18
8119,18
8120,18
8121,18
8122,18
8123,18
8124,18
8125,18
8126,18
8127,18
8128,18
8129,18
8130,18
8131,18
8132,18
8133,18
8134,18
8135,18
8136,18
8137,18
8138,18
8139,18
8140,18
8141,18
8142,18
8143,18
8144,18
8145,18
8146,18
8147,18
8148,18
8149,18
8150,18
8151,18
8152,18
8153,18
8154,18
8155,18
8156,18
8157,18
8158,18
8159,18
8160,18
8161,18
8162,18
8163,18
8164,18
8165,18
8166,18
8167,18
8168,18
8169,18
8170,18
8171,18
8172,18
8173,18
8174,18
8175,18
8176,18
8177,18
8178,18
8179,18
8180,19
8181,18
8182,18
8183,18
8184,18
8185,18
8186,18
8187,18
8188,18
8189,18
8190,18
8191,18
8192,18
8193,18
8194,18
8195,18
8196,18
8197,18
8198,18
8199,18
8200,18
8201,18
8202,18
8203,18
8204,18
8205,18
8206,18
8207,18
8208,18
8209,18
8210,18
8211,18
8212,18
8213,18
8214,18
8215,18
8216,18
8217,18
8218,18
8219,18
8220,18
8221,18
8222,18
8223,18
8224,18
8225,18
8226,18
8227,18
8228,18
8229,18
8230,18
8231,18
8232,18
8233,18
8234,18
8235,18
8236,18
8237,18
8238,18
8239,18
8240,18
8241,18
8242,18
8243,18
8244,18
8245,18
8246,18
8247,18
8248,18
8249,18
8250,18
8251,18
8252,18
8253,18
8254,18
8255,18
8256,18
8257,18
8258,18
8259,18
8260,18
8261,18
8262,18
8263,18
8264,18
8265,18
8266,18
8267,19
8268,19
8269,19
8270,18
8271,18
8272,18
8273,18
8274,18
8275,18
8276,18
8277,18
8278,18
8279,18
8280,18
8281,18
8282,18
8283,18
8284,18
8285,18
8286,18
8287,18
8288,18
8289,18
8290,18
8291,18
8292,18
8293,18
8294,18
8295,18
8296,18
8297,18
8298,18
8299,18
8300,18
8301,18
8302,18
8303,18
8304,18
8305,18
8306,18
8307,18
8308,18
8309,18
8310,18
8311,18
8312,18
8313,18
8314,18
8315,18
8316,18
8317,18
8318,18
8319,18
8320,18
8321,18
8322,18
8323,18
8324,18
8325,18
8326,18
8327,18
8328,18
8329,18
8330,18
8331,18
8332,18
8333,18
8334,18
8335,18
8336,18
8337,18
8338,18
8339,18
8340,18
8341,18
8342,18
8343,18
8344,18
8345,18
8346,18
8347,18
8348,18
8349,18
8350,18
8351,18
8352,18
8353,18
8354,18
8355,18
8356,18
8357,18
8358,18
8359,18
8360,18
8361,18
8362,18
8363,18
8364,18
8365,18
8366,18
8367,18
8368,18
8369,18
8370,18
8371,18
8372,18
8373,18
8374,18
8375,19
8376,19
8377,19
8378,19
8379,19
8380,19
8381,19
8382,20
8383,19
8384,19
8385,19
8386,19
8387,19
8388,19
8389,19
8390,19
8391,19
8392,19
8393,19
8394,19
8395,19
8396,19
8397,19
8398,19
8399,19
8400,19
8401,19
8402,19
8403,19
8404,19
8405,19
8406,19
8407,19
8408,19
8409,19
8410,19
8411,19
8412,19
8413,19
8414,19
8415,19
8416,19
8417,19
8418,19
8419,19
8420,19
8421,19
8422,19
8423,19
8424,19
8425,19
8426,19
8427,19
8428,19
8429,19
8430,19
8431,19
8432,19
8433,19
8434,19
8435,19
8436,19
8437,19
8438,19
8439,19
8440,19
8441,19
8442,19
8443,19
8444,19
8445,19
8446,19
8447,19
8448,19
8449,19
8450,19
8451,19
8452,19
8453,19
8454,19
8455,19
8456,19
8457,19
8458,19
8459,19
8460,19
8461,19
8462,19
8463,19
8464,19
8465,19
8466,19
8467,19
8468,19
8469,19
8470,19
8471,19
8472,19
8473,19
8474,19
8475,19
8476,19
8477,19
8478,19
8479,19
8480,19
8481,19
8482,19
8483,19
8484,19
8485,20
8486,20
8487,19
8488,19
8489,19
8490,19
8491,19
8492,19
8493,19
8494,19
8495,19
8496,19
8497,19
8498,19
8499,19
8500,19
8501,19
8502,19
8503,19
8504,19
8505,19
8506,19
8507,19
8508,19
8509,19
8510,19
8511,19
8512,19
8513,19
8514,19
8515,19
8516,19
8517,19
8518,19
8519,19
8520,19
8521,19
8522,19
8523,19
8524,19
8525,19
8526,19
8527,19
8528,19
8529,19
8530,19
8531,19
8532,19
8533,19
8534,19
8535,19
8536,19
8537,19
8538,19
8539,19
8540,19
8541,19
8542,19
8543,19
8544,19
8545,19
8546,19
8547,19
8548,19
8549,19
8550,19
8551,19
8552,19
8553,19
8554,19
8555,19
8556,19
8557,19
8558,19
8559,19
8560,19
8561,19
8562,19
8563,19
8564,19
8565,19
8566,19
8567,19
8568,19
8569,19
8570,19
8571,19
8572,19
8573,19
8574,19
8575,19
8576,19
8577,19
8578,19
8579,19
8580,19
8581,19
8582,19
8583,19
8584,19
8585,19
8586,19
8587,19
8588,19
8589,19
8590,19
8591,19
8592,19
8593,19
8594,19
8595,19
8596,19
8597,19
8598,19
8599,19
8600,19
8601,19
8602,19
8603,19
8604,19
8605,19
8606,19
8607,19
8608,19
8609,19
8610,19
8611,19
8612,19
8613,19
8614,19
8615,19
8616,19
8617,19
8618,19
8619,19
8620,19
8621,19
8622,19
8623,19
8624,19
8625,19
8626,19
8627,19
8628,19
8629,19
8630,19
8631,19
8632,19
8633,19
8634,19
8635,19
8636,19
8637,19
8638,19
8639,19
8640,19
8641,19
8642,19
8643,19
8644,19
8645,19
8646,19
8647,19
8648,19
8649,19
8650,20
8651,19
8652,19
8653,19
8654,19
8655,19
8656,19
8657,19
8658,19
8659,19
8660,19
8661,20
8662,20
8663,19
8664,19
8665,19
8666,19
8667,19
8668,19
8669,19
8670,19
8671,19
8672,19
8673,19
8674,19
8675,19
8676,19
8677,19
8678,19
8679,19
8680,19
8681,19
8682,19
8683,19
8684,19
8685,19
8686,19
8687,19
8688,19
8689,19
8690,19
8691,19
8692,19
8693,19
8694,19
8695,19
8696,19
8697,19
8698,19
8699,19
8700,19
8701,19
8702,19
8703,19
8704,19
8705,19
8706,19
8707,19
8708,19
8709,19
8710,19
8711,19
8712,19
8713,19
8714,19
8715,19
8716,19
8717,19
8718,19
8719,19
8720,19
8721,19
8722,19
8723,19
8724,19
8725,19
8726,19
8727,19
8728,19
8729,19
8730,19
8731,19
8732,19
8733,19
8734,19
8735,19
8736,19
8737,19
8738,19
8739,19
8740,19
8741,19
8742,19
8743,19
8744,19
8745,19
8746,19
8747,19
8748,19
8749,19
8750,19
8751,19
8752,19
8753,19
8754,19
8755,19
8756,19
8757,19
8758,19
8759,19
8760,19
8761,19
8762,19
8763,19
8764,19
8765,19
8766,19
8767,19
8768,19
8769,19
8770,19
8771,19
8772,19
8773,19
8774,19
8775,19
8776,19
8777,19
8778,19
8779,19
8780,20
8781,19
8782,19
8783,19
8784,19
8785,19
8786,19
8787,19
8788,19
8789,19
8790,19
8791,19
8792,19
8793,19
8794,19
8795,19
8796,19
8797,19
8798,19
8799,19
8800,19
8801,19
8802,19
8803,19
8804,19
8805,19
8806,19
8807,19
8808,19
8809,19
8810,19
8811,19
8812,19
8813,19
8814,19
8815,19
8816,19
8817,19
8818,19
8819,19
8820,19
8821,19
8822,19
8823,19
8824,19
8825,19
8826,19
8827,19
8828,19
8829,19
8830,19
8831,19
8832,19
8833,19
8834,19
8835,19
8836,19
8837,19
8838,19
8839,19
8840,19
8841,19
8842,19
8843,19
8844,19
8845,19
8846,19
8847,19
8848,19
8849,19
8850,19
8851,19
8852,19
8853,19
8854,19
8855,19
8856,19
8857,19
8858,19
8859,19
8860,19
8861,19
8862,19
8863,19
8864,19
8865,19
8866,19
8867,19
8868,19
8869,19
8870,19
8871,19
8872,19
8873,19
8874,19
8875,19
8876,19
8877,19
8878,19
8879,19
8880,19
8881,19
8882,19
8883,19
8884,19
8885,19
8886,19
8887,19
8888,19
8889,19
8890,19
8891,19
8892,19
8893,19
8894,19
8895,20
8896,19
8897,19
8898,19
8899,19
8900,19
8901,19
8902,19
8903,19
8904,19
8905,19
8906,19
8907,19
8908,19
8909,19
8910,19
8911,19
8912,19
8913,19
8914,19
8915,19
8916,19
8917,19
8918,19
8919,19
8920,19
8921,19
8922,19
8923,19
8924,19
8925,19
8926,19
8927,19
8928,19
8929,19
8930,19
8931,19
8932,19
8933,19
8934,19
8935,19
8936,19
8937,19
8938,19
8939,19
8940,20
8941,20
8942,20
8943,20
8944,20
8945,20
8946,20
8947,20
8948,20
8949,19
8950,19
8951,19
8952,19
8953,19
8954,19
8955,19
8956,19
8957,19
8958,19
8959,19
8960,19
8961,19
8962,19
8963,19
8964,19
8965,19
8966,19
8967,19
8968,19
8969,19
8970,19
8971,19
8972,19
8973,19
8974,19
8975,19
8976,19
8977,19
8978,19
8979,19
8980,19
8981,19
8982,19
8983,19
8984,19
8985,19
8986,19
8987,19
8988,19
8989,19
8990,19
8991,19
8992,19
8993,19
8994,19
8995,19
8996,19
8997,19
8998,19
8999,19
9000,19
9001,19
9002,19
9003,19
9004,19
9005,19
9006,19
9007,19
9008,19
9009,19
9010,19
9011,19
9012,19
9013,19
9014,19
9015,19
9016,20
9017,19
9018,19
9019,19
9020,19
9021,19
9022,19
9023,19
9024,19
9025,19
9026,19
9027,19
9028,19
9029,19
9030,19
9031,19
9032,19
9033,19
9034,19
9035,19
9036,19
9037,19
9038,19
9039,19
9040,19
9041,19
9042,19
9043,19
9044,19
9045,19
9046,19
9047,19
9048,19
9049,19
9050,19
9051,19
9052,19
9053,19
9054,19
9055,19
9056,19
9057,19
9058,19
9059,19
9060,19
9061,19
9062,19
9063,19
9064,19
9065,19
9066,19
9067,19
9068,19
9069,19
9070,19
9071,19
9072,19
9073,19
9074,19
9075,19
9076,19
9077,19
9078,19
9079,19
9080,19
9081,19
9082,19
9083,19
9084,19
9085,19
9086,19
9087,19
9088,19
9089,19
9090,19
9091,19
9092,19
9093,19
9094,19
9095,19
9096,19
9097,19
9098,19
9099,19
9100,19
9101,19
9102,19
9103,19
9104,19
9105,19
9106,19
9107,19
9108,19
9109,19
9110,19
9111,19
9112,19
9113,19
9114,19
9115,19
9116,19
9117,19
9118,19
9119,20
9120,20
9121,19
9122,19
9123,19
9124,19
9125,19
9126,19
9127,19
9128,19
9129,19
9130,19
9131,19
9132,19
9133,19
9134,19
9135,19
9136,19
9137,19
9138,19
9139,19
9140,19
9141,19
9142,19
9143,19
9144,19
9145,19
9146,19
9147,19
9148,19
9149,19
9150,19
9151,19
9152,19
9153,20
9154,19
9155,19
9156,19
9157,19
9158,19
9159,19
9160,19
9161,19
9162,19
9163,19
9164,19
9165,19
9166,19
9167,19
9168,19
9169,19
9170,19
9171,19
9172,19
9173,19
9174,19
9175,19
9176,19
9177,19
9178,19
9179,19
9180,19
9181,19
9182,19
9183,19
9184,19
9185,19
9186,19
9187,19
9188,19
9189,19
9190,19
9191,19
9192,19
9193,19
9194,19
9195,19
9196,19
9197,19
9198,19
9199,19
9200,19
9201,19
9202,19
9203,19
9204,19
9205,19
9206,19
9207,19
9208,19
9209,19
9210,19
9211,19
9212,19
9213,19
9214,19
9215,19
9216,19
9217,19
9218,19
9219,19
9220,19
9221,19
9222,19
9223,19
9224,19
9225,19
9226,19
9227,19
9228,19
9229,19
9230,19
9231,19
9232,19
9233,19
9234,19
9235,19
9236,19
9237,19
9238,19
9239,19
9240,19
9241,19
9242,19
9243,19
9244,19
9245,19
9246,19
9247,19
9248,19
9249,19
9250,19
9251,19
9252,19
9253,19
9254,19
9255,19
9256,19
9257,19
9258,19
9259,19
9260,19
9261,19
9262,19
9263,19
9264,19
9265,19
9266,19
9267,19
9268,19
9269,19
9270,19
9271,19
9272,19
9273,19
9274,19
9275,19
9276,19
9277,19
9278,19
9279,19
9280,19
9281,19
9282,19
9283,19
9284,19
9285,19
9286,19
9287,19
9288,19
9289,20
9290,20
9291,20
9292,19
9293,19
9294,19
9295,19
9296,19
9297,19
9298,19
9299,19
9300,19
9301,19
9302,19
9303,19
9304,19
9305,19
9306,19
9307,19
9308,19
9309,19
9310,19
9311,19
9312,19
9313,19
9314,19
9315,19
9316,19
9317,19
9318,19
9319,19
9320,19
9321,19
9322,19
9323,19
9324,19
9325,19
9326,19
9327,19
9328,19
9329,19
9330,20
9331,19
9332,19
9333,19
9334,19
9335,19
9336,19
9337,19
9338,19
9339,19
9340,19
9341,19
9342,19
9343,19
9344,19
9345,19
9346,19
9347,19
9348,19
9349,19
9350,19
9351,19
9352,19
9353,19
9354,19
9355,19
9356,19
9357,19
9358,19
9359,19
9360,19
9361,19
9362,19
9363,19
9364,19
9365,19
9366,19
9367,19
9368,19
9369,19
9370,19
9371,19
9372,19
9373,19
9374,19
9375,20
9376,20
9377,20
9378,20
9379,20
9380,20
9381,20
9382,20
9383,19
9384,19
9385,19
9386,19
9387,19
9388,19
9389,19
9390,19
9391,19
9392,19
9393,19
9394,19
9395,19
9396,19
9397,19
9398,19
9399,19
9400,19
9401,19
9402,19
9403,19
9404,19
9405,19
9406,19
9407,19
9408,19
9409,19
9410,19
9411,19
9412,19
9413,19
9414,19
9415,19
9416,19
9417,19
9418,19
9419,19
9420,19
9421,19
9422,19
9423,19
9424,19
9425,19
9426,19
9427,19
9428,19
9429,19
9430,19
9431,19
9432,19
9433,19
9434,20
9435,20
9436,20
9437,20
9438,20
9439,20
9440,20
9441,19
9442,19
9443,19
9444,19
9445,19
9446,19
9447,19
9448,19
9449,19
9450,19
9451,19
9452,19
9453,19
9454,19
9455,19
9456,19
9457,19
9458,19
9459,19
9460,19
9461,19
9462,19
9463,19
9464,19
9465,19
9466,19
9467,19
9468,19
9469,19
9470,19
9471,19
9472,19
9473,20
9474,19
9475,19
9476,19
9477,19
9478,19
9479,19
9480,19
9481,19
9482,19
9483,19
9484,19
9485,19
9486,19
9487,19
9488,19
9489,19
9490,19
9491,20
9492,20
9493,20
9494,20
9495,20
9496,20
9497,20
9498,20
9499,20
9500,20
9501,20
9502,20
9503,20
9504,20
9505,20
9506,20
9507,20
9508,20
9509,20
9510,20
9511,20
9512,20
9513,21
9514,21
9515,20
9516,20
9517,20
9518,20
9519,20
9520,20
9521,20
9522,20
9523,20
9524,20
9525,20
9526,20
9527,19
9528,20
9529,20
9530,20
9531,20
9532,20
9533,20
9534,20
9535,20
9536,20
9537,20
9538,20
9539,20
9540,20
9541,20
9542,20
9543,20
9544,20
9545,20
9546,20
9547,20
9548,20
9549,20
9550,20
9551,20
9552,20
9553,20
9554,20
9555,20
9556,20
9557,20
9558,20
9559,20
9560,20
9561,20
9562,20
9563,20
9564,20
9565,20
9566,20
9567,20
9568,20
9569,20
9570,20
9571,20
9572,20
9573,20
9574,20
9575,20
9576,20
9577,20
9578,20
9579,20
9580,20
9581,20
9582,20
9583,20
9584,20
9585,20
9586,20
9587,20
9588,20
9589,20
9590,20
9591,20
9592,20
9593,20
9594,20
9595,20
9596,20
9597,20
9598,20
9599,20
9600,20
9601,20
9602,20
9603,20
9604,20
9605,20
9606,20
9607,20
9608,20
9609,20
9610,20
9611,20
9612,20
9613,20
9614,20
9615,20
9616,20
9617,20
9618,20
9619,20
9620,20
9621,20
9622,20
9623,20
9624,20
9625,20
9626,20
9627,20
9628,20
9629,20
9630,20
9631,20
9632,20
9633,20
9634,20
9635,20
9636,20
9637,20
9638,20
9639,20
9640,20
9641,20
9642,20
9643,20
9644,20
9645,20
9646,20
9647,20
9648,20
9649,21
9650,21
9651,21
9652,21
9653,21
9654,20
9655,21
9656,20
9657,20
9658,20
9659,20
9660,20
9661,20
9662,20
9663,20
9664,20
9665,20
9666,20
9667,20
9668,20
9669,20
9670,20
9671,20
9672,20
9673,20
9674,20
9675,20
9676,20
9677,20
9678,20
9679,20
9680,20
9681,20
9682,20
9683,20
9684,20
9685,20
9686,20
9687,20
9688,20
9689,20
9690,20
9691,20
9692,20
9693,20
9694,20
9695,20
9696,20
9697,20
9698,21
9699,21
9700,21
9701,21
9702,21
9703,21
9704,21
9705,21
9706,21
9707,20
9708,20
9709,20
9710,20
9711,20
9712,20
9713,20
9714,20
9715,20
9716,20
9717,20
9718,20
9719,20
9720,20
9721,20
9722,20
9723,20
9724,20
9725,20
9726,20
9727,20
9728,20
9729,20
9730,20
9731,20
9732,20
9733,20
9734,20
9735,20
9736,20
9737,20
9738,20
9739,20
9740,20
9741,20
9742,20
9743,20
9744,21
9745,21
9746,21
9747,20
9748,20
9749,20
9750,20
9751,20
9752,20
9753,20
9754,20
9755,20
9756,20
9757,20
9758,20
9759,20
9760,20
9761,20
9762,20
9763,20
9764,20
9765,20
9766,20
9767,20
9768,20
9769,20
9770,20
9771,20
9772,20
9773,20
9774,20
9775,20
9776,20
9777,20
9778,21
9779,21
9780,21
9781,20
9782,20
9783,20
9784,20
9785,20
9786,20
9787,20
9788,20
9789,20
9790,20
9791,20
9792,20
9793,20
9794,20
9795,20
9796,20
9797,20
9798,20
9799,20
9800,20
9801,20
9802,20
9803,20
9804,20
9805,20
9806,20
9807,20
9808,20
9809,20
9810,20
9811,20
9812,20
9813,20
9814,20
9815,20
9816,20
9817,20
9818,20
9819,20
9820,20
9821,20
9822,20
9823,20
9824,20
9825,20
9826,20
9827,20
9828,20
9829,20
9830,20
9831,20
9832,20
9833,20
9834,20
9835,20
9836,20
9837,20
9838,20
9839,20
9840,20
9841,20
9842,20
9843,20
9844,20
9845,20
9846,20
9847,20
9848,20
9849,20
9850,20
9851,20
9852,20
9853,20
9854,21
9855,21
9856,21
9857,20
9858,20
9859,20
9860,20
9861,20
9862,20
9863,20
9864,20
9865,20
9866,20
9867,20
9868,20
9869,20
9870,21
9871,20
9872,20
9873,20
9874,20
9875,20
9876,20
9877,20
9878,20
9879,20
9880,20
9881,20
9882,20
9883,20
9884,20
9885,20
9886,20
9887,20
9888,20
9889,20
9890,20
9891,20
9892,20
9893,20
9894,20
9895,20
9896,20
9897,20
9898,20
9899,20
9900,20
9901,20
9902,20
9903,20
9904,20
9905,20
9906,20
9907,20
9908,20
9909,20
9910,20
9911,20
9912,20
9913,20
9914,20
9915,20
9916,20
9917,20
9918,20
9919,20
9920,20
9921,20
9922,20
9923,20
9924,20
9925,20
9926,20
9927,20
9928,20
9929,20
9930,20
9931,20
9932,20
9933,20
9934,20
9935,20
9936,20
9937,20
9938,20
9939,20
9940,20
9941,20
9942,20
9943,20
9944,20
9945,20
9946,20
9947,20
9948,20
9949,20
9950,20
9951,20
9952,20
9953,20
9954,20
9955,20
9956,20
9957,20
9958,20
9959,20
9960,20
9961,20
9962,20
9963,20
9964,20
9965,20
9966,20
9967,20
9968,20
9969,20
9970,20
9971,20
9972,20
9973,20
9974,20
9975,20
9976,20
9977,20
9978,20
9979,20
9980,20
9981,20
9982,20
9983,20
9984,20
9985,20
9986,20
9987,20
9988,20
9989,20
9990,20
9991,20
9992,20
9993,20
9994,20
9995,20
9996,20
9997,20
9998,20
9999,20
10000,20
