1,3
2,4
3,5
4,5
5,5
6,5
7,5
8,5
9,5
10,5
11,5
12,5
13,5
14,5
15,5
16,5
17,5
18,5
19,5
20,5
21,5
22,5
23,5
24,5
25,5
26,5
27,5
28,5
29,5
30,5
31,5
32,5
33,5
34,5
35,5
36,5
37,5
38,5
39,5
40,5
41,5
42,5
43,5
44,5
45,5
46,5
47,5
48,5
49,5
50,5
51,5
52,6
53,6
54,6
55,5
56,5
57,5
58,5
59,5
60,5
61,5
62,6
63,5
64,5
65,5
66,5
67,5
68,5
69,5
70,5
71,5
72,5
73,5
74,5
75,5
76,5
77,5
78,5
79,5
80,5
81,5
82,5
83,5
84,5
85,5
86,5
87,5
88,5
89,5
90,5
91,5
92,5
93,5
94,5
95,5
96,5
97,6
98,5
99,5
100,5
101,5
102,5
103,6
104,6
105,6
106,6
107,6
108,6
109,6
110,6
111,6
112,6
113,6
114,6
115,6
116,6
117,6
118,6
119,6
120,6
121,6
122,6
123,6
124,6
125,6
126,6
127,6
128,6
129,6
130,6
131,6
132,6
133,6
134,6
135,6
136,6
137,6
138,6
139,6
140,6
141,6
142,6
143,6
144,6
145,6
146,6
147,6
148,6
149,6
150,6
151,6
152,6
153,6
154,6
155,6
156,6
157,6
158,6
159,6
160,6
161,6
162,6
163,6
164,6
165,6
166,6
167,6
168,6
169,6
170,6
171,6
172,6
173,6
174,6
175,6
176,6
177,6
178,6
179,6
180,6
181,6
182,6
183,6
184,6
185,6
186,6
187,6
188,6
189,6
190,6
191,6
192,6
193,6
194,6
195,6
196,6
197,6
198,6
199,6
200,6
201,6
202,6
203,6
204,6
205,6
206,6
207,6
208,6
209,6
210,6
211,6
212,6
213,6
214,6
215,6
216,6
217,6
218,6
219,6
220,6
221,6
222,6
223,6
224,6
225,6
226,6
227,6
228,6
229,6
230,6
231,6
232,6
233,6
234,6
235,6
236,7
237,7
238,7
239,6
240,6
241,6
242,6
243,6
244,6
245,6
246,6
247,6
248,6
249,6
250,6
251,6
252,6
253,6
254,6
255,6
256,6
257,6
258,6
259,6
260,6
261,6
262,6
263,6
264,6
265,6
266,6
267,6
268,6
269,6
270,6
271,6
272,6
273,6
274,6
275,6
276,6
277,6
278,6
279,6
280,6
281,6
282,6
283,6
284,6
285,6
286,6
287,6
288,6
289,6
290,6
291,6
292,6
293,6
294,6
295,6
296,6
297,6
298,6
299,6
300,6
301,6
302,6
303,6
304,6
305,7
306,7
307,7
308,7
309,7
310,6
311,6
312,6
313,6
314,6
315,6
316,7
317,7
318,7
319,6
320,6
321,6
322,6
323,6
324,6
325,6
326,6
327,6
328,6
329,6
330,6
331,6
332,6
333,6
334,6
335,6
336,6
337,6
338,6
339,6
340,6
341,6
342,6
343,6
344,6
345,6
346,6
347,6
348,6
349,6
350,6
351,6
352,6
353,6
354,6
355,6
356,6
357,6
358,6
359,6
360,6
361,6
362,6
363,6
364,6
365,6
366,6
367,6
368,6
369,6
370,6
371,6
372,6
373,6
374,6
375,6
376,6
377,6
378,6
379,6
380,6
381,6
382,6
383,6
384,6
385,6
386,6
387,6
388,6
389,6
390,6
391,6
392,6
393,6
394,6
395,6
396,6
397,6
398,6
399,6
400,6
401,6
402,6
403,6
404,6
405,6
406,6
407,6
408,6
409,6
410,6
411,6
412,6
413,6
414,6
415,6
416,6
417,6
418,6
419,6
420,6
421,6
422,6
423,6
424,6
425,6
426,6
427,6
428,6
429,6
430,6
431,6
432,6
433,6
434,6
435,6
436,6
437,6
438,6
439,6
440,6
441,6
442,6
443,6
444,6
445,6
446,6
447,6
448,6
449,6
450,6
451,6
452,6
453,6
454,6
455,6
456,6
457,6
458,6
459,7
460,6
461,6
462,6
463,6
464,6
465,6
466,6
467,6
468,6
469,6
470,6
471,6
472,6
473,6
474,6
475,6
476,6
477,6
478,6
479,6
480,6
481,6
482,6
483,6
484,6
485,6
486,6
487,6
488,6
489,6
490,6
491,6
492,6
493,6
494,6
495,6
496,7
497,7
498,7
499,6
500,6
501,6
502,6
503,6
504,6
505,6
506,6
507,6
508,6
509,6
510,6
511,6
512,6
513,6
514,6
515,6
516,6
517,6
518,6
519,6
520,6
521,6
522,6
523,6
524,6
525,6
526,6
527,6
528,6
529,6
530,6
531,6
532,6
533,6
534,6
535,6
536,6
537,6
538,6
539,7
540,6
541,6
542,6
543,6
544,6
545,6
546,6
547,6
548,6
549,6
550,6
551,6
552,6
553,6
554,6
555,6
556,6
557,6
558,6
559,6
560,6
561,6
562,6
563,6
564,6
565,6
566,6
567,6
568,6
569,6
570,6
571,6
572,6
573,6
574,6
575,6
576,6
577,6
578,6
579,6
580,6
581,6
582,6
583,6
584,6
585,6
586,6
587,6
588,6
589,6
590,6
591,6
592,6
593,6
594,6
595,6
596,6
597,6
598,6
599,6
600,6
601,6
602,6
603,6
604,6
605,6
606,6
607,6
608,6
609,6
610,6
611,6
612,6
613,6
614,6
615,6
616,6
617,6
618,6
619,6
620,6
621,6
622,6
623,6
624,6
625,6
626,6
627,6
628,6
629,6
630,6
631,6
632,6
633,6
634,6
635,6
636,6
637,6
638,6
639,6
640,6
641,6
642,6
643,6
644,6
645,6
646,6
647,6
648,6
649,6
650,6
651,6
652,6
653,6
654,6
655,6
656,6
657,6
658,6
659,6
660,6
661,6
662,6
663,7
664,6
665,6
666,6
667,6
668,6
669,6
670,6
671,6
672,6
673,6
674,6
675,6
676,6
677,6
678,6
679,6
680,7
681,6
682,6
683,6
684,6
685,6
686,6
687,6
688,6
689,6
690,6
691,6
692,6
693,6
694,6
695,6
696,6
697,6
698,6
699,6
700,6
701,6
702,6
703,6
704,6
705,6
706,6
707,6
708,6
709,6
710,6
711,6
712,6
713,6
714,6
715,6
716,6
717,6
718,6
719,6
720,6
721,6
722,6
723,6
724,6
725,6
726,6
727,6
728,6
729,6
730,6
731,6
732,6
733,6
734,6
735,6
736,7
737,7
738,7
739,7
740,7
741,7
742,7
743,7
744,7
745,7
746,7
747,7
748,7
749,7
750,7
751,7
752,7
753,7
754,7
755,7
756,7
757,7
758,8
759,8
760,8
761,7
762,7
763,7
764,7
765,7
766,7
767,7
768,7
769,7
770,7
771,7
772,7
773,7
774,7
775,7
776,7
777,7
778,7
779,7
780,7
781,7
782,7
783,7
784,7
785,7
786,7
787,7
788,7
789,7
790,7
791,7
792,7
793,7
794,7
795,7
796,7
797,7
798,7
799,7
800,7
801,7
802,7
803,7
804,7
805,7
806,7
807,7
808,7
809,7
810,7
811,7
812,7
813,7
814,7
815,7
816,7
817,7
818,7
819,7
820,7
821,7
822,7
823,7
824,7
825,7
826,7
827,7
828,7
829,7
830,7
831,7
832,7
833,7
834,7
835,7
836,7
837,7
838,7
839,7
840,7
841,7
842,8
843,7
844,7
845,7
846,7
847,7
848,7
849,7
850,7
851,7
852,7
853,7
854,7
855,7
856,7
857,7
858,7
859,7
860,7
861,7
862,7
863,7
864,7
865,7
866,7
867,7
868,7
869,7
870,7
871,7
872,7
873,7
874,7
875,7
876,7
877,7
878,7
879,7
880,7
881,7
882,8
883,7
884,7
885,7
886,7
887,7
888,7
889,7
890,7
891,7
892,7
893,7
894,7
895,7
896,7
897,7
898,7
899,7
900,7
901,7
902,7
903,7
904,7
905,7
906,7
907,7
908,7
909,7
910,7
911,7
912,7
913,7
914,7
915,7
916,7
917,7
918,7
919,7
920,7
921,7
922,7
923,7
924,7
925,7
926,7
927,7
928,7
929,7
930,7
931,7
932,7
933,7
934,7
935,7
936,7
937,7
938,7
939,7
940,7
941,7
942,7
943,7
944,7
945,8
946,8
947,8
948,7
949,7
950,7
951,7
952,7
953,7
954,7
955,7
956,7
957,7
958,7
959,7
960,7
961,7
962,7
963,7
964,7
965,7
966,7
967,7
968,7
969,7
970,7
971,7
972,7
973,7
974,7
975,7
976,7
977,7
978,7
979,7
980,7
981,7
982,7
983,7
984,7
985,7
986,7
987,7
988,7
989,7
990,7
991,7
992,7
993,7
994,7
995,7
996,7
997,7
998,7
999,7
1000,7
1001,7
1002,7
1003,7
1004,7
1005,7
1006,7
1007,7
1008,7
1009,7
1010,7
1011,7
1012,7
1013,7
1014,7
1015,7
1016,7
1017,7
1018,7
1019,7
1020,8
1021,7
1022,7
1023,7
1024,7
1025,7
1026,7
1027,7
1028,7
1029,7
1030,7
1031,7
1032,7
1033,7
1034,7
1035,7
1036,7
1037,7
1038,7
1039,7
1040,7
1041,7
1042,7
1043,7
1044,7
1045,7
1046,7
1047,7
1048,7
1049,7
1050,7
1051,7
1052,7
1053,7
1054,7
1055,7
1056,7
1057,7
1058,7
1059,7
1060,7
1061,7
1062,7
1063,7
1064,7
1065,7
1066,7
1067,7
1068,7
1069,7
1070,7
1071,7
1072,7
1073,7
1074,7
1075,7
1076,7
1077,7
1078,7
1079,7
1080,7
1081,7
1082,7
1083,7
1084,7
1085,7
1086,7
1087,7
1088,7
1089,7
1090,7
1091,7
1092,7
1093,7
1094,7
1095,7
1096,7
1097,7
1098,7
1099,7
1100,7
1101,7
1102,7
1103,7
1104,7
1105,7
1106,7
1107,7
1108,7
1109,7
1110,7
1111,7
1112,7
1113,7
1114,7
1115,7
1116,7
1117,7
1118,7
1119,7
1120,7
1121,7
1122,8
1123,8
1124,7
1125,7
1126,7
1127,7
1128,7
1129,7
1130,7
1131,7
1132,7
1133,7
1134,7
1135,7
1136,7
1137,7
1138,7
1139,7
1140,7
1141,7
1142,7
1143,7
1144,7
1145,7
1146,7
1147,7
1148,7
1149,7
1150,7
1151,7
1152,7
1153,7
1154,7
1155,7
1156,7
1157,7
1158,7
1159,7
1160,7
1161,7
1162,7
1163,7
1164,7
1165,7
1166,7
1167,7
1168,7
1169,7
1170,7
1171,7
1172,7
1173,7
1174,7
1175,7
1176,7
1177,8
1178,8
1179,8
1180,8
1181,8
1182,8
1183,8
1184,8
1185,8
1186,8
1187,8
1188,8
1189,8
1190,8
1191,8
1192,8
1193,8
1194,8
1195,8
1196,8
1197,8
1198,8
1199,8
1200,8
1201,8
1202,8
1203,8
1204,8
1205,8
1206,8
1207,8
1208,8
1209,8
1210,8
1211,8
1212,8
1213,8
1214,8
1215,8
1216,8
1217,8
1218,8
1219,8
1220,8
1221,8
1222,8
1223,8
1224,8
1225,8
1226,8
1227,8
1228,8
1229,8
1230,8
1231,8
1232,8
1233,8
1234,8
1235,8
1236,8
1237,8
1238,8
1239,8
1240,8
1241,8
1242,8
1243,8
1244,8
1245,8
1246,8
1247,8
1248,8
1249,8
1250,8
1251,8
1252,8
1253,8
1254,8
1255,8
1256,8
1257,8
1258,8
1259,8
1260,8
1261,8
1262,8
1263,8
1264,8
1265,8
1266,8
1267,8
1268,8
1269,8
1270,8
1271,8
1272,8
1273,8
1274,8
1275,8
1276,8
1277,8
1278,8
1279,8
1280,8
1281,8
1282,8
1283,8
1284,8
1285,8
1286,8
1287,8
1288,8
1289,8
1290,8
1291,8
1292,8
1293,8
1294,8
1295,8
1296,8
1297,8
1298,8
1299,8
1300,8
1301,8
1302,8
1303,8
1304,8
1305,8
1306,8
1307,8
1308,8
1309,8
1310,8
1311,8
1312,8
1313,8
1314,8
1315,8
1316,8
1317,8
1318,8
1319,8
1320,8
1321,8
1322,8
1323,8
1324,8
1325,8
1326,8
1327,8
1328,8
1329,8
1330,8
1331,8
1332,8
1333,8
1334,8
1335,8
1336,8
1337,8
1338,8
1339,8
1340,8
1341,8
1342,8
1343,8
1344,8
1345,8
1346,8
1347,8
1348,8
1349,8
1350,8
1351,8
1352,8
1353,8
1354,8
1355,8
1356,8
1357,8
1358,8
1359,8
1360,8
1361,8
1362,8
1363,8
1364,8
1365,8
1366,8
1367,8
1368,8
1369,8
1370,8
1371,8
1372,8
1373,8
1374,8
1375,8
1376,8
1377,8
1378,8
1379,8
1380,8
1381,8
1382,8
1383,8
1384,8
1385,8
1386,8
1387,8
1388,8
1389,8
1390,8
1391,8
1392,8
1393,8
1394,8
1395,8
1396,8
1397,8
1398,8
1399,8
1400,8
1401,8
1402,8
1403,8
1404,8
1405,8
1406,8
1407,8
1408,8
1409,8
1410,8
1411,8
1412,8
1413,8
1414,8
1415,8
1416,8
1417,8
1418,8
1419,8
1420,8
1421,8
1422,8
1423,8
1424,8
1425,8
1426,8
1427,8
1428,8
1429,8
1430,8
1431,8
1432,8
1433,8
1434,8
1435,8
1436,8
1437,8
1438,8
1439,8
1440,8
1441,8
1442,8
1443,8
1444,8
1445,8
1446,8
1447,8
1448,8
1449,8
1450,8
1451,8
1452,8
1453,8
1454,8
1455,8
1456,8
1457,8
1458,8
1459,8
1460,8
1461,8
1462,8
1463,8
1464,8
1465,8
1466,8
1467,8
1468,8
1469,8
1470,8
1471,8
1472,8
1473,8
1474,8
1475,8
1476,8
1477,8
1478,8
1479,8
1480,8
1481,8
1482,8
1483,8
1484,8
1485,8
1486,8
1487,8
1488,8
1489,8
1490,8
1491,8
1492,8
1493,8
1494,9
1495,9
1496,9
1497,9
1498,9
1499,9
1500,9
1501,9
1502,8
1503,8
1504,8
1505,8
1506,8
1507,8
1508,8
1509,8
1510,8
1511,8
1512,8
1513,8
1514,8
1515,8
1516,8
1517,8
1518,8
1519,8
1520,8
1521,8
1522,8
1523,8
1524,8
1525,8
1526,8
1527,8
1528,8
1529,8
1530,8
1531,8
1532,8
1533,8
1534,8
1535,8
1536,8
1537,8
1538,8
1539,8
1540,8
1541,8
1542,9
1543,9
1544,9
1545,9
1546,9
1547,9
1548,9
1549,9
1550,9
1551,9
1552,9
1553,9
1554,9
1555,9
1556,9
1557,9
1558,9
1559,9
1560,9
1561,9
1562,9
1563,9
1564,9
1565,9
1566,9
1567,9
1568,9
1569,9
1570,9
1571,9
1572,9
1573,9
1574,9
1575,9
1576,9
1577,9
1578,9
1579,9
1580,9
1581,9
1582,9
1583,9
1584,9
1585,9
1586,9
1587,9
1588,9
1589,9
1590,9
1591,9
1592,9
1593,9
1594,9
1595,9
1596,9
1597,9
1598,9
1599,9
1600,9
1601,9
1602,9
1603,9
1604,9
1605,9
1606,9
1607,9
1608,9
1609,9
1610,9
1611,9
1612,9
1613,9
1614,9
1615,9
1616,9
1617,9
1618,9
1619,9
1620,9
1621,9
1622,9
1623,9
1624,9
1625,9
1626,9
1627,9
1628,9
1629,9
1630,9
1631,9
1632,9
1633,9
1634,9
1635,9
1636,9
1637,9
1638,9
1639,9
1640,9
1641,9
1642,9
1643,9
1644,9
1645,9
1646,9
1647,9
1648,9
1649,9
1650,9
1651,9
1652,9
1653,9
1654,9
1655,9
1656,9
1657,9
1658,9
1659,9
1660,9
1661,9
1662,9
1663,9
1664,9
1665,9
1666,9
1667,9
1668,9
1669,9
1670,9
1671,9
1672,9
1673,9
1674,9
1675,9
1676,9
1677,9
1678,9
1679,9
1680,9
1681,9
1682,9
1683,9
1684,9
1685,9
1686,9
1687,9
1688,9
1689,9
1690,9
1691,9
1692,9
1693,9
1694,9
1695,9
1696,9
1697,9
1698,9
1699,9
1700,9
1701,9
1702,9
1703,9
1704,9
1705,9
1706,9
1707,9
1708,9
1709,9
1710,9
1711,9
1712,9
1713,9
1714,9
1715,9
1716,9
1717,9
1718,9
1719,9
1720,9
1721,9
1722,9
1723,9
1724,9
1725,9
1726,9
1727,9
1728,9
1729,9
1730,9
1731,9
1732,9
1733,9
1734,9
1735,9
1736,9
1737,9
1738,9
1739,9
1740,9
1741,9
1742,9
1743,9
1744,9
1745,9
1746,9
1747,9
1748,9
1749,9
1750,9
1751,9
1752,9
1753,9
1754,9
1755,9
1756,9
1757,9
1758,9
1759,9
1760,9
1761,9
1762,9
1763,9
1764,9
1765,10
1766,10
1767,9
1768,9
1769,9
1770,9
1771,9
1772,9
1773,9
1774,9
1775,9
1776,9
1777,9
1778,9
1779,9
1780,9
1781,9
1782,9
1783,9
1784,9
1785,9
1786,9
1787,9
1788,9
1789,9
1790,9
1791,9
1792,9
1793,9
1794,9
1795,9
1796,9
1797,9
1798,9
1799,9
1800,9
1801,9
1802,10
1803,10
1804,9
1805,9
1806,9
1807,9
1808,9
1809,9
1810,9
1811,9
1812,9
1813,9
1814,9
1815,9
1816,9
1817,9
1818,9
1819,9
1820,9
1821,9
1822,9
1823,9
1824,9
1825,9
1826,9
1827,9
1828,9
1829,9
1830,9
1831,9
1832,9
1833,9
1834,9
1835,9
1836,9
1837,9
1838,9
1839,9
1840,9
1841,9
1842,9
1843,9
1844,9
1845,9
1846,9
1847,9
1848,9
1849,9
1850,9
1851,9
1852,9
1853,9
1854,9
1855,9
1856,9
1857,9
1858,9
1859,9
1860,9
1861,9
1862,9
1863,9
1864,9
1865,9
1866,9
1867,9
1868,9
1869,9
1870,9
1871,9
1872,9
1873,9
1874,9
1875,9
1876,9
1877,9
1878,9
1879,9
1880,9
1881,9
1882,9
1883,9
1884,9
1885,9
1886,9
1887,9
1888,9
1889,9
1890,9
1891,9
1892,9
1893,9
1894,9
1895,9
1896,9
1897,9
1898,9
1899,9
1900,9
1901,9
1902,9
1903,9
1904,9
1905,9
1906,9
1907,9
1908,9
1909,9
1910,9
1911,9
1912,9
1913,9
1914,9
1915,9
1916,9
1917,9
1918,9
1919,9
1920,9
1921,9
1922,9
1923,9
1924,9
1925,9
1926,9
1927,9
1928,9
1929,9
1930,9
1931,9
1932,9
1933,9
1934,9
1935,9
1936,9
1937,9
1938,9
1939,9
1940,9
1941,9
1942,9
1943,9
1944,9
1945,9
1946,9
1947,9
1948,9
1949,9
1950,9
1951,9
1952,9
1953,9
1954,9
1955,9
1956,9
1957,9
1958,9
1959,9
1960,9
1961,9
1962,9
1963,9
1964,9
1965,9
1966,9
1967,9
1968,9
1969,9
1970,9
1971,9
1972,9
1973,9
1974,9
1975,9
1976,9
1977,9
1978,9
1979,9
1980,9
1981,9
1982,9
1983,9
1984,9
1985,9
1986,9
1987,9
1988,9
1989,9
1990,9
1991,9
1992,9
1993,9
1994,9
1995,9
1996,9
1997,9
1998,9
1999,9
2000,9
2001,9
2002,9
2003,9
2004,9
2005,9
2006,9
2007,9
2008,9
2009,9
2010,9
2011,9
2012,9
2013,9
2014,9
2015,9
2016,9
2017,9
2018,9
2019,9
2020,9
2021,9
2022,9
2023,9
2024,9
2025,9
2026,9
2027,9
2028,9
2029,9
2030,9
2031,9
2032,9
2033,9
2034,9
2035,9
2036,9
2037,9
2038,9
2039,9
2040,9
2041,9
2042,9
2043,9
2044,9
2045,9
2046,9
2047,9
2048,9
2049,9
2050,9
2051,9
2052,9
2053,9
2054,9
2055,9
2056,9
2057,9
2058,9
2059,9
2060,9
2061,9
2062,9
2063,9
2064,9
2065,9
2066,9
2067,9
2068,9
2069,9
2070,9
2071,9
2072,9
2073,9
2074,9
2075,9
2076,9
2077,9
2078,9
2079,9
2080,9
2081,9
2082,10
2083,10
2084,9
2085,9
2086,9
2087,9
2088,9
2089,9
2090,9
2091,9
2092,9
2093,9
2094,9
2095,9
2096,9
2097,9
2098,9
2099,9
2100,9
2101,9
2102,9
2103,9
2104,9
2105,9
2106,9
2107,9
2108,9
2109,9
2110,9
2111,9
2112,9
2113,9
2114,9
2115,9
2116,9
2117,9
2118,10
2119,9
2120,9
2121,9
2122,9
2123,9
2124,9
2125,9
2126,9
2127,9
2128,9
2129,9
2130,9
2131,9
2132,9
2133,9
2134,9
2135,9
2136,9
2137,9
2138,9
2139,9
2140,9
2141,9
2142,9
2143,9
2144,9
2145,9
2146,9
2147,9
2148,9
2149,9
2150,9
2151,9
2152,9
2153,9
2154,9
2155,9
2156,9
2157,9
2158,9
2159,9
2160,9
2161,9
2162,9
2163,9
2164,9
2165,9
2166,9
2167,9
2168,9
2169,9
2170,9
2171,9
2172,9
2173,9
2174,9
2175,9
2176,9
2177,9
2178,9
2179,9
2180,9
2181,9
2182,9
2183,9
2184,9
2185,9
2186,9
2187,9
2188,9
2189,9
2190,9
2191,9
2192,9
2193,9
2194,9
2195,9
2196,9
2197,9
2198,9
2199,9
2200,9
2201,9
2202,9
2203,9
2204,9
2205,9
2206,9
2207,9
2208,9
2209,9
2210,9
2211,9
2212,9
2213,9
2214,9
2215,9
2216,9
2217,9
2218,9
2219,9
2220,10
2221,9
2222,9
2223,9
2224,9
2225,9
2226,9
2227,9
2228,9
2229,9
2230,9
2231,9
2232,9
2233,9
2234,9
2235,9
2236,9
2237,9
2238,9
2239,9
2240,9
2241,9
2242,10
2243,10
2244,10
2245,10
2246,10
2247,10
2248,10
2249,9
2250,9
2251,9
2252,9
2253,9
2254,9
2255,9
2256,9
2257,9
2258,9
2259,9
2260,9
2261,9
2262,9
2263,9
2264,10
2265,10
2266,10
2267,10
2268,10
2269,10
2270,10
2271,10
2272,10
2273,10
2274,10
2275,10
2276,10
2277,10
2278,10
2279,10
2280,10
2281,10
2282,10
2283,10
2284,10
2285,10
2286,10
2287,10
2288,10
2289,10
2290,10
2291,10
2292,10
2293,10
2294,10
2295,10
2296,10
2297,10
2298,10
2299,10
2300,10
2301,10
2302,10
2303,10
2304,10
2305,10
2306,10
2307,10
2308,10
2309,10
2310,10
2311,10
2312,10
2313,10
2314,10
2315,10
2316,10
2317,10
2318,10
2319,10
2320,10
2321,10
2322,10
2323,10
2324,10
2325,10
2326,10
2327,10
2328,10
2329,10
2330,10
2331,10
2332,10
2333,10
2334,10
2335,10
2336,10
2337,10
2338,10
2339,10
2340,10
2341,10
2342,10
2343,10
2344,10
2345,10
2346,10
2347,10
2348,10
2349,10
2350,10
2351,10
2352,10
2353,10
2354,10
2355,10
2356,10
2357,10
2358,10
2359,10
2360,10
2361,10
2362,10
2363,10
2364,10
2365,10
2366,10
2367,10
2368,10
2369,10
2370,10
2371,10
2372,10
2373,10
2374,10
2375,10
2376,10
2377,10
2378,10
2379,10
2380,10
2381,10
2382,10
2383,10
2384,10
2385,10
2386,10
2387,10
2388,10
2389,10
2390,10
2391,11
2392,11
2393,10
2394,10
2395,10
2396,10
2397,10
2398,10
2399,10
2400,10
2401,10
2402,10
2403,10
2404,10
2405,10
2406,10
2407,10
2408,10
2409,10
2410,10
2411,10
2412,10
2413,10
2414,10
2415,10
2416,10
2417,10
2418,10
2419,10
2420,10
2421,10
2422,10
2423,10
2424,10
2425,10
2426,10
2427,10
2428,10
2429,10
2430,10
2431,10
2432,10
2433,10
2434,10
2435,10
2436,10
2437,10
2438,10
2439,10
2440,10
2441,10
2442,10
2443,10
2444,10
2445,10
2446,10
2447,10
2448,10
2449,10
2450,10
2451,10
2452,10
2453,10
2454,11
2455,11
2456,10
2457,10
2458,10
2459,10
2460,10
2461,10
2462,10
2463,10
2464,10
2465,10
2466,10
2467,10
2468,10
2469,10
2470,10
2471,10
2472,10
2473,10
2474,10
2475,10
2476,10
2477,10
2478,10
2479,10
2480,10
2481,10
2482,10
2483,10
2484,10
2485,10
2486,10
2487,10
2488,10
2489,10
2490,10
2491,10
2492,10
2493,10
2494,10
2495,10
2496,10
2497,10
2498,10
2499,10
2500,10
2501,10
2502,10
2503,10
2504,10
2505,10
2506,10
2507,10
2508,10
2509,10
2510,10
2511,10
2512,10
2513,10
2514,10
2515,10
2516,10
2517,10
2518,10
2519,10
2520,10
2521,10
2522,10
2523,10
2524,10
2525,10
2526,10
2527,10
2528,10
2529,10
2530,10
2531,10
2532,10
2533,10
2534,10
2535,10
2536,10
2537,10
2538,10
2539,10
2540,10
2541,10
2542,10
2543,10
2544,10
2545,10
2546,10
2547,10
2548,10
2549,10
2550,10
2551,10
2552,10
2553,10
2554,10
2555,10
2556,10
2557,10
2558,10
2559,10
2560,10
2561,10
2562,10
2563,11
2564,10
2565,10
2566,10
2567,10
2568,10
2569,10
2570,10
2571,10
2572,10
2573,10
2574,10
2575,10
2576,10
2577,10
2578,10
2579,10
2580,10
2581,10
2582,10
2583,10
2584,10
2585,10
2586,10
2587,10
2588,10
2589,10
2590,10
2591,10
2592,10
2593,10
2594,10
2595,10
2596,11
2597,10
2598,10
2599,10
2600,10
2601,10
2602,10
2603,10
2604,10
2605,10
2606,10
2607,10
2608,10
2609,10
2610,10
2611,10
2612,10
2613,10
2614,10
2615,10
2616,10
2617,10
2618,10
2619,10
2620,10
2621,10
2622,10
2623,10
2624,10
2625,10
2626,10
2627,10
2628,10
2629,10
2630,10
2631,10
2632,10
2633,10
2634,10
2635,10
2636,10
2637,10
2638,10
2639,10
2640,10
2641,10
2642,10
2643,10
2644,10
2645,10
2646,10
2647,10
2648,10
2649,10
2650,10
2651,10
2652,10
2653,10
2654,10
2655,10
2656,10
2657,10
2658,10
2659,10
2660,10
2661,10
2662,10
2663,10
2664,10
2665,10
2666,10
2667,10
2668,10
2669,10
2670,10
2671,10
2672,10
2673,10
2674,10
2675,10
2676,10
2677,11
2678,10
2679,10
2680,10
2681,10
2682,10
2683,10
2684,10
2685,10
2686,10
2687,10
2688,10
2689,10
2690,10
2691,10
2692,10
2693,10
2694,10
2695,10
2696,11
2697,11
2698,11
2699,11
2700,11
2701,11
2702,11
2703,11
2704,11
2705,11
2706,10
2707,10
2708,10
2709,10
2710,10
2711,10
2712,10
2713,10
2714,10
2715,10
2716,10
2717,10
2718,10
2719,10
2720,10
2721,10
2722,10
2723,10
2724,10
2725,10
2726,10
2727,10
2728,10
2729,10
2730,10
2731,10
2732,10
2733,10
2734,10
2735,10
2736,10
2737,10
2738,10
2739,10
2740,10
2741,10
2742,10
2743,10
2744,10
2745,10
2746,10
2747,10
2748,10
2749,10
2750,10
2751,10
2752,10
2753,10
2754,10
2755,10
2756,10
2757,10
2758,10
2759,10
2760,10
2761,10
2762,11
2763,11
2764,11
2765,10
2766,10
2767,10
2768,10
2769,10
2770,10
2771,10
2772,10
2773,10
2774,10
2775,10
2776,10
2777,10
2778,10
2779,10
2780,10
2781,10
2782,10
2783,10
2784,10
2785,10
2786,10
2787,10
2788,10
2789,10
2790,10
2791,10
2792,10
2793,10
2794,10
2795,10
2796,10
2797,10
2798,10
2799,10
2800,10
2801,10
2802,10
2803,10
2804,10
2805,10
2806,10
2807,10
2808,10
2809,10
2810,10
2811,10
2812,10
2813,10
2814,10
2815,10
2816,10
2817,10
2818,10
2819,10
2820,11
2821,11
2822,11
2823,11
2824,11
2825,10
2826,10
2827,10
2828,10
2829,10
2830,10
2831,10
2832,10
2833,10
2834,10
2835,10
2836,10
2837,10
2838,10
2839,10
2840,10
2841,10
2842,10
2843,11
2844,10
2845,10
2846,10
2847,10
2848,10
2849,10
2850,10
2851,10
2852,10
2853,10
2854,10
2855,10
2856,10
2857,10
2858,10
2859,10
2860,10
2861,10
2862,10
2863,10
2864,10
2865,10
2866,10
2867,10
2868,10
2869,10
2870,10
2871,10
2872,10
2873,10
2874,10
2875,10
2876,10
2877,10
2878,10
2879,10
2880,10
2881,10
2882,10
2883,10
2884,10
2885,10
2886,10
2887,10
2888,10
2889,10
2890,10
2891,10
2892,10
2893,10
2894,10
2895,10
2896,10
2897,10
2898,10
2899,10
2900,10
2901,10
2902,10
2903,10
2904,10
2905,10
2906,10
2907,10
2908,10
2909,10
2910,10
2911,10
2912,10
2913,10
2914,10
2915,10
2916,10
2917,10
2918,10
2919,10
2920,10
2921,10
2922,10
2923,10
2924,10
2925,10
2926,10
2927,10
2928,10
2929,10
2930,11
2931,10
2932,10
2933,10
2934,10
2935,10
2936,10
2937,10
2938,10
2939,10
2940,10
2941,10
2942,10
2943,10
2944,10
2945,10
2946,10
2947,10
2948,10
2949,10
2950,10
2951,10
2952,10
2953,10
2954,10
2955,10
2956,10
2957,10
2958,10
2959,10
2960,10
2961,10
2962,10
2963,10
2964,10
2965,10
2966,10
2967,10
2968,10
2969,10
2970,10
2971,10
2972,10
2973,10
2974,10
2975,10
2976,10
2977,10
2978,10
2979,10
2980,10
2981,10
2982,10
2983,10
2984,10
2985,10
2986,10
2987,10
2988,10
2989,10
2990,10
2991,10
2992,10
2993,10
2994,10
2995,10
2996,10
2997,10
2998,10
2999,10
3000,10
3001,10
3002,10
3003,10
3004,10
3005,10
3006,10
3007,10
3008,10
3009,10
3010,10
3011,10
3012,10
3013,10
3014,10
3015,10
3016,10
3017,10
3018,10
3019,10
3020,10
3021,10
3022,10
3023,10
3024,10
3025,10
3026,10
3027,10
3028,10
3029,10
3030,10
3031,10
3032,10
3033,10
3034,10
3035,10
3036,10
3037,10
3038,10
3039,10
3040,10
3041,10
3042,10
3043,10
3044,10
3045,10
3046,10
3047,10
3048,10
3049,10
3050,10
3051,10
3052,10
3053,10
3054,10
3055,10
3056,10
3057,10
3058,10
3059,10
3060,10
3061,10
3062,10
3063,10
3064,10
3065,10
3066,10
3067,10
3068,11
3069,11
3070,10
3071,10
3072,10
3073,10
3074,10
3075,10
3076,10
3077,10
3078,10
3079,10
3080,10
3081,10
3082,10
3083,10
3084,10
3085,10
3086,10
3087,10
3088,10
3089,10
3090,10
3091,10
3092,10
3093,10
3094,10
3095,10
3096,10
3097,10
3098,10
3099,10
3100,10
3101,10
3102,10
3103,10
3104,10
3105,10
3106,10
3107,10
3108,10
3109,10
3110,10
3111,10
3112,10
3113,10
3114,10
3115,10
3116,10
3117,10
3118,10
3119,10
3120,10
3121,10
3122,10
3123,10
3124,10
3125,10
3126,10
3127,10
3128,10
3129,10
3130,11
3131,10
3132,10
3133,10
3134,10
3135,10
3136,10
3137,10
3138,10
3139,10
3140,10
3141,10
3142,10
3143,10
3144,10
3145,10
3146,10
3147,10
3148,10
3149,10
3150,10
3151,10
3152,10
3153,10
3154,10
3155,10
3156,10
3157,10
3158,10
3159,10
3160,10
3161,10
3162,10
3163,10
3164,10
3165,10
3166,11
3167,11
3168,11
3169,11
3170,11
3171,11
3172,11
3173,11
3174,11
3175,11
3176,11
3177,11
3178,11
3179,11
3180,11
3181,11
3182,11
3183,11
3184,11
3185,11
3186,11
3187,11
3188,11
3189,11
3190,11
3191,11
3192,11
3193,11
3194,11
3195,11
3196,11
3197,11
3198,11
3199,11
3200,11
3201,11
3202,11
3203,11
3204,11
3205,11
3206,11
3207,11
3208,11
3209,11
3210,11
3211,11
3212,11
3213,11
3214,11
3215,11
3216,11
3217,11
3218,11
3219,11
3220,11
3221,11
3222,11
3223,11
3224,11
3225,11
3226,11
3227,11
3228,11
3229,11
3230,11
3231,11
3232,11
3233,11
3234,11
3235,11
3236,11
3237,11
3238,11
3239,11
3240,12
3241,12
3242,12
3243,12
3244,12
3245,12
3246,12
3247,12
3248,12
3249,12
3250,12
3251,12
3252,12
3253,13
3254,12
3255,12
3256,12
3257,12
3258,12
3259,12
3260,12
3261,13
3262,12
3263,12
3264,12
3265,12
3266,12
3267,12
3268,12
3269,12
3270,12
3271,12
3272,12
3273,12
3274,12
3275,12
3276,12
3277,12
3278,12
3279,12
3280,12
3281,12
3282,12
3283,12
3284,12
3285,12
3286,12
3287,12
3288,13
3289,13
3290,13
3291,13
3292,13
3293,12
3294,12
3295,12
3296,12
3297,12
3298,12
3299,12
3300,12
3301,12
3302,12
3303,12
3304,12
3305,13
3306,13
3307,13
3308,13
3309,12
3310,12
3311,12
3312,12
3313,12
3314,12
3315,12
3316,12
3317,12
3318,12
3319,12
3320,12
3321,12
3322,12
3323,12
3324,12
3325,12
3326,12
3327,12
3328,12
3329,12
3330,12
3331,12
3332,12
3333,12
3334,12
3335,12
3336,12
3337,12
3338,12
3339,12
3340,12
3341,12
3342,12
3343,12
3344,12
3345,13
3346,12
3347,12
3348,12
3349,12
3350,12
3351,12
3352,12
3353,12
3354,12
3355,12
3356,12
3357,12
3358,12
3359,12
3360,12
3361,12
3362,12
3363,12
3364,12
3365,12
3366,12
3367,12
3368,12
3369,12
3370,12
3371,12
3372,12
3373,12
3374,12
3375,12
3376,12
3377,12
3378,12
3379,12
3380,12
3381,12
3382,12
3383,12
3384,12
3385,12
3386,12
3387,12
3388,12
3389,12
3390,12
3391,12
3392,12
3393,12
3394,12
3395,12
3396,12
3397,12
3398,12
3399,12
3400,12
3401,12
3402,12
3403,12
3404,12
3405,12
3406,12
3407,12
3408,12
3409,12
3410,12
3411,12
3412,12
3413,12
3414,12
3415,12
3416,12
3417,12
3418,12
3419,12
3420,12
3421,12
3422,12
3423,12
3424,12
3425,12
3426,12
3427,12
3428,12
3429,12
3430,12
3431,12
3432,12
3433,12
3434,12
3435,12
3436,12
3437,12
3438,12
3439,12
3440,12
3441,12
3442,12
3443,12
3444,12
3445,12
3446,12
3447,12
3448,12
3449,12
3450,12
3451,12
3452,12
3453,12
3454,12
3455,13
3456,12
3457,12
3458,12
3459,12
3460,12
3461,12
3462,12
3463,12
3464,12
3465,12
3466,12
3467,12
3468,12
3469,12
3470,12
3471,12
3472,12
3473,12
3474,12
3475,12
3476,12
3477,12
3478,12
3479,12
3480,12
3481,12
3482,12
3483,12
3484,12
3485,12
3486,12
3487,12
3488,12
3489,12
3490,12
3491,12
3492,12
3493,12
3494,12
3495,12
3496,12
3497,12
3498,12
3499,12
3500,12
3501,12
3502,12
3503,12
3504,12
3505,12
3506,12
3507,12
3508,13
3509,13
3510,13
3511,13
3512,12
3513,12
3514,12
3515,13
3516,13
3517,12
3518,12
3519,12
3520,12
3521,12
3522,12
3523,12
3524,12
3525,12
3526,12
3527,12
3528,12
3529,12
3530,12
3531,12
3532,12
3533,12
3534,12
3535,12
3536,12
3537,12
3538,12
3539,12
3540,12
3541,12
3542,12
3543,12
3544,12
3545,12
3546,12
3547,12
3548,12
3549,12
3550,12
3551,12
3552,12
3553,12
3554,12
3555,12
3556,12
3557,12
3558,12
3559,12
3560,12
3561,12
3562,12
3563,12
3564,12
3565,12
3566,12
3567,12
3568,12
3569,12
3570,12
3571,12
3572,12
3573,12
3574,12
3575,12
3576,12
3577,12
3578,12
3579,12
3580,12
3581,12
3582,12
3583,12
3584,12
3585,12
3586,12
3587,12
3588,12
3589,12
3590,12
3591,12
3592,12
3593,12
3594,13
3595,13
3596,13
3597,13
3598,13
3599,13
3600,13
3601,13
3602,14
3603,14
3604,14
3605,14
3606,13
3607,13
3608,13
3609,13
3610,13
3611,13
3612,13
3613,13
3614,13
3615,13
3616,13
3617,13
3618,13
3619,13
3620,13
3621,13
3622,13
3623,13
3624,13
3625,13
3626,13
3627,13
3628,13
3629,13
3630,13
3631,13
3632,13
3633,13
3634,13
3635,13
3636,13
3637,13
3638,13
3639,13
3640,13
3641,13
3642,13
3643,13
3644,13
3645,13
3646,13
3647,13
3648,13
3649,13
3650,13
3651,13
3652,13
3653,13
3654,13
3655,13
3656,13
3657,13
3658,13
3659,13
3660,13
3661,13
3662,13
3663,13
3664,13
3665,13
3666,13
3667,13
3668,13
3669,13
3670,13
3671,13
3672,13
3673,13
3674,13
3675,13
3676,13
3677,13
3678,13
3679,13
3680,13
3681,13
3682,13
3683,13
3684,13
3685,13
3686,13
3687,13
3688,13
3689,13
3690,13
3691,13
3692,13
3693,13
3694,13
3695,13
3696,13
3697,13
3698,13
3699,13
3700,13
3701,13
3702,13
3703,13
3704,13
3705,13
3706,13
3707,13
3708,13
3709,13
3710,13
3711,13
3712,13
3713,13
3714,13
3715,13
3716,13
3717,13
3718,13
3719,13
3720,13
3721,13
3722,13
3723,13
3724,13
3725,13
3726,13
3727,13
3728,13
3729,13
3730,13
3731,13
3732,13
3733,13
3734,13
3735,13
3736,13
3737,13
3738,13
3739,13
3740,13
3741,13
3742,13
3743,13
3744,13
3745,13
3746,13
3747,13
3748,13
3749,13
3750,13
3751,13
3752,13
3753,13
3754,13
3755,13
3756,13
3757,13
3758,13
3759,13
3760,13
3761,13
3762,13
3763,13
3764,13
3765,13
3766,13
3767,13
3768,13
3769,13
3770,13
3771,13
3772,13
3773,13
3774,13
3775,13
3776,13
3777,13
3778,13
3779,13
3780,13
3781,13
3782,13
3783,14
3784,14
3785,14
3786,14
3787,14
3788,14
3789,14
3790,14
3791,14
3792,14
3793,14
3794,14
3795,14
3796,14
3797,14
3798,14
3799,14
3800,14
3801,14
3802,14
3803,14
3804,14
3805,14
3806,14
3807,14
3808,14
3809,14
3810,14
3811,14
3812,14
3813,14
3814,14
3815,14
3816,14
3817,14
3818,14
3819,14
3820,14
3821,14
3822,14
3823,14
3824,14
3825,14
3826,14
3827,14
3828,14
3829,14
3830,14
3831,14
3832,14
3833,14
3834,14
3835,14
3836,14
3837,14
3838,14
3839,14
3840,14
3841,14
3842,14
3843,14
3844,14
3845,14
3846,14
3847,15
3848,15
3849,15
3850,14
3851,14
3852,14
3853,14
3854,14
3855,14
3856,14
3857,14
3858,14
3859,14
3860,14
3861,14
3862,14
3863,14
3864,14
3865,14
3866,14
3867,14
3868,14
3869,14
3870,14
3871,14
3872,14
3873,14
3874,14
3875,14
3876,14
3877,14
3878,14
3879,14
3880,14
3881,14
3882,14
3883,14
3884,14
3885,14
3886,14
3887,14
3888,14
3889,14
3890,14
3891,14
3892,14
3893,14
3894,14
3895,14
3896,14
3897,14
3898,14
3899,14
3900,14
3901,15
3902,15
3903,15
3904,14
3905,14
3906,14
3907,14
3908,14
3909,14
3910,14
3911,14
3912,15
3913,14
3914,15
3915,15
3916,15
3917,15
3918,15
3919,15
3920,15
3921,15
3922,15
3923,15
3924,15
3925,15
3926,15
3927,15
3928,15
3929,15
3930,15
3931,15
3932,15
3933,15
3934,15
3935,15
3936,15
3937,15
3938,15
3939,15
3940,15
3941,15
3942,15
3943,15
3944,15
3945,15
3946,15
3947,15
3948,15
3949,15
3950,15
3951,15
3952,15
3953,15
3954,15
3955,15
3956,15
3957,15
3958,15
3959,15
3960,15
3961,15
3962,15
3963,15
3964,15
3965,16
3966,16
3967,16
3968,16
3969,15
3970,15
3971,15
3972,15
3973,15
3974,15
3975,15
3976,15
3977,15
3978,15
3979,15
3980,15
3981,15
3982,15
3983,15
3984,15
3985,15
3986,15
3987,15
3988,15
3989,15
3990,15
3991,15
3992,15
3993,15
3994,15
3995,15
3996,15
3997,15
3998,15
3999,15
4000,15
4001,15
4002,15
4003,15
4004,15
4005,15
4006,15
4007,15
4008,15
4009,15
4010,15
4011,15
4012,15
4013,15
4014,15
4015,15
4016,15
4017,15
4018,15
4019,15
4020,15
4021,16
4022,16
4023,16
4024,16
4025,15
4026,15
4027,15
4028,15
4029,15
4030,15
4031,15
4032,15
4033,15
4034,15
4035,15
4036,15
4037,15
4038,15
4039,15
4040,15
4041,15
4042,15
4043,15
4044,15
4045,15
4046,15
4047,15
4048,15
4049,15
4050,15
4051,15
4052,15
4053,15
4054,15
4055,15
4056,15
4057,15
4058,15
4059,15
4060,15
4061,15
4062,15
4063,15
4064,15
4065,15
4066,15
4067,15
4068,15
4069,15
4070,15
4071,15
4072,15
4073,15
4074,15
4075,15
4076,15
4077,15
4078,15
4079,15
4080,15
4081,15
4082,15
4083,15
4084,15
4085,15
4086,15
4087,15
4088,15
4089,15
4090,15
4091,15
4092,15
4093,15
4094,15
4095,15
4096,15
4097,15
4098,15
4099,15
4100,15
4101,15
4102,15
4103,15
4104,15
4105,15
4106,15
4107,15
4108,15
4109,15
4110,15
4111,15
4112,15
4113,15
4114,15
4115,15
4116,15
4117,15
4118,15
4119,15
4120,15
4121,15
4122,15
4123,15
4124,15
4125,15
4126,15
4127,15
4128,15
4129,15
4130,15
4131,15
4132,15
4133,15
4134,15
4135,15
4136,15
4137,15
4138,15
4139,15
4140,15
4141,15
4142,15
4143,15
4144,15
4145,15
4146,15
4147,15
4148,16
4149,16
4150,15
4151,15
4152,15
4153,15
4154,15
4155,15
4156,15
4157,15
4158,15
4159,15
4160,15
4161,15
4162,15
4163,15
4164,15
4165,15
4166,15
4167,15
4168,15
4169,15
4170,15
4171,15
4172,15
4173,15
4174,15
4175,15
4176,15
4177,15
4178,15
4179,15
4180,15
4181,15
4182,15
4183,15
4184,15
4185,15
4186,15
4187,15
4188,15
4189,15
4190,15
4191,15
4192,15
4193,15
4194,15
4195,15
4196,15
4197,15
4198,15
4199,15
4200,15
4201,15
4202,15
4203,15
4204,15
4205,15
4206,15
4207,15
4208,15
4209,15
4210,15
4211,15
4212,15
4213,15
4214,15
4215,15
4216,15
4217,15
4218,15
4219,15
4220,15
4221,15
4222,15
4223,15
4224,15
4225,15
4226,15
4227,15
4228,15
4229,15
4230,15
4231,15
4232,15
4233,15
4234,15
4235,15
4236,15
4237,15
4238,15
4239,15
4240,15
4241,15
4242,15
4243,15
4244,15
4245,15
4246,15
4247,15
4248,15
4249,15
4250,15
4251,15
4252,15
4253,15
4254,15
4255,15
4256,15
4257,15
4258,15
4259,15
4260,15
4261,15
4262,15
4263,15
4264,15
4265,15
4266,15
4267,15
4268,15
4269,15
4270,15
4271,15
4272,15
4273,15
4274,15
4275,15
4276,15
4277,15
4278,15
4279,15
4280,15
4281,15
4282,15
4283,15
4284,15
4285,15
4286,15
4287,15
4288,15
4289,15
4290,15
4291,15
4292,15
4293,15
4294,15
4295,15
4296,15
4297,15
4298,15
4299,15
4300,15
4301,15
4302,15
4303,15
4304,15
4305,15
4306,15
4307,15
4308,15
4309,15
4310,15
4311,15
4312,15
4313,15
4314,15
4315,15
4316,15
4317,15
4318,15
4319,15
4320,15
4321,15
4322,15
4323,16
4324,15
4325,15
4326,15
4327,15
4328,15
4329,15
4330,15
4331,15
4332,15
4333,15
4334,15
4335,15
4336,15
4337,15
4338,15
4339,15
4340,15
4341,15
4342,15
4343,15
4344,15
4345,15
4346,15
4347,15
4348,15
4349,15
4350,15
4351,15
4352,15
4353,15
4354,15
4355,15
4356,15
4357,15
4358,15
4359,15
4360,15
4361,15
4362,15
4363,15
4364,15
4365,15
4366,15
4367,15
4368,15
4369,15
4370,15
4371,15
4372,15
4373,15
4374,15
4375,15
4376,15
4377,15
4378,15
4379,15
4380,15
4381,15
4382,15
4383,15
4384,15
4385,15
4386,15
4387,15
4388,15
4389,15
4390,15
4391,15
4392,15
4393,15
4394,15
4395,15
4396,15
4397,15
4398,15
4399,15
4400,15
4401,15
4402,15
4403,15
4404,15
4405,15
4406,15
4407,15
4408,15
4409,15
4410,15
4411,15
4412,15
4413,15
4414,15
4415,15
4416,15
4417,15
4418,15
4419,15
4420,15
4421,15
4422,15
4423,15
4424,15
4425,15
4426,15
4427,15
4428,15
4429,15
4430,15
4431,15
4432,15
4433,15
4434,15
4435,15
4436,15
4437,15
4438,15
4439,15
4440,15
4441,15
4442,15
4443,15
4444,15
4445,15
4446,15
4447,15
4448,15
4449,15
4450,15
4451,15
4452,15
4453,15
4454,15
4455,15
4456,15
4457,15
4458,15
4459,15
4460,15
4461,15
4462,15
4463,15
4464,15
4465,15
4466,15
4467,15
4468,15
4469,15
4470,15
4471,15
4472,15
4473,15
4474,15
4475,15
4476,15
4477,15
4478,15
4479,15
4480,15
4481,15
4482,15
4483,15
4484,15
4485,15
4486,15
4487,15
4488,15
4489,15
4490,15
4491,15
4492,15
4493,15
4494,15
4495,15
4496,15
4497,15
4498,15
4499,15
4500,15
4501,15
4502,15
4503,15
4504,15
4505,15
4506,15
4507,15
4508,15
4509,15
4510,15
4511,15
4512,15
4513,15
4514,15
4515,15
4516,15
4517,15
4518,15
4519,15
4520,15
4521,15
4522,15
4523,15
4524,15
4525,15
4526,15
4527,15
4528,15
4529,15
4530,15
4531,15
4532,15
4533,15
4534,15
4535,15
4536,15
4537,15
4538,15
4539,15
4540,15
4541,15
4542,15
4543,15
4544,15
4545,15
4546,15
4547,15
4548,15
4549,16
4550,15
4551,15
4552,15
4553,15
4554,15
4555,15
4556,15
4557,15
4558,15
4559,15
4560,15
4561,15
4562,15
4563,15
4564,15
4565,15
4566,15
4567,15
4568,15
4569,15
4570,15
4571,15
4572,15
4573,15
4574,15
4575,15
4576,15
4577,15
4578,15
4579,15
4580,15
4581,15
4582,15
4583,15
4584,15
4585,15
4586,15
4587,15
4588,15
4589,15
4590,15
4591,15
4592,15
4593,15
4594,15
4595,15
4596,15
4597,15
4598,15
4599,15
4600,15
4601,15
4602,15
4603,15
4604,15
4605,15
4606,15
4607,15
4608,15
4609,15
4610,15
4611,15
4612,15
4613,15
4614,15
4615,15
4616,15
4617,15
4618,15
4619,15
4620,15
4621,15
4622,15
4623,15
4624,15
4625,15
4626,15
4627,15
4628,15
4629,15
4630,15
4631,15
4632,15
4633,15
4634,15
4635,15
4636,15
4637,15
4638,15
4639,15
4640,15
4641,15
4642,15
4643,15
4644,16
4645,15
4646,15
4647,15
4648,15
4649,15
4650,15
4651,15
4652,15
4653,15
4654,15
4655,15
4656,15
4657,15
4658,15
4659,15
4660,15
4661,15
4662,15
4663,15
4664,15
4665,15
4666,15
4667,15
4668,15
4669,15
4670,15
4671,15
4672,15
4673,15
4674,15
4675,15
4676,15
4677,15
4678,15
4679,15
4680,15
4681,15
4682,15
4683,15
4684,15
4685,15
4686,15
4687,15
4688,15
4689,15
4690,15
4691,15
4692,15
4693,15
4694,15
4695,15
4696,15
4697,15
4698,15
4699,15
4700,15
4701,15
4702,15
4703,15
4704,15
4705,15
4706,15
4707,15
4708,15
4709,15
4710,15
4711,15
4712,15
4713,15
4714,15
4715,15
4716,15
4717,15
4718,15
4719,15
4720,15
4721,15
4722,15
4723,15
4724,15
4725,15
4726,15
4727,15
4728,15
4729,15
4730,15
4731,15
4732,15
4733,15
4734,15
4735,15
4736,15
4737,15
4738,15
4739,15
4740,15
4741,15
4742,15
4743,15
4744,15
4745,15
4746,15
4747,15
4748,15
4749,15
4750,15
4751,15
4752,15
4753,15
4754,15
4755,15
4756,15
4757,15
4758,15
4759,15
4760,15
4761,15
4762,15
4763,15
4764,15
4765,15
4766,15
4767,15
4768,15
4769,15
4770,15
4771,15
4772,15
4773,15
4774,15
4775,15
4776,16
4777,16
4778,15
4779,15
4780,15
4781,15
4782,15
4783,15
4784,15
4785,15
4786,15
4787,15
4788,15
4789,15
4790,15
4791,15
4792,15
4793,15
4794,15
4795,15
4796,15
4797,15
4798,15
4799,15
4800,15
4801,15
4802,15
4803,15
4804,15
4805,15
4806,15
4807,15
4808,15
4809,15
4810,15
4811,15
4812,15
4813,15
4814,15
4815,15
4816,15
4817,15
4818,15
4819,15
4820,15
4821,15
4822,15
4823,15
4824,15
4825,15
4826,15
4827,15
4828,15
4829,15
4830,15
4831,15
4832,15
4833,15
4834,15
4835,15
4836,15
4837,15
4838,15
4839,15
4840,15
4841,15
4842,15
4843,15
4844,15
4845,15
4846,15
4847,15
4848,16
4849,15
4850,15
4851,15
4852,15
4853,15
4854,15
4855,15
4856,15
4857,15
4858,15
4859,15
4860,15
4861,15
4862,15
4863,15
4864,15
4865,15
4866,15
4867,15
4868,15
4869,15
4870,15
4871,15
4872,15
4873,15
4874,15
4875,15
4876,15
4877,15
4878,15
4879,15
4880,15
4881,15
4882,15
4883,15
4884,15
4885,15
4886,15
4887,15
4888,15
4889,15
4890,15
4891,15
4892,15
4893,15
4894,15
4895,15
4896,15
4897,15
4898,15
4899,15
4900,15
4901,15
4902,15
4903,15
4904,15
4905,15
4906,15
4907,15
4908,15
4909,15
4910,15
4911,15
4912,15
4913,15
4914,15
4915,15
4916,15
4917,15
4918,15
4919,15
4920,15
4921,15
4922,15
4923,15
4924,15
4925,15
4926,15
4927,15
4928,15
4929,15
4930,15
4931,15
4932,15
4933,15
4934,15
4935,15
4936,15
4937,15
4938,15
4939,15
4940,15
4941,15
4942,15
4943,15
4944,15
4945,15
4946,15
4947,15
4948,15
4949,15
4950,15
4951,15
4952,15
4953,15
4954,15
4955,15
4956,15
4957,15
4958,15
4959,15
4960,15
4961,15
4962,15
4963,15
4964,15
4965,15
4966,15
4967,15
4968,15
4969,15
4970,15
4971,15
4972,15
4973,15
4974,15
4975,15
4976,15
4977,15
4978,15
4979,15
4980,15
4981,15
4982,15
4983,15
4984,15
4985,15
4986,15
4987,15
4988,15
4989,15
4990,15
4991,15
4992,15
4993,15
4994,15
4995,15
4996,15
4997,15
4998,15
4999,15
5000,15
5001,15
5002,15
5003,15
5004,15
5005,15
5006,15
5007,15
5008,15
5009,15
5010,15
5011,15
5012,15
5013,15
5014,15
5015,15
5016,15
5017,15
5018,15
5019,15
5020,15
5021,15
5022,15
5023,15
5024,15
5025,15
5026,15
5027,15
5028,15
5029,15
5030,15
5031,15
5032,15
5033,15
5034,15
5035,15
5036,15
5037,15
5038,15
5039,15
5040,15
5041,15
5042,15
5043,15
5044,15
5045,15
5046,15
5047,15
5048,15
5049,15
5050,15
5051,15
5052,15
5053,15
5054,15
5055,15
5056,15
5057,15
5058,15
5059,15
5060,15
5061,15
5062,15
5063,15
5064,15
5065,15
5066,15
5067,15
5068,15
5069,15
5070,15
5071,15
5072,15
5073,15
5074,15
5075,15
5076,15
5077,15
5078,15
5079,15
5080,15
5081,15
5082,15
5083,15
5084,15
5085,15
5086,15
5087,15
5088,15
5089,15
5090,15
5091,15
5092,15
5093,15
5094,15
5095,15
5096,15
5097,15
5098,15
5099,15
5100,15
5101,15
5102,15
5103,15
5104,15
5105,15
5106,15
5107,15
5108,15
5109,15
5110,15
5111,15
5112,15
5113,15
5114,15
5115,15
5116,15
5117,15
5118,15
5119,15
5120,15
5121,15
5122,15
5123,15
5124,15
5125,15
5126,15
5127,15
5128,15
5129,15
5130,15
5131,15
5132,15
5133,15
5134,15
5135,15
5136,15
5137,15
5138,15
5139,15
5140,15
5141,15
5142,15
5143,15
5144,15
5145,15
5146,15
5147,15
5148,15
5149,15
5150,15
5151,15
5152,15
5153,15
5154,15
5155,15
5156,15
5157,15
5158,15
5159,15
5160,15
5161,15
5162,15
5163,15
5164,15
5165,15
5166,15
5167,15
5168,15
5169,15
5170,15
5171,15
5172,15
5173,15
5174,15
5175,15
5176,15
5177,15
5178,15
5179,15
5180,15
5181,15
5182,15
5183,15
5184,15
5185,15
5186,15
5187,15
5188,15
5189,15
5190,15
5191,15
5192,15
5193,15
5194,15
5195,15
5196,15
5197,15
5198,15
5199,15
5200,15
5201,15
5202,15
5203,15
5204,15
5205,15
5206,15
5207,15
5208,15
5209,15
5210,15
5211,15
5212,15
5213,15
5214,15
5215,15
5216,15
5217,15
5218,15
5219,15
5220,15
5221,15
5222,15
5223,15
5224,15
5225,15
5226,15
5227,15
5228,15
5229,15
5230,15
5231,15
5232,15
5233,15
5234,15
5235,15
5236,15
5237,15
5238,15
5239,15
5240,15
5241,15
5242,15
5243,15
5244,15
5245,15
5246,15
5247,15
5248,15
5249,15
5250,15
5251,15
5252,15
5253,15
5254,15
5255,15
5256,15
5257,15
5258,15
5259,15
5260,15
5261,15
5262,15
5263,15
5264,15
5265,16
5266,16
5267,15
5268,15
5269,15
5270,15
5271,15
5272,15
5273,15
5274,15
5275,15
5276,15
5277,15
5278,15
5279,15
5280,15
5281,15
5282,15
5283,15
5284,15
5285,15
5286,15
5287,15
5288,15
5289,15
5290,15
5291,15
5292,15
5293,15
5294,16
5295,15
5296,15
5297,15
5298,15
5299,15
5300,15
5301,15
5302,15
5303,15
5304,15
5305,15
5306,15
5307,15
5308,15
5309,15
5310,15
5311,15
5312,15
5313,15
5314,15
5315,15
5316,15
5317,15
5318,15
5319,15
5320,15
5321,15
5322,15
5323,15
5324,15
5325,15
5326,15
5327,15
5328,15
5329,15
5330,15
5331,15
5332,15
5333,15
5334,15
5335,15
5336,15
5337,15
5338,15
5339,15
5340,15
5341,15
5342,15
5343,15
5344,15
5345,15
5346,15
5347,15
5348,15
5349,15
5350,15
5351,15
5352,15
5353,15
5354,15
5355,15
5356,15
5357,16
5358,16
5359,16
5360,16
5361,16
5362,16
5363,16
5364,16
5365,16
5366,16
5367,16
5368,16
5369,16
5370,16
5371,16
5372,16
5373,16
5374,16
5375,16
5376,15
5377,15
5378,15
5379,15
5380,15
5381,15
5382,15
5383,15
5384,15
5385,15
5386,15
5387,15
5388,15
5389,15
5390,15
5391,15
5392,15
5393,15
5394,15
5395,15
5396,15
5397,15
5398,15
5399,15
5400,15
5401,15
5402,15
5403,15
5404,15
5405,15
5406,15
5407,15
5408,15
5409,15
5410,15
5411,15
5412,15
5413,15
5414,15
5415,15
5416,15
5417,15
5418,15
5419,15
5420,15
5421,15
5422,15
5423,15
5424,15
5425,15
5426,15
5427,15
5428,15
5429,15
5430,15
5431,15
5432,15
5433,15
5434,15
5435,15
5436,15
5437,15
5438,15
5439,15
5440,15
5441,15
5442,15
5443,15
5444,15
5445,15
5446,15
5447,15
5448,15
5449,15
5450,15
5451,15
5452,15
5453,15
5454,15
5455,15
5456,15
5457,15
5458,15
5459,15
5460,15
5461,15
5462,15
5463,15
5464,15
5465,16
5466,16
5467,16
5468,16
5469,16
5470,16
5471,16
5472,16
5473,16
5474,16
5475,16
5476,16
5477,16
5478,16
5479,16
5480,16
5481,16
5482,16
5483,16
5484,16
5485,15
5486,15
5487,15
5488,15
5489,15
5490,15
5491,15
5492,15
5493,15
5494,15
5495,15
5496,15
5497,15
5498,15
5499,15
5500,15
5501,15
5502,15
5503,15
5504,15
5505,15
5506,15
5507,15
5508,15
5509,15
5510,15
5511,15
5512,15
5513,15
5514,15
5515,15
5516,15
5517,15
5518,15
5519,15
5520,15
5521,15
5522,15
5523,15
5524,15
5525,15
5526,15
5527,15
5528,15
5529,15
5530,15
5531,15
5532,15
5533,15
5534,15
5535,15
5536,15
5537,15
5538,15
5539,15
5540,15
5541,15
5542,15
5543,15
5544,15
5545,15
5546,15
5547,15
5548,15
5549,15
5550,15
5551,15
5552,15
5553,15
5554,15
5555,15
5556,15
5557,15
5558,15
5559,15
5560,15
5561,15
5562,15
5563,15
5564,15
5565,15
5566,15
5567,15
5568,15
5569,15
5570,15
5571,15
5572,15
5573,15
5574,15
5575,15
5576,15
5577,15
5578,15
5579,15
5580,15
5581,15
5582,15
5583,15
5584,15
5585,15
5586,15
5587,15
5588,15
5589,15
5590,15
5591,15
5592,15
5593,15
5594,15
5595,15
5596,15
5597,15
5598,15
5599,15
5600,15
5601,15
5602,15
5603,15
5604,15
5605,15
5606,15
5607,15
5608,15
5609,15
5610,15
5611,15
5612,15
5613,15
5614,16
5615,16
5616,16
5617,15
5618,15
5619,15
5620,15
5621,15
5622,15
5623,15
5624,15
5625,15
5626,15
5627,15
5628,15
5629,15
5630,15
5631,15
5632,15
5633,15
5634,15
5635,15
5636,15
5637,15
5638,15
5639,15
5640,15
5641,15
5642,15
5643,15
5644,15
5645,15
5646,15
5647,15
5648,15
5649,15
5650,15
5651,15
5652,15
5653,15
5654,15
5655,15
5656,15
5657,15
5658,16
5659,15
5660,15
5661,15
5662,15
5663,15
5664,15
5665,15
5666,15
5667,15
5668,15
5669,15
5670,15
5671,15
5672,15
5673,15
5674,15
5675,15
5676,15
5677,15
5678,15
5679,15
5680,15
5681,15
5682,15
5683,15
5684,15
5685,15
5686,15
5687,15
5688,15
5689,15
5690,15
5691,15
5692,15
5693,15
5694,15
5695,15
5696,15
5697,15
5698,15
5699,15
5700,15
5701,15
5702,15
5703,15
5704,15
5705,15
5706,15
5707,15
5708,16
5709,16
5710,16
5711,16
5712,16
5713,16
5714,16
5715,16
5716,16
5717,16
5718,16
5719,16
5720,16
5721,16
5722,16
5723,16
5724,16
5725,16
5726,16
5727,16
5728,16
5729,16
5730,16
5731,16
5732,16
5733,16
5734,16
5735,16
5736,16
5737,16
5738,16
5739,16
5740,16
5741,16
5742,16
5743,16
5744,16
5745,16
5746,16
5747,16
5748,16
5749,16
5750,16
5751,16
5752,16
5753,16
5754,16
5755,16
5756,16
5757,16
5758,16
5759,16
5760,16
5761,16
5762,16
5763,16
5764,16
5765,16
5766,16
5767,16
5768,16
5769,16
5770,16
5771,16
5772,16
5773,16
5774,16
5775,16
5776,16
5777,16
5778,16
5779,16
5780,16
5781,16
5782,16
5783,16
5784,16
5785,16
5786,16
5787,16
5788,16
5789,16
5790,16
5791,16
5792,16
5793,16
5794,16
5795,16
5796,16
5797,16
5798,16
5799,16
5800,16
5801,16
5802,16
5803,16
5804,16
5805,16
5806,16
5807,16
5808,16
5809,16
5810,16
5811,16
5812,16
5813,16
5814,16
5815,16
5816,16
5817,16
5818,16
5819,16
5820,16
5821,16
5822,16
5823,16
5824,16
5825,16
5826,16
5827,16
5828,16
5829,17
5830,17
5831,16
5832,16
5833,16
5834,16
5835,16
5836,16
5837,16
5838,16
5839,16
5840,16
5841,16
5842,16
5843,16
5844,16
5845,16
5846,16
5847,16
5848,16
5849,16
5850,16
5851,16
5852,16
5853,16
5854,16
5855,16
5856,16
5857,16
5858,16
5859,16
5860,16
5861,16
5862,16
5863,16
5864,16
5865,16
5866,16
5867,16
5868,16
5869,16
5870,16
5871,16
5872,16
5873,16
5874,16
5875,16
5876,16
5877,16
5878,16
5879,16
5880,16
5881,16
5882,16
5883,16
5884,16
5885,16
5886,16
5887,16
5888,16
5889,16
5890,16
5891,16
5892,16
5893,16
5894,16
5895,16
5896,16
5897,16
5898,16
5899,16
5900,16
5901,16
5902,16
5903,16
5904,16
5905,16
5906,16
5907,16
5908,16
5909,16
5910,16
5911,16
5912,16
5913,16
5914,16
5915,16
5916,16
5917,16
5918,16
5919,16
5920,16
5921,16
5922,16
5923,16
5924,16
5925,16
5926,16
5927,16
5928,16
5929,16
5930,16
5931,16
5932,16
5933,16
5934,16
5935,16
5936,16
5937,16
5938,16
5939,16
5940,16
5941,16
5942,16
5943,16
5944,16
5945,16
5946,16
5947,16
5948,16
5949,16
5950,16
5951,16
5952,16
5953,16
5954,16
5955,16
5956,16
5957,16
5958,16
5959,16
5960,16
5961,16
5962,16
5963,16
5964,16
5965,16
5966,16
5967,16
5968,16
5969,16
5970,16
5971,16
5972,16
5973,16
5974,16
5975,16
5976,16
5977,16
5978,16
5979,16
5980,16
5981,16
5982,16
5983,16
5984,16
5985,16
5986,16
5987,16
5988,16
5989,16
5990,16
5991,16
5992,16
5993,17
5994,17
5995,17
5996,16
5997,16
5998,16
5999,16
6000,16
6001,16
6002,16
6003,16
6004,16
6005,16
6006,16
6007,16
6008,16
6009,16
6010,16
6011,16
6012,16
6013,16
6014,16
6015,16
6016,16
6017,16
6018,16
6019,16
6020,16
6021,16
6022,16
6023,16
6024,16
6025,16
6026,17
6027,16
6028,16
6029,16
6030,16
6031,16
6032,16
6033,16
6034,16
6035,16
6036,16
6037,16
6038,16
6039,16
6040,16
6041,16
6042,16
6043,16
6044,16
6045,16
6046,16
6047,16
6048,16
6049,16
6050,16
6051,16
6052,16
6053,16
6054,16
6055,16
6056,16
6057,16
6058,16
6059,16
6060,16
6061,16
6062,16
6063,16
6064,16
6065,16
6066,16
6067,16
6068,16
6069,17
6070,16
6071,16
6072,16
6073,16
6074,16
6075,16
6076,16
6077,16
6078,16
6079,16
6080,16
6081,16
6082,16
6083,16
6084,16
6085,16
6086,16
6087,16
6088,16
6089,16
6090,16
6091,16
6092,16
6093,16
6094,16
6095,16
6096,16
6097,16
6098,16
6099,16
6100,16
6101,16
6102,16
6103,16
6104,16
6105,16
6106,16
6107,16
6108,16
6109,16
6110,16
6111,16
6112,16
6113,16
6114,16
6115,16
6116,16
6117,16
6118,16
6119,16
6120,16
6121,16
6122,16
6123,16
6124,16
6125,16
6126,16
6127,16
6128,16
6129,16
6130,16
6131,16
6132,16
6133,16
6134,16
6135,16
6136,16
6137,16
6138,16
6139,17
6140,16
6141,16
6142,16
6143,16
6144,16
6145,16
6146,16
6147,16
6148,16
6149,16
6150,16
6151,16
6152,16
6153,16
6154,16
6155,16
6156,16
6157,16
6158,16
6159,16
6160,16
6161,16
6162,16
6163,16
6164,16
6165,16
6166,16
6167,16
6168,16
6169,16
6170,16
6171,16
6172,16
6173,16
6174,16
6175,16
6176,16
6177,16
6178,16
6179,16
6180,16
6181,16
6182,16
6183,16
6184,16
6185,16
6186,16
6187,16
6188,16
6189,16
6190,16
6191,16
6192,16
6193,16
6194,16
6195,16
6196,16
6197,16
6198,16
6199,16
6200,16
6201,16
6202,16
6203,16
6204,16
6205,16
6206,16
6207,16
6208,16
6209,16
6210,16
6211,16
6212,16
6213,16
6214,16
6215,16
6216,16
6217,16
6218,16
6219,16
6220,16
6221,16
6222,16
6223,16
6224,16
6225,16
6226,16
6227,16
6228,16
6229,16
6230,16
6231,16
6232,16
6233,16
6234,16
6235,16
6236,16
6237,16
6238,16
6239,16
6240,16
6241,16
6242,16
6243,16
6244,16
6245,16
6246,16
6247,16
6248,16
6249,16
6250,16
6251,16
6252,16
6253,16
6254,16
6255,16
6256,16
6257,16
6258,16
6259,16
6260,16
6261,16
6262,16
6263,16
6264,16
6265,16
6266,16
6267,16
6268,16
6269,16
6270,16
6271,16
6272,16
6273,16
6274,16
6275,16
6276,16
6277,16
6278,16
6279,16
6280,16
6281,16
6282,16
6283,16
6284,16
6285,16
6286,16
6287,16
6288,16
6289,16
6290,16
6291,16
6292,16
6293,16
6294,16
6295,16
6296,16
6297,16
6298,16
6299,16
6300,16
6301,16
6302,16
6303,16
6304,16
6305,16
6306,16
6307,16
6308,16
6309,16
6310,16
6311,16
6312,16
6313,16
6314,16
6315,17
6316,17
6317,17
6318,17
6319,17
6320,17
6321,17
6322,17
6323,17
6324,17
6325,17
6326,17
6327,17
6328,17
6329,17
6330,17
6331,17
6332,17
6333,17
6334,17
6335,17
6336,17
6337,17
6338,17
6339,17
6340,17
6341,17
6342,17
6343,17
6344,17
6345,17
6346,17
6347,17
6348,17
6349,17
6350,17
6351,17
6352,17
6353,17
6354,18
6355,17
6356,17
6357,17
6358,17
6359,17
6360,17
6361,17
6362,17
6363,17
6364,17
6365,17
6366,17
6367,17
6368,17
6369,17
6370,17
6371,17
6372,17
6373,17
6374,17
6375,17
6376,17
6377,18
6378,17
6379,17
6380,17
6381,17
6382,17
6383,17
6384,17
6385,17
6386,17
6387,17
6388,17
6389,17
6390,17
6391,18
6392,17
6393,17
6394,17
6395,17
6396,17
6397,17
6398,17
6399,17
6400,17
6401,17
6402,17
6403,17
6404,17
6405,17
6406,17
6407,17
6408,17
6409,17
6410,17
6411,17
6412,17
6413,17
6414,17
6415,17
6416,17
6417,17
6418,17
6419,17
6420,17
6421,17
6422,17
6423,17
6424,17
6425,17
6426,17
6427,17
6428,17
6429,17
6430,17
6431,17
6432,17
6433,18
6434,17
6435,17
6436,17
6437,17
6438,17
6439,17
6440,17
6441,17
6442,17
6443,17
6444,17
6445,17
6446,17
6447,17
6448,17
6449,17
6450,17
6451,17
6452,17
6453,17
6454,17
6455,17
6456,17
6457,17
6458,17
6459,17
6460,17
6461,17
6462,17
6463,17
6464,17
6465,17
6466,17
6467,17
6468,17
6469,17
6470,17
6471,17
6472,17
6473,17
6474,17
6475,17
6476,17
6477,17
6478,17
6479,17
6480,17
6481,17
6482,17
6483,17
6484,17
6485,17
6486,17
6487,17
6488,17
6489,17
6490,17
6491,17
6492,17
6493,17
6494,17
6495,17
6496,17
6497,17
6498,17
6499,17
6500,17
6501,17
6502,17
6503,17
6504,17
6505,17
6506,17
6507,17
6508,17
6509,17
6510,17
6511,17
6512,17
6513,17
6514,17
6515,17
6516,17
6517,17
6518,17
6519,17
6520,17
6521,17
6522,17
6523,17
6524,17
6525,17
6526,17
6527,17
6528,17
6529,17
6530,17
6531,17
6532,17
6533,17
6534,17
6535,17
6536,17
6537,17
6538,17
6539,17
6540,17
6541,17
6542,17
6543,17
6544,17
6545,17
6546,17
6547,17
6548,17
6549,17
6550,17
6551,17
6552,17
6553,17
6554,17
6555,17
6556,17
6557,17
6558,17
6559,17
6560,17
6561,17
6562,17
6563,17
6564,17
6565,17
6566,17
6567,17
6568,17
6569,17
6570,17
6571,17
6572,17
6573,17
6574,17
6575,17
6576,17
6577,17
6578,17
6579,17
6580,17
6581,17
6582,17
6583,17
6584,17
6585,17
6586,17
6587,17
6588,17
6589,17
6590,17
6591,17
6592,17
6593,17
6594,17
6595,17
6596,17
6597,17
6598,17
6599,17
6600,17
6601,17
6602,17
6603,17
6604,17
6605,17
6606,17
6607,17
6608,17
6609,17
6610,17
6611,17
6612,17
6613,17
6614,17
6615,17
6616,17
6617,17
6618,17
6619,17
6620,17
6621,17
6622,17
6623,17
6624,17
6625,17
6626,17
6627,17
6628,17
6629,17
6630,17
6631,17
6632,17
6633,17
6634,17
6635,17
6636,17
6637,17
6638,17
6639,17
6640,17
6641,17
6642,17
6643,17
6644,17
6645,17
6646,17
6647,17
6648,17
6649,17
6650,17
6651,17
6652,17
6653,17
6654,17
6655,17
6656,17
6657,17
6658,17
6659,17
6660,17
6661,17
6662,17
6663,17
6664,17
6665,17
6666,17
6667,17
6668,17
6669,17
6670,17
6671,18
6672,18
6673,17
6674,17
6675,17
6676,17
6677,17
6678,17
6679,17
6680,17
6681,17
6682,17
6683,17
6684,17
6685,17
6686,17
6687,17
6688,17
6689,17
6690,17
6691,17
6692,17
6693,17
6694,17
6695,17
6696,17
6697,17
6698,17
6699,17
6700,17
6701,17
6702,17
6703,17
6704,17
6705,17
6706,17
6707,17
6708,17
6709,17
6710,17
6711,17
6712,17
6713,17
6714,17
6715,17
6716,17
6717,17
6718,17
6719,17
6720,17
6721,17
6722,17
6723,17
6724,17
6725,17
6726,17
6727,17
6728,17
6729,17
6730,17
6731,17
6732,17
6733,17
6734,17
6735,17
6736,17
6737,17
6738,17
6739,17
6740,17
6741,17
6742,17
6743,17
6744,17
6745,17
6746,17
6747,17
6748,17
6749,17
6750,17
6751,17
6752,17
6753,17
6754,17
6755,17
6756,17
6757,17
6758,17
6759,17
6760,17
6761,17
6762,17
6763,17
6764,17
6765,17
6766,17
6767,17
6768,17
6769,17
6770,17
6771,17
6772,17
6773,17
6774,17
6775,17
6776,17
6777,18
6778,17
6779,17
6780,17
6781,17
6782,17
6783,17
6784,17
6785,17
6786,17
6787,17
6788,17
6789,17
6790,17
6791,17
6792,17
6793,17
6794,17
6795,17
6796,17
6797,17
6798,17
6799,17
6800,17
6801,17
6802,17
6803,17
6804,17
6805,17
6806,17
6807,17
6808,17
6809,17
6810,17
6811,17
6812,17
6813,17
6814,17
6815,17
6816,17
6817,17
6818,17
6819,17
6820,17
6821,17
6822,17
6823,17
6824,17
6825,17
6826,17
6827,17
6828,17
6829,17
6830,17
6831,17
6832,17
6833,17
6834,17
6835,17
6836,17
6837,17
6838,17
6839,17
6840,17
6841,17
6842,17
6843,17
6844,17
6845,17
6846,17
6847,17
6848,17
6849,17
6850,17
6851,17
6852,17
6853,17
6854,17
6855,17
6856,17
6857,17
6858,17
6859,17
6860,17
6861,17
6862,17
6863,17
6864,17
6865,17
6866,17
6867,17
6868,17
6869,17
6870,17
6871,17
6872,17
6873,17
6874,17
6875,17
6876,17
6877,17
6878,17
6879,17
6880,17
6881,17
6882,17
6883,17
6884,17
6885,17
6886,17
6887,17
6888,17
6889,17
6890,17
6891,17
6892,17
6893,17
6894,17
6895,17
6896,17
6897,17
6898,17
6899,17
6900,17
6901,17
6902,17
6903,17
6904,17
6905,17
6906,17
6907,17
6908,17
6909,17
6910,17
6911,17
6912,17
6913,17
6914,17
6915,17
6916,17
6917,17
6918,17
6919,17
6920,17
6921,17
6922,17
6923,17
6924,17
6925,17
6926,17
6927,17
6928,17
6929,17
6930,17
6931,17
6932,17
6933,17
6934,17
6935,17
6936,17
6937,17
6938,17
6939,17
6940,17
6941,17
6942,17
6943,17
6944,17
6945,17
6946,17
6947,17
6948,17
6949,17
6950,17
6951,17
6952,17
6953,17
6954,17
6955,17
6956,17
6957,17
6958,17
6959,17
6960,17
6961,17
6962,17
6963,17
6964,17
6965,17
6966,17
6967,17
6968,17
6969,17
6970,17
6971,17
6972,17
6973,17
6974,17
6975,17
6976,17
6977,17
6978,17
6979,17
6980,17
6981,17
6982,17
6983,17
6984,17
6985,17
6986,17
6987,17
6988,17
6989,17
6990,17
6991,17
6992,17
6993,17
6994,17
6995,17
6996,17
6997,17
6998,17
6999,17
7000,17
7001,17
7002,17
7003,17
7004,17
7005,17
7006,17
7007,17
7008,17
7009,18
7010,18
7011,18
7012,18
7013,18
7014,18
7015,18
7016,18
7017,18
7018,18
7019,18
7020,19
7021,18
7022,18
7023,18
7024,18
7025,18
7026,18
7027,18
7028,18
7029,18
7030,18
7031,18
7032,18
7033,18
7034,18
7035,18
7036,18
7037,18
7038,18
7039,18
7040,18
7041,18
7042,18
7043,18
7044,18
7045,18
7046,18
7047,18
7048,18
7049,18
7050,18
7051,18
7052,18
7053,18
7054,18
7055,18
7056,18
7057,18
7058,18
7059,18
7060,18
7061,18
7062,18
7063,18
7064,18
7065,19
7066,19
7067,20
7068,19
7069,18
7070,18
7071,18
7072,18
7073,18
7074,18
7075,18
7076,18
7077,18
7078,18
7079,18
7080,18
7081,18
7082,18
7083,18
7084,18
7085,18
7086,18
7087,18
7088,18
7089,18
7090,18
7091,18
7092,18
7093,18
7094,18
7095,18
7096,18
7097,18
7098,18
7099,18
7100,18
7101,18
7102,18
7103,18
7104,18
7105,18
7106,18
7107,18
7108,18
7109,18
7110,18
7111,18
7112,18
7113,18
7114,18
7115,18
7116,18
7117,18
7118,18
7119,18
7120,18
7121,18
7122,18
7123,18
7124,18
7125,18
7126,18
7127,18
7128,18
7129,18
7130,18
7131,18
7132,18
7133,18
7134,18
7135,18
7136,18
7137,18
7138,18
7139,18
7140,18
7141,18
7142,18
7143,18
7144,18
7145,18
7146,18
7147,18
7148,18
7149,18
7150,18
7151,18
7152,18
7153,18
7154,18
7155,18
7156,18
7157,18
7158,18
7159,18
7160,18
7161,18
7162,18
7163,18
7164,18
7165,18
7166,18
7167,18
7168,18
7169,18
7170,18
7171,18
7172,18
7173,19
7174,18
7175,18
7176,18
7177,18
7178,18
7179,18
7180,18
7181,18
7182,18
7183,18
7184,18
7185,18
7186,18
7187,18
7188,18
7189,18
7190,18
7191,18
7192,18
7193,18
7194,18
7195,18
7196,18
7197,18
7198,18
7199,18
7200,18
7201,18
7202,18
7203,18
7204,18
7205,18
7206,18
7207,18
7208,18
7209,18
7210,18
7211,18
7212,18
7213,18
7214,18
7215,18
7216,18
7217,18
7218,18
7219,18
7220,18
7221,18
7222,18
7223,18
7224,18
7225,18
7226,18
7227,18
7228,18
7229,18
7230,18
7231,18
7232,18
7233,18
7234,18
7235,18
7236,18
7237,18
7238,18
7239,18
7240,18
7241,18
7242,18
7243,18
7244,18
7245,18
7246,18
7247,18
7248,18
7249,18
7250,18
7251,18
7252,18
7253,18
7254,18
7255,18
7256,18
7257,18
7258,18
7259,18
7260,18
7261,18
7262,18
7263,18
7264,18
7265,18
7266,18
7267,18
7268,18
7269,18
7270,18
7271,18
7272,18
7273,18
7274,18
7275,18
7276,18
7277,18
7278,19
7279,19
7280,19
7281,19
7282,19
7283,19
7284,19
7285,19
7286,19
7287,18
7288,18
7289,18
7290,18
7291,18
7292,18
7293,18
7294,18
7295,18
7296,18
7297,18
7298,18
7299,18
7300,18
7301,18
7302,18
7303,18
7304,18
7305,18
7306,18
7307,18
7308,18
7309,18
7310,18
7311,18
7312,18
7313,18
7314,18
7315,18
7316,18
7317,18
7318,18
7319,18
7320,18
7321,18
7322,18
7323,18
7324,18
7325,18
7326,18
7327,18
7328,18
7329,18
7330,18
7331,18
7332,18
7333,18
7334,18
7335,18
7336,18
7337,18
7338,18
7339,18
7340,18
7341,18
7342,18
7343,18
7344,18
7345,18
7346,18
7347,18
7348,18
7349,18
7350,18
7351,18
7352,18
7353,18
7354,18
7355,18
7356,18
7357,18
7358,18
7359,18
7360,18
7361,18
7362,18
7363,18
7364,18
7365,18
7366,18
7367,18
7368,18
7369,18
7370,18
7371,18
7372,18
7373,18
7374,18
7375,18
7376,18
7377,18
7378,18
7379,18
7380,18
7381,18
7382,18
7383,18
7384,18
7385,18
7386,18
7387,18
7388,18
7389,18
7390,18
7391,18
7392,18
7393,18
7394,18
7395,18
7396,18
7397,18
7398,18
7399,18
7400,18
7401,18
7402,18
7403,18
7404,18
7405,18
7406,18
7407,18
7408,18
7409,18
7410,18
7411,18
7412,18
7413,18
7414,18
7415,18
7416,18
7417,18
7418,18
7419,18
7420,18
7421,18
7422,18
7423,18
7424,18
7425,18
7426,18
7427,18
7428,18
7429,18
7430,18
7431,18
7432,18
7433,18
7434,18
7435,18
7436,18
7437,18
7438,18
7439,18
7440,18
7441,18
7442,18
7443,18
7444,18
7445,18
7446,18
7447,18
7448,18
7449,18
7450,18
7451,18
7452,19
7453,18
7454,18
7455,18
7456,18
7457,18
7458,18
7459,18
7460,18
7461,18
7462,18
7463,18
7464,18
7465,18
7466,18
7467,18
7468,18
7469,18
7470,18
7471,18
7472,18
7473,18
7474,18
7475,18
7476,18
7477,18
7478,18
7479,18
7480,18
7481,18
7482,18
7483,18
7484,18
7485,18
7486,18
7487,18
7488,18
7489,18
7490,18
7491,18
7492,18
7493,18
7494,18
7495,18
7496,19
7497,19
7498,19
7499,18
7500,18
7501,18
7502,19
7503,19
7504,19
7505,18
7506,18
7507,18
7508,18
7509,18
7510,18
7511,18
7512,18
7513,18
7514,18
7515,18
7516,18
7517,18
7518,18
7519,18
7520,18
7521,18
7522,18
7523,18
7524,18
7525,18
7526,18
7527,18
7528,18
7529,18
7530,18
7531,18
7532,18
7533,18
7534,18
7535,18
7536,18
7537,18
7538,18
7539,18
7540,18
7541,18
7542,18
7543,18
7544,18
7545,18
7546,18
7547,18
7548,18
7549,18
7550,18
7551,18
7552,18
7553,18
7554,18
7555,18
7556,18
7557,18
7558,18
7559,18
7560,18
7561,18
7562,18
7563,18
7564,18
7565,18
7566,18
7567,18
7568,18
7569,18
7570,18
7571,18
7572,18
7573,18
7574,18
7575,18
7576,18
7577,18
7578,18
7579,18
7580,18
7581,18
7582,18
7583,18
7584,18
7585,18
7586,18
7587,18
7588,19
7589,18
7590,18
7591,18
7592,18
7593,18
7594,18
7595,18
7596,18
7597,18
7598,18
7599,18
7600,18
7601,18
7602,18
7603,18
7604,18
7605,19
7606,19
7607,19
7608,19
7609,18
7610,18
7611,18
7612,18
7613,18
7614,18
7615,18
7616,18
7617,18
7618,18
7619,18
7620,18
7621,18
7622,18
7623,18
7624,18
7625,18
7626,18
7627,18
7628,18
7629,18
7630,18
7631,18
7632,18
7633,18
7634,18
7635,18
7636,18
7637,18
7638,18
7639,18
7640,18
7641,18
7642,18
7643,18
7644,18
7645,18
7646,18
7647,18
7648,18
7649,18
7650,18
7651,18
7652,18
7653,18
7654,18
7655,18
7656,18
7657,18
7658,18
7659,18
7660,18
7661,18
7662,18
7663,18
7664,18
7665,18
7666,18
7667,18
7668,18
7669,18
7670,18
7671,18
7672,18
7673,18
7674,18
7675,18
7676,18
7677,18
7678,18
7679,18
7680,18
7681,18
7682,18
7683,18
7684,18
7685,18
7686,18
7687,18
7688,18
7689,18
7690,18
7691,18
7692,18
7693,18
7694,18
7695,18
7696,18
7697,18
7698,18
7699,18
7700,18
7701,18
7702,18
7703,18
7704,18
7705,18
7706,18
7707,18
7708,18
7709,18
7710,18
7711,18
7712,18
7713,18
7714,18
7715,18
7716,18
7717,18
7718,19
7719,19
7720,19
7721,19
7722,19
7723,19
7724,19
7725,19
7726,19
7727,19
7728,19
7729,19
7730,19
7731,19
7732,19
7733,19
7734,18
7735,18
7736,18
7737,18
7738,18
7739,18
7740,18
7741,18
7742,18
7743,18
7744,18
7745,18
7746,18
7747,18
7748,18
7749,18
7750,18
7751,18
7752,19
7753,18
7754,18
7755,18
7756,18
7757,18
7758,18
7759,18
7760,18
7761,18
7762,18
7763,18
7764,18
7765,18
7766,18
7767,18
7768,18
7769,18
7770,18
7771,18
7772,18
7773,18
7774,18
7775,18
7776,18
7777,18
7778,18
7779,18
7780,18
7781,18
7782,18
7783,18
7784,18
7785,18
7786,18
7787,18
7788,18
7789,18
7790,18
7791,18
7792,18
7793,18
7794,18
7795,18
7796,18
7797,18
7798,18
7799,18
7800,18
7801,18
7802,18
7803,18
7804,18
7805,18
7806,18
7807,18
7808,18
7809,18
7810,18
7811,18
7812,18
7813,18
7814,18
7815,19
7816,19
7817,19
7818,19
7819,19
7820,19
7821,19
7822,18
7823,18
7824,18
7825,18
7826,18
7827,19
7828,19
7829,18
7830,18
7831,18
7832,18
7833,18
7834,18
7835,18
7836,18
7837,18
7838,18
7839,18
7840,18
7841,18
7842,18
7843,18
7844,18
7845,18
7846,18
7847,18
7848,18
7849,18
7850,18
7851,18
7852,18
7853,18
7854,18
7855,18
7856,18
7857,18
7858,18
7859,18
7860,18
7861,18
7862,18
7863,18
7864,18
7865,18
7866,18
7867,18
7868,18
7869,18
7870,18
7871,18
7872,18
7873,18
7874,18
7875,18
7876,18
7877,18
7878,18
7879,18
7880,18
7881,18
7882,18
7883,18
7884,18
7885,18
7886,18
7887,18
7888,18
7889,18
7890,18
7891,18
7892,18
7893,18
7894,18
7895,18
7896,18
7897,18
7898,18
7899,18
7900,18
7901,18
7902,18
7903,18
7904,18
7905,18
7906,18
7907,18
7908,18
7909,18
7910,18
7911,18
7912,18
7913,18
7914,18
7915,18
7916,18
7917,18
7918,18
7919,18
7920,18
7921,18
7922,18
7923,18
7924,18
7925,18
7926,18
7927,18
7928,18
7929,18
7930,18
7931,18
7932,18
7933,18
7934,18
7935,18
7936,18
7937,18
7938,18
7939,18
7940,18
7941,18
7942,18
7943,18
7944,18
7945,18
7946,18
7947,18
7948,18
7949,18
7950,18
7951,18
7952,18
7953,18
7954,19
7955,18
7956,18
7957,18
7958,18
7959,18
7960,18
7961,19
7962,19
7963,19
7964,19
7965,19
7966,19
7967,19
7968,19
7969,19
7970,19
7971,19
7972,19
7973,19
7974,19
7975,19
7976,19
7977,19
7978,19
7979,19
7980,19
7981,19
7982,19
7983,19
7984,19
7985,19
7986,19
7987,19
7988,19
7989,19
7990,19
7991,19
7992,19
7993,19
7994,19
7995,19
7996,19
7997,19
7998,19
7999,19
8000,19
8001,19
8002,19
8003,19
8004,19
8005,19
8006,19
8007,19
8008,19
8009,19
8010,19
8011,19
8012,19
8013,19
8014,19
8015,19
8016,19
8017,19
8018,19
8019,19
8020,19
8021,19
8022,19
8023,19
8024,19
8025,19
8026,19
8027,19
8028,19
8029,19
8030,19
8031,19
8032,19
8033,19
8034,19
8035,19
8036,19
8037,19
8038,19
8039,19
8040,19
8041,19
8042,19
8043,19
8044,19
8045,19
8046,19
8047,19
8048,19
8049,19
8050,19
8051,19
8052,19
8053,19
8054,19
8055,19
8056,19
8057,19
8058,19
8059,19
8060,19
8061,19
8062,19
8063,19
8064,19
8065,19
8066,19
8067,19
8068,19
8069,19
8070,19
8071,19
8072,19
8073,19
8074,19
8075,19
8076,19
8077,19
8078,19
8079,19
8080,19
8081,19
8082,19
8083,19
8084,19
8085,19
8086,19
8087,19
8088,19
8089,19
8090,19
8091,19
8092,19
8093,19
8094,19
8095,19
8096,19
8097,19
8098,20
8099,20
8100,19
8101,19
8102,19
8103,19
8104,19
8105,19
8106,19
8107,19
8108,19
8109,19
8110,19
8111,19
8112,19
8113,19
8114,19
8115,19
8116,19
8117,19
8118,19
8119,19
8120,19
8121,19
8122,19
8123,19
8124,19
8125,19
8126,19
8127,19
8128,19
8129,19
8130,19
8131,19
8132,19
8133,19
8134,19
8135,19
8136,19
8137,19
8138,19
8139,19
8140,19
8141,19
8142,19
8143,19
8144,19
8145,19
8146,19
8147,19
8148,19
8149,19
8150,19
8151,19
8152,19
8153,19
8154,19
8155,19
8156,19
8157,19
8158,19
8159,19
8160,19
8161,19
8162,19
8163,19
8164,19
8165,19
8166,19
8167,19
8168,19
8169,19
8170,19
8171,19
8172,19
8173,19
8174,19
8175,19
8176,19
8177,19
8178,19
8179,19
8180,19
8181,19
8182,19
8183,19
8184,19
8185,19
8186,19
8187,19
8188,19
8189,19
8190,19
8191,19
8192,19
8193,19
8194,19
8195,19
8196,19
8197,19
8198,19
8199,19
8200,19
8201,19
8202,19
8203,19
8204,19
8205,19
8206,19
8207,19
8208,19
8209,19
8210,19
8211,20
8212,20
8213,20
8214,20
8215,20
8216,20
8217,20
8218,20
8219,20
8220,20
8221,20
8222,20
8223,20
8224,20
8225,20
8226,20
8227,20
8228,20
8229,20
8230,20
8231,20
8232,20
8233,20
8234,20
8235,20
8236,20
8237,20
8238,20
8239,20
8240,20
8241,20
8242,20
8243,20
8244,20
8245,20
8246,20
8247,20
8248,20
8249,20
8250,20
8251,20
8252,20
8253,20
8254,20
8255,20
8256,20
8257,20
8258,20
8259,20
8260,20
8261,20
8262,20
8263,20
8264,20
8265,20
8266,20
8267,20
8268,20
8269,20
8270,20
8271,20
8272,20
8273,20
8274,20
8275,20
8276,20
8277,20
8278,21
8279,21
8280,22
8281,21
8282,21
8283,21
8284,21
8285,21
8286,21
8287,21
8288,21
8289,21
8290,21
8291,21
8292,21
8293,21
8294,21
8295,21
8296,21
8297,21
8298,21
8299,21
8300,21
8301,21
8302,21
8303,21
8304,21
8305,21
8306,21
8307,21
8308,22
8309,22
8310,21
8311,21
8312,21
8313,21
8314,21
8315,21
8316,21
8317,21
8318,21
8319,21
8320,21
8321,21
8322,21
8323,21
8324,21
8325,21
8326,21
8327,21
8328,21
8329,21
8330,21
8331,21
8332,22
8333,21
8334,21
8335,21
8336,21
8337,21
8338,21
8339,21
8340,21
8341,21
8342,21
8343,21
8344,21
8345,21
8346,21
8347,21
8348,21
8349,21
8350,21
8351,21
8352,21
8353,21
8354,21
8355,21
8356,21
8357,21
8358,21
8359,21
8360,21
8361,21
8362,21
8363,21
8364,21
8365,21
8366,21
8367,21
8368,21
8369,21
8370,21
8371,21
8372,21
8373,21
8374,21
8375,21
8376,21
8377,21
8378,21
8379,21
8380,21
8381,21
8382,21
8383,21
8384,21
8385,21
8386,21
8387,21
8388,21
8389,21
8390,21
8391,21
8392,21
8393,21
8394,21
8395,21
8396,21
8397,21
8398,21
8399,21
8400,21
8401,21
8402,21
8403,21
8404,22
8405,21
8406,21
8407,21
8408,21
8409,21
8410,21
8411,21
8412,21
8413,21
8414,21
8415,21
8416,21
8417,21
8418,21
8419,21
8420,21
8421,21
8422,21
8423,21
8424,21
8425,21
8426,21
8427,21
8428,21
8429,21
8430,21
8431,21
8432,21
8433,21
8434,21
8435,21
8436,21
8437,21
8438,21
8439,21
8440,21
8441,21
8442,21
8443,21
8444,21
8445,21
8446,21
8447,21
8448,21
8449,21
8450,21
8451,21
8452,21
8453,21
8454,21
8455,21
8456,21
8457,21
8458,21
8459,21
8460,21
8461,21
8462,21
8463,21
8464,21
8465,21
8466,21
8467,21
8468,21
8469,21
8470,21
8471,21
8472,21
8473,21
8474,21
8475,21
8476,21
8477,21
8478,21
8479,21
8480,21
8481,21
8482,21
8483,21
8484,21
8485,21
8486,21
8487,21
8488,21
8489,21
8490,21
8491,21
8492,21
8493,21
8494,21
8495,21
8496,21
8497,21
8498,21
8499,21
8500,21
8501,21
8502,21
8503,21
8504,21
8505,21
8506,21
8507,21
8508,21
8509,21
8510,21
8511,21
8512,21
8513,21
8514,21
8515,22
8516,21
8517,21
8518,21
8519,21
8520,21
8521,21
8522,21
8523,21
8524,21
8525,21
8526,21
8527,21
8528,21
8529,21
8530,21
8531,21
8532,21
8533,21
8534,21
8535,21
8536,21
8537,21
8538,21
8539,21
8540,21
8541,22
8542,21
8543,21
8544,21
8545,21
8546,21
8547,21
8548,21
8549,21
8550,21
8551,21
8552,21
8553,21
8554,21
8555,21
8556,21
8557,21
8558,21
8559,21
8560,21
8561,21
8562,21
8563,21
8564,21
8565,21
8566,21
8567,21
8568,21
8569,21
8570,21
8571,21
8572,21
8573,21
8574,21
8575,21
8576,21
8577,21
8578,21
8579,21
8580,21
8581,21
8582,21
8583,21
8584,21
8585,21
8586,21
8587,21
8588,21
8589,21
8590,21
8591,21
8592,21
8593,21
8594,21
8595,21
8596,21
8597,21
8598,21
8599,21
8600,21
8601,21
8602,21
8603,21
8604,21
8605,21
8606,21
8607,21
8608,21
8609,21
8610,21
8611,21
8612,21
8613,21
8614,21
8615,21
8616,21
8617,21
8618,21
8619,21
8620,21
8621,21
8622,21
8623,21
8624,21
8625,21
8626,21
8627,21
8628,21
8629,21
8630,21
8631,21
8632,21
8633,21
8634,21
8635,21
8636,21
8637,21
8638,21
8639,21
8640,21
8641,21
8642,21
8643,21
8644,21
8645,21
8646,21
8647,21
8648,21
8649,21
8650,21
8651,21
8652,21
8653,21
8654,21
8655,21
8656,21
8657,21
8658,21
8659,21
8660,21
8661,21
8662,21
8663,21
8664,21
8665,21
8666,21
8667,21
8668,21
8669,21
8670,21
8671,21
8672,21
8673,21
8674,21
8675,21
8676,21
8677,21
8678,21
8679,21
8680,21
8681,21
8682,21
8683,21
8684,21
8685,21
8686,21
8687,21
8688,21
8689,21
8690,21
8691,21
8692,21
8693,21
8694,21
8695,21
8696,21
8697,21
8698,21
8699,21
8700,21
8701,21
8702,21
8703,21
8704,21
8705,21
8706,21
8707,21
8708,21
8709,21
8710,21
8711,21
8712,21
8713,21
8714,21
8715,21
8716,21
8717,21
8718,21
8719,21
8720,21
8721,21
8722,21
8723,21
8724,21
8725,21
8726,21
8727,21
8728,21
8729,21
8730,21
8731,21
8732,21
8733,21
8734,21
8735,21
8736,21
8737,21
8738,21
8739,21
8740,21
8741,21
8742,21
8743,21
8744,21
8745,21
8746,21
8747,21
8748,21
8749,21
8750,21
8751,21
8752,21
8753,21
8754,21
8755,21
8756,21
8757,21
8758,21
8759,21
8760,21
8761,21
8762,21
8763,21
8764,21
8765,21
8766,21
8767,21
8768,21
8769,21
8770,21
8771,21
8772,21
8773,21
8774,21
8775,21
8776,21
8777,21
8778,21
8779,21
8780,21
8781,21
8782,21
8783,21
8784,21
8785,21
8786,21
8787,21
8788,21
8789,21
8790,21
8791,21
8792,21
8793,21
8794,21
8795,21
8796,21
8797,21
8798,21
8799,21
8800,21
8801,21
8802,21
8803,21
8804,21
8805,21
8806,21
8807,21
8808,21
8809,21
8810,21
8811,21
8812,21
8813,21
8814,21
8815,21
8816,21
8817,21
8818,21
8819,21
8820,21
8821,21
8822,21
8823,21
8824,21
8825,21
8826,21
8827,21
8828,21
8829,21
8830,21
8831,21
8832,21
8833,21
8834,21
8835,21
8836,21
8837,21
8838,21
8839,21
8840,21
8841,21
8842,21
8843,21
8844,21
8845,21
8846,21
8847,21
8848,21
8849,21
8850,21
8851,21
8852,21
8853,21
8854,21
8855,21
8856,21
8857,21
8858,21
8859,21
8860,21
8861,21
8862,21
8863,21
8864,21
8865,21
8866,21
8867,21
8868,21
8869,21
8870,21
8871,21
8872,22
8873,22
8874,22
8875,22
8876,21
8877,21
8878,21
8879,21
8880,21
8881,21
8882,21
8883,21
8884,21
8885,21
8886,21
8887,21
8888,21
8889,21
8890,21
8891,21
8892,21
8893,21
8894,21
8895,21
8896,21
8897,21
8898,21
8899,21
8900,21
8901,21
8902,21
8903,21
8904,21
8905,21
8906,21
8907,21
8908,21
8909,21
8910,21
8911,21
8912,21
8913,21
8914,21
8915,21
8916,21
8917,21
8918,21
8919,21
8920,21
8921,21
8922,21
8923,21
8924,21
8925,21
8926,21
8927,21
8928,21
8929,21
8930,21
8931,21
8932,21
8933,21
8934,21
8935,21
8936,21
8937,21
8938,21
8939,21
8940,21
8941,21
8942,21
8943,21
8944,21
8945,21
8946,21
8947,21
8948,21
8949,21
8950,21
8951,21
8952,21
8953,21
8954,21
8955,21
8956,21
8957,21
8958,21
8959,21
8960,21
8961,21
8962,21
8963,21
8964,21
8965,21
8966,21
8967,21
8968,21
8969,21
8970,21
8971,21
8972,21
8973,21
8974,21
8975,21
8976,21
8977,21
8978,21
8979,21
8980,21
8981,21
8982,21
8983,21
8984,21
8985,21
8986,21
8987,21
8988,21
8989,21
8990,21
8991,21
8992,21
8993,21
8994,21
8995,21
8996,21
8997,21
8998,21
8999,21
9000,21
9001,21
9002,21
9003,21
9004,21
9005,21
9006,21
9007,21
9008,21
9009,21
9010,21
9011,21
9012,21
9013,21
9014,21
9015,21
9016,21
9017,21
9018,21
9019,21
9020,21
9021,21
9022,21
9023,21
9024,21
9025,21
9026,21
9027,21
9028,21
9029,21
9030,21
9031,21
9032,21
9033,21
9034,21
9035,21
9036,21
9037,21
9038,21
9039,21
9040,21
9041,21
9042,21
9043,21
9044,21
9045,21
9046,21
9047,21
9048,21
9049,21
9050,21
9051,21
9052,21
9053,21
9054,21
9055,21
9056,21
9057,21
9058,21
9059,21
9060,21
9061,21
9062,21
9063,21
9064,21
9065,21
9066,21
9067,21
9068,21
9069,21
9070,21
9071,21
9072,21
9073,21
9074,21
9075,21
9076,21
9077,21
9078,21
9079,21
9080,22
9081,22
9082,21
9083,21
9084,21
9085,21
9086,21
9087,21
9088,21
9089,21
9090,21
9091,21
9092,21
9093,21
9094,21
9095,21
9096,21
9097,21
9098,21
9099,21
9100,21
9101,21
9102,21
9103,21
9104,21
9105,21
9106,21
9107,21
9108,21
9109,21
9110,21
9111,21
9112,21
9113,21
9114,21
9115,21
9116,21
9117,21
9118,21
9119,21
9120,21
9121,21
9122,21
9123,21
9124,21
9125,21
9126,21
9127,21
9128,21
9129,21
9130,21
9131,21
9132,21
9133,21
9134,21
9135,21
9136,21
9137,21
9138,21
9139,21
9140,21
9141,21
9142,21
9143,21
9144,21
9145,21
9146,21
9147,21
9148,21
9149,21
9150,21
9151,21
9152,21
9153,21
9154,21
9155,21
9156,21
9157,21
9158,21
9159,21
9160,21
9161,21
9162,21
9163,21
9164,21
9165,21
9166,21
9167,21
9168,21
9169,21
9170,21
9171,21
9172,21
9173,21
9174,21
9175,21
9176,21
9177,21
9178,21
9179,21
9180,21
9181,21
9182,21
9183,21
9184,21
9185,21
9186,21
9187,21
9188,21
9189,21
9190,21
9191,21
9192,21
9193,21
9194,21
9195,21
9196,21
9197,21
9198,21
9199,21
9200,21
9201,21
9202,21
9203,21
9204,21
9205,21
9206,21
9207,21
9208,21
9209,21
9210,21
9211,21
9212,21
9213,21
9214,21
9215,21
9216,21
9217,21
9218,21
9219,21
9220,21
9221,21
9222,21
9223,21
9224,21
9225,21
9226,21
9227,21
9228,21
9229,21
9230,22
9231,22
9232,21
9233,21
9234,21
9235,21
9236,21
9237,21
9238,21
9239,21
9240,21
9241,21
9242,21
9243,21
9244,21
9245,21
9246,21
9247,21
9248,21
9249,21
9250,21
9251,21
9252,21
9253,22
9254,22
9255,22
9256,22
9257,21
9258,21
9259,21
9260,21
9261,21
9262,21
9263,21
9264,21
9265,21
9266,21
9267,21
9268,21
9269,21
9270,21
9271,21
9272,21
9273,21
9274,21
9275,21
9276,21
9277,21
9278,21
9279,21
9280,21
9281,21
9282,21
9283,21
9284,21
9285,21
9286,21
9287,21
9288,21
9289,21
9290,21
9291,21
9292,21
9293,22
9294,22
9295,21
9296,21
9297,21
9298,21
9299,21
9300,21
9301,21
9302,21
9303,21
9304,21
9305,21
9306,21
9307,21
9308,21
9309,21
9310,21
9311,21
9312,21
9313,21
9314,21
9315,21
9316,21
9317,21
9318,21
9319,21
9320,21
9321,21
9322,21
9323,21
9324,21
9325,21
9326,21
9327,21
9328,21
9329,21
9330,21
9331,21
9332,21
9333,21
9334,21
9335,21
9336,21
9337,21
9338,21
9339,21
9340,21
9341,21
9342,21
9343,21
9344,21
9345,21
9346,21
9347,21
9348,21
9349,21
9350,21
9351,21
9352,21
9353,21
9354,21
9355,21
9356,21
9357,21
9358,21
9359,21
9360,21
9361,21
9362,21
9363,21
9364,21
9365,21
9366,21
9367,21
9368,21
9369,21
9370,21
9371,21
9372,21
9373,21
9374,22
9375,22
9376,21
9377,21
9378,21
9379,21
9380,21
9381,21
9382,21
9383,21
9384,21
9385,21
9386,21
9387,21
9388,21
9389,21
9390,21
9391,21
9392,21
9393,21
9394,21
9395,21
9396,21
9397,21
9398,21
9399,21
9400,21
9401,21
9402,21
9403,21
9404,21
9405,21
9406,21
9407,21
9408,21
9409,21
9410,21
9411,21
9412,21
9413,22
9414,22
9415,21
9416,21
9417,21
9418,21
9419,21
9420,21
9421,21
9422,21
9423,21
9424,21
9425,21
9426,21
9427,21
9428,21
9429,21
9430,21
9431,21
9432,21
9433,21
9434,21
9435,21
9436,21
9437,21
9438,21
9439,21
9440,21
9441,21
9442,21
9443,21
9444,21
9445,21
9446,21
9447,21
9448,21
9449,21
9450,21
9451,21
9452,21
9453,21
9454,21
9455,21
9456,21
9457,21
9458,21
9459,21
9460,21
9461,21
9462,21
9463,21
9464,21
9465,21
9466,21
9467,21
9468,21
9469,21
9470,21
9471,21
9472,21
9473,21
9474,21
9475,21
9476,21
9477,21
9478,21
9479,21
9480,21
9481,21
9482,21
9483,21
9484,21
9485,21
9486,21
9487,21
9488,21
9489,21
9490,21
9491,21
9492,21
9493,21
9494,21
9495,21
9496,21
9497,21
9498,21
9499,21
9500,21
9501,21
9502,21
9503,21
9504,21
9505,21
9506,21
9507,21
9508,21
9509,21
9510,21
9511,21
9512,21
9513,21
9514,21
9515,21
9516,21
9517,21
9518,21
9519,21
9520,21
9521,21
9522,21
9523,21
9524,22
9525,21
9526,21
9527,21
9528,21
9529,21
9530,21
9531,21
9532,21
9533,21
9534,21
9535,21
9536,21
9537,21
9538,21
9539,21
9540,21
9541,21
9542,21
9543,21
9544,21
9545,21
9546,21
9547,21
9548,21
9549,21
9550,21
9551,21
9552,21
9553,21
9554,21
9555,21
9556,21
9557,21
9558,21
9559,21
9560,21
9561,21
9562,21
9563,21
9564,21
9565,21
9566,21
9567,21
9568,22
9569,22
9570,21
9571,21
9572,21
9573,21
9574,21
9575,21
9576,21
9577,21
9578,21
9579,21
9580,21
9581,21
9582,21
9583,21
9584,21
9585,21
9586,21
9587,21
9588,21
9589,21
9590,21
9591,21
9592,21
9593,21
9594,21
9595,21
9596,21
9597,21
9598,21
9599,21
9600,21
9601,21
9602,21
9603,21
9604,21
9605,21
9606,21
9607,21
9608,21
9609,21
9610,21
9611,21
9612,21
9613,21
9614,21
9615,21
9616,21
9617,21
9618,21
9619,21
9620,21
9621,21
9622,21
9623,21
9624,21
9625,21
9626,21
9627,21
9628,21
9629,21
9630,21
9631,21
9632,21
9633,21
9634,21
9635,21
9636,21
9637,21
9638,21
9639,21
9640,21
9641,21
9642,22
9643,21
9644,21
9645,21
9646,21
9647,21
9648,21
9649,21
9650,21
9651,21
9652,21
9653,21
9654,21
9655,21
9656,21
9657,21
9658,21
9659,21
9660,21
9661,21
9662,21
9663,21
9664,21
9665,21
9666,21
9667,21
9668,21
9669,21
9670,21
9671,21
9672,21
9673,21
9674,21
9675,21
9676,21
9677,21
9678,21
9679,21
9680,21
9681,21
9682,21
9683,21
9684,21
9685,21
9686,21
9687,21
9688,21
9689,21
9690,21
9691,21
9692,21
9693,21
9694,21
9695,21
9696,21
9697,21
9698,21
9699,21
9700,21
9701,21
9702,21
9703,21
9704,21
9705,21
9706,21
9707,21
9708,21
9709,21
9710,21
9711,21
9712,22
9713,21
9714,21
9715,21
9716,21
9717,21
9718,21
9719,21
9720,21
9721,21
9722,21
9723,21
9724,21
9725,21
9726,21
9727,21
9728,21
9729,21
9730,21
9731,21
9732,21
9733,21
9734,21
9735,21
9736,21
9737,21
9738,21
9739,21
9740,21
9741,21
9742,21
9743,21
9744,21
9745,21
9746,21
9747,21
9748,21
9749,21
9750,21
9751,21
9752,21
9753,21
9754,21
9755,21
9756,21
9757,21
9758,21
9759,21
9760,21
9761,21
9762,21
9763,21
9764,21
9765,21
9766,21
9767,21
9768,21
9769,21
9770,21
9771,21
9772,21
9773,21
9774,21
9775,21
9776,21
9777,21
9778,21
9779,21
9780,21
9781,21
9782,21
9783,21
9784,21
9785,21
9786,21
9787,21
9788,21
9789,21
9790,21
9791,21
9792,21
9793,21
9794,21
9795,21
9796,21
9797,21
9798,21
9799,21
9800,21
9801,22
9802,22
9803,22
9804,22
9805,21
9806,21
9807,21
9808,21
9809,21
9810,21
9811,21
9812,21
9813,21
9814,21
9815,21
9816,21
9817,21
9818,21
9819,21
9820,21
9821,21
9822,21
9823,21
9824,21
9825,21
9826,21
9827,21
9828,21
9829,21
9830,21
9831,21
9832,21
9833,21
9834,21
9835,21
9836,21
9837,21
9838,21
9839,21
9840,21
9841,21
9842,21
9843,21
9844,21
9845,21
9846,21
9847,21
9848,21
9849,21
9850,21
9851,21
9852,21
9853,21
9854,21
9855,21
9856,21
9857,21
9858,21
9859,21
9860,21
9861,21
9862,21
9863,21
9864,21
9865,21
9866,21
9867,21
9868,21
9869,21
9870,21
9871,21
9872,21
9873,21
9874,21
9875,21
9876,21
9877,21
9878,21
9879,21
9880,21
9881,21
9882,21
9883,21
9884,21
9885,21
9886,21
9887,21
9888,21
9889,21
9890,21
9891,21
9892,21
9893,21
9894,21
9895,21
9896,21
9897,21
9898,21
9899,21
9900,21
9901,22
9902,22
9903,21
9904,21
9905,21
9906,21
9907,21
9908,21
9909,21
9910,21
9911,21
9912,21
9913,21
9914,21
9915,21
9916,21
9917,21
9918,21
9919,21
9920,21
9921,21
9922,21
9923,21
9924,21
9925,21
9926,21
9927,21
9928,21
9929,21
9930,21
9931,21
9932,21
9933,21
9934,21
9935,21
9936,21
9937,21
9938,21
9939,21
9940,21
9941,21
9942,21
9943,21
9944,21
9945,21
9946,21
9947,21
9948,21
9949,21
9950,21
9951,21
9952,21
9953,21
9954,21
9955,21
9956,21
9957,21
9958,21
9959,21
9960,21
9961,21
9962,21
9963,21
9964,21
9965,21
9966,21
9967,21
9968,21
9969,21
9970,21
9971,21
9972,21
9973,21
9974,21
9975,21
9976,21
9977,21
9978,21
9979,21
9980,21
9981,21
9982,21
9983,21
9984,21
9985,21
9986,21
9987,21
9988,21
9989,21
9990,22
9991,21
9992,21
9993,22
9994,21
9995,21
9996,21
9997,21
9998,21
9999,21
10000,21
