1,3
2,3
3,3
4,3
5,3
6,3
7,3
8,3
9,3
10,3
11,3
12,3
13,3
14,3
15,3
16,3
17,3
18,3
19,3
20,3
21,3
22,3
23,3
24,3
25,3
26,3
27,3
28,3
29,3
30,3
31,3
32,3
33,3
34,3
35,3
36,3
37,3
38,3
39,3
40,3
41,3
42,3
43,3
44,3
45,3
46,3
47,3
48,3
49,3
50,3
51,3
52,3
53,3
54,3
55,3
56,3
57,3
58,3
59,3
60,3
61,3
62,3
63,3
64,3
65,3
66,3
67,3
68,3
69,3
70,3
71,3
72,3
73,3
74,3
75,3
76,3
77,3
78,3
79,3
80,3
81,3
82,3
83,3
84,3
85,3
86,3
87,3
88,3
89,3
90,3
91,3
92,3
93,3
94,3
95,3
96,3
97,3
98,3
99,3
100,3
101,3
102,3
103,3
104,3
105,3
106,3
107,3
108,3
109,3
110,3
111,3
112,3
113,3
114,3
115,3
116,3
117,3
118,3
119,3
120,3
121,3
122,3
123,3
124,3
125,3
126,3
127,3
128,3
129,3
130,3
131,3
132,3
133,3
134,3
135,3
136,3
137,3
138,3
139,3
140,3
141,3
142,3
143,3
144,3
145,3
146,3
147,3
148,3
149,3
150,3
151,3
152,3
153,3
154,3
155,3
156,3
157,3
158,3
159,3
160,3
161,3
162,3
163,3
164,3
165,3
166,3
167,3
168,3
169,3
170,3
171,3
172,3
173,3
174,3
175,3
176,3
177,3
178,3
179,3
180,3
181,3
182,3
183,3
184,3
185,3
186,3
187,3
188,3
189,3
190,3
191,3
192,3
193,3
194,3
195,3
196,3
197,3
198,3
199,3
200,3
201,3
202,3
203,3
204,3
205,3
206,3
207,3
208,3
209,3
210,3
211,3
212,3
213,3
214,3
215,3
216,3
217,3
218,3
219,3
220,3
221,3
222,3
223,3
224,3
225,3
226,3
227,3
228,3
229,3
230,3
231,3
232,3
233,3
234,3
235,3
236,3
237,3
238,3
239,3
240,3
241,3
242,3
243,3
244,3
245,3
246,3
247,3
248,3
249,3
250,3
251,3
252,3
253,3
254,3
255,3
256,3
257,3
258,3
259,3
260,3
261,3
262,3
263,3
264,3
265,3
266,3
267,3
268,3
269,3
270,3
271,3
272,3
273,3
274,3
275,3
276,3
277,3
278,3
279,3
280,3
281,3
282,3
283,3
284,3
285,3
286,3
287,3
288,3
289,3
290,3
291,3
292,3
293,3
294,3
295,3
296,3
297,3
298,3
299,3
300,3
301,3
302,3
303,3
304,3
305,3
306,3
307,3
308,3
309,3
310,3
311,3
312,3
313,3
314,3
315,3
316,3
317,3
318,3
319,3
320,3
321,3
322,3
323,3
324,3
325,3
326,3
327,3
328,3
329,3
330,3
331,3
332,3
333,3
334,3
335,3
336,3
337,3
338,3
339,3
340,3
341,3
342,3
343,3
344,3
345,3
346,3
347,3
348,3
349,3
350,3
351,3
352,3
353,3
354,3
355,3
356,3
357,3
358,3
359,3
360,4
361,4
362,5
363,5
364,5
365,5
366,5
367,5
368,5
369,5
370,5
371,5
372,5
373,5
374,5
375,5
376,5
377,5
378,5
379,5
380,5
381,5
382,5
383,5
384,5
385,5
386,5
387,5
388,5
389,5
390,5
391,5
392,5
393,5
394,5
395,5
396,5
397,5
398,5
399,5
400,5
401,5
402,5
403,5
404,5
405,5
406,5
407,5
408,5
409,5
410,5
411,5
412,5
413,5
414,5
415,5
416,5
417,5
418,5
419,5
420,5
421,5
422,5
423,5
424,5
425,5
426,5
427,5
428,5
429,5
430,5
431,5
432,5
433,5
434,5
435,5
436,5
437,5
438,5
439,5
440,5
441,5
442,5
443,5
444,5
445,5
446,5
447,5
448,5
449,5
450,5
451,5
452,5
453,5
454,5
455,5
456,5
457,5
458,5
459,5
460,5
461,6
462,5
463,5
464,5
465,5
466,5
467,5
468,5
469,5
470,5
471,5
472,6
473,5
474,5
475,5
476,5
477,5
478,5
479,5
480,5
481,5
482,5
483,5
484,5
485,5
486,5
487,5
488,5
489,5
490,5
491,5
492,5
493,5
494,5
495,5
496,5
497,5
498,5
499,5
500,5
501,5
502,5
503,5
504,6
505,6
506,5
507,5
508,5
509,5
510,5
511,5
512,6
513,6
514,5
515,5
516,5
517,5
518,5
519,5
520,5
521,5
522,5
523,5
524,5
525,5
526,5
527,5
528,5
529,5
530,5
531,5
532,5
533,5
534,5
535,5
536,5
537,5
538,5
539,5
540,5
541,5
542,5
543,5
544,5
545,5
546,5
547,5
548,5
549,5
550,5
551,5
552,5
553,5
554,5
555,5
556,5
557,6
558,6
559,5
560,5
561,5
562,5
563,5
564,5
565,5
566,5
567,5
568,5
569,5
570,5
571,5
572,5
573,5
574,5
575,5
576,5
577,5
578,5
579,5
580,5
581,5
582,5
583,5
584,5
585,5
586,5
587,5
588,5
589,5
590,5
591,5
592,5
593,5
594,5
595,5
596,5
597,5
598,5
599,5
600,5
601,5
602,5
603,5
604,5
605,5
606,5
607,5
608,5
609,5
610,5
611,5
612,5
613,5
614,5
615,5
616,5
617,5
618,5
619,5
620,5
621,5
622,5
623,5
624,5
625,5
626,5
627,5
628,5
629,5
630,5
631,5
632,5
633,5
634,5
635,5
636,5
637,5
638,5
639,5
640,5
641,5
642,5
643,5
644,5
645,5
646,5
647,5
648,5
649,5
650,5
651,5
652,5
653,5
654,5
655,5
656,5
657,5
658,5
659,5
660,5
661,5
662,5
663,5
664,5
665,5
666,5
667,5
668,5
669,5
670,5
671,5
672,5
673,5
674,5
675,5
676,5
677,5
678,5
679,5
680,5
681,5
682,5
683,5
684,5
685,5
686,5
687,5
688,5
689,5
690,5
691,5
692,5
693,5
694,5
695,5
696,5
697,5
698,5
699,5
700,5
701,5
702,5
703,5
704,5
705,5
706,5
707,5
708,5
709,5
710,5
711,5
712,5
713,5
714,5
715,5
716,5
717,5
718,5
719,5
720,5
721,5
722,5
723,5
724,5
725,5
726,5
727,5
728,5
729,5
730,5
731,5
732,5
733,5
734,5
735,5
736,5
737,5
738,5
739,5
740,5
741,5
742,5
743,5
744,5
745,5
746,5
747,5
748,5
749,5
750,5
751,5
752,5
753,5
754,5
755,5
756,5
757,5
758,5
759,5
760,5
761,5
762,5
763,5
764,5
765,5
766,5
767,5
768,5
769,5
770,5
771,5
772,5
773,5
774,5
775,5
776,5
777,5
778,5
779,5
780,5
781,5
782,5
783,5
784,5
785,5
786,5
787,5
788,5
789,5
790,5
791,5
792,5
793,5
794,5
795,5
796,5
797,5
798,5
799,5
800,5
801,5
802,5
803,5
804,5
805,5
806,5
807,5
808,5
809,5
810,5
811,5
812,5
813,5
814,5
815,5
816,5
817,5
818,5
819,5
820,5
821,5
822,5
823,5
824,5
825,5
826,5
827,5
828,5
829,5
830,5
831,5
832,5
833,5
834,5
835,5
836,5
837,5
838,5
839,5
840,5
841,5
842,5
843,5
844,5
845,5
846,5
847,5
848,5
849,5
850,5
851,5
852,5
853,5
854,5
855,5
856,5
857,5
858,5
859,5
860,5
861,5
862,5
863,5
864,5
865,5
866,5
867,5
868,5
869,5
870,5
871,5
872,5
873,5
874,5
875,5
876,5
877,5
878,5
879,5
880,5
881,5
882,5
883,5
884,5
885,5
886,5
887,5
888,5
889,5
890,5
891,5
892,5
893,5
894,5
895,5
896,5
897,5
898,5
899,5
900,5
901,5
902,5
903,5
904,5
905,5
906,5
907,5
908,5
909,5
910,5
911,5
912,5
913,5
914,5
915,5
916,5
917,5
918,5
919,5
920,5
921,5
922,5
923,5
924,5
925,5
926,5
927,5
928,5
929,5
930,5
931,5
932,5
933,5
934,5
935,5
936,5
937,5
938,5
939,5
940,5
941,5
942,5
943,5
944,5
945,5
946,5
947,5
948,5
949,5
950,5
951,5
952,5
953,5
954,5
955,5
956,5
957,5
958,5
959,5
960,5
961,5
962,7
963,7
964,6
965,6
966,6
967,6
968,6
969,6
970,6
971,6
972,6
973,6
974,6
975,6
976,6
977,6
978,6
979,6
980,6
981,6
982,6
983,6
984,6
985,6
986,6
987,6
988,6
989,6
990,6
991,6
992,6
993,6
994,6
995,6
996,6
997,6
998,6
999,6
1000,6
1001,6
1002,6
1003,6
1004,6
1005,6
1006,6
1007,6
1008,6
1009,6
1010,6
1011,6
1012,6
1013,6
1014,6
1015,6
1016,6
1017,6
1018,6
1019,6
1020,6
1021,6
1022,6
1023,6
1024,6
1025,6
1026,6
1027,6
1028,6
1029,6
1030,6
1031,6
1032,6
1033,6
1034,6
1035,6
1036,6
1037,6
1038,6
1039,6
1040,6
1041,6
1042,6
1043,6
1044,6
1045,6
1046,6
1047,6
1048,6
1049,6
1050,6
1051,6
1052,6
1053,6
1054,6
1055,6
1056,6
1057,6
1058,6
1059,6
1060,6
1061,6
1062,6
1063,6
1064,6
1065,6
1066,6
1067,7
1068,6
1069,6
1070,6
1071,6
1072,6
1073,6
1074,6
1075,6
1076,6
1077,6
1078,6
1079,6
1080,6
1081,6
1082,6
1083,6
1084,6
1085,6
1086,6
1087,6
1088,6
1089,6
1090,6
1091,6
1092,6
1093,6
1094,6
1095,6
1096,6
1097,6
1098,6
1099,6
1100,6
1101,6
1102,6
1103,6
1104,6
1105,6
1106,6
1107,6
1108,6
1109,6
1110,6
1111,6
1112,6
1113,6
1114,6
1115,6
1116,7
1117,7
1118,7
1119,7
1120,7
1121,7
1122,7
1123,7
1124,7
1125,7
1126,7
1127,7
1128,7
1129,7
1130,7
1131,7
1132,7
1133,7
1134,7
1135,7
1136,7
1137,7
1138,7
1139,7
1140,8
1141,8
1142,8
1143,8
1144,8
1145,8
1146,8
1147,8
1148,8
1149,8
1150,8
1151,8
1152,8
1153,8
1154,8
1155,8
1156,9
1157,8
1158,8
1159,8
1160,8
1161,8
1162,8
1163,8
1164,8
1165,8
1166,8
1167,8
1168,8
1169,8
1170,8
1171,8
1172,8
1173,8
1174,8
1175,8
1176,8
1177,8
1178,8
1179,9
1180,9
1181,8
1182,8
1183,8
1184,8
1185,8
1186,8
1187,8
1188,8
1189,8
1190,8
1191,8
1192,9
1193,8
1194,8
1195,8
1196,8
1197,8
1198,8
1199,8
1200,8
1201,8
1202,8
1203,8
1204,8
1205,8
1206,8
1207,8
1208,8
1209,8
1210,9
1211,8
1212,8
1213,8
1214,8
1215,8
1216,8
1217,8
1218,8
1219,8
1220,8
1221,8
1222,8
1223,8
1224,8
1225,8
1226,8
1227,8
1228,8
1229,8
1230,8
1231,8
1232,8
1233,8
1234,8
1235,8
1236,8
1237,8
1238,8
1239,8
1240,8
1241,8
1242,8
1243,8
1244,8
1245,8
1246,8
1247,8
1248,8
1249,8
1250,8
1251,9
1252,9
1253,9
1254,8
1255,8
1256,8
1257,8
1258,8
1259,8
1260,8
1261,8
1262,8
1263,8
1264,8
1265,8
1266,8
1267,8
1268,8
1269,8
1270,8
1271,8
1272,9
1273,9
1274,9
1275,9
1276,9
1277,9
1278,9
1279,9
1280,9
1281,9
1282,9
1283,9
1284,9
1285,9
1286,9
1287,9
1288,9
1289,9
1290,9
1291,9
1292,9
1293,9
1294,9
1295,9
1296,9
1297,9
1298,9
1299,9
1300,9
1301,9
1302,9
1303,9
1304,9
1305,9
1306,9
1307,9
1308,9
1309,9
1310,9
1311,9
1312,9
1313,9
1314,9
1315,9
1316,9
1317,9
1318,9
1319,9
1320,9
1321,9
1322,9
1323,9
1324,9
1325,9
1326,9
1327,9
1328,9
1329,9
1330,9
1331,9
1332,9
1333,9
1334,9
1335,9
1336,9
1337,9
1338,9
1339,9
1340,9
1341,9
1342,10
1343,10
1344,10
1345,10
1346,10
1347,10
1348,9
1349,9
1350,9
1351,10
1352,9
1353,9
1354,9
1355,9
1356,9
1357,9
1358,9
1359,9
1360,9
1361,9
1362,9
1363,9
1364,9
1365,9
1366,9
1367,9
1368,9
1369,9
1370,9
1371,9
1372,9
1373,9
1374,9
1375,9
1376,9
1377,9
1378,9
1379,9
1380,9
1381,9
1382,9
1383,9
1384,9
1385,9
1386,9
1387,9
1388,9
1389,9
1390,9
1391,9
1392,9
1393,9
1394,9
1395,9
1396,9
1397,9
1398,9
1399,9
1400,9
1401,9
1402,9
1403,9
1404,9
1405,9
1406,9
1407,9
1408,9
1409,9
1410,9
1411,9
1412,9
1413,9
1414,9
1415,9
1416,9
1417,9
1418,9
1419,9
1420,9
1421,9
1422,9
1423,9
1424,9
1425,9
1426,9
1427,9
1428,9
1429,9
1430,9
1431,9
1432,9
1433,9
1434,9
1435,9
1436,9
1437,9
1438,9
1439,9
1440,9
1441,9
1442,9
1443,9
1444,9
1445,9
1446,9
1447,9
1448,9
1449,9
1450,9
1451,9
1452,9
1453,9
1454,9
1455,9
1456,9
1457,9
1458,9
1459,9
1460,9
1461,9
1462,9
1463,9
1464,9
1465,9
1466,9
1467,9
1468,9
1469,9
1470,9
1471,9
1472,9
1473,9
1474,9
1475,9
1476,9
1477,9
1478,9
1479,9
1480,9
1481,9
1482,9
1483,9
1484,9
1485,9
1486,9
1487,9
1488,9
1489,9
1490,9
1491,9
1492,9
1493,9
1494,9
1495,9
1496,9
1497,9
1498,9
1499,9
1500,9
1501,9
1502,9
1503,9
1504,9
1505,9
1506,9
1507,9
1508,9
1509,9
1510,9
1511,9
1512,9
1513,9
1514,9
1515,9
1516,9
1517,9
1518,9
1519,9
1520,9
1521,9
1522,9
1523,9
1524,9
1525,9
1526,9
1527,9
1528,9
1529,9
1530,9
1531,9
1532,9
1533,9
1534,9
1535,9
1536,9
1537,9
1538,9
1539,9
1540,9
1541,9
1542,9
1543,9
1544,9
1545,9
1546,9
1547,9
1548,9
1549,9
1550,9
1551,9
1552,9
1553,9
1554,9
1555,9
1556,9
1557,9
1558,9
1559,9
1560,9
1561,9
1562,9
1563,9
1564,9
1565,9
1566,9
1567,9
1568,9
1569,9
1570,9
1571,9
1572,9
1573,9
1574,9
1575,9
1576,9
1577,9
1578,9
1579,9
1580,9
1581,9
1582,9
1583,9
1584,9
1585,9
1586,9
1587,9
1588,9
1589,9
1590,9
1591,9
1592,9
1593,9
1594,9
1595,9
1596,9
1597,9
1598,9
1599,9
1600,9
1601,9
1602,9
1603,9
1604,9
1605,9
1606,9
1607,9
1608,9
1609,9
1610,9
1611,9
1612,9
1613,9
1614,9
1615,9
1616,9
1617,9
1618,9
1619,9
1620,9
1621,9
1622,9
1623,9
1624,9
1625,9
1626,9
1627,9
1628,9
1629,9
1630,9
1631,9
1632,9
1633,9
1634,9
1635,9
1636,9
1637,9
1638,9
1639,9
1640,9
1641,9
1642,9
1643,9
1644,9
1645,9
1646,9
1647,9
1648,9
1649,9
1650,9
1651,9
1652,9
1653,9
1654,9
1655,9
1656,9
1657,9
1658,9
1659,9
1660,9
1661,9
1662,9
1663,9
1664,9
1665,9
1666,9
1667,9
1668,9
1669,9
1670,9
1671,9
1672,9
1673,9
1674,9
1675,9
1676,9
1677,9
1678,9
1679,9
1680,9
1681,9
1682,9
1683,9
1684,9
1685,9
1686,9
1687,9
1688,9
1689,9
1690,9
1691,9
1692,9
1693,9
1694,9
1695,9
1696,9
1697,9
1698,9
1699,9
1700,10
1701,10
1702,9
1703,9
1704,9
1705,9
1706,9
1707,9
1708,9
1709,9
1710,9
1711,9
1712,9
1713,9
1714,9
1715,9
1716,9
1717,9
1718,9
1719,9
1720,9
1721,9
1722,9
1723,9
1724,9
1725,9
1726,9
1727,9
1728,9
1729,9
1730,9
1731,9
1732,9
1733,9
1734,9
1735,9
1736,9
1737,9
1738,9
1739,9
1740,9
1741,9
1742,9
1743,9
1744,9
1745,10
1746,10
1747,9
1748,9
1749,9
1750,9
1751,9
1752,9
1753,9
1754,10
1755,9
1756,9
1757,9
1758,9
1759,9
1760,9
1761,9
1762,9
1763,9
1764,9
1765,9
1766,9
1767,9
1768,9
1769,9
1770,9
1771,9
1772,9
1773,9
1774,9
1775,9
1776,9
1777,9
1778,9
1779,9
1780,9
1781,9
1782,9
1783,9
1784,9
1785,9
1786,9
1787,9
1788,9
1789,9
1790,9
1791,9
1792,9
1793,9
1794,9
1795,9
1796,9
1797,9
1798,9
1799,9
1800,9
1801,9
1802,9
1803,9
1804,9
1805,9
1806,9
1807,9
1808,9
1809,9
1810,9
1811,9
1812,9
1813,9
1814,9
1815,9
1816,9
1817,9
1818,9
1819,9
1820,10
1821,10
1822,10
1823,9
1824,9
1825,9
1826,9
1827,9
1828,9
1829,9
1830,9
1831,9
1832,9
1833,9
1834,9
1835,9
1836,9
1837,9
1838,9
1839,9
1840,9
1841,9
1842,9
1843,9
1844,9
1845,9
1846,9
1847,9
1848,9
1849,9
1850,9
1851,9
1852,9
1853,9
1854,9
1855,9
1856,9
1857,9
1858,9
1859,9
1860,9
1861,9
1862,9
1863,9
1864,9
1865,9
1866,9
1867,9
1868,9
1869,9
1870,9
1871,9
1872,9
1873,9
1874,9
1875,9
1876,9
1877,9
1878,9
1879,9
1880,10
1881,9
1882,9
1883,9
1884,9
1885,9
1886,9
1887,9
1888,9
1889,9
1890,9
1891,9
1892,9
1893,9
1894,9
1895,9
1896,9
1897,9
1898,9
1899,9
1900,9
1901,9
1902,9
1903,9
1904,9
1905,9
1906,9
1907,9
1908,9
1909,9
1910,9
1911,9
1912,9
1913,9
1914,9
1915,9
1916,9
1917,9
1918,9
1919,9
1920,9
1921,9
1922,9
1923,9
1924,9
1925,9
1926,9
1927,9
1928,9
1929,9
1930,9
1931,9
1932,9
1933,9
1934,10
1935,10
1936,10
1937,10
1938,10
1939,10
1940,9
1941,9
1942,9
1943,9
1944,9
1945,9
1946,9
1947,9
1948,9
1949,9
1950,9
1951,9
1952,9
1953,9
1954,9
1955,9
1956,9
1957,9
1958,9
1959,9
1960,9
1961,9
1962,9
1963,9
1964,9
1965,9
1966,9
1967,9
1968,9
1969,9
1970,9
1971,9
1972,9
1973,9
1974,9
1975,10
1976,10
1977,10
1978,10
1979,10
1980,10
1981,9
1982,9
1983,9
1984,9
1985,9
1986,9
1987,9
1988,9
1989,9
1990,9
1991,9
1992,9
1993,9
1994,9
1995,9
1996,9
1997,9
1998,9
1999,9
2000,9
2001,9
2002,9
2003,9
2004,9
2005,9
2006,9
2007,9
2008,9
2009,10
2010,10
2011,10
2012,10
2013,10
2014,10
2015,10
2016,10
2017,10
2018,10
2019,10
2020,10
2021,10
2022,10
2023,10
2024,10
2025,10
2026,10
2027,10
2028,10
2029,10
2030,10
2031,10
2032,10
2033,10
2034,10
2035,10
2036,10
2037,10
2038,10
2039,10
2040,10
2041,10
2042,10
2043,10
2044,10
2045,10
2046,10
2047,10
2048,10
2049,10
2050,10
2051,10
2052,10
2053,10
2054,10
2055,10
2056,10
2057,10
2058,10
2059,10
2060,10
2061,10
2062,10
2063,10
2064,10
2065,10
2066,10
2067,10
2068,10
2069,10
2070,10
2071,10
2072,10
2073,10
2074,10
2075,10
2076,10
2077,10
2078,10
2079,10
2080,10
2081,10
2082,10
2083,10
2084,10
2085,10
2086,10
2087,10
2088,10
2089,10
2090,10
2091,10
2092,10
2093,10
2094,10
2095,10
2096,10
2097,10
2098,10
2099,10
2100,10
2101,10
2102,10
2103,10
2104,10
2105,10
2106,10
2107,10
2108,10
2109,10
2110,10
2111,10
2112,10
2113,10
2114,10
2115,10
2116,10
2117,10
2118,10
2119,10
2120,10
2121,10
2122,10
2123,10
2124,10
2125,10
2126,10
2127,10
2128,10
2129,10
2130,10
2131,10
2132,10
2133,10
2134,10
2135,10
2136,10
2137,10
2138,10
2139,10
2140,10
2141,10
2142,10
2143,10
2144,10
2145,10
2146,10
2147,10
2148,10
2149,10
2150,10
2151,10
2152,10
2153,10
2154,10
2155,10
2156,10
2157,10
2158,10
2159,10
2160,10
2161,10
2162,10
2163,10
2164,10
2165,10
2166,10
2167,10
2168,10
2169,10
2170,10
2171,10
2172,10
2173,10
2174,11
2175,11
2176,11
2177,10
2178,10
2179,10
2180,10
2181,10
2182,10
2183,10
2184,10
2185,10
2186,10
2187,10
2188,10
2189,10
2190,10
2191,10
2192,10
2193,10
2194,10
2195,10
2196,10
2197,10
2198,10
2199,10
2200,10
2201,10
2202,10
2203,10
2204,10
2205,10
2206,10
2207,10
2208,10
2209,10
2210,10
2211,10
2212,10
2213,10
2214,10
2215,10
2216,10
2217,10
2218,10
2219,10
2220,10
2221,10
2222,10
2223,10
2224,10
2225,10
2226,10
2227,10
2228,10
2229,10
2230,10
2231,10
2232,10
2233,10
2234,10
2235,10
2236,10
2237,10
2238,10
2239,10
2240,10
2241,10
2242,10
2243,10
2244,10
2245,10
2246,10
2247,10
2248,10
2249,10
2250,10
2251,10
2252,10
2253,10
2254,10
2255,11
2256,11
2257,11
2258,11
2259,11
2260,11
2261,11
2262,11
2263,11
2264,11
2265,11
2266,11
2267,11
2268,11
2269,11
2270,11
2271,11
2272,11
2273,11
2274,11
2275,11
2276,11
2277,11
2278,11
2279,11
2280,11
2281,11
2282,11
2283,11
2284,11
2285,11
2286,11
2287,11
2288,11
2289,11
2290,11
2291,11
2292,11
2293,11
2294,11
2295,11
2296,11
2297,11
2298,11
2299,11
2300,11
2301,11
2302,11
2303,11
2304,11
2305,11
2306,11
2307,11
2308,11
2309,11
2310,11
2311,11
2312,11
2313,11
2314,11
2315,11
2316,11
2317,11
2318,11
2319,11
2320,11
2321,11
2322,11
2323,11
2324,11
2325,11
2326,11
2327,11
2328,11
2329,11
2330,11
2331,11
2332,11
2333,11
2334,11
2335,11
2336,12
2337,12
2338,12
2339,12
2340,12
2341,12
2342,12
2343,12
2344,12
2345,12
2346,12
2347,12
2348,12
2349,12
2350,12
2351,12
2352,12
2353,12
2354,12
2355,12
2356,12
2357,12
2358,12
2359,12
2360,12
2361,12
2362,12
2363,12
2364,12
2365,12
2366,12
2367,12
2368,12
2369,12
2370,12
2371,12
2372,12
2373,12
2374,12
2375,12
2376,12
2377,12
2378,12
2379,12
2380,12
2381,12
2382,12
2383,12
2384,12
2385,12
2386,12
2387,12
2388,12
2389,12
2390,12
2391,12
2392,12
2393,12
2394,12
2395,12
2396,12
2397,12
2398,12
2399,12
2400,12
2401,12
2402,12
2403,12
2404,12
2405,12
2406,12
2407,12
2408,12
2409,12
2410,12
2411,12
2412,12
2413,12
2414,12
2415,12
2416,12
2417,12
2418,12
2419,12
2420,12
2421,12
2422,12
2423,12
2424,12
2425,12
2426,12
2427,12
2428,12
2429,12
2430,12
2431,12
2432,12
2433,12
2434,12
2435,12
2436,12
2437,12
2438,12
2439,12
2440,12
2441,12
2442,12
2443,12
2444,12
2445,12
2446,13
2447,13
2448,12
2449,12
2450,12
2451,12
2452,12
2453,12
2454,12
2455,12
2456,12
2457,12
2458,12
2459,12
2460,12
2461,12
2462,12
2463,13
2464,13
2465,12
2466,12
2467,12
2468,12
2469,12
2470,12
2471,12
2472,12
2473,12
2474,12
2475,12
2476,12
2477,12
2478,12
2479,12
2480,12
2481,12
2482,12
2483,12
2484,12
2485,12
2486,12
2487,12
2488,12
2489,12
2490,12
2491,12
2492,12
2493,12
2494,12
2495,12
2496,12
2497,12
2498,13
2499,13
2500,13
2501,13
2502,13
2503,12
2504,12
2505,12
2506,12
2507,12
2508,12
2509,12
2510,12
2511,12
2512,12
2513,12
2514,12
2515,12
2516,12
2517,12
2518,12
2519,12
2520,12
2521,12
2522,12
2523,12
2524,12
2525,12
2526,12
2527,12
2528,12
2529,12
2530,12
2531,12
2532,12
2533,12
2534,12
2535,12
2536,12
2537,12
2538,12
2539,12
2540,12
2541,12
2542,12
2543,12
2544,12
2545,12
2546,12
2547,12
2548,12
2549,12
2550,12
2551,12
2552,12
2553,12
2554,12
2555,12
2556,13
2557,13
2558,12
2559,12
2560,12
2561,12
2562,12
2563,12
2564,12
2565,12
2566,12
2567,12
2568,12
2569,12
2570,12
2571,12
2572,12
2573,12
2574,12
2575,12
2576,12
2577,12
2578,12
2579,12
2580,12
2581,12
2582,12
2583,12
2584,12
2585,12
2586,12
2587,12
2588,12
2589,12
2590,12
2591,12
2592,12
2593,12
2594,12
2595,12
2596,13
2597,12
2598,12
2599,12
2600,12
2601,13
2602,12
2603,12
2604,12
2605,12
2606,12
2607,12
2608,12
2609,12
2610,12
2611,12
2612,12
2613,12
2614,12
2615,12
2616,12
2617,12
2618,12
2619,12
2620,12
2621,12
2622,13
2623,13
2624,13
2625,13
2626,12
2627,12
2628,12
2629,12
2630,12
2631,12
2632,12
2633,12
2634,12
2635,12
2636,12
2637,12
2638,12
2639,12
2640,12
2641,12
2642,12
2643,12
2644,12
2645,12
2646,12
2647,12
2648,12
2649,12
2650,12
2651,12
2652,12
2653,12
2654,12
2655,12
2656,12
2657,12
2658,12
2659,12
2660,12
2661,12
2662,12
2663,12
2664,12
2665,12
2666,12
2667,12
2668,12
2669,12
2670,12
2671,12
2672,12
2673,12
2674,12
2675,12
2676,12
2677,12
2678,12
2679,12
2680,12
2681,12
2682,12
2683,12
2684,13
2685,13
2686,13
2687,13
2688,13
2689,12
2690,12
2691,12
2692,12
2693,12
2694,12
2695,12
2696,12
2697,12
2698,12
2699,12
2700,12
2701,12
2702,12
2703,12
2704,12
2705,12
2706,12
2707,12
2708,12
2709,12
2710,12
2711,12
2712,12
2713,12
2714,12
2715,12
2716,12
2717,12
2718,12
2719,12
2720,12
2721,12
2722,12
2723,12
2724,12
2725,12
2726,12
2727,12
2728,12
2729,12
2730,12
2731,12
2732,12
2733,12
2734,13
2735,12
2736,12
2737,12
2738,12
2739,12
2740,12
2741,12
2742,12
2743,12
2744,12
2745,12
2746,12
2747,12
2748,12
2749,12
2750,12
2751,12
2752,12
2753,12
2754,12
2755,12
2756,12
2757,12
2758,12
2759,12
2760,12
2761,12
2762,12
2763,12
2764,12
2765,12
2766,12
2767,12
2768,12
2769,12
2770,12
2771,12
2772,12
2773,12
2774,12
2775,12
2776,12
2777,12
2778,12
2779,12
2780,12
2781,12
2782,12
2783,12
2784,12
2785,12
2786,12
2787,12
2788,12
2789,12
2790,12
2791,12
2792,12
2793,12
2794,12
2795,12
2796,12
2797,12
2798,12
2799,12
2800,12
2801,12
2802,12
2803,12
2804,12
2805,12
2806,12
2807,12
2808,12
2809,12
2810,12
2811,12
2812,12
2813,12
2814,13
2815,13
2816,13
2817,12
2818,12
2819,13
2820,12
2821,12
2822,12
2823,12
2824,12
2825,12
2826,12
2827,12
2828,12
2829,12
2830,12
2831,12
2832,12
2833,12
2834,12
2835,12
2836,12
2837,12
2838,12
2839,12
2840,12
2841,12
2842,12
2843,12
2844,12
2845,12
2846,12
2847,12
2848,12
2849,12
2850,12
2851,12
2852,12
2853,12
2854,12
2855,12
2856,12
2857,12
2858,12
2859,12
2860,12
2861,12
2862,12
2863,12
2864,12
2865,12
2866,12
2867,12
2868,12
2869,12
2870,12
2871,12
2872,12
2873,12
2874,12
2875,12
2876,12
2877,12
2878,12
2879,12
2880,12
2881,12
2882,12
2883,12
2884,12
2885,12
2886,12
2887,12
2888,12
2889,12
2890,12
2891,12
2892,12
2893,12
2894,12
2895,12
2896,12
2897,12
2898,12
2899,12
2900,12
2901,12
2902,12
2903,13
2904,13
2905,13
2906,12
2907,12
2908,12
2909,12
2910,12
2911,12
2912,12
2913,12
2914,12
2915,12
2916,12
2917,12
2918,12
2919,12
2920,12
2921,12
2922,12
2923,12
2924,12
2925,12
2926,12
2927,12
2928,12
2929,12
2930,12
2931,12
2932,12
2933,12
2934,12
2935,12
2936,12
2937,12
2938,12
2939,12
2940,12
2941,12
2942,12
2943,12
2944,12
2945,12
2946,12
2947,12
2948,12
2949,12
2950,12
2951,12
2952,12
2953,12
2954,12
2955,12
2956,12
2957,12
2958,12
2959,12
2960,12
2961,12
2962,12
2963,12
2964,12
2965,12
2966,12
2967,12
2968,12
2969,12
2970,12
2971,12
2972,12
2973,12
2974,12
2975,12
2976,12
2977,12
2978,12
2979,12
2980,12
2981,12
2982,12
2983,12
2984,12
2985,12
2986,12
2987,12
2988,12
2989,12
2990,12
2991,12
2992,12
2993,12
2994,12
2995,12
2996,12
2997,12
2998,12
2999,12
3000,12
3001,12
3002,12
3003,12
3004,12
3005,12
3006,12
3007,12
3008,12
3009,12
3010,12
3011,12
3012,12
3013,12
3014,12
3015,12
3016,12
3017,12
3018,12
3019,12
3020,13
3021,13
3022,13
3023,12
3024,12
3025,12
3026,12
3027,12
3028,12
3029,12
3030,12
3031,12
3032,12
3033,12
3034,12
3035,12
3036,12
3037,12
3038,12
3039,12
3040,12
3041,12
3042,12
3043,12
3044,12
3045,12
3046,12
3047,12
3048,12
3049,12
3050,12
3051,12
3052,12
3053,12
3054,12
3055,12
3056,12
3057,12
3058,12
3059,12
3060,12
3061,12
3062,12
3063,12
3064,12
3065,12
3066,12
3067,12
3068,12
3069,12
3070,12
3071,12
3072,12
3073,12
3074,12
3075,12
3076,13
3077,13
3078,13
3079,13
3080,13
3081,13
3082,13
3083,13
3084,13
3085,13
3086,13
3087,13
3088,13
3089,13
3090,13
3091,13
3092,13
3093,13
3094,13
3095,13
3096,13
3097,13
3098,13
3099,13
3100,13
3101,13
3102,13
3103,13
3104,13
3105,13
3106,13
3107,13
3108,13
3109,13
3110,13
3111,13
3112,13
3113,13
3114,13
3115,13
3116,13
3117,13
3118,13
3119,13
3120,13
3121,13
3122,13
3123,13
3124,13
3125,13
3126,13
3127,13
3128,13
3129,13
3130,13
3131,13
3132,13
3133,13
3134,13
3135,13
3136,13
3137,13
3138,13
3139,13
3140,13
3141,13
3142,13
3143,13
3144,13
3145,13
3146,13
3147,13
3148,13
3149,13
3150,13
3151,13
3152,13
3153,13
3154,13
3155,13
3156,13
3157,13
3158,13
3159,13
3160,13
3161,13
3162,13
3163,13
3164,13
3165,13
3166,13
3167,13
3168,13
3169,13
3170,13
3171,13
3172,13
3173,13
3174,13
3175,13
3176,13
3177,13
3178,13
3179,13
3180,13
3181,13
3182,13
3183,13
3184,13
3185,13
3186,13
3187,13
3188,13
3189,13
3190,13
3191,13
3192,13
3193,13
3194,13
3195,13
3196,13
3197,13
3198,13
3199,13
3200,13
3201,13
3202,13
3203,13
3204,13
3205,13
3206,13
3207,13
3208,13
3209,13
3210,13
3211,13
3212,13
3213,13
3214,13
3215,13
3216,13
3217,13
3218,13
3219,13
3220,13
3221,13
3222,13
3223,13
3224,13
3225,13
3226,13
3227,13
3228,13
3229,13
3230,13
3231,13
3232,13
3233,13
3234,13
3235,13
3236,13
3237,13
3238,13
3239,13
3240,13
3241,13
3242,13
3243,13
3244,13
3245,13
3246,13
3247,14
3248,13
3249,13
3250,13
3251,13
3252,13
3253,13
3254,13
3255,13
3256,13
3257,13
3258,13
3259,13
3260,13
3261,13
3262,13
3263,13
3264,13
3265,13
3266,13
3267,13
3268,13
3269,13
3270,13
3271,13
3272,13
3273,13
3274,13
3275,13
3276,13
3277,13
3278,13
3279,13
3280,14
3281,14
3282,14
3283,14
3284,14
3285,14
3286,14
3287,14
3288,14
3289,14
3290,14
3291,14
3292,15
3293,15
3294,15
3295,15
3296,15
3297,15
3298,15
3299,15
3300,15
3301,15
3302,15
3303,15
3304,15
3305,15
3306,15
3307,15
3308,15
3309,15
3310,15
3311,15
3312,15
3313,15
3314,15
3315,15
3316,15
3317,15
3318,15
3319,15
3320,15
3321,15
3322,15
3323,15
3324,15
3325,15
3326,15
3327,15
3328,15
3329,15
3330,15
3331,15
3332,15
3333,15
3334,15
3335,15
3336,15
3337,15
3338,15
3339,15
3340,15
3341,15
3342,15
3343,15
3344,15
3345,15
3346,15
3347,15
3348,15
3349,15
3350,15
3351,15
3352,15
3353,15
3354,15
3355,15
3356,15
3357,15
3358,15
3359,15
3360,15
3361,15
3362,15
3363,15
3364,15
3365,15
3366,15
3367,15
3368,15
3369,15
3370,15
3371,15
3372,15
3373,15
3374,15
3375,15
3376,15
3377,15
3378,15
3379,15
3380,15
3381,15
3382,15
3383,15
3384,15
3385,15
3386,15
3387,15
3388,15
3389,15
3390,15
3391,15
3392,15
3393,15
3394,15
3395,15
3396,15
3397,15
3398,15
3399,15
3400,15
3401,15
3402,15
3403,15
3404,15
3405,15
3406,15
3407,15
3408,15
3409,15
3410,15
3411,15
3412,15
3413,15
3414,15
3415,15
3416,15
3417,15
3418,15
3419,15
3420,15
3421,15
3422,15
3423,15
3424,15
3425,15
3426,15
3427,15
3428,15
3429,15
3430,15
3431,15
3432,15
3433,15
3434,15
3435,15
3436,15
3437,15
3438,15
3439,15
3440,15
3441,15
3442,16
3443,15
3444,15
3445,15
3446,15
3447,15
3448,15
3449,15
3450,15
3451,15
3452,15
3453,15
3454,15
3455,15
3456,15
3457,15
3458,15
3459,15
3460,15
3461,15
3462,15
3463,15
3464,15
3465,15
3466,15
3467,15
3468,15
3469,15
3470,15
3471,15
3472,15
3473,15
3474,15
3475,15
3476,15
3477,15
3478,15
3479,15
3480,15
3481,15
3482,15
3483,15
3484,15
3485,15
3486,15
3487,15
3488,15
3489,15
3490,16
3491,16
3492,16
3493,16
3494,16
3495,16
3496,16
3497,16
3498,16
3499,16
3500,16
3501,16
3502,16
3503,16
3504,16
3505,16
3506,16
3507,16
3508,16
3509,16
3510,16
3511,16
3512,16
3513,16
3514,16
3515,16
3516,16
3517,16
3518,15
3519,15
3520,15
3521,15
3522,15
3523,15
3524,15
3525,15
3526,15
3527,15
3528,16
3529,15
3530,15
3531,15
3532,15
3533,15
3534,15
3535,15
3536,15
3537,15
3538,15
3539,15
3540,15
3541,15
3542,15
3543,15
3544,15
3545,15
3546,15
3547,15
3548,15
3549,15
3550,15
3551,15
3552,15
3553,15
3554,15
3555,15
3556,15
3557,15
3558,15
3559,15
3560,15
3561,15
3562,15
3563,15
3564,15
3565,15
3566,15
3567,15
3568,15
3569,15
3570,15
3571,15
3572,15
3573,15
3574,15
3575,15
3576,15
3577,15
3578,15
3579,15
3580,15
3581,15
3582,15
3583,15
3584,15
3585,15
3586,15
3587,15
3588,15
3589,15
3590,15
3591,15
3592,16
3593,15
3594,15
3595,15
3596,15
3597,15
3598,15
3599,15
3600,15
3601,15
3602,15
3603,15
3604,15
3605,15
3606,15
3607,15
3608,15
3609,15
3610,15
3611,15
3612,15
3613,15
3614,15
3615,15
3616,15
3617,15
3618,15
3619,15
3620,15
3621,15
3622,15
3623,15
3624,15
3625,15
3626,15
3627,15
3628,15
3629,15
3630,15
3631,15
3632,15
3633,15
3634,15
3635,15
3636,15
3637,15
3638,15
3639,15
3640,15
3641,15
3642,15
3643,15
3644,15
3645,15
3646,15
3647,15
3648,15
3649,15
3650,15
3651,15
3652,15
3653,15
3654,15
3655,15
3656,15
3657,15
3658,15
3659,15
3660,15
3661,15
3662,15
3663,15
3664,15
3665,15
3666,15
3667,15
3668,15
3669,15
3670,15
3671,15
3672,15
3673,15
3674,15
3675,15
3676,15
3677,15
3678,15
3679,15
3680,15
3681,15
3682,15
3683,15
3684,15
3685,15
3686,15
3687,15
3688,15
3689,15
3690,15
3691,15
3692,15
3693,15
3694,15
3695,15
3696,15
3697,15
3698,15
3699,15
3700,15
3701,15
3702,15
3703,15
3704,15
3705,15
3706,15
3707,15
3708,15
3709,15
3710,15
3711,15
3712,15
3713,15
3714,15
3715,15
3716,15
3717,15
3718,15
3719,15
3720,15
3721,15
3722,15
3723,15
3724,15
3725,15
3726,15
3727,15
3728,15
3729,15
3730,15
3731,15
3732,15
3733,15
3734,15
3735,15
3736,15
3737,15
3738,15
3739,15
3740,15
3741,15
3742,15
3743,15
3744,15
3745,15
3746,15
3747,15
3748,15
3749,15
3750,15
3751,15
3752,15
3753,15
3754,15
3755,15
3756,15
3757,15
3758,15
3759,15
3760,15
3761,15
3762,15
3763,15
3764,15
3765,15
3766,15
3767,15
3768,15
3769,15
3770,15
3771,15
3772,15
3773,15
3774,15
3775,15
3776,15
3777,15
3778,15
3779,15
3780,15
3781,15
3782,15
3783,15
3784,15
3785,15
3786,15
3787,15
3788,15
3789,15
3790,15
3791,15
3792,15
3793,15
3794,15
3795,15
3796,15
3797,15
3798,15
3799,15
3800,15
3801,15
3802,15
3803,15
3804,15
3805,15
3806,15
3807,15
3808,15
3809,15
3810,15
3811,15
3812,15
3813,15
3814,15
3815,15
3816,15
3817,15
3818,15
3819,15
3820,15
3821,15
3822,15
3823,15
3824,15
3825,15
3826,15
3827,15
3828,15
3829,15
3830,15
3831,15
3832,15
3833,15
3834,15
3835,15
3836,15
3837,15
3838,15
3839,15
3840,15
3841,15
3842,15
3843,15
3844,15
3845,15
3846,15
3847,15
3848,15
3849,15
3850,15
3851,15
3852,15
3853,15
3854,15
3855,15
3856,15
3857,15
3858,15
3859,15
3860,15
3861,15
3862,15
3863,15
3864,15
3865,15
3866,16
3867,16
3868,15
3869,15
3870,15
3871,15
3872,15
3873,15
3874,15
3875,15
3876,15
3877,15
3878,15
3879,15
3880,15
3881,15
3882,15
3883,15
3884,15
3885,15
3886,15
3887,15
3888,15
3889,15
3890,15
3891,15
3892,15
3893,15
3894,15
3895,15
3896,15
3897,15
3898,15
3899,15
3900,15
3901,15
3902,15
3903,15
3904,15
3905,15
3906,15
3907,15
3908,16
3909,16
3910,16
3911,16
3912,16
3913,16
3914,16
3915,16
3916,16
3917,16
3918,16
3919,16
3920,16
3921,16
3922,16
3923,17
3924,16
3925,16
3926,16
3927,16
3928,16
3929,16
3930,16
3931,16
3932,16
3933,16
3934,16
3935,16
3936,16
3937,16
3938,16
3939,16
3940,16
3941,16
3942,16
3943,16
3944,16
3945,16
3946,16
3947,16
3948,16
3949,16
3950,16
3951,16
3952,16
3953,16
3954,16
3955,16
3956,16
3957,16
3958,16
3959,16
3960,16
3961,16
3962,16
3963,16
3964,16
3965,16
3966,16
3967,16
3968,16
3969,16
3970,16
3971,16
3972,16
3973,16
3974,16
3975,16
3976,16
3977,16
3978,16
3979,16
3980,16
3981,16
3982,16
3983,16
3984,16
3985,16
3986,16
3987,16
3988,16
3989,16
3990,16
3991,16
3992,16
3993,16
3994,16
3995,16
3996,16
3997,16
3998,16
3999,16
4000,16
4001,16
4002,16
4003,16
4004,16
4005,16
4006,16
4007,16
4008,16
4009,16
4010,16
4011,16
4012,16
4013,16
4014,16
4015,16
4016,16
4017,16
4018,16
4019,16
4020,16
4021,16
4022,16
4023,16
4024,16
4025,16
4026,16
4027,16
4028,16
4029,16
4030,16
4031,16
4032,16
4033,16
4034,16
4035,16
4036,16
4037,16
4038,16
4039,16
4040,16
4041,16
4042,16
4043,16
4044,16
4045,16
4046,16
4047,16
4048,16
4049,16
4050,16
4051,16
4052,16
4053,16
4054,16
4055,16
4056,16
4057,16
4058,16
4059,16
4060,16
4061,16
4062,16
4063,16
4064,16
4065,16
4066,16
4067,16
4068,16
4069,16
4070,16
4071,16
4072,16
4073,16
4074,16
4075,16
4076,16
4077,16
4078,16
4079,16
4080,16
4081,16
4082,16
4083,16
4084,16
4085,16
4086,16
4087,16
4088,16
4089,16
4090,16
4091,16
4092,16
4093,16
4094,16
4095,16
4096,16
4097,16
4098,16
4099,16
4100,16
4101,16
4102,16
4103,16
4104,16
4105,16
4106,16
4107,16
4108,16
4109,16
4110,16
4111,16
4112,16
4113,16
4114,16
4115,16
4116,16
4117,16
4118,16
4119,16
4120,16
4121,16
4122,16
4123,16
4124,16
4125,16
4126,16
4127,16
4128,16
4129,16
4130,17
4131,17
4132,17
4133,17
4134,16
4135,16
4136,16
4137,16
4138,16
4139,16
4140,16
4141,16
4142,16
4143,16
4144,16
4145,16
4146,16
4147,16
4148,16
4149,16
4150,16
4151,16
4152,16
4153,16
4154,16
4155,16
4156,16
4157,16
4158,16
4159,16
4160,16
4161,16
4162,16
4163,16
4164,16
4165,16
4166,16
4167,16
4168,16
4169,16
4170,16
4171,16
4172,16
4173,16
4174,16
4175,16
4176,16
4177,16
4178,16
4179,16
4180,16
4181,16
4182,16
4183,16
4184,16
4185,16
4186,16
4187,16
4188,16
4189,16
4190,16
4191,16
4192,16
4193,16
4194,16
4195,16
4196,16
4197,16
4198,16
4199,16
4200,16
4201,16
4202,16
4203,16
4204,16
4205,16
4206,16
4207,16
4208,16
4209,16
4210,16
4211,16
4212,16
4213,16
4214,16
4215,16
4216,16
4217,16
4218,16
4219,16
4220,16
4221,16
4222,16
4223,16
4224,16
4225,16
4226,16
4227,16
4228,16
4229,16
4230,16
4231,16
4232,16
4233,16
4234,16
4235,16
4236,16
4237,16
4238,16
4239,16
4240,16
4241,16
4242,16
4243,16
4244,16
4245,16
4246,16
4247,16
4248,16
4249,16
4250,16
4251,16
4252,16
4253,16
4254,16
4255,16
4256,16
4257,16
4258,16
4259,16
4260,16
4261,16
4262,16
4263,16
4264,16
4265,16
4266,16
4267,16
4268,16
4269,16
4270,16
4271,16
4272,17
4273,17
4274,17
4275,16
4276,16
4277,16
4278,16
4279,16
4280,16
4281,16
4282,16
4283,16
4284,16
4285,16
4286,16
4287,16
4288,16
4289,16
4290,16
4291,16
4292,16
4293,16
4294,16
4295,16
4296,16
4297,16
4298,16
4299,16
4300,16
4301,16
4302,16
4303,16
4304,16
4305,16
4306,16
4307,16
4308,16
4309,16
4310,16
4311,16
4312,16
4313,16
4314,16
4315,16
4316,16
4317,16
4318,16
4319,16
4320,16
4321,16
4322,16
4323,16
4324,16
4325,16
4326,16
4327,16
4328,16
4329,16
4330,16
4331,17
4332,16
4333,16
4334,16
4335,16
4336,16
4337,16
4338,16
4339,16
4340,16
4341,16
4342,16
4343,16
4344,16
4345,16
4346,16
4347,16
4348,16
4349,16
4350,16
4351,16
4352,16
4353,16
4354,16
4355,16
4356,16
4357,16
4358,16
4359,16
4360,16
4361,16
4362,16
4363,17
4364,17
4365,17
4366,17
4367,17
4368,17
4369,17
4370,18
4371,17
4372,17
4373,17
4374,17
4375,17
4376,17
4377,17
4378,17
4379,17
4380,17
4381,17
4382,17
4383,17
4384,17
4385,17
4386,16
4387,16
4388,16
4389,16
4390,16
4391,16
4392,16
4393,16
4394,16
4395,16
4396,16
4397,16
4398,16
4399,16
4400,16
4401,16
4402,16
4403,16
4404,16
4405,16
4406,16
4407,16
4408,16
4409,16
4410,16
4411,16
4412,16
4413,16
4414,16
4415,16
4416,16
4417,16
4418,16
4419,16
4420,16
4421,16
4422,16
4423,16
4424,16
4425,16
4426,16
4427,16
4428,16
4429,16
4430,16
4431,16
4432,16
4433,16
4434,16
4435,16
4436,16
4437,16
4438,16
4439,16
4440,16
4441,16
4442,16
4443,16
4444,16
4445,16
4446,16
4447,16
4448,16
4449,16
4450,16
4451,16
4452,16
4453,16
4454,16
4455,16
4456,16
4457,16
4458,16
4459,16
4460,16
4461,16
4462,16
4463,16
4464,16
4465,16
4466,16
4467,16
4468,16
4469,16
4470,16
4471,16
4472,16
4473,16
4474,16
4475,16
4476,16
4477,16
4478,16
4479,16
4480,16
4481,17
4482,16
4483,16
4484,17
4485,16
4486,16
4487,16
4488,16
4489,16
4490,16
4491,16
4492,16
4493,16
4494,16
4495,16
4496,16
4497,16
4498,16
4499,16
4500,16
4501,16
4502,16
4503,16
4504,16
4505,16
4506,16
4507,16
4508,16
4509,16
4510,16
4511,16
4512,16
4513,16
4514,16
4515,16
4516,16
4517,16
4518,16
4519,17
4520,17
4521,16
4522,16
4523,16
4524,16
4525,16
4526,16
4527,16
4528,16
4529,16
4530,16
4531,16
4532,16
4533,16
4534,16
4535,16
4536,16
4537,16
4538,16
4539,16
4540,16
4541,16
4542,16
4543,16
4544,16
4545,16
4546,16
4547,16
4548,16
4549,16
4550,16
4551,16
4552,16
4553,16
4554,16
4555,16
4556,16
4557,16
4558,16
4559,16
4560,16
4561,16
4562,16
4563,16
4564,16
4565,16
4566,16
4567,16
4568,16
4569,16
4570,16
4571,16
4572,16
4573,16
4574,16
4575,16
4576,16
4577,16
4578,16
4579,16
4580,16
4581,16
4582,16
4583,16
4584,16
4585,16
4586,16
4587,16
4588,16
4589,16
4590,16
4591,16
4592,16
4593,16
4594,16
4595,16
4596,16
4597,16
4598,16
4599,16
4600,16
4601,16
4602,16
4603,16
4604,16
4605,16
4606,16
4607,16
4608,16
4609,16
4610,16
4611,16
4612,16
4613,16
4614,16
4615,16
4616,16
4617,16
4618,16
4619,16
4620,16
4621,16
4622,16
4623,16
4624,16
4625,17
4626,16
4627,16
4628,16
4629,16
4630,16
4631,16
4632,16
4633,16
4634,16
4635,16
4636,16
4637,16
4638,16
4639,16
4640,16
4641,16
4642,16
4643,16
4644,16
4645,16
4646,16
4647,16
4648,16
4649,16
4650,16
4651,16
4652,16
4653,16
4654,17
4655,17
4656,17
4657,17
4658,17
4659,17
4660,17
4661,17
4662,17
4663,17
4664,17
4665,17
4666,17
4667,17
4668,17
4669,17
4670,17
4671,17
4672,17
4673,17
4674,17
4675,17
4676,17
4677,17
4678,17
4679,17
4680,17
4681,17
4682,17
4683,17
4684,17
4685,17
4686,17
4687,17
4688,17
4689,17
4690,17
4691,17
4692,17
4693,17
4694,17
4695,17
4696,17
4697,17
4698,17
4699,17
4700,17
4701,17
4702,17
4703,17
4704,17
4705,17
4706,17
4707,17
4708,17
4709,17
4710,17
4711,17
4712,17
4713,17
4714,17
4715,17
4716,17
4717,17
4718,17
4719,17
4720,17
4721,17
4722,17
4723,17
4724,17
4725,17
4726,17
4727,17
4728,17
4729,17
4730,17
4731,17
4732,17
4733,17
4734,17
4735,18
4736,18
4737,17
4738,17
4739,17
4740,17
4741,18
4742,18
4743,18
4744,18
4745,18
4746,18
4747,18
4748,18
4749,18
4750,18
4751,17
4752,17
4753,17
4754,17
4755,17
4756,17
4757,17
4758,17
4759,17
4760,17
4761,17
4762,17
4763,17
4764,17
4765,17
4766,17
4767,17
4768,17
4769,17
4770,17
4771,17
4772,17
4773,17
4774,17
4775,17
4776,17
4777,17
4778,17
4779,17
4780,17
4781,17
4782,17
4783,17
4784,18
4785,18
4786,17
4787,17
4788,17
4789,17
4790,17
4791,17
4792,17
4793,17
4794,17
4795,17
4796,17
4797,17
4798,17
4799,17
4800,17
4801,17
4802,17
4803,17
4804,17
4805,17
4806,17
4807,17
4808,17
4809,17
4810,17
4811,17
4812,17
4813,17
4814,17
4815,17
4816,17
4817,17
4818,17
4819,17
4820,17
4821,17
4822,17
4823,17
4824,17
4825,17
4826,17
4827,17
4828,17
4829,17
4830,17
4831,17
4832,17
4833,17
4834,17
4835,17
4836,17
4837,17
4838,17
4839,17
4840,17
4841,17
4842,17
4843,17
4844,17
4845,17
4846,17
4847,17
4848,17
4849,17
4850,17
4851,17
4852,17
4853,17
4854,17
4855,17
4856,17
4857,17
4858,17
4859,17
4860,17
4861,17
4862,17
4863,17
4864,17
4865,17
4866,17
4867,17
4868,17
4869,17
4870,17
4871,17
4872,17
4873,17
4874,17
4875,17
4876,17
4877,17
4878,17
4879,17
4880,17
4881,17
4882,17
4883,17
4884,17
4885,17
4886,17
4887,17
4888,17
4889,17
4890,17
4891,17
4892,17
4893,17
4894,17
4895,17
4896,17
4897,17
4898,17
4899,17
4900,17
4901,17
4902,17
4903,17
4904,17
4905,17
4906,17
4907,17
4908,17
4909,17
4910,17
4911,17
4912,17
4913,17
4914,17
4915,17
4916,17
4917,17
4918,17
4919,17
4920,17
4921,17
4922,17
4923,17
4924,17
4925,17
4926,17
4927,17
4928,17
4929,17
4930,17
4931,17
4932,17
4933,17
4934,17
4935,17
4936,17
4937,17
4938,17
4939,17
4940,17
4941,17
4942,17
4943,17
4944,17
4945,17
4946,17
4947,17
4948,17
4949,18
4950,18
4951,17
4952,17
4953,17
4954,17
4955,17
4956,17
4957,17
4958,17
4959,17
4960,17
4961,17
4962,17
4963,17
4964,17
4965,17
4966,17
4967,17
4968,17
4969,17
4970,17
4971,17
4972,17
4973,17
4974,17
4975,17
4976,17
4977,17
4978,17
4979,17
4980,17
4981,17
4982,17
4983,17
4984,17
4985,17
4986,17
4987,17
4988,17
4989,17
4990,17
4991,17
4992,17
4993,17
4994,17
4995,17
4996,17
4997,17
4998,17
4999,17
5000,17
5001,17
5002,17
5003,17
5004,17
5005,17
5006,17
5007,17
5008,17
5009,17
5010,17
5011,17
5012,17
5013,17
5014,17
5015,17
5016,17
5017,17
5018,17
5019,17
5020,17
5021,17
5022,17
5023,17
5024,17
5025,17
5026,17
5027,17
5028,17
5029,17
5030,17
5031,17
5032,17
5033,17
5034,17
5035,17
5036,17
5037,17
5038,17
5039,17
5040,17
5041,17
5042,17
5043,17
5044,17
5045,17
5046,17
5047,17
5048,17
5049,17
5050,17
5051,17
5052,17
5053,17
5054,17
5055,17
5056,17
5057,17
5058,17
5059,17
5060,17
5061,17
5062,17
5063,17
5064,17
5065,17
5066,17
5067,17
5068,17
5069,17
5070,17
5071,17
5072,17
5073,17
5074,17
5075,17
5076,17
5077,17
5078,17
5079,17
5080,17
5081,17
5082,17
5083,17
5084,17
5085,17
5086,17
5087,17
5088,17
5089,17
5090,17
5091,17
5092,17
5093,17
5094,17
5095,17
5096,17
5097,17
5098,17
5099,17
5100,17
5101,17
5102,17
5103,17
5104,17
5105,17
5106,17
5107,17
5108,17
5109,17
5110,17
5111,17
5112,17
5113,17
5114,17
5115,17
5116,17
5117,17
5118,17
5119,17
5120,17
5121,17
5122,17
5123,17
5124,17
5125,17
5126,17
5127,17
5128,17
5129,17
5130,17
5131,17
5132,17
5133,17
5134,17
5135,17
5136,17
5137,17
5138,17
5139,17
5140,17
5141,17
5142,17
5143,17
5144,17
5145,17
5146,17
5147,17
5148,17
5149,17
5150,17
5151,17
5152,17
5153,17
5154,17
5155,17
5156,17
5157,17
5158,17
5159,17
5160,17
5161,17
5162,17
5163,17
5164,17
5165,17
5166,17
5167,17
5168,17
5169,17
5170,17
5171,17
5172,17
5173,17
5174,17
5175,17
5176,17
5177,17
5178,17
5179,17
5180,17
5181,17
5182,17
5183,17
5184,17
5185,17
5186,17
5187,17
5188,17
5189,17
5190,17
5191,17
5192,17
5193,17
5194,17
5195,17
5196,17
5197,17
5198,17
5199,17
5200,17
5201,17
5202,17
5203,17
5204,17
5205,17
5206,17
5207,17
5208,17
5209,17
5210,17
5211,17
5212,17
5213,17
5214,17
5215,17
5216,17
5217,17
5218,17
5219,17
5220,17
5221,17
5222,17
5223,17
5224,17
5225,17
5226,17
5227,17
5228,17
5229,17
5230,17
5231,17
5232,17
5233,17
5234,17
5235,17
5236,17
5237,17
5238,17
5239,17
5240,17
5241,17
5242,17
5243,17
5244,17
5245,17
5246,17
5247,17
5248,17
5249,17
5250,17
5251,17
5252,17
5253,17
5254,17
5255,17
5256,17
5257,17
5258,17
5259,17
5260,17
5261,17
5262,17
5263,17
5264,17
5265,17
5266,17
5267,17
5268,17
5269,17
5270,17
5271,17
5272,17
5273,17
5274,17
5275,17
5276,17
5277,17
5278,17
5279,17
5280,17
5281,17
5282,17
5283,17
5284,17
5285,17
5286,17
5287,17
5288,17
5289,17
5290,17
5291,17
5292,17
5293,17
5294,17
5295,17
5296,17
5297,17
5298,17
5299,17
5300,17
5301,17
5302,17
5303,17
5304,17
5305,17
5306,17
5307,17
5308,17
5309,17
5310,17
5311,17
5312,17
5313,17
5314,17
5315,17
5316,17
5317,17
5318,17
5319,17
5320,17
5321,17
5322,17
5323,17
5324,17
5325,17
5326,17
5327,17
5328,17
5329,17
5330,17
5331,17
5332,17
5333,17
5334,17
5335,17
5336,17
5337,17
5338,17
5339,17
5340,17
5341,17
5342,17
5343,17
5344,17
5345,17
5346,17
5347,17
5348,17
5349,18
5350,18
5351,18
5352,18
5353,18
5354,18
5355,17
5356,17
5357,17
5358,17
5359,17
5360,17
5361,17
5362,17
5363,17
5364,17
5365,17
5366,17
5367,17
5368,17
5369,17
5370,17
5371,17
5372,17
5373,17
5374,17
5375,17
5376,17
5377,17
5378,17
5379,17
5380,17
5381,17
5382,17
5383,17
5384,17
5385,18
5386,18
5387,17
5388,17
5389,17
5390,17
5391,17
5392,17
5393,17
5394,17
5395,17
5396,17
5397,17
5398,17
5399,17
5400,17
5401,17
5402,17
5403,17
5404,17
5405,17
5406,17
5407,17
5408,17
5409,17
5410,17
5411,17
5412,17
5413,17
5414,17
5415,17
5416,17
5417,17
5418,17
5419,17
5420,17
5421,17
5422,17
5423,17
5424,17
5425,17
5426,17
5427,17
5428,17
5429,17
5430,17
5431,17
5432,17
5433,17
5434,17
5435,17
5436,17
5437,17
5438,17
5439,17
5440,17
5441,17
5442,17
5443,17
5444,17
5445,17
5446,17
5447,17
5448,17
5449,17
5450,17
5451,17
5452,17
5453,17
5454,17
5455,17
5456,17
5457,17
5458,17
5459,17
5460,17
5461,17
5462,17
5463,17
5464,17
5465,17
5466,17
5467,17
5468,17
5469,17
5470,17
5471,17
5472,17
5473,17
5474,17
5475,17
5476,17
5477,17
5478,17
5479,17
5480,17
5481,17
5482,17
5483,17
5484,17
5485,17
5486,17
5487,17
5488,17
5489,17
5490,17
5491,17
5492,17
5493,18
5494,17
5495,17
5496,17
5497,17
5498,17
5499,17
5500,17
5501,17
5502,17
5503,17
5504,17
5505,17
5506,17
5507,17
5508,17
5509,17
5510,17
5511,17
5512,17
5513,17
5514,17
5515,17
5516,17
5517,17
5518,17
5519,17
5520,17
5521,17
5522,17
5523,17
5524,17
5525,17
5526,17
5527,17
5528,17
5529,17
5530,17
5531,17
5532,17
5533,17
5534,17
5535,17
5536,17
5537,17
5538,17
5539,17
5540,17
5541,17
5542,17
5543,17
5544,17
5545,17
5546,17
5547,17
5548,17
5549,17
5550,17
5551,17
5552,17
5553,17
5554,17
5555,17
5556,17
5557,17
5558,17
5559,17
5560,17
5561,17
5562,17
5563,17
5564,17
5565,17
5566,17
5567,17
5568,17
5569,17
5570,17
5571,17
5572,17
5573,17
5574,17
5575,17
5576,17
5577,17
5578,17
5579,17
5580,17
5581,17
5582,17
5583,17
5584,17
5585,17
5586,17
5587,17
5588,17
5589,17
5590,17
5591,17
5592,17
5593,17
5594,17
5595,17
5596,17
5597,17
5598,17
5599,17
5600,17
5601,17
5602,17
5603,17
5604,17
5605,17
5606,17
5607,17
5608,17
5609,17
5610,17
5611,17
5612,17
5613,17
5614,17
5615,17
5616,17
5617,17
5618,17
5619,17
5620,17
5621,17
5622,17
5623,17
5624,17
5625,17
5626,17
5627,17
5628,17
5629,17
5630,17
5631,17
5632,17
5633,17
5634,17
5635,17
5636,17
5637,17
5638,17
5639,17
5640,17
5641,17
5642,17
5643,17
5644,17
5645,17
5646,17
5647,17
5648,17
5649,17
5650,17
5651,17
5652,17
5653,17
5654,17
5655,17
5656,17
5657,17
5658,17
5659,17
5660,17
5661,17
5662,18
5663,17
5664,17
5665,17
5666,17
5667,17
5668,17
5669,17
5670,17
5671,17
5672,17
5673,17
5674,17
5675,17
5676,17
5677,17
5678,17
5679,17
5680,17
5681,17
5682,17
5683,17
5684,17
5685,17
5686,17
5687,17
5688,17
5689,17
5690,17
5691,17
5692,17
5693,17
5694,17
5695,17
5696,17
5697,17
5698,17
5699,17
5700,17
5701,17
5702,17
5703,17
5704,17
5705,17
5706,17
5707,17
5708,17
5709,17
5710,17
5711,17
5712,17
5713,17
5714,17
5715,17
5716,17
5717,17
5718,17
5719,17
5720,17
5721,17
5722,17
5723,17
5724,17
5725,17
5726,17
5727,17
5728,17
5729,17
5730,17
5731,17
5732,17
5733,17
5734,17
5735,17
5736,17
5737,17
5738,17
5739,17
5740,17
5741,17
5742,17
5743,17
5744,17
5745,17
5746,17
5747,17
5748,17
5749,17
5750,17
5751,17
5752,17
5753,17
5754,17
5755,17
5756,17
5757,17
5758,17
5759,17
5760,17
5761,17
5762,17
5763,17
5764,17
5765,17
5766,17
5767,17
5768,17
5769,17
5770,17
5771,17
5772,17
5773,17
5774,17
5775,17
5776,17
5777,17
5778,17
5779,17
5780,17
5781,17
5782,17
5783,17
5784,17
5785,17
5786,17
5787,17
5788,17
5789,17
5790,18
5791,17
5792,17
5793,17
5794,17
5795,17
5796,17
5797,17
5798,17
5799,17
5800,17
5801,17
5802,17
5803,17
5804,17
5805,17
5806,17
5807,17
5808,17
5809,17
5810,17
5811,17
5812,17
5813,17
5814,17
5815,17
5816,17
5817,17
5818,17
5819,17
5820,17
5821,17
5822,17
5823,17
5824,17
5825,17
5826,17
5827,17
5828,17
5829,17
5830,17
5831,17
5832,17
5833,17
5834,17
5835,17
5836,17
5837,17
5838,17
5839,17
5840,17
5841,17
5842,17
5843,17
5844,17
5845,17
5846,17
5847,17
5848,17
5849,17
5850,17
5851,17
5852,17
5853,17
5854,17
5855,17
5856,17
5857,17
5858,17
5859,17
5860,17
5861,17
5862,17
5863,17
5864,17
5865,17
5866,17
5867,17
5868,17
5869,17
5870,17
5871,17
5872,17
5873,17
5874,17
5875,17
5876,17
5877,17
5878,17
5879,17
5880,17
5881,17
5882,17
5883,17
5884,17
5885,17
5886,17
5887,17
5888,17
5889,17
5890,17
5891,17
5892,17
5893,17
5894,17
5895,17
5896,17
5897,17
5898,17
5899,17
5900,17
5901,17
5902,17
5903,17
5904,17
5905,17
5906,17
5907,17
5908,17
5909,17
5910,17
5911,17
5912,17
5913,17
5914,17
5915,17
5916,17
5917,17
5918,17
5919,17
5920,17
5921,17
5922,17
5923,17
5924,17
5925,17
5926,17
5927,17
5928,17
5929,17
5930,17
5931,17
5932,17
5933,17
5934,18
5935,17
5936,17
5937,17
5938,17
5939,17
5940,17
5941,18
5942,17
5943,17
5944,17
5945,17
5946,17
5947,17
5948,17
5949,17
5950,17
5951,18
5952,18
5953,18
5954,17
5955,17
5956,17
5957,17
5958,17
5959,17
5960,18
5961,17
5962,17
5963,17
5964,17
5965,17
5966,17
5967,17
5968,17
5969,17
5970,17
5971,17
5972,17
5973,17
5974,17
5975,17
5976,17
5977,17
5978,17
5979,17
5980,17
5981,17
5982,17
5983,17
5984,17
5985,17
5986,17
5987,17
5988,17
5989,17
5990,17
5991,17
5992,17
5993,17
5994,17
5995,17
5996,17
5997,17
5998,17
5999,17
6000,17
6001,17
6002,17
6003,17
6004,17
6005,17
6006,17
6007,17
6008,17
6009,17
6010,17
6011,17
6012,17
6013,17
6014,17
6015,17
6016,17
6017,17
6018,17
6019,17
6020,17
6021,17
6022,17
6023,17
6024,17
6025,17
6026,17
6027,17
6028,17
6029,17
6030,17
6031,17
6032,17
6033,17
6034,17
6035,17
6036,17
6037,17
6038,17
6039,17
6040,17
6041,17
6042,17
6043,17
6044,17
6045,17
6046,17
6047,17
6048,17
6049,17
6050,17
6051,17
6052,17
6053,17
6054,17
6055,17
6056,17
6057,17
6058,17
6059,17
6060,17
6061,17
6062,17
6063,17
6064,17
6065,17
6066,17
6067,17
6068,17
6069,17
6070,17
6071,17
6072,17
6073,17
6074,17
6075,17
6076,17
6077,17
6078,17
6079,17
6080,17
6081,17
6082,17
6083,17
6084,17
6085,17
6086,17
6087,17
6088,17
6089,17
6090,17
6091,17
6092,17
6093,17
6094,17
6095,17
6096,17
6097,17
6098,17
6099,17
6100,17
6101,17
6102,17
6103,17
6104,17
6105,17
6106,17
6107,17
6108,17
6109,17
6110,17
6111,17
6112,17
6113,17
6114,17
6115,17
6116,17
6117,17
6118,17
6119,17
6120,17
6121,17
6122,17
6123,17
6124,17
6125,17
6126,18
6127,18
6128,18
6129,18
6130,17
6131,17
6132,17
6133,17
6134,17
6135,17
6136,17
6137,17
6138,17
6139,17
6140,17
6141,17
6142,17
6143,17
6144,17
6145,17
6146,17
6147,17
6148,17
6149,17
6150,17
6151,17
6152,17
6153,17
6154,17
6155,17
6156,17
6157,17
6158,17
6159,17
6160,17
6161,17
6162,17
6163,17
6164,17
6165,17
6166,17
6167,17
6168,17
6169,17
6170,17
6171,17
6172,17
6173,17
6174,17
6175,17
6176,17
6177,17
6178,17
6179,17
6180,17
6181,17
6182,17
6183,17
6184,17
6185,17
6186,17
6187,17
6188,17
6189,17
6190,17
6191,17
6192,17
6193,17
6194,17
6195,17
6196,17
6197,17
6198,17
6199,17
6200,18
6201,17
6202,17
6203,17
6204,17
6205,17
6206,17
6207,17
6208,17
6209,17
6210,17
6211,17
6212,17
6213,17
6214,17
6215,17
6216,17
6217,17
6218,17
6219,17
6220,17
6221,17
6222,17
6223,17
6224,17
6225,17
6226,17
6227,17
6228,17
6229,17
6230,17
6231,17
6232,17
6233,17
6234,17
6235,17
6236,17
6237,17
6238,17
6239,17
6240,17
6241,17
6242,17
6243,17
6244,17
6245,17
6246,17
6247,17
6248,17
6249,17
6250,17
6251,17
6252,17
6253,17
6254,17
6255,17
6256,17
6257,17
6258,17
6259,17
6260,17
6261,17
6262,17
6263,17
6264,17
6265,17
6266,17
6267,17
6268,17
6269,17
6270,17
6271,17
6272,17
6273,17
6274,17
6275,17
6276,17
6277,17
6278,17
6279,17
6280,17
6281,17
6282,18
6283,18
6284,18
6285,18
6286,18
6287,18
6288,18
6289,18
6290,18
6291,18
6292,18
6293,18
6294,18
6295,18
6296,18
6297,18
6298,18
6299,18
6300,18
6301,18
6302,18
6303,18
6304,18
6305,18
6306,18
6307,18
6308,18
6309,18
6310,18
6311,18
6312,18
6313,18
6314,18
6315,17
6316,17
6317,17
6318,17
6319,17
6320,17
6321,17
6322,18
6323,18
6324,18
6325,18
6326,18
6327,18
6328,18
6329,18
6330,18
6331,18
6332,18
6333,18
6334,18
6335,18
6336,18
6337,18
6338,18
6339,18
6340,18
6341,18
6342,18
6343,18
6344,17
6345,17
6346,17
6347,17
6348,17
6349,17
6350,17
6351,17
6352,17
6353,17
6354,17
6355,17
6356,17
6357,17
6358,17
6359,17
6360,17
6361,17
6362,17
6363,17
6364,17
6365,17
6366,17
6367,17
6368,17
6369,17
6370,17
6371,17
6372,17
6373,17
6374,17
6375,17
6376,17
6377,17
6378,17
6379,17
6380,17
6381,17
6382,17
6383,17
6384,17
6385,17
6386,17
6387,17
6388,17
6389,17
6390,17
6391,17
6392,17
6393,17
6394,17
6395,17
6396,17
6397,17
6398,17
6399,17
6400,17
6401,17
6402,17
6403,17
6404,17
6405,17
6406,17
6407,17
6408,17
6409,17
6410,17
6411,17
6412,17
6413,17
6414,17
6415,17
6416,17
6417,17
6418,17
6419,17
6420,17
6421,17
6422,17
6423,17
6424,17
6425,17
6426,17
6427,17
6428,17
6429,17
6430,17
6431,17
6432,17
6433,17
6434,17
6435,17
6436,17
6437,17
6438,17
6439,17
6440,17
6441,17
6442,17
6443,17
6444,17
6445,17
6446,17
6447,17
6448,17
6449,17
6450,17
6451,17
6452,17
6453,17
6454,17
6455,17
6456,17
6457,17
6458,17
6459,17
6460,17
6461,17
6462,17
6463,17
6464,17
6465,17
6466,17
6467,17
6468,17
6469,17
6470,17
6471,17
6472,17
6473,17
6474,17
6475,17
6476,17
6477,17
6478,17
6479,17
6480,17
6481,17
6482,17
6483,17
6484,17
6485,17
6486,17
6487,17
6488,17
6489,17
6490,17
6491,17
6492,17
6493,17
6494,17
6495,17
6496,17
6497,17
6498,17
6499,17
6500,17
6501,17
6502,17
6503,17
6504,17
6505,17
6506,17
6507,17
6508,17
6509,17
6510,17
6511,17
6512,17
6513,17
6514,17
6515,17
6516,17
6517,17
6518,17
6519,17
6520,17
6521,17
6522,17
6523,17
6524,17
6525,17
6526,17
6527,17
6528,17
6529,17
6530,17
6531,17
6532,17
6533,17
6534,17
6535,17
6536,17
6537,17
6538,17
6539,17
6540,17
6541,17
6542,17
6543,17
6544,17
6545,17
6546,18
6547,17
6548,17
6549,17
6550,17
6551,17
6552,17
6553,17
6554,17
6555,17
6556,17
6557,17
6558,17
6559,17
6560,17
6561,17
6562,17
6563,17
6564,17
6565,17
6566,17
6567,17
6568,17
6569,17
6570,17
6571,17
6572,17
6573,17
6574,17
6575,17
6576,17
6577,17
6578,17
6579,17
6580,17
6581,17
6582,17
6583,17
6584,17
6585,17
6586,17
6587,17
6588,17
6589,17
6590,17
6591,17
6592,18
6593,18
6594,18
6595,18
6596,17
6597,17
6598,17
6599,17
6600,17
6601,17
6602,17
6603,17
6604,17
6605,17
6606,17
6607,17
6608,17
6609,17
6610,17
6611,17
6612,17
6613,17
6614,17
6615,17
6616,17
6617,17
6618,17
6619,17
6620,17
6621,17
6622,17
6623,17
6624,17
6625,17
6626,17
6627,17
6628,17
6629,17
6630,17
6631,17
6632,17
6633,17
6634,17
6635,17
6636,17
6637,17
6638,17
6639,17
6640,17
6641,17
6642,17
6643,17
6644,17
6645,17
6646,17
6647,17
6648,17
6649,17
6650,17
6651,17
6652,17
6653,17
6654,17
6655,17
6656,17
6657,17
6658,17
6659,17
6660,17
6661,17
6662,17
6663,17
6664,17
6665,17
6666,17
6667,17
6668,17
6669,17
6670,17
6671,18
6672,18
6673,17
6674,17
6675,17
6676,17
6677,17
6678,17
6679,17
6680,17
6681,17
6682,17
6683,17
6684,17
6685,17
6686,17
6687,17
6688,17
6689,17
6690,17
6691,17
6692,17
6693,17
6694,17
6695,17
6696,17
6697,17
6698,17
6699,17
6700,17
6701,17
6702,17
6703,17
6704,17
6705,17
6706,17
6707,17
6708,17
6709,17
6710,17
6711,17
6712,17
6713,17
6714,17
6715,17
6716,17
6717,17
6718,17
6719,17
6720,17
6721,17
6722,17
6723,17
6724,17
6725,17
6726,17
6727,17
6728,17
6729,17
6730,17
6731,17
6732,17
6733,17
6734,17
6735,17
6736,17
6737,17
6738,17
6739,17
6740,17
6741,17
6742,17
6743,17
6744,17
6745,17
6746,17
6747,17
6748,17
6749,17
6750,17
6751,17
6752,17
6753,17
6754,17
6755,17
6756,17
6757,17
6758,17
6759,17
6760,17
6761,17
6762,17
6763,17
6764,17
6765,17
6766,17
6767,17
6768,17
6769,17
6770,17
6771,17
6772,17
6773,17
6774,17
6775,17
6776,17
6777,17
6778,17
6779,17
6780,17
6781,17
6782,17
6783,17
6784,17
6785,17
6786,17
6787,17
6788,17
6789,17
6790,17
6791,17
6792,17
6793,17
6794,17
6795,17
6796,17
6797,17
6798,17
6799,17
6800,17
6801,17
6802,17
6803,17
6804,17
6805,17
6806,17
6807,17
6808,18
6809,17
6810,17
6811,17
6812,17
6813,17
6814,17
6815,17
6816,17
6817,17
6818,17
6819,17
6820,17
6821,17
6822,17
6823,17
6824,17
6825,17
6826,17
6827,17
6828,17
6829,17
6830,17
6831,17
6832,17
6833,17
6834,17
6835,17
6836,17
6837,17
6838,17
6839,17
6840,17
6841,17
6842,17
6843,17
6844,17
6845,17
6846,17
6847,17
6848,17
6849,17
6850,17
6851,17
6852,17
6853,17
6854,17
6855,17
6856,17
6857,17
6858,17
6859,17
6860,17
6861,17
6862,17
6863,17
6864,17
6865,17
6866,17
6867,17
6868,17
6869,17
6870,17
6871,17
6872,17
6873,17
6874,17
6875,17
6876,17
6877,17
6878,17
6879,17
6880,17
6881,17
6882,17
6883,17
6884,17
6885,17
6886,17
6887,17
6888,17
6889,17
6890,17
6891,17
6892,17
6893,17
6894,17
6895,17
6896,17
6897,17
6898,17
6899,17
6900,17
6901,17
6902,17
6903,17
6904,17
6905,17
6906,17
6907,17
6908,17
6909,17
6910,17
6911,17
6912,17
6913,17
6914,17
6915,17
6916,17
6917,17
6918,17
6919,17
6920,17
6921,17
6922,17
6923,17
6924,17
6925,17
6926,17
6927,17
6928,17
6929,17
6930,17
6931,17
6932,17
6933,17
6934,17
6935,17
6936,17
6937,17
6938,17
6939,17
6940,17
6941,17
6942,17
6943,17
6944,17
6945,17
6946,17
6947,17
6948,17
6949,17
6950,17
6951,17
6952,17
6953,17
6954,17
6955,17
6956,17
6957,17
6958,17
6959,17
6960,17
6961,17
6962,17
6963,17
6964,17
6965,17
6966,17
6967,17
6968,17
6969,17
6970,17
6971,17
6972,17
6973,17
6974,17
6975,17
6976,17
6977,17
6978,17
6979,17
6980,17
6981,17
6982,17
6983,17
6984,17
6985,17
6986,17
6987,17
6988,17
6989,17
6990,17
6991,17
6992,17
6993,17
6994,17
6995,17
6996,17
6997,17
6998,17
6999,17
7000,17
7001,17
7002,17
7003,17
7004,17
7005,17
7006,17
7007,17
7008,17
7009,17
7010,17
7011,17
7012,17
7013,17
7014,17
7015,17
7016,17
7017,17
7018,17
7019,17
7020,17
7021,17
7022,17
7023,17
7024,17
7025,17
7026,17
7027,17
7028,17
7029,17
7030,17
7031,17
7032,17
7033,17
7034,17
7035,17
7036,17
7037,17
7038,17
7039,17
7040,17
7041,17
7042,17
7043,17
7044,17
7045,17
7046,17
7047,17
7048,17
7049,17
7050,17
7051,17
7052,17
7053,17
7054,17
7055,17
7056,17
7057,17
7058,17
7059,17
7060,17
7061,17
7062,17
7063,17
7064,17
7065,17
7066,17
7067,17
7068,17
7069,17
7070,17
7071,17
7072,17
7073,17
7074,17
7075,17
7076,17
7077,17
7078,17
7079,18
7080,17
7081,17
7082,17
7083,17
7084,17
7085,17
7086,17
7087,17
7088,17
7089,17
7090,17
7091,17
7092,17
7093,17
7094,17
7095,17
7096,17
7097,17
7098,17
7099,17
7100,17
7101,17
7102,17
7103,17
7104,17
7105,17
7106,17
7107,18
7108,18
7109,18
7110,17
7111,17
7112,17
7113,17
7114,17
7115,17
7116,17
7117,17
7118,17
7119,17
7120,17
7121,17
7122,17
7123,17
7124,17
7125,17
7126,17
7127,17
7128,17
7129,17
7130,17
7131,17
7132,17
7133,17
7134,17
7135,17
7136,17
7137,17
7138,17
7139,17
7140,17
7141,17
7142,17
7143,17
7144,17
7145,17
7146,17
7147,17
7148,17
7149,17
7150,17
7151,17
7152,17
7153,17
7154,17
7155,17
7156,17
7157,17
7158,17
7159,17
7160,17
7161,17
7162,17
7163,17
7164,17
7165,17
7166,17
7167,17
7168,17
7169,17
7170,17
7171,17
7172,17
7173,17
7174,17
7175,17
7176,17
7177,17
7178,17
7179,17
7180,17
7181,17
7182,17
7183,17
7184,17
7185,17
7186,17
7187,17
7188,17
7189,17
7190,17
7191,17
7192,17
7193,17
7194,17
7195,17
7196,17
7197,17
7198,17
7199,17
7200,17
7201,17
7202,17
7203,17
7204,17
7205,17
7206,17
7207,17
7208,17
7209,17
7210,17
7211,17
7212,17
7213,17
7214,17
7215,17
7216,17
7217,17
7218,17
7219,17
7220,17
7221,17
7222,17
7223,17
7224,17
7225,17
7226,17
7227,17
7228,17
7229,17
7230,17
7231,17
7232,17
7233,17
7234,17
7235,17
7236,17
7237,17
7238,17
7239,17
7240,17
7241,17
7242,17
7243,17
7244,17
7245,17
7246,17
7247,17
7248,17
7249,17
7250,17
7251,17
7252,17
7253,17
7254,17
7255,17
7256,17
7257,17
7258,17
7259,17
7260,17
7261,17
7262,17
7263,17
7264,17
7265,17
7266,17
7267,17
7268,17
7269,17
7270,17
7271,17
7272,17
7273,17
7274,17
7275,17
7276,17
7277,17
7278,17
7279,17
7280,17
7281,17
7282,17
7283,17
7284,17
7285,17
7286,17
7287,17
7288,17
7289,17
7290,17
7291,17
7292,17
7293,17
7294,17
7295,17
7296,17
7297,17
7298,17
7299,17
7300,17
7301,17
7302,17
7303,18
7304,17
7305,17
7306,17
7307,17
7308,17
7309,17
7310,18
7311,17
7312,17
7313,17
7314,17
7315,17
7316,17
7317,17
7318,17
7319,17
7320,17
7321,17
7322,17
7323,17
7324,17
7325,17
7326,17
7327,17
7328,17
7329,17
7330,17
7331,17
7332,17
7333,17
7334,17
7335,17
7336,17
7337,17
7338,17
7339,17
7340,17
7341,17
7342,17
7343,17
7344,18
7345,17
7346,17
7347,17
7348,17
7349,17
7350,17
7351,17
7352,17
7353,17
7354,17
7355,17
7356,17
7357,17
7358,17
7359,17
7360,17
7361,17
7362,17
7363,17
7364,17
7365,17
7366,17
7367,17
7368,17
7369,17
7370,17
7371,17
7372,17
7373,17
7374,17
7375,17
7376,17
7377,17
7378,17
7379,17
7380,17
7381,17
7382,17
7383,17
7384,17
7385,17
7386,17
7387,17
7388,17
7389,17
7390,17
7391,17
7392,17
7393,17
7394,17
7395,17
7396,17
7397,17
7398,17
7399,17
7400,17
7401,17
7402,17
7403,17
7404,17
7405,17
7406,17
7407,18
7408,17
7409,17
7410,17
7411,17
7412,17
7413,17
7414,17
7415,17
7416,17
7417,17
7418,17
7419,17
7420,17
7421,17
7422,17
7423,17
7424,17
7425,17
7426,17
7427,17
7428,17
7429,17
7430,17
7431,17
7432,17
7433,17
7434,17
7435,17
7436,17
7437,17
7438,17
7439,17
7440,17
7441,17
7442,17
7443,17
7444,17
7445,17
7446,17
7447,17
7448,17
7449,17
7450,17
7451,17
7452,17
7453,17
7454,17
7455,17
7456,17
7457,17
7458,17
7459,17
7460,17
7461,17
7462,17
7463,17
7464,17
7465,17
7466,17
7467,17
7468,17
7469,17
7470,17
7471,17
7472,17
7473,17
7474,17
7475,17
7476,17
7477,17
7478,17
7479,17
7480,17
7481,17
7482,17
7483,17
7484,17
7485,17
7486,17
7487,17
7488,17
7489,17
7490,17
7491,17
7492,17
7493,17
7494,17
7495,17
7496,17
7497,17
7498,17
7499,17
7500,17
7501,17
7502,17
7503,17
7504,17
7505,17
7506,17
7507,17
7508,17
7509,17
7510,17
7511,17
7512,17
7513,17
7514,17
7515,17
7516,17
7517,17
7518,17
7519,17
7520,17
7521,17
7522,17
7523,17
7524,17
7525,17
7526,17
7527,17
7528,17
7529,17
7530,17
7531,17
7532,17
7533,17
7534,17
7535,17
7536,17
7537,17
7538,17
7539,17
7540,17
7541,17
7542,17
7543,17
7544,17
7545,17
7546,17
7547,17
7548,17
7549,17
7550,17
7551,17
7552,17
7553,17
7554,17
7555,17
7556,17
7557,17
7558,17
7559,17
7560,17
7561,17
7562,17
7563,17
7564,17
7565,17
7566,17
7567,17
7568,17
7569,17
7570,17
7571,17
7572,17
7573,17
7574,17
7575,17
7576,17
7577,17
7578,17
7579,17
7580,17
7581,17
7582,17
7583,17
7584,17
7585,17
7586,17
7587,17
7588,17
7589,17
7590,17
7591,17
7592,17
7593,17
7594,17
7595,17
7596,17
7597,17
7598,17
7599,17
7600,17
7601,17
7602,17
7603,17
7604,17
7605,17
7606,17
7607,17
7608,17
7609,17
7610,17
7611,17
7612,17
7613,17
7614,17
7615,17
7616,17
7617,17
7618,17
7619,17
7620,17
7621,17
7622,18
7623,18
7624,18
7625,18
7626,18
7627,18
7628,18
7629,18
7630,18
7631,17
7632,17
7633,17
7634,17
7635,17
7636,17
7637,17
7638,17
7639,17
7640,17
7641,17
7642,17
7643,17
7644,17
7645,17
7646,17
7647,17
7648,17
7649,17
7650,17
7651,17
7652,17
7653,17
7654,17
7655,17
7656,17
7657,17
7658,17
7659,17
7660,17
7661,17
7662,17
7663,17
7664,17
7665,17
7666,17
7667,17
7668,17
7669,17
7670,17
7671,17
7672,17
7673,17
7674,17
7675,17
7676,17
7677,17
7678,17
7679,17
7680,17
7681,17
7682,17
7683,17
7684,17
7685,17
7686,17
7687,17
7688,17
7689,17
7690,17
7691,17
7692,17
7693,17
7694,17
7695,17
7696,17
7697,17
7698,18
7699,18
7700,19
7701,19
7702,19
7703,19
7704,19
7705,19
7706,19
7707,19
7708,19
7709,19
7710,19
7711,19
7712,19
7713,19
7714,19
7715,19
7716,19
7717,19
7718,19
7719,19
7720,19
7721,19
7722,19
7723,19
7724,19
7725,19
7726,19
7727,19
7728,19
7729,19
7730,19
7731,19
7732,19
7733,19
7734,19
7735,19
7736,19
7737,19
7738,19
7739,19
7740,19
7741,19
7742,19
7743,19
7744,19
7745,19
7746,19
7747,19
7748,19
7749,19
7750,19
7751,19
7752,19
7753,19
7754,19
7755,19
7756,19
7757,19
7758,19
7759,19
7760,19
7761,19
7762,19
7763,19
7764,19
7765,19
7766,19
7767,19
7768,19
7769,19
7770,19
7771,19
7772,19
7773,19
7774,19
7775,19
7776,19
7777,19
7778,19
7779,19
7780,19
7781,19
7782,19
7783,19
7784,19
7785,19
7786,19
7787,19
7788,19
7789,19
7790,19
7791,19
7792,19
7793,19
7794,19
7795,20
7796,20
7797,20
7798,20
7799,19
7800,19
7801,19
7802,19
7803,19
7804,19
7805,19
7806,19
7807,19
7808,19
7809,19
7810,19
7811,19
7812,19
7813,19
7814,19
7815,19
7816,19
7817,19
7818,19
7819,19
7820,19
7821,19
7822,19
7823,19
7824,19
7825,19
7826,19
7827,19
7828,19
7829,19
7830,19
7831,19
7832,19
7833,19
7834,19
7835,19
7836,19
7837,19
7838,20
7839,19
7840,19
7841,19
7842,19
7843,19
7844,19
7845,19
7846,19
7847,19
7848,19
7849,19
7850,19
7851,19
7852,19
7853,19
7854,19
7855,19
7856,19
7857,19
7858,19
7859,19
7860,19
7861,19
7862,19
7863,20
7864,19
7865,19
7866,19
7867,19
7868,19
7869,19
7870,19
7871,19
7872,19
7873,19
7874,19
7875,19
7876,19
7877,19
7878,19
7879,19
7880,19
7881,19
7882,19
7883,19
7884,19
7885,19
7886,19
7887,19
7888,19
7889,19
7890,19
7891,19
7892,19
7893,19
7894,19
7895,19
7896,19
7897,19
7898,19
7899,19
7900,19
7901,19
7902,19
7903,19
7904,19
7905,19
7906,19
7907,19
7908,19
7909,19
7910,19
7911,19
7912,19
7913,19
7914,19
7915,19
7916,19
7917,19
7918,19
7919,19
7920,19
7921,19
7922,19
7923,19
7924,19
7925,19
7926,19
7927,19
7928,19
7929,19
7930,20
7931,20
7932,20
7933,20
7934,20
7935,20
7936,20
7937,20
7938,20
7939,20
7940,20
7941,20
7942,20
7943,20
7944,20
7945,20
7946,20
7947,20
7948,20
7949,20
7950,20
7951,21
7952,21
7953,21
7954,21
7955,21
7956,21
7957,21
7958,20
7959,21
7960,21
7961,20
7962,20
7963,20
7964,20
7965,20
7966,20
7967,20
7968,20
7969,20
7970,20
7971,20
7972,20
7973,20
7974,20
7975,20
7976,21
7977,20
7978,20
7979,20
7980,20
7981,20
7982,20
7983,20
7984,20
7985,20
7986,20
7987,20
7988,20
7989,20
7990,20
7991,20
7992,20
7993,20
7994,20
7995,20
7996,20
7997,20
7998,20
7999,20
8000,20
8001,20
8002,20
8003,20
8004,20
8005,20
8006,20
8007,20
8008,20
8009,20
8010,20
8011,20
8012,21
8013,20
8014,20
8015,20
8016,20
8017,20
8018,20
8019,20
8020,20
8021,20
8022,20
8023,20
8024,20
8025,20
8026,20
8027,20
8028,20
8029,20
8030,20
8031,20
8032,20
8033,20
8034,20
8035,20
8036,20
8037,20
8038,20
8039,20
8040,20
8041,20
8042,20
8043,20
8044,20
8045,20
8046,20
8047,20
8048,20
8049,20
8050,20
8051,20
8052,20
8053,20
8054,20
8055,20
8056,20
8057,20
8058,20
8059,20
8060,20
8061,20
8062,20
8063,20
8064,20
8065,20
8066,20
8067,20
8068,20
8069,20
8070,20
8071,20
8072,20
8073,20
8074,20
8075,20
8076,20
8077,20
8078,20
8079,20
8080,20
8081,20
8082,20
8083,20
8084,20
8085,20
8086,20
8087,20
8088,20
8089,20
8090,20
8091,20
8092,20
8093,20
8094,20
8095,20
8096,20
8097,20
8098,20
8099,20
8100,20
8101,20
8102,20
8103,20
8104,20
8105,20
8106,20
8107,20
8108,20
8109,20
8110,20
8111,20
8112,20
8113,20
8114,21
8115,21
8116,21
8117,21
8118,21
8119,21
8120,20
8121,20
8122,20
8123,20
8124,20
8125,20
8126,20
8127,20
8128,20
8129,20
8130,20
8131,20
8132,20
8133,20
8134,20
8135,20
8136,20
8137,20
8138,20
8139,20
8140,20
8141,20
8142,20
8143,20
8144,20
8145,20
8146,20
8147,20
8148,20
8149,20
8150,20
8151,20
8152,20
8153,20
8154,20
8155,20
8156,20
8157,20
8158,20
8159,20
8160,20
8161,20
8162,20
8163,20
8164,20
8165,20
8166,20
8167,20
8168,20
8169,20
8170,20
8171,20
8172,20
8173,20
8174,20
8175,20
8176,20
8177,20
8178,20
8179,20
8180,20
8181,20
8182,20
8183,21
8184,21
8185,21
8186,21
8187,21
8188,21
8189,21
8190,21
8191,20
8192,20
8193,20
8194,20
8195,20
8196,20
8197,20
8198,20
8199,20
8200,20
8201,20
8202,20
8203,20
8204,20
8205,20
8206,20
8207,20
8208,20
8209,20
8210,20
8211,20
8212,20
8213,20
8214,20
8215,20
8216,20
8217,20
8218,20
8219,20
8220,20
8221,20
8222,20
8223,20
8224,20
8225,20
8226,20
8227,20
8228,20
8229,20
8230,20
8231,20
8232,20
8233,20
8234,20
8235,20
8236,20
8237,20
8238,20
8239,20
8240,20
8241,20
8242,20
8243,20
8244,20
8245,20
8246,20
8247,20
8248,20
8249,20
8250,20
8251,20
8252,20
8253,20
8254,20
8255,20
8256,20
8257,20
8258,20
8259,20
8260,20
8261,20
8262,20
8263,20
8264,20
8265,20
8266,20
8267,20
8268,20
8269,20
8270,20
8271,20
8272,20
8273,20
8274,20
8275,20
8276,20
8277,20
8278,20
8279,20
8280,20
8281,20
8282,20
8283,20
8284,20
8285,20
8286,20
8287,20
8288,20
8289,20
8290,20
8291,20
8292,20
8293,20
8294,20
8295,20
8296,20
8297,20
8298,20
8299,20
8300,20
8301,20
8302,20
8303,20
8304,20
8305,20
8306,20
8307,20
8308,20
8309,20
8310,20
8311,20
8312,20
8313,20
8314,20
8315,20
8316,20
8317,20
8318,20
8319,20
8320,20
8321,20
8322,20
8323,20
8324,20
8325,20
8326,20
8327,20
8328,20
8329,20
8330,20
8331,20
8332,20
8333,20
8334,20
8335,20
8336,20
8337,20
8338,20
8339,20
8340,20
8341,20
8342,20
8343,20
8344,20
8345,20
8346,20
8347,20
8348,20
8349,20
8350,20
8351,20
8352,20
8353,20
8354,20
8355,20
8356,20
8357,20
8358,20
8359,20
8360,20
8361,20
8362,20
8363,20
8364,20
8365,20
8366,20
8367,20
8368,20
8369,20
8370,20
8371,20
8372,20
8373,20
8374,20
8375,20
8376,20
8377,20
8378,20
8379,20
8380,20
8381,20
8382,20
8383,20
8384,20
8385,20
8386,20
8387,20
8388,20
8389,20
8390,20
8391,20
8392,20
8393,20
8394,20
8395,20
8396,20
8397,20
8398,20
8399,20
8400,20
8401,20
8402,20
8403,20
8404,20
8405,20
8406,20
8407,20
8408,20
8409,20
8410,20
8411,20
8412,20
8413,20
8414,20
8415,20
8416,20
8417,20
8418,20
8419,20
8420,20
8421,20
8422,20
8423,20
8424,20
8425,20
8426,20
8427,20
8428,20
8429,20
8430,20
8431,20
8432,20
8433,20
8434,20
8435,20
8436,20
8437,20
8438,20
8439,20
8440,20
8441,20
8442,20
8443,20
8444,20
8445,20
8446,20
8447,20
8448,20
8449,20
8450,20
8451,20
8452,20
8453,20
8454,20
8455,20
8456,20
8457,20
8458,20
8459,20
8460,20
8461,21
8462,20
8463,20
8464,20
8465,20
8466,20
8467,20
8468,20
8469,20
8470,20
8471,20
8472,20
8473,20
8474,20
8475,20
8476,20
8477,20
8478,20
8479,20
8480,20
8481,20
8482,20
8483,20
8484,20
8485,20
8486,20
8487,20
8488,20
8489,20
8490,20
8491,21
8492,20
8493,20
8494,20
8495,20
8496,20
8497,20
8498,20
8499,20
8500,20
8501,20
8502,20
8503,20
8504,20
8505,20
8506,20
8507,20
8508,20
8509,20
8510,20
8511,20
8512,21
8513,21
8514,20
8515,20
8516,20
8517,20
8518,20
8519,20
8520,20
8521,20
8522,20
8523,20
8524,20
8525,20
8526,20
8527,20
8528,20
8529,20
8530,20
8531,20
8532,20
8533,20
8534,20
8535,20
8536,20
8537,20
8538,20
8539,20
8540,20
8541,20
8542,20
8543,20
8544,20
8545,20
8546,20
8547,20
8548,20
8549,20
8550,20
8551,20
8552,20
8553,20
8554,20
8555,20
8556,20
8557,20
8558,21
8559,20
8560,20
8561,20
8562,20
8563,20
8564,20
8565,20
8566,20
8567,20
8568,20
8569,20
8570,20
8571,20
8572,20
8573,21
8574,20
8575,20
8576,20
8577,20
8578,20
8579,20
8580,20
8581,20
8582,20
8583,20
8584,20
8585,20
8586,20
8587,20
8588,20
8589,20
8590,20
8591,20
8592,20
8593,20
8594,20
8595,20
8596,20
8597,20
8598,20
8599,20
8600,20
8601,20
8602,20
8603,20
8604,20
8605,20
8606,20
8607,20
8608,20
8609,20
8610,20
8611,20
8612,20
8613,20
8614,20
8615,20
8616,20
8617,20
8618,20
8619,20
8620,20
8621,20
8622,20
8623,20
8624,20
8625,20
8626,20
8627,20
8628,20
8629,20
8630,20
8631,20
8632,20
8633,20
8634,20
8635,20
8636,20
8637,20
8638,20
8639,20
8640,20
8641,20
8642,20
8643,20
8644,20
8645,20
8646,20
8647,20
8648,20
8649,20
8650,20
8651,20
8652,20
8653,20
8654,20
8655,20
8656,20
8657,20
8658,20
8659,20
8660,20
8661,20
8662,20
8663,20
8664,20
8665,20
8666,20
8667,20
8668,20
8669,20
8670,20
8671,20
8672,20
8673,20
8674,20
8675,20
8676,20
8677,20
8678,20
8679,20
8680,20
8681,20
8682,20
8683,20
8684,20
8685,20
8686,20
8687,20
8688,20
8689,20
8690,20
8691,20
8692,20
8693,20
8694,20
8695,20
8696,20
8697,20
8698,20
8699,20
8700,20
8701,20
8702,20
8703,20
8704,20
8705,20
8706,20
8707,20
8708,20
8709,20
8710,20
8711,20
8712,20
8713,20
8714,20
8715,20
8716,20
8717,20
8718,20
8719,20
8720,20
8721,20
8722,20
8723,20
8724,20
8725,20
8726,20
8727,20
8728,20
8729,20
8730,20
8731,20
8732,20
8733,20
8734,20
8735,20
8736,20
8737,20
8738,20
8739,20
8740,20
8741,20
8742,20
8743,20
8744,20
8745,20
8746,20
8747,20
8748,20
8749,20
8750,20
8751,20
8752,20
8753,20
8754,20
8755,20
8756,20
8757,20
8758,20
8759,20
8760,20
8761,20
8762,20
8763,20
8764,20
8765,20
8766,20
8767,20
8768,20
8769,20
8770,20
8771,20
8772,20
8773,20
8774,20
8775,20
8776,20
8777,20
8778,20
8779,20
8780,20
8781,20
8782,20
8783,20
8784,20
8785,20
8786,20
8787,20
8788,20
8789,20
8790,21
8791,21
8792,21
8793,21
8794,21
8795,21
8796,21
8797,21
8798,21
8799,21
8800,21
8801,21
8802,21
8803,21
8804,21
8805,21
8806,21
8807,21
8808,21
8809,21
8810,21
8811,21
8812,21
8813,21
8814,20
8815,20
8816,20
8817,20
8818,20
8819,20
8820,20
8821,20
8822,20
8823,20
8824,20
8825,20
8826,20
8827,20
8828,20
8829,20
8830,20
8831,20
8832,20
8833,20
8834,20
8835,20
8836,20
8837,20
8838,21
8839,20
8840,20
8841,20
8842,20
8843,20
8844,20
8845,20
8846,20
8847,20
8848,20
8849,20
8850,20
8851,20
8852,20
8853,20
8854,20
8855,20
8856,20
8857,20
8858,20
8859,20
8860,20
8861,20
8862,20
8863,20
8864,20
8865,20
8866,20
8867,20
8868,20
8869,20
8870,20
8871,20
8872,20
8873,20
8874,20
8875,20
8876,20
8877,21
8878,21
8879,21
8880,21
8881,21
8882,21
8883,21
8884,21
8885,21
8886,21
8887,21
8888,21
8889,21
8890,21
8891,20
8892,20
8893,20
8894,20
8895,20
8896,20
8897,20
8898,20
8899,20
8900,20
8901,20
8902,20
8903,20
8904,20
8905,20
8906,20
8907,20
8908,20
8909,20
8910,20
8911,20
8912,20
8913,20
8914,20
8915,20
8916,20
8917,20
8918,20
8919,20
8920,20
8921,20
8922,20
8923,20
8924,20
8925,20
8926,20
8927,20
8928,20
8929,20
8930,20
8931,20
8932,20
8933,20
8934,20
8935,20
8936,20
8937,20
8938,20
8939,20
8940,20
8941,20
8942,20
8943,20
8944,20
8945,20
8946,20
8947,20
8948,20
8949,20
8950,20
8951,20
8952,20
8953,20
8954,20
8955,20
8956,20
8957,20
8958,20
8959,20
8960,20
8961,20
8962,20
8963,20
8964,20
8965,20
8966,20
8967,20
8968,20
8969,20
8970,20
8971,20
8972,20
8973,20
8974,20
8975,20
8976,20
8977,20
8978,20
8979,20
8980,20
8981,20
8982,20
8983,20
8984,20
8985,20
8986,20
8987,20
8988,20
8989,20
8990,20
8991,20
8992,20
8993,20
8994,20
8995,20
8996,20
8997,20
8998,20
8999,20
9000,20
9001,20
9002,20
9003,20
9004,20
9005,20
9006,20
9007,20
9008,20
9009,20
9010,20
9011,20
9012,20
9013,20
9014,20
9015,21
9016,20
9017,20
9018,20
9019,20
9020,20
9021,20
9022,20
9023,20
9024,20
9025,20
9026,20
9027,20
9028,20
9029,20
9030,21
9031,20
9032,20
9033,20
9034,21
9035,21
9036,21
9037,21
9038,20
9039,20
9040,20
9041,21
9042,20
9043,20
9044,20
9045,20
9046,20
9047,20
9048,20
9049,20
9050,20
9051,20
9052,20
9053,20
9054,20
9055,20
9056,20
9057,20
9058,20
9059,20
9060,20
9061,20
9062,20
9063,20
9064,20
9065,20
9066,20
9067,20
9068,20
9069,20
9070,20
9071,20
9072,20
9073,20
9074,20
9075,20
9076,20
9077,20
9078,20
9079,20
9080,20
9081,20
9082,20
9083,20
9084,20
9085,20
9086,20
9087,20
9088,20
9089,20
9090,20
9091,20
9092,20
9093,20
9094,20
9095,20
9096,20
9097,20
9098,20
9099,20
9100,20
9101,20
9102,20
9103,20
9104,20
9105,20
9106,20
9107,20
9108,20
9109,20
9110,20
9111,21
9112,21
9113,21
9114,21
9115,21
9116,21
9117,21
9118,21
9119,21
9120,21
9121,20
9122,20
9123,20
9124,20
9125,20
9126,20
9127,20
9128,20
9129,20
9130,20
9131,20
9132,20
9133,20
9134,20
9135,20
9136,20
9137,20
9138,20
9139,20
9140,20
9141,20
9142,20
9143,20
9144,20
9145,20
9146,20
9147,20
9148,20
9149,20
9150,20
9151,20
9152,20
9153,21
9154,21
9155,20
9156,20
9157,20
9158,20
9159,20
9160,20
9161,20
9162,20
9163,20
9164,20
9165,20
9166,20
9167,20
9168,20
9169,20
9170,20
9171,20
9172,20
9173,20
9174,20
9175,20
9176,20
9177,20
9178,20
9179,20
9180,20
9181,20
9182,20
9183,20
9184,20
9185,20
9186,20
9187,20
9188,20
9189,20
9190,20
9191,20
9192,20
9193,20
9194,20
9195,20
9196,20
9197,20
9198,20
9199,20
9200,20
9201,20
9202,20
9203,20
9204,20
9205,20
9206,20
9207,20
9208,20
9209,20
9210,20
9211,20
9212,20
9213,20
9214,20
9215,20
9216,20
9217,20
9218,20
9219,20
9220,21
9221,21
9222,21
9223,21
9224,21
9225,20
9226,20
9227,20
9228,20
9229,20
9230,20
9231,20
9232,20
9233,20
9234,20
9235,20
9236,20
9237,20
9238,20
9239,20
9240,20
9241,21
9242,21
9243,21
9244,22
9245,22
9246,22
9247,22
9248,22
9249,22
9250,21
9251,20
9252,20
9253,20
9254,20
9255,20
9256,20
9257,20
9258,20
9259,20
9260,20
9261,20
9262,20
9263,20
9264,20
9265,20
9266,20
9267,20
9268,20
9269,20
9270,20
9271,20
9272,20
9273,20
9274,20
9275,20
9276,20
9277,20
9278,20
9279,20
9280,20
9281,20
9282,20
9283,20
9284,20
9285,20
9286,20
9287,20
9288,20
9289,20
9290,20
9291,20
9292,20
9293,20
9294,20
9295,20
9296,20
9297,20
9298,20
9299,20
9300,20
9301,20
9302,20
9303,20
9304,20
9305,20
9306,20
9307,20
9308,20
9309,20
9310,20
9311,20
9312,20
9313,20
9314,21
9315,21
9316,20
9317,20
9318,20
9319,20
9320,20
9321,20
9322,20
9323,20
9324,20
9325,20
9326,20
9327,20
9328,20
9329,20
9330,20
9331,20
9332,20
9333,20
9334,20
9335,20
9336,20
9337,20
9338,20
9339,20
9340,20
9341,20
9342,20
9343,20
9344,20
9345,20
9346,20
9347,20
9348,20
9349,20
9350,20
9351,20
9352,20
9353,20
9354,20
9355,20
9356,20
9357,20
9358,20
9359,20
9360,20
9361,20
9362,20
9363,20
9364,20
9365,20
9366,20
9367,20
9368,20
9369,20
9370,20
9371,20
9372,20
9373,20
9374,20
9375,20
9376,20
9377,20
9378,20
9379,20
9380,20
9381,20
9382,20
9383,20
9384,20
9385,20
9386,20
9387,20
9388,20
9389,20
9390,20
9391,20
9392,20
9393,20
9394,20
9395,20
9396,20
9397,20
9398,20
9399,20
9400,20
9401,20
9402,20
9403,20
9404,20
9405,20
9406,20
9407,20
9408,20
9409,20
9410,20
9411,20
9412,20
9413,20
9414,20
9415,20
9416,20
9417,20
9418,20
9419,20
9420,20
9421,20
9422,20
9423,20
9424,20
9425,20
9426,20
9427,20
9428,21
9429,21
9430,21
9431,21
9432,20
9433,20
9434,20
9435,20
9436,20
9437,20
9438,20
9439,20
9440,20
9441,20
9442,20
9443,20
9444,20
9445,20
9446,20
9447,20
9448,20
9449,20
9450,20
9451,20
9452,20
9453,20
9454,20
9455,20
9456,20
9457,20
9458,20
9459,20
9460,20
9461,20
9462,20
9463,20
9464,20
9465,20
9466,20
9467,20
9468,20
9469,20
9470,20
9471,20
9472,20
9473,20
9474,20
9475,20
9476,20
9477,20
9478,20
9479,20
9480,20
9481,20
9482,20
9483,20
9484,20
9485,20
9486,20
9487,20
9488,20
9489,20
9490,20
9491,20
9492,21
9493,20
9494,21
9495,20
9496,20
9497,20
9498,20
9499,20
9500,20
9501,20
9502,20
9503,20
9504,20
9505,20
9506,20
9507,20
9508,20
9509,20
9510,20
9511,20
9512,20
9513,20
9514,20
9515,20
9516,20
9517,20
9518,20
9519,20
9520,20
9521,20
9522,20
9523,20
9524,20
9525,20
9526,20
9527,20
9528,20
9529,20
9530,20
9531,20
9532,20
9533,20
9534,20
9535,20
9536,20
9537,20
9538,20
9539,20
9540,20
9541,20
9542,20
9543,20
9544,20
9545,21
9546,21
9547,21
9548,20
9549,20
9550,20
9551,20
9552,20
9553,20
9554,20
9555,20
9556,20
9557,20
9558,20
9559,20
9560,20
9561,20
9562,20
9563,20
9564,20
9565,20
9566,20
9567,20
9568,20
9569,20
9570,20
9571,20
9572,20
9573,20
9574,20
9575,20
9576,20
9577,20
9578,20
9579,20
9580,20
9581,20
9582,20
9583,20
9584,20
9585,20
9586,21
9587,20
9588,20
9589,20
9590,21
9591,21
9592,20
9593,20
9594,20
9595,20
9596,20
9597,20
9598,20
9599,20
9600,20
9601,20
9602,20
9603,20
9604,20
9605,20
9606,20
9607,20
9608,20
9609,20
9610,20
9611,20
9612,20
9613,20
9614,20
9615,20
9616,20
9617,20
9618,20
9619,20
9620,20
9621,20
9622,20
9623,20
9624,20
9625,20
9626,20
9627,20
9628,20
9629,20
9630,20
9631,20
9632,20
9633,20
9634,20
9635,20
9636,20
9637,20
9638,20
9639,20
9640,20
9641,20
9642,20
9643,20
9644,20
9645,20
9646,20
9647,20
9648,20
9649,20
9650,20
9651,20
9652,20
9653,20
9654,20
9655,20
9656,20
9657,20
9658,20
9659,20
9660,20
9661,20
9662,20
9663,20
9664,20
9665,20
9666,20
9667,20
9668,20
9669,20
9670,20
9671,20
9672,20
9673,20
9674,20
9675,20
9676,20
9677,20
9678,20
9679,20
9680,20
9681,20
9682,20
9683,20
9684,20
9685,20
9686,21
9687,21
9688,21
9689,21
9690,21
9691,21
9692,21
9693,21
9694,21
9695,21
9696,21
9697,21
9698,21
9699,21
9700,21
9701,21
9702,21
9703,21
9704,21
9705,21
9706,21
9707,21
9708,21
9709,21
9710,21
9711,20
9712,20
9713,20
9714,20
9715,20
9716,20
9717,20
9718,20
9719,20
9720,20
9721,20
9722,20
9723,20
9724,20
9725,20
9726,20
9727,20
9728,20
9729,20
9730,20
9731,20
9732,20
9733,20
9734,20
9735,20
9736,20
9737,20
9738,20
9739,20
9740,20
9741,20
9742,20
9743,20
9744,20
9745,20
9746,20
9747,20
9748,20
9749,20
9750,20
9751,20
9752,20
9753,20
9754,20
9755,20
9756,20
9757,20
9758,20
9759,20
9760,20
9761,20
9762,20
9763,20
9764,20
9765,20
9766,20
9767,20
9768,20
9769,20
9770,20
9771,20
9772,20
9773,20
9774,20
9775,20
9776,21
9777,20
9778,20
9779,20
9780,20
9781,20
9782,20
9783,20
9784,20
9785,20
9786,20
9787,20
9788,20
9789,20
9790,20
9791,20
9792,20
9793,20
9794,20
9795,20
9796,20
9797,20
9798,20
9799,20
9800,20
9801,20
9802,20
9803,20
9804,20
9805,20
9806,20
9807,20
9808,20
9809,20
9810,20
9811,20
9812,20
9813,20
9814,20
9815,20
9816,20
9817,20
9818,20
9819,20
9820,20
9821,20
9822,20
9823,20
9824,20
9825,20
9826,20
9827,20
9828,20
9829,20
9830,20
9831,20
9832,20
9833,20
9834,20
9835,20
9836,20
9837,20
9838,20
9839,20
9840,20
9841,20
9842,20
9843,20
9844,20
9845,20
9846,20
9847,20
9848,20
9849,20
9850,20
9851,20
9852,20
9853,20
9854,20
9855,20
9856,20
9857,20
9858,20
9859,20
9860,20
9861,20
9862,20
9863,20
9864,20
9865,20
9866,20
9867,20
9868,20
9869,20
9870,20
9871,20
9872,20
9873,20
9874,20
9875,20
9876,20
9877,20
9878,20
9879,20
9880,20
9881,20
9882,20
9883,20
9884,20
9885,20
9886,20
9887,20
9888,20
9889,20
9890,20
9891,20
9892,20
9893,20
9894,20
9895,20
9896,20
9897,20
9898,20
9899,20
9900,20
9901,20
9902,20
9903,20
9904,20
9905,20
9906,20
9907,20
9908,20
9909,20
9910,20
9911,20
9912,20
9913,20
9914,20
9915,20
9916,20
9917,20
9918,20
9919,20
9920,20
9921,20
9922,20
9923,20
9924,20
9925,20
9926,20
9927,20
9928,20
9929,20
9930,20
9931,20
9932,20
9933,20
9934,20
9935,20
9936,20
9937,20
9938,20
9939,20
9940,20
9941,20
9942,20
9943,20
9944,20
9945,20
9946,20
9947,20
9948,20
9949,20
9950,20
9951,20
9952,20
9953,20
9954,20
9955,20
9956,20
9957,20
9958,20
9959,20
9960,20
9961,20
9962,20
9963,20
9964,21
9965,21
9966,21
9967,21
9968,21
9969,21
9970,22
9971,21
9972,21
9973,21
9974,21
9975,21
9976,21
9977,21
9978,21
9979,21
9980,21
9981,21
9982,21
9983,21
9984,21
9985,21
9986,21
9987,21
9988,21
9989,21
9990,21
9991,21
9992,21
9993,21
9994,21
9995,21
9996,21
9997,21
9998,21
9999,21
10000,21
