1,3
2,3
3,3
4,3
5,3
6,3
7,3
8,3
9,3
10,3
11,3
12,3
13,3
14,3
15,3
16,3
17,3
18,3
19,3
20,3
21,3
22,3
23,3
24,3
25,3
26,3
27,3
28,3
29,3
30,3
31,3
32,3
33,3
34,3
35,3
36,3
37,3
38,3
39,3
40,3
41,3
42,3
43,3
44,3
45,3
46,3
47,3
48,3
49,3
50,3
51,3
52,3
53,3
54,3
55,3
56,3
57,3
58,3
59,3
60,3
61,3
62,3
63,3
64,3
65,3
66,3
67,3
68,3
69,3
70,3
71,3
72,3
73,3
74,3
75,3
76,3
77,3
78,3
79,3
80,3
81,3
82,3
83,3
84,3
85,3
86,3
87,3
88,3
89,3
90,3
91,3
92,3
93,3
94,3
95,3
96,3
97,3
98,3
99,3
100,3
101,3
102,3
103,3
104,3
105,3
106,3
107,3
108,3
109,3
110,3
111,3
112,3
113,3
114,3
115,3
116,3
117,3
118,3
119,3
120,3
121,3
122,3
123,3
124,3
125,3
126,3
127,3
128,3
129,3
130,3
131,3
132,3
133,3
134,3
135,3
136,3
137,3
138,3
139,3
140,4
141,4
142,4
143,4
144,4
145,4
146,4
147,4
148,4
149,4
150,4
151,4
152,4
153,4
154,4
155,4
156,4
157,4
158,4
159,4
160,4
161,4
162,4
163,4
164,4
165,4
166,4
167,4
168,4
169,4
170,4
171,4
172,4
173,4
174,4
175,4
176,4
177,4
178,4
179,4
180,4
181,4
182,4
183,4
184,4
185,4
186,4
187,4
188,4
189,4
190,4
191,4
192,4
193,4
194,4
195,4
196,4
197,4
198,4
199,4
200,4
201,4
202,4
203,4
204,4
205,4
206,4
207,4
208,4
209,4
210,4
211,4
212,4
213,4
214,4
215,4
216,4
217,4
218,4
219,4
220,4
221,4
222,4
223,4
224,4
225,4
226,4
227,4
228,4
229,4
230,4
231,4
232,4
233,4
234,4
235,4
236,4
237,4
238,4
239,4
240,4
241,4
242,4
243,4
244,4
245,4
246,4
247,4
248,4
249,4
250,4
251,4
252,4
253,4
254,4
255,4
256,4
257,4
258,4
259,4
260,4
261,4
262,4
263,4
264,4
265,4
266,4
267,4
268,4
269,4
270,4
271,4
272,4
273,4
274,4
275,4
276,4
277,4
278,4
279,4
280,4
281,4
282,4
283,4
284,4
285,4
286,4
287,4
288,4
289,4
290,4
291,4
292,4
293,4
294,4
295,4
296,4
297,4
298,4
299,4
300,4
301,4
302,4
303,4
304,4
305,4
306,4
307,4
308,4
309,4
310,4
311,4
312,4
313,4
314,4
315,4
316,4
317,4
318,4
319,4
320,4
321,4
322,4
323,4
324,4
325,4
326,4
327,4
328,4
329,4
330,4
331,4
332,4
333,4
334,4
335,4
336,4
337,4
338,4
339,4
340,4
341,4
342,4
343,4
344,4
345,4
346,4
347,4
348,4
349,4
350,4
351,4
352,4
353,4
354,4
355,4
356,4
357,4
358,4
359,4
360,4
361,4
362,4
363,4
364,4
365,4
366,4
367,4
368,4
369,4
370,4
371,4
372,4
373,4
374,4
375,4
376,4
377,4
378,4
379,4
380,4
381,4
382,4
383,4
384,4
385,4
386,4
387,4
388,5
389,5
390,5
391,6
392,6
393,6
394,6
395,6
396,6
397,6
398,6
399,6
400,6
401,6
402,6
403,6
404,6
405,6
406,6
407,7
408,7
409,6
410,6
411,6
412,6
413,6
414,6
415,6
416,6
417,6
418,6
419,6
420,6
421,6
422,6
423,6
424,6
425,7
426,7
427,7
428,7
429,7
430,7
431,7
432,7
433,7
434,7
435,7
436,7
437,7
438,7
439,7
440,7
441,7
442,7
443,7
444,7
445,7
446,7
447,7
448,7
449,7
450,7
451,7
452,7
453,7
454,7
455,7
456,7
457,7
458,7
459,7
460,7
461,7
462,7
463,7
464,7
465,7
466,7
467,7
468,7
469,7
470,7
471,7
472,7
473,7
474,7
475,7
476,7
477,7
478,7
479,7
480,7
481,7
482,7
483,7
484,7
485,7
486,7
487,7
488,7
489,7
490,7
491,7
492,7
493,7
494,7
495,7
496,7
497,7
498,7
499,7
500,7
501,7
502,7
503,7
504,7
505,7
506,7
507,7
508,7
509,7
510,7
511,7
512,7
513,7
514,7
515,7
516,7
517,7
518,7
519,7
520,7
521,7
522,7
523,7
524,7
525,7
526,7
527,7
528,7
529,7
530,7
531,7
532,7
533,7
534,7
535,7
536,7
537,7
538,7
539,7
540,7
541,7
542,7
543,7
544,7
545,7
546,7
547,7
548,7
549,7
550,7
551,7
552,7
553,7
554,8
555,8
556,8
557,8
558,8
559,8
560,8
561,8
562,8
563,8
564,8
565,8
566,8
567,8
568,9
569,8
570,8
571,8
572,8
573,8
574,8
575,8
576,8
577,8
578,8
579,8
580,8
581,8
582,8
583,8
584,8
585,8
586,8
587,8
588,8
589,8
590,8
591,8
592,8
593,8
594,8
595,8
596,8
597,8
598,8
599,8
600,8
601,8
602,9
603,8
604,8
605,8
606,8
607,8
608,8
609,8
610,8
611,8
612,8
613,8
614,8
615,8
616,8
617,8
618,9
619,9
620,9
621,9
622,9
623,9
624,9
625,9
626,9
627,9
628,9
629,9
630,9
631,9
632,9
633,9
634,9
635,9
636,9
637,9
638,9
639,9
640,9
641,9
642,9
643,9
644,9
645,9
646,9
647,9
648,9
649,9
650,9
651,9
652,9
653,9
654,9
655,9
656,9
657,9
658,9
659,9
660,9
661,9
662,9
663,9
664,9
665,9
666,9
667,9
668,9
669,9
670,9
671,9
672,9
673,9
674,9
675,9
676,9
677,9
678,9
679,9
680,9
681,9
682,9
683,9
684,9
685,9
686,9
687,9
688,9
689,9
690,9
691,9
692,9
693,9
694,9
695,9
696,9
697,9
698,9
699,9
700,9
701,9
702,9
703,9
704,9
705,9
706,9
707,9
708,9
709,9
710,9
711,9
712,9
713,9
714,9
715,9
716,9
717,9
718,9
719,9
720,9
721,9
722,9
723,9
724,9
725,9
726,9
727,9
728,9
729,9
730,9
731,9
732,9
733,9
734,9
735,9
736,9
737,9
738,9
739,9
740,9
741,9
742,9
743,9
744,9
745,9
746,9
747,9
748,9
749,9
750,9
751,9
752,9
753,9
754,9
755,9
756,9
757,9
758,9
759,9
760,9
761,9
762,9
763,9
764,9
765,9
766,9
767,9
768,9
769,9
770,9
771,9
772,9
773,9
774,9
775,9
776,9
777,10
778,9
779,9
780,9
781,9
782,9
783,9
784,9
785,9
786,9
787,9
788,9
789,9
790,9
791,9
792,9
793,9
794,9
795,9
796,10
797,11
798,11
799,11
800,11
801,11
802,11
803,11
804,11
805,11
806,11
807,11
808,11
809,11
810,11
811,11
812,11
813,11
814,11
815,11
816,11
817,11
818,11
819,11
820,11
821,11
822,11
823,11
824,11
825,11
826,11
827,11
828,11
829,11
830,11
831,11
832,11
833,11
834,11
835,11
836,11
837,11
838,11
839,11
840,11
841,11
842,11
843,11
844,11
845,11
846,11
847,11
848,11
849,11
850,11
851,11
852,11
853,11
854,11
855,11
856,11
857,11
858,11
859,11
860,11
861,11
862,11
863,11
864,11
865,11
866,11
867,11
868,11
869,11
870,11
871,11
872,11
873,11
874,11
875,11
876,11
877,11
878,11
879,11
880,11
881,11
882,11
883,11
884,11
885,11
886,11
887,11
888,11
889,11
890,11
891,11
892,11
893,11
894,11
895,11
896,11
897,11
898,11
899,11
900,11
901,11
902,11
903,11
904,11
905,11
906,11
907,11
908,12
909,12
910,11
911,11
912,11
913,11
914,11
915,11
916,11
917,11
918,11
919,11
920,11
921,11
922,11
923,11
924,11
925,11
926,11
927,11
928,11
929,11
930,11
931,11
932,11
933,11
934,11
935,11
936,11
937,11
938,11
939,11
940,11
941,11
942,11
943,11
944,11
945,11
946,11
947,11
948,11
949,11
950,11
951,11
952,11
953,11
954,11
955,11
956,11
957,11
958,11
959,11
960,11
961,11
962,11
963,11
964,11
965,11
966,11
967,11
968,11
969,11
970,11
971,11
972,11
973,11
974,11
975,11
976,11
977,11
978,11
979,11
980,11
981,11
982,11
983,11
984,11
985,11
986,11
987,11
988,11
989,11
990,11
991,11
992,11
993,11
994,11
995,11
996,11
997,11
998,11
999,11
1000,11
1001,11
1002,11
1003,11
1004,11
1005,11
1006,11
1007,11
1008,11
1009,11
1010,11
1011,11
1012,11
1013,11
1014,11
1015,11
1016,11
1017,11
1018,11
1019,11
1020,11
1021,11
1022,11
1023,11
1024,11
1025,11
1026,11
1027,11
1028,11
1029,11
1030,11
1031,11
1032,11
1033,11
1034,11
1035,11
1036,11
1037,11
1038,11
1039,11
1040,11
1041,11
1042,11
1043,11
1044,11
1045,11
1046,11
1047,11
1048,12
1049,12
1050,12
1051,12
1052,12
1053,12
1054,12
1055,11
1056,11
1057,11
1058,11
1059,11
1060,11
1061,11
1062,11
1063,11
1064,11
1065,11
1066,11
1067,11
1068,11
1069,11
1070,11
1071,11
1072,11
1073,11
1074,11
1075,12
1076,12
1077,12
1078,12
1079,12
1080,12
1081,12
1082,11
1083,11
1084,11
1085,11
1086,11
1087,11
1088,11
1089,11
1090,11
1091,11
1092,11
1093,11
1094,11
1095,11
1096,11
1097,11
1098,11
1099,11
1100,11
1101,11
1102,12
1103,12
1104,11
1105,11
1106,11
1107,11
1108,11
1109,11
1110,11
1111,11
1112,11
1113,11
1114,11
1115,11
1116,11
1117,11
1118,11
1119,11
1120,11
1121,11
1122,11
1123,11
1124,11
1125,11
1126,11
1127,11
1128,11
1129,11
1130,11
1131,11
1132,11
1133,11
1134,11
1135,11
1136,11
1137,11
1138,11
1139,11
1140,11
1141,11
1142,11
1143,11
1144,11
1145,11
1146,11
1147,11
1148,11
1149,11
1150,11
1151,11
1152,11
1153,11
1154,11
1155,11
1156,11
1157,11
1158,11
1159,11
1160,11
1161,11
1162,11
1163,11
1164,11
1165,11
1166,11
1167,11
1168,11
1169,11
1170,11
1171,11
1172,11
1173,11
1174,11
1175,11
1176,11
1177,11
1178,11
1179,11
1180,11
1181,11
1182,11
1183,11
1184,11
1185,11
1186,11
1187,11
1188,11
1189,11
1190,11
1191,11
1192,11
1193,11
1194,11
1195,11
1196,11
1197,11
1198,13
1199,11
1200,11
1201,11
1202,11
1203,11
1204,11
1205,11
1206,11
1207,11
1208,11
1209,11
1210,11
1211,11
1212,11
1213,11
1214,11
1215,11
1216,11
1217,11
1218,11
1219,11
1220,11
1221,11
1222,11
1223,11
1224,11
1225,11
1226,11
1227,11
1228,11
1229,11
1230,11
1231,11
1232,11
1233,11
1234,11
1235,12
1236,12
1237,12
1238,12
1239,12
1240,12
1241,12
1242,12
1243,12
1244,12
1245,12
1246,12
1247,12
1248,12
1249,12
1250,12
1251,12
1252,12
1253,12
1254,12
1255,12
1256,12
1257,12
1258,12
1259,12
1260,12
1261,12
1262,12
1263,12
1264,12
1265,12
1266,12
1267,12
1268,12
1269,12
1270,12
1271,12
1272,12
1273,12
1274,12
1275,12
1276,12
1277,12
1278,12
1279,12
1280,12
1281,12
1282,12
1283,12
1284,12
1285,12
1286,12
1287,12
1288,12
1289,12
1290,12
1291,12
1292,12
1293,12
1294,12
1295,12
1296,12
1297,12
1298,12
1299,12
1300,12
1301,12
1302,12
1303,12
1304,12
1305,12
1306,12
1307,12
1308,12
1309,12
1310,12
1311,12
1312,12
1313,12
1314,12
1315,12
1316,12
1317,12
1318,12
1319,12
1320,12
1321,12
1322,12
1323,12
1324,12
1325,12
1326,12
1327,12
1328,12
1329,12
1330,12
1331,12
1332,12
1333,12
1334,12
1335,12
1336,12
1337,12
1338,12
1339,12
1340,12
1341,12
1342,12
1343,12
1344,12
1345,12
1346,12
1347,12
1348,12
1349,12
1350,13
1351,12
1352,12
1353,12
1354,12
1355,12
1356,12
1357,12
1358,12
1359,12
1360,12
1361,12
1362,12
1363,12
1364,12
1365,12
1366,12
1367,12
1368,12
1369,12
1370,12
1371,12
1372,12
1373,12
1374,12
1375,12
1376,12
1377,12
1378,12
1379,12
1380,12
1381,12
1382,12
1383,12
1384,12
1385,12
1386,12
1387,12
1388,12
1389,12
1390,12
1391,13
1392,13
1393,13
1394,13
1395,13
1396,13
1397,13
1398,13
1399,13
1400,13
1401,13
1402,13
1403,13
1404,13
1405,13
1406,13
1407,13
1408,13
1409,13
1410,13
1411,13
1412,13
1413,13
1414,13
1415,13
1416,13
1417,13
1418,13
1419,13
1420,13
1421,13
1422,13
1423,13
1424,13
1425,13
1426,13
1427,13
1428,13
1429,13
1430,13
1431,13
1432,13
1433,13
1434,13
1435,13
1436,13
1437,13
1438,13
1439,13
1440,13
1441,13
1442,13
1443,13
1444,13
1445,13
1446,13
1447,13
1448,13
1449,13
1450,13
1451,13
1452,13
1453,13
1454,13
1455,13
1456,13
1457,13
1458,13
1459,13
1460,13
1461,13
1462,13
1463,13
1464,13
1465,13
1466,13
1467,13
1468,13
1469,13
1470,13
1471,13
1472,13
1473,13
1474,13
1475,13
1476,14
1477,13
1478,13
1479,13
1480,13
1481,13
1482,13
1483,13
1484,13
1485,13
1486,13
1487,13
1488,13
1489,13
1490,13
1491,13
1492,13
1493,13
1494,13
1495,13
1496,13
1497,13
1498,13
1499,13
1500,13
1501,13
1502,13
1503,13
1504,13
1505,13
1506,13
1507,13
1508,13
1509,13
1510,13
1511,13
1512,13
1513,13
1514,13
1515,13
1516,13
1517,13
1518,13
1519,13
1520,13
1521,13
1522,13
1523,13
1524,13
1525,13
1526,14
1527,13
1528,13
1529,13
1530,13
1531,13
1532,13
1533,13
1534,13
1535,13
1536,13
1537,13
1538,13
1539,13
1540,13
1541,13
1542,13
1543,13
1544,13
1545,13
1546,13
1547,13
1548,13
1549,13
1550,13
1551,13
1552,13
1553,13
1554,13
1555,13
1556,13
1557,13
1558,13
1559,13
1560,13
1561,13
1562,13
1563,13
1564,13
1565,13
1566,13
1567,13
1568,13
1569,13
1570,13
1571,13
1572,13
1573,13
1574,13
1575,13
1576,13
1577,13
1578,13
1579,13
1580,13
1581,13
1582,13
1583,13
1584,13
1585,13
1586,13
1587,13
1588,13
1589,13
1590,13
1591,13
1592,13
1593,13
1594,13
1595,13
1596,13
1597,13
1598,13
1599,13
1600,13
1601,13
1602,13
1603,13
1604,13
1605,13
1606,13
1607,13
1608,13
1609,13
1610,13
1611,13
1612,13
1613,13
1614,13
1615,13
1616,13
1617,13
1618,13
1619,13
1620,13
1621,13
1622,13
1623,13
1624,13
1625,14
1626,14
1627,13
1628,13
1629,13
1630,13
1631,13
1632,13
1633,13
1634,13
1635,13
1636,13
1637,13
1638,13
1639,13
1640,13
1641,13
1642,13
1643,13
1644,13
1645,13
1646,13
1647,13
1648,13
1649,13
1650,13
1651,13
1652,13
1653,13
1654,13
1655,13
1656,13
1657,13
1658,13
1659,13
1660,13
1661,13
1662,13
1663,13
1664,13
1665,13
1666,13
1667,13
1668,13
1669,13
1670,13
1671,13
1672,13
1673,13
1674,13
1675,13
1676,13
1677,13
1678,13
1679,13
1680,13
1681,13
1682,13
1683,13
1684,13
1685,13
1686,14
1687,14
1688,14
1689,14
1690,14
1691,14
1692,14
1693,14
1694,14
1695,14
1696,14
1697,14
1698,14
1699,14
1700,14
1701,14
1702,14
1703,14
1704,14
1705,14
1706,14
1707,14
1708,14
1709,14
1710,14
1711,14
1712,14
1713,14
1714,14
1715,14
1716,14
1717,14
1718,14
1719,14
1720,14
1721,14
1722,14
1723,14
1724,14
1725,14
1726,14
1727,14
1728,14
1729,14
1730,14
1731,14
1732,14
1733,14
1734,14
1735,14
1736,14
1737,14
1738,15
1739,14
1740,14
1741,14
1742,14
1743,14
1744,14
1745,14
1746,15
1747,14
1748,14
1749,14
1750,14
1751,14
1752,14
1753,14
1754,14
1755,14
1756,14
1757,14
1758,14
1759,14
1760,14
1761,14
1762,14
1763,14
1764,14
1765,14
1766,14
1767,14
1768,14
1769,14
1770,14
1771,14
1772,14
1773,14
1774,14
1775,14
1776,14
1777,14
1778,14
1779,14
1780,14
1781,14
1782,14
1783,14
1784,14
1785,14
1786,15
1787,15
1788,15
1789,15
1790,15
1791,15
1792,15
1793,15
1794,15
1795,15
1796,15
1797,15
1798,15
1799,15
1800,14
1801,14
1802,14
1803,15
1804,14
1805,14
1806,14
1807,14
1808,14
1809,14
1810,14
1811,14
1812,14
1813,15
1814,14
1815,14
1816,14
1817,14
1818,14
1819,14
1820,14
1821,14
1822,14
1823,14
1824,14
1825,15
1826,15
1827,15
1828,14
1829,14
1830,14
1831,14
1832,14
1833,14
1834,14
1835,14
1836,14
1837,14
1838,14
1839,14
1840,14
1841,14
1842,14
1843,14
1844,14
1845,14
1846,14
1847,14
1848,14
1849,14
1850,14
1851,14
1852,14
1853,14
1854,14
1855,14
1856,14
1857,14
1858,14
1859,14
1860,14
1861,14
1862,14
1863,14
1864,14
1865,14
1866,15
1867,15
1868,15
1869,15
1870,15
1871,15
1872,14
1873,14
1874,14
1875,14
1876,14
1877,14
1878,14
1879,14
1880,14
1881,14
1882,14
1883,14
1884,14
1885,14
1886,14
1887,14
1888,14
1889,14
1890,14
1891,14
1892,14
1893,14
1894,14
1895,14
1896,14
1897,14
1898,14
1899,14
1900,14
1901,14
1902,14
1903,14
1904,14
1905,14
1906,14
1907,14
1908,14
1909,14
1910,14
1911,14
1912,14
1913,14
1914,14
1915,14
1916,14
1917,14
1918,14
1919,14
1920,14
1921,14
1922,14
1923,14
1924,14
1925,14
1926,14
1927,14
1928,14
1929,14
1930,14
1931,14
1932,14
1933,14
1934,14
1935,14
1936,14
1937,14
1938,14
1939,14
1940,14
1941,14
1942,14
1943,14
1944,14
1945,14
1946,14
1947,14
1948,14
1949,14
1950,14
1951,14
1952,14
1953,14
1954,14
1955,14
1956,14
1957,14
1958,14
1959,14
1960,14
1961,14
1962,14
1963,14
1964,14
1965,15
1966,14
1967,14
1968,14
1969,14
1970,14
1971,14
1972,14
1973,14
1974,14
1975,14
1976,14
1977,14
1978,14
1979,14
1980,14
1981,14
1982,14
1983,14
1984,14
1985,14
1986,14
1987,14
1988,14
1989,14
1990,14
1991,14
1992,14
1993,14
1994,14
1995,14
1996,15
1997,15
1998,15
1999,15
2000,15
2001,15
2002,15
2003,15
2004,15
2005,14
2006,14
2007,14
2008,14
2009,14
2010,14
2011,14
2012,14
2013,14
2014,14
2015,15
2016,15
2017,15
2018,15
2019,16
2020,15
2021,15
2022,15
2023,15
2024,15
2025,15
2026,15
2027,15
2028,15
2029,15
2030,15
2031,15
2032,15
2033,15
2034,15
2035,15
2036,15
2037,15
2038,15
2039,15
2040,15
2041,15
2042,15
2043,15
2044,15
2045,15
2046,15
2047,15
2048,15
2049,15
2050,15
2051,15
2052,15
2053,15
2054,15
2055,15
2056,16
2057,16
2058,16
2059,16
2060,15
2061,15
2062,15
2063,15
2064,15
2065,15
2066,15
2067,15
2068,15
2069,15
2070,15
2071,15
2072,15
2073,16
2074,16
2075,16
2076,16
2077,15
2078,15
2079,15
2080,15
2081,15
2082,15
2083,15
2084,15
2085,15
2086,15
2087,15
2088,15
2089,15
2090,15
2091,15
2092,15
2093,15
2094,16
2095,16
2096,15
2097,15
2098,15
2099,15
2100,15
2101,15
2102,15
2103,15
2104,15
2105,15
2106,15
2107,15
2108,15
2109,15
2110,15
2111,15
2112,15
2113,15
2114,15
2115,15
2116,15
2117,15
2118,15
2119,15
2120,15
2121,15
2122,15
2123,16
2124,16
2125,16
2126,16
2127,16
2128,16
2129,16
2130,16
2131,16
2132,16
2133,16
2134,16
2135,16
2136,16
2137,16
2138,16
2139,16
2140,16
2141,16
2142,16
2143,16
2144,16
2145,16
2146,16
2147,16
2148,16
2149,16
2150,16
2151,16
2152,16
2153,16
2154,16
2155,16
2156,16
2157,16
2158,16
2159,16
2160,16
2161,16
2162,16
2163,16
2164,16
2165,16
2166,16
2167,16
2168,16
2169,16
2170,16
2171,16
2172,16
2173,16
2174,16
2175,16
2176,16
2177,16
2178,16
2179,16
2180,16
2181,16
2182,16
2183,16
2184,16
2185,16
2186,16
2187,16
2188,16
2189,16
2190,16
2191,16
2192,16
2193,16
2194,16
2195,16
2196,16
2197,16
2198,16
2199,16
2200,16
2201,16
2202,16
2203,16
2204,16
2205,16
2206,16
2207,16
2208,16
2209,16
2210,16
2211,16
2212,16
2213,16
2214,16
2215,16
2216,16
2217,16
2218,16
2219,16
2220,16
2221,16
2222,16
2223,16
2224,16
2225,16
2226,16
2227,16
2228,16
2229,16
2230,16
2231,16
2232,16
2233,16
2234,16
2235,16
2236,16
2237,16
2238,16
2239,16
2240,16
2241,16
2242,16
2243,16
2244,16
2245,16
2246,16
2247,16
2248,16
2249,16
2250,16
2251,16
2252,16
2253,16
2254,16
2255,16
2256,16
2257,16
2258,16
2259,16
2260,16
2261,16
2262,16
2263,16
2264,16
2265,16
2266,16
2267,16
2268,16
2269,16
2270,16
2271,16
2272,16
2273,16
2274,16
2275,16
2276,16
2277,16
2278,16
2279,16
2280,16
2281,16
2282,16
2283,16
2284,16
2285,16
2286,16
2287,16
2288,16
2289,16
2290,16
2291,16
2292,16
2293,16
2294,16
2295,16
2296,16
2297,16
2298,16
2299,16
2300,16
2301,16
2302,16
2303,16
2304,16
2305,16
2306,16
2307,16
2308,16
2309,16
2310,16
2311,16
2312,16
2313,16
2314,16
2315,16
2316,16
2317,16
2318,16
2319,16
2320,16
2321,16
2322,16
2323,16
2324,16
2325,16
2326,16
2327,16
2328,16
2329,16
2330,16
2331,16
2332,16
2333,16
2334,16
2335,16
2336,16
2337,16
2338,16
2339,16
2340,16
2341,16
2342,16
2343,16
2344,16
2345,16
2346,16
2347,17
2348,17
2349,17
2350,17
2351,17
2352,17
2353,17
2354,17
2355,17
2356,17
2357,17
2358,17
2359,17
2360,17
2361,17
2362,17
2363,17
2364,17
2365,17
2366,18
2367,17
2368,17
2369,17
2370,16
2371,16
2372,16
2373,16
2374,16
2375,16
2376,16
2377,16
2378,16
2379,16
2380,16
2381,16
2382,16
2383,16
2384,16
2385,17
2386,17
2387,16
2388,16
2389,16
2390,16
2391,16
2392,16
2393,16
2394,16
2395,16
2396,16
2397,16
2398,16
2399,16
2400,16
2401,16
2402,16
2403,16
2404,16
2405,16
2406,16
2407,16
2408,16
2409,16
2410,16
2411,16
2412,16
2413,16
2414,16
2415,16
2416,16
2417,16
2418,16
2419,16
2420,16
2421,16
2422,16
2423,16
2424,16
2425,16
2426,16
2427,16
2428,16
2429,16
2430,16
2431,16
2432,16
2433,16
2434,16
2435,16
2436,16
2437,16
2438,16
2439,16
2440,16
2441,16
2442,16
2443,16
2444,16
2445,16
2446,16
2447,16
2448,16
2449,16
2450,16
2451,16
2452,16
2453,16
2454,16
2455,16
2456,16
2457,16
2458,16
2459,16
2460,16
2461,16
2462,16
2463,16
2464,16
2465,16
2466,16
2467,16
2468,16
2469,16
2470,16
2471,16
2472,16
2473,16
2474,16
2475,16
2476,16
2477,16
2478,16
2479,16
2480,16
2481,16
2482,16
2483,16
2484,16
2485,16
2486,16
2487,16
2488,16
2489,16
2490,16
2491,16
2492,16
2493,16
2494,16
2495,16
2496,16
2497,16
2498,16
2499,16
2500,16
2501,16
2502,16
2503,16
2504,16
2505,16
2506,16
2507,16
2508,16
2509,16
2510,16
2511,16
2512,16
2513,16
2514,16
2515,16
2516,16
2517,16
2518,16
2519,16
2520,16
2521,16
2522,16
2523,16
2524,16
2525,16
2526,17
2527,16
2528,16
2529,16
2530,16
2531,16
2532,16
2533,16
2534,16
2535,16
2536,16
2537,16
2538,16
2539,16
2540,16
2541,16
2542,16
2543,16
2544,16
2545,16
2546,16
2547,16
2548,16
2549,16
2550,16
2551,16
2552,16
2553,16
2554,16
2555,16
2556,16
2557,16
2558,16
2559,16
2560,16
2561,17
2562,16
2563,16
2564,16
2565,16
2566,16
2567,16
2568,16
2569,16
2570,16
2571,16
2572,16
2573,16
2574,17
2575,17
2576,17
2577,16
2578,16
2579,16
2580,16
2581,16
2582,16
2583,16
2584,16
2585,16
2586,16
2587,16
2588,16
2589,16
2590,16
2591,16
2592,16
2593,16
2594,16
2595,16
2596,16
2597,16
2598,16
2599,16
2600,16
2601,16
2602,16
2603,16
2604,16
2605,16
2606,16
2607,16
2608,16
2609,16
2610,16
2611,16
2612,16
2613,16
2614,16
2615,16
2616,16
2617,16
2618,16
2619,16
2620,16
2621,16
2622,16
2623,16
2624,16
2625,16
2626,16
2627,16
2628,16
2629,16
2630,16
2631,16
2632,16
2633,16
2634,16
2635,16
2636,16
2637,16
2638,16
2639,16
2640,16
2641,16
2642,16
2643,16
2644,16
2645,16
2646,16
2647,16
2648,16
2649,16
2650,16
2651,16
2652,16
2653,16
2654,16
2655,16
2656,16
2657,16
2658,16
2659,16
2660,16
2661,16
2662,16
2663,16
2664,16
2665,16
2666,16
2667,16
2668,16
2669,16
2670,16
2671,16
2672,16
2673,16
2674,16
2675,16
2676,16
2677,16
2678,16
2679,16
2680,16
2681,16
2682,16
2683,16
2684,16
2685,16
2686,16
2687,16
2688,16
2689,16
2690,16
2691,16
2692,16
2693,16
2694,16
2695,16
2696,16
2697,16
2698,16
2699,16
2700,16
2701,16
2702,16
2703,16
2704,16
2705,16
2706,16
2707,16
2708,16
2709,16
2710,16
2711,16
2712,16
2713,16
2714,16
2715,16
2716,16
2717,16
2718,16
2719,16
2720,16
2721,16
2722,16
2723,16
2724,16
2725,16
2726,16
2727,16
2728,16
2729,16
2730,16
2731,16
2732,16
2733,16
2734,16
2735,16
2736,16
2737,16
2738,16
2739,16
2740,16
2741,16
2742,16
2743,16
2744,16
2745,16
2746,16
2747,16
2748,16
2749,16
2750,16
2751,16
2752,16
2753,16
2754,16
2755,16
2756,16
2757,17
2758,17
2759,17
2760,17
2761,17
2762,17
2763,17
2764,17
2765,17
2766,16
2767,16
2768,16
2769,16
2770,16
2771,16
2772,16
2773,16
2774,16
2775,16
2776,16
2777,16
2778,16
2779,16
2780,16
2781,16
2782,16
2783,16
2784,16
2785,16
2786,16
2787,16
2788,16
2789,16
2790,16
2791,16
2792,16
2793,16
2794,16
2795,16
2796,16
2797,16
2798,16
2799,16
2800,16
2801,16
2802,16
2803,16
2804,16
2805,16
2806,16
2807,16
2808,16
2809,17
2810,16
2811,16
2812,16
2813,16
2814,16
2815,16
2816,16
2817,16
2818,16
2819,16
2820,16
2821,16
2822,16
2823,16
2824,16
2825,16
2826,16
2827,16
2828,16
2829,16
2830,16
2831,16
2832,16
2833,16
2834,16
2835,16
2836,16
2837,16
2838,16
2839,16
2840,16
2841,16
2842,16
2843,16
2844,16
2845,16
2846,16
2847,16
2848,16
2849,16
2850,16
2851,16
2852,16
2853,16
2854,16
2855,16
2856,16
2857,16
2858,16
2859,16
2860,16
2861,16
2862,16
2863,16
2864,16
2865,16
2866,16
2867,16
2868,16
2869,16
2870,16
2871,16
2872,16
2873,16
2874,16
2875,16
2876,16
2877,16
2878,16
2879,16
2880,16
2881,16
2882,16
2883,16
2884,16
2885,16
2886,16
2887,16
2888,16
2889,16
2890,16
2891,16
2892,16
2893,16
2894,16
2895,16
2896,16
2897,16
2898,16
2899,16
2900,16
2901,16
2902,16
2903,16
2904,16
2905,16
2906,16
2907,16
2908,16
2909,16
2910,16
2911,16
2912,16
2913,16
2914,16
2915,16
2916,16
2917,16
2918,16
2919,16
2920,16
2921,16
2922,16
2923,16
2924,16
2925,16
2926,16
2927,16
2928,16
2929,17
2930,16
2931,16
2932,16
2933,16
2934,16
2935,16
2936,16
2937,16
2938,16
2939,16
2940,16
2941,16
2942,16
2943,16
2944,16
2945,16
2946,16
2947,16
2948,16
2949,16
2950,16
2951,16
2952,16
2953,16
2954,16
2955,16
2956,16
2957,16
2958,16
2959,17
2960,16
2961,16
2962,16
2963,16
2964,16
2965,16
2966,16
2967,16
2968,16
2969,16
2970,16
2971,16
2972,16
2973,16
2974,16
2975,16
2976,16
2977,16
2978,16
2979,16
2980,16
2981,16
2982,16
2983,16
2984,16
2985,16
2986,16
2987,16
2988,16
2989,16
2990,16
2991,16
2992,16
2993,16
2994,16
2995,16
2996,16
2997,16
2998,16
2999,16
3000,16
3001,16
3002,16
3003,16
3004,16
3005,16
3006,16
3007,16
3008,16
3009,16
3010,16
3011,16
3012,16
3013,16
3014,16
3015,16
3016,16
3017,16
3018,16
3019,16
3020,16
3021,16
3022,16
3023,16
3024,16
3025,16
3026,16
3027,16
3028,16
3029,16
3030,16
3031,16
3032,16
3033,16
3034,16
3035,16
3036,16
3037,16
3038,16
3039,16
3040,16
3041,17
3042,17
3043,16
3044,16
3045,16
3046,16
3047,16
3048,16
3049,16
3050,16
3051,16
3052,16
3053,16
3054,16
3055,16
3056,16
3057,16
3058,16
3059,16
3060,16
3061,16
3062,16
3063,16
3064,16
3065,16
3066,16
3067,16
3068,16
3069,16
3070,16
3071,16
3072,16
3073,16
3074,16
3075,16
3076,16
3077,16
3078,16
3079,16
3080,16
3081,16
3082,16
3083,16
3084,16
3085,16
3086,16
3087,16
3088,16
3089,16
3090,16
3091,16
3092,16
3093,16
3094,16
3095,16
3096,16
3097,16
3098,16
3099,16
3100,16
3101,16
3102,16
3103,16
3104,16
3105,16
3106,16
3107,16
3108,16
3109,16
3110,16
3111,16
3112,16
3113,16
3114,16
3115,16
3116,16
3117,16
3118,16
3119,16
3120,16
3121,16
3122,16
3123,16
3124,16
3125,16
3126,16
3127,16
3128,16
3129,16
3130,16
3131,16
3132,16
3133,16
3134,16
3135,16
3136,16
3137,16
3138,16
3139,17
3140,18
3141,17
3142,17
3143,17
3144,17
3145,17
3146,17
3147,17
3148,16
3149,16
3150,16
3151,16
3152,16
3153,16
3154,16
3155,16
3156,16
3157,16
3158,16
3159,16
3160,16
3161,16
3162,16
3163,16
3164,16
3165,16
3166,16
3167,16
3168,16
3169,16
3170,16
3171,16
3172,16
3173,16
3174,16
3175,16
3176,16
3177,16
3178,16
3179,16
3180,16
3181,16
3182,16
3183,16
3184,16
3185,16
3186,16
3187,16
3188,16
3189,16
3190,16
3191,16
3192,16
3193,16
3194,16
3195,16
3196,16
3197,16
3198,16
3199,16
3200,16
3201,16
3202,16
3203,16
3204,16
3205,16
3206,16
3207,16
3208,16
3209,16
3210,16
3211,16
3212,16
3213,16
3214,16
3215,17
3216,16
3217,16
3218,16
3219,16
3220,16
3221,16
3222,16
3223,16
3224,16
3225,16
3226,16
3227,16
3228,16
3229,16
3230,16
3231,16
3232,16
3233,16
3234,16
3235,16
3236,16
3237,16
3238,16
3239,16
3240,16
3241,16
3242,16
3243,16
3244,16
3245,16
3246,16
3247,16
3248,16
3249,16
3250,16
3251,16
3252,16
3253,16
3254,16
3255,16
3256,16
3257,16
3258,16
3259,16
3260,16
3261,16
3262,16
3263,16
3264,16
3265,16
3266,16
3267,16
3268,16
3269,16
3270,16
3271,16
3272,16
3273,16
3274,16
3275,16
3276,16
3277,16
3278,16
3279,16
3280,16
3281,16
3282,16
3283,16
3284,16
3285,16
3286,16
3287,16
3288,16
3289,16
3290,16
3291,16
3292,16
3293,16
3294,16
3295,16
3296,16
3297,16
3298,16
3299,16
3300,16
3301,16
3302,16
3303,16
3304,16
3305,16
3306,16
3307,16
3308,16
3309,17
3310,17
3311,17
3312,17
3313,17
3314,17
3315,17
3316,16
3317,16
3318,16
3319,16
3320,16
3321,16
3322,16
3323,16
3324,16
3325,16
3326,16
3327,16
3328,16
3329,16
3330,16
3331,16
3332,16
3333,16
3334,16
3335,16
3336,16
3337,16
3338,16
3339,16
3340,16
3341,16
3342,16
3343,16
3344,16
3345,16
3346,16
3347,16
3348,16
3349,16
3350,16
3351,16
3352,16
3353,16
3354,16
3355,16
3356,16
3357,16
3358,16
3359,16
3360,16
3361,16
3362,16
3363,16
3364,16
3365,16
3366,16
3367,16
3368,16
3369,16
3370,16
3371,16
3372,16
3373,16
3374,16
3375,16
3376,16
3377,16
3378,16
3379,16
3380,16
3381,16
3382,16
3383,16
3384,16
3385,16
3386,16
3387,16
3388,16
3389,16
3390,16
3391,17
3392,16
3393,17
3394,17
3395,17
3396,17
3397,17
3398,17
3399,17
3400,17
3401,17
3402,17
3403,17
3404,17
3405,17
3406,17
3407,17
3408,17
3409,17
3410,16
3411,16
3412,16
3413,16
3414,16
3415,16
3416,17
3417,16
3418,16
3419,16
3420,16
3421,16
3422,16
3423,16
3424,16
3425,16
3426,16
3427,16
3428,16
3429,16
3430,16
3431,16
3432,16
3433,16
3434,16
3435,16
3436,16
3437,16
3438,16
3439,16
3440,16
3441,16
3442,16
3443,16
3444,16
3445,16
3446,16
3447,16
3448,16
3449,17
3450,17
3451,17
3452,17
3453,17
3454,17
3455,17
3456,17
3457,17
3458,17
3459,17
3460,17
3461,17
3462,17
3463,17
3464,17
3465,17
3466,17
3467,17
3468,17
3469,17
3470,17
3471,17
3472,17
3473,17
3474,17
3475,17
3476,17
3477,17
3478,17
3479,17
3480,17
3481,17
3482,17
3483,17
3484,17
3485,17
3486,17
3487,17
3488,17
3489,17
3490,17
3491,17
3492,17
3493,17
3494,17
3495,17
3496,17
3497,17
3498,17
3499,17
3500,17
3501,17
3502,17
3503,17
3504,17
3505,17
3506,17
3507,17
3508,17
3509,17
3510,17
3511,17
3512,17
3513,17
3514,17
3515,17
3516,17
3517,17
3518,17
3519,17
3520,17
3521,17
3522,17
3523,17
3524,18
3525,18
3526,18
3527,18
3528,18
3529,18
3530,18
3531,18
3532,18
3533,18
3534,18
3535,18
3536,18
3537,18
3538,18
3539,18
3540,18
3541,18
3542,18
3543,18
3544,18
3545,18
3546,18
3547,19
3548,19
3549,19
3550,19
3551,19
3552,19
3553,19
3554,19
3555,19
3556,19
3557,19
3558,19
3559,19
3560,19
3561,19
3562,18
3563,18
3564,18
3565,18
3566,18
3567,18
3568,18
3569,18
3570,18
3571,18
3572,18
3573,18
3574,18
3575,18
3576,18
3577,18
3578,18
3579,18
3580,18
3581,18
3582,18
3583,18
3584,18
3585,18
3586,18
3587,18
3588,18
3589,18
3590,18
3591,18
3592,18
3593,18
3594,18
3595,18
3596,18
3597,18
3598,18
3599,18
3600,18
3601,18
3602,18
3603,18
3604,18
3605,18
3606,18
3607,18
3608,18
3609,18
3610,18
3611,18
3612,18
3613,18
3614,18
3615,19
3616,18
3617,18
3618,18
3619,18
3620,18
3621,18
3622,18
3623,18
3624,18
3625,19
3626,18
3627,18
3628,18
3629,18
3630,18
3631,18
3632,18
3633,18
3634,18
3635,18
3636,18
3637,18
3638,18
3639,18
3640,18
3641,18
3642,18
3643,18
3644,18
3645,18
3646,18
3647,18
3648,18
3649,18
3650,18
3651,18
3652,18
3653,18
3654,18
3655,18
3656,18
3657,18
3658,18
3659,18
3660,18
3661,18
3662,18
3663,18
3664,18
3665,18
3666,18
3667,18
3668,18
3669,18
3670,18
3671,18
3672,18
3673,18
3674,18
3675,18
3676,18
3677,18
3678,18
3679,18
3680,18
3681,18
3682,18
3683,18
3684,18
3685,18
3686,18
3687,18
3688,18
3689,18
3690,18
3691,18
3692,18
3693,18
3694,18
3695,18
3696,18
3697,18
3698,18
3699,18
3700,18
3701,18
3702,18
3703,18
3704,18
3705,18
3706,18
3707,18
3708,18
3709,18
3710,18
3711,18
3712,18
3713,18
3714,18
3715,18
3716,18
3717,18
3718,18
3719,18
3720,18
3721,18
3722,18
3723,18
3724,18
3725,18
3726,18
3727,18
3728,18
3729,18
3730,18
3731,18
3732,18
3733,18
3734,18
3735,18
3736,18
3737,18
3738,18
3739,18
3740,18
3741,18
3742,18
3743,18
3744,18
3745,18
3746,18
3747,18
3748,18
3749,18
3750,18
3751,18
3752,18
3753,18
3754,18
3755,18
3756,18
3757,18
3758,18
3759,18
3760,18
3761,18
3762,18
3763,18
3764,18
3765,18
3766,18
3767,18
3768,18
3769,18
3770,18
3771,19
3772,18
3773,18
3774,18
3775,18
3776,18
3777,18
3778,18
3779,18
3780,18
3781,18
3782,18
3783,18
3784,18
3785,18
3786,18
3787,18
3788,18
3789,18
3790,18
3791,18
3792,18
3793,18
3794,18
3795,18
3796,18
3797,18
3798,18
3799,18
3800,18
3801,18
3802,18
3803,18
3804,18
3805,18
3806,18
3807,18
3808,18
3809,18
3810,18
3811,18
3812,18
3813,18
3814,18
3815,18
3816,18
3817,18
3818,18
3819,18
3820,18
3821,19
3822,19
3823,19
3824,18
3825,18
3826,18
3827,18
3828,19
3829,19
3830,18
3831,18
3832,18
3833,18
3834,18
3835,18
3836,18
3837,18
3838,18
3839,18
3840,18
3841,18
3842,18
3843,18
3844,18
3845,18
3846,18
3847,18
3848,18
3849,18
3850,18
3851,18
3852,18
3853,18
3854,18
3855,18
3856,18
3857,18
3858,18
3859,18
3860,18
3861,18
3862,18
3863,18
3864,18
3865,18
3866,18
3867,18
3868,18
3869,18
3870,18
3871,18
3872,18
3873,18
3874,18
3875,18
3876,18
3877,18
3878,18
3879,18
3880,18
3881,18
3882,18
3883,18
3884,18
3885,18
3886,18
3887,18
3888,18
3889,18
3890,18
3891,18
3892,18
3893,18
3894,18
3895,18
3896,18
3897,18
3898,18
3899,18
3900,18
3901,18
3902,18
3903,18
3904,18
3905,18
3906,18
3907,18
3908,18
3909,18
3910,18
3911,18
3912,18
3913,18
3914,18
3915,18
3916,18
3917,18
3918,18
3919,19
3920,18
3921,18
3922,18
3923,18
3924,18
3925,18
3926,18
3927,18
3928,18
3929,18
3930,18
3931,18
3932,18
3933,18
3934,18
3935,18
3936,18
3937,18
3938,18
3939,18
3940,18
3941,18
3942,18
3943,18
3944,18
3945,18
3946,18
3947,19
3948,19
3949,19
3950,19
3951,19
3952,19
3953,19
3954,19
3955,19
3956,19
3957,19
3958,19
3959,19
3960,19
3961,19
3962,19
3963,19
3964,19
3965,19
3966,19
3967,19
3968,19
3969,19
3970,19
3971,19
3972,19
3973,19
3974,19
3975,19
3976,19
3977,19
3978,19
3979,19
3980,19
3981,19
3982,19
3983,19
3984,19
3985,19
3986,19
3987,20
3988,19
3989,19
3990,19
3991,19
3992,19
3993,19
3994,19
3995,19
3996,19
3997,19
3998,19
3999,19
4000,19
4001,19
4002,19
4003,19
4004,19
4005,19
4006,19
4007,19
4008,19
4009,19
4010,19
4011,19
4012,19
4013,19
4014,19
4015,19
4016,19
4017,19
4018,19
4019,19
4020,19
4021,19
4022,19
4023,19
4024,19
4025,19
4026,19
4027,19
4028,19
4029,19
4030,19
4031,19
4032,19
4033,19
4034,19
4035,19
4036,19
4037,19
4038,19
4039,19
4040,19
4041,19
4042,19
4043,19
4044,19
4045,19
4046,19
4047,19
4048,19
4049,19
4050,19
4051,19
4052,19
4053,19
4054,19
4055,19
4056,19
4057,19
4058,19
4059,19
4060,19
4061,19
4062,19
4063,19
4064,19
4065,19
4066,19
4067,19
4068,19
4069,19
4070,19
4071,19
4072,19
4073,19
4074,19
4075,19
4076,19
4077,19
4078,19
4079,19
4080,19
4081,19
4082,19
4083,19
4084,19
4085,19
4086,19
4087,19
4088,19
4089,19
4090,19
4091,19
4092,19
4093,19
4094,19
4095,19
4096,19
4097,19
4098,19
4099,19
4100,19
4101,19
4102,19
4103,19
4104,19
4105,19
4106,19
4107,19
4108,19
4109,19
4110,19
4111,19
4112,19
4113,19
4114,19
4115,19
4116,19
4117,19
4118,19
4119,19
4120,19
4121,19
4122,19
4123,19
4124,19
4125,19
4126,19
4127,19
4128,19
4129,19
4130,19
4131,19
4132,19
4133,19
4134,19
4135,19
4136,19
4137,19
4138,19
4139,19
4140,19
4141,19
4142,19
4143,19
4144,19
4145,19
4146,19
4147,19
4148,19
4149,19
4150,19
4151,19
4152,19
4153,19
4154,19
4155,19
4156,19
4157,19
4158,19
4159,19
4160,19
4161,19
4162,19
4163,19
4164,19
4165,19
4166,19
4167,19
4168,19
4169,19
4170,19
4171,19
4172,19
4173,19
4174,19
4175,19
4176,19
4177,19
4178,19
4179,19
4180,19
4181,19
4182,19
4183,19
4184,19
4185,19
4186,19
4187,19
4188,19
4189,19
4190,19
4191,19
4192,19
4193,19
4194,19
4195,19
4196,19
4197,19
4198,19
4199,19
4200,19
4201,19
4202,19
4203,19
4204,19
4205,19
4206,19
4207,19
4208,19
4209,19
4210,19
4211,19
4212,19
4213,19
4214,19
4215,19
4216,19
4217,19
4218,19
4219,19
4220,19
4221,19
4222,19
4223,19
4224,19
4225,19
4226,19
4227,19
4228,19
4229,19
4230,19
4231,19
4232,19
4233,19
4234,19
4235,19
4236,19
4237,19
4238,19
4239,19
4240,19
4241,19
4242,19
4243,19
4244,19
4245,19
4246,19
4247,19
4248,19
4249,19
4250,19
4251,19
4252,19
4253,19
4254,19
4255,19
4256,19
4257,19
4258,19
4259,19
4260,19
4261,19
4262,19
4263,19
4264,19
4265,19
4266,19
4267,20
4268,21
4269,19
4270,19
4271,19
4272,19
4273,19
4274,19
4275,19
4276,19
4277,19
4278,19
4279,19
4280,19
4281,19
4282,19
4283,19
4284,19
4285,19
4286,19
4287,19
4288,19
4289,19
4290,19
4291,19
4292,19
4293,19
4294,19
4295,19
4296,19
4297,19
4298,19
4299,19
4300,19
4301,19
4302,19
4303,19
4304,19
4305,19
4306,19
4307,19
4308,19
4309,19
4310,19
4311,19
4312,19
4313,19
4314,19
4315,19
4316,19
4317,19
4318,19
4319,19
4320,19
4321,19
4322,19
4323,19
4324,19
4325,19
4326,19
4327,19
4328,19
4329,19
4330,19
4331,19
4332,19
4333,19
4334,19
4335,19
4336,19
4337,19
4338,19
4339,19
4340,19
4341,19
4342,19
4343,19
4344,19
4345,19
4346,19
4347,19
4348,19
4349,20
4350,20
4351,20
4352,20
4353,20
4354,20
4355,20
4356,20
4357,20
4358,20
4359,19
4360,19
4361,19
4362,19
4363,19
4364,19
4365,19
4366,19
4367,19
4368,19
4369,19
4370,19
4371,19
4372,19
4373,19
4374,19
4375,19
4376,19
4377,19
4378,19
4379,19
4380,19
4381,19
4382,19
4383,19
4384,19
4385,19
4386,19
4387,19
4388,19
4389,19
4390,19
4391,20
4392,20
4393,20
4394,20
4395,20
4396,20
4397,20
4398,20
4399,19
4400,19
4401,19
4402,19
4403,19
4404,19
4405,19
4406,19
4407,19
4408,19
4409,19
4410,19
4411,19
4412,19
4413,19
4414,19
4415,19
4416,19
4417,19
4418,19
4419,19
4420,19
4421,19
4422,19
4423,19
4424,19
4425,19
4426,19
4427,19
4428,19
4429,19
4430,19
4431,19
4432,19
4433,19
4434,19
4435,19
4436,19
4437,19
4438,19
4439,19
4440,19
4441,19
4442,19
4443,19
4444,19
4445,19
4446,19
4447,19
4448,19
4449,19
4450,19
4451,19
4452,19
4453,19
4454,19
4455,19
4456,19
4457,19
4458,19
4459,19
4460,19
4461,19
4462,19
4463,19
4464,19
4465,19
4466,19
4467,19
4468,19
4469,19
4470,19
4471,19
4472,19
4473,19
4474,19
4475,19
4476,19
4477,19
4478,19
4479,19
4480,19
4481,19
4482,19
4483,19
4484,19
4485,19
4486,19
4487,19
4488,19
4489,19
4490,19
4491,19
4492,19
4493,19
4494,19
4495,19
4496,19
4497,19
4498,19
4499,19
4500,19
4501,19
4502,19
4503,19
4504,19
4505,19
4506,19
4507,19
4508,19
4509,19
4510,19
4511,19
4512,19
4513,19
4514,19
4515,19
4516,19
4517,19
4518,19
4519,19
4520,19
4521,19
4522,19
4523,19
4524,19
4525,19
4526,19
4527,19
4528,19
4529,19
4530,19
4531,19
4532,19
4533,19
4534,19
4535,19
4536,19
4537,19
4538,19
4539,19
4540,19
4541,19
4542,19
4543,19
4544,19
4545,19
4546,19
4547,19
4548,19
4549,19
4550,19
4551,19
4552,19
4553,19
4554,19
4555,19
4556,19
4557,19
4558,19
4559,19
4560,19
4561,19
4562,19
4563,19
4564,19
4565,19
4566,19
4567,19
4568,19
4569,19
4570,19
4571,19
4572,19
4573,19
4574,19
4575,19
4576,19
4577,19
4578,19
4579,19
4580,19
4581,19
4582,19
4583,19
4584,19
4585,19
4586,20
4587,20
4588,20
4589,20
4590,20
4591,20
4592,20
4593,20
4594,20
4595,20
4596,20
4597,20
4598,20
4599,20
4600,19
4601,19
4602,19
4603,19
4604,19
4605,19
4606,19
4607,19
4608,19
4609,19
4610,19
4611,19
4612,19
4613,19
4614,19
4615,19
4616,19
4617,19
4618,20
4619,20
4620,19
4621,19
4622,19
4623,19
4624,19
4625,19
4626,20
4627,20
4628,20
4629,20
4630,20
4631,20
4632,20
4633,20
4634,20
4635,20
4636,20
4637,21
4638,21
4639,19
4640,19
4641,19
4642,19
4643,19
4644,19
4645,19
4646,19
4647,19
4648,19
4649,19
4650,19
4651,19
4652,19
4653,19
4654,19
4655,19
4656,19
4657,19
4658,19
4659,19
4660,19
4661,19
4662,19
4663,19
4664,19
4665,19
4666,19
4667,19
4668,19
4669,19
4670,19
4671,19
4672,19
4673,19
4674,19
4675,19
4676,19
4677,19
4678,19
4679,19
4680,19
4681,19
4682,19
4683,19
4684,19
4685,19
4686,19
4687,19
4688,19
4689,19
4690,19
4691,19
4692,19
4693,19
4694,19
4695,19
4696,19
4697,19
4698,19
4699,19
4700,19
4701,19
4702,19
4703,19
4704,19
4705,19
4706,19
4707,19
4708,19
4709,19
4710,19
4711,19
4712,19
4713,19
4714,19
4715,19
4716,19
4717,19
4718,19
4719,19
4720,19
4721,19
4722,19
4723,19
4724,19
4725,19
4726,19
4727,19
4728,19
4729,19
4730,19
4731,19
4732,19
4733,19
4734,19
4735,19
4736,19
4737,19
4738,19
4739,19
4740,19
4741,19
4742,19
4743,19
4744,20
4745,19
4746,19
4747,19
4748,19
4749,19
4750,19
4751,19
4752,19
4753,19
4754,19
4755,19
4756,19
4757,19
4758,19
4759,19
4760,19
4761,19
4762,19
4763,19
4764,19
4765,19
4766,19
4767,19
4768,19
4769,19
4770,19
4771,19
4772,19
4773,19
4774,19
4775,19
4776,19
4777,19
4778,19
4779,19
4780,19
4781,19
4782,19
4783,19
4784,19
4785,19
4786,19
4787,19
4788,19
4789,19
4790,19
4791,19
4792,19
4793,19
4794,19
4795,19
4796,19
4797,19
4798,19
4799,19
4800,19
4801,19
4802,19
4803,19
4804,19
4805,19
4806,19
4807,19
4808,19
4809,19
4810,19
4811,19
4812,19
4813,19
4814,19
4815,19
4816,19
4817,19
4818,19
4819,19
4820,19
4821,19
4822,19
4823,19
4824,19
4825,19
4826,19
4827,19
4828,19
4829,19
4830,19
4831,19
4832,19
4833,19
4834,19
4835,19
4836,19
4837,19
4838,19
4839,19
4840,19
4841,19
4842,19
4843,19
4844,19
4845,19
4846,19
4847,19
4848,19
4849,19
4850,19
4851,19
4852,19
4853,19
4854,19
4855,19
4856,19
4857,19
4858,19
4859,19
4860,19
4861,19
4862,19
4863,19
4864,19
4865,19
4866,19
4867,19
4868,19
4869,19
4870,19
4871,19
4872,19
4873,19
4874,19
4875,19
4876,19
4877,19
4878,19
4879,19
4880,19
4881,19
4882,19
4883,19
4884,19
4885,19
4886,19
4887,19
4888,19
4889,19
4890,19
4891,19
4892,19
4893,19
4894,19
4895,19
4896,19
4897,19
4898,19
4899,19
4900,19
4901,19
4902,19
4903,19
4904,19
4905,19
4906,19
4907,19
4908,19
4909,19
4910,19
4911,19
4912,19
4913,19
4914,19
4915,19
4916,19
4917,19
4918,19
4919,19
4920,19
4921,19
4922,19
4923,19
4924,19
4925,19
4926,19
4927,19
4928,19
4929,19
4930,20
4931,19
4932,19
4933,19
4934,19
4935,19
4936,19
4937,19
4938,19
4939,19
4940,19
4941,19
4942,19
4943,19
4944,19
4945,19
4946,19
4947,19
4948,19
4949,19
4950,19
4951,19
4952,19
4953,19
4954,19
4955,19
4956,19
4957,19
4958,19
4959,19
4960,19
4961,19
4962,19
4963,19
4964,19
4965,19
4966,19
4967,19
4968,19
4969,19
4970,19
4971,19
4972,19
4973,19
4974,19
4975,19
4976,19
4977,19
4978,19
4979,19
4980,19
4981,19
4982,19
4983,19
4984,19
4985,19
4986,19
4987,19
4988,19
4989,19
4990,19
4991,19
4992,19
4993,19
4994,19
4995,19
4996,19
4997,19
4998,19
4999,19
5000,19
5001,19
5002,19
5003,19
5004,19
5005,20
5006,19
5007,19
5008,19
5009,19
5010,19
5011,19
5012,19
5013,19
5014,19
5015,19
5016,19
5017,19
5018,19
5019,19
5020,19
5021,19
5022,19
5023,19
5024,19
5025,19
5026,19
5027,19
5028,19
5029,19
5030,19
5031,19
5032,19
5033,20
5034,20
5035,20
5036,20
5037,20
5038,20
5039,20
5040,20
5041,20
5042,20
5043,20
5044,20
5045,20
5046,20
5047,20
5048,20
5049,20
5050,19
5051,19
5052,19
5053,19
5054,19
5055,19
5056,19
5057,19
5058,19
5059,19
5060,19
5061,19
5062,19
5063,19
5064,19
5065,19
5066,19
5067,19
5068,19
5069,19
5070,19
5071,19
5072,19
5073,19
5074,19
5075,19
5076,19
5077,19
5078,19
5079,19
5080,19
5081,19
5082,19
5083,19
5084,19
5085,19
5086,19
5087,19
5088,19
5089,19
5090,19
5091,19
5092,19
5093,19
5094,19
5095,19
5096,19
5097,19
5098,19
5099,19
5100,19
5101,19
5102,19
5103,19
5104,19
5105,19
5106,19
5107,19
5108,19
5109,19
5110,19
5111,19
5112,19
5113,19
5114,19
5115,19
5116,19
5117,19
5118,19
5119,19
5120,19
5121,19
5122,19
5123,19
5124,19
5125,19
5126,19
5127,19
5128,19
5129,19
5130,19
5131,19
5132,19
5133,19
5134,19
5135,19
5136,19
5137,19
5138,19
5139,19
5140,19
5141,19
5142,19
5143,19
5144,19
5145,19
5146,19
5147,19
5148,19
5149,19
5150,19
5151,19
5152,19
5153,19
5154,19
5155,19
5156,19
5157,19
5158,19
5159,19
5160,19
5161,19
5162,19
5163,19
5164,19
5165,19
5166,19
5167,19
5168,19
5169,19
5170,19
5171,19
5172,19
5173,19
5174,19
5175,19
5176,19
5177,19
5178,19
5179,19
5180,19
5181,19
5182,19
5183,19
5184,19
5185,19
5186,19
5187,19
5188,19
5189,19
5190,19
5191,19
5192,19
5193,19
5194,19
5195,19
5196,19
5197,19
5198,19
5199,19
5200,19
5201,19
5202,19
5203,19
5204,19
5205,19
5206,19
5207,19
5208,19
5209,19
5210,19
5211,19
5212,19
5213,19
5214,19
5215,19
5216,19
5217,19
5218,19
5219,19
5220,19
5221,19
5222,19
5223,19
5224,19
5225,19
5226,19
5227,19
5228,19
5229,19
5230,19
5231,19
5232,19
5233,19
5234,19
5235,19
5236,19
5237,19
5238,19
5239,19
5240,19
5241,19
5242,19
5243,19
5244,19
5245,19
5246,19
5247,19
5248,19
5249,19
5250,19
5251,19
5252,19
5253,19
5254,19
5255,19
5256,19
5257,19
5258,19
5259,19
5260,19
5261,19
5262,19
5263,19
5264,19
5265,19
5266,19
5267,19
5268,19
5269,19
5270,19
5271,19
5272,19
5273,19
5274,19
5275,19
5276,19
5277,19
5278,19
5279,19
5280,19
5281,19
5282,19
5283,19
5284,19
5285,19
5286,19
5287,19
5288,19
5289,19
5290,19
5291,19
5292,19
5293,19
5294,19
5295,19
5296,19
5297,19
5298,19
5299,19
5300,19
5301,19
5302,19
5303,19
5304,19
5305,19
5306,19
5307,19
5308,19
5309,19
5310,19
5311,19
5312,19
5313,19
5314,19
5315,19
5316,19
5317,19
5318,19
5319,19
5320,19
5321,19
5322,19
5323,19
5324,19
5325,19
5326,19
5327,19
5328,19
5329,19
5330,19
5331,19
5332,19
5333,19
5334,19
5335,19
5336,19
5337,19
5338,19
5339,19
5340,19
5341,19
5342,19
5343,19
5344,19
5345,19
5346,19
5347,19
5348,19
5349,19
5350,19
5351,19
5352,19
5353,19
5354,19
5355,19
5356,19
5357,19
5358,19
5359,19
5360,19
5361,19
5362,19
5363,19
5364,20
5365,20
5366,20
5367,20
5368,20
5369,20
5370,20
5371,20
5372,20
5373,20
5374,20
5375,20
5376,20
5377,20
5378,20
5379,20
5380,20
5381,20
5382,20
5383,20
5384,20
5385,20
5386,20
5387,20
5388,20
5389,20
5390,20
5391,20
5392,20
5393,20
5394,20
5395,20
5396,20
5397,20
5398,20
5399,20
5400,20
5401,20
5402,20
5403,20
5404,20
5405,20
5406,20
5407,20
5408,20
5409,20
5410,20
5411,20
5412,20
5413,20
5414,20
5415,20
5416,20
5417,20
5418,20
5419,20
5420,20
5421,20
5422,20
5423,20
5424,20
5425,20
5426,20
5427,20
5428,20
5429,20
5430,20
5431,20
5432,20
5433,21
5434,20
5435,20
5436,20
5437,20
5438,20
5439,20
5440,20
5441,20
5442,20
5443,20
5444,20
5445,20
5446,20
5447,20
5448,20
5449,20
5450,20
5451,20
5452,20
5453,20
5454,20
5455,20
5456,20
5457,20
5458,20
5459,20
5460,20
5461,20
5462,20
5463,20
5464,20
5465,20
5466,21
5467,20
5468,20
5469,20
5470,20
5471,20
5472,20
5473,20
5474,20
5475,20
5476,20
5477,20
5478,20
5479,20
5480,20
5481,20
5482,20
5483,20
5484,20
5485,20
5486,20
5487,20
5488,20
5489,20
5490,20
5491,20
5492,20
5493,20
5494,20
5495,20
5496,20
5497,20
5498,20
5499,20
5500,20
5501,20
5502,20
5503,20
5504,20
5505,20
5506,20
5507,20
5508,20
5509,20
5510,20
5511,20
5512,20
5513,20
5514,20
5515,20
5516,20
5517,20
5518,20
5519,20
5520,20
5521,20
5522,20
5523,20
5524,20
5525,20
5526,20
5527,20
5528,21
5529,20
5530,20
5531,20
5532,20
5533,20
5534,20
5535,20
5536,20
5537,20
5538,20
5539,20
5540,20
5541,20
5542,20
5543,21
5544,20
5545,20
5546,20
5547,20
5548,20
5549,20
5550,20
5551,20
5552,20
5553,20
5554,20
5555,20
5556,20
5557,20
5558,20
5559,20
5560,20
5561,20
5562,20
5563,20
5564,20
5565,20
5566,20
5567,20
5568,20
5569,20
5570,20
5571,20
5572,20
5573,20
5574,20
5575,20
5576,20
5577,20
5578,20
5579,20
5580,20
5581,20
5582,20
5583,20
5584,20
5585,20
5586,21
5587,20
5588,20
5589,20
5590,20
5591,20
5592,20
5593,20
5594,20
5595,20
5596,20
5597,20
5598,20
5599,20
5600,20
5601,20
5602,20
5603,20
5604,20
5605,20
5606,20
5607,20
5608,20
5609,20
5610,20
5611,20
5612,20
5613,20
5614,20
5615,20
5616,20
5617,20
5618,20
5619,20
5620,20
5621,20
5622,20
5623,20
5624,20
5625,20
5626,20
5627,20
5628,20
5629,20
5630,20
5631,20
5632,20
5633,20
5634,20
5635,20
5636,20
5637,20
5638,20
5639,20
5640,20
5641,20
5642,20
5643,20
5644,21
5645,20
5646,20
5647,20
5648,20
5649,20
5650,20
5651,20
5652,20
5653,20
5654,20
5655,20
5656,20
5657,21
5658,20
5659,20
5660,20
5661,20
5662,20
5663,20
5664,20
5665,20
5666,20
5667,20
5668,20
5669,20
5670,20
5671,20
5672,20
5673,20
5674,20
5675,20
5676,20
5677,20
5678,20
5679,20
5680,20
5681,20
5682,20
5683,20
5684,20
5685,20
5686,20
5687,20
5688,20
5689,20
5690,20
5691,20
5692,20
5693,20
5694,20
5695,20
5696,20
5697,20
5698,21
5699,21
5700,21
5701,20
5702,20
5703,20
5704,20
5705,20
5706,20
5707,20
5708,20
5709,20
5710,20
5711,20
5712,20
5713,20
5714,20
5715,20
5716,20
5717,20
5718,20
5719,20
5720,20
5721,20
5722,20
5723,20
5724,20
5725,20
5726,20
5727,21
5728,21
5729,21
5730,21
5731,21
5732,21
5733,21
5734,21
5735,21
5736,21
5737,21
5738,21
5739,21
5740,21
5741,21
5742,21
5743,21
5744,21
5745,21
5746,21
5747,21
5748,21
5749,21
5750,21
5751,21
5752,21
5753,21
5754,21
5755,21
5756,21
5757,21
5758,21
5759,21
5760,21
5761,21
5762,21
5763,21
5764,21
5765,21
5766,21
5767,21
5768,21
5769,21
5770,21
5771,21
5772,21
5773,21
5774,21
5775,21
5776,21
5777,21
5778,21
5779,21
5780,21
5781,21
5782,21
5783,21
5784,21
5785,21
5786,21
5787,21
5788,21
5789,21
5790,21
5791,21
5792,21
5793,21
5794,21
5795,21
5796,21
5797,21
5798,21
5799,21
5800,21
5801,21
5802,21
5803,21
5804,21
5805,21
5806,21
5807,21
5808,21
5809,21
5810,21
5811,21
5812,21
5813,21
5814,21
5815,21
5816,21
5817,21
5818,21
5819,21
5820,21
5821,21
5822,21
5823,21
5824,21
5825,21
5826,21
5827,21
5828,21
5829,21
5830,21
5831,21
5832,21
5833,21
5834,21
5835,21
5836,21
5837,22
5838,21
5839,21
5840,21
5841,21
5842,21
5843,21
5844,21
5845,21
5846,21
5847,21
5848,21
5849,21
5850,21
5851,21
5852,21
5853,21
5854,21
5855,21
5856,21
5857,21
5858,21
5859,21
5860,21
5861,21
5862,21
5863,21
5864,21
5865,21
5866,21
5867,21
5868,21
5869,21
5870,21
5871,21
5872,21
5873,21
5874,21
5875,21
5876,21
5877,21
5878,21
5879,21
5880,21
5881,21
5882,21
5883,21
5884,21
5885,21
5886,21
5887,21
5888,21
5889,21
5890,21
5891,21
5892,21
5893,21
5894,21
5895,21
5896,21
5897,21
5898,21
5899,21
5900,21
5901,21
5902,21
5903,21
5904,21
5905,21
5906,21
5907,21
5908,21
5909,21
5910,21
5911,21
5912,21
5913,21
5914,21
5915,21
5916,21
5917,21
5918,21
5919,21
5920,21
5921,21
5922,21
5923,21
5924,21
5925,21
5926,21
5927,21
5928,21
5929,21
5930,21
5931,21
5932,21
5933,21
5934,21
5935,21
5936,21
5937,21
5938,21
5939,22
5940,22
5941,21
5942,21
5943,21
5944,21
5945,21
5946,21
5947,21
5948,21
5949,21
5950,21
5951,21
5952,21
5953,21
5954,21
5955,21
5956,21
5957,21
5958,21
5959,21
5960,21
5961,21
5962,21
5963,21
5964,21
5965,21
5966,21
5967,21
5968,21
5969,21
5970,21
5971,21
5972,21
5973,21
5974,21
5975,21
5976,21
5977,21
5978,21
5979,21
5980,21
5981,21
5982,21
5983,21
5984,21
5985,21
5986,21
5987,21
5988,21
5989,21
5990,21
5991,21
5992,21
5993,21
5994,21
5995,21
5996,21
5997,21
5998,21
5999,21
6000,21
6001,21
6002,22
6003,22
6004,21
6005,21
6006,21
6007,21
6008,21
6009,21
6010,21
6011,21
6012,21
6013,21
6014,21
6015,21
6016,21
6017,21
6018,21
6019,21
6020,21
6021,21
6022,21
6023,21
6024,21
6025,21
6026,21
6027,21
6028,21
6029,21
6030,21
6031,21
6032,21
6033,21
6034,21
6035,21
6036,21
6037,21
6038,21
6039,21
6040,21
6041,21
6042,21
6043,21
6044,21
6045,21
6046,21
6047,21
6048,21
6049,21
6050,21
6051,21
6052,21
6053,21
6054,21
6055,21
6056,21
6057,21
6058,21
6059,21
6060,21
6061,21
6062,21
6063,21
6064,21
6065,21
6066,21
6067,21
6068,21
6069,21
6070,21
6071,21
6072,21
6073,21
6074,21
6075,21
6076,21
6077,21
6078,21
6079,21
6080,21
6081,21
6082,21
6083,21
6084,21
6085,21
6086,21
6087,21
6088,21
6089,21
6090,21
6091,21
6092,21
6093,21
6094,21
6095,21
6096,21
6097,21
6098,21
6099,21
6100,21
6101,21
6102,21
6103,21
6104,21
6105,21
6106,21
6107,21
6108,21
6109,21
6110,21
6111,21
6112,21
6113,21
6114,21
6115,21
6116,21
6117,21
6118,21
6119,21
6120,21
6121,21
6122,21
6123,21
6124,21
6125,21
6126,21
6127,21
6128,21
6129,21
6130,21
6131,21
6132,21
6133,21
6134,21
6135,21
6136,21
6137,21
6138,21
6139,21
6140,21
6141,21
6142,21
6143,21
6144,21
6145,21
6146,21
6147,21
6148,21
6149,21
6150,21
6151,21
6152,21
6153,21
6154,21
6155,21
6156,21
6157,21
6158,21
6159,21
6160,21
6161,21
6162,21
6163,21
6164,21
6165,21
6166,21
6167,21
6168,21
6169,21
6170,21
6171,21
6172,21
6173,21
6174,21
6175,21
6176,21
6177,21
6178,21
6179,21
6180,21
6181,21
6182,21
6183,21
6184,21
6185,21
6186,21
6187,21
6188,21
6189,21
6190,21
6191,21
6192,21
6193,21
6194,21
6195,22
6196,21
6197,21
6198,21
6199,21
6200,21
6201,21
6202,21
6203,21
6204,21
6205,21
6206,21
6207,21
6208,21
6209,21
6210,21
6211,21
6212,21
6213,21
6214,21
6215,21
6216,21
6217,21
6218,21
6219,21
6220,21
6221,21
6222,21
6223,21
6224,21
6225,21
6226,21
6227,21
6228,21
6229,21
6230,21
6231,21
6232,21
6233,21
6234,21
6235,21
6236,21
6237,21
6238,21
6239,21
6240,21
6241,21
6242,21
6243,21
6244,21
6245,21
6246,21
6247,21
6248,21
6249,21
6250,21
6251,21
6252,21
6253,21
6254,22
6255,22
6256,21
6257,21
6258,21
6259,21
6260,21
6261,21
6262,21
6263,21
6264,21
6265,21
6266,21
6267,21
6268,21
6269,22
6270,22
6271,22
6272,22
6273,22
6274,22
6275,22
6276,22
6277,22
6278,21
6279,21
6280,21
6281,21
6282,21
6283,21
6284,21
6285,21
6286,21
6287,21
6288,21
6289,21
6290,21
6291,21
6292,21
6293,21
6294,21
6295,21
6296,21
6297,21
6298,21
6299,21
6300,21
6301,21
6302,21
6303,21
6304,21
6305,21
6306,21
6307,21
6308,21
6309,21
6310,21
6311,21
6312,21
6313,21
6314,21
6315,21
6316,21
6317,21
6318,21
6319,21
6320,21
6321,21
6322,21
6323,21
6324,21
6325,21
6326,21
6327,21
6328,21
6329,21
6330,21
6331,21
6332,21
6333,21
6334,21
6335,21
6336,21
6337,21
6338,21
6339,21
6340,21
6341,21
6342,21
6343,21
6344,21
6345,21
6346,21
6347,21
6348,21
6349,21
6350,21
6351,21
6352,21
6353,21
6354,21
6355,21
6356,21
6357,21
6358,21
6359,21
6360,21
6361,21
6362,21
6363,21
6364,21
6365,21
6366,21
6367,21
6368,21
6369,21
6370,21
6371,21
6372,21
6373,21
6374,21
6375,21
6376,21
6377,21
6378,21
6379,21
6380,21
6381,21
6382,21
6383,21
6384,21
6385,22
6386,22
6387,22
6388,22
6389,22
6390,22
6391,22
6392,21
6393,21
6394,21
6395,21
6396,21
6397,21
6398,21
6399,21
6400,21
6401,21
6402,21
6403,21
6404,21
6405,21
6406,21
6407,21
6408,21
6409,21
6410,21
6411,21
6412,21
6413,21
6414,21
6415,21
6416,21
6417,21
6418,21
6419,21
6420,21
6421,21
6422,21
6423,21
6424,21
6425,21
6426,21
6427,21
6428,21
6429,21
6430,21
6431,21
6432,21
6433,21
6434,21
6435,21
6436,21
6437,21
6438,21
6439,21
6440,21
6441,21
6442,21
6443,21
6444,21
6445,21
6446,21
6447,21
6448,21
6449,21
6450,21
6451,21
6452,21
6453,21
6454,21
6455,21
6456,21
6457,21
6458,21
6459,21
6460,21
6461,21
6462,21
6463,21
6464,21
6465,21
6466,21
6467,21
6468,21
6469,21
6470,21
6471,21
6472,21
6473,21
6474,21
6475,21
6476,21
6477,21
6478,21
6479,21
6480,21
6481,21
6482,21
6483,21
6484,21
6485,21
6486,21
6487,21
6488,21
6489,21
6490,21
6491,21
6492,21
6493,21
6494,21
6495,21
6496,21
6497,21
6498,21
6499,21
6500,21
6501,21
6502,21
6503,21
6504,21
6505,21
6506,21
6507,21
6508,21
6509,21
6510,21
6511,21
6512,21
6513,21
6514,21
6515,21
6516,21
6517,21
6518,21
6519,21
6520,21
6521,21
6522,21
6523,21
6524,21
6525,21
6526,21
6527,21
6528,21
6529,21
6530,21
6531,21
6532,21
6533,21
6534,21
6535,21
6536,21
6537,21
6538,21
6539,21
6540,21
6541,21
6542,21
6543,21
6544,21
6545,21
6546,21
6547,21
6548,21
6549,21
6550,21
6551,21
6552,21
6553,21
6554,21
6555,21
6556,21
6557,21
6558,21
6559,21
6560,21
6561,21
6562,21
6563,21
6564,21
6565,21
6566,21
6567,21
6568,21
6569,21
6570,21
6571,21
6572,21
6573,21
6574,21
6575,21
6576,21
6577,21
6578,21
6579,21
6580,21
6581,21
6582,21
6583,21
6584,21
6585,21
6586,21
6587,21
6588,21
6589,21
6590,21
6591,21
6592,21
6593,21
6594,21
6595,21
6596,21
6597,21
6598,21
6599,21
6600,21
6601,21
6602,21
6603,21
6604,21
6605,21
6606,21
6607,21
6608,21
6609,21
6610,21
6611,21
6612,21
6613,21
6614,21
6615,21
6616,21
6617,21
6618,21
6619,21
6620,21
6621,21
6622,21
6623,21
6624,21
6625,21
6626,21
6627,21
6628,21
6629,21
6630,21
6631,21
6632,21
6633,21
6634,21
6635,21
6636,21
6637,21
6638,21
6639,21
6640,21
6641,21
6642,21
6643,21
6644,21
6645,21
6646,21
6647,21
6648,21
6649,21
6650,21
6651,21
6652,21
6653,21
6654,21
6655,21
6656,21
6657,21
6658,21
6659,21
6660,21
6661,21
6662,21
6663,21
6664,21
6665,21
6666,21
6667,21
6668,21
6669,21
6670,21
6671,21
6672,21
6673,21
6674,21
6675,21
6676,21
6677,21
6678,21
6679,21
6680,21
6681,21
6682,21
6683,21
6684,21
6685,21
6686,21
6687,21
6688,21
6689,21
6690,21
6691,21
6692,21
6693,21
6694,21
6695,21
6696,21
6697,21
6698,21
6699,21
6700,21
6701,21
6702,21
6703,21
6704,21
6705,21
6706,21
6707,21
6708,21
6709,21
6710,21
6711,21
6712,21
6713,21
6714,21
6715,21
6716,21
6717,21
6718,21
6719,21
6720,21
6721,21
6722,21
6723,21
6724,21
6725,21
6726,21
6727,21
6728,21
6729,21
6730,21
6731,21
6732,21
6733,21
6734,21
6735,21
6736,21
6737,21
6738,21
6739,21
6740,21
6741,21
6742,21
6743,21
6744,21
6745,21
6746,21
6747,21
6748,21
6749,21
6750,21
6751,21
6752,21
6753,21
6754,21
6755,21
6756,21
6757,21
6758,21
6759,21
6760,21
6761,21
6762,21
6763,21
6764,21
6765,21
6766,21
6767,21
6768,21
6769,21
6770,21
6771,21
6772,21
6773,21
6774,21
6775,21
6776,21
6777,21
6778,21
6779,21
6780,21
6781,21
6782,21
6783,21
6784,21
6785,22
6786,22
6787,22
6788,22
6789,21
6790,21
6791,21
6792,21
6793,21
6794,21
6795,21
6796,21
6797,21
6798,21
6799,21
6800,21
6801,21
6802,21
6803,21
6804,21
6805,21
6806,21
6807,21
6808,21
6809,21
6810,21
6811,21
6812,21
6813,21
6814,21
6815,21
6816,21
6817,21
6818,21
6819,21
6820,21
6821,21
6822,21
6823,21
6824,21
6825,21
6826,21
6827,21
6828,21
6829,21
6830,21
6831,21
6832,21
6833,21
6834,21
6835,21
6836,21
6837,21
6838,21
6839,21
6840,21
6841,21
6842,21
6843,21
6844,21
6845,21
6846,21
6847,21
6848,22
6849,21
6850,21
6851,21
6852,21
6853,21
6854,21
6855,21
6856,21
6857,21
6858,21
6859,21
6860,21
6861,21
6862,21
6863,21
6864,21
6865,21
6866,21
6867,21
6868,21
6869,21
6870,21
6871,21
6872,21
6873,21
6874,21
6875,21
6876,21
6877,21
6878,21
6879,21
6880,21
6881,21
6882,21
6883,21
6884,21
6885,21
6886,21
6887,21
6888,21
6889,21
6890,21
6891,21
6892,21
6893,21
6894,21
6895,21
6896,21
6897,21
6898,21
6899,21
6900,21
6901,21
6902,21
6903,21
6904,21
6905,21
6906,21
6907,21
6908,21
6909,21
6910,21
6911,21
6912,21
6913,21
6914,21
6915,21
6916,21
6917,21
6918,21
6919,21
6920,21
6921,21
6922,21
6923,21
6924,21
6925,21
6926,21
6927,21
6928,21
6929,21
6930,21
6931,21
6932,21
6933,21
6934,21
6935,21
6936,21
6937,21
6938,21
6939,21
6940,21
6941,21
6942,21
6943,21
6944,21
6945,21
6946,21
6947,21
6948,21
6949,22
6950,22
6951,22
6952,22
6953,22
6954,22
6955,22
6956,22
6957,21
6958,21
6959,21
6960,21
6961,21
6962,21
6963,21
6964,21
6965,21
6966,21
6967,21
6968,21
6969,21
6970,21
6971,21
6972,21
6973,21
6974,21
6975,21
6976,21
6977,21
6978,21
6979,21
6980,21
6981,21
6982,21
6983,21
6984,21
6985,21
6986,21
6987,21
6988,21
6989,21
6990,21
6991,21
6992,21
6993,21
6994,21
6995,21
6996,21
6997,21
6998,21
6999,21
7000,21
7001,21
7002,21
7003,21
7004,21
7005,21
7006,21
7007,21
7008,21
7009,21
7010,21
7011,21
7012,21
7013,21
7014,21
7015,21
7016,21
7017,21
7018,21
7019,21
7020,21
7021,21
7022,21
7023,21
7024,21
7025,21
7026,21
7027,21
7028,21
7029,21
7030,21
7031,21
7032,21
7033,21
7034,21
7035,21
7036,21
7037,21
7038,21
7039,21
7040,21
7041,21
7042,21
7043,21
7044,21
7045,21
7046,21
7047,21
7048,21
7049,21
7050,21
7051,21
7052,21
7053,21
7054,21
7055,21
7056,21
7057,21
7058,21
7059,23
7060,23
7061,22
7062,21
7063,21
7064,21
7065,21
7066,21
7067,21
7068,21
7069,21
7070,21
7071,21
7072,21
7073,21
7074,21
7075,21
7076,21
7077,21
7078,21
7079,21
7080,21
7081,21
7082,21
7083,21
7084,21
7085,21
7086,21
7087,21
7088,21
7089,21
7090,21
7091,21
7092,21
7093,21
7094,21
7095,21
7096,21
7097,21
7098,21
7099,21
7100,21
7101,21
7102,21
7103,21
7104,21
7105,21
7106,21
7107,21
7108,21
7109,21
7110,21
7111,21
7112,21
7113,21
7114,21
7115,21
7116,21
7117,22
7118,22
7119,22
7120,22
7121,22
7122,21
7123,21
7124,21
7125,21
7126,21
7127,21
7128,21
7129,21
7130,21
7131,21
7132,21
7133,21
7134,21
7135,21
7136,21
7137,21
7138,21
7139,21
7140,21
7141,21
7142,21
7143,21
7144,21
7145,21
7146,21
7147,21
7148,21
7149,21
7150,21
7151,21
7152,21
7153,21
7154,21
7155,21
7156,21
7157,21
7158,21
7159,21
7160,21
7161,21
7162,21
7163,21
7164,21
7165,21
7166,21
7167,21
7168,21
7169,21
7170,21
7171,21
7172,21
7173,21
7174,21
7175,21
7176,21
7177,21
7178,21
7179,21
7180,21
7181,21
7182,21
7183,21
7184,21
7185,21
7186,21
7187,21
7188,21
7189,21
7190,21
7191,21
7192,21
7193,21
7194,21
7195,21
7196,21
7197,21
7198,21
7199,21
7200,21
7201,21
7202,21
7203,21
7204,21
7205,21
7206,21
7207,21
7208,21
7209,21
7210,21
7211,21
7212,21
7213,21
7214,21
7215,21
7216,21
7217,21
7218,22
7219,22
7220,21
7221,21
7222,21
7223,21
7224,21
7225,21
7226,21
7227,21
7228,21
7229,21
7230,21
7231,21
7232,21
7233,21
7234,21
7235,21
7236,21
7237,21
7238,21
7239,21
7240,21
7241,21
7242,21
7243,21
7244,21
7245,21
7246,21
7247,21
7248,21
7249,21
7250,21
7251,21
7252,21
7253,21
7254,21
7255,21
7256,22
7257,22
7258,22
7259,22
7260,22
7261,22
7262,22
7263,22
7264,22
7265,22
7266,22
7267,22
7268,22
7269,22
7270,22
7271,22
7272,22
7273,22
7274,23
7275,22
7276,22
7277,22
7278,22
7279,22
7280,22
7281,22
7282,22
7283,22
7284,22
7285,22
7286,22
7287,22
7288,22
7289,22
7290,22
7291,22
7292,22
7293,22
7294,22
7295,22
7296,22
7297,22
7298,22
7299,22
7300,22
7301,22
7302,22
7303,22
7304,22
7305,22
7306,22
7307,22
7308,22
7309,22
7310,22
7311,22
7312,22
7313,22
7314,22
7315,22
7316,22
7317,22
7318,22
7319,22
7320,22
7321,22
7322,22
7323,22
7324,22
7325,22
7326,22
7327,22
7328,22
7329,22
7330,22
7331,22
7332,22
7333,22
7334,22
7335,22
7336,22
7337,22
7338,22
7339,22
7340,22
7341,22
7342,22
7343,22
7344,22
7345,22
7346,22
7347,22
7348,22
7349,22
7350,22
7351,22
7352,22
7353,22
7354,22
7355,22
7356,22
7357,22
7358,22
7359,22
7360,22
7361,22
7362,22
7363,22
7364,22
7365,22
7366,22
7367,22
7368,22
7369,22
7370,22
7371,22
7372,22
7373,22
7374,22
7375,22
7376,22
7377,22
7378,22
7379,22
7380,22
7381,22
7382,22
7383,22
7384,22
7385,22
7386,22
7387,22
7388,22
7389,22
7390,22
7391,22
7392,22
7393,22
7394,22
7395,22
7396,22
7397,22
7398,22
7399,22
7400,22
7401,22
7402,22
7403,22
7404,22
7405,22
7406,22
7407,22
7408,22
7409,22
7410,22
7411,22
7412,22
7413,22
7414,22
7415,22
7416,22
7417,22
7418,22
7419,22
7420,22
7421,22
7422,22
7423,22
7424,22
7425,22
7426,22
7427,22
7428,22
7429,22
7430,22
7431,22
7432,22
7433,22
7434,22
7435,22
7436,22
7437,22
7438,22
7439,22
7440,22
7441,22
7442,22
7443,22
7444,22
7445,22
7446,22
7447,22
7448,22
7449,22
7450,22
7451,22
7452,22
7453,22
7454,22
7455,22
7456,22
7457,22
7458,22
7459,22
7460,22
7461,22
7462,23
7463,23
7464,23
7465,22
7466,22
7467,22
7468,22
7469,22
7470,22
7471,22
7472,22
7473,22
7474,22
7475,22
7476,22
7477,22
7478,22
7479,22
7480,22
7481,22
7482,22
7483,22
7484,22
7485,22
7486,22
7487,22
7488,22
7489,22
7490,22
7491,22
7492,22
7493,22
7494,22
7495,22
7496,22
7497,22
7498,22
7499,22
7500,22
7501,22
7502,22
7503,22
7504,22
7505,22
7506,22
7507,22
7508,22
7509,22
7510,22
7511,22
7512,22
7513,23
7514,22
7515,22
7516,22
7517,22
7518,22
7519,22
7520,22
7521,22
7522,22
7523,22
7524,22
7525,22
7526,22
7527,22
7528,22
7529,22
7530,22
7531,22
7532,22
7533,22
7534,22
7535,22
7536,22
7537,22
7538,22
7539,22
7540,22
7541,22
7542,22
7543,22
7544,22
7545,22
7546,22
7547,22
7548,22
7549,22
7550,22
7551,22
7552,22
7553,22
7554,22
7555,22
7556,22
7557,22
7558,22
7559,22
7560,22
7561,22
7562,22
7563,22
7564,22
7565,22
7566,22
7567,22
7568,22
7569,22
7570,22
7571,22
7572,22
7573,22
7574,22
7575,22
7576,22
7577,22
7578,22
7579,22
7580,22
7581,22
7582,22
7583,22
7584,22
7585,22
7586,22
7587,22
7588,22
7589,22
7590,22
7591,22
7592,22
7593,22
7594,22
7595,22
7596,22
7597,22
7598,22
7599,22
7600,22
7601,22
7602,22
7603,22
7604,22
7605,22
7606,22
7607,22
7608,22
7609,22
7610,22
7611,22
7612,22
7613,22
7614,22
7615,22
7616,23
7617,22
7618,22
7619,22
7620,22
7621,22
7622,22
7623,22
7624,22
7625,22
7626,22
7627,22
7628,22
7629,22
7630,22
7631,22
7632,22
7633,22
7634,22
7635,22
7636,23
7637,23
7638,23
7639,23
7640,23
7641,23
7642,23
7643,23
7644,23
7645,23
7646,23
7647,23
7648,23
7649,23
7650,23
7651,23
7652,23
7653,23
7654,23
7655,23
7656,23
7657,23
7658,23
7659,23
7660,23
7661,23
7662,23
7663,23
7664,24
7665,23
7666,23
7667,23
7668,23
7669,23
7670,23
7671,23
7672,23
7673,23
7674,23
7675,23
7676,23
7677,23
7678,23
7679,23
7680,23
7681,23
7682,23
7683,23
7684,23
7685,23
7686,23
7687,23
7688,23
7689,23
7690,23
7691,23
7692,23
7693,23
7694,23
7695,23
7696,23
7697,23
7698,23
7699,23
7700,23
7701,23
7702,23
7703,23
7704,23
7705,23
7706,23
7707,23
7708,23
7709,23
7710,23
7711,23
7712,23
7713,23
7714,23
7715,23
7716,23
7717,23
7718,23
7719,23
7720,23
7721,23
7722,23
7723,23
7724,23
7725,23
7726,23
7727,23
7728,23
7729,23
7730,23
7731,23
7732,23
7733,23
7734,23
7735,23
7736,23
7737,23
7738,23
7739,23
7740,23
7741,23
7742,23
7743,23
7744,23
7745,23
7746,23
7747,23
7748,23
7749,23
7750,23
7751,23
7752,23
7753,23
7754,23
7755,23
7756,23
7757,23
7758,23
7759,23
7760,23
7761,23
7762,23
7763,23
7764,23
7765,23
7766,23
7767,23
7768,23
7769,23
7770,23
7771,23
7772,23
7773,23
7774,25
7775,25
7776,25
7777,25
7778,25
7779,25
7780,25
7781,25
7782,25
7783,24
7784,24
7785,24
7786,24
7787,24
7788,24
7789,24
7790,24
7791,24
7792,24
7793,24
7794,24
7795,24
7796,24
7797,24
7798,24
7799,24
7800,24
7801,24
7802,24
7803,24
7804,24
7805,24
7806,24
7807,24
7808,24
7809,24
7810,24
7811,24
7812,24
7813,24
7814,24
7815,24
7816,24
7817,24
7818,24
7819,23
7820,23
7821,23
7822,23
7823,23
7824,23
7825,23
7826,23
7827,23
7828,23
7829,23
7830,23
7831,23
7832,23
7833,23
7834,23
7835,23
7836,23
7837,23
7838,23
7839,23
7840,23
7841,23
7842,23
7843,23
7844,23
7845,23
7846,23
7847,23
7848,23
7849,23
7850,23
7851,23
7852,23
7853,23
7854,23
7855,23
7856,23
7857,23
7858,23
7859,23
7860,23
7861,23
7862,23
7863,23
7864,23
7865,23
7866,23
7867,23
7868,23
7869,23
7870,23
7871,23
7872,23
7873,23
7874,23
7875,23
7876,23
7877,23
7878,23
7879,23
7880,23
7881,23
7882,23
7883,23
7884,23
7885,23
7886,23
7887,23
7888,23
7889,23
7890,23
7891,23
7892,23
7893,23
7894,23
7895,23
7896,23
7897,23
7898,23
7899,23
7900,23
7901,23
7902,23
7903,23
7904,23
7905,23
7906,23
7907,23
7908,23
7909,23
7910,23
7911,23
7912,23
7913,23
7914,23
7915,23
7916,23
7917,23
7918,23
7919,24
7920,23
7921,23
7922,23
7923,23
7924,23
7925,23
7926,23
7927,23
7928,23
7929,23
7930,23
7931,24
7932,24
7933,24
7934,23
7935,23
7936,23
7937,23
7938,23
7939,23
7940,23
7941,23
7942,23
7943,23
7944,23
7945,23
7946,23
7947,23
7948,24
7949,24
7950,23
7951,23
7952,23
7953,23
7954,23
7955,23
7956,23
7957,23
7958,23
7959,23
7960,23
7961,23
7962,23
7963,23
7964,23
7965,23
7966,23
7967,23
7968,23
7969,23
7970,23
7971,23
7972,23
7973,24
7974,23
7975,23
7976,23
7977,23
7978,23
7979,23
7980,23
7981,23
7982,23
7983,23
7984,23
7985,23
7986,23
7987,23
7988,23
7989,23
7990,23
7991,23
7992,23
7993,23
7994,23
7995,23
7996,23
7997,23
7998,23
7999,23
8000,23
8001,23
8002,23
8003,23
8004,23
8005,23
8006,23
8007,23
8008,23
8009,23
8010,23
8011,23
8012,23
8013,23
8014,23
8015,23
8016,23
8017,23
8018,23
8019,23
8020,23
8021,23
8022,23
8023,23
8024,23
8025,23
8026,23
8027,23
8028,23
8029,23
8030,23
8031,23
8032,23
8033,23
8034,23
8035,23
8036,23
8037,23
8038,23
8039,23
8040,23
8041,23
8042,23
8043,23
8044,23
8045,23
8046,23
8047,23
8048,23
8049,23
8050,23
8051,23
8052,23
8053,23
8054,23
8055,23
8056,23
8057,23
8058,23
8059,23
8060,23
8061,23
8062,23
8063,23
8064,23
8065,23
8066,23
8067,23
8068,23
8069,23
8070,23
8071,23
8072,23
8073,23
8074,23
8075,23
8076,23
8077,23
8078,23
8079,23
8080,23
8081,23
8082,23
8083,23
8084,23
8085,23
8086,23
8087,23
8088,23
8089,23
8090,23
8091,23
8092,23
8093,23
8094,23
8095,23
8096,23
8097,23
8098,23
8099,23
8100,23
8101,23
8102,23
8103,23
8104,23
8105,23
8106,23
8107,23
8108,23
8109,23
8110,23
8111,23
8112,23
8113,23
8114,23
8115,23
8116,23
8117,23
8118,23
8119,23
8120,23
8121,23
8122,23
8123,23
8124,23
8125,23
8126,23
8127,23
8128,23
8129,23
8130,23
8131,23
8132,23
8133,23
8134,23
8135,23
8136,23
8137,23
8138,23
8139,23
8140,23
8141,23
8142,23
8143,23
8144,23
8145,23
8146,23
8147,23
8148,23
8149,23
8150,23
8151,23
8152,23
8153,23
8154,23
8155,23
8156,23
8157,23
8158,23
8159,23
8160,23
8161,23
8162,23
8163,23
8164,23
8165,23
8166,23
8167,23
8168,23
8169,23
8170,23
8171,23
8172,23
8173,23
8174,23
8175,23
8176,23
8177,23
8178,23
8179,23
8180,23
8181,23
8182,23
8183,23
8184,23
8185,23
8186,23
8187,23
8188,23
8189,23
8190,23
8191,23
8192,23
8193,23
8194,23
8195,23
8196,23
8197,23
8198,23
8199,23
8200,23
8201,23
8202,23
8203,23
8204,23
8205,23
8206,23
8207,23
8208,23
8209,23
8210,23
8211,23
8212,23
8213,23
8214,23
8215,23
8216,23
8217,23
8218,23
8219,23
8220,23
8221,23
8222,23
8223,23
8224,23
8225,23
8226,23
8227,23
8228,23
8229,23
8230,23
8231,23
8232,23
8233,23
8234,23
8235,23
8236,23
8237,23
8238,23
8239,23
8240,23
8241,23
8242,23
8243,23
8244,23
8245,23
8246,23
8247,23
8248,23
8249,23
8250,23
8251,23
8252,23
8253,23
8254,23
8255,23
8256,23
8257,23
8258,23
8259,23
8260,23
8261,23
8262,23
8263,23
8264,23
8265,23
8266,23
8267,23
8268,23
8269,23
8270,23
8271,23
8272,23
8273,23
8274,23
8275,23
8276,23
8277,23
8278,23
8279,23
8280,23
8281,23
8282,23
8283,23
8284,23
8285,23
8286,23
8287,23
8288,23
8289,23
8290,23
8291,23
8292,23
8293,23
8294,23
8295,23
8296,23
8297,23
8298,23
8299,23
8300,23
8301,23
8302,23
8303,23
8304,23
8305,23
8306,23
8307,23
8308,23
8309,23
8310,23
8311,23
8312,23
8313,23
8314,23
8315,23
8316,23
8317,23
8318,23
8319,23
8320,23
8321,23
8322,23
8323,23
8324,23
8325,23
8326,23
8327,23
8328,23
8329,23
8330,23
8331,23
8332,23
8333,23
8334,23
8335,23
8336,23
8337,23
8338,23
8339,23
8340,23
8341,24
8342,24
8343,23
8344,23
8345,23
8346,23
8347,23
8348,23
8349,23
8350,23
8351,23
8352,23
8353,23
8354,23
8355,23
8356,23
8357,23
8358,23
8359,23
8360,23
8361,23
8362,23
8363,23
8364,23
8365,23
8366,23
8367,23
8368,23
8369,23
8370,23
8371,23
8372,23
8373,23
8374,23
8375,23
8376,23
8377,23
8378,23
8379,23
8380,23
8381,23
8382,23
8383,23
8384,23
8385,23
8386,23
8387,23
8388,23
8389,23
8390,23
8391,23
8392,23
8393,23
8394,23
8395,23
8396,23
8397,23
8398,23
8399,23
8400,23
8401,23
8402,23
8403,23
8404,23
8405,23
8406,23
8407,23
8408,23
8409,23
8410,23
8411,23
8412,23
8413,23
8414,23
8415,23
8416,23
8417,23
8418,23
8419,23
8420,23
8421,23
8422,23
8423,23
8424,23
8425,24
8426,23
8427,24
8428,23
8429,23
8430,23
8431,23
8432,23
8433,23
8434,23
8435,23
8436,23
8437,23
8438,23
8439,23
8440,23
8441,23
8442,23
8443,23
8444,23
8445,23
8446,23
8447,23
8448,23
8449,23
8450,23
8451,23
8452,23
8453,23
8454,23
8455,23
8456,23
8457,23
8458,23
8459,23
8460,23
8461,23
8462,23
8463,23
8464,23
8465,23
8466,23
8467,23
8468,23
8469,23
8470,23
8471,23
8472,23
8473,23
8474,23
8475,23
8476,23
8477,23
8478,23
8479,23
8480,23
8481,23
8482,23
8483,23
8484,23
8485,23
8486,23
8487,23
8488,23
8489,23
8490,23
8491,23
8492,23
8493,23
8494,23
8495,23
8496,23
8497,23
8498,23
8499,23
8500,23
8501,23
8502,23
8503,23
8504,23
8505,23
8506,23
8507,23
8508,23
8509,23
8510,23
8511,23
8512,23
8513,23
8514,23
8515,23
8516,23
8517,23
8518,23
8519,23
8520,23
8521,23
8522,23
8523,23
8524,23
8525,23
8526,23
8527,23
8528,23
8529,23
8530,23
8531,23
8532,23
8533,23
8534,23
8535,23
8536,23
8537,23
8538,23
8539,23
8540,23
8541,23
8542,23
8543,23
8544,23
8545,23
8546,23
8547,23
8548,23
8549,23
8550,23
8551,23
8552,23
8553,23
8554,23
8555,23
8556,23
8557,23
8558,23
8559,23
8560,23
8561,23
8562,23
8563,23
8564,23
8565,23
8566,23
8567,23
8568,23
8569,23
8570,23
8571,23
8572,23
8573,23
8574,23
8575,24
8576,23
8577,23
8578,23
8579,23
8580,23
8581,23
8582,23
8583,23
8584,23
8585,23
8586,23
8587,23
8588,23
8589,23
8590,23
8591,23
8592,23
8593,23
8594,23
8595,23
8596,23
8597,23
8598,23
8599,23
8600,23
8601,23
8602,23
8603,23
8604,23
8605,23
8606,23
8607,23
8608,23
8609,23
8610,23
8611,23
8612,23
8613,23
8614,23
8615,23
8616,23
8617,23
8618,23
8619,23
8620,23
8621,23
8622,24
8623,24
8624,23
8625,23
8626,23
8627,23
8628,23
8629,23
8630,23
8631,23
8632,23
8633,23
8634,23
8635,23
8636,23
8637,23
8638,23
8639,23
8640,23
8641,24
8642,24
8643,24
8644,23
8645,23
8646,23
8647,23
8648,23
8649,23
8650,23
8651,23
8652,23
8653,23
8654,23
8655,23
8656,23
8657,23
8658,24
8659,24
8660,24
8661,23
8662,23
8663,23
8664,23
8665,23
8666,23
8667,23
8668,23
8669,23
8670,23
8671,23
8672,23
8673,23
8674,23
8675,23
8676,23
8677,23
8678,23
8679,23
8680,23
8681,23
8682,23
8683,23
8684,23
8685,23
8686,23
8687,23
8688,23
8689,23
8690,23
8691,23
8692,23
8693,23
8694,23
8695,23
8696,23
8697,23
8698,23
8699,23
8700,23
8701,23
8702,23
8703,23
8704,23
8705,23
8706,23
8707,23
8708,23
8709,23
8710,23
8711,23
8712,23
8713,23
8714,23
8715,23
8716,23
8717,23
8718,23
8719,23
8720,23
8721,23
8722,23
8723,23
8724,23
8725,23
8726,24
8727,24
8728,23
8729,23
8730,23
8731,23
8732,23
8733,23
8734,23
8735,23
8736,23
8737,23
8738,23
8739,23
8740,23
8741,23
8742,23
8743,23
8744,23
8745,24
8746,24
8747,23
8748,23
8749,23
8750,23
8751,23
8752,23
8753,23
8754,23
8755,23
8756,23
8757,23
8758,23
8759,23
8760,23
8761,23
8762,23
8763,23
8764,23
8765,23
8766,23
8767,23
8768,23
8769,23
8770,23
8771,23
8772,23
8773,23
8774,23
8775,23
8776,23
8777,23
8778,23
8779,23
8780,23
8781,23
8782,23
8783,23
8784,23
8785,23
8786,23
8787,23
8788,23
8789,23
8790,23
8791,23
8792,23
8793,23
8794,23
8795,23
8796,23
8797,23
8798,23
8799,23
8800,23
8801,23
8802,23
8803,23
8804,23
8805,24
8806,24
8807,24
8808,23
8809,23
8810,23
8811,23
8812,23
8813,23
8814,23
8815,23
8816,23
8817,23
8818,23
8819,23
8820,23
8821,23
8822,23
8823,23
8824,23
8825,23
8826,23
8827,23
8828,23
8829,23
8830,23
8831,23
8832,23
8833,23
8834,23
8835,23
8836,23
8837,23
8838,23
8839,23
8840,24
8841,24
8842,24
8843,24
8844,24
8845,24
8846,24
8847,24
8848,24
8849,23
8850,23
8851,23
8852,23
8853,23
8854,23
8855,23
8856,23
8857,23
8858,23
8859,23
8860,23
8861,23
8862,24
8863,24
8864,23
8865,23
8866,23
8867,23
8868,24
8869,24
8870,23
8871,23
8872,23
8873,24
8874,24
8875,24
8876,24
8877,24
8878,24
8879,24
8880,24
8881,24
8882,24
8883,24
8884,24
8885,24
8886,24
8887,24
8888,24
8889,24
8890,24
8891,24
8892,24
8893,24
8894,23
8895,23
8896,23
8897,23
8898,23
8899,23
8900,23
8901,23
8902,23
8903,23
8904,23
8905,23
8906,23
8907,23
8908,23
8909,23
8910,23
8911,23
8912,23
8913,23
8914,23
8915,23
8916,23
8917,23
8918,23
8919,23
8920,23
8921,23
8922,23
8923,23
8924,23
8925,23
8926,23
8927,23
8928,23
8929,23
8930,23
8931,23
8932,23
8933,23
8934,23
8935,23
8936,23
8937,23
8938,23
8939,23
8940,23
8941,23
8942,23
8943,23
8944,23
8945,23
8946,23
8947,23
8948,23
8949,23
8950,23
8951,23
8952,23
8953,23
8954,23
8955,23
8956,23
8957,23
8958,23
8959,23
8960,23
8961,23
8962,23
8963,23
8964,23
8965,23
8966,23
8967,23
8968,23
8969,23
8970,23
8971,23
8972,23
8973,23
8974,23
8975,23
8976,23
8977,23
8978,23
8979,23
8980,23
8981,23
8982,23
8983,23
8984,23
8985,23
8986,23
8987,23
8988,23
8989,23
8990,23
8991,23
8992,23
8993,23
8994,23
8995,23
8996,23
8997,23
8998,23
8999,23
9000,23
9001,23
9002,23
9003,23
9004,23
9005,23
9006,23
9007,23
9008,23
9009,23
9010,23
9011,23
9012,23
9013,23
9014,23
9015,23
9016,23
9017,23
9018,23
9019,23
9020,23
9021,23
9022,23
9023,23
9024,23
9025,23
9026,23
9027,23
9028,23
9029,23
9030,23
9031,23
9032,23
9033,23
9034,23
9035,23
9036,23
9037,23
9038,23
9039,23
9040,23
9041,23
9042,23
9043,23
9044,23
9045,23
9046,23
9047,23
9048,23
9049,23
9050,23
9051,23
9052,23
9053,23
9054,23
9055,23
9056,23
9057,23
9058,23
9059,23
9060,23
9061,23
9062,23
9063,23
9064,23
9065,23
9066,23
9067,23
9068,23
9069,23
9070,23
9071,23
9072,23
9073,23
9074,23
9075,23
9076,23
9077,23
9078,23
9079,23
9080,23
9081,23
9082,23
9083,23
9084,23
9085,23
9086,23
9087,23
9088,23
9089,23
9090,23
9091,23
9092,23
9093,23
9094,23
9095,23
9096,23
9097,23
9098,23
9099,23
9100,23
9101,23
9102,23
9103,23
9104,23
9105,23
9106,23
9107,23
9108,23
9109,23
9110,23
9111,23
9112,23
9113,23
9114,23
9115,23
9116,23
9117,23
9118,23
9119,23
9120,23
9121,23
9122,23
9123,23
9124,23
9125,23
9126,23
9127,23
9128,23
9129,23
9130,23
9131,23
9132,23
9133,23
9134,23
9135,23
9136,23
9137,23
9138,23
9139,23
9140,23
9141,23
9142,23
9143,23
9144,23
9145,23
9146,23
9147,23
9148,23
9149,23
9150,23
9151,23
9152,23
9153,23
9154,23
9155,23
9156,23
9157,23
9158,23
9159,23
9160,23
9161,23
9162,23
9163,23
9164,23
9165,23
9166,23
9167,23
9168,23
9169,23
9170,23
9171,23
9172,23
9173,23
9174,23
9175,24
9176,23
9177,23
9178,23
9179,23
9180,23
9181,23
9182,23
9183,23
9184,23
9185,23
9186,23
9187,23
9188,23
9189,23
9190,23
9191,23
9192,23
9193,23
9194,23
9195,23
9196,23
9197,23
9198,23
9199,23
9200,23
9201,23
9202,23
9203,23
9204,23
9205,23
9206,23
9207,23
9208,23
9209,23
9210,23
9211,23
9212,23
9213,23
9214,23
9215,23
9216,23
9217,23
9218,23
9219,23
9220,23
9221,23
9222,23
9223,23
9224,23
9225,23
9226,23
9227,23
9228,23
9229,23
9230,23
9231,23
9232,23
9233,23
9234,23
9235,23
9236,23
9237,23
9238,23
9239,23
9240,23
9241,23
9242,23
9243,23
9244,23
9245,23
9246,23
9247,23
9248,23
9249,23
9250,23
9251,23
9252,23
9253,23
9254,23
9255,23
9256,23
9257,23
9258,23
9259,23
9260,23
9261,23
9262,23
9263,23
9264,23
9265,23
9266,23
9267,23
9268,23
9269,23
9270,23
9271,23
9272,23
9273,23
9274,24
9275,23
9276,24
9277,24
9278,24
9279,23
9280,23
9281,23
9282,23
9283,23
9284,23
9285,23
9286,23
9287,23
9288,23
9289,23
9290,23
9291,23
9292,23
9293,23
9294,23
9295,23
9296,23
9297,23
9298,23
9299,23
9300,23
9301,23
9302,23
9303,23
9304,23
9305,23
9306,23
9307,23
9308,23
9309,23
9310,23
9311,23
9312,23
9313,23
9314,23
9315,23
9316,23
9317,23
9318,23
9319,23
9320,23
9321,23
9322,23
9323,23
9324,23
9325,23
9326,23
9327,23
9328,23
9329,23
9330,23
9331,23
9332,23
9333,23
9334,23
9335,23
9336,23
9337,23
9338,23
9339,23
9340,23
9341,23
9342,23
9343,23
9344,23
9345,23
9346,23
9347,23
9348,23
9349,23
9350,23
9351,23
9352,23
9353,23
9354,23
9355,23
9356,23
9357,23
9358,23
9359,23
9360,23
9361,23
9362,23
9363,24
9364,24
9365,23
9366,23
9367,23
9368,23
9369,23
9370,23
9371,23
9372,23
9373,23
9374,23
9375,23
9376,23
9377,23
9378,23
9379,23
9380,23
9381,23
9382,23
9383,23
9384,23
9385,23
9386,23
9387,23
9388,23
9389,23
9390,23
9391,23
9392,23
9393,23
9394,23
9395,23
9396,23
9397,23
9398,23
9399,23
9400,23
9401,23
9402,23
9403,24
9404,24
9405,24
9406,23
9407,23
9408,23
9409,23
9410,23
9411,23
9412,23
9413,23
9414,23
9415,23
9416,23
9417,23
9418,23
9419,23
9420,23
9421,23
9422,23
9423,23
9424,24
9425,23
9426,23
9427,23
9428,23
9429,23
9430,23
9431,23
9432,24
9433,23
9434,23
9435,23
9436,23
9437,23
9438,23
9439,23
9440,23
9441,23
9442,23
9443,23
9444,23
9445,23
9446,23
9447,24
9448,24
9449,24
9450,25
9451,24
9452,24
9453,24
9454,24
9455,24
9456,23
9457,23
9458,23
9459,23
9460,23
9461,23
9462,23
9463,23
9464,23
9465,23
9466,23
9467,23
9468,23
9469,23
9470,23
9471,23
9472,23
9473,23
9474,23
9475,23
9476,23
9477,23
9478,23
9479,23
9480,23
9481,23
9482,23
9483,23
9484,23
9485,23
9486,23
9487,23
9488,23
9489,23
9490,23
9491,23
9492,23
9493,23
9494,23
9495,23
9496,23
9497,23
9498,23
9499,23
9500,23
9501,23
9502,23
9503,23
9504,23
9505,23
9506,23
9507,23
9508,23
9509,23
9510,23
9511,23
9512,23
9513,23
9514,23
9515,23
9516,23
9517,23
9518,23
9519,23
9520,23
9521,23
9522,23
9523,23
9524,23
9525,23
9526,24
9527,23
9528,23
9529,24
9530,23
9531,23
9532,23
9533,23
9534,23
9535,23
9536,23
9537,24
9538,23
9539,23
9540,23
9541,23
9542,24
9543,24
9544,24
9545,24
9546,24
9547,24
9548,23
9549,23
9550,23
9551,23
9552,23
9553,23
9554,23
9555,23
9556,23
9557,23
9558,23
9559,23
9560,23
9561,23
9562,23
9563,23
9564,23
9565,23
9566,23
9567,23
9568,23
9569,23
9570,23
9571,23
9572,23
9573,23
9574,23
9575,23
9576,23
9577,23
9578,23
9579,23
9580,23
9581,23
9582,23
9583,23
9584,23
9585,23
9586,23
9587,23
9588,23
9589,23
9590,23
9591,23
9592,23
9593,23
9594,23
9595,23
9596,23
9597,23
9598,23
9599,23
9600,23
9601,23
9602,23
9603,23
9604,23
9605,23
9606,23
9607,23
9608,23
9609,23
9610,23
9611,23
9612,23
9613,23
9614,23
9615,23
9616,23
9617,23
9618,23
9619,23
9620,23
9621,23
9622,23
9623,23
9624,23
9625,23
9626,23
9627,23
9628,23
9629,23
9630,23
9631,23
9632,23
9633,23
9634,23
9635,23
9636,23
9637,23
9638,23
9639,23
9640,23
9641,23
9642,23
9643,23
9644,23
9645,23
9646,23
9647,23
9648,23
9649,23
9650,23
9651,23
9652,23
9653,23
9654,23
9655,23
9656,23
9657,23
9658,23
9659,23
9660,23
9661,23
9662,23
9663,23
9664,23
9665,23
9666,24
9667,23
9668,23
9669,23
9670,23
9671,23
9672,23
9673,23
9674,23
9675,23
9676,23
9677,23
9678,23
9679,23
9680,23
9681,23
9682,23
9683,23
9684,23
9685,23
9686,23
9687,23
9688,23
9689,23
9690,23
9691,23
9692,23
9693,23
9694,23
9695,23
9696,24
9697,24
9698,24
9699,24
9700,24
9701,24
9702,24
9703,24
9704,24
9705,24
9706,24
9707,24
9708,24
9709,24
9710,24
9711,24
9712,24
9713,25
9714,23
9715,23
9716,23
9717,23
9718,23
9719,23
9720,23
9721,23
9722,23
9723,23
9724,23
9725,23
9726,23
9727,23
9728,23
9729,23
9730,24
9731,23
9732,23
9733,23
9734,23
9735,23
9736,23
9737,24
9738,24
9739,24
9740,24
9741,24
9742,24
9743,25
9744,24
9745,24
9746,23
9747,23
9748,23
9749,23
9750,23
9751,23
9752,23
9753,23
9754,23
9755,23
9756,23
9757,23
9758,23
9759,23
9760,23
9761,23
9762,23
9763,23
9764,23
9765,23
9766,23
9767,24
9768,24
9769,24
9770,24
9771,24
9772,24
9773,24
9774,24
9775,24
9776,24
9777,24
9778,24
9779,24
9780,24
9781,24
9782,24
9783,24
9784,24
9785,24
9786,24
9787,24
9788,24
9789,24
9790,24
9791,24
9792,24
9793,24
9794,24
9795,24
9796,24
9797,24
9798,24
9799,24
9800,24
9801,24
9802,24
9803,24
9804,24
9805,24
9806,24
9807,24
9808,24
9809,24
9810,24
9811,24
9812,24
9813,24
9814,24
9815,24
9816,24
9817,24
9818,24
9819,24
9820,24
9821,24
9822,24
9823,24
9824,24
9825,24
9826,24
9827,24
9828,24
9829,24
9830,24
9831,24
9832,24
9833,24
9834,24
9835,24
9836,24
9837,24
9838,24
9839,24
9840,24
9841,24
9842,24
9843,24
9844,24
9845,24
9846,24
9847,24
9848,24
9849,24
9850,24
9851,24
9852,24
9853,24
9854,24
9855,24
9856,24
9857,24
9858,24
9859,24
9860,24
9861,24
9862,24
9863,24
9864,24
9865,24
9866,24
9867,24
9868,24
9869,24
9870,24
9871,24
9872,24
9873,24
9874,24
9875,24
9876,24
9877,24
9878,24
9879,24
9880,24
9881,24
9882,24
9883,24
9884,24
9885,24
9886,24
9887,24
9888,24
9889,24
9890,24
9891,24
9892,24
9893,24
9894,24
9895,24
9896,24
9897,24
9898,24
9899,24
9900,24
9901,24
9902,24
9903,24
9904,24
9905,24
9906,24
9907,24
9908,24
9909,24
9910,24
9911,24
9912,24
9913,24
9914,24
9915,24
9916,24
9917,24
9918,24
9919,24
9920,24
9921,24
9922,24
9923,24
9924,24
9925,24
9926,24
9927,24
9928,24
9929,24
9930,24
9931,24
9932,24
9933,24
9934,24
9935,24
9936,24
9937,24
9938,24
9939,24
9940,24
9941,24
9942,24
9943,24
9944,24
9945,24
9946,24
9947,24
9948,24
9949,24
9950,24
9951,24
9952,24
9953,24
9954,24
9955,24
9956,24
9957,24
9958,24
9959,24
9960,24
9961,24
9962,24
9963,25
9964,24
9965,24
9966,24
9967,24
9968,24
9969,24
9970,24
9971,24
9972,24
9973,24
9974,24
9975,24
9976,24
9977,24
9978,24
9979,24
9980,24
9981,24
9982,24
9983,24
9984,24
9985,24
9986,24
9987,24
9988,24
9989,24
9990,24
9991,24
9992,24
9993,24
9994,24
9995,24
9996,24
9997,24
9998,24
9999,25
10000,25
