1,3
2,3
3,3
4,3
5,4
6,4
7,4
8,4
9,4
10,5
11,5
12,5
13,5
14,5
15,6
16,6
17,6
18,6
19,6
20,6
21,6
22,6
23,6
24,6
25,6
26,6
27,6
28,6
29,6
30,6
31,6
32,6
33,6
34,6
35,6
36,6
37,6
38,6
39,6
40,6
41,6
42,6
43,6
44,6
45,6
46,6
47,6
48,6
49,6
50,6
51,6
52,6
53,6
54,6
55,6
56,6
57,6
58,6
59,6
60,6
61,6
62,6
63,6
64,6
65,6
66,6
67,6
68,6
69,6
70,6
71,6
72,6
73,6
74,6
75,6
76,6
77,6
78,6
79,6
80,6
81,6
82,6
83,6
84,6
85,6
86,6
87,6
88,6
89,6
90,6
91,6
92,6
93,6
94,6
95,6
96,6
97,6
98,6
99,6
100,6
101,6
102,6
103,6
104,6
105,6
106,6
107,6
108,6
109,6
110,6
111,6
112,6
113,6
114,6
115,6
116,6
117,6
118,6
119,6
120,6
121,6
122,6
123,6
124,6
125,6
126,6
127,6
128,6
129,6
130,7
131,6
132,6
133,6
134,6
135,6
136,6
137,6
138,6
139,6
140,6
141,6
142,6
143,6
144,6
145,6
146,6
147,6
148,6
149,6
150,6
151,6
152,6
153,6
154,6
155,6
156,6
157,6
158,6
159,6
160,6
161,6
162,6
163,6
164,6
165,6
166,6
167,6
168,6
169,6
170,6
171,6
172,6
173,6
174,6
175,6
176,6
177,6
178,6
179,6
180,6
181,6
182,6
183,6
184,6
185,6
186,6
187,6
188,6
189,6
190,6
191,6
192,6
193,6
194,6
195,6
196,6
197,6
198,6
199,6
200,6
201,6
202,6
203,7
204,7
205,7
206,7
207,7
208,7
209,7
210,6
211,6
212,6
213,6
214,6
215,6
216,6
217,6
218,6
219,6
220,6
221,6
222,6
223,6
224,6
225,6
226,6
227,6
228,6
229,6
230,6
231,6
232,6
233,6
234,6
235,6
236,6
237,6
238,6
239,6
240,6
241,6
242,6
243,6
244,6
245,6
246,6
247,6
248,6
249,6
250,6
251,6
252,6
253,6
254,6
255,6
256,6
257,6
258,6
259,6
260,6
261,6
262,6
263,6
264,6
265,6
266,6
267,6
268,6
269,6
270,6
271,6
272,6
273,6
274,6
275,6
276,6
277,6
278,6
279,6
280,6
281,6
282,6
283,6
284,6
285,6
286,6
287,6
288,6
289,6
290,6
291,6
292,6
293,6
294,6
295,6
296,6
297,6
298,6
299,6
300,6
301,6
302,6
303,6
304,6
305,6
306,6
307,6
308,6
309,6
310,6
311,6
312,6
313,6
314,6
315,6
316,6
317,6
318,6
319,6
320,6
321,6
322,6
323,6
324,6
325,6
326,6
327,6
328,6
329,6
330,6
331,6
332,6
333,6
334,6
335,7
336,7
337,6
338,6
339,6
340,6
341,6
342,6
343,6
344,6
345,6
346,6
347,6
348,6
349,6
350,6
351,6
352,6
353,6
354,6
355,6
356,7
357,7
358,7
359,7
360,7
361,7
362,7
363,7
364,7
365,7
366,7
367,7
368,7
369,7
370,7
371,7
372,7
373,7
374,7
375,7
376,7
377,7
378,7
379,7
380,7
381,7
382,7
383,7
384,7
385,7
386,7
387,7
388,7
389,7
390,7
391,7
392,7
393,7
394,7
395,7
396,7
397,7
398,7
399,7
400,7
401,7
402,7
403,7
404,7
405,7
406,7
407,7
408,7
409,7
410,7
411,7
412,8
413,7
414,7
415,7
416,7
417,7
418,7
419,7
420,7
421,7
422,7
423,7
424,7
425,7
426,7
427,7
428,7
429,7
430,7
431,7
432,7
433,7
434,7
435,7
436,7
437,8
438,8
439,8
440,8
441,8
442,8
443,8
444,8
445,8
446,8
447,8
448,8
449,8
450,8
451,8
452,8
453,8
454,8
455,8
456,8
457,8
458,8
459,8
460,8
461,8
462,8
463,8
464,8
465,8
466,8
467,8
468,8
469,8
470,8
471,8
472,8
473,8
474,8
475,8
476,8
477,8
478,8
479,8
480,8
481,8
482,8
483,8
484,8
485,8
486,8
487,8
488,8
489,8
490,8
491,8
492,8
493,8
494,8
495,8
496,8
497,8
498,8
499,8
500,8
501,8
502,8
503,8
504,8
505,8
506,8
507,8
508,8
509,8
510,8
511,8
512,8
513,8
514,8
515,8
516,8
517,8
518,8
519,8
520,8
521,8
522,8
523,8
524,8
525,8
526,8
527,8
528,8
529,8
530,8
531,8
532,8
533,8
534,8
535,8
536,8
537,8
538,8
539,8
540,8
541,8
542,8
543,8
544,8
545,8
546,8
547,8
548,8
549,8
550,8
551,8
552,8
553,8
554,8
555,8
556,8
557,8
558,8
559,8
560,8
561,8
562,8
563,8
564,8
565,8
566,8
567,8
568,8
569,9
570,9
571,8
572,8
573,8
574,8
575,8
576,8
577,8
578,8
579,8
580,8
581,8
582,8
583,8
584,8
585,8
586,8
587,8
588,8
589,8
590,8
591,8
592,8
593,8
594,8
595,8
596,8
597,8
598,8
599,8
600,8
601,8
602,8
603,8
604,8
605,8
606,8
607,8
608,8
609,8
610,8
611,8
612,8
613,8
614,8
615,8
616,8
617,8
618,8
619,8
620,8
621,8
622,8
623,8
624,8
625,8
626,8
627,8
628,9
629,9
630,9
631,9
632,9
633,9
634,9
635,8
636,8
637,8
638,8
639,8
640,8
641,8
642,8
643,8
644,8
645,8
646,8
647,8
648,8
649,8
650,8
651,8
652,8
653,8
654,8
655,8
656,8
657,8
658,8
659,9
660,8
661,8
662,8
663,8
664,8
665,8
666,8
667,8
668,8
669,8
670,8
671,8
672,8
673,8
674,8
675,8
676,8
677,8
678,8
679,8
680,8
681,8
682,9
683,8
684,8
685,8
686,8
687,8
688,8
689,8
690,8
691,8
692,8
693,8
694,8
695,8
696,8
697,8
698,8
699,8
700,8
701,8
702,8
703,8
704,8
705,8
706,8
707,9
708,8
709,8
710,8
711,8
712,8
713,8
714,8
715,8
716,8
717,8
718,8
719,8
720,8
721,8
722,9
723,9
724,9
725,9
726,9
727,9
728,9
729,9
730,9
731,9
732,9
733,9
734,9
735,9
736,9
737,9
738,10
739,10
740,10
741,10
742,10
743,10
744,10
745,10
746,10
747,10
748,10
749,10
750,10
751,10
752,10
753,10
754,10
755,10
756,11
757,10
758,10
759,10
760,10
761,10
762,10
763,10
764,10
765,10
766,10
767,10
768,10
769,10
770,10
771,10
772,10
773,10
774,10
775,10
776,10
777,10
778,10
779,10
780,10
781,10
782,10
783,10
784,10
785,10
786,10
787,10
788,10
789,10
790,10
791,10
792,10
793,10
794,10
795,10
796,10
797,10
798,10
799,10
800,10
801,10
802,10
803,10
804,10
805,10
806,10
807,10
808,10
809,10
810,10
811,10
812,10
813,10
814,10
815,10
816,10
817,10
818,10
819,10
820,10
821,10
822,10
823,10
824,10
825,10
826,10
827,10
828,10
829,10
830,10
831,10
832,10
833,10
834,10
835,10
836,10
837,10
838,10
839,10
840,10
841,10
842,10
843,10
844,10
845,10
846,10
847,10
848,10
849,10
850,10
851,10
852,10
853,10
854,10
855,11
856,10
857,11
858,11
859,11
860,11
861,11
862,11
863,10
864,10
865,10
866,10
867,10
868,10
869,10
870,10
871,10
872,10
873,10
874,10
875,10
876,10
877,10
878,10
879,10
880,10
881,10
882,10
883,10
884,10
885,10
886,10
887,10
888,10
889,10
890,10
891,10
892,10
893,10
894,10
895,10
896,10
897,10
898,10
899,10
900,10
901,10
902,10
903,10
904,10
905,10
906,10
907,10
908,10
909,10
910,10
911,10
912,10
913,10
914,10
915,10
916,10
917,10
918,10
919,10
920,10
921,10
922,10
923,10
924,10
925,10
926,10
927,10
928,10
929,10
930,10
931,10
932,10
933,10
934,10
935,10
936,10
937,10
938,10
939,10
940,10
941,10
942,10
943,10
944,10
945,10
946,10
947,10
948,10
949,10
950,10
951,10
952,10
953,10
954,10
955,10
956,10
957,10
958,10
959,10
960,10
961,10
962,10
963,10
964,10
965,10
966,10
967,10
968,10
969,10
970,10
971,10
972,10
973,10
974,10
975,10
976,10
977,10
978,10
979,10
980,10
981,10
982,10
983,10
984,10
985,10
986,10
987,10
988,10
989,10
990,10
991,10
992,10
993,10
994,10
995,10
996,10
997,10
998,10
999,10
1000,10
1001,10
1002,10
1003,10
1004,10
1005,10
1006,10
1007,10
1008,10
1009,10
1010,10
1011,10
1012,10
1013,10
1014,10
1015,10
1016,10
1017,10
1018,10
1019,10
1020,10
1021,10
1022,11
1023,11
1024,11
1025,10
1026,10
1027,10
1028,10
1029,10
1030,10
1031,10
1032,10
1033,10
1034,10
1035,10
1036,10
1037,10
1038,10
1039,10
1040,10
1041,10
1042,10
1043,10
1044,10
1045,10
1046,10
1047,10
1048,10
1049,10
1050,10
1051,10
1052,10
1053,10
1054,10
1055,10
1056,10
1057,10
1058,10
1059,10
1060,10
1061,10
1062,10
1063,10
1064,10
1065,10
1066,10
1067,11
1068,11
1069,11
1070,11
1071,11
1072,11
1073,11
1074,11
1075,11
1076,11
1077,11
1078,11
1079,10
1080,10
1081,10
1082,10
1083,10
1084,10
1085,10
1086,10
1087,10
1088,10
1089,10
1090,10
1091,10
1092,10
1093,10
1094,10
1095,10
1096,10
1097,10
1098,10
1099,10
1100,10
1101,10
1102,10
1103,10
1104,10
1105,10
1106,10
1107,10
1108,10
1109,10
1110,10
1111,10
1112,10
1113,10
1114,10
1115,10
1116,10
1117,10
1118,10
1119,10
1120,10
1121,10
1122,10
1123,10
1124,10
1125,10
1126,10
1127,10
1128,10
1129,10
1130,10
1131,10
1132,10
1133,10
1134,10
1135,10
1136,10
1137,10
1138,10
1139,10
1140,10
1141,10
1142,10
1143,10
1144,10
1145,10
1146,10
1147,10
1148,10
1149,10
1150,10
1151,10
1152,10
1153,10
1154,10
1155,10
1156,10
1157,10
1158,10
1159,10
1160,10
1161,10
1162,10
1163,10
1164,10
1165,10
1166,10
1167,10
1168,10
1169,10
1170,10
1171,10
1172,10
1173,10
1174,10
1175,10
1176,10
1177,10
1178,10
1179,10
1180,10
1181,10
1182,10
1183,10
1184,10
1185,10
1186,10
1187,10
1188,10
1189,10
1190,10
1191,10
1192,10
1193,10
1194,10
1195,10
1196,10
1197,10
1198,10
1199,10
1200,10
1201,10
1202,10
1203,10
1204,10
1205,10
1206,10
1207,10
1208,10
1209,10
1210,10
1211,10
1212,10
1213,10
1214,10
1215,10
1216,10
1217,10
1218,10
1219,10
1220,10
1221,10
1222,10
1223,10
1224,10
1225,10
1226,10
1227,10
1228,10
1229,10
1230,10
1231,10
1232,10
1233,10
1234,10
1235,10
1236,10
1237,10
1238,10
1239,10
1240,10
1241,10
1242,10
1243,11
1244,11
1245,10
1246,10
1247,10
1248,10
1249,10
1250,10
1251,10
1252,10
1253,10
1254,10
1255,10
1256,10
1257,10
1258,10
1259,10
1260,10
1261,10
1262,10
1263,10
1264,10
1265,10
1266,10
1267,10
1268,10
1269,10
1270,10
1271,10
1272,10
1273,10
1274,10
1275,10
1276,10
1277,10
1278,10
1279,10
1280,10
1281,10
1282,10
1283,10
1284,10
1285,10
1286,10
1287,10
1288,10
1289,10
1290,10
1291,10
1292,10
1293,10
1294,10
1295,10
1296,10
1297,10
1298,10
1299,10
1300,10
1301,10
1302,10
1303,10
1304,10
1305,10
1306,10
1307,10
1308,10
1309,10
1310,10
1311,10
1312,10
1313,10
1314,10
1315,10
1316,10
1317,10
1318,10
1319,10
1320,10
1321,10
1322,10
1323,10
1324,10
1325,10
1326,10
1327,10
1328,10
1329,10
1330,10
1331,10
1332,10
1333,10
1334,10
1335,10
1336,10
1337,10
1338,10
1339,10
1340,10
1341,10
1342,10
1343,10
1344,10
1345,10
1346,10
1347,10
1348,10
1349,10
1350,10
1351,10
1352,10
1353,10
1354,10
1355,10
1356,10
1357,10
1358,10
1359,10
1360,10
1361,10
1362,10
1363,10
1364,10
1365,10
1366,10
1367,10
1368,10
1369,10
1370,10
1371,10
1372,10
1373,10
1374,10
1375,10
1376,10
1377,10
1378,10
1379,10
1380,10
1381,10
1382,10
1383,10
1384,10
1385,10
1386,10
1387,10
1388,11
1389,10
1390,10
1391,10
1392,10
1393,10
1394,10
1395,10
1396,10
1397,11
1398,11
1399,11
1400,11
1401,11
1402,11
1403,11
1404,11
1405,11
1406,11
1407,11
1408,11
1409,11
1410,11
1411,11
1412,11
1413,11
1414,11
1415,11
1416,11
1417,11
1418,11
1419,11
1420,11
1421,11
1422,11
1423,11
1424,11
1425,11
1426,11
1427,11
1428,11
1429,11
1430,11
1431,11
1432,11
1433,11
1434,11
1435,11
1436,11
1437,11
1438,11
1439,11
1440,11
1441,11
1442,11
1443,11
1444,11
1445,12
1446,12
1447,11
1448,11
1449,11
1450,11
1451,11
1452,11
1453,11
1454,11
1455,11
1456,11
1457,11
1458,11
1459,11
1460,11
1461,11
1462,11
1463,11
1464,11
1465,11
1466,11
1467,11
1468,11
1469,11
1470,11
1471,11
1472,11
1473,11
1474,11
1475,11
1476,11
1477,11
1478,11
1479,11
1480,11
1481,11
1482,11
1483,11
1484,11
1485,11
1486,11
1487,11
1488,11
1489,11
1490,11
1491,11
1492,11
1493,11
1494,11
1495,11
1496,11
1497,11
1498,11
1499,11
1500,11
1501,11
1502,11
1503,11
1504,11
1505,11
1506,11
1507,11
1508,11
1509,11
1510,11
1511,11
1512,11
1513,11
1514,11
1515,11
1516,11
1517,11
1518,11
1519,11
1520,11
1521,11
1522,11
1523,11
1524,11
1525,11
1526,11
1527,11
1528,11
1529,11
1530,11
1531,11
1532,11
1533,11
1534,11
1535,11
1536,11
1537,11
1538,11
1539,11
1540,11
1541,11
1542,11
1543,11
1544,11
1545,11
1546,11
1547,11
1548,11
1549,11
1550,11
1551,11
1552,11
1553,11
1554,11
1555,11
1556,11
1557,11
1558,11
1559,11
1560,12
1561,12
1562,12
1563,12
1564,12
1565,12
1566,12
1567,12
1568,12
1569,12
1570,12
1571,12
1572,12
1573,13
1574,12
1575,12
1576,12
1577,12
1578,12
1579,12
1580,12
1581,12
1582,11
1583,11
1584,11
1585,11
1586,11
1587,11
1588,11
1589,11
1590,11
1591,11
1592,12
1593,12
1594,12
1595,11
1596,11
1597,11
1598,11
1599,11
1600,11
1601,11
1602,11
1603,11
1604,11
1605,11
1606,11
1607,11
1608,11
1609,11
1610,11
1611,11
1612,11
1613,11
1614,11
1615,11
1616,11
1617,11
1618,11
1619,11
1620,11
1621,11
1622,11
1623,11
1624,11
1625,11
1626,11
1627,11
1628,11
1629,11
1630,11
1631,11
1632,11
1633,11
1634,11
1635,11
1636,11
1637,11
1638,11
1639,11
1640,11
1641,11
1642,11
1643,11
1644,11
1645,11
1646,11
1647,11
1648,11
1649,11
1650,11
1651,11
1652,11
1653,11
1654,11
1655,11
1656,11
1657,11
1658,11
1659,11
1660,11
1661,11
1662,11
1663,11
1664,11
1665,11
1666,11
1667,11
1668,11
1669,11
1670,11
1671,11
1672,11
1673,11
1674,11
1675,11
1676,11
1677,11
1678,11
1679,11
1680,11
1681,11
1682,11
1683,11
1684,11
1685,11
1686,11
1687,12
1688,12
1689,12
1690,12
1691,11
1692,11
1693,11
1694,11
1695,11
1696,11
1697,11
1698,11
1699,11
1700,11
1701,11
1702,11
1703,11
1704,11
1705,11
1706,11
1707,11
1708,11
1709,11
1710,11
1711,11
1712,11
1713,11
1714,11
1715,11
1716,11
1717,11
1718,11
1719,11
1720,11
1721,11
1722,11
1723,11
1724,11
1725,11
1726,11
1727,11
1728,11
1729,11
1730,11
1731,11
1732,11
1733,11
1734,11
1735,11
1736,11
1737,11
1738,11
1739,11
1740,11
1741,11
1742,11
1743,11
1744,11
1745,11
1746,11
1747,11
1748,11
1749,11
1750,11
1751,11
1752,11
1753,11
1754,11
1755,11
1756,11
1757,11
1758,11
1759,11
1760,11
1761,11
1762,11
1763,11
1764,11
1765,11
1766,11
1767,11
1768,11
1769,11
1770,11
1771,11
1772,11
1773,11
1774,11
1775,11
1776,11
1777,11
1778,11
1779,11
1780,11
1781,11
1782,11
1783,11
1784,11
1785,11
1786,11
1787,11
1788,11
1789,11
1790,11
1791,11
1792,11
1793,11
1794,11
1795,11
1796,11
1797,11
1798,11
1799,11
1800,11
1801,11
1802,11
1803,11
1804,11
1805,11
1806,11
1807,11
1808,11
1809,11
1810,11
1811,11
1812,11
1813,11
1814,11
1815,11
1816,11
1817,11
1818,11
1819,11
1820,11
1821,11
1822,11
1823,11
1824,11
1825,11
1826,11
1827,11
1828,11
1829,11
1830,11
1831,11
1832,11
1833,11
1834,11
1835,11
1836,11
1837,11
1838,11
1839,11
1840,11
1841,11
1842,11
1843,11
1844,11
1845,11
1846,11
1847,11
1848,11
1849,11
1850,11
1851,11
1852,11
1853,11
1854,11
1855,11
1856,11
1857,11
1858,11
1859,11
1860,12
1861,11
1862,11
1863,11
1864,11
1865,11
1866,11
1867,11
1868,11
1869,11
1870,11
1871,11
1872,11
1873,11
1874,11
1875,11
1876,11
1877,11
1878,11
1879,11
1880,11
1881,11
1882,11
1883,11
1884,11
1885,11
1886,11
1887,11
1888,11
1889,11
1890,11
1891,11
1892,11
1893,11
1894,11
1895,11
1896,11
1897,11
1898,11
1899,11
1900,11
1901,11
1902,11
1903,11
1904,11
1905,11
1906,11
1907,11
1908,11
1909,11
1910,11
1911,11
1912,11
1913,11
1914,11
1915,11
1916,11
1917,11
1918,11
1919,11
1920,11
1921,11
1922,11
1923,11
1924,11
1925,11
1926,11
1927,11
1928,11
1929,11
1930,11
1931,11
1932,11
1933,11
1934,11
1935,11
1936,11
1937,11
1938,11
1939,11
1940,11
1941,11
1942,11
1943,11
1944,11
1945,11
1946,11
1947,11
1948,11
1949,11
1950,11
1951,11
1952,11
1953,11
1954,11
1955,11
1956,11
1957,11
1958,11
1959,11
1960,11
1961,11
1962,11
1963,11
1964,11
1965,11
1966,11
1967,11
1968,12
1969,12
1970,12
1971,12
1972,12
1973,12
1974,12
1975,12
1976,12
1977,12
1978,13
1979,13
1980,13
1981,13
1982,13
1983,13
1984,12
1985,12
1986,12
1987,12
1988,12
1989,12
1990,12
1991,12
1992,12
1993,12
1994,12
1995,12
1996,12
1997,12
1998,12
1999,12
2000,12
2001,12
2002,12
2003,12
2004,13
2005,13
2006,13
2007,13
2008,13
2009,13
2010,13
2011,12
2012,12
2013,12
2014,12
2015,12
2016,12
2017,12
2018,12
2019,12
2020,12
2021,12
2022,12
2023,12
2024,12
2025,12
2026,12
2027,12
2028,12
2029,12
2030,12
2031,12
2032,12
2033,12
2034,12
2035,12
2036,12
2037,12
2038,12
2039,12
2040,12
2041,12
2042,12
2043,12
2044,12
2045,12
2046,12
2047,12
2048,12
2049,12
2050,12
2051,12
2052,12
2053,12
2054,12
2055,12
2056,12
2057,12
2058,12
2059,12
2060,12
2061,12
2062,12
2063,12
2064,12
2065,12
2066,12
2067,12
2068,12
2069,12
2070,12
2071,12
2072,12
2073,12
2074,12
2075,12
2076,12
2077,12
2078,12
2079,12
2080,12
2081,12
2082,12
2083,12
2084,12
2085,12
2086,12
2087,12
2088,12
2089,12
2090,12
2091,12
2092,12
2093,12
2094,12
2095,12
2096,12
2097,12
2098,12
2099,12
2100,12
2101,12
2102,12
2103,12
2104,12
2105,12
2106,12
2107,12
2108,12
2109,12
2110,12
2111,12
2112,12
2113,12
2114,12
2115,12
2116,12
2117,12
2118,12
2119,12
2120,13
2121,12
2122,12
2123,12
2124,12
2125,12
2126,12
2127,12
2128,12
2129,12
2130,12
2131,12
2132,12
2133,12
2134,12
2135,12
2136,12
2137,12
2138,12
2139,12
2140,12
2141,12
2142,12
2143,12
2144,12
2145,12
2146,12
2147,12
2148,12
2149,12
2150,12
2151,12
2152,12
2153,12
2154,12
2155,12
2156,12
2157,12
2158,12
2159,12
2160,12
2161,12
2162,12
2163,12
2164,12
2165,12
2166,12
2167,12
2168,12
2169,12
2170,12
2171,12
2172,12
2173,12
2174,12
2175,12
2176,12
2177,12
2178,12
2179,12
2180,12
2181,12
2182,12
2183,12
2184,12
2185,12
2186,12
2187,12
2188,12
2189,12
2190,12
2191,12
2192,12
2193,12
2194,12
2195,12
2196,12
2197,12
2198,12
2199,12
2200,12
2201,12
2202,12
2203,12
2204,12
2205,12
2206,12
2207,12
2208,12
2209,12
2210,12
2211,13
2212,12
2213,12
2214,12
2215,12
2216,12
2217,12
2218,12
2219,13
2220,12
2221,12
2222,12
2223,12
2224,12
2225,12
2226,12
2227,12
2228,12
2229,12
2230,12
2231,12
2232,12
2233,12
2234,12
2235,12
2236,12
2237,12
2238,12
2239,12
2240,12
2241,12
2242,12
2243,12
2244,12
2245,12
2246,12
2247,12
2248,12
2249,12
2250,12
2251,12
2252,12
2253,12
2254,12
2255,12
2256,12
2257,12
2258,12
2259,12
2260,12
2261,12
2262,12
2263,12
2264,12
2265,12
2266,12
2267,12
2268,12
2269,12
2270,12
2271,12
2272,12
2273,12
2274,12
2275,12
2276,12
2277,12
2278,12
2279,12
2280,12
2281,12
2282,12
2283,12
2284,12
2285,12
2286,12
2287,12
2288,12
2289,12
2290,12
2291,12
2292,12
2293,12
2294,12
2295,13
2296,12
2297,12
2298,12
2299,12
2300,12
2301,12
2302,12
2303,12
2304,12
2305,12
2306,12
2307,12
2308,12
2309,12
2310,12
2311,12
2312,12
2313,12
2314,12
2315,12
2316,12
2317,12
2318,12
2319,12
2320,12
2321,12
2322,12
2323,12
2324,12
2325,12
2326,12
2327,12
2328,12
2329,12
2330,12
2331,12
2332,12
2333,12
2334,12
2335,12
2336,12
2337,12
2338,12
2339,12
2340,12
2341,12
2342,12
2343,12
2344,12
2345,12
2346,12
2347,12
2348,12
2349,12
2350,12
2351,12
2352,12
2353,12
2354,12
2355,12
2356,12
2357,12
2358,12
2359,12
2360,12
2361,12
2362,12
2363,12
2364,12
2365,12
2366,12
2367,13
2368,13
2369,12
2370,12
2371,12
2372,12
2373,12
2374,12
2375,12
2376,12
2377,12
2378,12
2379,12
2380,12
2381,12
2382,12
2383,12
2384,12
2385,12
2386,12
2387,12
2388,12
2389,12
2390,12
2391,12
2392,12
2393,12
2394,12
2395,12
2396,12
2397,12
2398,12
2399,12
2400,12
2401,12
2402,12
2403,12
2404,12
2405,13
2406,13
2407,13
2408,13
2409,13
2410,13
2411,13
2412,13
2413,13
2414,13
2415,13
2416,13
2417,13
2418,13
2419,13
2420,13
2421,13
2422,13
2423,13
2424,13
2425,13
2426,13
2427,13
2428,13
2429,13
2430,13
2431,13
2432,13
2433,13
2434,13
2435,13
2436,13
2437,13
2438,13
2439,13
2440,13
2441,13
2442,13
2443,13
2444,13
2445,13
2446,13
2447,13
2448,13
2449,13
2450,13
2451,13
2452,14
2453,14
2454,13
2455,13
2456,13
2457,13
2458,13
2459,13
2460,13
2461,13
2462,13
2463,13
2464,13
2465,13
2466,13
2467,13
2468,13
2469,13
2470,13
2471,13
2472,13
2473,13
2474,13
2475,13
2476,13
2477,13
2478,13
2479,13
2480,13
2481,13
2482,13
2483,13
2484,13
2485,13
2486,13
2487,13
2488,13
2489,13
2490,13
2491,13
2492,13
2493,13
2494,13
2495,13
2496,13
2497,13
2498,13
2499,13
2500,13
2501,13
2502,13
2503,13
2504,13
2505,13
2506,13
2507,13
2508,13
2509,13
2510,13
2511,13
2512,13
2513,13
2514,13
2515,13
2516,13
2517,13
2518,13
2519,13
2520,13
2521,13
2522,13
2523,13
2524,13
2525,13
2526,13
2527,13
2528,13
2529,13
2530,13
2531,13
2532,13
2533,13
2534,13
2535,13
2536,13
2537,13
2538,13
2539,13
2540,13
2541,13
2542,13
2543,13
2544,13
2545,13
2546,13
2547,13
2548,13
2549,13
2550,13
2551,13
2552,13
2553,13
2554,13
2555,13
2556,14
2557,14
2558,14
2559,14
2560,14
2561,14
2562,14
2563,14
2564,14
2565,14
2566,14
2567,14
2568,14
2569,14
2570,14
2571,14
2572,14
2573,14
2574,14
2575,14
2576,14
2577,14
2578,14
2579,14
2580,14
2581,14
2582,14
2583,14
2584,14
2585,14
2586,14
2587,14
2588,14
2589,14
2590,14
2591,14
2592,14
2593,14
2594,14
2595,14
2596,14
2597,14
2598,14
2599,14
2600,14
2601,14
2602,14
2603,14
2604,14
2605,14
2606,14
2607,14
2608,14
2609,14
2610,14
2611,14
2612,14
2613,14
2614,14
2615,14
2616,14
2617,14
2618,14
2619,14
2620,14
2621,14
2622,14
2623,14
2624,14
2625,14
2626,14
2627,14
2628,14
2629,14
2630,14
2631,14
2632,14
2633,14
2634,14
2635,14
2636,14
2637,14
2638,14
2639,14
2640,14
2641,14
2642,14
2643,14
2644,14
2645,14
2646,14
2647,14
2648,14
2649,14
2650,14
2651,14
2652,14
2653,14
2654,14
2655,14
2656,14
2657,14
2658,14
2659,14
2660,14
2661,14
2662,14
2663,14
2664,14
2665,14
2666,14
2667,14
2668,14
2669,14
2670,14
2671,14
2672,14
2673,14
2674,14
2675,14
2676,14
2677,14
2678,14
2679,14
2680,14
2681,14
2682,14
2683,14
2684,14
2685,14
2686,14
2687,14
2688,14
2689,14
2690,14
2691,14
2692,14
2693,14
2694,14
2695,14
2696,14
2697,14
2698,14
2699,14
2700,14
2701,14
2702,14
2703,14
2704,14
2705,14
2706,14
2707,14
2708,14
2709,14
2710,14
2711,14
2712,14
2713,14
2714,14
2715,14
2716,14
2717,14
2718,14
2719,14
2720,14
2721,14
2722,14
2723,14
2724,14
2725,14
2726,14
2727,14
2728,14
2729,14
2730,14
2731,14
2732,14
2733,14
2734,14
2735,14
2736,14
2737,14
2738,14
2739,14
2740,14
2741,14
2742,14
2743,14
2744,14
2745,14
2746,14
2747,14
2748,14
2749,14
2750,14
2751,14
2752,14
2753,14
2754,14
2755,14
2756,14
2757,14
2758,14
2759,14
2760,14
2761,14
2762,14
2763,14
2764,14
2765,14
2766,14
2767,14
2768,14
2769,14
2770,14
2771,14
2772,14
2773,14
2774,14
2775,14
2776,14
2777,14
2778,14
2779,14
2780,14
2781,14
2782,15
2783,14
2784,14
2785,14
2786,14
2787,14
2788,14
2789,14
2790,14
2791,14
2792,14
2793,14
2794,14
2795,14
2796,14
2797,14
2798,14
2799,14
2800,14
2801,14
2802,14
2803,14
2804,14
2805,14
2806,14
2807,14
2808,14
2809,14
2810,14
2811,14
2812,14
2813,14
2814,14
2815,14
2816,14
2817,14
2818,14
2819,14
2820,14
2821,14
2822,14
2823,14
2824,14
2825,14
2826,14
2827,14
2828,14
2829,14
2830,14
2831,14
2832,14
2833,14
2834,14
2835,14
2836,14
2837,14
2838,14
2839,14
2840,14
2841,14
2842,14
2843,14
2844,14
2845,14
2846,14
2847,14
2848,14
2849,14
2850,14
2851,14
2852,14
2853,14
2854,14
2855,14
2856,14
2857,14
2858,14
2859,14
2860,14
2861,14
2862,14
2863,14
2864,14
2865,14
2866,14
2867,14
2868,14
2869,14
2870,14
2871,14
2872,14
2873,14
2874,14
2875,14
2876,14
2877,14
2878,14
2879,14
2880,14
2881,14
2882,14
2883,14
2884,14
2885,14
2886,14
2887,14
2888,14
2889,14
2890,14
2891,14
2892,14
2893,14
2894,14
2895,14
2896,14
2897,14
2898,14
2899,14
2900,14
2901,14
2902,14
2903,14
2904,14
2905,14
2906,14
2907,14
2908,14
2909,14
2910,14
2911,14
2912,14
2913,14
2914,14
2915,14
2916,14
2917,14
2918,14
2919,14
2920,14
2921,14
2922,14
2923,14
2924,14
2925,14
2926,14
2927,14
2928,14
2929,14
2930,14
2931,14
2932,14
2933,14
2934,14
2935,14
2936,14
2937,14
2938,14
2939,14
2940,14
2941,14
2942,14
2943,14
2944,14
2945,14
2946,14
2947,14
2948,14
2949,14
2950,14
2951,14
2952,14
2953,14
2954,14
2955,14
2956,14
2957,14
2958,14
2959,14
2960,14
2961,14
2962,14
2963,14
2964,14
2965,14
2966,14
2967,14
2968,14
2969,14
2970,14
2971,14
2972,14
2973,14
2974,14
2975,14
2976,14
2977,14
2978,14
2979,14
2980,14
2981,14
2982,14
2983,14
2984,14
2985,14
2986,14
2987,14
2988,14
2989,14
2990,14
2991,14
2992,14
2993,14
2994,14
2995,14
2996,14
2997,14
2998,14
2999,14
3000,14
3001,14
3002,14
3003,14
3004,14
3005,14
3006,14
3007,14
3008,14
3009,14
3010,14
3011,14
3012,14
3013,14
3014,14
3015,14
3016,14
3017,14
3018,14
3019,14
3020,14
3021,14
3022,14
3023,14
3024,14
3025,14
3026,14
3027,14
3028,14
3029,14
3030,14
3031,14
3032,14
3033,14
3034,14
3035,14
3036,14
3037,14
3038,14
3039,14
3040,14
3041,14
3042,14
3043,14
3044,14
3045,14
3046,14
3047,14
3048,14
3049,14
3050,14
3051,14
3052,14
3053,14
3054,14
3055,14
3056,14
3057,14
3058,14
3059,14
3060,14
3061,14
3062,14
3063,14
3064,14
3065,14
3066,14
3067,14
3068,14
3069,14
3070,14
3071,14
3072,14
3073,14
3074,14
3075,14
3076,14
3077,14
3078,14
3079,14
3080,14
3081,14
3082,14
3083,14
3084,14
3085,14
3086,14
3087,14
3088,14
3089,14
3090,14
3091,14
3092,14
3093,14
3094,14
3095,14
3096,14
3097,14
3098,14
3099,14
3100,14
3101,14
3102,14
3103,14
3104,14
3105,14
3106,14
3107,14
3108,15
3109,16
3110,16
3111,16
3112,15
3113,15
3114,15
3115,15
3116,15
3117,15
3118,14
3119,14
3120,14
3121,14
3122,14
3123,14
3124,14
3125,14
3126,14
3127,14
3128,14
3129,14
3130,14
3131,14
3132,14
3133,14
3134,14
3135,14
3136,14
3137,14
3138,14
3139,14
3140,14
3141,14
3142,14
3143,14
3144,14
3145,14
3146,14
3147,14
3148,14
3149,14
3150,14
3151,14
3152,14
3153,14
3154,14
3155,14
3156,14
3157,14
3158,14
3159,14
3160,14
3161,14
3162,14
3163,14
3164,14
3165,14
3166,14
3167,14
3168,14
3169,14
3170,14
3171,14
3172,15
3173,15
3174,14
3175,15
3176,15
3177,14
3178,14
3179,14
3180,14
3181,14
3182,14
3183,14
3184,14
3185,14
3186,14
3187,14
3188,14
3189,14
3190,14
3191,14
3192,14
3193,14
3194,14
3195,14
3196,14
3197,14
3198,14
3199,14
3200,14
3201,14
3202,14
3203,14
3204,14
3205,14
3206,14
3207,14
3208,14
3209,14
3210,14
3211,14
3212,14
3213,14
3214,14
3215,14
3216,14
3217,14
3218,14
3219,14
3220,14
3221,14
3222,14
3223,14
3224,14
3225,14
3226,14
3227,14
3228,14
3229,14
3230,14
3231,14
3232,14
3233,14
3234,14
3235,14
3236,14
3237,14
3238,15
3239,14
3240,14
3241,14
3242,14
3243,14
3244,14
3245,14
3246,14
3247,14
3248,14
3249,14
3250,14
3251,14
3252,14
3253,14
3254,14
3255,14
3256,14
3257,14
3258,14
3259,14
3260,14
3261,14
3262,14
3263,14
3264,14
3265,14
3266,14
3267,14
3268,14
3269,14
3270,14
3271,14
3272,14
3273,14
3274,14
3275,14
3276,14
3277,14
3278,14
3279,14
3280,14
3281,14
3282,14
3283,14
3284,14
3285,14
3286,14
3287,14
3288,14
3289,14
3290,14
3291,14
3292,14
3293,14
3294,14
3295,14
3296,14
3297,14
3298,14
3299,14
3300,14
3301,14
3302,14
3303,14
3304,14
3305,14
3306,14
3307,14
3308,14
3309,14
3310,14
3311,14
3312,14
3313,14
3314,14
3315,14
3316,14
3317,14
3318,14
3319,14
3320,14
3321,14
3322,14
3323,14
3324,14
3325,14
3326,14
3327,14
3328,14
3329,14
3330,14
3331,14
3332,14
3333,14
3334,14
3335,14
3336,14
3337,14
3338,14
3339,14
3340,14
3341,14
3342,14
3343,14
3344,14
3345,14
3346,14
3347,14
3348,14
3349,14
3350,14
3351,14
3352,14
3353,14
3354,14
3355,14
3356,14
3357,14
3358,14
3359,14
3360,14
3361,14
3362,14
3363,14
3364,14
3365,14
3366,14
3367,14
3368,14
3369,15
3370,15
3371,15
3372,15
3373,15
3374,15
3375,14
3376,14
3377,14
3378,14
3379,14
3380,14
3381,14
3382,14
3383,14
3384,14
3385,14
3386,14
3387,14
3388,14
3389,14
3390,14
3391,14
3392,14
3393,14
3394,14
3395,14
3396,14
3397,14
3398,14
3399,14
3400,14
3401,14
3402,14
3403,14
3404,14
3405,14
3406,14
3407,14
3408,14
3409,14
3410,14
3411,14
3412,14
3413,14
3414,14
3415,14
3416,14
3417,14
3418,14
3419,14
3420,14
3421,14
3422,14
3423,14
3424,14
3425,14
3426,14
3427,14
3428,14
3429,14
3430,14
3431,14
3432,14
3433,14
3434,14
3435,14
3436,14
3437,14
3438,14
3439,14
3440,14
3441,14
3442,14
3443,14
3444,14
3445,14
3446,14
3447,14
3448,14
3449,14
3450,14
3451,14
3452,14
3453,14
3454,14
3455,14
3456,14
3457,14
3458,14
3459,14
3460,14
3461,14
3462,14
3463,14
3464,14
3465,14
3466,14
3467,14
3468,14
3469,14
3470,14
3471,14
3472,14
3473,14
3474,14
3475,14
3476,14
3477,14
3478,14
3479,14
3480,14
3481,14
3482,14
3483,14
3484,14
3485,14
3486,14
3487,14
3488,14
3489,14
3490,14
3491,14
3492,14
3493,14
3494,14
3495,14
3496,14
3497,14
3498,14
3499,14
3500,14
3501,14
3502,14
3503,14
3504,14
3505,14
3506,14
3507,14
3508,14
3509,14
3510,14
3511,14
3512,14
3513,14
3514,14
3515,14
3516,14
3517,14
3518,14
3519,14
3520,14
3521,14
3522,14
3523,14
3524,14
3525,14
3526,14
3527,14
3528,14
3529,14
3530,14
3531,14
3532,14
3533,14
3534,14
3535,14
3536,14
3537,14
3538,14
3539,14
3540,14
3541,14
3542,14
3543,14
3544,14
3545,14
3546,14
3547,14
3548,14
3549,14
3550,14
3551,14
3552,14
3553,14
3554,14
3555,14
3556,14
3557,14
3558,14
3559,14
3560,14
3561,14
3562,14
3563,14
3564,14
3565,14
3566,14
3567,14
3568,14
3569,14
3570,14
3571,14
3572,14
3573,14
3574,14
3575,14
3576,14
3577,14
3578,14
3579,14
3580,14
3581,14
3582,14
3583,14
3584,14
3585,14
3586,14
3587,14
3588,14
3589,14
3590,14
3591,14
3592,14
3593,14
3594,14
3595,14
3596,14
3597,14
3598,14
3599,14
3600,14
3601,14
3602,14
3603,14
3604,14
3605,14
3606,14
3607,14
3608,14
3609,14
3610,14
3611,14
3612,14
3613,14
3614,14
3615,14
3616,14
3617,14
3618,14
3619,14
3620,14
3621,14
3622,14
3623,14
3624,14
3625,14
3626,14
3627,14
3628,14
3629,14
3630,14
3631,14
3632,14
3633,14
3634,14
3635,14
3636,14
3637,14
3638,14
3639,14
3640,14
3641,14
3642,14
3643,14
3644,14
3645,14
3646,14
3647,14
3648,14
3649,14
3650,14
3651,14
3652,14
3653,14
3654,14
3655,14
3656,14
3657,14
3658,14
3659,14
3660,14
3661,14
3662,14
3663,14
3664,14
3665,14
3666,14
3667,14
3668,14
3669,14
3670,14
3671,14
3672,14
3673,14
3674,14
3675,14
3676,14
3677,15
3678,15
3679,15
3680,15
3681,15
3682,15
3683,15
3684,15
3685,15
3686,15
3687,15
3688,15
3689,15
3690,15
3691,15
3692,15
3693,15
3694,15
3695,15
3696,15
3697,15
3698,15
3699,15
3700,15
3701,15
3702,15
3703,15
3704,15
3705,15
3706,15
3707,15
3708,15
3709,15
3710,15
3711,15
3712,15
3713,15
3714,15
3715,16
3716,16
3717,15
3718,15
3719,15
3720,15
3721,15
3722,15
3723,15
3724,15
3725,15
3726,15
3727,15
3728,15
3729,15
3730,15
3731,15
3732,15
3733,15
3734,15
3735,15
3736,15
3737,15
3738,15
3739,15
3740,15
3741,15
3742,15
3743,15
3744,15
3745,15
3746,15
3747,15
3748,15
3749,15
3750,15
3751,15
3752,15
3753,15
3754,15
3755,15
3756,15
3757,15
3758,15
3759,15
3760,15
3761,15
3762,15
3763,15
3764,15
3765,15
3766,15
3767,15
3768,15
3769,15
3770,15
3771,15
3772,15
3773,15
3774,15
3775,15
3776,15
3777,15
3778,15
3779,15
3780,15
3781,15
3782,15
3783,15
3784,15
3785,15
3786,15
3787,15
3788,15
3789,15
3790,15
3791,15
3792,15
3793,15
3794,15
3795,15
3796,15
3797,15
3798,15
3799,15
3800,15
3801,15
3802,15
3803,15
3804,15
3805,15
3806,15
3807,15
3808,15
3809,15
3810,15
3811,15
3812,15
3813,15
3814,15
3815,15
3816,15
3817,15
3818,16
3819,16
3820,15
3821,15
3822,15
3823,15
3824,15
3825,15
3826,15
3827,16
3828,15
3829,15
3830,15
3831,15
3832,15
3833,15
3834,15
3835,15
3836,15
3837,15
3838,15
3839,15
3840,15
3841,15
3842,15
3843,15
3844,15
3845,15
3846,15
3847,15
3848,15
3849,15
3850,15
3851,15
3852,15
3853,15
3854,15
3855,15
3856,15
3857,15
3858,15
3859,15
3860,15
3861,15
3862,15
3863,15
3864,15
3865,15
3866,15
3867,15
3868,15
3869,15
3870,15
3871,15
3872,15
3873,15
3874,15
3875,15
3876,15
3877,15
3878,15
3879,15
3880,15
3881,15
3882,15
3883,15
3884,15
3885,15
3886,15
3887,15
3888,15
3889,15
3890,15
3891,15
3892,15
3893,15
3894,15
3895,15
3896,15
3897,15
3898,15
3899,15
3900,15
3901,15
3902,15
3903,15
3904,15
3905,15
3906,15
3907,15
3908,15
3909,15
3910,15
3911,15
3912,15
3913,15
3914,15
3915,15
3916,15
3917,15
3918,15
3919,15
3920,15
3921,15
3922,15
3923,15
3924,15
3925,15
3926,15
3927,15
3928,15
3929,15
3930,15
3931,15
3932,15
3933,15
3934,15
3935,15
3936,15
3937,15
3938,15
3939,15
3940,15
3941,15
3942,15
3943,15
3944,15
3945,15
3946,15
3947,15
3948,15
3949,15
3950,15
3951,15
3952,15
3953,15
3954,15
3955,15
3956,15
3957,15
3958,15
3959,15
3960,15
3961,15
3962,15
3963,15
3964,15
3965,15
3966,15
3967,15
3968,15
3969,16
3970,16
3971,16
3972,16
3973,16
3974,16
3975,16
3976,16
3977,15
3978,15
3979,15
3980,15
3981,15
3982,15
3983,15
3984,15
3985,15
3986,15
3987,15
3988,15
3989,15
3990,15
3991,15
3992,15
3993,15
3994,15
3995,15
3996,15
3997,15
3998,15
3999,15
4000,15
4001,15
4002,15
4003,15
4004,15
4005,15
4006,15
4007,15
4008,15
4009,15
4010,15
4011,15
4012,15
4013,15
4014,15
4015,15
4016,15
4017,15
4018,16
4019,16
4020,15
4021,15
4022,15
4023,15
4024,15
4025,15
4026,15
4027,15
4028,15
4029,15
4030,15
4031,15
4032,15
4033,15
4034,15
4035,15
4036,15
4037,15
4038,15
4039,15
4040,15
4041,15
4042,15
4043,15
4044,15
4045,15
4046,15
4047,15
4048,15
4049,15
4050,15
4051,15
4052,15
4053,15
4054,16
4055,15
4056,15
4057,15
4058,15
4059,15
4060,15
4061,15
4062,15
4063,15
4064,15
4065,15
4066,15
4067,15
4068,15
4069,15
4070,15
4071,15
4072,15
4073,15
4074,15
4075,15
4076,15
4077,15
4078,15
4079,15
4080,15
4081,15
4082,15
4083,15
4084,15
4085,15
4086,15
4087,15
4088,15
4089,15
4090,15
4091,15
4092,15
4093,15
4094,15
4095,15
4096,15
4097,15
4098,15
4099,15
4100,15
4101,15
4102,15
4103,15
4104,15
4105,15
4106,15
4107,15
4108,15
4109,15
4110,15
4111,15
4112,15
4113,15
4114,15
4115,15
4116,15
4117,15
4118,15
4119,15
4120,15
4121,15
4122,15
4123,15
4124,15
4125,15
4126,15
4127,15
4128,15
4129,15
4130,15
4131,15
4132,15
4133,15
4134,15
4135,15
4136,15
4137,15
4138,15
4139,15
4140,15
4141,15
4142,15
4143,15
4144,15
4145,15
4146,15
4147,15
4148,15
4149,15
4150,15
4151,15
4152,15
4153,15
4154,15
4155,15
4156,15
4157,15
4158,15
4159,15
4160,15
4161,15
4162,15
4163,15
4164,15
4165,15
4166,15
4167,15
4168,15
4169,15
4170,15
4171,15
4172,15
4173,15
4174,15
4175,16
4176,16
4177,16
4178,15
4179,15
4180,15
4181,15
4182,15
4183,15
4184,15
4185,15
4186,15
4187,15
4188,15
4189,15
4190,15
4191,15
4192,15
4193,15
4194,15
4195,15
4196,15
4197,15
4198,15
4199,15
4200,15
4201,15
4202,15
4203,15
4204,15
4205,15
4206,15
4207,15
4208,15
4209,15
4210,15
4211,15
4212,15
4213,15
4214,15
4215,15
4216,15
4217,15
4218,15
4219,15
4220,15
4221,15
4222,15
4223,15
4224,15
4225,15
4226,15
4227,15
4228,15
4229,15
4230,15
4231,15
4232,15
4233,15
4234,15
4235,15
4236,15
4237,15
4238,15
4239,15
4240,15
4241,15
4242,15
4243,15
4244,15
4245,15
4246,15
4247,15
4248,15
4249,15
4250,15
4251,15
4252,15
4253,15
4254,15
4255,15
4256,15
4257,15
4258,15
4259,15
4260,15
4261,15
4262,15
4263,15
4264,15
4265,15
4266,15
4267,15
4268,15
4269,15
4270,15
4271,15
4272,15
4273,15
4274,15
4275,15
4276,15
4277,15
4278,15
4279,15
4280,15
4281,15
4282,15
4283,15
4284,15
4285,15
4286,15
4287,15
4288,15
4289,15
4290,15
4291,15
4292,15
4293,15
4294,15
4295,15
4296,15
4297,15
4298,15
4299,15
4300,15
4301,15
4302,15
4303,15
4304,15
4305,15
4306,15
4307,15
4308,15
4309,15
4310,15
4311,15
4312,15
4313,15
4314,15
4315,15
4316,15
4317,15
4318,15
4319,15
4320,15
4321,15
4322,15
4323,15
4324,15
4325,15
4326,15
4327,15
4328,15
4329,15
4330,15
4331,15
4332,15
4333,15
4334,15
4335,15
4336,15
4337,15
4338,15
4339,15
4340,15
4341,15
4342,15
4343,15
4344,15
4345,15
4346,15
4347,15
4348,15
4349,15
4350,15
4351,15
4352,15
4353,15
4354,15
4355,15
4356,15
4357,15
4358,15
4359,15
4360,15
4361,15
4362,15
4363,15
4364,15
4365,15
4366,15
4367,15
4368,15
4369,15
4370,15
4371,15
4372,15
4373,15
4374,15
4375,15
4376,15
4377,15
4378,15
4379,15
4380,15
4381,15
4382,15
4383,15
4384,15
4385,15
4386,15
4387,15
4388,15
4389,15
4390,15
4391,15
4392,15
4393,15
4394,15
4395,15
4396,15
4397,15
4398,15
4399,15
4400,15
4401,15
4402,15
4403,15
4404,15
4405,15
4406,15
4407,15
4408,15
4409,15
4410,15
4411,15
4412,15
4413,15
4414,15
4415,15
4416,15
4417,15
4418,15
4419,15
4420,15
4421,15
4422,15
4423,15
4424,15
4425,15
4426,15
4427,15
4428,15
4429,15
4430,15
4431,15
4432,15
4433,15
4434,15
4435,15
4436,15
4437,15
4438,15
4439,15
4440,15
4441,15
4442,15
4443,15
4444,15
4445,15
4446,15
4447,15
4448,15
4449,15
4450,15
4451,15
4452,15
4453,15
4454,15
4455,15
4456,15
4457,15
4458,15
4459,15
4460,15
4461,15
4462,15
4463,15
4464,15
4465,15
4466,15
4467,15
4468,15
4469,15
4470,15
4471,15
4472,15
4473,15
4474,15
4475,15
4476,15
4477,15
4478,15
4479,15
4480,15
4481,15
4482,15
4483,15
4484,15
4485,15
4486,15
4487,15
4488,15
4489,15
4490,15
4491,15
4492,15
4493,15
4494,15
4495,15
4496,15
4497,15
4498,15
4499,15
4500,15
4501,15
4502,15
4503,15
4504,15
4505,15
4506,15
4507,15
4508,15
4509,15
4510,15
4511,15
4512,15
4513,15
4514,15
4515,15
4516,15
4517,15
4518,15
4519,15
4520,15
4521,15
4522,15
4523,15
4524,15
4525,15
4526,15
4527,15
4528,15
4529,15
4530,15
4531,15
4532,15
4533,15
4534,15
4535,15
4536,15
4537,15
4538,15
4539,15
4540,15
4541,15
4542,15
4543,15
4544,15
4545,15
4546,15
4547,15
4548,15
4549,15
4550,15
4551,15
4552,15
4553,15
4554,15
4555,15
4556,15
4557,15
4558,15
4559,15
4560,15
4561,15
4562,15
4563,15
4564,15
4565,15
4566,15
4567,15
4568,15
4569,15
4570,15
4571,15
4572,15
4573,15
4574,15
4575,15
4576,15
4577,15
4578,15
4579,15
4580,15
4581,15
4582,15
4583,15
4584,15
4585,15
4586,15
4587,15
4588,15
4589,15
4590,15
4591,15
4592,15
4593,15
4594,15
4595,15
4596,15
4597,15
4598,15
4599,15
4600,15
4601,15
4602,15
4603,15
4604,15
4605,15
4606,15
4607,15
4608,15
4609,16
4610,15
4611,15
4612,15
4613,15
4614,15
4615,15
4616,15
4617,15
4618,15
4619,15
4620,15
4621,15
4622,15
4623,15
4624,16
4625,16
4626,16
4627,15
4628,16
4629,16
4630,15
4631,15
4632,15
4633,15
4634,15
4635,15
4636,15
4637,15
4638,15
4639,15
4640,15
4641,15
4642,15
4643,15
4644,15
4645,15
4646,15
4647,15
4648,15
4649,15
4650,15
4651,15
4652,15
4653,15
4654,15
4655,15
4656,15
4657,15
4658,15
4659,16
4660,16
4661,15
4662,15
4663,15
4664,15
4665,15
4666,15
4667,15
4668,15
4669,15
4670,15
4671,15
4672,15
4673,15
4674,15
4675,15
4676,15
4677,15
4678,15
4679,15
4680,15
4681,15
4682,15
4683,15
4684,15
4685,15
4686,15
4687,15
4688,15
4689,15
4690,15
4691,15
4692,15
4693,15
4694,15
4695,15
4696,15
4697,15
4698,15
4699,15
4700,15
4701,15
4702,15
4703,15
4704,15
4705,15
4706,15
4707,15
4708,15
4709,15
4710,15
4711,15
4712,15
4713,15
4714,15
4715,15
4716,15
4717,15
4718,15
4719,15
4720,15
4721,15
4722,15
4723,15
4724,15
4725,15
4726,15
4727,15
4728,15
4729,15
4730,15
4731,15
4732,15
4733,15
4734,15
4735,15
4736,15
4737,15
4738,15
4739,15
4740,15
4741,15
4742,15
4743,15
4744,15
4745,15
4746,15
4747,15
4748,15
4749,15
4750,15
4751,15
4752,15
4753,15
4754,15
4755,15
4756,15
4757,15
4758,15
4759,15
4760,15
4761,15
4762,15
4763,15
4764,15
4765,15
4766,15
4767,15
4768,15
4769,15
4770,15
4771,15
4772,15
4773,15
4774,15
4775,15
4776,15
4777,15
4778,16
4779,15
4780,15
4781,15
4782,15
4783,15
4784,15
4785,15
4786,15
4787,15
4788,15
4789,15
4790,15
4791,15
4792,15
4793,15
4794,15
4795,15
4796,15
4797,15
4798,15
4799,16
4800,15
4801,15
4802,15
4803,15
4804,15
4805,15
4806,15
4807,15
4808,15
4809,15
4810,15
4811,15
4812,15
4813,15
4814,15
4815,15
4816,15
4817,15
4818,15
4819,15
4820,15
4821,15
4822,15
4823,15
4824,15
4825,15
4826,15
4827,15
4828,15
4829,15
4830,15
4831,15
4832,15
4833,15
4834,15
4835,15
4836,15
4837,15
4838,15
4839,15
4840,15
4841,15
4842,15
4843,15
4844,15
4845,15
4846,15
4847,15
4848,15
4849,15
4850,15
4851,15
4852,15
4853,15
4854,15
4855,15
4856,15
4857,15
4858,15
4859,15
4860,15
4861,15
4862,15
4863,15
4864,15
4865,15
4866,15
4867,15
4868,15
4869,15
4870,15
4871,15
4872,15
4873,15
4874,15
4875,15
4876,15
4877,15
4878,15
4879,15
4880,15
4881,15
4882,15
4883,15
4884,16
4885,15
4886,15
4887,15
4888,15
4889,15
4890,15
4891,15
4892,15
4893,16
4894,15
4895,15
4896,15
4897,15
4898,15
4899,15
4900,15
4901,15
4902,15
4903,15
4904,15
4905,15
4906,15
4907,15
4908,15
4909,15
4910,15
4911,15
4912,15
4913,15
4914,15
4915,16
4916,15
4917,15
4918,15
4919,15
4920,15
4921,15
4922,15
4923,15
4924,15
4925,15
4926,15
4927,15
4928,15
4929,15
4930,15
4931,15
4932,15
4933,15
4934,15
4935,15
4936,15
4937,15
4938,15
4939,15
4940,15
4941,15
4942,15
4943,15
4944,15
4945,15
4946,15
4947,15
4948,15
4949,15
4950,15
4951,15
4952,15
4953,15
4954,15
4955,15
4956,15
4957,15
4958,15
4959,15
4960,15
4961,15
4962,16
4963,15
4964,15
4965,15
4966,15
4967,15
4968,15
4969,15
4970,15
4971,15
4972,15
4973,15
4974,15
4975,15
4976,15
4977,15
4978,15
4979,15
4980,15
4981,15
4982,15
4983,15
4984,15
4985,15
4986,15
4987,15
4988,15
4989,15
4990,15
4991,15
4992,15
4993,15
4994,15
4995,15
4996,15
4997,15
4998,15
4999,15
5000,15
5001,15
5002,15
5003,15
5004,15
5005,15
5006,15
5007,15
5008,15
5009,15
5010,15
5011,15
5012,15
5013,15
5014,15
5015,15
5016,15
5017,15
5018,15
5019,15
5020,15
5021,15
5022,15
5023,15
5024,15
5025,15
5026,15
5027,15
5028,15
5029,15
5030,15
5031,15
5032,15
5033,15
5034,15
5035,16
5036,16
5037,16
5038,16
5039,16
5040,16
5041,15
5042,15
5043,15
5044,15
5045,16
5046,16
5047,16
5048,15
5049,15
5050,15
5051,15
5052,15
5053,16
5054,16
5055,16
5056,16
5057,16
5058,16
5059,16
5060,16
5061,17
5062,17
5063,17
5064,17
5065,17
5066,17
5067,17
5068,17
5069,17
5070,17
5071,17
5072,17
5073,17
5074,17
5075,17
5076,17
5077,17
5078,17
5079,17
5080,17
5081,17
5082,17
5083,17
5084,17
5085,17
5086,17
5087,17
5088,17
5089,17
5090,17
5091,17
5092,17
5093,17
5094,17
5095,17
5096,17
5097,17
5098,17
5099,17
5100,17
5101,17
5102,17
5103,17
5104,17
5105,17
5106,17
5107,17
5108,17
5109,17
5110,17
5111,17
5112,17
5113,17
5114,17
5115,17
5116,17
5117,17
5118,17
5119,17
5120,17
5121,17
5122,17
5123,17
5124,17
5125,17
5126,17
5127,17
5128,17
5129,17
5130,17
5131,17
5132,17
5133,17
5134,17
5135,17
5136,17
5137,17
5138,17
5139,17
5140,17
5141,17
5142,17
5143,17
5144,17
5145,17
5146,17
5147,17
5148,17
5149,17
5150,17
5151,17
5152,17
5153,17
5154,17
5155,17
5156,17
5157,17
5158,17
5159,17
5160,17
5161,17
5162,17
5163,17
5164,17
5165,17
5166,17
5167,17
5168,17
5169,17
5170,17
5171,17
5172,17
5173,17
5174,17
5175,17
5176,17
5177,17
5178,17
5179,17
5180,17
5181,17
5182,17
5183,17
5184,17
5185,17
5186,17
5187,17
5188,17
5189,17
5190,17
5191,17
5192,17
5193,17
5194,17
5195,17
5196,17
5197,17
5198,17
5199,17
5200,17
5201,17
5202,17
5203,17
5204,17
5205,17
5206,17
5207,17
5208,17
5209,17
5210,17
5211,17
5212,17
5213,17
5214,17
5215,17
5216,17
5217,17
5218,17
5219,17
5220,17
5221,17
5222,17
5223,17
5224,17
5225,17
5226,17
5227,17
5228,17
5229,17
5230,18
5231,18
5232,18
5233,18
5234,18
5235,18
5236,17
5237,17
5238,17
5239,17
5240,17
5241,17
5242,17
5243,17
5244,17
5245,17
5246,17
5247,17
5248,17
5249,17
5250,17
5251,17
5252,17
5253,17
5254,17
5255,17
5256,17
5257,17
5258,17
5259,17
5260,17
5261,17
5262,17
5263,17
5264,17
5265,17
5266,17
5267,17
5268,17
5269,17
5270,17
5271,17
5272,17
5273,17
5274,17
5275,17
5276,17
5277,17
5278,18
5279,17
5280,17
5281,18
5282,17
5283,17
5284,17
5285,17
5286,17
5287,17
5288,17
5289,17
5290,17
5291,17
5292,17
5293,17
5294,17
5295,17
5296,17
5297,17
5298,17
5299,17
5300,17
5301,17
5302,17
5303,17
5304,17
5305,17
5306,17
5307,17
5308,17
5309,17
5310,17
5311,17
5312,17
5313,17
5314,17
5315,17
5316,17
5317,17
5318,17
5319,17
5320,17
5321,17
5322,17
5323,17
5324,17
5325,17
5326,17
5327,17
5328,17
5329,17
5330,17
5331,17
5332,17
5333,17
5334,17
5335,17
5336,17
5337,17
5338,17
5339,17
5340,17
5341,17
5342,17
5343,17
5344,17
5345,17
5346,17
5347,17
5348,17
5349,17
5350,17
5351,17
5352,17
5353,17
5354,17
5355,17
5356,17
5357,17
5358,17
5359,17
5360,17
5361,17
5362,17
5363,17
5364,17
5365,17
5366,17
5367,17
5368,17
5369,17
5370,17
5371,17
5372,17
5373,17
5374,17
5375,17
5376,17
5377,17
5378,17
5379,17
5380,17
5381,17
5382,17
5383,17
5384,17
5385,17
5386,17
5387,17
5388,17
5389,17
5390,17
5391,17
5392,17
5393,17
5394,17
5395,17
5396,17
5397,17
5398,17
5399,17
5400,17
5401,17
5402,17
5403,17
5404,17
5405,17
5406,17
5407,17
5408,17
5409,17
5410,17
5411,17
5412,17
5413,17
5414,17
5415,17
5416,17
5417,17
5418,17
5419,17
5420,17
5421,17
5422,17
5423,17
5424,17
5425,17
5426,17
5427,17
5428,17
5429,17
5430,17
5431,17
5432,17
5433,17
5434,17
5435,17
5436,17
5437,17
5438,17
5439,17
5440,17
5441,17
5442,17
5443,17
5444,17
5445,17
5446,17
5447,17
5448,17
5449,17
5450,17
5451,17
5452,18
5453,18
5454,18
5455,17
5456,17
5457,17
5458,17
5459,17
5460,17
5461,17
5462,17
5463,17
5464,17
5465,17
5466,17
5467,17
5468,17
5469,17
5470,17
5471,17
5472,17
5473,17
5474,17
5475,17
5476,17
5477,17
5478,17
5479,17
5480,17
5481,17
5482,17
5483,17
5484,17
5485,17
5486,17
5487,17
5488,17
5489,17
5490,17
5491,17
5492,17
5493,17
5494,17
5495,17
5496,17
5497,17
5498,17
5499,17
5500,17
5501,18
5502,18
5503,18
5504,18
5505,18
5506,18
5507,18
5508,17
5509,17
5510,17
5511,17
5512,17
5513,17
5514,17
5515,17
5516,17
5517,17
5518,17
5519,17
5520,17
5521,17
5522,17
5523,17
5524,17
5525,17
5526,17
5527,17
5528,17
5529,17
5530,17
5531,17
5532,17
5533,17
5534,17
5535,17
5536,17
5537,17
5538,17
5539,17
5540,17
5541,17
5542,17
5543,17
5544,17
5545,17
5546,17
5547,17
5548,17
5549,17
5550,17
5551,17
5552,17
5553,17
5554,17
5555,17
5556,17
5557,17
5558,17
5559,17
5560,17
5561,17
5562,17
5563,17
5564,17
5565,18
5566,17
5567,17
5568,17
5569,17
5570,17
5571,17
5572,17
5573,17
5574,17
5575,17
5576,17
5577,17
5578,17
5579,17
5580,17
5581,18
5582,17
5583,17
5584,17
5585,17
5586,17
5587,17
5588,17
5589,17
5590,17
5591,17
5592,17
5593,17
5594,17
5595,17
5596,17
5597,17
5598,17
5599,17
5600,17
5601,17
5602,17
5603,17
5604,17
5605,18
5606,18
5607,17
5608,17
5609,17
5610,17
5611,17
5612,17
5613,17
5614,17
5615,17
5616,17
5617,17
5618,17
5619,17
5620,17
5621,17
5622,17
5623,17
5624,17
5625,17
5626,17
5627,17
5628,17
5629,17
5630,17
5631,17
5632,17
5633,17
5634,17
5635,17
5636,17
5637,17
5638,17
5639,17
5640,17
5641,17
5642,17
5643,17
5644,18
5645,17
5646,17
5647,17
5648,17
5649,17
5650,17
5651,17
5652,17
5653,17
5654,17
5655,17
5656,17
5657,17
5658,17
5659,17
5660,17
5661,17
5662,17
5663,17
5664,17
5665,17
5666,17
5667,17
5668,17
5669,17
5670,17
5671,17
5672,17
5673,17
5674,17
5675,17
5676,17
5677,17
5678,17
5679,17
5680,17
5681,17
5682,17
5683,17
5684,17
5685,17
5686,17
5687,17
5688,17
5689,17
5690,17
5691,17
5692,17
5693,17
5694,17
5695,17
5696,17
5697,17
5698,17
5699,17
5700,17
5701,17
5702,17
5703,17
5704,17
5705,17
5706,17
5707,17
5708,17
5709,17
5710,17
5711,17
5712,17
5713,17
5714,17
5715,17
5716,17
5717,17
5718,17
5719,17
5720,17
5721,17
5722,17
5723,17
5724,17
5725,17
5726,17
5727,17
5728,17
5729,17
5730,17
5731,17
5732,17
5733,17
5734,17
5735,17
5736,17
5737,17
5738,17
5739,17
5740,17
5741,17
5742,17
5743,17
5744,17
5745,17
5746,17
5747,17
5748,17
5749,17
5750,17
5751,17
5752,17
5753,17
5754,17
5755,17
5756,17
5757,17
5758,17
5759,17
5760,17
5761,17
5762,17
5763,17
5764,17
5765,17
5766,17
5767,17
5768,17
5769,17
5770,17
5771,17
5772,17
5773,17
5774,17
5775,17
5776,17
5777,17
5778,17
5779,17
5780,17
5781,17
5782,17
5783,17
5784,17
5785,17
5786,17
5787,17
5788,17
5789,17
5790,17
5791,17
5792,17
5793,18
5794,18
5795,17
5796,17
5797,17
5798,17
5799,17
5800,17
5801,17
5802,17
5803,17
5804,17
5805,17
5806,17
5807,17
5808,17
5809,17
5810,17
5811,17
5812,17
5813,17
5814,17
5815,17
5816,17
5817,17
5818,17
5819,17
5820,17
5821,17
5822,17
5823,17
5824,17
5825,17
5826,17
5827,17
5828,17
5829,17
5830,17
5831,17
5832,17
5833,17
5834,17
5835,17
5836,17
5837,17
5838,17
5839,17
5840,17
5841,17
5842,17
5843,17
5844,17
5845,17
5846,17
5847,17
5848,17
5849,17
5850,17
5851,17
5852,17
5853,17
5854,17
5855,17
5856,17
5857,17
5858,17
5859,17
5860,17
5861,17
5862,17
5863,17
5864,17
5865,17
5866,17
5867,17
5868,17
5869,17
5870,17
5871,17
5872,17
5873,17
5874,17
5875,17
5876,17
5877,17
5878,17
5879,17
5880,17
5881,17
5882,17
5883,17
5884,17
5885,17
5886,17
5887,17
5888,17
5889,17
5890,17
5891,17
5892,17
5893,17
5894,17
5895,17
5896,17
5897,17
5898,17
5899,17
5900,17
5901,17
5902,17
5903,17
5904,17
5905,17
5906,17
5907,17
5908,17
5909,17
5910,17
5911,17
5912,17
5913,17
5914,17
5915,17
5916,17
5917,17
5918,17
5919,17
5920,17
5921,17
5922,17
5923,17
5924,17
5925,17
5926,17
5927,17
5928,17
5929,17
5930,17
5931,17
5932,17
5933,17
5934,17
5935,17
5936,17
5937,17
5938,17
5939,17
5940,17
5941,17
5942,17
5943,17
5944,17
5945,17
5946,17
5947,17
5948,17
5949,17
5950,17
5951,17
5952,17
5953,17
5954,17
5955,17
5956,17
5957,17
5958,17
5959,17
5960,17
5961,17
5962,17
5963,17
5964,17
5965,17
5966,17
5967,17
5968,17
5969,17
5970,17
5971,17
5972,17
5973,17
5974,17
5975,17
5976,17
5977,17
5978,17
5979,17
5980,17
5981,17
5982,17
5983,17
5984,17
5985,17
5986,17
5987,17
5988,17
5989,17
5990,17
5991,17
5992,17
5993,17
5994,17
5995,17
5996,17
5997,17
5998,17
5999,17
6000,17
6001,17
6002,17
6003,17
6004,17
6005,17
6006,17
6007,17
6008,17
6009,17
6010,17
6011,17
6012,17
6013,17
6014,17
6015,17
6016,17
6017,17
6018,17
6019,17
6020,17
6021,17
6022,17
6023,17
6024,17
6025,17
6026,17
6027,17
6028,17
6029,17
6030,17
6031,17
6032,17
6033,17
6034,17
6035,17
6036,17
6037,17
6038,17
6039,17
6040,17
6041,17
6042,17
6043,17
6044,17
6045,17
6046,17
6047,17
6048,17
6049,17
6050,17
6051,17
6052,17
6053,17
6054,17
6055,17
6056,17
6057,17
6058,17
6059,17
6060,17
6061,17
6062,17
6063,17
6064,17
6065,17
6066,17
6067,17
6068,17
6069,17
6070,17
6071,17
6072,17
6073,17
6074,17
6075,18
6076,17
6077,17
6078,17
6079,17
6080,17
6081,17
6082,17
6083,17
6084,17
6085,17
6086,17
6087,17
6088,17
6089,17
6090,17
6091,17
6092,17
6093,17
6094,17
6095,17
6096,17
6097,17
6098,17
6099,17
6100,17
6101,17
6102,17
6103,17
6104,17
6105,17
6106,17
6107,17
6108,17
6109,17
6110,17
6111,17
6112,17
6113,17
6114,17
6115,17
6116,17
6117,17
6118,17
6119,17
6120,17
6121,17
6122,17
6123,17
6124,17
6125,17
6126,17
6127,17
6128,17
6129,17
6130,17
6131,17
6132,17
6133,17
6134,17
6135,17
6136,17
6137,17
6138,17
6139,17
6140,17
6141,17
6142,17
6143,17
6144,17
6145,17
6146,17
6147,17
6148,17
6149,17
6150,17
6151,17
6152,17
6153,17
6154,17
6155,17
6156,17
6157,18
6158,18
6159,18
6160,18
6161,18
6162,18
6163,18
6164,18
6165,18
6166,18
6167,18
6168,18
6169,18
6170,18
6171,18
6172,18
6173,18
6174,18
6175,18
6176,18
6177,18
6178,18
6179,18
6180,18
6181,18
6182,18
6183,19
6184,19
6185,19
6186,19
6187,19
6188,19
6189,19
6190,19
6191,20
6192,19
6193,19
6194,19
6195,19
6196,19
6197,19
6198,19
6199,19
6200,19
6201,19
6202,19
6203,19
6204,19
6205,19
6206,19
6207,19
6208,19
6209,19
6210,19
6211,19
6212,19
6213,19
6214,19
6215,19
6216,19
6217,19
6218,19
6219,19
6220,19
6221,19
6222,19
6223,19
6224,19
6225,19
6226,19
6227,19
6228,19
6229,19
6230,19
6231,19
6232,19
6233,19
6234,19
6235,19
6236,19
6237,19
6238,19
6239,19
6240,19
6241,19
6242,19
6243,19
6244,19
6245,19
6246,19
6247,19
6248,19
6249,19
6250,19
6251,19
6252,19
6253,19
6254,19
6255,19
6256,19
6257,19
6258,19
6259,19
6260,19
6261,19
6262,19
6263,19
6264,19
6265,19
6266,19
6267,19
6268,19
6269,19
6270,19
6271,19
6272,19
6273,19
6274,19
6275,19
6276,19
6277,19
6278,19
6279,19
6280,19
6281,19
6282,19
6283,19
6284,19
6285,19
6286,19
6287,19
6288,19
6289,19
6290,19
6291,19
6292,19
6293,19
6294,19
6295,19
6296,19
6297,19
6298,19
6299,19
6300,19
6301,19
6302,19
6303,19
6304,19
6305,19
6306,19
6307,19
6308,19
6309,19
6310,19
6311,19
6312,19
6313,19
6314,19
6315,19
6316,19
6317,19
6318,19
6319,19
6320,19
6321,19
6322,19
6323,19
6324,19
6325,19
6326,19
6327,19
6328,19
6329,19
6330,19
6331,19
6332,19
6333,19
6334,19
6335,19
6336,19
6337,19
6338,19
6339,19
6340,19
6341,19
6342,19
6343,19
6344,19
6345,19
6346,19
6347,19
6348,19
6349,19
6350,19
6351,19
6352,19
6353,19
6354,19
6355,19
6356,19
6357,19
6358,19
6359,19
6360,19
6361,19
6362,19
6363,19
6364,19
6365,19
6366,19
6367,19
6368,19
6369,19
6370,19
6371,19
6372,19
6373,19
6374,19
6375,19
6376,19
6377,19
6378,19
6379,19
6380,19
6381,19
6382,19
6383,19
6384,19
6385,19
6386,19
6387,19
6388,19
6389,19
6390,19
6391,19
6392,19
6393,19
6394,19
6395,19
6396,19
6397,19
6398,19
6399,19
6400,19
6401,19
6402,19
6403,19
6404,19
6405,19
6406,19
6407,19
6408,19
6409,19
6410,19
6411,19
6412,19
6413,19
6414,19
6415,19
6416,19
6417,19
6418,19
6419,19
6420,19
6421,19
6422,19
6423,19
6424,19
6425,19
6426,19
6427,19
6428,19
6429,19
6430,19
6431,19
6432,19
6433,19
6434,19
6435,19
6436,19
6437,19
6438,19
6439,19
6440,19
6441,20
6442,19
6443,19
6444,19
6445,19
6446,19
6447,19
6448,19
6449,19
6450,19
6451,19
6452,19
6453,19
6454,19
6455,19
6456,19
6457,19
6458,19
6459,19
6460,19
6461,19
6462,19
6463,19
6464,19
6465,19
6466,19
6467,19
6468,19
6469,19
6470,19
6471,19
6472,19
6473,19
6474,19
6475,19
6476,19
6477,19
6478,19
6479,19
6480,19
6481,19
6482,20
6483,19
6484,19
6485,19
6486,19
6487,19
6488,19
6489,19
6490,19
6491,19
6492,19
6493,19
6494,19
6495,19
6496,19
6497,19
6498,19
6499,19
6500,19
6501,19
6502,19
6503,19
6504,19
6505,19
6506,19
6507,19
6508,19
6509,19
6510,19
6511,19
6512,19
6513,19
6514,19
6515,19
6516,19
6517,19
6518,19
6519,19
6520,19
6521,19
6522,19
6523,19
6524,19
6525,19
6526,19
6527,19
6528,19
6529,19
6530,19
6531,19
6532,19
6533,19
6534,19
6535,19
6536,19
6537,19
6538,19
6539,19
6540,19
6541,19
6542,19
6543,19
6544,19
6545,20
6546,20
6547,19
6548,19
6549,19
6550,19
6551,19
6552,19
6553,19
6554,19
6555,19
6556,19
6557,19
6558,20
6559,20
6560,20
6561,20
6562,20
6563,20
6564,20
6565,20
6566,20
6567,20
6568,20
6569,20
6570,20
6571,20
6572,20
6573,20
6574,20
6575,20
6576,20
6577,20
6578,20
6579,20
6580,20
6581,20
6582,20
6583,20
6584,20
6585,21
6586,20
6587,20
6588,20
6589,20
6590,20
6591,20
6592,20
6593,20
6594,20
6595,20
6596,20
6597,20
6598,20
6599,20
6600,20
6601,20
6602,20
6603,20
6604,20
6605,20
6606,20
6607,20
6608,20
6609,20
6610,20
6611,20
6612,20
6613,20
6614,20
6615,20
6616,20
6617,20
6618,20
6619,20
6620,20
6621,20
6622,20
6623,20
6624,20
6625,20
6626,20
6627,20
6628,20
6629,20
6630,20
6631,20
6632,20
6633,20
6634,20
6635,20
6636,20
6637,20
6638,20
6639,20
6640,20
6641,20
6642,20
6643,20
6644,20
6645,20
6646,20
6647,20
6648,20
6649,20
6650,20
6651,20
6652,20
6653,20
6654,20
6655,20
6656,20
6657,20
6658,20
6659,20
6660,20
6661,20
6662,21
6663,20
6664,20
6665,20
6666,20
6667,20
6668,20
6669,20
6670,20
6671,20
6672,20
6673,20
6674,20
6675,20
6676,20
6677,20
6678,20
6679,20
6680,20
6681,20
6682,20
6683,20
6684,20
6685,20
6686,20
6687,20
6688,20
6689,20
6690,20
6691,20
6692,20
6693,20
6694,20
6695,20
6696,20
6697,20
6698,20
6699,20
6700,20
6701,20
6702,20
6703,20
6704,20
6705,20
6706,20
6707,20
6708,20
6709,20
6710,20
6711,20
6712,20
6713,20
6714,20
6715,20
6716,20
6717,20
6718,20
6719,20
6720,20
6721,20
6722,20
6723,20
6724,20
6725,20
6726,20
6727,20
6728,20
6729,20
6730,20
6731,20
6732,20
6733,20
6734,20
6735,20
6736,20
6737,20
6738,20
6739,20
6740,20
6741,20
6742,20
6743,20
6744,20
6745,20
6746,20
6747,20
6748,20
6749,20
6750,20
6751,20
6752,20
6753,20
6754,20
6755,20
6756,20
6757,20
6758,20
6759,20
6760,20
6761,20
6762,20
6763,20
6764,20
6765,20
6766,20
6767,20
6768,20
6769,20
6770,20
6771,20
6772,20
6773,20
6774,20
6775,20
6776,20
6777,20
6778,20
6779,20
6780,20
6781,20
6782,20
6783,20
6784,20
6785,20
6786,20
6787,21
6788,21
6789,20
6790,20
6791,20
6792,20
6793,20
6794,20
6795,20
6796,20
6797,20
6798,20
6799,20
6800,20
6801,20
6802,20
6803,20
6804,20
6805,20
6806,20
6807,20
6808,20
6809,20
6810,20
6811,20
6812,20
6813,20
6814,20
6815,20
6816,20
6817,20
6818,20
6819,20
6820,20
6821,20
6822,20
6823,20
6824,20
6825,20
6826,20
6827,20
6828,20
6829,20
6830,20
6831,20
6832,20
6833,20
6834,20
6835,20
6836,20
6837,20
6838,20
6839,20
6840,20
6841,20
6842,20
6843,20
6844,20
6845,20
6846,20
6847,20
6848,20
6849,20
6850,20
6851,20
6852,20
6853,20
6854,20
6855,20
6856,20
6857,20
6858,20
6859,20
6860,20
6861,20
6862,20
6863,20
6864,20
6865,20
6866,20
6867,20
6868,20
6869,20
6870,20
6871,20
6872,20
6873,20
6874,20
6875,20
6876,20
6877,20
6878,20
6879,20
6880,20
6881,20
6882,20
6883,20
6884,20
6885,20
6886,20
6887,20
6888,20
6889,20
6890,20
6891,20
6892,20
6893,20
6894,20
6895,20
6896,20
6897,20
6898,20
6899,20
6900,20
6901,20
6902,20
6903,20
6904,20
6905,20
6906,20
6907,20
6908,20
6909,20
6910,20
6911,20
6912,20
6913,20
6914,20
6915,20
6916,20
6917,20
6918,20
6919,20
6920,20
6921,20
6922,21
6923,20
6924,20
6925,20
6926,20
6927,20
6928,20
6929,20
6930,20
6931,20
6932,20
6933,20
6934,20
6935,20
6936,20
6937,20
6938,20
6939,20
6940,20
6941,20
6942,20
6943,20
6944,20
6945,20
6946,20
6947,20
6948,20
6949,20
6950,20
6951,20
6952,20
6953,20
6954,20
6955,20
6956,20
6957,20
6958,20
6959,20
6960,20
6961,20
6962,20
6963,20
6964,20
6965,20
6966,20
6967,20
6968,20
6969,20
6970,20
6971,20
6972,20
6973,20
6974,20
6975,20
6976,20
6977,20
6978,20
6979,20
6980,20
6981,20
6982,20
6983,20
6984,20
6985,20
6986,20
6987,20
6988,20
6989,20
6990,20
6991,20
6992,20
6993,21
6994,20
6995,20
6996,20
6997,20
6998,20
6999,20
7000,20
7001,20
7002,20
7003,20
7004,20
7005,20
7006,20
7007,20
7008,20
7009,20
7010,20
7011,20
7012,20
7013,20
7014,20
7015,20
7016,20
7017,20
7018,20
7019,20
7020,20
7021,20
7022,20
7023,20
7024,20
7025,20
7026,20
7027,20
7028,20
7029,20
7030,20
7031,20
7032,20
7033,20
7034,20
7035,20
7036,20
7037,20
7038,20
7039,20
7040,20
7041,20
7042,20
7043,20
7044,20
7045,20
7046,20
7047,20
7048,20
7049,20
7050,20
7051,20
7052,20
7053,20
7054,20
7055,20
7056,20
7057,21
7058,21
7059,21
7060,21
7061,21
7062,20
7063,20
7064,20
7065,20
7066,20
7067,20
7068,20
7069,20
7070,20
7071,20
7072,20
7073,20
7074,21
7075,21
7076,21
7077,21
7078,21
7079,21
7080,21
7081,21
7082,21
7083,21
7084,21
7085,21
7086,21
7087,20
7088,20
7089,20
7090,20
7091,20
7092,20
7093,20
7094,20
7095,20
7096,20
7097,20
7098,20
7099,20
7100,20
7101,20
7102,20
7103,20
7104,20
7105,20
7106,20
7107,20
7108,20
7109,20
7110,20
7111,20
7112,20
7113,20
7114,20
7115,20
7116,20
7117,20
7118,20
7119,20
7120,20
7121,20
7122,20
7123,20
7124,20
7125,20
7126,20
7127,20
7128,20
7129,20
7130,20
7131,20
7132,20
7133,20
7134,20
7135,20
7136,20
7137,20
7138,20
7139,20
7140,20
7141,20
7142,20
7143,20
7144,20
7145,20
7146,20
7147,20
7148,20
7149,20
7150,20
7151,20
7152,20
7153,20
7154,20
7155,20
7156,20
7157,20
7158,20
7159,20
7160,20
7161,20
7162,20
7163,20
7164,20
7165,20
7166,20
7167,20
7168,20
7169,20
7170,20
7171,20
7172,20
7173,20
7174,20
7175,20
7176,20
7177,20
7178,20
7179,20
7180,20
7181,20
7182,20
7183,20
7184,20
7185,20
7186,20
7187,20
7188,20
7189,20
7190,20
7191,20
7192,20
7193,20
7194,20
7195,20
7196,20
7197,20
7198,20
7199,20
7200,20
7201,20
7202,20
7203,20
7204,20
7205,20
7206,20
7207,20
7208,20
7209,20
7210,21
7211,21
7212,21
7213,20
7214,20
7215,20
7216,20
7217,20
7218,20
7219,20
7220,20
7221,20
7222,20
7223,20
7224,20
7225,20
7226,20
7227,20
7228,20
7229,20
7230,20
7231,20
7232,20
7233,20
7234,20
7235,20
7236,20
7237,20
7238,20
7239,20
7240,20
7241,20
7242,20
7243,20
7244,20
7245,20
7246,20
7247,21
7248,20
7249,20
7250,20
7251,20
7252,20
7253,20
7254,20
7255,20
7256,20
7257,20
7258,20
7259,20
7260,20
7261,20
7262,20
7263,20
7264,20
7265,20
7266,20
7267,20
7268,20
7269,20
7270,20
7271,20
7272,20
7273,20
7274,20
7275,20
7276,20
7277,20
7278,20
7279,20
7280,20
7281,20
7282,20
7283,20
7284,20
7285,20
7286,20
7287,20
7288,20
7289,20
7290,20
7291,20
7292,20
7293,20
7294,20
7295,20
7296,20
7297,20
7298,20
7299,20
7300,20
7301,20
7302,20
7303,20
7304,20
7305,20
7306,20
7307,20
7308,20
7309,20
7310,20
7311,20
7312,20
7313,20
7314,20
7315,20
7316,20
7317,20
7318,20
7319,20
7320,20
7321,20
7322,20
7323,20
7324,20
7325,20
7326,20
7327,20
7328,20
7329,20
7330,20
7331,20
7332,20
7333,20
7334,20
7335,20
7336,20
7337,20
7338,20
7339,20
7340,20
7341,20
7342,20
7343,20
7344,20
7345,20
7346,20
7347,20
7348,20
7349,20
7350,20
7351,20
7352,20
7353,20
7354,20
7355,20
7356,20
7357,20
7358,20
7359,20
7360,20
7361,20
7362,20
7363,20
7364,20
7365,20
7366,20
7367,20
7368,20
7369,20
7370,20
7371,20
7372,20
7373,20
7374,20
7375,20
7376,20
7377,20
7378,20
7379,20
7380,20
7381,20
7382,20
7383,20
7384,20
7385,20
7386,20
7387,20
7388,20
7389,20
7390,20
7391,20
7392,20
7393,20
7394,20
7395,20
7396,20
7397,20
7398,20
7399,20
7400,20
7401,20
7402,20
7403,20
7404,20
7405,20
7406,20
7407,20
7408,20
7409,20
7410,20
7411,20
7412,20
7413,20
7414,20
7415,20
7416,20
7417,20
7418,21
7419,21
7420,21
7421,21
7422,21
7423,21
7424,21
7425,21
7426,21
7427,21
7428,21
7429,21
7430,20
7431,20
7432,20
7433,20
7434,20
7435,20
7436,20
7437,20
7438,20
7439,20
7440,20
7441,20
7442,20
7443,20
7444,20
7445,20
7446,20
7447,20
7448,20
7449,20
7450,20
7451,20
7452,20
7453,20
7454,20
7455,20
7456,20
7457,20
7458,20
7459,20
7460,20
7461,21
7462,21
7463,21
7464,21
7465,21
7466,21
7467,21
7468,21
7469,21
7470,21
7471,21
7472,21
7473,21
7474,21
7475,21
7476,21
7477,21
7478,21
7479,21
7480,21
7481,21
7482,21
7483,21
7484,21
7485,21
7486,21
7487,21
7488,21
7489,21
7490,21
7491,21
7492,21
7493,21
7494,21
7495,21
7496,21
7497,21
7498,21
7499,21
7500,21
7501,21
7502,21
7503,21
7504,21
7505,21
7506,21
7507,21
7508,21
7509,21
7510,21
7511,21
7512,21
7513,21
7514,21
7515,21
7516,21
7517,21
7518,21
7519,21
7520,21
7521,22
7522,22
7523,22
7524,21
7525,21
7526,21
7527,21
7528,21
7529,21
7530,21
7531,21
7532,21
7533,21
7534,21
7535,21
7536,21
7537,21
7538,21
7539,21
7540,21
7541,21
7542,21
7543,21
7544,21
7545,21
7546,21
7547,21
7548,21
7549,21
7550,21
7551,21
7552,21
7553,21
7554,21
7555,21
7556,21
7557,21
7558,21
7559,21
7560,21
7561,21
7562,21
7563,21
7564,21
7565,21
7566,21
7567,21
7568,21
7569,21
7570,21
7571,21
7572,21
7573,21
7574,21
7575,21
7576,22
7577,22
7578,22
7579,21
7580,21
7581,21
7582,21
7583,21
7584,21
7585,21
7586,21
7587,21
7588,22
7589,22
7590,22
7591,22
7592,22
7593,22
7594,22
7595,21
7596,21
7597,21
7598,21
7599,21
7600,21
7601,21
7602,21
7603,21
7604,21
7605,21
7606,21
7607,21
7608,21
7609,21
7610,21
7611,21
7612,21
7613,21
7614,21
7615,21
7616,21
7617,21
7618,21
7619,21
7620,21
7621,21
7622,21
7623,21
7624,21
7625,21
7626,21
7627,21
7628,21
7629,21
7630,21
7631,21
7632,21
7633,21
7634,21
7635,21
7636,21
7637,21
7638,21
7639,21
7640,21
7641,21
7642,21
7643,21
7644,21
7645,21
7646,21
7647,21
7648,21
7649,21
7650,21
7651,21
7652,21
7653,21
7654,22
7655,21
7656,21
7657,21
7658,21
7659,21
7660,21
7661,21
7662,21
7663,21
7664,21
7665,21
7666,21
7667,21
7668,21
7669,21
7670,21
7671,21
7672,21
7673,21
7674,21
7675,21
7676,21
7677,21
7678,21
7679,21
7680,21
7681,21
7682,22
7683,22
7684,22
7685,22
7686,22
7687,22
7688,22
7689,21
7690,21
7691,21
7692,21
7693,21
7694,21
7695,21
7696,21
7697,21
7698,21
7699,21
7700,21
7701,21
7702,21
7703,21
7704,21
7705,21
7706,21
7707,21
7708,21
7709,21
7710,21
7711,21
7712,21
7713,21
7714,21
7715,21
7716,21
7717,21
7718,21
7719,21
7720,21
7721,21
7722,21
7723,21
7724,21
7725,21
7726,21
7727,21
7728,21
7729,21
7730,21
7731,21
7732,21
7733,21
7734,21
7735,21
7736,21
7737,21
7738,21
7739,21
7740,21
7741,21
7742,21
7743,21
7744,21
7745,21
7746,21
7747,21
7748,21
7749,21
7750,21
7751,21
7752,21
7753,21
7754,21
7755,21
7756,21
7757,21
7758,21
7759,21
7760,21
7761,21
7762,21
7763,21
7764,21
7765,21
7766,21
7767,21
7768,21
7769,21
7770,21
7771,21
7772,21
7773,21
7774,21
7775,21
7776,21
7777,21
7778,21
7779,21
7780,21
7781,21
7782,21
7783,21
7784,21
7785,21
7786,22
7787,21
7788,21
7789,21
7790,21
7791,21
7792,21
7793,21
7794,21
7795,21
7796,21
7797,21
7798,21
7799,21
7800,21
7801,21
7802,21
7803,21
7804,21
7805,21
7806,21
7807,21
7808,21
7809,21
7810,21
7811,21
7812,21
7813,21
7814,21
7815,21
7816,21
7817,21
7818,21
7819,21
7820,21
7821,21
7822,21
7823,21
7824,21
7825,21
7826,21
7827,21
7828,21
7829,21
7830,21
7831,21
7832,21
7833,21
7834,21
7835,21
7836,21
7837,21
7838,21
7839,21
7840,21
7841,21
7842,21
7843,21
7844,21
7845,21
7846,21
7847,21
7848,21
7849,21
7850,21
7851,21
7852,21
7853,21
7854,21
7855,21
7856,22
7857,22
7858,22
7859,22
7860,22
7861,22
7862,22
7863,22
7864,22
7865,22
7866,22
7867,22
7868,22
7869,22
7870,22
7871,22
7872,22
7873,22
7874,22
7875,22
7876,22
7877,22
7878,22
7879,22
7880,22
7881,22
7882,22
7883,22
7884,22
7885,22
7886,22
7887,22
7888,22
7889,22
7890,22
7891,22
7892,22
7893,22
7894,22
7895,22
7896,22
7897,22
7898,22
7899,22
7900,22
7901,22
7902,22
7903,22
7904,22
7905,22
7906,22
7907,22
7908,22
7909,22
7910,22
7911,22
7912,22
7913,22
7914,22
7915,22
7916,22
7917,22
7918,22
7919,22
7920,22
7921,22
7922,22
7923,22
7924,22
7925,22
7926,22
7927,22
7928,22
7929,22
7930,22
7931,22
7932,22
7933,22
7934,22
7935,22
7936,22
7937,22
7938,22
7939,22
7940,22
7941,22
7942,22
7943,22
7944,22
7945,22
7946,22
7947,22
7948,22
7949,22
7950,22
7951,22
7952,22
7953,22
7954,22
7955,22
7956,22
7957,22
7958,22
7959,22
7960,22
7961,22
7962,22
7963,22
7964,22
7965,22
7966,22
7967,22
7968,22
7969,22
7970,22
7971,22
7972,22
7973,22
7974,22
7975,22
7976,22
7977,23
7978,22
7979,22
7980,22
7981,22
7982,22
7983,22
7984,22
7985,22
7986,22
7987,22
7988,22
7989,22
7990,22
7991,22
7992,22
7993,22
7994,22
7995,22
7996,22
7997,22
7998,22
7999,22
8000,22
8001,22
8002,22
8003,22
8004,22
8005,22
8006,22
8007,22
8008,22
8009,22
8010,22
8011,22
8012,22
8013,22
8014,22
8015,22
8016,22
8017,23
8018,22
8019,22
8020,22
8021,22
8022,22
8023,22
8024,22
8025,22
8026,22
8027,22
8028,22
8029,22
8030,22
8031,22
8032,22
8033,22
8034,22
8035,22
8036,22
8037,22
8038,22
8039,22
8040,22
8041,22
8042,22
8043,22
8044,22
8045,22
8046,22
8047,22
8048,22
8049,22
8050,22
8051,22
8052,22
8053,22
8054,22
8055,22
8056,22
8057,22
8058,22
8059,22
8060,22
8061,22
8062,22
8063,22
8064,22
8065,22
8066,22
8067,22
8068,22
8069,22
8070,22
8071,23
8072,22
8073,22
8074,22
8075,22
8076,22
8077,22
8078,22
8079,22
8080,22
8081,22
8082,22
8083,22
8084,22
8085,22
8086,22
8087,22
8088,22
8089,22
8090,22
8091,22
8092,22
8093,22
8094,22
8095,22
8096,22
8097,22
8098,22
8099,22
8100,22
8101,22
8102,22
8103,22
8104,22
8105,22
8106,22
8107,22
8108,22
8109,22
8110,22
8111,22
8112,22
8113,22
8114,22
8115,22
8116,22
8117,22
8118,22
8119,22
8120,22
8121,22
8122,22
8123,22
8124,22
8125,22
8126,22
8127,22
8128,22
8129,22
8130,22
8131,22
8132,22
8133,22
8134,22
8135,22
8136,22
8137,22
8138,22
8139,22
8140,22
8141,22
8142,22
8143,23
8144,22
8145,22
8146,22
8147,22
8148,22
8149,22
8150,22
8151,22
8152,22
8153,22
8154,22
8155,22
8156,22
8157,22
8158,22
8159,22
8160,22
8161,22
8162,22
8163,22
8164,22
8165,22
8166,22
8167,22
8168,22
8169,22
8170,22
8171,22
8172,22
8173,22
8174,22
8175,22
8176,22
8177,22
8178,22
8179,22
8180,22
8181,22
8182,22
8183,22
8184,22
8185,22
8186,22
8187,22
8188,22
8189,22
8190,22
8191,22
8192,22
8193,22
8194,22
8195,22
8196,22
8197,22
8198,22
8199,22
8200,22
8201,22
8202,22
8203,22
8204,22
8205,22
8206,22
8207,22
8208,22
8209,22
8210,22
8211,22
8212,22
8213,22
8214,22
8215,22
8216,22
8217,22
8218,22
8219,22
8220,22
8221,22
8222,22
8223,22
8224,22
8225,22
8226,22
8227,22
8228,22
8229,22
8230,22
8231,22
8232,22
8233,22
8234,22
8235,22
8236,22
8237,22
8238,22
8239,22
8240,22
8241,22
8242,22
8243,22
8244,22
8245,22
8246,22
8247,22
8248,22
8249,22
8250,22
8251,22
8252,22
8253,22
8254,22
8255,22
8256,22
8257,22
8258,22
8259,22
8260,22
8261,22
8262,22
8263,22
8264,22
8265,22
8266,22
8267,22
8268,22
8269,22
8270,22
8271,22
8272,22
8273,22
8274,22
8275,22
8276,22
8277,22
8278,22
8279,22
8280,22
8281,22
8282,22
8283,22
8284,22
8285,22
8286,22
8287,22
8288,22
8289,22
8290,22
8291,22
8292,22
8293,22
8294,22
8295,22
8296,22
8297,22
8298,22
8299,22
8300,22
8301,22
8302,22
8303,22
8304,22
8305,22
8306,22
8307,22
8308,22
8309,22
8310,22
8311,22
8312,22
8313,22
8314,22
8315,22
8316,22
8317,22
8318,22
8319,22
8320,22
8321,22
8322,22
8323,22
8324,22
8325,22
8326,22
8327,22
8328,22
8329,22
8330,22
8331,22
8332,22
8333,22
8334,22
8335,22
8336,22
8337,22
8338,22
8339,22
8340,22
8341,22
8342,22
8343,22
8344,22
8345,22
8346,22
8347,22
8348,22
8349,22
8350,22
8351,22
8352,22
8353,22
8354,22
8355,22
8356,22
8357,22
8358,22
8359,22
8360,22
8361,22
8362,22
8363,22
8364,22
8365,22
8366,22
8367,22
8368,22
8369,22
8370,22
8371,22
8372,22
8373,22
8374,22
8375,22
8376,22
8377,22
8378,22
8379,22
8380,22
8381,22
8382,22
8383,22
8384,22
8385,22
8386,22
8387,22
8388,22
8389,22
8390,22
8391,22
8392,22
8393,22
8394,22
8395,22
8396,22
8397,22
8398,22
8399,22
8400,22
8401,22
8402,22
8403,22
8404,22
8405,22
8406,22
8407,22
8408,22
8409,22
8410,22
8411,22
8412,22
8413,22
8414,22
8415,22
8416,22
8417,22
8418,22
8419,22
8420,22
8421,22
8422,22
8423,22
8424,22
8425,22
8426,22
8427,22
8428,22
8429,22
8430,22
8431,22
8432,22
8433,22
8434,22
8435,22
8436,22
8437,22
8438,22
8439,22
8440,22
8441,22
8442,22
8443,22
8444,22
8445,22
8446,22
8447,22
8448,22
8449,22
8450,22
8451,22
8452,22
8453,22
8454,22
8455,22
8456,22
8457,22
8458,23
8459,22
8460,22
8461,22
8462,22
8463,22
8464,22
8465,22
8466,22
8467,22
8468,22
8469,22
8470,22
8471,22
8472,22
8473,22
8474,22
8475,22
8476,22
8477,22
8478,22
8479,22
8480,22
8481,22
8482,22
8483,22
8484,22
8485,22
8486,22
8487,22
8488,22
8489,22
8490,23
8491,22
8492,22
8493,22
8494,22
8495,22
8496,22
8497,22
8498,22
8499,22
8500,22
8501,22
8502,22
8503,22
8504,22
8505,22
8506,22
8507,22
8508,22
8509,22
8510,22
8511,22
8512,22
8513,22
8514,22
8515,22
8516,22
8517,22
8518,22
8519,22
8520,22
8521,22
8522,22
8523,22
8524,22
8525,22
8526,22
8527,22
8528,22
8529,23
8530,22
8531,22
8532,22
8533,22
8534,22
8535,22
8536,23
8537,23
8538,23
8539,23
8540,23
8541,23
8542,23
8543,23
8544,23
8545,23
8546,22
8547,22
8548,22
8549,22
8550,22
8551,22
8552,22
8553,22
8554,22
8555,22
8556,22
8557,22
8558,22
8559,22
8560,22
8561,22
8562,22
8563,22
8564,22
8565,22
8566,22
8567,22
8568,22
8569,22
8570,22
8571,22
8572,22
8573,22
8574,22
8575,22
8576,22
8577,22
8578,22
8579,22
8580,22
8581,22
8582,22
8583,23
8584,22
8585,22
8586,22
8587,22
8588,22
8589,22
8590,22
8591,22
8592,22
8593,22
8594,22
8595,22
8596,22
8597,22
8598,22
8599,22
8600,22
8601,22
8602,22
8603,22
8604,22
8605,22
8606,22
8607,22
8608,22
8609,22
8610,22
8611,22
8612,22
8613,22
8614,22
8615,22
8616,22
8617,22
8618,22
8619,22
8620,22
8621,22
8622,22
8623,22
8624,22
8625,22
8626,22
8627,22
8628,22
8629,23
8630,23
8631,23
8632,23
8633,23
8634,23
8635,22
8636,22
8637,22
8638,22
8639,22
8640,22
8641,22
8642,22
8643,22
8644,22
8645,22
8646,22
8647,22
8648,22
8649,22
8650,22
8651,22
8652,22
8653,22
8654,22
8655,22
8656,22
8657,22
8658,22
8659,22
8660,22
8661,22
8662,22
8663,22
8664,22
8665,22
8666,22
8667,22
8668,22
8669,23
8670,23
8671,22
8672,22
8673,22
8674,22
8675,22
8676,22
8677,22
8678,22
8679,22
8680,22
8681,22
8682,22
8683,22
8684,22
8685,22
8686,22
8687,22
8688,22
8689,22
8690,22
8691,22
8692,22
8693,22
8694,22
8695,22
8696,22
8697,22
8698,22
8699,22
8700,23
8701,22
8702,22
8703,22
8704,22
8705,22
8706,22
8707,22
8708,22
8709,22
8710,22
8711,22
8712,22
8713,22
8714,22
8715,22
8716,22
8717,22
8718,22
8719,22
8720,22
8721,22
8722,22
8723,22
8724,22
8725,22
8726,22
8727,22
8728,22
8729,22
8730,22
8731,22
8732,22
8733,22
8734,22
8735,22
8736,22
8737,22
8738,22
8739,22
8740,22
8741,22
8742,22
8743,22
8744,22
8745,22
8746,22
8747,22
8748,22
8749,22
8750,22
8751,22
8752,22
8753,22
8754,22
8755,22
8756,22
8757,22
8758,22
8759,22
8760,22
8761,22
8762,22
8763,22
8764,22
8765,22
8766,22
8767,22
8768,22
8769,22
8770,22
8771,22
8772,22
8773,22
8774,22
8775,22
8776,22
8777,22
8778,22
8779,22
8780,22
8781,22
8782,22
8783,22
8784,23
8785,23
8786,23
8787,23
8788,23
8789,23
8790,23
8791,23
8792,23
8793,22
8794,22
8795,22
8796,22
8797,22
8798,22
8799,22
8800,22
8801,22
8802,22
8803,22
8804,22
8805,22
8806,22
8807,22
8808,22
8809,22
8810,22
8811,22
8812,22
8813,22
8814,22
8815,22
8816,22
8817,22
8818,22
8819,22
8820,22
8821,22
8822,22
8823,22
8824,22
8825,22
8826,22
8827,22
8828,22
8829,22
8830,22
8831,22
8832,22
8833,22
8834,22
8835,22
8836,22
8837,22
8838,22
8839,22
8840,22
8841,22
8842,22
8843,22
8844,22
8845,22
8846,22
8847,22
8848,22
8849,22
8850,22
8851,22
8852,22
8853,22
8854,22
8855,22
8856,22
8857,22
8858,22
8859,22
8860,22
8861,22
8862,22
8863,22
8864,22
8865,22
8866,22
8867,22
8868,22
8869,22
8870,22
8871,22
8872,22
8873,22
8874,22
8875,22
8876,22
8877,22
8878,22
8879,22
8880,22
8881,22
8882,22
8883,22
8884,22
8885,22
8886,22
8887,22
8888,22
8889,22
8890,22
8891,22
8892,22
8893,22
8894,22
8895,22
8896,22
8897,22
8898,22
8899,22
8900,22
8901,22
8902,22
8903,22
8904,22
8905,22
8906,22
8907,22
8908,22
8909,22
8910,22
8911,22
8912,22
8913,22
8914,22
8915,22
8916,22
8917,22
8918,22
8919,22
8920,22
8921,22
8922,22
8923,22
8924,22
8925,23
8926,23
8927,22
8928,22
8929,22
8930,22
8931,22
8932,22
8933,22
8934,22
8935,22
8936,22
8937,22
8938,22
8939,22
8940,22
8941,22
8942,22
8943,22
8944,22
8945,22
8946,22
8947,22
8948,22
8949,22
8950,22
8951,22
8952,22
8953,22
8954,22
8955,22
8956,22
8957,22
8958,22
8959,22
8960,22
8961,22
8962,22
8963,22
8964,22
8965,22
8966,22
8967,22
8968,22
8969,22
8970,22
8971,22
8972,22
8973,22
8974,22
8975,22
8976,22
8977,22
8978,22
8979,22
8980,22
8981,22
8982,22
8983,22
8984,22
8985,22
8986,22
8987,22
8988,22
8989,22
8990,22
8991,22
8992,22
8993,22
8994,22
8995,22
8996,22
8997,22
8998,22
8999,22
9000,22
9001,22
9002,22
9003,22
9004,22
9005,22
9006,22
9007,22
9008,22
9009,22
9010,22
9011,22
9012,22
9013,22
9014,22
9015,22
9016,22
9017,22
9018,22
9019,22
9020,22
9021,22
9022,22
9023,22
9024,22
9025,22
9026,22
9027,22
9028,22
9029,22
9030,22
9031,22
9032,22
9033,22
9034,22
9035,22
9036,22
9037,22
9038,22
9039,22
9040,22
9041,22
9042,22
9043,22
9044,22
9045,22
9046,22
9047,22
9048,22
9049,22
9050,22
9051,22
9052,22
9053,22
9054,22
9055,22
9056,22
9057,22
9058,22
9059,23
9060,22
9061,22
9062,22
9063,22
9064,22
9065,22
9066,22
9067,22
9068,22
9069,22
9070,22
9071,22
9072,22
9073,22
9074,22
9075,22
9076,22
9077,22
9078,22
9079,22
9080,22
9081,22
9082,22
9083,22
9084,22
9085,22
9086,22
9087,22
9088,22
9089,22
9090,22
9091,22
9092,22
9093,22
9094,22
9095,22
9096,23
9097,23
9098,23
9099,23
9100,23
9101,23
9102,23
9103,23
9104,22
9105,22
9106,22
9107,22
9108,23
9109,23
9110,23
9111,22
9112,22
9113,22
9114,22
9115,22
9116,22
9117,22
9118,22
9119,22
9120,22
9121,22
9122,22
9123,22
9124,22
9125,22
9126,22
9127,22
9128,22
9129,22
9130,22
9131,22
9132,22
9133,22
9134,22
9135,22
9136,22
9137,22
9138,22
9139,22
9140,23
9141,23
9142,22
9143,22
9144,22
9145,22
9146,22
9147,22
9148,22
9149,22
9150,22
9151,22
9152,22
9153,22
9154,22
9155,22
9156,22
9157,22
9158,22
9159,22
9160,22
9161,22
9162,22
9163,22
9164,22
9165,22
9166,22
9167,22
9168,22
9169,22
9170,22
9171,22
9172,22
9173,22
9174,22
9175,22
9176,22
9177,22
9178,22
9179,22
9180,22
9181,22
9182,22
9183,22
9184,22
9185,22
9186,23
9187,22
9188,22
9189,22
9190,22
9191,22
9192,22
9193,22
9194,22
9195,22
9196,22
9197,22
9198,22
9199,22
9200,22
9201,22
9202,22
9203,22
9204,23
9205,23
9206,22
9207,22
9208,23
9209,22
9210,22
9211,22
9212,22
9213,22
9214,22
9215,22
9216,22
9217,22
9218,22
9219,22
9220,22
9221,22
9222,22
9223,22
9224,22
9225,22
9226,22
9227,22
9228,22
9229,22
9230,22
9231,22
9232,22
9233,22
9234,22
9235,22
9236,22
9237,22
9238,22
9239,22
9240,22
9241,22
9242,22
9243,22
9244,22
9245,22
9246,22
9247,22
9248,22
9249,22
9250,22
9251,22
9252,22
9253,22
9254,22
9255,22
9256,22
9257,22
9258,22
9259,23
9260,23
9261,23
9262,23
9263,23
9264,23
9265,23
9266,23
9267,23
9268,23
9269,23
9270,23
9271,23
9272,23
9273,23
9274,23
9275,23
9276,23
9277,23
9278,23
9279,23
9280,23
9281,23
9282,23
9283,23
9284,23
9285,23
9286,23
9287,23
9288,23
9289,23
9290,23
9291,23
9292,23
9293,23
9294,23
9295,23
9296,23
9297,23
9298,23
9299,23
9300,23
9301,23
9302,23
9303,23
9304,23
9305,23
9306,23
9307,23
9308,23
9309,23
9310,23
9311,23
9312,23
9313,23
9314,23
9315,23
9316,23
9317,23
9318,23
9319,23
9320,23
9321,23
9322,23
9323,23
9324,23
9325,23
9326,23
9327,23
9328,23
9329,23
9330,23
9331,23
9332,23
9333,23
9334,23
9335,23
9336,23
9337,23
9338,23
9339,23
9340,23
9341,23
9342,23
9343,23
9344,23
9345,23
9346,23
9347,23
9348,23
9349,23
9350,23
9351,23
9352,23
9353,23
9354,23
9355,23
9356,23
9357,23
9358,23
9359,23
9360,23
9361,23
9362,23
9363,23
9364,23
9365,23
9366,23
9367,23
9368,23
9369,23
9370,23
9371,23
9372,23
9373,23
9374,23
9375,23
9376,23
9377,23
9378,23
9379,23
9380,23
9381,23
9382,23
9383,23
9384,23
9385,23
9386,23
9387,23
9388,23
9389,23
9390,23
9391,23
9392,23
9393,23
9394,23
9395,23
9396,23
9397,23
9398,23
9399,23
9400,23
9401,23
9402,23
9403,23
9404,23
9405,23
9406,23
9407,23
9408,23
9409,23
9410,23
9411,23
9412,23
9413,23
9414,23
9415,23
9416,23
9417,23
9418,23
9419,23
9420,23
9421,23
9422,23
9423,23
9424,23
9425,23
9426,23
9427,24
9428,24
9429,24
9430,23
9431,23
9432,23
9433,23
9434,23
9435,23
9436,23
9437,23
9438,23
9439,23
9440,23
9441,23
9442,23
9443,23
9444,23
9445,23
9446,23
9447,23
9448,23
9449,23
9450,23
9451,23
9452,23
9453,23
9454,23
9455,23
9456,23
9457,23
9458,23
9459,23
9460,23
9461,23
9462,23
9463,23
9464,23
9465,23
9466,23
9467,23
9468,23
9469,23
9470,23
9471,23
9472,23
9473,23
9474,23
9475,23
9476,23
9477,23
9478,23
9479,23
9480,23
9481,23
9482,23
9483,23
9484,23
9485,23
9486,23
9487,23
9488,24
9489,23
9490,23
9491,23
9492,23
9493,23
9494,23
9495,23
9496,23
9497,23
9498,23
9499,23
9500,23
9501,23
9502,23
9503,23
9504,23
9505,23
9506,23
9507,23
9508,23
9509,23
9510,23
9511,23
9512,23
9513,23
9514,23
9515,23
9516,23
9517,23
9518,23
9519,23
9520,23
9521,23
9522,23
9523,23
9524,23
9525,23
9526,23
9527,23
9528,23
9529,23
9530,23
9531,23
9532,23
9533,23
9534,23
9535,23
9536,23
9537,23
9538,23
9539,23
9540,23
9541,23
9542,23
9543,23
9544,23
9545,23
9546,23
9547,23
9548,23
9549,23
9550,23
9551,23
9552,23
9553,23
9554,23
9555,23
9556,23
9557,23
9558,23
9559,23
9560,23
9561,23
9562,23
9563,23
9564,23
9565,23
9566,23
9567,23
9568,23
9569,23
9570,23
9571,23
9572,23
9573,23
9574,23
9575,23
9576,23
9577,23
9578,23
9579,23
9580,23
9581,23
9582,23
9583,23
9584,23
9585,23
9586,23
9587,23
9588,23
9589,23
9590,23
9591,23
9592,23
9593,23
9594,23
9595,23
9596,23
9597,23
9598,23
9599,23
9600,23
9601,23
9602,23
9603,23
9604,23
9605,23
9606,23
9607,23
9608,23
9609,23
9610,23
9611,23
9612,23
9613,23
9614,23
9615,23
9616,23
9617,23
9618,23
9619,23
9620,23
9621,23
9622,23
9623,23
9624,23
9625,23
9626,23
9627,24
9628,24
9629,25
9630,24
9631,24
9632,23
9633,23
9634,23
9635,24
9636,24
9637,24
9638,24
9639,24
9640,24
9641,25
9642,24
9643,24
9644,24
9645,24
9646,25
9647,25
9648,25
9649,25
9650,25
9651,25
9652,26
9653,25
9654,25
9655,25
9656,25
9657,25
9658,25
9659,25
9660,25
9661,25
9662,25
9663,25
9664,24
9665,24
9666,24
9667,24
9668,24
9669,24
9670,24
9671,24
9672,24
9673,24
9674,24
9675,24
9676,24
9677,24
9678,24
9679,24
9680,24
9681,24
9682,24
9683,24
9684,24
9685,24
9686,24
9687,24
9688,24
9689,24
9690,24
9691,24
9692,24
9693,24
9694,24
9695,24
9696,24
9697,24
9698,24
9699,24
9700,24
9701,24
9702,24
9703,24
9704,24
9705,24
9706,24
9707,24
9708,24
9709,24
9710,24
9711,24
9712,24
9713,24
9714,24
9715,24
9716,24
9717,24
9718,24
9719,24
9720,24
9721,24
9722,24
9723,24
9724,24
9725,24
9726,24
9727,24
9728,24
9729,24
9730,24
9731,24
9732,24
9733,24
9734,24
9735,24
9736,24
9737,24
9738,24
9739,24
9740,24
9741,24
9742,24
9743,24
9744,24
9745,24
9746,24
9747,24
9748,24
9749,24
9750,24
9751,24
9752,24
9753,24
9754,24
9755,24
9756,24
9757,24
9758,24
9759,24
9760,24
9761,24
9762,24
9763,24
9764,24
9765,24
9766,24
9767,24
9768,24
9769,24
9770,24
9771,24
9772,24
9773,24
9774,24
9775,24
9776,24
9777,24
9778,24
9779,24
9780,24
9781,24
9782,24
9783,24
9784,24
9785,24
9786,24
9787,24
9788,24
9789,24
9790,24
9791,24
9792,24
9793,24
9794,24
9795,24
9796,24
9797,24
9798,24
9799,24
9800,24
9801,24
9802,24
9803,24
9804,24
9805,24
9806,24
9807,24
9808,24
9809,24
9810,24
9811,24
9812,24
9813,24
9814,24
9815,24
9816,24
9817,24
9818,24
9819,24
9820,24
9821,24
9822,24
9823,24
9824,24
9825,24
9826,24
9827,24
9828,24
9829,24
9830,24
9831,24
9832,24
9833,24
9834,24
9835,24
9836,24
9837,24
9838,24
9839,24
9840,24
9841,24
9842,24
9843,24
9844,24
9845,24
9846,24
9847,24
9848,24
9849,24
9850,24
9851,24
9852,24
9853,24
9854,24
9855,24
9856,24
9857,24
9858,24
9859,24
9860,24
9861,24
9862,24
9863,24
9864,24
9865,24
9866,24
9867,24
9868,24
9869,24
9870,24
9871,24
9872,24
9873,24
9874,24
9875,24
9876,24
9877,24
9878,24
9879,24
9880,24
9881,24
9882,24
9883,24
9884,24
9885,24
9886,24
9887,24
9888,24
9889,24
9890,24
9891,24
9892,24
9893,24
9894,24
9895,24
9896,24
9897,24
9898,24
9899,24
9900,24
9901,25
9902,25
9903,25
9904,24
9905,24
9906,24
9907,24
9908,24
9909,24
9910,24
9911,24
9912,24
9913,24
9914,24
9915,24
9916,24
9917,24
9918,24
9919,24
9920,24
9921,24
9922,24
9923,25
9924,25
9925,24
9926,24
9927,24
9928,24
9929,24
9930,24
9931,24
9932,24
9933,24
9934,24
9935,24
9936,24
9937,24
9938,24
9939,24
9940,24
9941,24
9942,24
9943,24
9944,24
9945,24
9946,24
9947,24
9948,24
9949,24
9950,24
9951,24
9952,24
9953,24
9954,24
9955,24
9956,24
9957,24
9958,24
9959,24
9960,24
9961,24
9962,24
9963,24
9964,24
9965,24
9966,24
9967,24
9968,24
9969,24
9970,24
9971,24
9972,24
9973,24
9974,24
9975,24
9976,24
9977,24
9978,24
9979,24
9980,24
9981,24
9982,24
9983,24
9984,24
9985,24
9986,24
9987,24
9988,24
9989,24
9990,24
9991,24
9992,24
9993,24
9994,24
9995,24
9996,24
9997,24
9998,24
9999,24
10000,24
