1,3
2,3
3,3
4,3
5,3
6,3
7,3
8,3
9,3
10,3
11,3
12,3
13,3
14,3
15,3
16,3
17,3
18,3
19,3
20,3
21,3
22,3
23,3
24,3
25,3
26,3
27,3
28,3
29,3
30,3
31,3
32,3
33,3
34,3
35,3
36,3
37,3
38,3
39,3
40,3
41,3
42,3
43,3
44,3
45,3
46,3
47,3
48,3
49,3
50,3
51,3
52,3
53,3
54,3
55,3
56,3
57,3
58,3
59,3
60,3
61,3
62,3
63,3
64,3
65,3
66,3
67,3
68,3
69,3
70,3
71,3
72,3
73,3
74,3
75,3
76,3
77,3
78,3
79,3
80,3
81,3
82,3
83,3
84,3
85,3
86,3
87,3
88,3
89,3
90,3
91,3
92,3
93,3
94,3
95,3
96,3
97,3
98,3
99,3
100,3
101,3
102,3
103,3
104,3
105,3
106,3
107,3
108,3
109,3
110,3
111,3
112,3
113,3
114,3
115,3
116,3
117,3
118,3
119,3
120,3
121,3
122,3
123,3
124,3
125,3
126,3
127,3
128,3
129,3
130,3
131,3
132,3
133,3
134,3
135,3
136,3
137,3
138,3
139,3
140,3
141,3
142,3
143,3
144,3
145,3
146,3
147,3
148,3
149,3
150,3
151,3
152,3
153,3
154,3
155,3
156,3
157,3
158,3
159,3
160,3
161,3
162,3
163,3
164,3
165,3
166,3
167,3
168,3
169,3
170,3
171,3
172,3
173,3
174,3
175,3
176,3
177,3
178,3
179,3
180,3
181,3
182,3
183,3
184,3
185,3
186,3
187,3
188,3
189,3
190,3
191,3
192,3
193,3
194,3
195,3
196,3
197,3
198,3
199,3
200,3
201,4
202,3
203,3
204,3
205,3
206,3
207,3
208,3
209,3
210,3
211,3
212,3
213,3
214,3
215,3
216,3
217,3
218,3
219,3
220,3
221,3
222,3
223,3
224,3
225,3
226,3
227,3
228,3
229,3
230,3
231,3
232,3
233,3
234,3
235,3
236,3
237,3
238,3
239,3
240,3
241,3
242,3
243,3
244,3
245,3
246,3
247,3
248,3
249,3
250,3
251,3
252,3
253,3
254,3
255,3
256,3
257,3
258,3
259,3
260,3
261,3
262,3
263,3
264,3
265,3
266,3
267,3
268,3
269,3
270,3
271,3
272,3
273,3
274,3
275,3
276,3
277,3
278,3
279,3
280,3
281,3
282,3
283,3
284,3
285,3
286,3
287,3
288,3
289,3
290,3
291,3
292,3
293,3
294,3
295,3
296,3
297,3
298,3
299,3
300,3
301,3
302,3
303,3
304,3
305,3
306,3
307,3
308,3
309,3
310,3
311,3
312,3
313,3
314,3
315,3
316,3
317,3
318,3
319,3
320,3
321,3
322,3
323,3
324,3
325,3
326,3
327,3
328,3
329,3
330,3
331,3
332,3
333,3
334,3
335,3
336,3
337,3
338,3
339,3
340,3
341,3
342,3
343,4
344,4
345,4
346,4
347,4
348,4
349,5
350,5
351,5
352,5
353,5
354,5
355,5
356,5
357,5
358,6
359,6
360,6
361,6
362,6
363,6
364,6
365,6
366,6
367,6
368,6
369,6
370,6
371,6
372,6
373,6
374,6
375,6
376,6
377,6
378,6
379,6
380,6
381,6
382,6
383,6
384,6
385,6
386,6
387,6
388,6
389,6
390,6
391,6
392,6
393,6
394,6
395,6
396,6
397,6
398,6
399,6
400,6
401,7
402,7
403,7
404,7
405,7
406,7
407,7
408,7
409,7
410,7
411,7
412,7
413,7
414,7
415,7
416,7
417,7
418,7
419,7
420,7
421,7
422,7
423,7
424,7
425,7
426,7
427,7
428,7
429,7
430,7
431,7
432,7
433,7
434,7
435,7
436,7
437,7
438,7
439,7
440,7
441,8
442,7
443,7
444,7
445,7
446,7
447,7
448,7
449,7
450,7
451,7
452,7
453,7
454,7
455,7
456,7
457,7
458,7
459,7
460,7
461,7
462,7
463,7
464,7
465,7
466,7
467,7
468,7
469,7
470,7
471,7
472,7
473,7
474,7
475,7
476,7
477,7
478,7
479,7
480,7
481,7
482,7
483,7
484,7
485,7
486,7
487,7
488,7
489,7
490,7
491,7
492,7
493,7
494,7
495,7
496,7
497,7
498,7
499,7
500,7
501,7
502,7
503,7
504,7
505,7
506,7
507,7
508,7
509,7
510,7
511,7
512,7
513,7
514,7
515,7
516,7
517,7
518,7
519,7
520,7
521,7
522,7
523,7
524,7
525,7
526,7
527,7
528,7
529,7
530,7
531,7
532,7
533,7
534,7
535,7
536,7
537,7
538,7
539,7
540,7
541,7
542,7
543,7
544,7
545,7
546,7
547,7
548,7
549,7
550,7
551,7
552,7
553,7
554,7
555,7
556,7
557,7
558,7
559,7
560,7
561,7
562,7
563,7
564,7
565,7
566,7
567,7
568,7
569,7
570,7
571,7
572,7
573,7
574,7
575,7
576,7
577,7
578,7
579,7
580,7
581,7
582,7
583,7
584,7
585,7
586,7
587,7
588,7
589,7
590,7
591,7
592,7
593,7
594,7
595,7
596,7
597,7
598,7
599,7
600,7
601,7
602,7
603,7
604,7
605,7
606,7
607,7
608,7
609,7
610,7
611,7
612,7
613,7
614,7
615,7
616,7
617,7
618,7
619,7
620,7
621,7
622,7
623,7
624,7
625,7
626,7
627,7
628,7
629,7
630,7
631,7
632,7
633,7
634,7
635,7
636,7
637,7
638,7
639,7
640,7
641,7
642,7
643,7
644,7
645,7
646,7
647,7
648,7
649,7
650,7
651,7
652,7
653,7
654,7
655,7
656,7
657,7
658,7
659,7
660,7
661,7
662,7
663,7
664,7
665,7
666,7
667,7
668,7
669,7
670,7
671,7
672,7
673,7
674,7
675,7
676,7
677,7
678,7
679,7
680,7
681,7
682,8
683,8
684,8
685,8
686,8
687,8
688,8
689,8
690,8
691,8
692,8
693,8
694,8
695,8
696,8
697,8
698,8
699,8
700,8
701,8
702,8
703,8
704,8
705,8
706,8
707,8
708,8
709,8
710,8
711,8
712,8
713,8
714,8
715,8
716,8
717,8
718,8
719,8
720,8
721,8
722,8
723,8
724,8
725,8
726,8
727,8
728,8
729,8
730,8
731,8
732,8
733,8
734,8
735,8
736,8
737,8
738,8
739,8
740,8
741,8
742,8
743,8
744,9
745,9
746,8
747,8
748,8
749,8
750,8
751,8
752,8
753,8
754,8
755,8
756,8
757,8
758,8
759,8
760,8
761,8
762,8
763,8
764,8
765,8
766,8
767,8
768,8
769,8
770,8
771,8
772,8
773,8
774,8
775,8
776,8
777,8
778,8
779,8
780,8
781,8
782,8
783,8
784,8
785,8
786,8
787,8
788,8
789,8
790,8
791,8
792,8
793,8
794,8
795,8
796,8
797,8
798,8
799,8
800,8
801,8
802,8
803,8
804,8
805,8
806,8
807,8
808,8
809,8
810,8
811,8
812,8
813,9
814,8
815,8
816,8
817,8
818,8
819,8
820,8
821,8
822,8
823,8
824,8
825,8
826,8
827,8
828,8
829,8
830,8
831,8
832,8
833,8
834,8
835,8
836,8
837,8
838,8
839,8
840,8
841,8
842,8
843,8
844,8
845,8
846,8
847,8
848,8
849,8
850,8
851,8
852,8
853,8
854,8
855,8
856,8
857,8
858,8
859,8
860,8
861,8
862,8
863,9
864,9
865,9
866,9
867,9
868,8
869,8
870,8
871,8
872,8
873,8
874,8
875,8
876,8
877,8
878,8
879,8
880,8
881,8
882,8
883,8
884,8
885,8
886,8
887,8
888,8
889,8
890,8
891,8
892,8
893,8
894,8
895,8
896,8
897,8
898,8
899,8
900,8
901,8
902,8
903,8
904,8
905,8
906,8
907,8
908,8
909,8
910,8
911,8
912,8
913,8
914,8
915,8
916,9
917,9
918,8
919,8
920,8
921,8
922,8
923,8
924,8
925,8
926,8
927,8
928,8
929,8
930,8
931,8
932,8
933,8
934,8
935,8
936,8
937,8
938,8
939,8
940,8
941,8
942,8
943,8
944,8
945,8
946,8
947,8
948,8
949,8
950,8
951,8
952,8
953,8
954,8
955,8
956,8
957,8
958,8
959,8
960,8
961,8
962,8
963,8
964,8
965,8
966,8
967,8
968,8
969,8
970,8
971,8
972,8
973,8
974,8
975,8
976,8
977,8
978,8
979,8
980,8
981,8
982,8
983,8
984,8
985,8
986,8
987,8
988,8
989,8
990,8
991,8
992,8
993,8
994,8
995,8
996,8
997,8
998,8
999,8
1000,8
1001,8
1002,8
1003,8
1004,8
1005,8
1006,8
1007,8
1008,8
1009,8
1010,8
1011,8
1012,8
1013,9
1014,9
1015,8
1016,8
1017,8
1018,8
1019,8
1020,8
1021,8
1022,8
1023,8
1024,8
1025,8
1026,8
1027,8
1028,8
1029,8
1030,8
1031,8
1032,8
1033,8
1034,8
1035,8
1036,8
1037,8
1038,8
1039,8
1040,8
1041,8
1042,8
1043,8
1044,8
1045,8
1046,8
1047,8
1048,8
1049,8
1050,8
1051,8
1052,8
1053,8
1054,8
1055,8
1056,8
1057,8
1058,8
1059,8
1060,8
1061,8
1062,8
1063,8
1064,8
1065,8
1066,8
1067,8
1068,8
1069,8
1070,8
1071,8
1072,8
1073,8
1074,8
1075,8
1076,8
1077,8
1078,8
1079,8
1080,8
1081,8
1082,8
1083,8
1084,8
1085,8
1086,8
1087,8
1088,8
1089,8
1090,8
1091,8
1092,8
1093,8
1094,8
1095,8
1096,8
1097,8
1098,8
1099,8
1100,8
1101,8
1102,8
1103,8
1104,8
1105,8
1106,8
1107,8
1108,8
1109,8
1110,8
1111,8
1112,8
1113,8
1114,8
1115,8
1116,8
1117,8
1118,8
1119,8
1120,8
1121,8
1122,8
1123,8
1124,8
1125,8
1126,8
1127,8
1128,8
1129,8
1130,8
1131,8
1132,8
1133,8
1134,8
1135,8
1136,8
1137,8
1138,8
1139,8
1140,8
1141,8
1142,8
1143,8
1144,8
1145,8
1146,8
1147,8
1148,8
1149,8
1150,8
1151,8
1152,8
1153,8
1154,8
1155,8
1156,8
1157,8
1158,8
1159,8
1160,8
1161,8
1162,8
1163,8
1164,8
1165,8
1166,8
1167,8
1168,8
1169,8
1170,8
1171,8
1172,8
1173,8
1174,8
1175,8
1176,8
1177,8
1178,8
1179,8
1180,8
1181,8
1182,8
1183,8
1184,8
1185,8
1186,8
1187,8
1188,8
1189,8
1190,8
1191,8
1192,8
1193,8
1194,8
1195,8
1196,8
1197,8
1198,8
1199,8
1200,8
1201,8
1202,8
1203,8
1204,8
1205,8
1206,8
1207,8
1208,8
1209,8
1210,8
1211,8
1212,8
1213,8
1214,8
1215,8
1216,8
1217,8
1218,8
1219,8
1220,8
1221,8
1222,8
1223,9
1224,9
1225,9
1226,9
1227,9
1228,9
1229,9
1230,9
1231,9
1232,9
1233,9
1234,9
1235,9
1236,9
1237,9
1238,9
1239,9
1240,9
1241,9
1242,9
1243,9
1244,9
1245,9
1246,9
1247,9
1248,9
1249,10
1250,9
1251,9
1252,9
1253,9
1254,9
1255,9
1256,9
1257,9
1258,9
1259,9
1260,9
1261,9
1262,9
1263,9
1264,9
1265,10
1266,10
1267,10
1268,10
1269,9
1270,9
1271,9
1272,9
1273,9
1274,9
1275,9
1276,9
1277,9
1278,9
1279,9
1280,9
1281,9
1282,9
1283,9
1284,9
1285,9
1286,9
1287,9
1288,9
1289,9
1290,9
1291,9
1292,9
1293,9
1294,9
1295,9
1296,9
1297,9
1298,9
1299,9
1300,9
1301,9
1302,9
1303,9
1304,9
1305,9
1306,9
1307,9
1308,9
1309,9
1310,9
1311,9
1312,9
1313,9
1314,9
1315,9
1316,9
1317,9
1318,9
1319,9
1320,9
1321,9
1322,9
1323,9
1324,9
1325,9
1326,9
1327,9
1328,9
1329,9
1330,9
1331,9
1332,9
1333,9
1334,9
1335,9
1336,9
1337,9
1338,9
1339,9
1340,9
1341,9
1342,9
1343,9
1344,9
1345,9
1346,9
1347,9
1348,9
1349,9
1350,9
1351,9
1352,9
1353,9
1354,9
1355,9
1356,9
1357,9
1358,9
1359,9
1360,9
1361,9
1362,9
1363,9
1364,9
1365,9
1366,9
1367,9
1368,9
1369,9
1370,9
1371,9
1372,9
1373,9
1374,9
1375,9
1376,9
1377,9
1378,9
1379,9
1380,9
1381,9
1382,9
1383,9
1384,9
1385,9
1386,9
1387,9
1388,9
1389,9
1390,9
1391,9
1392,9
1393,9
1394,9
1395,9
1396,9
1397,9
1398,9
1399,9
1400,9
1401,9
1402,9
1403,9
1404,9
1405,9
1406,9
1407,9
1408,9
1409,9
1410,9
1411,9
1412,9
1413,9
1414,9
1415,9
1416,9
1417,9
1418,9
1419,10
1420,10
1421,11
1422,11
1423,11
1424,11
1425,11
1426,11
1427,11
1428,11
1429,12
1430,12
1431,11
1432,11
1433,11
1434,11
1435,11
1436,11
1437,11
1438,11
1439,11
1440,11
1441,11
1442,11
1443,11
1444,11
1445,11
1446,11
1447,11
1448,11
1449,11
1450,11
1451,11
1452,11
1453,11
1454,11
1455,11
1456,11
1457,11
1458,11
1459,11
1460,11
1461,11
1462,11
1463,11
1464,11
1465,11
1466,11
1467,11
1468,11
1469,11
1470,11
1471,11
1472,11
1473,11
1474,11
1475,11
1476,11
1477,11
1478,11
1479,12
1480,12
1481,12
1482,12
1483,12
1484,12
1485,12
1486,12
1487,12
1488,12
1489,12
1490,11
1491,11
1492,11
1493,11
1494,11
1495,11
1496,11
1497,11
1498,11
1499,11
1500,11
1501,11
1502,11
1503,11
1504,11
1505,11
1506,11
1507,11
1508,11
1509,11
1510,11
1511,11
1512,11
1513,11
1514,11
1515,11
1516,11
1517,11
1518,11
1519,11
1520,11
1521,11
1522,11
1523,11
1524,11
1525,11
1526,11
1527,11
1528,11
1529,11
1530,11
1531,11
1532,11
1533,11
1534,11
1535,11
1536,11
1537,11
1538,11
1539,11
1540,11
1541,11
1542,11
1543,11
1544,11
1545,11
1546,11
1547,11
1548,11
1549,11
1550,11
1551,11
1552,12
1553,11
1554,11
1555,12
1556,12
1557,12
1558,11
1559,11
1560,11
1561,11
1562,11
1563,11
1564,11
1565,11
1566,11
1567,11
1568,11
1569,11
1570,11
1571,11
1572,11
1573,11
1574,11
1575,11
1576,11
1577,11
1578,11
1579,11
1580,11
1581,11
1582,11
1583,11
1584,11
1585,11
1586,12
1587,12
1588,12
1589,12
1590,12
1591,12
1592,12
1593,11
1594,11
1595,11
1596,12
1597,11
1598,11
1599,11
1600,11
1601,11
1602,11
1603,11
1604,11
1605,11
1606,11
1607,11
1608,11
1609,11
1610,11
1611,11
1612,11
1613,11
1614,11
1615,11
1616,11
1617,11
1618,11
1619,11
1620,11
1621,11
1622,11
1623,11
1624,11
1625,11
1626,11
1627,11
1628,11
1629,11
1630,11
1631,11
1632,11
1633,11
1634,11
1635,11
1636,11
1637,11
1638,11
1639,11
1640,11
1641,11
1642,11
1643,11
1644,11
1645,11
1646,11
1647,11
1648,11
1649,11
1650,11
1651,11
1652,11
1653,11
1654,11
1655,11
1656,11
1657,11
1658,11
1659,11
1660,11
1661,11
1662,11
1663,11
1664,12
1665,12
1666,12
1667,12
1668,12
1669,12
1670,12
1671,12
1672,12
1673,13
1674,12
1675,12
1676,12
1677,12
1678,12
1679,11
1680,11
1681,11
1682,11
1683,11
1684,11
1685,11
1686,11
1687,11
1688,11
1689,11
1690,11
1691,11
1692,11
1693,11
1694,11
1695,11
1696,11
1697,11
1698,11
1699,11
1700,11
1701,11
1702,11
1703,11
1704,11
1705,11
1706,11
1707,11
1708,12
1709,11
1710,11
1711,11
1712,11
1713,11
1714,11
1715,11
1716,11
1717,11
1718,11
1719,11
1720,11
1721,11
1722,11
1723,11
1724,11
1725,11
1726,11
1727,11
1728,11
1729,11
1730,11
1731,11
1732,11
1733,11
1734,11
1735,11
1736,11
1737,11
1738,11
1739,11
1740,11
1741,11
1742,11
1743,11
1744,11
1745,11
1746,11
1747,11
1748,11
1749,11
1750,11
1751,11
1752,11
1753,11
1754,11
1755,11
1756,11
1757,11
1758,11
1759,11
1760,11
1761,11
1762,11
1763,11
1764,11
1765,11
1766,11
1767,11
1768,11
1769,11
1770,11
1771,11
1772,12
1773,12
1774,12
1775,13
1776,12
1777,12
1778,12
1779,12
1780,12
1781,12
1782,12
1783,12
1784,12
1785,12
1786,12
1787,12
1788,11
1789,11
1790,11
1791,11
1792,11
1793,11
1794,11
1795,11
1796,11
1797,11
1798,11
1799,11
1800,11
1801,11
1802,11
1803,11
1804,11
1805,11
1806,11
1807,11
1808,11
1809,11
1810,11
1811,11
1812,11
1813,11
1814,11
1815,11
1816,11
1817,11
1818,11
1819,12
1820,11
1821,11
1822,11
1823,11
1824,11
1825,11
1826,11
1827,11
1828,11
1829,11
1830,11
1831,11
1832,11
1833,11
1834,11
1835,11
1836,11
1837,11
1838,11
1839,11
1840,11
1841,11
1842,11
1843,11
1844,11
1845,11
1846,11
1847,11
1848,11
1849,11
1850,11
1851,11
1852,11
1853,11
1854,11
1855,11
1856,11
1857,11
1858,11
1859,11
1860,11
1861,11
1862,11
1863,11
1864,11
1865,11
1866,11
1867,11
1868,11
1869,11
1870,11
1871,11
1872,11
1873,11
1874,11
1875,11
1876,11
1877,11
1878,11
1879,11
1880,11
1881,11
1882,11
1883,11
1884,11
1885,11
1886,11
1887,11
1888,11
1889,11
1890,11
1891,11
1892,11
1893,11
1894,11
1895,11
1896,11
1897,11
1898,11
1899,11
1900,11
1901,11
1902,11
1903,11
1904,11
1905,11
1906,11
1907,11
1908,11
1909,11
1910,11
1911,11
1912,11
1913,11
1914,11
1915,11
1916,11
1917,11
1918,11
1919,11
1920,11
1921,11
1922,11
1923,11
1924,11
1925,11
1926,11
1927,11
1928,11
1929,11
1930,11
1931,11
1932,11
1933,11
1934,11
1935,11
1936,11
1937,11
1938,11
1939,11
1940,11
1941,11
1942,11
1943,11
1944,11
1945,11
1946,11
1947,11
1948,11
1949,11
1950,11
1951,11
1952,11
1953,11
1954,11
1955,11
1956,11
1957,11
1958,11
1959,11
1960,11
1961,11
1962,11
1963,11
1964,11
1965,11
1966,11
1967,11
1968,11
1969,12
1970,11
1971,11
1972,11
1973,11
1974,11
1975,11
1976,11
1977,11
1978,11
1979,11
1980,11
1981,11
1982,11
1983,11
1984,11
1985,11
1986,11
1987,11
1988,11
1989,11
1990,11
1991,11
1992,11
1993,11
1994,11
1995,11
1996,11
1997,12
1998,12
1999,11
2000,11
2001,11
2002,11
2003,11
2004,11
2005,11
2006,11
2007,11
2008,11
2009,11
2010,11
2011,11
2012,11
2013,11
2014,11
2015,11
2016,11
2017,11
2018,11
2019,11
2020,11
2021,11
2022,11
2023,11
2024,11
2025,11
2026,11
2027,11
2028,11
2029,11
2030,11
2031,11
2032,11
2033,11
2034,11
2035,11
2036,11
2037,11
2038,11
2039,11
2040,11
2041,11
2042,11
2043,11
2044,11
2045,11
2046,11
2047,11
2048,11
2049,11
2050,11
2051,11
2052,12
2053,12
2054,12
2055,12
2056,12
2057,11
2058,11
2059,11
2060,11
2061,11
2062,11
2063,11
2064,11
2065,11
2066,11
2067,11
2068,11
2069,11
2070,11
2071,11
2072,11
2073,11
2074,11
2075,11
2076,11
2077,11
2078,11
2079,11
2080,11
2081,11
2082,11
2083,11
2084,11
2085,11
2086,11
2087,12
2088,12
2089,12
2090,12
2091,12
2092,12
2093,12
2094,12
2095,12
2096,12
2097,12
2098,12
2099,12
2100,12
2101,12
2102,12
2103,12
2104,12
2105,11
2106,11
2107,11
2108,11
2109,11
2110,11
2111,11
2112,11
2113,11
2114,11
2115,11
2116,11
2117,11
2118,11
2119,11
2120,11
2121,11
2122,11
2123,11
2124,11
2125,11
2126,11
2127,11
2128,11
2129,11
2130,11
2131,11
2132,11
2133,11
2134,11
2135,11
2136,11
2137,11
2138,11
2139,11
2140,11
2141,11
2142,11
2143,11
2144,11
2145,11
2146,11
2147,11
2148,11
2149,11
2150,11
2151,11
2152,11
2153,11
2154,11
2155,12
2156,12
2157,12
2158,12
2159,12
2160,11
2161,11
2162,11
2163,11
2164,11
2165,11
2166,11
2167,11
2168,11
2169,11
2170,11
2171,11
2172,11
2173,11
2174,11
2175,11
2176,11
2177,11
2178,11
2179,11
2180,11
2181,11
2182,11
2183,11
2184,11
2185,11
2186,11
2187,11
2188,11
2189,11
2190,11
2191,11
2192,11
2193,11
2194,11
2195,11
2196,12
2197,12
2198,12
2199,12
2200,11
2201,11
2202,11
2203,11
2204,11
2205,11
2206,11
2207,11
2208,11
2209,11
2210,11
2211,11
2212,11
2213,11
2214,11
2215,11
2216,11
2217,11
2218,11
2219,11
2220,11
2221,11
2222,11
2223,11
2224,11
2225,11
2226,11
2227,11
2228,11
2229,11
2230,11
2231,12
2232,12
2233,12
2234,12
2235,12
2236,11
2237,11
2238,11
2239,11
2240,11
2241,11
2242,11
2243,11
2244,11
2245,11
2246,11
2247,11
2248,11
2249,11
2250,11
2251,11
2252,11
2253,11
2254,11
2255,11
2256,11
2257,11
2258,11
2259,11
2260,11
2261,11
2262,11
2263,11
2264,11
2265,11
2266,11
2267,11
2268,11
2269,11
2270,11
2271,11
2272,11
2273,11
2274,11
2275,11
2276,11
2277,11
2278,11
2279,11
2280,11
2281,11
2282,11
2283,11
2284,11
2285,11
2286,11
2287,11
2288,11
2289,11
2290,11
2291,11
2292,11
2293,11
2294,11
2295,11
2296,11
2297,11
2298,11
2299,11
2300,11
2301,11
2302,11
2303,11
2304,11
2305,11
2306,11
2307,11
2308,11
2309,11
2310,11
2311,11
2312,11
2313,11
2314,11
2315,11
2316,11
2317,11
2318,11
2319,11
2320,11
2321,11
2322,11
2323,11
2324,11
2325,11
2326,11
2327,11
2328,11
2329,11
2330,11
2331,11
2332,11
2333,11
2334,11
2335,11
2336,11
2337,11
2338,11
2339,11
2340,11
2341,11
2342,11
2343,11
2344,11
2345,11
2346,11
2347,11
2348,11
2349,11
2350,11
2351,11
2352,11
2353,11
2354,11
2355,11
2356,11
2357,11
2358,11
2359,11
2360,11
2361,11
2362,11
2363,11
2364,11
2365,11
2366,11
2367,11
2368,11
2369,11
2370,11
2371,11
2372,11
2373,11
2374,11
2375,12
2376,12
2377,12
2378,12
2379,12
2380,12
2381,12
2382,12
2383,12
2384,12
2385,12
2386,12
2387,12
2388,12
2389,12
2390,12
2391,12
2392,12
2393,13
2394,13
2395,12
2396,12
2397,11
2398,11
2399,12
2400,12
2401,12
2402,12
2403,12
2404,13
2405,12
2406,12
2407,12
2408,12
2409,12
2410,12
2411,12
2412,12
2413,12
2414,13
2415,12
2416,12
2417,12
2418,12
2419,12
2420,12
2421,12
2422,12
2423,12
2424,12
2425,12
2426,12
2427,12
2428,12
2429,12
2430,12
2431,12
2432,12
2433,12
2434,12
2435,12
2436,12
2437,12
2438,12
2439,12
2440,12
2441,12
2442,12
2443,12
2444,12
2445,12
2446,12
2447,12
2448,12
2449,12
2450,12
2451,12
2452,12
2453,12
2454,12
2455,12
2456,12
2457,12
2458,12
2459,12
2460,12
2461,12
2462,12
2463,12
2464,12
2465,12
2466,12
2467,12
2468,12
2469,12
2470,12
2471,12
2472,12
2473,12
2474,12
2475,12
2476,12
2477,12
2478,12
2479,12
2480,12
2481,12
2482,12
2483,12
2484,12
2485,12
2486,12
2487,12
2488,12
2489,12
2490,12
2491,12
2492,12
2493,12
2494,12
2495,12
2496,12
2497,12
2498,12
2499,12
2500,12
2501,12
2502,12
2503,12
2504,12
2505,12
2506,12
2507,12
2508,12
2509,12
2510,12
2511,12
2512,12
2513,12
2514,12
2515,12
2516,12
2517,12
2518,12
2519,12
2520,12
2521,12
2522,12
2523,12
2524,12
2525,12
2526,12
2527,12
2528,12
2529,12
2530,12
2531,12
2532,12
2533,12
2534,12
2535,12
2536,12
2537,12
2538,12
2539,12
2540,12
2541,12
2542,12
2543,12
2544,12
2545,12
2546,12
2547,12
2548,12
2549,12
2550,12
2551,12
2552,12
2553,12
2554,12
2555,12
2556,12
2557,12
2558,12
2559,12
2560,12
2561,12
2562,12
2563,12
2564,12
2565,12
2566,12
2567,12
2568,12
2569,12
2570,12
2571,12
2572,12
2573,12
2574,12
2575,12
2576,12
2577,12
2578,12
2579,12
2580,12
2581,12
2582,12
2583,12
2584,12
2585,12
2586,12
2587,12
2588,12
2589,12
2590,12
2591,12
2592,12
2593,12
2594,12
2595,12
2596,12
2597,12
2598,12
2599,12
2600,12
2601,12
2602,13
2603,12
2604,12
2605,12
2606,12
2607,12
2608,12
2609,12
2610,12
2611,12
2612,12
2613,12
2614,12
2615,12
2616,12
2617,12
2618,12
2619,12
2620,12
2621,12
2622,12
2623,12
2624,12
2625,12
2626,12
2627,12
2628,12
2629,12
2630,12
2631,12
2632,12
2633,12
2634,12
2635,12
2636,12
2637,12
2638,12
2639,12
2640,12
2641,12
2642,12
2643,12
2644,12
2645,12
2646,12
2647,12
2648,12
2649,12
2650,12
2651,12
2652,12
2653,12
2654,12
2655,12
2656,12
2657,12
2658,12
2659,12
2660,12
2661,12
2662,12
2663,12
2664,12
2665,12
2666,12
2667,12
2668,12
2669,12
2670,12
2671,12
2672,12
2673,12
2674,12
2675,12
2676,12
2677,12
2678,12
2679,12
2680,12
2681,12
2682,12
2683,12
2684,12
2685,12
2686,12
2687,12
2688,12
2689,12
2690,12
2691,12
2692,12
2693,12
2694,12
2695,12
2696,12
2697,12
2698,12
2699,12
2700,12
2701,12
2702,12
2703,12
2704,12
2705,12
2706,12
2707,12
2708,12
2709,12
2710,12
2711,12
2712,12
2713,12
2714,12
2715,12
2716,12
2717,12
2718,12
2719,12
2720,12
2721,12
2722,12
2723,12
2724,12
2725,12
2726,12
2727,12
2728,12
2729,12
2730,12
2731,12
2732,12
2733,12
2734,12
2735,12
2736,12
2737,12
2738,12
2739,12
2740,12
2741,12
2742,12
2743,12
2744,12
2745,12
2746,12
2747,12
2748,12
2749,12
2750,12
2751,12
2752,12
2753,12
2754,12
2755,12
2756,12
2757,12
2758,12
2759,12
2760,12
2761,12
2762,12
2763,12
2764,12
2765,12
2766,12
2767,12
2768,12
2769,12
2770,12
2771,12
2772,12
2773,12
2774,12
2775,12
2776,12
2777,12
2778,12
2779,12
2780,12
2781,12
2782,12
2783,12
2784,12
2785,12
2786,12
2787,12
2788,12
2789,12
2790,12
2791,12
2792,12
2793,12
2794,12
2795,12
2796,12
2797,12
2798,12
2799,12
2800,12
2801,12
2802,12
2803,12
2804,12
2805,12
2806,12
2807,12
2808,12
2809,12
2810,12
2811,12
2812,12
2813,12
2814,12
2815,12
2816,12
2817,12
2818,12
2819,12
2820,12
2821,12
2822,12
2823,12
2824,12
2825,12
2826,12
2827,12
2828,12
2829,12
2830,12
2831,12
2832,12
2833,12
2834,12
2835,12
2836,12
2837,12
2838,12
2839,12
2840,12
2841,12
2842,12
2843,12
2844,12
2845,12
2846,12
2847,12
2848,12
2849,12
2850,12
2851,12
2852,12
2853,12
2854,12
2855,12
2856,12
2857,12
2858,12
2859,12
2860,12
2861,12
2862,12
2863,12
2864,12
2865,12
2866,12
2867,12
2868,12
2869,12
2870,12
2871,12
2872,12
2873,12
2874,12
2875,12
2876,12
2877,12
2878,12
2879,12
2880,12
2881,12
2882,12
2883,12
2884,12
2885,12
2886,12
2887,12
2888,12
2889,12
2890,12
2891,12
2892,12
2893,12
2894,12
2895,12
2896,12
2897,13
2898,12
2899,12
2900,12
2901,12
2902,12
2903,12
2904,12
2905,12
2906,12
2907,12
2908,12
2909,12
2910,12
2911,12
2912,13
2913,12
2914,12
2915,12
2916,12
2917,12
2918,12
2919,12
2920,12
2921,12
2922,12
2923,12
2924,12
2925,12
2926,12
2927,12
2928,12
2929,12
2930,12
2931,12
2932,12
2933,12
2934,12
2935,12
2936,12
2937,12
2938,12
2939,12
2940,12
2941,12
2942,12
2943,12
2944,12
2945,12
2946,12
2947,12
2948,12
2949,12
2950,12
2951,12
2952,12
2953,12
2954,12
2955,12
2956,12
2957,12
2958,12
2959,12
2960,12
2961,12
2962,12
2963,12
2964,12
2965,12
2966,12
2967,12
2968,12
2969,12
2970,12
2971,12
2972,12
2973,12
2974,12
2975,12
2976,12
2977,12
2978,12
2979,12
2980,12
2981,12
2982,12
2983,12
2984,12
2985,12
2986,12
2987,12
2988,12
2989,12
2990,12
2991,12
2992,12
2993,12
2994,12
2995,12
2996,12
2997,12
2998,12
2999,12
3000,12
3001,12
3002,12
3003,12
3004,12
3005,12
3006,12
3007,12
3008,12
3009,12
3010,12
3011,12
3012,12
3013,12
3014,12
3015,12
3016,12
3017,12
3018,12
3019,12
3020,12
3021,12
3022,12
3023,12
3024,12
3025,12
3026,12
3027,12
3028,12
3029,12
3030,12
3031,12
3032,12
3033,12
3034,12
3035,12
3036,12
3037,12
3038,12
3039,12
3040,12
3041,12
3042,12
3043,12
3044,12
3045,12
3046,12
3047,12
3048,12
3049,12
3050,12
3051,12
3052,13
3053,13
3054,13
3055,13
3056,13
3057,12
3058,12
3059,12
3060,12
3061,12
3062,12
3063,12
3064,12
3065,12
3066,12
3067,12
3068,12
3069,12
3070,12
3071,12
3072,12
3073,12
3074,12
3075,12
3076,12
3077,12
3078,12
3079,12
3080,12
3081,12
3082,12
3083,12
3084,12
3085,12
3086,12
3087,12
3088,12
3089,12
3090,12
3091,12
3092,12
3093,12
3094,12
3095,12
3096,12
3097,12
3098,12
3099,12
3100,12
3101,12
3102,12
3103,12
3104,12
3105,12
3106,12
3107,12
3108,12
3109,12
3110,12
3111,12
3112,12
3113,12
3114,12
3115,12
3116,12
3117,12
3118,12
3119,12
3120,12
3121,12
3122,12
3123,12
3124,12
3125,12
3126,12
3127,12
3128,12
3129,12
3130,12
3131,12
3132,12
3133,13
3134,13
3135,12
3136,12
3137,12
3138,12
3139,12
3140,12
3141,12
3142,12
3143,12
3144,12
3145,12
3146,12
3147,12
3148,12
3149,12
3150,12
3151,12
3152,12
3153,12
3154,12
3155,12
3156,12
3157,12
3158,12
3159,12
3160,12
3161,12
3162,12
3163,12
3164,12
3165,12
3166,12
3167,12
3168,12
3169,12
3170,12
3171,12
3172,12
3173,12
3174,12
3175,12
3176,12
3177,12
3178,12
3179,12
3180,12
3181,12
3182,12
3183,12
3184,12
3185,12
3186,12
3187,12
3188,12
3189,12
3190,12
3191,12
3192,12
3193,12
3194,12
3195,12
3196,12
3197,12
3198,12
3199,12
3200,12
3201,12
3202,12
3203,12
3204,12
3205,12
3206,12
3207,12
3208,12
3209,12
3210,12
3211,12
3212,12
3213,12
3214,12
3215,12
3216,12
3217,13
3218,12
3219,12
3220,12
3221,12
3222,12
3223,12
3224,12
3225,12
3226,12
3227,12
3228,12
3229,12
3230,12
3231,12
3232,12
3233,12
3234,12
3235,12
3236,12
3237,12
3238,12
3239,12
3240,12
3241,12
3242,12
3243,12
3244,12
3245,12
3246,12
3247,12
3248,12
3249,12
3250,12
3251,12
3252,12
3253,12
3254,12
3255,12
3256,12
3257,12
3258,12
3259,12
3260,12
3261,12
3262,12
3263,12
3264,12
3265,12
3266,12
3267,12
3268,12
3269,12
3270,12
3271,12
3272,12
3273,12
3274,12
3275,12
3276,12
3277,12
3278,12
3279,12
3280,12
3281,12
3282,12
3283,12
3284,12
3285,12
3286,12
3287,12
3288,12
3289,12
3290,12
3291,12
3292,12
3293,12
3294,12
3295,12
3296,12
3297,12
3298,12
3299,12
3300,12
3301,12
3302,12
3303,12
3304,12
3305,12
3306,12
3307,12
3308,12
3309,12
3310,12
3311,12
3312,12
3313,12
3314,12
3315,12
3316,12
3317,12
3318,12
3319,12
3320,12
3321,12
3322,12
3323,12
3324,12
3325,12
3326,12
3327,12
3328,12
3329,12
3330,12
3331,12
3332,13
3333,13
3334,13
3335,13
3336,13
3337,13
3338,13
3339,13
3340,13
3341,13
3342,13
3343,13
3344,13
3345,13
3346,13
3347,13
3348,13
3349,13
3350,13
3351,13
3352,13
3353,13
3354,13
3355,12
3356,12
3357,12
3358,12
3359,12
3360,12
3361,13
3362,12
3363,12
3364,12
3365,12
3366,12
3367,12
3368,12
3369,12
3370,12
3371,12
3372,12
3373,12
3374,12
3375,12
3376,12
3377,12
3378,12
3379,12
3380,12
3381,12
3382,12
3383,12
3384,12
3385,12
3386,12
3387,12
3388,12
3389,12
3390,12
3391,12
3392,12
3393,12
3394,12
3395,12
3396,12
3397,12
3398,12
3399,12
3400,12
3401,12
3402,12
3403,12
3404,12
3405,12
3406,12
3407,12
3408,12
3409,12
3410,12
3411,12
3412,12
3413,12
3414,12
3415,12
3416,12
3417,12
3418,12
3419,12
3420,12
3421,12
3422,12
3423,12
3424,12
3425,12
3426,12
3427,12
3428,12
3429,12
3430,12
3431,12
3432,12
3433,12
3434,12
3435,12
3436,12
3437,12
3438,12
3439,12
3440,12
3441,12
3442,12
3443,12
3444,12
3445,12
3446,12
3447,13
3448,12
3449,12
3450,12
3451,12
3452,12
3453,12
3454,12
3455,12
3456,12
3457,12
3458,12
3459,12
3460,12
3461,12
3462,12
3463,12
3464,12
3465,12
3466,12
3467,12
3468,12
3469,12
3470,12
3471,12
3472,12
3473,12
3474,12
3475,12
3476,12
3477,12
3478,12
3479,12
3480,12
3481,12
3482,12
3483,12
3484,12
3485,12
3486,12
3487,12
3488,12
3489,12
3490,12
3491,12
3492,12
3493,12
3494,12
3495,12
3496,12
3497,12
3498,12
3499,12
3500,12
3501,12
3502,12
3503,12
3504,12
3505,12
3506,12
3507,12
3508,12
3509,12
3510,12
3511,12
3512,12
3513,12
3514,12
3515,12
3516,12
3517,12
3518,12
3519,12
3520,12
3521,12
3522,12
3523,12
3524,12
3525,12
3526,12
3527,12
3528,12
3529,12
3530,12
3531,12
3532,12
3533,12
3534,12
3535,12
3536,12
3537,12
3538,12
3539,12
3540,12
3541,12
3542,12
3543,12
3544,12
3545,12
3546,12
3547,12
3548,12
3549,12
3550,12
3551,12
3552,12
3553,12
3554,12
3555,12
3556,12
3557,12
3558,12
3559,12
3560,12
3561,12
3562,12
3563,12
3564,12
3565,12
3566,12
3567,12
3568,12
3569,12
3570,12
3571,12
3572,12
3573,12
3574,12
3575,12
3576,12
3577,12
3578,12
3579,12
3580,12
3581,12
3582,12
3583,12
3584,12
3585,12
3586,12
3587,12
3588,12
3589,12
3590,12
3591,12
3592,12
3593,12
3594,12
3595,12
3596,12
3597,12
3598,12
3599,12
3600,12
3601,12
3602,12
3603,12
3604,12
3605,12
3606,12
3607,12
3608,12
3609,12
3610,12
3611,12
3612,12
3613,12
3614,12
3615,12
3616,12
3617,12
3618,12
3619,12
3620,12
3621,12
3622,12
3623,12
3624,12
3625,12
3626,12
3627,12
3628,12
3629,12
3630,12
3631,12
3632,13
3633,13
3634,12
3635,12
3636,12
3637,12
3638,12
3639,12
3640,12
3641,12
3642,12
3643,12
3644,12
3645,13
3646,12
3647,12
3648,12
3649,12
3650,12
3651,12
3652,12
3653,12
3654,12
3655,12
3656,12
3657,12
3658,12
3659,12
3660,12
3661,12
3662,12
3663,12
3664,12
3665,12
3666,12
3667,12
3668,12
3669,12
3670,12
3671,12
3672,12
3673,12
3674,12
3675,12
3676,12
3677,12
3678,12
3679,12
3680,12
3681,12
3682,12
3683,12
3684,12
3685,12
3686,12
3687,12
3688,12
3689,12
3690,12
3691,12
3692,12
3693,12
3694,12
3695,12
3696,12
3697,12
3698,12
3699,12
3700,12
3701,12
3702,12
3703,12
3704,12
3705,12
3706,12
3707,12
3708,12
3709,13
3710,13
3711,13
3712,13
3713,13
3714,13
3715,13
3716,13
3717,13
3718,13
3719,13
3720,13
3721,13
3722,13
3723,13
3724,13
3725,13
3726,12
3727,12
3728,12
3729,12
3730,12
3731,12
3732,12
3733,12
3734,12
3735,12
3736,12
3737,12
3738,12
3739,12
3740,12
3741,12
3742,12
3743,12
3744,12
3745,12
3746,12
3747,12
3748,12
3749,12
3750,12
3751,12
3752,12
3753,12
3754,12
3755,12
3756,12
3757,12
3758,12
3759,12
3760,12
3761,12
3762,12
3763,12
3764,12
3765,12
3766,12
3767,12
3768,12
3769,12
3770,12
3771,12
3772,12
3773,12
3774,12
3775,12
3776,12
3777,12
3778,12
3779,12
3780,12
3781,12
3782,12
3783,12
3784,12
3785,12
3786,12
3787,12
3788,12
3789,12
3790,12
3791,12
3792,12
3793,12
3794,12
3795,12
3796,12
3797,12
3798,12
3799,12
3800,12
3801,12
3802,12
3803,12
3804,12
3805,12
3806,12
3807,12
3808,12
3809,12
3810,12
3811,12
3812,12
3813,12
3814,12
3815,12
3816,12
3817,12
3818,12
3819,12
3820,12
3821,12
3822,12
3823,12
3824,12
3825,12
3826,12
3827,12
3828,12
3829,12
3830,12
3831,12
3832,12
3833,12
3834,13
3835,13
3836,13
3837,13
3838,13
3839,13
3840,12
3841,12
3842,12
3843,12
3844,12
3845,12
3846,12
3847,12
3848,12
3849,12
3850,12
3851,12
3852,12
3853,12
3854,12
3855,12
3856,12
3857,12
3858,12
3859,12
3860,12
3861,12
3862,12
3863,12
3864,12
3865,12
3866,12
3867,12
3868,12
3869,12
3870,12
3871,12
3872,12
3873,12
3874,12
3875,12
3876,12
3877,12
3878,12
3879,12
3880,12
3881,12
3882,12
3883,12
3884,12
3885,12
3886,12
3887,12
3888,12
3889,12
3890,12
3891,12
3892,12
3893,12
3894,12
3895,12
3896,12
3897,12
3898,12
3899,12
3900,12
3901,12
3902,12
3903,12
3904,12
3905,12
3906,12
3907,12
3908,12
3909,12
3910,12
3911,12
3912,12
3913,12
3914,12
3915,12
3916,12
3917,12
3918,12
3919,12
3920,12
3921,12
3922,12
3923,12
3924,12
3925,12
3926,12
3927,12
3928,12
3929,12
3930,12
3931,12
3932,12
3933,12
3934,12
3935,12
3936,12
3937,12
3938,12
3939,12
3940,12
3941,12
3942,12
3943,12
3944,12
3945,12
3946,12
3947,12
3948,12
3949,12
3950,12
3951,12
3952,12
3953,12
3954,13
3955,13
3956,13
3957,13
3958,13
3959,13
3960,13
3961,13
3962,12
3963,12
3964,12
3965,12
3966,12
3967,12
3968,12
3969,12
3970,12
3971,12
3972,12
3973,12
3974,12
3975,12
3976,12
3977,12
3978,12
3979,12
3980,12
3981,12
3982,12
3983,12
3984,12
3985,12
3986,12
3987,12
3988,12
3989,12
3990,12
3991,12
3992,12
3993,12
3994,12
3995,12
3996,12
3997,12
3998,12
3999,12
4000,12
4001,12
4002,12
4003,12
4004,12
4005,12
4006,12
4007,12
4008,12
4009,13
4010,12
4011,12
4012,12
4013,12
4014,12
4015,12
4016,12
4017,12
4018,12
4019,12
4020,12
4021,12
4022,12
4023,12
4024,12
4025,12
4026,12
4027,12
4028,12
4029,12
4030,12
4031,12
4032,12
4033,12
4034,12
4035,12
4036,12
4037,12
4038,12
4039,12
4040,12
4041,12
4042,12
4043,12
4044,12
4045,12
4046,12
4047,12
4048,12
4049,12
4050,12
4051,12
4052,12
4053,12
4054,12
4055,12
4056,12
4057,12
4058,12
4059,12
4060,12
4061,12
4062,12
4063,12
4064,12
4065,12
4066,12
4067,12
4068,12
4069,12
4070,12
4071,12
4072,12
4073,12
4074,12
4075,12
4076,12
4077,12
4078,12
4079,12
4080,12
4081,12
4082,12
4083,12
4084,12
4085,12
4086,12
4087,12
4088,12
4089,12
4090,12
4091,12
4092,12
4093,12
4094,12
4095,12
4096,12
4097,12
4098,12
4099,12
4100,12
4101,12
4102,12
4103,12
4104,12
4105,12
4106,12
4107,12
4108,12
4109,12
4110,12
4111,12
4112,12
4113,12
4114,12
4115,12
4116,12
4117,12
4118,12
4119,12
4120,12
4121,12
4122,12
4123,12
4124,12
4125,12
4126,12
4127,12
4128,12
4129,12
4130,12
4131,12
4132,12
4133,12
4134,12
4135,12
4136,12
4137,12
4138,12
4139,12
4140,12
4141,12
4142,12
4143,12
4144,12
4145,12
4146,12
4147,12
4148,12
4149,12
4150,12
4151,12
4152,12
4153,12
4154,12
4155,12
4156,12
4157,12
4158,12
4159,12
4160,12
4161,12
4162,12
4163,12
4164,12
4165,12
4166,12
4167,12
4168,12
4169,12
4170,12
4171,12
4172,12
4173,12
4174,12
4175,12
4176,12
4177,12
4178,12
4179,12
4180,12
4181,12
4182,12
4183,12
4184,13
4185,12
4186,12
4187,12
4188,12
4189,12
4190,12
4191,12
4192,12
4193,12
4194,12
4195,12
4196,12
4197,12
4198,12
4199,12
4200,12
4201,12
4202,12
4203,12
4204,12
4205,12
4206,12
4207,12
4208,12
4209,12
4210,12
4211,12
4212,12
4213,12
4214,12
4215,12
4216,12
4217,12
4218,12
4219,12
4220,12
4221,12
4222,12
4223,12
4224,12
4225,12
4226,12
4227,12
4228,12
4229,12
4230,12
4231,12
4232,12
4233,12
4234,12
4235,12
4236,12
4237,12
4238,12
4239,12
4240,12
4241,12
4242,12
4243,12
4244,12
4245,12
4246,12
4247,12
4248,12
4249,12
4250,12
4251,12
4252,12
4253,12
4254,13
4255,13
4256,13
4257,13
4258,13
4259,13
4260,13
4261,13
4262,13
4263,13
4264,13
4265,13
4266,13
4267,13
4268,13
4269,13
4270,13
4271,13
4272,13
4273,13
4274,13
4275,13
4276,13
4277,13
4278,13
4279,13
4280,13
4281,13
4282,13
4283,13
4284,13
4285,13
4286,13
4287,13
4288,13
4289,13
4290,13
4291,13
4292,13
4293,13
4294,13
4295,13
4296,13
4297,13
4298,13
4299,13
4300,13
4301,13
4302,13
4303,13
4304,13
4305,13
4306,13
4307,13
4308,13
4309,13
4310,13
4311,13
4312,13
4313,13
4314,13
4315,13
4316,13
4317,13
4318,13
4319,13
4320,13
4321,13
4322,13
4323,13
4324,13
4325,13
4326,13
4327,13
4328,13
4329,13
4330,14
4331,14
4332,14
4333,14
4334,14
4335,14
4336,14
4337,14
4338,14
4339,14
4340,13
4341,13
4342,13
4343,13
4344,13
4345,13
4346,13
4347,13
4348,13
4349,13
4350,14
4351,14
4352,15
4353,14
4354,13
4355,13
4356,13
4357,13
4358,13
4359,13
4360,13
4361,13
4362,13
4363,13
4364,13
4365,13
4366,13
4367,13
4368,13
4369,13
4370,13
4371,13
4372,13
4373,13
4374,14
4375,13
4376,13
4377,13
4378,13
4379,13
4380,13
4381,13
4382,13
4383,13
4384,13
4385,13
4386,13
4387,13
4388,13
4389,13
4390,13
4391,13
4392,13
4393,13
4394,13
4395,13
4396,13
4397,13
4398,13
4399,13
4400,13
4401,13
4402,13
4403,13
4404,13
4405,13
4406,13
4407,13
4408,13
4409,13
4410,13
4411,13
4412,13
4413,13
4414,13
4415,13
4416,13
4417,13
4418,13
4419,13
4420,13
4421,13
4422,13
4423,13
4424,13
4425,13
4426,13
4427,13
4428,13
4429,13
4430,13
4431,14
4432,13
4433,13
4434,13
4435,13
4436,13
4437,13
4438,13
4439,13
4440,13
4441,13
4442,13
4443,13
4444,13
4445,13
4446,13
4447,13
4448,13
4449,13
4450,13
4451,13
4452,13
4453,13
4454,13
4455,13
4456,13
4457,13
4458,13
4459,13
4460,13
4461,13
4462,13
4463,13
4464,13
4465,13
4466,13
4467,13
4468,14
4469,14
4470,14
4471,13
4472,13
4473,13
4474,13
4475,14
4476,14
4477,14
4478,14
4479,14
4480,14
4481,14
4482,14
4483,14
4484,14
4485,14
4486,14
4487,14
4488,14
4489,14
4490,14
4491,14
4492,14
4493,14
4494,14
4495,14
4496,14
4497,14
4498,14
4499,14
4500,14
4501,14
4502,14
4503,14
4504,14
4505,14
4506,14
4507,14
4508,14
4509,14
4510,14
4511,14
4512,14
4513,14
4514,14
4515,14
4516,14
4517,14
4518,14
4519,14
4520,14
4521,14
4522,14
4523,14
4524,14
4525,14
4526,14
4527,14
4528,14
4529,14
4530,14
4531,14
4532,14
4533,15
4534,14
4535,14
4536,14
4537,14
4538,14
4539,14
4540,14
4541,14
4542,15
4543,15
4544,15
4545,15
4546,15
4547,15
4548,15
4549,15
4550,15
4551,15
4552,15
4553,15
4554,15
4555,15
4556,15
4557,15
4558,15
4559,15
4560,15
4561,15
4562,15
4563,15
4564,15
4565,15
4566,15
4567,15
4568,15
4569,15
4570,15
4571,15
4572,15
4573,15
4574,15
4575,15
4576,15
4577,15
4578,15
4579,15
4580,15
4581,15
4582,15
4583,15
4584,15
4585,15
4586,15
4587,15
4588,15
4589,15
4590,15
4591,15
4592,15
4593,15
4594,15
4595,15
4596,15
4597,15
4598,15
4599,15
4600,15
4601,15
4602,15
4603,15
4604,15
4605,15
4606,15
4607,15
4608,15
4609,15
4610,15
4611,16
4612,16
4613,16
4614,16
4615,16
4616,16
4617,16
4618,16
4619,16
4620,15
4621,15
4622,15
4623,15
4624,15
4625,15
4626,15
4627,15
4628,15
4629,15
4630,15
4631,15
4632,15
4633,15
4634,15
4635,15
4636,15
4637,15
4638,15
4639,15
4640,15
4641,15
4642,15
4643,15
4644,15
4645,15
4646,15
4647,15
4648,15
4649,15
4650,15
4651,15
4652,15
4653,15
4654,15
4655,15
4656,15
4657,15
4658,15
4659,15
4660,15
4661,15
4662,15
4663,15
4664,15
4665,15
4666,15
4667,15
4668,15
4669,15
4670,15
4671,15
4672,15
4673,15
4674,15
4675,15
4676,15
4677,15
4678,15
4679,15
4680,15
4681,15
4682,15
4683,15
4684,15
4685,15
4686,15
4687,15
4688,15
4689,15
4690,15
4691,15
4692,15
4693,15
4694,15
4695,15
4696,15
4697,15
4698,15
4699,16
4700,16
4701,16
4702,16
4703,16
4704,16
4705,16
4706,16
4707,16
4708,16
4709,16
4710,16
4711,16
4712,16
4713,16
4714,16
4715,16
4716,16
4717,16
4718,16
4719,16
4720,15
4721,15
4722,15
4723,15
4724,15
4725,15
4726,15
4727,15
4728,15
4729,15
4730,15
4731,15
4732,15
4733,16
4734,15
4735,15
4736,15
4737,15
4738,15
4739,15
4740,15
4741,15
4742,15
4743,16
4744,16
4745,16
4746,16
4747,16
4748,16
4749,16
4750,16
4751,16
4752,16
4753,16
4754,16
4755,16
4756,16
4757,16
4758,16
4759,16
4760,16
4761,16
4762,16
4763,16
4764,16
4765,16
4766,16
4767,16
4768,16
4769,16
4770,16
4771,16
4772,16
4773,16
4774,16
4775,16
4776,16
4777,16
4778,16
4779,16
4780,16
4781,16
4782,16
4783,16
4784,16
4785,16
4786,16
4787,16
4788,16
4789,16
4790,16
4791,16
4792,16
4793,16
4794,16
4795,16
4796,16
4797,16
4798,16
4799,16
4800,16
4801,16
4802,16
4803,16
4804,16
4805,16
4806,16
4807,16
4808,16
4809,16
4810,16
4811,16
4812,16
4813,16
4814,16
4815,16
4816,16
4817,16
4818,16
4819,16
4820,16
4821,16
4822,16
4823,16
4824,16
4825,16
4826,16
4827,16
4828,16
4829,16
4830,16
4831,16
4832,16
4833,16
4834,16
4835,16
4836,16
4837,16
4838,16
4839,16
4840,16
4841,16
4842,16
4843,16
4844,16
4845,16
4846,16
4847,16
4848,16
4849,16
4850,16
4851,16
4852,16
4853,16
4854,16
4855,16
4856,16
4857,16
4858,16
4859,16
4860,16
4861,16
4862,16
4863,16
4864,16
4865,16
4866,16
4867,16
4868,16
4869,16
4870,16
4871,16
4872,16
4873,16
4874,16
4875,16
4876,16
4877,16
4878,16
4879,16
4880,16
4881,16
4882,16
4883,16
4884,16
4885,16
4886,16
4887,16
4888,16
4889,16
4890,16
4891,16
4892,16
4893,16
4894,16
4895,16
4896,16
4897,16
4898,16
4899,16
4900,16
4901,16
4902,16
4903,16
4904,16
4905,16
4906,16
4907,16
4908,16
4909,16
4910,16
4911,16
4912,16
4913,16
4914,16
4915,16
4916,16
4917,16
4918,16
4919,16
4920,16
4921,16
4922,16
4923,16
4924,16
4925,16
4926,16
4927,16
4928,16
4929,16
4930,16
4931,16
4932,16
4933,16
4934,16
4935,16
4936,16
4937,16
4938,16
4939,16
4940,16
4941,16
4942,16
4943,16
4944,16
4945,16
4946,16
4947,16
4948,16
4949,16
4950,16
4951,16
4952,16
4953,16
4954,16
4955,16
4956,16
4957,16
4958,16
4959,16
4960,16
4961,16
4962,16
4963,16
4964,16
4965,16
4966,16
4967,16
4968,16
4969,16
4970,16
4971,16
4972,16
4973,16
4974,16
4975,16
4976,16
4977,16
4978,16
4979,16
4980,16
4981,16
4982,16
4983,16
4984,16
4985,16
4986,16
4987,16
4988,16
4989,16
4990,16
4991,16
4992,16
4993,16
4994,16
4995,16
4996,16
4997,16
4998,16
4999,16
5000,16
5001,16
5002,16
5003,16
5004,16
5005,16
5006,16
5007,16
5008,16
5009,16
5010,16
5011,16
5012,16
5013,16
5014,16
5015,16
5016,16
5017,16
5018,16
5019,16
5020,16
5021,17
5022,17
5023,17
5024,17
5025,16
5026,16
5027,16
5028,16
5029,16
5030,16
5031,16
5032,16
5033,16
5034,16
5035,16
5036,16
5037,16
5038,16
5039,16
5040,16
5041,16
5042,16
5043,16
5044,16
5045,16
5046,16
5047,16
5048,16
5049,16
5050,16
5051,16
5052,16
5053,16
5054,16
5055,16
5056,16
5057,16
5058,16
5059,16
5060,16
5061,16
5062,16
5063,16
5064,16
5065,16
5066,16
5067,16
5068,16
5069,16
5070,16
5071,16
5072,16
5073,16
5074,16
5075,16
5076,16
5077,16
5078,16
5079,16
5080,16
5081,16
5082,16
5083,16
5084,16
5085,16
5086,16
5087,16
5088,16
5089,16
5090,16
5091,16
5092,16
5093,16
5094,16
5095,16
5096,16
5097,16
5098,16
5099,16
5100,16
5101,16
5102,16
5103,16
5104,16
5105,16
5106,16
5107,16
5108,16
5109,16
5110,16
5111,16
5112,16
5113,16
5114,16
5115,16
5116,16
5117,16
5118,16
5119,16
5120,16
5121,16
5122,16
5123,16
5124,16
5125,16
5126,16
5127,16
5128,16
5129,16
5130,16
5131,16
5132,16
5133,16
5134,16
5135,16
5136,16
5137,16
5138,16
5139,16
5140,16
5141,16
5142,16
5143,16
5144,16
5145,16
5146,16
5147,16
5148,16
5149,16
5150,16
5151,16
5152,16
5153,16
5154,16
5155,16
5156,16
5157,16
5158,16
5159,16
5160,16
5161,16
5162,16
5163,16
5164,16
5165,16
5166,16
5167,16
5168,16
5169,16
5170,16
5171,16
5172,16
5173,16
5174,16
5175,16
5176,16
5177,16
5178,16
5179,16
5180,16
5181,16
5182,16
5183,16
5184,16
5185,16
5186,16
5187,16
5188,16
5189,16
5190,16
5191,16
5192,16
5193,16
5194,16
5195,16
5196,16
5197,16
5198,16
5199,16
5200,16
5201,16
5202,16
5203,16
5204,16
5205,16
5206,16
5207,16
5208,16
5209,16
5210,16
5211,16
5212,16
5213,16
5214,16
5215,16
5216,16
5217,16
5218,17
5219,17
5220,17
5221,17
5222,17
5223,17
5224,17
5225,17
5226,17
5227,17
5228,16
5229,16
5230,16
5231,16
5232,16
5233,16
5234,16
5235,16
5236,16
5237,16
5238,16
5239,16
5240,16
5241,16
5242,16
5243,16
5244,16
5245,16
5246,16
5247,16
5248,16
5249,16
5250,16
5251,16
5252,16
5253,16
5254,16
5255,16
5256,16
5257,16
5258,16
5259,16
5260,16
5261,16
5262,16
5263,16
5264,16
5265,16
5266,16
5267,16
5268,16
5269,16
5270,16
5271,16
5272,16
5273,16
5274,16
5275,16
5276,16
5277,16
5278,16
5279,16
5280,16
5281,16
5282,16
5283,16
5284,16
5285,16
5286,16
5287,17
5288,16
5289,16
5290,16
5291,16
5292,16
5293,16
5294,16
5295,16
5296,16
5297,16
5298,16
5299,16
5300,16
5301,16
5302,16
5303,16
5304,16
5305,16
5306,16
5307,16
5308,16
5309,16
5310,16
5311,16
5312,16
5313,16
5314,16
5315,16
5316,16
5317,16
5318,16
5319,16
5320,16
5321,16
5322,16
5323,16
5324,16
5325,16
5326,16
5327,16
5328,16
5329,16
5330,16
5331,16
5332,16
5333,16
5334,16
5335,16
5336,16
5337,16
5338,16
5339,16
5340,16
5341,16
5342,16
5343,16
5344,16
5345,16
5346,16
5347,16
5348,16
5349,16
5350,16
5351,16
5352,16
5353,16
5354,16
5355,16
5356,16
5357,16
5358,16
5359,16
5360,16
5361,16
5362,16
5363,16
5364,16
5365,16
5366,16
5367,16
5368,16
5369,16
5370,16
5371,16
5372,16
5373,16
5374,16
5375,16
5376,16
5377,16
5378,16
5379,16
5380,16
5381,16
5382,16
5383,16
5384,16
5385,16
5386,16
5387,16
5388,16
5389,16
5390,16
5391,16
5392,16
5393,16
5394,16
5395,16
5396,16
5397,16
5398,16
5399,16
5400,16
5401,16
5402,16
5403,16
5404,16
5405,16
5406,16
5407,16
5408,16
5409,16
5410,16
5411,16
5412,16
5413,16
5414,16
5415,16
5416,16
5417,16
5418,16
5419,16
5420,16
5421,16
5422,16
5423,16
5424,16
5425,16
5426,16
5427,16
5428,16
5429,16
5430,16
5431,16
5432,16
5433,16
5434,16
5435,16
5436,16
5437,16
5438,16
5439,16
5440,16
5441,16
5442,16
5443,16
5444,16
5445,16
5446,16
5447,16
5448,16
5449,16
5450,16
5451,16
5452,16
5453,16
5454,16
5455,16
5456,16
5457,16
5458,16
5459,16
5460,16
5461,16
5462,16
5463,16
5464,16
5465,16
5466,16
5467,16
5468,16
5469,16
5470,16
5471,16
5472,16
5473,16
5474,16
5475,16
5476,16
5477,16
5478,16
5479,16
5480,16
5481,16
5482,16
5483,16
5484,16
5485,16
5486,16
5487,16
5488,16
5489,16
5490,16
5491,16
5492,16
5493,16
5494,16
5495,16
5496,16
5497,16
5498,16
5499,16
5500,16
5501,16
5502,16
5503,16
5504,16
5505,16
5506,16
5507,16
5508,16
5509,16
5510,16
5511,16
5512,16
5513,16
5514,16
5515,16
5516,16
5517,16
5518,16
5519,16
5520,16
5521,16
5522,16
5523,16
5524,16
5525,16
5526,16
5527,16
5528,16
5529,16
5530,16
5531,16
5532,16
5533,16
5534,16
5535,16
5536,16
5537,16
5538,16
5539,16
5540,16
5541,16
5542,16
5543,16
5544,16
5545,16
5546,16
5547,16
5548,16
5549,16
5550,16
5551,16
5552,16
5553,16
5554,16
5555,16
5556,16
5557,16
5558,16
5559,16
5560,16
5561,16
5562,16
5563,16
5564,16
5565,16
5566,16
5567,16
5568,16
5569,16
5570,16
5571,16
5572,16
5573,16
5574,16
5575,16
5576,16
5577,16
5578,16
5579,16
5580,16
5581,16
5582,16
5583,16
5584,16
5585,16
5586,16
5587,16
5588,16
5589,16
5590,16
5591,16
5592,16
5593,16
5594,16
5595,16
5596,16
5597,16
5598,16
5599,16
5600,16
5601,16
5602,16
5603,16
5604,16
5605,16
5606,16
5607,16
5608,16
5609,16
5610,16
5611,16
5612,16
5613,16
5614,16
5615,16
5616,16
5617,16
5618,16
5619,16
5620,16
5621,16
5622,16
5623,16
5624,16
5625,16
5626,16
5627,16
5628,16
5629,16
5630,16
5631,16
5632,16
5633,16
5634,16
5635,16
5636,16
5637,16
5638,16
5639,16
5640,16
5641,16
5642,16
5643,16
5644,16
5645,16
5646,16
5647,16
5648,16
5649,16
5650,16
5651,16
5652,16
5653,16
5654,16
5655,16
5656,16
5657,16
5658,16
5659,16
5660,16
5661,16
5662,16
5663,16
5664,16
5665,16
5666,16
5667,16
5668,16
5669,16
5670,16
5671,16
5672,16
5673,16
5674,16
5675,16
5676,16
5677,16
5678,16
5679,16
5680,16
5681,16
5682,16
5683,16
5684,16
5685,16
5686,16
5687,16
5688,16
5689,16
5690,16
5691,16
5692,16
5693,16
5694,16
5695,16
5696,16
5697,16
5698,16
5699,16
5700,16
5701,16
5702,16
5703,16
5704,16
5705,16
5706,16
5707,16
5708,16
5709,16
5710,16
5711,16
5712,16
5713,16
5714,16
5715,16
5716,16
5717,16
5718,16
5719,16
5720,16
5721,16
5722,16
5723,16
5724,16
5725,16
5726,16
5727,16
5728,16
5729,16
5730,16
5731,16
5732,16
5733,17
5734,17
5735,17
5736,16
5737,16
5738,16
5739,16
5740,16
5741,16
5742,16
5743,16
5744,16
5745,16
5746,16
5747,16
5748,16
5749,16
5750,16
5751,16
5752,16
5753,16
5754,16
5755,16
5756,16
5757,16
5758,16
5759,16
5760,16
5761,16
5762,16
5763,16
5764,16
5765,16
5766,16
5767,16
5768,16
5769,16
5770,16
5771,16
5772,16
5773,16
5774,16
5775,16
5776,16
5777,16
5778,16
5779,16
5780,16
5781,16
5782,16
5783,16
5784,16
5785,16
5786,16
5787,16
5788,16
5789,16
5790,16
5791,16
5792,16
5793,16
5794,16
5795,16
5796,16
5797,16
5798,16
5799,16
5800,16
5801,16
5802,16
5803,16
5804,16
5805,16
5806,16
5807,16
5808,16
5809,16
5810,16
5811,16
5812,16
5813,16
5814,16
5815,16
5816,16
5817,16
5818,16
5819,16
5820,16
5821,16
5822,16
5823,16
5824,16
5825,16
5826,16
5827,16
5828,16
5829,16
5830,16
5831,16
5832,16
5833,16
5834,16
5835,16
5836,16
5837,16
5838,16
5839,16
5840,16
5841,16
5842,16
5843,16
5844,16
5845,16
5846,16
5847,16
5848,16
5849,16
5850,16
5851,16
5852,16
5853,16
5854,16
5855,16
5856,16
5857,16
5858,16
5859,16
5860,16
5861,16
5862,16
5863,16
5864,16
5865,16
5866,16
5867,16
5868,16
5869,16
5870,16
5871,16
5872,16
5873,16
5874,16
5875,16
5876,16
5877,16
5878,16
5879,16
5880,16
5881,16
5882,16
5883,16
5884,16
5885,16
5886,16
5887,16
5888,16
5889,16
5890,16
5891,16
5892,16
5893,16
5894,16
5895,16
5896,16
5897,16
5898,16
5899,16
5900,16
5901,16
5902,16
5903,17
5904,17
5905,17
5906,17
5907,16
5908,16
5909,16
5910,16
5911,16
5912,16
5913,16
5914,16
5915,16
5916,16
5917,16
5918,16
5919,16
5920,16
5921,16
5922,16
5923,16
5924,16
5925,16
5926,16
5927,16
5928,16
5929,16
5930,16
5931,16
5932,16
5933,17
5934,16
5935,16
5936,16
5937,16
5938,16
5939,16
5940,16
5941,16
5942,16
5943,16
5944,16
5945,16
5946,16
5947,16
5948,16
5949,16
5950,16
5951,16
5952,16
5953,16
5954,16
5955,16
5956,16
5957,16
5958,16
5959,16
5960,16
5961,16
5962,16
5963,16
5964,16
5965,16
5966,16
5967,16
5968,16
5969,16
5970,16
5971,16
5972,16
5973,16
5974,16
5975,16
5976,16
5977,16
5978,16
5979,16
5980,16
5981,16
5982,16
5983,16
5984,16
5985,16
5986,16
5987,16
5988,16
5989,16
5990,16
5991,17
5992,16
5993,16
5994,16
5995,16
5996,16
5997,16
5998,16
5999,16
6000,16
6001,16
6002,16
6003,16
6004,16
6005,16
6006,16
6007,16
6008,16
6009,16
6010,16
6011,16
6012,16
6013,16
6014,16
6015,16
6016,17
6017,17
6018,16
6019,16
6020,16
6021,16
6022,16
6023,16
6024,16
6025,16
6026,16
6027,16
6028,16
6029,16
6030,16
6031,16
6032,16
6033,16
6034,16
6035,16
6036,16
6037,16
6038,16
6039,16
6040,16
6041,16
6042,16
6043,16
6044,16
6045,16
6046,16
6047,16
6048,16
6049,16
6050,16
6051,16
6052,16
6053,16
6054,16
6055,16
6056,16
6057,16
6058,16
6059,16
6060,16
6061,16
6062,16
6063,16
6064,16
6065,16
6066,16
6067,16
6068,16
6069,16
6070,16
6071,16
6072,16
6073,16
6074,16
6075,16
6076,16
6077,16
6078,16
6079,16
6080,16
6081,16
6082,16
6083,16
6084,16
6085,16
6086,16
6087,16
6088,16
6089,16
6090,16
6091,16
6092,16
6093,16
6094,16
6095,16
6096,16
6097,16
6098,16
6099,16
6100,16
6101,16
6102,16
6103,16
6104,16
6105,16
6106,16
6107,16
6108,16
6109,16
6110,16
6111,16
6112,16
6113,16
6114,16
6115,16
6116,16
6117,16
6118,16
6119,16
6120,17
6121,16
6122,16
6123,16
6124,16
6125,16
6126,16
6127,16
6128,16
6129,16
6130,16
6131,16
6132,16
6133,16
6134,16
6135,16
6136,16
6137,16
6138,16
6139,16
6140,16
6141,16
6142,16
6143,16
6144,16
6145,16
6146,16
6147,16
6148,16
6149,16
6150,16
6151,16
6152,16
6153,16
6154,16
6155,16
6156,16
6157,16
6158,16
6159,16
6160,16
6161,16
6162,16
6163,16
6164,16
6165,16
6166,16
6167,16
6168,16
6169,16
6170,16
6171,16
6172,16
6173,16
6174,16
6175,16
6176,16
6177,16
6178,16
6179,16
6180,16
6181,16
6182,16
6183,16
6184,16
6185,16
6186,16
6187,16
6188,16
6189,16
6190,16
6191,16
6192,16
6193,16
6194,16
6195,16
6196,16
6197,16
6198,16
6199,16
6200,16
6201,16
6202,16
6203,16
6204,16
6205,16
6206,16
6207,16
6208,16
6209,16
6210,16
6211,16
6212,16
6213,16
6214,16
6215,16
6216,16
6217,16
6218,16
6219,16
6220,16
6221,16
6222,16
6223,16
6224,16
6225,16
6226,16
6227,16
6228,16
6229,16
6230,16
6231,16
6232,16
6233,16
6234,16
6235,16
6236,16
6237,16
6238,16
6239,16
6240,16
6241,16
6242,16
6243,16
6244,16
6245,16
6246,16
6247,17
6248,16
6249,16
6250,16
6251,16
6252,16
6253,16
6254,16
6255,16
6256,16
6257,16
6258,16
6259,16
6260,16
6261,16
6262,16
6263,16
6264,16
6265,16
6266,16
6267,16
6268,16
6269,16
6270,16
6271,16
6272,16
6273,16
6274,16
6275,16
6276,16
6277,16
6278,16
6279,16
6280,16
6281,16
6282,16
6283,16
6284,16
6285,16
6286,16
6287,16
6288,16
6289,16
6290,16
6291,16
6292,16
6293,16
6294,16
6295,16
6296,16
6297,16
6298,16
6299,16
6300,16
6301,16
6302,16
6303,16
6304,16
6305,16
6306,16
6307,16
6308,16
6309,16
6310,16
6311,16
6312,16
6313,16
6314,16
6315,16
6316,16
6317,16
6318,16
6319,16
6320,16
6321,16
6322,16
6323,16
6324,16
6325,16
6326,16
6327,16
6328,16
6329,16
6330,16
6331,16
6332,16
6333,16
6334,16
6335,16
6336,16
6337,16
6338,16
6339,16
6340,16
6341,16
6342,16
6343,16
6344,16
6345,17
6346,17
6347,17
6348,17
6349,17
6350,17
6351,17
6352,17
6353,17
6354,17
6355,17
6356,17
6357,17
6358,17
6359,17
6360,17
6361,17
6362,17
6363,17
6364,17
6365,17
6366,17
6367,17
6368,17
6369,17
6370,17
6371,17
6372,17
6373,17
6374,17
6375,17
6376,17
6377,17
6378,17
6379,17
6380,17
6381,17
6382,17
6383,17
6384,17
6385,17
6386,17
6387,17
6388,17
6389,17
6390,17
6391,17
6392,17
6393,17
6394,17
6395,17
6396,17
6397,17
6398,17
6399,17
6400,17
6401,17
6402,17
6403,17
6404,17
6405,17
6406,17
6407,17
6408,17
6409,17
6410,18
6411,18
6412,18
6413,17
6414,17
6415,17
6416,17
6417,17
6418,17
6419,17
6420,17
6421,17
6422,18
6423,18
6424,18
6425,19
6426,19
6427,19
6428,19
6429,19
6430,19
6431,19
6432,19
6433,19
6434,19
6435,19
6436,19
6437,19
6438,19
6439,19
6440,20
6441,20
6442,19
6443,19
6444,19
6445,19
6446,19
6447,19
6448,19
6449,19
6450,19
6451,19
6452,19
6453,19
6454,19
6455,19
6456,19
6457,19
6458,19
6459,19
6460,19
6461,19
6462,19
6463,19
6464,19
6465,19
6466,19
6467,19
6468,19
6469,19
6470,19
6471,19
6472,19
6473,19
6474,19
6475,19
6476,19
6477,19
6478,19
6479,19
6480,19
6481,19
6482,19
6483,19
6484,19
6485,19
6486,19
6487,20
6488,19
6489,19
6490,19
6491,19
6492,19
6493,19
6494,19
6495,19
6496,19
6497,19
6498,19
6499,19
6500,19
6501,19
6502,19
6503,19
6504,19
6505,19
6506,19
6507,19
6508,19
6509,19
6510,19
6511,19
6512,19
6513,19
6514,19
6515,19
6516,19
6517,19
6518,19
6519,19
6520,19
6521,19
6522,19
6523,19
6524,19
6525,19
6526,19
6527,19
6528,19
6529,19
6530,19
6531,20
6532,20
6533,20
6534,20
6535,20
6536,19
6537,19
6538,19
6539,19
6540,19
6541,19
6542,19
6543,19
6544,19
6545,19
6546,19
6547,19
6548,19
6549,19
6550,19
6551,19
6552,19
6553,19
6554,19
6555,19
6556,19
6557,19
6558,19
6559,19
6560,19
6561,19
6562,19
6563,19
6564,19
6565,19
6566,19
6567,19
6568,19
6569,19
6570,19
6571,19
6572,19
6573,19
6574,20
6575,19
6576,19
6577,19
6578,19
6579,19
6580,19
6581,19
6582,19
6583,19
6584,19
6585,19
6586,19
6587,19
6588,19
6589,19
6590,19
6591,19
6592,19
6593,19
6594,19
6595,19
6596,19
6597,19
6598,19
6599,19
6600,19
6601,19
6602,19
6603,19
6604,19
6605,19
6606,19
6607,19
6608,19
6609,19
6610,19
6611,19
6612,19
6613,19
6614,19
6615,19
6616,19
6617,19
6618,19
6619,19
6620,19
6621,19
6622,19
6623,19
6624,19
6625,19
6626,19
6627,19
6628,19
6629,19
6630,19
6631,19
6632,19
6633,19
6634,19
6635,19
6636,19
6637,19
6638,19
6639,19
6640,19
6641,19
6642,19
6643,19
6644,19
6645,19
6646,19
6647,19
6648,19
6649,19
6650,19
6651,19
6652,19
6653,19
6654,19
6655,19
6656,19
6657,19
6658,19
6659,19
6660,19
6661,19
6662,19
6663,19
6664,19
6665,19
6666,19
6667,19
6668,19
6669,19
6670,19
6671,19
6672,19
6673,19
6674,19
6675,19
6676,19
6677,19
6678,19
6679,19
6680,19
6681,19
6682,19
6683,19
6684,19
6685,19
6686,19
6687,19
6688,19
6689,19
6690,19
6691,19
6692,19
6693,19
6694,19
6695,19
6696,19
6697,19
6698,19
6699,19
6700,19
6701,19
6702,19
6703,19
6704,19
6705,19
6706,19
6707,19
6708,19
6709,19
6710,19
6711,19
6712,19
6713,19
6714,19
6715,19
6716,19
6717,19
6718,19
6719,19
6720,19
6721,19
6722,19
6723,20
6724,19
6725,19
6726,19
6727,19
6728,19
6729,19
6730,19
6731,19
6732,19
6733,19
6734,19
6735,19
6736,19
6737,19
6738,19
6739,19
6740,19
6741,19
6742,19
6743,19
6744,19
6745,19
6746,19
6747,19
6748,19
6749,19
6750,19
6751,19
6752,19
6753,19
6754,19
6755,19
6756,19
6757,19
6758,19
6759,19
6760,19
6761,19
6762,19
6763,19
6764,19
6765,19
6766,19
6767,19
6768,19
6769,19
6770,19
6771,19
6772,19
6773,19
6774,19
6775,19
6776,19
6777,19
6778,19
6779,19
6780,19
6781,19
6782,19
6783,19
6784,19
6785,19
6786,19
6787,19
6788,19
6789,19
6790,19
6791,19
6792,19
6793,19
6794,19
6795,19
6796,19
6797,19
6798,19
6799,19
6800,19
6801,19
6802,19
6803,19
6804,19
6805,19
6806,19
6807,19
6808,19
6809,19
6810,19
6811,19
6812,19
6813,19
6814,19
6815,19
6816,19
6817,19
6818,19
6819,19
6820,19
6821,19
6822,19
6823,19
6824,19
6825,19
6826,19
6827,19
6828,19
6829,19
6830,19
6831,19
6832,19
6833,19
6834,19
6835,19
6836,19
6837,19
6838,19
6839,19
6840,19
6841,19
6842,19
6843,19
6844,19
6845,19
6846,19
6847,19
6848,19
6849,19
6850,19
6851,19
6852,19
6853,19
6854,19
6855,19
6856,19
6857,19
6858,19
6859,19
6860,19
6861,19
6862,19
6863,19
6864,19
6865,19
6866,19
6867,19
6868,19
6869,19
6870,19
6871,19
6872,19
6873,19
6874,19
6875,19
6876,19
6877,19
6878,19
6879,19
6880,19
6881,19
6882,19
6883,19
6884,19
6885,19
6886,19
6887,19
6888,19
6889,19
6890,19
6891,19
6892,19
6893,19
6894,19
6895,19
6896,19
6897,19
6898,19
6899,19
6900,19
6901,19
6902,19
6903,19
6904,19
6905,19
6906,19
6907,19
6908,19
6909,19
6910,19
6911,19
6912,19
6913,19
6914,19
6915,19
6916,19
6917,19
6918,19
6919,19
6920,19
6921,19
6922,19
6923,19
6924,19
6925,19
6926,20
6927,19
6928,19
6929,19
6930,19
6931,19
6932,19
6933,19
6934,19
6935,19
6936,19
6937,19
6938,19
6939,19
6940,19
6941,19
6942,19
6943,19
6944,19
6945,19
6946,19
6947,19
6948,19
6949,19
6950,19
6951,19
6952,19
6953,19
6954,19
6955,19
6956,19
6957,19
6958,19
6959,19
6960,19
6961,19
6962,19
6963,19
6964,19
6965,19
6966,19
6967,19
6968,19
6969,19
6970,19
6971,19
6972,19
6973,19
6974,19
6975,19
6976,19
6977,19
6978,19
6979,19
6980,19
6981,19
6982,19
6983,19
6984,19
6985,19
6986,19
6987,19
6988,19
6989,19
6990,19
6991,19
6992,19
6993,19
6994,20
6995,20
6996,20
6997,20
6998,20
6999,20
7000,20
7001,20
7002,20
7003,20
7004,20
7005,20
7006,20
7007,20
7008,20
7009,20
7010,20
7011,20
7012,20
7013,20
7014,20
7015,20
7016,20
7017,20
7018,20
7019,20
7020,20
7021,20
7022,20
7023,20
7024,20
7025,20
7026,20
7027,20
7028,20
7029,20
7030,20
7031,20
7032,20
7033,20
7034,20
7035,20
7036,20
7037,20
7038,20
7039,20
7040,20
7041,20
7042,20
7043,20
7044,20
7045,20
7046,20
7047,20
7048,20
7049,20
7050,20
7051,20
7052,20
7053,20
7054,20
7055,20
7056,20
7057,20
7058,20
7059,20
7060,20
7061,20
7062,20
7063,21
7064,21
7065,21
7066,21
7067,21
7068,21
7069,21
7070,21
7071,21
7072,20
7073,20
7074,20
7075,20
7076,20
7077,20
7078,20
7079,20
7080,20
7081,20
7082,20
7083,21
7084,21
7085,20
7086,20
7087,20
7088,20
7089,20
7090,20
7091,20
7092,20
7093,20
7094,20
7095,20
7096,20
7097,20
7098,20
7099,20
7100,20
7101,20
7102,20
7103,20
7104,20
7105,20
7106,20
7107,20
7108,20
7109,20
7110,20
7111,20
7112,20
7113,20
7114,20
7115,20
7116,20
7117,20
7118,20
7119,20
7120,20
7121,20
7122,20
7123,20
7124,20
7125,20
7126,20
7127,20
7128,20
7129,20
7130,20
7131,20
7132,20
7133,20
7134,20
7135,20
7136,20
7137,20
7138,20
7139,20
7140,20
7141,20
7142,20
7143,20
7144,20
7145,20
7146,20
7147,20
7148,20
7149,20
7150,20
7151,20
7152,20
7153,20
7154,20
7155,20
7156,20
7157,20
7158,20
7159,20
7160,20
7161,20
7162,20
7163,20
7164,20
7165,20
7166,21
7167,21
7168,21
7169,21
7170,21
7171,21
7172,21
7173,21
7174,21
7175,21
7176,21
7177,20
7178,20
7179,20
7180,20
7181,20
7182,20
7183,20
7184,20
7185,20
7186,20
7187,20
7188,20
7189,20
7190,20
7191,20
7192,20
7193,20
7194,20
7195,20
7196,20
7197,20
7198,20
7199,20
7200,20
7201,20
7202,20
7203,20
7204,20
7205,20
7206,20
7207,20
7208,20
7209,20
7210,20
7211,20
7212,20
7213,20
7214,20
7215,20
7216,20
7217,20
7218,20
7219,20
7220,20
7221,20
7222,20
7223,20
7224,20
7225,20
7226,20
7227,20
7228,20
7229,20
7230,20
7231,20
7232,20
7233,20
7234,20
7235,20
7236,20
7237,20
7238,20
7239,20
7240,20
7241,20
7242,20
7243,20
7244,20
7245,20
7246,21
7247,21
7248,21
7249,22
7250,22
7251,20
7252,20
7253,20
7254,20
7255,20
7256,20
7257,20
7258,20
7259,20
7260,20
7261,20
7262,20
7263,20
7264,20
7265,20
7266,20
7267,20
7268,20
7269,20
7270,20
7271,20
7272,20
7273,20
7274,20
7275,20
7276,20
7277,20
7278,20
7279,20
7280,20
7281,20
7282,20
7283,20
7284,20
7285,20
7286,20
7287,20
7288,20
7289,20
7290,20
7291,20
7292,20
7293,20
7294,20
7295,20
7296,20
7297,20
7298,20
7299,20
7300,20
7301,20
7302,20
7303,20
7304,20
7305,20
7306,20
7307,20
7308,20
7309,20
7310,20
7311,20
7312,20
7313,20
7314,20
7315,20
7316,20
7317,20
7318,20
7319,20
7320,20
7321,20
7322,20
7323,20
7324,20
7325,20
7326,20
7327,21
7328,21
7329,21
7330,21
7331,21
7332,21
7333,20
7334,20
7335,20
7336,20
7337,20
7338,20
7339,20
7340,20
7341,20
7342,20
7343,20
7344,20
7345,20
7346,20
7347,20
7348,20
7349,20
7350,20
7351,20
7352,20
7353,20
7354,20
7355,20
7356,20
7357,20
7358,20
7359,20
7360,20
7361,20
7362,20
7363,20
7364,20
7365,20
7366,20
7367,20
7368,20
7369,20
7370,20
7371,20
7372,20
7373,20
7374,20
7375,20
7376,20
7377,20
7378,20
7379,20
7380,20
7381,20
7382,20
7383,20
7384,20
7385,20
7386,20
7387,20
7388,20
7389,20
7390,20
7391,20
7392,20
7393,20
7394,20
7395,20
7396,20
7397,20
7398,20
7399,20
7400,20
7401,20
7402,20
7403,20
7404,20
7405,20
7406,20
7407,20
7408,20
7409,20
7410,20
7411,20
7412,20
7413,20
7414,20
7415,20
7416,20
7417,20
7418,20
7419,20
7420,20
7421,20
7422,20
7423,20
7424,20
7425,20
7426,20
7427,20
7428,20
7429,20
7430,20
7431,20
7432,20
7433,20
7434,20
7435,20
7436,20
7437,20
7438,20
7439,20
7440,20
7441,20
7442,20
7443,20
7444,20
7445,20
7446,20
7447,20
7448,20
7449,20
7450,20
7451,20
7452,20
7453,20
7454,20
7455,20
7456,20
7457,20
7458,20
7459,20
7460,20
7461,20
7462,20
7463,20
7464,20
7465,20
7466,20
7467,20
7468,20
7469,20
7470,20
7471,20
7472,20
7473,20
7474,20
7475,20
7476,20
7477,20
7478,20
7479,20
7480,20
7481,20
7482,20
7483,20
7484,20
7485,20
7486,20
7487,20
7488,20
7489,20
7490,20
7491,20
7492,20
7493,20
7494,20
7495,20
7496,20
7497,20
7498,20
7499,20
7500,20
7501,20
7502,20
7503,20
7504,20
7505,20
7506,20
7507,20
7508,20
7509,20
7510,20
7511,20
7512,20
7513,20
7514,20
7515,20
7516,20
7517,20
7518,20
7519,20
7520,20
7521,20
7522,20
7523,20
7524,20
7525,20
7526,20
7527,20
7528,20
7529,20
7530,20
7531,20
7532,20
7533,20
7534,20
7535,20
7536,20
7537,20
7538,20
7539,20
7540,20
7541,20
7542,20
7543,20
7544,20
7545,20
7546,20
7547,20
7548,20
7549,20
7550,20
7551,20
7552,20
7553,20
7554,20
7555,20
7556,20
7557,20
7558,20
7559,20
7560,20
7561,20
7562,20
7563,20
7564,20
7565,20
7566,20
7567,20
7568,20
7569,20
7570,20
7571,20
7572,20
7573,20
7574,20
7575,20
7576,20
7577,20
7578,20
7579,20
7580,20
7581,20
7582,20
7583,20
7584,20
7585,20
7586,20
7587,20
7588,20
7589,20
7590,20
7591,20
7592,20
7593,20
7594,20
7595,20
7596,20
7597,20
7598,20
7599,20
7600,20
7601,20
7602,20
7603,20
7604,20
7605,20
7606,20
7607,20
7608,20
7609,20
7610,20
7611,20
7612,20
7613,20
7614,20
7615,20
7616,20
7617,20
7618,20
7619,20
7620,20
7621,20
7622,20
7623,20
7624,20
7625,20
7626,20
7627,20
7628,20
7629,21
7630,21
7631,20
7632,20
7633,20
7634,20
7635,20
7636,20
7637,20
7638,20
7639,20
7640,20
7641,20
7642,20
7643,20
7644,20
7645,20
7646,20
7647,20
7648,20
7649,20
7650,20
7651,20
7652,20
7653,20
7654,20
7655,20
7656,20
7657,20
7658,20
7659,20
7660,20
7661,20
7662,20
7663,20
7664,20
7665,20
7666,20
7667,20
7668,20
7669,20
7670,20
7671,20
7672,20
7673,20
7674,20
7675,20
7676,20
7677,20
7678,20
7679,20
7680,20
7681,20
7682,20
7683,20
7684,20
7685,20
7686,20
7687,20
7688,20
7689,20
7690,20
7691,20
7692,20
7693,20
7694,20
7695,20
7696,20
7697,20
7698,20
7699,20
7700,20
7701,20
7702,20
7703,20
7704,20
7705,20
7706,20
7707,20
7708,20
7709,20
7710,20
7711,20
7712,20
7713,20
7714,20
7715,20
7716,20
7717,20
7718,20
7719,20
7720,20
7721,20
7722,20
7723,20
7724,20
7725,20
7726,20
7727,20
7728,20
7729,20
7730,20
7731,20
7732,20
7733,20
7734,20
7735,20
7736,20
7737,20
7738,20
7739,20
7740,20
7741,20
7742,20
7743,20
7744,20
7745,20
7746,20
7747,20
7748,20
7749,20
7750,20
7751,20
7752,20
7753,20
7754,20
7755,20
7756,20
7757,20
7758,20
7759,20
7760,20
7761,20
7762,20
7763,20
7764,20
7765,20
7766,20
7767,20
7768,20
7769,20
7770,20
7771,20
7772,20
7773,20
7774,20
7775,20
7776,20
7777,20
7778,20
7779,20
7780,20
7781,20
7782,20
7783,20
7784,20
7785,20
7786,20
7787,20
7788,20
7789,20
7790,20
7791,20
7792,20
7793,20
7794,20
7795,20
7796,20
7797,20
7798,20
7799,20
7800,20
7801,20
7802,20
7803,20
7804,20
7805,20
7806,20
7807,20
7808,20
7809,20
7810,20
7811,20
7812,20
7813,20
7814,20
7815,20
7816,20
7817,20
7818,20
7819,20
7820,20
7821,20
7822,20
7823,20
7824,20
7825,20
7826,20
7827,20
7828,20
7829,20
7830,20
7831,20
7832,20
7833,20
7834,20
7835,20
7836,20
7837,20
7838,20
7839,20
7840,20
7841,21
7842,20
7843,21
7844,21
7845,21
7846,21
7847,21
7848,21
7849,21
7850,21
7851,21
7852,21
7853,21
7854,20
7855,20
7856,20
7857,20
7858,20
7859,20
7860,20
7861,20
7862,20
7863,20
7864,20
7865,20
7866,20
7867,20
7868,20
7869,20
7870,20
7871,20
7872,20
7873,20
7874,20
7875,20
7876,20
7877,20
7878,20
7879,20
7880,20
7881,20
7882,20
7883,20
7884,20
7885,20
7886,20
7887,20
7888,20
7889,20
7890,20
7891,20
7892,20
7893,20
7894,20
7895,20
7896,20
7897,20
7898,20
7899,20
7900,20
7901,20
7902,20
7903,20
7904,20
7905,20
7906,20
7907,20
7908,20
7909,20
7910,20
7911,20
7912,20
7913,20
7914,20
7915,20
7916,20
7917,20
7918,20
7919,20
7920,20
7921,20
7922,20
7923,20
7924,20
7925,20
7926,20
7927,20
7928,20
7929,20
7930,20
7931,20
7932,20
7933,20
7934,20
7935,20
7936,20
7937,20
7938,20
7939,20
7940,20
7941,20
7942,20
7943,20
7944,20
7945,20
7946,20
7947,20
7948,20
7949,20
7950,20
7951,20
7952,20
7953,20
7954,20
7955,20
7956,20
7957,21
7958,20
7959,20
7960,20
7961,20
7962,20
7963,20
7964,20
7965,20
7966,20
7967,20
7968,20
7969,20
7970,20
7971,20
7972,20
7973,20
7974,20
7975,20
7976,20
7977,20
7978,20
7979,20
7980,20
7981,20
7982,20
7983,20
7984,20
7985,20
7986,20
7987,20
7988,20
7989,20
7990,20
7991,20
7992,20
7993,20
7994,20
7995,20
7996,20
7997,20
7998,20
7999,20
8000,20
8001,20
8002,20
8003,20
8004,20
8005,20
8006,20
8007,20
8008,20
8009,20
8010,20
8011,20
8012,20
8013,20
8014,20
8015,20
8016,20
8017,20
8018,20
8019,20
8020,20
8021,20
8022,20
8023,20
8024,20
8025,20
8026,20
8027,20
8028,20
8029,20
8030,20
8031,20
8032,20
8033,20
8034,20
8035,20
8036,20
8037,20
8038,20
8039,20
8040,20
8041,20
8042,20
8043,20
8044,20
8045,20
8046,20
8047,20
8048,20
8049,20
8050,20
8051,20
8052,20
8053,20
8054,20
8055,20
8056,20
8057,20
8058,20
8059,20
8060,20
8061,20
8062,20
8063,20
8064,20
8065,20
8066,20
8067,20
8068,20
8069,20
8070,20
8071,20
8072,20
8073,20
8074,20
8075,20
8076,20
8077,20
8078,20
8079,20
8080,20
8081,20
8082,20
8083,20
8084,20
8085,20
8086,20
8087,20
8088,20
8089,20
8090,20
8091,20
8092,20
8093,20
8094,20
8095,20
8096,20
8097,20
8098,20
8099,20
8100,20
8101,20
8102,20
8103,20
8104,20
8105,20
8106,20
8107,20
8108,20
8109,20
8110,20
8111,20
8112,20
8113,20
8114,20
8115,20
8116,20
8117,20
8118,20
8119,20
8120,20
8121,20
8122,20
8123,20
8124,20
8125,20
8126,20
8127,20
8128,20
8129,20
8130,20
8131,20
8132,20
8133,20
8134,20
8135,20
8136,20
8137,20
8138,20
8139,20
8140,20
8141,20
8142,20
8143,20
8144,20
8145,20
8146,20
8147,20
8148,20
8149,20
8150,20
8151,20
8152,20
8153,20
8154,20
8155,20
8156,20
8157,21
8158,20
8159,20
8160,20
8161,20
8162,20
8163,20
8164,20
8165,20
8166,20
8167,20
8168,20
8169,20
8170,20
8171,20
8172,20
8173,20
8174,20
8175,20
8176,20
8177,20
8178,20
8179,20
8180,20
8181,20
8182,20
8183,20
8184,20
8185,20
8186,20
8187,20
8188,20
8189,20
8190,20
8191,20
8192,20
8193,20
8194,20
8195,20
8196,20
8197,20
8198,20
8199,20
8200,20
8201,20
8202,20
8203,20
8204,20
8205,20
8206,20
8207,20
8208,20
8209,20
8210,20
8211,20
8212,20
8213,20
8214,20
8215,20
8216,20
8217,20
8218,20
8219,20
8220,20
8221,20
8222,20
8223,20
8224,20
8225,20
8226,20
8227,20
8228,20
8229,20
8230,20
8231,20
8232,20
8233,20
8234,20
8235,20
8236,20
8237,20
8238,20
8239,20
8240,20
8241,20
8242,20
8243,20
8244,20
8245,20
8246,20
8247,20
8248,20
8249,20
8250,20
8251,20
8252,20
8253,20
8254,20
8255,20
8256,20
8257,20
8258,20
8259,20
8260,20
8261,20
8262,20
8263,20
8264,20
8265,20
8266,20
8267,20
8268,20
8269,20
8270,20
8271,20
8272,20
8273,20
8274,20
8275,20
8276,20
8277,20
8278,20
8279,20
8280,20
8281,20
8282,20
8283,20
8284,20
8285,20
8286,20
8287,20
8288,20
8289,20
8290,20
8291,20
8292,20
8293,20
8294,20
8295,20
8296,20
8297,20
8298,20
8299,20
8300,20
8301,20
8302,20
8303,20
8304,20
8305,20
8306,20
8307,20
8308,20
8309,20
8310,20
8311,20
8312,20
8313,20
8314,20
8315,20
8316,20
8317,20
8318,20
8319,20
8320,20
8321,20
8322,20
8323,20
8324,20
8325,20
8326,20
8327,20
8328,20
8329,20
8330,20
8331,20
8332,20
8333,20
8334,20
8335,20
8336,20
8337,20
8338,20
8339,20
8340,20
8341,20
8342,20
8343,20
8344,20
8345,20
8346,20
8347,20
8348,20
8349,20
8350,20
8351,20
8352,20
8353,20
8354,20
8355,20
8356,20
8357,20
8358,20
8359,20
8360,20
8361,20
8362,20
8363,20
8364,20
8365,20
8366,20
8367,20
8368,20
8369,20
8370,20
8371,20
8372,20
8373,20
8374,20
8375,20
8376,20
8377,20
8378,20
8379,20
8380,21
8381,21
8382,21
8383,20
8384,20
8385,20
8386,20
8387,20
8388,20
8389,21
8390,21
8391,20
8392,20
8393,20
8394,20
8395,20
8396,20
8397,20
8398,20
8399,20
8400,20
8401,20
8402,20
8403,21
8404,21
8405,21
8406,21
8407,20
8408,20
8409,20
8410,20
8411,20
8412,20
8413,20
8414,20
8415,20
8416,20
8417,20
8418,20
8419,20
8420,20
8421,20
8422,20
8423,20
8424,20
8425,20
8426,20
8427,20
8428,20
8429,20
8430,20
8431,20
8432,20
8433,20
8434,20
8435,20
8436,20
8437,20
8438,20
8439,20
8440,20
8441,20
8442,20
8443,20
8444,20
8445,20
8446,20
8447,20
8448,20
8449,20
8450,20
8451,20
8452,20
8453,20
8454,20
8455,20
8456,20
8457,20
8458,21
8459,21
8460,21
8461,21
8462,21
8463,21
8464,21
8465,21
8466,21
8467,21
8468,21
8469,21
8470,21
8471,21
8472,21
8473,21
8474,22
8475,22
8476,22
8477,22
8478,22
8479,22
8480,21
8481,21
8482,21
8483,21
8484,21
8485,21
8486,21
8487,21
8488,21
8489,21
8490,21
8491,21
8492,21
8493,21
8494,21
8495,21
8496,21
8497,21
8498,21
8499,21
8500,21
8501,21
8502,21
8503,21
8504,21
8505,21
8506,21
8507,21
8508,21
8509,21
8510,21
8511,21
8512,21
8513,21
8514,21
8515,21
8516,21
8517,21
8518,21
8519,21
8520,21
8521,21
8522,21
8523,21
8524,21
8525,21
8526,21
8527,21
8528,21
8529,21
8530,21
8531,21
8532,21
8533,21
8534,21
8535,21
8536,21
8537,21
8538,21
8539,21
8540,21
8541,21
8542,21
8543,21
8544,21
8545,21
8546,21
8547,21
8548,21
8549,21
8550,21
8551,21
8552,21
8553,21
8554,21
8555,21
8556,21
8557,21
8558,21
8559,21
8560,21
8561,21
8562,21
8563,21
8564,21
8565,21
8566,21
8567,21
8568,21
8569,21
8570,21
8571,21
8572,22
8573,22
8574,22
8575,22
8576,22
8577,22
8578,22
8579,22
8580,22
8581,22
8582,21
8583,21
8584,21
8585,21
8586,21
8587,21
8588,21
8589,21
8590,21
8591,21
8592,21
8593,21
8594,21
8595,21
8596,21
8597,21
8598,21
8599,21
8600,21
8601,21
8602,21
8603,21
8604,21
8605,21
8606,21
8607,21
8608,21
8609,21
8610,21
8611,21
8612,21
8613,21
8614,21
8615,21
8616,21
8617,21
8618,21
8619,21
8620,21
8621,21
8622,21
8623,21
8624,21
8625,21
8626,21
8627,21
8628,21
8629,21
8630,21
8631,21
8632,21
8633,21
8634,21
8635,21
8636,21
8637,21
8638,21
8639,21
8640,21
8641,21
8642,21
8643,21
8644,21
8645,21
8646,21
8647,21
8648,21
8649,21
8650,21
8651,21
8652,21
8653,21
8654,21
8655,21
8656,21
8657,21
8658,21
8659,21
8660,21
8661,21
8662,21
8663,21
8664,21
8665,21
8666,22
8667,22
8668,21
8669,21
8670,21
8671,21
8672,21
8673,21
8674,21
8675,21
8676,21
8677,21
8678,21
8679,21
8680,21
8681,21
8682,21
8683,21
8684,21
8685,21
8686,21
8687,21
8688,21
8689,21
8690,21
8691,21
8692,21
8693,21
8694,21
8695,21
8696,21
8697,21
8698,22
8699,21
8700,21
8701,21
8702,21
8703,21
8704,21
8705,21
8706,21
8707,21
8708,21
8709,21
8710,21
8711,21
8712,21
8713,21
8714,21
8715,21
8716,21
8717,21
8718,21
8719,21
8720,21
8721,21
8722,21
8723,21
8724,21
8725,21
8726,21
8727,21
8728,21
8729,21
8730,21
8731,21
8732,21
8733,21
8734,21
8735,21
8736,21
8737,21
8738,21
8739,21
8740,21
8741,21
8742,21
8743,21
8744,21
8745,21
8746,21
8747,21
8748,21
8749,21
8750,21
8751,21
8752,21
8753,21
8754,21
8755,21
8756,21
8757,21
8758,21
8759,21
8760,21
8761,21
8762,21
8763,21
8764,21
8765,21
8766,21
8767,21
8768,21
8769,21
8770,21
8771,21
8772,21
8773,21
8774,21
8775,21
8776,21
8777,21
8778,21
8779,21
8780,21
8781,21
8782,21
8783,21
8784,21
8785,21
8786,21
8787,21
8788,21
8789,21
8790,21
8791,21
8792,21
8793,21
8794,21
8795,21
8796,21
8797,21
8798,21
8799,22
8800,22
8801,22
8802,21
8803,21
8804,21
8805,21
8806,21
8807,21
8808,21
8809,21
8810,21
8811,21
8812,21
8813,21
8814,21
8815,21
8816,21
8817,21
8818,21
8819,21
8820,21
8821,21
8822,21
8823,21
8824,21
8825,21
8826,21
8827,21
8828,21
8829,21
8830,21
8831,21
8832,21
8833,21
8834,21
8835,21
8836,21
8837,21
8838,21
8839,21
8840,21
8841,21
8842,21
8843,21
8844,21
8845,21
8846,21
8847,21
8848,21
8849,21
8850,21
8851,21
8852,21
8853,22
8854,22
8855,22
8856,22
8857,21
8858,21
8859,21
8860,21
8861,21
8862,21
8863,21
8864,21
8865,21
8866,21
8867,21
8868,21
8869,21
8870,21
8871,21
8872,21
8873,21
8874,21
8875,21
8876,21
8877,21
8878,21
8879,21
8880,21
8881,21
8882,21
8883,21
8884,21
8885,21
8886,21
8887,21
8888,21
8889,21
8890,21
8891,21
8892,21
8893,21
8894,21
8895,21
8896,21
8897,21
8898,21
8899,21
8900,21
8901,21
8902,21
8903,21
8904,21
8905,21
8906,21
8907,21
8908,21
8909,21
8910,21
8911,21
8912,21
8913,21
8914,21
8915,21
8916,21
8917,21
8918,21
8919,21
8920,21
8921,21
8922,21
8923,21
8924,21
8925,21
8926,21
8927,21
8928,21
8929,21
8930,21
8931,21
8932,21
8933,21
8934,21
8935,21
8936,21
8937,22
8938,22
8939,22
8940,22
8941,22
8942,22
8943,22
8944,22
8945,21
8946,21
8947,22
8948,22
8949,22
8950,22
8951,22
8952,22
8953,22
8954,22
8955,22
8956,22
8957,22
8958,21
8959,21
8960,21
8961,21
8962,21
8963,21
8964,21
8965,21
8966,21
8967,21
8968,21
8969,21
8970,21
8971,21
8972,21
8973,21
8974,21
8975,21
8976,21
8977,21
8978,21
8979,21
8980,21
8981,21
8982,21
8983,22
8984,21
8985,21
8986,21
8987,21
8988,21
8989,21
8990,21
8991,21
8992,21
8993,22
8994,21
8995,21
8996,21
8997,21
8998,21
8999,21
9000,21
9001,21
9002,21
9003,21
9004,21
9005,21
9006,21
9007,21
9008,21
9009,21
9010,21
9011,22
9012,21
9013,21
9014,21
9015,21
9016,22
9017,22
9018,21
9019,21
9020,21
9021,21
9022,21
9023,21
9024,21
9025,21
9026,21
9027,21
9028,21
9029,21
9030,21
9031,21
9032,21
9033,21
9034,21
9035,21
9036,21
9037,21
9038,21
9039,21
9040,21
9041,21
9042,21
9043,21
9044,21
9045,21
9046,21
9047,21
9048,21
9049,21
9050,21
9051,21
9052,21
9053,21
9054,21
9055,21
9056,21
9057,21
9058,21
9059,21
9060,21
9061,21
9062,21
9063,21
9064,21
9065,21
9066,21
9067,21
9068,21
9069,21
9070,21
9071,21
9072,21
9073,21
9074,21
9075,21
9076,21
9077,21
9078,21
9079,21
9080,21
9081,21
9082,21
9083,21
9084,21
9085,21
9086,21
9087,21
9088,21
9089,21
9090,21
9091,21
9092,21
9093,21
9094,21
9095,21
9096,21
9097,21
9098,21
9099,21
9100,21
9101,21
9102,21
9103,21
9104,21
9105,21
9106,21
9107,21
9108,21
9109,21
9110,21
9111,21
9112,21
9113,21
9114,21
9115,21
9116,21
9117,21
9118,21
9119,21
9120,21
9121,21
9122,21
9123,21
9124,21
9125,21
9126,21
9127,21
9128,21
9129,21
9130,21
9131,21
9132,22
9133,22
9134,22
9135,22
9136,22
9137,22
9138,22
9139,22
9140,21
9141,21
9142,21
9143,21
9144,21
9145,21
9146,21
9147,21
9148,21
9149,21
9150,21
9151,21
9152,21
9153,21
9154,21
9155,21
9156,21
9157,21
9158,21
9159,21
9160,21
9161,21
9162,21
9163,21
9164,21
9165,21
9166,21
9167,21
9168,21
9169,21
9170,21
9171,21
9172,21
9173,21
9174,21
9175,21
9176,21
9177,21
9178,21
9179,21
9180,21
9181,21
9182,21
9183,21
9184,21
9185,21
9186,21
9187,21
9188,21
9189,21
9190,21
9191,21
9192,21
9193,21
9194,22
9195,22
9196,21
9197,21
9198,21
9199,21
9200,21
9201,21
9202,21
9203,21
9204,21
9205,21
9206,21
9207,21
9208,21
9209,22
9210,21
9211,21
9212,21
9213,21
9214,21
9215,21
9216,21
9217,21
9218,21
9219,21
9220,21
9221,21
9222,21
9223,21
9224,21
9225,21
9226,21
9227,21
9228,21
9229,21
9230,21
9231,21
9232,21
9233,22
9234,21
9235,21
9236,21
9237,21
9238,21
9239,21
9240,21
9241,22
9242,21
9243,21
9244,21
9245,21
9246,21
9247,21
9248,21
9249,21
9250,21
9251,21
9252,21
9253,21
9254,21
9255,21
9256,21
9257,21
9258,21
9259,21
9260,22
9261,21
9262,21
9263,21
9264,21
9265,21
9266,21
9267,21
9268,21
9269,21
9270,21
9271,21
9272,21
9273,21
9274,21
9275,21
9276,21
9277,21
9278,21
9279,21
9280,21
9281,21
9282,21
9283,21
9284,21
9285,21
9286,21
9287,21
9288,21
9289,21
9290,21
9291,21
9292,21
9293,21
9294,21
9295,21
9296,21
9297,21
9298,21
9299,21
9300,21
9301,21
9302,21
9303,21
9304,21
9305,21
9306,21
9307,21
9308,21
9309,21
9310,21
9311,21
9312,21
9313,21
9314,21
9315,21
9316,21
9317,21
9318,21
9319,21
9320,21
9321,21
9322,21
9323,21
9324,21
9325,21
9326,21
9327,21
9328,21
9329,21
9330,21
9331,21
9332,22
9333,22
9334,22
9335,22
9336,22
9337,22
9338,22
9339,22
9340,22
9341,22
9342,22
9343,22
9344,22
9345,22
9346,22
9347,22
9348,22
9349,22
9350,22
9351,22
9352,22
9353,22
9354,22
9355,22
9356,22
9357,22
9358,22
9359,22
9360,22
9361,22
9362,22
9363,22
9364,22
9365,22
9366,22
9367,22
9368,22
9369,22
9370,22
9371,22
9372,22
9373,22
9374,22
9375,22
9376,22
9377,22
9378,22
9379,22
9380,22
9381,22
9382,22
9383,22
9384,22
9385,22
9386,22
9387,22
9388,22
9389,22
9390,23
9391,23
9392,23
9393,23
9394,23
9395,23
9396,23
9397,23
9398,23
9399,23
9400,23
9401,23
9402,23
9403,23
9404,23
9405,23
9406,23
9407,23
9408,22
9409,22
9410,22
9411,22
9412,22
9413,22
9414,22
9415,22
9416,22
9417,22
9418,22
9419,22
9420,22
9421,22
9422,22
9423,22
9424,22
9425,22
9426,22
9427,22
9428,22
9429,22
9430,22
9431,22
9432,22
9433,22
9434,22
9435,22
9436,22
9437,22
9438,22
9439,22
9440,22
9441,22
9442,22
9443,22
9444,22
9445,22
9446,22
9447,22
9448,22
9449,22
9450,22
9451,22
9452,22
9453,22
9454,22
9455,22
9456,22
9457,22
9458,22
9459,22
9460,22
9461,22
9462,22
9463,22
9464,22
9465,22
9466,22
9467,22
9468,22
9469,22
9470,22
9471,22
9472,22
9473,22
9474,22
9475,22
9476,22
9477,22
9478,22
9479,22
9480,22
9481,22
9482,22
9483,22
9484,22
9485,22
9486,22
9487,22
9488,22
9489,22
9490,22
9491,22
9492,22
9493,22
9494,22
9495,22
9496,22
9497,22
9498,22
9499,23
9500,23
9501,22
9502,22
9503,22
9504,22
9505,22
9506,22
9507,22
9508,22
9509,22
9510,22
9511,22
9512,22
9513,22
9514,22
9515,22
9516,22
9517,22
9518,22
9519,22
9520,22
9521,22
9522,22
9523,22
9524,22
9525,22
9526,22
9527,22
9528,22
9529,22
9530,22
9531,22
9532,22
9533,22
9534,22
9535,22
9536,22
9537,22
9538,22
9539,22
9540,22
9541,22
9542,22
9543,22
9544,22
9545,22
9546,22
9547,22
9548,22
9549,22
9550,22
9551,22
9552,22
9553,22
9554,22
9555,22
9556,22
9557,22
9558,22
9559,22
9560,22
9561,22
9562,22
9563,22
9564,22
9565,22
9566,22
9567,22
9568,22
9569,22
9570,22
9571,22
9572,22
9573,22
9574,22
9575,22
9576,22
9577,22
9578,22
9579,22
9580,22
9581,22
9582,22
9583,22
9584,22
9585,22
9586,22
9587,22
9588,22
9589,22
9590,22
9591,22
9592,22
9593,22
9594,22
9595,22
9596,22
9597,22
9598,22
9599,22
9600,22
9601,22
9602,22
9603,22
9604,22
9605,22
9606,22
9607,22
9608,22
9609,22
9610,22
9611,22
9612,22
9613,22
9614,22
9615,22
9616,22
9617,22
9618,22
9619,22
9620,22
9621,22
9622,22
9623,22
9624,22
9625,22
9626,22
9627,22
9628,22
9629,22
9630,22
9631,22
9632,22
9633,22
9634,22
9635,22
9636,22
9637,22
9638,22
9639,22
9640,22
9641,22
9642,22
9643,22
9644,22
9645,22
9646,22
9647,22
9648,22
9649,22
9650,22
9651,22
9652,22
9653,22
9654,22
9655,22
9656,22
9657,22
9658,22
9659,22
9660,22
9661,22
9662,22
9663,22
9664,22
9665,22
9666,22
9667,22
9668,22
9669,22
9670,22
9671,22
9672,22
9673,22
9674,22
9675,22
9676,22
9677,22
9678,22
9679,22
9680,22
9681,22
9682,22
9683,22
9684,22
9685,23
9686,23
9687,22
9688,22
9689,22
9690,22
9691,22
9692,22
9693,22
9694,22
9695,22
9696,22
9697,22
9698,22
9699,22
9700,22
9701,22
9702,22
9703,22
9704,22
9705,22
9706,22
9707,22
9708,22
9709,22
9710,22
9711,22
9712,22
9713,22
9714,22
9715,22
9716,22
9717,22
9718,22
9719,22
9720,22
9721,22
9722,22
9723,22
9724,22
9725,22
9726,22
9727,22
9728,22
9729,22
9730,22
9731,22
9732,22
9733,22
9734,22
9735,22
9736,22
9737,22
9738,22
9739,22
9740,22
9741,22
9742,22
9743,22
9744,22
9745,22
9746,22
9747,22
9748,22
9749,22
9750,22
9751,22
9752,22
9753,22
9754,22
9755,22
9756,22
9757,22
9758,22
9759,22
9760,22
9761,22
9762,22
9763,22
9764,22
9765,22
9766,22
9767,22
9768,22
9769,22
9770,22
9771,22
9772,22
9773,22
9774,22
9775,22
9776,22
9777,22
9778,22
9779,22
9780,22
9781,22
9782,22
9783,22
9784,22
9785,22
9786,22
9787,22
9788,22
9789,22
9790,22
9791,22
9792,22
9793,22
9794,22
9795,22
9796,22
9797,22
9798,22
9799,22
9800,22
9801,22
9802,22
9803,22
9804,22
9805,22
9806,22
9807,22
9808,22
9809,22
9810,22
9811,22
9812,22
9813,22
9814,22
9815,22
9816,22
9817,22
9818,22
9819,22
9820,22
9821,22
9822,22
9823,22
9824,22
9825,22
9826,22
9827,22
9828,22
9829,22
9830,22
9831,22
9832,22
9833,22
9834,22
9835,22
9836,22
9837,22
9838,22
9839,22
9840,22
9841,22
9842,22
9843,22
9844,22
9845,22
9846,22
9847,22
9848,22
9849,22
9850,22
9851,22
9852,22
9853,22
9854,22
9855,22
9856,22
9857,22
9858,22
9859,22
9860,22
9861,22
9862,22
9863,22
9864,22
9865,22
9866,22
9867,22
9868,22
9869,22
9870,22
9871,22
9872,22
9873,22
9874,22
9875,22
9876,22
9877,22
9878,22
9879,22
9880,22
9881,22
9882,22
9883,22
9884,22
9885,22
9886,22
9887,22
9888,22
9889,22
9890,22
9891,22
9892,22
9893,22
9894,22
9895,22
9896,22
9897,22
9898,22
9899,22
9900,22
9901,22
9902,22
9903,22
9904,22
9905,22
9906,22
9907,22
9908,22
9909,22
9910,22
9911,22
9912,22
9913,22
9914,22
9915,22
9916,22
9917,22
9918,22
9919,22
9920,22
9921,22
9922,22
9923,22
9924,22
9925,22
9926,22
9927,22
9928,23
9929,23
9930,23
9931,23
9932,23
9933,23
9934,23
9935,23
9936,23
9937,23
9938,23
9939,23
9940,23
9941,23
9942,23
9943,23
9944,23
9945,23
9946,23
9947,23
9948,23
9949,23
9950,23
9951,23
9952,23
9953,23
9954,23
9955,23
9956,23
9957,23
9958,23
9959,23
9960,23
9961,23
9962,23
9963,23
9964,23
9965,23
9966,23
9967,23
9968,23
9969,23
9970,23
9971,23
9972,23
9973,23
9974,23
9975,23
9976,23
9977,23
9978,23
9979,23
9980,23
9981,23
9982,23
9983,23
9984,23
9985,23
9986,23
9987,23
9988,23
9989,23
9990,23
9991,23
9992,23
9993,23
9994,23
9995,23
9996,23
9997,23
9998,23
9999,23
10000,23
