1,3
2,3
3,3
4,3
5,3
6,3
7,3
8,3
9,3
10,3
11,3
12,3
13,3
14,3
15,3
16,3
17,3
18,3
19,3
20,3
21,3
22,3
23,3
24,3
25,4
26,4
27,4
28,4
29,4
30,4
31,4
32,5
33,5
34,5
35,5
36,5
37,5
38,5
39,5
40,5
41,5
42,5
43,5
44,5
45,5
46,5
47,5
48,5
49,5
50,5
51,5
52,5
53,5
54,5
55,5
56,5
57,5
58,5
59,5
60,5
61,5
62,5
63,5
64,5
65,5
66,5
67,5
68,5
69,5
70,5
71,5
72,5
73,5
74,5
75,5
76,5
77,5
78,5
79,5
80,5
81,5
82,5
83,5
84,5
85,5
86,5
87,5
88,5
89,5
90,5
91,5
92,5
93,5
94,5
95,5
96,5
97,5
98,5
99,5
100,5
101,5
102,5
103,5
104,5
105,5
106,5
107,5
108,5
109,5
110,5
111,5
112,6
113,6
114,5
115,5
116,5
117,5
118,5
119,5
120,5
121,5
122,5
123,5
124,5
125,5
126,5
127,5
128,5
129,5
130,5
131,5
132,5
133,5
134,5
135,5
136,5
137,5
138,5
139,5
140,5
141,5
142,5
143,5
144,5
145,5
146,5
147,5
148,5
149,5
150,5
151,5
152,5
153,5
154,5
155,5
156,5
157,5
158,5
159,5
160,5
161,6
162,5
163,5
164,5
165,5
166,5
167,5
168,5
169,5
170,5
171,5
172,5
173,5
174,5
175,6
176,5
177,5
178,5
179,5
180,6
181,6
182,6
183,6
184,5
185,5
186,5
187,5
188,5
189,5
190,5
191,5
192,5
193,5
194,5
195,5
196,5
197,5
198,5
199,5
200,5
201,5
202,5
203,5
204,5
205,5
206,5
207,5
208,5
209,5
210,5
211,5
212,5
213,5
214,5
215,5
216,5
217,5
218,5
219,5
220,5
221,5
222,5
223,5
224,5
225,5
226,5
227,5
228,5
229,5
230,5
231,5
232,5
233,5
234,5
235,5
236,5
237,5
238,5
239,5
240,5
241,5
242,5
243,5
244,5
245,5
246,5
247,5
248,5
249,5
250,5
251,5
252,5
253,5
254,5
255,5
256,5
257,5
258,5
259,5
260,5
261,5
262,5
263,5
264,5
265,5
266,5
267,5
268,5
269,5
270,5
271,5
272,5
273,5
274,5
275,5
276,5
277,5
278,5
279,5
280,5
281,5
282,5
283,6
284,6
285,6
286,6
287,6
288,6
289,6
290,6
291,6
292,6
293,6
294,6
295,6
296,6
297,6
298,6
299,6
300,6
301,6
302,6
303,6
304,6
305,6
306,6
307,6
308,6
309,6
310,6
311,6
312,6
313,6
314,6
315,6
316,6
317,6
318,6
319,6
320,6
321,6
322,7
323,6
324,6
325,6
326,6
327,6
328,6
329,6
330,6
331,6
332,6
333,6
334,6
335,6
336,6
337,6
338,6
339,6
340,6
341,6
342,6
343,6
344,6
345,6
346,7
347,7
348,7
349,7
350,6
351,6
352,6
353,6
354,6
355,6
356,6
357,6
358,6
359,6
360,6
361,6
362,6
363,6
364,6
365,6
366,6
367,6
368,6
369,6
370,6
371,6
372,6
373,6
374,6
375,6
376,6
377,6
378,6
379,6
380,6
381,6
382,6
383,6
384,6
385,6
386,6
387,6
388,6
389,6
390,6
391,6
392,6
393,6
394,6
395,6
396,6
397,6
398,6
399,6
400,6
401,6
402,6
403,6
404,6
405,6
406,6
407,6
408,6
409,6
410,6
411,6
412,6
413,6
414,6
415,6
416,6
417,6
418,6
419,6
420,6
421,6
422,6
423,6
424,6
425,6
426,6
427,6
428,6
429,6
430,6
431,6
432,6
433,6
434,6
435,6
436,6
437,6
438,6
439,6
440,6
441,6
442,6
443,6
444,6
445,6
446,6
447,6
448,6
449,6
450,6
451,6
452,6
453,7
454,6
455,6
456,6
457,6
458,6
459,6
460,6
461,6
462,6
463,6
464,6
465,6
466,6
467,6
468,6
469,6
470,6
471,6
472,6
473,6
474,6
475,6
476,6
477,6
478,6
479,6
480,6
481,6
482,6
483,6
484,6
485,6
486,6
487,6
488,6
489,6
490,6
491,6
492,6
493,6
494,6
495,6
496,6
497,6
498,6
499,6
500,6
501,6
502,6
503,6
504,6
505,6
506,6
507,6
508,6
509,6
510,6
511,6
512,6
513,6
514,6
515,6
516,6
517,6
518,6
519,6
520,6
521,6
522,6
523,6
524,6
525,6
526,6
527,6
528,6
529,6
530,6
531,6
532,6
533,6
534,6
535,6
536,6
537,6
538,6
539,6
540,6
541,6
542,6
543,6
544,6
545,6
546,6
547,6
548,6
549,6
550,6
551,7
552,6
553,7
554,7
555,7
556,7
557,7
558,7
559,7
560,7
561,7
562,7
563,7
564,7
565,7
566,7
567,7
568,7
569,7
570,7
571,7
572,7
573,7
574,7
575,7
576,7
577,7
578,7
579,7
580,7
581,7
582,7
583,7
584,7
585,7
586,7
587,7
588,7
589,7
590,7
591,7
592,7
593,7
594,7
595,7
596,7
597,7
598,7
599,7
600,7
601,7
602,7
603,7
604,7
605,7
606,7
607,7
608,7
609,7
610,7
611,7
612,7
613,7
614,7
615,7
616,7
617,7
618,7
619,7
620,7
621,7
622,7
623,7
624,7
625,7
626,7
627,7
628,7
629,7
630,7
631,7
632,7
633,7
634,7
635,7
636,7
637,7
638,7
639,7
640,7
641,7
642,7
643,7
644,7
645,7
646,8
647,7
648,7
649,7
650,7
651,7
652,7
653,7
654,8
655,8
656,8
657,8
658,8
659,8
660,8
661,8
662,8
663,8
664,8
665,8
666,9
667,9
668,9
669,9
670,9
671,8
672,8
673,8
674,8
675,8
676,8
677,8
678,8
679,8
680,8
681,8
682,8
683,8
684,8
685,8
686,8
687,8
688,8
689,8
690,8
691,8
692,8
693,8
694,8
695,8
696,8
697,8
698,8
699,9
700,9
701,9
702,9
703,9
704,9
705,9
706,9
707,9
708,9
709,9
710,9
711,9
712,9
713,9
714,9
715,9
716,9
717,9
718,9
719,9
720,9
721,9
722,9
723,9
724,9
725,9
726,9
727,9
728,9
729,9
730,9
731,9
732,9
733,9
734,9
735,9
736,9
737,9
738,9
739,9
740,9
741,9
742,9
743,9
744,9
745,9
746,9
747,9
748,9
749,9
750,9
751,9
752,9
753,9
754,9
755,9
756,9
757,9
758,9
759,9
760,9
761,9
762,9
763,9
764,9
765,9
766,9
767,9
768,9
769,9
770,9
771,9
772,9
773,9
774,9
775,9
776,9
777,9
778,9
779,9
780,9
781,9
782,9
783,9
784,9
785,9
786,9
787,9
788,9
789,9
790,9
791,9
792,9
793,9
794,9
795,9
796,9
797,9
798,9
799,9
800,9
801,9
802,9
803,9
804,9
805,9
806,9
807,9
808,9
809,9
810,9
811,9
812,9
813,9
814,9
815,9
816,9
817,9
818,9
819,9
820,9
821,9
822,9
823,9
824,9
825,9
826,9
827,9
828,9
829,9
830,9
831,9
832,9
833,9
834,9
835,9
836,9
837,9
838,9
839,9
840,9
841,9
842,9
843,9
844,9
845,9
846,9
847,9
848,9
849,9
850,9
851,9
852,9
853,9
854,9
855,9
856,9
857,9
858,9
859,9
860,9
861,9
862,9
863,9
864,9
865,9
866,9
867,9
868,9
869,9
870,9
871,9
872,9
873,9
874,9
875,9
876,9
877,9
878,9
879,9
880,9
881,9
882,9
883,9
884,9
885,9
886,9
887,9
888,9
889,9
890,9
891,9
892,9
893,9
894,9
895,9
896,9
897,9
898,9
899,9
900,9
901,9
902,9
903,9
904,9
905,9
906,9
907,9
908,9
909,9
910,9
911,9
912,9
913,9
914,9
915,9
916,9
917,9
918,9
919,9
920,9
921,9
922,9
923,9
924,9
925,9
926,9
927,9
928,9
929,9
930,9
931,9
932,9
933,9
934,9
935,9
936,9
937,9
938,9
939,9
940,9
941,9
942,9
943,9
944,9
945,9
946,9
947,9
948,9
949,9
950,9
951,9
952,9
953,9
954,9
955,9
956,9
957,9
958,9
959,9
960,9
961,9
962,9
963,9
964,9
965,9
966,9
967,9
968,9
969,9
970,9
971,9
972,9
973,9
974,9
975,9
976,9
977,9
978,9
979,9
980,9
981,9
982,9
983,9
984,9
985,9
986,9
987,9
988,9
989,9
990,9
991,9
992,9
993,9
994,9
995,9
996,9
997,9
998,9
999,9
1000,9
1001,9
1002,9
1003,9
1004,9
1005,9
1006,9
1007,9
1008,9
1009,9
1010,9
1011,10
1012,10
1013,10
1014,10
1015,10
1016,10
1017,9
1018,9
1019,9
1020,9
1021,9
1022,9
1023,9
1024,9
1025,9
1026,9
1027,9
1028,9
1029,9
1030,9
1031,9
1032,9
1033,9
1034,9
1035,9
1036,9
1037,9
1038,9
1039,9
1040,9
1041,9
1042,9
1043,9
1044,9
1045,9
1046,9
1047,9
1048,9
1049,10
1050,9
1051,9
1052,9
1053,9
1054,9
1055,9
1056,9
1057,9
1058,9
1059,9
1060,9
1061,9
1062,9
1063,9
1064,9
1065,9
1066,9
1067,10
1068,10
1069,10
1070,10
1071,10
1072,10
1073,10
1074,10
1075,10
1076,10
1077,10
1078,10
1079,11
1080,11
1081,10
1082,10
1083,10
1084,10
1085,10
1086,10
1087,10
1088,10
1089,11
1090,10
1091,10
1092,10
1093,10
1094,10
1095,10
1096,10
1097,10
1098,10
1099,10
1100,10
1101,10
1102,10
1103,10
1104,10
1105,10
1106,10
1107,10
1108,10
1109,10
1110,10
1111,10
1112,10
1113,10
1114,10
1115,10
1116,11
1117,11
1118,11
1119,11
1120,10
1121,10
1122,10
1123,10
1124,10
1125,10
1126,10
1127,10
1128,10
1129,10
1130,10
1131,11
1132,10
1133,10
1134,10
1135,10
1136,10
1137,10
1138,10
1139,10
1140,10
1141,10
1142,10
1143,10
1144,10
1145,10
1146,10
1147,10
1148,10
1149,10
1150,10
1151,10
1152,10
1153,10
1154,10
1155,10
1156,10
1157,10
1158,10
1159,10
1160,10
1161,10
1162,10
1163,10
1164,10
1165,10
1166,10
1167,10
1168,10
1169,10
1170,10
1171,10
1172,10
1173,10
1174,10
1175,10
1176,10
1177,10
1178,10
1179,10
1180,10
1181,10
1182,10
1183,10
1184,10
1185,10
1186,10
1187,10
1188,10
1189,10
1190,10
1191,10
1192,10
1193,10
1194,10
1195,10
1196,10
1197,10
1198,10
1199,10
1200,10
1201,10
1202,10
1203,10
1204,10
1205,10
1206,10
1207,10
1208,10
1209,10
1210,10
1211,10
1212,10
1213,10
1214,10
1215,10
1216,10
1217,10
1218,10
1219,10
1220,10
1221,10
1222,10
1223,10
1224,10
1225,10
1226,10
1227,10
1228,10
1229,10
1230,10
1231,10
1232,10
1233,10
1234,10
1235,10
1236,10
1237,10
1238,10
1239,10
1240,10
1241,10
1242,10
1243,10
1244,10
1245,10
1246,10
1247,10
1248,10
1249,10
1250,10
1251,10
1252,10
1253,10
1254,10
1255,10
1256,10
1257,10
1258,10
1259,10
1260,10
1261,10
1262,10
1263,10
1264,10
1265,10
1266,10
1267,10
1268,10
1269,10
1270,10
1271,10
1272,10
1273,10
1274,10
1275,10
1276,10
1277,10
1278,10
1279,10
1280,10
1281,10
1282,10
1283,10
1284,10
1285,10
1286,10
1287,10
1288,11
1289,11
1290,11
1291,11
1292,11
1293,11
1294,11
1295,11
1296,11
1297,11
1298,11
1299,11
1300,11
1301,11
1302,11
1303,11
1304,11
1305,11
1306,11
1307,11
1308,11
1309,11
1310,11
1311,11
1312,11
1313,11
1314,11
1315,11
1316,11
1317,11
1318,11
1319,11
1320,11
1321,11
1322,11
1323,12
1324,12
1325,12
1326,12
1327,12
1328,12
1329,12
1330,12
1331,12
1332,12
1333,11
1334,11
1335,12
1336,12
1337,11
1338,11
1339,11
1340,11
1341,11
1342,11
1343,11
1344,11
1345,11
1346,11
1347,11
1348,11
1349,11
1350,11
1351,11
1352,11
1353,11
1354,11
1355,11
1356,11
1357,11
1358,11
1359,11
1360,11
1361,11
1362,11
1363,11
1364,11
1365,11
1366,11
1367,11
1368,11
1369,11
1370,11
1371,11
1372,11
1373,11
1374,11
1375,11
1376,11
1377,11
1378,11
1379,11
1380,11
1381,11
1382,11
1383,11
1384,11
1385,11
1386,11
1387,12
1388,12
1389,11
1390,11
1391,11
1392,11
1393,11
1394,12
1395,12
1396,12
1397,12
1398,12
1399,12
1400,12
1401,12
1402,12
1403,12
1404,12
1405,12
1406,11
1407,11
1408,11
1409,11
1410,11
1411,11
1412,11
1413,11
1414,11
1415,11
1416,11
1417,11
1418,11
1419,11
1420,11
1421,11
1422,11
1423,11
1424,11
1425,11
1426,12
1427,12
1428,12
1429,12
1430,12
1431,12
1432,12
1433,12
1434,12
1435,12
1436,12
1437,11
1438,11
1439,11
1440,11
1441,11
1442,11
1443,11
1444,11
1445,11
1446,11
1447,11
1448,11
1449,11
1450,11
1451,11
1452,11
1453,11
1454,11
1455,11
1456,11
1457,11
1458,11
1459,11
1460,11
1461,11
1462,11
1463,11
1464,11
1465,11
1466,11
1467,11
1468,11
1469,11
1470,11
1471,11
1472,11
1473,11
1474,11
1475,11
1476,11
1477,11
1478,11
1479,11
1480,11
1481,12
1482,12
1483,12
1484,12
1485,11
1486,11
1487,11
1488,11
1489,11
1490,11
1491,11
1492,11
1493,11
1494,11
1495,11
1496,11
1497,11
1498,11
1499,11
1500,11
1501,11
1502,11
1503,11
1504,11
1505,11
1506,11
1507,11
1508,11
1509,11
1510,11
1511,11
1512,11
1513,11
1514,11
1515,11
1516,11
1517,11
1518,11
1519,11
1520,11
1521,11
1522,11
1523,11
1524,11
1525,11
1526,11
1527,11
1528,11
1529,11
1530,11
1531,11
1532,11
1533,11
1534,11
1535,11
1536,11
1537,12
1538,12
1539,12
1540,12
1541,11
1542,11
1543,11
1544,12
1545,11
1546,11
1547,11
1548,11
1549,11
1550,11
1551,11
1552,11
1553,11
1554,11
1555,11
1556,11
1557,11
1558,11
1559,11
1560,11
1561,11
1562,11
1563,11
1564,11
1565,11
1566,11
1567,11
1568,11
1569,11
1570,11
1571,11
1572,11
1573,11
1574,11
1575,11
1576,11
1577,11
1578,11
1579,11
1580,11
1581,11
1582,11
1583,11
1584,11
1585,11
1586,11
1587,11
1588,11
1589,11
1590,11
1591,11
1592,11
1593,11
1594,11
1595,11
1596,11
1597,11
1598,11
1599,11
1600,11
1601,11
1602,11
1603,11
1604,11
1605,11
1606,11
1607,11
1608,11
1609,11
1610,11
1611,11
1612,11
1613,11
1614,11
1615,11
1616,11
1617,11
1618,11
1619,11
1620,11
1621,11
1622,11
1623,11
1624,11
1625,11
1626,11
1627,11
1628,11
1629,11
1630,11
1631,11
1632,11
1633,11
1634,11
1635,11
1636,11
1637,11
1638,11
1639,12
1640,12
1641,11
1642,11
1643,11
1644,11
1645,11
1646,11
1647,11
1648,11
1649,11
1650,11
1651,11
1652,11
1653,11
1654,11
1655,11
1656,11
1657,11
1658,11
1659,11
1660,12
1661,12
1662,12
1663,12
1664,11
1665,11
1666,11
1667,11
1668,11
1669,11
1670,11
1671,11
1672,11
1673,11
1674,11
1675,12
1676,11
1677,11
1678,11
1679,11
1680,11
1681,11
1682,11
1683,11
1684,11
1685,11
1686,11
1687,11
1688,11
1689,11
1690,11
1691,11
1692,11
1693,11
1694,11
1695,11
1696,11
1697,12
1698,12
1699,12
1700,12
1701,12
1702,12
1703,12
1704,12
1705,12
1706,12
1707,12
1708,12
1709,12
1710,12
1711,12
1712,12
1713,12
1714,12
1715,12
1716,12
1717,12
1718,12
1719,12
1720,12
1721,12
1722,12
1723,12
1724,12
1725,12
1726,12
1727,12
1728,12
1729,12
1730,12
1731,12
1732,12
1733,12
1734,12
1735,12
1736,12
1737,12
1738,12
1739,12
1740,12
1741,12
1742,12
1743,12
1744,12
1745,12
1746,12
1747,12
1748,12
1749,12
1750,12
1751,12
1752,12
1753,12
1754,12
1755,12
1756,13
1757,12
1758,12
1759,12
1760,12
1761,12
1762,12
1763,12
1764,12
1765,12
1766,12
1767,12
1768,12
1769,12
1770,12
1771,12
1772,12
1773,12
1774,12
1775,12
1776,12
1777,12
1778,12
1779,12
1780,12
1781,12
1782,12
1783,13
1784,13
1785,12
1786,12
1787,12
1788,12
1789,12
1790,12
1791,12
1792,12
1793,12
1794,12
1795,12
1796,12
1797,12
1798,12
1799,12
1800,12
1801,12
1802,12
1803,12
1804,12
1805,12
1806,12
1807,12
1808,12
1809,12
1810,12
1811,12
1812,12
1813,12
1814,12
1815,12
1816,12
1817,12
1818,12
1819,12
1820,12
1821,13
1822,13
1823,13
1824,12
1825,12
1826,12
1827,12
1828,12
1829,12
1830,13
1831,13
1832,13
1833,13
1834,13
1835,13
1836,13
1837,13
1838,13
1839,13
1840,13
1841,13
1842,13
1843,13
1844,13
1845,13
1846,13
1847,13
1848,13
1849,13
1850,13
1851,13
1852,13
1853,13
1854,13
1855,13
1856,13
1857,13
1858,13
1859,13
1860,14
1861,14
1862,14
1863,14
1864,13
1865,13
1866,13
1867,13
1868,13
1869,13
1870,13
1871,13
1872,13
1873,13
1874,13
1875,13
1876,13
1877,13
1878,13
1879,13
1880,13
1881,13
1882,13
1883,13
1884,13
1885,13
1886,13
1887,13
1888,13
1889,13
1890,13
1891,13
1892,13
1893,13
1894,13
1895,13
1896,13
1897,13
1898,13
1899,13
1900,13
1901,13
1902,13
1903,13
1904,13
1905,13
1906,13
1907,13
1908,13
1909,13
1910,14
1911,14
1912,13
1913,13
1914,13
1915,13
1916,13
1917,13
1918,13
1919,13
1920,13
1921,13
1922,13
1923,13
1924,13
1925,13
1926,13
1927,13
1928,13
1929,13
1930,13
1931,13
1932,13
1933,13
1934,13
1935,13
1936,13
1937,13
1938,13
1939,13
1940,13
1941,13
1942,13
1943,13
1944,13
1945,13
1946,13
1947,13
1948,13
1949,13
1950,13
1951,13
1952,13
1953,13
1954,13
1955,13
1956,13
1957,13
1958,13
1959,13
1960,13
1961,13
1962,13
1963,13
1964,13
1965,13
1966,13
1967,13
1968,13
1969,13
1970,13
1971,13
1972,13
1973,13
1974,13
1975,13
1976,13
1977,13
1978,13
1979,13
1980,13
1981,13
1982,13
1983,13
1984,13
1985,13
1986,13
1987,13
1988,13
1989,13
1990,13
1991,13
1992,13
1993,13
1994,13
1995,13
1996,13
1997,13
1998,13
1999,13
2000,13
2001,13
2002,13
2003,13
2004,13
2005,13
2006,13
2007,13
2008,13
2009,13
2010,13
2011,13
2012,13
2013,13
2014,13
2015,13
2016,13
2017,13
2018,13
2019,13
2020,13
2021,13
2022,13
2023,13
2024,13
2025,13
2026,13
2027,13
2028,13
2029,13
2030,13
2031,13
2032,13
2033,13
2034,13
2035,13
2036,13
2037,13
2038,13
2039,13
2040,13
2041,13
2042,13
2043,13
2044,13
2045,13
2046,13
2047,13
2048,13
2049,13
2050,13
2051,13
2052,13
2053,13
2054,13
2055,13
2056,13
2057,13
2058,13
2059,13
2060,13
2061,13
2062,13
2063,13
2064,13
2065,13
2066,13
2067,13
2068,13
2069,13
2070,13
2071,13
2072,13
2073,13
2074,13
2075,13
2076,13
2077,13
2078,13
2079,13
2080,13
2081,13
2082,13
2083,13
2084,13
2085,13
2086,14
2087,14
2088,14
2089,13
2090,13
2091,13
2092,13
2093,13
2094,13
2095,13
2096,13
2097,13
2098,13
2099,13
2100,13
2101,13
2102,13
2103,13
2104,13
2105,13
2106,13
2107,13
2108,13
2109,13
2110,13
2111,13
2112,13
2113,13
2114,13
2115,13
2116,13
2117,13
2118,13
2119,13
2120,13
2121,13
2122,13
2123,13
2124,13
2125,13
2126,13
2127,13
2128,13
2129,13
2130,13
2131,13
2132,13
2133,13
2134,13
2135,13
2136,13
2137,13
2138,13
2139,13
2140,14
2141,13
2142,13
2143,13
2144,13
2145,13
2146,13
2147,13
2148,14
2149,14
2150,14
2151,14
2152,15
2153,15
2154,15
2155,15
2156,15
2157,15
2158,15
2159,15
2160,15
2161,15
2162,15
2163,15
2164,15
2165,15
2166,15
2167,15
2168,15
2169,15
2170,15
2171,15
2172,15
2173,15
2174,15
2175,15
2176,15
2177,15
2178,15
2179,15
2180,15
2181,15
2182,15
2183,15
2184,15
2185,15
2186,15
2187,15
2188,16
2189,16
2190,16
2191,16
2192,16
2193,15
2194,15
2195,15
2196,15
2197,15
2198,15
2199,15
2200,15
2201,16
2202,16
2203,16
2204,16
2205,15
2206,15
2207,15
2208,15
2209,15
2210,15
2211,15
2212,15
2213,15
2214,15
2215,15
2216,15
2217,15
2218,15
2219,15
2220,15
2221,15
2222,15
2223,15
2224,15
2225,15
2226,15
2227,15
2228,15
2229,15
2230,15
2231,15
2232,15
2233,15
2234,15
2235,15
2236,15
2237,15
2238,15
2239,15
2240,15
2241,15
2242,15
2243,15
2244,15
2245,15
2246,15
2247,15
2248,15
2249,15
2250,15
2251,15
2252,15
2253,15
2254,15
2255,15
2256,15
2257,15
2258,15
2259,15
2260,15
2261,15
2262,15
2263,15
2264,15
2265,15
2266,15
2267,15
2268,15
2269,15
2270,15
2271,15
2272,15
2273,15
2274,15
2275,15
2276,15
2277,15
2278,15
2279,15
2280,15
2281,15
2282,15
2283,15
2284,15
2285,15
2286,15
2287,15
2288,15
2289,15
2290,15
2291,15
2292,15
2293,15
2294,15
2295,15
2296,15
2297,15
2298,15
2299,15
2300,15
2301,15
2302,15
2303,15
2304,15
2305,15
2306,15
2307,15
2308,15
2309,15
2310,15
2311,15
2312,15
2313,15
2314,15
2315,15
2316,15
2317,15
2318,15
2319,15
2320,15
2321,15
2322,15
2323,15
2324,15
2325,15
2326,15
2327,15
2328,15
2329,15
2330,15
2331,15
2332,15
2333,15
2334,15
2335,15
2336,15
2337,15
2338,15
2339,15
2340,15
2341,15
2342,15
2343,15
2344,15
2345,15
2346,15
2347,15
2348,15
2349,15
2350,15
2351,15
2352,15
2353,15
2354,15
2355,15
2356,15
2357,15
2358,15
2359,15
2360,15
2361,15
2362,15
2363,15
2364,15
2365,15
2366,15
2367,15
2368,15
2369,15
2370,15
2371,15
2372,15
2373,15
2374,15
2375,15
2376,15
2377,15
2378,15
2379,15
2380,15
2381,15
2382,15
2383,15
2384,15
2385,15
2386,15
2387,15
2388,15
2389,16
2390,16
2391,16
2392,16
2393,16
2394,16
2395,16
2396,16
2397,16
2398,16
2399,16
2400,16
2401,16
2402,16
2403,16
2404,16
2405,16
2406,16
2407,16
2408,16
2409,16
2410,16
2411,16
2412,16
2413,16
2414,16
2415,16
2416,16
2417,16
2418,16
2419,16
2420,16
2421,16
2422,16
2423,16
2424,16
2425,16
2426,16
2427,16
2428,16
2429,16
2430,16
2431,16
2432,16
2433,16
2434,16
2435,16
2436,16
2437,16
2438,16
2439,16
2440,16
2441,16
2442,16
2443,16
2444,16
2445,16
2446,16
2447,16
2448,16
2449,16
2450,16
2451,16
2452,16
2453,16
2454,16
2455,16
2456,16
2457,16
2458,16
2459,16
2460,16
2461,16
2462,16
2463,16
2464,16
2465,16
2466,16
2467,16
2468,16
2469,16
2470,16
2471,16
2472,16
2473,16
2474,16
2475,16
2476,16
2477,16
2478,16
2479,16
2480,16
2481,16
2482,16
2483,16
2484,16
2485,16
2486,16
2487,17
2488,16
2489,16
2490,16
2491,16
2492,16
2493,16
2494,16
2495,16
2496,16
2497,16
2498,16
2499,16
2500,16
2501,16
2502,16
2503,16
2504,16
2505,16
2506,16
2507,16
2508,16
2509,16
2510,16
2511,16
2512,16
2513,16
2514,16
2515,16
2516,16
2517,16
2518,16
2519,16
2520,16
2521,16
2522,16
2523,16
2524,16
2525,16
2526,16
2527,16
2528,16
2529,16
2530,16
2531,16
2532,16
2533,16
2534,16
2535,16
2536,16
2537,16
2538,16
2539,17
2540,17
2541,17
2542,17
2543,17
2544,17
2545,17
2546,17
2547,16
2548,16
2549,16
2550,16
2551,16
2552,16
2553,16
2554,16
2555,16
2556,16
2557,16
2558,16
2559,16
2560,16
2561,16
2562,16
2563,16
2564,16
2565,16
2566,16
2567,16
2568,16
2569,16
2570,16
2571,16
2572,16
2573,16
2574,16
2575,16
2576,16
2577,16
2578,16
2579,16
2580,16
2581,16
2582,16
2583,16
2584,16
2585,16
2586,16
2587,16
2588,16
2589,16
2590,16
2591,16
2592,16
2593,16
2594,16
2595,16
2596,16
2597,16
2598,16
2599,16
2600,16
2601,16
2602,16
2603,16
2604,16
2605,16
2606,16
2607,16
2608,16
2609,16
2610,16
2611,16
2612,16
2613,16
2614,16
2615,16
2616,16
2617,16
2618,16
2619,16
2620,16
2621,16
2622,16
2623,16
2624,16
2625,16
2626,16
2627,16
2628,16
2629,16
2630,16
2631,16
2632,16
2633,16
2634,16
2635,16
2636,16
2637,16
2638,16
2639,16
2640,16
2641,16
2642,16
2643,16
2644,16
2645,16
2646,16
2647,16
2648,16
2649,16
2650,16
2651,16
2652,16
2653,16
2654,16
2655,16
2656,16
2657,16
2658,16
2659,16
2660,16
2661,16
2662,16
2663,16
2664,16
2665,16
2666,16
2667,16
2668,16
2669,16
2670,16
2671,16
2672,16
2673,16
2674,16
2675,16
2676,16
2677,16
2678,16
2679,16
2680,16
2681,16
2682,16
2683,16
2684,16
2685,16
2686,16
2687,16
2688,16
2689,16
2690,16
2691,16
2692,16
2693,16
2694,16
2695,16
2696,16
2697,16
2698,16
2699,16
2700,16
2701,16
2702,16
2703,16
2704,16
2705,16
2706,16
2707,16
2708,17
2709,17
2710,17
2711,17
2712,17
2713,16
2714,16
2715,16
2716,16
2717,16
2718,16
2719,16
2720,16
2721,16
2722,16
2723,16
2724,16
2725,16
2726,16
2727,16
2728,16
2729,16
2730,16
2731,16
2732,16
2733,16
2734,16
2735,16
2736,16
2737,17
2738,17
2739,16
2740,16
2741,16
2742,16
2743,16
2744,16
2745,16
2746,16
2747,16
2748,16
2749,16
2750,16
2751,16
2752,16
2753,16
2754,16
2755,16
2756,16
2757,16
2758,16
2759,16
2760,16
2761,16
2762,16
2763,16
2764,16
2765,16
2766,16
2767,16
2768,16
2769,16
2770,16
2771,16
2772,16
2773,16
2774,16
2775,16
2776,16
2777,16
2778,16
2779,17
2780,16
2781,16
2782,16
2783,16
2784,16
2785,16
2786,16
2787,16
2788,16
2789,16
2790,16
2791,16
2792,16
2793,16
2794,16
2795,16
2796,16
2797,16
2798,16
2799,16
2800,16
2801,16
2802,16
2803,16
2804,16
2805,16
2806,16
2807,16
2808,16
2809,16
2810,16
2811,16
2812,16
2813,16
2814,16
2815,16
2816,16
2817,16
2818,16
2819,16
2820,16
2821,16
2822,17
2823,17
2824,17
2825,17
2826,17
2827,17
2828,17
2829,17
2830,17
2831,17
2832,17
2833,16
2834,16
2835,16
2836,16
2837,16
2838,16
2839,16
2840,16
2841,16
2842,16
2843,16
2844,16
2845,16
2846,16
2847,16
2848,16
2849,16
2850,16
2851,16
2852,16
2853,16
2854,16
2855,16
2856,16
2857,16
2858,16
2859,16
2860,16
2861,16
2862,16
2863,16
2864,16
2865,16
2866,16
2867,16
2868,16
2869,16
2870,16
2871,16
2872,16
2873,16
2874,16
2875,16
2876,16
2877,16
2878,16
2879,16
2880,16
2881,16
2882,16
2883,16
2884,16
2885,16
2886,16
2887,16
2888,16
2889,16
2890,16
2891,16
2892,16
2893,16
2894,16
2895,16
2896,16
2897,16
2898,16
2899,16
2900,16
2901,16
2902,16
2903,16
2904,16
2905,16
2906,16
2907,16
2908,16
2909,16
2910,16
2911,16
2912,16
2913,16
2914,16
2915,16
2916,16
2917,16
2918,16
2919,16
2920,16
2921,16
2922,16
2923,16
2924,16
2925,16
2926,16
2927,16
2928,16
2929,16
2930,16
2931,16
2932,16
2933,16
2934,16
2935,16
2936,16
2937,16
2938,16
2939,16
2940,16
2941,16
2942,16
2943,16
2944,16
2945,17
2946,16
2947,16
2948,16
2949,16
2950,16
2951,16
2952,16
2953,16
2954,16
2955,16
2956,16
2957,16
2958,16
2959,16
2960,16
2961,16
2962,16
2963,16
2964,16
2965,16
2966,16
2967,16
2968,16
2969,16
2970,16
2971,16
2972,16
2973,16
2974,16
2975,16
2976,16
2977,16
2978,16
2979,16
2980,16
2981,16
2982,16
2983,16
2984,16
2985,16
2986,16
2987,16
2988,16
2989,16
2990,16
2991,16
2992,16
2993,16
2994,16
2995,16
2996,16
2997,16
2998,16
2999,16
3000,16
3001,16
3002,16
3003,16
3004,16
3005,16
3006,16
3007,16
3008,16
3009,16
3010,16
3011,16
3012,16
3013,16
3014,16
3015,16
3016,16
3017,16
3018,16
3019,16
3020,16
3021,16
3022,16
3023,16
3024,16
3025,16
3026,16
3027,16
3028,16
3029,16
3030,16
3031,16
3032,16
3033,16
3034,16
3035,16
3036,16
3037,16
3038,16
3039,16
3040,16
3041,16
3042,16
3043,16
3044,16
3045,16
3046,16
3047,16
3048,16
3049,16
3050,16
3051,16
3052,16
3053,16
3054,16
3055,16
3056,16
3057,16
3058,16
3059,16
3060,16
3061,16
3062,16
3063,16
3064,16
3065,16
3066,16
3067,16
3068,16
3069,16
3070,16
3071,16
3072,16
3073,16
3074,16
3075,16
3076,16
3077,16
3078,16
3079,16
3080,16
3081,16
3082,16
3083,16
3084,16
3085,16
3086,16
3087,16
3088,16
3089,16
3090,16
3091,16
3092,16
3093,16
3094,16
3095,16
3096,16
3097,16
3098,16
3099,16
3100,16
3101,16
3102,16
3103,16
3104,16
3105,16
3106,16
3107,16
3108,16
3109,16
3110,16
3111,16
3112,16
3113,16
3114,16
3115,16
3116,16
3117,16
3118,16
3119,16
3120,16
3121,16
3122,16
3123,16
3124,16
3125,16
3126,16
3127,16
3128,16
3129,16
3130,16
3131,16
3132,16
3133,16
3134,16
3135,16
3136,16
3137,16
3138,16
3139,16
3140,16
3141,16
3142,16
3143,16
3144,16
3145,16
3146,16
3147,16
3148,16
3149,16
3150,16
3151,16
3152,16
3153,16
3154,16
3155,16
3156,16
3157,16
3158,16
3159,16
3160,16
3161,16
3162,16
3163,16
3164,16
3165,16
3166,16
3167,16
3168,16
3169,17
3170,17
3171,17
3172,17
3173,17
3174,17
3175,17
3176,17
3177,17
3178,17
3179,17
3180,17
3181,17
3182,16
3183,16
3184,16
3185,16
3186,16
3187,16
3188,16
3189,16
3190,16
3191,16
3192,16
3193,16
3194,16
3195,16
3196,16
3197,16
3198,16
3199,16
3200,16
3201,16
3202,16
3203,16
3204,16
3205,16
3206,16
3207,16
3208,16
3209,16
3210,16
3211,16
3212,16
3213,16
3214,16
3215,16
3216,16
3217,16
3218,16
3219,16
3220,16
3221,17
3222,16
3223,16
3224,16
3225,16
3226,16
3227,16
3228,16
3229,16
3230,16
3231,16
3232,16
3233,16
3234,16
3235,16
3236,16
3237,16
3238,16
3239,16
3240,16
3241,16
3242,16
3243,16
3244,16
3245,16
3246,16
3247,16
3248,16
3249,16
3250,16
3251,16
3252,16
3253,16
3254,16
3255,16
3256,16
3257,16
3258,16
3259,16
3260,16
3261,16
3262,16
3263,16
3264,16
3265,16
3266,16
3267,16
3268,16
3269,16
3270,16
3271,16
3272,16
3273,16
3274,16
3275,16
3276,16
3277,16
3278,16
3279,16
3280,16
3281,16
3282,16
3283,16
3284,16
3285,17
3286,16
3287,16
3288,16
3289,16
3290,16
3291,16
3292,16
3293,16
3294,16
3295,16
3296,16
3297,16
3298,16
3299,16
3300,16
3301,16
3302,16
3303,16
3304,16
3305,16
3306,16
3307,16
3308,16
3309,16
3310,16
3311,16
3312,16
3313,16
3314,16
3315,16
3316,16
3317,16
3318,16
3319,16
3320,16
3321,16
3322,16
3323,16
3324,16
3325,17
3326,17
3327,17
3328,17
3329,16
3330,16
3331,16
3332,16
3333,16
3334,16
3335,16
3336,17
3337,17
3338,17
3339,17
3340,16
3341,16
3342,16
3343,16
3344,16
3345,16
3346,16
3347,16
3348,16
3349,16
3350,16
3351,16
3352,16
3353,16
3354,16
3355,16
3356,16
3357,16
3358,16
3359,16
3360,16
3361,16
3362,16
3363,16
3364,16
3365,16
3366,16
3367,16
3368,16
3369,16
3370,16
3371,16
3372,16
3373,16
3374,16
3375,16
3376,16
3377,16
3378,16
3379,16
3380,16
3381,16
3382,16
3383,16
3384,16
3385,16
3386,16
3387,16
3388,16
3389,16
3390,16
3391,16
3392,16
3393,16
3394,16
3395,16
3396,16
3397,16
3398,16
3399,16
3400,16
3401,16
3402,16
3403,16
3404,16
3405,16
3406,16
3407,16
3408,16
3409,16
3410,16
3411,16
3412,16
3413,16
3414,16
3415,16
3416,16
3417,16
3418,16
3419,16
3420,16
3421,16
3422,16
3423,16
3424,16
3425,16
3426,16
3427,16
3428,16
3429,16
3430,16
3431,16
3432,16
3433,16
3434,16
3435,16
3436,16
3437,16
3438,16
3439,16
3440,16
3441,16
3442,16
3443,16
3444,16
3445,16
3446,16
3447,16
3448,16
3449,16
3450,16
3451,16
3452,16
3453,16
3454,16
3455,16
3456,16
3457,16
3458,16
3459,16
3460,16
3461,16
3462,16
3463,16
3464,16
3465,16
3466,16
3467,16
3468,16
3469,16
3470,16
3471,16
3472,16
3473,16
3474,16
3475,16
3476,16
3477,16
3478,16
3479,16
3480,16
3481,16
3482,16
3483,16
3484,16
3485,16
3486,16
3487,16
3488,16
3489,16
3490,16
3491,17
3492,17
3493,17
3494,17
3495,16
3496,16
3497,16
3498,16
3499,16
3500,16
3501,16
3502,16
3503,16
3504,16
3505,16
3506,16
3507,16
3508,16
3509,16
3510,16
3511,16
3512,16
3513,16
3514,16
3515,16
3516,16
3517,16
3518,16
3519,16
3520,16
3521,17
3522,16
3523,16
3524,16
3525,16
3526,16
3527,16
3528,16
3529,16
3530,16
3531,16
3532,16
3533,16
3534,16
3535,16
3536,16
3537,16
3538,16
3539,16
3540,17
3541,17
3542,17
3543,16
3544,16
3545,16
3546,16
3547,16
3548,16
3549,16
3550,16
3551,16
3552,16
3553,16
3554,16
3555,16
3556,16
3557,16
3558,16
3559,16
3560,16
3561,16
3562,16
3563,16
3564,16
3565,16
3566,16
3567,16
3568,16
3569,16
3570,16
3571,16
3572,16
3573,16
3574,16
3575,16
3576,16
3577,16
3578,16
3579,16
3580,16
3581,16
3582,16
3583,16
3584,17
3585,16
3586,16
3587,16
3588,16
3589,16
3590,16
3591,16
3592,16
3593,16
3594,16
3595,16
3596,16
3597,16
3598,16
3599,16
3600,16
3601,16
3602,16
3603,16
3604,16
3605,16
3606,16
3607,16
3608,16
3609,16
3610,16
3611,16
3612,16
3613,16
3614,16
3615,16
3616,16
3617,16
3618,16
3619,16
3620,16
3621,16
3622,16
3623,16
3624,16
3625,17
3626,16
3627,16
3628,16
3629,17
3630,16
3631,16
3632,16
3633,16
3634,16
3635,16
3636,17
3637,16
3638,16
3639,16
3640,16
3641,16
3642,16
3643,16
3644,16
3645,16
3646,16
3647,16
3648,16
3649,16
3650,16
3651,16
3652,16
3653,16
3654,16
3655,16
3656,16
3657,16
3658,16
3659,16
3660,16
3661,16
3662,16
3663,16
3664,16
3665,16
3666,16
3667,16
3668,16
3669,16
3670,16
3671,16
3672,16
3673,16
3674,16
3675,16
3676,16
3677,16
3678,16
3679,16
3680,16
3681,16
3682,16
3683,16
3684,16
3685,16
3686,16
3687,16
3688,16
3689,16
3690,16
3691,16
3692,16
3693,16
3694,16
3695,16
3696,16
3697,16
3698,16
3699,16
3700,16
3701,16
3702,16
3703,16
3704,16
3705,16
3706,16
3707,16
3708,16
3709,16
3710,16
3711,16
3712,17
3713,16
3714,16
3715,16
3716,16
3717,16
3718,16
3719,17
3720,17
3721,16
3722,16
3723,16
3724,16
3725,16
3726,16
3727,16
3728,16
3729,16
3730,16
3731,16
3732,16
3733,16
3734,16
3735,16
3736,16
3737,16
3738,16
3739,16
3740,16
3741,16
3742,16
3743,16
3744,16
3745,16
3746,16
3747,16
3748,16
3749,16
3750,16
3751,16
3752,16
3753,16
3754,16
3755,16
3756,16
3757,16
3758,16
3759,16
3760,16
3761,16
3762,16
3763,16
3764,16
3765,16
3766,16
3767,16
3768,16
3769,16
3770,16
3771,16
3772,16
3773,16
3774,16
3775,16
3776,16
3777,16
3778,16
3779,16
3780,16
3781,16
3782,16
3783,16
3784,16
3785,16
3786,16
3787,16
3788,16
3789,16
3790,16
3791,16
3792,16
3793,16
3794,16
3795,16
3796,16
3797,16
3798,16
3799,16
3800,16
3801,16
3802,16
3803,16
3804,16
3805,16
3806,16
3807,16
3808,16
3809,16
3810,16
3811,16
3812,16
3813,16
3814,16
3815,16
3816,16
3817,16
3818,16
3819,16
3820,16
3821,16
3822,16
3823,16
3824,16
3825,16
3826,16
3827,16
3828,16
3829,16
3830,16
3831,16
3832,16
3833,16
3834,16
3835,16
3836,16
3837,16
3838,16
3839,16
3840,16
3841,16
3842,16
3843,16
3844,16
3845,16
3846,16
3847,16
3848,16
3849,16
3850,16
3851,16
3852,16
3853,16
3854,16
3855,16
3856,17
3857,17
3858,16
3859,16
3860,16
3861,16
3862,16
3863,16
3864,16
3865,16
3866,16
3867,16
3868,16
3869,16
3870,16
3871,16
3872,16
3873,16
3874,16
3875,16
3876,16
3877,16
3878,16
3879,16
3880,16
3881,16
3882,16
3883,16
3884,16
3885,16
3886,16
3887,16
3888,16
3889,16
3890,16
3891,16
3892,16
3893,16
3894,16
3895,16
3896,16
3897,16
3898,16
3899,16
3900,16
3901,16
3902,16
3903,16
3904,16
3905,16
3906,16
3907,16
3908,16
3909,16
3910,16
3911,16
3912,16
3913,16
3914,16
3915,16
3916,16
3917,16
3918,16
3919,16
3920,16
3921,16
3922,16
3923,16
3924,16
3925,16
3926,16
3927,16
3928,16
3929,16
3930,16
3931,16
3932,16
3933,16
3934,16
3935,16
3936,16
3937,16
3938,16
3939,16
3940,16
3941,16
3942,16
3943,16
3944,16
3945,16
3946,16
3947,16
3948,16
3949,16
3950,16
3951,16
3952,16
3953,16
3954,16
3955,16
3956,16
3957,16
3958,16
3959,16
3960,16
3961,16
3962,16
3963,16
3964,16
3965,16
3966,16
3967,16
3968,16
3969,16
3970,16
3971,16
3972,16
3973,16
3974,16
3975,16
3976,16
3977,16
3978,16
3979,16
3980,16
3981,16
3982,16
3983,16
3984,16
3985,16
3986,16
3987,16
3988,16
3989,16
3990,16
3991,16
3992,16
3993,16
3994,16
3995,16
3996,16
3997,16
3998,16
3999,16
4000,16
4001,16
4002,16
4003,16
4004,17
4005,17
4006,16
4007,16
4008,16
4009,16
4010,16
4011,16
4012,16
4013,16
4014,16
4015,17
4016,16
4017,16
4018,16
4019,16
4020,16
4021,16
4022,16
4023,17
4024,17
4025,17
4026,17
4027,17
4028,17
4029,17
4030,17
4031,17
4032,17
4033,17
4034,17
4035,17
4036,17
4037,17
4038,17
4039,17
4040,17
4041,17
4042,17
4043,17
4044,17
4045,18
4046,17
4047,16
4048,16
4049,16
4050,16
4051,16
4052,16
4053,16
4054,16
4055,16
4056,16
4057,16
4058,16
4059,16
4060,16
4061,16
4062,16
4063,16
4064,16
4065,16
4066,16
4067,16
4068,16
4069,16
4070,16
4071,16
4072,16
4073,16
4074,16
4075,16
4076,16
4077,16
4078,16
4079,16
4080,16
4081,16
4082,16
4083,16
4084,16
4085,16
4086,16
4087,16
4088,16
4089,16
4090,16
4091,16
4092,16
4093,16
4094,16
4095,16
4096,16
4097,16
4098,16
4099,16
4100,16
4101,16
4102,16
4103,16
4104,16
4105,16
4106,16
4107,16
4108,16
4109,16
4110,16
4111,16
4112,16
4113,16
4114,16
4115,16
4116,16
4117,16
4118,16
4119,16
4120,16
4121,16
4122,16
4123,16
4124,16
4125,16
4126,16
4127,16
4128,16
4129,16
4130,16
4131,16
4132,16
4133,16
4134,16
4135,16
4136,16
4137,16
4138,16
4139,16
4140,16
4141,16
4142,16
4143,16
4144,16
4145,16
4146,16
4147,16
4148,16
4149,16
4150,16
4151,16
4152,16
4153,16
4154,16
4155,16
4156,16
4157,16
4158,16
4159,16
4160,16
4161,16
4162,16
4163,16
4164,16
4165,17
4166,17
4167,17
4168,17
4169,17
4170,17
4171,17
4172,16
4173,16
4174,16
4175,16
4176,16
4177,16
4178,16
4179,16
4180,16
4181,16
4182,16
4183,16
4184,16
4185,16
4186,16
4187,16
4188,16
4189,16
4190,16
4191,16
4192,16
4193,16
4194,16
4195,16
4196,16
4197,16
4198,16
4199,16
4200,16
4201,16
4202,16
4203,16
4204,16
4205,16
4206,16
4207,16
4208,16
4209,16
4210,16
4211,16
4212,16
4213,16
4214,16
4215,16
4216,16
4217,16
4218,16
4219,16
4220,16
4221,16
4222,16
4223,16
4224,16
4225,16
4226,16
4227,16
4228,16
4229,16
4230,16
4231,16
4232,16
4233,16
4234,16
4235,16
4236,16
4237,16
4238,16
4239,16
4240,16
4241,16
4242,16
4243,16
4244,16
4245,16
4246,16
4247,16
4248,16
4249,16
4250,16
4251,16
4252,16
4253,16
4254,16
4255,16
4256,16
4257,16
4258,16
4259,16
4260,16
4261,16
4262,16
4263,16
4264,16
4265,16
4266,16
4267,16
4268,16
4269,16
4270,16
4271,16
4272,16
4273,16
4274,16
4275,16
4276,16
4277,16
4278,16
4279,16
4280,16
4281,16
4282,16
4283,16
4284,16
4285,16
4286,16
4287,16
4288,16
4289,16
4290,16
4291,16
4292,16
4293,16
4294,16
4295,16
4296,16
4297,16
4298,16
4299,17
4300,17
4301,17
4302,17
4303,17
4304,17
4305,17
4306,17
4307,17
4308,17
4309,16
4310,16
4311,16
4312,16
4313,16
4314,16
4315,16
4316,16
4317,16
4318,16
4319,16
4320,16
4321,16
4322,16
4323,16
4324,16
4325,16
4326,16
4327,16
4328,16
4329,16
4330,16
4331,16
4332,16
4333,16
4334,16
4335,16
4336,16
4337,16
4338,16
4339,16
4340,16
4341,16
4342,16
4343,16
4344,16
4345,16
4346,16
4347,16
4348,16
4349,16
4350,16
4351,16
4352,16
4353,16
4354,16
4355,16
4356,16
4357,16
4358,16
4359,16
4360,16
4361,16
4362,16
4363,16
4364,16
4365,16
4366,16
4367,16
4368,16
4369,16
4370,16
4371,16
4372,16
4373,16
4374,16
4375,16
4376,16
4377,16
4378,16
4379,16
4380,16
4381,16
4382,16
4383,16
4384,16
4385,16
4386,16
4387,16
4388,16
4389,16
4390,16
4391,16
4392,16
4393,16
4394,16
4395,16
4396,16
4397,16
4398,16
4399,16
4400,16
4401,16
4402,16
4403,16
4404,16
4405,16
4406,16
4407,16
4408,16
4409,16
4410,16
4411,16
4412,16
4413,16
4414,16
4415,16
4416,16
4417,16
4418,16
4419,16
4420,16
4421,16
4422,16
4423,16
4424,16
4425,16
4426,16
4427,16
4428,16
4429,16
4430,16
4431,16
4432,16
4433,16
4434,16
4435,16
4436,16
4437,16
4438,16
4439,16
4440,16
4441,16
4442,16
4443,16
4444,16
4445,16
4446,16
4447,16
4448,16
4449,16
4450,17
4451,17
4452,16
4453,16
4454,16
4455,16
4456,16
4457,16
4458,16
4459,16
4460,16
4461,16
4462,16
4463,16
4464,16
4465,16
4466,16
4467,16
4468,16
4469,16
4470,16
4471,16
4472,16
4473,16
4474,16
4475,16
4476,16
4477,16
4478,16
4479,16
4480,16
4481,16
4482,16
4483,16
4484,16
4485,16
4486,16
4487,16
4488,16
4489,16
4490,16
4491,16
4492,16
4493,16
4494,16
4495,16
4496,16
4497,16
4498,16
4499,16
4500,16
4501,16
4502,16
4503,16
4504,16
4505,16
4506,16
4507,16
4508,16
4509,16
4510,16
4511,16
4512,16
4513,16
4514,16
4515,16
4516,16
4517,16
4518,16
4519,16
4520,16
4521,16
4522,16
4523,16
4524,16
4525,16
4526,17
4527,17
4528,16
4529,16
4530,16
4531,16
4532,16
4533,16
4534,16
4535,16
4536,16
4537,16
4538,16
4539,16
4540,16
4541,16
4542,16
4543,16
4544,16
4545,16
4546,16
4547,16
4548,16
4549,16
4550,16
4551,16
4552,16
4553,16
4554,16
4555,16
4556,16
4557,16
4558,16
4559,16
4560,16
4561,16
4562,16
4563,16
4564,16
4565,16
4566,16
4567,16
4568,16
4569,16
4570,16
4571,16
4572,16
4573,16
4574,16
4575,16
4576,16
4577,16
4578,16
4579,16
4580,16
4581,16
4582,16
4583,16
4584,16
4585,16
4586,16
4587,16
4588,16
4589,16
4590,16
4591,16
4592,16
4593,16
4594,16
4595,16
4596,16
4597,16
4598,16
4599,16
4600,16
4601,16
4602,16
4603,16
4604,16
4605,16
4606,16
4607,16
4608,16
4609,16
4610,16
4611,16
4612,16
4613,16
4614,16
4615,16
4616,16
4617,16
4618,16
4619,16
4620,16
4621,16
4622,16
4623,16
4624,16
4625,16
4626,16
4627,16
4628,16
4629,16
4630,16
4631,16
4632,16
4633,16
4634,16
4635,16
4636,16
4637,16
4638,16
4639,16
4640,16
4641,16
4642,16
4643,16
4644,16
4645,16
4646,16
4647,16
4648,16
4649,16
4650,16
4651,16
4652,16
4653,16
4654,16
4655,16
4656,16
4657,16
4658,16
4659,16
4660,16
4661,16
4662,16
4663,16
4664,16
4665,16
4666,16
4667,16
4668,16
4669,16
4670,16
4671,16
4672,16
4673,16
4674,16
4675,16
4676,16
4677,16
4678,16
4679,16
4680,16
4681,17
4682,17
4683,17
4684,17
4685,17
4686,17
4687,17
4688,17
4689,17
4690,17
4691,17
4692,17
4693,17
4694,17
4695,17
4696,17
4697,17
4698,17
4699,17
4700,17
4701,17
4702,17
4703,17
4704,17
4705,17
4706,17
4707,17
4708,17
4709,17
4710,17
4711,17
4712,17
4713,17
4714,17
4715,17
4716,17
4717,17
4718,17
4719,17
4720,17
4721,17
4722,17
4723,17
4724,17
4725,17
4726,17
4727,17
4728,17
4729,17
4730,17
4731,17
4732,17
4733,17
4734,17
4735,17
4736,17
4737,17
4738,17
4739,17
4740,17
4741,17
4742,17
4743,17
4744,17
4745,17
4746,17
4747,17
4748,17
4749,17
4750,17
4751,17
4752,17
4753,17
4754,17
4755,17
4756,17
4757,17
4758,17
4759,17
4760,17
4761,17
4762,18
4763,18
4764,18
4765,18
4766,18
4767,18
4768,18
4769,18
4770,18
4771,18
4772,18
4773,18
4774,18
4775,18
4776,18
4777,18
4778,18
4779,18
4780,18
4781,18
4782,18
4783,18
4784,18
4785,18
4786,18
4787,18
4788,18
4789,18
4790,18
4791,18
4792,18
4793,18
4794,18
4795,18
4796,18
4797,18
4798,18
4799,18
4800,18
4801,18
4802,18
4803,18
4804,18
4805,18
4806,18
4807,18
4808,18
4809,18
4810,18
4811,18
4812,18
4813,18
4814,18
4815,18
4816,18
4817,18
4818,18
4819,18
4820,18
4821,18
4822,18
4823,18
4824,18
4825,18
4826,18
4827,18
4828,18
4829,18
4830,18
4831,18
4832,18
4833,18
4834,18
4835,18
4836,18
4837,18
4838,18
4839,18
4840,18
4841,18
4842,18
4843,18
4844,18
4845,18
4846,18
4847,18
4848,18
4849,18
4850,18
4851,18
4852,18
4853,18
4854,18
4855,18
4856,18
4857,18
4858,18
4859,18
4860,18
4861,18
4862,18
4863,18
4864,18
4865,18
4866,18
4867,18
4868,18
4869,18
4870,18
4871,18
4872,18
4873,18
4874,18
4875,18
4876,18
4877,18
4878,18
4879,18
4880,18
4881,18
4882,18
4883,18
4884,18
4885,18
4886,18
4887,18
4888,18
4889,18
4890,18
4891,18
4892,18
4893,18
4894,18
4895,18
4896,18
4897,18
4898,18
4899,18
4900,18
4901,18
4902,18
4903,18
4904,18
4905,18
4906,18
4907,18
4908,18
4909,18
4910,18
4911,18
4912,18
4913,18
4914,19
4915,18
4916,18
4917,18
4918,18
4919,18
4920,18
4921,18
4922,18
4923,18
4924,18
4925,18
4926,18
4927,18
4928,18
4929,18
4930,18
4931,18
4932,18
4933,18
4934,18
4935,18
4936,18
4937,18
4938,18
4939,18
4940,18
4941,18
4942,18
4943,18
4944,18
4945,18
4946,18
4947,18
4948,18
4949,18
4950,18
4951,18
4952,18
4953,18
4954,18
4955,18
4956,18
4957,18
4958,18
4959,18
4960,18
4961,18
4962,18
4963,18
4964,18
4965,18
4966,18
4967,18
4968,18
4969,18
4970,18
4971,18
4972,18
4973,18
4974,18
4975,18
4976,18
4977,18
4978,18
4979,18
4980,18
4981,18
4982,18
4983,18
4984,18
4985,18
4986,18
4987,18
4988,18
4989,18
4990,18
4991,18
4992,18
4993,18
4994,18
4995,18
4996,18
4997,18
4998,18
4999,18
5000,18
5001,18
5002,18
5003,18
5004,18
5005,18
5006,18
5007,18
5008,18
5009,18
5010,18
5011,18
5012,18
5013,18
5014,18
5015,18
5016,18
5017,18
5018,18
5019,18
5020,18
5021,18
5022,18
5023,18
5024,18
5025,18
5026,18
5027,19
5028,19
5029,19
5030,19
5031,19
5032,19
5033,19
5034,19
5035,19
5036,19
5037,19
5038,19
5039,19
5040,19
5041,20
5042,19
5043,19
5044,19
5045,19
5046,19
5047,19
5048,19
5049,19
5050,19
5051,19
5052,19
5053,19
5054,19
5055,19
5056,19
5057,19
5058,19
5059,19
5060,19
5061,19
5062,19
5063,19
5064,19
5065,19
5066,19
5067,19
5068,19
5069,19
5070,19
5071,19
5072,19
5073,19
5074,19
5075,19
5076,19
5077,19
5078,19
5079,19
5080,19
5081,19
5082,19
5083,19
5084,19
5085,19
5086,19
5087,19
5088,19
5089,19
5090,19
5091,19
5092,19
5093,19
5094,19
5095,19
5096,19
5097,19
5098,19
5099,19
5100,19
5101,19
5102,19
5103,19
5104,19
5105,19
5106,19
5107,19
5108,19
5109,19
5110,19
5111,19
5112,19
5113,19
5114,19
5115,19
5116,19
5117,19
5118,19
5119,19
5120,19
5121,19
5122,19
5123,19
5124,19
5125,19
5126,19
5127,19
5128,20
5129,20
5130,19
5131,19
5132,19
5133,19
5134,19
5135,19
5136,19
5137,19
5138,19
5139,19
5140,19
5141,19
5142,19
5143,19
5144,19
5145,19
5146,19
5147,19
5148,19
5149,20
5150,19
5151,19
5152,19
5153,19
5154,19
5155,19
5156,19
5157,19
5158,19
5159,19
5160,19
5161,19
5162,19
5163,19
5164,19
5165,19
5166,19
5167,19
5168,19
5169,19
5170,19
5171,19
5172,19
5173,19
5174,19
5175,19
5176,19
5177,19
5178,19
5179,19
5180,19
5181,19
5182,19
5183,19
5184,19
5185,19
5186,19
5187,19
5188,19
5189,19
5190,19
5191,19
5192,19
5193,19
5194,19
5195,19
5196,19
5197,19
5198,19
5199,19
5200,19
5201,19
5202,19
5203,19
5204,19
5205,19
5206,19
5207,19
5208,19
5209,19
5210,19
5211,19
5212,19
5213,19
5214,19
5215,19
5216,20
5217,20
5218,20
5219,19
5220,19
5221,19
5222,19
5223,19
5224,19
5225,19
5226,19
5227,19
5228,19
5229,19
5230,19
5231,19
5232,19
5233,19
5234,19
5235,19
5236,19
5237,19
5238,19
5239,19
5240,19
5241,19
5242,19
5243,19
5244,19
5245,19
5246,19
5247,19
5248,19
5249,19
5250,19
5251,19
5252,19
5253,19
5254,19
5255,19
5256,19
5257,19
5258,19
5259,19
5260,19
5261,19
5262,19
5263,19
5264,19
5265,19
5266,19
5267,19
5268,19
5269,19
5270,19
5271,19
5272,19
5273,19
5274,19
5275,19
5276,19
5277,19
5278,19
5279,19
5280,19
5281,19
5282,19
5283,19
5284,19
5285,19
5286,19
5287,19
5288,19
5289,19
5290,19
5291,19
5292,19
5293,19
5294,20
5295,19
5296,19
5297,19
5298,19
5299,19
5300,19
5301,19
5302,19
5303,19
5304,19
5305,19
5306,19
5307,19
5308,19
5309,19
5310,19
5311,19
5312,19
5313,19
5314,19
5315,19
5316,19
5317,19
5318,19
5319,19
5320,19
5321,19
5322,19
5323,19
5324,19
5325,19
5326,19
5327,19
5328,19
5329,19
5330,19
5331,19
5332,19
5333,19
5334,19
5335,19
5336,19
5337,19
5338,19
5339,19
5340,19
5341,19
5342,19
5343,19
5344,19
5345,19
5346,19
5347,19
5348,19
5349,19
5350,19
5351,19
5352,19
5353,19
5354,19
5355,19
5356,19
5357,19
5358,19
5359,19
5360,19
5361,19
5362,19
5363,19
5364,19
5365,19
5366,19
5367,19
5368,19
5369,19
5370,19
5371,19
5372,19
5373,19
5374,19
5375,19
5376,19
5377,19
5378,19
5379,19
5380,19
5381,19
5382,19
5383,19
5384,19
5385,19
5386,19
5387,19
5388,19
5389,19
5390,19
5391,19
5392,19
5393,19
5394,19
5395,19
5396,19
5397,19
5398,19
5399,19
5400,19
5401,19
5402,19
5403,19
5404,19
5405,19
5406,19
5407,19
5408,19
5409,19
5410,19
5411,19
5412,19
5413,19
5414,19
5415,19
5416,19
5417,19
5418,19
5419,19
5420,19
5421,19
5422,19
5423,19
5424,19
5425,19
5426,19
5427,19
5428,19
5429,19
5430,19
5431,19
5432,19
5433,19
5434,19
5435,19
5436,19
5437,19
5438,19
5439,19
5440,19
5441,19
5442,19
5443,19
5444,19
5445,19
5446,19
5447,19
5448,19
5449,19
5450,19
5451,19
5452,19
5453,19
5454,19
5455,19
5456,19
5457,19
5458,19
5459,19
5460,19
5461,19
5462,19
5463,19
5464,19
5465,19
5466,19
5467,19
5468,19
5469,19
5470,19
5471,19
5472,19
5473,19
5474,19
5475,19
5476,19
5477,19
5478,19
5479,19
5480,19
5481,19
5482,19
5483,19
5484,19
5485,19
5486,19
5487,19
5488,19
5489,19
5490,19
5491,19
5492,19
5493,19
5494,19
5495,19
5496,19
5497,19
5498,19
5499,19
5500,19
5501,19
5502,19
5503,19
5504,19
5505,19
5506,19
5507,19
5508,19
5509,19
5510,19
5511,19
5512,19
5513,19
5514,19
5515,19
5516,19
5517,19
5518,19
5519,19
5520,19
5521,19
5522,19
5523,19
5524,19
5525,20
5526,20
5527,20
5528,20
5529,20
5530,19
5531,19
5532,19
5533,19
5534,19
5535,19
5536,19
5537,19
5538,19
5539,19
5540,19
5541,19
5542,19
5543,19
5544,19
5545,19
5546,19
5547,19
5548,19
5549,19
5550,19
5551,19
5552,19
5553,19
5554,19
5555,19
5556,19
5557,19
5558,19
5559,19
5560,19
5561,19
5562,19
5563,19
5564,19
5565,19
5566,19
5567,19
5568,19
5569,19
5570,19
5571,19
5572,19
5573,19
5574,19
5575,19
5576,19
5577,19
5578,19
5579,19
5580,19
5581,19
5582,19
5583,19
5584,19
5585,19
5586,19
5587,19
5588,19
5589,19
5590,19
5591,19
5592,19
5593,19
5594,19
5595,19
5596,19
5597,19
5598,19
5599,19
5600,19
5601,19
5602,19
5603,19
5604,19
5605,19
5606,19
5607,19
5608,20
5609,20
5610,20
5611,20
5612,20
5613,20
5614,20
5615,20
5616,20
5617,20
5618,20
5619,20
5620,20
5621,20
5622,20
5623,20
5624,20
5625,20
5626,20
5627,20
5628,20
5629,20
5630,20
5631,20
5632,20
5633,20
5634,20
5635,20
5636,20
5637,20
5638,20
5639,20
5640,20
5641,20
5642,20
5643,20
5644,20
5645,20
5646,20
5647,20
5648,20
5649,20
5650,20
5651,20
5652,20
5653,20
5654,20
5655,20
5656,20
5657,20
5658,20
5659,20
5660,20
5661,20
5662,20
5663,20
5664,20
5665,20
5666,20
5667,20
5668,20
5669,20
5670,20
5671,20
5672,20
5673,20
5674,20
5675,20
5676,20
5677,20
5678,20
5679,20
5680,20
5681,20
5682,20
5683,20
5684,20
5685,20
5686,20
5687,20
5688,20
5689,20
5690,20
5691,20
5692,20
5693,20
5694,20
5695,20
5696,20
5697,20
5698,20
5699,20
5700,20
5701,20
5702,20
5703,20
5704,20
5705,20
5706,20
5707,20
5708,20
5709,20
5710,20
5711,20
5712,20
5713,20
5714,20
5715,20
5716,20
5717,20
5718,20
5719,20
5720,20
5721,20
5722,20
5723,20
5724,20
5725,20
5726,20
5727,20
5728,20
5729,20
5730,20
5731,20
5732,20
5733,20
5734,20
5735,20
5736,20
5737,20
5738,20
5739,20
5740,20
5741,20
5742,20
5743,20
5744,20
5745,20
5746,20
5747,20
5748,20
5749,20
5750,20
5751,20
5752,20
5753,20
5754,20
5755,20
5756,20
5757,20
5758,20
5759,20
5760,20
5761,20
5762,20
5763,21
5764,21
5765,21
5766,21
5767,22
5768,21
5769,21
5770,21
5771,21
5772,21
5773,21
5774,21
5775,21
5776,21
5777,21
5778,20
5779,20
5780,20
5781,20
5782,20
5783,20
5784,20
5785,20
5786,20
5787,20
5788,20
5789,20
5790,20
5791,20
5792,20
5793,20
5794,20
5795,20
5796,20
5797,20
5798,20
5799,20
5800,20
5801,20
5802,20
5803,20
5804,20
5805,20
5806,20
5807,20
5808,20
5809,20
5810,20
5811,20
5812,20
5813,20
5814,20
5815,20
5816,20
5817,20
5818,20
5819,20
5820,21
5821,20
5822,20
5823,20
5824,20
5825,20
5826,20
5827,20
5828,20
5829,20
5830,20
5831,20
5832,20
5833,20
5834,20
5835,20
5836,20
5837,20
5838,20
5839,20
5840,20
5841,20
5842,20
5843,20
5844,20
5845,20
5846,21
5847,21
5848,21
5849,21
5850,21
5851,20
5852,20
5853,20
5854,20
5855,20
5856,20
5857,20
5858,20
5859,20
5860,20
5861,20
5862,20
5863,20
5864,20
5865,20
5866,20
5867,20
5868,20
5869,20
5870,20
5871,20
5872,20
5873,20
5874,20
5875,20
5876,20
5877,20
5878,20
5879,20
5880,20
5881,20
5882,20
5883,21
5884,21
5885,21
5886,21
5887,21
5888,21
5889,21
5890,21
5891,21
5892,21
5893,21
5894,20
5895,20
5896,20
5897,20
5898,20
5899,20
5900,20
5901,20
5902,20
5903,20
5904,20
5905,20
5906,20
5907,20
5908,20
5909,20
5910,20
5911,20
5912,20
5913,20
5914,20
5915,20
5916,20
5917,20
5918,20
5919,20
5920,20
5921,20
5922,20
5923,20
5924,20
5925,20
5926,20
5927,21
5928,21
5929,21
5930,21
5931,21
5932,21
5933,21
5934,20
5935,20
5936,20
5937,20
5938,20
5939,20
5940,20
5941,20
5942,20
5943,20
5944,20
5945,20
5946,20
5947,20
5948,20
5949,20
5950,20
5951,20
5952,20
5953,20
5954,20
5955,20
5956,20
5957,20
5958,20
5959,20
5960,20
5961,20
5962,20
5963,20
5964,20
5965,20
5966,20
5967,20
5968,20
5969,20
5970,20
5971,20
5972,20
5973,20
5974,20
5975,20
5976,20
5977,20
5978,20
5979,20
5980,20
5981,20
5982,20
5983,20
5984,20
5985,20
5986,20
5987,20
5988,20
5989,20
5990,20
5991,20
5992,20
5993,20
5994,20
5995,20
5996,20
5997,20
5998,20
5999,20
6000,20
6001,20
6002,20
6003,21
6004,21
6005,21
6006,21
6007,21
6008,21
6009,21
6010,21
6011,21
6012,21
6013,21
6014,22
6015,21
6016,21
6017,21
6018,21
6019,21
6020,21
6021,21
6022,21
6023,21
6024,21
6025,21
6026,21
6027,21
6028,21
6029,21
6030,21
6031,21
6032,21
6033,21
6034,21
6035,21
6036,21
6037,21
6038,21
6039,21
6040,21
6041,21
6042,21
6043,21
6044,21
6045,21
6046,21
6047,21
6048,21
6049,21
6050,21
6051,21
6052,21
6053,21
6054,21
6055,21
6056,21
6057,21
6058,21
6059,21
6060,21
6061,21
6062,21
6063,21
6064,21
6065,21
6066,21
6067,21
6068,22
6069,22
6070,21
6071,21
6072,21
6073,21
6074,21
6075,21
6076,21
6077,21
6078,21
6079,21
6080,21
6081,21
6082,21
6083,21
6084,21
6085,21
6086,21
6087,21
6088,21
6089,21
6090,21
6091,21
6092,21
6093,21
6094,21
6095,21
6096,21
6097,21
6098,21
6099,21
6100,21
6101,21
6102,21
6103,21
6104,21
6105,21
6106,21
6107,21
6108,21
6109,21
6110,21
6111,21
6112,21
6113,21
6114,21
6115,21
6116,21
6117,21
6118,21
6119,21
6120,21
6121,21
6122,21
6123,21
6124,21
6125,21
6126,21
6127,21
6128,21
6129,21
6130,21
6131,21
6132,21
6133,21
6134,21
6135,21
6136,21
6137,21
6138,21
6139,21
6140,21
6141,21
6142,21
6143,21
6144,21
6145,21
6146,21
6147,21
6148,21
6149,21
6150,21
6151,21
6152,21
6153,21
6154,21
6155,21
6156,21
6157,21
6158,21
6159,21
6160,21
6161,21
6162,22
6163,22
6164,22
6165,22
6166,21
6167,21
6168,21
6169,21
6170,21
6171,21
6172,21
6173,21
6174,21
6175,21
6176,21
6177,21
6178,21
6179,21
6180,21
6181,21
6182,21
6183,21
6184,21
6185,21
6186,21
6187,21
6188,21
6189,21
6190,21
6191,21
6192,21
6193,21
6194,22
6195,22
6196,22
6197,22
6198,22
6199,22
6200,21
6201,21
6202,21
6203,21
6204,21
6205,21
6206,21
6207,21
6208,21
6209,21
6210,21
6211,21
6212,21
6213,21
6214,21
6215,21
6216,21
6217,21
6218,21
6219,21
6220,21
6221,21
6222,21
6223,21
6224,21
6225,21
6226,21
6227,21
6228,21
6229,21
6230,21
6231,21
6232,21
6233,21
6234,21
6235,21
6236,21
6237,21
6238,21
6239,21
6240,21
6241,21
6242,21
6243,21
6244,21
6245,21
6246,21
6247,21
6248,21
6249,21
6250,21
6251,21
6252,21
6253,21
6254,21
6255,21
6256,21
6257,21
6258,21
6259,21
6260,21
6261,21
6262,21
6263,22
6264,22
6265,22
6266,22
6267,22
6268,22
6269,22
6270,22
6271,21
6272,21
6273,21
6274,21
6275,21
6276,21
6277,21
6278,21
6279,21
6280,22
6281,22
6282,22
6283,22
6284,22
6285,22
6286,22
6287,22
6288,21
6289,21
6290,21
6291,21
6292,21
6293,21
6294,21
6295,21
6296,21
6297,21
6298,21
6299,21
6300,21
6301,21
6302,21
6303,21
6304,21
6305,22
6306,21
6307,21
6308,21
6309,21
6310,22
6311,21
6312,21
6313,21
6314,21
6315,21
6316,21
6317,21
6318,21
6319,21
6320,21
6321,21
6322,21
6323,21
6324,21
6325,21
6326,21
6327,21
6328,21
6329,21
6330,22
6331,22
6332,21
6333,21
6334,21
6335,21
6336,21
6337,21
6338,21
6339,21
6340,21
6341,21
6342,21
6343,21
6344,21
6345,21
6346,21
6347,21
6348,21
6349,21
6350,21
6351,21
6352,21
6353,21
6354,21
6355,21
6356,21
6357,21
6358,21
6359,21
6360,21
6361,21
6362,21
6363,21
6364,21
6365,21
6366,21
6367,21
6368,21
6369,21
6370,21
6371,21
6372,21
6373,21
6374,21
6375,21
6376,21
6377,21
6378,21
6379,21
6380,21
6381,21
6382,21
6383,21
6384,21
6385,21
6386,21
6387,21
6388,21
6389,21
6390,21
6391,21
6392,21
6393,21
6394,21
6395,21
6396,21
6397,21
6398,21
6399,21
6400,21
6401,21
6402,21
6403,21
6404,21
6405,21
6406,21
6407,21
6408,21
6409,21
6410,21
6411,21
6412,21
6413,21
6414,21
6415,21
6416,21
6417,21
6418,21
6419,21
6420,21
6421,21
6422,21
6423,21
6424,21
6425,21
6426,21
6427,21
6428,21
6429,21
6430,21
6431,21
6432,21
6433,21
6434,21
6435,21
6436,21
6437,21
6438,21
6439,21
6440,21
6441,21
6442,21
6443,21
6444,21
6445,21
6446,21
6447,21
6448,21
6449,21
6450,21
6451,21
6452,21
6453,21
6454,21
6455,21
6456,21
6457,21
6458,21
6459,21
6460,21
6461,21
6462,21
6463,21
6464,21
6465,21
6466,21
6467,21
6468,21
6469,21
6470,21
6471,21
6472,22
6473,22
6474,22
6475,21
6476,21
6477,21
6478,21
6479,21
6480,21
6481,21
6482,21
6483,21
6484,21
6485,21
6486,21
6487,21
6488,21
6489,21
6490,21
6491,21
6492,21
6493,21
6494,21
6495,21
6496,21
6497,21
6498,21
6499,21
6500,21
6501,21
6502,21
6503,21
6504,21
6505,21
6506,21
6507,21
6508,21
6509,21
6510,21
6511,21
6512,21
6513,21
6514,21
6515,21
6516,21
6517,21
6518,21
6519,21
6520,21
6521,21
6522,21
6523,21
6524,21
6525,21
6526,21
6527,21
6528,21
6529,21
6530,21
6531,21
6532,21
6533,21
6534,21
6535,21
6536,21
6537,21
6538,21
6539,21
6540,21
6541,21
6542,21
6543,21
6544,21
6545,21
6546,21
6547,21
6548,21
6549,21
6550,21
6551,21
6552,21
6553,21
6554,21
6555,21
6556,21
6557,21
6558,21
6559,21
6560,21
6561,21
6562,21
6563,21
6564,21
6565,21
6566,21
6567,21
6568,21
6569,21
6570,21
6571,21
6572,22
6573,22
6574,22
6575,22
6576,22
6577,21
6578,21
6579,21
6580,21
6581,21
6582,21
6583,21
6584,21
6585,21
6586,21
6587,21
6588,21
6589,21
6590,21
6591,21
6592,21
6593,21
6594,21
6595,21
6596,21
6597,21
6598,21
6599,21
6600,21
6601,21
6602,21
6603,21
6604,21
6605,21
6606,21
6607,21
6608,21
6609,21
6610,21
6611,21
6612,21
6613,21
6614,21
6615,21
6616,21
6617,21
6618,21
6619,21
6620,21
6621,21
6622,21
6623,21
6624,21
6625,21
6626,21
6627,21
6628,21
6629,21
6630,21
6631,21
6632,21
6633,21
6634,21
6635,21
6636,21
6637,21
6638,21
6639,21
6640,21
6641,21
6642,21
6643,21
6644,21
6645,21
6646,21
6647,21
6648,21
6649,21
6650,21
6651,21
6652,21
6653,21
6654,21
6655,21
6656,21
6657,21
6658,21
6659,21
6660,21
6661,21
6662,21
6663,21
6664,21
6665,21
6666,21
6667,21
6668,21
6669,21
6670,21
6671,21
6672,21
6673,21
6674,21
6675,21
6676,21
6677,21
6678,21
6679,21
6680,21
6681,21
6682,21
6683,21
6684,21
6685,21
6686,21
6687,21
6688,21
6689,21
6690,21
6691,21
6692,21
6693,21
6694,21
6695,21
6696,21
6697,21
6698,21
6699,21
6700,21
6701,21
6702,21
6703,21
6704,21
6705,21
6706,21
6707,21
6708,21
6709,21
6710,21
6711,21
6712,21
6713,21
6714,21
6715,21
6716,21
6717,21
6718,21
6719,21
6720,21
6721,21
6722,21
6723,21
6724,21
6725,21
6726,21
6727,21
6728,21
6729,21
6730,21
6731,21
6732,21
6733,21
6734,21
6735,21
6736,21
6737,21
6738,21
6739,21
6740,21
6741,21
6742,21
6743,21
6744,21
6745,21
6746,21
6747,21
6748,21
6749,21
6750,21
6751,21
6752,21
6753,21
6754,21
6755,21
6756,21
6757,21
6758,21
6759,22
6760,22
6761,22
6762,22
6763,22
6764,22
6765,22
6766,22
6767,22
6768,22
6769,22
6770,22
6771,22
6772,21
6773,21
6774,21
6775,21
6776,21
6777,21
6778,21
6779,21
6780,21
6781,21
6782,22
6783,22
6784,22
6785,21
6786,21
6787,21
6788,21
6789,21
6790,21
6791,21
6792,21
6793,21
6794,21
6795,21
6796,21
6797,21
6798,21
6799,21
6800,21
6801,21
6802,21
6803,21
6804,21
6805,21
6806,21
6807,21
6808,21
6809,21
6810,21
6811,21
6812,21
6813,22
6814,22
6815,22
6816,21
6817,21
6818,21
6819,21
6820,21
6821,21
6822,21
6823,21
6824,21
6825,21
6826,21
6827,21
6828,22
6829,22
6830,22
6831,21
6832,21
6833,21
6834,21
6835,21
6836,21
6837,21
6838,21
6839,21
6840,21
6841,21
6842,21
6843,21
6844,21
6845,21
6846,21
6847,21
6848,21
6849,21
6850,21
6851,21
6852,21
6853,21
6854,21
6855,21
6856,21
6857,21
6858,21
6859,21
6860,21
6861,21
6862,21
6863,21
6864,21
6865,21
6866,21
6867,22
6868,22
6869,22
6870,22
6871,22
6872,22
6873,22
6874,22
6875,21
6876,21
6877,21
6878,21
6879,21
6880,21
6881,21
6882,21
6883,21
6884,21
6885,21
6886,21
6887,21
6888,21
6889,21
6890,21
6891,21
6892,21
6893,21
6894,21
6895,21
6896,21
6897,21
6898,21
6899,21
6900,21
6901,21
6902,21
6903,21
6904,21
6905,21
6906,21
6907,21
6908,21
6909,21
6910,21
6911,21
6912,21
6913,21
6914,21
6915,21
6916,21
6917,21
6918,21
6919,21
6920,21
6921,21
6922,21
6923,21
6924,21
6925,21
6926,21
6927,21
6928,21
6929,21
6930,21
6931,22
6932,21
6933,21
6934,22
6935,21
6936,21
6937,21
6938,21
6939,21
6940,21
6941,21
6942,21
6943,21
6944,21
6945,21
6946,21
6947,21
6948,21
6949,21
6950,21
6951,21
6952,21
6953,21
6954,21
6955,21
6956,21
6957,21
6958,21
6959,21
6960,21
6961,21
6962,21
6963,21
6964,21
6965,21
6966,21
6967,21
6968,21
6969,21
6970,21
6971,21
6972,21
6973,21
6974,21
6975,21
6976,21
6977,21
6978,21
6979,21
6980,21
6981,21
6982,21
6983,21
6984,21
6985,21
6986,21
6987,21
6988,21
6989,21
6990,21
6991,21
6992,21
6993,21
6994,21
6995,21
6996,21
6997,21
6998,21
6999,21
7000,21
7001,21
7002,21
7003,21
7004,21
7005,21
7006,21
7007,21
7008,21
7009,21
7010,21
7011,21
7012,21
7013,21
7014,21
7015,21
7016,21
7017,21
7018,21
7019,21
7020,21
7021,21
7022,21
7023,21
7024,21
7025,21
7026,21
7027,21
7028,21
7029,21
7030,21
7031,21
7032,21
7033,21
7034,21
7035,21
7036,21
7037,21
7038,21
7039,21
7040,21
7041,21
7042,21
7043,21
7044,21
7045,21
7046,21
7047,21
7048,21
7049,21
7050,21
7051,21
7052,21
7053,21
7054,21
7055,22
7056,21
7057,21
7058,21
7059,21
7060,21
7061,21
7062,21
7063,21
7064,21
7065,21
7066,21
7067,21
7068,21
7069,21
7070,21
7071,21
7072,21
7073,21
7074,21
7075,21
7076,21
7077,21
7078,21
7079,21
7080,21
7081,21
7082,21
7083,21
7084,21
7085,21
7086,21
7087,21
7088,21
7089,21
7090,21
7091,21
7092,21
7093,21
7094,21
7095,21
7096,21
7097,21
7098,21
7099,21
7100,21
7101,21
7102,21
7103,21
7104,21
7105,21
7106,21
7107,21
7108,21
7109,21
7110,21
7111,21
7112,21
7113,21
7114,21
7115,21
7116,21
7117,21
7118,22
7119,22
7120,22
7121,22
7122,22
7123,22
7124,22
7125,22
7126,22
7127,22
7128,22
7129,23
7130,23
7131,21
7132,21
7133,21
7134,21
7135,21
7136,21
7137,21
7138,21
7139,21
7140,21
7141,21
7142,21
7143,21
7144,21
7145,21
7146,21
7147,21
7148,21
7149,21
7150,21
7151,21
7152,21
7153,21
7154,21
7155,21
7156,21
7157,21
7158,21
7159,21
7160,21
7161,21
7162,21
7163,21
7164,21
7165,21
7166,21
7167,21
7168,21
7169,21
7170,21
7171,21
7172,21
7173,21
7174,21
7175,21
7176,21
7177,21
7178,21
7179,21
7180,21
7181,21
7182,21
7183,21
7184,21
7185,21
7186,21
7187,21
7188,21
7189,21
7190,21
7191,21
7192,21
7193,21
7194,21
7195,21
7196,21
7197,21
7198,21
7199,21
7200,21
7201,21
7202,21
7203,21
7204,21
7205,21
7206,21
7207,21
7208,21
7209,21
7210,21
7211,21
7212,21
7213,21
7214,21
7215,22
7216,22
7217,22
7218,21
7219,21
7220,21
7221,21
7222,21
7223,21
7224,21
7225,21
7226,21
7227,21
7228,21
7229,21
7230,21
7231,21
7232,21
7233,21
7234,21
7235,21
7236,21
7237,21
7238,21
7239,21
7240,21
7241,21
7242,21
7243,21
7244,21
7245,21
7246,21
7247,21
7248,21
7249,21
7250,21
7251,21
7252,21
7253,21
7254,21
7255,21
7256,21
7257,21
7258,21
7259,21
7260,21
7261,21
7262,21
7263,21
7264,21
7265,21
7266,21
7267,21
7268,21
7269,21
7270,22
7271,21
7272,21
7273,21
7274,21
7275,21
7276,21
7277,21
7278,21
7279,21
7280,21
7281,21
7282,21
7283,21
7284,21
7285,21
7286,21
7287,21
7288,21
7289,21
7290,21
7291,21
7292,21
7293,21
7294,21
7295,21
7296,21
7297,21
7298,21
7299,21
7300,21
7301,21
7302,21
7303,21
7304,21
7305,21
7306,21
7307,21
7308,21
7309,21
7310,21
7311,21
7312,21
7313,21
7314,21
7315,21
7316,21
7317,21
7318,21
7319,21
7320,21
7321,21
7322,21
7323,21
7324,21
7325,21
7326,21
7327,21
7328,21
7329,21
7330,21
7331,21
7332,21
7333,21
7334,21
7335,21
7336,21
7337,21
7338,21
7339,21
7340,21
7341,21
7342,21
7343,21
7344,21
7345,21
7346,21
7347,21
7348,21
7349,21
7350,21
7351,21
7352,21
7353,21
7354,21
7355,21
7356,21
7357,21
7358,21
7359,21
7360,21
7361,21
7362,21
7363,21
7364,21
7365,21
7366,21
7367,21
7368,21
7369,21
7370,21
7371,21
7372,21
7373,22
7374,22
7375,21
7376,21
7377,21
7378,21
7379,21
7380,21
7381,21
7382,22
7383,22
7384,21
7385,21
7386,21
7387,21
7388,21
7389,21
7390,21
7391,21
7392,21
7393,21
7394,21
7395,21
7396,21
7397,21
7398,21
7399,21
7400,21
7401,21
7402,21
7403,21
7404,21
7405,21
7406,21
7407,21
7408,21
7409,21
7410,21
7411,21
7412,21
7413,21
7414,21
7415,21
7416,21
7417,21
7418,21
7419,21
7420,21
7421,21
7422,21
7423,21
7424,21
7425,21
7426,21
7427,21
7428,21
7429,21
7430,21
7431,21
7432,21
7433,21
7434,21
7435,21
7436,21
7437,21
7438,21
7439,21
7440,21
7441,21
7442,21
7443,21
7444,21
7445,21
7446,21
7447,22
7448,22
7449,22
7450,22
7451,22
7452,22
7453,22
7454,22
7455,22
7456,22
7457,21
7458,21
7459,21
7460,21
7461,21
7462,21
7463,21
7464,21
7465,21
7466,21
7467,21
7468,21
7469,21
7470,21
7471,21
7472,21
7473,21
7474,21
7475,21
7476,21
7477,21
7478,21
7479,21
7480,21
7481,21
7482,21
7483,21
7484,21
7485,21
7486,21
7487,21
7488,21
7489,21
7490,21
7491,21
7492,21
7493,21
7494,21
7495,21
7496,21
7497,21
7498,21
7499,21
7500,21
7501,21
7502,21
7503,21
7504,21
7505,21
7506,21
7507,21
7508,21
7509,21
7510,21
7511,21
7512,21
7513,21
7514,21
7515,21
7516,21
7517,21
7518,21
7519,21
7520,21
7521,21
7522,21
7523,21
7524,21
7525,21
7526,21
7527,21
7528,21
7529,21
7530,21
7531,21
7532,21
7533,21
7534,21
7535,21
7536,21
7537,21
7538,21
7539,21
7540,21
7541,21
7542,21
7543,21
7544,21
7545,21
7546,21
7547,21
7548,21
7549,21
7550,21
7551,21
7552,21
7553,21
7554,21
7555,21
7556,21
7557,21
7558,21
7559,21
7560,21
7561,21
7562,21
7563,21
7564,21
7565,21
7566,21
7567,21
7568,21
7569,21
7570,21
7571,21
7572,21
7573,21
7574,21
7575,21
7576,22
7577,22
7578,21
7579,21
7580,21
7581,21
7582,21
7583,21
7584,21
7585,21
7586,21
7587,21
7588,21
7589,21
7590,21
7591,21
7592,21
7593,21
7594,21
7595,21
7596,21
7597,21
7598,21
7599,21
7600,21
7601,21
7602,21
7603,21
7604,22
7605,22
7606,22
7607,22
7608,22
7609,22
7610,21
7611,21
7612,21
7613,21
7614,21
7615,21
7616,21
7617,21
7618,21
7619,21
7620,21
7621,21
7622,21
7623,21
7624,21
7625,21
7626,21
7627,21
7628,21
7629,21
7630,21
7631,21
7632,21
7633,21
7634,21
7635,21
7636,21
7637,21
7638,21
7639,21
7640,21
7641,21
7642,21
7643,21
7644,21
7645,21
7646,21
7647,21
7648,21
7649,22
7650,22
7651,22
7652,22
7653,22
7654,22
7655,22
7656,22
7657,22
7658,22
7659,22
7660,22
7661,22
7662,21
7663,21
7664,21
7665,21
7666,21
7667,22
7668,21
7669,21
7670,21
7671,21
7672,21
7673,21
7674,21
7675,21
7676,21
7677,21
7678,21
7679,21
7680,21
7681,21
7682,21
7683,21
7684,21
7685,21
7686,21
7687,21
7688,21
7689,21
7690,21
7691,21
7692,21
7693,21
7694,21
7695,21
7696,21
7697,21
7698,21
7699,21
7700,21
7701,21
7702,21
7703,21
7704,21
7705,21
7706,21
7707,21
7708,21
7709,21
7710,21
7711,21
7712,21
7713,21
7714,21
7715,21
7716,21
7717,21
7718,21
7719,21
7720,21
7721,21
7722,21
7723,21
7724,21
7725,21
7726,21
7727,21
7728,21
7729,21
7730,21
7731,21
7732,21
7733,21
7734,21
7735,21
7736,21
7737,21
7738,21
7739,21
7740,21
7741,21
7742,21
7743,21
7744,21
7745,21
7746,21
7747,21
7748,21
7749,21
7750,21
7751,21
7752,21
7753,21
7754,21
7755,21
7756,21
7757,21
7758,21
7759,22
7760,22
7761,22
7762,22
7763,21
7764,21
7765,21
7766,21
7767,21
7768,21
7769,21
7770,21
7771,21
7772,21
7773,21
7774,21
7775,21
7776,21
7777,21
7778,21
7779,21
7780,21
7781,21
7782,21
7783,21
7784,21
7785,21
7786,21
7787,21
7788,21
7789,21
7790,21
7791,21
7792,21
7793,21
7794,21
7795,21
7796,21
7797,21
7798,21
7799,21
7800,21
7801,21
7802,21
7803,21
7804,21
7805,21
7806,21
7807,21
7808,21
7809,21
7810,21
7811,21
7812,21
7813,21
7814,21
7815,21
7816,21
7817,21
7818,21
7819,21
7820,21
7821,21
7822,21
7823,21
7824,21
7825,21
7826,21
7827,21
7828,21
7829,21
7830,21
7831,21
7832,21
7833,21
7834,21
7835,21
7836,21
7837,21
7838,21
7839,21
7840,21
7841,21
7842,21
7843,21
7844,21
7845,21
7846,21
7847,21
7848,21
7849,21
7850,21
7851,21
7852,21
7853,21
7854,21
7855,21
7856,21
7857,21
7858,21
7859,21
7860,21
7861,21
7862,21
7863,21
7864,21
7865,21
7866,21
7867,21
7868,21
7869,21
7870,21
7871,21
7872,21
7873,21
7874,21
7875,21
7876,21
7877,21
7878,21
7879,21
7880,21
7881,21
7882,21
7883,21
7884,21
7885,21
7886,21
7887,21
7888,21
7889,21
7890,21
7891,21
7892,21
7893,21
7894,21
7895,21
7896,21
7897,22
7898,21
7899,21
7900,21
7901,21
7902,21
7903,21
7904,21
7905,21
7906,21
7907,21
7908,21
7909,21
7910,21
7911,21
7912,21
7913,21
7914,21
7915,21
7916,21
7917,21
7918,21
7919,21
7920,21
7921,21
7922,21
7923,21
7924,21
7925,21
7926,21
7927,21
7928,21
7929,21
7930,21
7931,21
7932,21
7933,21
7934,21
7935,21
7936,21
7937,21
7938,21
7939,21
7940,21
7941,21
7942,21
7943,21
7944,21
7945,21
7946,21
7947,21
7948,21
7949,21
7950,21
7951,21
7952,21
7953,21
7954,21
7955,21
7956,21
7957,21
7958,21
7959,21
7960,21
7961,21
7962,21
7963,21
7964,21
7965,21
7966,21
7967,21
7968,21
7969,21
7970,21
7971,21
7972,21
7973,21
7974,21
7975,21
7976,22
7977,22
7978,22
7979,21
7980,21
7981,21
7982,21
7983,21
7984,21
7985,21
7986,21
7987,21
7988,21
7989,21
7990,21
7991,21
7992,21
7993,21
7994,21
7995,21
7996,21
7997,21
7998,21
7999,21
8000,21
8001,21
8002,21
8003,21
8004,21
8005,21
8006,21
8007,21
8008,21
8009,21
8010,21
8011,21
8012,21
8013,21
8014,21
8015,21
8016,21
8017,21
8018,21
8019,21
8020,21
8021,21
8022,21
8023,21
8024,21
8025,21
8026,21
8027,21
8028,21
8029,21
8030,21
8031,21
8032,21
8033,21
8034,21
8035,21
8036,21
8037,21
8038,21
8039,21
8040,21
8041,21
8042,21
8043,21
8044,21
8045,21
8046,21
8047,21
8048,21
8049,21
8050,21
8051,21
8052,21
8053,21
8054,21
8055,21
8056,21
8057,21
8058,21
8059,21
8060,21
8061,21
8062,21
8063,21
8064,21
8065,21
8066,21
8067,21
8068,21
8069,21
8070,21
8071,21
8072,21
8073,21
8074,21
8075,21
8076,21
8077,21
8078,21
8079,21
8080,21
8081,21
8082,21
8083,21
8084,21
8085,21
8086,21
8087,21
8088,21
8089,21
8090,21
8091,21
8092,21
8093,21
8094,21
8095,21
8096,21
8097,21
8098,21
8099,21
8100,21
8101,21
8102,21
8103,21
8104,21
8105,21
8106,21
8107,21
8108,21
8109,21
8110,21
8111,21
8112,21
8113,21
8114,21
8115,21
8116,21
8117,21
8118,21
8119,21
8120,21
8121,21
8122,21
8123,21
8124,21
8125,21
8126,21
8127,21
8128,21
8129,21
8130,21
8131,21
8132,21
8133,21
8134,21
8135,21
8136,21
8137,22
8138,21
8139,21
8140,21
8141,21
8142,21
8143,21
8144,21
8145,21
8146,21
8147,21
8148,21
8149,21
8150,21
8151,21
8152,21
8153,21
8154,21
8155,21
8156,21
8157,21
8158,21
8159,21
8160,21
8161,21
8162,21
8163,21
8164,21
8165,21
8166,21
8167,21
8168,21
8169,21
8170,21
8171,21
8172,21
8173,21
8174,21
8175,21
8176,21
8177,21
8178,21
8179,21
8180,21
8181,21
8182,21
8183,21
8184,21
8185,21
8186,21
8187,21
8188,21
8189,21
8190,21
8191,21
8192,21
8193,21
8194,21
8195,21
8196,21
8197,21
8198,21
8199,21
8200,21
8201,21
8202,21
8203,21
8204,21
8205,21
8206,21
8207,21
8208,21
8209,21
8210,21
8211,21
8212,21
8213,21
8214,21
8215,21
8216,21
8217,21
8218,21
8219,21
8220,21
8221,21
8222,21
8223,21
8224,21
8225,21
8226,21
8227,21
8228,21
8229,21
8230,21
8231,21
8232,21
8233,21
8234,21
8235,21
8236,21
8237,21
8238,21
8239,21
8240,22
8241,21
8242,22
8243,21
8244,21
8245,21
8246,21
8247,21
8248,21
8249,21
8250,21
8251,21
8252,21
8253,21
8254,21
8255,21
8256,21
8257,21
8258,21
8259,21
8260,21
8261,21
8262,21
8263,21
8264,21
8265,21
8266,21
8267,21
8268,21
8269,21
8270,21
8271,21
8272,21
8273,21
8274,21
8275,21
8276,21
8277,21
8278,21
8279,21
8280,21
8281,21
8282,21
8283,21
8284,21
8285,21
8286,21
8287,21
8288,21
8289,21
8290,21
8291,21
8292,21
8293,21
8294,21
8295,21
8296,21
8297,21
8298,21
8299,21
8300,21
8301,21
8302,21
8303,21
8304,22
8305,22
8306,22
8307,21
8308,21
8309,21
8310,21
8311,21
8312,21
8313,21
8314,21
8315,21
8316,21
8317,21
8318,21
8319,21
8320,21
8321,21
8322,21
8323,21
8324,21
8325,21
8326,21
8327,21
8328,21
8329,21
8330,21
8331,21
8332,21
8333,21
8334,21
8335,21
8336,21
8337,21
8338,21
8339,21
8340,21
8341,21
8342,21
8343,21
8344,21
8345,21
8346,21
8347,21
8348,21
8349,21
8350,21
8351,21
8352,21
8353,21
8354,21
8355,21
8356,21
8357,21
8358,21
8359,21
8360,21
8361,21
8362,21
8363,21
8364,21
8365,21
8366,21
8367,21
8368,21
8369,21
8370,21
8371,21
8372,21
8373,21
8374,21
8375,21
8376,21
8377,21
8378,21
8379,21
8380,21
8381,21
8382,21
8383,21
8384,21
8385,21
8386,21
8387,21
8388,21
8389,21
8390,21
8391,21
8392,21
8393,21
8394,21
8395,21
8396,21
8397,21
8398,21
8399,21
8400,22
8401,22
8402,21
8403,21
8404,21
8405,21
8406,21
8407,21
8408,21
8409,21
8410,21
8411,21
8412,21
8413,21
8414,21
8415,21
8416,21
8417,21
8418,21
8419,21
8420,21
8421,21
8422,22
8423,22
8424,22
8425,22
8426,22
8427,22
8428,22
8429,22
8430,22
8431,22
8432,22
8433,22
8434,22
8435,22
8436,22
8437,22
8438,22
8439,21
8440,21
8441,22
8442,22
8443,22
8444,22
8445,22
8446,22
8447,22
8448,22
8449,22
8450,22
8451,22
8452,22
8453,22
8454,22
8455,22
8456,22
8457,22
8458,22
8459,22
8460,22
8461,22
8462,22
8463,22
8464,22
8465,22
8466,22
8467,22
8468,22
8469,22
8470,22
8471,22
8472,22
8473,22
8474,21
8475,21
8476,21
8477,21
8478,21
8479,21
8480,21
8481,21
8482,21
8483,21
8484,21
8485,21
8486,21
8487,21
8488,21
8489,21
8490,21
8491,21
8492,21
8493,21
8494,21
8495,21
8496,21
8497,21
8498,21
8499,21
8500,21
8501,21
8502,21
8503,21
8504,21
8505,21
8506,21
8507,21
8508,21
8509,21
8510,21
8511,21
8512,21
8513,21
8514,21
8515,21
8516,21
8517,21
8518,21
8519,21
8520,21
8521,21
8522,21
8523,21
8524,21
8525,21
8526,21
8527,21
8528,21
8529,22
8530,22
8531,22
8532,22
8533,21
8534,21
8535,21
8536,21
8537,21
8538,21
8539,21
8540,21
8541,21
8542,21
8543,21
8544,21
8545,21
8546,21
8547,21
8548,21
8549,21
8550,21
8551,21
8552,21
8553,21
8554,21
8555,21
8556,21
8557,21
8558,21
8559,21
8560,21
8561,21
8562,21
8563,21
8564,21
8565,21
8566,21
8567,21
8568,21
8569,21
8570,21
8571,22
8572,21
8573,21
8574,21
8575,21
8576,21
8577,21
8578,21
8579,21
8580,21
8581,22
8582,22
8583,23
8584,23
8585,23
8586,22
8587,22
8588,22
8589,22
8590,22
8591,22
8592,22
8593,23
8594,22
8595,22
8596,22
8597,21
8598,21
8599,21
8600,21
8601,21
8602,21
8603,21
8604,21
8605,21
8606,21
8607,21
8608,21
8609,21
8610,21
8611,21
8612,21
8613,21
8614,21
8615,21
8616,21
8617,21
8618,21
8619,21
8620,21
8621,21
8622,21
8623,21
8624,21
8625,21
8626,21
8627,21
8628,21
8629,21
8630,21
8631,21
8632,21
8633,21
8634,21
8635,21
8636,22
8637,22
8638,21
8639,21
8640,21
8641,21
8642,21
8643,21
8644,21
8645,21
8646,21
8647,21
8648,21
8649,21
8650,21
8651,21
8652,21
8653,21
8654,21
8655,21
8656,21
8657,21
8658,21
8659,21
8660,21
8661,21
8662,21
8663,21
8664,21
8665,21
8666,21
8667,21
8668,21
8669,21
8670,21
8671,21
8672,21
8673,21
8674,21
8675,21
8676,21
8677,21
8678,21
8679,21
8680,21
8681,21
8682,21
8683,21
8684,21
8685,21
8686,21
8687,21
8688,21
8689,21
8690,21
8691,21
8692,21
8693,21
8694,21
8695,21
8696,21
8697,21
8698,21
8699,21
8700,21
8701,21
8702,21
8703,21
8704,21
8705,22
8706,21
8707,21
8708,21
8709,21
8710,21
8711,21
8712,21
8713,22
8714,21
8715,21
8716,21
8717,21
8718,21
8719,21
8720,21
8721,21
8722,21
8723,21
8724,21
8725,21
8726,21
8727,21
8728,21
8729,21
8730,21
8731,21
8732,21
8733,21
8734,21
8735,21
8736,21
8737,21
8738,21
8739,21
8740,21
8741,21
8742,21
8743,21
8744,21
8745,21
8746,21
8747,21
8748,21
8749,21
8750,21
8751,21
8752,21
8753,21
8754,21
8755,21
8756,21
8757,21
8758,21
8759,21
8760,21
8761,21
8762,21
8763,21
8764,21
8765,22
8766,21
8767,21
8768,21
8769,21
8770,21
8771,21
8772,21
8773,21
8774,21
8775,21
8776,21
8777,21
8778,21
8779,21
8780,21
8781,21
8782,21
8783,21
8784,21
8785,21
8786,21
8787,21
8788,21
8789,21
8790,21
8791,21
8792,21
8793,21
8794,21
8795,21
8796,21
8797,21
8798,21
8799,21
8800,21
8801,21
8802,21
8803,21
8804,21
8805,21
8806,21
8807,21
8808,21
8809,21
8810,21
8811,21
8812,21
8813,21
8814,21
8815,21
8816,21
8817,21
8818,21
8819,21
8820,21
8821,21
8822,21
8823,21
8824,21
8825,21
8826,21
8827,21
8828,21
8829,21
8830,21
8831,21
8832,21
8833,21
8834,21
8835,21
8836,21
8837,21
8838,21
8839,21
8840,21
8841,21
8842,21
8843,21
8844,21
8845,21
8846,21
8847,21
8848,21
8849,21
8850,21
8851,21
8852,21
8853,21
8854,21
8855,21
8856,21
8857,21
8858,21
8859,21
8860,21
8861,21
8862,21
8863,21
8864,21
8865,21
8866,21
8867,21
8868,21
8869,21
8870,21
8871,21
8872,21
8873,21
8874,21
8875,21
8876,21
8877,21
8878,21
8879,21
8880,21
8881,21
8882,21
8883,21
8884,21
8885,21
8886,21
8887,21
8888,21
8889,21
8890,21
8891,21
8892,21
8893,22
8894,22
8895,22
8896,22
8897,22
8898,22
8899,22
8900,22
8901,22
8902,22
8903,22
8904,22
8905,22
8906,22
8907,22
8908,22
8909,22
8910,22
8911,22
8912,22
8913,22
8914,22
8915,22
8916,22
8917,22
8918,22
8919,22
8920,22
8921,22
8922,22
8923,22
8924,22
8925,22
8926,22
8927,22
8928,22
8929,22
8930,22
8931,22
8932,22
8933,22
8934,22
8935,22
8936,22
8937,22
8938,22
8939,22
8940,22
8941,22
8942,22
8943,22
8944,22
8945,22
8946,22
8947,22
8948,22
8949,22
8950,22
8951,22
8952,22
8953,22
8954,22
8955,22
8956,22
8957,22
8958,22
8959,22
8960,22
8961,22
8962,22
8963,22
8964,22
8965,22
8966,22
8967,22
8968,22
8969,22
8970,22
8971,22
8972,22
8973,22
8974,22
8975,22
8976,22
8977,22
8978,22
8979,22
8980,22
8981,22
8982,22
8983,22
8984,22
8985,22
8986,22
8987,22
8988,22
8989,22
8990,22
8991,22
8992,22
8993,22
8994,22
8995,22
8996,22
8997,22
8998,22
8999,22
9000,22
9001,22
9002,22
9003,22
9004,22
9005,22
9006,22
9007,22
9008,22
9009,22
9010,22
9011,22
9012,22
9013,22
9014,22
9015,22
9016,22
9017,22
9018,22
9019,22
9020,22
9021,22
9022,22
9023,22
9024,22
9025,22
9026,22
9027,22
9028,22
9029,22
9030,22
9031,22
9032,22
9033,22
9034,22
9035,22
9036,22
9037,22
9038,22
9039,22
9040,22
9041,22
9042,22
9043,22
9044,22
9045,22
9046,22
9047,22
9048,22
9049,22
9050,22
9051,22
9052,22
9053,22
9054,22
9055,22
9056,22
9057,22
9058,22
9059,22
9060,22
9061,22
9062,22
9063,22
9064,22
9065,22
9066,22
9067,22
9068,22
9069,22
9070,22
9071,22
9072,22
9073,22
9074,22
9075,22
9076,22
9077,22
9078,22
9079,22
9080,22
9081,22
9082,22
9083,22
9084,22
9085,22
9086,22
9087,22
9088,22
9089,22
9090,22
9091,22
9092,22
9093,22
9094,22
9095,22
9096,22
9097,22
9098,22
9099,22
9100,22
9101,22
9102,22
9103,22
9104,22
9105,22
9106,22
9107,22
9108,22
9109,22
9110,22
9111,22
9112,22
9113,22
9114,22
9115,22
9116,22
9117,22
9118,22
9119,22
9120,22
9121,22
9122,22
9123,22
9124,22
9125,22
9126,22
9127,22
9128,22
9129,22
9130,22
9131,22
9132,22
9133,22
9134,22
9135,22
9136,22
9137,22
9138,22
9139,22
9140,22
9141,22
9142,22
9143,22
9144,22
9145,22
9146,22
9147,22
9148,22
9149,22
9150,22
9151,22
9152,22
9153,22
9154,22
9155,22
9156,22
9157,22
9158,22
9159,22
9160,22
9161,22
9162,22
9163,22
9164,22
9165,22
9166,22
9167,22
9168,22
9169,22
9170,22
9171,22
9172,22
9173,22
9174,22
9175,22
9176,22
9177,22
9178,22
9179,22
9180,22
9181,22
9182,22
9183,22
9184,22
9185,22
9186,22
9187,22
9188,22
9189,22
9190,22
9191,22
9192,22
9193,22
9194,22
9195,22
9196,22
9197,22
9198,22
9199,22
9200,22
9201,22
9202,22
9203,22
9204,22
9205,22
9206,22
9207,22
9208,22
9209,22
9210,22
9211,22
9212,22
9213,22
9214,22
9215,22
9216,22
9217,22
9218,22
9219,22
9220,22
9221,22
9222,22
9223,22
9224,22
9225,22
9226,22
9227,22
9228,22
9229,22
9230,22
9231,22
9232,22
9233,22
9234,22
9235,22
9236,22
9237,22
9238,22
9239,22
9240,22
9241,22
9242,22
9243,22
9244,22
9245,22
9246,22
9247,22
9248,22
9249,22
9250,23
9251,22
9252,22
9253,22
9254,22
9255,22
9256,22
9257,22
9258,22
9259,22
9260,22
9261,22
9262,22
9263,22
9264,22
9265,22
9266,22
9267,22
9268,22
9269,22
9270,22
9271,22
9272,22
9273,22
9274,22
9275,22
9276,22
9277,22
9278,22
9279,22
9280,22
9281,22
9282,22
9283,22
9284,22
9285,22
9286,22
9287,22
9288,22
9289,23
9290,23
9291,23
9292,22
9293,22
9294,22
9295,22
9296,22
9297,22
9298,22
9299,22
9300,22
9301,22
9302,22
9303,22
9304,22
9305,22
9306,22
9307,22
9308,22
9309,22
9310,22
9311,22
9312,22
9313,22
9314,22
9315,22
9316,22
9317,22
9318,22
9319,22
9320,22
9321,22
9322,22
9323,22
9324,22
9325,22
9326,22
9327,22
9328,22
9329,22
9330,22
9331,22
9332,22
9333,22
9334,22
9335,22
9336,22
9337,22
9338,22
9339,22
9340,22
9341,22
9342,22
9343,22
9344,22
9345,22
9346,22
9347,22
9348,22
9349,22
9350,22
9351,22
9352,22
9353,22
9354,23
9355,22
9356,22
9357,22
9358,22
9359,22
9360,22
9361,22
9362,22
9363,22
9364,22
9365,22
9366,22
9367,22
9368,22
9369,22
9370,22
9371,22
9372,22
9373,22
9374,22
9375,22
9376,22
9377,22
9378,22
9379,22
9380,22
9381,22
9382,22
9383,22
9384,22
9385,22
9386,22
9387,22
9388,22
9389,22
9390,22
9391,22
9392,22
9393,22
9394,22
9395,22
9396,22
9397,22
9398,22
9399,22
9400,22
9401,22
9402,22
9403,22
9404,22
9405,22
9406,22
9407,22
9408,22
9409,22
9410,23
9411,22
9412,22
9413,22
9414,22
9415,22
9416,22
9417,22
9418,22
9419,22
9420,22
9421,23
9422,22
9423,22
9424,22
9425,22
9426,22
9427,22
9428,22
9429,22
9430,22
9431,22
9432,22
9433,22
9434,22
9435,22
9436,22
9437,22
9438,22
9439,22
9440,22
9441,22
9442,22
9443,22
9444,22
9445,22
9446,22
9447,22
9448,22
9449,22
9450,22
9451,22
9452,22
9453,22
9454,22
9455,22
9456,22
9457,22
9458,22
9459,22
9460,22
9461,22
9462,22
9463,22
9464,22
9465,22
9466,22
9467,22
9468,22
9469,22
9470,22
9471,22
9472,22
9473,22
9474,22
9475,22
9476,22
9477,22
9478,22
9479,22
9480,22
9481,22
9482,22
9483,22
9484,22
9485,22
9486,22
9487,22
9488,22
9489,22
9490,22
9491,22
9492,22
9493,23
9494,23
9495,23
9496,22
9497,22
9498,22
9499,22
9500,22
9501,22
9502,22
9503,22
9504,22
9505,22
9506,22
9507,22
9508,22
9509,22
9510,22
9511,22
9512,22
9513,22
9514,22
9515,22
9516,22
9517,22
9518,22
9519,22
9520,22
9521,22
9522,22
9523,22
9524,22
9525,22
9526,22
9527,22
9528,22
9529,22
9530,22
9531,22
9532,22
9533,22
9534,23
9535,22
9536,22
9537,22
9538,22
9539,22
9540,23
9541,22
9542,22
9543,22
9544,22
9545,22
9546,22
9547,22
9548,22
9549,22
9550,22
9551,22
9552,22
9553,22
9554,22
9555,22
9556,22
9557,22
9558,22
9559,22
9560,22
9561,22
9562,22
9563,22
9564,22
9565,22
9566,22
9567,22
9568,22
9569,22
9570,22
9571,22
9572,22
9573,22
9574,22
9575,22
9576,22
9577,22
9578,22
9579,22
9580,22
9581,22
9582,22
9583,22
9584,22
9585,22
9586,22
9587,22
9588,22
9589,22
9590,22
9591,22
9592,22
9593,22
9594,22
9595,22
9596,22
9597,22
9598,22
9599,22
9600,22
9601,22
9602,22
9603,22
9604,22
9605,22
9606,23
9607,23
9608,22
9609,22
9610,22
9611,22
9612,22
9613,22
9614,22
9615,22
9616,22
9617,22
9618,22
9619,22
9620,22
9621,22
9622,22
9623,22
9624,22
9625,22
9626,22
9627,22
9628,22
9629,22
9630,22
9631,22
9632,22
9633,22
9634,22
9635,22
9636,22
9637,22
9638,22
9639,22
9640,22
9641,22
9642,22
9643,22
9644,22
9645,22
9646,22
9647,22
9648,22
9649,22
9650,22
9651,22
9652,22
9653,22
9654,22
9655,22
9656,22
9657,22
9658,22
9659,22
9660,22
9661,22
9662,22
9663,22
9664,22
9665,22
9666,22
9667,22
9668,22
9669,22
9670,22
9671,22
9672,22
9673,22
9674,22
9675,22
9676,22
9677,22
9678,22
9679,22
9680,22
9681,22
9682,22
9683,22
9684,22
9685,22
9686,22
9687,22
9688,22
9689,22
9690,22
9691,22
9692,22
9693,22
9694,22
9695,22
9696,22
9697,22
9698,22
9699,22
9700,22
9701,22
9702,22
9703,22
9704,22
9705,22
9706,22
9707,23
9708,22
9709,22
9710,22
9711,22
9712,22
9713,23
9714,23
9715,23
9716,22
9717,22
9718,22
9719,22
9720,22
9721,22
9722,22
9723,22
9724,22
9725,22
9726,22
9727,22
9728,22
9729,22
9730,22
9731,22
9732,22
9733,22
9734,22
9735,22
9736,22
9737,22
9738,22
9739,22
9740,22
9741,22
9742,22
9743,22
9744,22
9745,22
9746,22
9747,22
9748,22
9749,22
9750,22
9751,22
9752,22
9753,22
9754,22
9755,22
9756,22
9757,22
9758,22
9759,22
9760,22
9761,22
9762,22
9763,22
9764,22
9765,22
9766,22
9767,22
9768,22
9769,22
9770,22
9771,22
9772,22
9773,22
9774,22
9775,22
9776,22
9777,22
9778,22
9779,22
9780,22
9781,22
9782,22
9783,22
9784,22
9785,22
9786,22
9787,22
9788,22
9789,22
9790,22
9791,22
9792,22
9793,22
9794,22
9795,22
9796,22
9797,22
9798,22
9799,22
9800,22
9801,22
9802,22
9803,22
9804,22
9805,22
9806,22
9807,22
9808,22
9809,22
9810,22
9811,22
9812,22
9813,22
9814,22
9815,22
9816,22
9817,22
9818,22
9819,22
9820,22
9821,22
9822,22
9823,22
9824,22
9825,22
9826,22
9827,22
9828,22
9829,22
9830,22
9831,22
9832,22
9833,22
9834,22
9835,22
9836,22
9837,22
9838,22
9839,22
9840,22
9841,22
9842,22
9843,22
9844,22
9845,22
9846,22
9847,22
9848,22
9849,22
9850,22
9851,22
9852,22
9853,22
9854,22
9855,22
9856,22
9857,22
9858,22
9859,22
9860,22
9861,22
9862,22
9863,22
9864,22
9865,22
9866,22
9867,22
9868,22
9869,22
9870,22
9871,22
9872,22
9873,22
9874,22
9875,22
9876,22
9877,22
9878,22
9879,22
9880,22
9881,22
9882,22
9883,22
9884,22
9885,22
9886,22
9887,22
9888,22
9889,22
9890,22
9891,22
9892,22
9893,22
9894,22
9895,22
9896,22
9897,22
9898,22
9899,22
9900,22
9901,22
9902,22
9903,22
9904,22
9905,22
9906,22
9907,22
9908,22
9909,22
9910,22
9911,22
9912,22
9913,22
9914,22
9915,22
9916,22
9917,22
9918,22
9919,22
9920,22
9921,22
9922,22
9923,22
9924,22
9925,22
9926,22
9927,22
9928,22
9929,22
9930,22
9931,22
9932,22
9933,22
9934,22
9935,22
9936,22
9937,22
9938,22
9939,22
9940,22
9941,22
9942,22
9943,22
9944,22
9945,22
9946,22
9947,22
9948,22
9949,22
9950,22
9951,22
9952,22
9953,22
9954,22
9955,22
9956,22
9957,22
9958,22
9959,22
9960,22
9961,22
9962,22
9963,22
9964,22
9965,22
9966,22
9967,23
9968,23
9969,23
9970,23
9971,23
9972,23
9973,23
9974,23
9975,22
9976,22
9977,22
9978,22
9979,22
9980,22
9981,22
9982,22
9983,22
9984,22
9985,22
9986,22
9987,22
9988,22
9989,22
9990,22
9991,22
9992,22
9993,22
9994,22
9995,22
9996,22
9997,22
9998,22
9999,22
10000,22
