1,3
2,3
3,3
4,3
5,3
6,3
7,3
8,3
9,3
10,3
11,3
12,4
13,4
14,4
15,4
16,4
17,4
18,4
19,4
20,4
21,4
22,4
23,4
24,4
25,4
26,4
27,4
28,4
29,4
30,4
31,4
32,4
33,4
34,4
35,4
36,4
37,4
38,4
39,4
40,4
41,4
42,4
43,4
44,4
45,4
46,4
47,4
48,4
49,4
50,4
51,4
52,4
53,4
54,4
55,4
56,4
57,4
58,4
59,4
60,4
61,4
62,4
63,4
64,4
65,4
66,4
67,4
68,4
69,4
70,4
71,4
72,4
73,4
74,4
75,4
76,4
77,4
78,4
79,4
80,4
81,4
82,4
83,4
84,4
85,4
86,4
87,4
88,4
89,4
90,5
91,4
92,5
93,4
94,4
95,4
96,4
97,4
98,4
99,4
100,4
101,4
102,4
103,4
104,4
105,4
106,4
107,4
108,4
109,4
110,4
111,4
112,4
113,4
114,4
115,4
116,4
117,4
118,4
119,4
120,4
121,4
122,4
123,4
124,4
125,4
126,4
127,4
128,4
129,4
130,4
131,4
132,4
133,4
134,4
135,4
136,4
137,4
138,4
139,4
140,4
141,4
142,4
143,4
144,4
145,4
146,4
147,4
148,4
149,4
150,4
151,4
152,4
153,4
154,4
155,4
156,4
157,4
158,4
159,4
160,4
161,4
162,4
163,4
164,4
165,4
166,4
167,4
168,4
169,4
170,4
171,4
172,4
173,4
174,4
175,4
176,4
177,4
178,4
179,4
180,4
181,4
182,4
183,4
184,4
185,4
186,4
187,4
188,4
189,4
190,4
191,4
192,4
193,4
194,4
195,4
196,4
197,4
198,4
199,4
200,4
201,4
202,4
203,4
204,4
205,4
206,4
207,4
208,4
209,4
210,4
211,4
212,4
213,4
214,4
215,4
216,4
217,4
218,4
219,4
220,4
221,4
222,4
223,4
224,4
225,4
226,4
227,4
228,4
229,4
230,4
231,4
232,4
233,4
234,4
235,4
236,4
237,5
238,5
239,5
240,5
241,5
242,5
243,5
244,5
245,5
246,5
247,5
248,5
249,5
250,5
251,5
252,5
253,5
254,5
255,5
256,5
257,5
258,5
259,5
260,5
261,6
262,6
263,6
264,6
265,5
266,5
267,5
268,5
269,5
270,5
271,5
272,5
273,5
274,5
275,5
276,5
277,5
278,5
279,5
280,5
281,5
282,5
283,5
284,5
285,5
286,5
287,5
288,5
289,5
290,6
291,5
292,5
293,5
294,5
295,5
296,5
297,5
298,5
299,5
300,5
301,5
302,5
303,5
304,5
305,5
306,5
307,5
308,5
309,5
310,5
311,5
312,5
313,5
314,5
315,5
316,5
317,5
318,5
319,5
320,5
321,5
322,5
323,5
324,5
325,5
326,5
327,5
328,5
329,5
330,5
331,5
332,5
333,5
334,5
335,5
336,5
337,5
338,5
339,5
340,5
341,5
342,5
343,5
344,5
345,5
346,5
347,5
348,5
349,5
350,5
351,5
352,5
353,5
354,5
355,5
356,5
357,5
358,5
359,5
360,5
361,5
362,5
363,5
364,5
365,5
366,5
367,5
368,5
369,5
370,5
371,5
372,5
373,5
374,5
375,5
376,5
377,5
378,5
379,5
380,5
381,5
382,5
383,5
384,5
385,5
386,5
387,5
388,5
389,5
390,5
391,5
392,5
393,5
394,5
395,5
396,5
397,5
398,5
399,5
400,5
401,5
402,5
403,5
404,5
405,5
406,5
407,5
408,5
409,5
410,5
411,5
412,5
413,5
414,5
415,5
416,5
417,5
418,5
419,5
420,5
421,5
422,5
423,5
424,5
425,5
426,5
427,5
428,5
429,5
430,5
431,5
432,5
433,6
434,6
435,6
436,6
437,6
438,5
439,5
440,5
441,5
442,5
443,5
444,5
445,5
446,5
447,5
448,5
449,5
450,5
451,5
452,5
453,5
454,5
455,5
456,5
457,5
458,5
459,5
460,5
461,5
462,5
463,5
464,5
465,5
466,5
467,5
468,5
469,5
470,5
471,5
472,5
473,5
474,5
475,5
476,5
477,5
478,5
479,5
480,5
481,5
482,5
483,5
484,5
485,5
486,5
487,5
488,5
489,5
490,5
491,5
492,5
493,5
494,5
495,5
496,5
497,5
498,5
499,5
500,5
501,5
502,5
503,5
504,5
505,5
506,5
507,5
508,5
509,5
510,5
511,5
512,5
513,5
514,5
515,5
516,5
517,5
518,5
519,5
520,5
521,5
522,5
523,5
524,5
525,5
526,5
527,5
528,5
529,5
530,5
531,5
532,5
533,5
534,5
535,5
536,5
537,5
538,5
539,5
540,5
541,5
542,5
543,5
544,5
545,5
546,5
547,5
548,5
549,5
550,5
551,5
552,5
553,5
554,5
555,5
556,5
557,5
558,5
559,5
560,5
561,5
562,5
563,5
564,5
565,5
566,5
567,5
568,5
569,5
570,5
571,5
572,5
573,5
574,5
575,5
576,5
577,5
578,5
579,5
580,5
581,5
582,5
583,5
584,5
585,5
586,5
587,5
588,5
589,5
590,5
591,5
592,5
593,5
594,5
595,5
596,5
597,5
598,5
599,5
600,5
601,5
602,5
603,5
604,5
605,5
606,5
607,5
608,5
609,5
610,5
611,5
612,5
613,5
614,5
615,5
616,5
617,5
618,5
619,5
620,5
621,5
622,6
623,5
624,5
625,5
626,5
627,5
628,5
629,6
630,6
631,6
632,5
633,5
634,5
635,5
636,5
637,5
638,5
639,5
640,5
641,5
642,5
643,5
644,5
645,5
646,5
647,5
648,5
649,5
650,5
651,5
652,5
653,5
654,5
655,5
656,5
657,5
658,5
659,5
660,5
661,5
662,5
663,5
664,5
665,5
666,5
667,5
668,5
669,5
670,5
671,5
672,5
673,5
674,5
675,5
676,5
677,5
678,5
679,5
680,5
681,5
682,5
683,5
684,5
685,5
686,5
687,5
688,5
689,5
690,5
691,5
692,5
693,5
694,5
695,5
696,5
697,5
698,5
699,5
700,5
701,5
702,5
703,5
704,5
705,5
706,5
707,5
708,5
709,5
710,5
711,5
712,5
713,5
714,5
715,5
716,5
717,5
718,5
719,5
720,5
721,5
722,5
723,5
724,5
725,6
726,5
727,5
728,5
729,5
730,5
731,5
732,5
733,5
734,5
735,5
736,5
737,5
738,5
739,5
740,5
741,5
742,5
743,5
744,5
745,5
746,5
747,5
748,5
749,5
750,5
751,5
752,5
753,5
754,5
755,5
756,5
757,5
758,5
759,5
760,5
761,5
762,5
763,5
764,5
765,5
766,5
767,5
768,5
769,5
770,5
771,5
772,5
773,5
774,5
775,6
776,6
777,5
778,5
779,5
780,5
781,5
782,5
783,5
784,5
785,5
786,5
787,5
788,5
789,5
790,5
791,5
792,5
793,5
794,5
795,5
796,5
797,5
798,5
799,5
800,5
801,5
802,5
803,5
804,5
805,5
806,6
807,6
808,6
809,6
810,6
811,6
812,6
813,6
814,6
815,6
816,6
817,6
818,6
819,6
820,6
821,6
822,6
823,6
824,6
825,6
826,6
827,7
828,7
829,6
830,6
831,6
832,6
833,6
834,6
835,6
836,6
837,6
838,6
839,6
840,6
841,6
842,6
843,6
844,6
845,6
846,6
847,6
848,6
849,6
850,6
851,6
852,6
853,6
854,6
855,6
856,6
857,6
858,6
859,6
860,6
861,6
862,6
863,6
864,6
865,6
866,6
867,6
868,6
869,6
870,6
871,6
872,6
873,6
874,6
875,6
876,6
877,6
878,6
879,6
880,6
881,6
882,6
883,6
884,6
885,6
886,6
887,6
888,6
889,6
890,6
891,6
892,6
893,6
894,6
895,6
896,6
897,6
898,6
899,6
900,6
901,6
902,6
903,6
904,6
905,6
906,6
907,6
908,6
909,6
910,6
911,6
912,6
913,6
914,6
915,6
916,6
917,6
918,6
919,6
920,6
921,6
922,6
923,6
924,6
925,6
926,6
927,6
928,6
929,6
930,6
931,6
932,6
933,6
934,6
935,6
936,6
937,6
938,6
939,6
940,6
941,6
942,6
943,6
944,6
945,6
946,6
947,6
948,6
949,6
950,6
951,6
952,6
953,6
954,6
955,6
956,6
957,6
958,6
959,6
960,6
961,6
962,6
963,6
964,6
965,6
966,6
967,6
968,6
969,6
970,6
971,6
972,6
973,6
974,6
975,6
976,6
977,6
978,6
979,6
980,6
981,6
982,6
983,6
984,6
985,6
986,6
987,6
988,6
989,6
990,6
991,6
992,6
993,6
994,6
995,6
996,6
997,6
998,6
999,6
1000,6
1001,6
1002,6
1003,6
1004,6
1005,6
1006,6
1007,6
1008,6
1009,6
1010,6
1011,6
1012,6
1013,6
1014,6
1015,6
1016,6
1017,6
1018,6
1019,6
1020,6
1021,6
1022,6
1023,6
1024,6
1025,6
1026,6
1027,6
1028,6
1029,6
1030,6
1031,6
1032,6
1033,6
1034,6
1035,6
1036,6
1037,6
1038,6
1039,6
1040,6
1041,6
1042,6
1043,6
1044,6
1045,7
1046,7
1047,7
1048,7
1049,7
1050,7
1051,7
1052,7
1053,7
1054,7
1055,7
1056,7
1057,7
1058,7
1059,7
1060,7
1061,7
1062,7
1063,7
1064,7
1065,7
1066,7
1067,7
1068,7
1069,7
1070,7
1071,7
1072,7
1073,7
1074,7
1075,7
1076,7
1077,7
1078,7
1079,7
1080,7
1081,7
1082,7
1083,7
1084,7
1085,7
1086,7
1087,7
1088,7
1089,7
1090,7
1091,8
1092,8
1093,8
1094,7
1095,7
1096,7
1097,7
1098,7
1099,7
1100,7
1101,7
1102,7
1103,7
1104,7
1105,7
1106,7
1107,7
1108,7
1109,7
1110,7
1111,8
1112,8
1113,8
1114,8
1115,8
1116,8
1117,8
1118,8
1119,8
1120,8
1121,8
1122,8
1123,8
1124,8
1125,8
1126,8
1127,8
1128,8
1129,8
1130,8
1131,8
1132,8
1133,8
1134,8
1135,8
1136,8
1137,8
1138,8
1139,8
1140,8
1141,8
1142,8
1143,8
1144,8
1145,8
1146,8
1147,8
1148,8
1149,8
1150,8
1151,8
1152,8
1153,8
1154,8
1155,8
1156,8
1157,8
1158,8
1159,8
1160,8
1161,8
1162,8
1163,8
1164,8
1165,8
1166,8
1167,8
1168,8
1169,8
1170,8
1171,8
1172,8
1173,8
1174,8
1175,8
1176,8
1177,8
1178,8
1179,8
1180,8
1181,8
1182,8
1183,8
1184,8
1185,8
1186,8
1187,8
1188,8
1189,8
1190,8
1191,8
1192,8
1193,8
1194,8
1195,8
1196,8
1197,8
1198,8
1199,8
1200,8
1201,8
1202,8
1203,8
1204,8
1205,8
1206,8
1207,8
1208,8
1209,8
1210,8
1211,8
1212,8
1213,8
1214,8
1215,8
1216,8
1217,8
1218,9
1219,8
1220,8
1221,8
1222,8
1223,8
1224,8
1225,8
1226,8
1227,8
1228,8
1229,8
1230,8
1231,8
1232,8
1233,8
1234,8
1235,8
1236,8
1237,8
1238,9
1239,9
1240,9
1241,8
1242,8
1243,8
1244,8
1245,8
1246,8
1247,8
1248,8
1249,8
1250,8
1251,8
1252,8
1253,8
1254,8
1255,8
1256,8
1257,8
1258,8
1259,8
1260,8
1261,8
1262,8
1263,8
1264,8
1265,8
1266,8
1267,8
1268,8
1269,8
1270,8
1271,8
1272,8
1273,8
1274,8
1275,8
1276,8
1277,8
1278,8
1279,8
1280,8
1281,8
1282,8
1283,8
1284,8
1285,8
1286,8
1287,8
1288,8
1289,8
1290,8
1291,8
1292,8
1293,8
1294,8
1295,8
1296,8
1297,8
1298,8
1299,8
1300,8
1301,8
1302,8
1303,8
1304,8
1305,8
1306,8
1307,8
1308,8
1309,8
1310,8
1311,8
1312,8
1313,8
1314,8
1315,8
1316,8
1317,8
1318,8
1319,8
1320,8
1321,8
1322,8
1323,8
1324,8
1325,8
1326,8
1327,8
1328,8
1329,8
1330,8
1331,8
1332,8
1333,8
1334,8
1335,8
1336,8
1337,8
1338,8
1339,8
1340,8
1341,8
1342,8
1343,9
1344,9
1345,9
1346,9
1347,8
1348,8
1349,8
1350,8
1351,8
1352,8
1353,8
1354,8
1355,8
1356,8
1357,8
1358,8
1359,8
1360,8
1361,8
1362,8
1363,8
1364,8
1365,8
1366,8
1367,8
1368,8
1369,8
1370,8
1371,8
1372,8
1373,9
1374,9
1375,9
1376,9
1377,9
1378,10
1379,9
1380,9
1381,10
1382,9
1383,9
1384,9
1385,9
1386,9
1387,9
1388,9
1389,9
1390,9
1391,9
1392,9
1393,9
1394,9
1395,9
1396,9
1397,9
1398,9
1399,9
1400,9
1401,9
1402,9
1403,10
1404,9
1405,9
1406,9
1407,9
1408,9
1409,9
1410,9
1411,9
1412,9
1413,9
1414,9
1415,9
1416,9
1417,9
1418,9
1419,9
1420,9
1421,9
1422,9
1423,9
1424,9
1425,9
1426,9
1427,9
1428,9
1429,9
1430,9
1431,9
1432,9
1433,9
1434,9
1435,9
1436,9
1437,9
1438,9
1439,9
1440,9
1441,9
1442,9
1443,9
1444,9
1445,9
1446,9
1447,9
1448,9
1449,9
1450,9
1451,9
1452,9
1453,9
1454,9
1455,9
1456,9
1457,9
1458,9
1459,9
1460,9
1461,9
1462,9
1463,9
1464,9
1465,9
1466,9
1467,9
1468,9
1469,9
1470,9
1471,9
1472,9
1473,9
1474,9
1475,9
1476,9
1477,9
1478,9
1479,9
1480,9
1481,9
1482,9
1483,9
1484,9
1485,9
1486,9
1487,9
1488,9
1489,9
1490,9
1491,9
1492,9
1493,9
1494,9
1495,9
1496,9
1497,9
1498,9
1499,9
1500,9
1501,9
1502,9
1503,9
1504,9
1505,9
1506,9
1507,9
1508,9
1509,9
1510,9
1511,9
1512,9
1513,9
1514,9
1515,9
1516,9
1517,9
1518,9
1519,9
1520,9
1521,9
1522,9
1523,9
1524,9
1525,9
1526,9
1527,9
1528,9
1529,9
1530,9
1531,9
1532,9
1533,9
1534,9
1535,9
1536,9
1537,9
1538,9
1539,9
1540,9
1541,9
1542,9
1543,9
1544,9
1545,9
1546,9
1547,9
1548,9
1549,9
1550,9
1551,9
1552,9
1553,9
1554,9
1555,9
1556,9
1557,9
1558,9
1559,9
1560,9
1561,9
1562,9
1563,9
1564,9
1565,9
1566,9
1567,9
1568,9
1569,9
1570,9
1571,9
1572,9
1573,9
1574,9
1575,9
1576,9
1577,9
1578,9
1579,9
1580,9
1581,9
1582,9
1583,9
1584,9
1585,9
1586,9
1587,9
1588,9
1589,9
1590,9
1591,9
1592,9
1593,9
1594,9
1595,9
1596,9
1597,10
1598,10
1599,9
1600,9
1601,9
1602,9
1603,9
1604,9
1605,9
1606,9
1607,9
1608,9
1609,9
1610,9
1611,9
1612,9
1613,9
1614,9
1615,9
1616,9
1617,9
1618,9
1619,9
1620,9
1621,9
1622,9
1623,9
1624,9
1625,9
1626,9
1627,9
1628,9
1629,9
1630,9
1631,9
1632,9
1633,9
1634,9
1635,9
1636,9
1637,9
1638,9
1639,9
1640,9
1641,9
1642,9
1643,9
1644,9
1645,9
1646,9
1647,9
1648,9
1649,9
1650,9
1651,9
1652,9
1653,9
1654,9
1655,9
1656,9
1657,9
1658,9
1659,9
1660,9
1661,9
1662,9
1663,9
1664,9
1665,9
1666,9
1667,9
1668,9
1669,9
1670,9
1671,9
1672,9
1673,9
1674,9
1675,9
1676,9
1677,9
1678,9
1679,9
1680,9
1681,9
1682,9
1683,9
1684,9
1685,9
1686,9
1687,9
1688,9
1689,9
1690,9
1691,9
1692,9
1693,9
1694,10
1695,10
1696,10
1697,10
1698,10
1699,10
1700,10
1701,10
1702,10
1703,10
1704,10
1705,10
1706,10
1707,10
1708,10
1709,10
1710,10
1711,10
1712,10
1713,10
1714,11
1715,11
1716,10
1717,10
1718,10
1719,10
1720,10
1721,10
1722,10
1723,10
1724,10
1725,10
1726,10
1727,10
1728,10
1729,10
1730,10
1731,10
1732,10
1733,10
1734,10
1735,10
1736,10
1737,10
1738,10
1739,10
1740,10
1741,10
1742,10
1743,10
1744,10
1745,10
1746,10
1747,10
1748,10
1749,10
1750,10
1751,10
1752,10
1753,10
1754,10
1755,10
1756,10
1757,10
1758,10
1759,10
1760,10
1761,10
1762,10
1763,10
1764,10
1765,10
1766,10
1767,10
1768,10
1769,10
1770,10
1771,10
1772,10
1773,10
1774,10
1775,10
1776,10
1777,10
1778,10
1779,10
1780,10
1781,10
1782,10
1783,10
1784,10
1785,10
1786,10
1787,10
1788,10
1789,10
1790,10
1791,10
1792,10
1793,10
1794,10
1795,10
1796,10
1797,10
1798,10
1799,10
1800,10
1801,10
1802,10
1803,10
1804,10
1805,10
1806,10
1807,10
1808,10
1809,10
1810,11
1811,11
1812,11
1813,11
1814,11
1815,11
1816,11
1817,11
1818,11
1819,11
1820,11
1821,11
1822,11
1823,11
1824,11
1825,11
1826,11
1827,11
1828,11
1829,11
1830,11
1831,11
1832,11
1833,11
1834,11
1835,11
1836,11
1837,11
1838,11
1839,11
1840,11
1841,11
1842,11
1843,11
1844,11
1845,11
1846,11
1847,11
1848,11
1849,11
1850,11
1851,11
1852,11
1853,11
1854,11
1855,11
1856,11
1857,11
1858,11
1859,11
1860,11
1861,11
1862,11
1863,11
1864,11
1865,11
1866,11
1867,11
1868,11
1869,11
1870,11
1871,11
1872,11
1873,11
1874,11
1875,11
1876,11
1877,11
1878,11
1879,11
1880,11
1881,11
1882,11
1883,11
1884,11
1885,11
1886,11
1887,11
1888,11
1889,11
1890,11
1891,11
1892,11
1893,11
1894,11
1895,12
1896,11
1897,11
1898,11
1899,11
1900,11
1901,11
1902,11
1903,11
1904,11
1905,11
1906,11
1907,11
1908,11
1909,11
1910,11
1911,11
1912,11
1913,11
1914,11
1915,11
1916,11
1917,11
1918,11
1919,11
1920,11
1921,11
1922,11
1923,11
1924,11
1925,11
1926,11
1927,11
1928,11
1929,11
1930,11
1931,11
1932,11
1933,11
1934,11
1935,11
1936,11
1937,11
1938,11
1939,11
1940,11
1941,11
1942,11
1943,11
1944,11
1945,11
1946,11
1947,11
1948,11
1949,11
1950,11
1951,11
1952,11
1953,11
1954,11
1955,11
1956,11
1957,11
1958,11
1959,11
1960,11
1961,11
1962,11
1963,11
1964,11
1965,11
1966,11
1967,11
1968,11
1969,11
1970,11
1971,11
1972,11
1973,11
1974,11
1975,11
1976,11
1977,11
1978,11
1979,11
1980,11
1981,11
1982,11
1983,11
1984,12
1985,12
1986,12
1987,12
1988,12
1989,12
1990,12
1991,11
1992,11
1993,11
1994,11
1995,11
1996,11
1997,11
1998,11
1999,11
2000,11
2001,11
2002,11
2003,11
2004,11
2005,11
2006,11
2007,11
2008,11
2009,11
2010,11
2011,11
2012,11
2013,11
2014,11
2015,11
2016,11
2017,11
2018,11
2019,11
2020,11
2021,11
2022,11
2023,11
2024,11
2025,11
2026,11
2027,11
2028,11
2029,11
2030,11
2031,11
2032,11
2033,11
2034,12
2035,12
2036,12
2037,12
2038,12
2039,12
2040,12
2041,12
2042,12
2043,12
2044,12
2045,12
2046,12
2047,12
2048,12
2049,12
2050,12
2051,12
2052,12
2053,12
2054,12
2055,12
2056,12
2057,12
2058,12
2059,12
2060,13
2061,12
2062,12
2063,12
2064,12
2065,12
2066,12
2067,12
2068,12
2069,12
2070,12
2071,12
2072,12
2073,12
2074,12
2075,12
2076,12
2077,12
2078,12
2079,12
2080,12
2081,12
2082,12
2083,12
2084,12
2085,12
2086,12
2087,12
2088,12
2089,12
2090,12
2091,12
2092,12
2093,12
2094,12
2095,12
2096,12
2097,12
2098,12
2099,12
2100,12
2101,12
2102,12
2103,12
2104,12
2105,12
2106,12
2107,12
2108,12
2109,12
2110,12
2111,12
2112,12
2113,12
2114,12
2115,12
2116,12
2117,12
2118,12
2119,12
2120,12
2121,12
2122,12
2123,12
2124,12
2125,12
2126,12
2127,12
2128,12
2129,12
2130,12
2131,12
2132,12
2133,12
2134,12
2135,12
2136,12
2137,12
2138,12
2139,12
2140,12
2141,12
2142,12
2143,12
2144,12
2145,12
2146,12
2147,12
2148,12
2149,12
2150,12
2151,12
2152,12
2153,12
2154,12
2155,12
2156,12
2157,12
2158,12
2159,12
2160,12
2161,12
2162,12
2163,12
2164,12
2165,12
2166,12
2167,12
2168,12
2169,12
2170,12
2171,12
2172,12
2173,12
2174,12
2175,12
2176,12
2177,12
2178,12
2179,12
2180,12
2181,12
2182,12
2183,12
2184,12
2185,12
2186,12
2187,12
2188,12
2189,12
2190,12
2191,12
2192,12
2193,12
2194,13
2195,13
2196,13
2197,12
2198,12
2199,12
2200,12
2201,12
2202,12
2203,12
2204,12
2205,12
2206,12
2207,12
2208,12
2209,12
2210,12
2211,12
2212,12
2213,12
2214,12
2215,12
2216,12
2217,12
2218,12
2219,12
2220,12
2221,12
2222,12
2223,12
2224,12
2225,12
2226,12
2227,12
2228,12
2229,12
2230,12
2231,12
2232,12
2233,12
2234,12
2235,13
2236,13
2237,13
2238,13
2239,13
2240,13
2241,13
2242,13
2243,13
2244,12
2245,12
2246,12
2247,12
2248,12
2249,12
2250,12
2251,12
2252,12
2253,12
2254,12
2255,12
2256,12
2257,12
2258,12
2259,12
2260,12
2261,12
2262,12
2263,12
2264,12
2265,12
2266,12
2267,12
2268,12
2269,12
2270,12
2271,12
2272,12
2273,12
2274,12
2275,12
2276,12
2277,12
2278,12
2279,12
2280,13
2281,12
2282,12
2283,12
2284,12
2285,12
2286,12
2287,12
2288,12
2289,12
2290,12
2291,12
2292,12
2293,12
2294,12
2295,12
2296,12
2297,12
2298,12
2299,12
2300,13
2301,12
2302,12
2303,12
2304,12
2305,12
2306,12
2307,12
2308,12
2309,12
2310,12
2311,12
2312,12
2313,12
2314,12
2315,12
2316,12
2317,12
2318,12
2319,12
2320,12
2321,12
2322,12
2323,12
2324,12
2325,12
2326,12
2327,12
2328,12
2329,12
2330,12
2331,12
2332,12
2333,12
2334,12
2335,12
2336,12
2337,12
2338,12
2339,12
2340,12
2341,12
2342,12
2343,12
2344,12
2345,12
2346,12
2347,12
2348,12
2349,12
2350,12
2351,12
2352,12
2353,12
2354,12
2355,12
2356,12
2357,12
2358,12
2359,12
2360,12
2361,12
2362,12
2363,12
2364,12
2365,12
2366,12
2367,12
2368,12
2369,12
2370,12
2371,12
2372,12
2373,12
2374,12
2375,12
2376,12
2377,12
2378,12
2379,12
2380,12
2381,12
2382,12
2383,12
2384,12
2385,12
2386,12
2387,12
2388,12
2389,12
2390,12
2391,12
2392,12
2393,12
2394,12
2395,12
2396,12
2397,12
2398,12
2399,12
2400,12
2401,12
2402,12
2403,12
2404,12
2405,12
2406,12
2407,12
2408,12
2409,12
2410,12
2411,12
2412,12
2413,12
2414,12
2415,12
2416,12
2417,12
2418,12
2419,12
2420,12
2421,12
2422,12
2423,12
2424,12
2425,12
2426,12
2427,12
2428,12
2429,12
2430,12
2431,12
2432,12
2433,12
2434,12
2435,12
2436,12
2437,12
2438,12
2439,12
2440,12
2441,12
2442,12
2443,12
2444,12
2445,12
2446,12
2447,12
2448,12
2449,12
2450,12
2451,12
2452,12
2453,12
2454,12
2455,12
2456,12
2457,12
2458,12
2459,12
2460,12
2461,12
2462,12
2463,12
2464,12
2465,12
2466,12
2467,12
2468,12
2469,12
2470,12
2471,12
2472,12
2473,12
2474,12
2475,12
2476,12
2477,12
2478,12
2479,12
2480,12
2481,12
2482,12
2483,12
2484,12
2485,12
2486,12
2487,12
2488,12
2489,12
2490,12
2491,12
2492,12
2493,12
2494,12
2495,12
2496,12
2497,12
2498,12
2499,12
2500,12
2501,12
2502,12
2503,12
2504,12
2505,12
2506,12
2507,12
2508,12
2509,12
2510,12
2511,12
2512,12
2513,12
2514,12
2515,12
2516,12
2517,12
2518,12
2519,12
2520,12
2521,12
2522,12
2523,12
2524,13
2525,12
2526,12
2527,12
2528,12
2529,12
2530,13
2531,13
2532,12
2533,12
2534,12
2535,12
2536,12
2537,12
2538,12
2539,12
2540,12
2541,12
2542,12
2543,12
2544,12
2545,12
2546,12
2547,12
2548,12
2549,12
2550,12
2551,12
2552,12
2553,12
2554,12
2555,12
2556,12
2557,12
2558,12
2559,12
2560,12
2561,12
2562,12
2563,12
2564,12
2565,12
2566,12
2567,12
2568,12
2569,12
2570,12
2571,12
2572,12
2573,12
2574,12
2575,12
2576,12
2577,13
2578,12
2579,12
2580,12
2581,12
2582,12
2583,12
2584,12
2585,12
2586,12
2587,12
2588,12
2589,12
2590,12
2591,12
2592,12
2593,12
2594,12
2595,12
2596,12
2597,12
2598,12
2599,12
2600,12
2601,12
2602,12
2603,12
2604,12
2605,12
2606,12
2607,12
2608,12
2609,12
2610,12
2611,12
2612,12
2613,12
2614,12
2615,12
2616,12
2617,12
2618,12
2619,12
2620,12
2621,12
2622,12
2623,12
2624,12
2625,12
2626,12
2627,12
2628,12
2629,12
2630,12
2631,12
2632,12
2633,12
2634,12
2635,12
2636,12
2637,12
2638,12
2639,12
2640,12
2641,12
2642,12
2643,12
2644,12
2645,12
2646,12
2647,12
2648,12
2649,12
2650,12
2651,12
2652,12
2653,12
2654,12
2655,12
2656,12
2657,12
2658,12
2659,12
2660,12
2661,12
2662,12
2663,12
2664,12
2665,12
2666,12
2667,12
2668,12
2669,12
2670,12
2671,12
2672,12
2673,12
2674,12
2675,12
2676,12
2677,12
2678,12
2679,12
2680,12
2681,12
2682,12
2683,12
2684,12
2685,12
2686,12
2687,12
2688,12
2689,12
2690,12
2691,12
2692,12
2693,12
2694,12
2695,12
2696,12
2697,12
2698,12
2699,12
2700,12
2701,12
2702,12
2703,12
2704,12
2705,12
2706,12
2707,12
2708,12
2709,12
2710,12
2711,12
2712,12
2713,12
2714,12
2715,12
2716,12
2717,12
2718,12
2719,12
2720,12
2721,12
2722,12
2723,12
2724,12
2725,12
2726,12
2727,12
2728,12
2729,12
2730,12
2731,12
2732,12
2733,12
2734,12
2735,12
2736,13
2737,13
2738,12
2739,12
2740,13
2741,13
2742,13
2743,13
2744,13
2745,13
2746,13
2747,13
2748,13
2749,13
2750,13
2751,13
2752,13
2753,13
2754,12
2755,12
2756,12
2757,12
2758,12
2759,12
2760,12
2761,12
2762,12
2763,12
2764,12
2765,12
2766,12
2767,12
2768,12
2769,12
2770,12
2771,12
2772,12
2773,12
2774,12
2775,12
2776,12
2777,12
2778,12
2779,12
2780,12
2781,12
2782,12
2783,12
2784,12
2785,12
2786,12
2787,12
2788,12
2789,12
2790,12
2791,12
2792,12
2793,12
2794,12
2795,12
2796,12
2797,12
2798,12
2799,12
2800,12
2801,12
2802,12
2803,12
2804,12
2805,12
2806,12
2807,12
2808,12
2809,12
2810,12
2811,12
2812,12
2813,12
2814,12
2815,12
2816,12
2817,12
2818,12
2819,12
2820,12
2821,12
2822,12
2823,12
2824,12
2825,12
2826,12
2827,12
2828,12
2829,12
2830,12
2831,12
2832,12
2833,12
2834,12
2835,12
2836,12
2837,12
2838,12
2839,12
2840,12
2841,12
2842,12
2843,12
2844,12
2845,12
2846,12
2847,12
2848,12
2849,12
2850,12
2851,12
2852,12
2853,12
2854,12
2855,12
2856,12
2857,12
2858,12
2859,12
2860,12
2861,12
2862,12
2863,12
2864,12
2865,12
2866,12
2867,12
2868,12
2869,12
2870,12
2871,12
2872,12
2873,12
2874,12
2875,12
2876,12
2877,12
2878,12
2879,12
2880,12
2881,12
2882,12
2883,12
2884,12
2885,12
2886,12
2887,12
2888,12
2889,12
2890,12
2891,12
2892,12
2893,12
2894,12
2895,12
2896,12
2897,12
2898,12
2899,12
2900,12
2901,12
2902,12
2903,12
2904,12
2905,12
2906,12
2907,12
2908,12
2909,12
2910,12
2911,12
2912,12
2913,12
2914,12
2915,12
2916,12
2917,12
2918,12
2919,12
2920,12
2921,12
2922,12
2923,12
2924,12
2925,12
2926,12
2927,12
2928,12
2929,12
2930,12
2931,12
2932,12
2933,12
2934,12
2935,12
2936,12
2937,12
2938,12
2939,12
2940,12
2941,12
2942,12
2943,13
2944,12
2945,12
2946,12
2947,12
2948,12
2949,12
2950,12
2951,12
2952,12
2953,12
2954,12
2955,12
2956,12
2957,12
2958,12
2959,12
2960,13
2961,12
2962,12
2963,12
2964,12
2965,12
2966,12
2967,12
2968,12
2969,12
2970,12
2971,12
2972,12
2973,12
2974,12
2975,12
2976,12
2977,12
2978,12
2979,12
2980,12
2981,12
2982,12
2983,12
2984,12
2985,12
2986,12
2987,12
2988,12
2989,12
2990,12
2991,12
2992,12
2993,12
2994,12
2995,12
2996,12
2997,12
2998,12
2999,12
3000,12
3001,12
3002,12
3003,12
3004,12
3005,12
3006,12
3007,12
3008,12
3009,12
3010,12
3011,12
3012,12
3013,12
3014,12
3015,12
3016,12
3017,12
3018,12
3019,12
3020,12
3021,12
3022,12
3023,12
3024,12
3025,12
3026,12
3027,12
3028,12
3029,12
3030,12
3031,12
3032,12
3033,12
3034,12
3035,12
3036,12
3037,12
3038,12
3039,12
3040,12
3041,12
3042,12
3043,12
3044,12
3045,12
3046,12
3047,12
3048,12
3049,12
3050,12
3051,12
3052,12
3053,12
3054,12
3055,12
3056,12
3057,12
3058,12
3059,12
3060,12
3061,12
3062,12
3063,12
3064,12
3065,12
3066,12
3067,12
3068,12
3069,12
3070,12
3071,12
3072,12
3073,12
3074,12
3075,12
3076,12
3077,12
3078,12
3079,12
3080,12
3081,12
3082,12
3083,12
3084,12
3085,12
3086,12
3087,12
3088,12
3089,12
3090,12
3091,12
3092,12
3093,12
3094,12
3095,12
3096,12
3097,12
3098,12
3099,12
3100,12
3101,12
3102,12
3103,12
3104,12
3105,12
3106,12
3107,12
3108,12
3109,12
3110,12
3111,12
3112,12
3113,12
3114,13
3115,12
3116,12
3117,12
3118,12
3119,12
3120,12
3121,12
3122,12
3123,12
3124,12
3125,12
3126,12
3127,12
3128,12
3129,12
3130,12
3131,12
3132,12
3133,12
3134,12
3135,12
3136,12
3137,12
3138,12
3139,12
3140,12
3141,12
3142,12
3143,12
3144,12
3145,12
3146,12
3147,12
3148,12
3149,12
3150,12
3151,12
3152,12
3153,12
3154,12
3155,12
3156,12
3157,12
3158,12
3159,12
3160,12
3161,14
3162,13
3163,12
3164,12
3165,12
3166,12
3167,12
3168,12
3169,12
3170,12
3171,12
3172,12
3173,12
3174,12
3175,12
3176,12
3177,12
3178,12
3179,12
3180,12
3181,12
3182,12
3183,12
3184,12
3185,12
3186,12
3187,12
3188,12
3189,12
3190,12
3191,12
3192,13
3193,12
3194,12
3195,12
3196,12
3197,12
3198,12
3199,12
3200,12
3201,12
3202,12
3203,12
3204,12
3205,12
3206,12
3207,12
3208,12
3209,12
3210,12
3211,12
3212,12
3213,12
3214,12
3215,12
3216,12
3217,12
3218,12
3219,12
3220,12
3221,12
3222,12
3223,12
3224,12
3225,12
3226,12
3227,12
3228,12
3229,12
3230,12
3231,12
3232,12
3233,12
3234,12
3235,12
3236,12
3237,12
3238,12
3239,12
3240,12
3241,12
3242,12
3243,12
3244,12
3245,12
3246,12
3247,12
3248,13
3249,13
3250,13
3251,12
3252,12
3253,12
3254,12
3255,12
3256,12
3257,12
3258,12
3259,12
3260,12
3261,12
3262,12
3263,12
3264,12
3265,12
3266,12
3267,12
3268,12
3269,12
3270,12
3271,12
3272,12
3273,12
3274,12
3275,12
3276,12
3277,12
3278,12
3279,12
3280,12
3281,12
3282,12
3283,12
3284,12
3285,12
3286,12
3287,12
3288,12
3289,12
3290,12
3291,12
3292,12
3293,12
3294,12
3295,12
3296,12
3297,12
3298,12
3299,12
3300,12
3301,12
3302,12
3303,12
3304,12
3305,12
3306,12
3307,12
3308,12
3309,12
3310,12
3311,12
3312,12
3313,12
3314,12
3315,12
3316,12
3317,12
3318,12
3319,12
3320,12
3321,12
3322,12
3323,12
3324,12
3325,12
3326,12
3327,12
3328,12
3329,12
3330,12
3331,12
3332,12
3333,12
3334,12
3335,12
3336,12
3337,12
3338,12
3339,12
3340,12
3341,12
3342,12
3343,12
3344,12
3345,12
3346,12
3347,12
3348,12
3349,12
3350,12
3351,12
3352,12
3353,12
3354,12
3355,12
3356,12
3357,12
3358,12
3359,12
3360,12
3361,12
3362,12
3363,12
3364,12
3365,12
3366,12
3367,12
3368,12
3369,12
3370,12
3371,12
3372,12
3373,12
3374,12
3375,12
3376,12
3377,12
3378,12
3379,13
3380,13
3381,13
3382,13
3383,13
3384,13
3385,13
3386,13
3387,13
3388,13
3389,13
3390,13
3391,13
3392,13
3393,13
3394,13
3395,13
3396,13
3397,13
3398,13
3399,13
3400,13
3401,13
3402,13
3403,13
3404,13
3405,13
3406,13
3407,13
3408,13
3409,13
3410,13
3411,13
3412,13
3413,13
3414,13
3415,13
3416,13
3417,13
3418,13
3419,13
3420,13
3421,13
3422,13
3423,13
3424,13
3425,13
3426,13
3427,13
3428,13
3429,13
3430,13
3431,14
3432,13
3433,13
3434,13
3435,13
3436,13
3437,13
3438,13
3439,13
3440,13
3441,13
3442,13
3443,13
3444,13
3445,13
3446,13
3447,13
3448,13
3449,13
3450,13
3451,13
3452,13
3453,13
3454,13
3455,13
3456,13
3457,13
3458,13
3459,13
3460,13
3461,13
3462,13
3463,13
3464,13
3465,13
3466,13
3467,13
3468,13
3469,13
3470,13
3471,13
3472,13
3473,13
3474,13
3475,13
3476,13
3477,14
3478,14
3479,14
3480,13
3481,13
3482,13
3483,13
3484,13
3485,13
3486,13
3487,13
3488,13
3489,13
3490,13
3491,13
3492,13
3493,13
3494,13
3495,13
3496,13
3497,13
3498,13
3499,13
3500,13
3501,13
3502,13
3503,13
3504,13
3505,14
3506,14
3507,14
3508,13
3509,13
3510,13
3511,13
3512,13
3513,13
3514,13
3515,13
3516,13
3517,13
3518,13
3519,13
3520,13
3521,13
3522,13
3523,13
3524,13
3525,13
3526,13
3527,13
3528,13
3529,13
3530,13
3531,13
3532,13
3533,13
3534,13
3535,13
3536,13
3537,14
3538,14
3539,14
3540,14
3541,14
3542,13
3543,13
3544,13
3545,13
3546,13
3547,13
3548,13
3549,13
3550,13
3551,13
3552,13
3553,13
3554,13
3555,13
3556,13
3557,13
3558,13
3559,13
3560,13
3561,13
3562,13
3563,13
3564,13
3565,13
3566,13
3567,13
3568,13
3569,13
3570,13
3571,13
3572,13
3573,13
3574,13
3575,13
3576,13
3577,13
3578,13
3579,13
3580,13
3581,13
3582,13
3583,13
3584,13
3585,13
3586,13
3587,13
3588,13
3589,13
3590,13
3591,13
3592,13
3593,13
3594,13
3595,13
3596,13
3597,13
3598,13
3599,13
3600,13
3601,13
3602,13
3603,13
3604,13
3605,13
3606,13
3607,13
3608,13
3609,13
3610,13
3611,13
3612,13
3613,13
3614,13
3615,13
3616,13
3617,13
3618,13
3619,13
3620,13
3621,13
3622,13
3623,13
3624,13
3625,13
3626,13
3627,13
3628,13
3629,13
3630,13
3631,13
3632,13
3633,13
3634,13
3635,13
3636,13
3637,13
3638,13
3639,13
3640,13
3641,13
3642,13
3643,14
3644,13
3645,13
3646,13
3647,13
3648,13
3649,13
3650,13
3651,13
3652,13
3653,13
3654,13
3655,13
3656,13
3657,13
3658,13
3659,13
3660,13
3661,13
3662,13
3663,13
3664,13
3665,13
3666,13
3667,13
3668,13
3669,13
3670,13
3671,13
3672,13
3673,13
3674,13
3675,13
3676,13
3677,13
3678,13
3679,13
3680,13
3681,13
3682,13
3683,13
3684,13
3685,13
3686,13
3687,13
3688,13
3689,13
3690,13
3691,13
3692,13
3693,13
3694,13
3695,13
3696,13
3697,13
3698,13
3699,13
3700,13
3701,13
3702,13
3703,13
3704,13
3705,13
3706,13
3707,13
3708,13
3709,13
3710,13
3711,13
3712,13
3713,13
3714,13
3715,13
3716,13
3717,13
3718,13
3719,13
3720,13
3721,13
3722,13
3723,13
3724,13
3725,13
3726,13
3727,13
3728,13
3729,13
3730,13
3731,13
3732,13
3733,13
3734,13
3735,13
3736,13
3737,13
3738,13
3739,13
3740,13
3741,13
3742,13
3743,13
3744,13
3745,13
3746,13
3747,13
3748,13
3749,13
3750,13
3751,13
3752,13
3753,13
3754,13
3755,13
3756,13
3757,13
3758,13
3759,13
3760,13
3761,13
3762,13
3763,13
3764,13
3765,13
3766,13
3767,13
3768,13
3769,13
3770,13
3771,13
3772,13
3773,13
3774,13
3775,13
3776,13
3777,13
3778,13
3779,13
3780,13
3781,13
3782,13
3783,13
3784,13
3785,13
3786,13
3787,13
3788,13
3789,13
3790,13
3791,13
3792,13
3793,13
3794,13
3795,13
3796,13
3797,13
3798,13
3799,13
3800,13
3801,13
3802,13
3803,13
3804,13
3805,13
3806,13
3807,13
3808,13
3809,13
3810,13
3811,13
3812,13
3813,13
3814,13
3815,13
3816,13
3817,13
3818,13
3819,13
3820,13
3821,13
3822,13
3823,13
3824,13
3825,13
3826,13
3827,13
3828,13
3829,13
3830,13
3831,13
3832,13
3833,13
3834,13
3835,13
3836,13
3837,13
3838,13
3839,13
3840,13
3841,13
3842,13
3843,13
3844,13
3845,13
3846,13
3847,13
3848,13
3849,13
3850,13
3851,13
3852,13
3853,13
3854,13
3855,13
3856,13
3857,13
3858,13
3859,13
3860,13
3861,13
3862,13
3863,13
3864,13
3865,13
3866,13
3867,13
3868,13
3869,13
3870,13
3871,13
3872,13
3873,13
3874,13
3875,13
3876,13
3877,13
3878,13
3879,13
3880,13
3881,13
3882,13
3883,13
3884,13
3885,13
3886,13
3887,13
3888,13
3889,13
3890,13
3891,13
3892,13
3893,13
3894,13
3895,13
3896,13
3897,13
3898,13
3899,13
3900,13
3901,13
3902,13
3903,13
3904,13
3905,13
3906,13
3907,13
3908,13
3909,13
3910,13
3911,13
3912,13
3913,13
3914,13
3915,13
3916,13
3917,13
3918,13
3919,13
3920,13
3921,13
3922,13
3923,13
3924,13
3925,13
3926,13
3927,13
3928,13
3929,13
3930,13
3931,13
3932,13
3933,13
3934,13
3935,13
3936,13
3937,13
3938,13
3939,13
3940,13
3941,13
3942,13
3943,13
3944,13
3945,13
3946,13
3947,13
3948,13
3949,13
3950,13
3951,13
3952,13
3953,13
3954,13
3955,13
3956,13
3957,13
3958,13
3959,13
3960,13
3961,13
3962,13
3963,13
3964,13
3965,13
3966,13
3967,13
3968,13
3969,13
3970,13
3971,13
3972,13
3973,13
3974,13
3975,13
3976,13
3977,13
3978,13
3979,13
3980,13
3981,13
3982,13
3983,13
3984,13
3985,13
3986,13
3987,13
3988,13
3989,13
3990,13
3991,13
3992,13
3993,13
3994,13
3995,13
3996,13
3997,13
3998,13
3999,13
4000,13
4001,13
4002,13
4003,13
4004,13
4005,13
4006,13
4007,13
4008,13
4009,13
4010,13
4011,13
4012,13
4013,13
4014,13
4015,13
4016,13
4017,13
4018,13
4019,13
4020,13
4021,13
4022,13
4023,13
4024,13
4025,13
4026,13
4027,13
4028,13
4029,13
4030,13
4031,13
4032,13
4033,13
4034,13
4035,13
4036,13
4037,13
4038,13
4039,13
4040,13
4041,13
4042,13
4043,13
4044,13
4045,13
4046,13
4047,13
4048,13
4049,13
4050,13
4051,13
4052,13
4053,13
4054,13
4055,13
4056,13
4057,13
4058,13
4059,13
4060,13
4061,13
4062,13
4063,13
4064,13
4065,13
4066,13
4067,13
4068,13
4069,13
4070,13
4071,13
4072,13
4073,13
4074,13
4075,13
4076,13
4077,13
4078,13
4079,13
4080,13
4081,13
4082,13
4083,13
4084,13
4085,13
4086,13
4087,13
4088,13
4089,13
4090,13
4091,13
4092,13
4093,13
4094,13
4095,13
4096,13
4097,13
4098,13
4099,13
4100,13
4101,13
4102,13
4103,13
4104,13
4105,13
4106,13
4107,13
4108,13
4109,13
4110,13
4111,13
4112,13
4113,13
4114,13
4115,13
4116,13
4117,13
4118,13
4119,13
4120,13
4121,13
4122,13
4123,13
4124,13
4125,13
4126,13
4127,13
4128,13
4129,13
4130,13
4131,13
4132,13
4133,13
4134,13
4135,13
4136,13
4137,13
4138,13
4139,13
4140,13
4141,13
4142,13
4143,13
4144,14
4145,14
4146,14
4147,14
4148,14
4149,14
4150,14
4151,14
4152,14
4153,14
4154,14
4155,14
4156,14
4157,14
4158,14
4159,14
4160,14
4161,14
4162,14
4163,14
4164,14
4165,14
4166,14
4167,14
4168,14
4169,14
4170,14
4171,14
4172,14
4173,14
4174,14
4175,14
4176,14
4177,14
4178,14
4179,15
4180,15
4181,15
4182,15
4183,15
4184,15
4185,15
4186,15
4187,15
4188,15
4189,15
4190,15
4191,15
4192,15
4193,15
4194,15
4195,15
4196,15
4197,15
4198,15
4199,15
4200,15
4201,15
4202,15
4203,15
4204,15
4205,15
4206,15
4207,15
4208,15
4209,15
4210,15
4211,15
4212,15
4213,15
4214,15
4215,15
4216,15
4217,15
4218,15
4219,15
4220,15
4221,15
4222,15
4223,15
4224,15
4225,15
4226,15
4227,15
4228,15
4229,15
4230,15
4231,15
4232,15
4233,15
4234,15
4235,15
4236,15
4237,15
4238,15
4239,15
4240,15
4241,15
4242,15
4243,15
4244,15
4245,15
4246,15
4247,15
4248,15
4249,15
4250,15
4251,15
4252,15
4253,15
4254,15
4255,15
4256,15
4257,15
4258,15
4259,15
4260,15
4261,15
4262,15
4263,15
4264,15
4265,15
4266,15
4267,15
4268,15
4269,15
4270,15
4271,15
4272,15
4273,15
4274,15
4275,15
4276,15
4277,15
4278,15
4279,15
4280,15
4281,15
4282,15
4283,15
4284,15
4285,15
4286,15
4287,15
4288,15
4289,15
4290,15
4291,15
4292,15
4293,15
4294,15
4295,15
4296,15
4297,16
4298,15
4299,15
4300,15
4301,15
4302,15
4303,15
4304,15
4305,15
4306,15
4307,15
4308,15
4309,15
4310,15
4311,15
4312,15
4313,15
4314,15
4315,15
4316,15
4317,15
4318,15
4319,15
4320,15
4321,15
4322,15
4323,15
4324,15
4325,15
4326,15
4327,15
4328,16
4329,15
4330,15
4331,15
4332,15
4333,15
4334,15
4335,15
4336,15
4337,15
4338,15
4339,15
4340,15
4341,15
4342,15
4343,15
4344,15
4345,15
4346,15
4347,15
4348,15
4349,15
4350,15
4351,15
4352,15
4353,15
4354,15
4355,15
4356,15
4357,15
4358,15
4359,15
4360,15
4361,15
4362,15
4363,15
4364,15
4365,15
4366,15
4367,15
4368,15
4369,16
4370,15
4371,15
4372,15
4373,15
4374,15
4375,15
4376,15
4377,15
4378,15
4379,16
4380,15
4381,15
4382,15
4383,15
4384,15
4385,15
4386,15
4387,15
4388,15
4389,15
4390,15
4391,15
4392,15
4393,15
4394,15
4395,15
4396,15
4397,15
4398,15
4399,15
4400,15
4401,15
4402,15
4403,15
4404,15
4405,15
4406,15
4407,15
4408,15
4409,15
4410,15
4411,15
4412,15
4413,15
4414,15
4415,15
4416,15
4417,15
4418,15
4419,15
4420,15
4421,15
4422,15
4423,15
4424,15
4425,15
4426,15
4427,15
4428,15
4429,15
4430,15
4431,15
4432,15
4433,15
4434,15
4435,15
4436,15
4437,15
4438,15
4439,15
4440,15
4441,15
4442,15
4443,15
4444,15
4445,15
4446,15
4447,15
4448,15
4449,15
4450,15
4451,15
4452,15
4453,15
4454,15
4455,15
4456,15
4457,15
4458,15
4459,15
4460,15
4461,15
4462,15
4463,15
4464,15
4465,15
4466,15
4467,15
4468,15
4469,15
4470,15
4471,16
4472,15
4473,15
4474,15
4475,15
4476,15
4477,15
4478,15
4479,15
4480,15
4481,15
4482,15
4483,15
4484,15
4485,15
4486,15
4487,15
4488,15
4489,15
4490,15
4491,15
4492,15
4493,15
4494,15
4495,15
4496,15
4497,15
4498,15
4499,15
4500,15
4501,15
4502,15
4503,15
4504,15
4505,15
4506,15
4507,15
4508,15
4509,15
4510,15
4511,15
4512,15
4513,15
4514,15
4515,15
4516,15
4517,15
4518,15
4519,15
4520,15
4521,17
4522,15
4523,15
4524,15
4525,15
4526,15
4527,15
4528,15
4529,15
4530,15
4531,15
4532,15
4533,15
4534,16
4535,15
4536,15
4537,15
4538,15
4539,15
4540,15
4541,15
4542,15
4543,15
4544,15
4545,15
4546,15
4547,15
4548,15
4549,15
4550,15
4551,15
4552,15
4553,15
4554,15
4555,15
4556,15
4557,15
4558,15
4559,15
4560,15
4561,15
4562,15
4563,16
4564,16
4565,15
4566,15
4567,15
4568,15
4569,15
4570,15
4571,15
4572,15
4573,15
4574,16
4575,15
4576,15
4577,15
4578,15
4579,15
4580,15
4581,15
4582,15
4583,15
4584,15
4585,15
4586,15
4587,15
4588,15
4589,15
4590,15
4591,15
4592,15
4593,15
4594,16
4595,16
4596,15
4597,15
4598,15
4599,15
4600,15
4601,15
4602,15
4603,15
4604,15
4605,15
4606,15
4607,15
4608,15
4609,15
4610,15
4611,15
4612,15
4613,15
4614,15
4615,15
4616,15
4617,15
4618,15
4619,15
4620,15
4621,15
4622,15
4623,15
4624,15
4625,15
4626,15
4627,15
4628,15
4629,15
4630,15
4631,15
4632,15
4633,15
4634,15
4635,15
4636,15
4637,15
4638,15
4639,15
4640,15
4641,15
4642,15
4643,15
4644,15
4645,15
4646,15
4647,15
4648,15
4649,15
4650,15
4651,15
4652,15
4653,15
4654,15
4655,15
4656,15
4657,15
4658,15
4659,15
4660,15
4661,15
4662,15
4663,15
4664,15
4665,15
4666,15
4667,15
4668,15
4669,15
4670,15
4671,15
4672,15
4673,15
4674,16
4675,16
4676,16
4677,16
4678,16
4679,16
4680,16
4681,16
4682,16
4683,16
4684,16
4685,16
4686,16
4687,16
4688,16
4689,15
4690,15
4691,15
4692,15
4693,15
4694,15
4695,15
4696,15
4697,15
4698,15
4699,15
4700,15
4701,15
4702,15
4703,15
4704,15
4705,15
4706,15
4707,15
4708,15
4709,15
4710,15
4711,15
4712,15
4713,15
4714,15
4715,15
4716,15
4717,15
4718,15
4719,15
4720,15
4721,15
4722,15
4723,15
4724,15
4725,15
4726,15
4727,15
4728,15
4729,15
4730,15
4731,15
4732,15
4733,15
4734,15
4735,15
4736,15
4737,15
4738,15
4739,15
4740,15
4741,15
4742,15
4743,15
4744,15
4745,15
4746,15
4747,15
4748,15
4749,15
4750,15
4751,15
4752,15
4753,15
4754,15
4755,15
4756,15
4757,15
4758,15
4759,15
4760,15
4761,15
4762,15
4763,15
4764,15
4765,15
4766,15
4767,15
4768,15
4769,15
4770,15
4771,15
4772,15
4773,15
4774,15
4775,15
4776,15
4777,15
4778,15
4779,15
4780,15
4781,15
4782,15
4783,15
4784,15
4785,15
4786,15
4787,15
4788,15
4789,15
4790,15
4791,15
4792,15
4793,15
4794,15
4795,15
4796,15
4797,15
4798,15
4799,15
4800,15
4801,15
4802,15
4803,15
4804,15
4805,15
4806,15
4807,15
4808,15
4809,15
4810,15
4811,15
4812,15
4813,15
4814,15
4815,15
4816,15
4817,15
4818,15
4819,15
4820,15
4821,15
4822,15
4823,15
4824,15
4825,15
4826,15
4827,16
4828,16
4829,15
4830,15
4831,15
4832,15
4833,15
4834,15
4835,15
4836,15
4837,15
4838,15
4839,15
4840,15
4841,15
4842,15
4843,15
4844,15
4845,15
4846,15
4847,15
4848,15
4849,15
4850,15
4851,15
4852,15
4853,15
4854,15
4855,15
4856,15
4857,15
4858,15
4859,15
4860,15
4861,15
4862,15
4863,15
4864,15
4865,15
4866,15
4867,15
4868,15
4869,15
4870,15
4871,15
4872,15
4873,15
4874,15
4875,15
4876,15
4877,15
4878,15
4879,15
4880,15
4881,15
4882,15
4883,15
4884,15
4885,15
4886,15
4887,15
4888,15
4889,15
4890,15
4891,15
4892,15
4893,15
4894,15
4895,15
4896,15
4897,15
4898,15
4899,15
4900,15
4901,15
4902,15
4903,15
4904,15
4905,15
4906,15
4907,15
4908,15
4909,15
4910,15
4911,15
4912,15
4913,15
4914,15
4915,15
4916,15
4917,15
4918,15
4919,16
4920,16
4921,15
4922,15
4923,15
4924,15
4925,15
4926,15
4927,15
4928,15
4929,15
4930,15
4931,15
4932,15
4933,15
4934,15
4935,15
4936,15
4937,15
4938,15
4939,15
4940,16
4941,16
4942,15
4943,15
4944,15
4945,15
4946,15
4947,15
4948,15
4949,15
4950,15
4951,15
4952,15
4953,15
4954,15
4955,15
4956,15
4957,15
4958,15
4959,15
4960,15
4961,15
4962,15
4963,15
4964,15
4965,15
4966,15
4967,15
4968,15
4969,15
4970,15
4971,15
4972,15
4973,15
4974,15
4975,15
4976,15
4977,15
4978,15
4979,15
4980,15
4981,15
4982,15
4983,15
4984,15
4985,15
4986,15
4987,15
4988,15
4989,15
4990,15
4991,15
4992,15
4993,15
4994,15
4995,15
4996,15
4997,15
4998,15
4999,15
5000,15
5001,15
5002,15
5003,15
5004,15
5005,15
5006,15
5007,15
5008,15
5009,15
5010,15
5011,15
5012,15
5013,15
5014,15
5015,15
5016,15
5017,15
5018,15
5019,15
5020,15
5021,15
5022,15
5023,15
5024,15
5025,15
5026,15
5027,15
5028,15
5029,15
5030,15
5031,15
5032,15
5033,15
5034,15
5035,15
5036,15
5037,15
5038,15
5039,15
5040,15
5041,15
5042,15
5043,15
5044,15
5045,15
5046,15
5047,15
5048,15
5049,15
5050,15
5051,15
5052,15
5053,15
5054,15
5055,15
5056,15
5057,15
5058,16
5059,15
5060,15
5061,15
5062,15
5063,15
5064,15
5065,15
5066,15
5067,15
5068,15
5069,15
5070,15
5071,15
5072,15
5073,15
5074,15
5075,15
5076,15
5077,15
5078,15
5079,15
5080,15
5081,15
5082,15
5083,15
5084,15
5085,15
5086,15
5087,15
5088,15
5089,15
5090,15
5091,15
5092,15
5093,15
5094,15
5095,15
5096,15
5097,15
5098,15
5099,15
5100,15
5101,15
5102,15
5103,15
5104,15
5105,15
5106,15
5107,15
5108,15
5109,15
5110,15
5111,15
5112,15
5113,15
5114,15
5115,15
5116,15
5117,15
5118,15
5119,15
5120,15
5121,15
5122,15
5123,15
5124,15
5125,15
5126,15
5127,15
5128,15
5129,15
5130,15
5131,15
5132,15
5133,15
5134,15
5135,15
5136,15
5137,15
5138,15
5139,15
5140,15
5141,15
5142,15
5143,15
5144,15
5145,15
5146,15
5147,15
5148,15
5149,15
5150,15
5151,15
5152,15
5153,15
5154,15
5155,15
5156,15
5157,15
5158,15
5159,15
5160,15
5161,15
5162,15
5163,15
5164,15
5165,15
5166,15
5167,15
5168,15
5169,15
5170,15
5171,15
5172,15
5173,15
5174,15
5175,15
5176,15
5177,15
5178,15
5179,15
5180,15
5181,15
5182,15
5183,15
5184,15
5185,15
5186,15
5187,15
5188,15
5189,15
5190,15
5191,15
5192,15
5193,15
5194,15
5195,15
5196,15
5197,15
5198,15
5199,15
5200,15
5201,15
5202,15
5203,15
5204,15
5205,15
5206,15
5207,15
5208,15
5209,15
5210,15
5211,15
5212,15
5213,15
5214,15
5215,15
5216,15
5217,15
5218,15
5219,15
5220,15
5221,15
5222,15
5223,15
5224,15
5225,15
5226,15
5227,15
5228,15
5229,15
5230,15
5231,15
5232,15
5233,15
5234,15
5235,15
5236,15
5237,15
5238,15
5239,15
5240,15
5241,15
5242,15
5243,15
5244,15
5245,15
5246,15
5247,15
5248,15
5249,15
5250,15
5251,15
5252,15
5253,15
5254,15
5255,15
5256,15
5257,15
5258,15
5259,15
5260,15
5261,15
5262,15
5263,15
5264,15
5265,15
5266,15
5267,15
5268,15
5269,15
5270,15
5271,15
5272,15
5273,15
5274,15
5275,15
5276,15
5277,15
5278,15
5279,15
5280,15
5281,15
5282,15
5283,15
5284,15
5285,15
5286,15
5287,15
5288,15
5289,15
5290,15
5291,15
5292,15
5293,15
5294,15
5295,15
5296,15
5297,15
5298,15
5299,15
5300,15
5301,15
5302,15
5303,15
5304,15
5305,15
5306,15
5307,15
5308,15
5309,15
5310,15
5311,15
5312,15
5313,15
5314,15
5315,15
5316,15
5317,15
5318,15
5319,15
5320,15
5321,15
5322,15
5323,15
5324,15
5325,15
5326,15
5327,15
5328,15
5329,15
5330,15
5331,15
5332,15
5333,15
5334,15
5335,15
5336,15
5337,15
5338,15
5339,15
5340,15
5341,15
5342,15
5343,15
5344,15
5345,15
5346,15
5347,15
5348,15
5349,15
5350,15
5351,15
5352,15
5353,15
5354,15
5355,15
5356,15
5357,15
5358,15
5359,15
5360,15
5361,15
5362,15
5363,15
5364,15
5365,15
5366,15
5367,15
5368,15
5369,15
5370,15
5371,15
5372,15
5373,15
5374,15
5375,15
5376,15
5377,15
5378,15
5379,15
5380,15
5381,15
5382,15
5383,15
5384,15
5385,15
5386,15
5387,15
5388,15
5389,15
5390,15
5391,15
5392,15
5393,15
5394,15
5395,15
5396,15
5397,15
5398,16
5399,16
5400,15
5401,15
5402,15
5403,15
5404,15
5405,15
5406,15
5407,15
5408,15
5409,15
5410,15
5411,15
5412,15
5413,15
5414,15
5415,15
5416,15
5417,15
5418,15
5419,15
5420,15
5421,15
5422,15
5423,15
5424,16
5425,16
5426,16
5427,16
5428,16
5429,16
5430,16
5431,16
5432,16
5433,16
5434,15
5435,15
5436,15
5437,15
5438,15
5439,15
5440,15
5441,15
5442,15
5443,15
5444,15
5445,15
5446,15
5447,15
5448,15
5449,15
5450,15
5451,15
5452,15
5453,15
5454,15
5455,15
5456,15
5457,15
5458,15
5459,15
5460,15
5461,15
5462,15
5463,15
5464,15
5465,15
5466,15
5467,15
5468,15
5469,15
5470,15
5471,15
5472,15
5473,15
5474,15
5475,15
5476,15
5477,15
5478,15
5479,15
5480,15
5481,15
5482,15
5483,15
5484,15
5485,15
5486,15
5487,15
5488,15
5489,15
5490,15
5491,15
5492,15
5493,15
5494,15
5495,15
5496,15
5497,15
5498,15
5499,15
5500,15
5501,15
5502,15
5503,15
5504,15
5505,15
5506,15
5507,15
5508,15
5509,15
5510,15
5511,15
5512,15
5513,15
5514,15
5515,15
5516,15
5517,15
5518,15
5519,15
5520,15
5521,15
5522,15
5523,15
5524,15
5525,15
5526,15
5527,15
5528,15
5529,15
5530,15
5531,15
5532,15
5533,15
5534,15
5535,15
5536,15
5537,15
5538,15
5539,15
5540,16
5541,16
5542,16
5543,16
5544,16
5545,16
5546,16
5547,16
5548,16
5549,16
5550,16
5551,16
5552,16
5553,16
5554,16
5555,16
5556,16
5557,16
5558,16
5559,16
5560,16
5561,16
5562,16
5563,16
5564,16
5565,16
5566,16
5567,16
5568,16
5569,16
5570,17
5571,16
5572,16
5573,16
5574,16
5575,16
5576,16
5577,16
5578,16
5579,16
5580,16
5581,16
5582,16
5583,16
5584,16
5585,16
5586,16
5587,16
5588,16
5589,16
5590,16
5591,16
5592,17
5593,16
5594,16
5595,16
5596,16
5597,16
5598,17
5599,16
5600,16
5601,16
5602,16
5603,16
5604,16
5605,16
5606,16
5607,16
5608,16
5609,16
5610,16
5611,16
5612,16
5613,16
5614,16
5615,16
5616,16
5617,16
5618,16
5619,16
5620,16
5621,16
5622,16
5623,16
5624,16
5625,16
5626,16
5627,16
5628,16
5629,16
5630,16
5631,16
5632,16
5633,16
5634,16
5635,16
5636,16
5637,16
5638,16
5639,16
5640,16
5641,16
5642,16
5643,16
5644,16
5645,16
5646,16
5647,16
5648,16
5649,16
5650,16
5651,16
5652,16
5653,16
5654,16
5655,16
5656,16
5657,16
5658,16
5659,16
5660,16
5661,16
5662,16
5663,16
5664,16
5665,16
5666,16
5667,16
5668,16
5669,16
5670,16
5671,16
5672,16
5673,16
5674,16
5675,16
5676,16
5677,16
5678,16
5679,16
5680,16
5681,16
5682,16
5683,16
5684,16
5685,16
5686,16
5687,16
5688,16
5689,16
5690,16
5691,16
5692,16
5693,16
5694,16
5695,16
5696,16
5697,16
5698,16
5699,16
5700,16
5701,16
5702,16
5703,16
5704,16
5705,16
5706,16
5707,16
5708,16
5709,16
5710,16
5711,16
5712,16
5713,16
5714,16
5715,16
5716,16
5717,16
5718,16
5719,16
5720,16
5721,16
5722,16
5723,16
5724,16
5725,16
5726,16
5727,16
5728,16
5729,16
5730,16
5731,16
5732,16
5733,16
5734,16
5735,16
5736,16
5737,16
5738,16
5739,16
5740,16
5741,16
5742,16
5743,16
5744,16
5745,16
5746,16
5747,16
5748,16
5749,16
5750,16
5751,16
5752,16
5753,16
5754,16
5755,16
5756,16
5757,16
5758,16
5759,16
5760,16
5761,16
5762,16
5763,16
5764,16
5765,16
5766,16
5767,16
5768,16
5769,16
5770,16
5771,16
5772,16
5773,16
5774,16
5775,16
5776,16
5777,16
5778,16
5779,16
5780,16
5781,16
5782,16
5783,17
5784,16
5785,16
5786,16
5787,16
5788,16
5789,16
5790,16
5791,16
5792,16
5793,16
5794,16
5795,16
5796,16
5797,16
5798,16
5799,16
5800,16
5801,16
5802,16
5803,16
5804,16
5805,16
5806,16
5807,16
5808,16
5809,16
5810,16
5811,16
5812,16
5813,16
5814,16
5815,16
5816,16
5817,16
5818,16
5819,16
5820,16
5821,16
5822,16
5823,16
5824,16
5825,16
5826,16
5827,16
5828,16
5829,16
5830,16
5831,16
5832,16
5833,16
5834,16
5835,16
5836,16
5837,16
5838,16
5839,16
5840,16
5841,16
5842,16
5843,16
5844,16
5845,16
5846,16
5847,16
5848,16
5849,16
5850,16
5851,16
5852,16
5853,16
5854,16
5855,16
5856,16
5857,16
5858,16
5859,16
5860,16
5861,16
5862,16
5863,16
5864,16
5865,16
5866,16
5867,16
5868,16
5869,16
5870,16
5871,16
5872,16
5873,16
5874,16
5875,16
5876,16
5877,16
5878,16
5879,16
5880,16
5881,16
5882,16
5883,16
5884,16
5885,16
5886,16
5887,16
5888,16
5889,16
5890,16
5891,16
5892,16
5893,16
5894,16
5895,16
5896,16
5897,16
5898,16
5899,16
5900,16
5901,16
5902,16
5903,16
5904,16
5905,16
5906,16
5907,16
5908,16
5909,16
5910,16
5911,16
5912,16
5913,16
5914,16
5915,16
5916,16
5917,16
5918,16
5919,16
5920,16
5921,16
5922,16
5923,16
5924,16
5925,16
5926,16
5927,16
5928,16
5929,16
5930,16
5931,16
5932,16
5933,16
5934,16
5935,16
5936,16
5937,16
5938,16
5939,16
5940,16
5941,16
5942,16
5943,16
5944,16
5945,16
5946,16
5947,16
5948,16
5949,16
5950,16
5951,16
5952,16
5953,16
5954,16
5955,16
5956,16
5957,16
5958,16
5959,16
5960,16
5961,16
5962,16
5963,16
5964,16
5965,16
5966,16
5967,16
5968,16
5969,16
5970,16
5971,16
5972,16
5973,16
5974,16
5975,16
5976,16
5977,16
5978,16
5979,16
5980,16
5981,16
5982,16
5983,16
5984,16
5985,16
5986,16
5987,16
5988,16
5989,16
5990,16
5991,16
5992,16
5993,16
5994,16
5995,16
5996,16
5997,16
5998,16
5999,16
6000,16
6001,16
6002,16
6003,16
6004,16
6005,16
6006,16
6007,16
6008,16
6009,16
6010,16
6011,16
6012,16
6013,16
6014,16
6015,16
6016,16
6017,16
6018,16
6019,16
6020,16
6021,16
6022,16
6023,16
6024,16
6025,16
6026,16
6027,17
6028,16
6029,16
6030,16
6031,16
6032,16
6033,16
6034,16
6035,16
6036,16
6037,16
6038,16
6039,16
6040,16
6041,16
6042,16
6043,16
6044,16
6045,16
6046,16
6047,16
6048,16
6049,16
6050,16
6051,16
6052,16
6053,16
6054,16
6055,16
6056,16
6057,16
6058,16
6059,17
6060,16
6061,16
6062,16
6063,16
6064,16
6065,16
6066,16
6067,16
6068,16
6069,16
6070,16
6071,16
6072,16
6073,16
6074,16
6075,16
6076,16
6077,16
6078,16
6079,16
6080,16
6081,16
6082,16
6083,16
6084,16
6085,16
6086,16
6087,16
6088,16
6089,16
6090,16
6091,16
6092,16
6093,16
6094,17
6095,17
6096,17
6097,17
6098,17
6099,17
6100,17
6101,17
6102,17
6103,17
6104,17
6105,18
6106,17
6107,17
6108,17
6109,17
6110,17
6111,17
6112,17
6113,17
6114,17
6115,17
6116,17
6117,17
6118,17
6119,17
6120,17
6121,17
6122,17
6123,17
6124,17
6125,17
6126,17
6127,17
6128,17
6129,17
6130,17
6131,17
6132,17
6133,17
6134,17
6135,17
6136,17
6137,17
6138,17
6139,17
6140,17
6141,17
6142,17
6143,17
6144,17
6145,17
6146,17
6147,17
6148,17
6149,17
6150,17
6151,17
6152,17
6153,17
6154,17
6155,17
6156,17
6157,17
6158,17
6159,17
6160,17
6161,17
6162,17
6163,17
6164,17
6165,17
6166,17
6167,17
6168,17
6169,17
6170,17
6171,17
6172,17
6173,17
6174,17
6175,17
6176,17
6177,17
6178,17
6179,17
6180,17
6181,17
6182,17
6183,17
6184,17
6185,17
6186,17
6187,17
6188,17
6189,17
6190,17
6191,17
6192,17
6193,17
6194,17
6195,17
6196,17
6197,17
6198,17
6199,17
6200,17
6201,17
6202,17
6203,17
6204,17
6205,17
6206,17
6207,17
6208,17
6209,17
6210,17
6211,17
6212,17
6213,17
6214,17
6215,17
6216,17
6217,17
6218,17
6219,17
6220,17
6221,17
6222,17
6223,17
6224,17
6225,17
6226,17
6227,17
6228,17
6229,17
6230,17
6231,17
6232,17
6233,17
6234,17
6235,17
6236,17
6237,17
6238,17
6239,17
6240,17
6241,17
6242,17
6243,17
6244,17
6245,17
6246,17
6247,17
6248,17
6249,17
6250,17
6251,17
6252,17
6253,17
6254,17
6255,17
6256,17
6257,17
6258,17
6259,17
6260,17
6261,17
6262,17
6263,17
6264,17
6265,17
6266,17
6267,17
6268,17
6269,17
6270,17
6271,17
6272,17
6273,17
6274,17
6275,17
6276,17
6277,17
6278,17
6279,17
6280,17
6281,17
6282,17
6283,17
6284,17
6285,17
6286,17
6287,17
6288,17
6289,18
6290,17
6291,17
6292,17
6293,17
6294,17
6295,17
6296,17
6297,17
6298,17
6299,17
6300,17
6301,17
6302,17
6303,17
6304,17
6305,17
6306,17
6307,17
6308,17
6309,17
6310,17
6311,17
6312,17
6313,17
6314,17
6315,17
6316,17
6317,17
6318,17
6319,17
6320,17
6321,17
6322,17
6323,17
6324,17
6325,17
6326,17
6327,17
6328,17
6329,17
6330,17
6331,17
6332,17
6333,17
6334,17
6335,17
6336,17
6337,17
6338,17
6339,17
6340,17
6341,17
6342,17
6343,17
6344,17
6345,17
6346,17
6347,17
6348,17
6349,17
6350,17
6351,17
6352,17
6353,17
6354,17
6355,17
6356,17
6357,17
6358,17
6359,17
6360,17
6361,17
6362,17
6363,17
6364,17
6365,17
6366,17
6367,17
6368,17
6369,17
6370,17
6371,17
6372,17
6373,17
6374,17
6375,17
6376,17
6377,17
6378,17
6379,17
6380,17
6381,17
6382,17
6383,17
6384,17
6385,17
6386,17
6387,17
6388,17
6389,17
6390,17
6391,17
6392,17
6393,17
6394,17
6395,17
6396,17
6397,17
6398,17
6399,17
6400,17
6401,17
6402,17
6403,17
6404,17
6405,17
6406,17
6407,17
6408,17
6409,17
6410,17
6411,17
6412,17
6413,17
6414,17
6415,17
6416,18
6417,18
6418,18
6419,17
6420,17
6421,17
6422,17
6423,17
6424,17
6425,17
6426,17
6427,17
6428,17
6429,17
6430,17
6431,17
6432,17
6433,17
6434,17
6435,17
6436,17
6437,17
6438,17
6439,17
6440,17
6441,17
6442,17
6443,17
6444,17
6445,17
6446,17
6447,17
6448,17
6449,17
6450,17
6451,17
6452,17
6453,17
6454,17
6455,17
6456,17
6457,17
6458,17
6459,17
6460,17
6461,17
6462,17
6463,17
6464,17
6465,17
6466,17
6467,17
6468,17
6469,18
6470,18
6471,17
6472,17
6473,17
6474,17
6475,17
6476,17
6477,17
6478,17
6479,17
6480,17
6481,17
6482,17
6483,17
6484,17
6485,17
6486,17
6487,17
6488,17
6489,17
6490,17
6491,17
6492,17
6493,17
6494,17
6495,17
6496,17
6497,17
6498,17
6499,17
6500,17
6501,17
6502,17
6503,17
6504,17
6505,17
6506,17
6507,17
6508,17
6509,17
6510,17
6511,17
6512,17
6513,17
6514,17
6515,17
6516,17
6517,17
6518,17
6519,17
6520,17
6521,17
6522,17
6523,17
6524,17
6525,18
6526,17
6527,17
6528,17
6529,17
6530,17
6531,17
6532,17
6533,17
6534,17
6535,17
6536,17
6537,17
6538,17
6539,17
6540,17
6541,17
6542,17
6543,17
6544,17
6545,17
6546,17
6547,17
6548,17
6549,17
6550,17
6551,17
6552,17
6553,17
6554,17
6555,17
6556,17
6557,17
6558,17
6559,17
6560,17
6561,17
6562,18
6563,17
6564,17
6565,17
6566,17
6567,17
6568,17
6569,17
6570,17
6571,17
6572,17
6573,17
6574,17
6575,17
6576,17
6577,17
6578,17
6579,17
6580,17
6581,17
6582,17
6583,17
6584,17
6585,17
6586,17
6587,17
6588,17
6589,18
6590,18
6591,19
6592,19
6593,19
6594,19
6595,19
6596,19
6597,19
6598,19
6599,19
6600,19
6601,19
6602,19
6603,19
6604,19
6605,19
6606,19
6607,19
6608,19
6609,19
6610,19
6611,19
6612,19
6613,19
6614,19
6615,19
6616,19
6617,19
6618,19
6619,19
6620,19
6621,19
6622,19
6623,19
6624,19
6625,19
6626,19
6627,19
6628,19
6629,19
6630,19
6631,19
6632,19
6633,19
6634,19
6635,20
6636,19
6637,19
6638,19
6639,19
6640,19
6641,19
6642,19
6643,19
6644,19
6645,19
6646,19
6647,19
6648,19
6649,19
6650,19
6651,19
6652,19
6653,19
6654,19
6655,19
6656,19
6657,19
6658,19
6659,19
6660,19
6661,19
6662,19
6663,19
6664,19
6665,19
6666,19
6667,19
6668,19
6669,19
6670,19
6671,19
6672,19
6673,19
6674,19
6675,19
6676,19
6677,19
6678,19
6679,19
6680,19
6681,19
6682,19
6683,19
6684,19
6685,19
6686,19
6687,19
6688,19
6689,19
6690,19
6691,19
6692,19
6693,19
6694,19
6695,19
6696,19
6697,19
6698,19
6699,19
6700,19
6701,19
6702,19
6703,19
6704,19
6705,19
6706,19
6707,19
6708,19
6709,19
6710,19
6711,19
6712,19
6713,19
6714,19
6715,19
6716,19
6717,19
6718,19
6719,19
6720,19
6721,19
6722,19
6723,19
6724,19
6725,19
6726,19
6727,19
6728,19
6729,19
6730,19
6731,19
6732,19
6733,19
6734,19
6735,19
6736,19
6737,19
6738,19
6739,19
6740,19
6741,19
6742,19
6743,19
6744,19
6745,19
6746,19
6747,19
6748,19
6749,19
6750,19
6751,19
6752,19
6753,19
6754,19
6755,19
6756,19
6757,19
6758,19
6759,19
6760,19
6761,19
6762,19
6763,19
6764,19
6765,19
6766,19
6767,19
6768,19
6769,19
6770,19
6771,19
6772,19
6773,19
6774,19
6775,19
6776,19
6777,19
6778,19
6779,19
6780,19
6781,19
6782,19
6783,20
6784,20
6785,20
6786,20
6787,20
6788,20
6789,20
6790,20
6791,20
6792,20
6793,20
6794,20
6795,20
6796,20
6797,20
6798,20
6799,20
6800,20
6801,20
6802,21
6803,21
6804,21
6805,21
6806,21
6807,21
6808,21
6809,21
6810,21
6811,21
6812,21
6813,21
6814,21
6815,21
6816,21
6817,21
6818,21
6819,21
6820,21
6821,21
6822,21
6823,21
6824,21
6825,21
6826,21
6827,21
6828,21
6829,21
6830,21
6831,21
6832,21
6833,21
6834,21
6835,21
6836,21
6837,21
6838,21
6839,21
6840,21
6841,21
6842,21
6843,21
6844,22
6845,21
6846,21
6847,21
6848,21
6849,21
6850,21
6851,21
6852,21
6853,21
6854,21
6855,21
6856,21
6857,21
6858,21
6859,21
6860,21
6861,21
6862,21
6863,21
6864,21
6865,21
6866,21
6867,21
6868,21
6869,21
6870,21
6871,21
6872,21
6873,21
6874,21
6875,21
6876,21
6877,21
6878,21
6879,21
6880,21
6881,21
6882,21
6883,21
6884,21
6885,21
6886,21
6887,21
6888,21
6889,21
6890,21
6891,21
6892,21
6893,21
6894,21
6895,21
6896,21
6897,21
6898,21
6899,21
6900,21
6901,21
6902,21
6903,21
6904,21
6905,21
6906,21
6907,21
6908,21
6909,21
6910,21
6911,21
6912,21
6913,21
6914,21
6915,21
6916,21
6917,21
6918,21
6919,21
6920,21
6921,21
6922,21
6923,21
6924,21
6925,21
6926,21
6927,21
6928,21
6929,21
6930,21
6931,21
6932,21
6933,21
6934,21
6935,21
6936,21
6937,21
6938,21
6939,21
6940,21
6941,21
6942,21
6943,21
6944,21
6945,21
6946,21
6947,21
6948,21
6949,21
6950,21
6951,21
6952,21
6953,21
6954,21
6955,21
6956,21
6957,21
6958,21
6959,21
6960,21
6961,21
6962,21
6963,21
6964,21
6965,21
6966,22
6967,21
6968,21
6969,21
6970,21
6971,21
6972,21
6973,21
6974,21
6975,21
6976,21
6977,21
6978,21
6979,21
6980,21
6981,21
6982,21
6983,21
6984,21
6985,21
6986,21
6987,21
6988,21
6989,21
6990,21
6991,21
6992,21
6993,21
6994,21
6995,21
6996,21
6997,21
6998,21
6999,21
7000,21
7001,21
7002,21
7003,21
7004,21
7005,21
7006,21
7007,21
7008,21
7009,21
7010,22
7011,21
7012,21
7013,21
7014,21
7015,21
7016,21
7017,21
7018,21
7019,21
7020,21
7021,21
7022,21
7023,21
7024,21
7025,21
7026,21
7027,21
7028,21
7029,21
7030,21
7031,21
7032,21
7033,21
7034,21
7035,21
7036,21
7037,22
7038,22
7039,22
7040,22
7041,21
7042,21
7043,21
7044,21
7045,21
7046,21
7047,21
7048,21
7049,21
7050,21
7051,21
7052,21
7053,21
7054,21
7055,21
7056,21
7057,21
7058,21
7059,21
7060,21
7061,21
7062,21
7063,21
7064,21
7065,21
7066,21
7067,21
7068,21
7069,21
7070,21
7071,21
7072,21
7073,21
7074,21
7075,21
7076,21
7077,21
7078,21
7079,21
7080,21
7081,21
7082,21
7083,21
7084,21
7085,21
7086,21
7087,21
7088,21
7089,21
7090,21
7091,21
7092,21
7093,21
7094,21
7095,21
7096,21
7097,21
7098,21
7099,21
7100,21
7101,21
7102,21
7103,21
7104,21
7105,21
7106,21
7107,21
7108,21
7109,21
7110,21
7111,21
7112,21
7113,21
7114,21
7115,21
7116,21
7117,21
7118,21
7119,21
7120,21
7121,21
7122,21
7123,21
7124,21
7125,21
7126,21
7127,21
7128,21
7129,21
7130,21
7131,21
7132,21
7133,21
7134,21
7135,21
7136,21
7137,21
7138,21
7139,21
7140,21
7141,21
7142,21
7143,21
7144,21
7145,21
7146,21
7147,21
7148,21
7149,21
7150,21
7151,21
7152,21
7153,21
7154,21
7155,21
7156,21
7157,21
7158,21
7159,21
7160,21
7161,21
7162,21
7163,21
7164,22
7165,22
7166,22
7167,21
7168,21
7169,21
7170,21
7171,21
7172,21
7173,21
7174,21
7175,21
7176,21
7177,21
7178,21
7179,21
7180,21
7181,21
7182,21
7183,21
7184,21
7185,21
7186,21
7187,21
7188,21
7189,21
7190,21
7191,21
7192,21
7193,21
7194,21
7195,21
7196,21
7197,21
7198,21
7199,21
7200,21
7201,21
7202,21
7203,21
7204,21
7205,21
7206,21
7207,21
7208,21
7209,21
7210,21
7211,21
7212,21
7213,21
7214,21
7215,21
7216,21
7217,21
7218,21
7219,21
7220,21
7221,21
7222,21
7223,21
7224,21
7225,21
7226,21
7227,21
7228,21
7229,21
7230,21
7231,21
7232,21
7233,21
7234,21
7235,21
7236,21
7237,21
7238,21
7239,21
7240,21
7241,21
7242,21
7243,21
7244,21
7245,21
7246,21
7247,21
7248,21
7249,21
7250,21
7251,21
7252,21
7253,21
7254,21
7255,21
7256,21
7257,21
7258,21
7259,21
7260,21
7261,21
7262,21
7263,21
7264,21
7265,21
7266,21
7267,21
7268,21
7269,21
7270,21
7271,21
7272,21
7273,21
7274,21
7275,21
7276,21
7277,21
7278,21
7279,21
7280,21
7281,21
7282,21
7283,21
7284,21
7285,21
7286,21
7287,21
7288,21
7289,21
7290,21
7291,21
7292,21
7293,21
7294,21
7295,21
7296,21
7297,21
7298,21
7299,21
7300,21
7301,21
7302,21
7303,21
7304,21
7305,21
7306,21
7307,21
7308,21
7309,21
7310,22
7311,21
7312,21
7313,21
7314,21
7315,21
7316,21
7317,21
7318,21
7319,21
7320,21
7321,21
7322,21
7323,21
7324,21
7325,21
7326,21
7327,21
7328,21
7329,21
7330,21
7331,21
7332,21
7333,21
7334,21
7335,21
7336,21
7337,21
7338,21
7339,21
7340,21
7341,21
7342,21
7343,21
7344,21
7345,21
7346,21
7347,21
7348,21
7349,21
7350,21
7351,21
7352,21
7353,21
7354,21
7355,21
7356,21
7357,21
7358,21
7359,21
7360,21
7361,21
7362,21
7363,21
7364,21
7365,21
7366,21
7367,21
7368,21
7369,21
7370,21
7371,21
7372,21
7373,21
7374,21
7375,21
7376,21
7377,21
7378,21
7379,21
7380,21
7381,21
7382,21
7383,21
7384,21
7385,21
7386,21
7387,21
7388,21
7389,21
7390,21
7391,21
7392,22
7393,22
7394,22
7395,22
7396,23
7397,23
7398,22
7399,22
7400,22
7401,22
7402,22
7403,22
7404,22
7405,22
7406,22
7407,22
7408,22
7409,22
7410,22
7411,22
7412,22
7413,23
7414,22
7415,22
7416,21
7417,21
7418,21
7419,21
7420,21
7421,21
7422,21
7423,21
7424,21
7425,21
7426,21
7427,21
7428,21
7429,21
7430,21
7431,21
7432,21
7433,21
7434,21
7435,21
7436,21
7437,21
7438,21
7439,21
7440,21
7441,21
7442,21
7443,21
7444,21
7445,21
7446,21
7447,21
7448,21
7449,21
7450,21
7451,21
7452,21
7453,21
7454,21
7455,21
7456,21
7457,21
7458,21
7459,21
7460,21
7461,21
7462,21
7463,21
7464,21
7465,21
7466,21
7467,21
7468,21
7469,21
7470,21
7471,21
7472,21
7473,21
7474,21
7475,21
7476,21
7477,21
7478,21
7479,21
7480,21
7481,21
7482,21
7483,21
7484,21
7485,21
7486,21
7487,21
7488,21
7489,21
7490,21
7491,21
7492,21
7493,21
7494,21
7495,21
7496,21
7497,21
7498,21
7499,21
7500,21
7501,21
7502,21
7503,21
7504,21
7505,21
7506,21
7507,21
7508,21
7509,21
7510,21
7511,21
7512,21
7513,21
7514,21
7515,21
7516,21
7517,21
7518,21
7519,21
7520,21
7521,21
7522,21
7523,21
7524,21
7525,21
7526,21
7527,21
7528,21
7529,21
7530,21
7531,21
7532,21
7533,21
7534,21
7535,21
7536,21
7537,21
7538,21
7539,21
7540,21
7541,21
7542,21
7543,21
7544,21
7545,21
7546,21
7547,21
7548,21
7549,21
7550,21
7551,21
7552,21
7553,21
7554,21
7555,21
7556,21
7557,21
7558,21
7559,21
7560,21
7561,21
7562,21
7563,21
7564,21
7565,21
7566,21
7567,21
7568,21
7569,21
7570,21
7571,21
7572,21
7573,21
7574,21
7575,21
7576,21
7577,21
7578,21
7579,21
7580,21
7581,21
7582,21
7583,21
7584,21
7585,21
7586,21
7587,21
7588,21
7589,21
7590,21
7591,21
7592,22
7593,22
7594,21
7595,21
7596,21
7597,21
7598,21
7599,22
7600,21
7601,21
7602,21
7603,21
7604,21
7605,21
7606,21
7607,21
7608,21
7609,21
7610,21
7611,21
7612,21
7613,21
7614,21
7615,21
7616,21
7617,21
7618,21
7619,21
7620,21
7621,21
7622,21
7623,21
7624,21
7625,21
7626,21
7627,21
7628,21
7629,21
7630,21
7631,21
7632,21
7633,21
7634,21
7635,21
7636,21
7637,21
7638,21
7639,21
7640,21
7641,21
7642,21
7643,21
7644,21
7645,21
7646,21
7647,21
7648,21
7649,21
7650,21
7651,21
7652,21
7653,21
7654,21
7655,21
7656,21
7657,21
7658,21
7659,21
7660,21
7661,21
7662,21
7663,21
7664,21
7665,21
7666,21
7667,21
7668,21
7669,21
7670,21
7671,21
7672,21
7673,21
7674,21
7675,21
7676,21
7677,21
7678,21
7679,21
7680,21
7681,21
7682,21
7683,21
7684,21
7685,21
7686,21
7687,21
7688,21
7689,21
7690,21
7691,21
7692,21
7693,21
7694,21
7695,21
7696,21
7697,21
7698,21
7699,21
7700,21
7701,21
7702,21
7703,21
7704,21
7705,21
7706,21
7707,21
7708,21
7709,21
7710,21
7711,21
7712,21
7713,21
7714,21
7715,21
7716,21
7717,21
7718,21
7719,21
7720,21
7721,21
7722,21
7723,21
7724,21
7725,21
7726,21
7727,21
7728,21
7729,21
7730,21
7731,21
7732,21
7733,21
7734,21
7735,21
7736,21
7737,21
7738,21
7739,21
7740,21
7741,21
7742,21
7743,21
7744,21
7745,21
7746,21
7747,21
7748,21
7749,21
7750,21
7751,21
7752,21
7753,21
7754,21
7755,21
7756,21
7757,21
7758,21
7759,21
7760,21
7761,21
7762,21
7763,21
7764,21
7765,21
7766,21
7767,21
7768,21
7769,21
7770,21
7771,21
7772,21
7773,21
7774,21
7775,21
7776,21
7777,21
7778,21
7779,21
7780,21
7781,21
7782,21
7783,21
7784,21
7785,21
7786,21
7787,21
7788,21
7789,21
7790,21
7791,21
7792,21
7793,21
7794,21
7795,21
7796,21
7797,21
7798,21
7799,21
7800,21
7801,21
7802,21
7803,21
7804,21
7805,21
7806,21
7807,21
7808,21
7809,21
7810,21
7811,21
7812,21
7813,21
7814,21
7815,21
7816,21
7817,21
7818,21
7819,21
7820,21
7821,21
7822,21
7823,21
7824,21
7825,21
7826,21
7827,21
7828,21
7829,21
7830,21
7831,21
7832,21
7833,21
7834,21
7835,21
7836,21
7837,21
7838,21
7839,21
7840,21
7841,21
7842,21
7843,21
7844,21
7845,21
7846,21
7847,21
7848,21
7849,21
7850,21
7851,21
7852,21
7853,21
7854,21
7855,21
7856,21
7857,21
7858,21
7859,21
7860,21
7861,21
7862,21
7863,21
7864,21
7865,21
7866,21
7867,21
7868,21
7869,21
7870,21
7871,21
7872,21
7873,21
7874,21
7875,21
7876,21
7877,21
7878,21
7879,21
7880,21
7881,21
7882,21
7883,21
7884,21
7885,21
7886,21
7887,21
7888,21
7889,21
7890,21
7891,21
7892,21
7893,21
7894,21
7895,21
7896,21
7897,21
7898,21
7899,21
7900,21
7901,21
7902,21
7903,21
7904,21
7905,21
7906,21
7907,21
7908,21
7909,21
7910,21
7911,21
7912,21
7913,21
7914,21
7915,21
7916,21
7917,21
7918,21
7919,21
7920,21
7921,21
7922,21
7923,21
7924,21
7925,21
7926,21
7927,21
7928,21
7929,21
7930,21
7931,21
7932,21
7933,21
7934,21
7935,21
7936,21
7937,21
7938,21
7939,21
7940,21
7941,21
7942,21
7943,21
7944,21
7945,21
7946,21
7947,21
7948,21
7949,21
7950,21
7951,21
7952,21
7953,21
7954,21
7955,21
7956,21
7957,21
7958,21
7959,21
7960,21
7961,21
7962,21
7963,21
7964,21
7965,21
7966,21
7967,21
7968,21
7969,21
7970,21
7971,21
7972,21
7973,21
7974,21
7975,21
7976,21
7977,21
7978,21
7979,21
7980,21
7981,21
7982,21
7983,21
7984,21
7985,21
7986,21
7987,21
7988,21
7989,21
7990,21
7991,21
7992,21
7993,21
7994,21
7995,21
7996,21
7997,21
7998,21
7999,21
8000,21
8001,21
8002,21
8003,21
8004,21
8005,21
8006,21
8007,21
8008,21
8009,21
8010,21
8011,21
8012,21
8013,21
8014,21
8015,21
8016,21
8017,21
8018,21
8019,21
8020,21
8021,21
8022,21
8023,21
8024,21
8025,21
8026,21
8027,21
8028,21
8029,21
8030,21
8031,21
8032,21
8033,21
8034,21
8035,21
8036,21
8037,21
8038,21
8039,21
8040,21
8041,21
8042,21
8043,21
8044,21
8045,21
8046,21
8047,21
8048,21
8049,21
8050,21
8051,21
8052,21
8053,21
8054,21
8055,21
8056,21
8057,21
8058,21
8059,21
8060,21
8061,21
8062,21
8063,21
8064,21
8065,21
8066,21
8067,21
8068,21
8069,21
8070,21
8071,21
8072,21
8073,21
8074,21
8075,21
8076,21
8077,21
8078,21
8079,21
8080,21
8081,21
8082,21
8083,21
8084,21
8085,21
8086,21
8087,21
8088,21
8089,21
8090,21
8091,21
8092,21
8093,21
8094,21
8095,21
8096,21
8097,21
8098,21
8099,21
8100,21
8101,21
8102,21
8103,21
8104,21
8105,21
8106,21
8107,21
8108,21
8109,21
8110,21
8111,21
8112,21
8113,21
8114,21
8115,21
8116,21
8117,21
8118,21
8119,21
8120,21
8121,21
8122,21
8123,21
8124,21
8125,21
8126,21
8127,21
8128,21
8129,21
8130,21
8131,21
8132,21
8133,21
8134,21
8135,21
8136,21
8137,21
8138,21
8139,21
8140,21
8141,21
8142,21
8143,21
8144,21
8145,21
8146,21
8147,21
8148,21
8149,21
8150,21
8151,21
8152,21
8153,21
8154,21
8155,21
8156,21
8157,21
8158,21
8159,21
8160,21
8161,21
8162,21
8163,21
8164,21
8165,21
8166,21
8167,21
8168,21
8169,21
8170,21
8171,21
8172,21
8173,21
8174,21
8175,21
8176,21
8177,21
8178,21
8179,21
8180,21
8181,21
8182,21
8183,21
8184,21
8185,21
8186,21
8187,21
8188,21
8189,21
8190,21
8191,21
8192,21
8193,21
8194,21
8195,21
8196,21
8197,21
8198,21
8199,21
8200,21
8201,21
8202,21
8203,21
8204,21
8205,21
8206,21
8207,21
8208,21
8209,21
8210,21
8211,21
8212,21
8213,21
8214,21
8215,21
8216,21
8217,22
8218,22
8219,22
8220,22
8221,22
8222,22
8223,22
8224,22
8225,21
8226,21
8227,21
8228,21
8229,21
8230,21
8231,21
8232,21
8233,21
8234,21
8235,21
8236,21
8237,21
8238,21
8239,21
8240,21
8241,21
8242,21
8243,21
8244,21
8245,21
8246,21
8247,21
8248,21
8249,21
8250,21
8251,21
8252,21
8253,21
8254,21
8255,21
8256,21
8257,21
8258,21
8259,21
8260,21
8261,21
8262,21
8263,21
8264,21
8265,21
8266,21
8267,21
8268,21
8269,21
8270,21
8271,21
8272,21
8273,21
8274,21
8275,21
8276,21
8277,21
8278,21
8279,21
8280,21
8281,21
8282,22
8283,22
8284,21
8285,22
8286,22
8287,22
8288,21
8289,21
8290,21
8291,21
8292,21
8293,21
8294,21
8295,21
8296,21
8297,21
8298,21
8299,21
8300,21
8301,21
8302,21
8303,21
8304,21
8305,21
8306,21
8307,21
8308,21
8309,21
8310,21
8311,21
8312,21
8313,21
8314,21
8315,21
8316,21
8317,21
8318,21
8319,21
8320,21
8321,21
8322,21
8323,21
8324,21
8325,21
8326,21
8327,21
8328,21
8329,22
8330,21
8331,21
8332,21
8333,21
8334,21
8335,21
8336,21
8337,21
8338,21
8339,21
8340,21
8341,21
8342,21
8343,21
8344,21
8345,21
8346,21
8347,21
8348,21
8349,21
8350,21
8351,21
8352,21
8353,21
8354,21
8355,21
8356,21
8357,21
8358,21
8359,21
8360,21
8361,21
8362,21
8363,21
8364,21
8365,21
8366,21
8367,21
8368,21
8369,21
8370,21
8371,21
8372,21
8373,21
8374,21
8375,21
8376,21
8377,21
8378,21
8379,21
8380,22
8381,22
8382,22
8383,21
8384,21
8385,21
8386,21
8387,21
8388,21
8389,21
8390,21
8391,21
8392,21
8393,21
8394,21
8395,21
8396,21
8397,21
8398,21
8399,21
8400,21
8401,21
8402,21
8403,21
8404,21
8405,21
8406,21
8407,21
8408,21
8409,21
8410,21
8411,21
8412,21
8413,21
8414,21
8415,21
8416,21
8417,21
8418,21
8419,21
8420,21
8421,21
8422,21
8423,21
8424,22
8425,22
8426,22
8427,22
8428,21
8429,21
8430,21
8431,21
8432,21
8433,21
8434,21
8435,21
8436,21
8437,21
8438,21
8439,21
8440,21
8441,21
8442,21
8443,21
8444,21
8445,21
8446,21
8447,21
8448,21
8449,21
8450,21
8451,21
8452,21
8453,21
8454,21
8455,21
8456,21
8457,21
8458,21
8459,21
8460,21
8461,21
8462,21
8463,21
8464,21
8465,21
8466,21
8467,21
8468,21
8469,21
8470,21
8471,21
8472,21
8473,21
8474,21
8475,21
8476,21
8477,21
8478,21
8479,21
8480,21
8481,21
8482,21
8483,21
8484,21
8485,21
8486,21
8487,21
8488,21
8489,21
8490,21
8491,21
8492,21
8493,21
8494,21
8495,21
8496,21
8497,21
8498,21
8499,21
8500,21
8501,21
8502,21
8503,21
8504,21
8505,21
8506,21
8507,21
8508,21
8509,21
8510,21
8511,21
8512,21
8513,21
8514,21
8515,21
8516,21
8517,21
8518,21
8519,22
8520,22
8521,22
8522,22
8523,22
8524,22
8525,22
8526,22
8527,22
8528,22
8529,22
8530,22
8531,22
8532,22
8533,22
8534,22
8535,22
8536,22
8537,22
8538,22
8539,22
8540,22
8541,22
8542,22
8543,22
8544,22
8545,22
8546,22
8547,22
8548,22
8549,22
8550,22
8551,22
8552,22
8553,22
8554,22
8555,22
8556,22
8557,22
8558,22
8559,23
8560,23
8561,23
8562,22
8563,22
8564,22
8565,22
8566,22
8567,22
8568,22
8569,22
8570,22
8571,22
8572,22
8573,22
8574,22
8575,22
8576,22
8577,21
8578,21
8579,21
8580,21
8581,21
8582,21
8583,21
8584,21
8585,21
8586,21
8587,21
8588,21
8589,21
8590,21
8591,21
8592,21
8593,21
8594,21
8595,21
8596,21
8597,21
8598,21
8599,21
8600,21
8601,21
8602,21
8603,21
8604,21
8605,21
8606,21
8607,21
8608,21
8609,21
8610,21
8611,21
8612,21
8613,21
8614,21
8615,21
8616,21
8617,21
8618,21
8619,21
8620,21
8621,21
8622,21
8623,21
8624,21
8625,21
8626,21
8627,21
8628,21
8629,21
8630,21
8631,21
8632,21
8633,21
8634,21
8635,21
8636,21
8637,21
8638,21
8639,21
8640,21
8641,21
8642,21
8643,21
8644,21
8645,21
8646,21
8647,21
8648,22
8649,21
8650,21
8651,21
8652,21
8653,21
8654,21
8655,21
8656,21
8657,21
8658,22
8659,22
8660,22
8661,22
8662,22
8663,22
8664,22
8665,22
8666,22
8667,22
8668,22
8669,22
8670,22
8671,22
8672,22
8673,22
8674,22
8675,22
8676,22
8677,22
8678,22
8679,22
8680,22
8681,22
8682,22
8683,22
8684,22
8685,22
8686,22
8687,22
8688,22
8689,22
8690,22
8691,22
8692,22
8693,22
8694,22
8695,22
8696,22
8697,22
8698,22
8699,22
8700,22
8701,22
8702,22
8703,22
8704,22
8705,22
8706,22
8707,22
8708,22
8709,22
8710,22
8711,22
8712,22
8713,22
8714,22
8715,22
8716,22
8717,22
8718,22
8719,22
8720,22
8721,22
8722,22
8723,22
8724,22
8725,22
8726,22
8727,22
8728,22
8729,22
8730,22
8731,22
8732,22
8733,22
8734,22
8735,22
8736,22
8737,22
8738,22
8739,22
8740,22
8741,22
8742,22
8743,22
8744,22
8745,22
8746,22
8747,22
8748,22
8749,22
8750,22
8751,22
8752,22
8753,22
8754,22
8755,22
8756,22
8757,22
8758,22
8759,22
8760,22
8761,22
8762,22
8763,22
8764,22
8765,22
8766,22
8767,22
8768,22
8769,22
8770,22
8771,22
8772,22
8773,22
8774,22
8775,22
8776,22
8777,22
8778,22
8779,22
8780,22
8781,22
8782,22
8783,22
8784,22
8785,22
8786,22
8787,22
8788,22
8789,22
8790,22
8791,22
8792,22
8793,22
8794,22
8795,22
8796,22
8797,22
8798,22
8799,22
8800,22
8801,22
8802,22
8803,22
8804,22
8805,22
8806,22
8807,22
8808,22
8809,22
8810,22
8811,22
8812,22
8813,22
8814,22
8815,22
8816,22
8817,22
8818,22
8819,22
8820,22
8821,22
8822,22
8823,22
8824,22
8825,22
8826,22
8827,22
8828,22
8829,22
8830,22
8831,22
8832,22
8833,22
8834,22
8835,22
8836,22
8837,22
8838,22
8839,22
8840,22
8841,22
8842,22
8843,22
8844,22
8845,22
8846,22
8847,22
8848,22
8849,23
8850,23
8851,22
8852,22
8853,22
8854,22
8855,22
8856,22
8857,22
8858,22
8859,22
8860,22
8861,22
8862,22
8863,22
8864,22
8865,22
8866,22
8867,22
8868,22
8869,22
8870,22
8871,22
8872,22
8873,22
8874,22
8875,22
8876,22
8877,22
8878,22
8879,22
8880,22
8881,22
8882,22
8883,22
8884,22
8885,22
8886,22
8887,22
8888,22
8889,22
8890,22
8891,22
8892,22
8893,22
8894,22
8895,22
8896,22
8897,22
8898,22
8899,22
8900,22
8901,22
8902,22
8903,22
8904,22
8905,22
8906,22
8907,22
8908,22
8909,22
8910,22
8911,22
8912,22
8913,22
8914,22
8915,22
8916,22
8917,22
8918,22
8919,22
8920,22
8921,22
8922,22
8923,22
8924,22
8925,22
8926,22
8927,22
8928,22
8929,22
8930,22
8931,22
8932,22
8933,22
8934,22
8935,22
8936,22
8937,22
8938,22
8939,22
8940,22
8941,22
8942,22
8943,22
8944,22
8945,22
8946,22
8947,22
8948,22
8949,22
8950,22
8951,22
8952,22
8953,22
8954,22
8955,22
8956,22
8957,22
8958,22
8959,22
8960,22
8961,22
8962,22
8963,22
8964,22
8965,22
8966,22
8967,22
8968,22
8969,22
8970,22
8971,22
8972,22
8973,22
8974,22
8975,22
8976,22
8977,22
8978,22
8979,22
8980,22
8981,22
8982,22
8983,22
8984,22
8985,22
8986,22
8987,22
8988,22
8989,22
8990,22
8991,22
8992,22
8993,22
8994,22
8995,22
8996,22
8997,22
8998,22
8999,22
9000,22
9001,22
9002,22
9003,22
9004,22
9005,22
9006,22
9007,22
9008,22
9009,22
9010,22
9011,22
9012,22
9013,22
9014,22
9015,22
9016,22
9017,22
9018,22
9019,22
9020,22
9021,22
9022,22
9023,22
9024,22
9025,22
9026,22
9027,22
9028,22
9029,22
9030,22
9031,22
9032,22
9033,22
9034,22
9035,22
9036,22
9037,22
9038,22
9039,22
9040,22
9041,22
9042,22
9043,22
9044,22
9045,22
9046,22
9047,22
9048,22
9049,22
9050,22
9051,22
9052,22
9053,22
9054,22
9055,22
9056,22
9057,22
9058,22
9059,22
9060,22
9061,22
9062,23
9063,23
9064,23
9065,23
9066,23
9067,23
9068,23
9069,23
9070,23
9071,23
9072,23
9073,24
9074,24
9075,24
9076,23
9077,23
9078,23
9079,23
9080,23
9081,23
9082,23
9083,23
9084,23
9085,23
9086,23
9087,23
9088,23
9089,23
9090,23
9091,23
9092,22
9093,22
9094,22
9095,22
9096,22
9097,22
9098,22
9099,22
9100,22
9101,22
9102,22
9103,22
9104,22
9105,22
9106,22
9107,22
9108,22
9109,22
9110,22
9111,22
9112,22
9113,22
9114,22
9115,22
9116,22
9117,22
9118,22
9119,22
9120,22
9121,22
9122,22
9123,22
9124,22
9125,22
9126,22
9127,22
9128,22
9129,22
9130,22
9131,22
9132,22
9133,22
9134,22
9135,22
9136,22
9137,22
9138,22
9139,22
9140,22
9141,22
9142,22
9143,22
9144,22
9145,22
9146,22
9147,22
9148,22
9149,22
9150,22
9151,22
9152,22
9153,22
9154,22
9155,22
9156,22
9157,22
9158,22
9159,22
9160,22
9161,22
9162,22
9163,22
9164,22
9165,22
9166,22
9167,22
9168,22
9169,22
9170,22
9171,22
9172,22
9173,22
9174,22
9175,22
9176,22
9177,22
9178,22
9179,22
9180,22
9181,22
9182,22
9183,22
9184,22
9185,22
9186,22
9187,22
9188,22
9189,22
9190,22
9191,22
9192,22
9193,22
9194,22
9195,22
9196,22
9197,22
9198,22
9199,22
9200,22
9201,22
9202,22
9203,22
9204,22
9205,22
9206,22
9207,22
9208,22
9209,22
9210,22
9211,22
9212,22
9213,22
9214,22
9215,22
9216,22
9217,22
9218,23
9219,23
9220,23
9221,23
9222,23
9223,23
9224,23
9225,23
9226,23
9227,23
9228,23
9229,23
9230,23
9231,23
9232,23
9233,23
9234,23
9235,23
9236,23
9237,23
9238,23
9239,23
9240,23
9241,23
9242,23
9243,23
9244,23
9245,23
9246,23
9247,23
9248,23
9249,23
9250,23
9251,23
9252,23
9253,24
9254,24
9255,23
9256,23
9257,23
9258,23
9259,23
9260,23
9261,23
9262,23
9263,23
9264,23
9265,23
9266,23
9267,23
9268,23
9269,23
9270,23
9271,23
9272,23
9273,23
9274,23
9275,23
9276,23
9277,23
9278,23
9279,23
9280,23
9281,23
9282,23
9283,23
9284,23
9285,23
9286,23
9287,23
9288,23
9289,23
9290,23
9291,23
9292,23
9293,23
9294,23
9295,23
9296,22
9297,22
9298,22
9299,22
9300,22
9301,22
9302,22
9303,22
9304,23
9305,23
9306,23
9307,22
9308,22
9309,22
9310,22
9311,22
9312,22
9313,22
9314,22
9315,22
9316,22
9317,22
9318,23
9319,23
9320,22
9321,22
9322,22
9323,22
9324,22
9325,22
9326,22
9327,22
9328,22
9329,22
9330,22
9331,22
9332,22
9333,22
9334,22
9335,22
9336,22
9337,22
9338,22
9339,22
9340,22
9341,22
9342,22
9343,22
9344,22
9345,22
9346,22
9347,22
9348,22
9349,22
9350,22
9351,22
9352,22
9353,22
9354,22
9355,22
9356,22
9357,22
9358,22
9359,22
9360,22
9361,22
9362,22
9363,22
9364,22
9365,22
9366,22
9367,22
9368,22
9369,22
9370,22
9371,22
9372,22
9373,22
9374,22
9375,22
9376,22
9377,22
9378,22
9379,22
9380,22
9381,22
9382,22
9383,22
9384,22
9385,22
9386,22
9387,22
9388,22
9389,22
9390,22
9391,22
9392,22
9393,22
9394,22
9395,22
9396,22
9397,22
9398,22
9399,22
9400,22
9401,22
9402,22
9403,22
9404,22
9405,22
9406,22
9407,22
9408,22
9409,22
9410,22
9411,22
9412,22
9413,22
9414,22
9415,22
9416,22
9417,22
9418,22
9419,22
9420,23
9421,22
9422,22
9423,22
9424,22
9425,22
9426,22
9427,22
9428,22
9429,22
9430,22
9431,22
9432,22
9433,22
9434,22
9435,22
9436,22
9437,22
9438,22
9439,22
9440,22
9441,22
9442,22
9443,22
9444,22
9445,22
9446,22
9447,22
9448,22
9449,22
9450,22
9451,22
9452,22
9453,22
9454,22
9455,22
9456,22
9457,22
9458,22
9459,22
9460,22
9461,22
9462,22
9463,22
9464,22
9465,22
9466,22
9467,22
9468,22
9469,22
9470,22
9471,22
9472,22
9473,22
9474,22
9475,22
9476,22
9477,22
9478,22
9479,22
9480,22
9481,22
9482,22
9483,22
9484,22
9485,22
9486,22
9487,22
9488,22
9489,22
9490,22
9491,22
9492,22
9493,22
9494,22
9495,22
9496,22
9497,22
9498,22
9499,22
9500,22
9501,22
9502,22
9503,22
9504,22
9505,22
9506,22
9507,22
9508,22
9509,22
9510,22
9511,22
9512,22
9513,22
9514,22
9515,22
9516,22
9517,22
9518,22
9519,22
9520,22
9521,22
9522,22
9523,22
9524,23
9525,22
9526,22
9527,22
9528,22
9529,22
9530,22
9531,22
9532,22
9533,22
9534,22
9535,22
9536,22
9537,22
9538,22
9539,22
9540,22
9541,22
9542,22
9543,22
9544,22
9545,22
9546,22
9547,22
9548,22
9549,22
9550,22
9551,22
9552,22
9553,22
9554,22
9555,22
9556,22
9557,22
9558,22
9559,22
9560,22
9561,22
9562,22
9563,22
9564,22
9565,22
9566,22
9567,22
9568,22
9569,22
9570,22
9571,22
9572,22
9573,22
9574,22
9575,22
9576,22
9577,22
9578,22
9579,22
9580,22
9581,22
9582,22
9583,22
9584,22
9585,22
9586,22
9587,22
9588,22
9589,22
9590,22
9591,22
9592,22
9593,22
9594,22
9595,22
9596,22
9597,22
9598,22
9599,22
9600,22
9601,22
9602,22
9603,22
9604,22
9605,22
9606,22
9607,22
9608,22
9609,22
9610,22
9611,22
9612,22
9613,22
9614,22
9615,22
9616,22
9617,22
9618,22
9619,22
9620,22
9621,22
9622,22
9623,22
9624,22
9625,22
9626,22
9627,22
9628,22
9629,22
9630,22
9631,22
9632,22
9633,22
9634,22
9635,22
9636,22
9637,22
9638,22
9639,23
9640,23
9641,22
9642,22
9643,22
9644,22
9645,22
9646,22
9647,22
9648,22
9649,22
9650,22
9651,22
9652,22
9653,22
9654,23
9655,23
9656,23
9657,23
9658,23
9659,23
9660,23
9661,23
9662,23
9663,23
9664,22
9665,22
9666,22
9667,22
9668,22
9669,22
9670,22
9671,22
9672,22
9673,22
9674,22
9675,22
9676,22
9677,22
9678,22
9679,22
9680,22
9681,22
9682,22
9683,22
9684,22
9685,22
9686,22
9687,22
9688,22
9689,22
9690,22
9691,22
9692,22
9693,22
9694,22
9695,22
9696,22
9697,22
9698,22
9699,23
9700,22
9701,22
9702,22
9703,22
9704,22
9705,22
9706,22
9707,22
9708,22
9709,22
9710,22
9711,22
9712,22
9713,22
9714,22
9715,22
9716,22
9717,22
9718,22
9719,22
9720,22
9721,22
9722,22
9723,22
9724,22
9725,22
9726,22
9727,22
9728,22
9729,22
9730,22
9731,22
9732,22
9733,22
9734,22
9735,22
9736,22
9737,22
9738,22
9739,22
9740,22
9741,22
9742,22
9743,22
9744,22
9745,22
9746,22
9747,22
9748,22
9749,22
9750,22
9751,22
9752,22
9753,22
9754,22
9755,22
9756,22
9757,22
9758,22
9759,22
9760,22
9761,22
9762,23
9763,23
9764,23
9765,23
9766,23
9767,22
9768,22
9769,22
9770,22
9771,22
9772,22
9773,22
9774,22
9775,22
9776,22
9777,22
9778,22
9779,22
9780,22
9781,22
9782,22
9783,22
9784,22
9785,22
9786,22
9787,22
9788,22
9789,22
9790,22
9791,22
9792,22
9793,22
9794,22
9795,22
9796,22
9797,22
9798,22
9799,22
9800,22
9801,22
9802,22
9803,22
9804,22
9805,22
9806,22
9807,22
9808,22
9809,22
9810,22
9811,22
9812,22
9813,22
9814,22
9815,22
9816,22
9817,22
9818,22
9819,22
9820,23
9821,23
9822,22
9823,22
9824,22
9825,22
9826,22
9827,22
9828,22
9829,22
9830,22
9831,22
9832,22
9833,22
9834,22
9835,22
9836,22
9837,22
9838,22
9839,22
9840,22
9841,22
9842,22
9843,22
9844,22
9845,22
9846,22
9847,22
9848,22
9849,22
9850,22
9851,22
9852,22
9853,23
9854,23
9855,22
9856,22
9857,22
9858,22
9859,22
9860,22
9861,22
9862,22
9863,22
9864,22
9865,22
9866,22
9867,22
9868,22
9869,22
9870,22
9871,22
9872,22
9873,22
9874,22
9875,22
9876,22
9877,22
9878,22
9879,22
9880,22
9881,22
9882,22
9883,22
9884,22
9885,22
9886,22
9887,22
9888,22
9889,22
9890,22
9891,22
9892,22
9893,22
9894,22
9895,22
9896,22
9897,22
9898,22
9899,22
9900,22
9901,22
9902,22
9903,22
9904,22
9905,22
9906,22
9907,22
9908,22
9909,22
9910,22
9911,22
9912,22
9913,22
9914,22
9915,22
9916,22
9917,22
9918,22
9919,22
9920,22
9921,22
9922,22
9923,22
9924,22
9925,22
9926,22
9927,22
9928,22
9929,22
9930,22
9931,22
9932,22
9933,22
9934,22
9935,22
9936,22
9937,22
9938,22
9939,22
9940,22
9941,22
9942,22
9943,22
9944,22
9945,22
9946,22
9947,22
9948,22
9949,22
9950,22
9951,22
9952,22
9953,22
9954,22
9955,22
9956,22
9957,22
9958,22
9959,22
9960,22
9961,22
9962,22
9963,22
9964,22
9965,22
9966,22
9967,22
9968,22
9969,22
9970,22
9971,22
9972,22
9973,22
9974,22
9975,22
9976,22
9977,22
9978,22
9979,22
9980,22
9981,22
9982,22
9983,22
9984,22
9985,22
9986,22
9987,22
9988,22
9989,22
9990,22
9991,22
9992,22
9993,22
9994,22
9995,22
9996,22
9997,22
9998,22
9999,22
10000,22
