1,3
2,3
3,3
4,3
5,3
6,3
7,3
8,3
9,3
10,3
11,3
12,3
13,3
14,3
15,3
16,3
17,3
18,3
19,3
20,3
21,3
22,3
23,3
24,3
25,3
26,3
27,3
28,3
29,3
30,3
31,3
32,3
33,3
34,3
35,3
36,3
37,3
38,3
39,3
40,3
41,3
42,3
43,3
44,3
45,3
46,3
47,3
48,3
49,3
50,3
51,3
52,3
53,3
54,3
55,3
56,3
57,3
58,3
59,3
60,3
61,3
62,3
63,3
64,3
65,3
66,3
67,3
68,3
69,3
70,3
71,3
72,3
73,3
74,3
75,3
76,3
77,3
78,3
79,3
80,3
81,3
82,3
83,3
84,3
85,3
86,3
87,3
88,3
89,3
90,3
91,3
92,3
93,3
94,3
95,3
96,3
97,3
98,3
99,3
100,3
101,3
102,3
103,3
104,3
105,3
106,3
107,3
108,3
109,3
110,3
111,3
112,3
113,3
114,3
115,3
116,3
117,3
118,3
119,3
120,3
121,3
122,3
123,3
124,3
125,3
126,3
127,3
128,3
129,3
130,3
131,3
132,3
133,3
134,3
135,4
136,4
137,4
138,4
139,4
140,4
141,4
142,4
143,4
144,4
145,4
146,4
147,4
148,4
149,4
150,4
151,4
152,5
153,4
154,4
155,4
156,4
157,4
158,4
159,4
160,4
161,4
162,4
163,4
164,4
165,4
166,4
167,4
168,4
169,4
170,4
171,4
172,4
173,4
174,4
175,4
176,4
177,4
178,4
179,4
180,4
181,4
182,4
183,4
184,4
185,4
186,4
187,4
188,4
189,4
190,4
191,4
192,4
193,4
194,4
195,4
196,4
197,4
198,4
199,4
200,4
201,4
202,4
203,4
204,4
205,4
206,4
207,4
208,4
209,4
210,4
211,4
212,4
213,4
214,4
215,4
216,4
217,4
218,4
219,4
220,4
221,4
222,4
223,4
224,4
225,4
226,4
227,4
228,4
229,4
230,4
231,4
232,4
233,4
234,4
235,4
236,4
237,4
238,4
239,4
240,4
241,4
242,4
243,4
244,4
245,4
246,4
247,4
248,4
249,4
250,4
251,4
252,4
253,4
254,4
255,4
256,4
257,4
258,4
259,4
260,4
261,4
262,4
263,4
264,4
265,4
266,4
267,4
268,4
269,4
270,4
271,4
272,4
273,4
274,4
275,4
276,4
277,4
278,4
279,4
280,4
281,4
282,4
283,4
284,4
285,4
286,4
287,4
288,4
289,4
290,4
291,4
292,4
293,4
294,4
295,4
296,4
297,4
298,4
299,4
300,4
301,4
302,4
303,4
304,4
305,4
306,4
307,4
308,4
309,4
310,4
311,4
312,4
313,4
314,4
315,4
316,4
317,4
318,4
319,4
320,4
321,4
322,4
323,4
324,4
325,4
326,4
327,4
328,4
329,4
330,4
331,4
332,4
333,4
334,4
335,4
336,4
337,4
338,4
339,4
340,4
341,4
342,4
343,4
344,4
345,4
346,4
347,4
348,4
349,4
350,4
351,4
352,5
353,5
354,5
355,5
356,5
357,5
358,5
359,5
360,5
361,5
362,5
363,5
364,5
365,5
366,5
367,5
368,5
369,5
370,5
371,5
372,5
373,5
374,5
375,6
376,6
377,6
378,6
379,6
380,6
381,6
382,6
383,6
384,6
385,6
386,6
387,6
388,6
389,6
390,6
391,6
392,6
393,6
394,6
395,6
396,6
397,6
398,6
399,6
400,6
401,6
402,6
403,6
404,6
405,6
406,6
407,6
408,6
409,6
410,6
411,6
412,6
413,6
414,6
415,6
416,6
417,6
418,6
419,6
420,6
421,6
422,6
423,6
424,6
425,6
426,6
427,6
428,6
429,6
430,6
431,6
432,6
433,6
434,6
435,6
436,6
437,6
438,6
439,6
440,6
441,6
442,6
443,6
444,6
445,6
446,6
447,6
448,6
449,6
450,6
451,6
452,6
453,6
454,6
455,6
456,6
457,6
458,6
459,6
460,6
461,6
462,6
463,6
464,6
465,6
466,6
467,6
468,6
469,6
470,6
471,6
472,6
473,6
474,6
475,6
476,6
477,6
478,6
479,6
480,6
481,6
482,6
483,6
484,6
485,6
486,6
487,6
488,6
489,6
490,6
491,6
492,6
493,6
494,6
495,6
496,6
497,6
498,6
499,6
500,6
501,6
502,6
503,6
504,6
505,6
506,6
507,6
508,6
509,6
510,6
511,6
512,6
513,6
514,6
515,6
516,6
517,6
518,6
519,6
520,6
521,6
522,6
523,6
524,6
525,6
526,6
527,6
528,6
529,6
530,6
531,6
532,6
533,6
534,6
535,6
536,6
537,6
538,6
539,6
540,6
541,6
542,6
543,6
544,6
545,6
546,6
547,6
548,6
549,6
550,6
551,6
552,6
553,6
554,6
555,6
556,6
557,6
558,6
559,6
560,6
561,6
562,6
563,6
564,6
565,6
566,6
567,6
568,6
569,6
570,6
571,6
572,6
573,6
574,6
575,6
576,6
577,6
578,6
579,6
580,6
581,6
582,6
583,6
584,6
585,6
586,6
587,6
588,6
589,6
590,6
591,6
592,6
593,6
594,6
595,6
596,6
597,6
598,6
599,6
600,6
601,6
602,6
603,6
604,7
605,7
606,6
607,6
608,6
609,6
610,6
611,6
612,6
613,7
614,6
615,6
616,6
617,6
618,6
619,6
620,6
621,6
622,6
623,6
624,6
625,6
626,6
627,6
628,6
629,6
630,6
631,6
632,6
633,6
634,6
635,6
636,6
637,6
638,6
639,6
640,6
641,6
642,6
643,6
644,6
645,6
646,6
647,6
648,6
649,6
650,6
651,6
652,6
653,6
654,6
655,6
656,6
657,6
658,6
659,6
660,6
661,6
662,6
663,6
664,6
665,6
666,6
667,6
668,6
669,6
670,6
671,6
672,6
673,6
674,6
675,6
676,6
677,6
678,6
679,6
680,6
681,6
682,6
683,6
684,6
685,6
686,6
687,6
688,6
689,6
690,6
691,6
692,6
693,6
694,7
695,6
696,6
697,6
698,6
699,6
700,6
701,6
702,6
703,6
704,6
705,6
706,6
707,6
708,6
709,6
710,6
711,6
712,6
713,6
714,6
715,6
716,6
717,6
718,6
719,6
720,6
721,6
722,6
723,6
724,6
725,6
726,6
727,6
728,6
729,6
730,6
731,6
732,6
733,6
734,6
735,6
736,6
737,6
738,6
739,6
740,6
741,6
742,6
743,6
744,6
745,6
746,6
747,6
748,6
749,6
750,6
751,6
752,6
753,7
754,8
755,8
756,8
757,8
758,8
759,8
760,8
761,8
762,7
763,7
764,7
765,7
766,7
767,7
768,7
769,7
770,7
771,7
772,7
773,7
774,7
775,7
776,7
777,7
778,7
779,7
780,7
781,7
782,7
783,7
784,7
785,7
786,7
787,8
788,8
789,8
790,7
791,7
792,7
793,7
794,7
795,7
796,7
797,7
798,7
799,7
800,7
801,7
802,7
803,7
804,7
805,7
806,7
807,7
808,7
809,7
810,7
811,7
812,7
813,7
814,7
815,7
816,7
817,7
818,7
819,7
820,7
821,7
822,7
823,7
824,7
825,7
826,7
827,7
828,7
829,7
830,7
831,8
832,8
833,8
834,8
835,8
836,8
837,8
838,8
839,8
840,8
841,8
842,8
843,8
844,8
845,8
846,8
847,8
848,8
849,9
850,9
851,9
852,8
853,8
854,8
855,8
856,8
857,8
858,8
859,8
860,8
861,8
862,8
863,8
864,8
865,8
866,8
867,8
868,8
869,8
870,8
871,8
872,8
873,8
874,8
875,8
876,8
877,8
878,8
879,8
880,8
881,8
882,8
883,8
884,8
885,8
886,8
887,8
888,8
889,8
890,8
891,8
892,8
893,8
894,8
895,8
896,8
897,8
898,8
899,8
900,8
901,8
902,8
903,8
904,8
905,8
906,8
907,9
908,9
909,9
910,8
911,8
912,8
913,8
914,8
915,8
916,8
917,8
918,8
919,8
920,8
921,8
922,8
923,8
924,8
925,8
926,8
927,8
928,8
929,8
930,8
931,8
932,8
933,8
934,8
935,8
936,8
937,8
938,8
939,8
940,8
941,8
942,8
943,8
944,8
945,8
946,8
947,8
948,8
949,8
950,8
951,8
952,8
953,8
954,8
955,8
956,8
957,8
958,8
959,8
960,8
961,8
962,8
963,8
964,8
965,8
966,8
967,8
968,8
969,8
970,8
971,8
972,8
973,8
974,8
975,8
976,8
977,8
978,8
979,8
980,8
981,8
982,8
983,8
984,8
985,8
986,8
987,8
988,8
989,8
990,8
991,8
992,8
993,8
994,8
995,8
996,8
997,8
998,8
999,8
1000,8
1001,8
1002,8
1003,8
1004,8
1005,8
1006,8
1007,8
1008,8
1009,8
1010,8
1011,8
1012,8
1013,8
1014,8
1015,8
1016,8
1017,8
1018,8
1019,8
1020,8
1021,8
1022,8
1023,8
1024,8
1025,8
1026,8
1027,8
1028,8
1029,8
1030,8
1031,8
1032,8
1033,8
1034,8
1035,8
1036,8
1037,8
1038,8
1039,8
1040,8
1041,8
1042,8
1043,8
1044,8
1045,8
1046,8
1047,8
1048,8
1049,8
1050,8
1051,8
1052,8
1053,8
1054,8
1055,8
1056,8
1057,8
1058,8
1059,8
1060,8
1061,8
1062,8
1063,8
1064,8
1065,8
1066,8
1067,8
1068,8
1069,8
1070,8
1071,8
1072,8
1073,8
1074,8
1075,8
1076,8
1077,8
1078,8
1079,8
1080,8
1081,8
1082,8
1083,8
1084,8
1085,8
1086,8
1087,8
1088,8
1089,8
1090,8
1091,8
1092,9
1093,9
1094,9
1095,9
1096,9
1097,9
1098,9
1099,8
1100,8
1101,8
1102,8
1103,8
1104,8
1105,8
1106,8
1107,8
1108,8
1109,8
1110,8
1111,8
1112,8
1113,8
1114,8
1115,8
1116,8
1117,8
1118,8
1119,9
1120,9
1121,9
1122,9
1123,9
1124,9
1125,8
1126,8
1127,8
1128,8
1129,8
1130,8
1131,8
1132,8
1133,8
1134,8
1135,8
1136,8
1137,8
1138,8
1139,8
1140,8
1141,8
1142,8
1143,8
1144,8
1145,8
1146,8
1147,8
1148,8
1149,8
1150,8
1151,8
1152,8
1153,8
1154,8
1155,8
1156,8
1157,8
1158,8
1159,8
1160,8
1161,8
1162,8
1163,8
1164,8
1165,8
1166,8
1167,8
1168,8
1169,8
1170,8
1171,8
1172,8
1173,8
1174,8
1175,8
1176,8
1177,8
1178,8
1179,8
1180,8
1181,8
1182,8
1183,8
1184,8
1185,8
1186,8
1187,8
1188,8
1189,8
1190,8
1191,8
1192,8
1193,8
1194,8
1195,8
1196,8
1197,8
1198,8
1199,8
1200,8
1201,8
1202,8
1203,8
1204,8
1205,8
1206,8
1207,9
1208,8
1209,8
1210,8
1211,8
1212,8
1213,8
1214,8
1215,8
1216,8
1217,8
1218,8
1219,8
1220,8
1221,8
1222,8
1223,8
1224,8
1225,8
1226,8
1227,8
1228,8
1229,8
1230,8
1231,8
1232,8
1233,8
1234,8
1235,8
1236,8
1237,8
1238,8
1239,8
1240,8
1241,8
1242,8
1243,8
1244,8
1245,8
1246,8
1247,8
1248,8
1249,8
1250,8
1251,8
1252,8
1253,8
1254,8
1255,8
1256,8
1257,8
1258,8
1259,8
1260,8
1261,8
1262,8
1263,8
1264,8
1265,8
1266,8
1267,8
1268,8
1269,8
1270,8
1271,8
1272,8
1273,8
1274,8
1275,8
1276,8
1277,8
1278,8
1279,8
1280,8
1281,8
1282,8
1283,8
1284,8
1285,8
1286,8
1287,8
1288,8
1289,8
1290,8
1291,8
1292,8
1293,8
1294,8
1295,8
1296,8
1297,8
1298,8
1299,8
1300,8
1301,9
1302,9
1303,9
1304,8
1305,8
1306,8
1307,8
1308,8
1309,8
1310,8
1311,8
1312,8
1313,8
1314,8
1315,8
1316,8
1317,8
1318,8
1319,8
1320,8
1321,8
1322,8
1323,8
1324,8
1325,8
1326,8
1327,8
1328,8
1329,8
1330,8
1331,8
1332,8
1333,8
1334,8
1335,8
1336,8
1337,8
1338,8
1339,8
1340,8
1341,8
1342,8
1343,8
1344,8
1345,8
1346,8
1347,8
1348,8
1349,8
1350,8
1351,8
1352,8
1353,8
1354,8
1355,8
1356,8
1357,9
1358,8
1359,8
1360,8
1361,8
1362,8
1363,8
1364,8
1365,8
1366,8
1367,8
1368,8
1369,8
1370,8
1371,8
1372,8
1373,8
1374,8
1375,8
1376,8
1377,8
1378,8
1379,8
1380,8
1381,8
1382,8
1383,8
1384,8
1385,8
1386,8
1387,8
1388,8
1389,8
1390,8
1391,8
1392,8
1393,8
1394,8
1395,8
1396,8
1397,8
1398,8
1399,8
1400,8
1401,8
1402,8
1403,8
1404,8
1405,8
1406,8
1407,8
1408,8
1409,8
1410,8
1411,8
1412,8
1413,8
1414,8
1415,8
1416,8
1417,8
1418,8
1419,8
1420,8
1421,8
1422,8
1423,9
1424,8
1425,8
1426,8
1427,8
1428,8
1429,8
1430,8
1431,8
1432,8
1433,8
1434,8
1435,8
1436,8
1437,8
1438,8
1439,8
1440,8
1441,8
1442,8
1443,8
1444,8
1445,8
1446,9
1447,8
1448,8
1449,8
1450,8
1451,8
1452,8
1453,8
1454,8
1455,8
1456,8
1457,8
1458,9
1459,9
1460,8
1461,8
1462,8
1463,8
1464,8
1465,8
1466,8
1467,8
1468,8
1469,8
1470,8
1471,8
1472,8
1473,8
1474,8
1475,8
1476,8
1477,8
1478,8
1479,8
1480,8
1481,8
1482,8
1483,8
1484,8
1485,8
1486,8
1487,8
1488,8
1489,8
1490,8
1491,8
1492,8
1493,8
1494,8
1495,8
1496,8
1497,8
1498,8
1499,8
1500,8
1501,8
1502,8
1503,8
1504,8
1505,8
1506,8
1507,8
1508,8
1509,8
1510,8
1511,8
1512,8
1513,8
1514,8
1515,8
1516,8
1517,8
1518,8
1519,8
1520,8
1521,8
1522,8
1523,8
1524,8
1525,8
1526,8
1527,8
1528,8
1529,8
1530,8
1531,8
1532,8
1533,8
1534,9
1535,9
1536,9
1537,9
1538,9
1539,9
1540,9
1541,9
1542,9
1543,9
1544,9
1545,9
1546,9
1547,9
1548,8
1549,8
1550,8
1551,8
1552,8
1553,8
1554,8
1555,8
1556,8
1557,8
1558,8
1559,8
1560,8
1561,8
1562,8
1563,8
1564,8
1565,8
1566,8
1567,8
1568,8
1569,8
1570,8
1571,8
1572,8
1573,8
1574,8
1575,8
1576,8
1577,8
1578,8
1579,8
1580,8
1581,8
1582,8
1583,8
1584,8
1585,8
1586,8
1587,8
1588,8
1589,8
1590,8
1591,8
1592,8
1593,8
1594,8
1595,8
1596,8
1597,8
1598,8
1599,8
1600,8
1601,8
1602,8
1603,8
1604,8
1605,8
1606,8
1607,8
1608,8
1609,8
1610,8
1611,8
1612,8
1613,8
1614,8
1615,8
1616,8
1617,8
1618,8
1619,8
1620,8
1621,8
1622,8
1623,8
1624,8
1625,8
1626,8
1627,8
1628,8
1629,8
1630,8
1631,8
1632,8
1633,8
1634,8
1635,8
1636,8
1637,8
1638,8
1639,8
1640,8
1641,8
1642,8
1643,8
1644,8
1645,8
1646,8
1647,8
1648,8
1649,8
1650,8
1651,8
1652,8
1653,8
1654,8
1655,8
1656,8
1657,8
1658,8
1659,8
1660,8
1661,8
1662,8
1663,8
1664,8
1665,8
1666,8
1667,8
1668,8
1669,8
1670,8
1671,8
1672,8
1673,8
1674,8
1675,8
1676,8
1677,8
1678,8
1679,8
1680,8
1681,8
1682,8
1683,8
1684,8
1685,8
1686,8
1687,8
1688,8
1689,8
1690,8
1691,8
1692,8
1693,8
1694,8
1695,8
1696,8
1697,8
1698,8
1699,8
1700,8
1701,8
1702,8
1703,8
1704,8
1705,8
1706,8
1707,8
1708,8
1709,8
1710,8
1711,8
1712,8
1713,8
1714,8
1715,8
1716,8
1717,8
1718,8
1719,8
1720,8
1721,8
1722,8
1723,8
1724,8
1725,8
1726,8
1727,8
1728,9
1729,8
1730,8
1731,8
1732,8
1733,8
1734,8
1735,9
1736,9
1737,9
1738,9
1739,9
1740,9
1741,9
1742,9
1743,9
1744,9
1745,9
1746,9
1747,8
1748,8
1749,8
1750,8
1751,8
1752,8
1753,8
1754,8
1755,8
1756,8
1757,8
1758,8
1759,8
1760,8
1761,8
1762,8
1763,8
1764,8
1765,8
1766,8
1767,8
1768,8
1769,8
1770,8
1771,8
1772,8
1773,8
1774,8
1775,8
1776,8
1777,8
1778,8
1779,8
1780,8
1781,8
1782,8
1783,8
1784,8
1785,8
1786,8
1787,8
1788,8
1789,8
1790,8
1791,8
1792,8
1793,8
1794,8
1795,8
1796,8
1797,8
1798,8
1799,8
1800,8
1801,8
1802,8
1803,8
1804,8
1805,8
1806,8
1807,8
1808,8
1809,8
1810,8
1811,8
1812,8
1813,8
1814,8
1815,8
1816,8
1817,8
1818,8
1819,8
1820,8
1821,8
1822,8
1823,8
1824,8
1825,8
1826,8
1827,8
1828,8
1829,8
1830,8
1831,8
1832,8
1833,8
1834,8
1835,8
1836,8
1837,8
1838,8
1839,8
1840,8
1841,9
1842,8
1843,8
1844,8
1845,8
1846,9
1847,8
1848,8
1849,8
1850,8
1851,8
1852,8
1853,8
1854,8
1855,8
1856,8
1857,8
1858,8
1859,8
1860,8
1861,8
1862,8
1863,8
1864,8
1865,8
1866,8
1867,8
1868,8
1869,8
1870,8
1871,8
1872,8
1873,8
1874,8
1875,8
1876,8
1877,8
1878,8
1879,8
1880,8
1881,8
1882,8
1883,8
1884,8
1885,8
1886,8
1887,8
1888,8
1889,8
1890,8
1891,8
1892,8
1893,8
1894,8
1895,8
1896,8
1897,8
1898,8
1899,8
1900,8
1901,8
1902,8
1903,8
1904,8
1905,8
1906,8
1907,9
1908,9
1909,9
1910,9
1911,9
1912,9
1913,9
1914,9
1915,9
1916,9
1917,9
1918,9
1919,9
1920,9
1921,9
1922,9
1923,9
1924,9
1925,9
1926,9
1927,9
1928,9
1929,9
1930,9
1931,9
1932,9
1933,9
1934,9
1935,9
1936,9
1937,9
1938,9
1939,9
1940,9
1941,9
1942,9
1943,9
1944,9
1945,9
1946,9
1947,9
1948,10
1949,10
1950,9
1951,9
1952,9
1953,9
1954,9
1955,9
1956,9
1957,9
1958,9
1959,9
1960,9
1961,9
1962,9
1963,9
1964,9
1965,9
1966,9
1967,9
1968,9
1969,9
1970,9
1971,9
1972,9
1973,9
1974,9
1975,9
1976,9
1977,9
1978,9
1979,9
1980,9
1981,9
1982,9
1983,9
1984,9
1985,9
1986,9
1987,9
1988,9
1989,9
1990,9
1991,9
1992,9
1993,9
1994,9
1995,9
1996,9
1997,9
1998,9
1999,9
2000,9
2001,9
2002,9
2003,9
2004,9
2005,9
2006,9
2007,9
2008,9
2009,9
2010,9
2011,9
2012,9
2013,9
2014,10
2015,10
2016,9
2017,9
2018,9
2019,9
2020,9
2021,9
2022,9
2023,9
2024,9
2025,9
2026,9
2027,9
2028,9
2029,9
2030,9
2031,9
2032,9
2033,9
2034,9
2035,9
2036,9
2037,9
2038,9
2039,9
2040,9
2041,9
2042,9
2043,9
2044,9
2045,9
2046,9
2047,9
2048,9
2049,9
2050,9
2051,9
2052,9
2053,9
2054,9
2055,9
2056,9
2057,9
2058,9
2059,9
2060,9
2061,9
2062,9
2063,9
2064,9
2065,9
2066,9
2067,9
2068,9
2069,9
2070,9
2071,9
2072,9
2073,9
2074,9
2075,9
2076,9
2077,9
2078,9
2079,9
2080,9
2081,9
2082,9
2083,9
2084,9
2085,9
2086,9
2087,9
2088,9
2089,9
2090,9
2091,9
2092,9
2093,9
2094,9
2095,9
2096,9
2097,9
2098,9
2099,9
2100,9
2101,9
2102,9
2103,9
2104,9
2105,9
2106,9
2107,9
2108,9
2109,9
2110,10
2111,10
2112,9
2113,9
2114,9
2115,9
2116,9
2117,9
2118,9
2119,9
2120,9
2121,9
2122,9
2123,9
2124,9
2125,9
2126,9
2127,9
2128,9
2129,9
2130,9
2131,9
2132,9
2133,9
2134,9
2135,9
2136,9
2137,9
2138,9
2139,9
2140,9
2141,9
2142,9
2143,9
2144,9
2145,9
2146,9
2147,9
2148,9
2149,9
2150,9
2151,9
2152,9
2153,9
2154,9
2155,9
2156,9
2157,9
2158,9
2159,9
2160,9
2161,9
2162,9
2163,9
2164,9
2165,9
2166,9
2167,9
2168,9
2169,9
2170,9
2171,9
2172,9
2173,9
2174,9
2175,9
2176,9
2177,9
2178,9
2179,9
2180,9
2181,9
2182,9
2183,9
2184,9
2185,9
2186,9
2187,9
2188,9
2189,9
2190,9
2191,9
2192,10
2193,10
2194,9
2195,9
2196,9
2197,9
2198,9
2199,9
2200,9
2201,9
2202,9
2203,9
2204,9
2205,9
2206,9
2207,9
2208,9
2209,9
2210,9
2211,9
2212,9
2213,9
2214,9
2215,9
2216,9
2217,10
2218,9
2219,9
2220,9
2221,9
2222,9
2223,9
2224,9
2225,9
2226,9
2227,9
2228,9
2229,9
2230,9
2231,9
2232,9
2233,9
2234,9
2235,9
2236,9
2237,9
2238,9
2239,9
2240,9
2241,9
2242,9
2243,9
2244,9
2245,9
2246,9
2247,9
2248,9
2249,9
2250,9
2251,9
2252,9
2253,9
2254,9
2255,9
2256,9
2257,9
2258,9
2259,9
2260,9
2261,9
2262,9
2263,9
2264,9
2265,9
2266,9
2267,9
2268,9
2269,9
2270,9
2271,9
2272,9
2273,9
2274,9
2275,9
2276,9
2277,9
2278,9
2279,9
2280,9
2281,9
2282,9
2283,9
2284,9
2285,9
2286,9
2287,9
2288,9
2289,9
2290,9
2291,9
2292,9
2293,9
2294,9
2295,9
2296,9
2297,9
2298,9
2299,9
2300,9
2301,9
2302,9
2303,9
2304,9
2305,9
2306,9
2307,9
2308,9
2309,9
2310,9
2311,9
2312,9
2313,9
2314,9
2315,9
2316,9
2317,9
2318,9
2319,9
2320,9
2321,9
2322,9
2323,9
2324,9
2325,9
2326,9
2327,9
2328,9
2329,9
2330,9
2331,9
2332,9
2333,9
2334,9
2335,9
2336,9
2337,9
2338,9
2339,9
2340,9
2341,9
2342,9
2343,9
2344,9
2345,9
2346,9
2347,9
2348,9
2349,9
2350,9
2351,9
2352,9
2353,9
2354,9
2355,9
2356,9
2357,9
2358,9
2359,9
2360,9
2361,9
2362,9
2363,9
2364,9
2365,9
2366,9
2367,9
2368,9
2369,9
2370,9
2371,9
2372,9
2373,9
2374,9
2375,9
2376,9
2377,9
2378,9
2379,9
2380,9
2381,9
2382,9
2383,9
2384,9
2385,9
2386,9
2387,9
2388,9
2389,9
2390,9
2391,9
2392,9
2393,9
2394,9
2395,9
2396,9
2397,9
2398,9
2399,9
2400,9
2401,9
2402,9
2403,9
2404,9
2405,9
2406,9
2407,9
2408,9
2409,9
2410,9
2411,9
2412,9
2413,9
2414,9
2415,9
2416,9
2417,9
2418,9
2419,9
2420,9
2421,9
2422,9
2423,9
2424,9
2425,9
2426,9
2427,9
2428,9
2429,9
2430,9
2431,9
2432,9
2433,9
2434,9
2435,9
2436,9
2437,9
2438,9
2439,9
2440,9
2441,9
2442,9
2443,9
2444,9
2445,9
2446,9
2447,9
2448,9
2449,9
2450,9
2451,9
2452,9
2453,9
2454,9
2455,9
2456,9
2457,9
2458,9
2459,9
2460,9
2461,9
2462,9
2463,9
2464,9
2465,9
2466,9
2467,9
2468,9
2469,9
2470,9
2471,9
2472,9
2473,9
2474,9
2475,9
2476,9
2477,9
2478,9
2479,9
2480,9
2481,9
2482,9
2483,9
2484,9
2485,9
2486,9
2487,9
2488,9
2489,9
2490,9
2491,9
2492,9
2493,9
2494,9
2495,10
2496,10
2497,10
2498,9
2499,9
2500,9
2501,9
2502,9
2503,9
2504,9
2505,9
2506,9
2507,9
2508,9
2509,9
2510,9
2511,10
2512,9
2513,9
2514,9
2515,9
2516,9
2517,9
2518,9
2519,9
2520,9
2521,9
2522,9
2523,9
2524,9
2525,9
2526,9
2527,9
2528,9
2529,9
2530,9
2531,9
2532,9
2533,9
2534,9
2535,9
2536,9
2537,9
2538,9
2539,9
2540,9
2541,9
2542,9
2543,9
2544,9
2545,9
2546,9
2547,9
2548,9
2549,9
2550,9
2551,9
2552,9
2553,9
2554,9
2555,9
2556,9
2557,9
2558,9
2559,9
2560,9
2561,9
2562,9
2563,9
2564,9
2565,9
2566,9
2567,10
2568,10
2569,10
2570,10
2571,10
2572,10
2573,9
2574,9
2575,9
2576,9
2577,9
2578,9
2579,9
2580,9
2581,9
2582,9
2583,9
2584,9
2585,9
2586,9
2587,9
2588,9
2589,9
2590,9
2591,9
2592,9
2593,9
2594,9
2595,9
2596,9
2597,9
2598,9
2599,9
2600,9
2601,9
2602,9
2603,9
2604,9
2605,9
2606,9
2607,9
2608,9
2609,9
2610,9
2611,9
2612,9
2613,9
2614,9
2615,9
2616,9
2617,9
2618,9
2619,9
2620,9
2621,9
2622,9
2623,9
2624,9
2625,9
2626,9
2627,9
2628,9
2629,9
2630,9
2631,9
2632,9
2633,9
2634,9
2635,9
2636,9
2637,9
2638,9
2639,9
2640,9
2641,9
2642,9
2643,9
2644,9
2645,9
2646,9
2647,9
2648,9
2649,9
2650,9
2651,9
2652,9
2653,9
2654,9
2655,9
2656,9
2657,9
2658,9
2659,9
2660,9
2661,9
2662,9
2663,9
2664,10
2665,10
2666,10
2667,10
2668,10
2669,10
2670,10
2671,10
2672,10
2673,10
2674,10
2675,10
2676,10
2677,10
2678,10
2679,10
2680,10
2681,10
2682,10
2683,10
2684,10
2685,10
2686,10
2687,10
2688,10
2689,10
2690,10
2691,10
2692,10
2693,10
2694,10
2695,10
2696,10
2697,10
2698,10
2699,10
2700,10
2701,10
2702,10
2703,10
2704,10
2705,10
2706,10
2707,10
2708,10
2709,10
2710,10
2711,10
2712,10
2713,10
2714,10
2715,10
2716,11
2717,11
2718,11
2719,10
2720,10
2721,10
2722,10
2723,10
2724,10
2725,10
2726,10
2727,10
2728,10
2729,10
2730,10
2731,10
2732,10
2733,10
2734,10
2735,10
2736,10
2737,10
2738,10
2739,10
2740,10
2741,10
2742,10
2743,10
2744,10
2745,11
2746,11
2747,11
2748,11
2749,11
2750,11
2751,11
2752,10
2753,10
2754,10
2755,10
2756,10
2757,10
2758,10
2759,10
2760,10
2761,10
2762,10
2763,10
2764,10
2765,10
2766,10
2767,10
2768,10
2769,10
2770,10
2771,10
2772,10
2773,10
2774,10
2775,10
2776,10
2777,10
2778,10
2779,10
2780,10
2781,10
2782,10
2783,10
2784,10
2785,10
2786,10
2787,10
2788,10
2789,10
2790,10
2791,10
2792,10
2793,10
2794,10
2795,10
2796,10
2797,10
2798,10
2799,10
2800,10
2801,10
2802,10
2803,10
2804,10
2805,10
2806,10
2807,10
2808,10
2809,10
2810,10
2811,10
2812,10
2813,10
2814,10
2815,10
2816,10
2817,10
2818,10
2819,10
2820,10
2821,10
2822,10
2823,10
2824,10
2825,10
2826,10
2827,10
2828,10
2829,10
2830,10
2831,10
2832,10
2833,10
2834,10
2835,10
2836,10
2837,10
2838,10
2839,10
2840,10
2841,10
2842,10
2843,10
2844,10
2845,10
2846,10
2847,10
2848,10
2849,10
2850,10
2851,10
2852,10
2853,10
2854,10
2855,10
2856,10
2857,10
2858,10
2859,10
2860,10
2861,10
2862,10
2863,10
2864,10
2865,10
2866,10
2867,10
2868,10
2869,10
2870,10
2871,10
2872,10
2873,10
2874,11
2875,11
2876,10
2877,10
2878,10
2879,10
2880,10
2881,10
2882,10
2883,10
2884,10
2885,11
2886,11
2887,11
2888,11
2889,11
2890,11
2891,11
2892,11
2893,11
2894,11
2895,11
2896,11
2897,11
2898,11
2899,11
2900,11
2901,11
2902,11
2903,11
2904,11
2905,11
2906,11
2907,11
2908,11
2909,11
2910,11
2911,11
2912,11
2913,11
2914,11
2915,11
2916,11
2917,11
2918,11
2919,11
2920,11
2921,11
2922,11
2923,11
2924,11
2925,11
2926,11
2927,11
2928,11
2929,11
2930,11
2931,11
2932,11
2933,11
2934,11
2935,11
2936,11
2937,11
2938,11
2939,11
2940,11
2941,11
2942,11
2943,11
2944,11
2945,11
2946,11
2947,11
2948,11
2949,11
2950,11
2951,11
2952,11
2953,11
2954,11
2955,11
2956,11
2957,11
2958,11
2959,11
2960,11
2961,11
2962,11
2963,11
2964,11
2965,11
2966,11
2967,11
2968,11
2969,11
2970,11
2971,11
2972,11
2973,11
2974,11
2975,11
2976,11
2977,11
2978,11
2979,11
2980,11
2981,11
2982,11
2983,11
2984,11
2985,11
2986,11
2987,11
2988,11
2989,11
2990,11
2991,11
2992,11
2993,11
2994,11
2995,11
2996,11
2997,11
2998,11
2999,11
3000,11
3001,11
3002,11
3003,11
3004,11
3005,11
3006,11
3007,11
3008,11
3009,11
3010,11
3011,11
3012,11
3013,11
3014,11
3015,12
3016,12
3017,12
3018,12
3019,12
3020,12
3021,12
3022,12
3023,12
3024,12
3025,12
3026,12
3027,12
3028,12
3029,12
3030,12
3031,12
3032,12
3033,12
3034,12
3035,12
3036,12
3037,12
3038,12
3039,12
3040,12
3041,12
3042,12
3043,12
3044,12
3045,12
3046,12
3047,12
3048,12
3049,12
3050,12
3051,12
3052,12
3053,12
3054,12
3055,12
3056,12
3057,12
3058,12
3059,12
3060,12
3061,12
3062,12
3063,12
3064,12
3065,12
3066,12
3067,12
3068,12
3069,12
3070,12
3071,12
3072,12
3073,12
3074,12
3075,12
3076,12
3077,12
3078,12
3079,12
3080,12
3081,12
3082,12
3083,12
3084,12
3085,12
3086,12
3087,12
3088,12
3089,12
3090,12
3091,12
3092,12
3093,12
3094,12
3095,12
3096,12
3097,12
3098,12
3099,12
3100,12
3101,12
3102,12
3103,12
3104,12
3105,12
3106,12
3107,12
3108,12
3109,12
3110,12
3111,12
3112,12
3113,12
3114,12
3115,12
3116,12
3117,12
3118,12
3119,12
3120,12
3121,12
3122,12
3123,12
3124,12
3125,12
3126,12
3127,12
3128,12
3129,12
3130,12
3131,12
3132,12
3133,12
3134,12
3135,12
3136,12
3137,12
3138,12
3139,12
3140,12
3141,12
3142,12
3143,12
3144,12
3145,12
3146,12
3147,12
3148,12
3149,12
3150,12
3151,12
3152,12
3153,12
3154,12
3155,12
3156,12
3157,12
3158,12
3159,12
3160,12
3161,12
3162,12
3163,12
3164,12
3165,12
3166,12
3167,12
3168,12
3169,12
3170,12
3171,12
3172,12
3173,12
3174,13
3175,13
3176,12
3177,12
3178,12
3179,12
3180,12
3181,12
3182,12
3183,12
3184,12
3185,12
3186,12
3187,12
3188,12
3189,12
3190,12
3191,12
3192,12
3193,12
3194,12
3195,12
3196,12
3197,12
3198,12
3199,12
3200,12
3201,12
3202,12
3203,12
3204,12
3205,12
3206,12
3207,12
3208,12
3209,12
3210,12
3211,12
3212,12
3213,12
3214,12
3215,12
3216,12
3217,12
3218,12
3219,12
3220,12
3221,12
3222,12
3223,12
3224,12
3225,12
3226,12
3227,12
3228,12
3229,12
3230,12
3231,12
3232,12
3233,12
3234,12
3235,12
3236,12
3237,12
3238,12
3239,12
3240,12
3241,12
3242,12
3243,12
3244,12
3245,12
3246,12
3247,12
3248,12
3249,12
3250,12
3251,12
3252,13
3253,12
3254,12
3255,12
3256,12
3257,12
3258,12
3259,12
3260,12
3261,12
3262,12
3263,12
3264,12
3265,12
3266,12
3267,12
3268,12
3269,12
3270,12
3271,12
3272,12
3273,12
3274,12
3275,12
3276,12
3277,12
3278,12
3279,12
3280,12
3281,12
3282,12
3283,12
3284,12
3285,12
3286,12
3287,12
3288,12
3289,12
3290,12
3291,12
3292,12
3293,12
3294,12
3295,12
3296,12
3297,12
3298,12
3299,12
3300,12
3301,12
3302,12
3303,12
3304,12
3305,12
3306,12
3307,12
3308,12
3309,12
3310,12
3311,12
3312,13
3313,13
3314,13
3315,13
3316,13
3317,13
3318,13
3319,13
3320,13
3321,13
3322,13
3323,13
3324,13
3325,13
3326,13
3327,13
3328,13
3329,13
3330,13
3331,13
3332,13
3333,13
3334,13
3335,13
3336,13
3337,13
3338,14
3339,14
3340,14
3341,14
3342,14
3343,14
3344,14
3345,14
3346,14
3347,14
3348,14
3349,14
3350,14
3351,14
3352,14
3353,13
3354,14
3355,13
3356,13
3357,13
3358,13
3359,13
3360,13
3361,13
3362,13
3363,13
3364,13
3365,13
3366,13
3367,13
3368,13
3369,13
3370,13
3371,13
3372,13
3373,13
3374,13
3375,13
3376,13
3377,13
3378,13
3379,13
3380,13
3381,13
3382,13
3383,13
3384,13
3385,13
3386,13
3387,13
3388,13
3389,13
3390,13
3391,13
3392,13
3393,13
3394,13
3395,13
3396,13
3397,13
3398,13
3399,13
3400,13
3401,13
3402,13
3403,13
3404,13
3405,13
3406,13
3407,13
3408,13
3409,13
3410,13
3411,13
3412,13
3413,13
3414,13
3415,13
3416,13
3417,13
3418,13
3419,13
3420,13
3421,13
3422,13
3423,13
3424,13
3425,13
3426,13
3427,13
3428,13
3429,13
3430,13
3431,13
3432,13
3433,13
3434,13
3435,13
3436,13
3437,13
3438,13
3439,13
3440,13
3441,13
3442,13
3443,13
3444,13
3445,13
3446,13
3447,13
3448,13
3449,13
3450,13
3451,13
3452,13
3453,13
3454,13
3455,13
3456,13
3457,13
3458,13
3459,13
3460,13
3461,13
3462,13
3463,13
3464,13
3465,13
3466,13
3467,13
3468,13
3469,13
3470,13
3471,13
3472,13
3473,13
3474,13
3475,13
3476,13
3477,13
3478,13
3479,13
3480,13
3481,13
3482,13
3483,13
3484,13
3485,13
3486,13
3487,13
3488,13
3489,13
3490,13
3491,13
3492,13
3493,13
3494,13
3495,13
3496,13
3497,13
3498,13
3499,13
3500,13
3501,13
3502,13
3503,13
3504,13
3505,13
3506,14
3507,14
3508,13
3509,13
3510,13
3511,13
3512,13
3513,13
3514,13
3515,13
3516,13
3517,13
3518,13
3519,13
3520,13
3521,13
3522,13
3523,13
3524,13
3525,13
3526,13
3527,13
3528,13
3529,13
3530,13
3531,13
3532,13
3533,13
3534,13
3535,13
3536,13
3537,13
3538,13
3539,13
3540,13
3541,13
3542,13
3543,13
3544,13
3545,13
3546,13
3547,13
3548,13
3549,13
3550,13
3551,13
3552,13
3553,13
3554,13
3555,13
3556,13
3557,13
3558,13
3559,13
3560,13
3561,13
3562,13
3563,13
3564,13
3565,13
3566,13
3567,13
3568,13
3569,13
3570,13
3571,13
3572,13
3573,13
3574,13
3575,13
3576,13
3577,13
3578,13
3579,13
3580,13
3581,13
3582,13
3583,13
3584,13
3585,13
3586,13
3587,13
3588,13
3589,13
3590,13
3591,13
3592,13
3593,13
3594,13
3595,13
3596,13
3597,13
3598,13
3599,13
3600,13
3601,13
3602,13
3603,13
3604,13
3605,13
3606,13
3607,13
3608,13
3609,13
3610,13
3611,13
3612,13
3613,13
3614,13
3615,13
3616,13
3617,13
3618,13
3619,13
3620,13
3621,13
3622,13
3623,13
3624,13
3625,13
3626,13
3627,13
3628,13
3629,13
3630,13
3631,13
3632,13
3633,13
3634,13
3635,13
3636,13
3637,13
3638,13
3639,13
3640,13
3641,13
3642,14
3643,14
3644,14
3645,14
3646,14
3647,14
3648,14
3649,14
3650,14
3651,14
3652,14
3653,14
3654,14
3655,14
3656,14
3657,14
3658,14
3659,14
3660,14
3661,14
3662,14
3663,14
3664,14
3665,14
3666,14
3667,14
3668,14
3669,14
3670,14
3671,14
3672,14
3673,14
3674,14
3675,14
3676,14
3677,14
3678,14
3679,14
3680,14
3681,14
3682,14
3683,14
3684,14
3685,14
3686,14
3687,14
3688,14
3689,14
3690,14
3691,14
3692,14
3693,14
3694,14
3695,14
3696,14
3697,14
3698,14
3699,14
3700,14
3701,14
3702,14
3703,14
3704,14
3705,14
3706,14
3707,14
3708,14
3709,14
3710,14
3711,14
3712,14
3713,14
3714,14
3715,14
3716,14
3717,14
3718,14
3719,14
3720,14
3721,14
3722,14
3723,14
3724,14
3725,14
3726,15
3727,14
3728,14
3729,14
3730,15
3731,15
3732,14
3733,14
3734,14
3735,14
3736,14
3737,14
3738,14
3739,14
3740,14
3741,14
3742,14
3743,14
3744,14
3745,14
3746,14
3747,14
3748,14
3749,14
3750,14
3751,15
3752,15
3753,14
3754,14
3755,14
3756,14
3757,14
3758,14
3759,14
3760,14
3761,14
3762,14
3763,14
3764,14
3765,14
3766,14
3767,14
3768,14
3769,14
3770,14
3771,14
3772,14
3773,14
3774,14
3775,14
3776,14
3777,14
3778,14
3779,14
3780,14
3781,14
3782,14
3783,14
3784,14
3785,14
3786,14
3787,14
3788,14
3789,14
3790,14
3791,14
3792,14
3793,14
3794,14
3795,14
3796,14
3797,14
3798,14
3799,14
3800,14
3801,14
3802,14
3803,14
3804,14
3805,14
3806,14
3807,14
3808,14
3809,14
3810,14
3811,14
3812,14
3813,14
3814,14
3815,14
3816,14
3817,14
3818,14
3819,14
3820,14
3821,14
3822,14
3823,14
3824,14
3825,14
3826,14
3827,14
3828,14
3829,14
3830,14
3831,14
3832,14
3833,14
3834,14
3835,14
3836,14
3837,14
3838,14
3839,14
3840,14
3841,14
3842,14
3843,14
3844,14
3845,14
3846,14
3847,14
3848,14
3849,14
3850,14
3851,14
3852,14
3853,14
3854,14
3855,14
3856,14
3857,14
3858,14
3859,14
3860,14
3861,14
3862,14
3863,14
3864,14
3865,14
3866,14
3867,14
3868,14
3869,14
3870,14
3871,14
3872,14
3873,14
3874,14
3875,14
3876,14
3877,14
3878,14
3879,14
3880,14
3881,14
3882,14
3883,14
3884,14
3885,14
3886,14
3887,14
3888,14
3889,14
3890,14
3891,14
3892,14
3893,14
3894,14
3895,14
3896,14
3897,14
3898,14
3899,14
3900,14
3901,14
3902,14
3903,14
3904,14
3905,14
3906,14
3907,14
3908,14
3909,14
3910,14
3911,14
3912,14
3913,14
3914,14
3915,14
3916,14
3917,14
3918,14
3919,14
3920,14
3921,14
3922,14
3923,14
3924,14
3925,14
3926,14
3927,14
3928,14
3929,14
3930,14
3931,14
3932,14
3933,14
3934,14
3935,14
3936,14
3937,14
3938,14
3939,14
3940,14
3941,14
3942,14
3943,14
3944,14
3945,14
3946,14
3947,14
3948,14
3949,14
3950,14
3951,14
3952,14
3953,14
3954,14
3955,14
3956,14
3957,14
3958,14
3959,14
3960,14
3961,14
3962,14
3963,14
3964,14
3965,14
3966,14
3967,14
3968,14
3969,14
3970,14
3971,14
3972,14
3973,14
3974,14
3975,14
3976,14
3977,14
3978,14
3979,14
3980,14
3981,14
3982,14
3983,14
3984,14
3985,14
3986,14
3987,14
3988,14
3989,14
3990,14
3991,14
3992,14
3993,14
3994,14
3995,14
3996,14
3997,14
3998,14
3999,14
4000,14
4001,14
4002,14
4003,14
4004,14
4005,14
4006,14
4007,14
4008,14
4009,14
4010,14
4011,14
4012,14
4013,14
4014,14
4015,14
4016,14
4017,14
4018,14
4019,14
4020,14
4021,14
4022,14
4023,14
4024,14
4025,14
4026,14
4027,14
4028,14
4029,14
4030,14
4031,14
4032,14
4033,14
4034,14
4035,14
4036,14
4037,14
4038,14
4039,14
4040,14
4041,14
4042,14
4043,14
4044,14
4045,14
4046,14
4047,14
4048,14
4049,14
4050,14
4051,14
4052,15
4053,15
4054,15
4055,15
4056,15
4057,15
4058,15
4059,15
4060,15
4061,15
4062,15
4063,15
4064,15
4065,15
4066,15
4067,15
4068,15
4069,15
4070,15
4071,15
4072,15
4073,15
4074,15
4075,15
4076,15
4077,15
4078,15
4079,15
4080,15
4081,15
4082,15
4083,15
4084,15
4085,15
4086,15
4087,15
4088,15
4089,15
4090,15
4091,15
4092,15
4093,15
4094,15
4095,15
4096,15
4097,16
4098,15
4099,15
4100,15
4101,15
4102,15
4103,15
4104,15
4105,15
4106,15
4107,15
4108,15
4109,15
4110,15
4111,15
4112,15
4113,15
4114,15
4115,15
4116,15
4117,15
4118,15
4119,15
4120,15
4121,15
4122,15
4123,15
4124,15
4125,15
4126,15
4127,15
4128,15
4129,15
4130,15
4131,15
4132,15
4133,15
4134,15
4135,15
4136,15
4137,15
4138,15
4139,15
4140,15
4141,15
4142,15
4143,15
4144,15
4145,15
4146,15
4147,15
4148,15
4149,15
4150,15
4151,15
4152,15
4153,15
4154,15
4155,15
4156,15
4157,15
4158,15
4159,15
4160,15
4161,15
4162,15
4163,15
4164,15
4165,15
4166,15
4167,15
4168,15
4169,15
4170,15
4171,15
4172,15
4173,15
4174,15
4175,15
4176,15
4177,15
4178,15
4179,15
4180,15
4181,15
4182,15
4183,15
4184,15
4185,15
4186,15
4187,15
4188,15
4189,15
4190,15
4191,15
4192,15
4193,15
4194,15
4195,15
4196,15
4197,15
4198,15
4199,15
4200,15
4201,15
4202,15
4203,15
4204,15
4205,15
4206,15
4207,15
4208,15
4209,15
4210,15
4211,15
4212,15
4213,15
4214,15
4215,15
4216,15
4217,15
4218,15
4219,15
4220,15
4221,15
4222,15
4223,15
4224,15
4225,15
4226,15
4227,15
4228,15
4229,15
4230,15
4231,15
4232,15
4233,15
4234,15
4235,15
4236,15
4237,15
4238,15
4239,15
4240,15
4241,15
4242,15
4243,15
4244,15
4245,15
4246,15
4247,15
4248,15
4249,15
4250,15
4251,15
4252,15
4253,15
4254,15
4255,16
4256,16
4257,16
4258,16
4259,15
4260,15
4261,15
4262,15
4263,15
4264,15
4265,15
4266,15
4267,15
4268,15
4269,15
4270,15
4271,15
4272,15
4273,15
4274,15
4275,15
4276,15
4277,15
4278,15
4279,15
4280,15
4281,16
4282,16
4283,16
4284,16
4285,16
4286,16
4287,16
4288,16
4289,16
4290,16
4291,16
4292,16
4293,16
4294,16
4295,16
4296,16
4297,16
4298,16
4299,16
4300,16
4301,16
4302,16
4303,16
4304,16
4305,16
4306,16
4307,16
4308,16
4309,16
4310,16
4311,16
4312,16
4313,16
4314,16
4315,16
4316,16
4317,16
4318,16
4319,16
4320,16
4321,16
4322,16
4323,16
4324,16
4325,16
4326,16
4327,16
4328,16
4329,16
4330,16
4331,16
4332,16
4333,16
4334,16
4335,16
4336,16
4337,16
4338,16
4339,16
4340,16
4341,16
4342,16
4343,16
4344,16
4345,16
4346,16
4347,16
4348,16
4349,16
4350,16
4351,16
4352,16
4353,16
4354,16
4355,16
4356,16
4357,16
4358,16
4359,16
4360,16
4361,16
4362,16
4363,16
4364,16
4365,16
4366,16
4367,16
4368,16
4369,16
4370,16
4371,16
4372,16
4373,16
4374,16
4375,16
4376,16
4377,16
4378,16
4379,16
4380,16
4381,16
4382,16
4383,16
4384,16
4385,16
4386,16
4387,16
4388,16
4389,16
4390,16
4391,16
4392,16
4393,16
4394,16
4395,16
4396,16
4397,16
4398,16
4399,16
4400,16
4401,16
4402,16
4403,16
4404,16
4405,16
4406,16
4407,16
4408,16
4409,16
4410,16
4411,16
4412,16
4413,16
4414,16
4415,16
4416,16
4417,16
4418,16
4419,16
4420,16
4421,16
4422,16
4423,16
4424,16
4425,16
4426,16
4427,16
4428,16
4429,16
4430,16
4431,16
4432,16
4433,16
4434,16
4435,16
4436,16
4437,16
4438,16
4439,16
4440,16
4441,16
4442,16
4443,16
4444,16
4445,16
4446,16
4447,16
4448,16
4449,16
4450,16
4451,16
4452,16
4453,16
4454,16
4455,16
4456,16
4457,16
4458,16
4459,16
4460,16
4461,16
4462,16
4463,16
4464,16
4465,16
4466,16
4467,16
4468,16
4469,16
4470,16
4471,16
4472,16
4473,16
4474,16
4475,16
4476,16
4477,16
4478,17
4479,17
4480,17
4481,17
4482,17
4483,17
4484,17
4485,17
4486,17
4487,17
4488,17
4489,17
4490,17
4491,17
4492,17
4493,17
4494,17
4495,17
4496,17
4497,17
4498,17
4499,17
4500,17
4501,18
4502,18
4503,17
4504,17
4505,17
4506,17
4507,17
4508,17
4509,17
4510,17
4511,17
4512,17
4513,17
4514,17
4515,17
4516,17
4517,17
4518,17
4519,17
4520,17
4521,17
4522,17
4523,17
4524,17
4525,17
4526,17
4527,17
4528,17
4529,17
4530,17
4531,17
4532,17
4533,17
4534,17
4535,17
4536,17
4537,17
4538,17
4539,17
4540,17
4541,17
4542,17
4543,17
4544,17
4545,17
4546,17
4547,17
4548,17
4549,17
4550,17
4551,17
4552,17
4553,17
4554,17
4555,17
4556,17
4557,17
4558,17
4559,17
4560,17
4561,17
4562,17
4563,17
4564,17
4565,17
4566,17
4567,17
4568,17
4569,17
4570,17
4571,17
4572,17
4573,17
4574,17
4575,17
4576,17
4577,17
4578,17
4579,17
4580,17
4581,17
4582,17
4583,17
4584,17
4585,17
4586,17
4587,17
4588,17
4589,17
4590,17
4591,17
4592,17
4593,17
4594,17
4595,17
4596,17
4597,17
4598,17
4599,17
4600,17
4601,17
4602,17
4603,17
4604,17
4605,17
4606,17
4607,17
4608,17
4609,17
4610,17
4611,17
4612,17
4613,17
4614,17
4615,17
4616,17
4617,17
4618,17
4619,17
4620,17
4621,17
4622,17
4623,17
4624,17
4625,17
4626,17
4627,17
4628,17
4629,17
4630,17
4631,17
4632,17
4633,17
4634,17
4635,17
4636,17
4637,17
4638,17
4639,18
4640,18
4641,17
4642,17
4643,17
4644,17
4645,17
4646,17
4647,17
4648,17
4649,17
4650,17
4651,17
4652,17
4653,17
4654,17
4655,17
4656,17
4657,17
4658,17
4659,17
4660,17
4661,18
4662,17
4663,17
4664,17
4665,17
4666,17
4667,17
4668,17
4669,17
4670,17
4671,17
4672,17
4673,17
4674,17
4675,17
4676,17
4677,17
4678,17
4679,17
4680,17
4681,17
4682,17
4683,17
4684,17
4685,17
4686,17
4687,17
4688,17
4689,17
4690,17
4691,17
4692,17
4693,17
4694,17
4695,17
4696,17
4697,17
4698,17
4699,17
4700,17
4701,17
4702,17
4703,17
4704,17
4705,17
4706,17
4707,17
4708,17
4709,17
4710,17
4711,17
4712,17
4713,17
4714,17
4715,17
4716,17
4717,17
4718,17
4719,17
4720,17
4721,17
4722,17
4723,17
4724,17
4725,17
4726,17
4727,17
4728,17
4729,17
4730,17
4731,17
4732,17
4733,17
4734,17
4735,17
4736,17
4737,17
4738,17
4739,17
4740,17
4741,17
4742,17
4743,17
4744,17
4745,17
4746,17
4747,17
4748,17
4749,17
4750,17
4751,17
4752,17
4753,17
4754,17
4755,17
4756,17
4757,17
4758,17
4759,17
4760,17
4761,17
4762,17
4763,17
4764,17
4765,17
4766,17
4767,18
4768,17
4769,17
4770,17
4771,17
4772,17
4773,17
4774,17
4775,17
4776,17
4777,17
4778,17
4779,17
4780,17
4781,17
4782,17
4783,17
4784,17
4785,17
4786,17
4787,17
4788,17
4789,17
4790,17
4791,17
4792,17
4793,17
4794,17
4795,17
4796,17
4797,17
4798,17
4799,17
4800,17
4801,17
4802,17
4803,17
4804,17
4805,17
4806,17
4807,17
4808,17
4809,17
4810,17
4811,17
4812,17
4813,17
4814,17
4815,17
4816,17
4817,17
4818,17
4819,17
4820,17
4821,17
4822,17
4823,17
4824,17
4825,17
4826,17
4827,17
4828,17
4829,17
4830,17
4831,17
4832,17
4833,17
4834,17
4835,17
4836,17
4837,17
4838,17
4839,17
4840,18
4841,18
4842,17
4843,17
4844,17
4845,17
4846,17
4847,17
4848,17
4849,17
4850,17
4851,17
4852,17
4853,17
4854,17
4855,17
4856,17
4857,17
4858,17
4859,17
4860,17
4861,17
4862,17
4863,17
4864,17
4865,17
4866,17
4867,17
4868,17
4869,17
4870,17
4871,17
4872,17
4873,17
4874,17
4875,17
4876,17
4877,17
4878,17
4879,17
4880,17
4881,17
4882,17
4883,17
4884,17
4885,17
4886,17
4887,17
4888,17
4889,17
4890,17
4891,17
4892,17
4893,17
4894,17
4895,17
4896,17
4897,17
4898,17
4899,17
4900,17
4901,17
4902,17
4903,17
4904,17
4905,17
4906,17
4907,17
4908,17
4909,17
4910,17
4911,17
4912,17
4913,17
4914,17
4915,17
4916,17
4917,17
4918,17
4919,17
4920,17
4921,17
4922,17
4923,17
4924,17
4925,17
4926,17
4927,17
4928,17
4929,17
4930,17
4931,17
4932,17
4933,17
4934,17
4935,17
4936,17
4937,17
4938,17
4939,17
4940,17
4941,17
4942,17
4943,17
4944,17
4945,17
4946,17
4947,17
4948,17
4949,17
4950,17
4951,17
4952,17
4953,17
4954,17
4955,17
4956,17
4957,17
4958,17
4959,17
4960,17
4961,17
4962,17
4963,17
4964,17
4965,17
4966,17
4967,17
4968,17
4969,17
4970,17
4971,17
4972,17
4973,17
4974,17
4975,17
4976,17
4977,17
4978,17
4979,17
4980,17
4981,17
4982,17
4983,17
4984,17
4985,17
4986,17
4987,17
4988,17
4989,17
4990,17
4991,17
4992,17
4993,17
4994,17
4995,17
4996,17
4997,17
4998,17
4999,17
5000,18
5001,18
5002,18
5003,18
5004,18
5005,18
5006,18
5007,18
5008,18
5009,18
5010,18
5011,18
5012,18
5013,18
5014,18
5015,18
5016,18
5017,18
5018,18
5019,18
5020,18
5021,18
5022,18
5023,18
5024,18
5025,18
5026,18
5027,18
5028,18
5029,18
5030,18
5031,18
5032,18
5033,18
5034,18
5035,17
5036,17
5037,17
5038,17
5039,17
5040,17
5041,17
5042,17
5043,17
5044,17
5045,17
5046,17
5047,17
5048,17
5049,17
5050,17
5051,17
5052,17
5053,17
5054,17
5055,17
5056,17
5057,17
5058,17
5059,17
5060,17
5061,17
5062,17
5063,17
5064,17
5065,17
5066,17
5067,17
5068,17
5069,17
5070,17
5071,17
5072,17
5073,17
5074,17
5075,17
5076,17
5077,17
5078,17
5079,17
5080,17
5081,17
5082,17
5083,17
5084,17
5085,17
5086,17
5087,18
5088,18
5089,18
5090,18
5091,18
5092,18
5093,18
5094,17
5095,18
5096,17
5097,17
5098,17
5099,17
5100,17
5101,17
5102,17
5103,17
5104,17
5105,17
5106,17
5107,17
5108,17
5109,17
5110,17
5111,17
5112,17
5113,17
5114,17
5115,17
5116,17
5117,17
5118,17
5119,17
5120,17
5121,17
5122,17
5123,17
5124,17
5125,17
5126,17
5127,17
5128,17
5129,17
5130,17
5131,17
5132,17
5133,17
5134,17
5135,17
5136,17
5137,17
5138,17
5139,17
5140,17
5141,17
5142,17
5143,17
5144,17
5145,17
5146,17
5147,17
5148,17
5149,17
5150,17
5151,17
5152,17
5153,17
5154,17
5155,17
5156,18
5157,17
5158,17
5159,17
5160,17
5161,17
5162,17
5163,17
5164,17
5165,17
5166,17
5167,17
5168,17
5169,17
5170,17
5171,17
5172,17
5173,17
5174,17
5175,17
5176,17
5177,17
5178,17
5179,17
5180,17
5181,17
5182,17
5183,17
5184,17
5185,17
5186,17
5187,17
5188,17
5189,17
5190,17
5191,17
5192,17
5193,17
5194,17
5195,17
5196,17
5197,17
5198,17
5199,17
5200,17
5201,17
5202,17
5203,17
5204,17
5205,17
5206,17
5207,17
5208,17
5209,17
5210,17
5211,17
5212,17
5213,17
5214,17
5215,17
5216,17
5217,17
5218,17
5219,17
5220,17
5221,17
5222,17
5223,17
5224,17
5225,17
5226,17
5227,17
5228,17
5229,17
5230,17
5231,17
5232,17
5233,17
5234,17
5235,17
5236,17
5237,17
5238,17
5239,17
5240,17
5241,17
5242,17
5243,17
5244,17
5245,17
5246,17
5247,17
5248,17
5249,17
5250,17
5251,17
5252,17
5253,17
5254,17
5255,17
5256,17
5257,17
5258,17
5259,17
5260,17
5261,17
5262,17
5263,17
5264,17
5265,17
5266,17
5267,17
5268,17
5269,17
5270,17
5271,17
5272,17
5273,17
5274,17
5275,17
5276,17
5277,17
5278,17
5279,17
5280,17
5281,17
5282,17
5283,17
5284,17
5285,17
5286,17
5287,17
5288,17
5289,17
5290,17
5291,17
5292,17
5293,17
5294,17
5295,17
5296,17
5297,17
5298,17
5299,17
5300,17
5301,17
5302,17
5303,17
5304,17
5305,17
5306,17
5307,17
5308,17
5309,17
5310,17
5311,18
5312,18
5313,17
5314,17
5315,18
5316,18
5317,18
5318,18
5319,18
5320,18
5321,18
5322,18
5323,18
5324,18
5325,18
5326,18
5327,18
5328,18
5329,18
5330,18
5331,18
5332,18
5333,18
5334,18
5335,18
5336,18
5337,18
5338,18
5339,18
5340,18
5341,18
5342,18
5343,18
5344,18
5345,18
5346,18
5347,18
5348,18
5349,18
5350,18
5351,18
5352,18
5353,18
5354,18
5355,18
5356,18
5357,18
5358,18
5359,18
5360,18
5361,18
5362,18
5363,18
5364,18
5365,18
5366,18
5367,18
5368,18
5369,18
5370,18
5371,18
5372,18
5373,18
5374,18
5375,18
5376,18
5377,18
5378,18
5379,18
5380,18
5381,18
5382,18
5383,19
5384,18
5385,18
5386,18
5387,18
5388,18
5389,18
5390,18
5391,18
5392,18
5393,18
5394,18
5395,18
5396,18
5397,18
5398,18
5399,18
5400,18
5401,18
5402,18
5403,18
5404,18
5405,18
5406,18
5407,18
5408,18
5409,18
5410,18
5411,18
5412,18
5413,18
5414,18
5415,18
5416,18
5417,18
5418,18
5419,18
5420,18
5421,18
5422,18
5423,18
5424,18
5425,18
5426,18
5427,18
5428,18
5429,18
5430,18
5431,18
5432,18
5433,18
5434,18
5435,18
5436,18
5437,18
5438,18
5439,18
5440,18
5441,18
5442,18
5443,18
5444,18
5445,18
5446,18
5447,18
5448,18
5449,18
5450,18
5451,18
5452,18
5453,18
5454,18
5455,18
5456,18
5457,18
5458,18
5459,18
5460,18
5461,18
5462,18
5463,18
5464,18
5465,18
5466,18
5467,18
5468,18
5469,18
5470,18
5471,18
5472,18
5473,18
5474,18
5475,18
5476,18
5477,18
5478,18
5479,18
5480,18
5481,18
5482,18
5483,18
5484,18
5485,18
5486,18
5487,18
5488,18
5489,18
5490,18
5491,18
5492,18
5493,18
5494,18
5495,18
5496,18
5497,18
5498,18
5499,18
5500,18
5501,18
5502,18
5503,18
5504,18
5505,18
5506,18
5507,18
5508,18
5509,18
5510,18
5511,18
5512,18
5513,18
5514,18
5515,18
5516,18
5517,18
5518,18
5519,18
5520,18
5521,18
5522,18
5523,18
5524,18
5525,18
5526,18
5527,18
5528,18
5529,18
5530,18
5531,18
5532,18
5533,18
5534,18
5535,18
5536,18
5537,18
5538,18
5539,18
5540,18
5541,18
5542,18
5543,18
5544,18
5545,18
5546,18
5547,18
5548,18
5549,18
5550,18
5551,18
5552,18
5553,18
5554,18
5555,18
5556,18
5557,18
5558,18
5559,18
5560,18
5561,18
5562,19
5563,19
5564,18
5565,18
5566,19
5567,18
5568,18
5569,18
5570,18
5571,18
5572,18
5573,18
5574,18
5575,18
5576,18
5577,18
5578,18
5579,18
5580,18
5581,19
5582,19
5583,18
5584,18
5585,18
5586,18
5587,18
5588,18
5589,18
5590,18
5591,18
5592,18
5593,18
5594,19
5595,19
5596,19
5597,19
5598,19
5599,19
5600,19
5601,19
5602,19
5603,19
5604,19
5605,19
5606,19
5607,19
5608,19
5609,19
5610,19
5611,19
5612,19
5613,19
5614,19
5615,19
5616,19
5617,19
5618,19
5619,19
5620,19
5621,19
5622,19
5623,19
5624,19
5625,19
5626,19
5627,19
5628,19
5629,19
5630,19
5631,19
5632,19
5633,19
5634,19
5635,19
5636,19
5637,19
5638,19
5639,19
5640,19
5641,19
5642,19
5643,19
5644,19
5645,19
5646,19
5647,19
5648,19
5649,19
5650,19
5651,19
5652,19
5653,19
5654,19
5655,19
5656,19
5657,19
5658,19
5659,19
5660,19
5661,19
5662,19
5663,19
5664,19
5665,19
5666,19
5667,19
5668,19
5669,19
5670,19
5671,19
5672,19
5673,19
5674,19
5675,19
5676,19
5677,19
5678,19
5679,19
5680,19
5681,19
5682,19
5683,19
5684,19
5685,19
5686,19
5687,19
5688,19
5689,19
5690,19
5691,19
5692,19
5693,19
5694,19
5695,19
5696,19
5697,19
5698,19
5699,19
5700,18
5701,18
5702,18
5703,18
5704,18
5705,18
5706,18
5707,18
5708,18
5709,18
5710,18
5711,18
5712,18
5713,18
5714,18
5715,18
5716,18
5717,18
5718,18
5719,18
5720,18
5721,18
5722,18
5723,18
5724,18
5725,18
5726,18
5727,18
5728,18
5729,18
5730,18
5731,18
5732,18
5733,18
5734,18
5735,18
5736,18
5737,18
5738,18
5739,18
5740,18
5741,18
5742,18
5743,18
5744,18
5745,18
5746,18
5747,18
5748,18
5749,18
5750,18
5751,18
5752,18
5753,18
5754,18
5755,18
5756,18
5757,18
5758,19
5759,19
5760,19
5761,18
5762,18
5763,18
5764,18
5765,18
5766,18
5767,18
5768,18
5769,18
5770,18
5771,18
5772,18
5773,18
5774,18
5775,18
5776,18
5777,18
5778,18
5779,18
5780,18
5781,18
5782,18
5783,18
5784,18
5785,18
5786,18
5787,18
5788,18
5789,18
5790,18
5791,18
5792,18
5793,18
5794,18
5795,18
5796,18
5797,18
5798,18
5799,18
5800,18
5801,18
5802,18
5803,18
5804,18
5805,18
5806,18
5807,18
5808,18
5809,18
5810,18
5811,18
5812,18
5813,18
5814,18
5815,18
5816,18
5817,18
5818,18
5819,18
5820,18
5821,18
5822,18
5823,18
5824,18
5825,18
5826,18
5827,18
5828,18
5829,18
5830,18
5831,18
5832,18
5833,18
5834,18
5835,18
5836,18
5837,18
5838,18
5839,18
5840,18
5841,18
5842,18
5843,18
5844,18
5845,18
5846,18
5847,18
5848,18
5849,18
5850,18
5851,18
5852,18
5853,18
5854,18
5855,18
5856,19
5857,19
5858,18
5859,18
5860,18
5861,18
5862,18
5863,18
5864,18
5865,18
5866,18
5867,18
5868,18
5869,18
5870,18
5871,18
5872,18
5873,18
5874,18
5875,18
5876,18
5877,18
5878,18
5879,18
5880,18
5881,18
5882,18
5883,18
5884,18
5885,18
5886,18
5887,18
5888,18
5889,18
5890,18
5891,18
5892,18
5893,18
5894,18
5895,18
5896,18
5897,18
5898,18
5899,18
5900,18
5901,18
5902,18
5903,18
5904,18
5905,18
5906,18
5907,18
5908,18
5909,18
5910,18
5911,18
5912,18
5913,18
5914,18
5915,18
5916,18
5917,18
5918,18
5919,18
5920,18
5921,18
5922,18
5923,18
5924,18
5925,18
5926,18
5927,18
5928,18
5929,19
5930,19
5931,19
5932,19
5933,19
5934,18
5935,18
5936,18
5937,18
5938,18
5939,18
5940,18
5941,18
5942,18
5943,18
5944,18
5945,18
5946,18
5947,18
5948,18
5949,18
5950,18
5951,18
5952,18
5953,18
5954,18
5955,18
5956,18
5957,18
5958,18
5959,18
5960,18
5961,18
5962,18
5963,18
5964,19
5965,18
5966,19
5967,19
5968,19
5969,19
5970,19
5971,19
5972,19
5973,19
5974,19
5975,19
5976,19
5977,19
5978,19
5979,18
5980,18
5981,18
5982,18
5983,18
5984,18
5985,18
5986,18
5987,18
5988,18
5989,18
5990,18
5991,18
5992,18
5993,18
5994,18
5995,18
5996,18
5997,18
5998,18
5999,18
6000,18
6001,18
6002,18
6003,18
6004,18
6005,18
6006,18
6007,18
6008,18
6009,18
6010,18
6011,18
6012,18
6013,18
6014,18
6015,18
6016,18
6017,18
6018,18
6019,18
6020,18
6021,18
6022,18
6023,18
6024,18
6025,18
6026,18
6027,18
6028,18
6029,18
6030,18
6031,18
6032,18
6033,18
6034,18
6035,18
6036,18
6037,18
6038,18
6039,18
6040,18
6041,18
6042,18
6043,18
6044,18
6045,18
6046,18
6047,18
6048,18
6049,18
6050,18
6051,18
6052,18
6053,18
6054,18
6055,18
6056,18
6057,18
6058,18
6059,18
6060,18
6061,18
6062,18
6063,18
6064,18
6065,18
6066,18
6067,18
6068,18
6069,18
6070,18
6071,18
6072,18
6073,18
6074,18
6075,18
6076,18
6077,18
6078,18
6079,18
6080,18
6081,18
6082,18
6083,18
6084,18
6085,18
6086,18
6087,18
6088,18
6089,18
6090,18
6091,18
6092,18
6093,18
6094,18
6095,18
6096,18
6097,19
6098,18
6099,18
6100,18
6101,18
6102,18
6103,18
6104,18
6105,18
6106,18
6107,18
6108,18
6109,18
6110,18
6111,18
6112,18
6113,18
6114,18
6115,18
6116,18
6117,18
6118,18
6119,18
6120,18
6121,18
6122,18
6123,18
6124,18
6125,18
6126,18
6127,18
6128,18
6129,18
6130,18
6131,18
6132,18
6133,19
6134,18
6135,18
6136,18
6137,18
6138,18
6139,18
6140,18
6141,18
6142,18
6143,18
6144,18
6145,18
6146,18
6147,18
6148,18
6149,18
6150,18
6151,18
6152,18
6153,18
6154,18
6155,18
6156,18
6157,18
6158,18
6159,18
6160,18
6161,18
6162,18
6163,18
6164,18
6165,18
6166,18
6167,18
6168,18
6169,18
6170,18
6171,18
6172,18
6173,18
6174,18
6175,18
6176,18
6177,18
6178,18
6179,18
6180,18
6181,18
6182,18
6183,18
6184,18
6185,18
6186,18
6187,18
6188,18
6189,18
6190,18
6191,18
6192,18
6193,18
6194,18
6195,18
6196,18
6197,18
6198,18
6199,18
6200,18
6201,18
6202,18
6203,18
6204,18
6205,18
6206,18
6207,18
6208,18
6209,18
6210,18
6211,18
6212,18
6213,18
6214,18
6215,18
6216,18
6217,19
6218,18
6219,18
6220,18
6221,18
6222,18
6223,18
6224,18
6225,18
6226,18
6227,18
6228,18
6229,18
6230,18
6231,18
6232,18
6233,18
6234,18
6235,19
6236,19
6237,18
6238,18
6239,19
6240,19
6241,19
6242,19
6243,19
6244,19
6245,19
6246,19
6247,19
6248,19
6249,19
6250,19
6251,19
6252,19
6253,19
6254,19
6255,19
6256,19
6257,19
6258,19
6259,19
6260,19
6261,19
6262,19
6263,19
6264,19
6265,19
6266,19
6267,19
6268,19
6269,19
6270,19
6271,19
6272,19
6273,19
6274,19
6275,19
6276,18
6277,18
6278,18
6279,18
6280,18
6281,18
6282,18
6283,18
6284,18
6285,18
6286,18
6287,18
6288,18
6289,18
6290,18
6291,18
6292,18
6293,18
6294,18
6295,18
6296,18
6297,18
6298,18
6299,18
6300,18
6301,18
6302,18
6303,18
6304,18
6305,18
6306,18
6307,18
6308,18
6309,18
6310,18
6311,18
6312,18
6313,18
6314,18
6315,18
6316,18
6317,18
6318,18
6319,18
6320,18
6321,18
6322,18
6323,18
6324,18
6325,18
6326,18
6327,18
6328,18
6329,18
6330,18
6331,18
6332,18
6333,18
6334,18
6335,18
6336,18
6337,18
6338,18
6339,18
6340,18
6341,18
6342,18
6343,18
6344,18
6345,18
6346,18
6347,18
6348,18
6349,18
6350,18
6351,18
6352,18
6353,18
6354,18
6355,18
6356,18
6357,18
6358,18
6359,18
6360,18
6361,18
6362,18
6363,18
6364,18
6365,18
6366,18
6367,18
6368,18
6369,18
6370,18
6371,18
6372,18
6373,18
6374,18
6375,18
6376,18
6377,18
6378,18
6379,18
6380,18
6381,18
6382,18
6383,18
6384,18
6385,18
6386,18
6387,18
6388,18
6389,18
6390,18
6391,18
6392,18
6393,18
6394,18
6395,18
6396,18
6397,18
6398,18
6399,18
6400,18
6401,18
6402,18
6403,18
6404,18
6405,18
6406,18
6407,18
6408,18
6409,18
6410,18
6411,18
6412,18
6413,18
6414,18
6415,18
6416,18
6417,18
6418,18
6419,18
6420,18
6421,18
6422,18
6423,18
6424,18
6425,18
6426,18
6427,18
6428,18
6429,18
6430,18
6431,18
6432,18
6433,18
6434,18
6435,18
6436,18
6437,18
6438,18
6439,18
6440,18
6441,18
6442,18
6443,18
6444,18
6445,18
6446,18
6447,18
6448,18
6449,18
6450,18
6451,18
6452,18
6453,18
6454,18
6455,18
6456,18
6457,18
6458,18
6459,18
6460,18
6461,18
6462,18
6463,18
6464,18
6465,18
6466,18
6467,18
6468,18
6469,18
6470,18
6471,18
6472,18
6473,18
6474,18
6475,18
6476,18
6477,18
6478,18
6479,18
6480,18
6481,18
6482,18
6483,18
6484,18
6485,18
6486,18
6487,18
6488,18
6489,18
6490,18
6491,18
6492,18
6493,18
6494,18
6495,18
6496,18
6497,18
6498,18
6499,18
6500,18
6501,18
6502,18
6503,19
6504,19
6505,18
6506,18
6507,18
6508,18
6509,18
6510,18
6511,18
6512,18
6513,18
6514,18
6515,18
6516,18
6517,18
6518,18
6519,18
6520,18
6521,18
6522,18
6523,18
6524,18
6525,18
6526,18
6527,18
6528,19
6529,18
6530,18
6531,18
6532,18
6533,18
6534,18
6535,18
6536,18
6537,18
6538,18
6539,18
6540,18
6541,18
6542,18
6543,18
6544,18
6545,18
6546,18
6547,18
6548,18
6549,18
6550,18
6551,18
6552,18
6553,18
6554,18
6555,18
6556,18
6557,18
6558,18
6559,18
6560,18
6561,18
6562,18
6563,19
6564,18
6565,18
6566,18
6567,18
6568,18
6569,18
6570,18
6571,18
6572,18
6573,18
6574,18
6575,18
6576,18
6577,18
6578,18
6579,18
6580,18
6581,18
6582,18
6583,18
6584,18
6585,18
6586,18
6587,18
6588,18
6589,18
6590,18
6591,18
6592,18
6593,18
6594,18
6595,18
6596,19
6597,19
6598,19
6599,18
6600,18
6601,18
6602,18
6603,18
6604,18
6605,18
6606,18
6607,18
6608,18
6609,18
6610,18
6611,18
6612,18
6613,18
6614,18
6615,18
6616,18
6617,18
6618,18
6619,18
6620,18
6621,18
6622,18
6623,18
6624,18
6625,18
6626,18
6627,18
6628,18
6629,18
6630,18
6631,18
6632,18
6633,18
6634,18
6635,18
6636,18
6637,18
6638,18
6639,18
6640,18
6641,18
6642,18
6643,18
6644,18
6645,18
6646,18
6647,18
6648,18
6649,18
6650,18
6651,18
6652,18
6653,18
6654,18
6655,18
6656,18
6657,18
6658,18
6659,18
6660,18
6661,18
6662,18
6663,18
6664,18
6665,18
6666,18
6667,18
6668,19
6669,19
6670,19
6671,18
6672,18
6673,18
6674,18
6675,18
6676,18
6677,18
6678,18
6679,19
6680,19
6681,18
6682,18
6683,19
6684,19
6685,19
6686,19
6687,18
6688,18
6689,18
6690,18
6691,18
6692,18
6693,18
6694,18
6695,18
6696,18
6697,18
6698,18
6699,18
6700,18
6701,18
6702,18
6703,18
6704,18
6705,18
6706,18
6707,18
6708,19
6709,19
6710,19
6711,18
6712,18
6713,18
6714,18
6715,18
6716,18
6717,18
6718,18
6719,18
6720,18
6721,18
6722,18
6723,18
6724,18
6725,18
6726,18
6727,18
6728,18
6729,18
6730,18
6731,18
6732,18
6733,18
6734,18
6735,18
6736,18
6737,18
6738,18
6739,18
6740,18
6741,18
6742,18
6743,18
6744,18
6745,18
6746,18
6747,18
6748,18
6749,18
6750,18
6751,18
6752,18
6753,18
6754,18
6755,18
6756,18
6757,18
6758,18
6759,18
6760,18
6761,18
6762,18
6763,18
6764,18
6765,18
6766,18
6767,18
6768,18
6769,18
6770,18
6771,18
6772,18
6773,18
6774,18
6775,18
6776,18
6777,18
6778,18
6779,18
6780,18
6781,18
6782,18
6783,18
6784,18
6785,18
6786,18
6787,18
6788,18
6789,18
6790,18
6791,18
6792,18
6793,18
6794,18
6795,18
6796,18
6797,18
6798,18
6799,18
6800,18
6801,18
6802,18
6803,18
6804,18
6805,18
6806,18
6807,18
6808,18
6809,18
6810,18
6811,18
6812,18
6813,18
6814,18
6815,18
6816,18
6817,18
6818,18
6819,18
6820,18
6821,18
6822,18
6823,18
6824,18
6825,18
6826,18
6827,18
6828,18
6829,18
6830,18
6831,18
6832,18
6833,18
6834,18
6835,18
6836,18
6837,18
6838,18
6839,18
6840,18
6841,18
6842,18
6843,18
6844,18
6845,18
6846,18
6847,18
6848,18
6849,18
6850,18
6851,18
6852,18
6853,18
6854,18
6855,18
6856,18
6857,18
6858,18
6859,18
6860,18
6861,18
6862,18
6863,18
6864,18
6865,18
6866,18
6867,18
6868,18
6869,18
6870,18
6871,18
6872,18
6873,18
6874,18
6875,18
6876,18
6877,18
6878,18
6879,18
6880,18
6881,18
6882,18
6883,18
6884,18
6885,18
6886,18
6887,18
6888,18
6889,18
6890,18
6891,18
6892,18
6893,18
6894,18
6895,18
6896,18
6897,18
6898,18
6899,18
6900,18
6901,19
6902,18
6903,18
6904,18
6905,18
6906,18
6907,18
6908,18
6909,18
6910,18
6911,18
6912,18
6913,18
6914,18
6915,18
6916,18
6917,18
6918,18
6919,18
6920,18
6921,18
6922,18
6923,18
6924,18
6925,18
6926,18
6927,18
6928,18
6929,18
6930,18
6931,18
6932,18
6933,18
6934,18
6935,18
6936,18
6937,18
6938,18
6939,18
6940,18
6941,18
6942,18
6943,18
6944,18
6945,18
6946,18
6947,18
6948,18
6949,18
6950,18
6951,18
6952,18
6953,18
6954,18
6955,18
6956,18
6957,18
6958,18
6959,18
6960,18
6961,18
6962,18
6963,18
6964,18
6965,18
6966,18
6967,18
6968,18
6969,18
6970,18
6971,18
6972,18
6973,18
6974,18
6975,18
6976,18
6977,18
6978,18
6979,18
6980,18
6981,18
6982,18
6983,18
6984,18
6985,18
6986,18
6987,18
6988,18
6989,18
6990,18
6991,18
6992,18
6993,18
6994,18
6995,18
6996,18
6997,18
6998,18
6999,18
7000,18
7001,18
7002,18
7003,18
7004,18
7005,18
7006,18
7007,18
7008,18
7009,18
7010,18
7011,18
7012,18
7013,18
7014,18
7015,18
7016,18
7017,18
7018,18
7019,18
7020,18
7021,18
7022,18
7023,18
7024,18
7025,18
7026,18
7027,18
7028,18
7029,18
7030,18
7031,18
7032,18
7033,18
7034,18
7035,18
7036,18
7037,18
7038,18
7039,18
7040,18
7041,18
7042,18
7043,18
7044,18
7045,18
7046,18
7047,18
7048,18
7049,18
7050,18
7051,18
7052,18
7053,18
7054,18
7055,18
7056,18
7057,19
7058,18
7059,18
7060,18
7061,18
7062,18
7063,18
7064,18
7065,18
7066,18
7067,18
7068,18
7069,18
7070,18
7071,18
7072,18
7073,18
7074,18
7075,18
7076,18
7077,18
7078,18
7079,18
7080,18
7081,18
7082,18
7083,18
7084,19
7085,18
7086,18
7087,18
7088,18
7089,18
7090,18
7091,18
7092,18
7093,18
7094,18
7095,18
7096,18
7097,18
7098,18
7099,18
7100,18
7101,18
7102,18
7103,18
7104,18
7105,18
7106,18
7107,18
7108,18
7109,18
7110,18
7111,18
7112,18
7113,18
7114,18
7115,18
7116,18
7117,18
7118,18
7119,18
7120,19
7121,19
7122,18
7123,18
7124,18
7125,18
7126,18
7127,18
7128,18
7129,18
7130,18
7131,18
7132,18
7133,18
7134,18
7135,18
7136,18
7137,18
7138,18
7139,18
7140,18
7141,18
7142,18
7143,18
7144,18
7145,18
7146,18
7147,18
7148,18
7149,18
7150,18
7151,18
7152,18
7153,18
7154,18
7155,18
7156,19
7157,19
7158,18
7159,18
7160,18
7161,18
7162,18
7163,18
7164,18
7165,18
7166,18
7167,18
7168,18
7169,18
7170,18
7171,18
7172,18
7173,18
7174,18
7175,18
7176,18
7177,18
7178,18
7179,18
7180,18
7181,18
7182,18
7183,18
7184,18
7185,18
7186,18
7187,18
7188,18
7189,18
7190,18
7191,18
7192,18
7193,18
7194,18
7195,18
7196,18
7197,18
7198,18
7199,18
7200,18
7201,18
7202,18
7203,18
7204,18
7205,18
7206,18
7207,18
7208,18
7209,18
7210,18
7211,18
7212,18
7213,18
7214,18
7215,18
7216,18
7217,18
7218,18
7219,18
7220,18
7221,18
7222,18
7223,18
7224,18
7225,18
7226,18
7227,18
7228,18
7229,18
7230,18
7231,18
7232,18
7233,18
7234,18
7235,18
7236,18
7237,18
7238,18
7239,18
7240,18
7241,18
7242,18
7243,18
7244,18
7245,18
7246,18
7247,18
7248,18
7249,18
7250,18
7251,18
7252,18
7253,18
7254,18
7255,18
7256,18
7257,18
7258,18
7259,18
7260,18
7261,18
7262,18
7263,18
7264,18
7265,18
7266,18
7267,18
7268,18
7269,18
7270,18
7271,18
7272,18
7273,18
7274,18
7275,18
7276,18
7277,18
7278,18
7279,18
7280,18
7281,18
7282,18
7283,18
7284,18
7285,18
7286,18
7287,18
7288,18
7289,18
7290,18
7291,18
7292,18
7293,18
7294,18
7295,18
7296,18
7297,18
7298,18
7299,18
7300,18
7301,18
7302,18
7303,18
7304,18
7305,18
7306,18
7307,18
7308,18
7309,18
7310,18
7311,18
7312,18
7313,18
7314,18
7315,18
7316,18
7317,18
7318,18
7319,18
7320,18
7321,18
7322,18
7323,18
7324,18
7325,18
7326,18
7327,18
7328,18
7329,18
7330,18
7331,18
7332,18
7333,18
7334,18
7335,18
7336,18
7337,18
7338,18
7339,18
7340,18
7341,18
7342,18
7343,18
7344,18
7345,18
7346,18
7347,18
7348,18
7349,18
7350,18
7351,18
7352,18
7353,18
7354,18
7355,18
7356,18
7357,18
7358,18
7359,18
7360,18
7361,18
7362,18
7363,18
7364,18
7365,18
7366,18
7367,18
7368,18
7369,18
7370,18
7371,18
7372,18
7373,18
7374,18
7375,18
7376,18
7377,18
7378,18
7379,18
7380,18
7381,18
7382,18
7383,18
7384,18
7385,18
7386,18
7387,18
7388,18
7389,18
7390,18
7391,18
7392,18
7393,18
7394,18
7395,18
7396,18
7397,18
7398,18
7399,18
7400,18
7401,18
7402,18
7403,18
7404,18
7405,18
7406,18
7407,18
7408,18
7409,18
7410,18
7411,18
7412,18
7413,18
7414,18
7415,18
7416,18
7417,18
7418,18
7419,18
7420,18
7421,18
7422,18
7423,18
7424,18
7425,18
7426,18
7427,18
7428,19
7429,19
7430,19
7431,19
7432,19
7433,19
7434,19
7435,19
7436,19
7437,19
7438,19
7439,19
7440,19
7441,19
7442,19
7443,19
7444,19
7445,19
7446,18
7447,18
7448,18
7449,18
7450,18
7451,18
7452,18
7453,18
7454,18
7455,18
7456,18
7457,18
7458,18
7459,18
7460,18
7461,18
7462,18
7463,18
7464,18
7465,18
7466,18
7467,18
7468,18
7469,18
7470,18
7471,18
7472,18
7473,18
7474,18
7475,18
7476,18
7477,18
7478,18
7479,18
7480,18
7481,18
7482,18
7483,19
7484,18
7485,18
7486,18
7487,18
7488,18
7489,18
7490,18
7491,18
7492,18
7493,18
7494,18
7495,18
7496,18
7497,18
7498,18
7499,18
7500,18
7501,18
7502,18
7503,18
7504,18
7505,18
7506,18
7507,18
7508,18
7509,18
7510,18
7511,18
7512,18
7513,18
7514,18
7515,18
7516,18
7517,18
7518,18
7519,18
7520,18
7521,18
7522,18
7523,18
7524,18
7525,18
7526,18
7527,18
7528,18
7529,19
7530,19
7531,18
7532,18
7533,18
7534,18
7535,18
7536,18
7537,18
7538,18
7539,18
7540,18
7541,18
7542,18
7543,18
7544,18
7545,18
7546,18
7547,18
7548,18
7549,18
7550,18
7551,18
7552,18
7553,18
7554,18
7555,18
7556,18
7557,18
7558,18
7559,18
7560,19
7561,19
7562,19
7563,19
7564,19
7565,19
7566,18
7567,18
7568,18
7569,18
7570,18
7571,18
7572,18
7573,18
7574,18
7575,18
7576,18
7577,18
7578,18
7579,18
7580,18
7581,18
7582,18
7583,18
7584,18
7585,18
7586,18
7587,18
7588,19
7589,18
7590,18
7591,18
7592,18
7593,18
7594,18
7595,18
7596,18
7597,18
7598,18
7599,18
7600,18
7601,18
7602,18
7603,18
7604,18
7605,18
7606,18
7607,18
7608,18
7609,18
7610,18
7611,18
7612,18
7613,18
7614,18
7615,18
7616,18
7617,18
7618,18
7619,18
7620,18
7621,18
7622,18
7623,18
7624,18
7625,18
7626,18
7627,18
7628,18
7629,18
7630,18
7631,18
7632,18
7633,18
7634,18
7635,18
7636,18
7637,18
7638,18
7639,18
7640,18
7641,18
7642,18
7643,18
7644,18
7645,18
7646,18
7647,18
7648,18
7649,18
7650,18
7651,18
7652,18
7653,18
7654,18
7655,18
7656,18
7657,18
7658,18
7659,18
7660,18
7661,18
7662,18
7663,18
7664,18
7665,18
7666,18
7667,18
7668,18
7669,18
7670,18
7671,18
7672,18
7673,18
7674,18
7675,18
7676,18
7677,18
7678,18
7679,18
7680,18
7681,18
7682,18
7683,18
7684,18
7685,18
7686,18
7687,18
7688,18
7689,18
7690,18
7691,18
7692,18
7693,18
7694,18
7695,18
7696,18
7697,18
7698,18
7699,18
7700,18
7701,18
7702,18
7703,18
7704,18
7705,18
7706,19
7707,18
7708,18
7709,18
7710,18
7711,18
7712,18
7713,18
7714,18
7715,18
7716,18
7717,18
7718,18
7719,18
7720,18
7721,18
7722,18
7723,18
7724,18
7725,18
7726,18
7727,18
7728,18
7729,18
7730,18
7731,18
7732,18
7733,18
7734,18
7735,18
7736,18
7737,18
7738,18
7739,18
7740,18
7741,18
7742,18
7743,18
7744,18
7745,18
7746,18
7747,18
7748,18
7749,18
7750,18
7751,18
7752,18
7753,18
7754,18
7755,18
7756,18
7757,18
7758,18
7759,18
7760,18
7761,18
7762,18
7763,18
7764,18
7765,18
7766,18
7767,18
7768,18
7769,18
7770,18
7771,18
7772,18
7773,18
7774,18
7775,18
7776,18
7777,18
7778,18
7779,18
7780,18
7781,18
7782,18
7783,18
7784,18
7785,18
7786,18
7787,18
7788,18
7789,18
7790,18
7791,18
7792,18
7793,18
7794,18
7795,18
7796,18
7797,18
7798,18
7799,18
7800,18
7801,18
7802,18
7803,18
7804,18
7805,18
7806,18
7807,18
7808,18
7809,18
7810,18
7811,18
7812,18
7813,18
7814,18
7815,18
7816,18
7817,18
7818,18
7819,18
7820,18
7821,18
7822,18
7823,18
7824,18
7825,18
7826,18
7827,18
7828,18
7829,18
7830,18
7831,18
7832,18
7833,18
7834,18
7835,18
7836,18
7837,18
7838,18
7839,18
7840,18
7841,18
7842,18
7843,18
7844,18
7845,18
7846,18
7847,18
7848,18
7849,18
7850,18
7851,18
7852,18
7853,18
7854,18
7855,18
7856,18
7857,18
7858,18
7859,18
7860,18
7861,18
7862,18
7863,18
7864,18
7865,18
7866,18
7867,18
7868,18
7869,18
7870,18
7871,18
7872,18
7873,18
7874,18
7875,18
7876,18
7877,18
7878,18
7879,18
7880,18
7881,18
7882,18
7883,18
7884,18
7885,18
7886,18
7887,18
7888,18
7889,18
7890,18
7891,18
7892,18
7893,18
7894,18
7895,18
7896,18
7897,18
7898,18
7899,18
7900,18
7901,18
7902,18
7903,18
7904,18
7905,18
7906,18
7907,18
7908,18
7909,18
7910,18
7911,18
7912,18
7913,18
7914,18
7915,18
7916,18
7917,18
7918,18
7919,18
7920,18
7921,18
7922,18
7923,18
7924,18
7925,18
7926,18
7927,18
7928,18
7929,18
7930,18
7931,18
7932,18
7933,18
7934,18
7935,18
7936,18
7937,18
7938,18
7939,18
7940,18
7941,18
7942,18
7943,18
7944,18
7945,18
7946,18
7947,18
7948,18
7949,18
7950,18
7951,18
7952,18
7953,18
7954,18
7955,18
7956,18
7957,18
7958,18
7959,18
7960,18
7961,18
7962,18
7963,18
7964,18
7965,18
7966,18
7967,18
7968,18
7969,18
7970,18
7971,18
7972,18
7973,18
7974,18
7975,18
7976,18
7977,18
7978,18
7979,18
7980,18
7981,18
7982,18
7983,18
7984,18
7985,18
7986,18
7987,18
7988,18
7989,18
7990,18
7991,18
7992,18
7993,18
7994,18
7995,18
7996,18
7997,18
7998,18
7999,18
8000,18
8001,18
8002,18
8003,18
8004,18
8005,18
8006,18
8007,18
8008,18
8009,18
8010,18
8011,18
8012,18
8013,18
8014,18
8015,18
8016,18
8017,18
8018,18
8019,18
8020,18
8021,18
8022,18
8023,18
8024,18
8025,18
8026,18
8027,18
8028,18
8029,18
8030,18
8031,18
8032,18
8033,18
8034,18
8035,18
8036,18
8037,18
8038,18
8039,18
8040,18
8041,18
8042,18
8043,18
8044,18
8045,18
8046,18
8047,18
8048,18
8049,18
8050,18
8051,18
8052,18
8053,18
8054,18
8055,18
8056,18
8057,18
8058,18
8059,18
8060,18
8061,18
8062,19
8063,18
8064,18
8065,18
8066,18
8067,18
8068,18
8069,18
8070,18
8071,18
8072,18
8073,18
8074,18
8075,18
8076,18
8077,18
8078,18
8079,18
8080,18
8081,18
8082,18
8083,18
8084,18
8085,18
8086,18
8087,18
8088,18
8089,18
8090,18
8091,18
8092,18
8093,18
8094,18
8095,18
8096,18
8097,18
8098,18
8099,18
8100,18
8101,18
8102,18
8103,18
8104,18
8105,18
8106,18
8107,18
8108,18
8109,18
8110,18
8111,18
8112,18
8113,18
8114,18
8115,18
8116,18
8117,18
8118,18
8119,18
8120,18
8121,18
8122,18
8123,18
8124,18
8125,18
8126,18
8127,18
8128,18
8129,18
8130,18
8131,18
8132,18
8133,18
8134,18
8135,18
8136,18
8137,18
8138,18
8139,18
8140,18
8141,18
8142,18
8143,18
8144,18
8145,18
8146,18
8147,18
8148,18
8149,18
8150,18
8151,18
8152,18
8153,18
8154,18
8155,18
8156,18
8157,18
8158,18
8159,18
8160,18
8161,18
8162,18
8163,18
8164,18
8165,18
8166,18
8167,18
8168,18
8169,18
8170,18
8171,18
8172,18
8173,18
8174,18
8175,18
8176,18
8177,18
8178,18
8179,18
8180,18
8181,18
8182,18
8183,18
8184,18
8185,18
8186,19
8187,19
8188,18
8189,18
8190,18
8191,18
8192,18
8193,18
8194,18
8195,18
8196,18
8197,18
8198,18
8199,18
8200,18
8201,18
8202,18
8203,18
8204,18
8205,18
8206,18
8207,18
8208,18
8209,18
8210,18
8211,18
8212,18
8213,18
8214,18
8215,18
8216,18
8217,18
8218,18
8219,18
8220,18
8221,18
8222,18
8223,18
8224,18
8225,18
8226,18
8227,18
8228,18
8229,19
8230,18
8231,18
8232,18
8233,18
8234,18
8235,18
8236,18
8237,18
8238,18
8239,18
8240,18
8241,18
8242,18
8243,18
8244,18
8245,18
8246,18
8247,18
8248,18
8249,18
8250,18
8251,18
8252,18
8253,18
8254,18
8255,18
8256,18
8257,18
8258,18
8259,18
8260,18
8261,18
8262,18
8263,18
8264,18
8265,18
8266,18
8267,18
8268,18
8269,18
8270,18
8271,19
8272,18
8273,18
8274,18
8275,18
8276,18
8277,18
8278,18
8279,18
8280,18
8281,18
8282,18
8283,18
8284,18
8285,18
8286,18
8287,18
8288,18
8289,18
8290,18
8291,18
8292,18
8293,18
8294,18
8295,18
8296,18
8297,18
8298,18
8299,18
8300,18
8301,18
8302,18
8303,18
8304,18
8305,18
8306,18
8307,18
8308,18
8309,18
8310,18
8311,18
8312,18
8313,18
8314,18
8315,18
8316,18
8317,18
8318,18
8319,18
8320,18
8321,18
8322,18
8323,18
8324,18
8325,18
8326,18
8327,18
8328,18
8329,18
8330,18
8331,18
8332,18
8333,18
8334,18
8335,18
8336,19
8337,19
8338,19
8339,19
8340,19
8341,19
8342,19
8343,19
8344,19
8345,19
8346,19
8347,19
8348,19
8349,19
8350,19
8351,19
8352,19
8353,19
8354,19
8355,19
8356,19
8357,19
8358,18
8359,18
8360,18
8361,18
8362,18
8363,18
8364,18
8365,18
8366,18
8367,18
8368,18
8369,18
8370,18
8371,18
8372,18
8373,18
8374,18
8375,18
8376,18
8377,18
8378,18
8379,18
8380,18
8381,18
8382,18
8383,18
8384,18
8385,19
8386,18
8387,18
8388,18
8389,18
8390,18
8391,18
8392,18
8393,18
8394,18
8395,18
8396,18
8397,18
8398,18
8399,18
8400,18
8401,18
8402,18
8403,18
8404,18
8405,18
8406,18
8407,18
8408,18
8409,18
8410,18
8411,18
8412,18
8413,18
8414,18
8415,18
8416,18
8417,18
8418,18
8419,18
8420,18
8421,18
8422,18
8423,18
8424,18
8425,18
8426,18
8427,18
8428,18
8429,18
8430,18
8431,18
8432,18
8433,18
8434,18
8435,18
8436,18
8437,18
8438,18
8439,18
8440,18
8441,18
8442,18
8443,18
8444,18
8445,18
8446,18
8447,18
8448,18
8449,18
8450,18
8451,18
8452,18
8453,18
8454,18
8455,18
8456,18
8457,18
8458,18
8459,18
8460,18
8461,18
8462,18
8463,18
8464,18
8465,18
8466,18
8467,18
8468,18
8469,18
8470,18
8471,18
8472,18
8473,18
8474,18
8475,18
8476,18
8477,18
8478,18
8479,18
8480,18
8481,18
8482,18
8483,18
8484,18
8485,18
8486,18
8487,18
8488,18
8489,18
8490,18
8491,18
8492,18
8493,18
8494,18
8495,18
8496,18
8497,18
8498,18
8499,18
8500,18
8501,18
8502,18
8503,18
8504,18
8505,18
8506,18
8507,18
8508,18
8509,18
8510,18
8511,18
8512,18
8513,18
8514,18
8515,18
8516,18
8517,18
8518,19
8519,19
8520,19
8521,20
8522,18
8523,18
8524,18
8525,18
8526,18
8527,18
8528,18
8529,18
8530,18
8531,18
8532,18
8533,18
8534,18
8535,18
8536,18
8537,18
8538,18
8539,18
8540,18
8541,18
8542,18
8543,18
8544,18
8545,18
8546,18
8547,18
8548,18
8549,18
8550,18
8551,18
8552,18
8553,19
8554,18
8555,18
8556,18
8557,18
8558,18
8559,18
8560,18
8561,18
8562,18
8563,18
8564,18
8565,18
8566,18
8567,18
8568,18
8569,18
8570,18
8571,18
8572,18
8573,18
8574,18
8575,18
8576,18
8577,18
8578,18
8579,18
8580,18
8581,18
8582,18
8583,18
8584,18
8585,18
8586,18
8587,18
8588,18
8589,18
8590,18
8591,18
8592,18
8593,18
8594,18
8595,18
8596,18
8597,18
8598,18
8599,18
8600,18
8601,18
8602,18
8603,18
8604,18
8605,18
8606,18
8607,18
8608,18
8609,18
8610,18
8611,18
8612,18
8613,18
8614,18
8615,18
8616,18
8617,18
8618,18
8619,18
8620,18
8621,18
8622,18
8623,18
8624,18
8625,18
8626,18
8627,18
8628,18
8629,18
8630,18
8631,19
8632,18
8633,18
8634,18
8635,18
8636,18
8637,18
8638,18
8639,18
8640,18
8641,18
8642,18
8643,18
8644,18
8645,18
8646,18
8647,18
8648,18
8649,18
8650,18
8651,18
8652,18
8653,18
8654,18
8655,19
8656,19
8657,19
8658,19
8659,19
8660,19
8661,19
8662,19
8663,19
8664,19
8665,19
8666,19
8667,19
8668,19
8669,19
8670,19
8671,19
8672,19
8673,19
8674,19
8675,19
8676,19
8677,18
8678,18
8679,18
8680,18
8681,18
8682,18
8683,18
8684,18
8685,18
8686,18
8687,18
8688,18
8689,18
8690,18
8691,18
8692,18
8693,18
8694,18
8695,18
8696,18
8697,18
8698,18
8699,18
8700,18
8701,18
8702,18
8703,18
8704,18
8705,18
8706,18
8707,18
8708,18
8709,18
8710,18
8711,18
8712,18
8713,18
8714,18
8715,18
8716,19
8717,18
8718,18
8719,18
8720,18
8721,18
8722,18
8723,18
8724,18
8725,18
8726,18
8727,18
8728,18
8729,18
8730,18
8731,18
8732,18
8733,18
8734,18
8735,18
8736,18
8737,18
8738,18
8739,18
8740,18
8741,18
8742,18
8743,18
8744,18
8745,18
8746,18
8747,18
8748,18
8749,18
8750,18
8751,18
8752,18
8753,18
8754,18
8755,18
8756,18
8757,18
8758,18
8759,18
8760,18
8761,18
8762,18
8763,18
8764,18
8765,18
8766,18
8767,18
8768,18
8769,18
8770,18
8771,18
8772,18
8773,18
8774,18
8775,18
8776,18
8777,18
8778,18
8779,18
8780,18
8781,18
8782,18
8783,18
8784,18
8785,18
8786,18
8787,18
8788,18
8789,18
8790,18
8791,18
8792,18
8793,18
8794,18
8795,18
8796,18
8797,18
8798,18
8799,18
8800,18
8801,18
8802,18
8803,18
8804,18
8805,18
8806,18
8807,18
8808,18
8809,18
8810,18
8811,18
8812,18
8813,18
8814,19
8815,18
8816,18
8817,18
8818,18
8819,18
8820,18
8821,18
8822,18
8823,18
8824,18
8825,18
8826,18
8827,18
8828,18
8829,18
8830,18
8831,18
8832,18
8833,18
8834,18
8835,18
8836,18
8837,18
8838,18
8839,18
8840,18
8841,18
8842,18
8843,18
8844,18
8845,18
8846,18
8847,18
8848,18
8849,18
8850,18
8851,18
8852,18
8853,18
8854,18
8855,18
8856,18
8857,18
8858,18
8859,18
8860,18
8861,18
8862,18
8863,18
8864,18
8865,18
8866,18
8867,18
8868,18
8869,18
8870,18
8871,18
8872,18
8873,18
8874,18
8875,18
8876,18
8877,18
8878,18
8879,18
8880,18
8881,18
8882,18
8883,19
8884,18
8885,18
8886,18
8887,18
8888,18
8889,18
8890,18
8891,18
8892,18
8893,18
8894,18
8895,18
8896,18
8897,18
8898,18
8899,18
8900,18
8901,18
8902,18
8903,18
8904,18
8905,18
8906,18
8907,18
8908,18
8909,18
8910,18
8911,18
8912,18
8913,18
8914,18
8915,18
8916,18
8917,18
8918,18
8919,18
8920,18
8921,18
8922,18
8923,18
8924,18
8925,18
8926,18
8927,18
8928,18
8929,18
8930,18
8931,18
8932,18
8933,18
8934,18
8935,18
8936,18
8937,18
8938,18
8939,19
8940,18
8941,18
8942,18
8943,18
8944,18
8945,18
8946,18
8947,18
8948,18
8949,18
8950,18
8951,18
8952,18
8953,18
8954,18
8955,18
8956,18
8957,18
8958,18
8959,18
8960,18
8961,18
8962,18
8963,18
8964,18
8965,18
8966,18
8967,18
8968,18
8969,18
8970,18
8971,18
8972,18
8973,18
8974,18
8975,18
8976,18
8977,18
8978,18
8979,18
8980,18
8981,18
8982,18
8983,18
8984,18
8985,18
8986,18
8987,18
8988,18
8989,18
8990,18
8991,18
8992,18
8993,18
8994,18
8995,18
8996,18
8997,18
8998,18
8999,18
9000,18
9001,18
9002,18
9003,18
9004,18
9005,18
9006,18
9007,18
9008,18
9009,18
9010,18
9011,18
9012,18
9013,18
9014,18
9015,18
9016,18
9017,18
9018,18
9019,18
9020,18
9021,18
9022,18
9023,18
9024,18
9025,18
9026,18
9027,18
9028,18
9029,18
9030,18
9031,18
9032,18
9033,18
9034,18
9035,18
9036,18
9037,18
9038,18
9039,18
9040,18
9041,18
9042,18
9043,18
9044,18
9045,18
9046,18
9047,18
9048,18
9049,18
9050,18
9051,18
9052,18
9053,18
9054,18
9055,18
9056,18
9057,18
9058,18
9059,18
9060,18
9061,18
9062,18
9063,18
9064,18
9065,18
9066,18
9067,19
9068,19
9069,19
9070,19
9071,19
9072,19
9073,19
9074,19
9075,19
9076,19
9077,19
9078,19
9079,19
9080,19
9081,19
9082,19
9083,19
9084,19
9085,19
9086,19
9087,20
9088,19
9089,19
9090,19
9091,19
9092,19
9093,19
9094,19
9095,19
9096,19
9097,19
9098,19
9099,19
9100,19
9101,19
9102,19
9103,19
9104,19
9105,19
9106,19
9107,19
9108,19
9109,19
9110,19
9111,19
9112,19
9113,19
9114,19
9115,19
9116,19
9117,19
9118,19
9119,19
9120,19
9121,19
9122,19
9123,19
9124,19
9125,19
9126,19
9127,19
9128,19
9129,19
9130,19
9131,19
9132,19
9133,19
9134,19
9135,19
9136,19
9137,19
9138,19
9139,19
9140,19
9141,19
9142,19
9143,19
9144,19
9145,19
9146,19
9147,19
9148,19
9149,19
9150,19
9151,19
9152,19
9153,19
9154,19
9155,19
9156,19
9157,19
9158,19
9159,19
9160,19
9161,19
9162,19
9163,19
9164,19
9165,19
9166,19
9167,19
9168,19
9169,19
9170,19
9171,19
9172,19
9173,19
9174,19
9175,19
9176,19
9177,19
9178,19
9179,19
9180,19
9181,19
9182,19
9183,19
9184,19
9185,19
9186,19
9187,19
9188,19
9189,19
9190,19
9191,19
9192,19
9193,19
9194,19
9195,19
9196,19
9197,20
9198,19
9199,19
9200,19
9201,19
9202,19
9203,19
9204,19
9205,19
9206,19
9207,19
9208,19
9209,19
9210,19
9211,19
9212,19
9213,19
9214,19
9215,19
9216,19
9217,19
9218,19
9219,19
9220,19
9221,19
9222,19
9223,19
9224,19
9225,19
9226,19
9227,19
9228,19
9229,19
9230,19
9231,19
9232,19
9233,19
9234,19
9235,19
9236,20
9237,20
9238,20
9239,21
9240,21
9241,20
9242,20
9243,20
9244,20
9245,20
9246,20
9247,20
9248,20
9249,20
9250,20
9251,20
9252,20
9253,20
9254,20
9255,20
9256,20
9257,20
9258,20
9259,20
9260,20
9261,20
9262,20
9263,20
9264,20
9265,20
9266,20
9267,20
9268,20
9269,20
9270,20
9271,20
9272,20
9273,19
9274,19
9275,19
9276,19
9277,19
9278,19
9279,19
9280,19
9281,19
9282,19
9283,19
9284,19
9285,19
9286,19
9287,19
9288,19
9289,19
9290,19
9291,19
9292,19
9293,19
9294,19
9295,19
9296,19
9297,19
9298,19
9299,19
9300,19
9301,20
9302,19
9303,19
9304,19
9305,19
9306,19
9307,19
9308,19
9309,19
9310,19
9311,19
9312,19
9313,19
9314,19
9315,19
9316,19
9317,19
9318,19
9319,19
9320,19
9321,19
9322,19
9323,19
9324,19
9325,19
9326,19
9327,19
9328,19
9329,19
9330,19
9331,19
9332,19
9333,19
9334,19
9335,19
9336,19
9337,19
9338,19
9339,19
9340,19
9341,19
9342,19
9343,19
9344,19
9345,19
9346,19
9347,19
9348,19
9349,19
9350,19
9351,19
9352,19
9353,19
9354,19
9355,19
9356,19
9357,19
9358,19
9359,19
9360,19
9361,19
9362,19
9363,19
9364,19
9365,19
9366,19
9367,19
9368,19
9369,19
9370,19
9371,19
9372,19
9373,19
9374,19
9375,19
9376,19
9377,19
9378,19
9379,19
9380,19
9381,19
9382,19
9383,19
9384,19
9385,19
9386,19
9387,19
9388,19
9389,19
9390,19
9391,19
9392,19
9393,19
9394,19
9395,19
9396,19
9397,19
9398,19
9399,19
9400,19
9401,19
9402,19
9403,19
9404,19
9405,19
9406,19
9407,19
9408,19
9409,19
9410,19
9411,19
9412,19
9413,19
9414,19
9415,19
9416,19
9417,19
9418,19
9419,19
9420,19
9421,19
9422,19
9423,19
9424,19
9425,19
9426,19
9427,19
9428,19
9429,19
9430,19
9431,19
9432,19
9433,19
9434,19
9435,19
9436,19
9437,19
9438,19
9439,19
9440,19
9441,19
9442,19
9443,19
9444,19
9445,19
9446,19
9447,19
9448,19
9449,19
9450,19
9451,19
9452,19
9453,19
9454,19
9455,19
9456,19
9457,19
9458,19
9459,19
9460,19
9461,19
9462,19
9463,19
9464,19
9465,19
9466,19
9467,19
9468,19
9469,19
9470,19
9471,19
9472,19
9473,19
9474,19
9475,19
9476,19
9477,19
9478,19
9479,19
9480,19
9481,19
9482,19
9483,19
9484,19
9485,19
9486,19
9487,19
9488,19
9489,19
9490,19
9491,19
9492,19
9493,19
9494,19
9495,19
9496,19
9497,19
9498,19
9499,19
9500,19
9501,19
9502,19
9503,19
9504,19
9505,19
9506,19
9507,19
9508,19
9509,19
9510,19
9511,19
9512,19
9513,19
9514,19
9515,19
9516,19
9517,19
9518,19
9519,19
9520,19
9521,19
9522,19
9523,19
9524,19
9525,19
9526,19
9527,19
9528,19
9529,19
9530,19
9531,19
9532,19
9533,19
9534,19
9535,19
9536,19
9537,19
9538,19
9539,19
9540,19
9541,19
9542,19
9543,19
9544,19
9545,19
9546,19
9547,19
9548,19
9549,19
9550,19
9551,20
9552,20
9553,19
9554,19
9555,19
9556,19
9557,19
9558,19
9559,19
9560,19
9561,19
9562,19
9563,19
9564,19
9565,19
9566,19
9567,19
9568,19
9569,19
9570,19
9571,19
9572,19
9573,19
9574,19
9575,19
9576,19
9577,19
9578,19
9579,19
9580,19
9581,19
9582,19
9583,19
9584,19
9585,19
9586,19
9587,19
9588,19
9589,19
9590,19
9591,19
9592,19
9593,19
9594,19
9595,19
9596,19
9597,19
9598,19
9599,19
9600,19
9601,19
9602,19
9603,19
9604,19
9605,19
9606,19
9607,19
9608,19
9609,19
9610,19
9611,19
9612,19
9613,19
9614,19
9615,19
9616,19
9617,19
9618,19
9619,19
9620,19
9621,19
9622,19
9623,19
9624,19
9625,19
9626,19
9627,19
9628,19
9629,19
9630,19
9631,19
9632,19
9633,19
9634,19
9635,19
9636,19
9637,19
9638,19
9639,19
9640,19
9641,19
9642,19
9643,19
9644,19
9645,19
9646,19
9647,19
9648,19
9649,19
9650,19
9651,19
9652,19
9653,19
9654,19
9655,19
9656,19
9657,19
9658,20
9659,20
9660,20
9661,20
9662,20
9663,20
9664,20
9665,20
9666,20
9667,20
9668,20
9669,20
9670,20
9671,20
9672,19
9673,19
9674,19
9675,19
9676,19
9677,19
9678,19
9679,19
9680,19
9681,19
9682,19
9683,19
9684,19
9685,19
9686,19
9687,19
9688,19
9689,19
9690,19
9691,19
9692,19
9693,19
9694,19
9695,19
9696,19
9697,20
9698,20
9699,20
9700,20
9701,20
9702,20
9703,20
9704,20
9705,20
9706,20
9707,20
9708,20
9709,20
9710,20
9711,20
9712,20
9713,20
9714,20
9715,20
9716,20
9717,20
9718,20
9719,20
9720,20
9721,20
9722,20
9723,20
9724,20
9725,20
9726,20
9727,20
9728,20
9729,20
9730,20
9731,20
9732,20
9733,20
9734,20
9735,20
9736,20
9737,20
9738,20
9739,20
9740,20
9741,20
9742,20
9743,20
9744,20
9745,20
9746,20
9747,20
9748,20
9749,20
9750,20
9751,20
9752,20
9753,20
9754,20
9755,20
9756,20
9757,20
9758,20
9759,20
9760,20
9761,20
9762,20
9763,20
9764,20
9765,20
9766,20
9767,20
9768,20
9769,20
9770,20
9771,20
9772,20
9773,20
9774,20
9775,20
9776,20
9777,20
9778,20
9779,20
9780,20
9781,20
9782,20
9783,20
9784,20
9785,20
9786,20
9787,20
9788,20
9789,20
9790,20
9791,20
9792,20
9793,20
9794,20
9795,20
9796,20
9797,20
9798,20
9799,20
9800,20
9801,20
9802,20
9803,20
9804,20
9805,20
9806,20
9807,20
9808,20
9809,20
9810,20
9811,20
9812,20
9813,20
9814,20
9815,20
9816,20
9817,20
9818,20
9819,20
9820,20
9821,20
9822,20
9823,20
9824,20
9825,20
9826,20
9827,20
9828,20
9829,20
9830,20
9831,20
9832,20
9833,20
9834,20
9835,20
9836,20
9837,20
9838,20
9839,20
9840,20
9841,20
9842,20
9843,20
9844,20
9845,20
9846,20
9847,20
9848,20
9849,20
9850,20
9851,20
9852,20
9853,20
9854,20
9855,20
9856,20
9857,20
9858,20
9859,20
9860,20
9861,20
9862,20
9863,20
9864,20
9865,20
9866,20
9867,20
9868,21
9869,20
9870,20
9871,20
9872,20
9873,20
9874,20
9875,20
9876,20
9877,20
9878,20
9879,20
9880,20
9881,20
9882,20
9883,20
9884,20
9885,20
9886,20
9887,20
9888,20
9889,20
9890,20
9891,20
9892,20
9893,20
9894,20
9895,20
9896,20
9897,20
9898,20
9899,20
9900,20
9901,20
9902,21
9903,20
9904,20
9905,20
9906,20
9907,20
9908,20
9909,20
9910,20
9911,20
9912,20
9913,20
9914,20
9915,20
9916,20
9917,20
9918,20
9919,20
9920,20
9921,20
9922,20
9923,20
9924,20
9925,20
9926,20
9927,20
9928,20
9929,20
9930,20
9931,20
9932,20
9933,20
9934,20
9935,20
9936,20
9937,20
9938,20
9939,20
9940,20
9941,20
9942,20
9943,20
9944,20
9945,20
9946,20
9947,20
9948,20
9949,20
9950,20
9951,20
9952,20
9953,20
9954,20
9955,20
9956,20
9957,20
9958,20
9959,20
9960,20
9961,20
9962,20
9963,20
9964,20
9965,20
9966,20
9967,20
9968,20
9969,20
9970,20
9971,20
9972,20
9973,20
9974,20
9975,20
9976,20
9977,20
9978,20
9979,20
9980,20
9981,20
9982,20
9983,20
9984,20
9985,20
9986,20
9987,21
9988,21
9989,21
9990,21
9991,20
9992,20
9993,20
9994,21
9995,21
9996,21
9997,21
9998,21
9999,21
10000,21
