1,3
2,3
3,3
4,3
5,3
6,3
7,4
8,4
9,4
10,4
11,4
12,4
13,4
14,4
15,4
16,4
17,4
18,4
19,4
20,4
21,4
22,4
23,4
24,4
25,4
26,4
27,5
28,5
29,5
30,5
31,5
32,5
33,5
34,5
35,5
36,5
37,5
38,5
39,5
40,5
41,5
42,5
43,5
44,5
45,5
46,5
47,5
48,5
49,5
50,5
51,5
52,5
53,5
54,5
55,5
56,5
57,5
58,5
59,5
60,5
61,5
62,6
63,5
64,5
65,5
66,5
67,5
68,5
69,5
70,5
71,5
72,6
73,6
74,6
75,5
76,5
77,5
78,5
79,6
80,6
81,6
82,6
83,6
84,6
85,6
86,6
87,6
88,6
89,6
90,6
91,6
92,6
93,6
94,6
95,6
96,6
97,6
98,6
99,6
100,6
101,6
102,6
103,6
104,6
105,6
106,6
107,6
108,6
109,6
110,6
111,6
112,6
113,6
114,6
115,6
116,6
117,6
118,6
119,6
120,6
121,6
122,6
123,6
124,6
125,6
126,6
127,6
128,6
129,6
130,6
131,6
132,6
133,6
134,6
135,6
136,6
137,6
138,6
139,6
140,6
141,6
142,6
143,6
144,6
145,6
146,6
147,6
148,6
149,6
150,6
151,6
152,6
153,6
154,6
155,6
156,6
157,6
158,6
159,6
160,6
161,6
162,6
163,6
164,6
165,6
166,6
167,6
168,6
169,6
170,6
171,6
172,6
173,6
174,6
175,6
176,6
177,6
178,6
179,6
180,6
181,7
182,7
183,7
184,7
185,7
186,7
187,7
188,7
189,7
190,7
191,7
192,7
193,7
194,7
195,7
196,7
197,7
198,7
199,7
200,7
201,8
202,7
203,7
204,7
205,7
206,7
207,7
208,7
209,7
210,7
211,7
212,7
213,7
214,7
215,7
216,7
217,7
218,7
219,7
220,7
221,7
222,7
223,7
224,7
225,7
226,8
227,8
228,8
229,8
230,7
231,7
232,7
233,7
234,7
235,7
236,7
237,7
238,7
239,7
240,7
241,7
242,7
243,7
244,7
245,7
246,7
247,7
248,7
249,7
250,7
251,7
252,7
253,7
254,7
255,7
256,7
257,7
258,7
259,7
260,7
261,7
262,7
263,7
264,7
265,7
266,7
267,7
268,7
269,7
270,7
271,7
272,7
273,7
274,7
275,7
276,7
277,7
278,7
279,7
280,7
281,7
282,7
283,7
284,7
285,7
286,7
287,7
288,7
289,7
290,7
291,7
292,7
293,7
294,7
295,7
296,7
297,7
298,7
299,7
300,7
301,7
302,7
303,7
304,7
305,7
306,7
307,7
308,7
309,7
310,7
311,7
312,7
313,7
314,7
315,7
316,7
317,7
318,7
319,7
320,7
321,7
322,7
323,7
324,7
325,7
326,7
327,7
328,7
329,7
330,7
331,7
332,7
333,7
334,7
335,7
336,7
337,7
338,7
339,7
340,7
341,7
342,7
343,7
344,7
345,7
346,7
347,7
348,7
349,7
350,7
351,7
352,7
353,7
354,7
355,7
356,7
357,7
358,7
359,7
360,7
361,7
362,7
363,7
364,7
365,7
366,7
367,7
368,7
369,7
370,7
371,7
372,7
373,7
374,7
375,7
376,7
377,7
378,7
379,7
380,7
381,7
382,7
383,7
384,7
385,7
386,7
387,7
388,7
389,7
390,7
391,7
392,7
393,7
394,7
395,7
396,7
397,7
398,7
399,7
400,7
401,7
402,7
403,7
404,7
405,7
406,7
407,7
408,7
409,7
410,7
411,7
412,7
413,7
414,7
415,7
416,7
417,7
418,7
419,8
420,8
421,8
422,8
423,8
424,8
425,8
426,8
427,8
428,8
429,8
430,7
431,7
432,7
433,7
434,7
435,7
436,7
437,7
438,7
439,7
440,7
441,7
442,7
443,7
444,7
445,7
446,7
447,7
448,7
449,7
450,7
451,7
452,7
453,7
454,7
455,7
456,7
457,7
458,7
459,7
460,7
461,7
462,7
463,7
464,7
465,7
466,7
467,7
468,8
469,7
470,8
471,8
472,8
473,7
474,7
475,7
476,7
477,7
478,7
479,7
480,7
481,7
482,7
483,7
484,7
485,7
486,7
487,7
488,7
489,7
490,7
491,7
492,7
493,7
494,7
495,7
496,7
497,7
498,7
499,7
500,7
501,7
502,7
503,7
504,7
505,7
506,7
507,7
508,7
509,7
510,7
511,7
512,7
513,7
514,7
515,7
516,7
517,7
518,7
519,7
520,7
521,7
522,7
523,7
524,7
525,7
526,7
527,7
528,7
529,7
530,7
531,7
532,7
533,7
534,7
535,7
536,7
537,7
538,7
539,7
540,7
541,7
542,7
543,7
544,7
545,7
546,7
547,7
548,7
549,7
550,7
551,7
552,7
553,7
554,7
555,7
556,7
557,7
558,7
559,7
560,7
561,7
562,7
563,7
564,7
565,7
566,7
567,7
568,7
569,7
570,7
571,7
572,7
573,7
574,7
575,7
576,7
577,7
578,7
579,7
580,7
581,7
582,7
583,7
584,7
585,7
586,7
587,7
588,7
589,7
590,7
591,7
592,7
593,7
594,7
595,7
596,7
597,7
598,7
599,7
600,7
601,7
602,7
603,7
604,7
605,7
606,7
607,7
608,8
609,8
610,8
611,8
612,8
613,8
614,8
615,8
616,8
617,8
618,8
619,8
620,8
621,8
622,8
623,8
624,8
625,8
626,8
627,8
628,8
629,8
630,8
631,8
632,8
633,8
634,8
635,8
636,8
637,8
638,8
639,8
640,8
641,9
642,8
643,8
644,8
645,8
646,8
647,8
648,8
649,8
650,8
651,8
652,8
653,8
654,8
655,8
656,8
657,8
658,8
659,8
660,8
661,8
662,8
663,8
664,8
665,8
666,8
667,8
668,8
669,8
670,8
671,8
672,8
673,8
674,9
675,9
676,9
677,8
678,8
679,8
680,8
681,8
682,8
683,8
684,8
685,8
686,8
687,8
688,8
689,8
690,9
691,8
692,8
693,8
694,8
695,8
696,8
697,8
698,8
699,8
700,8
701,8
702,8
703,8
704,8
705,8
706,8
707,8
708,8
709,8
710,8
711,8
712,8
713,8
714,8
715,8
716,8
717,8
718,8
719,8
720,8
721,8
722,8
723,8
724,8
725,8
726,8
727,8
728,8
729,8
730,8
731,8
732,8
733,8
734,8
735,8
736,8
737,8
738,8
739,8
740,8
741,8
742,8
743,8
744,8
745,8
746,8
747,9
748,9
749,9
750,9
751,9
752,9
753,9
754,9
755,9
756,9
757,9
758,9
759,10
760,9
761,9
762,9
763,9
764,9
765,9
766,9
767,9
768,9
769,9
770,9
771,9
772,10
773,9
774,9
775,9
776,9
777,9
778,9
779,9
780,9
781,9
782,9
783,9
784,9
785,9
786,9
787,9
788,9
789,9
790,9
791,9
792,9
793,9
794,9
795,9
796,9
797,9
798,9
799,9
800,9
801,9
802,9
803,9
804,9
805,9
806,9
807,9
808,9
809,9
810,9
811,9
812,9
813,9
814,9
815,9
816,9
817,9
818,9
819,9
820,9
821,9
822,9
823,9
824,9
825,9
826,9
827,9
828,9
829,9
830,9
831,9
832,10
833,9
834,9
835,9
836,9
837,9
838,9
839,9
840,9
841,9
842,9
843,9
844,10
845,9
846,9
847,9
848,9
849,9
850,9
851,9
852,9
853,9
854,9
855,9
856,9
857,9
858,9
859,9
860,9
861,9
862,9
863,9
864,9
865,9
866,9
867,9
868,9
869,9
870,9
871,9
872,9
873,9
874,9
875,9
876,9
877,9
878,9
879,9
880,9
881,9
882,9
883,9
884,9
885,9
886,9
887,9
888,9
889,9
890,9
891,9
892,9
893,9
894,9
895,9
896,9
897,9
898,9
899,9
900,9
901,9
902,9
903,9
904,9
905,9
906,9
907,9
908,9
909,9
910,9
911,9
912,9
913,9
914,9
915,9
916,9
917,9
918,9
919,9
920,9
921,9
922,9
923,9
924,9
925,9
926,9
927,9
928,9
929,9
930,9
931,9
932,9
933,9
934,9
935,9
936,9
937,9
938,9
939,9
940,9
941,9
942,9
943,9
944,9
945,9
946,9
947,9
948,9
949,9
950,9
951,9
952,9
953,9
954,9
955,9
956,9
957,9
958,9
959,9
960,9
961,9
962,9
963,9
964,9
965,9
966,9
967,9
968,9
969,9
970,10
971,9
972,9
973,9
974,9
975,9
976,9
977,9
978,9
979,9
980,9
981,9
982,9
983,9
984,9
985,9
986,9
987,9
988,9
989,9
990,9
991,9
992,9
993,9
994,9
995,9
996,9
997,9
998,9
999,9
1000,9
1001,9
1002,9
1003,9
1004,9
1005,9
1006,9
1007,9
1008,9
1009,9
1010,9
1011,9
1012,9
1013,9
1014,9
1015,9
1016,9
1017,9
1018,9
1019,9
1020,9
1021,9
1022,9
1023,9
1024,9
1025,9
1026,9
1027,9
1028,9
1029,9
1030,9
1031,9
1032,9
1033,9
1034,9
1035,9
1036,9
1037,9
1038,9
1039,9
1040,9
1041,9
1042,9
1043,9
1044,9
1045,9
1046,9
1047,9
1048,9
1049,9
1050,9
1051,9
1052,9
1053,9
1054,9
1055,9
1056,9
1057,9
1058,9
1059,9
1060,9
1061,9
1062,9
1063,9
1064,9
1065,9
1066,9
1067,9
1068,9
1069,9
1070,9
1071,9
1072,9
1073,9
1074,9
1075,9
1076,9
1077,9
1078,9
1079,9
1080,9
1081,9
1082,9
1083,9
1084,9
1085,9
1086,9
1087,9
1088,9
1089,9
1090,9
1091,9
1092,9
1093,9
1094,9
1095,9
1096,9
1097,9
1098,9
1099,9
1100,9
1101,9
1102,9
1103,9
1104,9
1105,9
1106,9
1107,9
1108,9
1109,10
1110,10
1111,10
1112,10
1113,9
1114,9
1115,9
1116,9
1117,9
1118,9
1119,9
1120,9
1121,9
1122,9
1123,9
1124,9
1125,9
1126,9
1127,9
1128,9
1129,9
1130,9
1131,9
1132,9
1133,9
1134,9
1135,9
1136,9
1137,9
1138,9
1139,9
1140,9
1141,9
1142,10
1143,10
1144,10
1145,10
1146,10
1147,10
1148,10
1149,10
1150,10
1151,10
1152,10
1153,10
1154,10
1155,10
1156,10
1157,10
1158,10
1159,10
1160,10
1161,10
1162,10
1163,10
1164,10
1165,10
1166,10
1167,10
1168,10
1169,10
1170,10
1171,10
1172,10
1173,10
1174,10
1175,10
1176,10
1177,10
1178,10
1179,10
1180,10
1181,10
1182,10
1183,10
1184,10
1185,10
1186,10
1187,10
1188,10
1189,10
1190,10
1191,10
1192,10
1193,10
1194,10
1195,10
1196,10
1197,10
1198,10
1199,10
1200,10
1201,10
1202,10
1203,10
1204,10
1205,10
1206,10
1207,10
1208,10
1209,10
1210,10
1211,10
1212,10
1213,10
1214,10
1215,10
1216,10
1217,10
1218,10
1219,10
1220,10
1221,10
1222,10
1223,10
1224,10
1225,10
1226,10
1227,10
1228,10
1229,10
1230,10
1231,10
1232,10
1233,10
1234,10
1235,10
1236,10
1237,10
1238,10
1239,10
1240,10
1241,10
1242,10
1243,10
1244,10
1245,10
1246,10
1247,10
1248,10
1249,10
1250,10
1251,10
1252,10
1253,10
1254,10
1255,10
1256,10
1257,10
1258,10
1259,10
1260,10
1261,10
1262,10
1263,10
1264,10
1265,11
1266,11
1267,11
1268,11
1269,11
1270,11
1271,11
1272,11
1273,11
1274,11
1275,11
1276,11
1277,11
1278,11
1279,11
1280,11
1281,11
1282,11
1283,11
1284,11
1285,11
1286,11
1287,11
1288,11
1289,11
1290,11
1291,11
1292,11
1293,11
1294,11
1295,11
1296,11
1297,11
1298,11
1299,11
1300,11
1301,11
1302,11
1303,11
1304,11
1305,11
1306,11
1307,11
1308,11
1309,11
1310,11
1311,11
1312,11
1313,11
1314,11
1315,11
1316,11
1317,11
1318,11
1319,11
1320,11
1321,11
1322,11
1323,11
1324,11
1325,11
1326,11
1327,11
1328,11
1329,11
1330,11
1331,11
1332,11
1333,11
1334,11
1335,11
1336,11
1337,11
1338,11
1339,11
1340,11
1341,11
1342,11
1343,11
1344,11
1345,11
1346,11
1347,11
1348,11
1349,11
1350,11
1351,11
1352,11
1353,11
1354,11
1355,11
1356,11
1357,11
1358,11
1359,11
1360,11
1361,11
1362,11
1363,11
1364,11
1365,11
1366,11
1367,11
1368,11
1369,11
1370,11
1371,11
1372,11
1373,11
1374,11
1375,11
1376,11
1377,11
1378,11
1379,11
1380,11
1381,11
1382,11
1383,11
1384,11
1385,11
1386,11
1387,11
1388,11
1389,11
1390,11
1391,11
1392,11
1393,11
1394,11
1395,11
1396,11
1397,11
1398,11
1399,11
1400,11
1401,11
1402,11
1403,11
1404,11
1405,11
1406,11
1407,11
1408,11
1409,11
1410,11
1411,11
1412,11
1413,11
1414,11
1415,11
1416,11
1417,11
1418,11
1419,11
1420,11
1421,11
1422,11
1423,11
1424,11
1425,12
1426,12
1427,12
1428,12
1429,12
1430,12
1431,12
1432,12
1433,12
1434,12
1435,12
1436,12
1437,12
1438,12
1439,12
1440,12
1441,12
1442,12
1443,12
1444,12
1445,12
1446,12
1447,12
1448,12
1449,12
1450,12
1451,12
1452,12
1453,12
1454,12
1455,12
1456,12
1457,12
1458,12
1459,12
1460,12
1461,12
1462,12
1463,12
1464,12
1465,12
1466,12
1467,12
1468,12
1469,12
1470,12
1471,12
1472,12
1473,12
1474,12
1475,12
1476,12
1477,12
1478,12
1479,12
1480,12
1481,12
1482,12
1483,12
1484,12
1485,12
1486,12
1487,12
1488,12
1489,12
1490,12
1491,12
1492,12
1493,12
1494,12
1495,12
1496,12
1497,12
1498,12
1499,12
1500,12
1501,12
1502,13
1503,12
1504,12
1505,12
1506,12
1507,12
1508,12
1509,12
1510,12
1511,12
1512,12
1513,12
1514,12
1515,12
1516,12
1517,12
1518,12
1519,12
1520,12
1521,12
1522,12
1523,12
1524,12
1525,12
1526,12
1527,12
1528,12
1529,12
1530,12
1531,12
1532,12
1533,12
1534,12
1535,12
1536,12
1537,12
1538,12
1539,12
1540,12
1541,12
1542,12
1543,12
1544,12
1545,12
1546,12
1547,12
1548,12
1549,12
1550,12
1551,12
1552,12
1553,12
1554,12
1555,12
1556,12
1557,12
1558,12
1559,12
1560,12
1561,12
1562,12
1563,12
1564,12
1565,12
1566,12
1567,12
1568,12
1569,12
1570,12
1571,12
1572,12
1573,12
1574,12
1575,12
1576,12
1577,12
1578,12
1579,12
1580,12
1581,12
1582,12
1583,12
1584,12
1585,12
1586,12
1587,12
1588,12
1589,12
1590,12
1591,12
1592,12
1593,12
1594,12
1595,12
1596,12
1597,12
1598,12
1599,12
1600,12
1601,12
1602,12
1603,12
1604,12
1605,12
1606,12
1607,12
1608,12
1609,12
1610,12
1611,12
1612,12
1613,12
1614,12
1615,12
1616,12
1617,12
1618,12
1619,12
1620,12
1621,12
1622,12
1623,12
1624,12
1625,12
1626,12
1627,12
1628,12
1629,12
1630,12
1631,12
1632,12
1633,12
1634,12
1635,12
1636,12
1637,12
1638,12
1639,12
1640,12
1641,12
1642,12
1643,12
1644,12
1645,12
1646,12
1647,12
1648,12
1649,12
1650,12
1651,12
1652,12
1653,12
1654,12
1655,12
1656,12
1657,12
1658,12
1659,12
1660,12
1661,12
1662,12
1663,12
1664,12
1665,12
1666,12
1667,12
1668,12
1669,12
1670,12
1671,12
1672,12
1673,12
1674,12
1675,12
1676,12
1677,12
1678,12
1679,12
1680,12
1681,12
1682,12
1683,12
1684,12
1685,12
1686,12
1687,12
1688,12
1689,12
1690,12
1691,12
1692,12
1693,12
1694,12
1695,12
1696,12
1697,12
1698,12
1699,12
1700,12
1701,12
1702,12
1703,12
1704,12
1705,12
1706,12
1707,12
1708,12
1709,12
1710,12
1711,12
1712,12
1713,12
1714,12
1715,12
1716,12
1717,12
1718,12
1719,12
1720,12
1721,12
1722,12
1723,12
1724,12
1725,12
1726,12
1727,12
1728,12
1729,12
1730,12
1731,12
1732,12
1733,12
1734,12
1735,12
1736,12
1737,12
1738,12
1739,12
1740,12
1741,12
1742,12
1743,12
1744,12
1745,12
1746,12
1747,12
1748,12
1749,12
1750,12
1751,12
1752,12
1753,12
1754,12
1755,12
1756,12
1757,12
1758,12
1759,12
1760,12
1761,12
1762,13
1763,12
1764,12
1765,12
1766,12
1767,12
1768,12
1769,12
1770,12
1771,12
1772,13
1773,12
1774,12
1775,12
1776,12
1777,12
1778,12
1779,12
1780,12
1781,12
1782,12
1783,12
1784,12
1785,12
1786,12
1787,12
1788,12
1789,12
1790,12
1791,12
1792,12
1793,12
1794,12
1795,12
1796,12
1797,12
1798,12
1799,12
1800,12
1801,12
1802,12
1803,12
1804,12
1805,12
1806,12
1807,12
1808,12
1809,12
1810,12
1811,12
1812,12
1813,12
1814,12
1815,12
1816,12
1817,12
1818,12
1819,12
1820,12
1821,12
1822,12
1823,12
1824,12
1825,12
1826,12
1827,12
1828,12
1829,12
1830,12
1831,12
1832,12
1833,12
1834,12
1835,12
1836,12
1837,12
1838,12
1839,12
1840,12
1841,12
1842,12
1843,12
1844,12
1845,12
1846,12
1847,12
1848,12
1849,12
1850,12
1851,12
1852,12
1853,12
1854,12
1855,12
1856,12
1857,12
1858,12
1859,12
1860,12
1861,12
1862,12
1863,12
1864,12
1865,12
1866,12
1867,12
1868,12
1869,12
1870,12
1871,12
1872,12
1873,12
1874,12
1875,12
1876,12
1877,12
1878,12
1879,12
1880,12
1881,12
1882,12
1883,12
1884,12
1885,12
1886,12
1887,12
1888,12
1889,12
1890,12
1891,12
1892,12
1893,12
1894,12
1895,12
1896,12
1897,12
1898,12
1899,12
1900,12
1901,12
1902,12
1903,12
1904,12
1905,12
1906,12
1907,12
1908,12
1909,12
1910,12
1911,12
1912,12
1913,12
1914,12
1915,12
1916,12
1917,12
1918,12
1919,12
1920,12
1921,12
1922,12
1923,12
1924,12
1925,12
1926,12
1927,12
1928,12
1929,12
1930,12
1931,12
1932,12
1933,12
1934,12
1935,12
1936,12
1937,12
1938,12
1939,12
1940,12
1941,12
1942,12
1943,12
1944,13
1945,13
1946,13
1947,13
1948,12
1949,12
1950,12
1951,12
1952,12
1953,12
1954,12
1955,12
1956,12
1957,12
1958,12
1959,12
1960,12
1961,12
1962,12
1963,12
1964,12
1965,12
1966,12
1967,12
1968,12
1969,12
1970,12
1971,12
1972,12
1973,12
1974,12
1975,12
1976,12
1977,12
1978,12
1979,12
1980,12
1981,12
1982,12
1983,12
1984,12
1985,12
1986,12
1987,12
1988,12
1989,12
1990,12
1991,12
1992,12
1993,12
1994,12
1995,12
1996,12
1997,12
1998,12
1999,12
2000,12
2001,12
2002,12
2003,12
2004,12
2005,12
2006,12
2007,12
2008,12
2009,12
2010,12
2011,12
2012,12
2013,12
2014,13
2015,13
2016,13
2017,13
2018,13
2019,14
2020,13
2021,13
2022,13
2023,13
2024,13
2025,13
2026,13
2027,13
2028,13
2029,13
2030,13
2031,13
2032,13
2033,13
2034,13
2035,13
2036,13
2037,13
2038,13
2039,13
2040,13
2041,13
2042,13
2043,13
2044,13
2045,14
2046,14
2047,13
2048,13
2049,13
2050,13
2051,13
2052,13
2053,13
2054,13
2055,13
2056,13
2057,13
2058,13
2059,13
2060,13
2061,13
2062,13
2063,13
2064,13
2065,13
2066,13
2067,13
2068,13
2069,13
2070,13
2071,13
2072,13
2073,13
2074,13
2075,13
2076,13
2077,13
2078,13
2079,13
2080,13
2081,13
2082,13
2083,13
2084,13
2085,13
2086,13
2087,13
2088,13
2089,14
2090,14
2091,14
2092,13
2093,13
2094,13
2095,13
2096,13
2097,14
2098,13
2099,13
2100,13
2101,13
2102,13
2103,13
2104,13
2105,13
2106,13
2107,13
2108,13
2109,13
2110,13
2111,13
2112,13
2113,13
2114,13
2115,13
2116,13
2117,13
2118,13
2119,13
2120,13
2121,13
2122,13
2123,13
2124,13
2125,13
2126,13
2127,13
2128,13
2129,13
2130,13
2131,13
2132,13
2133,14
2134,14
2135,13
2136,13
2137,13
2138,13
2139,13
2140,13
2141,13
2142,13
2143,13
2144,13
2145,13
2146,13
2147,13
2148,13
2149,13
2150,13
2151,13
2152,13
2153,13
2154,14
2155,14
2156,14
2157,14
2158,14
2159,14
2160,14
2161,14
2162,14
2163,14
2164,13
2165,13
2166,13
2167,13
2168,13
2169,13
2170,13
2171,13
2172,13
2173,13
2174,13
2175,13
2176,13
2177,13
2178,13
2179,13
2180,13
2181,13
2182,13
2183,13
2184,14
2185,14
2186,14
2187,14
2188,13
2189,13
2190,13
2191,13
2192,13
2193,13
2194,13
2195,13
2196,13
2197,13
2198,13
2199,13
2200,13
2201,13
2202,13
2203,13
2204,13
2205,13
2206,13
2207,13
2208,13
2209,13
2210,13
2211,13
2212,13
2213,13
2214,13
2215,14
2216,13
2217,13
2218,13
2219,13
2220,13
2221,13
2222,13
2223,13
2224,13
2225,13
2226,13
2227,13
2228,13
2229,13
2230,13
2231,13
2232,13
2233,13
2234,13
2235,13
2236,13
2237,13
2238,13
2239,13
2240,13
2241,13
2242,13
2243,13
2244,13
2245,13
2246,13
2247,13
2248,13
2249,13
2250,13
2251,13
2252,13
2253,13
2254,13
2255,13
2256,13
2257,13
2258,13
2259,13
2260,13
2261,13
2262,13
2263,13
2264,13
2265,13
2266,13
2267,13
2268,13
2269,13
2270,13
2271,13
2272,13
2273,13
2274,13
2275,13
2276,13
2277,13
2278,13
2279,13
2280,13
2281,13
2282,13
2283,13
2284,13
2285,13
2286,14
2287,14
2288,13
2289,13
2290,13
2291,13
2292,13
2293,13
2294,13
2295,13
2296,13
2297,13
2298,13
2299,13
2300,13
2301,13
2302,13
2303,13
2304,13
2305,13
2306,13
2307,13
2308,13
2309,13
2310,13
2311,13
2312,13
2313,13
2314,13
2315,13
2316,13
2317,13
2318,13
2319,13
2320,13
2321,13
2322,13
2323,13
2324,13
2325,13
2326,13
2327,13
2328,13
2329,13
2330,13
2331,13
2332,13
2333,13
2334,13
2335,13
2336,13
2337,13
2338,13
2339,13
2340,13
2341,13
2342,13
2343,13
2344,13
2345,13
2346,13
2347,13
2348,13
2349,13
2350,13
2351,13
2352,13
2353,13
2354,14
2355,14
2356,14
2357,14
2358,14
2359,14
2360,14
2361,14
2362,14
2363,14
2364,14
2365,14
2366,14
2367,14
2368,14
2369,13
2370,13
2371,13
2372,13
2373,13
2374,13
2375,13
2376,14
2377,14
2378,14
2379,14
2380,13
2381,13
2382,13
2383,13
2384,13
2385,13
2386,13
2387,13
2388,13
2389,13
2390,13
2391,13
2392,13
2393,13
2394,13
2395,13
2396,13
2397,13
2398,13
2399,13
2400,13
2401,13
2402,13
2403,13
2404,13
2405,13
2406,13
2407,13
2408,13
2409,13
2410,13
2411,13
2412,13
2413,13
2414,13
2415,13
2416,13
2417,13
2418,13
2419,13
2420,13
2421,13
2422,13
2423,13
2424,13
2425,13
2426,14
2427,13
2428,13
2429,13
2430,13
2431,13
2432,13
2433,13
2434,13
2435,13
2436,13
2437,13
2438,13
2439,13
2440,13
2441,13
2442,13
2443,13
2444,13
2445,13
2446,13
2447,13
2448,13
2449,13
2450,13
2451,13
2452,14
2453,14
2454,14
2455,14
2456,14
2457,14
2458,14
2459,14
2460,14
2461,14
2462,14
2463,14
2464,14
2465,14
2466,14
2467,14
2468,14
2469,14
2470,14
2471,14
2472,14
2473,14
2474,14
2475,14
2476,14
2477,13
2478,13
2479,13
2480,13
2481,13
2482,13
2483,13
2484,13
2485,13
2486,13
2487,13
2488,13
2489,13
2490,13
2491,13
2492,13
2493,13
2494,13
2495,13
2496,13
2497,13
2498,13
2499,13
2500,13
2501,13
2502,13
2503,13
2504,13
2505,13
2506,13
2507,13
2508,13
2509,13
2510,13
2511,13
2512,13
2513,13
2514,13
2515,13
2516,13
2517,13
2518,13
2519,13
2520,13
2521,13
2522,13
2523,13
2524,13
2525,13
2526,13
2527,13
2528,13
2529,13
2530,13
2531,13
2532,13
2533,13
2534,13
2535,13
2536,13
2537,13
2538,13
2539,13
2540,13
2541,13
2542,13
2543,13
2544,13
2545,13
2546,13
2547,13
2548,13
2549,13
2550,13
2551,13
2552,13
2553,13
2554,13
2555,13
2556,13
2557,13
2558,13
2559,13
2560,13
2561,13
2562,13
2563,13
2564,13
2565,13
2566,13
2567,13
2568,13
2569,13
2570,13
2571,13
2572,13
2573,13
2574,13
2575,13
2576,13
2577,13
2578,13
2579,13
2580,13
2581,13
2582,13
2583,13
2584,13
2585,13
2586,13
2587,13
2588,13
2589,13
2590,13
2591,13
2592,13
2593,13
2594,13
2595,13
2596,13
2597,13
2598,13
2599,13
2600,13
2601,13
2602,13
2603,13
2604,13
2605,13
2606,13
2607,13
2608,13
2609,13
2610,13
2611,13
2612,13
2613,13
2614,13
2615,13
2616,13
2617,13
2618,13
2619,13
2620,14
2621,13
2622,13
2623,13
2624,13
2625,13
2626,13
2627,13
2628,13
2629,13
2630,13
2631,13
2632,13
2633,13
2634,13
2635,13
2636,13
2637,13
2638,13
2639,13
2640,13
2641,13
2642,13
2643,13
2644,13
2645,13
2646,13
2647,13
2648,14
2649,14
2650,13
2651,13
2652,13
2653,13
2654,13
2655,14
2656,13
2657,13
2658,13
2659,13
2660,13
2661,13
2662,13
2663,13
2664,13
2665,13
2666,13
2667,13
2668,13
2669,13
2670,13
2671,13
2672,13
2673,13
2674,13
2675,13
2676,13
2677,13
2678,13
2679,13
2680,13
2681,13
2682,13
2683,13
2684,13
2685,13
2686,13
2687,13
2688,13
2689,13
2690,13
2691,13
2692,13
2693,13
2694,13
2695,13
2696,13
2697,13
2698,13
2699,13
2700,13
2701,13
2702,13
2703,13
2704,13
2705,13
2706,13
2707,13
2708,13
2709,13
2710,13
2711,13
2712,13
2713,13
2714,13
2715,13
2716,13
2717,13
2718,13
2719,13
2720,13
2721,13
2722,13
2723,13
2724,13
2725,13
2726,13
2727,13
2728,13
2729,13
2730,13
2731,13
2732,14
2733,14
2734,14
2735,14
2736,14
2737,14
2738,14
2739,14
2740,14
2741,14
2742,14
2743,14
2744,14
2745,14
2746,14
2747,14
2748,14
2749,14
2750,14
2751,14
2752,14
2753,13
2754,14
2755,14
2756,14
2757,13
2758,13
2759,13
2760,13
2761,13
2762,13
2763,13
2764,13
2765,13
2766,13
2767,13
2768,13
2769,13
2770,13
2771,13
2772,13
2773,13
2774,14
2775,13
2776,13
2777,13
2778,13
2779,13
2780,13
2781,14
2782,14
2783,13
2784,13
2785,13
2786,13
2787,13
2788,13
2789,13
2790,13
2791,13
2792,13
2793,13
2794,13
2795,13
2796,13
2797,13
2798,13
2799,13
2800,13
2801,13
2802,13
2803,13
2804,13
2805,13
2806,13
2807,13
2808,13
2809,13
2810,13
2811,13
2812,13
2813,13
2814,13
2815,13
2816,13
2817,13
2818,13
2819,13
2820,13
2821,13
2822,13
2823,13
2824,13
2825,13
2826,13
2827,13
2828,13
2829,13
2830,13
2831,13
2832,13
2833,13
2834,13
2835,13
2836,13
2837,13
2838,13
2839,13
2840,13
2841,13
2842,13
2843,13
2844,13
2845,13
2846,13
2847,13
2848,14
2849,14
2850,14
2851,14
2852,13
2853,13
2854,13
2855,13
2856,13
2857,13
2858,13
2859,13
2860,13
2861,13
2862,13
2863,13
2864,13
2865,13
2866,13
2867,13
2868,13
2869,13
2870,13
2871,13
2872,13
2873,13
2874,13
2875,13
2876,13
2877,13
2878,13
2879,13
2880,13
2881,13
2882,13
2883,13
2884,13
2885,13
2886,13
2887,13
2888,13
2889,13
2890,13
2891,13
2892,13
2893,13
2894,13
2895,13
2896,13
2897,13
2898,13
2899,13
2900,13
2901,13
2902,13
2903,13
2904,13
2905,13
2906,13
2907,13
2908,13
2909,13
2910,13
2911,13
2912,13
2913,13
2914,13
2915,13
2916,13
2917,13
2918,13
2919,13
2920,13
2921,13
2922,13
2923,13
2924,13
2925,13
2926,13
2927,13
2928,13
2929,13
2930,13
2931,13
2932,13
2933,13
2934,13
2935,13
2936,13
2937,13
2938,13
2939,13
2940,13
2941,13
2942,13
2943,13
2944,13
2945,13
2946,13
2947,13
2948,13
2949,13
2950,13
2951,13
2952,13
2953,13
2954,13
2955,13
2956,13
2957,13
2958,13
2959,13
2960,13
2961,13
2962,13
2963,13
2964,13
2965,13
2966,13
2967,13
2968,13
2969,13
2970,13
2971,13
2972,13
2973,13
2974,13
2975,13
2976,13
2977,13
2978,13
2979,13
2980,13
2981,13
2982,13
2983,13
2984,13
2985,13
2986,13
2987,13
2988,13
2989,14
2990,13
2991,13
2992,13
2993,13
2994,13
2995,13
2996,13
2997,13
2998,13
2999,13
3000,13
3001,13
3002,13
3003,13
3004,13
3005,13
3006,13
3007,13
3008,13
3009,13
3010,13
3011,13
3012,13
3013,13
3014,13
3015,13
3016,13
3017,13
3018,13
3019,13
3020,13
3021,13
3022,13
3023,13
3024,13
3025,13
3026,13
3027,13
3028,13
3029,13
3030,13
3031,13
3032,13
3033,13
3034,13
3035,13
3036,13
3037,13
3038,13
3039,13
3040,13
3041,13
3042,13
3043,13
3044,13
3045,13
3046,13
3047,13
3048,13
3049,13
3050,13
3051,13
3052,13
3053,13
3054,13
3055,13
3056,13
3057,13
3058,13
3059,13
3060,13
3061,13
3062,13
3063,13
3064,13
3065,13
3066,13
3067,13
3068,13
3069,13
3070,13
3071,13
3072,13
3073,13
3074,13
3075,13
3076,13
3077,13
3078,13
3079,13
3080,13
3081,13
3082,14
3083,13
3084,13
3085,13
3086,13
3087,13
3088,13
3089,13
3090,13
3091,13
3092,13
3093,13
3094,13
3095,13
3096,13
3097,13
3098,13
3099,13
3100,13
3101,13
3102,13
3103,13
3104,13
3105,13
3106,13
3107,13
3108,13
3109,13
3110,13
3111,13
3112,13
3113,13
3114,13
3115,13
3116,13
3117,13
3118,13
3119,13
3120,13
3121,13
3122,14
3123,13
3124,13
3125,13
3126,13
3127,13
3128,13
3129,13
3130,13
3131,13
3132,13
3133,13
3134,13
3135,13
3136,13
3137,13
3138,13
3139,13
3140,13
3141,13
3142,13
3143,13
3144,13
3145,13
3146,13
3147,13
3148,13
3149,13
3150,13
3151,13
3152,13
3153,13
3154,13
3155,14
3156,14
3157,14
3158,14
3159,14
3160,14
3161,14
3162,14
3163,14
3164,13
3165,13
3166,13
3167,13
3168,13
3169,13
3170,13
3171,13
3172,13
3173,13
3174,13
3175,13
3176,13
3177,13
3178,13
3179,13
3180,13
3181,13
3182,13
3183,13
3184,13
3185,13
3186,13
3187,13
3188,13
3189,13
3190,13
3191,13
3192,13
3193,13
3194,13
3195,13
3196,13
3197,13
3198,13
3199,13
3200,13
3201,13
3202,13
3203,13
3204,13
3205,13
3206,13
3207,13
3208,13
3209,13
3210,13
3211,13
3212,13
3213,13
3214,13
3215,13
3216,13
3217,13
3218,13
3219,13
3220,13
3221,13
3222,13
3223,13
3224,13
3225,13
3226,13
3227,13
3228,13
3229,13
3230,13
3231,13
3232,13
3233,13
3234,13
3235,13
3236,13
3237,13
3238,13
3239,13
3240,13
3241,13
3242,13
3243,13
3244,13
3245,13
3246,13
3247,13
3248,13
3249,13
3250,13
3251,13
3252,13
3253,13
3254,13
3255,13
3256,13
3257,13
3258,13
3259,13
3260,13
3261,13
3262,13
3263,13
3264,13
3265,13
3266,13
3267,13
3268,13
3269,13
3270,13
3271,13
3272,13
3273,13
3274,13
3275,13
3276,13
3277,13
3278,13
3279,13
3280,13
3281,13
3282,14
3283,13
3284,13
3285,13
3286,13
3287,13
3288,13
3289,13
3290,13
3291,13
3292,13
3293,13
3294,13
3295,13
3296,13
3297,13
3298,13
3299,13
3300,13
3301,13
3302,13
3303,13
3304,13
3305,13
3306,13
3307,13
3308,13
3309,13
3310,13
3311,13
3312,13
3313,13
3314,13
3315,13
3316,13
3317,13
3318,13
3319,13
3320,13
3321,13
3322,13
3323,13
3324,13
3325,13
3326,13
3327,13
3328,13
3329,13
3330,13
3331,13
3332,13
3333,13
3334,13
3335,13
3336,13
3337,13
3338,13
3339,13
3340,13
3341,13
3342,13
3343,13
3344,13
3345,13
3346,13
3347,13
3348,13
3349,13
3350,13
3351,13
3352,13
3353,13
3354,13
3355,13
3356,13
3357,13
3358,13
3359,13
3360,13
3361,13
3362,13
3363,13
3364,13
3365,13
3366,13
3367,13
3368,14
3369,14
3370,14
3371,14
3372,14
3373,14
3374,14
3375,14
3376,14
3377,14
3378,14
3379,13
3380,14
3381,14
3382,14
3383,14
3384,14
3385,14
3386,14
3387,14
3388,14
3389,14
3390,14
3391,14
3392,14
3393,14
3394,14
3395,14
3396,14
3397,14
3398,14
3399,14
3400,14
3401,14
3402,14
3403,14
3404,14
3405,14
3406,14
3407,14
3408,14
3409,14
3410,14
3411,14
3412,14
3413,14
3414,14
3415,14
3416,14
3417,14
3418,14
3419,14
3420,14
3421,14
3422,14
3423,14
3424,14
3425,14
3426,14
3427,14
3428,14
3429,14
3430,14
3431,14
3432,14
3433,14
3434,14
3435,14
3436,14
3437,14
3438,14
3439,14
3440,14
3441,14
3442,14
3443,14
3444,14
3445,14
3446,14
3447,14
3448,14
3449,14
3450,14
3451,14
3452,14
3453,14
3454,14
3455,14
3456,14
3457,14
3458,14
3459,14
3460,14
3461,14
3462,14
3463,14
3464,14
3465,14
3466,14
3467,14
3468,14
3469,14
3470,14
3471,14
3472,14
3473,14
3474,14
3475,14
3476,14
3477,14
3478,14
3479,14
3480,14
3481,14
3482,14
3483,14
3484,14
3485,14
3486,14
3487,14
3488,14
3489,14
3490,14
3491,14
3492,14
3493,14
3494,14
3495,14
3496,14
3497,14
3498,14
3499,14
3500,14
3501,14
3502,14
3503,14
3504,14
3505,14
3506,14
3507,14
3508,14
3509,14
3510,14
3511,14
3512,14
3513,14
3514,14
3515,14
3516,14
3517,14
3518,14
3519,14
3520,14
3521,14
3522,14
3523,14
3524,14
3525,14
3526,14
3527,14
3528,14
3529,14
3530,14
3531,14
3532,14
3533,14
3534,14
3535,14
3536,14
3537,14
3538,14
3539,14
3540,14
3541,14
3542,14
3543,14
3544,14
3545,14
3546,14
3547,14
3548,14
3549,14
3550,14
3551,14
3552,14
3553,14
3554,14
3555,14
3556,14
3557,14
3558,14
3559,14
3560,14
3561,14
3562,14
3563,14
3564,14
3565,14
3566,14
3567,14
3568,14
3569,14
3570,14
3571,14
3572,14
3573,14
3574,14
3575,14
3576,14
3577,14
3578,14
3579,14
3580,14
3581,14
3582,14
3583,14
3584,14
3585,14
3586,14
3587,14
3588,14
3589,14
3590,14
3591,14
3592,14
3593,14
3594,14
3595,14
3596,14
3597,14
3598,14
3599,14
3600,14
3601,14
3602,14
3603,14
3604,14
3605,14
3606,14
3607,14
3608,14
3609,14
3610,14
3611,14
3612,14
3613,14
3614,14
3615,14
3616,14
3617,14
3618,14
3619,14
3620,14
3621,14
3622,14
3623,14
3624,14
3625,14
3626,14
3627,14
3628,14
3629,14
3630,14
3631,14
3632,14
3633,14
3634,14
3635,14
3636,14
3637,14
3638,14
3639,14
3640,14
3641,14
3642,14
3643,14
3644,14
3645,14
3646,14
3647,14
3648,14
3649,14
3650,14
3651,14
3652,14
3653,14
3654,14
3655,14
3656,14
3657,14
3658,14
3659,14
3660,14
3661,14
3662,14
3663,14
3664,14
3665,14
3666,14
3667,14
3668,14
3669,14
3670,14
3671,14
3672,14
3673,14
3674,14
3675,14
3676,14
3677,14
3678,14
3679,14
3680,14
3681,14
3682,14
3683,14
3684,14
3685,14
3686,14
3687,14
3688,14
3689,14
3690,14
3691,14
3692,14
3693,14
3694,14
3695,14
3696,14
3697,14
3698,14
3699,14
3700,14
3701,14
3702,14
3703,14
3704,14
3705,14
3706,14
3707,14
3708,14
3709,14
3710,14
3711,14
3712,14
3713,14
3714,14
3715,14
3716,14
3717,14
3718,14
3719,14
3720,14
3721,14
3722,14
3723,14
3724,14
3725,14
3726,14
3727,14
3728,14
3729,14
3730,14
3731,14
3732,14
3733,15
3734,15
3735,14
3736,14
3737,14
3738,14
3739,14
3740,14
3741,14
3742,14
3743,14
3744,14
3745,14
3746,14
3747,14
3748,14
3749,14
3750,14
3751,14
3752,14
3753,14
3754,14
3755,14
3756,14
3757,14
3758,14
3759,14
3760,14
3761,14
3762,14
3763,14
3764,14
3765,14
3766,14
3767,14
3768,14
3769,14
3770,14
3771,14
3772,14
3773,14
3774,14
3775,14
3776,14
3777,14
3778,14
3779,14
3780,14
3781,14
3782,14
3783,14
3784,15
3785,15
3786,15
3787,15
3788,15
3789,15
3790,15
3791,15
3792,15
3793,15
3794,15
3795,15
3796,15
3797,15
3798,15
3799,15
3800,15
3801,16
3802,16
3803,15
3804,15
3805,15
3806,15
3807,15
3808,15
3809,15
3810,15
3811,15
3812,15
3813,15
3814,15
3815,15
3816,15
3817,15
3818,15
3819,15
3820,15
3821,15
3822,15
3823,15
3824,15
3825,15
3826,15
3827,15
3828,15
3829,15
3830,15
3831,15
3832,15
3833,15
3834,15
3835,15
3836,15
3837,15
3838,15
3839,15
3840,15
3841,15
3842,15
3843,15
3844,15
3845,15
3846,15
3847,15
3848,15
3849,15
3850,15
3851,15
3852,15
3853,15
3854,15
3855,15
3856,15
3857,16
3858,16
3859,15
3860,15
3861,15
3862,15
3863,15
3864,15
3865,15
3866,15
3867,15
3868,15
3869,15
3870,15
3871,15
3872,15
3873,15
3874,15
3875,15
3876,15
3877,15
3878,15
3879,15
3880,15
3881,15
3882,15
3883,15
3884,15
3885,15
3886,15
3887,15
3888,15
3889,15
3890,15
3891,15
3892,15
3893,15
3894,15
3895,15
3896,15
3897,15
3898,15
3899,15
3900,15
3901,15
3902,15
3903,15
3904,15
3905,15
3906,15
3907,15
3908,15
3909,15
3910,15
3911,15
3912,15
3913,15
3914,15
3915,15
3916,15
3917,15
3918,15
3919,15
3920,15
3921,15
3922,15
3923,15
3924,15
3925,15
3926,15
3927,15
3928,15
3929,15
3930,15
3931,15
3932,15
3933,15
3934,15
3935,15
3936,15
3937,15
3938,15
3939,15
3940,15
3941,15
3942,15
3943,15
3944,15
3945,15
3946,15
3947,15
3948,15
3949,15
3950,15
3951,15
3952,15
3953,15
3954,15
3955,15
3956,15
3957,15
3958,15
3959,15
3960,15
3961,15
3962,15
3963,15
3964,15
3965,15
3966,15
3967,15
3968,15
3969,15
3970,15
3971,15
3972,15
3973,15
3974,15
3975,15
3976,15
3977,15
3978,15
3979,15
3980,15
3981,15
3982,15
3983,15
3984,15
3985,15
3986,15
3987,15
3988,15
3989,15
3990,15
3991,15
3992,15
3993,15
3994,15
3995,15
3996,15
3997,15
3998,15
3999,15
4000,15
4001,15
4002,15
4003,15
4004,15
4005,15
4006,15
4007,15
4008,15
4009,15
4010,15
4011,15
4012,15
4013,15
4014,15
4015,15
4016,15
4017,15
4018,15
4019,15
4020,15
4021,15
4022,15
4023,15
4024,15
4025,15
4026,15
4027,15
4028,15
4029,15
4030,15
4031,15
4032,15
4033,15
4034,15
4035,15
4036,15
4037,15
4038,15
4039,15
4040,15
4041,15
4042,15
4043,15
4044,15
4045,15
4046,15
4047,15
4048,15
4049,15
4050,15
4051,15
4052,15
4053,15
4054,15
4055,15
4056,15
4057,15
4058,15
4059,15
4060,15
4061,15
4062,15
4063,15
4064,15
4065,15
4066,15
4067,15
4068,15
4069,15
4070,15
4071,15
4072,15
4073,15
4074,15
4075,15
4076,15
4077,15
4078,15
4079,15
4080,15
4081,15
4082,15
4083,15
4084,15
4085,15
4086,15
4087,15
4088,15
4089,15
4090,15
4091,15
4092,15
4093,16
4094,16
4095,15
4096,15
4097,15
4098,15
4099,15
4100,15
4101,15
4102,15
4103,15
4104,15
4105,15
4106,15
4107,15
4108,15
4109,15
4110,15
4111,15
4112,15
4113,15
4114,15
4115,15
4116,15
4117,15
4118,15
4119,15
4120,15
4121,15
4122,15
4123,15
4124,15
4125,15
4126,15
4127,15
4128,15
4129,15
4130,15
4131,15
4132,15
4133,15
4134,15
4135,15
4136,15
4137,15
4138,15
4139,15
4140,15
4141,15
4142,15
4143,15
4144,15
4145,15
4146,15
4147,15
4148,15
4149,15
4150,15
4151,15
4152,16
4153,16
4154,16
4155,16
4156,16
4157,16
4158,16
4159,15
4160,15
4161,15
4162,15
4163,15
4164,15
4165,15
4166,15
4167,15
4168,15
4169,15
4170,15
4171,15
4172,15
4173,15
4174,15
4175,15
4176,15
4177,15
4178,15
4179,15
4180,15
4181,15
4182,15
4183,15
4184,15
4185,15
4186,15
4187,15
4188,15
4189,15
4190,15
4191,15
4192,15
4193,15
4194,15
4195,15
4196,15
4197,15
4198,15
4199,15
4200,15
4201,15
4202,15
4203,15
4204,15
4205,15
4206,15
4207,15
4208,15
4209,15
4210,15
4211,15
4212,15
4213,15
4214,15
4215,15
4216,15
4217,15
4218,15
4219,15
4220,15
4221,15
4222,15
4223,15
4224,15
4225,15
4226,15
4227,15
4228,15
4229,15
4230,15
4231,15
4232,15
4233,15
4234,15
4235,15
4236,15
4237,15
4238,15
4239,15
4240,15
4241,15
4242,15
4243,15
4244,15
4245,15
4246,15
4247,15
4248,15
4249,15
4250,15
4251,15
4252,15
4253,15
4254,15
4255,15
4256,15
4257,15
4258,15
4259,15
4260,15
4261,15
4262,15
4263,15
4264,15
4265,15
4266,15
4267,15
4268,15
4269,15
4270,15
4271,15
4272,15
4273,15
4274,15
4275,15
4276,15
4277,15
4278,15
4279,15
4280,15
4281,15
4282,15
4283,15
4284,15
4285,15
4286,15
4287,15
4288,15
4289,15
4290,15
4291,15
4292,15
4293,15
4294,15
4295,15
4296,15
4297,15
4298,15
4299,15
4300,15
4301,15
4302,15
4303,15
4304,15
4305,15
4306,15
4307,15
4308,15
4309,15
4310,15
4311,15
4312,15
4313,15
4314,15
4315,15
4316,15
4317,15
4318,15
4319,15
4320,15
4321,15
4322,15
4323,15
4324,15
4325,15
4326,15
4327,15
4328,15
4329,15
4330,15
4331,15
4332,15
4333,15
4334,15
4335,15
4336,15
4337,15
4338,15
4339,15
4340,15
4341,15
4342,15
4343,15
4344,15
4345,15
4346,15
4347,15
4348,15
4349,15
4350,15
4351,15
4352,15
4353,15
4354,15
4355,15
4356,15
4357,15
4358,15
4359,15
4360,15
4361,15
4362,15
4363,15
4364,15
4365,15
4366,15
4367,15
4368,15
4369,15
4370,15
4371,15
4372,15
4373,15
4374,15
4375,15
4376,15
4377,15
4378,15
4379,15
4380,15
4381,15
4382,15
4383,15
4384,15
4385,15
4386,15
4387,15
4388,15
4389,15
4390,15
4391,15
4392,15
4393,15
4394,15
4395,15
4396,15
4397,15
4398,15
4399,15
4400,15
4401,15
4402,15
4403,15
4404,16
4405,16
4406,16
4407,16
4408,15
4409,15
4410,15
4411,15
4412,15
4413,15
4414,15
4415,15
4416,15
4417,15
4418,15
4419,15
4420,15
4421,15
4422,15
4423,15
4424,15
4425,15
4426,15
4427,15
4428,15
4429,15
4430,15
4431,15
4432,15
4433,15
4434,15
4435,15
4436,15
4437,15
4438,15
4439,15
4440,15
4441,15
4442,15
4443,15
4444,15
4445,15
4446,15
4447,15
4448,15
4449,15
4450,15
4451,15
4452,15
4453,15
4454,15
4455,15
4456,15
4457,15
4458,15
4459,15
4460,15
4461,15
4462,15
4463,15
4464,15
4465,15
4466,15
4467,15
4468,15
4469,15
4470,15
4471,15
4472,15
4473,15
4474,15
4475,15
4476,15
4477,15
4478,15
4479,15
4480,15
4481,15
4482,15
4483,15
4484,15
4485,15
4486,15
4487,15
4488,15
4489,15
4490,15
4491,15
4492,15
4493,15
4494,15
4495,15
4496,15
4497,15
4498,15
4499,15
4500,15
4501,15
4502,15
4503,15
4504,15
4505,15
4506,15
4507,15
4508,15
4509,15
4510,15
4511,15
4512,15
4513,15
4514,15
4515,15
4516,15
4517,15
4518,15
4519,15
4520,15
4521,15
4522,15
4523,15
4524,15
4525,15
4526,15
4527,15
4528,15
4529,15
4530,15
4531,15
4532,15
4533,15
4534,15
4535,15
4536,15
4537,15
4538,15
4539,15
4540,15
4541,15
4542,15
4543,15
4544,15
4545,15
4546,15
4547,15
4548,15
4549,15
4550,15
4551,15
4552,15
4553,15
4554,15
4555,15
4556,15
4557,15
4558,15
4559,15
4560,15
4561,15
4562,15
4563,15
4564,15
4565,15
4566,15
4567,15
4568,15
4569,15
4570,15
4571,15
4572,15
4573,15
4574,15
4575,15
4576,15
4577,15
4578,15
4579,15
4580,15
4581,15
4582,15
4583,15
4584,15
4585,15
4586,15
4587,15
4588,15
4589,15
4590,15
4591,15
4592,15
4593,15
4594,15
4595,15
4596,15
4597,15
4598,15
4599,15
4600,15
4601,15
4602,15
4603,15
4604,15
4605,15
4606,15
4607,15
4608,15
4609,15
4610,15
4611,15
4612,15
4613,15
4614,15
4615,15
4616,15
4617,15
4618,15
4619,15
4620,15
4621,15
4622,15
4623,16
4624,15
4625,15
4626,15
4627,15
4628,15
4629,15
4630,15
4631,15
4632,15
4633,15
4634,15
4635,15
4636,15
4637,15
4638,15
4639,15
4640,15
4641,15
4642,15
4643,15
4644,15
4645,15
4646,15
4647,15
4648,15
4649,15
4650,15
4651,15
4652,15
4653,15
4654,15
4655,15
4656,15
4657,15
4658,15
4659,15
4660,15
4661,15
4662,15
4663,15
4664,15
4665,15
4666,15
4667,15
4668,15
4669,15
4670,15
4671,15
4672,15
4673,15
4674,15
4675,15
4676,15
4677,15
4678,15
4679,15
4680,15
4681,15
4682,15
4683,15
4684,15
4685,15
4686,15
4687,15
4688,15
4689,15
4690,15
4691,15
4692,15
4693,15
4694,15
4695,15
4696,15
4697,15
4698,15
4699,15
4700,15
4701,16
4702,15
4703,15
4704,15
4705,15
4706,15
4707,15
4708,15
4709,15
4710,15
4711,15
4712,15
4713,15
4714,15
4715,15
4716,15
4717,15
4718,15
4719,15
4720,15
4721,15
4722,15
4723,15
4724,15
4725,15
4726,15
4727,15
4728,15
4729,15
4730,15
4731,15
4732,15
4733,15
4734,15
4735,15
4736,15
4737,15
4738,15
4739,15
4740,15
4741,15
4742,15
4743,15
4744,15
4745,15
4746,15
4747,15
4748,15
4749,15
4750,15
4751,15
4752,15
4753,15
4754,15
4755,15
4756,15
4757,15
4758,15
4759,15
4760,15
4761,15
4762,15
4763,15
4764,15
4765,15
4766,15
4767,15
4768,15
4769,15
4770,15
4771,15
4772,15
4773,15
4774,15
4775,15
4776,15
4777,15
4778,15
4779,15
4780,15
4781,15
4782,15
4783,16
4784,16
4785,16
4786,15
4787,15
4788,15
4789,15
4790,15
4791,15
4792,15
4793,15
4794,15
4795,15
4796,15
4797,15
4798,15
4799,15
4800,15
4801,15
4802,15
4803,15
4804,15
4805,15
4806,15
4807,15
4808,15
4809,15
4810,15
4811,15
4812,15
4813,15
4814,15
4815,15
4816,15
4817,15
4818,15
4819,15
4820,15
4821,15
4822,15
4823,15
4824,15
4825,15
4826,15
4827,15
4828,15
4829,15
4830,15
4831,15
4832,15
4833,15
4834,15
4835,15
4836,15
4837,15
4838,15
4839,15
4840,15
4841,15
4842,15
4843,15
4844,15
4845,15
4846,15
4847,15
4848,15
4849,15
4850,15
4851,15
4852,15
4853,15
4854,15
4855,15
4856,15
4857,15
4858,15
4859,15
4860,15
4861,15
4862,15
4863,15
4864,15
4865,15
4866,15
4867,15
4868,15
4869,15
4870,15
4871,15
4872,15
4873,15
4874,15
4875,15
4876,15
4877,15
4878,15
4879,15
4880,15
4881,15
4882,15
4883,15
4884,15
4885,15
4886,15
4887,15
4888,15
4889,15
4890,15
4891,15
4892,15
4893,15
4894,15
4895,15
4896,15
4897,15
4898,15
4899,15
4900,15
4901,15
4902,15
4903,15
4904,15
4905,15
4906,15
4907,15
4908,15
4909,15
4910,15
4911,15
4912,15
4913,15
4914,15
4915,15
4916,15
4917,15
4918,16
4919,16
4920,16
4921,15
4922,16
4923,15
4924,15
4925,15
4926,15
4927,15
4928,15
4929,15
4930,15
4931,15
4932,15
4933,15
4934,15
4935,15
4936,15
4937,15
4938,15
4939,15
4940,15
4941,15
4942,15
4943,15
4944,15
4945,15
4946,15
4947,15
4948,15
4949,15
4950,15
4951,15
4952,15
4953,15
4954,15
4955,15
4956,15
4957,15
4958,15
4959,15
4960,15
4961,15
4962,15
4963,15
4964,15
4965,15
4966,15
4967,15
4968,15
4969,15
4970,15
4971,15
4972,15
4973,15
4974,15
4975,15
4976,15
4977,15
4978,15
4979,15
4980,15
4981,15
4982,15
4983,15
4984,15
4985,15
4986,15
4987,15
4988,15
4989,15
4990,15
4991,15
4992,15
4993,15
4994,15
4995,15
4996,15
4997,15
4998,15
4999,15
5000,15
5001,15
5002,15
5003,15
5004,15
5005,15
5006,15
5007,15
5008,15
5009,15
5010,15
5011,15
5012,15
5013,15
5014,15
5015,15
5016,15
5017,15
5018,15
5019,15
5020,15
5021,15
5022,15
5023,15
5024,15
5025,15
5026,15
5027,15
5028,15
5029,15
5030,15
5031,15
5032,15
5033,15
5034,15
5035,15
5036,15
5037,15
5038,15
5039,15
5040,15
5041,15
5042,15
5043,15
5044,15
5045,15
5046,15
5047,15
5048,15
5049,15
5050,15
5051,15
5052,15
5053,15
5054,15
5055,15
5056,15
5057,15
5058,15
5059,15
5060,15
5061,15
5062,15
5063,15
5064,15
5065,15
5066,15
5067,15
5068,15
5069,15
5070,15
5071,15
5072,15
5073,15
5074,15
5075,15
5076,15
5077,15
5078,15
5079,15
5080,15
5081,15
5082,15
5083,15
5084,15
5085,15
5086,15
5087,15
5088,15
5089,15
5090,15
5091,15
5092,15
5093,15
5094,15
5095,15
5096,15
5097,15
5098,15
5099,15
5100,15
5101,15
5102,15
5103,15
5104,15
5105,15
5106,15
5107,15
5108,15
5109,15
5110,15
5111,15
5112,15
5113,15
5114,15
5115,15
5116,15
5117,15
5118,15
5119,15
5120,15
5121,15
5122,15
5123,15
5124,15
5125,15
5126,15
5127,15
5128,15
5129,15
5130,15
5131,15
5132,15
5133,15
5134,15
5135,15
5136,15
5137,15
5138,15
5139,15
5140,15
5141,15
5142,15
5143,15
5144,15
5145,15
5146,15
5147,15
5148,15
5149,15
5150,15
5151,15
5152,15
5153,15
5154,15
5155,15
5156,15
5157,15
5158,15
5159,15
5160,15
5161,15
5162,15
5163,15
5164,15
5165,15
5166,15
5167,15
5168,15
5169,15
5170,15
5171,15
5172,15
5173,15
5174,16
5175,15
5176,15
5177,15
5178,15
5179,15
5180,15
5181,15
5182,15
5183,15
5184,15
5185,15
5186,15
5187,15
5188,15
5189,15
5190,15
5191,15
5192,15
5193,15
5194,15
5195,15
5196,15
5197,15
5198,15
5199,15
5200,15
5201,15
5202,15
5203,15
5204,15
5205,15
5206,15
5207,15
5208,15
5209,15
5210,15
5211,15
5212,15
5213,15
5214,15
5215,15
5216,15
5217,15
5218,15
5219,15
5220,15
5221,15
5222,15
5223,15
5224,15
5225,15
5226,15
5227,15
5228,15
5229,15
5230,15
5231,15
5232,15
5233,15
5234,15
5235,15
5236,15
5237,16
5238,15
5239,15
5240,15
5241,15
5242,15
5243,15
5244,15
5245,15
5246,15
5247,15
5248,15
5249,15
5250,15
5251,15
5252,15
5253,15
5254,15
5255,15
5256,15
5257,15
5258,15
5259,15
5260,15
5261,15
5262,15
5263,15
5264,15
5265,15
5266,15
5267,15
5268,15
5269,15
5270,15
5271,15
5272,15
5273,15
5274,15
5275,15
5276,15
5277,15
5278,15
5279,15
5280,15
5281,15
5282,15
5283,15
5284,15
5285,15
5286,15
5287,15
5288,15
5289,15
5290,15
5291,15
5292,15
5293,15
5294,15
5295,15
5296,15
5297,15
5298,15
5299,16
5300,15
5301,15
5302,15
5303,15
5304,16
5305,15
5306,15
5307,15
5308,15
5309,15
5310,15
5311,15
5312,15
5313,15
5314,15
5315,15
5316,15
5317,15
5318,15
5319,15
5320,15
5321,15
5322,15
5323,15
5324,15
5325,15
5326,15
5327,15
5328,15
5329,15
5330,15
5331,15
5332,15
5333,15
5334,15
5335,15
5336,15
5337,15
5338,15
5339,15
5340,15
5341,15
5342,15
5343,15
5344,15
5345,15
5346,15
5347,15
5348,15
5349,15
5350,15
5351,15
5352,15
5353,15
5354,15
5355,15
5356,15
5357,15
5358,15
5359,15
5360,15
5361,15
5362,16
5363,16
5364,16
5365,16
5366,16
5367,16
5368,16
5369,16
5370,16
5371,16
5372,16
5373,16
5374,16
5375,16
5376,16
5377,16
5378,16
5379,16
5380,16
5381,16
5382,16
5383,16
5384,16
5385,16
5386,16
5387,16
5388,16
5389,16
5390,16
5391,16
5392,16
5393,16
5394,16
5395,16
5396,16
5397,16
5398,16
5399,16
5400,16
5401,16
5402,16
5403,16
5404,16
5405,16
5406,16
5407,16
5408,16
5409,16
5410,16
5411,16
5412,16
5413,16
5414,16
5415,16
5416,16
5417,16
5418,16
5419,16
5420,16
5421,16
5422,16
5423,16
5424,16
5425,16
5426,16
5427,16
5428,16
5429,16
5430,16
5431,16
5432,16
5433,16
5434,16
5435,16
5436,16
5437,16
5438,16
5439,16
5440,16
5441,16
5442,16
5443,16
5444,16
5445,16
5446,16
5447,16
5448,16
5449,16
5450,16
5451,16
5452,16
5453,16
5454,16
5455,16
5456,16
5457,16
5458,16
5459,16
5460,16
5461,16
5462,16
5463,16
5464,16
5465,16
5466,16
5467,16
5468,16
5469,16
5470,16
5471,16
5472,16
5473,16
5474,16
5475,16
5476,16
5477,16
5478,16
5479,16
5480,16
5481,16
5482,16
5483,16
5484,16
5485,16
5486,16
5487,16
5488,16
5489,16
5490,16
5491,16
5492,16
5493,16
5494,16
5495,16
5496,16
5497,16
5498,16
5499,16
5500,16
5501,16
5502,16
5503,16
5504,16
5505,16
5506,16
5507,16
5508,16
5509,16
5510,16
5511,16
5512,16
5513,16
5514,16
5515,16
5516,16
5517,16
5518,16
5519,16
5520,16
5521,16
5522,16
5523,16
5524,16
5525,16
5526,16
5527,16
5528,16
5529,16
5530,16
5531,16
5532,16
5533,16
5534,16
5535,16
5536,16
5537,16
5538,16
5539,16
5540,16
5541,16
5542,16
5543,16
5544,16
5545,16
5546,16
5547,16
5548,16
5549,16
5550,16
5551,16
5552,16
5553,16
5554,16
5555,16
5556,16
5557,16
5558,16
5559,16
5560,16
5561,16
5562,17
5563,16
5564,16
5565,16
5566,16
5567,16
5568,16
5569,17
5570,17
5571,17
5572,17
5573,17
5574,18
5575,17
5576,16
5577,16
5578,16
5579,16
5580,16
5581,16
5582,16
5583,16
5584,16
5585,16
5586,16
5587,16
5588,16
5589,16
5590,16
5591,16
5592,16
5593,16
5594,16
5595,16
5596,16
5597,16
5598,16
5599,16
5600,17
5601,17
5602,17
5603,17
5604,17
5605,17
5606,17
5607,17
5608,17
5609,17
5610,16
5611,16
5612,16
5613,16
5614,16
5615,16
5616,16
5617,16
5618,16
5619,16
5620,16
5621,16
5622,16
5623,16
5624,16
5625,16
5626,16
5627,16
5628,16
5629,16
5630,16
5631,16
5632,16
5633,16
5634,16
5635,16
5636,16
5637,16
5638,16
5639,16
5640,16
5641,16
5642,16
5643,16
5644,16
5645,16
5646,16
5647,16
5648,16
5649,16
5650,16
5651,16
5652,16
5653,16
5654,16
5655,16
5656,16
5657,16
5658,16
5659,16
5660,16
5661,16
5662,16
5663,16
5664,17
5665,16
5666,16
5667,16
5668,16
5669,16
5670,16
5671,16
5672,16
5673,16
5674,16
5675,16
5676,16
5677,16
5678,16
5679,16
5680,16
5681,16
5682,16
5683,16
5684,16
5685,16
5686,16
5687,16
5688,16
5689,16
5690,16
5691,16
5692,16
5693,16
5694,16
5695,16
5696,16
5697,16
5698,16
5699,16
5700,16
5701,16
5702,16
5703,16
5704,16
5705,16
5706,16
5707,16
5708,16
5709,16
5710,16
5711,16
5712,16
5713,16
5714,16
5715,16
5716,16
5717,16
5718,16
5719,16
5720,16
5721,16
5722,16
5723,16
5724,16
5725,16
5726,16
5727,16
5728,16
5729,16
5730,16
5731,16
5732,16
5733,16
5734,16
5735,16
5736,16
5737,16
5738,16
5739,16
5740,16
5741,16
5742,16
5743,16
5744,16
5745,16
5746,16
5747,16
5748,16
5749,16
5750,16
5751,16
5752,16
5753,16
5754,16
5755,16
5756,16
5757,16
5758,16
5759,16
5760,16
5761,16
5762,16
5763,16
5764,16
5765,16
5766,16
5767,16
5768,16
5769,16
5770,16
5771,16
5772,16
5773,16
5774,16
5775,16
5776,16
5777,17
5778,17
5779,16
5780,16
5781,16
5782,16
5783,16
5784,16
5785,16
5786,16
5787,16
5788,16
5789,16
5790,16
5791,16
5792,16
5793,16
5794,16
5795,16
5796,16
5797,16
5798,16
5799,16
5800,16
5801,16
5802,16
5803,16
5804,16
5805,16
5806,16
5807,16
5808,16
5809,16
5810,16
5811,16
5812,16
5813,16
5814,16
5815,16
5816,16
5817,16
5818,16
5819,16
5820,16
5821,16
5822,16
5823,16
5824,16
5825,16
5826,16
5827,16
5828,16
5829,16
5830,16
5831,16
5832,16
5833,16
5834,16
5835,16
5836,16
5837,17
5838,16
5839,16
5840,16
5841,16
5842,16
5843,16
5844,16
5845,16
5846,16
5847,16
5848,16
5849,16
5850,16
5851,16
5852,16
5853,16
5854,16
5855,16
5856,16
5857,16
5858,16
5859,16
5860,16
5861,16
5862,16
5863,16
5864,16
5865,16
5866,16
5867,16
5868,16
5869,16
5870,16
5871,16
5872,16
5873,16
5874,17
5875,17
5876,17
5877,17
5878,17
5879,17
5880,17
5881,17
5882,17
5883,17
5884,17
5885,17
5886,17
5887,17
5888,17
5889,17
5890,17
5891,17
5892,17
5893,17
5894,17
5895,17
5896,17
5897,17
5898,17
5899,17
5900,17
5901,17
5902,17
5903,17
5904,17
5905,17
5906,17
5907,17
5908,17
5909,17
5910,17
5911,17
5912,17
5913,17
5914,17
5915,17
5916,17
5917,17
5918,17
5919,17
5920,17
5921,17
5922,17
5923,17
5924,17
5925,17
5926,17
5927,17
5928,17
5929,17
5930,17
5931,17
5932,17
5933,17
5934,17
5935,17
5936,17
5937,17
5938,17
5939,17
5940,17
5941,17
5942,17
5943,17
5944,17
5945,17
5946,17
5947,17
5948,17
5949,17
5950,17
5951,17
5952,17
5953,17
5954,17
5955,17
5956,17
5957,17
5958,17
5959,17
5960,17
5961,17
5962,17
5963,17
5964,17
5965,17
5966,17
5967,17
5968,17
5969,17
5970,17
5971,17
5972,17
5973,17
5974,17
5975,17
5976,17
5977,17
5978,17
5979,17
5980,17
5981,17
5982,17
5983,17
5984,17
5985,17
5986,17
5987,17
5988,17
5989,17
5990,17
5991,17
5992,17
5993,17
5994,17
5995,17
5996,17
5997,17
5998,17
5999,17
6000,17
6001,17
6002,17
6003,17
6004,17
6005,17
6006,17
6007,17
6008,17
6009,17
6010,17
6011,17
6012,17
6013,17
6014,17
6015,17
6016,17
6017,17
6018,17
6019,17
6020,17
6021,17
6022,17
6023,17
6024,17
6025,17
6026,17
6027,17
6028,17
6029,17
6030,17
6031,17
6032,17
6033,17
6034,17
6035,17
6036,17
6037,17
6038,17
6039,17
6040,17
6041,17
6042,17
6043,18
6044,18
6045,18
6046,18
6047,18
6048,18
6049,18
6050,18
6051,18
6052,18
6053,18
6054,18
6055,18
6056,18
6057,19
6058,18
6059,18
6060,18
6061,18
6062,18
6063,18
6064,18
6065,18
6066,18
6067,18
6068,18
6069,18
6070,18
6071,18
6072,18
6073,18
6074,18
6075,18
6076,18
6077,18
6078,18
6079,18
6080,18
6081,18
6082,18
6083,18
6084,18
6085,18
6086,18
6087,18
6088,18
6089,18
6090,18
6091,18
6092,19
6093,18
6094,18
6095,18
6096,18
6097,18
6098,18
6099,18
6100,18
6101,18
6102,18
6103,18
6104,18
6105,18
6106,18
6107,18
6108,18
6109,18
6110,18
6111,18
6112,18
6113,18
6114,18
6115,18
6116,18
6117,18
6118,18
6119,18
6120,18
6121,18
6122,18
6123,18
6124,18
6125,18
6126,18
6127,18
6128,18
6129,18
6130,18
6131,18
6132,18
6133,18
6134,18
6135,18
6136,18
6137,18
6138,18
6139,18
6140,18
6141,18
6142,18
6143,18
6144,18
6145,18
6146,18
6147,18
6148,18
6149,18
6150,18
6151,18
6152,18
6153,18
6154,18
6155,18
6156,18
6157,18
6158,18
6159,18
6160,18
6161,18
6162,18
6163,18
6164,18
6165,18
6166,18
6167,18
6168,18
6169,18
6170,18
6171,18
6172,18
6173,18
6174,18
6175,18
6176,18
6177,18
6178,18
6179,18
6180,18
6181,18
6182,18
6183,18
6184,18
6185,18
6186,18
6187,18
6188,18
6189,18
6190,18
6191,18
6192,19
6193,19
6194,19
6195,19
6196,19
6197,19
6198,18
6199,18
6200,18
6201,18
6202,18
6203,18
6204,18
6205,18
6206,18
6207,18
6208,18
6209,18
6210,18
6211,18
6212,18
6213,18
6214,18
6215,18
6216,18
6217,18
6218,18
6219,18
6220,18
6221,18
6222,18
6223,18
6224,18
6225,18
6226,18
6227,18
6228,18
6229,18
6230,18
6231,18
6232,18
6233,18
6234,18
6235,18
6236,18
6237,18
6238,18
6239,18
6240,18
6241,18
6242,18
6243,18
6244,18
6245,18
6246,18
6247,18
6248,18
6249,18
6250,18
6251,18
6252,18
6253,18
6254,18
6255,18
6256,18
6257,18
6258,18
6259,18
6260,18
6261,18
6262,18
6263,18
6264,18
6265,18
6266,18
6267,18
6268,18
6269,18
6270,18
6271,18
6272,18
6273,18
6274,18
6275,18
6276,18
6277,18
6278,18
6279,18
6280,18
6281,18
6282,18
6283,18
6284,18
6285,18
6286,18
6287,18
6288,18
6289,18
6290,18
6291,18
6292,18
6293,18
6294,18
6295,18
6296,18
6297,18
6298,18
6299,18
6300,18
6301,18
6302,18
6303,18
6304,18
6305,18
6306,18
6307,18
6308,18
6309,18
6310,18
6311,18
6312,18
6313,18
6314,18
6315,18
6316,18
6317,18
6318,18
6319,18
6320,18
6321,18
6322,18
6323,18
6324,18
6325,18
6326,18
6327,18
6328,18
6329,18
6330,18
6331,18
6332,18
6333,18
6334,18
6335,18
6336,18
6337,18
6338,18
6339,18
6340,18
6341,18
6342,18
6343,18
6344,18
6345,18
6346,18
6347,18
6348,18
6349,18
6350,18
6351,18
6352,18
6353,18
6354,18
6355,18
6356,18
6357,18
6358,18
6359,18
6360,18
6361,19
6362,18
6363,18
6364,18
6365,18
6366,18
6367,18
6368,18
6369,18
6370,18
6371,18
6372,18
6373,18
6374,18
6375,18
6376,18
6377,18
6378,18
6379,18
6380,18
6381,18
6382,18
6383,18
6384,18
6385,18
6386,18
6387,18
6388,18
6389,18
6390,18
6391,18
6392,18
6393,18
6394,18
6395,18
6396,18
6397,18
6398,18
6399,18
6400,18
6401,18
6402,18
6403,18
6404,18
6405,18
6406,18
6407,18
6408,18
6409,18
6410,18
6411,18
6412,18
6413,18
6414,18
6415,18
6416,18
6417,18
6418,18
6419,18
6420,18
6421,18
6422,18
6423,18
6424,18
6425,18
6426,18
6427,18
6428,18
6429,18
6430,18
6431,18
6432,18
6433,18
6434,18
6435,18
6436,18
6437,18
6438,18
6439,18
6440,18
6441,18
6442,18
6443,18
6444,18
6445,18
6446,18
6447,18
6448,18
6449,18
6450,18
6451,18
6452,18
6453,18
6454,18
6455,18
6456,18
6457,18
6458,18
6459,18
6460,18
6461,18
6462,18
6463,18
6464,18
6465,18
6466,18
6467,18
6468,18
6469,18
6470,18
6471,18
6472,18
6473,18
6474,18
6475,18
6476,18
6477,18
6478,18
6479,18
6480,18
6481,18
6482,18
6483,18
6484,18
6485,18
6486,18
6487,18
6488,18
6489,18
6490,18
6491,18
6492,18
6493,18
6494,18
6495,18
6496,18
6497,18
6498,18
6499,18
6500,18
6501,18
6502,18
6503,18
6504,18
6505,18
6506,18
6507,18
6508,18
6509,18
6510,18
6511,18
6512,18
6513,18
6514,18
6515,18
6516,19
6517,19
6518,19
6519,19
6520,18
6521,18
6522,18
6523,18
6524,18
6525,18
6526,18
6527,18
6528,18
6529,18
6530,18
6531,18
6532,18
6533,18
6534,18
6535,18
6536,18
6537,18
6538,18
6539,18
6540,18
6541,18
6542,18
6543,18
6544,18
6545,18
6546,18
6547,18
6548,18
6549,18
6550,18
6551,18
6552,18
6553,18
6554,18
6555,18
6556,18
6557,18
6558,18
6559,18
6560,18
6561,18
6562,18
6563,18
6564,18
6565,18
6566,18
6567,18
6568,18
6569,18
6570,18
6571,18
6572,18
6573,18
6574,18
6575,18
6576,18
6577,18
6578,18
6579,18
6580,18
6581,18
6582,18
6583,18
6584,18
6585,18
6586,19
6587,18
6588,18
6589,18
6590,18
6591,18
6592,18
6593,18
6594,18
6595,18
6596,18
6597,18
6598,18
6599,18
6600,18
6601,18
6602,18
6603,18
6604,18
6605,18
6606,18
6607,18
6608,18
6609,18
6610,18
6611,18
6612,18
6613,18
6614,18
6615,18
6616,18
6617,18
6618,18
6619,18
6620,18
6621,18
6622,18
6623,18
6624,18
6625,18
6626,18
6627,18
6628,18
6629,18
6630,18
6631,18
6632,18
6633,18
6634,18
6635,18
6636,18
6637,18
6638,18
6639,18
6640,18
6641,18
6642,18
6643,18
6644,18
6645,18
6646,19
6647,19
6648,19
6649,19
6650,19
6651,19
6652,19
6653,19
6654,19
6655,19
6656,19
6657,20
6658,19
6659,19
6660,19
6661,19
6662,19
6663,19
6664,19
6665,19
6666,19
6667,19
6668,19
6669,19
6670,19
6671,19
6672,19
6673,19
6674,19
6675,19
6676,19
6677,19
6678,19
6679,19
6680,19
6681,19
6682,19
6683,19
6684,19
6685,19
6686,19
6687,19
6688,19
6689,19
6690,19
6691,19
6692,19
6693,19
6694,19
6695,19
6696,19
6697,19
6698,19
6699,19
6700,19
6701,19
6702,19
6703,19
6704,19
6705,20
6706,20
6707,19
6708,19
6709,19
6710,19
6711,19
6712,19
6713,19
6714,19
6715,19
6716,19
6717,19
6718,19
6719,19
6720,19
6721,19
6722,19
6723,19
6724,19
6725,19
6726,19
6727,19
6728,19
6729,19
6730,19
6731,19
6732,19
6733,19
6734,19
6735,19
6736,19
6737,19
6738,19
6739,19
6740,19
6741,19
6742,19
6743,19
6744,19
6745,19
6746,19
6747,19
6748,19
6749,19
6750,19
6751,19
6752,19
6753,19
6754,19
6755,19
6756,19
6757,19
6758,19
6759,19
6760,19
6761,19
6762,19
6763,19
6764,19
6765,19
6766,19
6767,19
6768,19
6769,19
6770,19
6771,19
6772,19
6773,19
6774,19
6775,19
6776,19
6777,19
6778,19
6779,19
6780,19
6781,19
6782,19
6783,19
6784,19
6785,19
6786,19
6787,19
6788,19
6789,19
6790,19
6791,19
6792,19
6793,19
6794,19
6795,19
6796,19
6797,19
6798,19
6799,19
6800,19
6801,19
6802,19
6803,19
6804,19
6805,19
6806,19
6807,19
6808,19
6809,19
6810,19
6811,19
6812,19
6813,19
6814,19
6815,19
6816,19
6817,19
6818,19
6819,19
6820,19
6821,19
6822,19
6823,19
6824,19
6825,19
6826,19
6827,19
6828,19
6829,19
6830,19
6831,19
6832,20
6833,19
6834,19
6835,19
6836,19
6837,19
6838,19
6839,19
6840,19
6841,19
6842,19
6843,19
6844,19
6845,19
6846,19
6847,19
6848,19
6849,19
6850,19
6851,19
6852,19
6853,19
6854,19
6855,19
6856,19
6857,19
6858,19
6859,19
6860,19
6861,19
6862,19
6863,19
6864,19
6865,19
6866,19
6867,19
6868,19
6869,19
6870,19
6871,19
6872,19
6873,19
6874,19
6875,19
6876,19
6877,19
6878,19
6879,19
6880,19
6881,19
6882,19
6883,19
6884,19
6885,19
6886,19
6887,19
6888,19
6889,19
6890,19
6891,19
6892,19
6893,19
6894,19
6895,19
6896,19
6897,19
6898,19
6899,19
6900,19
6901,19
6902,19
6903,19
6904,19
6905,19
6906,19
6907,19
6908,19
6909,19
6910,19
6911,19
6912,19
6913,19
6914,19
6915,19
6916,19
6917,19
6918,19
6919,19
6920,19
6921,19
6922,19
6923,19
6924,19
6925,19
6926,19
6927,19
6928,19
6929,19
6930,19
6931,19
6932,19
6933,19
6934,19
6935,19
6936,19
6937,19
6938,19
6939,19
6940,19
6941,19
6942,19
6943,19
6944,19
6945,19
6946,19
6947,19
6948,19
6949,19
6950,19
6951,19
6952,19
6953,19
6954,19
6955,19
6956,19
6957,19
6958,19
6959,19
6960,19
6961,19
6962,19
6963,19
6964,19
6965,19
6966,19
6967,19
6968,19
6969,19
6970,19
6971,19
6972,19
6973,19
6974,19
6975,19
6976,19
6977,19
6978,19
6979,19
6980,19
6981,19
6982,19
6983,19
6984,19
6985,19
6986,19
6987,19
6988,19
6989,19
6990,19
6991,19
6992,19
6993,19
6994,19
6995,19
6996,19
6997,19
6998,19
6999,19
7000,19
7001,19
7002,19
7003,19
7004,19
7005,19
7006,19
7007,19
7008,19
7009,19
7010,19
7011,19
7012,19
7013,19
7014,19
7015,19
7016,19
7017,19
7018,19
7019,19
7020,19
7021,19
7022,19
7023,19
7024,19
7025,19
7026,19
7027,19
7028,19
7029,19
7030,19
7031,19
7032,19
7033,19
7034,19
7035,19
7036,19
7037,19
7038,19
7039,19
7040,19
7041,19
7042,19
7043,19
7044,19
7045,19
7046,19
7047,19
7048,19
7049,19
7050,19
7051,19
7052,19
7053,19
7054,19
7055,19
7056,19
7057,19
7058,19
7059,19
7060,19
7061,19
7062,19
7063,19
7064,19
7065,19
7066,19
7067,19
7068,19
7069,20
7070,20
7071,19
7072,19
7073,19
7074,19
7075,19
7076,19
7077,19
7078,19
7079,19
7080,19
7081,19
7082,19
7083,19
7084,19
7085,19
7086,19
7087,19
7088,19
7089,19
7090,19
7091,19
7092,20
7093,20
7094,19
7095,19
7096,19
7097,19
7098,19
7099,19
7100,19
7101,19
7102,19
7103,19
7104,19
7105,19
7106,19
7107,19
7108,19
7109,19
7110,19
7111,19
7112,19
7113,19
7114,19
7115,19
7116,19
7117,19
7118,19
7119,19
7120,19
7121,19
7122,19
7123,19
7124,19
7125,19
7126,19
7127,19
7128,19
7129,19
7130,19
7131,19
7132,19
7133,19
7134,19
7135,19
7136,19
7137,19
7138,19
7139,19
7140,19
7141,19
7142,19
7143,19
7144,19
7145,19
7146,19
7147,19
7148,19
7149,19
7150,19
7151,19
7152,19
7153,19
7154,19
7155,19
7156,19
7157,19
7158,19
7159,19
7160,19
7161,19
7162,19
7163,19
7164,20
7165,20
7166,20
7167,19
7168,19
7169,19
7170,19
7171,20
7172,19
7173,19
7174,19
7175,19
7176,19
7177,19
7178,19
7179,19
7180,19
7181,19
7182,19
7183,19
7184,19
7185,19
7186,19
7187,19
7188,19
7189,19
7190,19
7191,19
7192,19
7193,19
7194,19
7195,19
7196,19
7197,19
7198,19
7199,19
7200,19
7201,19
7202,19
7203,19
7204,19
7205,19
7206,19
7207,19
7208,19
7209,19
7210,19
7211,19
7212,19
7213,19
7214,19
7215,19
7216,19
7217,19
7218,19
7219,19
7220,19
7221,19
7222,19
7223,19
7224,19
7225,19
7226,19
7227,19
7228,19
7229,19
7230,19
7231,19
7232,19
7233,19
7234,19
7235,19
7236,19
7237,19
7238,19
7239,19
7240,19
7241,19
7242,19
7243,19
7244,19
7245,19
7246,19
7247,19
7248,19
7249,19
7250,19
7251,19
7252,19
7253,19
7254,19
7255,19
7256,19
7257,19
7258,19
7259,19
7260,19
7261,19
7262,19
7263,19
7264,19
7265,19
7266,19
7267,19
7268,19
7269,19
7270,19
7271,19
7272,19
7273,19
7274,19
7275,19
7276,19
7277,19
7278,19
7279,19
7280,19
7281,19
7282,19
7283,19
7284,19
7285,19
7286,19
7287,19
7288,19
7289,19
7290,19
7291,19
7292,19
7293,19
7294,19
7295,19
7296,19
7297,19
7298,19
7299,19
7300,19
7301,19
7302,19
7303,19
7304,19
7305,20
7306,20
7307,19
7308,19
7309,19
7310,19
7311,19
7312,19
7313,19
7314,19
7315,19
7316,19
7317,19
7318,19
7319,19
7320,19
7321,19
7322,19
7323,19
7324,19
7325,19
7326,19
7327,19
7328,19
7329,19
7330,19
7331,19
7332,19
7333,19
7334,19
7335,19
7336,19
7337,19
7338,19
7339,19
7340,19
7341,19
7342,19
7343,19
7344,19
7345,19
7346,19
7347,19
7348,19
7349,19
7350,19
7351,19
7352,19
7353,19
7354,19
7355,19
7356,19
7357,19
7358,19
7359,19
7360,19
7361,19
7362,19
7363,19
7364,19
7365,19
7366,20
7367,20
7368,19
7369,19
7370,19
7371,19
7372,19
7373,19
7374,19
7375,19
7376,19
7377,19
7378,19
7379,19
7380,19
7381,19
7382,19
7383,19
7384,19
7385,19
7386,19
7387,19
7388,19
7389,19
7390,19
7391,19
7392,19
7393,19
7394,19
7395,19
7396,19
7397,19
7398,19
7399,19
7400,19
7401,19
7402,19
7403,19
7404,19
7405,19
7406,19
7407,19
7408,19
7409,19
7410,19
7411,19
7412,19
7413,19
7414,19
7415,19
7416,19
7417,19
7418,19
7419,19
7420,19
7421,19
7422,19
7423,19
7424,19
7425,19
7426,19
7427,19
7428,19
7429,19
7430,19
7431,19
7432,19
7433,19
7434,19
7435,19
7436,19
7437,19
7438,19
7439,19
7440,19
7441,19
7442,19
7443,19
7444,19
7445,19
7446,19
7447,19
7448,19
7449,19
7450,19
7451,19
7452,19
7453,19
7454,19
7455,19
7456,19
7457,19
7458,19
7459,19
7460,19
7461,19
7462,19
7463,20
7464,19
7465,19
7466,19
7467,19
7468,19
7469,19
7470,19
7471,19
7472,19
7473,19
7474,19
7475,19
7476,19
7477,19
7478,19
7479,19
7480,19
7481,20
7482,20
7483,21
7484,21
7485,21
7486,21
7487,21
7488,20
7489,20
7490,19
7491,19
7492,19
7493,19
7494,19
7495,19
7496,19
7497,19
7498,19
7499,19
7500,19
7501,19
7502,19
7503,19
7504,19
7505,19
7506,19
7507,19
7508,19
7509,19
7510,19
7511,19
7512,19
7513,19
7514,19
7515,19
7516,19
7517,19
7518,19
7519,19
7520,19
7521,19
7522,19
7523,19
7524,19
7525,19
7526,19
7527,19
7528,19
7529,19
7530,19
7531,19
7532,19
7533,19
7534,19
7535,19
7536,19
7537,19
7538,19
7539,19
7540,19
7541,19
7542,19
7543,19
7544,19
7545,19
7546,19
7547,19
7548,19
7549,19
7550,19
7551,19
7552,19
7553,19
7554,19
7555,19
7556,19
7557,19
7558,19
7559,19
7560,19
7561,19
7562,19
7563,19
7564,19
7565,19
7566,19
7567,19
7568,19
7569,19
7570,19
7571,19
7572,19
7573,19
7574,19
7575,19
7576,19
7577,19
7578,19
7579,19
7580,19
7581,19
7582,19
7583,19
7584,19
7585,19
7586,19
7587,19
7588,19
7589,19
7590,19
7591,19
7592,19
7593,19
7594,19
7595,19
7596,19
7597,19
7598,19
7599,19
7600,19
7601,19
7602,19
7603,19
7604,19
7605,19
7606,19
7607,19
7608,19
7609,19
7610,19
7611,20
7612,20
7613,19
7614,19
7615,19
7616,19
7617,19
7618,19
7619,19
7620,19
7621,19
7622,19
7623,19
7624,19
7625,19
7626,19
7627,19
7628,19
7629,19
7630,19
7631,19
7632,19
7633,19
7634,19
7635,19
7636,19
7637,19
7638,19
7639,19
7640,19
7641,19
7642,19
7643,19
7644,19
7645,19
7646,19
7647,19
7648,19
7649,19
7650,19
7651,19
7652,19
7653,19
7654,19
7655,19
7656,19
7657,19
7658,19
7659,19
7660,19
7661,19
7662,19
7663,19
7664,19
7665,19
7666,19
7667,19
7668,19
7669,19
7670,19
7671,19
7672,19
7673,19
7674,19
7675,19
7676,19
7677,19
7678,19
7679,19
7680,19
7681,19
7682,19
7683,19
7684,19
7685,19
7686,19
7687,19
7688,19
7689,19
7690,19
7691,19
7692,19
7693,19
7694,19
7695,19
7696,19
7697,19
7698,19
7699,19
7700,19
7701,19
7702,19
7703,19
7704,19
7705,19
7706,19
7707,19
7708,19
7709,19
7710,19
7711,19
7712,19
7713,19
7714,19
7715,19
7716,19
7717,19
7718,19
7719,19
7720,19
7721,19
7722,19
7723,19
7724,19
7725,19
7726,19
7727,19
7728,20
7729,19
7730,19
7731,19
7732,19
7733,19
7734,19
7735,19
7736,19
7737,19
7738,19
7739,19
7740,19
7741,19
7742,19
7743,19
7744,19
7745,19
7746,19
7747,19
7748,19
7749,19
7750,19
7751,19
7752,19
7753,19
7754,19
7755,19
7756,19
7757,19
7758,19
7759,19
7760,19
7761,19
7762,19
7763,19
7764,19
7765,19
7766,19
7767,19
7768,19
7769,19
7770,19
7771,19
7772,19
7773,19
7774,19
7775,19
7776,19
7777,19
7778,19
7779,19
7780,19
7781,19
7782,19
7783,19
7784,19
7785,19
7786,19
7787,19
7788,19
7789,19
7790,19
7791,19
7792,19
7793,19
7794,19
7795,19
7796,19
7797,19
7798,19
7799,19
7800,19
7801,19
7802,19
7803,19
7804,19
7805,19
7806,19
7807,19
7808,19
7809,19
7810,19
7811,19
7812,19
7813,19
7814,19
7815,19
7816,19
7817,19
7818,19
7819,19
7820,19
7821,19
7822,19
7823,19
7824,19
7825,19
7826,19
7827,19
7828,19
7829,19
7830,19
7831,19
7832,19
7833,19
7834,19
7835,19
7836,19
7837,19
7838,19
7839,19
7840,19
7841,19
7842,19
7843,19
7844,19
7845,19
7846,19
7847,19
7848,19
7849,19
7850,19
7851,19
7852,19
7853,19
7854,19
7855,19
7856,19
7857,19
7858,19
7859,19
7860,19
7861,19
7862,19
7863,19
7864,19
7865,19
7866,19
7867,19
7868,19
7869,19
7870,19
7871,19
7872,19
7873,19
7874,19
7875,19
7876,19
7877,19
7878,19
7879,19
7880,19
7881,19
7882,19
7883,19
7884,19
7885,19
7886,19
7887,19
7888,19
7889,19
7890,19
7891,19
7892,19
7893,19
7894,19
7895,19
7896,19
7897,19
7898,19
7899,19
7900,19
7901,19
7902,19
7903,19
7904,19
7905,19
7906,19
7907,19
7908,19
7909,19
7910,19
7911,19
7912,19
7913,19
7914,19
7915,19
7916,19
7917,19
7918,19
7919,19
7920,19
7921,19
7922,19
7923,19
7924,19
7925,19
7926,19
7927,19
7928,19
7929,19
7930,19
7931,19
7932,19
7933,19
7934,19
7935,19
7936,19
7937,19
7938,19
7939,19
7940,19
7941,19
7942,19
7943,19
7944,19
7945,19
7946,19
7947,19
7948,19
7949,19
7950,19
7951,19
7952,19
7953,19
7954,19
7955,19
7956,19
7957,19
7958,19
7959,19
7960,19
7961,19
7962,19
7963,19
7964,19
7965,19
7966,19
7967,19
7968,19
7969,19
7970,19
7971,19
7972,19
7973,19
7974,19
7975,19
7976,19
7977,19
7978,19
7979,19
7980,19
7981,19
7982,19
7983,19
7984,19
7985,19
7986,19
7987,19
7988,19
7989,19
7990,19
7991,19
7992,19
7993,19
7994,19
7995,19
7996,19
7997,19
7998,19
7999,19
8000,19
8001,19
8002,19
8003,19
8004,19
8005,19
8006,19
8007,19
8008,19
8009,19
8010,19
8011,19
8012,19
8013,19
8014,19
8015,19
8016,19
8017,19
8018,19
8019,19
8020,19
8021,19
8022,19
8023,19
8024,19
8025,19
8026,19
8027,19
8028,19
8029,19
8030,19
8031,19
8032,19
8033,19
8034,19
8035,19
8036,19
8037,19
8038,19
8039,19
8040,19
8041,19
8042,19
8043,19
8044,19
8045,19
8046,19
8047,19
8048,19
8049,19
8050,19
8051,19
8052,19
8053,19
8054,19
8055,19
8056,19
8057,19
8058,19
8059,19
8060,19
8061,19
8062,19
8063,19
8064,19
8065,19
8066,19
8067,19
8068,19
8069,20
8070,20
8071,20
8072,20
8073,20
8074,20
8075,20
8076,20
8077,20
8078,20
8079,20
8080,20
8081,20
8082,20
8083,20
8084,20
8085,20
8086,20
8087,20
8088,20
8089,19
8090,19
8091,19
8092,19
8093,19
8094,19
8095,19
8096,19
8097,19
8098,19
8099,19
8100,19
8101,19
8102,19
8103,20
8104,20
8105,20
8106,19
8107,19
8108,19
8109,19
8110,19
8111,19
8112,19
8113,19
8114,19
8115,19
8116,19
8117,19
8118,20
8119,20
8120,20
8121,19
8122,19
8123,19
8124,19
8125,19
8126,19
8127,19
8128,19
8129,19
8130,19
8131,19
8132,19
8133,19
8134,19
8135,19
8136,19
8137,19
8138,19
8139,19
8140,19
8141,19
8142,19
8143,19
8144,19
8145,19
8146,19
8147,19
8148,19
8149,19
8150,19
8151,19
8152,19
8153,19
8154,19
8155,19
8156,19
8157,19
8158,19
8159,19
8160,19
8161,19
8162,19
8163,19
8164,19
8165,19
8166,19
8167,19
8168,19
8169,19
8170,19
8171,19
8172,19
8173,19
8174,19
8175,19
8176,19
8177,19
8178,19
8179,19
8180,19
8181,19
8182,19
8183,19
8184,19
8185,19
8186,19
8187,19
8188,19
8189,19
8190,19
8191,19
8192,19
8193,19
8194,19
8195,19
8196,20
8197,20
8198,20
8199,20
8200,20
8201,20
8202,20
8203,20
8204,20
8205,20
8206,20
8207,20
8208,20
8209,20
8210,20
8211,20
8212,20
8213,20
8214,20
8215,20
8216,20
8217,19
8218,19
8219,19
8220,19
8221,19
8222,19
8223,19
8224,19
8225,19
8226,19
8227,19
8228,19
8229,19
8230,19
8231,19
8232,19
8233,19
8234,19
8235,20
8236,19
8237,19
8238,19
8239,19
8240,19
8241,19
8242,19
8243,19
8244,19
8245,19
8246,19
8247,19
8248,19
8249,19
8250,19
8251,19
8252,19
8253,19
8254,19
8255,19
8256,19
8257,19
8258,19
8259,19
8260,19
8261,19
8262,19
8263,19
8264,19
8265,19
8266,19
8267,19
8268,19
8269,19
8270,19
8271,19
8272,19
8273,19
8274,19
8275,19
8276,19
8277,19
8278,19
8279,20
8280,20
8281,19
8282,19
8283,19
8284,19
8285,19
8286,19
8287,19
8288,19
8289,19
8290,19
8291,19
8292,19
8293,19
8294,19
8295,19
8296,19
8297,19
8298,19
8299,19
8300,19
8301,19
8302,19
8303,19
8304,19
8305,19
8306,19
8307,19
8308,19
8309,19
8310,19
8311,19
8312,19
8313,19
8314,19
8315,19
8316,19
8317,19
8318,19
8319,19
8320,19
8321,19
8322,19
8323,19
8324,19
8325,19
8326,19
8327,19
8328,19
8329,19
8330,19
8331,19
8332,19
8333,19
8334,19
8335,19
8336,19
8337,19
8338,19
8339,19
8340,19
8341,19
8342,19
8343,19
8344,19
8345,19
8346,19
8347,19
8348,19
8349,19
8350,19
8351,19
8352,19
8353,19
8354,19
8355,19
8356,19
8357,19
8358,19
8359,19
8360,19
8361,19
8362,19
8363,19
8364,19
8365,19
8366,19
8367,20
8368,20
8369,20
8370,20
8371,20
8372,20
8373,20
8374,20
8375,20
8376,20
8377,20
8378,20
8379,20
8380,20
8381,20
8382,20
8383,20
8384,20
8385,20
8386,20
8387,20
8388,19
8389,19
8390,19
8391,19
8392,19
8393,19
8394,19
8395,19
8396,19
8397,19
8398,19
8399,19
8400,19
8401,19
8402,19
8403,19
8404,19
8405,19
8406,19
8407,19
8408,19
8409,19
8410,19
8411,19
8412,20
8413,20
8414,20
8415,20
8416,20
8417,20
8418,20
8419,20
8420,20
8421,20
8422,20
8423,20
8424,20
8425,19
8426,19
8427,19
8428,19
8429,19
8430,19
8431,19
8432,19
8433,19
8434,19
8435,19
8436,19
8437,19
8438,19
8439,19
8440,19
8441,19
8442,19
8443,19
8444,19
8445,19
8446,19
8447,19
8448,19
8449,19
8450,19
8451,19
8452,19
8453,19
8454,19
8455,19
8456,19
8457,19
8458,19
8459,19
8460,19
8461,19
8462,19
8463,19
8464,19
8465,19
8466,19
8467,19
8468,19
8469,19
8470,19
8471,19
8472,19
8473,19
8474,19
8475,19
8476,19
8477,19
8478,19
8479,19
8480,19
8481,19
8482,19
8483,19
8484,19
8485,19
8486,19
8487,19
8488,19
8489,19
8490,19
8491,19
8492,19
8493,19
8494,19
8495,19
8496,19
8497,19
8498,19
8499,19
8500,19
8501,19
8502,19
8503,19
8504,19
8505,19
8506,19
8507,19
8508,19
8509,19
8510,19
8511,19
8512,19
8513,19
8514,19
8515,19
8516,19
8517,19
8518,19
8519,19
8520,19
8521,19
8522,19
8523,19
8524,19
8525,19
8526,19
8527,19
8528,19
8529,19
8530,19
8531,19
8532,19
8533,19
8534,19
8535,19
8536,19
8537,19
8538,19
8539,19
8540,19
8541,19
8542,19
8543,19
8544,19
8545,19
8546,19
8547,19
8548,19
8549,19
8550,19
8551,19
8552,19
8553,19
8554,19
8555,19
8556,19
8557,19
8558,19
8559,19
8560,19
8561,19
8562,19
8563,19
8564,19
8565,19
8566,20
8567,20
8568,20
8569,20
8570,20
8571,20
8572,21
8573,21
8574,21
8575,21
8576,21
8577,21
8578,20
8579,20
8580,20
8581,20
8582,20
8583,20
8584,20
8585,20
8586,20
8587,20
8588,20
8589,20
8590,20
8591,20
8592,20
8593,21
8594,21
8595,21
8596,22
8597,21
8598,21
8599,21
8600,21
8601,21
8602,21
8603,21
8604,21
8605,21
8606,21
8607,21
8608,21
8609,21
8610,21
8611,21
8612,21
8613,21
8614,21
8615,21
8616,21
8617,20
8618,20
8619,20
8620,20
8621,20
8622,20
8623,20
8624,20
8625,20
8626,20
8627,20
8628,20
8629,20
8630,20
8631,20
8632,20
8633,20
8634,20
8635,20
8636,20
8637,20
8638,20
8639,20
8640,20
8641,20
8642,20
8643,20
8644,20
8645,20
8646,20
8647,21
8648,20
8649,20
8650,20
8651,20
8652,21
8653,20
8654,20
8655,20
8656,20
8657,20
8658,20
8659,20
8660,20
8661,20
8662,20
8663,20
8664,20
8665,20
8666,20
8667,20
8668,20
8669,20
8670,20
8671,20
8672,20
8673,20
8674,20
8675,20
8676,20
8677,20
8678,20
8679,21
8680,21
8681,20
8682,20
8683,20
8684,20
8685,20
8686,20
8687,20
8688,20
8689,20
8690,20
8691,20
8692,20
8693,20
8694,20
8695,20
8696,20
8697,20
8698,20
8699,20
8700,20
8701,20
8702,20
8703,20
8704,20
8705,20
8706,20
8707,20
8708,20
8709,20
8710,20
8711,20
8712,20
8713,20
8714,20
8715,20
8716,20
8717,20
8718,20
8719,20
8720,20
8721,20
8722,20
8723,20
8724,20
8725,20
8726,20
8727,20
8728,20
8729,20
8730,20
8731,20
8732,20
8733,21
8734,20
8735,20
8736,20
8737,20
8738,20
8739,20
8740,20
8741,20
8742,20
8743,20
8744,20
8745,20
8746,20
8747,20
8748,20
8749,20
8750,20
8751,20
8752,20
8753,20
8754,20
8755,20
8756,20
8757,20
8758,20
8759,20
8760,20
8761,20
8762,20
8763,20
8764,20
8765,20
8766,20
8767,20
8768,20
8769,20
8770,20
8771,20
8772,20
8773,20
8774,20
8775,20
8776,20
8777,20
8778,20
8779,20
8780,20
8781,20
8782,20
8783,20
8784,20
8785,20
8786,20
8787,20
8788,20
8789,20
8790,20
8791,20
8792,20
8793,20
8794,20
8795,20
8796,20
8797,20
8798,20
8799,20
8800,20
8801,20
8802,20
8803,20
8804,20
8805,20
8806,20
8807,20
8808,20
8809,20
8810,20
8811,20
8812,20
8813,20
8814,20
8815,20
8816,20
8817,20
8818,20
8819,20
8820,20
8821,20
8822,20
8823,20
8824,20
8825,20
8826,20
8827,20
8828,20
8829,20
8830,20
8831,20
8832,20
8833,20
8834,20
8835,20
8836,20
8837,20
8838,20
8839,20
8840,20
8841,20
8842,20
8843,20
8844,20
8845,20
8846,20
8847,20
8848,20
8849,20
8850,20
8851,20
8852,20
8853,20
8854,20
8855,20
8856,20
8857,20
8858,20
8859,20
8860,20
8861,20
8862,20
8863,20
8864,20
8865,20
8866,20
8867,20
8868,20
8869,20
8870,20
8871,20
8872,20
8873,20
8874,20
8875,20
8876,20
8877,20
8878,20
8879,20
8880,20
8881,20
8882,20
8883,20
8884,20
8885,20
8886,20
8887,20
8888,20
8889,20
8890,20
8891,20
8892,20
8893,20
8894,20
8895,21
8896,21
8897,21
8898,21
8899,21
8900,20
8901,20
8902,20
8903,20
8904,20
8905,20
8906,20
8907,20
8908,20
8909,20
8910,20
8911,20
8912,20
8913,20
8914,20
8915,20
8916,20
8917,20
8918,20
8919,20
8920,21
8921,20
8922,20
8923,20
8924,20
8925,20
8926,20
8927,20
8928,20
8929,20
8930,20
8931,20
8932,20
8933,20
8934,20
8935,20
8936,20
8937,20
8938,20
8939,20
8940,21
8941,21
8942,20
8943,20
8944,20
8945,20
8946,20
8947,20
8948,20
8949,20
8950,20
8951,20
8952,20
8953,20
8954,20
8955,20
8956,20
8957,20
8958,20
8959,20
8960,20
8961,20
8962,20
8963,20
8964,20
8965,20
8966,20
8967,20
8968,20
8969,20
8970,20
8971,20
8972,20
8973,20
8974,20
8975,20
8976,20
8977,20
8978,20
8979,20
8980,20
8981,20
8982,20
8983,20
8984,20
8985,21
8986,21
8987,22
8988,22
8989,21
8990,21
8991,21
8992,21
8993,21
8994,21
8995,21
8996,21
8997,21
8998,21
8999,21
9000,21
9001,21
9002,20
9003,20
9004,20
9005,20
9006,20
9007,20
9008,20
9009,20
9010,20
9011,20
9012,20
9013,20
9014,20
9015,20
9016,20
9017,20
9018,20
9019,21
9020,20
9021,20
9022,20
9023,20
9024,20
9025,20
9026,21
9027,21
9028,21
9029,20
9030,20
9031,20
9032,20
9033,20
9034,20
9035,20
9036,20
9037,20
9038,20
9039,20
9040,20
9041,20
9042,20
9043,20
9044,20
9045,20
9046,20
9047,20
9048,20
9049,20
9050,20
9051,20
9052,20
9053,20
9054,20
9055,20
9056,20
9057,20
9058,20
9059,20
9060,20
9061,20
9062,20
9063,20
9064,20
9065,20
9066,20
9067,20
9068,20
9069,20
9070,20
9071,20
9072,20
9073,20
9074,20
9075,20
9076,20
9077,20
9078,20
9079,20
9080,20
9081,20
9082,20
9083,20
9084,20
9085,20
9086,20
9087,20
9088,20
9089,20
9090,20
9091,20
9092,20
9093,20
9094,20
9095,20
9096,20
9097,20
9098,20
9099,20
9100,20
9101,20
9102,20
9103,20
9104,20
9105,20
9106,20
9107,20
9108,20
9109,20
9110,20
9111,20
9112,20
9113,20
9114,20
9115,20
9116,20
9117,20
9118,20
9119,20
9120,20
9121,20
9122,20
9123,20
9124,20
9125,20
9126,20
9127,20
9128,21
9129,20
9130,20
9131,20
9132,20
9133,20
9134,20
9135,20
9136,20
9137,20
9138,20
9139,20
9140,20
9141,20
9142,20
9143,20
9144,20
9145,20
9146,20
9147,20
9148,20
9149,20
9150,20
9151,20
9152,20
9153,20
9154,20
9155,20
9156,20
9157,20
9158,20
9159,20
9160,20
9161,20
9162,20
9163,20
9164,20
9165,20
9166,20
9167,20
9168,20
9169,20
9170,20
9171,20
9172,20
9173,20
9174,20
9175,20
9176,20
9177,20
9178,20
9179,20
9180,20
9181,20
9182,20
9183,20
9184,20
9185,20
9186,20
9187,20
9188,20
9189,20
9190,20
9191,20
9192,20
9193,20
9194,20
9195,20
9196,20
9197,20
9198,20
9199,20
9200,20
9201,20
9202,20
9203,20
9204,20
9205,20
9206,20
9207,20
9208,20
9209,20
9210,20
9211,20
9212,20
9213,20
9214,20
9215,20
9216,20
9217,20
9218,20
9219,20
9220,20
9221,20
9222,20
9223,20
9224,20
9225,20
9226,20
9227,20
9228,20
9229,20
9230,20
9231,21
9232,20
9233,20
9234,20
9235,20
9236,20
9237,20
9238,20
9239,20
9240,20
9241,20
9242,20
9243,20
9244,20
9245,20
9246,20
9247,20
9248,20
9249,20
9250,20
9251,20
9252,20
9253,20
9254,20
9255,20
9256,20
9257,20
9258,20
9259,20
9260,20
9261,20
9262,20
9263,20
9264,20
9265,20
9266,20
9267,20
9268,20
9269,20
9270,20
9271,20
9272,20
9273,20
9274,20
9275,20
9276,20
9277,20
9278,20
9279,20
9280,20
9281,20
9282,20
9283,20
9284,20
9285,20
9286,20
9287,20
9288,20
9289,20
9290,20
9291,20
9292,20
9293,20
9294,20
9295,20
9296,20
9297,20
9298,20
9299,20
9300,20
9301,20
9302,20
9303,20
9304,20
9305,21
9306,21
9307,20
9308,20
9309,20
9310,20
9311,20
9312,20
9313,20
9314,20
9315,20
9316,20
9317,20
9318,21
9319,21
9320,21
9321,21
9322,21
9323,21
9324,21
9325,20
9326,20
9327,20
9328,20
9329,20
9330,20
9331,20
9332,21
9333,21
9334,21
9335,22
9336,22
9337,21
9338,21
9339,21
9340,20
9341,20
9342,20
9343,20
9344,20
9345,20
9346,20
9347,20
9348,20
9349,20
9350,20
9351,20
9352,20
9353,20
9354,20
9355,20
9356,20
9357,20
9358,20
9359,20
9360,20
9361,20
9362,20
9363,20
9364,20
9365,20
9366,20
9367,20
9368,20
9369,20
9370,20
9371,20
9372,20
9373,20
9374,20
9375,20
9376,20
9377,20
9378,20
9379,20
9380,20
9381,20
9382,20
9383,20
9384,20
9385,20
9386,20
9387,20
9388,20
9389,20
9390,20
9391,20
9392,20
9393,20
9394,20
9395,20
9396,20
9397,20
9398,21
9399,21
9400,21
9401,21
9402,21
9403,21
9404,21
9405,21
9406,20
9407,20
9408,20
9409,20
9410,20
9411,20
9412,20
9413,20
9414,20
9415,20
9416,20
9417,20
9418,20
9419,20
9420,20
9421,20
9422,20
9423,20
9424,20
9425,20
9426,20
9427,20
9428,20
9429,20
9430,20
9431,20
9432,20
9433,20
9434,20
9435,20
9436,20
9437,20
9438,20
9439,20
9440,20
9441,20
9442,20
9443,20
9444,20
9445,20
9446,20
9447,20
9448,20
9449,20
9450,20
9451,20
9452,20
9453,20
9454,20
9455,20
9456,20
9457,20
9458,20
9459,20
9460,20
9461,20
9462,20
9463,20
9464,20
9465,20
9466,20
9467,20
9468,20
9469,20
9470,20
9471,20
9472,20
9473,20
9474,20
9475,20
9476,20
9477,20
9478,20
9479,20
9480,20
9481,20
9482,20
9483,20
9484,20
9485,20
9486,20
9487,20
9488,20
9489,20
9490,20
9491,20
9492,20
9493,20
9494,20
9495,20
9496,20
9497,20
9498,20
9499,20
9500,20
9501,20
9502,20
9503,20
9504,20
9505,20
9506,20
9507,20
9508,20
9509,20
9510,21
9511,21
9512,21
9513,21
9514,21
9515,21
9516,21
9517,21
9518,21
9519,20
9520,20
9521,20
9522,20
9523,20
9524,20
9525,20
9526,20
9527,20
9528,20
9529,20
9530,20
9531,20
9532,20
9533,20
9534,20
9535,20
9536,20
9537,20
9538,20
9539,20
9540,20
9541,20
9542,20
9543,20
9544,20
9545,20
9546,20
9547,20
9548,20
9549,20
9550,20
9551,20
9552,20
9553,20
9554,20
9555,20
9556,20
9557,20
9558,21
9559,20
9560,20
9561,20
9562,20
9563,20
9564,20
9565,20
9566,20
9567,20
9568,20
9569,20
9570,20
9571,20
9572,20
9573,20
9574,20
9575,20
9576,20
9577,20
9578,20
9579,20
9580,20
9581,20
9582,20
9583,20
9584,20
9585,20
9586,20
9587,20
9588,20
9589,20
9590,20
9591,20
9592,20
9593,20
9594,20
9595,20
9596,21
9597,21
9598,21
9599,21
9600,21
9601,21
9602,21
9603,21
9604,21
9605,21
9606,21
9607,21
9608,21
9609,21
9610,21
9611,21
9612,21
9613,21
9614,21
9615,21
9616,21
9617,21
9618,21
9619,21
9620,21
9621,21
9622,21
9623,21
9624,21
9625,21
9626,21
9627,21
9628,21
9629,21
9630,21
9631,21
9632,21
9633,21
9634,21
9635,21
9636,21
9637,21
9638,21
9639,21
9640,21
9641,21
9642,21
9643,21
9644,21
9645,21
9646,21
9647,21
9648,21
9649,21
9650,21
9651,22
9652,21
9653,21
9654,21
9655,21
9656,21
9657,21
9658,21
9659,21
9660,21
9661,21
9662,21
9663,21
9664,21
9665,21
9666,21
9667,21
9668,21
9669,21
9670,21
9671,21
9672,21
9673,21
9674,21
9675,21
9676,21
9677,21
9678,21
9679,21
9680,21
9681,21
9682,21
9683,21
9684,21
9685,21
9686,21
9687,21
9688,21
9689,21
9690,21
9691,21
9692,21
9693,21
9694,21
9695,21
9696,21
9697,21
9698,21
9699,21
9700,21
9701,21
9702,21
9703,21
9704,21
9705,21
9706,21
9707,21
9708,21
9709,21
9710,21
9711,21
9712,21
9713,21
9714,21
9715,22
9716,22
9717,22
9718,22
9719,22
9720,21
9721,21
9722,21
9723,21
9724,22
9725,22
9726,22
9727,22
9728,22
9729,22
9730,22
9731,21
9732,21
9733,21
9734,21
9735,21
9736,21
9737,21
9738,21
9739,21
9740,21
9741,21
9742,21
9743,21
9744,21
9745,21
9746,21
9747,21
9748,21
9749,21
9750,21
9751,21
9752,21
9753,21
9754,21
9755,21
9756,21
9757,21
9758,21
9759,21
9760,21
9761,21
9762,21
9763,21
9764,21
9765,21
9766,21
9767,21
9768,21
9769,21
9770,21
9771,21
9772,21
9773,21
9774,21
9775,21
9776,21
9777,21
9778,21
9779,21
9780,21
9781,21
9782,21
9783,21
9784,22
9785,21
9786,21
9787,21
9788,22
9789,22
9790,22
9791,22
9792,22
9793,22
9794,22
9795,23
9796,22
9797,22
9798,22
9799,22
9800,22
9801,22
9802,22
9803,22
9804,22
9805,22
9806,22
9807,22
9808,22
9809,22
9810,22
9811,22
9812,22
9813,22
9814,22
9815,22
9816,22
9817,22
9818,22
9819,22
9820,22
9821,22
9822,22
9823,22
9824,22
9825,22
9826,22
9827,22
9828,22
9829,22
9830,22
9831,22
9832,22
9833,22
9834,22
9835,22
9836,22
9837,22
9838,22
9839,22
9840,22
9841,22
9842,22
9843,22
9844,22
9845,22
9846,22
9847,22
9848,22
9849,22
9850,22
9851,22
9852,22
9853,22
9854,22
9855,22
9856,22
9857,22
9858,22
9859,22
9860,22
9861,22
9862,22
9863,22
9864,22
9865,22
9866,22
9867,22
9868,22
9869,22
9870,22
9871,22
9872,22
9873,22
9874,22
9875,22
9876,22
9877,22
9878,22
9879,22
9880,22
9881,22
9882,22
9883,22
9884,22
9885,22
9886,22
9887,22
9888,22
9889,22
9890,22
9891,22
9892,22
9893,22
9894,22
9895,22
9896,22
9897,22
9898,22
9899,22
9900,22
9901,22
9902,22
9903,22
9904,22
9905,22
9906,22
9907,22
9908,22
9909,22
9910,22
9911,22
9912,22
9913,22
9914,22
9915,22
9916,22
9917,22
9918,22
9919,22
9920,22
9921,22
9922,22
9923,22
9924,22
9925,22
9926,22
9927,22
9928,22
9929,22
9930,23
9931,22
9932,22
9933,22
9934,22
9935,22
9936,23
9937,22
9938,22
9939,22
9940,22
9941,22
9942,22
9943,22
9944,22
9945,22
9946,22
9947,22
9948,22
9949,22
9950,22
9951,22
9952,22
9953,22
9954,22
9955,22
9956,22
9957,22
9958,22
9959,22
9960,22
9961,23
9962,22
9963,22
9964,22
9965,22
9966,22
9967,22
9968,22
9969,22
9970,22
9971,22
9972,22
9973,22
9974,22
9975,22
9976,23
9977,22
9978,22
9979,22
9980,22
9981,22
9982,22
9983,22
9984,22
9985,22
9986,22
9987,22
9988,22
9989,22
9990,22
9991,23
9992,23
9993,23
9994,23
9995,23
9996,22
9997,22
9998,22
9999,22
10000,22
