1,3
2,3
3,3
4,3
5,3
6,3
7,3
8,3
9,3
10,3
11,3
12,3
13,3
14,3
15,3
16,3
17,3
18,3
19,3
20,3
21,3
22,3
23,3
24,3
25,3
26,3
27,3
28,3
29,3
30,3
31,3
32,3
33,3
34,3
35,3
36,3
37,3
38,3
39,3
40,3
41,3
42,3
43,3
44,3
45,3
46,3
47,3
48,3
49,3
50,3
51,3
52,3
53,3
54,3
55,3
56,3
57,3
58,3
59,3
60,3
61,3
62,3
63,3
64,3
65,3
66,3
67,3
68,3
69,3
70,3
71,3
72,3
73,3
74,3
75,3
76,3
77,3
78,3
79,3
80,3
81,3
82,3
83,3
84,3
85,3
86,3
87,3
88,3
89,3
90,3
91,3
92,3
93,3
94,3
95,3
96,3
97,3
98,3
99,3
100,3
101,3
102,3
103,3
104,3
105,3
106,3
107,3
108,3
109,3
110,3
111,3
112,3
113,3
114,3
115,3
116,3
117,3
118,3
119,3
120,3
121,3
122,3
123,3
124,3
125,3
126,3
127,3
128,3
129,3
130,3
131,3
132,3
133,3
134,3
135,3
136,3
137,3
138,3
139,3
140,3
141,3
142,3
143,3
144,3
145,3
146,3
147,3
148,3
149,3
150,3
151,3
152,3
153,3
154,3
155,3
156,3
157,3
158,3
159,3
160,3
161,3
162,3
163,3
164,3
165,3
166,3
167,3
168,3
169,3
170,3
171,3
172,3
173,3
174,3
175,3
176,3
177,3
178,3
179,3
180,3
181,3
182,3
183,3
184,3
185,3
186,3
187,3
188,3
189,3
190,3
191,3
192,3
193,3
194,3
195,3
196,3
197,3
198,3
199,3
200,3
201,3
202,3
203,3
204,3
205,3
206,3
207,3
208,3
209,3
210,3
211,3
212,3
213,3
214,3
215,3
216,3
217,3
218,3
219,3
220,3
221,3
222,3
223,3
224,3
225,3
226,3
227,3
228,3
229,3
230,3
231,3
232,3
233,3
234,3
235,3
236,3
237,3
238,3
239,3
240,4
241,4
242,4
243,4
244,4
245,4
246,5
247,4
248,4
249,4
250,4
251,4
252,4
253,4
254,4
255,4
256,4
257,4
258,4
259,4
260,4
261,4
262,4
263,4
264,4
265,4
266,4
267,4
268,4
269,4
270,4
271,4
272,4
273,4
274,4
275,4
276,4
277,4
278,4
279,4
280,4
281,4
282,4
283,4
284,4
285,4
286,4
287,4
288,4
289,4
290,4
291,4
292,4
293,4
294,4
295,4
296,4
297,4
298,4
299,4
300,4
301,4
302,4
303,4
304,4
305,4
306,4
307,4
308,4
309,4
310,4
311,5
312,5
313,5
314,5
315,5
316,5
317,5
318,5
319,5
320,5
321,5
322,5
323,5
324,5
325,5
326,5
327,5
328,5
329,5
330,5
331,5
332,5
333,5
334,5
335,6
336,5
337,5
338,5
339,5
340,5
341,5
342,5
343,5
344,5
345,5
346,5
347,5
348,5
349,5
350,5
351,5
352,5
353,5
354,5
355,5
356,5
357,5
358,5
359,5
360,5
361,5
362,5
363,5
364,5
365,5
366,5
367,5
368,5
369,5
370,5
371,5
372,5
373,5
374,5
375,5
376,5
377,5
378,5
379,5
380,5
381,5
382,5
383,5
384,5
385,5
386,5
387,5
388,5
389,5
390,5
391,5
392,5
393,5
394,5
395,5
396,5
397,5
398,5
399,5
400,5
401,5
402,5
403,5
404,5
405,5
406,5
407,5
408,5
409,5
410,5
411,5
412,5
413,5
414,5
415,5
416,5
417,5
418,5
419,5
420,5
421,5
422,5
423,5
424,5
425,5
426,5
427,5
428,5
429,5
430,5
431,5
432,5
433,5
434,5
435,5
436,5
437,5
438,5
439,5
440,5
441,5
442,5
443,5
444,5
445,5
446,5
447,5
448,5
449,5
450,5
451,5
452,5
453,5
454,5
455,5
456,5
457,5
458,5
459,5
460,5
461,5
462,5
463,5
464,5
465,5
466,5
467,5
468,5
469,5
470,5
471,5
472,5
473,5
474,5
475,5
476,5
477,5
478,5
479,5
480,5
481,5
482,5
483,5
484,5
485,5
486,5
487,5
488,5
489,5
490,6
491,6
492,6
493,5
494,5
495,5
496,5
497,5
498,5
499,5
500,5
501,5
502,5
503,5
504,5
505,5
506,5
507,5
508,5
509,5
510,5
511,5
512,5
513,5
514,5
515,5
516,5
517,5
518,5
519,5
520,5
521,5
522,5
523,5
524,5
525,5
526,5
527,5
528,5
529,5
530,5
531,5
532,5
533,5
534,5
535,5
536,5
537,5
538,5
539,5
540,5
541,5
542,5
543,5
544,5
545,5
546,5
547,5
548,5
549,5
550,5
551,5
552,5
553,5
554,5
555,5
556,5
557,5
558,5
559,5
560,5
561,5
562,5
563,6
564,6
565,6
566,6
567,6
568,6
569,6
570,6
571,6
572,6
573,6
574,6
575,6
576,6
577,6
578,6
579,6
580,6
581,6
582,6
583,6
584,6
585,6
586,6
587,6
588,6
589,7
590,6
591,6
592,6
593,6
594,7
595,7
596,7
597,7
598,7
599,7
600,7
601,7
602,7
603,7
604,7
605,7
606,7
607,7
608,7
609,7
610,7
611,7
612,7
613,7
614,7
615,7
616,7
617,7
618,7
619,7
620,7
621,7
622,7
623,7
624,7
625,7
626,7
627,7
628,7
629,7
630,7
631,7
632,7
633,7
634,7
635,7
636,7
637,7
638,7
639,7
640,7
641,7
642,7
643,7
644,7
645,7
646,8
647,7
648,7
649,7
650,7
651,7
652,7
653,7
654,7
655,7
656,7
657,7
658,7
659,7
660,7
661,7
662,7
663,7
664,7
665,7
666,7
667,7
668,7
669,7
670,7
671,7
672,8
673,8
674,7
675,7
676,7
677,7
678,7
679,7
680,7
681,7
682,7
683,7
684,7
685,7
686,7
687,7
688,7
689,7
690,7
691,7
692,7
693,7
694,7
695,7
696,7
697,8
698,8
699,7
700,7
701,7
702,7
703,7
704,7
705,7
706,7
707,7
708,7
709,7
710,7
711,7
712,7
713,7
714,7
715,7
716,7
717,7
718,7
719,7
720,7
721,7
722,7
723,7
724,7
725,7
726,7
727,7
728,7
729,7
730,7
731,7
732,7
733,7
734,7
735,7
736,7
737,8
738,8
739,8
740,8
741,8
742,7
743,7
744,7
745,7
746,7
747,7
748,7
749,7
750,7
751,7
752,7
753,7
754,7
755,7
756,7
757,7
758,7
759,7
760,7
761,7
762,7
763,7
764,7
765,7
766,8
767,8
768,8
769,8
770,8
771,8
772,8
773,7
774,7
775,7
776,7
777,7
778,7
779,7
780,8
781,8
782,8
783,8
784,8
785,9
786,7
787,7
788,7
789,7
790,7
791,7
792,7
793,7
794,7
795,7
796,7
797,7
798,7
799,7
800,7
801,7
802,7
803,7
804,7
805,7
806,7
807,7
808,7
809,7
810,7
811,7
812,7
813,7
814,7
815,7
816,7
817,7
818,8
819,7
820,7
821,7
822,7
823,7
824,7
825,7
826,7
827,7
828,7
829,7
830,7
831,7
832,7
833,7
834,7
835,7
836,7
837,7
838,7
839,7
840,7
841,7
842,7
843,7
844,7
845,7
846,7
847,7
848,7
849,7
850,7
851,7
852,7
853,7
854,7
855,7
856,7
857,7
858,7
859,7
860,7
861,7
862,7
863,7
864,7
865,7
866,7
867,7
868,7
869,7
870,7
871,7
872,7
873,7
874,7
875,7
876,7
877,7
878,7
879,7
880,7
881,7
882,7
883,7
884,7
885,7
886,7
887,7
888,7
889,7
890,7
891,7
892,7
893,7
894,7
895,7
896,7
897,7
898,7
899,7
900,7
901,7
902,7
903,7
904,7
905,7
906,7
907,7
908,7
909,7
910,7
911,7
912,7
913,7
914,7
915,7
916,7
917,7
918,7
919,7
920,7
921,7
922,7
923,7
924,7
925,7
926,7
927,7
928,7
929,7
930,7
931,7
932,7
933,7
934,7
935,7
936,7
937,7
938,7
939,7
940,7
941,7
942,7
943,7
944,7
945,7
946,7
947,7
948,7
949,7
950,7
951,7
952,7
953,7
954,7
955,7
956,7
957,7
958,7
959,7
960,7
961,7
962,7
963,7
964,7
965,7
966,7
967,7
968,7
969,7
970,7
971,7
972,7
973,7
974,7
975,7
976,7
977,7
978,7
979,7
980,7
981,7
982,7
983,7
984,7
985,7
986,7
987,7
988,7
989,7
990,7
991,7
992,7
993,7
994,7
995,7
996,7
997,8
998,8
999,8
1000,7
1001,7
1002,7
1003,7
1004,7
1005,7
1006,7
1007,7
1008,7
1009,7
1010,7
1011,7
1012,7
1013,7
1014,7
1015,7
1016,7
1017,7
1018,7
1019,7
1020,7
1021,7
1022,7
1023,7
1024,7
1025,7
1026,7
1027,7
1028,7
1029,7
1030,7
1031,7
1032,7
1033,7
1034,7
1035,7
1036,8
1037,7
1038,7
1039,7
1040,7
1041,7
1042,7
1043,7
1044,7
1045,7
1046,7
1047,7
1048,7
1049,7
1050,7
1051,7
1052,7
1053,7
1054,7
1055,7
1056,7
1057,7
1058,7
1059,7
1060,7
1061,7
1062,7
1063,7
1064,7
1065,7
1066,7
1067,7
1068,7
1069,7
1070,7
1071,7
1072,7
1073,7
1074,7
1075,7
1076,7
1077,7
1078,7
1079,7
1080,7
1081,7
1082,7
1083,7
1084,7
1085,7
1086,7
1087,7
1088,7
1089,7
1090,7
1091,7
1092,7
1093,7
1094,7
1095,7
1096,7
1097,7
1098,7
1099,7
1100,7
1101,7
1102,7
1103,7
1104,8
1105,7
1106,7
1107,7
1108,7
1109,7
1110,7
1111,7
1112,7
1113,7
1114,8
1115,8
1116,8
1117,8
1118,8
1119,8
1120,8
1121,8
1122,8
1123,8
1124,8
1125,8
1126,8
1127,8
1128,8
1129,8
1130,8
1131,8
1132,8
1133,8
1134,8
1135,8
1136,8
1137,8
1138,8
1139,8
1140,8
1141,8
1142,8
1143,8
1144,8
1145,8
1146,8
1147,8
1148,8
1149,8
1150,8
1151,8
1152,8
1153,8
1154,8
1155,8
1156,8
1157,8
1158,8
1159,8
1160,8
1161,8
1162,8
1163,8
1164,8
1165,8
1166,8
1167,8
1168,8
1169,8
1170,8
1171,8
1172,8
1173,8
1174,8
1175,8
1176,8
1177,8
1178,8
1179,8
1180,8
1181,8
1182,8
1183,8
1184,8
1185,8
1186,8
1187,8
1188,8
1189,8
1190,8
1191,8
1192,8
1193,8
1194,8
1195,8
1196,8
1197,8
1198,8
1199,8
1200,8
1201,8
1202,8
1203,8
1204,8
1205,8
1206,8
1207,8
1208,8
1209,8
1210,8
1211,8
1212,8
1213,8
1214,8
1215,8
1216,8
1217,8
1218,8
1219,8
1220,8
1221,8
1222,8
1223,8
1224,8
1225,8
1226,8
1227,8
1228,8
1229,8
1230,8
1231,9
1232,9
1233,8
1234,8
1235,8
1236,8
1237,8
1238,8
1239,8
1240,8
1241,8
1242,8
1243,8
1244,8
1245,8
1246,8
1247,8
1248,8
1249,8
1250,8
1251,8
1252,8
1253,8
1254,8
1255,8
1256,8
1257,8
1258,8
1259,8
1260,8
1261,8
1262,8
1263,8
1264,8
1265,8
1266,8
1267,8
1268,8
1269,8
1270,8
1271,8
1272,8
1273,8
1274,8
1275,8
1276,8
1277,8
1278,8
1279,8
1280,8
1281,8
1282,8
1283,8
1284,8
1285,8
1286,8
1287,8
1288,8
1289,8
1290,8
1291,8
1292,8
1293,8
1294,8
1295,8
1296,8
1297,8
1298,8
1299,8
1300,8
1301,8
1302,8
1303,8
1304,8
1305,8
1306,8
1307,8
1308,8
1309,8
1310,8
1311,8
1312,8
1313,8
1314,8
1315,8
1316,8
1317,8
1318,8
1319,8
1320,8
1321,8
1322,8
1323,8
1324,8
1325,8
1326,8
1327,8
1328,8
1329,8
1330,8
1331,8
1332,8
1333,8
1334,8
1335,8
1336,8
1337,8
1338,8
1339,8
1340,8
1341,8
1342,8
1343,8
1344,8
1345,8
1346,8
1347,8
1348,8
1349,8
1350,8
1351,8
1352,8
1353,8
1354,8
1355,8
1356,8
1357,8
1358,8
1359,8
1360,8
1361,8
1362,8
1363,8
1364,8
1365,8
1366,8
1367,8
1368,8
1369,8
1370,8
1371,8
1372,8
1373,8
1374,8
1375,8
1376,8
1377,8
1378,8
1379,8
1380,8
1381,8
1382,8
1383,8
1384,8
1385,8
1386,8
1387,8
1388,8
1389,8
1390,8
1391,8
1392,8
1393,8
1394,9
1395,9
1396,9
1397,9
1398,9
1399,9
1400,9
1401,8
1402,8
1403,8
1404,8
1405,8
1406,8
1407,8
1408,8
1409,8
1410,8
1411,8
1412,8
1413,8
1414,8
1415,8
1416,8
1417,8
1418,8
1419,8
1420,8
1421,8
1422,8
1423,8
1424,9
1425,9
1426,8
1427,8
1428,8
1429,8
1430,8
1431,8
1432,8
1433,8
1434,8
1435,8
1436,8
1437,8
1438,8
1439,8
1440,8
1441,8
1442,8
1443,8
1444,8
1445,8
1446,8
1447,8
1448,8
1449,8
1450,8
1451,8
1452,8
1453,8
1454,8
1455,8
1456,8
1457,8
1458,8
1459,8
1460,8
1461,8
1462,8
1463,8
1464,8
1465,8
1466,8
1467,8
1468,8
1469,8
1470,8
1471,8
1472,8
1473,8
1474,8
1475,8
1476,8
1477,8
1478,8
1479,8
1480,8
1481,8
1482,8
1483,8
1484,8
1485,8
1486,8
1487,8
1488,8
1489,8
1490,8
1491,8
1492,8
1493,8
1494,8
1495,8
1496,8
1497,8
1498,8
1499,8
1500,8
1501,8
1502,8
1503,8
1504,8
1505,8
1506,8
1507,8
1508,8
1509,8
1510,8
1511,8
1512,8
1513,8
1514,8
1515,8
1516,8
1517,8
1518,8
1519,8
1520,8
1521,8
1522,8
1523,8
1524,8
1525,8
1526,8
1527,8
1528,8
1529,8
1530,8
1531,8
1532,8
1533,8
1534,8
1535,8
1536,8
1537,8
1538,8
1539,8
1540,8
1541,8
1542,8
1543,8
1544,8
1545,8
1546,8
1547,8
1548,8
1549,8
1550,8
1551,8
1552,8
1553,8
1554,8
1555,8
1556,8
1557,8
1558,8
1559,8
1560,8
1561,8
1562,8
1563,8
1564,8
1565,8
1566,8
1567,8
1568,8
1569,8
1570,8
1571,8
1572,8
1573,8
1574,8
1575,8
1576,8
1577,8
1578,8
1579,8
1580,8
1581,8
1582,8
1583,8
1584,8
1585,8
1586,8
1587,8
1588,8
1589,8
1590,8
1591,8
1592,8
1593,8
1594,8
1595,8
1596,8
1597,8
1598,8
1599,8
1600,8
1601,8
1602,8
1603,8
1604,8
1605,8
1606,8
1607,8
1608,8
1609,8
1610,8
1611,8
1612,8
1613,8
1614,8
1615,8
1616,8
1617,8
1618,8
1619,8
1620,8
1621,8
1622,8
1623,8
1624,8
1625,8
1626,8
1627,8
1628,8
1629,8
1630,8
1631,8
1632,8
1633,8
1634,8
1635,8
1636,8
1637,8
1638,8
1639,8
1640,8
1641,8
1642,8
1643,8
1644,8
1645,8
1646,8
1647,8
1648,8
1649,8
1650,9
1651,9
1652,8
1653,8
1654,8
1655,8
1656,8
1657,8
1658,8
1659,8
1660,8
1661,8
1662,8
1663,8
1664,8
1665,8
1666,8
1667,8
1668,8
1669,8
1670,8
1671,8
1672,8
1673,8
1674,8
1675,8
1676,8
1677,8
1678,8
1679,8
1680,8
1681,8
1682,8
1683,8
1684,8
1685,8
1686,8
1687,9
1688,8
1689,8
1690,8
1691,8
1692,8
1693,8
1694,8
1695,8
1696,9
1697,8
1698,8
1699,8
1700,8
1701,8
1702,8
1703,8
1704,8
1705,8
1706,8
1707,8
1708,8
1709,8
1710,8
1711,8
1712,8
1713,8
1714,8
1715,8
1716,8
1717,8
1718,8
1719,8
1720,8
1721,8
1722,8
1723,8
1724,8
1725,8
1726,8
1727,8
1728,8
1729,8
1730,8
1731,8
1732,8
1733,8
1734,8
1735,8
1736,8
1737,8
1738,8
1739,8
1740,8
1741,9
1742,9
1743,9
1744,9
1745,9
1746,8
1747,8
1748,8
1749,8
1750,8
1751,8
1752,8
1753,8
1754,8
1755,8
1756,8
1757,8
1758,8
1759,8
1760,8
1761,8
1762,8
1763,8
1764,8
1765,8
1766,8
1767,8
1768,8
1769,8
1770,8
1771,8
1772,8
1773,8
1774,8
1775,8
1776,8
1777,8
1778,8
1779,8
1780,8
1781,8
1782,8
1783,8
1784,8
1785,9
1786,9
1787,9
1788,8
1789,8
1790,8
1791,8
1792,9
1793,9
1794,9
1795,9
1796,9
1797,9
1798,9
1799,9
1800,9
1801,9
1802,9
1803,9
1804,9
1805,9
1806,9
1807,9
1808,9
1809,9
1810,9
1811,9
1812,9
1813,9
1814,9
1815,9
1816,9
1817,9
1818,9
1819,9
1820,9
1821,9
1822,9
1823,9
1824,9
1825,9
1826,9
1827,9
1828,9
1829,9
1830,9
1831,9
1832,9
1833,9
1834,9
1835,9
1836,9
1837,9
1838,9
1839,9
1840,9
1841,9
1842,9
1843,9
1844,9
1845,9
1846,9
1847,9
1848,9
1849,9
1850,9
1851,9
1852,9
1853,9
1854,9
1855,9
1856,9
1857,9
1858,9
1859,9
1860,9
1861,9
1862,9
1863,9
1864,9
1865,9
1866,9
1867,9
1868,9
1869,9
1870,9
1871,9
1872,9
1873,9
1874,9
1875,10
1876,10
1877,9
1878,9
1879,9
1880,9
1881,9
1882,9
1883,9
1884,9
1885,9
1886,9
1887,9
1888,9
1889,9
1890,9
1891,9
1892,9
1893,9
1894,9
1895,9
1896,9
1897,9
1898,9
1899,9
1900,9
1901,9
1902,9
1903,9
1904,9
1905,9
1906,9
1907,9
1908,9
1909,9
1910,9
1911,9
1912,9
1913,9
1914,10
1915,9
1916,9
1917,9
1918,9
1919,9
1920,9
1921,9
1922,9
1923,9
1924,9
1925,9
1926,9
1927,9
1928,9
1929,9
1930,9
1931,9
1932,9
1933,9
1934,9
1935,9
1936,9
1937,9
1938,9
1939,10
1940,10
1941,10
1942,10
1943,10
1944,9
1945,9
1946,9
1947,9
1948,9
1949,9
1950,9
1951,9
1952,9
1953,9
1954,9
1955,9
1956,9
1957,9
1958,9
1959,9
1960,9
1961,9
1962,9
1963,9
1964,9
1965,9
1966,9
1967,9
1968,9
1969,9
1970,9
1971,9
1972,9
1973,9
1974,9
1975,9
1976,9
1977,9
1978,9
1979,9
1980,9
1981,9
1982,9
1983,9
1984,9
1985,9
1986,9
1987,9
1988,9
1989,9
1990,9
1991,9
1992,9
1993,9
1994,9
1995,9
1996,9
1997,9
1998,9
1999,9
2000,9
2001,9
2002,10
2003,10
2004,10
2005,10
2006,10
2007,10
2008,10
2009,10
2010,10
2011,10
2012,10
2013,10
2014,10
2015,10
2016,10
2017,9
2018,9
2019,9
2020,9
2021,9
2022,9
2023,9
2024,9
2025,9
2026,9
2027,9
2028,9
2029,9
2030,9
2031,9
2032,9
2033,9
2034,9
2035,9
2036,9
2037,9
2038,9
2039,9
2040,9
2041,9
2042,9
2043,9
2044,9
2045,9
2046,9
2047,9
2048,9
2049,9
2050,9
2051,9
2052,9
2053,9
2054,9
2055,9
2056,9
2057,9
2058,9
2059,9
2060,9
2061,9
2062,9
2063,9
2064,9
2065,9
2066,9
2067,9
2068,9
2069,9
2070,9
2071,9
2072,9
2073,9
2074,9
2075,9
2076,9
2077,9
2078,9
2079,9
2080,9
2081,9
2082,9
2083,9
2084,9
2085,9
2086,10
2087,9
2088,10
2089,10
2090,10
2091,10
2092,10
2093,9
2094,9
2095,9
2096,9
2097,9
2098,9
2099,9
2100,9
2101,9
2102,9
2103,9
2104,9
2105,9
2106,9
2107,9
2108,9
2109,9
2110,9
2111,9
2112,9
2113,9
2114,9
2115,9
2116,9
2117,9
2118,9
2119,9
2120,9
2121,9
2122,9
2123,9
2124,9
2125,9
2126,9
2127,9
2128,9
2129,9
2130,9
2131,9
2132,9
2133,9
2134,9
2135,9
2136,9
2137,9
2138,9
2139,9
2140,9
2141,9
2142,9
2143,9
2144,9
2145,9
2146,9
2147,9
2148,9
2149,9
2150,9
2151,9
2152,9
2153,9
2154,9
2155,9
2156,9
2157,9
2158,9
2159,9
2160,9
2161,9
2162,9
2163,9
2164,9
2165,9
2166,9
2167,9
2168,9
2169,9
2170,9
2171,9
2172,9
2173,9
2174,9
2175,9
2176,9
2177,9
2178,9
2179,9
2180,9
2181,9
2182,9
2183,9
2184,9
2185,9
2186,9
2187,9
2188,9
2189,9
2190,9
2191,9
2192,9
2193,9
2194,9
2195,9
2196,9
2197,9
2198,9
2199,9
2200,9
2201,9
2202,9
2203,9
2204,9
2205,9
2206,9
2207,9
2208,9
2209,9
2210,9
2211,9
2212,9
2213,9
2214,9
2215,9
2216,9
2217,9
2218,9
2219,9
2220,9
2221,9
2222,9
2223,9
2224,9
2225,9
2226,10
2227,10
2228,9
2229,9
2230,9
2231,9
2232,9
2233,9
2234,9
2235,9
2236,9
2237,9
2238,9
2239,9
2240,9
2241,9
2242,9
2243,9
2244,9
2245,10
2246,10
2247,10
2248,10
2249,9
2250,9
2251,9
2252,9
2253,9
2254,9
2255,9
2256,9
2257,9
2258,9
2259,9
2260,9
2261,9
2262,9
2263,9
2264,9
2265,9
2266,9
2267,9
2268,9
2269,9
2270,9
2271,9
2272,9
2273,9
2274,9
2275,9
2276,9
2277,9
2278,9
2279,9
2280,9
2281,9
2282,9
2283,9
2284,9
2285,9
2286,9
2287,9
2288,9
2289,9
2290,9
2291,9
2292,9
2293,9
2294,9
2295,9
2296,9
2297,9
2298,9
2299,9
2300,9
2301,9
2302,9
2303,9
2304,9
2305,9
2306,9
2307,9
2308,9
2309,9
2310,9
2311,9
2312,9
2313,9
2314,9
2315,9
2316,9
2317,9
2318,9
2319,9
2320,9
2321,9
2322,9
2323,9
2324,9
2325,9
2326,9
2327,9
2328,9
2329,9
2330,9
2331,9
2332,9
2333,9
2334,9
2335,9
2336,9
2337,9
2338,9
2339,9
2340,9
2341,9
2342,9
2343,9
2344,9
2345,9
2346,9
2347,9
2348,9
2349,9
2350,9
2351,9
2352,9
2353,9
2354,9
2355,9
2356,9
2357,9
2358,9
2359,9
2360,9
2361,9
2362,9
2363,9
2364,9
2365,9
2366,9
2367,9
2368,9
2369,9
2370,9
2371,9
2372,9
2373,9
2374,9
2375,9
2376,9
2377,9
2378,9
2379,9
2380,9
2381,9
2382,9
2383,9
2384,9
2385,9
2386,9
2387,9
2388,9
2389,9
2390,9
2391,9
2392,10
2393,9
2394,9
2395,9
2396,9
2397,9
2398,9
2399,9
2400,9
2401,9
2402,10
2403,9
2404,9
2405,9
2406,9
2407,9
2408,9
2409,9
2410,9
2411,9
2412,9
2413,9
2414,9
2415,9
2416,10
2417,10
2418,9
2419,9
2420,9
2421,9
2422,9
2423,9
2424,9
2425,9
2426,9
2427,9
2428,9
2429,9
2430,9
2431,9
2432,9
2433,9
2434,9
2435,9
2436,9
2437,9
2438,9
2439,9
2440,9
2441,9
2442,9
2443,9
2444,9
2445,9
2446,9
2447,9
2448,9
2449,9
2450,9
2451,9
2452,9
2453,9
2454,9
2455,9
2456,9
2457,9
2458,9
2459,9
2460,9
2461,9
2462,9
2463,9
2464,9
2465,9
2466,9
2467,9
2468,9
2469,9
2470,9
2471,9
2472,9
2473,9
2474,9
2475,9
2476,9
2477,9
2478,9
2479,9
2480,9
2481,9
2482,9
2483,9
2484,9
2485,9
2486,9
2487,9
2488,9
2489,9
2490,9
2491,9
2492,9
2493,9
2494,9
2495,10
2496,9
2497,9
2498,9
2499,9
2500,9
2501,9
2502,9
2503,9
2504,9
2505,9
2506,9
2507,9
2508,9
2509,9
2510,9
2511,9
2512,9
2513,9
2514,9
2515,9
2516,9
2517,9
2518,9
2519,9
2520,9
2521,9
2522,9
2523,9
2524,9
2525,9
2526,9
2527,9
2528,9
2529,9
2530,9
2531,9
2532,9
2533,9
2534,9
2535,9
2536,9
2537,9
2538,9
2539,9
2540,9
2541,9
2542,9
2543,9
2544,9
2545,9
2546,9
2547,9
2548,9
2549,9
2550,9
2551,9
2552,9
2553,9
2554,9
2555,9
2556,9
2557,9
2558,9
2559,9
2560,9
2561,9
2562,9
2563,9
2564,9
2565,9
2566,9
2567,9
2568,9
2569,9
2570,9
2571,9
2572,9
2573,9
2574,9
2575,9
2576,9
2577,9
2578,9
2579,9
2580,9
2581,9
2582,9
2583,9
2584,9
2585,9
2586,9
2587,9
2588,9
2589,9
2590,9
2591,9
2592,9
2593,9
2594,9
2595,9
2596,9
2597,9
2598,9
2599,9
2600,9
2601,9
2602,9
2603,9
2604,9
2605,9
2606,9
2607,9
2608,9
2609,9
2610,9
2611,9
2612,9
2613,9
2614,9
2615,9
2616,9
2617,9
2618,9
2619,9
2620,9
2621,9
2622,9
2623,9
2624,9
2625,9
2626,9
2627,10
2628,10
2629,10
2630,10
2631,10
2632,10
2633,10
2634,10
2635,10
2636,10
2637,10
2638,10
2639,10
2640,10
2641,10
2642,10
2643,10
2644,10
2645,10
2646,10
2647,10
2648,10
2649,10
2650,10
2651,10
2652,10
2653,10
2654,10
2655,10
2656,10
2657,10
2658,10
2659,10
2660,10
2661,10
2662,10
2663,10
2664,10
2665,10
2666,10
2667,10
2668,10
2669,10
2670,10
2671,10
2672,10
2673,10
2674,10
2675,10
2676,10
2677,10
2678,10
2679,10
2680,10
2681,10
2682,10
2683,10
2684,11
2685,11
2686,11
2687,11
2688,11
2689,11
2690,11
2691,11
2692,10
2693,10
2694,10
2695,10
2696,10
2697,10
2698,10
2699,10
2700,10
2701,10
2702,10
2703,10
2704,10
2705,10
2706,10
2707,10
2708,10
2709,10
2710,10
2711,10
2712,10
2713,10
2714,10
2715,10
2716,10
2717,10
2718,10
2719,10
2720,10
2721,10
2722,10
2723,10
2724,10
2725,11
2726,10
2727,10
2728,10
2729,10
2730,10
2731,10
2732,10
2733,10
2734,10
2735,10
2736,10
2737,10
2738,10
2739,11
2740,10
2741,10
2742,10
2743,10
2744,10
2745,10
2746,10
2747,10
2748,10
2749,10
2750,10
2751,10
2752,10
2753,10
2754,10
2755,10
2756,10
2757,10
2758,10
2759,10
2760,10
2761,10
2762,10
2763,10
2764,10
2765,10
2766,10
2767,10
2768,10
2769,10
2770,10
2771,10
2772,10
2773,10
2774,10
2775,10
2776,10
2777,10
2778,10
2779,10
2780,10
2781,10
2782,10
2783,10
2784,10
2785,10
2786,10
2787,10
2788,10
2789,10
2790,10
2791,10
2792,10
2793,10
2794,10
2795,10
2796,10
2797,10
2798,10
2799,10
2800,10
2801,10
2802,10
2803,10
2804,10
2805,10
2806,10
2807,10
2808,10
2809,10
2810,10
2811,10
2812,10
2813,10
2814,10
2815,10
2816,10
2817,11
2818,11
2819,11
2820,11
2821,11
2822,10
2823,10
2824,10
2825,10
2826,10
2827,10
2828,10
2829,10
2830,10
2831,10
2832,10
2833,10
2834,10
2835,10
2836,10
2837,10
2838,10
2839,10
2840,10
2841,10
2842,10
2843,10
2844,10
2845,10
2846,10
2847,10
2848,10
2849,10
2850,10
2851,10
2852,10
2853,10
2854,10
2855,10
2856,10
2857,10
2858,10
2859,10
2860,10
2861,10
2862,10
2863,10
2864,10
2865,10
2866,10
2867,10
2868,10
2869,10
2870,10
2871,10
2872,10
2873,10
2874,10
2875,10
2876,10
2877,10
2878,10
2879,10
2880,10
2881,10
2882,10
2883,10
2884,10
2885,10
2886,10
2887,10
2888,10
2889,10
2890,10
2891,10
2892,10
2893,10
2894,10
2895,10
2896,10
2897,10
2898,10
2899,10
2900,10
2901,10
2902,10
2903,10
2904,10
2905,10
2906,10
2907,10
2908,10
2909,10
2910,10
2911,10
2912,10
2913,10
2914,10
2915,10
2916,10
2917,10
2918,10
2919,10
2920,10
2921,10
2922,10
2923,10
2924,10
2925,10
2926,10
2927,10
2928,10
2929,10
2930,10
2931,10
2932,10
2933,10
2934,10
2935,10
2936,10
2937,10
2938,10
2939,10
2940,10
2941,10
2942,10
2943,10
2944,10
2945,11
2946,11
2947,11
2948,11
2949,11
2950,11
2951,11
2952,11
2953,11
2954,11
2955,11
2956,11
2957,11
2958,11
2959,11
2960,10
2961,11
2962,10
2963,10
2964,10
2965,10
2966,10
2967,10
2968,10
2969,10
2970,10
2971,10
2972,10
2973,10
2974,10
2975,10
2976,10
2977,10
2978,10
2979,10
2980,10
2981,10
2982,10
2983,10
2984,10
2985,10
2986,10
2987,10
2988,10
2989,10
2990,10
2991,10
2992,10
2993,10
2994,10
2995,11
2996,11
2997,10
2998,10
2999,10
3000,10
3001,10
3002,10
3003,10
3004,10
3005,10
3006,10
3007,10
3008,10
3009,10
3010,10
3011,10
3012,10
3013,10
3014,10
3015,10
3016,10
3017,10
3018,10
3019,10
3020,10
3021,10
3022,10
3023,10
3024,10
3025,10
3026,10
3027,10
3028,10
3029,10
3030,10
3031,10
3032,10
3033,10
3034,10
3035,10
3036,10
3037,10
3038,10
3039,10
3040,10
3041,10
3042,10
3043,10
3044,10
3045,10
3046,10
3047,10
3048,10
3049,10
3050,10
3051,10
3052,10
3053,10
3054,10
3055,10
3056,10
3057,10
3058,10
3059,10
3060,10
3061,10
3062,10
3063,10
3064,10
3065,10
3066,10
3067,10
3068,10
3069,10
3070,10
3071,10
3072,10
3073,10
3074,10
3075,10
3076,10
3077,10
3078,10
3079,10
3080,10
3081,10
3082,10
3083,10
3084,10
3085,10
3086,10
3087,10
3088,10
3089,10
3090,10
3091,10
3092,10
3093,10
3094,10
3095,10
3096,10
3097,10
3098,10
3099,10
3100,10
3101,10
3102,10
3103,10
3104,10
3105,10
3106,10
3107,10
3108,10
3109,10
3110,10
3111,10
3112,10
3113,10
3114,10
3115,11
3116,10
3117,10
3118,10
3119,10
3120,10
3121,10
3122,10
3123,10
3124,10
3125,10
3126,10
3127,10
3128,10
3129,10
3130,10
3131,10
3132,10
3133,10
3134,10
3135,10
3136,10
3137,10
3138,10
3139,10
3140,10
3141,10
3142,10
3143,10
3144,10
3145,10
3146,10
3147,10
3148,10
3149,10
3150,10
3151,10
3152,10
3153,10
3154,10
3155,10
3156,10
3157,10
3158,10
3159,10
3160,10
3161,10
3162,10
3163,10
3164,10
3165,10
3166,10
3167,10
3168,10
3169,10
3170,10
3171,10
3172,10
3173,10
3174,10
3175,10
3176,10
3177,10
3178,10
3179,10
3180,10
3181,10
3182,10
3183,10
3184,10
3185,10
3186,11
3187,11
3188,11
3189,11
3190,11
3191,11
3192,11
3193,11
3194,11
3195,11
3196,11
3197,11
3198,11
3199,11
3200,11
3201,11
3202,11
3203,11
3204,11
3205,11
3206,11
3207,11
3208,11
3209,11
3210,11
3211,11
3212,11
3213,11
3214,11
3215,11
3216,11
3217,11
3218,11
3219,11
3220,11
3221,11
3222,11
3223,11
3224,11
3225,11
3226,11
3227,11
3228,11
3229,11
3230,11
3231,11
3232,11
3233,11
3234,11
3235,11
3236,11
3237,11
3238,11
3239,11
3240,11
3241,11
3242,11
3243,11
3244,11
3245,11
3246,11
3247,11
3248,11
3249,11
3250,11
3251,11
3252,11
3253,11
3254,11
3255,11
3256,11
3257,11
3258,11
3259,11
3260,11
3261,11
3262,11
3263,11
3264,11
3265,11
3266,11
3267,11
3268,11
3269,11
3270,11
3271,11
3272,11
3273,11
3274,11
3275,11
3276,11
3277,11
3278,11
3279,11
3280,11
3281,11
3282,11
3283,11
3284,11
3285,11
3286,11
3287,11
3288,11
3289,11
3290,11
3291,11
3292,11
3293,11
3294,11
3295,11
3296,11
3297,11
3298,11
3299,11
3300,11
3301,11
3302,11
3303,11
3304,11
3305,11
3306,11
3307,11
3308,11
3309,11
3310,11
3311,11
3312,11
3313,11
3314,11
3315,11
3316,11
3317,11
3318,11
3319,11
3320,11
3321,11
3322,11
3323,11
3324,11
3325,11
3326,11
3327,11
3328,11
3329,11
3330,11
3331,11
3332,11
3333,11
3334,11
3335,11
3336,11
3337,11
3338,11
3339,11
3340,11
3341,11
3342,11
3343,11
3344,11
3345,11
3346,11
3347,11
3348,11
3349,11
3350,11
3351,11
3352,11
3353,11
3354,11
3355,11
3356,11
3357,11
3358,11
3359,11
3360,11
3361,11
3362,11
3363,11
3364,11
3365,11
3366,11
3367,11
3368,11
3369,11
3370,11
3371,11
3372,11
3373,11
3374,11
3375,11
3376,11
3377,11
3378,11
3379,11
3380,11
3381,11
3382,11
3383,11
3384,11
3385,11
3386,11
3387,11
3388,11
3389,11
3390,11
3391,11
3392,11
3393,11
3394,11
3395,11
3396,11
3397,11
3398,11
3399,11
3400,11
3401,11
3402,11
3403,11
3404,11
3405,11
3406,11
3407,11
3408,11
3409,11
3410,11
3411,11
3412,11
3413,11
3414,11
3415,11
3416,11
3417,11
3418,11
3419,11
3420,11
3421,11
3422,11
3423,11
3424,11
3425,11
3426,11
3427,11
3428,11
3429,11
3430,11
3431,11
3432,11
3433,11
3434,11
3435,11
3436,11
3437,11
3438,11
3439,11
3440,11
3441,11
3442,11
3443,11
3444,11
3445,11
3446,11
3447,11
3448,12
3449,12
3450,12
3451,12
3452,12
3453,12
3454,12
3455,12
3456,12
3457,12
3458,12
3459,11
3460,11
3461,11
3462,11
3463,11
3464,11
3465,11
3466,11
3467,11
3468,11
3469,11
3470,11
3471,11
3472,11
3473,11
3474,11
3475,11
3476,11
3477,11
3478,11
3479,11
3480,11
3481,11
3482,11
3483,11
3484,11
3485,11
3486,11
3487,11
3488,11
3489,11
3490,11
3491,11
3492,11
3493,11
3494,11
3495,11
3496,11
3497,11
3498,11
3499,11
3500,11
3501,11
3502,11
3503,11
3504,11
3505,11
3506,11
3507,11
3508,11
3509,11
3510,11
3511,11
3512,11
3513,12
3514,12
3515,12
3516,12
3517,12
3518,12
3519,12
3520,12
3521,12
3522,12
3523,12
3524,12
3525,12
3526,11
3527,11
3528,11
3529,11
3530,11
3531,11
3532,11
3533,11
3534,11
3535,11
3536,11
3537,11
3538,11
3539,11
3540,11
3541,11
3542,11
3543,11
3544,11
3545,12
3546,12
3547,11
3548,11
3549,11
3550,11
3551,11
3552,11
3553,11
3554,11
3555,11
3556,11
3557,11
3558,11
3559,11
3560,11
3561,11
3562,11
3563,11
3564,11
3565,11
3566,11
3567,11
3568,11
3569,11
3570,11
3571,11
3572,11
3573,11
3574,11
3575,11
3576,11
3577,11
3578,11
3579,11
3580,11
3581,11
3582,11
3583,11
3584,11
3585,11
3586,11
3587,11
3588,11
3589,11
3590,11
3591,11
3592,11
3593,11
3594,11
3595,11
3596,11
3597,11
3598,11
3599,11
3600,11
3601,11
3602,11
3603,11
3604,11
3605,11
3606,11
3607,11
3608,11
3609,11
3610,11
3611,11
3612,11
3613,11
3614,11
3615,11
3616,11
3617,11
3618,11
3619,11
3620,11
3621,11
3622,11
3623,11
3624,11
3625,11
3626,11
3627,11
3628,11
3629,11
3630,11
3631,11
3632,11
3633,11
3634,11
3635,11
3636,11
3637,11
3638,11
3639,11
3640,11
3641,11
3642,11
3643,11
3644,11
3645,11
3646,11
3647,11
3648,11
3649,11
3650,11
3651,11
3652,11
3653,11
3654,11
3655,11
3656,11
3657,11
3658,11
3659,11
3660,11
3661,11
3662,11
3663,11
3664,11
3665,11
3666,11
3667,11
3668,11
3669,11
3670,11
3671,11
3672,11
3673,11
3674,11
3675,11
3676,11
3677,11
3678,11
3679,11
3680,11
3681,11
3682,11
3683,11
3684,11
3685,11
3686,11
3687,11
3688,11
3689,11
3690,11
3691,11
3692,11
3693,11
3694,11
3695,11
3696,11
3697,11
3698,11
3699,11
3700,11
3701,11
3702,11
3703,11
3704,11
3705,11
3706,11
3707,11
3708,11
3709,11
3710,11
3711,11
3712,11
3713,12
3714,11
3715,11
3716,11
3717,11
3718,11
3719,11
3720,11
3721,11
3722,11
3723,11
3724,11
3725,11
3726,11
3727,11
3728,11
3729,11
3730,11
3731,11
3732,11
3733,11
3734,11
3735,11
3736,11
3737,11
3738,11
3739,11
3740,11
3741,11
3742,11
3743,11
3744,11
3745,11
3746,11
3747,11
3748,11
3749,11
3750,11
3751,11
3752,11
3753,11
3754,11
3755,11
3756,11
3757,11
3758,11
3759,11
3760,11
3761,11
3762,11
3763,11
3764,11
3765,11
3766,11
3767,11
3768,11
3769,11
3770,11
3771,11
3772,11
3773,11
3774,11
3775,11
3776,11
3777,11
3778,11
3779,11
3780,11
3781,11
3782,11
3783,11
3784,11
3785,11
3786,11
3787,11
3788,11
3789,11
3790,11
3791,11
3792,11
3793,11
3794,11
3795,11
3796,11
3797,11
3798,11
3799,11
3800,11
3801,11
3802,11
3803,11
3804,11
3805,11
3806,11
3807,11
3808,11
3809,11
3810,11
3811,11
3812,11
3813,11
3814,11
3815,11
3816,11
3817,11
3818,11
3819,11
3820,11
3821,11
3822,11
3823,11
3824,11
3825,11
3826,11
3827,11
3828,11
3829,11
3830,11
3831,11
3832,11
3833,11
3834,11
3835,11
3836,11
3837,11
3838,11
3839,12
3840,12
3841,11
3842,11
3843,11
3844,11
3845,11
3846,11
3847,11
3848,11
3849,11
3850,11
3851,11
3852,11
3853,11
3854,11
3855,11
3856,11
3857,11
3858,11
3859,11
3860,11
3861,11
3862,11
3863,11
3864,11
3865,11
3866,12
3867,12
3868,12
3869,12
3870,11
3871,11
3872,11
3873,11
3874,11
3875,11
3876,11
3877,11
3878,11
3879,11
3880,11
3881,11
3882,11
3883,11
3884,11
3885,11
3886,11
3887,11
3888,11
3889,11
3890,11
3891,11
3892,11
3893,11
3894,11
3895,11
3896,11
3897,11
3898,11
3899,11
3900,11
3901,11
3902,11
3903,11
3904,11
3905,11
3906,11
3907,11
3908,11
3909,11
3910,11
3911,11
3912,11
3913,11
3914,11
3915,11
3916,11
3917,11
3918,11
3919,11
3920,11
3921,11
3922,11
3923,11
3924,11
3925,11
3926,11
3927,11
3928,11
3929,11
3930,11
3931,11
3932,11
3933,11
3934,11
3935,11
3936,11
3937,11
3938,11
3939,11
3940,11
3941,11
3942,11
3943,11
3944,11
3945,11
3946,11
3947,11
3948,11
3949,11
3950,11
3951,11
3952,11
3953,11
3954,11
3955,11
3956,11
3957,11
3958,11
3959,11
3960,11
3961,11
3962,11
3963,11
3964,11
3965,11
3966,11
3967,11
3968,11
3969,11
3970,11
3971,11
3972,11
3973,11
3974,11
3975,11
3976,11
3977,11
3978,11
3979,11
3980,11
3981,11
3982,11
3983,11
3984,11
3985,11
3986,11
3987,11
3988,11
3989,11
3990,11
3991,11
3992,11
3993,11
3994,11
3995,11
3996,11
3997,11
3998,11
3999,11
4000,11
4001,11
4002,11
4003,11
4004,11
4005,11
4006,11
4007,11
4008,11
4009,11
4010,11
4011,11
4012,11
4013,11
4014,11
4015,11
4016,11
4017,11
4018,11
4019,11
4020,11
4021,11
4022,11
4023,11
4024,11
4025,11
4026,11
4027,11
4028,11
4029,11
4030,11
4031,11
4032,11
4033,11
4034,11
4035,12
4036,12
4037,12
4038,12
4039,11
4040,11
4041,11
4042,11
4043,11
4044,11
4045,11
4046,11
4047,11
4048,11
4049,11
4050,11
4051,11
4052,11
4053,11
4054,11
4055,11
4056,11
4057,11
4058,11
4059,11
4060,11
4061,11
4062,11
4063,11
4064,11
4065,11
4066,11
4067,11
4068,11
4069,11
4070,11
4071,11
4072,11
4073,11
4074,11
4075,11
4076,11
4077,11
4078,11
4079,11
4080,11
4081,11
4082,11
4083,11
4084,11
4085,11
4086,11
4087,11
4088,11
4089,11
4090,11
4091,11
4092,11
4093,11
4094,11
4095,11
4096,11
4097,11
4098,11
4099,11
4100,11
4101,11
4102,11
4103,11
4104,11
4105,11
4106,11
4107,11
4108,11
4109,11
4110,11
4111,11
4112,11
4113,11
4114,11
4115,11
4116,11
4117,11
4118,11
4119,11
4120,11
4121,11
4122,11
4123,11
4124,11
4125,11
4126,11
4127,11
4128,11
4129,11
4130,11
4131,11
4132,11
4133,11
4134,11
4135,11
4136,11
4137,11
4138,11
4139,11
4140,11
4141,11
4142,11
4143,11
4144,11
4145,11
4146,11
4147,11
4148,11
4149,11
4150,11
4151,11
4152,12
4153,12
4154,12
4155,11
4156,11
4157,11
4158,11
4159,11
4160,11
4161,11
4162,11
4163,11
4164,11
4165,11
4166,11
4167,11
4168,11
4169,11
4170,11
4171,11
4172,11
4173,11
4174,11
4175,11
4176,11
4177,11
4178,11
4179,11
4180,11
4181,11
4182,11
4183,11
4184,11
4185,11
4186,11
4187,11
4188,11
4189,11
4190,11
4191,11
4192,11
4193,11
4194,11
4195,11
4196,11
4197,11
4198,11
4199,11
4200,11
4201,11
4202,11
4203,11
4204,11
4205,11
4206,11
4207,11
4208,11
4209,11
4210,11
4211,11
4212,11
4213,11
4214,11
4215,11
4216,11
4217,11
4218,11
4219,11
4220,11
4221,11
4222,11
4223,11
4224,11
4225,11
4226,11
4227,11
4228,11
4229,11
4230,11
4231,11
4232,11
4233,11
4234,11
4235,11
4236,11
4237,12
4238,12
4239,12
4240,11
4241,11
4242,11
4243,11
4244,11
4245,11
4246,11
4247,11
4248,11
4249,11
4250,11
4251,11
4252,11
4253,11
4254,11
4255,11
4256,11
4257,11
4258,11
4259,11
4260,11
4261,11
4262,11
4263,11
4264,11
4265,11
4266,11
4267,11
4268,11
4269,11
4270,11
4271,11
4272,11
4273,11
4274,11
4275,11
4276,11
4277,11
4278,11
4279,11
4280,11
4281,11
4282,11
4283,11
4284,11
4285,11
4286,11
4287,11
4288,11
4289,11
4290,11
4291,11
4292,11
4293,11
4294,11
4295,11
4296,11
4297,11
4298,11
4299,11
4300,11
4301,11
4302,11
4303,11
4304,11
4305,12
4306,12
4307,12
4308,12
4309,12
4310,12
4311,12
4312,12
4313,12
4314,12
4315,12
4316,12
4317,12
4318,13
4319,12
4320,12
4321,12
4322,12
4323,12
4324,12
4325,12
4326,12
4327,12
4328,12
4329,12
4330,12
4331,12
4332,12
4333,12
4334,12
4335,12
4336,12
4337,12
4338,12
4339,12
4340,12
4341,12
4342,12
4343,12
4344,12
4345,12
4346,12
4347,12
4348,12
4349,12
4350,12
4351,12
4352,12
4353,12
4354,12
4355,12
4356,12
4357,12
4358,12
4359,12
4360,12
4361,12
4362,13
4363,13
4364,12
4365,12
4366,12
4367,12
4368,12
4369,12
4370,12
4371,12
4372,12
4373,12
4374,12
4375,12
4376,12
4377,12
4378,12
4379,12
4380,12
4381,12
4382,12
4383,12
4384,12
4385,12
4386,12
4387,12
4388,12
4389,12
4390,12
4391,12
4392,12
4393,12
4394,12
4395,12
4396,12
4397,12
4398,12
4399,12
4400,12
4401,12
4402,12
4403,12
4404,12
4405,13
4406,13
4407,13
4408,13
4409,13
4410,13
4411,13
4412,12
4413,12
4414,12
4415,12
4416,12
4417,12
4418,12
4419,12
4420,12
4421,12
4422,12
4423,12
4424,12
4425,12
4426,12
4427,12
4428,12
4429,12
4430,12
4431,12
4432,12
4433,12
4434,12
4435,12
4436,12
4437,12
4438,13
4439,13
4440,13
4441,13
4442,14
4443,14
4444,14
4445,14
4446,14
4447,14
4448,14
4449,14
4450,14
4451,13
4452,13
4453,13
4454,13
4455,13
4456,13
4457,13
4458,13
4459,13
4460,13
4461,13
4462,13
4463,13
4464,13
4465,13
4466,13
4467,13
4468,13
4469,13
4470,13
4471,13
4472,13
4473,13
4474,13
4475,13
4476,13
4477,13
4478,13
4479,13
4480,13
4481,13
4482,13
4483,13
4484,13
4485,13
4486,13
4487,14
4488,14
4489,14
4490,14
4491,14
4492,14
4493,14
4494,14
4495,14
4496,14
4497,14
4498,14
4499,14
4500,14
4501,14
4502,14
4503,14
4504,14
4505,14
4506,14
4507,14
4508,14
4509,14
4510,14
4511,14
4512,14
4513,14
4514,13
4515,13
4516,13
4517,13
4518,13
4519,13
4520,13
4521,13
4522,13
4523,13
4524,13
4525,13
4526,13
4527,13
4528,13
4529,13
4530,13
4531,13
4532,13
4533,13
4534,13
4535,13
4536,13
4537,13
4538,13
4539,13
4540,13
4541,13
4542,13
4543,13
4544,13
4545,13
4546,13
4547,13
4548,13
4549,13
4550,13
4551,13
4552,13
4553,13
4554,13
4555,13
4556,13
4557,13
4558,13
4559,13
4560,13
4561,13
4562,13
4563,13
4564,13
4565,13
4566,13
4567,13
4568,13
4569,13
4570,13
4571,13
4572,13
4573,13
4574,13
4575,13
4576,13
4577,13
4578,13
4579,13
4580,13
4581,13
4582,13
4583,13
4584,13
4585,13
4586,13
4587,13
4588,13
4589,13
4590,13
4591,13
4592,13
4593,13
4594,13
4595,13
4596,13
4597,13
4598,13
4599,13
4600,13
4601,13
4602,13
4603,13
4604,13
4605,13
4606,13
4607,13
4608,13
4609,13
4610,13
4611,13
4612,13
4613,13
4614,13
4615,13
4616,13
4617,13
4618,13
4619,13
4620,13
4621,13
4622,13
4623,13
4624,13
4625,13
4626,13
4627,13
4628,13
4629,13
4630,13
4631,13
4632,13
4633,13
4634,13
4635,13
4636,13
4637,13
4638,13
4639,13
4640,13
4641,13
4642,13
4643,13
4644,13
4645,13
4646,13
4647,13
4648,13
4649,13
4650,13
4651,13
4652,13
4653,13
4654,13
4655,13
4656,13
4657,13
4658,13
4659,13
4660,13
4661,13
4662,13
4663,13
4664,13
4665,13
4666,13
4667,13
4668,13
4669,13
4670,13
4671,13
4672,13
4673,13
4674,13
4675,13
4676,13
4677,13
4678,13
4679,13
4680,13
4681,13
4682,13
4683,13
4684,13
4685,13
4686,13
4687,13
4688,13
4689,13
4690,13
4691,13
4692,13
4693,13
4694,13
4695,13
4696,13
4697,14
4698,14
4699,14
4700,14
4701,14
4702,14
4703,14
4704,14
4705,14
4706,14
4707,13
4708,13
4709,13
4710,13
4711,13
4712,13
4713,13
4714,13
4715,13
4716,13
4717,13
4718,13
4719,13
4720,13
4721,13
4722,13
4723,13
4724,13
4725,13
4726,13
4727,13
4728,13
4729,13
4730,13
4731,13
4732,13
4733,13
4734,13
4735,13
4736,13
4737,13
4738,13
4739,13
4740,13
4741,13
4742,13
4743,13
4744,13
4745,13
4746,13
4747,13
4748,13
4749,13
4750,13
4751,13
4752,13
4753,13
4754,13
4755,13
4756,13
4757,13
4758,13
4759,13
4760,13
4761,13
4762,13
4763,13
4764,13
4765,13
4766,13
4767,13
4768,13
4769,13
4770,14
4771,14
4772,15
4773,14
4774,14
4775,14
4776,14
4777,14
4778,14
4779,14
4780,14
4781,14
4782,14
4783,14
4784,14
4785,14
4786,14
4787,14
4788,14
4789,14
4790,14
4791,14
4792,14
4793,14
4794,14
4795,14
4796,14
4797,14
4798,14
4799,14
4800,14
4801,14
4802,14
4803,14
4804,14
4805,14
4806,14
4807,14
4808,14
4809,14
4810,14
4811,14
4812,14
4813,14
4814,14
4815,14
4816,14
4817,14
4818,14
4819,14
4820,14
4821,14
4822,14
4823,14
4824,14
4825,14
4826,14
4827,14
4828,14
4829,14
4830,14
4831,14
4832,14
4833,14
4834,14
4835,14
4836,14
4837,14
4838,14
4839,15
4840,14
4841,14
4842,14
4843,14
4844,14
4845,14
4846,14
4847,14
4848,14
4849,14
4850,14
4851,14
4852,14
4853,14
4854,14
4855,14
4856,14
4857,14
4858,14
4859,14
4860,14
4861,14
4862,14
4863,14
4864,14
4865,14
4866,14
4867,14
4868,14
4869,14
4870,14
4871,14
4872,14
4873,14
4874,14
4875,14
4876,14
4877,14
4878,14
4879,14
4880,14
4881,14
4882,14
4883,14
4884,14
4885,14
4886,14
4887,14
4888,14
4889,14
4890,14
4891,14
4892,14
4893,14
4894,14
4895,14
4896,14
4897,14
4898,14
4899,14
4900,14
4901,14
4902,14
4903,14
4904,14
4905,14
4906,14
4907,14
4908,14
4909,14
4910,14
4911,14
4912,14
4913,14
4914,14
4915,14
4916,14
4917,14
4918,14
4919,14
4920,14
4921,14
4922,14
4923,14
4924,14
4925,14
4926,14
4927,14
4928,14
4929,14
4930,14
4931,14
4932,14
4933,14
4934,14
4935,14
4936,14
4937,14
4938,14
4939,14
4940,14
4941,14
4942,14
4943,14
4944,14
4945,14
4946,14
4947,14
4948,14
4949,14
4950,14
4951,14
4952,14
4953,14
4954,14
4955,14
4956,14
4957,14
4958,14
4959,14
4960,14
4961,14
4962,14
4963,14
4964,14
4965,14
4966,14
4967,14
4968,14
4969,14
4970,14
4971,14
4972,14
4973,14
4974,14
4975,14
4976,14
4977,14
4978,14
4979,14
4980,14
4981,14
4982,14
4983,14
4984,14
4985,14
4986,14
4987,14
4988,14
4989,14
4990,14
4991,14
4992,14
4993,14
4994,14
4995,14
4996,14
4997,14
4998,14
4999,15
5000,15
5001,15
5002,14
5003,14
5004,14
5005,14
5006,14
5007,14
5008,14
5009,14
5010,14
5011,15
5012,15
5013,15
5014,14
5015,14
5016,14
5017,14
5018,14
5019,14
5020,14
5021,14
5022,14
5023,14
5024,14
5025,14
5026,14
5027,14
5028,14
5029,14
5030,14
5031,14
5032,14
5033,14
5034,14
5035,14
5036,14
5037,14
5038,14
5039,14
5040,14
5041,14
5042,14
5043,14
5044,14
5045,14
5046,14
5047,14
5048,14
5049,14
5050,14
5051,14
5052,14
5053,14
5054,15
5055,14
5056,14
5057,14
5058,14
5059,14
5060,14
5061,14
5062,14
5063,14
5064,14
5065,14
5066,14
5067,14
5068,14
5069,14
5070,14
5071,14
5072,14
5073,14
5074,14
5075,14
5076,14
5077,14
5078,14
5079,14
5080,14
5081,14
5082,14
5083,14
5084,14
5085,14
5086,14
5087,14
5088,14
5089,14
5090,14
5091,14
5092,14
5093,14
5094,14
5095,14
5096,14
5097,14
5098,14
5099,14
5100,14
5101,14
5102,14
5103,14
5104,14
5105,14
5106,14
5107,14
5108,15
5109,15
5110,15
5111,15
5112,15
5113,15
5114,15
5115,15
5116,15
5117,15
5118,15
5119,15
5120,15
5121,15
5122,15
5123,15
5124,15
5125,15
5126,15
5127,15
5128,15
5129,15
5130,15
5131,15
5132,15
5133,15
5134,15
5135,15
5136,15
5137,15
5138,15
5139,15
5140,15
5141,15
5142,15
5143,15
5144,15
5145,15
5146,15
5147,15
5148,15
5149,15
5150,15
5151,15
5152,15
5153,15
5154,15
5155,15
5156,15
5157,15
5158,15
5159,15
5160,15
5161,15
5162,15
5163,15
5164,15
5165,15
5166,15
5167,15
5168,15
5169,15
5170,15
5171,15
5172,15
5173,15
5174,15
5175,15
5176,15
5177,15
5178,15
5179,15
5180,15
5181,15
5182,15
5183,15
5184,15
5185,15
5186,15
5187,15
5188,15
5189,15
5190,15
5191,15
5192,15
5193,15
5194,15
5195,15
5196,15
5197,15
5198,15
5199,15
5200,15
5201,15
5202,15
5203,15
5204,15
5205,15
5206,15
5207,15
5208,15
5209,15
5210,15
5211,15
5212,15
5213,15
5214,15
5215,15
5216,15
5217,15
5218,15
5219,15
5220,15
5221,15
5222,15
5223,15
5224,15
5225,15
5226,15
5227,15
5228,15
5229,15
5230,15
5231,15
5232,15
5233,16
5234,15
5235,15
5236,15
5237,15
5238,15
5239,15
5240,15
5241,15
5242,15
5243,15
5244,15
5245,15
5246,15
5247,15
5248,15
5249,15
5250,15
5251,15
5252,15
5253,15
5254,15
5255,15
5256,15
5257,15
5258,15
5259,15
5260,15
5261,15
5262,15
5263,15
5264,15
5265,15
5266,15
5267,15
5268,16
5269,15
5270,15
5271,15
5272,15
5273,15
5274,15
5275,15
5276,15
5277,16
5278,16
5279,16
5280,15
5281,15
5282,15
5283,15
5284,15
5285,15
5286,15
5287,15
5288,15
5289,15
5290,15
5291,16
5292,16
5293,16
5294,16
5295,16
5296,16
5297,16
5298,16
5299,16
5300,16
5301,16
5302,16
5303,16
5304,16
5305,16
5306,16
5307,16
5308,16
5309,16
5310,16
5311,16
5312,16
5313,16
5314,16
5315,16
5316,16
5317,16
5318,16
5319,16
5320,16
5321,16
5322,16
5323,16
5324,16
5325,16
5326,16
5327,16
5328,16
5329,16
5330,16
5331,16
5332,16
5333,16
5334,16
5335,16
5336,16
5337,16
5338,16
5339,16
5340,16
5341,16
5342,16
5343,16
5344,16
5345,16
5346,16
5347,16
5348,16
5349,16
5350,16
5351,16
5352,16
5353,16
5354,16
5355,16
5356,16
5357,16
5358,16
5359,16
5360,16
5361,16
5362,16
5363,16
5364,16
5365,16
5366,16
5367,16
5368,16
5369,16
5370,16
5371,16
5372,16
5373,16
5374,16
5375,16
5376,16
5377,16
5378,16
5379,16
5380,16
5381,16
5382,16
5383,16
5384,16
5385,16
5386,16
5387,16
5388,16
5389,16
5390,16
5391,16
5392,16
5393,16
5394,16
5395,16
5396,16
5397,16
5398,16
5399,16
5400,16
5401,16
5402,16
5403,16
5404,16
5405,16
5406,16
5407,16
5408,16
5409,16
5410,16
5411,16
5412,16
5413,16
5414,16
5415,16
5416,16
5417,16
5418,16
5419,16
5420,16
5421,16
5422,16
5423,16
5424,16
5425,16
5426,16
5427,16
5428,16
5429,16
5430,16
5431,16
5432,16
5433,16
5434,16
5435,16
5436,16
5437,16
5438,16
5439,16
5440,16
5441,16
5442,16
5443,16
5444,16
5445,16
5446,16
5447,16
5448,16
5449,16
5450,16
5451,16
5452,16
5453,16
5454,16
5455,16
5456,16
5457,16
5458,16
5459,16
5460,16
5461,16
5462,16
5463,16
5464,16
5465,16
5466,16
5467,16
5468,16
5469,16
5470,16
5471,16
5472,16
5473,16
5474,16
5475,16
5476,16
5477,16
5478,16
5479,16
5480,16
5481,16
5482,16
5483,16
5484,16
5485,16
5486,16
5487,16
5488,16
5489,16
5490,16
5491,16
5492,16
5493,16
5494,16
5495,16
5496,16
5497,16
5498,16
5499,16
5500,16
5501,16
5502,16
5503,16
5504,16
5505,16
5506,16
5507,16
5508,16
5509,16
5510,16
5511,16
5512,16
5513,16
5514,16
5515,16
5516,16
5517,16
5518,16
5519,16
5520,16
5521,16
5522,16
5523,16
5524,16
5525,16
5526,16
5527,16
5528,16
5529,16
5530,16
5531,16
5532,16
5533,17
5534,17
5535,17
5536,17
5537,17
5538,17
5539,17
5540,17
5541,17
5542,17
5543,17
5544,16
5545,16
5546,16
5547,16
5548,16
5549,16
5550,16
5551,16
5552,16
5553,16
5554,16
5555,16
5556,16
5557,16
5558,16
5559,16
5560,16
5561,16
5562,16
5563,16
5564,16
5565,16
5566,16
5567,16
5568,16
5569,16
5570,16
5571,16
5572,16
5573,16
5574,16
5575,16
5576,16
5577,16
5578,16
5579,16
5580,16
5581,16
5582,16
5583,16
5584,16
5585,16
5586,16
5587,16
5588,16
5589,16
5590,16
5591,16
5592,16
5593,16
5594,16
5595,16
5596,16
5597,16
5598,16
5599,16
5600,16
5601,16
5602,16
5603,16
5604,16
5605,16
5606,16
5607,16
5608,16
5609,16
5610,16
5611,16
5612,16
5613,16
5614,16
5615,16
5616,16
5617,16
5618,16
5619,16
5620,16
5621,16
5622,16
5623,16
5624,16
5625,16
5626,16
5627,16
5628,16
5629,16
5630,16
5631,16
5632,16
5633,16
5634,16
5635,16
5636,16
5637,16
5638,16
5639,16
5640,16
5641,16
5642,16
5643,16
5644,16
5645,16
5646,16
5647,16
5648,17
5649,17
5650,16
5651,16
5652,16
5653,16
5654,16
5655,16
5656,16
5657,16
5658,16
5659,16
5660,16
5661,16
5662,16
5663,16
5664,16
5665,16
5666,16
5667,16
5668,16
5669,16
5670,16
5671,16
5672,16
5673,16
5674,16
5675,16
5676,16
5677,16
5678,16
5679,16
5680,16
5681,16
5682,16
5683,16
5684,16
5685,16
5686,16
5687,16
5688,16
5689,16
5690,16
5691,16
5692,16
5693,16
5694,16
5695,16
5696,16
5697,16
5698,16
5699,16
5700,16
5701,16
5702,16
5703,16
5704,16
5705,16
5706,16
5707,16
5708,16
5709,16
5710,16
5711,16
5712,16
5713,16
5714,16
5715,16
5716,16
5717,16
5718,16
5719,16
5720,16
5721,16
5722,16
5723,16
5724,16
5725,16
5726,16
5727,16
5728,16
5729,16
5730,16
5731,16
5732,16
5733,16
5734,16
5735,16
5736,16
5737,16
5738,16
5739,16
5740,16
5741,16
5742,16
5743,16
5744,16
5745,16
5746,16
5747,16
5748,16
5749,16
5750,16
5751,16
5752,16
5753,16
5754,16
5755,16
5756,16
5757,16
5758,16
5759,16
5760,16
5761,16
5762,16
5763,17
5764,17
5765,17
5766,17
5767,17
5768,16
5769,16
5770,16
5771,16
5772,16
5773,16
5774,16
5775,16
5776,16
5777,16
5778,16
5779,16
5780,16
5781,16
5782,16
5783,16
5784,16
5785,16
5786,16
5787,16
5788,16
5789,16
5790,16
5791,16
5792,16
5793,16
5794,16
5795,16
5796,16
5797,16
5798,16
5799,16
5800,16
5801,16
5802,16
5803,16
5804,16
5805,16
5806,16
5807,16
5808,16
5809,16
5810,16
5811,16
5812,16
5813,16
5814,16
5815,16
5816,16
5817,16
5818,16
5819,16
5820,16
5821,16
5822,16
5823,16
5824,16
5825,16
5826,16
5827,16
5828,16
5829,16
5830,16
5831,16
5832,16
5833,16
5834,16
5835,16
5836,16
5837,16
5838,16
5839,16
5840,16
5841,16
5842,16
5843,16
5844,16
5845,16
5846,16
5847,16
5848,16
5849,16
5850,16
5851,16
5852,16
5853,17
5854,17
5855,16
5856,16
5857,16
5858,16
5859,16
5860,16
5861,16
5862,16
5863,16
5864,16
5865,16
5866,16
5867,16
5868,16
5869,16
5870,17
5871,17
5872,17
5873,17
5874,17
5875,17
5876,17
5877,17
5878,17
5879,17
5880,17
5881,17
5882,17
5883,17
5884,17
5885,17
5886,17
5887,17
5888,17
5889,17
5890,17
5891,17
5892,17
5893,17
5894,17
5895,17
5896,17
5897,17
5898,17
5899,17
5900,17
5901,17
5902,17
5903,17
5904,17
5905,17
5906,17
5907,17
5908,17
5909,17
5910,17
5911,18
5912,17
5913,17
5914,17
5915,17
5916,17
5917,17
5918,17
5919,17
5920,16
5921,16
5922,16
5923,16
5924,16
5925,16
5926,16
5927,16
5928,16
5929,16
5930,16
5931,16
5932,16
5933,16
5934,16
5935,16
5936,16
5937,16
5938,16
5939,16
5940,16
5941,16
5942,16
5943,16
5944,16
5945,16
5946,16
5947,16
5948,16
5949,16
5950,16
5951,16
5952,16
5953,16
5954,16
5955,16
5956,16
5957,16
5958,16
5959,16
5960,16
5961,16
5962,16
5963,16
5964,16
5965,16
5966,16
5967,16
5968,16
5969,16
5970,16
5971,16
5972,16
5973,16
5974,16
5975,16
5976,16
5977,16
5978,16
5979,16
5980,16
5981,16
5982,17
5983,16
5984,16
5985,16
5986,16
5987,16
5988,16
5989,16
5990,16
5991,16
5992,16
5993,17
5994,17
5995,17
5996,16
5997,16
5998,16
5999,16
6000,16
6001,16
6002,16
6003,16
6004,16
6005,16
6006,16
6007,16
6008,16
6009,17
6010,17
6011,16
6012,16
6013,16
6014,16
6015,16
6016,16
6017,16
6018,16
6019,16
6020,16
6021,16
6022,16
6023,16
6024,16
6025,16
6026,16
6027,16
6028,16
6029,16
6030,16
6031,16
6032,16
6033,16
6034,16
6035,16
6036,16
6037,16
6038,16
6039,16
6040,16
6041,16
6042,16
6043,16
6044,16
6045,16
6046,16
6047,16
6048,16
6049,16
6050,16
6051,16
6052,16
6053,16
6054,16
6055,16
6056,16
6057,16
6058,16
6059,16
6060,16
6061,16
6062,17
6063,17
6064,17
6065,17
6066,17
6067,17
6068,17
6069,17
6070,17
6071,17
6072,17
6073,17
6074,17
6075,17
6076,17
6077,17
6078,17
6079,17
6080,17
6081,17
6082,17
6083,17
6084,17
6085,17
6086,17
6087,17
6088,17
6089,17
6090,17
6091,17
6092,17
6093,17
6094,17
6095,17
6096,17
6097,17
6098,17
6099,17
6100,17
6101,17
6102,17
6103,17
6104,17
6105,17
6106,17
6107,17
6108,17
6109,17
6110,17
6111,17
6112,17
6113,17
6114,17
6115,17
6116,17
6117,17
6118,17
6119,17
6120,17
6121,17
6122,17
6123,17
6124,17
6125,17
6126,17
6127,17
6128,17
6129,17
6130,17
6131,17
6132,17
6133,17
6134,17
6135,17
6136,17
6137,17
6138,17
6139,17
6140,17
6141,17
6142,17
6143,17
6144,17
6145,17
6146,17
6147,17
6148,17
6149,17
6150,17
6151,17
6152,17
6153,17
6154,17
6155,17
6156,17
6157,17
6158,17
6159,17
6160,17
6161,17
6162,17
6163,17
6164,17
6165,17
6166,17
6167,17
6168,17
6169,17
6170,17
6171,17
6172,17
6173,17
6174,17
6175,17
6176,17
6177,17
6178,17
6179,17
6180,17
6181,17
6182,17
6183,17
6184,17
6185,17
6186,17
6187,17
6188,17
6189,17
6190,17
6191,17
6192,17
6193,17
6194,17
6195,17
6196,17
6197,17
6198,17
6199,17
6200,17
6201,17
6202,17
6203,17
6204,17
6205,17
6206,17
6207,17
6208,17
6209,17
6210,17
6211,17
6212,17
6213,17
6214,17
6215,17
6216,17
6217,17
6218,17
6219,17
6220,17
6221,17
6222,17
6223,17
6224,17
6225,17
6226,17
6227,17
6228,17
6229,17
6230,17
6231,17
6232,17
6233,17
6234,17
6235,17
6236,17
6237,17
6238,17
6239,17
6240,17
6241,17
6242,17
6243,17
6244,17
6245,17
6246,17
6247,17
6248,17
6249,17
6250,17
6251,17
6252,17
6253,17
6254,17
6255,17
6256,17
6257,17
6258,17
6259,17
6260,17
6261,17
6262,17
6263,17
6264,17
6265,17
6266,17
6267,17
6268,18
6269,18
6270,18
6271,17
6272,17
6273,17
6274,17
6275,17
6276,17
6277,17
6278,17
6279,17
6280,17
6281,17
6282,17
6283,17
6284,17
6285,17
6286,17
6287,17
6288,17
6289,17
6290,17
6291,17
6292,17
6293,17
6294,17
6295,17
6296,17
6297,17
6298,17
6299,17
6300,17
6301,17
6302,18
6303,18
6304,18
6305,18
6306,18
6307,18
6308,18
6309,18
6310,18
6311,18
6312,18
6313,18
6314,18
6315,18
6316,18
6317,18
6318,18
6319,18
6320,18
6321,18
6322,18
6323,18
6324,18
6325,18
6326,17
6327,17
6328,17
6329,17
6330,17
6331,17
6332,17
6333,17
6334,17
6335,17
6336,17
6337,17
6338,17
6339,18
6340,18
6341,17
6342,17
6343,17
6344,17
6345,17
6346,17
6347,17
6348,17
6349,17
6350,17
6351,17
6352,17
6353,17
6354,17
6355,17
6356,17
6357,17
6358,17
6359,17
6360,17
6361,17
6362,17
6363,17
6364,17
6365,17
6366,17
6367,17
6368,17
6369,17
6370,17
6371,17
6372,17
6373,17
6374,17
6375,17
6376,17
6377,17
6378,17
6379,17
6380,17
6381,17
6382,17
6383,17
6384,17
6385,17
6386,17
6387,17
6388,17
6389,17
6390,17
6391,17
6392,17
6393,17
6394,17
6395,18
6396,18
6397,18
6398,17
6399,17
6400,17
6401,17
6402,17
6403,17
6404,17
6405,17
6406,17
6407,17
6408,17
6409,17
6410,17
6411,17
6412,17
6413,17
6414,17
6415,17
6416,17
6417,17
6418,17
6419,17
6420,17
6421,17
6422,17
6423,17
6424,17
6425,17
6426,17
6427,17
6428,17
6429,17
6430,17
6431,18
6432,18
6433,18
6434,18
6435,17
6436,17
6437,17
6438,17
6439,17
6440,17
6441,17
6442,17
6443,17
6444,17
6445,17
6446,17
6447,17
6448,17
6449,17
6450,17
6451,17
6452,17
6453,17
6454,17
6455,17
6456,17
6457,17
6458,17
6459,17
6460,17
6461,17
6462,17
6463,17
6464,17
6465,17
6466,17
6467,17
6468,17
6469,17
6470,17
6471,17
6472,17
6473,17
6474,17
6475,17
6476,17
6477,17
6478,17
6479,17
6480,17
6481,17
6482,17
6483,17
6484,17
6485,17
6486,17
6487,17
6488,17
6489,17
6490,17
6491,17
6492,17
6493,17
6494,17
6495,17
6496,17
6497,17
6498,17
6499,17
6500,17
6501,17
6502,17
6503,17
6504,17
6505,17
6506,17
6507,17
6508,17
6509,17
6510,17
6511,17
6512,17
6513,17
6514,17
6515,17
6516,17
6517,17
6518,17
6519,17
6520,17
6521,17
6522,17
6523,17
6524,17
6525,17
6526,17
6527,17
6528,17
6529,17
6530,17
6531,17
6532,17
6533,17
6534,17
6535,17
6536,17
6537,17
6538,17
6539,17
6540,17
6541,17
6542,17
6543,17
6544,17
6545,17
6546,17
6547,17
6548,17
6549,17
6550,17
6551,17
6552,17
6553,17
6554,17
6555,17
6556,17
6557,17
6558,17
6559,17
6560,17
6561,17
6562,17
6563,17
6564,17
6565,17
6566,17
6567,17
6568,17
6569,17
6570,17
6571,17
6572,17
6573,17
6574,17
6575,17
6576,17
6577,17
6578,17
6579,17
6580,17
6581,17
6582,17
6583,17
6584,17
6585,17
6586,17
6587,17
6588,17
6589,17
6590,17
6591,17
6592,17
6593,17
6594,17
6595,17
6596,17
6597,17
6598,17
6599,17
6600,17
6601,17
6602,17
6603,17
6604,17
6605,17
6606,17
6607,17
6608,17
6609,17
6610,17
6611,17
6612,17
6613,17
6614,17
6615,17
6616,17
6617,17
6618,17
6619,17
6620,17
6621,17
6622,17
6623,17
6624,17
6625,17
6626,17
6627,17
6628,17
6629,17
6630,17
6631,17
6632,17
6633,18
6634,17
6635,17
6636,17
6637,17
6638,17
6639,17
6640,17
6641,17
6642,17
6643,17
6644,17
6645,17
6646,17
6647,17
6648,17
6649,17
6650,17
6651,17
6652,17
6653,17
6654,17
6655,17
6656,17
6657,17
6658,17
6659,17
6660,17
6661,17
6662,17
6663,17
6664,17
6665,17
6666,17
6667,17
6668,17
6669,17
6670,17
6671,17
6672,17
6673,17
6674,17
6675,17
6676,17
6677,17
6678,17
6679,17
6680,17
6681,17
6682,17
6683,17
6684,17
6685,17
6686,17
6687,17
6688,17
6689,17
6690,18
6691,18
6692,17
6693,17
6694,17
6695,17
6696,17
6697,17
6698,17
6699,17
6700,17
6701,17
6702,17
6703,17
6704,17
6705,17
6706,17
6707,17
6708,17
6709,17
6710,17
6711,17
6712,17
6713,17
6714,17
6715,17
6716,17
6717,17
6718,17
6719,17
6720,17
6721,17
6722,17
6723,17
6724,17
6725,17
6726,17
6727,17
6728,17
6729,17
6730,17
6731,17
6732,17
6733,17
6734,17
6735,17
6736,17
6737,17
6738,18
6739,17
6740,17
6741,17
6742,17
6743,17
6744,17
6745,17
6746,17
6747,17
6748,17
6749,17
6750,17
6751,17
6752,17
6753,17
6754,17
6755,17
6756,17
6757,17
6758,17
6759,17
6760,17
6761,17
6762,17
6763,17
6764,17
6765,17
6766,17
6767,17
6768,17
6769,17
6770,17
6771,17
6772,17
6773,17
6774,17
6775,17
6776,18
6777,17
6778,17
6779,17
6780,17
6781,17
6782,17
6783,17
6784,17
6785,17
6786,17
6787,17
6788,17
6789,17
6790,17
6791,17
6792,17
6793,17
6794,17
6795,17
6796,17
6797,17
6798,18
6799,18
6800,18
6801,17
6802,17
6803,17
6804,17
6805,17
6806,17
6807,17
6808,17
6809,17
6810,17
6811,17
6812,17
6813,17
6814,17
6815,17
6816,17
6817,17
6818,17
6819,17
6820,17
6821,17
6822,17
6823,17
6824,17
6825,17
6826,17
6827,17
6828,17
6829,17
6830,17
6831,17
6832,17
6833,17
6834,18
6835,18
6836,17
6837,17
6838,17
6839,17
6840,17
6841,17
6842,17
6843,17
6844,17
6845,17
6846,17
6847,17
6848,17
6849,17
6850,17
6851,17
6852,17
6853,17
6854,17
6855,17
6856,17
6857,17
6858,17
6859,17
6860,17
6861,17
6862,17
6863,17
6864,17
6865,17
6866,17
6867,17
6868,17
6869,17
6870,17
6871,17
6872,17
6873,17
6874,17
6875,17
6876,17
6877,17
6878,17
6879,17
6880,17
6881,17
6882,17
6883,17
6884,17
6885,17
6886,17
6887,17
6888,17
6889,17
6890,18
6891,18
6892,18
6893,18
6894,18
6895,18
6896,17
6897,17
6898,17
6899,17
6900,17
6901,17
6902,17
6903,17
6904,17
6905,17
6906,17
6907,18
6908,18
6909,18
6910,18
6911,18
6912,18
6913,18
6914,18
6915,18
6916,18
6917,18
6918,18
6919,18
6920,18
6921,18
6922,18
6923,18
6924,18
6925,18
6926,18
6927,18
6928,18
6929,18
6930,18
6931,18
6932,18
6933,18
6934,18
6935,18
6936,18
6937,18
6938,18
6939,18
6940,18
6941,18
6942,18
6943,18
6944,19
6945,18
6946,18
6947,18
6948,18
6949,18
6950,18
6951,18
6952,18
6953,18
6954,18
6955,18
6956,18
6957,18
6958,18
6959,19
6960,18
6961,18
6962,18
6963,18
6964,18
6965,18
6966,18
6967,18
6968,18
6969,18
6970,18
6971,18
6972,18
6973,18
6974,18
6975,18
6976,18
6977,18
6978,18
6979,18
6980,18
6981,18
6982,18
6983,18
6984,18
6985,18
6986,18
6987,18
6988,18
6989,18
6990,18
6991,18
6992,18
6993,18
6994,18
6995,18
6996,18
6997,18
6998,18
6999,18
7000,18
7001,18
7002,18
7003,18
7004,18
7005,18
7006,18
7007,18
7008,18
7009,18
7010,18
7011,18
7012,18
7013,18
7014,18
7015,18
7016,18
7017,18
7018,18
7019,18
7020,18
7021,18
7022,18
7023,18
7024,18
7025,18
7026,18
7027,18
7028,18
7029,18
7030,18
7031,18
7032,18
7033,18
7034,18
7035,18
7036,18
7037,18
7038,18
7039,18
7040,18
7041,18
7042,18
7043,18
7044,18
7045,18
7046,18
7047,18
7048,18
7049,19
7050,19
7051,19
7052,19
7053,19
7054,19
7055,19
7056,19
7057,19
7058,19
7059,18
7060,18
7061,19
7062,19
7063,19
7064,19
7065,19
7066,19
7067,19
7068,19
7069,19
7070,19
7071,19
7072,19
7073,19
7074,19
7075,19
7076,19
7077,19
7078,19
7079,19
7080,19
7081,19
7082,19
7083,19
7084,19
7085,19
7086,19
7087,19
7088,19
7089,19
7090,19
7091,19
7092,19
7093,20
7094,19
7095,19
7096,19
7097,19
7098,19
7099,19
7100,19
7101,19
7102,19
7103,19
7104,19
7105,19
7106,19
7107,19
7108,19
7109,19
7110,19
7111,19
7112,19
7113,19
7114,19
7115,19
7116,19
7117,19
7118,19
7119,19
7120,19
7121,19
7122,19
7123,19
7124,19
7125,19
7126,19
7127,19
7128,19
7129,19
7130,19
7131,19
7132,19
7133,19
7134,19
7135,19
7136,19
7137,19
7138,19
7139,19
7140,19
7141,19
7142,19
7143,19
7144,19
7145,19
7146,19
7147,19
7148,19
7149,19
7150,19
7151,19
7152,19
7153,19
7154,19
7155,19
7156,19
7157,19
7158,19
7159,19
7160,19
7161,19
7162,19
7163,19
7164,19
7165,19
7166,19
7167,19
7168,19
7169,19
7170,19
7171,19
7172,19
7173,19
7174,19
7175,19
7176,19
7177,19
7178,19
7179,19
7180,19
7181,19
7182,19
7183,19
7184,19
7185,19
7186,19
7187,19
7188,19
7189,19
7190,19
7191,19
7192,19
7193,19
7194,19
7195,19
7196,19
7197,19
7198,19
7199,19
7200,19
7201,19
7202,19
7203,19
7204,19
7205,19
7206,19
7207,19
7208,19
7209,20
7210,20
7211,19
7212,19
7213,19
7214,19
7215,19
7216,19
7217,19
7218,19
7219,19
7220,19
7221,19
7222,19
7223,19
7224,19
7225,19
7226,19
7227,19
7228,19
7229,19
7230,19
7231,19
7232,19
7233,19
7234,19
7235,19
7236,19
7237,19
7238,19
7239,19
7240,19
7241,19
7242,19
7243,19
7244,19
7245,19
7246,19
7247,19
7248,19
7249,19
7250,19
7251,19
7252,19
7253,19
7254,19
7255,19
7256,19
7257,19
7258,19
7259,19
7260,19
7261,19
7262,19
7263,19
7264,19
7265,19
7266,19
7267,19
7268,19
7269,19
7270,19
7271,19
7272,19
7273,19
7274,19
7275,20
7276,20
7277,20
7278,20
7279,20
7280,20
7281,20
7282,19
7283,19
7284,19
7285,19
7286,19
7287,19
7288,19
7289,19
7290,19
7291,19
7292,19
7293,19
7294,19
7295,19
7296,19
7297,19
7298,19
7299,19
7300,19
7301,19
7302,19
7303,19
7304,19
7305,19
7306,19
7307,19
7308,20
7309,19
7310,19
7311,19
7312,19
7313,19
7314,19
7315,19
7316,19
7317,19
7318,19
7319,19
7320,19
7321,19
7322,19
7323,19
7324,19
7325,19
7326,19
7327,19
7328,19
7329,19
7330,19
7331,19
7332,19
7333,19
7334,19
7335,19
7336,19
7337,19
7338,19
7339,19
7340,19
7341,19
7342,19
7343,20
7344,20
7345,20
7346,19
7347,19
7348,19
7349,19
7350,19
7351,19
7352,19
7353,19
7354,19
7355,19
7356,19
7357,20
7358,19
7359,19
7360,19
7361,19
7362,19
7363,19
7364,19
7365,19
7366,19
7367,19
7368,19
7369,19
7370,19
7371,19
7372,19
7373,19
7374,19
7375,19
7376,19
7377,19
7378,19
7379,19
7380,19
7381,19
7382,19
7383,19
7384,19
7385,19
7386,19
7387,19
7388,19
7389,19
7390,19
7391,19
7392,19
7393,19
7394,19
7395,19
7396,19
7397,19
7398,19
7399,19
7400,19
7401,19
7402,19
7403,19
7404,19
7405,19
7406,19
7407,19
7408,19
7409,19
7410,19
7411,19
7412,19
7413,19
7414,19
7415,19
7416,19
7417,19
7418,19
7419,19
7420,19
7421,19
7422,19
7423,19
7424,19
7425,19
7426,19
7427,19
7428,19
7429,19
7430,19
7431,19
7432,19
7433,19
7434,19
7435,19
7436,19
7437,19
7438,19
7439,19
7440,19
7441,19
7442,19
7443,19
7444,19
7445,19
7446,19
7447,19
7448,19
7449,19
7450,19
7451,19
7452,19
7453,19
7454,19
7455,19
7456,19
7457,19
7458,19
7459,19
7460,19
7461,19
7462,19
7463,19
7464,19
7465,19
7466,19
7467,19
7468,19
7469,19
7470,19
7471,19
7472,19
7473,19
7474,19
7475,19
7476,19
7477,19
7478,19
7479,19
7480,19
7481,19
7482,19
7483,19
7484,19
7485,19
7486,19
7487,19
7488,19
7489,19
7490,19
7491,19
7492,19
7493,19
7494,19
7495,19
7496,19
7497,19
7498,19
7499,19
7500,19
7501,19
7502,19
7503,19
7504,19
7505,19
7506,19
7507,19
7508,19
7509,19
7510,19
7511,19
7512,19
7513,19
7514,19
7515,19
7516,19
7517,19
7518,19
7519,19
7520,19
7521,19
7522,19
7523,19
7524,19
7525,19
7526,19
7527,19
7528,19
7529,19
7530,19
7531,19
7532,19
7533,19
7534,19
7535,19
7536,19
7537,19
7538,19
7539,19
7540,19
7541,19
7542,19
7543,19
7544,19
7545,20
7546,19
7547,19
7548,19
7549,19
7550,19
7551,19
7552,19
7553,19
7554,19
7555,19
7556,19
7557,19
7558,19
7559,19
7560,19
7561,19
7562,19
7563,19
7564,19
7565,19
7566,19
7567,19
7568,19
7569,19
7570,19
7571,19
7572,19
7573,19
7574,19
7575,19
7576,19
7577,19
7578,19
7579,19
7580,19
7581,19
7582,19
7583,19
7584,19
7585,19
7586,19
7587,19
7588,19
7589,19
7590,19
7591,19
7592,19
7593,19
7594,19
7595,19
7596,19
7597,19
7598,19
7599,19
7600,19
7601,19
7602,19
7603,19
7604,19
7605,19
7606,19
7607,19
7608,19
7609,19
7610,19
7611,19
7612,19
7613,19
7614,19
7615,19
7616,19
7617,19
7618,19
7619,19
7620,19
7621,19
7622,19
7623,19
7624,19
7625,19
7626,19
7627,19
7628,19
7629,19
7630,19
7631,19
7632,19
7633,19
7634,19
7635,19
7636,19
7637,19
7638,19
7639,19
7640,19
7641,19
7642,19
7643,19
7644,19
7645,19
7646,19
7647,19
7648,19
7649,19
7650,19
7651,20
7652,19
7653,19
7654,19
7655,19
7656,19
7657,19
7658,19
7659,19
7660,19
7661,19
7662,19
7663,19
7664,19
7665,19
7666,19
7667,19
7668,19
7669,19
7670,19
7671,19
7672,19
7673,19
7674,19
7675,19
7676,19
7677,19
7678,19
7679,19
7680,19
7681,19
7682,19
7683,19
7684,19
7685,19
7686,19
7687,19
7688,19
7689,19
7690,19
7691,19
7692,19
7693,19
7694,20
7695,20
7696,20
7697,19
7698,19
7699,19
7700,19
7701,19
7702,19
7703,19
7704,19
7705,19
7706,19
7707,19
7708,19
7709,19
7710,19
7711,19
7712,19
7713,19
7714,19
7715,19
7716,19
7717,19
7718,19
7719,19
7720,19
7721,19
7722,19
7723,19
7724,19
7725,19
7726,19
7727,19
7728,19
7729,19
7730,19
7731,19
7732,19
7733,19
7734,19
7735,19
7736,19
7737,19
7738,19
7739,19
7740,19
7741,19
7742,19
7743,19
7744,19
7745,19
7746,19
7747,19
7748,19
7749,19
7750,19
7751,19
7752,19
7753,19
7754,19
7755,19
7756,19
7757,19
7758,19
7759,19
7760,19
7761,19
7762,19
7763,19
7764,19
7765,19
7766,20
7767,19
7768,19
7769,19
7770,19
7771,19
7772,19
7773,19
7774,19
7775,19
7776,19
7777,19
7778,19
7779,19
7780,19
7781,19
7782,19
7783,19
7784,19
7785,19
7786,19
7787,19
7788,19
7789,19
7790,19
7791,19
7792,19
7793,19
7794,19
7795,19
7796,19
7797,19
7798,19
7799,19
7800,19
7801,19
7802,19
7803,19
7804,19
7805,19
7806,19
7807,19
7808,19
7809,19
7810,19
7811,19
7812,19
7813,19
7814,19
7815,19
7816,19
7817,19
7818,19
7819,19
7820,19
7821,19
7822,19
7823,19
7824,19
7825,19
7826,19
7827,19
7828,19
7829,19
7830,19
7831,19
7832,19
7833,19
7834,19
7835,19
7836,19
7837,19
7838,19
7839,19
7840,19
7841,19
7842,19
7843,19
7844,19
7845,19
7846,19
7847,19
7848,19
7849,19
7850,19
7851,19
7852,19
7853,19
7854,19
7855,19
7856,19
7857,19
7858,19
7859,19
7860,20
7861,20
7862,20
7863,20
7864,20
7865,20
7866,20
7867,20
7868,20
7869,20
7870,20
7871,20
7872,20
7873,20
7874,20
7875,20
7876,20
7877,20
7878,20
7879,20
7880,20
7881,20
7882,20
7883,20
7884,20
7885,20
7886,20
7887,19
7888,19
7889,19
7890,19
7891,19
7892,19
7893,19
7894,19
7895,19
7896,19
7897,19
7898,19
7899,19
7900,19
7901,19
7902,19
7903,19
7904,19
7905,19
7906,19
7907,19
7908,19
7909,19
7910,19
7911,19
7912,19
7913,19
7914,19
7915,19
7916,19
7917,19
7918,19
7919,19
7920,19
7921,19
7922,19
7923,19
7924,19
7925,19
7926,19
7927,19
7928,19
7929,19
7930,19
7931,19
7932,19
7933,19
7934,19
7935,19
7936,19
7937,19
7938,19
7939,19
7940,19
7941,19
7942,19
7943,19
7944,19
7945,19
7946,19
7947,19
7948,19
7949,19
7950,19
7951,19
7952,19
7953,19
7954,19
7955,19
7956,19
7957,19
7958,19
7959,19
7960,19
7961,19
7962,19
7963,19
7964,19
7965,19
7966,19
7967,19
7968,19
7969,19
7970,19
7971,19
7972,19
7973,19
7974,19
7975,19
7976,19
7977,19
7978,19
7979,19
7980,19
7981,19
7982,19
7983,19
7984,19
7985,19
7986,19
7987,19
7988,19
7989,19
7990,19
7991,19
7992,19
7993,19
7994,19
7995,19
7996,19
7997,19
7998,19
7999,19
8000,19
8001,19
8002,19
8003,19
8004,19
8005,19
8006,19
8007,19
8008,19
8009,19
8010,19
8011,19
8012,19
8013,19
8014,19
8015,19
8016,19
8017,19
8018,19
8019,19
8020,19
8021,19
8022,19
8023,19
8024,19
8025,19
8026,19
8027,19
8028,19
8029,19
8030,19
8031,19
8032,19
8033,19
8034,19
8035,20
8036,20
8037,20
8038,20
8039,20
8040,20
8041,20
8042,20
8043,20
8044,20
8045,20
8046,20
8047,20
8048,20
8049,20
8050,20
8051,20
8052,20
8053,20
8054,20
8055,20
8056,20
8057,20
8058,20
8059,20
8060,20
8061,20
8062,20
8063,20
8064,20
8065,20
8066,20
8067,20
8068,20
8069,20
8070,20
8071,20
8072,20
8073,20
8074,20
8075,20
8076,20
8077,20
8078,20
8079,20
8080,20
8081,20
8082,20
8083,20
8084,20
8085,20
8086,20
8087,20
8088,20
8089,20
8090,20
8091,20
8092,20
8093,20
8094,20
8095,20
8096,20
8097,20
8098,20
8099,20
8100,20
8101,20
8102,20
8103,20
8104,20
8105,20
8106,20
8107,20
8108,20
8109,20
8110,20
8111,20
8112,20
8113,20
8114,20
8115,20
8116,20
8117,20
8118,20
8119,20
8120,20
8121,20
8122,20
8123,20
8124,20
8125,20
8126,20
8127,20
8128,20
8129,20
8130,20
8131,20
8132,20
8133,20
8134,20
8135,20
8136,20
8137,20
8138,20
8139,20
8140,20
8141,20
8142,20
8143,20
8144,20
8145,20
8146,20
8147,20
8148,20
8149,20
8150,20
8151,20
8152,20
8153,20
8154,20
8155,20
8156,20
8157,20
8158,20
8159,20
8160,20
8161,20
8162,20
8163,20
8164,20
8165,20
8166,20
8167,20
8168,20
8169,20
8170,20
8171,20
8172,20
8173,20
8174,20
8175,20
8176,20
8177,20
8178,21
8179,21
8180,21
8181,21
8182,21
8183,21
8184,21
8185,21
8186,21
8187,20
8188,20
8189,20
8190,20
8191,20
8192,20
8193,20
8194,20
8195,20
8196,20
8197,20
8198,20
8199,20
8200,20
8201,20
8202,20
8203,20
8204,20
8205,20
8206,20
8207,20
8208,20
8209,20
8210,20
8211,20
8212,20
8213,20
8214,20
8215,20
8216,20
8217,20
8218,20
8219,20
8220,20
8221,20
8222,20
8223,20
8224,20
8225,20
8226,20
8227,20
8228,20
8229,20
8230,20
8231,20
8232,20
8233,20
8234,20
8235,20
8236,20
8237,20
8238,20
8239,20
8240,20
8241,20
8242,21
8243,20
8244,20
8245,20
8246,20
8247,20
8248,20
8249,20
8250,20
8251,20
8252,20
8253,20
8254,20
8255,20
8256,20
8257,20
8258,20
8259,20
8260,20
8261,20
8262,20
8263,20
8264,20
8265,20
8266,20
8267,20
8268,20
8269,20
8270,20
8271,20
8272,20
8273,20
8274,20
8275,20
8276,20
8277,20
8278,20
8279,21
8280,20
8281,20
8282,20
8283,20
8284,20
8285,20
8286,20
8287,20
8288,20
8289,20
8290,20
8291,20
8292,20
8293,20
8294,20
8295,20
8296,20
8297,20
8298,20
8299,20
8300,20
8301,20
8302,20
8303,20
8304,20
8305,20
8306,20
8307,20
8308,20
8309,20
8310,20
8311,20
8312,20
8313,20
8314,20
8315,20
8316,20
8317,20
8318,20
8319,20
8320,20
8321,20
8322,20
8323,20
8324,20
8325,20
8326,21
8327,20
8328,20
8329,20
8330,20
8331,20
8332,20
8333,20
8334,20
8335,20
8336,20
8337,20
8338,20
8339,20
8340,20
8341,20
8342,20
8343,20
8344,20
8345,20
8346,20
8347,20
8348,20
8349,20
8350,20
8351,20
8352,20
8353,20
8354,20
8355,20
8356,20
8357,20
8358,20
8359,20
8360,20
8361,20
8362,20
8363,21
8364,21
8365,20
8366,20
8367,20
8368,20
8369,20
8370,20
8371,20
8372,20
8373,20
8374,20
8375,20
8376,20
8377,20
8378,20
8379,20
8380,20
8381,20
8382,20
8383,20
8384,20
8385,20
8386,20
8387,20
8388,20
8389,20
8390,20
8391,20
8392,20
8393,20
8394,20
8395,20
8396,20
8397,20
8398,20
8399,20
8400,20
8401,20
8402,20
8403,20
8404,20
8405,20
8406,20
8407,20
8408,20
8409,20
8410,20
8411,20
8412,20
8413,20
8414,20
8415,20
8416,20
8417,20
8418,20
8419,20
8420,20
8421,20
8422,20
8423,20
8424,20
8425,20
8426,20
8427,20
8428,20
8429,20
8430,20
8431,20
8432,20
8433,20
8434,20
8435,20
8436,20
8437,20
8438,20
8439,20
8440,20
8441,20
8442,20
8443,20
8444,20
8445,20
8446,20
8447,20
8448,20
8449,20
8450,20
8451,20
8452,20
8453,20
8454,20
8455,20
8456,20
8457,20
8458,20
8459,20
8460,20
8461,20
8462,20
8463,20
8464,20
8465,20
8466,20
8467,20
8468,20
8469,20
8470,20
8471,20
8472,20
8473,20
8474,20
8475,20
8476,20
8477,20
8478,20
8479,20
8480,20
8481,20
8482,20
8483,20
8484,20
8485,20
8486,20
8487,20
8488,20
8489,20
8490,20
8491,20
8492,20
8493,20
8494,20
8495,20
8496,20
8497,20
8498,20
8499,20
8500,20
8501,20
8502,20
8503,20
8504,20
8505,20
8506,20
8507,20
8508,20
8509,20
8510,20
8511,20
8512,20
8513,20
8514,20
8515,20
8516,20
8517,20
8518,20
8519,20
8520,20
8521,20
8522,20
8523,20
8524,20
8525,20
8526,20
8527,20
8528,20
8529,20
8530,20
8531,20
8532,20
8533,20
8534,20
8535,20
8536,20
8537,20
8538,20
8539,20
8540,20
8541,20
8542,20
8543,20
8544,20
8545,20
8546,20
8547,20
8548,20
8549,20
8550,20
8551,20
8552,20
8553,20
8554,20
8555,20
8556,20
8557,20
8558,20
8559,20
8560,20
8561,20
8562,20
8563,20
8564,20
8565,20
8566,20
8567,20
8568,20
8569,20
8570,20
8571,20
8572,20
8573,20
8574,20
8575,20
8576,20
8577,20
8578,20
8579,20
8580,20
8581,20
8582,20
8583,20
8584,20
8585,20
8586,20
8587,20
8588,20
8589,20
8590,20
8591,20
8592,20
8593,20
8594,20
8595,20
8596,20
8597,20
8598,20
8599,20
8600,20
8601,20
8602,21
8603,21
8604,21
8605,21
8606,21
8607,21
8608,21
8609,21
8610,21
8611,21
8612,21
8613,21
8614,20
8615,20
8616,20
8617,20
8618,20
8619,20
8620,20
8621,20
8622,20
8623,20
8624,20
8625,20
8626,21
8627,20
8628,20
8629,21
8630,20
8631,20
8632,20
8633,20
8634,20
8635,20
8636,20
8637,20
8638,20
8639,20
8640,20
8641,20
8642,20
8643,20
8644,20
8645,20
8646,20
8647,20
8648,20
8649,20
8650,20
8651,20
8652,20
8653,20
8654,20
8655,20
8656,20
8657,20
8658,20
8659,20
8660,20
8661,20
8662,20
8663,20
8664,20
8665,21
8666,21
8667,21
8668,21
8669,21
8670,21
8671,21
8672,21
8673,21
8674,21
8675,20
8676,20
8677,20
8678,20
8679,20
8680,20
8681,20
8682,20
8683,21
8684,20
8685,20
8686,20
8687,20
8688,20
8689,20
8690,20
8691,20
8692,20
8693,20
8694,20
8695,20
8696,20
8697,20
8698,20
8699,20
8700,20
8701,20
8702,20
8703,20
8704,20
8705,20
8706,20
8707,20
8708,20
8709,20
8710,20
8711,20
8712,20
8713,20
8714,20
8715,20
8716,20
8717,20
8718,20
8719,20
8720,20
8721,20
8722,20
8723,20
8724,20
8725,20
8726,20
8727,20
8728,20
8729,20
8730,20
8731,20
8732,20
8733,20
8734,20
8735,20
8736,20
8737,20
8738,20
8739,20
8740,20
8741,20
8742,20
8743,20
8744,20
8745,21
8746,20
8747,20
8748,20
8749,20
8750,20
8751,20
8752,20
8753,20
8754,20
8755,20
8756,20
8757,20
8758,20
8759,20
8760,20
8761,20
8762,20
8763,20
8764,20
8765,20
8766,20
8767,20
8768,20
8769,20
8770,20
8771,20
8772,20
8773,20
8774,20
8775,20
8776,20
8777,20
8778,20
8779,20
8780,20
8781,20
8782,20
8783,20
8784,20
8785,20
8786,20
8787,20
8788,20
8789,20
8790,20
8791,20
8792,20
8793,20
8794,20
8795,20
8796,20
8797,20
8798,20
8799,20
8800,20
8801,20
8802,21
8803,20
8804,20
8805,20
8806,20
8807,20
8808,20
8809,20
8810,20
8811,20
8812,20
8813,20
8814,20
8815,20
8816,20
8817,20
8818,20
8819,20
8820,20
8821,20
8822,20
8823,20
8824,20
8825,20
8826,20
8827,20
8828,20
8829,20
8830,20
8831,20
8832,20
8833,20
8834,20
8835,20
8836,20
8837,20
8838,20
8839,20
8840,20
8841,20
8842,20
8843,20
8844,20
8845,20
8846,20
8847,20
8848,20
8849,20
8850,20
8851,20
8852,20
8853,20
8854,20
8855,20
8856,20
8857,20
8858,20
8859,20
8860,20
8861,20
8862,20
8863,20
8864,20
8865,20
8866,20
8867,20
8868,20
8869,20
8870,20
8871,20
8872,20
8873,20
8874,20
8875,20
8876,20
8877,20
8878,20
8879,21
8880,20
8881,20
8882,20
8883,20
8884,20
8885,20
8886,20
8887,20
8888,20
8889,20
8890,20
8891,20
8892,20
8893,20
8894,20
8895,20
8896,21
8897,20
8898,20
8899,20
8900,20
8901,20
8902,20
8903,20
8904,20
8905,20
8906,20
8907,20
8908,20
8909,20
8910,20
8911,20
8912,20
8913,20
8914,20
8915,20
8916,20
8917,20
8918,20
8919,20
8920,20
8921,20
8922,20
8923,20
8924,20
8925,20
8926,20
8927,20
8928,20
8929,20
8930,20
8931,20
8932,20
8933,20
8934,20
8935,20
8936,20
8937,20
8938,20
8939,20
8940,20
8941,20
8942,20
8943,20
8944,20
8945,20
8946,20
8947,20
8948,20
8949,20
8950,20
8951,20
8952,20
8953,20
8954,20
8955,20
8956,20
8957,20
8958,20
8959,20
8960,20
8961,20
8962,20
8963,20
8964,20
8965,20
8966,20
8967,20
8968,20
8969,20
8970,20
8971,20
8972,20
8973,20
8974,20
8975,20
8976,20
8977,20
8978,20
8979,20
8980,20
8981,20
8982,20
8983,20
8984,20
8985,20
8986,20
8987,20
8988,20
8989,20
8990,20
8991,20
8992,20
8993,20
8994,20
8995,20
8996,20
8997,20
8998,20
8999,20
9000,20
9001,20
9002,20
9003,20
9004,20
9005,20
9006,20
9007,20
9008,20
9009,20
9010,20
9011,20
9012,20
9013,20
9014,20
9015,20
9016,20
9017,20
9018,20
9019,20
9020,20
9021,20
9022,20
9023,20
9024,20
9025,20
9026,20
9027,20
9028,20
9029,20
9030,20
9031,20
9032,20
9033,20
9034,20
9035,20
9036,20
9037,20
9038,20
9039,20
9040,20
9041,20
9042,20
9043,20
9044,20
9045,20
9046,20
9047,20
9048,20
9049,20
9050,20
9051,20
9052,20
9053,20
9054,20
9055,20
9056,20
9057,20
9058,20
9059,20
9060,20
9061,20
9062,20
9063,20
9064,20
9065,20
9066,20
9067,20
9068,20
9069,20
9070,20
9071,20
9072,20
9073,20
9074,20
9075,20
9076,20
9077,20
9078,20
9079,20
9080,20
9081,20
9082,20
9083,20
9084,20
9085,20
9086,20
9087,20
9088,20
9089,20
9090,20
9091,20
9092,20
9093,20
9094,20
9095,20
9096,20
9097,20
9098,20
9099,20
9100,20
9101,20
9102,20
9103,20
9104,20
9105,20
9106,20
9107,20
9108,20
9109,20
9110,20
9111,20
9112,20
9113,20
9114,20
9115,20
9116,20
9117,20
9118,20
9119,20
9120,20
9121,20
9122,20
9123,20
9124,20
9125,20
9126,20
9127,20
9128,20
9129,20
9130,20
9131,20
9132,20
9133,20
9134,20
9135,20
9136,20
9137,20
9138,20
9139,20
9140,20
9141,20
9142,20
9143,20
9144,20
9145,20
9146,20
9147,20
9148,20
9149,20
9150,20
9151,20
9152,20
9153,20
9154,20
9155,20
9156,20
9157,20
9158,20
9159,20
9160,20
9161,20
9162,20
9163,20
9164,20
9165,20
9166,20
9167,20
9168,20
9169,20
9170,20
9171,20
9172,20
9173,20
9174,20
9175,20
9176,20
9177,20
9178,20
9179,20
9180,20
9181,20
9182,20
9183,20
9184,20
9185,20
9186,20
9187,20
9188,20
9189,20
9190,20
9191,20
9192,20
9193,20
9194,20
9195,20
9196,20
9197,20
9198,20
9199,20
9200,20
9201,20
9202,20
9203,20
9204,20
9205,20
9206,20
9207,20
9208,20
9209,20
9210,20
9211,20
9212,20
9213,20
9214,20
9215,20
9216,20
9217,20
9218,20
9219,20
9220,20
9221,20
9222,20
9223,20
9224,20
9225,20
9226,20
9227,20
9228,20
9229,20
9230,20
9231,20
9232,20
9233,20
9234,20
9235,21
9236,20
9237,20
9238,20
9239,20
9240,20
9241,20
9242,20
9243,20
9244,21
9245,21
9246,21
9247,21
9248,21
9249,21
9250,21
9251,21
9252,21
9253,21
9254,21
9255,21
9256,21
9257,21
9258,21
9259,21
9260,21
9261,21
9262,21
9263,21
9264,21
9265,21
9266,21
9267,21
9268,21
9269,21
9270,20
9271,20
9272,20
9273,20
9274,20
9275,20
9276,20
9277,20
9278,20
9279,20
9280,20
9281,20
9282,21
9283,21
9284,21
9285,20
9286,20
9287,20
9288,20
9289,20
9290,20
9291,20
9292,20
9293,20
9294,20
9295,20
9296,20
9297,20
9298,20
9299,20
9300,20
9301,20
9302,20
9303,20
9304,20
9305,20
9306,20
9307,20
9308,20
9309,20
9310,20
9311,20
9312,20
9313,20
9314,20
9315,20
9316,20
9317,20
9318,20
9319,20
9320,20
9321,20
9322,20
9323,20
9324,20
9325,20
9326,20
9327,20
9328,20
9329,20
9330,20
9331,20
9332,20
9333,21
9334,20
9335,20
9336,20
9337,20
9338,20
9339,20
9340,20
9341,20
9342,20
9343,20
9344,20
9345,20
9346,20
9347,20
9348,20
9349,20
9350,20
9351,20
9352,20
9353,20
9354,20
9355,20
9356,20
9357,20
9358,20
9359,20
9360,20
9361,20
9362,20
9363,20
9364,20
9365,20
9366,20
9367,20
9368,20
9369,20
9370,20
9371,20
9372,20
9373,20
9374,20
9375,20
9376,20
9377,20
9378,20
9379,20
9380,20
9381,20
9382,20
9383,20
9384,20
9385,20
9386,20
9387,20
9388,20
9389,20
9390,20
9391,20
9392,20
9393,20
9394,20
9395,20
9396,20
9397,20
9398,20
9399,20
9400,20
9401,20
9402,20
9403,20
9404,20
9405,20
9406,20
9407,20
9408,20
9409,20
9410,20
9411,20
9412,20
9413,20
9414,20
9415,20
9416,20
9417,20
9418,20
9419,20
9420,20
9421,20
9422,20
9423,20
9424,20
9425,20
9426,20
9427,20
9428,20
9429,20
9430,20
9431,20
9432,20
9433,20
9434,20
9435,20
9436,20
9437,20
9438,20
9439,20
9440,20
9441,20
9442,20
9443,20
9444,20
9445,20
9446,20
9447,20
9448,20
9449,20
9450,20
9451,20
9452,20
9453,20
9454,20
9455,20
9456,20
9457,20
9458,20
9459,20
9460,20
9461,20
9462,20
9463,20
9464,20
9465,20
9466,20
9467,20
9468,20
9469,20
9470,20
9471,20
9472,20
9473,20
9474,20
9475,20
9476,20
9477,20
9478,20
9479,20
9480,20
9481,20
9482,20
9483,20
9484,20
9485,21
9486,21
9487,21
9488,21
9489,21
9490,20
9491,20
9492,20
9493,20
9494,20
9495,20
9496,20
9497,20
9498,20
9499,20
9500,20
9501,20
9502,20
9503,20
9504,20
9505,20
9506,20
9507,20
9508,20
9509,20
9510,20
9511,20
9512,20
9513,20
9514,20
9515,20
9516,20
9517,20
9518,20
9519,20
9520,20
9521,20
9522,20
9523,20
9524,20
9525,20
9526,20
9527,20
9528,20
9529,20
9530,20
9531,20
9532,20
9533,20
9534,20
9535,20
9536,20
9537,20
9538,20
9539,20
9540,20
9541,20
9542,20
9543,20
9544,20
9545,20
9546,20
9547,20
9548,20
9549,20
9550,20
9551,20
9552,20
9553,20
9554,20
9555,20
9556,20
9557,20
9558,20
9559,20
9560,21
9561,21
9562,21
9563,21
9564,20
9565,20
9566,20
9567,20
9568,20
9569,20
9570,20
9571,20
9572,20
9573,20
9574,20
9575,20
9576,20
9577,20
9578,20
9579,20
9580,20
9581,20
9582,20
9583,20
9584,20
9585,20
9586,20
9587,20
9588,20
9589,20
9590,20
9591,20
9592,20
9593,20
9594,20
9595,20
9596,20
9597,20
9598,20
9599,20
9600,20
9601,20
9602,20
9603,20
9604,20
9605,20
9606,20
9607,20
9608,20
9609,20
9610,20
9611,20
9612,20
9613,20
9614,20
9615,20
9616,20
9617,20
9618,20
9619,20
9620,20
9621,20
9622,20
9623,20
9624,20
9625,20
9626,20
9627,20
9628,20
9629,20
9630,20
9631,20
9632,20
9633,20
9634,20
9635,20
9636,20
9637,20
9638,20
9639,20
9640,20
9641,20
9642,20
9643,20
9644,20
9645,20
9646,20
9647,20
9648,20
9649,20
9650,21
9651,20
9652,20
9653,20
9654,20
9655,20
9656,20
9657,20
9658,20
9659,20
9660,20
9661,20
9662,20
9663,20
9664,20
9665,20
9666,20
9667,20
9668,20
9669,20
9670,20
9671,20
9672,20
9673,20
9674,20
9675,21
9676,20
9677,20
9678,20
9679,20
9680,20
9681,20
9682,21
9683,20
9684,20
9685,20
9686,20
9687,20
9688,20
9689,20
9690,20
9691,20
9692,20
9693,20
9694,20
9695,20
9696,20
9697,20
9698,20
9699,20
9700,20
9701,20
9702,20
9703,20
9704,21
9705,21
9706,20
9707,20
9708,20
9709,20
9710,20
9711,20
9712,20
9713,20
9714,20
9715,20
9716,20
9717,20
9718,20
9719,20
9720,20
9721,20
9722,20
9723,20
9724,20
9725,20
9726,20
9727,20
9728,20
9729,20
9730,20
9731,20
9732,20
9733,20
9734,20
9735,20
9736,20
9737,20
9738,20
9739,20
9740,20
9741,20
9742,20
9743,20
9744,20
9745,20
9746,20
9747,20
9748,20
9749,20
9750,20
9751,20
9752,20
9753,20
9754,20
9755,20
9756,20
9757,20
9758,20
9759,20
9760,20
9761,20
9762,20
9763,20
9764,20
9765,20
9766,20
9767,20
9768,20
9769,20
9770,20
9771,20
9772,20
9773,20
9774,20
9775,20
9776,20
9777,20
9778,20
9779,20
9780,20
9781,20
9782,20
9783,20
9784,20
9785,20
9786,20
9787,20
9788,20
9789,20
9790,20
9791,20
9792,20
9793,20
9794,20
9795,20
9796,20
9797,20
9798,20
9799,20
9800,20
9801,20
9802,20
9803,20
9804,20
9805,20
9806,20
9807,20
9808,20
9809,20
9810,20
9811,20
9812,20
9813,20
9814,20
9815,20
9816,20
9817,20
9818,20
9819,20
9820,20
9821,20
9822,20
9823,20
9824,20
9825,20
9826,20
9827,20
9828,20
9829,20
9830,20
9831,20
9832,20
9833,20
9834,20
9835,20
9836,20
9837,20
9838,20
9839,20
9840,20
9841,20
9842,20
9843,20
9844,20
9845,20
9846,20
9847,20
9848,20
9849,20
9850,20
9851,20
9852,20
9853,20
9854,20
9855,20
9856,20
9857,20
9858,20
9859,20
9860,20
9861,20
9862,20
9863,20
9864,20
9865,20
9866,20
9867,20
9868,20
9869,21
9870,20
9871,20
9872,20
9873,20
9874,20
9875,20
9876,20
9877,20
9878,20
9879,20
9880,20
9881,20
9882,20
9883,20
9884,20
9885,20
9886,20
9887,20
9888,20
9889,20
9890,20
9891,20
9892,20
9893,20
9894,20
9895,20
9896,20
9897,20
9898,20
9899,20
9900,20
9901,20
9902,20
9903,20
9904,20
9905,20
9906,20
9907,20
9908,20
9909,20
9910,20
9911,20
9912,20
9913,20
9914,20
9915,20
9916,20
9917,20
9918,20
9919,20
9920,20
9921,20
9922,20
9923,20
9924,20
9925,20
9926,20
9927,20
9928,20
9929,20
9930,20
9931,20
9932,20
9933,20
9934,20
9935,20
9936,20
9937,20
9938,20
9939,20
9940,20
9941,20
9942,20
9943,20
9944,20
9945,20
9946,20
9947,20
9948,20
9949,20
9950,20
9951,20
9952,20
9953,20
9954,20
9955,20
9956,20
9957,20
9958,20
9959,20
9960,20
9961,20
9962,20
9963,20
9964,20
9965,20
9966,20
9967,20
9968,20
9969,20
9970,20
9971,20
9972,20
9973,20
9974,20
9975,20
9976,20
9977,20
9978,20
9979,21
9980,20
9981,20
9982,20
9983,20
9984,20
9985,20
9986,20
9987,20
9988,20
9989,20
9990,20
9991,20
9992,20
9993,20
9994,20
9995,20
9996,20
9997,20
9998,20
9999,20
10000,20
