1,3
2,3
3,3
4,3
5,3
6,3
7,3
8,3
9,3
10,3
11,3
12,3
13,3
14,3
15,3
16,3
17,3
18,3
19,3
20,3
21,3
22,3
23,3
24,3
25,3
26,3
27,3
28,3
29,3
30,3
31,3
32,3
33,3
34,3
35,3
36,3
37,3
38,3
39,3
40,3
41,3
42,3
43,3
44,3
45,3
46,3
47,3
48,3
49,3
50,3
51,3
52,3
53,3
54,3
55,3
56,3
57,3
58,3
59,3
60,3
61,3
62,3
63,3
64,3
65,3
66,3
67,3
68,3
69,3
70,3
71,3
72,3
73,3
74,3
75,3
76,3
77,3
78,3
79,3
80,3
81,3
82,3
83,3
84,3
85,3
86,3
87,3
88,3
89,3
90,3
91,3
92,3
93,3
94,3
95,3
96,3
97,3
98,3
99,3
100,3
101,3
102,3
103,3
104,3
105,3
106,3
107,3
108,3
109,3
110,3
111,3
112,3
113,3
114,3
115,3
116,3
117,3
118,3
119,3
120,3
121,3
122,3
123,3
124,3
125,3
126,3
127,3
128,3
129,3
130,3
131,3
132,3
133,3
134,3
135,3
136,3
137,3
138,3
139,3
140,3
141,3
142,3
143,3
144,3
145,3
146,3
147,3
148,3
149,3
150,3
151,3
152,3
153,3
154,3
155,3
156,3
157,3
158,3
159,3
160,3
161,3
162,3
163,3
164,3
165,3
166,3
167,3
168,3
169,3
170,3
171,3
172,3
173,3
174,3
175,3
176,3
177,3
178,3
179,3
180,3
181,3
182,3
183,3
184,3
185,3
186,3
187,3
188,3
189,3
190,3
191,3
192,3
193,3
194,3
195,3
196,3
197,3
198,3
199,3
200,3
201,3
202,3
203,3
204,4
205,3
206,3
207,3
208,3
209,3
210,3
211,3
212,3
213,3
214,3
215,3
216,3
217,3
218,3
219,3
220,3
221,3
222,3
223,3
224,4
225,4
226,4
227,4
228,4
229,4
230,4
231,4
232,4
233,4
234,4
235,4
236,4
237,4
238,4
239,4
240,4
241,4
242,4
243,4
244,4
245,4
246,4
247,4
248,4
249,4
250,4
251,4
252,4
253,4
254,4
255,4
256,4
257,4
258,4
259,4
260,4
261,4
262,4
263,4
264,4
265,4
266,4
267,4
268,4
269,4
270,4
271,4
272,4
273,4
274,4
275,4
276,4
277,4
278,4
279,4
280,4
281,4
282,4
283,4
284,4
285,4
286,4
287,4
288,4
289,4
290,4
291,4
292,4
293,4
294,4
295,4
296,4
297,4
298,4
299,4
300,4
301,4
302,4
303,4
304,4
305,4
306,4
307,4
308,4
309,4
310,4
311,4
312,4
313,4
314,4
315,4
316,4
317,4
318,4
319,4
320,4
321,4
322,4
323,4
324,4
325,4
326,4
327,4
328,4
329,4
330,4
331,4
332,4
333,4
334,4
335,4
336,4
337,4
338,4
339,4
340,4
341,4
342,4
343,4
344,4
345,4
346,5
347,5
348,4
349,4
350,4
351,4
352,4
353,4
354,4
355,4
356,4
357,4
358,4
359,4
360,4
361,4
362,4
363,4
364,4
365,4
366,4
367,4
368,4
369,4
370,4
371,4
372,4
373,4
374,4
375,4
376,4
377,4
378,4
379,4
380,4
381,4
382,4
383,4
384,4
385,4
386,4
387,4
388,4
389,4
390,4
391,4
392,4
393,4
394,4
395,4
396,4
397,4
398,4
399,4
400,4
401,4
402,4
403,4
404,4
405,4
406,4
407,4
408,4
409,4
410,4
411,4
412,4
413,4
414,4
415,4
416,4
417,4
418,4
419,4
420,4
421,4
422,4
423,4
424,4
425,4
426,4
427,4
428,4
429,4
430,4
431,4
432,4
433,4
434,4
435,4
436,4
437,4
438,4
439,4
440,4
441,4
442,4
443,4
444,4
445,4
446,4
447,4
448,4
449,4
450,4
451,4
452,4
453,4
454,4
455,4
456,4
457,4
458,4
459,4
460,4
461,4
462,4
463,4
464,4
465,4
466,4
467,4
468,4
469,4
470,4
471,4
472,4
473,4
474,4
475,4
476,4
477,4
478,4
479,4
480,4
481,4
482,4
483,4
484,4
485,4
486,4
487,4
488,4
489,4
490,4
491,4
492,4
493,4
494,4
495,4
496,4
497,4
498,4
499,4
500,4
501,4
502,4
503,4
504,4
505,4
506,4
507,4
508,4
509,4
510,4
511,4
512,4
513,4
514,4
515,4
516,4
517,4
518,4
519,4
520,4
521,4
522,4
523,4
524,4
525,4
526,4
527,4
528,4
529,4
530,4
531,4
532,4
533,4
534,4
535,4
536,4
537,4
538,4
539,4
540,4
541,4
542,4
543,4
544,4
545,4
546,4
547,4
548,4
549,4
550,4
551,4
552,4
553,4
554,4
555,4
556,4
557,4
558,4
559,4
560,4
561,4
562,4
563,4
564,4
565,4
566,4
567,4
568,4
569,4
570,4
571,4
572,4
573,4
574,4
575,4
576,4
577,4
578,4
579,4
580,4
581,4
582,4
583,4
584,4
585,4
586,4
587,4
588,4
589,4
590,4
591,4
592,4
593,4
594,4
595,4
596,4
597,4
598,4
599,4
600,4
601,4
602,4
603,4
604,4
605,4
606,4
607,4
608,4
609,4
610,4
611,4
612,4
613,4
614,4
615,4
616,4
617,4
618,4
619,4
620,4
621,4
622,4
623,4
624,4
625,4
626,4
627,4
628,4
629,4
630,4
631,4
632,4
633,4
634,4
635,4
636,4
637,4
638,4
639,4
640,4
641,4
642,4
643,4
644,4
645,4
646,4
647,4
648,4
649,4
650,4
651,4
652,4
653,4
654,4
655,4
656,4
657,4
658,4
659,4
660,4
661,4
662,4
663,4
664,4
665,4
666,4
667,4
668,4
669,4
670,4
671,4
672,4
673,4
674,4
675,4
676,4
677,4
678,4
679,4
680,5
681,5
682,5
683,5
684,5
685,5
686,5
687,5
688,5
689,5
690,5
691,5
692,5
693,5
694,5
695,6
696,6
697,6
698,6
699,6
700,6
701,6
702,6
703,6
704,6
705,6
706,6
707,6
708,6
709,6
710,6
711,6
712,6
713,6
714,6
715,6
716,6
717,6
718,6
719,6
720,6
721,6
722,6
723,6
724,6
725,6
726,6
727,6
728,6
729,6
730,6
731,6
732,6
733,6
734,6
735,6
736,6
737,6
738,6
739,6
740,6
741,6
742,6
743,6
744,6
745,6
746,6
747,6
748,6
749,6
750,6
751,6
752,6
753,6
754,6
755,6
756,6
757,6
758,6
759,6
760,6
761,6
762,6
763,6
764,6
765,6
766,6
767,6
768,6
769,6
770,6
771,6
772,6
773,6
774,6
775,6
776,6
777,6
778,6
779,6
780,6
781,6
782,6
783,6
784,6
785,6
786,6
787,6
788,6
789,6
790,6
791,6
792,6
793,6
794,6
795,6
796,6
797,6
798,6
799,6
800,6
801,6
802,6
803,6
804,6
805,6
806,6
807,6
808,6
809,6
810,6
811,6
812,6
813,6
814,6
815,6
816,6
817,6
818,6
819,6
820,6
821,6
822,6
823,6
824,6
825,6
826,6
827,6
828,6
829,6
830,6
831,6
832,6
833,6
834,6
835,6
836,6
837,6
838,6
839,6
840,6
841,6
842,6
843,6
844,6
845,6
846,6
847,6
848,6
849,6
850,6
851,6
852,6
853,6
854,6
855,6
856,6
857,6
858,6
859,6
860,6
861,6
862,7
863,7
864,7
865,7
866,7
867,7
868,7
869,7
870,7
871,7
872,7
873,7
874,7
875,7
876,7
877,7
878,7
879,7
880,7
881,7
882,7
883,7
884,7
885,7
886,7
887,7
888,7
889,7
890,7
891,7
892,7
893,7
894,7
895,7
896,7
897,7
898,7
899,7
900,7
901,7
902,7
903,7
904,7
905,7
906,7
907,7
908,7
909,7
910,7
911,7
912,7
913,7
914,7
915,7
916,7
917,7
918,7
919,7
920,7
921,7
922,7
923,7
924,7
925,7
926,7
927,7
928,7
929,7
930,7
931,7
932,7
933,7
934,7
935,7
936,7
937,7
938,7
939,7
940,7
941,7
942,8
943,8
944,7
945,7
946,7
947,7
948,7
949,7
950,7
951,7
952,7
953,7
954,7
955,7
956,7
957,7
958,7
959,7
960,7
961,7
962,7
963,7
964,7
965,7
966,7
967,7
968,7
969,7
970,7
971,7
972,7
973,7
974,7
975,7
976,7
977,7
978,7
979,7
980,7
981,7
982,7
983,7
984,7
985,7
986,7
987,7
988,7
989,7
990,7
991,7
992,7
993,7
994,7
995,7
996,7
997,7
998,7
999,7
1000,7
1001,7
1002,7
1003,7
1004,7
1005,7
1006,7
1007,7
1008,7
1009,7
1010,7
1011,7
1012,7
1013,7
1014,7
1015,7
1016,7
1017,7
1018,7
1019,7
1020,7
1021,7
1022,7
1023,7
1024,7
1025,7
1026,7
1027,7
1028,7
1029,7
1030,7
1031,7
1032,7
1033,7
1034,7
1035,7
1036,7
1037,7
1038,7
1039,7
1040,7
1041,7
1042,7
1043,7
1044,7
1045,7
1046,7
1047,7
1048,7
1049,7
1050,7
1051,7
1052,7
1053,7
1054,7
1055,7
1056,7
1057,7
1058,7
1059,7
1060,7
1061,7
1062,7
1063,7
1064,7
1065,7
1066,7
1067,7
1068,7
1069,7
1070,7
1071,7
1072,7
1073,7
1074,7
1075,7
1076,7
1077,7
1078,7
1079,7
1080,7
1081,7
1082,7
1083,7
1084,8
1085,8
1086,8
1087,8
1088,8
1089,7
1090,7
1091,7
1092,7
1093,7
1094,7
1095,7
1096,7
1097,7
1098,7
1099,7
1100,7
1101,7
1102,7
1103,7
1104,7
1105,8
1106,8
1107,8
1108,8
1109,7
1110,7
1111,7
1112,7
1113,7
1114,7
1115,7
1116,7
1117,7
1118,7
1119,7
1120,7
1121,7
1122,7
1123,7
1124,7
1125,7
1126,7
1127,7
1128,7
1129,7
1130,7
1131,7
1132,7
1133,7
1134,7
1135,7
1136,7
1137,7
1138,7
1139,7
1140,7
1141,7
1142,7
1143,7
1144,7
1145,7
1146,7
1147,7
1148,7
1149,7
1150,7
1151,7
1152,7
1153,7
1154,7
1155,7
1156,7
1157,7
1158,7
1159,7
1160,7
1161,7
1162,7
1163,7
1164,7
1165,7
1166,7
1167,7
1168,7
1169,7
1170,7
1171,7
1172,7
1173,8
1174,7
1175,7
1176,7
1177,7
1178,7
1179,7
1180,7
1181,7
1182,7
1183,7
1184,7
1185,7
1186,7
1187,7
1188,7
1189,7
1190,7
1191,7
1192,7
1193,7
1194,7
1195,7
1196,7
1197,7
1198,7
1199,7
1200,7
1201,7
1202,7
1203,7
1204,7
1205,7
1206,7
1207,7
1208,7
1209,7
1210,7
1211,7
1212,7
1213,7
1214,7
1215,7
1216,7
1217,7
1218,8
1219,8
1220,8
1221,8
1222,8
1223,7
1224,7
1225,7
1226,7
1227,7
1228,7
1229,7
1230,7
1231,7
1232,7
1233,7
1234,7
1235,7
1236,7
1237,7
1238,7
1239,7
1240,7
1241,7
1242,7
1243,7
1244,7
1245,7
1246,7
1247,7
1248,7
1249,7
1250,7
1251,7
1252,7
1253,7
1254,7
1255,7
1256,7
1257,7
1258,7
1259,7
1260,7
1261,7
1262,7
1263,7
1264,7
1265,7
1266,7
1267,7
1268,7
1269,7
1270,7
1271,7
1272,7
1273,7
1274,7
1275,7
1276,7
1277,7
1278,7
1279,7
1280,7
1281,7
1282,7
1283,7
1284,7
1285,7
1286,7
1287,7
1288,7
1289,7
1290,7
1291,7
1292,7
1293,7
1294,7
1295,7
1296,7
1297,7
1298,7
1299,7
1300,7
1301,7
1302,7
1303,7
1304,7
1305,7
1306,7
1307,7
1308,7
1309,7
1310,8
1311,7
1312,7
1313,7
1314,7
1315,7
1316,7
1317,7
1318,7
1319,7
1320,7
1321,7
1322,7
1323,7
1324,7
1325,7
1326,7
1327,7
1328,7
1329,7
1330,7
1331,7
1332,7
1333,7
1334,7
1335,7
1336,7
1337,7
1338,7
1339,7
1340,7
1341,7
1342,7
1343,7
1344,7
1345,7
1346,7
1347,7
1348,7
1349,7
1350,7
1351,7
1352,7
1353,7
1354,7
1355,7
1356,7
1357,7
1358,7
1359,7
1360,7
1361,7
1362,7
1363,7
1364,7
1365,7
1366,7
1367,7
1368,7
1369,7
1370,7
1371,7
1372,7
1373,7
1374,7
1375,7
1376,7
1377,7
1378,7
1379,7
1380,7
1381,7
1382,7
1383,7
1384,7
1385,7
1386,7
1387,7
1388,7
1389,7
1390,7
1391,7
1392,7
1393,7
1394,7
1395,7
1396,7
1397,7
1398,7
1399,7
1400,7
1401,7
1402,7
1403,7
1404,7
1405,7
1406,7
1407,7
1408,7
1409,7
1410,7
1411,7
1412,7
1413,7
1414,7
1415,7
1416,7
1417,7
1418,7
1419,7
1420,7
1421,7
1422,7
1423,7
1424,8
1425,8
1426,7
1427,7
1428,7
1429,7
1430,7
1431,7
1432,7
1433,7
1434,7
1435,7
1436,7
1437,7
1438,7
1439,7
1440,7
1441,7
1442,7
1443,7
1444,7
1445,7
1446,7
1447,7
1448,7
1449,7
1450,7
1451,7
1452,7
1453,7
1454,7
1455,7
1456,7
1457,7
1458,7
1459,7
1460,7
1461,7
1462,7
1463,7
1464,7
1465,7
1466,7
1467,7
1468,7
1469,7
1470,7
1471,7
1472,7
1473,7
1474,7
1475,7
1476,7
1477,7
1478,7
1479,7
1480,7
1481,7
1482,7
1483,7
1484,7
1485,7
1486,7
1487,7
1488,7
1489,7
1490,7
1491,7
1492,7
1493,7
1494,7
1495,7
1496,7
1497,7
1498,7
1499,7
1500,7
1501,7
1502,7
1503,7
1504,7
1505,7
1506,7
1507,7
1508,7
1509,7
1510,7
1511,7
1512,7
1513,7
1514,7
1515,7
1516,7
1517,7
1518,7
1519,7
1520,7
1521,7
1522,7
1523,7
1524,7
1525,7
1526,7
1527,7
1528,7
1529,7
1530,7
1531,7
1532,7
1533,7
1534,7
1535,7
1536,7
1537,7
1538,7
1539,7
1540,7
1541,7
1542,8
1543,7
1544,7
1545,7
1546,7
1547,7
1548,7
1549,7
1550,7
1551,7
1552,7
1553,7
1554,7
1555,7
1556,7
1557,7
1558,7
1559,7
1560,7
1561,7
1562,7
1563,7
1564,7
1565,7
1566,7
1567,7
1568,7
1569,7
1570,7
1571,7
1572,7
1573,7
1574,7
1575,7
1576,7
1577,7
1578,7
1579,7
1580,7
1581,7
1582,7
1583,7
1584,7
1585,7
1586,7
1587,7
1588,7
1589,7
1590,7
1591,7
1592,7
1593,7
1594,7
1595,7
1596,7
1597,7
1598,7
1599,7
1600,7
1601,7
1602,7
1603,7
1604,7
1605,7
1606,7
1607,7
1608,7
1609,7
1610,7
1611,7
1612,7
1613,7
1614,7
1615,7
1616,7
1617,7
1618,7
1619,7
1620,7
1621,7
1622,7
1623,7
1624,7
1625,7
1626,7
1627,7
1628,7
1629,7
1630,7
1631,7
1632,7
1633,7
1634,7
1635,7
1636,7
1637,7
1638,7
1639,7
1640,7
1641,7
1642,7
1643,7
1644,7
1645,7
1646,7
1647,7
1648,7
1649,7
1650,7
1651,7
1652,7
1653,7
1654,7
1655,7
1656,7
1657,7
1658,7
1659,7
1660,7
1661,7
1662,7
1663,7
1664,7
1665,7
1666,7
1667,7
1668,7
1669,7
1670,7
1671,7
1672,7
1673,7
1674,7
1675,7
1676,7
1677,7
1678,7
1679,7
1680,7
1681,7
1682,7
1683,7
1684,7
1685,7
1686,7
1687,7
1688,7
1689,7
1690,7
1691,7
1692,7
1693,7
1694,7
1695,7
1696,7
1697,7
1698,7
1699,7
1700,7
1701,7
1702,7
1703,7
1704,7
1705,7
1706,8
1707,8
1708,8
1709,8
1710,8
1711,8
1712,8
1713,8
1714,8
1715,9
1716,8
1717,7
1718,7
1719,7
1720,7
1721,7
1722,7
1723,7
1724,7
1725,7
1726,7
1727,7
1728,7
1729,7
1730,7
1731,7
1732,7
1733,8
1734,7
1735,7
1736,7
1737,7
1738,7
1739,7
1740,7
1741,7
1742,7
1743,7
1744,7
1745,7
1746,7
1747,7
1748,7
1749,7
1750,7
1751,7
1752,7
1753,7
1754,7
1755,7
1756,7
1757,7
1758,7
1759,7
1760,7
1761,7
1762,7
1763,7
1764,7
1765,7
1766,7
1767,7
1768,7
1769,7
1770,7
1771,7
1772,7
1773,7
1774,7
1775,7
1776,7
1777,8
1778,7
1779,7
1780,7
1781,7
1782,7
1783,7
1784,7
1785,7
1786,7
1787,7
1788,7
1789,7
1790,7
1791,7
1792,7
1793,7
1794,7
1795,7
1796,7
1797,7
1798,7
1799,7
1800,7
1801,7
1802,7
1803,7
1804,7
1805,7
1806,7
1807,7
1808,7
1809,7
1810,7
1811,8
1812,8
1813,8
1814,8
1815,7
1816,7
1817,7
1818,7
1819,7
1820,7
1821,7
1822,7
1823,7
1824,7
1825,7
1826,7
1827,7
1828,7
1829,7
1830,7
1831,7
1832,7
1833,7
1834,7
1835,7
1836,7
1837,7
1838,7
1839,7
1840,7
1841,7
1842,7
1843,7
1844,7
1845,7
1846,7
1847,7
1848,7
1849,7
1850,7
1851,7
1852,7
1853,7
1854,7
1855,7
1856,7
1857,7
1858,7
1859,7
1860,7
1861,7
1862,8
1863,7
1864,7
1865,7
1866,7
1867,7
1868,7
1869,7
1870,7
1871,7
1872,7
1873,7
1874,7
1875,7
1876,7
1877,7
1878,7
1879,7
1880,7
1881,7
1882,7
1883,7
1884,7
1885,7
1886,7
1887,7
1888,7
1889,7
1890,7
1891,7
1892,7
1893,7
1894,7
1895,7
1896,7
1897,7
1898,7
1899,7
1900,7
1901,7
1902,7
1903,7
1904,7
1905,7
1906,7
1907,7
1908,7
1909,7
1910,7
1911,7
1912,7
1913,7
1914,7
1915,7
1916,7
1917,7
1918,7
1919,7
1920,7
1921,7
1922,7
1923,7
1924,7
1925,7
1926,7
1927,7
1928,7
1929,7
1930,7
1931,7
1932,7
1933,7
1934,7
1935,7
1936,7
1937,7
1938,7
1939,7
1940,7
1941,7
1942,7
1943,7
1944,7
1945,7
1946,7
1947,7
1948,7
1949,7
1950,7
1951,7
1952,7
1953,7
1954,7
1955,7
1956,7
1957,7
1958,7
1959,7
1960,7
1961,7
1962,7
1963,7
1964,7
1965,7
1966,7
1967,7
1968,7
1969,7
1970,7
1971,7
1972,7
1973,7
1974,7
1975,7
1976,7
1977,7
1978,7
1979,7
1980,7
1981,7
1982,7
1983,7
1984,7
1985,7
1986,7
1987,7
1988,7
1989,7
1990,7
1991,8
1992,8
1993,8
1994,7
1995,7
1996,7
1997,7
1998,7
1999,7
2000,7
2001,7
2002,7
2003,7
2004,7
2005,7
2006,7
2007,7
2008,7
2009,7
2010,7
2011,7
2012,7
2013,7
2014,7
2015,7
2016,7
2017,7
2018,7
2019,7
2020,7
2021,7
2022,7
2023,7
2024,7
2025,7
2026,7
2027,7
2028,7
2029,7
2030,7
2031,7
2032,7
2033,7
2034,7
2035,7
2036,7
2037,7
2038,7
2039,7
2040,7
2041,7
2042,7
2043,7
2044,7
2045,7
2046,7
2047,7
2048,7
2049,7
2050,7
2051,7
2052,7
2053,7
2054,7
2055,7
2056,7
2057,7
2058,7
2059,7
2060,7
2061,7
2062,7
2063,7
2064,7
2065,7
2066,7
2067,7
2068,7
2069,7
2070,7
2071,7
2072,7
2073,7
2074,7
2075,7
2076,7
2077,7
2078,7
2079,7
2080,7
2081,7
2082,7
2083,7
2084,7
2085,7
2086,7
2087,7
2088,7
2089,7
2090,7
2091,7
2092,7
2093,7
2094,7
2095,7
2096,7
2097,7
2098,7
2099,7
2100,7
2101,7
2102,7
2103,7
2104,7
2105,7
2106,7
2107,7
2108,7
2109,7
2110,7
2111,7
2112,7
2113,7
2114,7
2115,7
2116,7
2117,7
2118,7
2119,7
2120,7
2121,7
2122,7
2123,7
2124,7
2125,7
2126,7
2127,7
2128,7
2129,7
2130,7
2131,7
2132,7
2133,7
2134,8
2135,7
2136,7
2137,7
2138,7
2139,7
2140,7
2141,7
2142,7
2143,7
2144,7
2145,7
2146,7
2147,7
2148,7
2149,7
2150,7
2151,7
2152,7
2153,7
2154,7
2155,7
2156,7
2157,7
2158,7
2159,7
2160,7
2161,7
2162,7
2163,7
2164,7
2165,7
2166,7
2167,7
2168,7
2169,7
2170,7
2171,7
2172,7
2173,7
2174,7
2175,7
2176,7
2177,7
2178,7
2179,7
2180,7
2181,7
2182,7
2183,7
2184,7
2185,7
2186,7
2187,7
2188,7
2189,7
2190,7
2191,7
2192,7
2193,7
2194,7
2195,7
2196,7
2197,7
2198,7
2199,7
2200,7
2201,7
2202,7
2203,7
2204,7
2205,7
2206,7
2207,7
2208,7
2209,7
2210,7
2211,7
2212,7
2213,7
2214,7
2215,7
2216,7
2217,7
2218,7
2219,7
2220,7
2221,7
2222,7
2223,7
2224,7
2225,7
2226,7
2227,7
2228,7
2229,7
2230,7
2231,7
2232,7
2233,7
2234,7
2235,7
2236,7
2237,7
2238,7
2239,7
2240,7
2241,7
2242,7
2243,7
2244,7
2245,7
2246,7
2247,7
2248,7
2249,7
2250,7
2251,7
2252,7
2253,8
2254,7
2255,7
2256,7
2257,7
2258,8
2259,8
2260,8
2261,8
2262,8
2263,8
2264,8
2265,8
2266,8
2267,8
2268,8
2269,8
2270,8
2271,8
2272,8
2273,8
2274,8
2275,8
2276,8
2277,8
2278,8
2279,8
2280,8
2281,8
2282,8
2283,8
2284,8
2285,8
2286,8
2287,8
2288,8
2289,8
2290,8
2291,8
2292,8
2293,8
2294,8
2295,8
2296,8
2297,8
2298,8
2299,8
2300,8
2301,8
2302,8
2303,8
2304,8
2305,8
2306,8
2307,8
2308,8
2309,8
2310,8
2311,8
2312,8
2313,8
2314,8
2315,8
2316,8
2317,9
2318,9
2319,9
2320,9
2321,9
2322,9
2323,9
2324,9
2325,9
2326,9
2327,9
2328,9
2329,9
2330,9
2331,9
2332,9
2333,9
2334,9
2335,9
2336,9
2337,9
2338,9
2339,9
2340,9
2341,9
2342,9
2343,9
2344,9
2345,9
2346,9
2347,9
2348,9
2349,9
2350,9
2351,9
2352,9
2353,9
2354,9
2355,9
2356,9
2357,9
2358,9
2359,9
2360,9
2361,9
2362,9
2363,9
2364,9
2365,9
2366,9
2367,9
2368,9
2369,9
2370,9
2371,9
2372,9
2373,9
2374,9
2375,9
2376,9
2377,9
2378,9
2379,9
2380,9
2381,9
2382,9
2383,9
2384,9
2385,9
2386,9
2387,9
2388,9
2389,9
2390,9
2391,9
2392,9
2393,9
2394,9
2395,9
2396,9
2397,9
2398,9
2399,9
2400,9
2401,9
2402,9
2403,9
2404,9
2405,9
2406,9
2407,9
2408,9
2409,9
2410,9
2411,9
2412,9
2413,9
2414,9
2415,9
2416,9
2417,9
2418,9
2419,9
2420,9
2421,9
2422,9
2423,9
2424,9
2425,9
2426,9
2427,9
2428,9
2429,9
2430,9
2431,9
2432,9
2433,9
2434,9
2435,9
2436,9
2437,9
2438,9
2439,9
2440,9
2441,9
2442,9
2443,9
2444,9
2445,9
2446,9
2447,9
2448,9
2449,9
2450,9
2451,9
2452,9
2453,9
2454,9
2455,9
2456,9
2457,9
2458,9
2459,9
2460,9
2461,9
2462,9
2463,9
2464,9
2465,9
2466,9
2467,9
2468,9
2469,9
2470,9
2471,9
2472,9
2473,9
2474,9
2475,9
2476,9
2477,9
2478,9
2479,9
2480,9
2481,9
2482,10
2483,10
2484,10
2485,10
2486,10
2487,10
2488,10
2489,10
2490,10
2491,10
2492,10
2493,10
2494,10
2495,10
2496,10
2497,10
2498,10
2499,10
2500,10
2501,10
2502,10
2503,10
2504,10
2505,10
2506,10
2507,10
2508,10
2509,10
2510,10
2511,10
2512,10
2513,10
2514,10
2515,10
2516,10
2517,10
2518,10
2519,10
2520,10
2521,10
2522,10
2523,10
2524,10
2525,10
2526,10
2527,10
2528,10
2529,10
2530,10
2531,10
2532,10
2533,10
2534,10
2535,10
2536,10
2537,10
2538,10
2539,10
2540,10
2541,10
2542,10
2543,10
2544,10
2545,10
2546,10
2547,10
2548,10
2549,10
2550,10
2551,10
2552,10
2553,10
2554,10
2555,10
2556,10
2557,10
2558,10
2559,10
2560,10
2561,10
2562,10
2563,10
2564,10
2565,10
2566,10
2567,10
2568,10
2569,10
2570,10
2571,10
2572,10
2573,10
2574,10
2575,10
2576,10
2577,10
2578,10
2579,10
2580,10
2581,10
2582,10
2583,10
2584,10
2585,10
2586,10
2587,10
2588,10
2589,10
2590,10
2591,10
2592,10
2593,10
2594,10
2595,10
2596,10
2597,10
2598,10
2599,10
2600,10
2601,10
2602,10
2603,10
2604,10
2605,10
2606,10
2607,10
2608,10
2609,10
2610,10
2611,10
2612,10
2613,10
2614,10
2615,10
2616,10
2617,10
2618,10
2619,10
2620,10
2621,10
2622,10
2623,10
2624,10
2625,10
2626,10
2627,10
2628,10
2629,10
2630,10
2631,10
2632,10
2633,10
2634,10
2635,10
2636,10
2637,10
2638,10
2639,10
2640,10
2641,10
2642,10
2643,10
2644,10
2645,10
2646,10
2647,10
2648,10
2649,10
2650,10
2651,10
2652,10
2653,10
2654,10
2655,10
2656,10
2657,10
2658,10
2659,11
2660,11
2661,11
2662,10
2663,10
2664,10
2665,10
2666,10
2667,10
2668,10
2669,10
2670,10
2671,10
2672,10
2673,10
2674,10
2675,10
2676,10
2677,10
2678,10
2679,10
2680,10
2681,10
2682,10
2683,10
2684,10
2685,10
2686,10
2687,10
2688,10
2689,10
2690,10
2691,10
2692,10
2693,10
2694,10
2695,10
2696,10
2697,10
2698,10
2699,10
2700,10
2701,10
2702,10
2703,10
2704,10
2705,10
2706,10
2707,10
2708,10
2709,10
2710,10
2711,10
2712,10
2713,10
2714,10
2715,10
2716,10
2717,10
2718,10
2719,10
2720,10
2721,10
2722,10
2723,10
2724,10
2725,10
2726,10
2727,10
2728,10
2729,10
2730,10
2731,10
2732,10
2733,10
2734,10
2735,10
2736,10
2737,10
2738,10
2739,10
2740,10
2741,10
2742,10
2743,10
2744,10
2745,10
2746,10
2747,10
2748,10
2749,10
2750,10
2751,10
2752,10
2753,10
2754,10
2755,10
2756,10
2757,10
2758,10
2759,10
2760,10
2761,10
2762,10
2763,10
2764,10
2765,10
2766,10
2767,10
2768,10
2769,10
2770,10
2771,10
2772,10
2773,10
2774,10
2775,10
2776,10
2777,10
2778,10
2779,10
2780,10
2781,10
2782,10
2783,10
2784,10
2785,10
2786,10
2787,10
2788,10
2789,10
2790,10
2791,10
2792,10
2793,10
2794,10
2795,10
2796,10
2797,10
2798,10
2799,10
2800,10
2801,10
2802,10
2803,10
2804,10
2805,10
2806,10
2807,10
2808,10
2809,10
2810,10
2811,10
2812,10
2813,10
2814,10
2815,10
2816,10
2817,10
2818,10
2819,10
2820,10
2821,10
2822,10
2823,10
2824,10
2825,10
2826,11
2827,10
2828,10
2829,10
2830,10
2831,10
2832,10
2833,10
2834,10
2835,10
2836,10
2837,10
2838,10
2839,10
2840,10
2841,10
2842,10
2843,10
2844,10
2845,10
2846,10
2847,10
2848,10
2849,10
2850,10
2851,10
2852,10
2853,10
2854,10
2855,10
2856,10
2857,10
2858,10
2859,10
2860,10
2861,10
2862,10
2863,10
2864,10
2865,10
2866,10
2867,10
2868,10
2869,10
2870,10
2871,10
2872,10
2873,10
2874,10
2875,10
2876,10
2877,10
2878,10
2879,10
2880,10
2881,10
2882,10
2883,10
2884,10
2885,10
2886,10
2887,10
2888,10
2889,10
2890,10
2891,10
2892,10
2893,10
2894,10
2895,10
2896,10
2897,10
2898,10
2899,10
2900,10
2901,10
2902,10
2903,10
2904,10
2905,10
2906,10
2907,10
2908,10
2909,10
2910,10
2911,10
2912,10
2913,10
2914,10
2915,10
2916,10
2917,10
2918,10
2919,10
2920,10
2921,10
2922,10
2923,10
2924,10
2925,10
2926,10
2927,10
2928,10
2929,10
2930,10
2931,10
2932,10
2933,10
2934,10
2935,10
2936,10
2937,10
2938,10
2939,10
2940,10
2941,10
2942,10
2943,10
2944,10
2945,10
2946,10
2947,10
2948,10
2949,10
2950,10
2951,10
2952,10
2953,10
2954,10
2955,10
2956,10
2957,10
2958,10
2959,10
2960,11
2961,11
2962,11
2963,10
2964,10
2965,10
2966,10
2967,10
2968,10
2969,10
2970,10
2971,10
2972,10
2973,10
2974,10
2975,10
2976,10
2977,10
2978,10
2979,10
2980,10
2981,10
2982,10
2983,10
2984,10
2985,11
2986,11
2987,11
2988,11
2989,11
2990,11
2991,11
2992,11
2993,11
2994,12
2995,11
2996,11
2997,11
2998,11
2999,11
3000,11
3001,11
3002,11
3003,11
3004,11
3005,11
3006,11
3007,11
3008,11
3009,11
3010,11
3011,11
3012,11
3013,11
3014,11
3015,11
3016,11
3017,11
3018,11
3019,11
3020,11
3021,11
3022,11
3023,11
3024,11
3025,11
3026,11
3027,11
3028,11
3029,11
3030,11
3031,11
3032,11
3033,11
3034,11
3035,11
3036,11
3037,11
3038,11
3039,11
3040,12
3041,12
3042,12
3043,13
3044,12
3045,11
3046,11
3047,11
3048,11
3049,11
3050,11
3051,11
3052,11
3053,11
3054,11
3055,11
3056,11
3057,11
3058,11
3059,11
3060,11
3061,11
3062,11
3063,11
3064,11
3065,11
3066,11
3067,11
3068,11
3069,11
3070,11
3071,11
3072,11
3073,11
3074,11
3075,11
3076,11
3077,11
3078,11
3079,11
3080,11
3081,11
3082,11
3083,11
3084,11
3085,11
3086,11
3087,11
3088,11
3089,11
3090,11
3091,11
3092,11
3093,11
3094,11
3095,11
3096,11
3097,11
3098,11
3099,11
3100,11
3101,11
3102,11
3103,11
3104,11
3105,11
3106,11
3107,11
3108,11
3109,11
3110,11
3111,11
3112,11
3113,11
3114,11
3115,11
3116,11
3117,11
3118,11
3119,11
3120,11
3121,11
3122,11
3123,11
3124,11
3125,11
3126,11
3127,11
3128,11
3129,11
3130,11
3131,11
3132,11
3133,11
3134,12
3135,11
3136,11
3137,11
3138,11
3139,11
3140,11
3141,11
3142,11
3143,11
3144,11
3145,11
3146,11
3147,11
3148,11
3149,11
3150,11
3151,11
3152,11
3153,11
3154,11
3155,11
3156,11
3157,11
3158,11
3159,11
3160,11
3161,11
3162,11
3163,11
3164,11
3165,11
3166,11
3167,11
3168,11
3169,11
3170,11
3171,11
3172,11
3173,11
3174,11
3175,11
3176,11
3177,11
3178,11
3179,11
3180,11
3181,11
3182,11
3183,11
3184,11
3185,11
3186,11
3187,11
3188,11
3189,11
3190,11
3191,11
3192,11
3193,11
3194,11
3195,11
3196,11
3197,11
3198,11
3199,11
3200,11
3201,11
3202,11
3203,11
3204,11
3205,11
3206,11
3207,11
3208,11
3209,11
3210,11
3211,11
3212,11
3213,11
3214,11
3215,11
3216,11
3217,11
3218,11
3219,11
3220,11
3221,11
3222,11
3223,11
3224,11
3225,11
3226,11
3227,11
3228,11
3229,11
3230,11
3231,11
3232,11
3233,11
3234,11
3235,11
3236,11
3237,11
3238,11
3239,11
3240,11
3241,11
3242,11
3243,11
3244,11
3245,11
3246,11
3247,11
3248,11
3249,11
3250,11
3251,11
3252,11
3253,11
3254,11
3255,11
3256,11
3257,11
3258,11
3259,11
3260,11
3261,11
3262,11
3263,11
3264,11
3265,11
3266,11
3267,11
3268,11
3269,12
3270,11
3271,11
3272,11
3273,11
3274,11
3275,11
3276,11
3277,11
3278,12
3279,12
3280,11
3281,11
3282,11
3283,11
3284,11
3285,11
3286,11
3287,11
3288,11
3289,11
3290,11
3291,11
3292,11
3293,11
3294,11
3295,11
3296,11
3297,11
3298,11
3299,11
3300,11
3301,11
3302,11
3303,11
3304,11
3305,11
3306,11
3307,11
3308,11
3309,11
3310,11
3311,11
3312,11
3313,11
3314,11
3315,11
3316,11
3317,11
3318,11
3319,11
3320,11
3321,11
3322,11
3323,11
3324,11
3325,11
3326,11
3327,11
3328,11
3329,11
3330,11
3331,11
3332,11
3333,11
3334,11
3335,11
3336,11
3337,11
3338,11
3339,11
3340,11
3341,11
3342,11
3343,11
3344,11
3345,11
3346,11
3347,11
3348,11
3349,11
3350,11
3351,11
3352,11
3353,11
3354,11
3355,11
3356,11
3357,11
3358,11
3359,11
3360,11
3361,11
3362,11
3363,11
3364,11
3365,11
3366,11
3367,11
3368,11
3369,11
3370,11
3371,11
3372,11
3373,12
3374,11
3375,11
3376,11
3377,11
3378,11
3379,11
3380,11
3381,11
3382,11
3383,11
3384,11
3385,11
3386,11
3387,11
3388,11
3389,11
3390,11
3391,11
3392,11
3393,11
3394,11
3395,11
3396,11
3397,11
3398,11
3399,11
3400,11
3401,11
3402,11
3403,11
3404,11
3405,11
3406,11
3407,11
3408,11
3409,11
3410,11
3411,11
3412,11
3413,11
3414,11
3415,11
3416,11
3417,11
3418,11
3419,11
3420,11
3421,11
3422,11
3423,11
3424,11
3425,11
3426,11
3427,11
3428,11
3429,11
3430,11
3431,11
3432,11
3433,11
3434,11
3435,11
3436,11
3437,11
3438,11
3439,11
3440,11
3441,11
3442,11
3443,11
3444,11
3445,11
3446,11
3447,11
3448,11
3449,11
3450,11
3451,11
3452,11
3453,11
3454,11
3455,11
3456,11
3457,11
3458,11
3459,11
3460,11
3461,11
3462,11
3463,11
3464,11
3465,11
3466,11
3467,11
3468,11
3469,11
3470,11
3471,11
3472,11
3473,11
3474,11
3475,11
3476,11
3477,11
3478,11
3479,11
3480,11
3481,11
3482,11
3483,11
3484,11
3485,11
3486,11
3487,11
3488,11
3489,11
3490,11
3491,11
3492,11
3493,11
3494,11
3495,11
3496,11
3497,11
3498,11
3499,11
3500,11
3501,11
3502,11
3503,11
3504,11
3505,11
3506,11
3507,11
3508,11
3509,11
3510,11
3511,11
3512,11
3513,11
3514,11
3515,11
3516,11
3517,11
3518,11
3519,11
3520,11
3521,12
3522,12
3523,12
3524,11
3525,11
3526,11
3527,11
3528,11
3529,11
3530,11
3531,11
3532,11
3533,11
3534,11
3535,11
3536,11
3537,11
3538,11
3539,11
3540,11
3541,11
3542,11
3543,11
3544,11
3545,11
3546,11
3547,11
3548,11
3549,11
3550,11
3551,11
3552,11
3553,11
3554,11
3555,12
3556,11
3557,11
3558,11
3559,11
3560,11
3561,11
3562,11
3563,11
3564,11
3565,11
3566,11
3567,11
3568,11
3569,11
3570,11
3571,11
3572,11
3573,11
3574,11
3575,11
3576,11
3577,11
3578,11
3579,11
3580,11
3581,11
3582,11
3583,11
3584,11
3585,11
3586,11
3587,11
3588,11
3589,11
3590,11
3591,11
3592,11
3593,11
3594,11
3595,11
3596,11
3597,11
3598,11
3599,11
3600,11
3601,11
3602,11
3603,11
3604,11
3605,11
3606,11
3607,11
3608,11
3609,11
3610,11
3611,11
3612,11
3613,11
3614,11
3615,11
3616,11
3617,11
3618,11
3619,11
3620,11
3621,11
3622,11
3623,11
3624,11
3625,11
3626,11
3627,11
3628,11
3629,11
3630,11
3631,11
3632,11
3633,11
3634,11
3635,11
3636,11
3637,11
3638,11
3639,11
3640,11
3641,11
3642,11
3643,11
3644,11
3645,11
3646,11
3647,11
3648,11
3649,11
3650,11
3651,11
3652,12
3653,12
3654,12
3655,11
3656,11
3657,11
3658,11
3659,11
3660,11
3661,11
3662,11
3663,11
3664,11
3665,11
3666,11
3667,11
3668,11
3669,11
3670,11
3671,11
3672,11
3673,11
3674,11
3675,12
3676,12
3677,12
3678,11
3679,11
3680,11
3681,11
3682,11
3683,11
3684,11
3685,11
3686,11
3687,11
3688,11
3689,11
3690,12
3691,11
3692,11
3693,11
3694,11
3695,11
3696,11
3697,11
3698,11
3699,11
3700,11
3701,11
3702,11
3703,11
3704,11
3705,11
3706,11
3707,11
3708,11
3709,11
3710,11
3711,11
3712,11
3713,11
3714,11
3715,11
3716,11
3717,11
3718,11
3719,11
3720,11
3721,11
3722,11
3723,11
3724,11
3725,11
3726,11
3727,11
3728,11
3729,11
3730,11
3731,11
3732,11
3733,11
3734,11
3735,11
3736,11
3737,11
3738,11
3739,12
3740,12
3741,12
3742,12
3743,12
3744,11
3745,11
3746,11
3747,11
3748,11
3749,11
3750,11
3751,11
3752,11
3753,11
3754,11
3755,11
3756,11
3757,11
3758,11
3759,11
3760,11
3761,11
3762,11
3763,11
3764,11
3765,11
3766,11
3767,11
3768,11
3769,11
3770,11
3771,11
3772,11
3773,11
3774,11
3775,11
3776,11
3777,11
3778,11
3779,11
3780,11
3781,11
3782,11
3783,12
3784,11
3785,11
3786,11
3787,11
3788,11
3789,11
3790,11
3791,11
3792,11
3793,11
3794,11
3795,11
3796,11
3797,11
3798,11
3799,11
3800,11
3801,11
3802,11
3803,11
3804,11
3805,11
3806,11
3807,11
3808,11
3809,11
3810,11
3811,11
3812,11
3813,11
3814,11
3815,11
3816,11
3817,11
3818,11
3819,11
3820,11
3821,11
3822,11
3823,11
3824,11
3825,11
3826,11
3827,11
3828,11
3829,11
3830,11
3831,11
3832,11
3833,11
3834,11
3835,11
3836,11
3837,11
3838,11
3839,11
3840,11
3841,11
3842,11
3843,11
3844,11
3845,11
3846,11
3847,11
3848,11
3849,11
3850,11
3851,11
3852,11
3853,11
3854,11
3855,11
3856,11
3857,11
3858,11
3859,11
3860,11
3861,11
3862,11
3863,11
3864,11
3865,11
3866,11
3867,11
3868,11
3869,11
3870,11
3871,11
3872,11
3873,11
3874,11
3875,11
3876,11
3877,11
3878,11
3879,11
3880,11
3881,11
3882,11
3883,11
3884,11
3885,11
3886,11
3887,11
3888,11
3889,11
3890,11
3891,11
3892,11
3893,11
3894,11
3895,11
3896,11
3897,11
3898,11
3899,11
3900,11
3901,11
3902,11
3903,11
3904,11
3905,11
3906,11
3907,11
3908,11
3909,11
3910,11
3911,11
3912,11
3913,11
3914,11
3915,11
3916,11
3917,11
3918,11
3919,11
3920,11
3921,11
3922,11
3923,11
3924,11
3925,11
3926,11
3927,11
3928,11
3929,11
3930,11
3931,11
3932,11
3933,11
3934,11
3935,11
3936,11
3937,11
3938,11
3939,11
3940,11
3941,11
3942,11
3943,11
3944,11
3945,11
3946,11
3947,11
3948,11
3949,11
3950,11
3951,11
3952,11
3953,11
3954,11
3955,11
3956,11
3957,11
3958,11
3959,11
3960,11
3961,11
3962,11
3963,11
3964,11
3965,11
3966,11
3967,11
3968,11
3969,11
3970,11
3971,11
3972,11
3973,11
3974,11
3975,11
3976,11
3977,11
3978,11
3979,11
3980,11
3981,11
3982,11
3983,11
3984,11
3985,11
3986,11
3987,11
3988,11
3989,11
3990,11
3991,11
3992,11
3993,11
3994,11
3995,11
3996,11
3997,11
3998,11
3999,11
4000,11
4001,11
4002,11
4003,11
4004,11
4005,12
4006,11
4007,11
4008,11
4009,11
4010,11
4011,11
4012,11
4013,11
4014,11
4015,11
4016,11
4017,11
4018,11
4019,11
4020,11
4021,11
4022,11
4023,11
4024,11
4025,11
4026,11
4027,11
4028,11
4029,11
4030,11
4031,11
4032,11
4033,11
4034,11
4035,11
4036,11
4037,11
4038,11
4039,11
4040,11
4041,11
4042,11
4043,11
4044,11
4045,11
4046,11
4047,11
4048,11
4049,11
4050,11
4051,11
4052,11
4053,11
4054,11
4055,11
4056,11
4057,11
4058,11
4059,11
4060,11
4061,11
4062,11
4063,11
4064,11
4065,11
4066,11
4067,11
4068,11
4069,11
4070,11
4071,11
4072,11
4073,11
4074,11
4075,11
4076,11
4077,11
4078,11
4079,11
4080,11
4081,11
4082,11
4083,11
4084,11
4085,11
4086,11
4087,11
4088,11
4089,11
4090,11
4091,11
4092,11
4093,11
4094,11
4095,11
4096,11
4097,11
4098,11
4099,11
4100,11
4101,11
4102,11
4103,11
4104,11
4105,12
4106,12
4107,12
4108,11
4109,11
4110,11
4111,11
4112,11
4113,12
4114,11
4115,11
4116,11
4117,11
4118,11
4119,11
4120,11
4121,11
4122,11
4123,11
4124,11
4125,11
4126,11
4127,11
4128,11
4129,11
4130,11
4131,11
4132,11
4133,11
4134,11
4135,11
4136,11
4137,11
4138,11
4139,11
4140,11
4141,11
4142,11
4143,11
4144,11
4145,11
4146,11
4147,11
4148,11
4149,11
4150,11
4151,11
4152,11
4153,11
4154,11
4155,11
4156,11
4157,11
4158,11
4159,11
4160,11
4161,11
4162,11
4163,11
4164,11
4165,11
4166,11
4167,11
4168,11
4169,11
4170,11
4171,11
4172,11
4173,11
4174,11
4175,11
4176,11
4177,11
4178,11
4179,11
4180,11
4181,11
4182,11
4183,11
4184,11
4185,11
4186,11
4187,11
4188,11
4189,11
4190,11
4191,11
4192,11
4193,11
4194,11
4195,11
4196,11
4197,11
4198,11
4199,11
4200,11
4201,11
4202,11
4203,11
4204,11
4205,11
4206,12
4207,11
4208,11
4209,11
4210,11
4211,11
4212,11
4213,11
4214,11
4215,11
4216,11
4217,11
4218,11
4219,11
4220,11
4221,11
4222,11
4223,11
4224,11
4225,11
4226,11
4227,11
4228,11
4229,11
4230,11
4231,11
4232,11
4233,11
4234,11
4235,11
4236,11
4237,11
4238,11
4239,11
4240,11
4241,11
4242,11
4243,11
4244,12
4245,11
4246,11
4247,11
4248,11
4249,11
4250,11
4251,11
4252,11
4253,11
4254,11
4255,11
4256,11
4257,11
4258,11
4259,11
4260,11
4261,11
4262,11
4263,11
4264,11
4265,11
4266,11
4267,11
4268,11
4269,11
4270,11
4271,11
4272,11
4273,11
4274,11
4275,11
4276,11
4277,11
4278,11
4279,11
4280,11
4281,11
4282,11
4283,12
4284,11
4285,11
4286,11
4287,11
4288,11
4289,11
4290,11
4291,11
4292,11
4293,11
4294,11
4295,11
4296,11
4297,11
4298,11
4299,11
4300,11
4301,11
4302,11
4303,11
4304,11
4305,11
4306,11
4307,11
4308,11
4309,11
4310,11
4311,11
4312,11
4313,11
4314,11
4315,11
4316,11
4317,11
4318,11
4319,11
4320,11
4321,11
4322,11
4323,11
4324,12
4325,12
4326,12
4327,12
4328,11
4329,11
4330,11
4331,11
4332,11
4333,11
4334,11
4335,11
4336,11
4337,11
4338,11
4339,11
4340,11
4341,11
4342,11
4343,11
4344,11
4345,11
4346,11
4347,11
4348,11
4349,11
4350,11
4351,11
4352,11
4353,11
4354,11
4355,11
4356,11
4357,11
4358,11
4359,11
4360,11
4361,11
4362,11
4363,11
4364,11
4365,11
4366,11
4367,11
4368,11
4369,11
4370,11
4371,11
4372,11
4373,11
4374,11
4375,11
4376,11
4377,11
4378,11
4379,11
4380,11
4381,11
4382,11
4383,11
4384,11
4385,12
4386,11
4387,11
4388,11
4389,11
4390,11
4391,11
4392,11
4393,11
4394,11
4395,11
4396,11
4397,11
4398,11
4399,11
4400,11
4401,11
4402,11
4403,11
4404,11
4405,11
4406,11
4407,11
4408,11
4409,11
4410,11
4411,11
4412,11
4413,11
4414,11
4415,11
4416,11
4417,11
4418,11
4419,11
4420,11
4421,11
4422,11
4423,11
4424,11
4425,11
4426,11
4427,11
4428,11
4429,11
4430,11
4431,11
4432,11
4433,11
4434,11
4435,11
4436,11
4437,11
4438,11
4439,11
4440,11
4441,11
4442,11
4443,11
4444,11
4445,11
4446,11
4447,11
4448,12
4449,11
4450,11
4451,11
4452,11
4453,11
4454,11
4455,11
4456,11
4457,11
4458,11
4459,11
4460,11
4461,11
4462,11
4463,11
4464,11
4465,11
4466,11
4467,11
4468,11
4469,11
4470,11
4471,11
4472,11
4473,11
4474,11
4475,11
4476,11
4477,11
4478,12
4479,12
4480,12
4481,12
4482,12
4483,12
4484,12
4485,12
4486,12
4487,12
4488,12
4489,12
4490,12
4491,12
4492,12
4493,12
4494,12
4495,12
4496,12
4497,12
4498,12
4499,12
4500,12
4501,12
4502,12
4503,12
4504,12
4505,12
4506,12
4507,12
4508,12
4509,12
4510,12
4511,12
4512,12
4513,12
4514,12
4515,12
4516,12
4517,12
4518,12
4519,12
4520,12
4521,13
4522,14
4523,14
4524,14
4525,14
4526,14
4527,14
4528,13
4529,13
4530,13
4531,13
4532,13
4533,13
4534,13
4535,13
4536,13
4537,13
4538,13
4539,13
4540,13
4541,13
4542,13
4543,13
4544,13
4545,13
4546,13
4547,13
4548,13
4549,13
4550,13
4551,13
4552,13
4553,13
4554,13
4555,13
4556,13
4557,13
4558,13
4559,13
4560,13
4561,13
4562,13
4563,13
4564,13
4565,13
4566,13
4567,13
4568,13
4569,13
4570,13
4571,13
4572,13
4573,13
4574,13
4575,13
4576,13
4577,13
4578,13
4579,13
4580,13
4581,13
4582,13
4583,13
4584,13
4585,13
4586,13
4587,13
4588,13
4589,13
4590,13
4591,13
4592,13
4593,13
4594,13
4595,13
4596,13
4597,13
4598,13
4599,13
4600,13
4601,13
4602,13
4603,13
4604,13
4605,13
4606,13
4607,13
4608,13
4609,13
4610,13
4611,13
4612,13
4613,13
4614,13
4615,13
4616,13
4617,13
4618,13
4619,13
4620,13
4621,13
4622,13
4623,13
4624,13
4625,13
4626,13
4627,13
4628,13
4629,13
4630,13
4631,13
4632,13
4633,13
4634,13
4635,13
4636,13
4637,13
4638,13
4639,13
4640,13
4641,13
4642,13
4643,13
4644,13
4645,13
4646,14
4647,14
4648,14
4649,14
4650,14
4651,14
4652,13
4653,13
4654,13
4655,13
4656,13
4657,13
4658,13
4659,13
4660,13
4661,13
4662,13
4663,14
4664,13
4665,13
4666,13
4667,13
4668,13
4669,13
4670,13
4671,13
4672,13
4673,13
4674,13
4675,13
4676,13
4677,13
4678,13
4679,13
4680,13
4681,13
4682,13
4683,13
4684,13
4685,13
4686,13
4687,13
4688,13
4689,13
4690,13
4691,13
4692,13
4693,13
4694,13
4695,13
4696,13
4697,13
4698,13
4699,13
4700,13
4701,13
4702,13
4703,13
4704,13
4705,13
4706,13
4707,13
4708,13
4709,13
4710,13
4711,13
4712,13
4713,13
4714,13
4715,13
4716,13
4717,13
4718,13
4719,13
4720,13
4721,13
4722,13
4723,13
4724,13
4725,13
4726,13
4727,13
4728,13
4729,13
4730,13
4731,13
4732,13
4733,13
4734,13
4735,13
4736,13
4737,13
4738,13
4739,13
4740,13
4741,13
4742,13
4743,13
4744,13
4745,13
4746,13
4747,13
4748,13
4749,13
4750,13
4751,13
4752,13
4753,13
4754,13
4755,13
4756,13
4757,13
4758,13
4759,13
4760,13
4761,13
4762,13
4763,13
4764,13
4765,13
4766,13
4767,13
4768,13
4769,13
4770,13
4771,13
4772,13
4773,13
4774,13
4775,13
4776,13
4777,13
4778,13
4779,13
4780,13
4781,13
4782,13
4783,13
4784,13
4785,13
4786,13
4787,13
4788,13
4789,13
4790,13
4791,13
4792,13
4793,13
4794,13
4795,13
4796,13
4797,13
4798,13
4799,13
4800,13
4801,13
4802,13
4803,13
4804,13
4805,13
4806,13
4807,13
4808,13
4809,13
4810,13
4811,13
4812,13
4813,13
4814,13
4815,13
4816,13
4817,13
4818,13
4819,13
4820,13
4821,13
4822,13
4823,13
4824,13
4825,13
4826,13
4827,13
4828,13
4829,13
4830,13
4831,13
4832,13
4833,13
4834,13
4835,13
4836,13
4837,13
4838,13
4839,13
4840,13
4841,13
4842,13
4843,13
4844,13
4845,13
4846,13
4847,13
4848,13
4849,13
4850,13
4851,13
4852,13
4853,13
4854,13
4855,13
4856,13
4857,13
4858,13
4859,13
4860,13
4861,13
4862,14
4863,14
4864,13
4865,13
4866,13
4867,13
4868,13
4869,13
4870,13
4871,13
4872,13
4873,13
4874,13
4875,13
4876,13
4877,13
4878,13
4879,13
4880,13
4881,13
4882,13
4883,13
4884,13
4885,13
4886,13
4887,13
4888,13
4889,13
4890,13
4891,13
4892,13
4893,13
4894,13
4895,13
4896,13
4897,13
4898,13
4899,13
4900,13
4901,13
4902,13
4903,13
4904,13
4905,13
4906,13
4907,13
4908,13
4909,13
4910,13
4911,13
4912,13
4913,13
4914,13
4915,13
4916,13
4917,13
4918,13
4919,13
4920,13
4921,13
4922,13
4923,13
4924,13
4925,13
4926,13
4927,13
4928,13
4929,13
4930,13
4931,13
4932,13
4933,13
4934,13
4935,13
4936,13
4937,13
4938,13
4939,13
4940,13
4941,13
4942,13
4943,13
4944,13
4945,13
4946,13
4947,13
4948,13
4949,13
4950,13
4951,13
4952,13
4953,13
4954,13
4955,13
4956,13
4957,13
4958,13
4959,13
4960,13
4961,13
4962,13
4963,13
4964,13
4965,13
4966,13
4967,13
4968,13
4969,13
4970,13
4971,13
4972,13
4973,13
4974,13
4975,13
4976,13
4977,13
4978,13
4979,13
4980,13
4981,13
4982,13
4983,13
4984,13
4985,13
4986,13
4987,13
4988,13
4989,13
4990,13
4991,13
4992,13
4993,13
4994,13
4995,13
4996,13
4997,13
4998,13
4999,13
5000,13
5001,13
5002,13
5003,13
5004,13
5005,13
5006,13
5007,13
5008,13
5009,13
5010,13
5011,13
5012,13
5013,13
5014,13
5015,13
5016,13
5017,13
5018,13
5019,13
5020,13
5021,13
5022,13
5023,13
5024,13
5025,13
5026,13
5027,13
5028,13
5029,13
5030,13
5031,13
5032,13
5033,13
5034,13
5035,13
5036,13
5037,13
5038,13
5039,13
5040,14
5041,13
5042,13
5043,14
5044,13
5045,13
5046,13
5047,13
5048,13
5049,13
5050,13
5051,13
5052,13
5053,13
5054,13
5055,13
5056,13
5057,13
5058,13
5059,13
5060,13
5061,13
5062,13
5063,13
5064,13
5065,14
5066,14
5067,14
5068,14
5069,14
5070,13
5071,13
5072,13
5073,13
5074,13
5075,13
5076,13
5077,13
5078,13
5079,13
5080,14
5081,13
5082,13
5083,13
5084,13
5085,13
5086,13
5087,13
5088,13
5089,13
5090,13
5091,13
5092,13
5093,13
5094,13
5095,13
5096,13
5097,13
5098,13
5099,13
5100,13
5101,13
5102,13
5103,13
5104,13
5105,13
5106,13
5107,13
5108,13
5109,13
5110,13
5111,13
5112,13
5113,13
5114,13
5115,13
5116,13
5117,13
5118,13
5119,13
5120,13
5121,14
5122,14
5123,14
5124,14
5125,14
5126,13
5127,13
5128,13
5129,13
5130,14
5131,14
5132,14
5133,14
5134,13
5135,13
5136,13
5137,13
5138,13
5139,13
5140,13
5141,13
5142,13
5143,13
5144,13
5145,13
5146,13
5147,13
5148,13
5149,13
5150,13
5151,13
5152,13
5153,13
5154,13
5155,13
5156,13
5157,13
5158,13
5159,13
5160,13
5161,13
5162,13
5163,13
5164,13
5165,13
5166,13
5167,13
5168,14
5169,13
5170,13
5171,13
5172,13
5173,13
5174,13
5175,13
5176,13
5177,13
5178,13
5179,13
5180,13
5181,13
5182,13
5183,13
5184,13
5185,13
5186,13
5187,13
5188,13
5189,13
5190,13
5191,13
5192,13
5193,13
5194,13
5195,13
5196,13
5197,13
5198,13
5199,13
5200,13
5201,13
5202,13
5203,13
5204,13
5205,13
5206,13
5207,13
5208,13
5209,13
5210,13
5211,13
5212,13
5213,13
5214,13
5215,13
5216,13
5217,13
5218,13
5219,13
5220,13
5221,13
5222,13
5223,13
5224,13
5225,13
5226,13
5227,13
5228,13
5229,13
5230,13
5231,13
5232,13
5233,13
5234,13
5235,13
5236,13
5237,13
5238,13
5239,13
5240,13
5241,13
5242,13
5243,13
5244,13
5245,13
5246,13
5247,13
5248,13
5249,13
5250,13
5251,13
5252,13
5253,13
5254,13
5255,13
5256,13
5257,13
5258,13
5259,13
5260,13
5261,13
5262,13
5263,13
5264,13
5265,13
5266,13
5267,13
5268,13
5269,13
5270,13
5271,13
5272,13
5273,14
5274,14
5275,14
5276,14
5277,14
5278,14
5279,14
5280,14
5281,13
5282,13
5283,13
5284,13
5285,13
5286,13
5287,13
5288,13
5289,13
5290,13
5291,13
5292,13
5293,13
5294,13
5295,13
5296,13
5297,13
5298,13
5299,13
5300,13
5301,13
5302,13
5303,13
5304,13
5305,13
5306,13
5307,13
5308,13
5309,13
5310,13
5311,13
5312,13
5313,13
5314,13
5315,13
5316,13
5317,14
5318,13
5319,13
5320,13
5321,13
5322,13
5323,13
5324,13
5325,13
5326,13
5327,13
5328,13
5329,13
5330,13
5331,13
5332,13
5333,13
5334,13
5335,13
5336,13
5337,13
5338,13
5339,13
5340,13
5341,13
5342,13
5343,13
5344,13
5345,13
5346,13
5347,13
5348,13
5349,13
5350,13
5351,13
5352,13
5353,13
5354,13
5355,13
5356,13
5357,13
5358,13
5359,13
5360,13
5361,13
5362,13
5363,13
5364,13
5365,13
5366,13
5367,13
5368,13
5369,13
5370,13
5371,13
5372,13
5373,13
5374,13
5375,13
5376,13
5377,13
5378,13
5379,13
5380,13
5381,13
5382,13
5383,13
5384,13
5385,13
5386,13
5387,13
5388,13
5389,13
5390,13
5391,13
5392,13
5393,13
5394,13
5395,13
5396,13
5397,13
5398,13
5399,13
5400,13
5401,13
5402,13
5403,13
5404,13
5405,13
5406,13
5407,13
5408,13
5409,13
5410,13
5411,13
5412,13
5413,13
5414,14
5415,13
5416,13
5417,13
5418,13
5419,13
5420,13
5421,13
5422,13
5423,13
5424,13
5425,13
5426,13
5427,13
5428,13
5429,13
5430,13
5431,13
5432,13
5433,13
5434,13
5435,13
5436,13
5437,13
5438,13
5439,13
5440,13
5441,13
5442,13
5443,14
5444,14
5445,13
5446,13
5447,13
5448,13
5449,13
5450,13
5451,13
5452,13
5453,13
5454,13
5455,13
5456,13
5457,13
5458,13
5459,13
5460,13
5461,13
5462,13
5463,13
5464,13
5465,13
5466,13
5467,13
5468,13
5469,13
5470,13
5471,13
5472,13
5473,13
5474,13
5475,13
5476,13
5477,13
5478,13
5479,13
5480,13
5481,13
5482,13
5483,14
5484,13
5485,13
5486,14
5487,13
5488,13
5489,13
5490,13
5491,13
5492,13
5493,13
5494,13
5495,13
5496,13
5497,13
5498,13
5499,13
5500,13
5501,13
5502,13
5503,13
5504,13
5505,13
5506,13
5507,13
5508,13
5509,13
5510,13
5511,13
5512,13
5513,13
5514,13
5515,13
5516,13
5517,13
5518,13
5519,13
5520,13
5521,13
5522,13
5523,13
5524,13
5525,13
5526,13
5527,13
5528,13
5529,13
5530,13
5531,13
5532,13
5533,13
5534,13
5535,13
5536,13
5537,13
5538,13
5539,13
5540,13
5541,13
5542,13
5543,13
5544,13
5545,13
5546,13
5547,13
5548,13
5549,13
5550,13
5551,13
5552,13
5553,13
5554,13
5555,13
5556,13
5557,13
5558,13
5559,13
5560,13
5561,13
5562,13
5563,13
5564,13
5565,13
5566,13
5567,13
5568,13
5569,13
5570,13
5571,13
5572,13
5573,13
5574,13
5575,13
5576,13
5577,13
5578,13
5579,13
5580,13
5581,13
5582,13
5583,13
5584,13
5585,13
5586,13
5587,13
5588,13
5589,13
5590,14
5591,14
5592,14
5593,15
5594,14
5595,14
5596,13
5597,13
5598,13
5599,13
5600,13
5601,13
5602,13
5603,13
5604,13
5605,13
5606,13
5607,13
5608,13
5609,13
5610,13
5611,13
5612,13
5613,13
5614,13
5615,13
5616,13
5617,13
5618,13
5619,13
5620,13
5621,13
5622,13
5623,13
5624,13
5625,13
5626,13
5627,13
5628,13
5629,13
5630,13
5631,13
5632,13
5633,13
5634,13
5635,13
5636,13
5637,13
5638,13
5639,13
5640,13
5641,13
5642,13
5643,13
5644,13
5645,13
5646,13
5647,13
5648,13
5649,13
5650,13
5651,13
5652,13
5653,13
5654,13
5655,13
5656,13
5657,13
5658,13
5659,13
5660,13
5661,13
5662,13
5663,13
5664,13
5665,13
5666,13
5667,13
5668,13
5669,13
5670,13
5671,13
5672,13
5673,13
5674,13
5675,13
5676,13
5677,13
5678,13
5679,13
5680,13
5681,13
5682,13
5683,13
5684,13
5685,13
5686,13
5687,13
5688,13
5689,13
5690,13
5691,13
5692,13
5693,13
5694,13
5695,13
5696,13
5697,13
5698,13
5699,13
5700,14
5701,13
5702,13
5703,13
5704,13
5705,13
5706,13
5707,13
5708,13
5709,13
5710,13
5711,13
5712,13
5713,13
5714,13
5715,13
5716,13
5717,13
5718,13
5719,13
5720,13
5721,13
5722,13
5723,13
5724,13
5725,13
5726,13
5727,13
5728,13
5729,13
5730,13
5731,13
5732,13
5733,13
5734,13
5735,13
5736,13
5737,13
5738,13
5739,13
5740,13
5741,13
5742,13
5743,13
5744,13
5745,13
5746,13
5747,14
5748,14
5749,13
5750,13
5751,13
5752,13
5753,13
5754,13
5755,13
5756,13
5757,13
5758,13
5759,13
5760,13
5761,13
5762,13
5763,13
5764,13
5765,13
5766,13
5767,13
5768,13
5769,13
5770,13
5771,13
5772,13
5773,13
5774,13
5775,13
5776,13
5777,13
5778,13
5779,13
5780,13
5781,13
5782,13
5783,13
5784,13
5785,13
5786,13
5787,13
5788,13
5789,13
5790,13
5791,13
5792,13
5793,13
5794,13
5795,13
5796,13
5797,13
5798,13
5799,13
5800,13
5801,13
5802,13
5803,13
5804,13
5805,13
5806,14
5807,14
5808,13
5809,13
5810,13
5811,13
5812,13
5813,13
5814,13
5815,13
5816,13
5817,13
5818,13
5819,13
5820,13
5821,13
5822,13
5823,13
5824,13
5825,13
5826,13
5827,13
5828,13
5829,13
5830,13
5831,13
5832,13
5833,13
5834,13
5835,13
5836,13
5837,13
5838,13
5839,14
5840,13
5841,13
5842,13
5843,13
5844,13
5845,13
5846,13
5847,13
5848,13
5849,13
5850,13
5851,13
5852,13
5853,13
5854,13
5855,13
5856,13
5857,13
5858,13
5859,13
5860,13
5861,13
5862,13
5863,13
5864,13
5865,13
5866,13
5867,13
5868,13
5869,13
5870,13
5871,13
5872,13
5873,13
5874,13
5875,13
5876,13
5877,13
5878,13
5879,13
5880,14
5881,13
5882,13
5883,13
5884,13
5885,13
5886,13
5887,13
5888,13
5889,13
5890,13
5891,13
5892,13
5893,13
5894,13
5895,13
5896,13
5897,13
5898,13
5899,13
5900,13
5901,13
5902,13
5903,13
5904,13
5905,13
5906,13
5907,13
5908,13
5909,13
5910,13
5911,13
5912,13
5913,13
5914,13
5915,13
5916,13
5917,13
5918,13
5919,13
5920,13
5921,13
5922,13
5923,13
5924,13
5925,13
5926,13
5927,13
5928,14
5929,14
5930,13
5931,13
5932,13
5933,13
5934,13
5935,13
5936,13
5937,13
5938,13
5939,13
5940,13
5941,13
5942,13
5943,13
5944,13
5945,13
5946,13
5947,13
5948,13
5949,13
5950,13
5951,13
5952,13
5953,14
5954,13
5955,13
5956,13
5957,13
5958,13
5959,13
5960,13
5961,13
5962,13
5963,13
5964,13
5965,13
5966,13
5967,13
5968,13
5969,13
5970,13
5971,13
5972,13
5973,13
5974,13
5975,13
5976,13
5977,13
5978,13
5979,13
5980,13
5981,13
5982,13
5983,13
5984,13
5985,13
5986,13
5987,13
5988,13
5989,13
5990,13
5991,13
5992,13
5993,13
5994,13
5995,13
5996,13
5997,13
5998,13
5999,13
6000,13
6001,13
6002,13
6003,13
6004,13
6005,13
6006,13
6007,13
6008,13
6009,13
6010,13
6011,13
6012,13
6013,13
6014,13
6015,13
6016,13
6017,13
6018,13
6019,13
6020,13
6021,13
6022,13
6023,13
6024,13
6025,13
6026,13
6027,13
6028,13
6029,13
6030,13
6031,13
6032,13
6033,13
6034,13
6035,13
6036,13
6037,13
6038,13
6039,13
6040,13
6041,13
6042,13
6043,13
6044,13
6045,13
6046,13
6047,13
6048,13
6049,13
6050,13
6051,13
6052,13
6053,13
6054,13
6055,13
6056,13
6057,14
6058,13
6059,13
6060,13
6061,13
6062,13
6063,13
6064,13
6065,13
6066,13
6067,13
6068,13
6069,13
6070,13
6071,13
6072,13
6073,13
6074,13
6075,13
6076,13
6077,13
6078,13
6079,13
6080,13
6081,13
6082,13
6083,13
6084,13
6085,13
6086,13
6087,13
6088,13
6089,13
6090,13
6091,13
6092,13
6093,13
6094,13
6095,13
6096,13
6097,13
6098,13
6099,13
6100,13
6101,13
6102,13
6103,13
6104,13
6105,13
6106,13
6107,13
6108,13
6109,13
6110,13
6111,13
6112,13
6113,13
6114,13
6115,13
6116,13
6117,13
6118,13
6119,13
6120,14
6121,14
6122,13
6123,13
6124,13
6125,13
6126,13
6127,13
6128,13
6129,13
6130,13
6131,13
6132,13
6133,13
6134,13
6135,13
6136,13
6137,13
6138,13
6139,13
6140,13
6141,13
6142,13
6143,13
6144,13
6145,13
6146,13
6147,13
6148,13
6149,13
6150,13
6151,13
6152,13
6153,13
6154,14
6155,14
6156,13
6157,13
6158,13
6159,13
6160,13
6161,13
6162,13
6163,13
6164,13
6165,13
6166,13
6167,13
6168,13
6169,13
6170,13
6171,13
6172,13
6173,13
6174,13
6175,13
6176,13
6177,13
6178,13
6179,13
6180,13
6181,13
6182,13
6183,13
6184,13
6185,13
6186,13
6187,13
6188,13
6189,13
6190,13
6191,13
6192,13
6193,13
6194,13
6195,13
6196,13
6197,13
6198,13
6199,13
6200,13
6201,13
6202,13
6203,13
6204,13
6205,13
6206,13
6207,13
6208,13
6209,13
6210,13
6211,13
6212,13
6213,13
6214,13
6215,13
6216,13
6217,13
6218,13
6219,13
6220,13
6221,14
6222,14
6223,14
6224,13
6225,13
6226,13
6227,13
6228,13
6229,13
6230,13
6231,13
6232,13
6233,13
6234,13
6235,13
6236,13
6237,13
6238,13
6239,13
6240,13
6241,13
6242,13
6243,14
6244,14
6245,14
6246,13
6247,13
6248,13
6249,13
6250,13
6251,13
6252,13
6253,13
6254,13
6255,13
6256,13
6257,13
6258,13
6259,13
6260,13
6261,13
6262,13
6263,13
6264,13
6265,13
6266,13
6267,13
6268,13
6269,13
6270,13
6271,13
6272,13
6273,13
6274,13
6275,13
6276,13
6277,13
6278,13
6279,13
6280,13
6281,13
6282,13
6283,13
6284,13
6285,13
6286,13
6287,13
6288,13
6289,13
6290,13
6291,13
6292,13
6293,13
6294,13
6295,13
6296,13
6297,13
6298,13
6299,13
6300,13
6301,13
6302,13
6303,13
6304,13
6305,13
6306,13
6307,13
6308,13
6309,13
6310,13
6311,14
6312,14
6313,14
6314,14
6315,13
6316,13
6317,13
6318,13
6319,13
6320,13
6321,13
6322,13
6323,13
6324,13
6325,13
6326,13
6327,13
6328,13
6329,13
6330,13
6331,13
6332,13
6333,13
6334,13
6335,13
6336,13
6337,13
6338,13
6339,13
6340,13
6341,13
6342,13
6343,13
6344,13
6345,13
6346,13
6347,13
6348,13
6349,13
6350,13
6351,13
6352,13
6353,13
6354,13
6355,13
6356,13
6357,13
6358,13
6359,13
6360,14
6361,14
6362,14
6363,14
6364,14
6365,14
6366,13
6367,13
6368,13
6369,13
6370,13
6371,13
6372,13
6373,13
6374,13
6375,13
6376,13
6377,13
6378,13
6379,13
6380,13
6381,13
6382,13
6383,13
6384,13
6385,13
6386,13
6387,13
6388,13
6389,13
6390,13
6391,13
6392,13
6393,13
6394,13
6395,13
6396,13
6397,13
6398,13
6399,13
6400,13
6401,13
6402,13
6403,13
6404,14
6405,13
6406,13
6407,13
6408,13
6409,13
6410,13
6411,13
6412,13
6413,13
6414,13
6415,13
6416,13
6417,13
6418,13
6419,13
6420,13
6421,13
6422,13
6423,13
6424,13
6425,13
6426,13
6427,13
6428,13
6429,13
6430,13
6431,13
6432,13
6433,13
6434,13
6435,13
6436,13
6437,13
6438,13
6439,13
6440,13
6441,13
6442,13
6443,13
6444,13
6445,13
6446,13
6447,13
6448,13
6449,13
6450,13
6451,13
6452,13
6453,13
6454,13
6455,13
6456,13
6457,13
6458,13
6459,13
6460,13
6461,13
6462,13
6463,13
6464,13
6465,13
6466,13
6467,13
6468,13
6469,13
6470,13
6471,13
6472,13
6473,13
6474,13
6475,13
6476,13
6477,13
6478,13
6479,13
6480,13
6481,13
6482,13
6483,13
6484,13
6485,13
6486,13
6487,13
6488,13
6489,13
6490,13
6491,13
6492,13
6493,13
6494,13
6495,13
6496,13
6497,13
6498,13
6499,13
6500,13
6501,13
6502,13
6503,13
6504,13
6505,13
6506,13
6507,13
6508,13
6509,13
6510,13
6511,13
6512,13
6513,13
6514,13
6515,13
6516,13
6517,13
6518,13
6519,13
6520,13
6521,14
6522,14
6523,14
6524,14
6525,14
6526,14
6527,14
6528,14
6529,14
6530,14
6531,14
6532,14
6533,14
6534,14
6535,14
6536,14
6537,14
6538,14
6539,14
6540,14
6541,14
6542,14
6543,14
6544,14
6545,14
6546,14
6547,14
6548,14
6549,14
6550,14
6551,14
6552,14
6553,14
6554,14
6555,14
6556,14
6557,15
6558,15
6559,15
6560,14
6561,14
6562,14
6563,14
6564,14
6565,14
6566,14
6567,14
6568,14
6569,14
6570,14
6571,14
6572,14
6573,14
6574,14
6575,14
6576,14
6577,14
6578,14
6579,14
6580,14
6581,14
6582,14
6583,14
6584,14
6585,14
6586,14
6587,14
6588,14
6589,14
6590,15
6591,14
6592,14
6593,14
6594,14
6595,14
6596,14
6597,14
6598,14
6599,14
6600,14
6601,14
6602,14
6603,14
6604,14
6605,14
6606,14
6607,14
6608,14
6609,14
6610,14
6611,14
6612,14
6613,14
6614,14
6615,14
6616,14
6617,14
6618,14
6619,14
6620,14
6621,14
6622,14
6623,14
6624,14
6625,14
6626,14
6627,14
6628,14
6629,14
6630,14
6631,14
6632,14
6633,14
6634,14
6635,14
6636,14
6637,14
6638,14
6639,14
6640,14
6641,14
6642,14
6643,14
6644,14
6645,14
6646,14
6647,14
6648,14
6649,14
6650,14
6651,14
6652,14
6653,14
6654,14
6655,14
6656,14
6657,14
6658,14
6659,14
6660,14
6661,14
6662,14
6663,15
6664,14
6665,14
6666,14
6667,14
6668,14
6669,14
6670,14
6671,14
6672,14
6673,14
6674,14
6675,14
6676,14
6677,14
6678,14
6679,14
6680,14
6681,14
6682,14
6683,14
6684,14
6685,14
6686,14
6687,14
6688,14
6689,14
6690,14
6691,14
6692,14
6693,14
6694,14
6695,14
6696,14
6697,14
6698,14
6699,14
6700,14
6701,14
6702,14
6703,14
6704,14
6705,14
6706,14
6707,14
6708,14
6709,14
6710,14
6711,14
6712,14
6713,14
6714,14
6715,14
6716,14
6717,14
6718,14
6719,14
6720,14
6721,14
6722,14
6723,14
6724,14
6725,14
6726,14
6727,14
6728,14
6729,14
6730,14
6731,14
6732,14
6733,14
6734,14
6735,14
6736,14
6737,14
6738,14
6739,14
6740,14
6741,14
6742,14
6743,14
6744,14
6745,14
6746,14
6747,14
6748,14
6749,14
6750,14
6751,14
6752,14
6753,14
6754,14
6755,14
6756,14
6757,14
6758,14
6759,14
6760,14
6761,14
6762,14
6763,14
6764,14
6765,14
6766,14
6767,14
6768,14
6769,14
6770,14
6771,14
6772,14
6773,14
6774,14
6775,14
6776,14
6777,14
6778,14
6779,14
6780,15
6781,15
6782,15
6783,15
6784,15
6785,15
6786,15
6787,15
6788,14
6789,14
6790,14
6791,14
6792,15
6793,15
6794,15
6795,15
6796,15
6797,15
6798,15
6799,15
6800,15
6801,15
6802,15
6803,15
6804,15
6805,15
6806,15
6807,15
6808,15
6809,14
6810,14
6811,14
6812,14
6813,14
6814,15
6815,15
6816,15
6817,15
6818,15
6819,15
6820,15
6821,15
6822,15
6823,15
6824,14
6825,14
6826,14
6827,14
6828,14
6829,14
6830,14
6831,14
6832,14
6833,14
6834,14
6835,14
6836,14
6837,14
6838,14
6839,14
6840,14
6841,14
6842,14
6843,14
6844,14
6845,14
6846,14
6847,14
6848,14
6849,14
6850,14
6851,14
6852,14
6853,14
6854,14
6855,14
6856,14
6857,14
6858,14
6859,14
6860,14
6861,14
6862,14
6863,14
6864,14
6865,14
6866,14
6867,14
6868,14
6869,14
6870,14
6871,14
6872,14
6873,14
6874,14
6875,14
6876,14
6877,14
6878,14
6879,14
6880,14
6881,14
6882,14
6883,14
6884,14
6885,14
6886,14
6887,14
6888,14
6889,14
6890,14
6891,14
6892,14
6893,14
6894,14
6895,14
6896,14
6897,14
6898,14
6899,14
6900,14
6901,14
6902,14
6903,14
6904,14
6905,14
6906,14
6907,14
6908,14
6909,14
6910,14
6911,14
6912,14
6913,14
6914,14
6915,14
6916,14
6917,14
6918,14
6919,14
6920,14
6921,14
6922,14
6923,14
6924,14
6925,14
6926,14
6927,14
6928,14
6929,14
6930,14
6931,14
6932,14
6933,14
6934,14
6935,14
6936,14
6937,14
6938,14
6939,14
6940,14
6941,14
6942,14
6943,14
6944,14
6945,14
6946,14
6947,14
6948,14
6949,14
6950,14
6951,14
6952,14
6953,14
6954,14
6955,14
6956,14
6957,14
6958,14
6959,14
6960,14
6961,14
6962,14
6963,14
6964,14
6965,14
6966,14
6967,14
6968,14
6969,14
6970,14
6971,14
6972,15
6973,15
6974,15
6975,15
6976,14
6977,14
6978,14
6979,14
6980,14
6981,14
6982,14
6983,14
6984,14
6985,14
6986,14
6987,14
6988,14
6989,14
6990,14
6991,14
6992,14
6993,14
6994,14
6995,14
6996,14
6997,14
6998,14
6999,14
7000,14
7001,14
7002,14
7003,14
7004,15
7005,15
7006,15
7007,15
7008,15
7009,14
7010,14
7011,14
7012,14
7013,14
7014,14
7015,14
7016,14
7017,14
7018,14
7019,14
7020,14
7021,14
7022,14
7023,14
7024,14
7025,14
7026,14
7027,14
7028,14
7029,14
7030,14
7031,14
7032,14
7033,14
7034,14
7035,14
7036,14
7037,14
7038,14
7039,14
7040,14
7041,14
7042,14
7043,14
7044,14
7045,14
7046,14
7047,14
7048,14
7049,14
7050,14
7051,14
7052,14
7053,14
7054,14
7055,14
7056,14
7057,14
7058,14
7059,14
7060,14
7061,14
7062,14
7063,14
7064,14
7065,14
7066,14
7067,14
7068,14
7069,14
7070,14
7071,14
7072,14
7073,14
7074,14
7075,14
7076,14
7077,14
7078,14
7079,14
7080,14
7081,14
7082,14
7083,14
7084,14
7085,14
7086,14
7087,14
7088,14
7089,14
7090,14
7091,14
7092,14
7093,14
7094,14
7095,14
7096,14
7097,14
7098,14
7099,14
7100,14
7101,14
7102,14
7103,14
7104,14
7105,14
7106,14
7107,14
7108,14
7109,14
7110,14
7111,14
7112,14
7113,14
7114,14
7115,14
7116,14
7117,14
7118,14
7119,14
7120,14
7121,14
7122,14
7123,14
7124,14
7125,14
7126,14
7127,14
7128,14
7129,14
7130,14
7131,14
7132,14
7133,14
7134,14
7135,14
7136,14
7137,14
7138,14
7139,14
7140,14
7141,14
7142,14
7143,14
7144,14
7145,14
7146,14
7147,14
7148,14
7149,14
7150,14
7151,14
7152,14
7153,14
7154,14
7155,15
7156,14
7157,14
7158,14
7159,14
7160,14
7161,14
7162,14
7163,14
7164,14
7165,14
7166,14
7167,14
7168,14
7169,14
7170,14
7171,14
7172,14
7173,14
7174,14
7175,14
7176,14
7177,14
7178,14
7179,14
7180,14
7181,14
7182,14
7183,14
7184,14
7185,14
7186,14
7187,14
7188,14
7189,14
7190,14
7191,14
7192,14
7193,14
7194,14
7195,14
7196,14
7197,14
7198,14
7199,14
7200,14
7201,14
7202,14
7203,14
7204,14
7205,14
7206,14
7207,14
7208,14
7209,14
7210,14
7211,14
7212,14
7213,14
7214,14
7215,14
7216,14
7217,14
7218,14
7219,14
7220,14
7221,14
7222,15
7223,15
7224,15
7225,14
7226,14
7227,14
7228,14
7229,14
7230,14
7231,14
7232,14
7233,14
7234,14
7235,14
7236,14
7237,14
7238,14
7239,14
7240,14
7241,14
7242,14
7243,14
7244,14
7245,14
7246,14
7247,14
7248,14
7249,14
7250,14
7251,14
7252,14
7253,14
7254,14
7255,14
7256,14
7257,14
7258,14
7259,14
7260,14
7261,14
7262,14
7263,14
7264,14
7265,14
7266,14
7267,14
7268,14
7269,14
7270,14
7271,14
7272,14
7273,14
7274,14
7275,14
7276,14
7277,14
7278,14
7279,14
7280,14
7281,14
7282,14
7283,14
7284,14
7285,14
7286,14
7287,14
7288,14
7289,14
7290,14
7291,14
7292,14
7293,14
7294,14
7295,14
7296,14
7297,14
7298,14
7299,14
7300,14
7301,14
7302,14
7303,14
7304,14
7305,14
7306,14
7307,14
7308,14
7309,14
7310,14
7311,14
7312,14
7313,14
7314,14
7315,14
7316,14
7317,14
7318,14
7319,14
7320,14
7321,14
7322,14
7323,14
7324,14
7325,14
7326,14
7327,14
7328,14
7329,14
7330,14
7331,14
7332,14
7333,14
7334,14
7335,14
7336,14
7337,14
7338,14
7339,14
7340,14
7341,14
7342,14
7343,14
7344,14
7345,14
7346,14
7347,14
7348,14
7349,14
7350,14
7351,14
7352,14
7353,14
7354,14
7355,14
7356,14
7357,14
7358,14
7359,14
7360,14
7361,14
7362,14
7363,14
7364,14
7365,14
7366,14
7367,14
7368,14
7369,14
7370,14
7371,14
7372,14
7373,14
7374,14
7375,14
7376,14
7377,14
7378,14
7379,14
7380,14
7381,14
7382,14
7383,14
7384,14
7385,14
7386,14
7387,14
7388,14
7389,14
7390,14
7391,14
7392,14
7393,14
7394,14
7395,14
7396,14
7397,14
7398,14
7399,14
7400,14
7401,14
7402,14
7403,15
7404,14
7405,14
7406,14
7407,14
7408,14
7409,14
7410,14
7411,14
7412,14
7413,14
7414,14
7415,14
7416,14
7417,14
7418,14
7419,14
7420,14
7421,14
7422,14
7423,14
7424,14
7425,14
7426,14
7427,14
7428,14
7429,14
7430,14
7431,14
7432,14
7433,14
7434,14
7435,14
7436,14
7437,14
7438,14
7439,14
7440,14
7441,14
7442,14
7443,14
7444,14
7445,14
7446,14
7447,14
7448,14
7449,14
7450,14
7451,14
7452,14
7453,14
7454,14
7455,14
7456,14
7457,14
7458,14
7459,14
7460,14
7461,14
7462,14
7463,14
7464,14
7465,14
7466,14
7467,14
7468,14
7469,14
7470,14
7471,14
7472,14
7473,14
7474,14
7475,15
7476,15
7477,15
7478,14
7479,14
7480,14
7481,14
7482,14
7483,14
7484,14
7485,14
7486,14
7487,14
7488,14
7489,14
7490,14
7491,14
7492,15
7493,14
7494,14
7495,14
7496,14
7497,14
7498,14
7499,14
7500,14
7501,14
7502,14
7503,14
7504,14
7505,14
7506,14
7507,14
7508,14
7509,14
7510,14
7511,14
7512,14
7513,14
7514,14
7515,14
7516,14
7517,14
7518,14
7519,14
7520,14
7521,14
7522,14
7523,14
7524,14
7525,14
7526,14
7527,14
7528,14
7529,14
7530,14
7531,14
7532,14
7533,14
7534,14
7535,14
7536,14
7537,14
7538,14
7539,14
7540,14
7541,14
7542,14
7543,14
7544,14
7545,14
7546,14
7547,14
7548,14
7549,14
7550,14
7551,14
7552,14
7553,14
7554,14
7555,14
7556,14
7557,14
7558,14
7559,14
7560,14
7561,14
7562,14
7563,14
7564,14
7565,14
7566,14
7567,14
7568,15
7569,14
7570,14
7571,14
7572,14
7573,14
7574,14
7575,14
7576,14
7577,14
7578,14
7579,14
7580,14
7581,14
7582,14
7583,14
7584,14
7585,14
7586,14
7587,14
7588,14
7589,14
7590,15
7591,14
7592,14
7593,14
7594,14
7595,14
7596,14
7597,14
7598,14
7599,14
7600,14
7601,14
7602,14
7603,14
7604,14
7605,14
7606,14
7607,14
7608,14
7609,14
7610,14
7611,14
7612,14
7613,14
7614,14
7615,14
7616,14
7617,14
7618,14
7619,14
7620,14
7621,14
7622,14
7623,14
7624,14
7625,14
7626,14
7627,14
7628,14
7629,14
7630,14
7631,14
7632,14
7633,14
7634,14
7635,14
7636,14
7637,14
7638,14
7639,14
7640,14
7641,14
7642,14
7643,14
7644,14
7645,14
7646,14
7647,14
7648,14
7649,14
7650,14
7651,14
7652,14
7653,14
7654,14
7655,14
7656,14
7657,14
7658,14
7659,14
7660,14
7661,14
7662,14
7663,14
7664,14
7665,14
7666,14
7667,14
7668,14
7669,14
7670,14
7671,14
7672,14
7673,14
7674,14
7675,14
7676,14
7677,14
7678,14
7679,14
7680,14
7681,14
7682,14
7683,14
7684,14
7685,14
7686,14
7687,14
7688,14
7689,14
7690,14
7691,14
7692,14
7693,14
7694,14
7695,14
7696,14
7697,14
7698,14
7699,14
7700,14
7701,14
7702,14
7703,14
7704,14
7705,14
7706,14
7707,14
7708,14
7709,14
7710,14
7711,14
7712,14
7713,14
7714,14
7715,14
7716,14
7717,14
7718,14
7719,14
7720,14
7721,14
7722,14
7723,15
7724,14
7725,14
7726,14
7727,14
7728,14
7729,14
7730,14
7731,14
7732,14
7733,14
7734,14
7735,14
7736,14
7737,14
7738,14
7739,14
7740,14
7741,14
7742,14
7743,14
7744,14
7745,14
7746,14
7747,14
7748,14
7749,14
7750,14
7751,14
7752,14
7753,14
7754,14
7755,14
7756,14
7757,14
7758,14
7759,14
7760,14
7761,14
7762,14
7763,14
7764,14
7765,14
7766,14
7767,14
7768,14
7769,14
7770,14
7771,14
7772,14
7773,14
7774,14
7775,14
7776,14
7777,14
7778,14
7779,14
7780,14
7781,14
7782,14
7783,14
7784,14
7785,14
7786,14
7787,14
7788,14
7789,14
7790,14
7791,14
7792,14
7793,14
7794,14
7795,14
7796,14
7797,14
7798,14
7799,14
7800,14
7801,14
7802,14
7803,14
7804,14
7805,14
7806,14
7807,14
7808,14
7809,14
7810,14
7811,14
7812,14
7813,14
7814,14
7815,14
7816,14
7817,14
7818,14
7819,14
7820,14
7821,14
7822,14
7823,14
7824,14
7825,14
7826,14
7827,14
7828,14
7829,14
7830,14
7831,14
7832,14
7833,14
7834,14
7835,14
7836,14
7837,14
7838,14
7839,14
7840,14
7841,14
7842,14
7843,14
7844,14
7845,14
7846,14
7847,14
7848,14
7849,14
7850,14
7851,14
7852,14
7853,14
7854,14
7855,14
7856,14
7857,14
7858,14
7859,14
7860,14
7861,14
7862,14
7863,14
7864,14
7865,14
7866,14
7867,14
7868,14
7869,14
7870,14
7871,14
7872,14
7873,14
7874,14
7875,14
7876,15
7877,14
7878,14
7879,14
7880,14
7881,14
7882,15
7883,15
7884,15
7885,14
7886,14
7887,14
7888,14
7889,14
7890,14
7891,14
7892,14
7893,14
7894,14
7895,14
7896,14
7897,14
7898,14
7899,14
7900,14
7901,14
7902,14
7903,14
7904,14
7905,14
7906,14
7907,14
7908,14
7909,14
7910,14
7911,14
7912,14
7913,14
7914,14
7915,14
7916,14
7917,14
7918,14
7919,14
7920,14
7921,14
7922,14
7923,14
7924,14
7925,14
7926,14
7927,14
7928,14
7929,14
7930,14
7931,14
7932,14
7933,14
7934,14
7935,14
7936,14
7937,14
7938,14
7939,14
7940,14
7941,14
7942,14
7943,15
7944,15
7945,15
7946,14
7947,14
7948,14
7949,14
7950,14
7951,14
7952,14
7953,14
7954,14
7955,14
7956,14
7957,14
7958,14
7959,14
7960,14
7961,14
7962,14
7963,15
7964,15
7965,14
7966,14
7967,14
7968,14
7969,14
7970,14
7971,14
7972,14
7973,14
7974,14
7975,14
7976,14
7977,14
7978,14
7979,14
7980,14
7981,14
7982,14
7983,14
7984,14
7985,14
7986,14
7987,14
7988,14
7989,14
7990,14
7991,14
7992,14
7993,14
7994,14
7995,14
7996,15
7997,15
7998,15
7999,15
8000,15
8001,15
8002,15
8003,15
8004,15
8005,15
8006,15
8007,15
8008,15
8009,15
8010,15
8011,15
8012,15
8013,15
8014,15
8015,15
8016,15
8017,15
8018,15
8019,15
8020,15
8021,15
8022,15
8023,15
8024,15
8025,15
8026,15
8027,15
8028,15
8029,15
8030,15
8031,15
8032,15
8033,15
8034,15
8035,15
8036,15
8037,15
8038,15
8039,15
8040,15
8041,15
8042,14
8043,14
8044,14
8045,14
8046,14
8047,14
8048,14
8049,14
8050,14
8051,14
8052,14
8053,14
8054,14
8055,14
8056,14
8057,14
8058,14
8059,14
8060,14
8061,14
8062,14
8063,14
8064,14
8065,14
8066,14
8067,14
8068,14
8069,14
8070,14
8071,14
8072,14
8073,14
8074,14
8075,14
8076,14
8077,14
8078,14
8079,14
8080,14
8081,14
8082,14
8083,14
8084,14
8085,14
8086,14
8087,14
8088,14
8089,14
8090,14
8091,14
8092,14
8093,14
8094,14
8095,14
8096,14
8097,14
8098,14
8099,14
8100,14
8101,14
8102,14
8103,14
8104,14
8105,14
8106,14
8107,14
8108,14
8109,14
8110,14
8111,14
8112,14
8113,14
8114,14
8115,14
8116,14
8117,14
8118,14
8119,14
8120,14
8121,14
8122,14
8123,14
8124,14
8125,14
8126,15
8127,14
8128,14
8129,14
8130,14
8131,14
8132,14
8133,14
8134,14
8135,14
8136,14
8137,14
8138,14
8139,14
8140,14
8141,14
8142,14
8143,14
8144,14
8145,14
8146,14
8147,14
8148,14
8149,15
8150,15
8151,15
8152,15
8153,15
8154,15
8155,15
8156,15
8157,16
8158,16
8159,16
8160,16
8161,16
8162,16
8163,16
8164,16
8165,16
8166,16
8167,16
8168,16
8169,16
8170,16
8171,16
8172,16
8173,16
8174,16
8175,16
8176,16
8177,16
8178,16
8179,16
8180,16
8181,16
8182,16
8183,16
8184,16
8185,16
8186,16
8187,16
8188,16
8189,16
8190,16
8191,16
8192,16
8193,16
8194,16
8195,16
8196,15
8197,15
8198,15
8199,15
8200,15
8201,15
8202,15
8203,15
8204,15
8205,15
8206,15
8207,15
8208,15
8209,15
8210,15
8211,15
8212,15
8213,15
8214,15
8215,15
8216,15
8217,15
8218,15
8219,15
8220,15
8221,15
8222,15
8223,15
8224,15
8225,15
8226,15
8227,15
8228,15
8229,15
8230,15
8231,15
8232,15
8233,15
8234,15
8235,15
8236,15
8237,15
8238,15
8239,15
8240,15
8241,15
8242,15
8243,15
8244,15
8245,15
8246,15
8247,15
8248,15
8249,15
8250,15
8251,15
8252,15
8253,15
8254,15
8255,15
8256,15
8257,15
8258,15
8259,15
8260,15
8261,15
8262,15
8263,15
8264,15
8265,15
8266,15
8267,15
8268,15
8269,15
8270,15
8271,15
8272,15
8273,15
8274,15
8275,15
8276,15
8277,15
8278,15
8279,15
8280,15
8281,15
8282,15
8283,15
8284,15
8285,15
8286,15
8287,15
8288,15
8289,15
8290,15
8291,15
8292,15
8293,15
8294,15
8295,15
8296,15
8297,15
8298,15
8299,15
8300,15
8301,15
8302,15
8303,15
8304,15
8305,15
8306,15
8307,15
8308,15
8309,15
8310,15
8311,15
8312,15
8313,15
8314,15
8315,15
8316,15
8317,15
8318,15
8319,15
8320,15
8321,15
8322,15
8323,15
8324,15
8325,15
8326,15
8327,15
8328,15
8329,15
8330,15
8331,15
8332,15
8333,15
8334,15
8335,15
8336,15
8337,15
8338,15
8339,15
8340,15
8341,15
8342,15
8343,15
8344,15
8345,15
8346,15
8347,15
8348,15
8349,15
8350,15
8351,15
8352,15
8353,15
8354,15
8355,15
8356,15
8357,15
8358,15
8359,15
8360,15
8361,15
8362,15
8363,15
8364,15
8365,15
8366,15
8367,15
8368,15
8369,15
8370,15
8371,15
8372,15
8373,15
8374,15
8375,15
8376,15
8377,15
8378,15
8379,15
8380,15
8381,15
8382,15
8383,15
8384,15
8385,15
8386,16
8387,16
8388,16
8389,16
8390,16
8391,16
8392,15
8393,15
8394,15
8395,15
8396,15
8397,15
8398,15
8399,15
8400,15
8401,15
8402,15
8403,15
8404,15
8405,15
8406,15
8407,15
8408,15
8409,15
8410,15
8411,15
8412,15
8413,15
8414,15
8415,15
8416,15
8417,15
8418,15
8419,15
8420,15
8421,15
8422,15
8423,15
8424,15
8425,15
8426,15
8427,15
8428,15
8429,15
8430,15
8431,15
8432,15
8433,15
8434,15
8435,15
8436,15
8437,15
8438,15
8439,15
8440,15
8441,15
8442,15
8443,15
8444,15
8445,15
8446,15
8447,15
8448,15
8449,15
8450,15
8451,15
8452,15
8453,15
8454,15
8455,15
8456,15
8457,15
8458,15
8459,15
8460,15
8461,15
8462,15
8463,15
8464,15
8465,15
8466,15
8467,15
8468,15
8469,15
8470,15
8471,15
8472,15
8473,15
8474,15
8475,15
8476,15
8477,15
8478,15
8479,15
8480,15
8481,15
8482,15
8483,15
8484,15
8485,15
8486,15
8487,15
8488,15
8489,15
8490,15
8491,15
8492,15
8493,15
8494,15
8495,15
8496,15
8497,15
8498,15
8499,15
8500,15
8501,15
8502,15
8503,15
8504,15
8505,15
8506,15
8507,15
8508,15
8509,15
8510,15
8511,15
8512,15
8513,15
8514,15
8515,15
8516,15
8517,15
8518,15
8519,15
8520,15
8521,15
8522,15
8523,15
8524,15
8525,15
8526,15
8527,15
8528,15
8529,15
8530,15
8531,15
8532,15
8533,15
8534,15
8535,15
8536,15
8537,15
8538,15
8539,15
8540,15
8541,15
8542,15
8543,15
8544,15
8545,15
8546,15
8547,15
8548,15
8549,15
8550,15
8551,15
8552,15
8553,15
8554,15
8555,15
8556,15
8557,15
8558,15
8559,15
8560,15
8561,15
8562,15
8563,15
8564,15
8565,15
8566,15
8567,15
8568,15
8569,15
8570,15
8571,15
8572,15
8573,15
8574,15
8575,15
8576,15
8577,15
8578,15
8579,15
8580,15
8581,15
8582,15
8583,15
8584,15
8585,15
8586,15
8587,15
8588,15
8589,15
8590,15
8591,15
8592,15
8593,15
8594,15
8595,15
8596,15
8597,15
8598,15
8599,15
8600,15
8601,15
8602,15
8603,15
8604,15
8605,15
8606,15
8607,15
8608,15
8609,15
8610,15
8611,15
8612,15
8613,15
8614,15
8615,15
8616,15
8617,15
8618,15
8619,15
8620,15
8621,15
8622,15
8623,15
8624,15
8625,15
8626,15
8627,15
8628,15
8629,15
8630,15
8631,15
8632,15
8633,15
8634,15
8635,15
8636,15
8637,15
8638,15
8639,15
8640,15
8641,15
8642,15
8643,15
8644,15
8645,15
8646,15
8647,15
8648,15
8649,15
8650,15
8651,15
8652,15
8653,15
8654,15
8655,15
8656,15
8657,15
8658,15
8659,15
8660,15
8661,15
8662,15
8663,15
8664,15
8665,15
8666,15
8667,15
8668,15
8669,15
8670,15
8671,15
8672,15
8673,15
8674,15
8675,15
8676,15
8677,15
8678,15
8679,15
8680,15
8681,15
8682,15
8683,15
8684,15
8685,15
8686,15
8687,15
8688,15
8689,15
8690,15
8691,15
8692,15
8693,15
8694,15
8695,15
8696,15
8697,15
8698,15
8699,15
8700,15
8701,15
8702,15
8703,15
8704,15
8705,15
8706,15
8707,15
8708,15
8709,15
8710,15
8711,15
8712,15
8713,15
8714,15
8715,15
8716,15
8717,15
8718,15
8719,15
8720,15
8721,15
8722,15
8723,15
8724,15
8725,15
8726,15
8727,15
8728,15
8729,15
8730,15
8731,15
8732,15
8733,15
8734,15
8735,15
8736,15
8737,15
8738,15
8739,15
8740,15
8741,15
8742,15
8743,15
8744,15
8745,15
8746,15
8747,15
8748,15
8749,15
8750,15
8751,15
8752,15
8753,15
8754,15
8755,15
8756,15
8757,15
8758,15
8759,15
8760,15
8761,15
8762,15
8763,15
8764,15
8765,15
8766,15
8767,15
8768,15
8769,15
8770,15
8771,15
8772,15
8773,15
8774,15
8775,15
8776,15
8777,15
8778,15
8779,15
8780,15
8781,15
8782,15
8783,15
8784,15
8785,15
8786,15
8787,15
8788,15
8789,15
8790,15
8791,15
8792,15
8793,15
8794,15
8795,15
8796,15
8797,15
8798,15
8799,15
8800,15
8801,15
8802,15
8803,15
8804,15
8805,15
8806,15
8807,15
8808,15
8809,15
8810,15
8811,15
8812,15
8813,15
8814,15
8815,15
8816,15
8817,15
8818,15
8819,15
8820,15
8821,15
8822,15
8823,15
8824,15
8825,15
8826,15
8827,15
8828,15
8829,15
8830,15
8831,15
8832,15
8833,15
8834,15
8835,15
8836,15
8837,15
8838,15
8839,15
8840,15
8841,15
8842,15
8843,15
8844,15
8845,15
8846,15
8847,15
8848,15
8849,15
8850,15
8851,15
8852,15
8853,15
8854,15
8855,15
8856,15
8857,15
8858,15
8859,15
8860,15
8861,15
8862,15
8863,15
8864,15
8865,15
8866,15
8867,15
8868,15
8869,15
8870,15
8871,15
8872,15
8873,15
8874,15
8875,15
8876,15
8877,15
8878,15
8879,15
8880,15
8881,15
8882,15
8883,15
8884,15
8885,15
8886,15
8887,15
8888,15
8889,15
8890,15
8891,15
8892,15
8893,15
8894,15
8895,15
8896,15
8897,15
8898,15
8899,15
8900,15
8901,15
8902,15
8903,15
8904,15
8905,15
8906,15
8907,15
8908,15
8909,15
8910,15
8911,15
8912,15
8913,15
8914,15
8915,15
8916,15
8917,15
8918,15
8919,15
8920,15
8921,15
8922,15
8923,15
8924,15
8925,15
8926,15
8927,15
8928,15
8929,15
8930,15
8931,15
8932,15
8933,15
8934,15
8935,15
8936,15
8937,15
8938,15
8939,15
8940,15
8941,15
8942,15
8943,15
8944,15
8945,15
8946,15
8947,15
8948,15
8949,15
8950,15
8951,15
8952,15
8953,15
8954,15
8955,15
8956,15
8957,15
8958,15
8959,15
8960,15
8961,15
8962,15
8963,15
8964,15
8965,15
8966,15
8967,15
8968,15
8969,15
8970,15
8971,15
8972,15
8973,15
8974,15
8975,15
8976,15
8977,15
8978,15
8979,15
8980,15
8981,15
8982,16
8983,16
8984,16
8985,15
8986,15
8987,15
8988,15
8989,15
8990,15
8991,15
8992,15
8993,15
8994,15
8995,15
8996,15
8997,15
8998,15
8999,15
9000,15
9001,15
9002,15
9003,15
9004,15
9005,15
9006,15
9007,15
9008,15
9009,15
9010,15
9011,15
9012,15
9013,15
9014,15
9015,15
9016,15
9017,15
9018,15
9019,15
9020,15
9021,15
9022,15
9023,15
9024,15
9025,15
9026,15
9027,15
9028,15
9029,15
9030,15
9031,15
9032,15
9033,15
9034,15
9035,15
9036,15
9037,15
9038,15
9039,15
9040,15
9041,15
9042,15
9043,15
9044,15
9045,15
9046,15
9047,15
9048,15
9049,15
9050,15
9051,15
9052,15
9053,15
9054,15
9055,15
9056,15
9057,15
9058,15
9059,15
9060,15
9061,15
9062,15
9063,15
9064,15
9065,15
9066,15
9067,15
9068,15
9069,15
9070,15
9071,15
9072,15
9073,15
9074,15
9075,15
9076,15
9077,15
9078,15
9079,15
9080,15
9081,15
9082,15
9083,15
9084,15
9085,15
9086,15
9087,15
9088,15
9089,15
9090,15
9091,15
9092,15
9093,15
9094,15
9095,15
9096,15
9097,15
9098,15
9099,15
9100,15
9101,16
9102,16
9103,16
9104,16
9105,16
9106,16
9107,16
9108,16
9109,16
9110,16
9111,15
9112,15
9113,15
9114,15
9115,15
9116,15
9117,15
9118,15
9119,15
9120,15
9121,15
9122,15
9123,15
9124,15
9125,15
9126,15
9127,15
9128,15
9129,15
9130,15
9131,15
9132,15
9133,16
9134,15
9135,16
9136,16
9137,16
9138,17
9139,15
9140,15
9141,15
9142,15
9143,15
9144,15
9145,15
9146,15
9147,15
9148,15
9149,15
9150,15
9151,15
9152,15
9153,15
9154,15
9155,15
9156,15
9157,15
9158,15
9159,15
9160,15
9161,15
9162,15
9163,15
9164,15
9165,16
9166,16
9167,16
9168,16
9169,16
9170,16
9171,16
9172,16
9173,16
9174,16
9175,16
9176,16
9177,16
9178,15
9179,15
9180,15
9181,15
9182,15
9183,15
9184,15
9185,15
9186,15
9187,15
9188,15
9189,15
9190,15
9191,15
9192,15
9193,15
9194,15
9195,15
9196,15
9197,15
9198,15
9199,15
9200,15
9201,15
9202,15
9203,15
9204,15
9205,15
9206,15
9207,15
9208,15
9209,15
9210,15
9211,15
9212,15
9213,15
9214,15
9215,16
9216,15
9217,15
9218,15
9219,15
9220,15
9221,15
9222,15
9223,15
9224,15
9225,15
9226,15
9227,15
9228,15
9229,15
9230,15
9231,15
9232,15
9233,15
9234,15
9235,15
9236,15
9237,15
9238,15
9239,15
9240,15
9241,15
9242,15
9243,15
9244,15
9245,15
9246,15
9247,15
9248,15
9249,15
9250,15
9251,15
9252,15
9253,15
9254,15
9255,15
9256,15
9257,15
9258,15
9259,15
9260,15
9261,15
9262,15
9263,15
9264,15
9265,15
9266,15
9267,15
9268,15
9269,15
9270,15
9271,15
9272,15
9273,15
9274,16
9275,15
9276,15
9277,15
9278,15
9279,15
9280,15
9281,15
9282,15
9283,15
9284,15
9285,15
9286,15
9287,15
9288,15
9289,15
9290,15
9291,15
9292,15
9293,15
9294,15
9295,15
9296,15
9297,15
9298,15
9299,15
9300,15
9301,15
9302,15
9303,15
9304,15
9305,15
9306,15
9307,15
9308,15
9309,15
9310,15
9311,15
9312,15
9313,15
9314,15
9315,15
9316,15
9317,15
9318,15
9319,15
9320,15
9321,15
9322,15
9323,15
9324,15
9325,15
9326,15
9327,15
9328,15
9329,15
9330,15
9331,15
9332,15
9333,15
9334,15
9335,15
9336,15
9337,15
9338,16
9339,16
9340,16
9341,16
9342,16
9343,16
9344,16
9345,16
9346,16
9347,16
9348,16
9349,15
9350,15
9351,15
9352,15
9353,15
9354,15
9355,15
9356,15
9357,15
9358,15
9359,15
9360,15
9361,15
9362,15
9363,15
9364,15
9365,15
9366,15
9367,15
9368,15
9369,15
9370,16
9371,15
9372,15
9373,15
9374,15
9375,15
9376,15
9377,15
9378,15
9379,15
9380,15
9381,15
9382,15
9383,15
9384,15
9385,15
9386,15
9387,15
9388,15
9389,15
9390,15
9391,15
9392,15
9393,15
9394,15
9395,15
9396,15
9397,15
9398,15
9399,15
9400,15
9401,15
9402,15
9403,15
9404,15
9405,15
9406,15
9407,15
9408,15
9409,15
9410,15
9411,15
9412,15
9413,15
9414,15
9415,15
9416,15
9417,15
9418,15
9419,15
9420,15
9421,15
9422,15
9423,15
9424,15
9425,15
9426,15
9427,15
9428,15
9429,15
9430,15
9431,15
9432,15
9433,15
9434,15
9435,15
9436,15
9437,15
9438,15
9439,15
9440,15
9441,15
9442,15
9443,15
9444,15
9445,15
9446,16
9447,16
9448,16
9449,16
9450,16
9451,16
9452,16
9453,16
9454,16
9455,16
9456,16
9457,16
9458,16
9459,15
9460,15
9461,15
9462,15
9463,15
9464,15
9465,15
9466,15
9467,15
9468,15
9469,15
9470,15
9471,15
9472,15
9473,15
9474,15
9475,15
9476,15
9477,15
9478,15
9479,15
9480,15
9481,15
9482,15
9483,15
9484,15
9485,15
9486,15
9487,15
9488,15
9489,15
9490,15
9491,15
9492,15
9493,15
9494,15
9495,15
9496,15
9497,15
9498,15
9499,15
9500,15
9501,15
9502,15
9503,15
9504,15
9505,15
9506,15
9507,15
9508,15
9509,15
9510,15
9511,15
9512,15
9513,15
9514,15
9515,15
9516,15
9517,15
9518,15
9519,15
9520,15
9521,15
9522,15
9523,15
9524,15
9525,15
9526,15
9527,15
9528,15
9529,15
9530,15
9531,15
9532,15
9533,15
9534,15
9535,15
9536,15
9537,15
9538,15
9539,15
9540,15
9541,15
9542,15
9543,15
9544,15
9545,15
9546,15
9547,15
9548,15
9549,15
9550,15
9551,15
9552,15
9553,15
9554,15
9555,15
9556,15
9557,15
9558,15
9559,15
9560,15
9561,15
9562,15
9563,15
9564,15
9565,15
9566,15
9567,15
9568,15
9569,15
9570,15
9571,15
9572,15
9573,15
9574,15
9575,15
9576,15
9577,15
9578,15
9579,15
9580,15
9581,15
9582,15
9583,15
9584,15
9585,15
9586,15
9587,15
9588,15
9589,15
9590,15
9591,15
9592,15
9593,15
9594,15
9595,15
9596,15
9597,15
9598,15
9599,15
9600,15
9601,15
9602,15
9603,15
9604,15
9605,15
9606,15
9607,15
9608,15
9609,15
9610,15
9611,15
9612,15
9613,15
9614,16
9615,16
9616,16
9617,16
9618,16
9619,15
9620,15
9621,15
9622,15
9623,15
9624,15
9625,15
9626,15
9627,15
9628,15
9629,15
9630,15
9631,15
9632,15
9633,15
9634,15
9635,15
9636,15
9637,15
9638,15
9639,15
9640,15
9641,15
9642,15
9643,15
9644,15
9645,15
9646,15
9647,15
9648,15
9649,15
9650,15
9651,15
9652,15
9653,15
9654,15
9655,15
9656,15
9657,15
9658,15
9659,15
9660,15
9661,15
9662,15
9663,15
9664,15
9665,15
9666,15
9667,15
9668,15
9669,15
9670,15
9671,15
9672,15
9673,15
9674,15
9675,15
9676,15
9677,16
9678,15
9679,15
9680,15
9681,15
9682,15
9683,15
9684,15
9685,15
9686,15
9687,15
9688,15
9689,15
9690,15
9691,15
9692,15
9693,15
9694,15
9695,15
9696,15
9697,15
9698,15
9699,15
9700,15
9701,15
9702,15
9703,15
9704,16
9705,16
9706,16
9707,16
9708,16
9709,16
9710,16
9711,15
9712,15
9713,15
9714,15
9715,15
9716,15
9717,15
9718,15
9719,15
9720,15
9721,15
9722,15
9723,15
9724,15
9725,15
9726,15
9727,16
9728,15
9729,15
9730,15
9731,15
9732,15
9733,15
9734,15
9735,15
9736,15
9737,15
9738,15
9739,15
9740,15
9741,15
9742,15
9743,15
9744,15
9745,15
9746,15
9747,15
9748,15
9749,15
9750,15
9751,15
9752,15
9753,15
9754,15
9755,15
9756,15
9757,15
9758,15
9759,15
9760,15
9761,15
9762,15
9763,15
9764,15
9765,15
9766,15
9767,15
9768,15
9769,15
9770,15
9771,15
9772,15
9773,15
9774,15
9775,15
9776,15
9777,15
9778,15
9779,15
9780,15
9781,15
9782,15
9783,15
9784,15
9785,15
9786,15
9787,15
9788,15
9789,15
9790,15
9791,15
9792,15
9793,15
9794,15
9795,15
9796,15
9797,15
9798,15
9799,15
9800,15
9801,15
9802,15
9803,15
9804,15
9805,15
9806,15
9807,15
9808,15
9809,15
9810,15
9811,15
9812,15
9813,15
9814,15
9815,15
9816,15
9817,15
9818,15
9819,15
9820,15
9821,15
9822,15
9823,15
9824,15
9825,15
9826,15
9827,15
9828,15
9829,15
9830,15
9831,15
9832,15
9833,15
9834,15
9835,15
9836,15
9837,15
9838,15
9839,15
9840,15
9841,15
9842,15
9843,15
9844,15
9845,15
9846,15
9847,15
9848,15
9849,15
9850,15
9851,15
9852,15
9853,15
9854,15
9855,15
9856,15
9857,15
9858,15
9859,15
9860,15
9861,15
9862,15
9863,15
9864,15
9865,15
9866,15
9867,15
9868,15
9869,15
9870,15
9871,15
9872,15
9873,15
9874,15
9875,15
9876,15
9877,15
9878,15
9879,15
9880,15
9881,16
9882,16
9883,16
9884,16
9885,16
9886,16
9887,16
9888,16
9889,16
9890,16
9891,16
9892,15
9893,15
9894,15
9895,15
9896,15
9897,15
9898,15
9899,15
9900,15
9901,15
9902,15
9903,15
9904,15
9905,16
9906,15
9907,15
9908,15
9909,15
9910,15
9911,15
9912,15
9913,15
9914,15
9915,15
9916,15
9917,15
9918,15
9919,15
9920,15
9921,15
9922,15
9923,15
9924,15
9925,15
9926,15
9927,15
9928,15
9929,15
9930,15
9931,15
9932,15
9933,15
9934,15
9935,16
9936,15
9937,15
9938,15
9939,15
9940,15
9941,15
9942,15
9943,15
9944,15
9945,15
9946,15
9947,15
9948,15
9949,15
9950,15
9951,15
9952,15
9953,15
9954,15
9955,15
9956,15
9957,15
9958,15
9959,15
9960,15
9961,15
9962,15
9963,15
9964,15
9965,15
9966,15
9967,16
9968,16
9969,16
9970,15
9971,15
9972,15
9973,15
9974,15
9975,15
9976,15
9977,15
9978,15
9979,15
9980,15
9981,15
9982,15
9983,15
9984,15
9985,15
9986,15
9987,15
9988,15
9989,15
9990,15
9991,15
9992,15
9993,15
9994,15
9995,15
9996,15
9997,15
9998,15
9999,15
10000,15
