1,3
2,3
3,3
4,3
5,3
6,3
7,3
8,3
9,3
10,3
11,3
12,3
13,3
14,3
15,3
16,3
17,3
18,3
19,3
20,3
21,3
22,3
23,3
24,3
25,3
26,3
27,3
28,3
29,3
30,4
31,3
32,4
33,4
34,4
35,4
36,4
37,4
38,4
39,4
40,4
41,4
42,4
43,4
44,4
45,4
46,4
47,4
48,4
49,4
50,4
51,4
52,4
53,4
54,4
55,4
56,4
57,4
58,4
59,4
60,4
61,4
62,4
63,4
64,4
65,4
66,4
67,4
68,4
69,4
70,4
71,4
72,4
73,4
74,4
75,4
76,4
77,4
78,4
79,4
80,4
81,4
82,4
83,4
84,4
85,4
86,4
87,4
88,4
89,4
90,4
91,4
92,4
93,4
94,4
95,4
96,4
97,4
98,4
99,4
100,4
101,4
102,4
103,4
104,4
105,4
106,4
107,4
108,4
109,4
110,4
111,4
112,4
113,4
114,4
115,4
116,4
117,4
118,4
119,4
120,4
121,4
122,4
123,4
124,4
125,4
126,4
127,4
128,4
129,4
130,4
131,4
132,4
133,4
134,4
135,4
136,4
137,4
138,4
139,4
140,4
141,4
142,4
143,4
144,4
145,4
146,4
147,4
148,4
149,4
150,4
151,4
152,4
153,4
154,4
155,4
156,4
157,4
158,4
159,4
160,4
161,4
162,4
163,4
164,4
165,4
166,4
167,4
168,4
169,4
170,4
171,4
172,4
173,4
174,4
175,4
176,4
177,4
178,4
179,4
180,4
181,4
182,4
183,4
184,4
185,4
186,4
187,4
188,4
189,4
190,4
191,4
192,4
193,4
194,4
195,4
196,4
197,4
198,4
199,4
200,4
201,4
202,4
203,4
204,4
205,4
206,4
207,4
208,4
209,4
210,4
211,4
212,4
213,4
214,4
215,4
216,4
217,4
218,4
219,4
220,4
221,4
222,4
223,4
224,4
225,4
226,4
227,4
228,4
229,4
230,4
231,4
232,4
233,4
234,4
235,4
236,4
237,4
238,4
239,4
240,4
241,4
242,4
243,4
244,4
245,4
246,4
247,4
248,4
249,4
250,4
251,4
252,4
253,4
254,4
255,4
256,4
257,4
258,4
259,4
260,4
261,4
262,4
263,4
264,4
265,4
266,4
267,4
268,4
269,4
270,4
271,4
272,4
273,4
274,4
275,4
276,4
277,4
278,4
279,4
280,4
281,4
282,4
283,4
284,4
285,4
286,4
287,4
288,4
289,4
290,4
291,4
292,4
293,4
294,4
295,4
296,4
297,4
298,4
299,4
300,4
301,5
302,5
303,5
304,5
305,5
306,5
307,5
308,5
309,5
310,5
311,5
312,5
313,5
314,5
315,5
316,5
317,5
318,5
319,5
320,5
321,5
322,5
323,5
324,5
325,5
326,5
327,5
328,5
329,5
330,5
331,5
332,5
333,5
334,5
335,5
336,5
337,5
338,5
339,5
340,5
341,5
342,5
343,5
344,5
345,5
346,5
347,5
348,5
349,5
350,5
351,5
352,5
353,5
354,5
355,5
356,5
357,5
358,5
359,5
360,5
361,5
362,5
363,5
364,5
365,5
366,5
367,5
368,5
369,5
370,5
371,5
372,5
373,5
374,5
375,5
376,5
377,5
378,5
379,5
380,5
381,5
382,5
383,5
384,5
385,5
386,5
387,5
388,5
389,5
390,5
391,5
392,5
393,5
394,5
395,5
396,5
397,5
398,5
399,5
400,5
401,5
402,5
403,5
404,5
405,5
406,5
407,5
408,5
409,5
410,5
411,5
412,5
413,5
414,5
415,5
416,5
417,5
418,5
419,5
420,5
421,5
422,5
423,5
424,5
425,5
426,5
427,5
428,5
429,5
430,5
431,5
432,5
433,5
434,5
435,5
436,5
437,5
438,5
439,5
440,5
441,5
442,5
443,5
444,5
445,5
446,5
447,5
448,5
449,5
450,5
451,5
452,5
453,5
454,5
455,5
456,5
457,5
458,5
459,5
460,5
461,5
462,5
463,5
464,5
465,5
466,5
467,5
468,5
469,5
470,5
471,5
472,5
473,5
474,5
475,5
476,5
477,5
478,5
479,5
480,5
481,5
482,5
483,5
484,5
485,5
486,5
487,5
488,5
489,5
490,5
491,5
492,5
493,5
494,5
495,5
496,5
497,5
498,5
499,5
500,5
501,5
502,5
503,5
504,5
505,5
506,5
507,5
508,5
509,5
510,5
511,5
512,5
513,5
514,5
515,5
516,5
517,5
518,5
519,5
520,5
521,5
522,5
523,5
524,5
525,5
526,5
527,5
528,5
529,5
530,5
531,5
532,5
533,5
534,5
535,5
536,5
537,5
538,5
539,5
540,5
541,5
542,5
543,5
544,5
545,5
546,5
547,5
548,5
549,5
550,5
551,5
552,5
553,5
554,5
555,5
556,5
557,5
558,5
559,5
560,5
561,5
562,5
563,5
564,5
565,5
566,5
567,5
568,5
569,5
570,6
571,6
572,6
573,6
574,6
575,6
576,6
577,6
578,6
579,6
580,6
581,6
582,6
583,6
584,6
585,6
586,6
587,6
588,6
589,6
590,6
591,6
592,6
593,6
594,6
595,6
596,6
597,6
598,6
599,6
600,6
601,6
602,6
603,6
604,6
605,6
606,6
607,6
608,6
609,7
610,6
611,6
612,6
613,6
614,6
615,6
616,6
617,6
618,6
619,6
620,6
621,6
622,6
623,6
624,6
625,6
626,6
627,6
628,6
629,6
630,6
631,6
632,6
633,6
634,6
635,6
636,6
637,6
638,6
639,6
640,6
641,6
642,6
643,6
644,6
645,6
646,6
647,6
648,6
649,6
650,6
651,6
652,6
653,6
654,6
655,6
656,6
657,6
658,6
659,6
660,6
661,6
662,6
663,6
664,6
665,6
666,6
667,6
668,6
669,7
670,7
671,6
672,6
673,6
674,6
675,6
676,6
677,6
678,6
679,6
680,6
681,6
682,6
683,6
684,6
685,6
686,6
687,6
688,6
689,6
690,6
691,6
692,6
693,6
694,6
695,6
696,6
697,6
698,6
699,6
700,6
701,6
702,6
703,7
704,7
705,7
706,6
707,6
708,6
709,6
710,6
711,6
712,6
713,6
714,6
715,6
716,6
717,6
718,6
719,6
720,6
721,6
722,6
723,6
724,6
725,6
726,6
727,6
728,6
729,6
730,6
731,6
732,6
733,6
734,6
735,6
736,6
737,6
738,6
739,6
740,6
741,6
742,6
743,6
744,6
745,6
746,6
747,6
748,6
749,6
750,6
751,6
752,6
753,6
754,6
755,6
756,6
757,6
758,6
759,6
760,6
761,6
762,6
763,6
764,6
765,6
766,6
767,6
768,6
769,6
770,6
771,6
772,6
773,6
774,6
775,6
776,6
777,6
778,6
779,6
780,6
781,6
782,6
783,6
784,6
785,6
786,6
787,6
788,6
789,6
790,6
791,6
792,6
793,6
794,6
795,6
796,6
797,6
798,6
799,6
800,6
801,6
802,6
803,6
804,6
805,6
806,6
807,6
808,6
809,6
810,6
811,6
812,6
813,6
814,6
815,6
816,6
817,6
818,6
819,6
820,6
821,6
822,6
823,6
824,6
825,6
826,6
827,6
828,6
829,6
830,6
831,6
832,6
833,6
834,6
835,6
836,6
837,6
838,6
839,6
840,6
841,6
842,6
843,6
844,6
845,6
846,6
847,6
848,6
849,6
850,6
851,6
852,6
853,6
854,6
855,6
856,6
857,6
858,6
859,6
860,6
861,6
862,6
863,6
864,6
865,6
866,6
867,6
868,6
869,6
870,6
871,6
872,6
873,6
874,6
875,6
876,6
877,6
878,6
879,6
880,6
881,6
882,6
883,6
884,7
885,7
886,6
887,6
888,6
889,6
890,6
891,6
892,6
893,6
894,6
895,6
896,6
897,6
898,6
899,6
900,6
901,6
902,6
903,6
904,6
905,6
906,6
907,6
908,6
909,6
910,6
911,6
912,6
913,6
914,6
915,6
916,6
917,6
918,6
919,6
920,6
921,6
922,6
923,6
924,6
925,6
926,6
927,6
928,6
929,6
930,6
931,6
932,6
933,6
934,6
935,6
936,6
937,6
938,6
939,6
940,6
941,6
942,6
943,6
944,6
945,6
946,6
947,7
948,7
949,7
950,7
951,7
952,7
953,7
954,8
955,8
956,8
957,7
958,7
959,7
960,7
961,7
962,7
963,7
964,7
965,7
966,7
967,7
968,7
969,7
970,7
971,7
972,7
973,7
974,7
975,7
976,7
977,7
978,7
979,7
980,7
981,7
982,7
983,7
984,7
985,7
986,7
987,7
988,7
989,7
990,7
991,7
992,7
993,7
994,7
995,7
996,7
997,7
998,7
999,7
1000,7
1001,7
1002,7
1003,7
1004,7
1005,7
1006,7
1007,7
1008,7
1009,7
1010,7
1011,7
1012,7
1013,7
1014,7
1015,7
1016,7
1017,7
1018,7
1019,7
1020,7
1021,7
1022,7
1023,7
1024,7
1025,7
1026,7
1027,7
1028,7
1029,7
1030,7
1031,7
1032,7
1033,7
1034,7
1035,7
1036,7
1037,7
1038,7
1039,7
1040,7
1041,7
1042,7
1043,7
1044,7
1045,7
1046,7
1047,7
1048,7
1049,7
1050,7
1051,7
1052,7
1053,7
1054,7
1055,7
1056,7
1057,7
1058,7
1059,7
1060,7
1061,7
1062,7
1063,7
1064,7
1065,7
1066,7
1067,7
1068,7
1069,7
1070,7
1071,7
1072,7
1073,7
1074,7
1075,7
1076,7
1077,7
1078,7
1079,7
1080,7
1081,7
1082,8
1083,8
1084,8
1085,8
1086,8
1087,8
1088,8
1089,8
1090,8
1091,8
1092,8
1093,8
1094,8
1095,8
1096,8
1097,8
1098,8
1099,8
1100,8
1101,8
1102,8
1103,8
1104,8
1105,8
1106,8
1107,8
1108,8
1109,8
1110,8
1111,8
1112,8
1113,8
1114,8
1115,8
1116,8
1117,8
1118,8
1119,8
1120,8
1121,8
1122,8
1123,8
1124,8
1125,8
1126,8
1127,8
1128,8
1129,8
1130,8
1131,8
1132,8
1133,8
1134,8
1135,8
1136,8
1137,8
1138,8
1139,8
1140,8
1141,8
1142,8
1143,8
1144,8
1145,8
1146,8
1147,8
1148,8
1149,8
1150,8
1151,8
1152,8
1153,8
1154,8
1155,8
1156,8
1157,8
1158,8
1159,8
1160,8
1161,8
1162,8
1163,8
1164,8
1165,8
1166,8
1167,8
1168,8
1169,8
1170,8
1171,8
1172,8
1173,8
1174,8
1175,8
1176,8
1177,8
1178,8
1179,8
1180,8
1181,8
1182,8
1183,8
1184,8
1185,8
1186,8
1187,8
1188,8
1189,8
1190,8
1191,8
1192,8
1193,8
1194,8
1195,8
1196,8
1197,8
1198,8
1199,8
1200,8
1201,8
1202,8
1203,8
1204,8
1205,8
1206,8
1207,8
1208,8
1209,8
1210,8
1211,8
1212,8
1213,9
1214,9
1215,8
1216,8
1217,8
1218,8
1219,8
1220,8
1221,8
1222,8
1223,8
1224,8
1225,8
1226,8
1227,8
1228,8
1229,8
1230,8
1231,8
1232,8
1233,8
1234,8
1235,8
1236,8
1237,8
1238,8
1239,8
1240,8
1241,8
1242,8
1243,8
1244,8
1245,8
1246,8
1247,8
1248,8
1249,8
1250,9
1251,9
1252,9
1253,9
1254,9
1255,9
1256,9
1257,9
1258,8
1259,8
1260,8
1261,8
1262,8
1263,8
1264,8
1265,8
1266,8
1267,8
1268,8
1269,8
1270,8
1271,8
1272,8
1273,8
1274,8
1275,8
1276,8
1277,8
1278,8
1279,8
1280,8
1281,8
1282,8
1283,8
1284,8
1285,8
1286,8
1287,8
1288,8
1289,8
1290,8
1291,8
1292,8
1293,8
1294,8
1295,8
1296,8
1297,8
1298,8
1299,8
1300,8
1301,8
1302,8
1303,8
1304,8
1305,8
1306,8
1307,8
1308,8
1309,9
1310,9
1311,8
1312,8
1313,8
1314,8
1315,8
1316,8
1317,8
1318,8
1319,8
1320,8
1321,8
1322,8
1323,8
1324,8
1325,8
1326,8
1327,8
1328,8
1329,8
1330,8
1331,8
1332,8
1333,8
1334,8
1335,8
1336,8
1337,8
1338,8
1339,8
1340,8
1341,8
1342,8
1343,8
1344,8
1345,8
1346,8
1347,8
1348,8
1349,8
1350,8
1351,8
1352,8
1353,8
1354,8
1355,8
1356,8
1357,8
1358,8
1359,8
1360,8
1361,8
1362,8
1363,8
1364,8
1365,8
1366,8
1367,9
1368,9
1369,9
1370,9
1371,9
1372,9
1373,9
1374,9
1375,9
1376,9
1377,9
1378,9
1379,9
1380,9
1381,9
1382,9
1383,9
1384,9
1385,9
1386,9
1387,9
1388,9
1389,9
1390,9
1391,9
1392,9
1393,9
1394,9
1395,9
1396,9
1397,9
1398,9
1399,9
1400,9
1401,9
1402,9
1403,9
1404,9
1405,9
1406,9
1407,9
1408,9
1409,10
1410,9
1411,9
1412,9
1413,9
1414,9
1415,9
1416,9
1417,9
1418,9
1419,9
1420,9
1421,9
1422,9
1423,9
1424,9
1425,9
1426,9
1427,9
1428,9
1429,9
1430,9
1431,9
1432,9
1433,9
1434,9
1435,9
1436,9
1437,9
1438,9
1439,9
1440,9
1441,9
1442,9
1443,9
1444,9
1445,9
1446,9
1447,9
1448,9
1449,9
1450,9
1451,9
1452,9
1453,9
1454,9
1455,9
1456,9
1457,9
1458,9
1459,9
1460,9
1461,9
1462,9
1463,9
1464,9
1465,9
1466,9
1467,9
1468,9
1469,9
1470,9
1471,9
1472,9
1473,9
1474,9
1475,9
1476,9
1477,9
1478,9
1479,9
1480,9
1481,9
1482,9
1483,9
1484,9
1485,9
1486,9
1487,9
1488,9
1489,9
1490,9
1491,9
1492,9
1493,9
1494,9
1495,9
1496,9
1497,9
1498,9
1499,9
1500,9
1501,9
1502,9
1503,9
1504,9
1505,9
1506,9
1507,9
1508,9
1509,9
1510,9
1511,9
1512,9
1513,9
1514,9
1515,9
1516,9
1517,9
1518,9
1519,9
1520,9
1521,9
1522,9
1523,9
1524,9
1525,9
1526,9
1527,9
1528,9
1529,9
1530,9
1531,9
1532,9
1533,9
1534,9
1535,9
1536,9
1537,9
1538,9
1539,9
1540,9
1541,9
1542,9
1543,9
1544,9
1545,9
1546,9
1547,9
1548,10
1549,10
1550,9
1551,9
1552,9
1553,9
1554,9
1555,9
1556,9
1557,9
1558,9
1559,9
1560,9
1561,9
1562,9
1563,9
1564,9
1565,9
1566,9
1567,9
1568,9
1569,9
1570,9
1571,9
1572,9
1573,9
1574,9
1575,9
1576,9
1577,9
1578,9
1579,9
1580,9
1581,9
1582,9
1583,9
1584,9
1585,9
1586,9
1587,9
1588,9
1589,9
1590,9
1591,9
1592,9
1593,9
1594,9
1595,9
1596,9
1597,9
1598,9
1599,9
1600,9
1601,9
1602,9
1603,9
1604,10
1605,9
1606,9
1607,10
1608,10
1609,10
1610,10
1611,10
1612,10
1613,10
1614,10
1615,10
1616,10
1617,10
1618,10
1619,10
1620,10
1621,10
1622,9
1623,9
1624,9
1625,9
1626,9
1627,9
1628,9
1629,9
1630,9
1631,9
1632,9
1633,9
1634,9
1635,9
1636,9
1637,9
1638,9
1639,9
1640,9
1641,9
1642,9
1643,9
1644,9
1645,9
1646,9
1647,9
1648,9
1649,9
1650,9
1651,9
1652,9
1653,9
1654,9
1655,9
1656,9
1657,9
1658,9
1659,9
1660,9
1661,9
1662,9
1663,9
1664,9
1665,9
1666,9
1667,9
1668,9
1669,9
1670,9
1671,9
1672,9
1673,9
1674,9
1675,9
1676,9
1677,9
1678,9
1679,9
1680,9
1681,9
1682,9
1683,9
1684,9
1685,9
1686,9
1687,9
1688,9
1689,9
1690,9
1691,9
1692,9
1693,9
1694,9
1695,9
1696,9
1697,9
1698,9
1699,9
1700,9
1701,9
1702,9
1703,9
1704,9
1705,9
1706,9
1707,9
1708,9
1709,9
1710,9
1711,9
1712,9
1713,9
1714,9
1715,9
1716,9
1717,9
1718,9
1719,9
1720,9
1721,9
1722,9
1723,9
1724,9
1725,9
1726,9
1727,9
1728,9
1729,9
1730,9
1731,9
1732,9
1733,9
1734,9
1735,9
1736,9
1737,9
1738,9
1739,9
1740,9
1741,9
1742,9
1743,9
1744,9
1745,9
1746,9
1747,9
1748,9
1749,9
1750,9
1751,9
1752,9
1753,9
1754,9
1755,9
1756,9
1757,9
1758,9
1759,9
1760,9
1761,9
1762,9
1763,9
1764,9
1765,9
1766,9
1767,9
1768,9
1769,9
1770,9
1771,9
1772,9
1773,9
1774,9
1775,9
1776,9
1777,9
1778,9
1779,9
1780,9
1781,9
1782,9
1783,9
1784,9
1785,9
1786,9
1787,9
1788,9
1789,9
1790,9
1791,9
1792,9
1793,9
1794,9
1795,9
1796,9
1797,9
1798,9
1799,9
1800,9
1801,9
1802,9
1803,9
1804,9
1805,9
1806,9
1807,9
1808,9
1809,9
1810,9
1811,9
1812,9
1813,9
1814,9
1815,9
1816,9
1817,9
1818,9
1819,9
1820,9
1821,10
1822,9
1823,9
1824,9
1825,9
1826,9
1827,9
1828,9
1829,9
1830,9
1831,9
1832,9
1833,9
1834,9
1835,9
1836,9
1837,9
1838,9
1839,9
1840,9
1841,9
1842,9
1843,9
1844,9
1845,10
1846,10
1847,10
1848,9
1849,9
1850,9
1851,9
1852,9
1853,9
1854,9
1855,9
1856,9
1857,9
1858,9
1859,9
1860,9
1861,9
1862,9
1863,9
1864,9
1865,9
1866,9
1867,9
1868,9
1869,9
1870,9
1871,9
1872,9
1873,9
1874,9
1875,9
1876,9
1877,9
1878,9
1879,9
1880,9
1881,9
1882,9
1883,9
1884,9
1885,9
1886,9
1887,9
1888,9
1889,9
1890,9
1891,9
1892,9
1893,9
1894,9
1895,9
1896,9
1897,9
1898,9
1899,9
1900,9
1901,9
1902,9
1903,9
1904,9
1905,9
1906,9
1907,9
1908,9
1909,9
1910,9
1911,9
1912,9
1913,9
1914,9
1915,9
1916,9
1917,9
1918,10
1919,10
1920,10
1921,9
1922,9
1923,9
1924,9
1925,9
1926,9
1927,9
1928,9
1929,9
1930,9
1931,9
1932,9
1933,9
1934,9
1935,9
1936,9
1937,9
1938,9
1939,9
1940,9
1941,9
1942,9
1943,9
1944,9
1945,9
1946,9
1947,9
1948,9
1949,9
1950,9
1951,9
1952,9
1953,9
1954,9
1955,9
1956,9
1957,10
1958,10
1959,10
1960,10
1961,10
1962,10
1963,10
1964,10
1965,10
1966,10
1967,10
1968,10
1969,10
1970,10
1971,10
1972,10
1973,10
1974,10
1975,10
1976,10
1977,10
1978,10
1979,10
1980,10
1981,10
1982,10
1983,10
1984,10
1985,10
1986,10
1987,10
1988,10
1989,10
1990,10
1991,10
1992,10
1993,10
1994,10
1995,10
1996,10
1997,10
1998,10
1999,10
2000,10
2001,10
2002,10
2003,10
2004,10
2005,10
2006,10
2007,10
2008,10
2009,10
2010,10
2011,10
2012,10
2013,10
2014,10
2015,10
2016,10
2017,10
2018,10
2019,10
2020,10
2021,10
2022,10
2023,10
2024,10
2025,10
2026,10
2027,10
2028,10
2029,10
2030,11
2031,10
2032,10
2033,10
2034,10
2035,10
2036,10
2037,10
2038,10
2039,10
2040,10
2041,10
2042,10
2043,10
2044,10
2045,10
2046,10
2047,10
2048,10
2049,10
2050,10
2051,10
2052,10
2053,10
2054,10
2055,10
2056,10
2057,10
2058,10
2059,10
2060,10
2061,10
2062,10
2063,10
2064,10
2065,10
2066,10
2067,10
2068,10
2069,10
2070,10
2071,10
2072,10
2073,10
2074,10
2075,10
2076,10
2077,10
2078,10
2079,10
2080,10
2081,10
2082,10
2083,10
2084,10
2085,10
2086,10
2087,10
2088,10
2089,10
2090,10
2091,10
2092,10
2093,10
2094,10
2095,10
2096,10
2097,10
2098,10
2099,10
2100,10
2101,10
2102,10
2103,10
2104,10
2105,10
2106,10
2107,10
2108,10
2109,10
2110,10
2111,10
2112,10
2113,10
2114,10
2115,10
2116,10
2117,10
2118,10
2119,10
2120,10
2121,10
2122,10
2123,10
2124,10
2125,10
2126,10
2127,10
2128,10
2129,10
2130,10
2131,10
2132,10
2133,10
2134,10
2135,10
2136,10
2137,10
2138,10
2139,10
2140,10
2141,10
2142,10
2143,11
2144,11
2145,10
2146,10
2147,10
2148,10
2149,10
2150,10
2151,11
2152,10
2153,10
2154,10
2155,10
2156,10
2157,10
2158,10
2159,10
2160,10
2161,10
2162,10
2163,10
2164,10
2165,10
2166,10
2167,10
2168,10
2169,10
2170,10
2171,10
2172,10
2173,10
2174,10
2175,10
2176,10
2177,10
2178,10
2179,10
2180,10
2181,10
2182,10
2183,10
2184,10
2185,10
2186,10
2187,10
2188,10
2189,10
2190,10
2191,10
2192,10
2193,10
2194,10
2195,10
2196,10
2197,10
2198,10
2199,10
2200,10
2201,10
2202,10
2203,10
2204,10
2205,10
2206,10
2207,10
2208,10
2209,10
2210,10
2211,10
2212,10
2213,10
2214,10
2215,10
2216,10
2217,10
2218,10
2219,10
2220,10
2221,10
2222,10
2223,10
2224,10
2225,10
2226,10
2227,10
2228,10
2229,10
2230,10
2231,10
2232,10
2233,10
2234,10
2235,10
2236,10
2237,10
2238,10
2239,10
2240,10
2241,10
2242,10
2243,10
2244,10
2245,11
2246,11
2247,10
2248,10
2249,10
2250,10
2251,10
2252,10
2253,10
2254,10
2255,10
2256,10
2257,10
2258,10
2259,10
2260,10
2261,10
2262,10
2263,10
2264,10
2265,10
2266,10
2267,10
2268,10
2269,10
2270,10
2271,10
2272,10
2273,10
2274,10
2275,11
2276,12
2277,11
2278,10
2279,10
2280,10
2281,10
2282,10
2283,10
2284,10
2285,10
2286,10
2287,10
2288,10
2289,10
2290,10
2291,10
2292,10
2293,10
2294,10
2295,10
2296,10
2297,10
2298,10
2299,10
2300,10
2301,10
2302,10
2303,10
2304,10
2305,10
2306,10
2307,10
2308,10
2309,11
2310,11
2311,10
2312,10
2313,10
2314,10
2315,10
2316,10
2317,10
2318,10
2319,10
2320,10
2321,10
2322,10
2323,10
2324,10
2325,10
2326,10
2327,10
2328,11
2329,10
2330,10
2331,10
2332,10
2333,10
2334,10
2335,10
2336,10
2337,10
2338,10
2339,11
2340,11
2341,11
2342,10
2343,10
2344,10
2345,10
2346,10
2347,10
2348,10
2349,10
2350,10
2351,10
2352,10
2353,10
2354,10
2355,10
2356,10
2357,10
2358,10
2359,10
2360,10
2361,10
2362,10
2363,10
2364,10
2365,11
2366,11
2367,10
2368,10
2369,10
2370,10
2371,10
2372,10
2373,10
2374,10
2375,10
2376,10
2377,10
2378,10
2379,10
2380,10
2381,10
2382,10
2383,10
2384,10
2385,10
2386,10
2387,10
2388,10
2389,10
2390,10
2391,10
2392,10
2393,10
2394,10
2395,10
2396,10
2397,10
2398,10
2399,10
2400,10
2401,10
2402,10
2403,10
2404,10
2405,10
2406,10
2407,10
2408,10
2409,10
2410,10
2411,10
2412,10
2413,10
2414,10
2415,10
2416,10
2417,10
2418,10
2419,10
2420,10
2421,10
2422,10
2423,10
2424,10
2425,10
2426,10
2427,10
2428,10
2429,10
2430,10
2431,10
2432,10
2433,10
2434,10
2435,10
2436,10
2437,10
2438,10
2439,10
2440,10
2441,10
2442,10
2443,10
2444,10
2445,10
2446,11
2447,10
2448,10
2449,10
2450,10
2451,10
2452,10
2453,10
2454,10
2455,10
2456,10
2457,10
2458,10
2459,10
2460,10
2461,10
2462,10
2463,10
2464,10
2465,10
2466,10
2467,10
2468,10
2469,10
2470,10
2471,10
2472,10
2473,10
2474,10
2475,10
2476,10
2477,10
2478,10
2479,10
2480,10
2481,10
2482,10
2483,10
2484,10
2485,10
2486,10
2487,10
2488,10
2489,10
2490,10
2491,10
2492,10
2493,10
2494,10
2495,10
2496,10
2497,10
2498,10
2499,10
2500,10
2501,10
2502,10
2503,10
2504,10
2505,10
2506,11
2507,11
2508,11
2509,11
2510,11
2511,11
2512,11
2513,11
2514,10
2515,10
2516,10
2517,10
2518,10
2519,10
2520,10
2521,10
2522,10
2523,10
2524,10
2525,10
2526,10
2527,10
2528,10
2529,10
2530,10
2531,10
2532,10
2533,10
2534,10
2535,10
2536,10
2537,10
2538,10
2539,10
2540,10
2541,10
2542,10
2543,10
2544,10
2545,10
2546,10
2547,10
2548,10
2549,10
2550,10
2551,10
2552,10
2553,10
2554,10
2555,10
2556,10
2557,10
2558,10
2559,10
2560,10
2561,10
2562,10
2563,10
2564,10
2565,10
2566,10
2567,10
2568,10
2569,10
2570,10
2571,10
2572,10
2573,10
2574,10
2575,10
2576,10
2577,10
2578,10
2579,10
2580,10
2581,10
2582,10
2583,10
2584,10
2585,10
2586,10
2587,10
2588,10
2589,10
2590,10
2591,10
2592,10
2593,10
2594,10
2595,10
2596,10
2597,10
2598,10
2599,10
2600,10
2601,10
2602,10
2603,10
2604,10
2605,10
2606,10
2607,10
2608,10
2609,10
2610,10
2611,10
2612,10
2613,10
2614,10
2615,10
2616,10
2617,10
2618,10
2619,10
2620,10
2621,10
2622,10
2623,10
2624,10
2625,10
2626,10
2627,10
2628,10
2629,10
2630,10
2631,10
2632,10
2633,10
2634,10
2635,10
2636,10
2637,10
2638,10
2639,10
2640,10
2641,10
2642,11
2643,11
2644,11
2645,11
2646,11
2647,11
2648,11
2649,11
2650,11
2651,11
2652,11
2653,11
2654,11
2655,11
2656,11
2657,11
2658,11
2659,11
2660,11
2661,11
2662,11
2663,11
2664,11
2665,11
2666,11
2667,11
2668,11
2669,11
2670,11
2671,11
2672,11
2673,11
2674,11
2675,11
2676,11
2677,11
2678,11
2679,11
2680,11
2681,11
2682,11
2683,11
2684,11
2685,11
2686,11
2687,11
2688,11
2689,11
2690,11
2691,11
2692,11
2693,11
2694,11
2695,11
2696,11
2697,11
2698,11
2699,11
2700,11
2701,11
2702,11
2703,11
2704,11
2705,11
2706,11
2707,11
2708,11
2709,11
2710,11
2711,11
2712,11
2713,11
2714,11
2715,11
2716,11
2717,11
2718,11
2719,11
2720,11
2721,11
2722,11
2723,11
2724,11
2725,11
2726,11
2727,11
2728,11
2729,11
2730,11
2731,11
2732,11
2733,11
2734,11
2735,11
2736,11
2737,11
2738,11
2739,11
2740,11
2741,11
2742,11
2743,11
2744,11
2745,11
2746,11
2747,11
2748,11
2749,11
2750,11
2751,11
2752,11
2753,11
2754,11
2755,11
2756,11
2757,11
2758,11
2759,11
2760,11
2761,11
2762,11
2763,11
2764,11
2765,11
2766,11
2767,11
2768,11
2769,11
2770,11
2771,11
2772,11
2773,11
2774,11
2775,11
2776,11
2777,11
2778,11
2779,11
2780,11
2781,11
2782,11
2783,11
2784,11
2785,11
2786,11
2787,11
2788,11
2789,11
2790,11
2791,11
2792,11
2793,11
2794,11
2795,11
2796,11
2797,11
2798,11
2799,11
2800,11
2801,11
2802,11
2803,11
2804,11
2805,11
2806,11
2807,11
2808,11
2809,11
2810,11
2811,11
2812,11
2813,11
2814,11
2815,11
2816,11
2817,11
2818,11
2819,11
2820,11
2821,11
2822,11
2823,11
2824,11
2825,11
2826,11
2827,11
2828,11
2829,11
2830,11
2831,11
2832,11
2833,11
2834,11
2835,11
2836,11
2837,12
2838,11
2839,11
2840,11
2841,11
2842,11
2843,11
2844,11
2845,11
2846,11
2847,11
2848,11
2849,11
2850,11
2851,11
2852,11
2853,11
2854,11
2855,11
2856,11
2857,11
2858,11
2859,11
2860,11
2861,11
2862,11
2863,11
2864,11
2865,11
2866,11
2867,11
2868,11
2869,11
2870,11
2871,11
2872,11
2873,11
2874,11
2875,11
2876,11
2877,11
2878,11
2879,11
2880,11
2881,11
2882,11
2883,11
2884,11
2885,11
2886,11
2887,11
2888,11
2889,11
2890,11
2891,11
2892,11
2893,11
2894,11
2895,11
2896,11
2897,11
2898,11
2899,11
2900,11
2901,11
2902,11
2903,11
2904,11
2905,11
2906,11
2907,11
2908,11
2909,11
2910,11
2911,11
2912,11
2913,11
2914,11
2915,11
2916,11
2917,11
2918,11
2919,11
2920,11
2921,11
2922,11
2923,11
2924,11
2925,11
2926,11
2927,11
2928,11
2929,11
2930,11
2931,11
2932,11
2933,11
2934,11
2935,11
2936,11
2937,11
2938,11
2939,11
2940,11
2941,11
2942,11
2943,11
2944,11
2945,11
2946,11
2947,11
2948,11
2949,11
2950,11
2951,11
2952,11
2953,11
2954,11
2955,11
2956,11
2957,11
2958,11
2959,11
2960,11
2961,11
2962,11
2963,11
2964,11
2965,11
2966,11
2967,11
2968,11
2969,12
2970,12
2971,12
2972,11
2973,11
2974,11
2975,11
2976,11
2977,11
2978,11
2979,11
2980,11
2981,11
2982,11
2983,11
2984,11
2985,12
2986,11
2987,11
2988,11
2989,11
2990,11
2991,11
2992,11
2993,11
2994,11
2995,11
2996,11
2997,11
2998,11
2999,12
3000,11
3001,11
3002,11
3003,11
3004,11
3005,11
3006,11
3007,11
3008,11
3009,11
3010,11
3011,11
3012,11
3013,11
3014,11
3015,11
3016,11
3017,11
3018,11
3019,11
3020,11
3021,11
3022,11
3023,11
3024,11
3025,11
3026,11
3027,11
3028,11
3029,11
3030,11
3031,11
3032,11
3033,11
3034,11
3035,11
3036,11
3037,11
3038,11
3039,11
3040,11
3041,11
3042,11
3043,11
3044,11
3045,11
3046,11
3047,11
3048,11
3049,11
3050,11
3051,11
3052,11
3053,11
3054,11
3055,11
3056,11
3057,11
3058,11
3059,11
3060,11
3061,11
3062,11
3063,11
3064,11
3065,11
3066,11
3067,11
3068,11
3069,11
3070,11
3071,11
3072,11
3073,11
3074,11
3075,11
3076,11
3077,11
3078,11
3079,11
3080,11
3081,11
3082,11
3083,11
3084,11
3085,11
3086,11
3087,11
3088,11
3089,11
3090,11
3091,11
3092,11
3093,11
3094,11
3095,11
3096,11
3097,11
3098,11
3099,11
3100,11
3101,11
3102,11
3103,11
3104,11
3105,11
3106,11
3107,11
3108,11
3109,11
3110,11
3111,11
3112,11
3113,11
3114,11
3115,11
3116,11
3117,11
3118,11
3119,11
3120,11
3121,11
3122,11
3123,11
3124,11
3125,11
3126,11
3127,11
3128,11
3129,11
3130,11
3131,11
3132,11
3133,11
3134,11
3135,11
3136,11
3137,11
3138,11
3139,11
3140,11
3141,11
3142,11
3143,11
3144,12
3145,12
3146,12
3147,12
3148,12
3149,12
3150,12
3151,12
3152,12
3153,12
3154,12
3155,12
3156,12
3157,12
3158,12
3159,12
3160,12
3161,11
3162,11
3163,11
3164,11
3165,11
3166,11
3167,11
3168,11
3169,11
3170,11
3171,11
3172,11
3173,11
3174,11
3175,11
3176,11
3177,11
3178,11
3179,11
3180,11
3181,11
3182,11
3183,11
3184,11
3185,11
3186,11
3187,11
3188,11
3189,11
3190,11
3191,11
3192,11
3193,11
3194,11
3195,11
3196,11
3197,11
3198,11
3199,11
3200,11
3201,11
3202,12
3203,12
3204,12
3205,12
3206,12
3207,12
3208,12
3209,12
3210,11
3211,11
3212,11
3213,11
3214,11
3215,11
3216,11
3217,11
3218,11
3219,11
3220,11
3221,11
3222,11
3223,11
3224,11
3225,11
3226,11
3227,11
3228,11
3229,11
3230,11
3231,11
3232,11
3233,11
3234,11
3235,11
3236,11
3237,11
3238,11
3239,12
3240,12
3241,12
3242,12
3243,12
3244,12
3245,12
3246,12
3247,12
3248,12
3249,12
3250,12
3251,12
3252,12
3253,12
3254,12
3255,12
3256,12
3257,12
3258,12
3259,12
3260,12
3261,12
3262,13
3263,13
3264,13
3265,12
3266,12
3267,12
3268,12
3269,12
3270,12
3271,12
3272,12
3273,12
3274,12
3275,12
3276,12
3277,12
3278,12
3279,12
3280,12
3281,12
3282,12
3283,12
3284,12
3285,12
3286,12
3287,12
3288,12
3289,12
3290,12
3291,12
3292,12
3293,12
3294,13
3295,12
3296,12
3297,12
3298,12
3299,12
3300,12
3301,12
3302,12
3303,12
3304,12
3305,12
3306,12
3307,12
3308,12
3309,12
3310,12
3311,12
3312,12
3313,12
3314,12
3315,12
3316,12
3317,12
3318,12
3319,12
3320,13
3321,13
3322,13
3323,13
3324,12
3325,12
3326,12
3327,12
3328,12
3329,12
3330,12
3331,12
3332,12
3333,12
3334,12
3335,12
3336,12
3337,12
3338,13
3339,13
3340,12
3341,12
3342,12
3343,12
3344,12
3345,12
3346,12
3347,12
3348,12
3349,12
3350,12
3351,12
3352,12
3353,12
3354,12
3355,12
3356,12
3357,12
3358,12
3359,12
3360,12
3361,12
3362,12
3363,12
3364,12
3365,12
3366,12
3367,12
3368,12
3369,12
3370,12
3371,12
3372,12
3373,12
3374,12
3375,12
3376,12
3377,12
3378,12
3379,12
3380,12
3381,12
3382,12
3383,12
3384,12
3385,12
3386,12
3387,12
3388,12
3389,12
3390,12
3391,12
3392,12
3393,12
3394,12
3395,12
3396,12
3397,12
3398,12
3399,12
3400,12
3401,12
3402,12
3403,12
3404,12
3405,12
3406,12
3407,12
3408,12
3409,12
3410,12
3411,12
3412,12
3413,12
3414,12
3415,12
3416,12
3417,12
3418,12
3419,12
3420,12
3421,12
3422,12
3423,12
3424,12
3425,12
3426,12
3427,12
3428,12
3429,12
3430,12
3431,12
3432,12
3433,12
3434,12
3435,12
3436,12
3437,12
3438,12
3439,12
3440,12
3441,12
3442,12
3443,12
3444,12
3445,12
3446,12
3447,12
3448,12
3449,12
3450,12
3451,12
3452,12
3453,12
3454,12
3455,12
3456,12
3457,12
3458,12
3459,12
3460,12
3461,12
3462,12
3463,12
3464,12
3465,12
3466,12
3467,12
3468,12
3469,12
3470,12
3471,12
3472,12
3473,12
3474,12
3475,12
3476,12
3477,12
3478,12
3479,12
3480,12
3481,12
3482,12
3483,12
3484,12
3485,12
3486,12
3487,12
3488,12
3489,12
3490,12
3491,12
3492,12
3493,12
3494,12
3495,12
3496,12
3497,12
3498,12
3499,12
3500,12
3501,12
3502,12
3503,12
3504,12
3505,12
3506,12
3507,12
3508,12
3509,12
3510,12
3511,12
3512,12
3513,12
3514,12
3515,12
3516,12
3517,12
3518,12
3519,12
3520,12
3521,12
3522,12
3523,12
3524,12
3525,12
3526,12
3527,12
3528,12
3529,12
3530,12
3531,12
3532,12
3533,12
3534,12
3535,12
3536,12
3537,12
3538,12
3539,12
3540,12
3541,12
3542,12
3543,12
3544,12
3545,12
3546,12
3547,12
3548,12
3549,12
3550,12
3551,12
3552,12
3553,12
3554,12
3555,12
3556,12
3557,12
3558,12
3559,12
3560,12
3561,12
3562,12
3563,12
3564,12
3565,12
3566,12
3567,12
3568,12
3569,12
3570,12
3571,12
3572,12
3573,12
3574,13
3575,13
3576,13
3577,12
3578,12
3579,12
3580,12
3581,12
3582,12
3583,12
3584,12
3585,12
3586,12
3587,12
3588,12
3589,12
3590,12
3591,12
3592,12
3593,12
3594,12
3595,12
3596,12
3597,12
3598,12
3599,12
3600,12
3601,12
3602,12
3603,12
3604,12
3605,12
3606,12
3607,12
3608,12
3609,12
3610,12
3611,12
3612,12
3613,12
3614,12
3615,12
3616,12
3617,12
3618,12
3619,12
3620,12
3621,12
3622,12
3623,12
3624,12
3625,12
3626,12
3627,12
3628,12
3629,12
3630,12
3631,12
3632,12
3633,12
3634,12
3635,12
3636,12
3637,12
3638,12
3639,12
3640,12
3641,12
3642,12
3643,12
3644,12
3645,12
3646,12
3647,12
3648,12
3649,12
3650,12
3651,12
3652,12
3653,12
3654,12
3655,12
3656,12
3657,12
3658,12
3659,12
3660,12
3661,12
3662,12
3663,12
3664,12
3665,12
3666,12
3667,12
3668,12
3669,12
3670,12
3671,12
3672,12
3673,12
3674,12
3675,12
3676,12
3677,12
3678,12
3679,12
3680,12
3681,12
3682,12
3683,12
3684,12
3685,12
3686,12
3687,12
3688,12
3689,12
3690,12
3691,12
3692,12
3693,12
3694,12
3695,12
3696,12
3697,12
3698,12
3699,12
3700,12
3701,12
3702,12
3703,12
3704,12
3705,12
3706,12
3707,12
3708,12
3709,12
3710,12
3711,12
3712,12
3713,12
3714,12
3715,12
3716,12
3717,12
3718,12
3719,12
3720,12
3721,12
3722,12
3723,12
3724,12
3725,12
3726,12
3727,12
3728,12
3729,12
3730,12
3731,12
3732,12
3733,12
3734,12
3735,12
3736,12
3737,12
3738,12
3739,12
3740,12
3741,12
3742,12
3743,12
3744,12
3745,12
3746,12
3747,12
3748,12
3749,12
3750,12
3751,12
3752,12
3753,12
3754,12
3755,12
3756,12
3757,12
3758,12
3759,12
3760,12
3761,12
3762,12
3763,12
3764,12
3765,12
3766,12
3767,12
3768,12
3769,12
3770,12
3771,12
3772,12
3773,12
3774,12
3775,12
3776,12
3777,12
3778,12
3779,12
3780,12
3781,12
3782,12
3783,12
3784,12
3785,12
3786,12
3787,12
3788,12
3789,12
3790,12
3791,12
3792,12
3793,12
3794,12
3795,12
3796,12
3797,12
3798,12
3799,12
3800,12
3801,12
3802,12
3803,12
3804,12
3805,12
3806,12
3807,12
3808,12
3809,12
3810,12
3811,12
3812,12
3813,12
3814,12
3815,12
3816,12
3817,12
3818,13
3819,13
3820,13
3821,13
3822,13
3823,13
3824,13
3825,12
3826,12
3827,12
3828,12
3829,12
3830,12
3831,12
3832,12
3833,12
3834,12
3835,12
3836,12
3837,12
3838,12
3839,12
3840,12
3841,12
3842,12
3843,12
3844,13
3845,12
3846,12
3847,12
3848,12
3849,12
3850,12
3851,13
3852,12
3853,12
3854,12
3855,12
3856,12
3857,12
3858,12
3859,12
3860,12
3861,12
3862,12
3863,12
3864,12
3865,12
3866,12
3867,12
3868,12
3869,12
3870,12
3871,12
3872,12
3873,12
3874,12
3875,12
3876,12
3877,12
3878,12
3879,12
3880,12
3881,12
3882,12
3883,12
3884,12
3885,12
3886,12
3887,12
3888,12
3889,12
3890,12
3891,13
3892,12
3893,12
3894,12
3895,12
3896,12
3897,12
3898,12
3899,12
3900,12
3901,12
3902,12
3903,12
3904,12
3905,12
3906,12
3907,12
3908,12
3909,12
3910,13
3911,14
3912,13
3913,12
3914,12
3915,12
3916,12
3917,12
3918,12
3919,12
3920,12
3921,12
3922,12
3923,12
3924,12
3925,12
3926,12
3927,12
3928,12
3929,12
3930,12
3931,12
3932,12
3933,12
3934,12
3935,12
3936,12
3937,12
3938,12
3939,12
3940,12
3941,12
3942,12
3943,12
3944,12
3945,12
3946,12
3947,12
3948,12
3949,12
3950,12
3951,12
3952,12
3953,12
3954,12
3955,12
3956,12
3957,12
3958,12
3959,12
3960,12
3961,12
3962,12
3963,12
3964,12
3965,12
3966,13
3967,12
3968,12
3969,12
3970,12
3971,12
3972,12
3973,12
3974,12
3975,12
3976,12
3977,12
3978,12
3979,12
3980,12
3981,12
3982,12
3983,12
3984,12
3985,12
3986,12
3987,12
3988,12
3989,12
3990,12
3991,12
3992,12
3993,12
3994,12
3995,12
3996,12
3997,12
3998,12
3999,12
4000,12
4001,12
4002,12
4003,12
4004,12
4005,12
4006,12
4007,12
4008,12
4009,12
4010,12
4011,12
4012,12
4013,12
4014,12
4015,12
4016,12
4017,12
4018,12
4019,12
4020,12
4021,12
4022,12
4023,12
4024,12
4025,12
4026,12
4027,12
4028,12
4029,12
4030,12
4031,12
4032,12
4033,12
4034,12
4035,12
4036,12
4037,12
4038,12
4039,12
4040,12
4041,12
4042,12
4043,12
4044,12
4045,12
4046,12
4047,12
4048,12
4049,12
4050,12
4051,12
4052,12
4053,12
4054,12
4055,13
4056,13
4057,13
4058,13
4059,13
4060,13
4061,13
4062,12
4063,12
4064,12
4065,12
4066,12
4067,12
4068,12
4069,12
4070,12
4071,12
4072,12
4073,12
4074,12
4075,12
4076,12
4077,12
4078,12
4079,12
4080,12
4081,12
4082,12
4083,12
4084,12
4085,12
4086,12
4087,12
4088,12
4089,12
4090,12
4091,12
4092,12
4093,12
4094,12
4095,12
4096,12
4097,12
4098,12
4099,12
4100,12
4101,12
4102,12
4103,12
4104,12
4105,12
4106,12
4107,12
4108,12
4109,12
4110,12
4111,12
4112,12
4113,12
4114,12
4115,12
4116,12
4117,12
4118,12
4119,12
4120,12
4121,12
4122,12
4123,12
4124,12
4125,12
4126,12
4127,12
4128,13
4129,13
4130,13
4131,13
4132,13
4133,13
4134,13
4135,13
4136,13
4137,13
4138,13
4139,13
4140,13
4141,13
4142,13
4143,13
4144,13
4145,13
4146,13
4147,13
4148,13
4149,13
4150,13
4151,13
4152,13
4153,13
4154,13
4155,13
4156,13
4157,13
4158,13
4159,13
4160,13
4161,13
4162,13
4163,13
4164,13
4165,13
4166,13
4167,13
4168,13
4169,13
4170,13
4171,13
4172,13
4173,13
4174,13
4175,13
4176,13
4177,13
4178,13
4179,13
4180,13
4181,13
4182,13
4183,13
4184,13
4185,13
4186,13
4187,13
4188,13
4189,13
4190,13
4191,13
4192,13
4193,13
4194,13
4195,13
4196,13
4197,13
4198,13
4199,13
4200,13
4201,13
4202,13
4203,13
4204,13
4205,13
4206,13
4207,13
4208,13
4209,13
4210,13
4211,13
4212,13
4213,13
4214,13
4215,13
4216,13
4217,13
4218,13
4219,13
4220,13
4221,13
4222,13
4223,13
4224,13
4225,13
4226,13
4227,13
4228,13
4229,13
4230,13
4231,13
4232,13
4233,13
4234,13
4235,14
4236,14
4237,13
4238,13
4239,13
4240,13
4241,13
4242,13
4243,13
4244,13
4245,13
4246,13
4247,13
4248,13
4249,13
4250,13
4251,13
4252,13
4253,13
4254,14
4255,14
4256,14
4257,14
4258,14
4259,14
4260,14
4261,14
4262,14
4263,14
4264,14
4265,14
4266,14
4267,14
4268,13
4269,13
4270,13
4271,13
4272,13
4273,13
4274,13
4275,13
4276,13
4277,13
4278,13
4279,13
4280,13
4281,13
4282,13
4283,13
4284,13
4285,13
4286,13
4287,13
4288,13
4289,13
4290,13
4291,13
4292,13
4293,13
4294,13
4295,13
4296,13
4297,13
4298,13
4299,13
4300,13
4301,13
4302,13
4303,13
4304,13
4305,13
4306,13
4307,13
4308,13
4309,13
4310,13
4311,13
4312,13
4313,13
4314,13
4315,13
4316,13
4317,13
4318,13
4319,13
4320,13
4321,13
4322,13
4323,13
4324,13
4325,13
4326,13
4327,13
4328,13
4329,13
4330,13
4331,13
4332,13
4333,13
4334,13
4335,13
4336,13
4337,13
4338,13
4339,13
4340,13
4341,13
4342,13
4343,13
4344,13
4345,13
4346,13
4347,13
4348,13
4349,13
4350,13
4351,13
4352,13
4353,13
4354,13
4355,13
4356,13
4357,13
4358,13
4359,13
4360,13
4361,13
4362,13
4363,13
4364,13
4365,13
4366,13
4367,13
4368,13
4369,13
4370,13
4371,13
4372,13
4373,13
4374,13
4375,13
4376,13
4377,13
4378,13
4379,13
4380,13
4381,13
4382,13
4383,13
4384,13
4385,13
4386,13
4387,13
4388,13
4389,13
4390,13
4391,13
4392,14
4393,14
4394,14
4395,14
4396,13
4397,13
4398,13
4399,13
4400,13
4401,13
4402,13
4403,13
4404,13
4405,13
4406,13
4407,13
4408,13
4409,13
4410,13
4411,13
4412,13
4413,13
4414,13
4415,13
4416,13
4417,13
4418,13
4419,13
4420,13
4421,13
4422,13
4423,13
4424,13
4425,13
4426,14
4427,13
4428,13
4429,13
4430,13
4431,14
4432,13
4433,13
4434,13
4435,13
4436,13
4437,13
4438,13
4439,13
4440,13
4441,13
4442,13
4443,13
4444,13
4445,13
4446,13
4447,13
4448,13
4449,13
4450,13
4451,13
4452,13
4453,13
4454,13
4455,13
4456,13
4457,13
4458,13
4459,13
4460,13
4461,13
4462,13
4463,13
4464,13
4465,13
4466,13
4467,13
4468,13
4469,13
4470,13
4471,13
4472,13
4473,13
4474,13
4475,13
4476,13
4477,13
4478,14
4479,13
4480,13
4481,13
4482,13
4483,13
4484,13
4485,13
4486,13
4487,13
4488,13
4489,13
4490,13
4491,13
4492,13
4493,13
4494,13
4495,13
4496,13
4497,13
4498,13
4499,13
4500,13
4501,13
4502,13
4503,13
4504,13
4505,13
4506,13
4507,13
4508,13
4509,13
4510,13
4511,13
4512,13
4513,13
4514,13
4515,13
4516,13
4517,13
4518,13
4519,13
4520,13
4521,13
4522,13
4523,13
4524,13
4525,13
4526,13
4527,13
4528,13
4529,13
4530,13
4531,13
4532,13
4533,13
4534,13
4535,13
4536,13
4537,13
4538,13
4539,13
4540,13
4541,13
4542,13
4543,13
4544,13
4545,13
4546,13
4547,13
4548,13
4549,13
4550,13
4551,13
4552,13
4553,13
4554,13
4555,13
4556,13
4557,13
4558,13
4559,13
4560,13
4561,13
4562,13
4563,13
4564,13
4565,13
4566,13
4567,13
4568,13
4569,13
4570,13
4571,13
4572,13
4573,13
4574,13
4575,13
4576,13
4577,13
4578,13
4579,13
4580,13
4581,13
4582,13
4583,13
4584,13
4585,13
4586,13
4587,13
4588,13
4589,13
4590,13
4591,13
4592,13
4593,13
4594,13
4595,13
4596,13
4597,13
4598,13
4599,13
4600,13
4601,13
4602,13
4603,13
4604,13
4605,13
4606,13
4607,13
4608,13
4609,13
4610,13
4611,13
4612,13
4613,13
4614,13
4615,13
4616,13
4617,13
4618,13
4619,13
4620,13
4621,13
4622,13
4623,13
4624,13
4625,13
4626,13
4627,13
4628,13
4629,13
4630,13
4631,13
4632,13
4633,13
4634,13
4635,13
4636,13
4637,13
4638,13
4639,13
4640,13
4641,13
4642,13
4643,13
4644,13
4645,13
4646,13
4647,14
4648,14
4649,14
4650,14
4651,14
4652,14
4653,13
4654,13
4655,13
4656,13
4657,13
4658,13
4659,13
4660,13
4661,13
4662,13
4663,13
4664,13
4665,13
4666,13
4667,13
4668,13
4669,13
4670,13
4671,13
4672,13
4673,13
4674,13
4675,13
4676,13
4677,13
4678,13
4679,13
4680,13
4681,13
4682,13
4683,13
4684,14
4685,14
4686,14
4687,14
4688,14
4689,13
4690,13
4691,13
4692,13
4693,13
4694,13
4695,13
4696,13
4697,13
4698,13
4699,13
4700,13
4701,13
4702,13
4703,13
4704,13
4705,13
4706,13
4707,13
4708,13
4709,13
4710,13
4711,13
4712,13
4713,13
4714,13
4715,13
4716,13
4717,13
4718,13
4719,13
4720,13
4721,13
4722,13
4723,13
4724,13
4725,13
4726,13
4727,13
4728,13
4729,13
4730,13
4731,13
4732,13
4733,13
4734,13
4735,13
4736,13
4737,13
4738,13
4739,13
4740,13
4741,13
4742,13
4743,13
4744,13
4745,13
4746,13
4747,13
4748,13
4749,13
4750,13
4751,13
4752,13
4753,13
4754,13
4755,13
4756,13
4757,13
4758,13
4759,13
4760,13
4761,13
4762,13
4763,13
4764,13
4765,13
4766,13
4767,13
4768,13
4769,13
4770,13
4771,13
4772,13
4773,13
4774,13
4775,13
4776,13
4777,13
4778,13
4779,13
4780,13
4781,13
4782,13
4783,13
4784,13
4785,13
4786,13
4787,13
4788,13
4789,13
4790,13
4791,13
4792,13
4793,13
4794,13
4795,13
4796,14
4797,13
4798,13
4799,13
4800,13
4801,13
4802,13
4803,13
4804,13
4805,13
4806,13
4807,13
4808,13
4809,13
4810,13
4811,13
4812,13
4813,13
4814,13
4815,13
4816,13
4817,13
4818,13
4819,13
4820,13
4821,13
4822,13
4823,13
4824,13
4825,13
4826,13
4827,13
4828,13
4829,13
4830,13
4831,13
4832,13
4833,13
4834,13
4835,13
4836,13
4837,13
4838,13
4839,13
4840,13
4841,13
4842,13
4843,13
4844,13
4845,13
4846,14
4847,13
4848,13
4849,13
4850,13
4851,13
4852,13
4853,13
4854,13
4855,13
4856,13
4857,13
4858,13
4859,13
4860,13
4861,13
4862,13
4863,13
4864,13
4865,13
4866,13
4867,13
4868,13
4869,13
4870,13
4871,13
4872,13
4873,13
4874,13
4875,13
4876,13
4877,13
4878,13
4879,13
4880,13
4881,13
4882,13
4883,13
4884,13
4885,13
4886,13
4887,13
4888,13
4889,13
4890,13
4891,13
4892,13
4893,13
4894,13
4895,13
4896,13
4897,13
4898,13
4899,13
4900,13
4901,13
4902,13
4903,13
4904,13
4905,13
4906,13
4907,13
4908,13
4909,13
4910,13
4911,13
4912,13
4913,13
4914,13
4915,13
4916,13
4917,13
4918,13
4919,13
4920,13
4921,13
4922,13
4923,13
4924,13
4925,13
4926,13
4927,13
4928,13
4929,13
4930,13
4931,13
4932,13
4933,13
4934,13
4935,13
4936,13
4937,13
4938,13
4939,13
4940,13
4941,13
4942,13
4943,13
4944,13
4945,13
4946,13
4947,13
4948,13
4949,13
4950,13
4951,13
4952,13
4953,13
4954,13
4955,13
4956,13
4957,13
4958,13
4959,13
4960,13
4961,13
4962,13
4963,13
4964,13
4965,13
4966,13
4967,13
4968,13
4969,13
4970,13
4971,13
4972,13
4973,14
4974,14
4975,14
4976,14
4977,13
4978,13
4979,13
4980,13
4981,13
4982,13
4983,13
4984,13
4985,13
4986,13
4987,13
4988,13
4989,13
4990,13
4991,13
4992,13
4993,13
4994,13
4995,13
4996,13
4997,13
4998,13
4999,13
5000,13
5001,13
5002,13
5003,13
5004,13
5005,13
5006,13
5007,13
5008,13
5009,13
5010,13
5011,13
5012,13
5013,13
5014,13
5015,13
5016,13
5017,13
5018,13
5019,13
5020,13
5021,13
5022,13
5023,13
5024,13
5025,13
5026,13
5027,13
5028,13
5029,14
5030,14
5031,14
5032,14
5033,14
5034,14
5035,14
5036,14
5037,13
5038,13
5039,13
5040,13
5041,13
5042,13
5043,13
5044,13
5045,13
5046,13
5047,13
5048,13
5049,13
5050,13
5051,13
5052,13
5053,13
5054,13
5055,13
5056,13
5057,13
5058,13
5059,13
5060,13
5061,13
5062,13
5063,13
5064,13
5065,13
5066,13
5067,13
5068,13
5069,13
5070,13
5071,13
5072,13
5073,13
5074,13
5075,13
5076,13
5077,13
5078,13
5079,13
5080,13
5081,13
5082,13
5083,13
5084,13
5085,13
5086,13
5087,13
5088,13
5089,13
5090,13
5091,13
5092,13
5093,13
5094,13
5095,13
5096,13
5097,13
5098,13
5099,13
5100,13
5101,13
5102,13
5103,13
5104,13
5105,13
5106,13
5107,13
5108,13
5109,13
5110,13
5111,13
5112,13
5113,14
5114,13
5115,13
5116,13
5117,13
5118,13
5119,13
5120,13
5121,13
5122,13
5123,13
5124,13
5125,13
5126,13
5127,13
5128,13
5129,13
5130,13
5131,13
5132,13
5133,13
5134,13
5135,13
5136,13
5137,13
5138,13
5139,13
5140,13
5141,13
5142,13
5143,13
5144,13
5145,13
5146,13
5147,13
5148,13
5149,13
5150,13
5151,13
5152,13
5153,13
5154,13
5155,13
5156,13
5157,13
5158,13
5159,13
5160,13
5161,13
5162,13
5163,13
5164,13
5165,13
5166,13
5167,13
5168,13
5169,13
5170,13
5171,13
5172,13
5173,13
5174,13
5175,13
5176,13
5177,13
5178,13
5179,13
5180,13
5181,13
5182,13
5183,13
5184,13
5185,13
5186,13
5187,13
5188,13
5189,13
5190,13
5191,13
5192,13
5193,13
5194,13
5195,13
5196,13
5197,13
5198,13
5199,13
5200,13
5201,13
5202,13
5203,13
5204,13
5205,13
5206,13
5207,13
5208,13
5209,13
5210,13
5211,13
5212,13
5213,13
5214,13
5215,13
5216,13
5217,13
5218,13
5219,13
5220,13
5221,13
5222,13
5223,13
5224,13
5225,13
5226,13
5227,13
5228,13
5229,13
5230,13
5231,13
5232,13
5233,13
5234,13
5235,13
5236,13
5237,13
5238,13
5239,13
5240,13
5241,13
5242,13
5243,13
5244,13
5245,13
5246,13
5247,13
5248,13
5249,13
5250,13
5251,13
5252,13
5253,13
5254,13
5255,13
5256,13
5257,13
5258,13
5259,13
5260,13
5261,13
5262,13
5263,13
5264,13
5265,13
5266,13
5267,13
5268,13
5269,13
5270,13
5271,13
5272,13
5273,13
5274,13
5275,13
5276,13
5277,13
5278,13
5279,13
5280,13
5281,13
5282,13
5283,13
5284,13
5285,13
5286,13
5287,13
5288,13
5289,13
5290,13
5291,13
5292,13
5293,13
5294,13
5295,13
5296,13
5297,13
5298,13
5299,13
5300,13
5301,13
5302,13
5303,13
5304,13
5305,13
5306,13
5307,13
5308,13
5309,13
5310,13
5311,13
5312,13
5313,13
5314,13
5315,13
5316,13
5317,13
5318,13
5319,13
5320,13
5321,13
5322,13
5323,13
5324,13
5325,13
5326,13
5327,13
5328,13
5329,13
5330,13
5331,13
5332,13
5333,13
5334,13
5335,13
5336,13
5337,13
5338,13
5339,13
5340,13
5341,13
5342,13
5343,13
5344,13
5345,13
5346,13
5347,13
5348,13
5349,13
5350,13
5351,13
5352,13
5353,13
5354,13
5355,13
5356,13
5357,13
5358,13
5359,13
5360,13
5361,13
5362,13
5363,13
5364,13
5365,14
5366,14
5367,14
5368,14
5369,14
5370,14
5371,14
5372,14
5373,14
5374,13
5375,13
5376,13
5377,13
5378,13
5379,13
5380,13
5381,13
5382,13
5383,13
5384,13
5385,13
5386,13
5387,13
5388,13
5389,13
5390,13
5391,13
5392,14
5393,14
5394,13
5395,13
5396,13
5397,13
5398,13
5399,13
5400,13
5401,13
5402,13
5403,13
5404,13
5405,13
5406,13
5407,13
5408,13
5409,13
5410,13
5411,13
5412,13
5413,13
5414,13
5415,13
5416,13
5417,13
5418,13
5419,13
5420,13
5421,13
5422,13
5423,13
5424,13
5425,13
5426,13
5427,13
5428,13
5429,13
5430,13
5431,13
5432,13
5433,13
5434,13
5435,13
5436,13
5437,13
5438,13
5439,13
5440,13
5441,13
5442,13
5443,13
5444,13
5445,13
5446,13
5447,13
5448,13
5449,13
5450,13
5451,13
5452,13
5453,13
5454,13
5455,13
5456,13
5457,13
5458,13
5459,13
5460,13
5461,13
5462,13
5463,13
5464,13
5465,13
5466,13
5467,13
5468,13
5469,13
5470,13
5471,13
5472,13
5473,13
5474,13
5475,13
5476,13
5477,13
5478,13
5479,13
5480,13
5481,13
5482,13
5483,13
5484,13
5485,13
5486,13
5487,13
5488,13
5489,13
5490,13
5491,13
5492,13
5493,13
5494,13
5495,13
5496,13
5497,13
5498,13
5499,13
5500,13
5501,13
5502,13
5503,13
5504,13
5505,13
5506,13
5507,13
5508,13
5509,13
5510,13
5511,13
5512,13
5513,13
5514,13
5515,13
5516,13
5517,13
5518,13
5519,13
5520,13
5521,13
5522,13
5523,13
5524,13
5525,13
5526,13
5527,13
5528,13
5529,13
5530,13
5531,13
5532,13
5533,13
5534,13
5535,13
5536,13
5537,13
5538,13
5539,13
5540,13
5541,13
5542,13
5543,13
5544,13
5545,13
5546,13
5547,13
5548,13
5549,13
5550,13
5551,13
5552,13
5553,13
5554,13
5555,13
5556,13
5557,13
5558,13
5559,13
5560,13
5561,13
5562,13
5563,13
5564,13
5565,13
5566,13
5567,13
5568,13
5569,13
5570,13
5571,13
5572,13
5573,13
5574,13
5575,13
5576,13
5577,13
5578,13
5579,13
5580,13
5581,13
5582,13
5583,13
5584,13
5585,13
5586,13
5587,13
5588,13
5589,13
5590,13
5591,13
5592,13
5593,13
5594,13
5595,13
5596,13
5597,13
5598,13
5599,13
5600,13
5601,13
5602,13
5603,13
5604,13
5605,13
5606,13
5607,13
5608,13
5609,13
5610,13
5611,13
5612,13
5613,13
5614,13
5615,13
5616,13
5617,13
5618,13
5619,13
5620,13
5621,13
5622,13
5623,13
5624,13
5625,13
5626,13
5627,13
5628,13
5629,13
5630,13
5631,13
5632,13
5633,13
5634,13
5635,13
5636,13
5637,13
5638,13
5639,13
5640,13
5641,13
5642,13
5643,13
5644,13
5645,13
5646,13
5647,13
5648,13
5649,13
5650,13
5651,13
5652,13
5653,13
5654,13
5655,13
5656,13
5657,13
5658,13
5659,13
5660,13
5661,13
5662,13
5663,13
5664,13
5665,13
5666,13
5667,13
5668,13
5669,13
5670,13
5671,13
5672,13
5673,13
5674,13
5675,13
5676,13
5677,13
5678,13
5679,13
5680,13
5681,13
5682,13
5683,13
5684,13
5685,13
5686,13
5687,13
5688,13
5689,13
5690,13
5691,13
5692,13
5693,13
5694,13
5695,13
5696,13
5697,13
5698,13
5699,13
5700,13
5701,14
5702,14
5703,14
5704,14
5705,14
5706,14
5707,14
5708,14
5709,14
5710,14
5711,14
5712,14
5713,14
5714,14
5715,14
5716,14
5717,14
5718,14
5719,14
5720,14
5721,14
5722,14
5723,14
5724,14
5725,14
5726,14
5727,14
5728,14
5729,14
5730,14
5731,14
5732,14
5733,14
5734,14
5735,14
5736,14
5737,14
5738,14
5739,14
5740,14
5741,14
5742,14
5743,14
5744,14
5745,14
5746,14
5747,14
5748,14
5749,14
5750,14
5751,14
5752,14
5753,14
5754,14
5755,14
5756,14
5757,14
5758,14
5759,14
5760,14
5761,14
5762,14
5763,14
5764,14
5765,14
5766,14
5767,14
5768,14
5769,14
5770,14
5771,14
5772,14
5773,14
5774,14
5775,14
5776,14
5777,14
5778,14
5779,14
5780,14
5781,14
5782,14
5783,14
5784,14
5785,14
5786,14
5787,14
5788,14
5789,14
5790,14
5791,14
5792,14
5793,14
5794,14
5795,14
5796,14
5797,14
5798,14
5799,14
5800,14
5801,14
5802,14
5803,14
5804,14
5805,14
5806,14
5807,14
5808,14
5809,14
5810,14
5811,14
5812,15
5813,14
5814,14
5815,14
5816,14
5817,14
5818,14
5819,14
5820,14
5821,14
5822,14
5823,14
5824,14
5825,14
5826,14
5827,14
5828,14
5829,14
5830,14
5831,14
5832,14
5833,14
5834,14
5835,14
5836,14
5837,14
5838,14
5839,14
5840,14
5841,14
5842,14
5843,14
5844,14
5845,14
5846,14
5847,14
5848,14
5849,14
5850,14
5851,14
5852,14
5853,14
5854,14
5855,14
5856,14
5857,14
5858,14
5859,14
5860,14
5861,14
5862,14
5863,14
5864,14
5865,14
5866,14
5867,14
5868,14
5869,14
5870,14
5871,14
5872,14
5873,14
5874,14
5875,14
5876,14
5877,14
5878,14
5879,14
5880,14
5881,14
5882,14
5883,14
5884,14
5885,14
5886,14
5887,14
5888,14
5889,14
5890,14
5891,14
5892,14
5893,14
5894,14
5895,14
5896,14
5897,14
5898,14
5899,14
5900,14
5901,14
5902,14
5903,14
5904,14
5905,14
5906,14
5907,14
5908,14
5909,14
5910,14
5911,14
5912,14
5913,14
5914,14
5915,14
5916,14
5917,14
5918,14
5919,14
5920,14
5921,14
5922,14
5923,14
5924,14
5925,14
5926,14
5927,14
5928,14
5929,14
5930,14
5931,14
5932,14
5933,14
5934,14
5935,14
5936,14
5937,14
5938,14
5939,14
5940,14
5941,14
5942,14
5943,14
5944,14
5945,14
5946,14
5947,14
5948,14
5949,14
5950,14
5951,14
5952,14
5953,14
5954,14
5955,14
5956,14
5957,14
5958,14
5959,14
5960,14
5961,14
5962,14
5963,14
5964,14
5965,14
5966,14
5967,14
5968,14
5969,14
5970,14
5971,14
5972,14
5973,14
5974,14
5975,14
5976,14
5977,14
5978,14
5979,14
5980,14
5981,14
5982,14
5983,14
5984,14
5985,14
5986,14
5987,14
5988,14
5989,14
5990,14
5991,14
5992,14
5993,14
5994,14
5995,14
5996,14
5997,14
5998,14
5999,14
6000,14
6001,14
6002,14
6003,14
6004,14
6005,14
6006,14
6007,14
6008,14
6009,14
6010,14
6011,14
6012,14
6013,14
6014,14
6015,14
6016,14
6017,14
6018,14
6019,14
6020,14
6021,14
6022,14
6023,14
6024,14
6025,14
6026,14
6027,14
6028,14
6029,14
6030,14
6031,14
6032,15
6033,15
6034,14
6035,14
6036,14
6037,14
6038,14
6039,14
6040,15
6041,15
6042,15
6043,14
6044,14
6045,14
6046,14
6047,14
6048,14
6049,14
6050,14
6051,14
6052,14
6053,14
6054,14
6055,14
6056,14
6057,14
6058,14
6059,14
6060,14
6061,14
6062,14
6063,14
6064,14
6065,14
6066,14
6067,14
6068,14
6069,14
6070,14
6071,14
6072,14
6073,14
6074,14
6075,14
6076,14
6077,14
6078,14
6079,14
6080,14
6081,14
6082,14
6083,14
6084,14
6085,14
6086,14
6087,14
6088,14
6089,14
6090,14
6091,14
6092,14
6093,14
6094,14
6095,14
6096,14
6097,14
6098,14
6099,14
6100,14
6101,14
6102,14
6103,14
6104,14
6105,14
6106,14
6107,14
6108,14
6109,14
6110,14
6111,14
6112,14
6113,14
6114,14
6115,14
6116,14
6117,14
6118,14
6119,14
6120,14
6121,14
6122,14
6123,14
6124,14
6125,14
6126,14
6127,14
6128,14
6129,14
6130,14
6131,14
6132,14
6133,14
6134,14
6135,14
6136,14
6137,14
6138,14
6139,14
6140,14
6141,14
6142,14
6143,14
6144,14
6145,14
6146,14
6147,14
6148,14
6149,14
6150,14
6151,14
6152,14
6153,14
6154,14
6155,14
6156,14
6157,14
6158,14
6159,14
6160,14
6161,14
6162,14
6163,14
6164,14
6165,14
6166,14
6167,14
6168,14
6169,14
6170,14
6171,14
6172,14
6173,14
6174,14
6175,14
6176,14
6177,14
6178,14
6179,14
6180,14
6181,14
6182,14
6183,14
6184,14
6185,14
6186,14
6187,14
6188,14
6189,14
6190,14
6191,14
6192,14
6193,14
6194,14
6195,14
6196,15
6197,14
6198,14
6199,14
6200,14
6201,14
6202,14
6203,14
6204,14
6205,14
6206,14
6207,14
6208,14
6209,14
6210,14
6211,14
6212,14
6213,14
6214,14
6215,14
6216,14
6217,14
6218,14
6219,14
6220,14
6221,14
6222,14
6223,14
6224,14
6225,14
6226,14
6227,14
6228,14
6229,14
6230,14
6231,14
6232,14
6233,14
6234,14
6235,14
6236,14
6237,14
6238,14
6239,14
6240,14
6241,14
6242,14
6243,14
6244,14
6245,14
6246,14
6247,14
6248,14
6249,14
6250,14
6251,14
6252,14
6253,14
6254,14
6255,14
6256,14
6257,14
6258,14
6259,14
6260,14
6261,14
6262,14
6263,14
6264,14
6265,14
6266,14
6267,14
6268,14
6269,14
6270,14
6271,14
6272,14
6273,14
6274,14
6275,14
6276,14
6277,14
6278,14
6279,14
6280,14
6281,14
6282,14
6283,14
6284,14
6285,14
6286,14
6287,14
6288,14
6289,14
6290,14
6291,14
6292,14
6293,14
6294,14
6295,14
6296,14
6297,14
6298,14
6299,14
6300,14
6301,14
6302,15
6303,15
6304,15
6305,15
6306,15
6307,15
6308,15
6309,15
6310,15
6311,15
6312,15
6313,15
6314,15
6315,15
6316,15
6317,15
6318,15
6319,15
6320,15
6321,15
6322,15
6323,15
6324,15
6325,15
6326,15
6327,15
6328,15
6329,15
6330,15
6331,15
6332,15
6333,15
6334,15
6335,15
6336,15
6337,15
6338,15
6339,15
6340,15
6341,15
6342,15
6343,15
6344,15
6345,15
6346,15
6347,15
6348,15
6349,15
6350,15
6351,15
6352,15
6353,15
6354,15
6355,15
6356,15
6357,15
6358,15
6359,15
6360,15
6361,15
6362,15
6363,15
6364,15
6365,15
6366,15
6367,15
6368,15
6369,15
6370,15
6371,15
6372,15
6373,15
6374,15
6375,15
6376,15
6377,15
6378,15
6379,15
6380,15
6381,15
6382,15
6383,15
6384,15
6385,15
6386,15
6387,15
6388,15
6389,15
6390,15
6391,15
6392,15
6393,15
6394,15
6395,15
6396,15
6397,15
6398,15
6399,15
6400,15
6401,15
6402,15
6403,15
6404,15
6405,15
6406,15
6407,15
6408,15
6409,15
6410,15
6411,15
6412,15
6413,15
6414,15
6415,15
6416,15
6417,15
6418,15
6419,15
6420,15
6421,15
6422,15
6423,15
6424,15
6425,15
6426,15
6427,15
6428,15
6429,15
6430,15
6431,15
6432,15
6433,15
6434,15
6435,15
6436,15
6437,15
6438,15
6439,15
6440,15
6441,15
6442,15
6443,15
6444,15
6445,15
6446,15
6447,15
6448,15
6449,15
6450,15
6451,15
6452,15
6453,15
6454,15
6455,15
6456,15
6457,15
6458,15
6459,15
6460,15
6461,15
6462,15
6463,15
6464,15
6465,15
6466,15
6467,15
6468,15
6469,15
6470,15
6471,15
6472,15
6473,15
6474,15
6475,15
6476,15
6477,15
6478,16
6479,16
6480,16
6481,16
6482,16
6483,16
6484,16
6485,16
6486,16
6487,16
6488,16
6489,16
6490,16
6491,16
6492,16
6493,16
6494,16
6495,16
6496,16
6497,16
6498,16
6499,16
6500,16
6501,16
6502,16
6503,16
6504,16
6505,16
6506,16
6507,16
6508,16
6509,16
6510,16
6511,16
6512,16
6513,16
6514,16
6515,16
6516,16
6517,16
6518,16
6519,16
6520,16
6521,16
6522,16
6523,16
6524,16
6525,16
6526,16
6527,16
6528,17
6529,16
6530,16
6531,16
6532,16
6533,16
6534,16
6535,16
6536,16
6537,16
6538,16
6539,16
6540,16
6541,16
6542,16
6543,16
6544,16
6545,16
6546,17
6547,17
6548,17
6549,17
6550,16
6551,16
6552,16
6553,16
6554,16
6555,16
6556,16
6557,16
6558,16
6559,16
6560,16
6561,16
6562,16
6563,16
6564,16
6565,16
6566,16
6567,16
6568,17
6569,17
6570,17
6571,17
6572,17
6573,17
6574,17
6575,16
6576,16
6577,16
6578,16
6579,16
6580,16
6581,17
6582,17
6583,17
6584,16
6585,16
6586,16
6587,16
6588,16
6589,16
6590,16
6591,16
6592,16
6593,16
6594,16
6595,16
6596,16
6597,16
6598,16
6599,17
6600,17
6601,16
6602,16
6603,16
6604,16
6605,16
6606,16
6607,16
6608,16
6609,16
6610,16
6611,16
6612,16
6613,16
6614,16
6615,16
6616,16
6617,16
6618,16
6619,16
6620,16
6621,16
6622,16
6623,16
6624,16
6625,16
6626,16
6627,16
6628,16
6629,16
6630,16
6631,16
6632,16
6633,16
6634,16
6635,16
6636,16
6637,16
6638,16
6639,16
6640,16
6641,16
6642,16
6643,16
6644,16
6645,16
6646,16
6647,16
6648,16
6649,16
6650,16
6651,16
6652,16
6653,16
6654,16
6655,16
6656,16
6657,16
6658,16
6659,16
6660,16
6661,16
6662,16
6663,16
6664,16
6665,16
6666,16
6667,16
6668,16
6669,16
6670,16
6671,16
6672,16
6673,16
6674,16
6675,16
6676,16
6677,16
6678,16
6679,16
6680,16
6681,16
6682,16
6683,16
6684,16
6685,16
6686,16
6687,16
6688,16
6689,16
6690,16
6691,16
6692,16
6693,16
6694,17
6695,17
6696,17
6697,17
6698,17
6699,17
6700,16
6701,16
6702,16
6703,16
6704,16
6705,16
6706,16
6707,16
6708,16
6709,16
6710,16
6711,16
6712,16
6713,16
6714,16
6715,16
6716,16
6717,16
6718,16
6719,16
6720,16
6721,16
6722,16
6723,16
6724,16
6725,16
6726,16
6727,16
6728,16
6729,16
6730,16
6731,16
6732,16
6733,16
6734,16
6735,16
6736,16
6737,16
6738,16
6739,16
6740,16
6741,16
6742,16
6743,16
6744,16
6745,16
6746,16
6747,16
6748,16
6749,16
6750,16
6751,16
6752,16
6753,16
6754,16
6755,16
6756,16
6757,16
6758,16
6759,16
6760,16
6761,16
6762,16
6763,16
6764,16
6765,16
6766,16
6767,16
6768,16
6769,16
6770,16
6771,16
6772,16
6773,16
6774,16
6775,16
6776,16
6777,16
6778,16
6779,16
6780,16
6781,16
6782,16
6783,16
6784,16
6785,16
6786,16
6787,16
6788,16
6789,16
6790,16
6791,16
6792,16
6793,16
6794,16
6795,16
6796,16
6797,16
6798,16
6799,16
6800,16
6801,16
6802,16
6803,16
6804,16
6805,16
6806,16
6807,16
6808,16
6809,16
6810,16
6811,16
6812,16
6813,16
6814,16
6815,16
6816,16
6817,16
6818,16
6819,16
6820,16
6821,17
6822,16
6823,16
6824,16
6825,16
6826,16
6827,16
6828,16
6829,16
6830,16
6831,16
6832,16
6833,16
6834,16
6835,16
6836,16
6837,16
6838,16
6839,16
6840,16
6841,16
6842,16
6843,16
6844,16
6845,16
6846,16
6847,16
6848,16
6849,16
6850,16
6851,16
6852,16
6853,16
6854,16
6855,16
6856,16
6857,16
6858,16
6859,16
6860,17
6861,16
6862,16
6863,16
6864,16
6865,16
6866,16
6867,16
6868,16
6869,16
6870,16
6871,17
6872,16
6873,16
6874,16
6875,16
6876,16
6877,16
6878,16
6879,16
6880,16
6881,16
6882,16
6883,16
6884,16
6885,16
6886,16
6887,16
6888,16
6889,16
6890,16
6891,16
6892,16
6893,16
6894,16
6895,16
6896,16
6897,16
6898,16
6899,17
6900,17
6901,16
6902,16
6903,16
6904,16
6905,16
6906,16
6907,16
6908,16
6909,16
6910,16
6911,16
6912,16
6913,16
6914,16
6915,16
6916,16
6917,16
6918,17
6919,16
6920,16
6921,16
6922,16
6923,16
6924,16
6925,16
6926,16
6927,16
6928,16
6929,16
6930,16
6931,16
6932,16
6933,16
6934,16
6935,16
6936,16
6937,16
6938,16
6939,16
6940,16
6941,16
6942,16
6943,16
6944,16
6945,16
6946,16
6947,16
6948,16
6949,16
6950,16
6951,16
6952,16
6953,16
6954,16
6955,16
6956,16
6957,16
6958,16
6959,16
6960,16
6961,17
6962,17
6963,17
6964,17
6965,17
6966,17
6967,17
6968,16
6969,16
6970,16
6971,16
6972,16
6973,16
6974,16
6975,16
6976,16
6977,16
6978,16
6979,16
6980,16
6981,16
6982,16
6983,16
6984,16
6985,16
6986,16
6987,16
6988,16
6989,16
6990,16
6991,16
6992,16
6993,16
6994,16
6995,16
6996,16
6997,16
6998,16
6999,16
7000,16
7001,16
7002,16
7003,16
7004,16
7005,16
7006,16
7007,16
7008,16
7009,16
7010,16
7011,16
7012,16
7013,16
7014,16
7015,16
7016,16
7017,16
7018,16
7019,16
7020,16
7021,16
7022,16
7023,16
7024,16
7025,16
7026,16
7027,16
7028,16
7029,16
7030,16
7031,16
7032,16
7033,16
7034,16
7035,16
7036,16
7037,16
7038,16
7039,16
7040,16
7041,16
7042,16
7043,16
7044,16
7045,16
7046,16
7047,16
7048,16
7049,16
7050,16
7051,16
7052,16
7053,16
7054,16
7055,16
7056,16
7057,16
7058,17
7059,16
7060,16
7061,16
7062,16
7063,16
7064,16
7065,16
7066,16
7067,16
7068,16
7069,16
7070,16
7071,16
7072,16
7073,16
7074,16
7075,16
7076,16
7077,16
7078,16
7079,16
7080,16
7081,17
7082,17
7083,16
7084,16
7085,16
7086,16
7087,16
7088,16
7089,16
7090,16
7091,16
7092,16
7093,16
7094,16
7095,16
7096,16
7097,16
7098,16
7099,16
7100,16
7101,16
7102,16
7103,16
7104,16
7105,16
7106,16
7107,16
7108,16
7109,16
7110,16
7111,16
7112,16
7113,16
7114,16
7115,16
7116,17
7117,17
7118,16
7119,16
7120,16
7121,16
7122,16
7123,16
7124,16
7125,16
7126,16
7127,16
7128,16
7129,16
7130,16
7131,16
7132,16
7133,17
7134,17
7135,16
7136,16
7137,16
7138,16
7139,16
7140,16
7141,16
7142,16
7143,16
7144,16
7145,16
7146,16
7147,16
7148,16
7149,16
7150,16
7151,16
7152,16
7153,16
7154,16
7155,16
7156,16
7157,16
7158,16
7159,16
7160,16
7161,16
7162,16
7163,16
7164,16
7165,16
7166,16
7167,16
7168,16
7169,16
7170,16
7171,16
7172,16
7173,16
7174,16
7175,16
7176,16
7177,16
7178,16
7179,16
7180,16
7181,16
7182,16
7183,16
7184,16
7185,16
7186,16
7187,16
7188,16
7189,16
7190,16
7191,16
7192,16
7193,16
7194,16
7195,16
7196,16
7197,16
7198,16
7199,16
7200,16
7201,16
7202,16
7203,16
7204,16
7205,16
7206,16
7207,16
7208,16
7209,16
7210,16
7211,16
7212,16
7213,16
7214,16
7215,16
7216,16
7217,16
7218,16
7219,16
7220,17
7221,16
7222,16
7223,16
7224,16
7225,16
7226,16
7227,16
7228,16
7229,16
7230,16
7231,16
7232,16
7233,16
7234,16
7235,16
7236,16
7237,16
7238,16
7239,16
7240,16
7241,16
7242,17
7243,17
7244,17
7245,17
7246,16
7247,16
7248,16
7249,16
7250,16
7251,16
7252,16
7253,16
7254,16
7255,16
7256,16
7257,16
7258,16
7259,16
7260,17
7261,16
7262,16
7263,16
7264,16
7265,16
7266,16
7267,16
7268,16
7269,16
7270,16
7271,16
7272,16
7273,16
7274,16
7275,16
7276,16
7277,16
7278,16
7279,16
7280,16
7281,16
7282,16
7283,16
7284,16
7285,16
7286,17
7287,17
7288,17
7289,16
7290,16
7291,16
7292,16
7293,16
7294,16
7295,16
7296,16
7297,16
7298,16
7299,16
7300,16
7301,16
7302,16
7303,16
7304,16
7305,16
7306,16
7307,16
7308,16
7309,16
7310,16
7311,16
7312,16
7313,16
7314,16
7315,16
7316,16
7317,16
7318,16
7319,16
7320,16
7321,16
7322,16
7323,16
7324,16
7325,16
7326,16
7327,16
7328,16
7329,16
7330,16
7331,16
7332,16
7333,16
7334,16
7335,16
7336,16
7337,16
7338,16
7339,16
7340,16
7341,16
7342,16
7343,16
7344,16
7345,16
7346,16
7347,16
7348,16
7349,16
7350,16
7351,16
7352,16
7353,16
7354,16
7355,16
7356,16
7357,16
7358,16
7359,16
7360,16
7361,16
7362,16
7363,16
7364,16
7365,16
7366,16
7367,16
7368,16
7369,16
7370,16
7371,16
7372,16
7373,16
7374,16
7375,16
7376,16
7377,16
7378,16
7379,16
7380,16
7381,16
7382,16
7383,16
7384,16
7385,16
7386,16
7387,16
7388,16
7389,16
7390,16
7391,16
7392,16
7393,16
7394,16
7395,16
7396,16
7397,16
7398,16
7399,16
7400,16
7401,16
7402,16
7403,16
7404,16
7405,16
7406,16
7407,16
7408,16
7409,16
7410,16
7411,16
7412,16
7413,16
7414,16
7415,16
7416,16
7417,16
7418,16
7419,16
7420,16
7421,16
7422,16
7423,16
7424,16
7425,16
7426,16
7427,16
7428,16
7429,16
7430,16
7431,16
7432,16
7433,16
7434,16
7435,16
7436,16
7437,16
7438,16
7439,16
7440,16
7441,16
7442,16
7443,16
7444,16
7445,16
7446,16
7447,16
7448,16
7449,16
7450,16
7451,16
7452,16
7453,16
7454,16
7455,16
7456,16
7457,16
7458,16
7459,16
7460,16
7461,16
7462,16
7463,16
7464,16
7465,16
7466,16
7467,16
7468,16
7469,16
7470,16
7471,16
7472,16
7473,16
7474,16
7475,16
7476,16
7477,16
7478,16
7479,16
7480,16
7481,16
7482,16
7483,16
7484,16
7485,16
7486,16
7487,16
7488,16
7489,16
7490,16
7491,16
7492,16
7493,16
7494,16
7495,16
7496,16
7497,16
7498,16
7499,16
7500,16
7501,16
7502,16
7503,16
7504,16
7505,17
7506,17
7507,16
7508,16
7509,16
7510,16
7511,16
7512,16
7513,16
7514,16
7515,16
7516,16
7517,16
7518,16
7519,16
7520,16
7521,16
7522,17
7523,17
7524,17
7525,17
7526,17
7527,17
7528,17
7529,17
7530,17
7531,17
7532,17
7533,17
7534,17
7535,17
7536,17
7537,17
7538,17
7539,17
7540,17
7541,17
7542,17
7543,17
7544,17
7545,17
7546,17
7547,17
7548,17
7549,17
7550,17
7551,17
7552,17
7553,17
7554,17
7555,17
7556,17
7557,17
7558,17
7559,17
7560,17
7561,17
7562,17
7563,18
7564,17
7565,17
7566,17
7567,17
7568,17
7569,17
7570,17
7571,17
7572,17
7573,17
7574,17
7575,17
7576,17
7577,17
7578,17
7579,17
7580,17
7581,17
7582,17
7583,17
7584,17
7585,17
7586,17
7587,17
7588,17
7589,17
7590,17
7591,17
7592,17
7593,17
7594,17
7595,17
7596,17
7597,17
7598,17
7599,17
7600,18
7601,17
7602,17
7603,17
7604,17
7605,17
7606,17
7607,17
7608,17
7609,17
7610,17
7611,17
7612,17
7613,17
7614,17
7615,17
7616,17
7617,17
7618,17
7619,17
7620,17
7621,17
7622,17
7623,17
7624,17
7625,17
7626,17
7627,17
7628,17
7629,17
7630,17
7631,17
7632,17
7633,17
7634,17
7635,17
7636,17
7637,17
7638,17
7639,17
7640,17
7641,17
7642,17
7643,17
7644,17
7645,17
7646,17
7647,17
7648,17
7649,17
7650,17
7651,17
7652,17
7653,17
7654,17
7655,17
7656,17
7657,17
7658,17
7659,17
7660,17
7661,17
7662,17
7663,17
7664,17
7665,17
7666,17
7667,17
7668,17
7669,17
7670,17
7671,17
7672,17
7673,17
7674,17
7675,17
7676,17
7677,17
7678,17
7679,17
7680,17
7681,17
7682,17
7683,17
7684,17
7685,17
7686,17
7687,17
7688,17
7689,17
7690,17
7691,17
7692,17
7693,17
7694,17
7695,17
7696,17
7697,17
7698,17
7699,17
7700,17
7701,17
7702,17
7703,17
7704,18
7705,18
7706,18
7707,18
7708,18
7709,18
7710,18
7711,18
7712,18
7713,18
7714,18
7715,18
7716,18
7717,18
7718,18
7719,18
7720,18
7721,18
7722,18
7723,18
7724,18
7725,18
7726,18
7727,18
7728,18
7729,18
7730,18
7731,18
7732,18
7733,18
7734,18
7735,18
7736,18
7737,18
7738,18
7739,18
7740,18
7741,18
7742,18
7743,18
7744,18
7745,18
7746,18
7747,18
7748,18
7749,18
7750,18
7751,18
7752,18
7753,18
7754,18
7755,18
7756,18
7757,18
7758,18
7759,18
7760,18
7761,18
7762,18
7763,18
7764,18
7765,18
7766,18
7767,18
7768,18
7769,18
7770,18
7771,18
7772,18
7773,18
7774,18
7775,18
7776,18
7777,18
7778,18
7779,18
7780,18
7781,18
7782,18
7783,18
7784,18
7785,18
7786,18
7787,18
7788,18
7789,18
7790,18
7791,18
7792,18
7793,18
7794,18
7795,18
7796,18
7797,18
7798,18
7799,18
7800,18
7801,18
7802,18
7803,18
7804,18
7805,18
7806,18
7807,18
7808,18
7809,18
7810,18
7811,18
7812,18
7813,18
7814,18
7815,18
7816,18
7817,18
7818,18
7819,18
7820,18
7821,18
7822,18
7823,18
7824,18
7825,18
7826,18
7827,18
7828,18
7829,18
7830,18
7831,18
7832,18
7833,18
7834,18
7835,18
7836,18
7837,18
7838,18
7839,18
7840,18
7841,18
7842,18
7843,18
7844,18
7845,18
7846,18
7847,18
7848,18
7849,18
7850,18
7851,18
7852,18
7853,18
7854,18
7855,18
7856,18
7857,18
7858,18
7859,18
7860,18
7861,18
7862,18
7863,18
7864,18
7865,18
7866,18
7867,18
7868,18
7869,18
7870,18
7871,18
7872,18
7873,18
7874,18
7875,18
7876,18
7877,18
7878,18
7879,18
7880,18
7881,18
7882,18
7883,18
7884,18
7885,18
7886,18
7887,18
7888,18
7889,18
7890,18
7891,18
7892,18
7893,18
7894,18
7895,18
7896,18
7897,18
7898,18
7899,18
7900,18
7901,18
7902,18
7903,18
7904,18
7905,18
7906,18
7907,18
7908,18
7909,18
7910,18
7911,18
7912,18
7913,18
7914,18
7915,18
7916,18
7917,18
7918,18
7919,18
7920,18
7921,18
7922,18
7923,18
7924,18
7925,18
7926,18
7927,18
7928,18
7929,18
7930,18
7931,18
7932,18
7933,18
7934,18
7935,19
7936,18
7937,18
7938,18
7939,18
7940,18
7941,18
7942,18
7943,18
7944,18
7945,18
7946,18
7947,18
7948,18
7949,18
7950,18
7951,18
7952,18
7953,18
7954,18
7955,18
7956,18
7957,18
7958,18
7959,18
7960,18
7961,18
7962,18
7963,18
7964,18
7965,18
7966,18
7967,18
7968,18
7969,18
7970,18
7971,18
7972,18
7973,18
7974,18
7975,18
7976,18
7977,18
7978,18
7979,18
7980,18
7981,18
7982,18
7983,18
7984,18
7985,18
7986,18
7987,18
7988,18
7989,18
7990,18
7991,18
7992,18
7993,18
7994,18
7995,18
7996,18
7997,18
7998,18
7999,18
8000,18
8001,18
8002,18
8003,18
8004,18
8005,18
8006,18
8007,18
8008,18
8009,18
8010,18
8011,18
8012,18
8013,18
8014,18
8015,18
8016,18
8017,18
8018,18
8019,18
8020,18
8021,18
8022,18
8023,18
8024,18
8025,18
8026,18
8027,18
8028,18
8029,18
8030,18
8031,18
8032,18
8033,18
8034,18
8035,18
8036,18
8037,18
8038,18
8039,18
8040,18
8041,18
8042,18
8043,18
8044,18
8045,18
8046,18
8047,18
8048,18
8049,18
8050,18
8051,18
8052,18
8053,18
8054,18
8055,18
8056,18
8057,18
8058,18
8059,18
8060,18
8061,18
8062,18
8063,18
8064,18
8065,18
8066,18
8067,18
8068,18
8069,18
8070,18
8071,18
8072,18
8073,18
8074,18
8075,18
8076,18
8077,18
8078,18
8079,18
8080,18
8081,18
8082,18
8083,18
8084,18
8085,18
8086,18
8087,18
8088,18
8089,18
8090,18
8091,18
8092,18
8093,18
8094,18
8095,18
8096,18
8097,18
8098,18
8099,18
8100,18
8101,18
8102,18
8103,18
8104,18
8105,18
8106,18
8107,18
8108,18
8109,18
8110,18
8111,18
8112,18
8113,18
8114,18
8115,18
8116,18
8117,18
8118,18
8119,18
8120,18
8121,18
8122,18
8123,18
8124,18
8125,18
8126,18
8127,18
8128,18
8129,18
8130,18
8131,18
8132,18
8133,18
8134,18
8135,18
8136,18
8137,18
8138,18
8139,18
8140,18
8141,18
8142,18
8143,18
8144,18
8145,18
8146,18
8147,18
8148,18
8149,18
8150,18
8151,18
8152,18
8153,18
8154,18
8155,18
8156,18
8157,18
8158,18
8159,18
8160,18
8161,18
8162,18
8163,18
8164,18
8165,18
8166,18
8167,18
8168,18
8169,18
8170,18
8171,18
8172,18
8173,18
8174,18
8175,18
8176,18
8177,18
8178,18
8179,18
8180,18
8181,18
8182,18
8183,18
8184,18
8185,18
8186,18
8187,18
8188,18
8189,18
8190,18
8191,18
8192,18
8193,19
8194,18
8195,18
8196,18
8197,18
8198,18
8199,18
8200,18
8201,18
8202,18
8203,18
8204,18
8205,18
8206,18
8207,18
8208,19
8209,18
8210,18
8211,18
8212,18
8213,18
8214,18
8215,18
8216,18
8217,18
8218,18
8219,18
8220,18
8221,18
8222,18
8223,18
8224,18
8225,18
8226,18
8227,18
8228,18
8229,18
8230,18
8231,18
8232,18
8233,18
8234,18
8235,18
8236,18
8237,18
8238,18
8239,18
8240,18
8241,18
8242,18
8243,18
8244,18
8245,18
8246,18
8247,18
8248,18
8249,18
8250,18
8251,18
8252,18
8253,18
8254,18
8255,18
8256,18
8257,18
8258,18
8259,18
8260,18
8261,18
8262,18
8263,18
8264,18
8265,18
8266,18
8267,18
8268,18
8269,18
8270,18
8271,18
8272,18
8273,18
8274,18
8275,18
8276,18
8277,18
8278,18
8279,18
8280,18
8281,18
8282,18
8283,18
8284,18
8285,18
8286,18
8287,18
8288,18
8289,18
8290,18
8291,18
8292,18
8293,18
8294,18
8295,18
8296,18
8297,18
8298,18
8299,18
8300,19
8301,18
8302,18
8303,18
8304,18
8305,18
8306,18
8307,18
8308,18
8309,18
8310,18
8311,18
8312,18
8313,18
8314,18
8315,18
8316,18
8317,18
8318,18
8319,18
8320,18
8321,18
8322,18
8323,18
8324,18
8325,18
8326,18
8327,18
8328,18
8329,18
8330,18
8331,18
8332,18
8333,18
8334,18
8335,18
8336,18
8337,18
8338,18
8339,18
8340,18
8341,18
8342,18
8343,18
8344,18
8345,18
8346,18
8347,18
8348,18
8349,18
8350,18
8351,18
8352,18
8353,18
8354,19
8355,19
8356,19
8357,19
8358,18
8359,18
8360,18
8361,18
8362,18
8363,18
8364,18
8365,18
8366,18
8367,18
8368,18
8369,18
8370,18
8371,18
8372,18
8373,18
8374,19
8375,19
8376,19
8377,19
8378,19
8379,19
8380,19
8381,19
8382,19
8383,19
8384,19
8385,19
8386,19
8387,19
8388,19
8389,19
8390,19
8391,19
8392,19
8393,19
8394,19
8395,19
8396,19
8397,19
8398,19
8399,19
8400,19
8401,19
8402,19
8403,19
8404,19
8405,19
8406,19
8407,19
8408,19
8409,19
8410,19
8411,19
8412,19
8413,19
8414,19
8415,19
8416,19
8417,19
8418,19
8419,19
8420,19
8421,19
8422,19
8423,19
8424,19
8425,19
8426,19
8427,19
8428,19
8429,19
8430,19
8431,19
8432,19
8433,19
8434,19
8435,19
8436,19
8437,19
8438,19
8439,19
8440,19
8441,19
8442,19
8443,19
8444,19
8445,19
8446,19
8447,19
8448,19
8449,19
8450,19
8451,19
8452,19
8453,19
8454,19
8455,19
8456,19
8457,19
8458,19
8459,19
8460,19
8461,19
8462,19
8463,19
8464,19
8465,19
8466,19
8467,19
8468,19
8469,19
8470,19
8471,19
8472,19
8473,19
8474,19
8475,19
8476,19
8477,19
8478,19
8479,19
8480,19
8481,19
8482,19
8483,19
8484,19
8485,19
8486,19
8487,19
8488,19
8489,19
8490,19
8491,19
8492,20
8493,20
8494,20
8495,20
8496,20
8497,20
8498,20
8499,20
8500,20
8501,20
8502,20
8503,20
8504,20
8505,20
8506,20
8507,20
8508,20
8509,20
8510,20
8511,20
8512,20
8513,20
8514,20
8515,20
8516,20
8517,20
8518,20
8519,20
8520,20
8521,20
8522,20
8523,20
8524,20
8525,20
8526,20
8527,20
8528,19
8529,19
8530,19
8531,19
8532,19
8533,19
8534,19
8535,19
8536,19
8537,19
8538,19
8539,19
8540,19
8541,19
8542,19
8543,19
8544,19
8545,19
8546,19
8547,19
8548,19
8549,19
8550,19
8551,19
8552,19
8553,19
8554,19
8555,19
8556,19
8557,19
8558,19
8559,19
8560,19
8561,19
8562,19
8563,19
8564,19
8565,19
8566,19
8567,19
8568,19
8569,19
8570,19
8571,19
8572,19
8573,19
8574,19
8575,19
8576,19
8577,19
8578,19
8579,19
8580,19
8581,19
8582,19
8583,19
8584,19
8585,19
8586,19
8587,19
8588,19
8589,19
8590,19
8591,19
8592,19
8593,19
8594,19
8595,19
8596,19
8597,19
8598,19
8599,19
8600,19
8601,19
8602,19
8603,19
8604,19
8605,19
8606,19
8607,19
8608,19
8609,19
8610,19
8611,19
8612,19
8613,19
8614,19
8615,19
8616,19
8617,19
8618,19
8619,19
8620,19
8621,19
8622,19
8623,19
8624,19
8625,19
8626,19
8627,19
8628,19
8629,19
8630,19
8631,19
8632,20
8633,20
8634,20
8635,20
8636,20
8637,20
8638,20
8639,20
8640,20
8641,20
8642,20
8643,20
8644,20
8645,20
8646,20
8647,20
8648,20
8649,20
8650,20
8651,20
8652,20
8653,20
8654,20
8655,20
8656,19
8657,19
8658,19
8659,19
8660,19
8661,19
8662,19
8663,19
8664,19
8665,19
8666,19
8667,19
8668,19
8669,19
8670,19
8671,19
8672,19
8673,19
8674,19
8675,19
8676,19
8677,19
8678,19
8679,19
8680,19
8681,19
8682,19
8683,19
8684,19
8685,19
8686,19
8687,19
8688,19
8689,19
8690,19
8691,19
8692,19
8693,19
8694,19
8695,19
8696,19
8697,19
8698,19
8699,19
8700,19
8701,19
8702,19
8703,19
8704,19
8705,19
8706,19
8707,19
8708,19
8709,19
8710,19
8711,19
8712,19
8713,19
8714,19
8715,19
8716,19
8717,19
8718,19
8719,19
8720,19
8721,19
8722,19
8723,19
8724,19
8725,19
8726,19
8727,19
8728,19
8729,19
8730,19
8731,19
8732,19
8733,19
8734,19
8735,19
8736,19
8737,19
8738,19
8739,19
8740,19
8741,19
8742,19
8743,19
8744,19
8745,19
8746,19
8747,19
8748,19
8749,19
8750,19
8751,19
8752,19
8753,19
8754,19
8755,19
8756,19
8757,19
8758,19
8759,19
8760,19
8761,19
8762,19
8763,19
8764,19
8765,19
8766,19
8767,19
8768,19
8769,19
8770,19
8771,19
8772,19
8773,19
8774,19
8775,19
8776,19
8777,19
8778,19
8779,19
8780,19
8781,19
8782,19
8783,19
8784,19
8785,19
8786,19
8787,19
8788,19
8789,19
8790,19
8791,19
8792,19
8793,19
8794,19
8795,19
8796,19
8797,19
8798,19
8799,19
8800,19
8801,19
8802,19
8803,19
8804,19
8805,19
8806,19
8807,19
8808,19
8809,19
8810,19
8811,19
8812,19
8813,19
8814,19
8815,19
8816,19
8817,19
8818,19
8819,19
8820,19
8821,19
8822,19
8823,19
8824,19
8825,19
8826,19
8827,19
8828,19
8829,20
8830,20
8831,20
8832,20
8833,19
8834,19
8835,19
8836,19
8837,19
8838,19
8839,19
8840,19
8841,19
8842,19
8843,19
8844,19
8845,19
8846,19
8847,19
8848,19
8849,19
8850,19
8851,19
8852,19
8853,19
8854,19
8855,19
8856,19
8857,19
8858,20
8859,20
8860,20
8861,20
8862,20
8863,20
8864,20
8865,20
8866,20
8867,20
8868,20
8869,19
8870,19
8871,19
8872,19
8873,19
8874,19
8875,19
8876,19
8877,19
8878,19
8879,19
8880,19
8881,19
8882,19
8883,19
8884,19
8885,19
8886,19
8887,19
8888,19
8889,19
8890,19
8891,19
8892,19
8893,19
8894,19
8895,19
8896,19
8897,19
8898,19
8899,19
8900,19
8901,19
8902,19
8903,19
8904,19
8905,19
8906,19
8907,19
8908,19
8909,19
8910,19
8911,19
8912,19
8913,19
8914,19
8915,19
8916,19
8917,19
8918,19
8919,19
8920,19
8921,19
8922,19
8923,19
8924,19
8925,19
8926,19
8927,19
8928,19
8929,19
8930,19
8931,19
8932,19
8933,19
8934,19
8935,19
8936,19
8937,19
8938,19
8939,19
8940,19
8941,19
8942,19
8943,19
8944,19
8945,19
8946,19
8947,20
8948,19
8949,19
8950,19
8951,19
8952,19
8953,19
8954,19
8955,19
8956,19
8957,19
8958,19
8959,19
8960,19
8961,19
8962,19
8963,19
8964,19
8965,19
8966,19
8967,19
8968,19
8969,19
8970,19
8971,19
8972,19
8973,19
8974,19
8975,19
8976,19
8977,19
8978,19
8979,19
8980,19
8981,20
8982,19
8983,19
8984,19
8985,19
8986,19
8987,19
8988,19
8989,19
8990,20
8991,20
8992,20
8993,20
8994,19
8995,19
8996,19
8997,19
8998,19
8999,19
9000,19
9001,19
9002,19
9003,19
9004,19
9005,19
9006,19
9007,19
9008,19
9009,19
9010,19
9011,19
9012,19
9013,19
9014,19
9015,19
9016,19
9017,20
9018,19
9019,19
9020,19
9021,19
9022,19
9023,19
9024,19
9025,19
9026,19
9027,19
9028,19
9029,19
9030,19
9031,19
9032,19
9033,19
9034,19
9035,19
9036,19
9037,19
9038,19
9039,19
9040,19
9041,19
9042,19
9043,19
9044,19
9045,19
9046,19
9047,19
9048,19
9049,19
9050,19
9051,19
9052,19
9053,19
9054,19
9055,19
9056,19
9057,19
9058,19
9059,19
9060,19
9061,19
9062,19
9063,19
9064,19
9065,19
9066,19
9067,19
9068,19
9069,19
9070,19
9071,19
9072,19
9073,19
9074,19
9075,19
9076,19
9077,19
9078,19
9079,19
9080,19
9081,19
9082,19
9083,19
9084,19
9085,19
9086,19
9087,19
9088,19
9089,19
9090,19
9091,19
9092,19
9093,19
9094,19
9095,19
9096,19
9097,19
9098,19
9099,19
9100,19
9101,19
9102,19
9103,19
9104,19
9105,19
9106,19
9107,19
9108,19
9109,19
9110,19
9111,19
9112,19
9113,19
9114,19
9115,19
9116,19
9117,19
9118,19
9119,19
9120,19
9121,19
9122,19
9123,19
9124,19
9125,19
9126,19
9127,19
9128,19
9129,19
9130,19
9131,19
9132,19
9133,19
9134,19
9135,19
9136,19
9137,19
9138,19
9139,19
9140,19
9141,19
9142,19
9143,19
9144,19
9145,19
9146,19
9147,19
9148,19
9149,19
9150,19
9151,19
9152,20
9153,20
9154,19
9155,19
9156,19
9157,19
9158,19
9159,19
9160,19
9161,19
9162,19
9163,19
9164,19
9165,19
9166,19
9167,19
9168,19
9169,19
9170,19
9171,19
9172,19
9173,19
9174,19
9175,19
9176,19
9177,19
9178,19
9179,19
9180,19
9181,19
9182,19
9183,19
9184,19
9185,19
9186,19
9187,19
9188,19
9189,19
9190,19
9191,19
9192,19
9193,19
9194,19
9195,19
9196,19
9197,19
9198,19
9199,19
9200,19
9201,19
9202,19
9203,19
9204,19
9205,19
9206,19
9207,19
9208,19
9209,19
9210,19
9211,19
9212,19
9213,19
9214,19
9215,19
9216,19
9217,19
9218,19
9219,19
9220,19
9221,19
9222,19
9223,19
9224,19
9225,19
9226,19
9227,19
9228,19
9229,19
9230,19
9231,19
9232,19
9233,19
9234,19
9235,19
9236,19
9237,19
9238,19
9239,19
9240,19
9241,19
9242,19
9243,19
9244,19
9245,19
9246,19
9247,19
9248,19
9249,19
9250,19
9251,19
9252,19
9253,19
9254,19
9255,19
9256,19
9257,19
9258,19
9259,19
9260,19
9261,19
9262,19
9263,19
9264,19
9265,19
9266,19
9267,19
9268,19
9269,19
9270,19
9271,19
9272,19
9273,19
9274,19
9275,19
9276,19
9277,19
9278,19
9279,19
9280,19
9281,19
9282,19
9283,19
9284,19
9285,19
9286,19
9287,19
9288,19
9289,19
9290,19
9291,19
9292,19
9293,19
9294,19
9295,19
9296,19
9297,20
9298,19
9299,19
9300,20
9301,19
9302,19
9303,19
9304,19
9305,19
9306,19
9307,19
9308,19
9309,19
9310,19
9311,19
9312,19
9313,19
9314,19
9315,19
9316,19
9317,19
9318,19
9319,19
9320,19
9321,19
9322,19
9323,19
9324,19
9325,19
9326,19
9327,19
9328,19
9329,19
9330,19
9331,19
9332,19
9333,19
9334,19
9335,19
9336,19
9337,19
9338,19
9339,19
9340,19
9341,19
9342,19
9343,19
9344,19
9345,19
9346,19
9347,19
9348,19
9349,19
9350,19
9351,19
9352,19
9353,19
9354,19
9355,19
9356,19
9357,19
9358,19
9359,19
9360,19
9361,19
9362,19
9363,19
9364,19
9365,19
9366,19
9367,19
9368,19
9369,19
9370,19
9371,19
9372,19
9373,19
9374,19
9375,19
9376,19
9377,19
9378,19
9379,19
9380,19
9381,19
9382,19
9383,19
9384,19
9385,19
9386,19
9387,19
9388,19
9389,19
9390,19
9391,19
9392,20
9393,19
9394,20
9395,20
9396,20
9397,20
9398,19
9399,19
9400,19
9401,19
9402,19
9403,19
9404,19
9405,19
9406,19
9407,19
9408,19
9409,19
9410,19
9411,19
9412,19
9413,19
9414,19
9415,19
9416,19
9417,19
9418,19
9419,19
9420,19
9421,19
9422,19
9423,19
9424,19
9425,19
9426,19
9427,19
9428,19
9429,19
9430,19
9431,19
9432,19
9433,19
9434,19
9435,19
9436,19
9437,19
9438,19
9439,19
9440,19
9441,19
9442,19
9443,19
9444,19
9445,19
9446,19
9447,19
9448,19
9449,19
9450,19
9451,19
9452,19
9453,19
9454,19
9455,19
9456,19
9457,19
9458,19
9459,19
9460,19
9461,19
9462,19
9463,19
9464,19
9465,19
9466,20
9467,20
9468,20
9469,20
9470,20
9471,20
9472,20
9473,20
9474,20
9475,19
9476,19
9477,19
9478,19
9479,19
9480,19
9481,19
9482,19
9483,19
9484,19
9485,19
9486,19
9487,19
9488,19
9489,19
9490,19
9491,19
9492,19
9493,19
9494,19
9495,19
9496,19
9497,19
9498,19
9499,19
9500,19
9501,19
9502,19
9503,19
9504,19
9505,19
9506,19
9507,19
9508,19
9509,19
9510,19
9511,19
9512,19
9513,19
9514,19
9515,19
9516,19
9517,19
9518,19
9519,20
9520,20
9521,19
9522,19
9523,19
9524,19
9525,19
9526,19
9527,19
9528,19
9529,19
9530,19
9531,19
9532,19
9533,19
9534,19
9535,19
9536,19
9537,19
9538,19
9539,19
9540,19
9541,19
9542,19
9543,19
9544,19
9545,19
9546,19
9547,19
9548,19
9549,19
9550,19
9551,19
9552,19
9553,19
9554,19
9555,19
9556,19
9557,19
9558,20
9559,19
9560,19
9561,19
9562,19
9563,19
9564,19
9565,19
9566,19
9567,19
9568,19
9569,19
9570,19
9571,19
9572,19
9573,19
9574,19
9575,19
9576,19
9577,19
9578,19
9579,19
9580,19
9581,19
9582,19
9583,19
9584,19
9585,19
9586,19
9587,19
9588,19
9589,19
9590,19
9591,19
9592,19
9593,19
9594,19
9595,19
9596,19
9597,19
9598,19
9599,19
9600,19
9601,19
9602,19
9603,19
9604,19
9605,19
9606,19
9607,19
9608,19
9609,19
9610,19
9611,19
9612,19
9613,19
9614,19
9615,19
9616,19
9617,19
9618,19
9619,19
9620,19
9621,19
9622,19
9623,19
9624,19
9625,19
9626,19
9627,19
9628,19
9629,19
9630,19
9631,19
9632,19
9633,19
9634,19
9635,19
9636,19
9637,19
9638,19
9639,19
9640,19
9641,19
9642,19
9643,19
9644,19
9645,19
9646,19
9647,19
9648,19
9649,19
9650,19
9651,19
9652,19
9653,19
9654,19
9655,19
9656,19
9657,19
9658,19
9659,19
9660,19
9661,19
9662,19
9663,19
9664,19
9665,19
9666,19
9667,19
9668,19
9669,19
9670,19
9671,19
9672,19
9673,19
9674,19
9675,19
9676,19
9677,19
9678,19
9679,19
9680,19
9681,19
9682,19
9683,19
9684,19
9685,19
9686,19
9687,19
9688,19
9689,19
9690,19
9691,19
9692,19
9693,19
9694,19
9695,19
9696,19
9697,19
9698,19
9699,19
9700,19
9701,19
9702,19
9703,19
9704,19
9705,19
9706,19
9707,19
9708,19
9709,19
9710,19
9711,19
9712,19
9713,19
9714,19
9715,19
9716,19
9717,19
9718,19
9719,19
9720,19
9721,19
9722,19
9723,19
9724,19
9725,19
9726,19
9727,19
9728,19
9729,19
9730,19
9731,19
9732,19
9733,19
9734,19
9735,19
9736,19
9737,19
9738,19
9739,19
9740,19
9741,19
9742,19
9743,19
9744,19
9745,19
9746,19
9747,19
9748,19
9749,19
9750,19
9751,19
9752,19
9753,19
9754,19
9755,19
9756,19
9757,19
9758,19
9759,19
9760,19
9761,19
9762,19
9763,19
9764,19
9765,19
9766,19
9767,19
9768,19
9769,19
9770,19
9771,19
9772,19
9773,19
9774,19
9775,19
9776,19
9777,19
9778,19
9779,19
9780,19
9781,19
9782,19
9783,19
9784,19
9785,19
9786,19
9787,19
9788,19
9789,19
9790,19
9791,19
9792,19
9793,19
9794,19
9795,19
9796,19
9797,19
9798,19
9799,19
9800,19
9801,19
9802,19
9803,19
9804,19
9805,19
9806,19
9807,19
9808,20
9809,19
9810,19
9811,19
9812,19
9813,19
9814,19
9815,19
9816,19
9817,19
9818,19
9819,19
9820,19
9821,19
9822,19
9823,19
9824,19
9825,19
9826,19
9827,19
9828,19
9829,19
9830,19
9831,19
9832,19
9833,19
9834,19
9835,19
9836,19
9837,19
9838,19
9839,19
9840,19
9841,19
9842,19
9843,19
9844,19
9845,19
9846,19
9847,19
9848,19
9849,19
9850,19
9851,19
9852,19
9853,19
9854,19
9855,19
9856,19
9857,19
9858,19
9859,19
9860,19
9861,19
9862,19
9863,19
9864,19
9865,19
9866,19
9867,19
9868,19
9869,19
9870,19
9871,19
9872,19
9873,19
9874,19
9875,19
9876,19
9877,19
9878,19
9879,19
9880,19
9881,19
9882,19
9883,19
9884,19
9885,19
9886,19
9887,19
9888,19
9889,19
9890,19
9891,19
9892,19
9893,19
9894,19
9895,19
9896,19
9897,19
9898,19
9899,19
9900,19
9901,19
9902,19
9903,19
9904,19
9905,19
9906,19
9907,19
9908,19
9909,19
9910,19
9911,19
9912,19
9913,19
9914,19
9915,19
9916,19
9917,19
9918,19
9919,19
9920,19
9921,19
9922,19
9923,19
9924,19
9925,19
9926,19
9927,19
9928,19
9929,19
9930,19
9931,19
9932,19
9933,19
9934,19
9935,19
9936,19
9937,19
9938,19
9939,19
9940,19
9941,19
9942,19
9943,19
9944,19
9945,19
9946,19
9947,19
9948,19
9949,19
9950,19
9951,19
9952,19
9953,19
9954,19
9955,19
9956,19
9957,19
9958,19
9959,19
9960,19
9961,19
9962,19
9963,19
9964,19
9965,19
9966,19
9967,19
9968,19
9969,19
9970,19
9971,19
9972,19
9973,19
9974,19
9975,19
9976,19
9977,19
9978,19
9979,19
9980,19
9981,19
9982,19
9983,19
9984,19
9985,19
9986,19
9987,19
9988,19
9989,19
9990,19
9991,19
9992,19
9993,19
9994,20
9995,20
9996,20
9997,20
9998,20
9999,20
10000,20
