1,3
2,3
3,3
4,3
5,3
6,3
7,3
8,3
9,3
10,3
11,3
12,3
13,3
14,3
15,4
16,4
17,4
18,4
19,4
20,4
21,4
22,4
23,4
24,4
25,4
26,4
27,4
28,4
29,4
30,4
31,4
32,4
33,4
34,4
35,4
36,4
37,4
38,4
39,4
40,4
41,4
42,4
43,4
44,4
45,4
46,4
47,4
48,4
49,4
50,4
51,4
52,4
53,4
54,4
55,4
56,4
57,4
58,4
59,4
60,4
61,4
62,4
63,4
64,4
65,4
66,4
67,4
68,4
69,4
70,4
71,4
72,4
73,4
74,4
75,4
76,4
77,4
78,4
79,4
80,4
81,4
82,4
83,4
84,4
85,4
86,4
87,4
88,4
89,4
90,4
91,4
92,4
93,4
94,4
95,4
96,4
97,4
98,4
99,4
100,4
101,4
102,4
103,4
104,4
105,4
106,4
107,4
108,4
109,4
110,4
111,4
112,4
113,4
114,4
115,4
116,4
117,4
118,4
119,5
120,5
121,5
122,4
123,4
124,4
125,4
126,4
127,5
128,5
129,5
130,5
131,5
132,5
133,5
134,5
135,5
136,5
137,5
138,5
139,5
140,5
141,5
142,5
143,5
144,5
145,5
146,5
147,5
148,5
149,5
150,5
151,5
152,5
153,6
154,5
155,5
156,5
157,5
158,5
159,5
160,5
161,5
162,5
163,5
164,5
165,5
166,5
167,5
168,5
169,6
170,6
171,6
172,6
173,6
174,6
175,8
176,8
177,8
178,8
179,8
180,8
181,8
182,8
183,8
184,8
185,8
186,8
187,8
188,8
189,8
190,8
191,8
192,8
193,8
194,8
195,8
196,8
197,8
198,8
199,8
200,8
201,8
202,8
203,8
204,8
205,8
206,8
207,8
208,8
209,8
210,8
211,8
212,8
213,8
214,8
215,8
216,8
217,8
218,8
219,8
220,8
221,8
222,8
223,8
224,8
225,8
226,8
227,8
228,8
229,8
230,8
231,8
232,8
233,8
234,8
235,8
236,8
237,8
238,8
239,8
240,8
241,8
242,8
243,8
244,8
245,8
246,8
247,8
248,8
249,8
250,8
251,8
252,8
253,8
254,8
255,8
256,8
257,8
258,8
259,8
260,8
261,8
262,8
263,8
264,9
265,9
266,8
267,8
268,8
269,8
270,8
271,8
272,8
273,8
274,9
275,9
276,9
277,9
278,9
279,9
280,9
281,9
282,9
283,9
284,9
285,9
286,9
287,9
288,9
289,9
290,9
291,9
292,9
293,9
294,9
295,9
296,9
297,9
298,9
299,9
300,9
301,9
302,9
303,9
304,9
305,9
306,9
307,9
308,9
309,9
310,9
311,9
312,10
313,10
314,10
315,10
316,10
317,11
318,10
319,10
320,10
321,10
322,10
323,10
324,10
325,10
326,10
327,10
328,10
329,10
330,10
331,11
332,11
333,11
334,11
335,11
336,11
337,11
338,11
339,11
340,11
341,11
342,11
343,11
344,11
345,11
346,11
347,11
348,11
349,11
350,11
351,11
352,11
353,11
354,11
355,11
356,11
357,11
358,11
359,11
360,11
361,11
362,11
363,11
364,11
365,11
366,11
367,11
368,11
369,11
370,11
371,11
372,11
373,11
374,11
375,11
376,11
377,11
378,11
379,11
380,11
381,11
382,11
383,11
384,11
385,11
386,11
387,11
388,11
389,11
390,11
391,11
392,11
393,11
394,11
395,11
396,11
397,11
398,11
399,11
400,11
401,11
402,11
403,11
404,11
405,11
406,11
407,11
408,12
409,12
410,12
411,12
412,12
413,12
414,12
415,11
416,11
417,11
418,11
419,11
420,11
421,11
422,11
423,11
424,11
425,11
426,11
427,11
428,11
429,11
430,11
431,11
432,11
433,11
434,11
435,11
436,11
437,11
438,11
439,11
440,11
441,11
442,11
443,11
444,11
445,11
446,11
447,11
448,11
449,11
450,11
451,11
452,11
453,11
454,11
455,11
456,11
457,11
458,11
459,11
460,11
461,11
462,12
463,12
464,12
465,12
466,11
467,11
468,11
469,11
470,11
471,11
472,11
473,11
474,11
475,11
476,11
477,11
478,11
479,11
480,11
481,11
482,11
483,11
484,11
485,11
486,11
487,11
488,12
489,11
490,11
491,11
492,11
493,11
494,11
495,11
496,11
497,11
498,11
499,11
500,11
501,11
502,11
503,11
504,11
505,11
506,11
507,11
508,11
509,11
510,11
511,11
512,11
513,11
514,11
515,11
516,11
517,11
518,11
519,11
520,11
521,11
522,11
523,11
524,11
525,11
526,11
527,11
528,11
529,11
530,11
531,11
532,11
533,11
534,11
535,11
536,11
537,11
538,11
539,11
540,11
541,12
542,12
543,12
544,12
545,12
546,12
547,12
548,12
549,12
550,11
551,11
552,11
553,11
554,11
555,12
556,12
557,11
558,11
559,11
560,11
561,11
562,11
563,11
564,11
565,11
566,11
567,11
568,11
569,11
570,11
571,11
572,11
573,11
574,11
575,11
576,11
577,11
578,11
579,11
580,11
581,11
582,11
583,11
584,11
585,11
586,11
587,11
588,11
589,11
590,11
591,11
592,11
593,11
594,11
595,11
596,11
597,11
598,11
599,11
600,11
601,11
602,11
603,11
604,11
605,11
606,11
607,11
608,11
609,11
610,11
611,11
612,11
613,11
614,11
615,11
616,11
617,11
618,11
619,11
620,11
621,11
622,11
623,11
624,11
625,11
626,11
627,11
628,11
629,11
630,11
631,11
632,11
633,11
634,11
635,11
636,11
637,11
638,11
639,11
640,11
641,11
642,11
643,11
644,11
645,11
646,11
647,11
648,11
649,11
650,11
651,11
652,11
653,11
654,11
655,11
656,11
657,11
658,11
659,11
660,11
661,11
662,11
663,11
664,11
665,11
666,11
667,11
668,11
669,11
670,11
671,11
672,11
673,11
674,11
675,11
676,11
677,11
678,11
679,11
680,11
681,11
682,11
683,11
684,11
685,11
686,11
687,11
688,11
689,11
690,11
691,11
692,11
693,11
694,11
695,11
696,11
697,11
698,11
699,11
700,11
701,11
702,11
703,11
704,11
705,11
706,11
707,11
708,11
709,11
710,11
711,11
712,11
713,11
714,11
715,11
716,11
717,11
718,11
719,11
720,11
721,11
722,11
723,11
724,11
725,11
726,11
727,11
728,11
729,11
730,11
731,11
732,11
733,11
734,11
735,11
736,11
737,11
738,11
739,11
740,11
741,11
742,11
743,11
744,11
745,11
746,11
747,11
748,11
749,11
750,11
751,11
752,11
753,11
754,11
755,11
756,11
757,11
758,11
759,11
760,11
761,11
762,11
763,11
764,11
765,11
766,11
767,11
768,11
769,11
770,11
771,11
772,11
773,11
774,11
775,11
776,11
777,11
778,11
779,11
780,11
781,11
782,11
783,11
784,11
785,11
786,11
787,11
788,11
789,11
790,11
791,11
792,11
793,11
794,11
795,11
796,11
797,11
798,11
799,11
800,11
801,11
802,11
803,11
804,11
805,11
806,11
807,11
808,11
809,11
810,11
811,11
812,11
813,11
814,11
815,11
816,11
817,11
818,11
819,11
820,11
821,11
822,11
823,11
824,11
825,11
826,11
827,11
828,11
829,11
830,11
831,11
832,11
833,11
834,11
835,11
836,11
837,11
838,11
839,11
840,11
841,11
842,11
843,11
844,11
845,11
846,11
847,11
848,11
849,11
850,11
851,11
852,11
853,11
854,11
855,11
856,11
857,11
858,11
859,11
860,12
861,12
862,12
863,12
864,12
865,12
866,12
867,12
868,12
869,12
870,12
871,12
872,12
873,12
874,12
875,12
876,12
877,12
878,12
879,12
880,12
881,12
882,12
883,12
884,12
885,12
886,12
887,12
888,12
889,12
890,12
891,12
892,12
893,12
894,12
895,12
896,12
897,12
898,12
899,12
900,12
901,12
902,12
903,12
904,12
905,12
906,12
907,12
908,12
909,12
910,12
911,12
912,12
913,12
914,12
915,12
916,12
917,12
918,12
919,12
920,12
921,12
922,12
923,12
924,12
925,12
926,12
927,12
928,12
929,12
930,12
931,12
932,12
933,12
934,12
935,12
936,12
937,12
938,12
939,12
940,12
941,12
942,12
943,12
944,12
945,12
946,12
947,12
948,12
949,12
950,12
951,12
952,12
953,12
954,12
955,12
956,12
957,12
958,12
959,12
960,12
961,12
962,12
963,12
964,12
965,12
966,12
967,12
968,12
969,12
970,12
971,12
972,12
973,12
974,12
975,12
976,12
977,12
978,12
979,12
980,12
981,12
982,12
983,12
984,12
985,12
986,12
987,12
988,12
989,12
990,12
991,12
992,12
993,12
994,12
995,12
996,12
997,12
998,12
999,12
1000,12
1001,12
1002,12
1003,12
1004,12
1005,12
1006,12
1007,12
1008,12
1009,12
1010,12
1011,12
1012,12
1013,12
1014,12
1015,12
1016,12
1017,12
1018,12
1019,12
1020,12
1021,12
1022,12
1023,12
1024,12
1025,12
1026,12
1027,12
1028,12
1029,12
1030,12
1031,12
1032,13
1033,12
1034,12
1035,12
1036,12
1037,12
1038,12
1039,12
1040,12
1041,12
1042,12
1043,12
1044,12
1045,12
1046,12
1047,12
1048,12
1049,12
1050,12
1051,12
1052,12
1053,12
1054,12
1055,12
1056,12
1057,12
1058,12
1059,12
1060,12
1061,12
1062,12
1063,12
1064,12
1065,12
1066,12
1067,12
1068,12
1069,12
1070,12
1071,12
1072,12
1073,12
1074,13
1075,13
1076,13
1077,13
1078,13
1079,13
1080,13
1081,13
1082,13
1083,14
1084,13
1085,13
1086,13
1087,13
1088,13
1089,13
1090,13
1091,13
1092,13
1093,13
1094,13
1095,13
1096,13
1097,13
1098,13
1099,13
1100,13
1101,13
1102,13
1103,13
1104,13
1105,13
1106,13
1107,13
1108,13
1109,13
1110,13
1111,13
1112,13
1113,13
1114,13
1115,13
1116,13
1117,13
1118,13
1119,13
1120,13
1121,13
1122,13
1123,13
1124,13
1125,13
1126,13
1127,13
1128,13
1129,13
1130,13
1131,13
1132,13
1133,13
1134,13
1135,13
1136,13
1137,13
1138,13
1139,13
1140,13
1141,13
1142,13
1143,13
1144,13
1145,13
1146,13
1147,13
1148,13
1149,13
1150,13
1151,13
1152,13
1153,13
1154,13
1155,13
1156,13
1157,13
1158,13
1159,13
1160,13
1161,13
1162,13
1163,13
1164,13
1165,13
1166,13
1167,13
1168,13
1169,13
1170,13
1171,13
1172,13
1173,13
1174,13
1175,13
1176,13
1177,13
1178,13
1179,13
1180,13
1181,13
1182,13
1183,13
1184,13
1185,13
1186,13
1187,13
1188,13
1189,13
1190,13
1191,13
1192,13
1193,13
1194,13
1195,13
1196,13
1197,13
1198,13
1199,13
1200,13
1201,13
1202,13
1203,13
1204,13
1205,13
1206,13
1207,13
1208,13
1209,13
1210,13
1211,13
1212,13
1213,13
1214,13
1215,13
1216,13
1217,13
1218,13
1219,13
1220,13
1221,13
1222,13
1223,13
1224,13
1225,13
1226,13
1227,13
1228,13
1229,13
1230,13
1231,13
1232,13
1233,13
1234,13
1235,13
1236,13
1237,13
1238,13
1239,13
1240,13
1241,13
1242,13
1243,13
1244,13
1245,13
1246,13
1247,13
1248,13
1249,13
1250,13
1251,13
1252,13
1253,13
1254,13
1255,13
1256,13
1257,13
1258,13
1259,13
1260,13
1261,13
1262,13
1263,13
1264,13
1265,13
1266,13
1267,13
1268,13
1269,13
1270,13
1271,13
1272,13
1273,13
1274,13
1275,13
1276,13
1277,13
1278,13
1279,13
1280,13
1281,13
1282,13
1283,13
1284,13
1285,13
1286,13
1287,13
1288,13
1289,13
1290,13
1291,13
1292,13
1293,13
1294,13
1295,13
1296,13
1297,13
1298,13
1299,13
1300,13
1301,13
1302,13
1303,13
1304,14
1305,14
1306,14
1307,14
1308,14
1309,14
1310,14
1311,14
1312,14
1313,14
1314,14
1315,14
1316,14
1317,14
1318,14
1319,14
1320,14
1321,14
1322,14
1323,14
1324,14
1325,14
1326,14
1327,14
1328,14
1329,14
1330,14
1331,14
1332,14
1333,14
1334,14
1335,14
1336,14
1337,14
1338,14
1339,14
1340,14
1341,14
1342,14
1343,14
1344,14
1345,14
1346,14
1347,14
1348,14
1349,14
1350,14
1351,14
1352,14
1353,14
1354,14
1355,14
1356,14
1357,14
1358,14
1359,14
1360,14
1361,14
1362,14
1363,14
1364,14
1365,14
1366,14
1367,14
1368,14
1369,14
1370,14
1371,14
1372,14
1373,14
1374,14
1375,14
1376,14
1377,14
1378,14
1379,14
1380,14
1381,14
1382,14
1383,14
1384,14
1385,14
1386,14
1387,14
1388,14
1389,14
1390,14
1391,14
1392,14
1393,14
1394,14
1395,14
1396,14
1397,14
1398,14
1399,14
1400,14
1401,14
1402,14
1403,14
1404,14
1405,14
1406,14
1407,14
1408,14
1409,14
1410,14
1411,14
1412,14
1413,14
1414,14
1415,14
1416,14
1417,14
1418,14
1419,14
1420,14
1421,14
1422,14
1423,14
1424,15
1425,15
1426,15
1427,14
1428,14
1429,14
1430,14
1431,14
1432,14
1433,14
1434,14
1435,14
1436,14
1437,14
1438,15
1439,15
1440,15
1441,15
1442,15
1443,15
1444,15
1445,15
1446,15
1447,15
1448,15
1449,15
1450,15
1451,15
1452,15
1453,15
1454,15
1455,15
1456,15
1457,15
1458,15
1459,15
1460,15
1461,15
1462,15
1463,15
1464,15
1465,15
1466,15
1467,15
1468,15
1469,15
1470,15
1471,15
1472,15
1473,15
1474,15
1475,15
1476,15
1477,15
1478,15
1479,15
1480,15
1481,15
1482,15
1483,15
1484,15
1485,15
1486,15
1487,15
1488,15
1489,15
1490,15
1491,15
1492,15
1493,15
1494,15
1495,15
1496,15
1497,16
1498,15
1499,15
1500,15
1501,15
1502,15
1503,15
1504,15
1505,15
1506,15
1507,15
1508,15
1509,15
1510,15
1511,15
1512,15
1513,15
1514,15
1515,15
1516,15
1517,15
1518,15
1519,15
1520,15
1521,15
1522,15
1523,15
1524,15
1525,15
1526,15
1527,15
1528,15
1529,15
1530,15
1531,15
1532,15
1533,15
1534,15
1535,15
1536,15
1537,15
1538,15
1539,15
1540,15
1541,15
1542,15
1543,15
1544,15
1545,15
1546,15
1547,15
1548,15
1549,15
1550,15
1551,15
1552,15
1553,15
1554,15
1555,15
1556,15
1557,15
1558,15
1559,15
1560,15
1561,15
1562,15
1563,15
1564,15
1565,15
1566,15
1567,15
1568,16
1569,16
1570,16
1571,16
1572,16
1573,16
1574,16
1575,16
1576,16
1577,16
1578,16
1579,16
1580,16
1581,16
1582,16
1583,16
1584,16
1585,16
1586,16
1587,16
1588,16
1589,16
1590,16
1591,16
1592,16
1593,16
1594,16
1595,16
1596,16
1597,16
1598,16
1599,16
1600,18
1601,18
1602,17
1603,17
1604,17
1605,17
1606,17
1607,17
1608,17
1609,17
1610,17
1611,17
1612,17
1613,17
1614,17
1615,17
1616,17
1617,17
1618,17
1619,17
1620,17
1621,17
1622,17
1623,17
1624,17
1625,17
1626,17
1627,17
1628,17
1629,17
1630,17
1631,17
1632,17
1633,17
1634,17
1635,17
1636,17
1637,17
1638,17
1639,17
1640,17
1641,17
1642,17
1643,17
1644,17
1645,17
1646,17
1647,17
1648,17
1649,17
1650,17
1651,17
1652,17
1653,17
1654,17
1655,17
1656,17
1657,17
1658,17
1659,17
1660,17
1661,18
1662,17
1663,17
1664,17
1665,17
1666,17
1667,17
1668,17
1669,17
1670,17
1671,17
1672,17
1673,17
1674,17
1675,17
1676,17
1677,17
1678,18
1679,17
1680,17
1681,17
1682,17
1683,17
1684,17
1685,17
1686,17
1687,17
1688,17
1689,17
1690,17
1691,17
1692,17
1693,17
1694,17
1695,17
1696,17
1697,17
1698,17
1699,17
1700,17
1701,17
1702,17
1703,17
1704,17
1705,17
1706,17
1707,17
1708,17
1709,17
1710,17
1711,17
1712,17
1713,17
1714,17
1715,17
1716,17
1717,17
1718,17
1719,17
1720,17
1721,17
1722,17
1723,17
1724,17
1725,17
1726,17
1727,17
1728,17
1729,17
1730,17
1731,17
1732,17
1733,18
1734,17
1735,17
1736,17
1737,17
1738,17
1739,17
1740,17
1741,17
1742,17
1743,17
1744,17
1745,17
1746,17
1747,17
1748,17
1749,17
1750,17
1751,17
1752,17
1753,17
1754,17
1755,17
1756,17
1757,17
1758,17
1759,17
1760,17
1761,17
1762,17
1763,17
1764,17
1765,17
1766,17
1767,17
1768,17
1769,17
1770,17
1771,17
1772,17
1773,17
1774,17
1775,17
1776,17
1777,17
1778,17
1779,17
1780,17
1781,17
1782,17
1783,17
1784,17
1785,17
1786,17
1787,17
1788,17
1789,17
1790,17
1791,17
1792,17
1793,17
1794,17
1795,17
1796,17
1797,17
1798,17
1799,17
1800,17
1801,17
1802,17
1803,17
1804,17
1805,17
1806,17
1807,17
1808,17
1809,17
1810,17
1811,17
1812,17
1813,17
1814,17
1815,17
1816,17
1817,17
1818,17
1819,17
1820,17
1821,17
1822,17
1823,17
1824,17
1825,17
1826,19
1827,18
1828,18
1829,18
1830,17
1831,17
1832,17
1833,17
1834,17
1835,17
1836,17
1837,17
1838,17
1839,17
1840,17
1841,17
1842,17
1843,17
1844,17
1845,17
1846,17
1847,17
1848,17
1849,17
1850,17
1851,17
1852,17
1853,17
1854,17
1855,17
1856,17
1857,17
1858,17
1859,17
1860,17
1861,17
1862,17
1863,17
1864,17
1865,17
1866,17
1867,17
1868,17
1869,17
1870,17
1871,17
1872,17
1873,17
1874,17
1875,17
1876,17
1877,17
1878,17
1879,17
1880,17
1881,17
1882,17
1883,17
1884,17
1885,17
1886,17
1887,17
1888,17
1889,17
1890,17
1891,17
1892,17
1893,17
1894,17
1895,17
1896,17
1897,17
1898,17
1899,17
1900,17
1901,17
1902,18
1903,18
1904,18
1905,17
1906,17
1907,17
1908,17
1909,17
1910,17
1911,17
1912,17
1913,17
1914,17
1915,17
1916,17
1917,17
1918,17
1919,17
1920,17
1921,17
1922,17
1923,17
1924,17
1925,17
1926,17
1927,17
1928,17
1929,17
1930,17
1931,17
1932,17
1933,17
1934,17
1935,17
1936,17
1937,17
1938,17
1939,17
1940,17
1941,17
1942,17
1943,17
1944,17
1945,17
1946,17
1947,17
1948,17
1949,17
1950,17
1951,17
1952,17
1953,17
1954,17
1955,17
1956,17
1957,17
1958,17
1959,17
1960,17
1961,17
1962,17
1963,17
1964,17
1965,17
1966,17
1967,17
1968,17
1969,17
1970,17
1971,17
1972,17
1973,17
1974,17
1975,17
1976,17
1977,17
1978,17
1979,17
1980,17
1981,17
1982,17
1983,17
1984,17
1985,17
1986,17
1987,17
1988,17
1989,17
1990,17
1991,17
1992,17
1993,17
1994,17
1995,17
1996,17
1997,17
1998,17
1999,17
2000,17
2001,17
2002,17
2003,17
2004,17
2005,17
2006,17
2007,17
2008,17
2009,17
2010,17
2011,17
2012,17
2013,17
2014,17
2015,17
2016,17
2017,17
2018,17
2019,17
2020,17
2021,17
2022,17
2023,17
2024,17
2025,17
2026,17
2027,17
2028,17
2029,17
2030,17
2031,17
2032,17
2033,17
2034,17
2035,17
2036,17
2037,17
2038,17
2039,17
2040,17
2041,17
2042,17
2043,17
2044,17
2045,17
2046,17
2047,17
2048,17
2049,17
2050,17
2051,17
2052,17
2053,17
2054,17
2055,17
2056,18
2057,17
2058,17
2059,17
2060,17
2061,17
2062,17
2063,17
2064,17
2065,17
2066,17
2067,17
2068,17
2069,17
2070,17
2071,17
2072,17
2073,17
2074,17
2075,17
2076,17
2077,17
2078,17
2079,17
2080,17
2081,17
2082,17
2083,17
2084,17
2085,17
2086,17
2087,17
2088,17
2089,17
2090,17
2091,17
2092,17
2093,17
2094,17
2095,17
2096,17
2097,18
2098,17
2099,17
2100,17
2101,18
2102,18
2103,18
2104,18
2105,18
2106,18
2107,17
2108,17
2109,17
2110,17
2111,17
2112,17
2113,17
2114,17
2115,17
2116,17
2117,17
2118,17
2119,17
2120,17
2121,17
2122,17
2123,17
2124,17
2125,17
2126,17
2127,17
2128,17
2129,17
2130,17
2131,17
2132,17
2133,17
2134,17
2135,17
2136,17
2137,17
2138,17
2139,17
2140,17
2141,17
2142,17
2143,17
2144,18
2145,17
2146,17
2147,17
2148,17
2149,17
2150,17
2151,17
2152,17
2153,17
2154,17
2155,17
2156,17
2157,17
2158,17
2159,17
2160,17
2161,17
2162,17
2163,17
2164,17
2165,17
2166,17
2167,17
2168,17
2169,17
2170,17
2171,17
2172,17
2173,17
2174,17
2175,17
2176,17
2177,17
2178,17
2179,17
2180,17
2181,17
2182,17
2183,17
2184,17
2185,17
2186,17
2187,17
2188,17
2189,17
2190,17
2191,17
2192,17
2193,17
2194,17
2195,17
2196,17
2197,17
2198,17
2199,17
2200,17
2201,17
2202,17
2203,17
2204,17
2205,17
2206,17
2207,17
2208,17
2209,17
2210,17
2211,17
2212,17
2213,17
2214,17
2215,17
2216,17
2217,17
2218,17
2219,17
2220,17
2221,17
2222,17
2223,17
2224,17
2225,17
2226,17
2227,17
2228,17
2229,17
2230,17
2231,17
2232,17
2233,17
2234,17
2235,17
2236,17
2237,17
2238,17
2239,17
2240,17
2241,17
2242,17
2243,17
2244,17
2245,17
2246,17
2247,17
2248,17
2249,17
2250,17
2251,17
2252,17
2253,17
2254,17
2255,17
2256,17
2257,17
2258,17
2259,17
2260,17
2261,17
2262,17
2263,17
2264,17
2265,17
2266,17
2267,17
2268,17
2269,17
2270,17
2271,17
2272,17
2273,17
2274,17
2275,17
2276,17
2277,17
2278,17
2279,17
2280,17
2281,17
2282,17
2283,17
2284,17
2285,17
2286,17
2287,17
2288,17
2289,17
2290,17
2291,17
2292,17
2293,17
2294,17
2295,17
2296,17
2297,17
2298,17
2299,17
2300,17
2301,17
2302,18
2303,18
2304,18
2305,18
2306,18
2307,18
2308,18
2309,18
2310,18
2311,18
2312,18
2313,19
2314,19
2315,18
2316,18
2317,18
2318,18
2319,18
2320,18
2321,18
2322,18
2323,18
2324,18
2325,18
2326,18
2327,18
2328,18
2329,18
2330,18
2331,18
2332,18
2333,18
2334,18
2335,18
2336,18
2337,17
2338,17
2339,17
2340,17
2341,17
2342,17
2343,17
2344,17
2345,17
2346,17
2347,17
2348,17
2349,17
2350,17
2351,17
2352,17
2353,17
2354,17
2355,17
2356,17
2357,17
2358,17
2359,17
2360,17
2361,17
2362,17
2363,18
2364,18
2365,17
2366,17
2367,17
2368,17
2369,17
2370,17
2371,17
2372,17
2373,17
2374,17
2375,17
2376,18
2377,18
2378,17
2379,17
2380,17
2381,17
2382,17
2383,17
2384,17
2385,17
2386,17
2387,17
2388,17
2389,17
2390,17
2391,17
2392,18
2393,18
2394,18
2395,17
2396,17
2397,17
2398,17
2399,17
2400,17
2401,17
2402,17
2403,17
2404,17
2405,17
2406,17
2407,17
2408,17
2409,17
2410,17
2411,17
2412,17
2413,17
2414,17
2415,17
2416,17
2417,17
2418,17
2419,17
2420,17
2421,17
2422,17
2423,17
2424,17
2425,17
2426,17
2427,17
2428,17
2429,17
2430,17
2431,17
2432,17
2433,17
2434,17
2435,17
2436,17
2437,17
2438,18
2439,18
2440,18
2441,18
2442,18
2443,17
2444,17
2445,17
2446,17
2447,17
2448,17
2449,17
2450,17
2451,17
2452,17
2453,17
2454,17
2455,17
2456,17
2457,17
2458,17
2459,17
2460,17
2461,17
2462,17
2463,17
2464,17
2465,17
2466,17
2467,17
2468,17
2469,17
2470,17
2471,17
2472,17
2473,18
2474,18
2475,18
2476,17
2477,17
2478,17
2479,17
2480,17
2481,17
2482,17
2483,17
2484,17
2485,17
2486,17
2487,17
2488,17
2489,17
2490,17
2491,17
2492,17
2493,17
2494,17
2495,17
2496,17
2497,17
2498,17
2499,17
2500,17
2501,17
2502,17
2503,17
2504,17
2505,17
2506,17
2507,17
2508,17
2509,17
2510,17
2511,17
2512,17
2513,17
2514,17
2515,17
2516,17
2517,17
2518,17
2519,17
2520,17
2521,17
2522,17
2523,17
2524,17
2525,17
2526,17
2527,17
2528,17
2529,17
2530,17
2531,17
2532,17
2533,17
2534,17
2535,17
2536,17
2537,17
2538,17
2539,17
2540,17
2541,17
2542,17
2543,17
2544,17
2545,17
2546,17
2547,17
2548,17
2549,17
2550,17
2551,17
2552,17
2553,17
2554,17
2555,17
2556,17
2557,17
2558,17
2559,17
2560,18
2561,18
2562,18
2563,18
2564,18
2565,17
2566,18
2567,17
2568,17
2569,17
2570,17
2571,17
2572,17
2573,17
2574,17
2575,17
2576,17
2577,17
2578,17
2579,17
2580,17
2581,17
2582,17
2583,17
2584,18
2585,18
2586,18
2587,18
2588,18
2589,18
2590,18
2591,18
2592,18
2593,18
2594,18
2595,18
2596,18
2597,18
2598,18
2599,18
2600,18
2601,18
2602,18
2603,18
2604,18
2605,18
2606,18
2607,18
2608,18
2609,18
2610,18
2611,18
2612,18
2613,18
2614,18
2615,18
2616,18
2617,18
2618,18
2619,18
2620,18
2621,18
2622,18
2623,18
2624,18
2625,19
2626,18
2627,18
2628,18
2629,18
2630,18
2631,18
2632,18
2633,18
2634,18
2635,18
2636,18
2637,18
2638,18
2639,18
2640,18
2641,18
2642,18
2643,18
2644,18
2645,18
2646,18
2647,18
2648,18
2649,18
2650,18
2651,18
2652,18
2653,18
2654,18
2655,18
2656,18
2657,18
2658,18
2659,18
2660,18
2661,18
2662,18
2663,18
2664,18
2665,18
2666,18
2667,18
2668,18
2669,18
2670,18
2671,18
2672,18
2673,18
2674,18
2675,18
2676,18
2677,18
2678,18
2679,18
2680,18
2681,18
2682,18
2683,18
2684,18
2685,18
2686,18
2687,18
2688,18
2689,18
2690,18
2691,18
2692,18
2693,18
2694,18
2695,18
2696,18
2697,18
2698,18
2699,18
2700,18
2701,18
2702,18
2703,18
2704,18
2705,18
2706,18
2707,18
2708,18
2709,18
2710,18
2711,18
2712,18
2713,18
2714,18
2715,18
2716,18
2717,18
2718,18
2719,18
2720,18
2721,18
2722,18
2723,18
2724,18
2725,18
2726,18
2727,18
2728,18
2729,18
2730,18
2731,18
2732,18
2733,18
2734,18
2735,18
2736,18
2737,18
2738,18
2739,18
2740,18
2741,18
2742,18
2743,18
2744,18
2745,18
2746,18
2747,18
2748,18
2749,18
2750,18
2751,18
2752,18
2753,18
2754,18
2755,18
2756,18
2757,18
2758,18
2759,18
2760,18
2761,18
2762,18
2763,18
2764,18
2765,18
2766,18
2767,18
2768,18
2769,18
2770,18
2771,19
2772,18
2773,18
2774,18
2775,18
2776,18
2777,18
2778,18
2779,18
2780,18
2781,18
2782,18
2783,18
2784,18
2785,18
2786,18
2787,18
2788,18
2789,18
2790,18
2791,18
2792,18
2793,18
2794,18
2795,18
2796,18
2797,18
2798,18
2799,18
2800,18
2801,18
2802,18
2803,18
2804,18
2805,18
2806,18
2807,18
2808,18
2809,18
2810,18
2811,18
2812,18
2813,18
2814,18
2815,18
2816,18
2817,18
2818,18
2819,18
2820,18
2821,18
2822,18
2823,18
2824,18
2825,18
2826,18
2827,18
2828,18
2829,18
2830,18
2831,18
2832,18
2833,18
2834,18
2835,18
2836,18
2837,18
2838,18
2839,18
2840,18
2841,18
2842,18
2843,18
2844,18
2845,18
2846,18
2847,18
2848,18
2849,18
2850,18
2851,18
2852,18
2853,18
2854,18
2855,18
2856,18
2857,18
2858,18
2859,18
2860,18
2861,18
2862,18
2863,18
2864,18
2865,18
2866,18
2867,18
2868,18
2869,18
2870,18
2871,18
2872,18
2873,18
2874,18
2875,18
2876,18
2877,18
2878,18
2879,18
2880,18
2881,18
2882,18
2883,18
2884,18
2885,18
2886,18
2887,18
2888,18
2889,18
2890,18
2891,18
2892,18
2893,18
2894,18
2895,18
2896,18
2897,18
2898,18
2899,18
2900,18
2901,18
2902,18
2903,18
2904,18
2905,18
2906,18
2907,18
2908,18
2909,18
2910,18
2911,18
2912,18
2913,18
2914,18
2915,18
2916,18
2917,18
2918,18
2919,18
2920,18
2921,18
2922,18
2923,18
2924,18
2925,18
2926,18
2927,18
2928,18
2929,18
2930,18
2931,18
2932,18
2933,18
2934,18
2935,18
2936,18
2937,18
2938,18
2939,18
2940,18
2941,18
2942,18
2943,18
2944,18
2945,18
2946,18
2947,18
2948,18
2949,18
2950,18
2951,18
2952,18
2953,18
2954,18
2955,18
2956,18
2957,18
2958,18
2959,18
2960,18
2961,18
2962,18
2963,18
2964,18
2965,18
2966,18
2967,18
2968,18
2969,18
2970,18
2971,18
2972,18
2973,18
2974,18
2975,18
2976,18
2977,18
2978,18
2979,18
2980,18
2981,18
2982,18
2983,18
2984,18
2985,18
2986,18
2987,18
2988,18
2989,18
2990,18
2991,18
2992,18
2993,18
2994,19
2995,18
2996,18
2997,18
2998,18
2999,18
3000,18
3001,18
3002,18
3003,18
3004,18
3005,18
3006,18
3007,18
3008,18
3009,18
3010,18
3011,18
3012,18
3013,18
3014,18
3015,18
3016,18
3017,19
3018,18
3019,18
3020,18
3021,18
3022,18
3023,18
3024,18
3025,18
3026,18
3027,18
3028,18
3029,18
3030,18
3031,18
3032,18
3033,18
3034,18
3035,18
3036,18
3037,18
3038,18
3039,18
3040,18
3041,18
3042,18
3043,18
3044,18
3045,18
3046,18
3047,18
3048,18
3049,18
3050,18
3051,18
3052,18
3053,18
3054,18
3055,18
3056,18
3057,18
3058,18
3059,18
3060,18
3061,18
3062,18
3063,18
3064,18
3065,18
3066,18
3067,18
3068,18
3069,19
3070,19
3071,19
3072,19
3073,19
3074,19
3075,18
3076,18
3077,18
3078,18
3079,18
3080,18
3081,18
3082,18
3083,18
3084,18
3085,18
3086,18
3087,18
3088,18
3089,18
3090,18
3091,18
3092,18
3093,18
3094,18
3095,18
3096,18
3097,18
3098,18
3099,18
3100,18
3101,18
3102,18
3103,18
3104,18
3105,18
3106,18
3107,18
3108,18
3109,18
3110,18
3111,18
3112,18
3113,18
3114,18
3115,18
3116,18
3117,18
3118,18
3119,18
3120,18
3121,18
3122,18
3123,18
3124,18
3125,18
3126,18
3127,18
3128,18
3129,18
3130,18
3131,18
3132,18
3133,18
3134,18
3135,18
3136,18
3137,18
3138,18
3139,18
3140,18
3141,18
3142,18
3143,18
3144,18
3145,18
3146,18
3147,18
3148,18
3149,18
3150,18
3151,18
3152,18
3153,18
3154,18
3155,18
3156,18
3157,18
3158,18
3159,18
3160,18
3161,18
3162,18
3163,18
3164,18
3165,18
3166,18
3167,18
3168,18
3169,18
3170,18
3171,18
3172,18
3173,18
3174,18
3175,18
3176,18
3177,18
3178,18
3179,19
3180,19
3181,18
3182,18
3183,18
3184,18
3185,18
3186,18
3187,18
3188,18
3189,18
3190,18
3191,18
3192,19
3193,19
3194,18
3195,18
3196,18
3197,18
3198,18
3199,18
3200,18
3201,18
3202,18
3203,18
3204,18
3205,18
3206,18
3207,18
3208,18
3209,18
3210,18
3211,18
3212,18
3213,18
3214,18
3215,18
3216,18
3217,18
3218,18
3219,18
3220,18
3221,18
3222,18
3223,18
3224,18
3225,18
3226,18
3227,18
3228,18
3229,18
3230,18
3231,18
3232,18
3233,18
3234,18
3235,18
3236,18
3237,18
3238,18
3239,18
3240,19
3241,18
3242,18
3243,18
3244,18
3245,18
3246,18
3247,18
3248,18
3249,18
3250,18
3251,18
3252,18
3253,18
3254,18
3255,18
3256,18
3257,18
3258,18
3259,18
3260,18
3261,18
3262,18
3263,18
3264,18
3265,18
3266,18
3267,18
3268,18
3269,18
3270,18
3271,18
3272,18
3273,18
3274,18
3275,18
3276,18
3277,18
3278,18
3279,18
3280,18
3281,18
3282,18
3283,18
3284,18
3285,18
3286,18
3287,18
3288,18
3289,18
3290,18
3291,18
3292,18
3293,18
3294,18
3295,18
3296,18
3297,18
3298,18
3299,19
3300,18
3301,18
3302,18
3303,18
3304,18
3305,18
3306,18
3307,18
3308,18
3309,18
3310,18
3311,18
3312,18
3313,18
3314,18
3315,18
3316,18
3317,18
3318,18
3319,18
3320,18
3321,18
3322,18
3323,18
3324,18
3325,18
3326,18
3327,18
3328,18
3329,18
3330,18
3331,18
3332,18
3333,18
3334,18
3335,18
3336,18
3337,19
3338,19
3339,18
3340,18
3341,18
3342,18
3343,18
3344,18
3345,18
3346,18
3347,18
3348,18
3349,18
3350,18
3351,18
3352,18
3353,18
3354,18
3355,18
3356,18
3357,18
3358,18
3359,18
3360,18
3361,18
3362,18
3363,18
3364,18
3365,18
3366,18
3367,18
3368,18
3369,18
3370,18
3371,18
3372,18
3373,18
3374,18
3375,18
3376,18
3377,18
3378,18
3379,18
3380,18
3381,18
3382,18
3383,18
3384,18
3385,19
3386,18
3387,18
3388,18
3389,18
3390,18
3391,18
3392,18
3393,18
3394,18
3395,18
3396,18
3397,18
3398,18
3399,18
3400,18
3401,18
3402,18
3403,18
3404,18
3405,18
3406,18
3407,18
3408,18
3409,18
3410,18
3411,18
3412,18
3413,18
3414,18
3415,18
3416,18
3417,18
3418,18
3419,18
3420,18
3421,18
3422,18
3423,18
3424,18
3425,18
3426,18
3427,18
3428,18
3429,18
3430,18
3431,18
3432,18
3433,18
3434,18
3435,18
3436,18
3437,18
3438,18
3439,18
3440,18
3441,18
3442,18
3443,18
3444,18
3445,18
3446,18
3447,18
3448,18
3449,19
3450,19
3451,19
3452,19
3453,19
3454,19
3455,19
3456,19
3457,19
3458,19
3459,19
3460,19
3461,19
3462,19
3463,19
3464,20
3465,19
3466,19
3467,19
3468,19
3469,19
3470,19
3471,19
3472,19
3473,19
3474,19
3475,19
3476,20
3477,20
3478,19
3479,19
3480,19
3481,19
3482,19
3483,19
3484,19
3485,19
3486,19
3487,19
3488,19
3489,19
3490,19
3491,19
3492,19
3493,19
3494,19
3495,19
3496,19
3497,18
3498,18
3499,18
3500,18
3501,18
3502,18
3503,18
3504,18
3505,18
3506,18
3507,18
3508,18
3509,18
3510,18
3511,18
3512,18
3513,18
3514,18
3515,18
3516,18
3517,18
3518,18
3519,18
3520,18
3521,18
3522,18
3523,18
3524,18
3525,18
3526,18
3527,18
3528,18
3529,18
3530,18
3531,18
3532,18
3533,18
3534,18
3535,18
3536,18
3537,18
3538,18
3539,18
3540,18
3541,18
3542,18
3543,18
3544,18
3545,18
3546,18
3547,18
3548,18
3549,18
3550,18
3551,18
3552,18
3553,18
3554,18
3555,18
3556,18
3557,18
3558,18
3559,18
3560,18
3561,18
3562,18
3563,18
3564,18
3565,18
3566,18
3567,18
3568,18
3569,18
3570,18
3571,18
3572,18
3573,18
3574,18
3575,18
3576,18
3577,18
3578,18
3579,18
3580,18
3581,18
3582,18
3583,18
3584,18
3585,18
3586,18
3587,18
3588,18
3589,18
3590,18
3591,18
3592,18
3593,18
3594,18
3595,18
3596,18
3597,18
3598,18
3599,18
3600,18
3601,18
3602,18
3603,18
3604,18
3605,18
3606,18
3607,18
3608,18
3609,18
3610,18
3611,18
3612,18
3613,18
3614,18
3615,18
3616,18
3617,18
3618,18
3619,18
3620,18
3621,18
3622,18
3623,18
3624,18
3625,18
3626,18
3627,18
3628,18
3629,18
3630,18
3631,18
3632,18
3633,18
3634,18
3635,18
3636,18
3637,18
3638,18
3639,18
3640,18
3641,18
3642,18
3643,18
3644,18
3645,18
3646,18
3647,18
3648,18
3649,18
3650,18
3651,18
3652,18
3653,18
3654,18
3655,18
3656,18
3657,18
3658,18
3659,18
3660,18
3661,18
3662,18
3663,18
3664,18
3665,18
3666,19
3667,19
3668,19
3669,19
3670,19
3671,18
3672,18
3673,18
3674,18
3675,18
3676,18
3677,18
3678,18
3679,18
3680,18
3681,18
3682,18
3683,18
3684,18
3685,18
3686,18
3687,18
3688,18
3689,18
3690,18
3691,18
3692,18
3693,18
3694,18
3695,18
3696,18
3697,18
3698,18
3699,18
3700,18
3701,18
3702,18
3703,18
3704,18
3705,18
3706,18
3707,18
3708,18
3709,18
3710,18
3711,18
3712,18
3713,18
3714,18
3715,18
3716,18
3717,18
3718,18
3719,18
3720,18
3721,18
3722,18
3723,18
3724,18
3725,18
3726,18
3727,18
3728,18
3729,18
3730,18
3731,18
3732,18
3733,18
3734,18
3735,18
3736,18
3737,18
3738,18
3739,18
3740,18
3741,18
3742,18
3743,18
3744,18
3745,18
3746,18
3747,18
3748,18
3749,18
3750,18
3751,18
3752,18
3753,18
3754,18
3755,18
3756,18
3757,18
3758,18
3759,18
3760,18
3761,18
3762,18
3763,18
3764,18
3765,18
3766,18
3767,18
3768,18
3769,18
3770,18
3771,18
3772,18
3773,18
3774,18
3775,18
3776,18
3777,18
3778,18
3779,18
3780,18
3781,18
3782,18
3783,19
3784,19
3785,19
3786,18
3787,18
3788,18
3789,18
3790,18
3791,18
3792,18
3793,18
3794,18
3795,18
3796,18
3797,18
3798,18
3799,18
3800,18
3801,18
3802,18
3803,18
3804,18
3805,18
3806,18
3807,18
3808,18
3809,18
3810,18
3811,18
3812,18
3813,18
3814,18
3815,18
3816,18
3817,18
3818,18
3819,18
3820,18
3821,18
3822,18
3823,18
3824,18
3825,18
3826,18
3827,18
3828,18
3829,18
3830,18
3831,18
3832,18
3833,18
3834,18
3835,18
3836,18
3837,18
3838,18
3839,18
3840,18
3841,18
3842,18
3843,18
3844,18
3845,18
3846,18
3847,18
3848,18
3849,18
3850,18
3851,18
3852,18
3853,18
3854,18
3855,18
3856,18
3857,18
3858,18
3859,18
3860,18
3861,18
3862,18
3863,18
3864,18
3865,18
3866,18
3867,18
3868,18
3869,18
3870,18
3871,18
3872,18
3873,18
3874,18
3875,18
3876,18
3877,18
3878,18
3879,18
3880,18
3881,18
3882,18
3883,18
3884,18
3885,18
3886,18
3887,18
3888,18
3889,18
3890,18
3891,18
3892,18
3893,18
3894,18
3895,18
3896,18
3897,18
3898,18
3899,18
3900,18
3901,18
3902,18
3903,18
3904,18
3905,18
3906,18
3907,18
3908,18
3909,18
3910,18
3911,18
3912,18
3913,18
3914,18
3915,18
3916,18
3917,18
3918,18
3919,18
3920,18
3921,18
3922,18
3923,19
3924,19
3925,19
3926,19
3927,18
3928,18
3929,18
3930,18
3931,18
3932,18
3933,18
3934,18
3935,18
3936,18
3937,18
3938,18
3939,18
3940,18
3941,18
3942,18
3943,18
3944,18
3945,18
3946,18
3947,18
3948,18
3949,18
3950,18
3951,18
3952,18
3953,18
3954,18
3955,18
3956,18
3957,18
3958,18
3959,18
3960,18
3961,18
3962,18
3963,18
3964,18
3965,18
3966,18
3967,18
3968,18
3969,18
3970,18
3971,18
3972,18
3973,18
3974,19
3975,19
3976,19
3977,19
3978,19
3979,19
3980,19
3981,19
3982,19
3983,19
3984,18
3985,18
3986,18
3987,18
3988,18
3989,18
3990,18
3991,18
3992,18
3993,18
3994,18
3995,18
3996,18
3997,18
3998,18
3999,18
4000,18
4001,18
4002,18
4003,18
4004,18
4005,18
4006,18
4007,18
4008,18
4009,18
4010,18
4011,18
4012,18
4013,18
4014,18
4015,18
4016,18
4017,18
4018,18
4019,18
4020,18
4021,18
4022,18
4023,18
4024,18
4025,18
4026,18
4027,18
4028,18
4029,18
4030,18
4031,18
4032,18
4033,18
4034,18
4035,18
4036,18
4037,18
4038,18
4039,18
4040,18
4041,18
4042,18
4043,18
4044,18
4045,18
4046,18
4047,18
4048,18
4049,18
4050,18
4051,18
4052,18
4053,18
4054,18
4055,18
4056,18
4057,18
4058,18
4059,18
4060,18
4061,18
4062,18
4063,18
4064,18
4065,18
4066,18
4067,18
4068,18
4069,18
4070,18
4071,18
4072,18
4073,18
4074,18
4075,18
4076,18
4077,18
4078,18
4079,18
4080,18
4081,19
4082,19
4083,19
4084,19
4085,18
4086,18
4087,18
4088,18
4089,18
4090,18
4091,18
4092,18
4093,18
4094,18
4095,18
4096,18
4097,18
4098,18
4099,18
4100,18
4101,18
4102,18
4103,18
4104,18
4105,18
4106,18
4107,18
4108,18
4109,18
4110,18
4111,18
4112,18
4113,18
4114,18
4115,18
4116,18
4117,18
4118,18
4119,18
4120,18
4121,18
4122,18
4123,18
4124,18
4125,18
4126,18
4127,18
4128,18
4129,18
4130,18
4131,18
4132,18
4133,18
4134,18
4135,18
4136,18
4137,18
4138,18
4139,19
4140,19
4141,19
4142,19
4143,19
4144,19
4145,19
4146,19
4147,19
4148,19
4149,19
4150,19
4151,19
4152,19
4153,19
4154,18
4155,18
4156,18
4157,18
4158,18
4159,18
4160,18
4161,18
4162,18
4163,18
4164,18
4165,18
4166,18
4167,18
4168,18
4169,18
4170,18
4171,18
4172,18
4173,18
4174,18
4175,18
4176,18
4177,18
4178,18
4179,18
4180,18
4181,18
4182,18
4183,18
4184,18
4185,18
4186,18
4187,18
4188,18
4189,18
4190,18
4191,18
4192,18
4193,19
4194,19
4195,18
4196,18
4197,18
4198,18
4199,18
4200,18
4201,18
4202,18
4203,18
4204,18
4205,18
4206,18
4207,18
4208,18
4209,18
4210,18
4211,18
4212,18
4213,18
4214,18
4215,18
4216,18
4217,18
4218,18
4219,18
4220,18
4221,18
4222,18
4223,18
4224,18
4225,18
4226,18
4227,18
4228,18
4229,18
4230,18
4231,18
4232,18
4233,18
4234,18
4235,18
4236,18
4237,18
4238,18
4239,18
4240,18
4241,18
4242,18
4243,18
4244,18
4245,18
4246,18
4247,18
4248,18
4249,18
4250,18
4251,18
4252,18
4253,18
4254,18
4255,18
4256,18
4257,18
4258,18
4259,18
4260,18
4261,18
4262,18
4263,18
4264,18
4265,18
4266,18
4267,18
4268,18
4269,18
4270,18
4271,18
4272,18
4273,18
4274,18
4275,18
4276,18
4277,18
4278,18
4279,18
4280,18
4281,18
4282,18
4283,18
4284,18
4285,18
4286,18
4287,18
4288,18
4289,18
4290,18
4291,18
4292,18
4293,18
4294,18
4295,18
4296,18
4297,18
4298,18
4299,18
4300,18
4301,18
4302,18
4303,18
4304,18
4305,18
4306,18
4307,18
4308,18
4309,18
4310,18
4311,18
4312,18
4313,18
4314,18
4315,18
4316,18
4317,18
4318,18
4319,18
4320,18
4321,18
4322,18
4323,18
4324,18
4325,18
4326,18
4327,18
4328,18
4329,18
4330,18
4331,18
4332,18
4333,18
4334,18
4335,18
4336,18
4337,18
4338,18
4339,18
4340,18
4341,19
4342,19
4343,18
4344,18
4345,18
4346,18
4347,18
4348,18
4349,18
4350,18
4351,18
4352,18
4353,18
4354,18
4355,18
4356,18
4357,18
4358,18
4359,18
4360,18
4361,18
4362,18
4363,18
4364,18
4365,18
4366,18
4367,18
4368,18
4369,18
4370,18
4371,18
4372,18
4373,18
4374,18
4375,18
4376,18
4377,18
4378,18
4379,18
4380,18
4381,18
4382,18
4383,18
4384,18
4385,18
4386,18
4387,18
4388,18
4389,18
4390,18
4391,18
4392,18
4393,18
4394,18
4395,18
4396,18
4397,18
4398,18
4399,18
4400,18
4401,18
4402,18
4403,18
4404,18
4405,18
4406,18
4407,18
4408,18
4409,18
4410,18
4411,18
4412,18
4413,18
4414,18
4415,18
4416,18
4417,18
4418,18
4419,18
4420,18
4421,18
4422,18
4423,18
4424,18
4425,18
4426,18
4427,19
4428,19
4429,19
4430,18
4431,18
4432,18
4433,18
4434,18
4435,18
4436,18
4437,18
4438,18
4439,18
4440,18
4441,18
4442,18
4443,18
4444,18
4445,18
4446,18
4447,18
4448,18
4449,18
4450,18
4451,18
4452,18
4453,18
4454,18
4455,18
4456,18
4457,18
4458,18
4459,18
4460,18
4461,18
4462,18
4463,18
4464,18
4465,18
4466,18
4467,18
4468,18
4469,18
4470,18
4471,18
4472,18
4473,18
4474,18
4475,18
4476,18
4477,18
4478,18
4479,18
4480,18
4481,18
4482,18
4483,18
4484,18
4485,18
4486,18
4487,18
4488,18
4489,19
4490,19
4491,18
4492,18
4493,18
4494,18
4495,18
4496,18
4497,18
4498,18
4499,18
4500,18
4501,18
4502,18
4503,18
4504,18
4505,18
4506,18
4507,18
4508,18
4509,18
4510,18
4511,18
4512,18
4513,18
4514,18
4515,18
4516,18
4517,18
4518,18
4519,18
4520,18
4521,18
4522,18
4523,18
4524,18
4525,18
4526,18
4527,18
4528,18
4529,18
4530,18
4531,18
4532,18
4533,18
4534,18
4535,18
4536,18
4537,18
4538,18
4539,18
4540,18
4541,18
4542,18
4543,18
4544,18
4545,18
4546,18
4547,18
4548,18
4549,18
4550,18
4551,18
4552,18
4553,18
4554,18
4555,18
4556,18
4557,18
4558,18
4559,18
4560,18
4561,18
4562,18
4563,18
4564,19
4565,19
4566,18
4567,18
4568,18
4569,18
4570,18
4571,19
4572,19
4573,19
4574,19
4575,19
4576,19
4577,19
4578,19
4579,19
4580,19
4581,19
4582,19
4583,19
4584,19
4585,19
4586,19
4587,19
4588,19
4589,19
4590,19
4591,19
4592,19
4593,19
4594,19
4595,19
4596,19
4597,19
4598,19
4599,19
4600,19
4601,19
4602,18
4603,18
4604,18
4605,19
4606,18
4607,18
4608,18
4609,18
4610,18
4611,18
4612,18
4613,18
4614,18
4615,18
4616,18
4617,18
4618,18
4619,18
4620,18
4621,18
4622,18
4623,18
4624,18
4625,18
4626,18
4627,18
4628,18
4629,18
4630,18
4631,18
4632,18
4633,18
4634,18
4635,18
4636,18
4637,18
4638,18
4639,18
4640,18
4641,18
4642,18
4643,18
4644,18
4645,18
4646,18
4647,18
4648,18
4649,18
4650,18
4651,19
4652,19
4653,18
4654,18
4655,18
4656,18
4657,18
4658,18
4659,18
4660,18
4661,18
4662,18
4663,18
4664,18
4665,18
4666,18
4667,18
4668,18
4669,18
4670,18
4671,18
4672,18
4673,18
4674,18
4675,18
4676,18
4677,18
4678,18
4679,18
4680,18
4681,18
4682,18
4683,18
4684,18
4685,18
4686,18
4687,18
4688,18
4689,18
4690,18
4691,18
4692,18
4693,18
4694,18
4695,18
4696,18
4697,18
4698,18
4699,18
4700,18
4701,18
4702,18
4703,18
4704,18
4705,18
4706,18
4707,18
4708,18
4709,18
4710,18
4711,18
4712,18
4713,18
4714,18
4715,18
4716,18
4717,18
4718,18
4719,18
4720,18
4721,18
4722,18
4723,18
4724,18
4725,18
4726,18
4727,18
4728,18
4729,18
4730,18
4731,18
4732,18
4733,18
4734,18
4735,18
4736,18
4737,18
4738,18
4739,18
4740,18
4741,18
4742,18
4743,18
4744,18
4745,18
4746,18
4747,18
4748,18
4749,18
4750,18
4751,18
4752,18
4753,18
4754,18
4755,18
4756,18
4757,18
4758,18
4759,18
4760,18
4761,18
4762,18
4763,18
4764,18
4765,19
4766,18
4767,18
4768,18
4769,18
4770,18
4771,18
4772,18
4773,18
4774,18
4775,18
4776,18
4777,18
4778,18
4779,18
4780,18
4781,18
4782,18
4783,18
4784,18
4785,18
4786,18
4787,18
4788,18
4789,18
4790,18
4791,18
4792,18
4793,18
4794,18
4795,18
4796,18
4797,19
4798,18
4799,18
4800,18
4801,18
4802,18
4803,18
4804,18
4805,18
4806,18
4807,18
4808,18
4809,18
4810,18
4811,18
4812,18
4813,18
4814,18
4815,18
4816,18
4817,18
4818,18
4819,18
4820,18
4821,18
4822,18
4823,18
4824,18
4825,18
4826,18
4827,18
4828,18
4829,18
4830,18
4831,18
4832,18
4833,18
4834,18
4835,18
4836,18
4837,18
4838,18
4839,18
4840,19
4841,19
4842,18
4843,18
4844,18
4845,18
4846,18
4847,18
4848,18
4849,18
4850,18
4851,18
4852,18
4853,18
4854,18
4855,18
4856,18
4857,18
4858,18
4859,18
4860,18
4861,18
4862,18
4863,18
4864,18
4865,18
4866,18
4867,18
4868,18
4869,18
4870,18
4871,18
4872,18
4873,18
4874,18
4875,18
4876,18
4877,18
4878,18
4879,18
4880,18
4881,18
4882,18
4883,18
4884,18
4885,18
4886,18
4887,18
4888,18
4889,18
4890,18
4891,18
4892,18
4893,18
4894,18
4895,18
4896,18
4897,18
4898,18
4899,19
4900,19
4901,19
4902,19
4903,19
4904,18
4905,18
4906,18
4907,18
4908,18
4909,18
4910,18
4911,18
4912,18
4913,18
4914,18
4915,18
4916,18
4917,18
4918,18
4919,18
4920,18
4921,18
4922,18
4923,18
4924,18
4925,18
4926,18
4927,18
4928,18
4929,18
4930,18
4931,18
4932,18
4933,18
4934,18
4935,18
4936,18
4937,18
4938,18
4939,18
4940,18
4941,18
4942,18
4943,18
4944,18
4945,18
4946,18
4947,19
4948,18
4949,18
4950,18
4951,18
4952,18
4953,18
4954,18
4955,18
4956,19
4957,18
4958,18
4959,18
4960,18
4961,18
4962,18
4963,18
4964,18
4965,18
4966,18
4967,18
4968,18
4969,18
4970,18
4971,18
4972,18
4973,18
4974,18
4975,18
4976,18
4977,18
4978,18
4979,18
4980,18
4981,18
4982,18
4983,18
4984,18
4985,18
4986,18
4987,19
4988,19
4989,18
4990,18
4991,18
4992,18
4993,18
4994,18
4995,18
4996,18
4997,18
4998,18
4999,18
5000,18
5001,18
5002,18
5003,18
5004,19
5005,18
5006,18
5007,18
5008,18
5009,18
5010,18
5011,18
5012,18
5013,18
5014,18
5015,18
5016,18
5017,18
5018,18
5019,18
5020,18
5021,18
5022,18
5023,18
5024,18
5025,18
5026,18
5027,18
5028,18
5029,18
5030,18
5031,18
5032,18
5033,18
5034,18
5035,18
5036,18
5037,18
5038,18
5039,18
5040,18
5041,18
5042,18
5043,18
5044,18
5045,18
5046,18
5047,18
5048,19
5049,18
5050,18
5051,18
5052,18
5053,18
5054,18
5055,18
5056,18
5057,18
5058,18
5059,18
5060,18
5061,18
5062,18
5063,18
5064,18
5065,18
5066,18
5067,18
5068,18
5069,18
5070,18
5071,18
5072,18
5073,18
5074,18
5075,18
5076,18
5077,18
5078,18
5079,18
5080,18
5081,18
5082,18
5083,18
5084,18
5085,18
5086,18
5087,18
5088,18
5089,18
5090,18
5091,18
5092,18
5093,18
5094,18
5095,18
5096,18
5097,18
5098,18
5099,18
5100,18
5101,18
5102,18
5103,18
5104,18
5105,18
5106,18
5107,18
5108,18
5109,18
5110,18
5111,18
5112,18
5113,18
5114,18
5115,18
5116,18
5117,18
5118,18
5119,18
5120,18
5121,19
5122,18
5123,18
5124,18
5125,18
5126,18
5127,18
5128,18
5129,18
5130,18
5131,18
5132,18
5133,18
5134,18
5135,18
5136,18
5137,18
5138,18
5139,18
5140,18
5141,18
5142,18
5143,18
5144,18
5145,18
5146,19
5147,19
5148,19
5149,18
5150,18
5151,18
5152,18
5153,19
5154,18
5155,18
5156,18
5157,18
5158,18
5159,18
5160,18
5161,18
5162,18
5163,18
5164,18
5165,18
5166,18
5167,18
5168,18
5169,18
5170,18
5171,18
5172,18
5173,18
5174,18
5175,18
5176,18
5177,18
5178,18
5179,18
5180,18
5181,18
5182,18
5183,18
5184,18
5185,18
5186,18
5187,18
5188,18
5189,19
5190,18
5191,18
5192,18
5193,18
5194,18
5195,18
5196,18
5197,18
5198,18
5199,18
5200,18
5201,18
5202,18
5203,18
5204,18
5205,18
5206,18
5207,18
5208,18
5209,18
5210,18
5211,18
5212,18
5213,18
5214,18
5215,18
5216,18
5217,18
5218,18
5219,18
5220,18
5221,18
5222,18
5223,18
5224,18
5225,18
5226,18
5227,18
5228,18
5229,19
5230,19
5231,19
5232,19
5233,19
5234,19
5235,19
5236,19
5237,18
5238,18
5239,18
5240,18
5241,18
5242,18
5243,18
5244,18
5245,18
5246,18
5247,18
5248,18
5249,18
5250,18
5251,18
5252,18
5253,18
5254,19
5255,18
5256,18
5257,18
5258,18
5259,18
5260,18
5261,18
5262,18
5263,18
5264,18
5265,18
5266,18
5267,18
5268,18
5269,18
5270,18
5271,18
5272,18
5273,18
5274,18
5275,18
5276,18
5277,18
5278,18
5279,18
5280,18
5281,18
5282,18
5283,18
5284,18
5285,18
5286,18
5287,18
5288,18
5289,18
5290,18
5291,18
5292,18
5293,18
5294,18
5295,18
5296,18
5297,18
5298,18
5299,18
5300,18
5301,18
5302,18
5303,18
5304,18
5305,18
5306,19
5307,18
5308,18
5309,18
5310,18
5311,18
5312,18
5313,18
5314,18
5315,18
5316,18
5317,18
5318,18
5319,18
5320,18
5321,18
5322,18
5323,18
5324,18
5325,18
5326,18
5327,18
5328,18
5329,18
5330,18
5331,18
5332,18
5333,18
5334,18
5335,18
5336,18
5337,18
5338,18
5339,18
5340,18
5341,18
5342,18
5343,18
5344,18
5345,18
5346,18
5347,18
5348,18
5349,18
5350,18
5351,18
5352,18
5353,18
5354,18
5355,18
5356,18
5357,18
5358,18
5359,18
5360,18
5361,18
5362,18
5363,18
5364,18
5365,18
5366,18
5367,18
5368,18
5369,18
5370,18
5371,18
5372,18
5373,18
5374,18
5375,18
5376,18
5377,18
5378,18
5379,18
5380,18
5381,18
5382,18
5383,18
5384,18
5385,18
5386,18
5387,18
5388,18
5389,18
5390,18
5391,18
5392,18
5393,18
5394,18
5395,18
5396,18
5397,18
5398,18
5399,18
5400,18
5401,18
5402,18
5403,18
5404,18
5405,18
5406,18
5407,18
5408,18
5409,18
5410,18
5411,18
5412,18
5413,18
5414,18
5415,18
5416,18
5417,18
5418,18
5419,19
5420,19
5421,19
5422,18
5423,19
5424,18
5425,18
5426,18
5427,18
5428,18
5429,18
5430,18
5431,18
5432,18
5433,18
5434,18
5435,18
5436,18
5437,18
5438,18
5439,18
5440,18
5441,18
5442,18
5443,18
5444,18
5445,18
5446,18
5447,18
5448,18
5449,18
5450,18
5451,18
5452,18
5453,18
5454,18
5455,18
5456,18
5457,18
5458,18
5459,18
5460,18
5461,18
5462,18
5463,18
5464,18
5465,18
5466,18
5467,18
5468,18
5469,18
5470,18
5471,18
5472,18
5473,18
5474,18
5475,18
5476,18
5477,18
5478,18
5479,18
5480,18
5481,18
5482,18
5483,18
5484,18
5485,18
5486,18
5487,18
5488,18
5489,18
5490,18
5491,18
5492,18
5493,18
5494,18
5495,18
5496,18
5497,18
5498,18
5499,18
5500,18
5501,18
5502,18
5503,18
5504,18
5505,18
5506,18
5507,18
5508,18
5509,18
5510,18
5511,18
5512,18
5513,18
5514,18
5515,18
5516,18
5517,18
5518,18
5519,18
5520,18
5521,18
5522,18
5523,18
5524,18
5525,18
5526,18
5527,18
5528,18
5529,18
5530,18
5531,18
5532,18
5533,18
5534,18
5535,18
5536,18
5537,18
5538,18
5539,18
5540,18
5541,18
5542,18
5543,18
5544,18
5545,18
5546,18
5547,18
5548,18
5549,18
5550,18
5551,18
5552,18
5553,18
5554,18
5555,18
5556,18
5557,18
5558,18
5559,18
5560,18
5561,18
5562,18
5563,18
5564,18
5565,18
5566,18
5567,18
5568,18
5569,18
5570,18
5571,18
5572,18
5573,18
5574,18
5575,18
5576,18
5577,18
5578,18
5579,18
5580,18
5581,18
5582,18
5583,18
5584,18
5585,18
5586,18
5587,18
5588,18
5589,18
5590,18
5591,18
5592,18
5593,18
5594,18
5595,18
5596,18
5597,18
5598,18
5599,18
5600,18
5601,18
5602,18
5603,18
5604,18
5605,18
5606,18
5607,18
5608,18
5609,18
5610,18
5611,18
5612,18
5613,18
5614,18
5615,18
5616,18
5617,18
5618,18
5619,18
5620,18
5621,18
5622,18
5623,18
5624,18
5625,18
5626,18
5627,18
5628,18
5629,18
5630,18
5631,18
5632,18
5633,18
5634,18
5635,18
5636,18
5637,18
5638,18
5639,18
5640,18
5641,18
5642,18
5643,18
5644,18
5645,18
5646,18
5647,18
5648,18
5649,18
5650,18
5651,18
5652,18
5653,18
5654,18
5655,18
5656,18
5657,18
5658,18
5659,18
5660,18
5661,18
5662,18
5663,18
5664,18
5665,18
5666,18
5667,18
5668,18
5669,18
5670,18
5671,18
5672,18
5673,18
5674,18
5675,18
5676,18
5677,18
5678,18
5679,18
5680,18
5681,18
5682,18
5683,18
5684,18
5685,18
5686,18
5687,18
5688,18
5689,18
5690,18
5691,18
5692,18
5693,18
5694,18
5695,18
5696,18
5697,18
5698,18
5699,18
5700,18
5701,18
5702,18
5703,18
5704,18
5705,18
5706,18
5707,18
5708,18
5709,18
5710,18
5711,18
5712,18
5713,18
5714,18
5715,18
5716,18
5717,18
5718,18
5719,18
5720,18
5721,18
5722,18
5723,18
5724,18
5725,18
5726,18
5727,18
5728,19
5729,18
5730,18
5731,18
5732,18
5733,18
5734,18
5735,18
5736,18
5737,18
5738,18
5739,18
5740,18
5741,18
5742,18
5743,18
5744,18
5745,18
5746,18
5747,18
5748,18
5749,18
5750,18
5751,18
5752,18
5753,18
5754,18
5755,18
5756,18
5757,18
5758,18
5759,18
5760,18
5761,18
5762,18
5763,18
5764,18
5765,18
5766,18
5767,18
5768,18
5769,18
5770,18
5771,18
5772,18
5773,18
5774,18
5775,18
5776,18
5777,18
5778,18
5779,18
5780,18
5781,18
5782,18
5783,18
5784,18
5785,18
5786,18
5787,18
5788,18
5789,18
5790,18
5791,18
5792,18
5793,18
5794,18
5795,18
5796,18
5797,18
5798,18
5799,18
5800,18
5801,18
5802,18
5803,18
5804,18
5805,18
5806,18
5807,18
5808,18
5809,18
5810,18
5811,18
5812,18
5813,18
5814,18
5815,18
5816,18
5817,18
5818,18
5819,18
5820,18
5821,18
5822,18
5823,18
5824,18
5825,18
5826,18
5827,18
5828,18
5829,18
5830,18
5831,18
5832,18
5833,18
5834,18
5835,18
5836,18
5837,18
5838,18
5839,18
5840,18
5841,18
5842,18
5843,18
5844,18
5845,18
5846,18
5847,18
5848,18
5849,18
5850,18
5851,18
5852,18
5853,18
5854,19
5855,18
5856,18
5857,18
5858,18
5859,18
5860,18
5861,18
5862,18
5863,18
5864,18
5865,18
5866,18
5867,18
5868,18
5869,18
5870,18
5871,18
5872,18
5873,19
5874,19
5875,19
5876,19
5877,19
5878,19
5879,19
5880,19
5881,19
5882,19
5883,19
5884,19
5885,19
5886,19
5887,19
5888,19
5889,19
5890,19
5891,19
5892,18
5893,18
5894,18
5895,18
5896,18
5897,18
5898,18
5899,18
5900,18
5901,18
5902,18
5903,18
5904,18
5905,18
5906,18
5907,18
5908,18
5909,18
5910,18
5911,18
5912,18
5913,18
5914,18
5915,18
5916,18
5917,18
5918,18
5919,18
5920,18
5921,18
5922,18
5923,18
5924,18
5925,18
5926,18
5927,18
5928,18
5929,18
5930,18
5931,18
5932,18
5933,18
5934,18
5935,18
5936,18
5937,18
5938,18
5939,18
5940,18
5941,18
5942,18
5943,18
5944,18
5945,18
5946,18
5947,18
5948,18
5949,18
5950,18
5951,18
5952,18
5953,18
5954,18
5955,18
5956,18
5957,18
5958,18
5959,18
5960,18
5961,19
5962,19
5963,18
5964,18
5965,18
5966,18
5967,18
5968,18
5969,18
5970,18
5971,18
5972,18
5973,18
5974,18
5975,18
5976,18
5977,18
5978,18
5979,18
5980,18
5981,18
5982,18
5983,18
5984,18
5985,18
5986,18
5987,18
5988,18
5989,18
5990,18
5991,18
5992,18
5993,18
5994,18
5995,18
5996,18
5997,18
5998,18
5999,18
6000,18
6001,18
6002,18
6003,18
6004,18
6005,18
6006,18
6007,18
6008,18
6009,19
6010,18
6011,18
6012,18
6013,18
6014,18
6015,18
6016,18
6017,18
6018,18
6019,18
6020,18
6021,18
6022,18
6023,18
6024,18
6025,18
6026,18
6027,18
6028,18
6029,18
6030,18
6031,18
6032,18
6033,18
6034,18
6035,18
6036,18
6037,18
6038,18
6039,18
6040,18
6041,18
6042,18
6043,18
6044,18
6045,18
6046,18
6047,18
6048,18
6049,18
6050,18
6051,18
6052,18
6053,18
6054,18
6055,18
6056,18
6057,18
6058,18
6059,18
6060,18
6061,19
6062,18
6063,18
6064,18
6065,18
6066,18
6067,18
6068,18
6069,18
6070,18
6071,18
6072,18
6073,18
6074,18
6075,18
6076,18
6077,18
6078,18
6079,18
6080,18
6081,18
6082,18
6083,18
6084,18
6085,18
6086,18
6087,18
6088,18
6089,18
6090,18
6091,18
6092,18
6093,18
6094,18
6095,18
6096,18
6097,18
6098,18
6099,18
6100,18
6101,18
6102,18
6103,18
6104,18
6105,18
6106,18
6107,18
6108,18
6109,18
6110,18
6111,18
6112,18
6113,18
6114,18
6115,18
6116,18
6117,18
6118,18
6119,18
6120,18
6121,18
6122,18
6123,18
6124,18
6125,18
6126,18
6127,18
6128,18
6129,18
6130,18
6131,18
6132,18
6133,18
6134,18
6135,18
6136,18
6137,18
6138,18
6139,18
6140,18
6141,18
6142,18
6143,18
6144,18
6145,18
6146,18
6147,18
6148,18
6149,18
6150,18
6151,18
6152,18
6153,18
6154,18
6155,18
6156,18
6157,18
6158,18
6159,18
6160,18
6161,18
6162,18
6163,18
6164,18
6165,18
6166,18
6167,18
6168,18
6169,18
6170,18
6171,18
6172,18
6173,18
6174,18
6175,18
6176,18
6177,18
6178,18
6179,18
6180,18
6181,18
6182,18
6183,18
6184,18
6185,18
6186,18
6187,18
6188,18
6189,18
6190,18
6191,18
6192,18
6193,18
6194,18
6195,18
6196,18
6197,18
6198,18
6199,18
6200,18
6201,18
6202,18
6203,18
6204,18
6205,18
6206,18
6207,18
6208,18
6209,18
6210,18
6211,18
6212,18
6213,18
6214,18
6215,18
6216,18
6217,18
6218,18
6219,18
6220,18
6221,18
6222,18
6223,18
6224,18
6225,18
6226,18
6227,18
6228,18
6229,18
6230,18
6231,18
6232,18
6233,18
6234,18
6235,19
6236,19
6237,19
6238,19
6239,19
6240,19
6241,19
6242,19
6243,19
6244,19
6245,19
6246,19
6247,19
6248,19
6249,19
6250,19
6251,19
6252,19
6253,19
6254,19
6255,20
6256,20
6257,19
6258,19
6259,19
6260,19
6261,19
6262,19
6263,19
6264,19
6265,19
6266,19
6267,19
6268,19
6269,20
6270,19
6271,19
6272,19
6273,19
6274,19
6275,19
6276,19
6277,19
6278,19
6279,19
6280,19
6281,19
6282,19
6283,19
6284,19
6285,19
6286,19
6287,19
6288,19
6289,19
6290,19
6291,19
6292,19
6293,19
6294,19
6295,19
6296,19
6297,19
6298,19
6299,19
6300,19
6301,19
6302,19
6303,19
6304,19
6305,19
6306,19
6307,19
6308,19
6309,19
6310,19
6311,19
6312,19
6313,19
6314,19
6315,19
6316,19
6317,19
6318,19
6319,19
6320,19
6321,19
6322,19
6323,19
6324,19
6325,19
6326,19
6327,19
6328,19
6329,19
6330,19
6331,19
6332,19
6333,19
6334,19
6335,19
6336,19
6337,19
6338,19
6339,19
6340,19
6341,19
6342,19
6343,19
6344,19
6345,19
6346,19
6347,19
6348,19
6349,19
6350,19
6351,19
6352,19
6353,19
6354,19
6355,19
6356,19
6357,19
6358,19
6359,19
6360,19
6361,19
6362,19
6363,19
6364,19
6365,19
6366,19
6367,19
6368,19
6369,19
6370,19
6371,19
6372,19
6373,19
6374,19
6375,20
6376,19
6377,19
6378,19
6379,19
6380,19
6381,19
6382,19
6383,19
6384,19
6385,19
6386,19
6387,19
6388,19
6389,19
6390,19
6391,19
6392,19
6393,19
6394,19
6395,19
6396,19
6397,19
6398,19
6399,19
6400,19
6401,19
6402,19
6403,19
6404,20
6405,20
6406,20
6407,21
6408,20
6409,20
6410,20
6411,20
6412,20
6413,20
6414,20
6415,20
6416,20
6417,20
6418,20
6419,20
6420,20
6421,20
6422,20
6423,19
6424,19
6425,19
6426,19
6427,19
6428,19
6429,19
6430,19
6431,19
6432,19
6433,19
6434,19
6435,19
6436,19
6437,19
6438,20
6439,20
6440,19
6441,19
6442,19
6443,19
6444,20
6445,19
6446,19
6447,19
6448,19
6449,19
6450,20
6451,19
6452,19
6453,19
6454,19
6455,19
6456,19
6457,19
6458,19
6459,19
6460,19
6461,19
6462,19
6463,19
6464,19
6465,19
6466,19
6467,19
6468,19
6469,19
6470,19
6471,19
6472,19
6473,19
6474,19
6475,19
6476,19
6477,19
6478,19
6479,19
6480,19
6481,19
6482,19
6483,19
6484,19
6485,19
6486,20
6487,20
6488,19
6489,19
6490,19
6491,19
6492,19
6493,19
6494,19
6495,19
6496,19
6497,19
6498,19
6499,19
6500,19
6501,19
6502,19
6503,19
6504,19
6505,19
6506,19
6507,19
6508,19
6509,19
6510,19
6511,19
6512,19
6513,19
6514,19
6515,19
6516,19
6517,19
6518,19
6519,19
6520,19
6521,19
6522,19
6523,19
6524,19
6525,19
6526,19
6527,19
6528,19
6529,19
6530,19
6531,19
6532,19
6533,19
6534,19
6535,19
6536,19
6537,19
6538,19
6539,19
6540,19
6541,19
6542,19
6543,19
6544,19
6545,19
6546,19
6547,19
6548,19
6549,19
6550,20
6551,19
6552,19
6553,19
6554,19
6555,19
6556,19
6557,19
6558,19
6559,19
6560,19
6561,19
6562,19
6563,19
6564,19
6565,19
6566,19
6567,19
6568,19
6569,19
6570,19
6571,19
6572,19
6573,19
6574,19
6575,19
6576,19
6577,19
6578,19
6579,19
6580,19
6581,19
6582,19
6583,19
6584,19
6585,19
6586,19
6587,19
6588,19
6589,19
6590,19
6591,19
6592,19
6593,19
6594,19
6595,19
6596,19
6597,19
6598,19
6599,19
6600,19
6601,19
6602,19
6603,19
6604,19
6605,19
6606,19
6607,19
6608,19
6609,19
6610,19
6611,19
6612,19
6613,19
6614,19
6615,19
6616,19
6617,19
6618,20
6619,20
6620,20
6621,20
6622,20
6623,20
6624,20
6625,20
6626,20
6627,20
6628,20
6629,20
6630,20
6631,20
6632,20
6633,20
6634,20
6635,20
6636,20
6637,20
6638,19
6639,19
6640,19
6641,19
6642,19
6643,19
6644,19
6645,19
6646,19
6647,19
6648,19
6649,19
6650,19
6651,19
6652,19
6653,19
6654,20
6655,20
6656,20
6657,20
6658,20
6659,20
6660,20
6661,20
6662,20
6663,20
6664,20
6665,20
6666,20
6667,19
6668,19
6669,19
6670,19
6671,19
6672,19
6673,19
6674,19
6675,19
6676,19
6677,19
6678,19
6679,19
6680,19
6681,19
6682,19
6683,19
6684,19
6685,19
6686,19
6687,19
6688,19
6689,19
6690,19
6691,19
6692,19
6693,19
6694,19
6695,19
6696,19
6697,19
6698,19
6699,19
6700,19
6701,19
6702,19
6703,19
6704,19
6705,19
6706,19
6707,19
6708,19
6709,19
6710,19
6711,19
6712,19
6713,19
6714,19
6715,19
6716,19
6717,19
6718,19
6719,19
6720,19
6721,19
6722,19
6723,19
6724,19
6725,19
6726,19
6727,19
6728,19
6729,19
6730,19
6731,19
6732,19
6733,19
6734,19
6735,19
6736,19
6737,19
6738,19
6739,19
6740,19
6741,19
6742,19
6743,19
6744,19
6745,19
6746,19
6747,19
6748,19
6749,19
6750,19
6751,19
6752,19
6753,19
6754,19
6755,19
6756,19
6757,19
6758,19
6759,19
6760,19
6761,19
6762,19
6763,19
6764,19
6765,19
6766,19
6767,19
6768,19
6769,19
6770,19
6771,19
6772,19
6773,19
6774,19
6775,19
6776,19
6777,20
6778,20
6779,20
6780,19
6781,19
6782,19
6783,19
6784,19
6785,19
6786,19
6787,19
6788,19
6789,19
6790,19
6791,19
6792,19
6793,19
6794,19
6795,19
6796,19
6797,19
6798,19
6799,19
6800,19
6801,19
6802,19
6803,19
6804,19
6805,19
6806,19
6807,19
6808,19
6809,19
6810,19
6811,19
6812,19
6813,19
6814,19
6815,19
6816,19
6817,19
6818,19
6819,19
6820,19
6821,19
6822,19
6823,19
6824,19
6825,19
6826,19
6827,19
6828,19
6829,19
6830,19
6831,19
6832,19
6833,19
6834,19
6835,20
6836,20
6837,20
6838,19
6839,19
6840,19
6841,19
6842,19
6843,19
6844,19
6845,19
6846,19
6847,19
6848,19
6849,19
6850,19
6851,19
6852,19
6853,19
6854,19
6855,19
6856,19
6857,19
6858,19
6859,19
6860,19
6861,19
6862,19
6863,19
6864,19
6865,19
6866,19
6867,19
6868,19
6869,19
6870,19
6871,19
6872,19
6873,19
6874,19
6875,19
6876,19
6877,19
6878,19
6879,19
6880,19
6881,19
6882,19
6883,19
6884,19
6885,19
6886,19
6887,19
6888,19
6889,19
6890,19
6891,19
6892,19
6893,19
6894,19
6895,19
6896,19
6897,19
6898,19
6899,19
6900,19
6901,19
6902,19
6903,19
6904,19
6905,19
6906,19
6907,19
6908,19
6909,19
6910,19
6911,19
6912,19
6913,19
6914,19
6915,19
6916,19
6917,19
6918,19
6919,19
6920,19
6921,19
6922,19
6923,19
6924,19
6925,19
6926,19
6927,19
6928,19
6929,19
6930,19
6931,19
6932,19
6933,19
6934,19
6935,19
6936,19
6937,19
6938,19
6939,19
6940,19
6941,19
6942,19
6943,19
6944,19
6945,19
6946,19
6947,19
6948,19
6949,19
6950,19
6951,19
6952,19
6953,19
6954,19
6955,19
6956,19
6957,19
6958,19
6959,19
6960,19
6961,19
6962,19
6963,19
6964,19
6965,19
6966,19
6967,19
6968,19
6969,19
6970,19
6971,19
6972,19
6973,19
6974,19
6975,19
6976,19
6977,19
6978,19
6979,19
6980,19
6981,19
6982,19
6983,19
6984,19
6985,19
6986,19
6987,19
6988,19
6989,19
6990,19
6991,19
6992,19
6993,19
6994,19
6995,19
6996,19
6997,19
6998,19
6999,19
7000,19
7001,19
7002,19
7003,19
7004,19
7005,19
7006,19
7007,19
7008,19
7009,19
7010,19
7011,19
7012,19
7013,19
7014,19
7015,19
7016,19
7017,19
7018,19
7019,19
7020,19
7021,19
7022,19
7023,19
7024,19
7025,19
7026,19
7027,19
7028,19
7029,19
7030,19
7031,19
7032,19
7033,19
7034,19
7035,19
7036,19
7037,19
7038,19
7039,19
7040,19
7041,19
7042,19
7043,19
7044,19
7045,19
7046,19
7047,19
7048,19
7049,19
7050,19
7051,19
7052,19
7053,19
7054,19
7055,19
7056,20
7057,20
7058,20
7059,20
7060,20
7061,20
7062,19
7063,19
7064,19
7065,19
7066,19
7067,19
7068,19
7069,19
7070,19
7071,19
7072,19
7073,19
7074,19
7075,19
7076,19
7077,19
7078,19
7079,19
7080,19
7081,19
7082,19
7083,19
7084,19
7085,19
7086,19
7087,19
7088,19
7089,19
7090,19
7091,19
7092,19
7093,19
7094,19
7095,19
7096,19
7097,19
7098,19
7099,20
7100,20
7101,20
7102,19
7103,19
7104,19
7105,19
7106,19
7107,19
7108,19
7109,19
7110,19
7111,19
7112,19
7113,20
7114,20
7115,20
7116,20
7117,20
7118,19
7119,19
7120,19
7121,19
7122,19
7123,19
7124,19
7125,19
7126,19
7127,19
7128,19
7129,19
7130,19
7131,19
7132,19
7133,19
7134,19
7135,19
7136,19
7137,19
7138,19
7139,19
7140,19
7141,19
7142,19
7143,19
7144,19
7145,19
7146,19
7147,19
7148,19
7149,19
7150,19
7151,19
7152,19
7153,19
7154,19
7155,19
7156,19
7157,19
7158,19
7159,19
7160,19
7161,19
7162,19
7163,19
7164,19
7165,19
7166,19
7167,19
7168,19
7169,19
7170,19
7171,19
7172,19
7173,19
7174,19
7175,19
7176,19
7177,19
7178,19
7179,19
7180,19
7181,19
7182,19
7183,20
7184,19
7185,19
7186,19
7187,19
7188,19
7189,19
7190,19
7191,19
7192,19
7193,19
7194,19
7195,19
7196,19
7197,19
7198,19
7199,19
7200,19
7201,19
7202,19
7203,19
7204,19
7205,19
7206,19
7207,19
7208,19
7209,19
7210,19
7211,19
7212,19
7213,19
7214,19
7215,19
7216,19
7217,19
7218,19
7219,19
7220,19
7221,19
7222,19
7223,19
7224,19
7225,19
7226,19
7227,19
7228,19
7229,19
7230,19
7231,19
7232,19
7233,19
7234,19
7235,19
7236,19
7237,19
7238,19
7239,19
7240,19
7241,19
7242,19
7243,19
7244,19
7245,19
7246,19
7247,19
7248,19
7249,19
7250,19
7251,19
7252,19
7253,19
7254,19
7255,19
7256,19
7257,19
7258,19
7259,19
7260,19
7261,19
7262,19
7263,19
7264,19
7265,19
7266,19
7267,19
7268,19
7269,19
7270,19
7271,19
7272,19
7273,19
7274,19
7275,19
7276,19
7277,19
7278,19
7279,19
7280,19
7281,19
7282,19
7283,19
7284,19
7285,19
7286,19
7287,19
7288,19
7289,19
7290,19
7291,19
7292,19
7293,19
7294,19
7295,19
7296,20
7297,19
7298,19
7299,19
7300,19
7301,19
7302,19
7303,19
7304,19
7305,19
7306,19
7307,19
7308,19
7309,19
7310,19
7311,19
7312,19
7313,19
7314,19
7315,19
7316,19
7317,19
7318,19
7319,19
7320,19
7321,19
7322,19
7323,19
7324,19
7325,19
7326,19
7327,19
7328,19
7329,19
7330,19
7331,19
7332,19
7333,19
7334,19
7335,19
7336,19
7337,19
7338,19
7339,19
7340,19
7341,19
7342,19
7343,19
7344,19
7345,19
7346,19
7347,19
7348,19
7349,19
7350,19
7351,19
7352,19
7353,19
7354,19
7355,19
7356,19
7357,19
7358,19
7359,19
7360,19
7361,19
7362,19
7363,19
7364,19
7365,19
7366,19
7367,19
7368,19
7369,19
7370,19
7371,19
7372,19
7373,19
7374,19
7375,19
7376,19
7377,19
7378,19
7379,19
7380,19
7381,19
7382,19
7383,19
7384,19
7385,19
7386,19
7387,19
7388,19
7389,19
7390,19
7391,19
7392,19
7393,19
7394,19
7395,19
7396,19
7397,19
7398,19
7399,19
7400,19
7401,19
7402,19
7403,19
7404,19
7405,19
7406,19
7407,19
7408,19
7409,19
7410,19
7411,19
7412,19
7413,19
7414,19
7415,19
7416,19
7417,19
7418,19
7419,19
7420,19
7421,19
7422,19
7423,19
7424,19
7425,19
7426,19
7427,19
7428,19
7429,19
7430,19
7431,19
7432,19
7433,19
7434,19
7435,19
7436,19
7437,19
7438,19
7439,19
7440,19
7441,19
7442,19
7443,19
7444,19
7445,19
7446,19
7447,19
7448,19
7449,19
7450,19
7451,19
7452,19
7453,19
7454,19
7455,19
7456,19
7457,19
7458,19
7459,19
7460,19
7461,19
7462,19
7463,19
7464,19
7465,19
7466,19
7467,19
7468,19
7469,19
7470,19
7471,20
7472,20
7473,19
7474,19
7475,19
7476,19
7477,19
7478,19
7479,19
7480,19
7481,19
7482,19
7483,19
7484,19
7485,19
7486,19
7487,19
7488,19
7489,19
7490,19
7491,19
7492,19
7493,19
7494,19
7495,19
7496,19
7497,19
7498,19
7499,19
7500,19
7501,20
7502,20
7503,19
7504,19
7505,19
7506,19
7507,19
7508,19
7509,19
7510,19
7511,19
7512,19
7513,19
7514,19
7515,19
7516,19
7517,19
7518,19
7519,19
7520,19
7521,19
7522,19
7523,19
7524,19
7525,19
7526,19
7527,19
7528,19
7529,19
7530,19
7531,19
7532,19
7533,19
7534,19
7535,19
7536,19
7537,19
7538,19
7539,19
7540,19
7541,19
7542,19
7543,19
7544,19
7545,19
7546,19
7547,19
7548,19
7549,19
7550,19
7551,19
7552,19
7553,19
7554,19
7555,19
7556,19
7557,19
7558,19
7559,19
7560,19
7561,19
7562,19
7563,19
7564,19
7565,19
7566,19
7567,19
7568,19
7569,19
7570,19
7571,19
7572,20
7573,20
7574,20
7575,20
7576,20
7577,20
7578,20
7579,20
7580,20
7581,20
7582,20
7583,20
7584,20
7585,20
7586,20
7587,20
7588,20
7589,20
7590,20
7591,20
7592,20
7593,20
7594,20
7595,20
7596,20
7597,20
7598,20
7599,20
7600,20
7601,20
7602,20
7603,20
7604,20
7605,20
7606,20
7607,20
7608,20
7609,20
7610,20
7611,20
7612,20
7613,20
7614,20
7615,20
7616,20
7617,20
7618,20
7619,21
7620,20
7621,20
7622,20
7623,20
7624,19
7625,19
7626,19
7627,19
7628,20
7629,20
7630,20
7631,20
7632,19
7633,19
7634,19
7635,19
7636,19
7637,19
7638,19
7639,19
7640,19
7641,19
7642,19
7643,19
7644,19
7645,19
7646,19
7647,19
7648,19
7649,19
7650,19
7651,19
7652,19
7653,19
7654,19
7655,19
7656,19
7657,19
7658,19
7659,19
7660,19
7661,19
7662,19
7663,19
7664,19
7665,19
7666,19
7667,19
7668,19
7669,19
7670,19
7671,19
7672,19
7673,19
7674,19
7675,19
7676,19
7677,19
7678,19
7679,19
7680,19
7681,20
7682,20
7683,20
7684,20
7685,20
7686,21
7687,20
7688,20
7689,20
7690,20
7691,20
7692,20
7693,20
7694,20
7695,20
7696,20
7697,20
7698,20
7699,20
7700,20
7701,20
7702,20
7703,20
7704,20
7705,20
7706,20
7707,20
7708,20
7709,20
7710,20
7711,20
7712,20
7713,20
7714,20
7715,20
7716,20
7717,20
7718,20
7719,20
7720,20
7721,20
7722,20
7723,20
7724,20
7725,20
7726,20
7727,20
7728,20
7729,20
7730,20
7731,20
7732,20
7733,20
7734,20
7735,20
7736,20
7737,20
7738,20
7739,20
7740,20
7741,20
7742,21
7743,21
7744,21
7745,20
7746,20
7747,20
7748,20
7749,20
7750,20
7751,20
7752,20
7753,20
7754,20
7755,20
7756,20
7757,20
7758,20
7759,20
7760,20
7761,20
7762,21
7763,20
7764,20
7765,20
7766,20
7767,20
7768,20
7769,20
7770,20
7771,20
7772,20
7773,20
7774,20
7775,20
7776,20
7777,20
7778,20
7779,21
7780,21
7781,21
7782,21
7783,21
7784,21
7785,21
7786,21
7787,21
7788,21
7789,21
7790,21
7791,21
7792,21
7793,21
7794,21
7795,21
7796,21
7797,21
7798,21
7799,21
7800,21
7801,21
7802,21
7803,21
7804,21
7805,21
7806,21
7807,21
7808,21
7809,21
7810,21
7811,21
7812,21
7813,21
7814,21
7815,21
7816,21
7817,21
7818,21
7819,21
7820,21
7821,21
7822,21
7823,21
7824,21
7825,21
7826,21
7827,21
7828,21
7829,21
7830,21
7831,21
7832,21
7833,21
7834,21
7835,21
7836,21
7837,21
7838,21
7839,21
7840,21
7841,21
7842,21
7843,21
7844,21
7845,21
7846,21
7847,21
7848,21
7849,21
7850,21
7851,21
7852,21
7853,21
7854,21
7855,21
7856,21
7857,21
7858,21
7859,21
7860,21
7861,22
7862,21
7863,21
7864,21
7865,21
7866,21
7867,21
7868,21
7869,21
7870,21
7871,21
7872,21
7873,21
7874,21
7875,21
7876,21
7877,21
7878,21
7879,21
7880,21
7881,21
7882,21
7883,21
7884,21
7885,21
7886,21
7887,21
7888,21
7889,21
7890,21
7891,21
7892,21
7893,21
7894,21
7895,21
7896,21
7897,21
7898,21
7899,21
7900,21
7901,21
7902,21
7903,21
7904,21
7905,21
7906,21
7907,21
7908,21
7909,21
7910,21
7911,21
7912,21
7913,21
7914,21
7915,21
7916,21
7917,21
7918,21
7919,21
7920,21
7921,21
7922,21
7923,21
7924,21
7925,21
7926,21
7927,21
7928,21
7929,21
7930,21
7931,21
7932,21
7933,21
7934,21
7935,21
7936,21
7937,21
7938,21
7939,21
7940,21
7941,21
7942,21
7943,21
7944,21
7945,21
7946,21
7947,21
7948,21
7949,21
7950,21
7951,21
7952,21
7953,21
7954,21
7955,21
7956,21
7957,21
7958,21
7959,21
7960,21
7961,21
7962,21
7963,21
7964,21
7965,21
7966,21
7967,21
7968,21
7969,21
7970,21
7971,21
7972,21
7973,21
7974,21
7975,21
7976,21
7977,21
7978,21
7979,21
7980,21
7981,21
7982,21
7983,21
7984,21
7985,21
7986,21
7987,21
7988,21
7989,21
7990,21
7991,21
7992,21
7993,21
7994,21
7995,21
7996,21
7997,21
7998,21
7999,21
8000,21
8001,21
8002,21
8003,21
8004,21
8005,21
8006,21
8007,21
8008,21
8009,21
8010,21
8011,21
8012,21
8013,21
8014,21
8015,21
8016,21
8017,21
8018,21
8019,21
8020,21
8021,21
8022,21
8023,21
8024,21
8025,22
8026,22
8027,21
8028,22
8029,21
8030,21
8031,21
8032,21
8033,21
8034,21
8035,21
8036,21
8037,21
8038,21
8039,21
8040,22
8041,21
8042,21
8043,21
8044,21
8045,21
8046,21
8047,21
8048,21
8049,21
8050,21
8051,21
8052,21
8053,21
8054,21
8055,21
8056,21
8057,21
8058,21
8059,21
8060,21
8061,21
8062,21
8063,21
8064,21
8065,21
8066,21
8067,21
8068,21
8069,21
8070,21
8071,21
8072,21
8073,21
8074,21
8075,21
8076,21
8077,21
8078,21
8079,21
8080,21
8081,21
8082,21
8083,21
8084,21
8085,21
8086,21
8087,21
8088,21
8089,21
8090,21
8091,21
8092,21
8093,21
8094,21
8095,21
8096,21
8097,21
8098,21
8099,21
8100,21
8101,21
8102,21
8103,21
8104,21
8105,21
8106,22
8107,21
8108,21
8109,21
8110,21
8111,21
8112,21
8113,21
8114,21
8115,21
8116,21
8117,21
8118,21
8119,21
8120,21
8121,21
8122,21
8123,21
8124,21
8125,21
8126,21
8127,21
8128,21
8129,21
8130,21
8131,21
8132,21
8133,21
8134,21
8135,21
8136,21
8137,21
8138,21
8139,21
8140,21
8141,21
8142,21
8143,21
8144,21
8145,21
8146,21
8147,21
8148,21
8149,21
8150,21
8151,21
8152,21
8153,21
8154,21
8155,21
8156,21
8157,21
8158,21
8159,21
8160,21
8161,21
8162,22
8163,21
8164,21
8165,21
8166,21
8167,21
8168,21
8169,21
8170,21
8171,21
8172,21
8173,21
8174,21
8175,21
8176,21
8177,21
8178,21
8179,21
8180,21
8181,21
8182,21
8183,21
8184,21
8185,21
8186,21
8187,21
8188,21
8189,21
8190,21
8191,21
8192,21
8193,21
8194,21
8195,21
8196,21
8197,21
8198,21
8199,21
8200,21
8201,21
8202,21
8203,21
8204,21
8205,21
8206,21
8207,21
8208,21
8209,21
8210,21
8211,21
8212,21
8213,21
8214,21
8215,21
8216,21
8217,21
8218,21
8219,21
8220,21
8221,21
8222,21
8223,21
8224,21
8225,21
8226,21
8227,21
8228,21
8229,21
8230,21
8231,21
8232,21
8233,21
8234,21
8235,21
8236,21
8237,21
8238,21
8239,21
8240,21
8241,21
8242,21
8243,21
8244,21
8245,21
8246,21
8247,21
8248,21
8249,21
8250,21
8251,21
8252,21
8253,21
8254,21
8255,21
8256,22
8257,22
8258,21
8259,21
8260,21
8261,21
8262,21
8263,21
8264,21
8265,21
8266,21
8267,21
8268,21
8269,21
8270,21
8271,21
8272,21
8273,21
8274,21
8275,21
8276,21
8277,21
8278,21
8279,21
8280,21
8281,21
8282,21
8283,21
8284,21
8285,21
8286,21
8287,21
8288,21
8289,21
8290,21
8291,21
8292,21
8293,21
8294,21
8295,21
8296,21
8297,21
8298,21
8299,21
8300,21
8301,21
8302,21
8303,21
8304,21
8305,21
8306,21
8307,21
8308,21
8309,21
8310,21
8311,21
8312,21
8313,21
8314,21
8315,21
8316,21
8317,21
8318,21
8319,21
8320,21
8321,21
8322,21
8323,21
8324,21
8325,21
8326,21
8327,21
8328,21
8329,21
8330,21
8331,21
8332,21
8333,21
8334,21
8335,21
8336,21
8337,21
8338,21
8339,21
8340,21
8341,21
8342,21
8343,21
8344,21
8345,21
8346,21
8347,21
8348,21
8349,21
8350,21
8351,21
8352,21
8353,21
8354,21
8355,21
8356,21
8357,21
8358,21
8359,21
8360,21
8361,21
8362,21
8363,21
8364,21
8365,21
8366,21
8367,21
8368,21
8369,21
8370,21
8371,21
8372,21
8373,21
8374,21
8375,21
8376,21
8377,21
8378,22
8379,22
8380,22
8381,22
8382,22
8383,22
8384,21
8385,21
8386,21
8387,21
8388,21
8389,21
8390,21
8391,21
8392,21
8393,21
8394,21
8395,21
8396,21
8397,21
8398,21
8399,21
8400,21
8401,21
8402,21
8403,21
8404,21
8405,21
8406,21
8407,21
8408,21
8409,21
8410,21
8411,22
8412,22
8413,22
8414,21
8415,21
8416,21
8417,21
8418,21
8419,21
8420,21
8421,21
8422,21
8423,21
8424,21
8425,21
8426,21
8427,21
8428,21
8429,21
8430,21
8431,21
8432,21
8433,21
8434,21
8435,21
8436,21
8437,21
8438,21
8439,21
8440,21
8441,21
8442,21
8443,21
8444,21
8445,21
8446,21
8447,21
8448,21
8449,21
8450,21
8451,21
8452,21
8453,21
8454,21
8455,21
8456,21
8457,21
8458,21
8459,21
8460,21
8461,21
8462,21
8463,21
8464,21
8465,21
8466,21
8467,21
8468,21
8469,21
8470,21
8471,21
8472,21
8473,21
8474,21
8475,21
8476,21
8477,21
8478,21
8479,21
8480,21
8481,21
8482,21
8483,21
8484,22
8485,21
8486,21
8487,21
8488,21
8489,21
8490,21
8491,21
8492,21
8493,21
8494,21
8495,21
8496,21
8497,21
8498,21
8499,21
8500,21
8501,21
8502,21
8503,21
8504,21
8505,21
8506,21
8507,21
8508,21
8509,21
8510,21
8511,21
8512,21
8513,21
8514,21
8515,21
8516,21
8517,21
8518,21
8519,21
8520,21
8521,21
8522,21
8523,21
8524,21
8525,21
8526,21
8527,21
8528,21
8529,21
8530,21
8531,21
8532,21
8533,21
8534,21
8535,21
8536,21
8537,21
8538,21
8539,21
8540,21
8541,21
8542,21
8543,21
8544,21
8545,21
8546,21
8547,21
8548,21
8549,21
8550,21
8551,21
8552,21
8553,21
8554,21
8555,21
8556,21
8557,21
8558,21
8559,21
8560,21
8561,21
8562,21
8563,21
8564,21
8565,21
8566,21
8567,21
8568,21
8569,21
8570,21
8571,21
8572,21
8573,21
8574,21
8575,21
8576,21
8577,21
8578,21
8579,22
8580,22
8581,21
8582,21
8583,21
8584,21
8585,21
8586,21
8587,21
8588,21
8589,21
8590,21
8591,21
8592,21
8593,21
8594,21
8595,21
8596,21
8597,21
8598,21
8599,21
8600,21
8601,21
8602,21
8603,21
8604,21
8605,21
8606,21
8607,21
8608,21
8609,21
8610,21
8611,21
8612,21
8613,21
8614,21
8615,21
8616,21
8617,21
8618,21
8619,21
8620,21
8621,21
8622,21
8623,21
8624,21
8625,21
8626,21
8627,21
8628,21
8629,21
8630,21
8631,21
8632,21
8633,21
8634,21
8635,21
8636,21
8637,21
8638,21
8639,21
8640,21
8641,21
8642,21
8643,21
8644,21
8645,21
8646,21
8647,21
8648,21
8649,21
8650,21
8651,21
8652,21
8653,21
8654,21
8655,21
8656,21
8657,21
8658,21
8659,21
8660,21
8661,21
8662,21
8663,21
8664,21
8665,21
8666,21
8667,21
8668,21
8669,21
8670,21
8671,21
8672,21
8673,21
8674,21
8675,21
8676,21
8677,21
8678,21
8679,21
8680,21
8681,21
8682,21
8683,22
8684,22
8685,22
8686,22
8687,22
8688,22
8689,22
8690,22
8691,22
8692,22
8693,22
8694,22
8695,22
8696,22
8697,22
8698,22
8699,22
8700,22
8701,21
8702,21
8703,21
8704,21
8705,21
8706,21
8707,21
8708,21
8709,21
8710,21
8711,21
8712,21
8713,21
8714,21
8715,21
8716,21
8717,21
8718,21
8719,21
8720,21
8721,21
8722,21
8723,21
8724,21
8725,21
8726,21
8727,21
8728,21
8729,21
8730,21
8731,21
8732,21
8733,21
8734,21
8735,21
8736,21
8737,21
8738,21
8739,21
8740,21
8741,21
8742,21
8743,21
8744,21
8745,21
8746,21
8747,21
8748,21
8749,21
8750,21
8751,21
8752,21
8753,21
8754,21
8755,21
8756,21
8757,21
8758,21
8759,21
8760,21
8761,21
8762,21
8763,21
8764,21
8765,21
8766,21
8767,21
8768,21
8769,21
8770,21
8771,21
8772,21
8773,21
8774,21
8775,21
8776,21
8777,21
8778,21
8779,22
8780,21
8781,21
8782,21
8783,21
8784,21
8785,21
8786,21
8787,21
8788,21
8789,22
8790,22
8791,22
8792,21
8793,21
8794,21
8795,21
8796,21
8797,21
8798,21
8799,21
8800,21
8801,21
8802,21
8803,21
8804,21
8805,21
8806,21
8807,21
8808,21
8809,21
8810,21
8811,21
8812,21
8813,21
8814,21
8815,21
8816,21
8817,22
8818,22
8819,21
8820,21
8821,21
8822,21
8823,21
8824,21
8825,21
8826,21
8827,21
8828,21
8829,21
8830,21
8831,21
8832,22
8833,22
8834,21
8835,21
8836,21
8837,21
8838,21
8839,21
8840,21
8841,21
8842,21
8843,21
8844,21
8845,21
8846,21
8847,21
8848,21
8849,21
8850,21
8851,21
8852,21
8853,21
8854,21
8855,21
8856,21
8857,21
8858,21
8859,21
8860,21
8861,21
8862,21
8863,21
8864,21
8865,21
8866,21
8867,21
8868,21
8869,21
8870,21
8871,21
8872,21
8873,21
8874,21
8875,21
8876,21
8877,21
8878,21
8879,21
8880,21
8881,21
8882,21
8883,21
8884,21
8885,21
8886,21
8887,21
8888,21
8889,21
8890,21
8891,21
8892,21
8893,21
8894,21
8895,21
8896,21
8897,21
8898,21
8899,21
8900,21
8901,21
8902,21
8903,21
8904,21
8905,21
8906,21
8907,21
8908,21
8909,21
8910,21
8911,21
8912,21
8913,21
8914,21
8915,21
8916,21
8917,21
8918,21
8919,21
8920,21
8921,21
8922,21
8923,21
8924,21
8925,21
8926,21
8927,21
8928,21
8929,21
8930,21
8931,21
8932,21
8933,21
8934,21
8935,21
8936,21
8937,21
8938,21
8939,21
8940,21
8941,21
8942,21
8943,21
8944,21
8945,21
8946,21
8947,21
8948,21
8949,21
8950,21
8951,21
8952,21
8953,21
8954,21
8955,21
8956,21
8957,21
8958,21
8959,21
8960,21
8961,21
8962,21
8963,21
8964,21
8965,21
8966,21
8967,21
8968,21
8969,21
8970,21
8971,21
8972,21
8973,21
8974,21
8975,21
8976,21
8977,21
8978,21
8979,21
8980,21
8981,21
8982,21
8983,21
8984,21
8985,21
8986,21
8987,21
8988,21
8989,21
8990,21
8991,21
8992,21
8993,21
8994,21
8995,21
8996,21
8997,21
8998,21
8999,21
9000,21
9001,21
9002,21
9003,21
9004,21
9005,21
9006,21
9007,21
9008,21
9009,21
9010,21
9011,21
9012,21
9013,21
9014,21
9015,21
9016,21
9017,21
9018,21
9019,21
9020,22
9021,21
9022,21
9023,21
9024,21
9025,21
9026,21
9027,21
9028,21
9029,21
9030,21
9031,21
9032,21
9033,21
9034,21
9035,21
9036,21
9037,21
9038,21
9039,21
9040,21
9041,21
9042,21
9043,21
9044,21
9045,21
9046,21
9047,21
9048,21
9049,21
9050,21
9051,21
9052,21
9053,21
9054,21
9055,21
9056,21
9057,21
9058,21
9059,21
9060,21
9061,21
9062,21
9063,21
9064,21
9065,21
9066,21
9067,21
9068,21
9069,21
9070,21
9071,21
9072,22
9073,21
9074,21
9075,21
9076,21
9077,21
9078,21
9079,21
9080,21
9081,21
9082,21
9083,21
9084,21
9085,21
9086,21
9087,21
9088,21
9089,21
9090,21
9091,21
9092,21
9093,21
9094,21
9095,21
9096,21
9097,21
9098,21
9099,21
9100,21
9101,21
9102,21
9103,21
9104,21
9105,21
9106,21
9107,21
9108,21
9109,21
9110,21
9111,21
9112,21
9113,21
9114,21
9115,21
9116,21
9117,21
9118,21
9119,21
9120,21
9121,21
9122,21
9123,21
9124,21
9125,21
9126,21
9127,21
9128,21
9129,21
9130,21
9131,21
9132,21
9133,21
9134,21
9135,21
9136,21
9137,21
9138,21
9139,21
9140,21
9141,21
9142,21
9143,21
9144,21
9145,21
9146,21
9147,21
9148,21
9149,21
9150,21
9151,21
9152,21
9153,21
9154,21
9155,21
9156,21
9157,21
9158,21
9159,21
9160,21
9161,21
9162,21
9163,21
9164,21
9165,21
9166,21
9167,21
9168,21
9169,21
9170,21
9171,21
9172,21
9173,21
9174,21
9175,21
9176,21
9177,21
9178,21
9179,21
9180,21
9181,21
9182,21
9183,21
9184,21
9185,21
9186,21
9187,21
9188,21
9189,21
9190,21
9191,21
9192,21
9193,21
9194,21
9195,21
9196,21
9197,21
9198,21
9199,21
9200,21
9201,21
9202,21
9203,21
9204,21
9205,21
9206,21
9207,21
9208,21
9209,21
9210,21
9211,21
9212,21
9213,21
9214,21
9215,21
9216,21
9217,21
9218,21
9219,21
9220,21
9221,21
9222,21
9223,21
9224,21
9225,21
9226,21
9227,21
9228,21
9229,21
9230,21
9231,21
9232,21
9233,21
9234,21
9235,21
9236,21
9237,21
9238,21
9239,21
9240,21
9241,21
9242,21
9243,21
9244,21
9245,21
9246,21
9247,21
9248,21
9249,21
9250,21
9251,21
9252,21
9253,21
9254,21
9255,21
9256,21
9257,21
9258,21
9259,21
9260,21
9261,21
9262,21
9263,21
9264,21
9265,21
9266,21
9267,21
9268,21
9269,21
9270,21
9271,21
9272,21
9273,21
9274,21
9275,21
9276,21
9277,21
9278,21
9279,21
9280,21
9281,21
9282,21
9283,21
9284,21
9285,21
9286,21
9287,21
9288,21
9289,21
9290,21
9291,21
9292,21
9293,21
9294,22
9295,22
9296,22
9297,22
9298,22
9299,21
9300,21
9301,21
9302,21
9303,21
9304,21
9305,21
9306,21
9307,21
9308,21
9309,21
9310,21
9311,21
9312,21
9313,21
9314,21
9315,21
9316,21
9317,21
9318,21
9319,21
9320,21
9321,21
9322,21
9323,21
9324,21
9325,21
9326,21
9327,21
9328,21
9329,21
9330,21
9331,21
9332,21
9333,21
9334,21
9335,21
9336,21
9337,21
9338,21
9339,21
9340,21
9341,21
9342,21
9343,21
9344,21
9345,21
9346,21
9347,21
9348,21
9349,21
9350,21
9351,21
9352,21
9353,21
9354,21
9355,21
9356,21
9357,21
9358,21
9359,21
9360,21
9361,21
9362,21
9363,21
9364,21
9365,21
9366,21
9367,21
9368,21
9369,21
9370,21
9371,21
9372,21
9373,21
9374,21
9375,21
9376,21
9377,21
9378,21
9379,21
9380,21
9381,21
9382,21
9383,21
9384,21
9385,21
9386,21
9387,21
9388,21
9389,21
9390,21
9391,21
9392,21
9393,21
9394,21
9395,21
9396,21
9397,21
9398,21
9399,21
9400,21
9401,21
9402,21
9403,21
9404,21
9405,21
9406,21
9407,21
9408,21
9409,21
9410,21
9411,21
9412,21
9413,22
9414,22
9415,22
9416,21
9417,21
9418,21
9419,21
9420,21
9421,21
9422,21
9423,21
9424,21
9425,21
9426,21
9427,21
9428,21
9429,21
9430,21
9431,21
9432,21
9433,21
9434,21
9435,21
9436,21
9437,21
9438,21
9439,21
9440,21
9441,21
9442,21
9443,21
9444,21
9445,21
9446,21
9447,21
9448,21
9449,21
9450,21
9451,21
9452,21
9453,21
9454,21
9455,21
9456,21
9457,21
9458,21
9459,21
9460,21
9461,21
9462,21
9463,21
9464,21
9465,21
9466,21
9467,21
9468,21
9469,21
9470,21
9471,21
9472,21
9473,21
9474,21
9475,21
9476,21
9477,21
9478,21
9479,21
9480,21
9481,21
9482,21
9483,21
9484,21
9485,21
9486,21
9487,21
9488,21
9489,21
9490,21
9491,21
9492,21
9493,21
9494,21
9495,21
9496,21
9497,21
9498,21
9499,21
9500,21
9501,21
9502,21
9503,21
9504,21
9505,21
9506,21
9507,21
9508,21
9509,21
9510,21
9511,21
9512,21
9513,21
9514,21
9515,21
9516,21
9517,21
9518,21
9519,21
9520,21
9521,21
9522,21
9523,21
9524,21
9525,21
9526,21
9527,21
9528,21
9529,21
9530,21
9531,21
9532,21
9533,21
9534,21
9535,21
9536,21
9537,21
9538,21
9539,21
9540,21
9541,21
9542,21
9543,21
9544,21
9545,21
9546,21
9547,21
9548,21
9549,21
9550,21
9551,21
9552,21
9553,21
9554,21
9555,21
9556,21
9557,21
9558,21
9559,21
9560,21
9561,21
9562,21
9563,21
9564,21
9565,21
9566,21
9567,21
9568,21
9569,21
9570,21
9571,21
9572,21
9573,21
9574,21
9575,21
9576,21
9577,21
9578,21
9579,21
9580,21
9581,21
9582,21
9583,21
9584,21
9585,21
9586,21
9587,21
9588,21
9589,21
9590,21
9591,21
9592,21
9593,21
9594,21
9595,21
9596,21
9597,21
9598,21
9599,22
9600,22
9601,22
9602,21
9603,21
9604,21
9605,21
9606,21
9607,21
9608,21
9609,21
9610,21
9611,21
9612,21
9613,21
9614,21
9615,21
9616,21
9617,21
9618,21
9619,21
9620,21
9621,21
9622,21
9623,21
9624,21
9625,21
9626,21
9627,21
9628,21
9629,21
9630,21
9631,21
9632,21
9633,21
9634,21
9635,21
9636,21
9637,21
9638,21
9639,21
9640,21
9641,21
9642,21
9643,21
9644,21
9645,21
9646,21
9647,21
9648,21
9649,21
9650,21
9651,21
9652,21
9653,21
9654,21
9655,21
9656,21
9657,21
9658,21
9659,21
9660,21
9661,21
9662,21
9663,21
9664,21
9665,21
9666,21
9667,21
9668,21
9669,21
9670,21
9671,21
9672,21
9673,21
9674,21
9675,21
9676,21
9677,21
9678,21
9679,21
9680,21
9681,21
9682,21
9683,21
9684,21
9685,21
9686,21
9687,21
9688,21
9689,21
9690,21
9691,21
9692,21
9693,21
9694,21
9695,21
9696,21
9697,21
9698,21
9699,21
9700,21
9701,21
9702,21
9703,21
9704,21
9705,21
9706,21
9707,21
9708,21
9709,21
9710,21
9711,21
9712,21
9713,21
9714,21
9715,21
9716,21
9717,21
9718,21
9719,21
9720,21
9721,21
9722,21
9723,21
9724,21
9725,21
9726,21
9727,21
9728,21
9729,21
9730,21
9731,21
9732,21
9733,21
9734,21
9735,21
9736,21
9737,21
9738,21
9739,21
9740,21
9741,21
9742,21
9743,21
9744,21
9745,21
9746,21
9747,21
9748,21
9749,21
9750,21
9751,21
9752,21
9753,21
9754,21
9755,21
9756,21
9757,21
9758,21
9759,21
9760,21
9761,21
9762,21
9763,21
9764,21
9765,21
9766,21
9767,21
9768,21
9769,21
9770,21
9771,21
9772,21
9773,21
9774,21
9775,21
9776,21
9777,21
9778,21
9779,21
9780,21
9781,21
9782,21
9783,21
9784,21
9785,21
9786,21
9787,21
9788,21
9789,21
9790,21
9791,21
9792,21
9793,21
9794,21
9795,21
9796,21
9797,21
9798,21
9799,21
9800,21
9801,21
9802,21
9803,21
9804,21
9805,21
9806,21
9807,21
9808,21
9809,21
9810,21
9811,21
9812,21
9813,21
9814,21
9815,21
9816,21
9817,21
9818,21
9819,21
9820,21
9821,21
9822,21
9823,21
9824,21
9825,21
9826,21
9827,21
9828,21
9829,21
9830,21
9831,21
9832,21
9833,21
9834,21
9835,21
9836,21
9837,21
9838,21
9839,21
9840,21
9841,21
9842,21
9843,21
9844,21
9845,21
9846,21
9847,21
9848,21
9849,21
9850,21
9851,21
9852,21
9853,21
9854,21
9855,21
9856,21
9857,21
9858,21
9859,21
9860,21
9861,21
9862,21
9863,21
9864,21
9865,21
9866,21
9867,21
9868,21
9869,21
9870,21
9871,21
9872,21
9873,21
9874,21
9875,21
9876,21
9877,21
9878,21
9879,21
9880,22
9881,21
9882,21
9883,21
9884,21
9885,21
9886,21
9887,21
9888,21
9889,21
9890,21
9891,21
9892,21
9893,21
9894,21
9895,21
9896,21
9897,21
9898,21
9899,21
9900,21
9901,21
9902,21
9903,21
9904,21
9905,21
9906,21
9907,21
9908,21
9909,21
9910,21
9911,21
9912,21
9913,21
9914,21
9915,21
9916,21
9917,21
9918,21
9919,21
9920,21
9921,21
9922,21
9923,21
9924,21
9925,21
9926,21
9927,21
9928,21
9929,21
9930,21
9931,21
9932,21
9933,21
9934,21
9935,21
9936,21
9937,21
9938,21
9939,21
9940,21
9941,21
9942,21
9943,21
9944,21
9945,21
9946,21
9947,21
9948,21
9949,21
9950,21
9951,21
9952,21
9953,21
9954,21
9955,21
9956,21
9957,21
9958,21
9959,21
9960,21
9961,21
9962,21
9963,21
9964,21
9965,21
9966,21
9967,21
9968,21
9969,21
9970,21
9971,21
9972,21
9973,21
9974,21
9975,21
9976,21
9977,21
9978,21
9979,21
9980,21
9981,21
9982,21
9983,21
9984,21
9985,21
9986,21
9987,22
9988,21
9989,22
9990,22
9991,22
9992,22
9993,22
9994,22
9995,22
9996,22
9997,22
9998,22
9999,22
10000,22
