1,3
2,3
3,3
4,3
5,3
6,3
7,3
8,3
9,3
10,3
11,3
12,3
13,3
14,3
15,3
16,3
17,3
18,3
19,3
20,3
21,3
22,3
23,3
24,3
25,3
26,3
27,3
28,4
29,4
30,4
31,4
32,4
33,4
34,4
35,4
36,4
37,4
38,4
39,4
40,4
41,4
42,4
43,4
44,4
45,4
46,4
47,4
48,4
49,4
50,4
51,4
52,5
53,4
54,4
55,4
56,4
57,4
58,4
59,4
60,4
61,4
62,4
63,4
64,4
65,4
66,4
67,4
68,4
69,4
70,4
71,4
72,4
73,4
74,4
75,4
76,4
77,4
78,4
79,4
80,4
81,4
82,4
83,4
84,4
85,4
86,4
87,4
88,4
89,4
90,4
91,4
92,4
93,4
94,4
95,4
96,4
97,4
98,4
99,4
100,4
101,4
102,4
103,4
104,4
105,4
106,4
107,4
108,4
109,4
110,5
111,5
112,5
113,5
114,5
115,5
116,5
117,5
118,5
119,5
120,5
121,5
122,5
123,5
124,5
125,5
126,5
127,5
128,5
129,5
130,5
131,5
132,5
133,5
134,5
135,5
136,5
137,5
138,5
139,5
140,5
141,5
142,5
143,5
144,5
145,5
146,5
147,5
148,5
149,5
150,5
151,5
152,5
153,5
154,5
155,5
156,5
157,5
158,5
159,5
160,5
161,5
162,5
163,5
164,5
165,5
166,5
167,5
168,5
169,5
170,5
171,5
172,5
173,5
174,5
175,5
176,5
177,5
178,5
179,5
180,5
181,5
182,5
183,5
184,5
185,5
186,5
187,5
188,5
189,5
190,5
191,5
192,5
193,5
194,5
195,5
196,5
197,5
198,5
199,5
200,5
201,5
202,5
203,5
204,5
205,5
206,5
207,5
208,5
209,5
210,5
211,5
212,5
213,5
214,5
215,5
216,5
217,5
218,5
219,5
220,5
221,5
222,5
223,5
224,5
225,5
226,5
227,5
228,5
229,5
230,5
231,5
232,5
233,5
234,5
235,5
236,5
237,5
238,5
239,5
240,5
241,5
242,5
243,5
244,5
245,5
246,5
247,5
248,5
249,5
250,5
251,5
252,5
253,5
254,5
255,5
256,5
257,5
258,5
259,5
260,5
261,5
262,5
263,5
264,5
265,5
266,5
267,5
268,5
269,5
270,5
271,5
272,5
273,5
274,5
275,6
276,6
277,6
278,6
279,6
280,5
281,5
282,5
283,5
284,5
285,5
286,5
287,5
288,5
289,5
290,5
291,5
292,5
293,5
294,5
295,5
296,5
297,5
298,5
299,5
300,5
301,5
302,5
303,5
304,5
305,5
306,5
307,5
308,5
309,5
310,5
311,5
312,5
313,5
314,5
315,5
316,5
317,5
318,5
319,5
320,5
321,5
322,5
323,5
324,5
325,5
326,5
327,6
328,6
329,6
330,6
331,6
332,6
333,6
334,6
335,6
336,6
337,6
338,6
339,6
340,6
341,6
342,6
343,6
344,6
345,6
346,6
347,6
348,6
349,6
350,6
351,6
352,6
353,6
354,6
355,6
356,6
357,6
358,6
359,6
360,6
361,6
362,6
363,6
364,6
365,6
366,6
367,6
368,6
369,6
370,6
371,6
372,6
373,6
374,6
375,6
376,6
377,6
378,6
379,6
380,6
381,7
382,6
383,6
384,6
385,6
386,6
387,6
388,6
389,6
390,6
391,6
392,6
393,6
394,6
395,6
396,6
397,6
398,6
399,6
400,6
401,6
402,6
403,6
404,6
405,6
406,7
407,7
408,7
409,7
410,7
411,7
412,7
413,7
414,7
415,7
416,7
417,7
418,7
419,7
420,7
421,7
422,7
423,7
424,7
425,7
426,7
427,7
428,7
429,7
430,7
431,7
432,7
433,7
434,8
435,7
436,7
437,7
438,7
439,7
440,7
441,7
442,7
443,7
444,7
445,7
446,7
447,7
448,7
449,7
450,7
451,7
452,7
453,7
454,7
455,7
456,7
457,7
458,7
459,7
460,7
461,7
462,7
463,7
464,7
465,7
466,7
467,7
468,7
469,7
470,7
471,7
472,7
473,7
474,7
475,7
476,7
477,7
478,7
479,7
480,7
481,7
482,7
483,7
484,7
485,7
486,7
487,7
488,7
489,7
490,7
491,7
492,7
493,7
494,7
495,7
496,7
497,7
498,7
499,7
500,7
501,7
502,7
503,7
504,7
505,7
506,7
507,7
508,7
509,7
510,7
511,7
512,7
513,7
514,7
515,7
516,7
517,7
518,7
519,7
520,7
521,7
522,7
523,7
524,7
525,7
526,7
527,7
528,7
529,7
530,8
531,7
532,7
533,7
534,7
535,7
536,7
537,7
538,7
539,7
540,7
541,8
542,8
543,8
544,8
545,7
546,7
547,7
548,7
549,8
550,7
551,7
552,7
553,7
554,7
555,7
556,7
557,7
558,7
559,7
560,7
561,7
562,7
563,7
564,7
565,7
566,7
567,7
568,7
569,7
570,7
571,7
572,7
573,7
574,7
575,7
576,7
577,7
578,7
579,7
580,7
581,7
582,7
583,7
584,7
585,7
586,7
587,7
588,7
589,7
590,7
591,7
592,7
593,7
594,7
595,7
596,7
597,7
598,7
599,7
600,7
601,7
602,7
603,7
604,8
605,8
606,8
607,8
608,8
609,8
610,8
611,8
612,8
613,8
614,8
615,8
616,8
617,8
618,8
619,8
620,8
621,8
622,8
623,8
624,8
625,8
626,8
627,8
628,8
629,8
630,8
631,8
632,8
633,8
634,8
635,8
636,8
637,8
638,8
639,8
640,8
641,8
642,8
643,8
644,8
645,8
646,8
647,8
648,8
649,8
650,8
651,8
652,8
653,8
654,8
655,8
656,8
657,8
658,8
659,8
660,8
661,9
662,9
663,8
664,8
665,8
666,8
667,8
668,8
669,8
670,8
671,8
672,8
673,8
674,8
675,8
676,8
677,8
678,8
679,8
680,8
681,8
682,8
683,8
684,8
685,8
686,8
687,8
688,8
689,8
690,8
691,8
692,8
693,8
694,8
695,8
696,8
697,8
698,8
699,8
700,8
701,8
702,8
703,8
704,8
705,8
706,8
707,8
708,8
709,8
710,8
711,8
712,8
713,8
714,8
715,8
716,8
717,8
718,8
719,8
720,8
721,8
722,8
723,8
724,8
725,8
726,8
727,8
728,8
729,8
730,8
731,8
732,8
733,8
734,8
735,8
736,8
737,8
738,8
739,8
740,8
741,8
742,8
743,8
744,8
745,8
746,8
747,8
748,8
749,8
750,8
751,8
752,8
753,8
754,8
755,8
756,8
757,8
758,8
759,8
760,8
761,8
762,8
763,8
764,8
765,8
766,8
767,8
768,8
769,8
770,8
771,8
772,8
773,8
774,8
775,8
776,8
777,8
778,8
779,8
780,8
781,8
782,8
783,8
784,8
785,8
786,8
787,8
788,8
789,8
790,8
791,8
792,8
793,8
794,8
795,8
796,8
797,8
798,8
799,8
800,8
801,8
802,8
803,8
804,8
805,8
806,8
807,8
808,8
809,8
810,8
811,8
812,8
813,8
814,8
815,8
816,8
817,8
818,8
819,8
820,8
821,8
822,8
823,8
824,8
825,8
826,8
827,8
828,8
829,8
830,8
831,8
832,8
833,8
834,8
835,8
836,8
837,8
838,8
839,8
840,8
841,8
842,8
843,8
844,8
845,8
846,8
847,8
848,9
849,9
850,9
851,8
852,8
853,8
854,8
855,8
856,8
857,8
858,8
859,8
860,8
861,8
862,8
863,8
864,8
865,8
866,8
867,8
868,8
869,8
870,8
871,8
872,8
873,8
874,8
875,8
876,8
877,8
878,8
879,8
880,8
881,8
882,8
883,8
884,8
885,8
886,8
887,8
888,8
889,8
890,8
891,8
892,9
893,9
894,8
895,8
896,8
897,8
898,8
899,8
900,8
901,8
902,8
903,8
904,8
905,8
906,8
907,8
908,8
909,8
910,8
911,8
912,8
913,8
914,8
915,8
916,8
917,8
918,8
919,8
920,8
921,8
922,8
923,8
924,8
925,8
926,8
927,8
928,8
929,8
930,8
931,8
932,8
933,8
934,8
935,8
936,9
937,9
938,9
939,9
940,9
941,9
942,9
943,9
944,9
945,9
946,9
947,9
948,9
949,9
950,9
951,9
952,9
953,9
954,9
955,9
956,9
957,9
958,9
959,9
960,9
961,9
962,9
963,9
964,9
965,9
966,9
967,9
968,9
969,9
970,9
971,9
972,9
973,9
974,9
975,9
976,9
977,9
978,9
979,9
980,9
981,9
982,9
983,9
984,9
985,9
986,9
987,9
988,9
989,9
990,9
991,9
992,9
993,9
994,9
995,9
996,9
997,9
998,9
999,9
1000,9
1001,9
1002,9
1003,9
1004,9
1005,9
1006,10
1007,10
1008,10
1009,10
1010,10
1011,10
1012,10
1013,10
1014,10
1015,10
1016,10
1017,10
1018,10
1019,10
1020,10
1021,10
1022,10
1023,10
1024,10
1025,10
1026,10
1027,10
1028,10
1029,10
1030,10
1031,10
1032,10
1033,10
1034,10
1035,10
1036,10
1037,10
1038,10
1039,10
1040,10
1041,10
1042,11
1043,10
1044,10
1045,10
1046,10
1047,10
1048,10
1049,10
1050,10
1051,10
1052,10
1053,10
1054,10
1055,10
1056,10
1057,10
1058,10
1059,10
1060,10
1061,10
1062,10
1063,10
1064,10
1065,10
1066,10
1067,10
1068,10
1069,10
1070,10
1071,10
1072,10
1073,10
1074,10
1075,10
1076,10
1077,10
1078,10
1079,10
1080,10
1081,10
1082,10
1083,10
1084,10
1085,10
1086,10
1087,10
1088,10
1089,10
1090,10
1091,10
1092,10
1093,10
1094,10
1095,10
1096,10
1097,10
1098,10
1099,10
1100,10
1101,10
1102,10
1103,10
1104,10
1105,10
1106,10
1107,10
1108,10
1109,10
1110,10
1111,10
1112,10
1113,10
1114,10
1115,10
1116,10
1117,10
1118,10
1119,10
1120,10
1121,10
1122,10
1123,10
1124,10
1125,10
1126,10
1127,10
1128,10
1129,10
1130,10
1131,10
1132,10
1133,10
1134,10
1135,10
1136,11
1137,11
1138,10
1139,10
1140,10
1141,10
1142,10
1143,10
1144,10
1145,10
1146,10
1147,10
1148,10
1149,10
1150,10
1151,10
1152,10
1153,10
1154,10
1155,10
1156,10
1157,10
1158,10
1159,10
1160,10
1161,10
1162,10
1163,10
1164,10
1165,10
1166,10
1167,10
1168,10
1169,10
1170,10
1171,10
1172,10
1173,10
1174,10
1175,10
1176,10
1177,10
1178,10
1179,10
1180,10
1181,10
1182,10
1183,10
1184,10
1185,10
1186,10
1187,10
1188,10
1189,10
1190,10
1191,10
1192,10
1193,10
1194,10
1195,10
1196,10
1197,10
1198,10
1199,10
1200,10
1201,10
1202,10
1203,10
1204,10
1205,10
1206,10
1207,10
1208,10
1209,10
1210,10
1211,10
1212,10
1213,10
1214,10
1215,10
1216,10
1217,10
1218,10
1219,10
1220,10
1221,10
1222,10
1223,10
1224,10
1225,10
1226,10
1227,10
1228,10
1229,10
1230,10
1231,10
1232,10
1233,10
1234,10
1235,10
1236,10
1237,10
1238,10
1239,10
1240,10
1241,10
1242,10
1243,10
1244,10
1245,10
1246,10
1247,10
1248,10
1249,10
1250,10
1251,10
1252,10
1253,10
1254,10
1255,10
1256,10
1257,10
1258,10
1259,10
1260,10
1261,10
1262,10
1263,10
1264,10
1265,10
1266,10
1267,10
1268,10
1269,10
1270,10
1271,10
1272,10
1273,10
1274,10
1275,10
1276,10
1277,10
1278,10
1279,10
1280,10
1281,10
1282,10
1283,10
1284,10
1285,10
1286,10
1287,10
1288,10
1289,10
1290,10
1291,10
1292,10
1293,10
1294,10
1295,10
1296,10
1297,10
1298,10
1299,10
1300,10
1301,10
1302,10
1303,10
1304,10
1305,10
1306,10
1307,10
1308,10
1309,10
1310,10
1311,10
1312,10
1313,10
1314,10
1315,10
1316,10
1317,10
1318,10
1319,10
1320,10
1321,10
1322,10
1323,10
1324,10
1325,10
1326,10
1327,10
1328,10
1329,10
1330,10
1331,10
1332,10
1333,10
1334,10
1335,10
1336,10
1337,10
1338,10
1339,10
1340,10
1341,10
1342,10
1343,10
1344,10
1345,10
1346,10
1347,10
1348,10
1349,10
1350,10
1351,10
1352,10
1353,10
1354,10
1355,10
1356,10
1357,10
1358,10
1359,10
1360,10
1361,10
1362,10
1363,10
1364,10
1365,10
1366,10
1367,10
1368,10
1369,10
1370,10
1371,10
1372,10
1373,10
1374,10
1375,10
1376,10
1377,10
1378,10
1379,10
1380,10
1381,11
1382,11
1383,11
1384,11
1385,11
1386,11
1387,11
1388,11
1389,11
1390,11
1391,11
1392,11
1393,11
1394,11
1395,11
1396,11
1397,11
1398,11
1399,11
1400,11
1401,11
1402,11
1403,11
1404,11
1405,11
1406,11
1407,11
1408,11
1409,11
1410,11
1411,11
1412,11
1413,11
1414,11
1415,11
1416,11
1417,11
1418,11
1419,11
1420,11
1421,11
1422,11
1423,11
1424,11
1425,11
1426,11
1427,11
1428,11
1429,11
1430,11
1431,11
1432,11
1433,11
1434,11
1435,11
1436,11
1437,11
1438,11
1439,11
1440,11
1441,11
1442,11
1443,11
1444,11
1445,11
1446,11
1447,11
1448,11
1449,11
1450,11
1451,11
1452,11
1453,11
1454,11
1455,11
1456,11
1457,11
1458,11
1459,11
1460,11
1461,11
1462,11
1463,11
1464,11
1465,11
1466,11
1467,11
1468,11
1469,11
1470,11
1471,11
1472,11
1473,11
1474,11
1475,11
1476,11
1477,11
1478,11
1479,11
1480,11
1481,11
1482,11
1483,11
1484,11
1485,11
1486,11
1487,11
1488,11
1489,11
1490,11
1491,11
1492,11
1493,11
1494,11
1495,11
1496,11
1497,11
1498,11
1499,11
1500,11
1501,11
1502,11
1503,11
1504,11
1505,11
1506,11
1507,11
1508,11
1509,11
1510,11
1511,11
1512,11
1513,11
1514,11
1515,11
1516,11
1517,11
1518,11
1519,11
1520,11
1521,11
1522,11
1523,11
1524,11
1525,11
1526,11
1527,11
1528,11
1529,11
1530,11
1531,11
1532,11
1533,11
1534,11
1535,11
1536,11
1537,11
1538,11
1539,11
1540,11
1541,11
1542,11
1543,11
1544,11
1545,11
1546,11
1547,11
1548,11
1549,11
1550,11
1551,11
1552,11
1553,11
1554,11
1555,11
1556,11
1557,11
1558,11
1559,12
1560,11
1561,11
1562,11
1563,11
1564,11
1565,11
1566,11
1567,11
1568,11
1569,11
1570,11
1571,11
1572,11
1573,11
1574,11
1575,11
1576,11
1577,11
1578,11
1579,11
1580,11
1581,11
1582,11
1583,11
1584,11
1585,11
1586,11
1587,11
1588,11
1589,11
1590,11
1591,12
1592,12
1593,12
1594,12
1595,12
1596,12
1597,12
1598,12
1599,12
1600,12
1601,12
1602,12
1603,12
1604,12
1605,12
1606,12
1607,12
1608,12
1609,12
1610,12
1611,12
1612,12
1613,12
1614,12
1615,12
1616,12
1617,12
1618,12
1619,12
1620,12
1621,12
1622,12
1623,12
1624,12
1625,12
1626,12
1627,12
1628,12
1629,12
1630,12
1631,12
1632,12
1633,12
1634,12
1635,12
1636,12
1637,12
1638,12
1639,13
1640,12
1641,12
1642,12
1643,12
1644,12
1645,12
1646,12
1647,12
1648,12
1649,12
1650,12
1651,12
1652,12
1653,12
1654,12
1655,12
1656,12
1657,12
1658,12
1659,12
1660,12
1661,12
1662,12
1663,12
1664,12
1665,12
1666,12
1667,12
1668,12
1669,12
1670,12
1671,12
1672,12
1673,12
1674,12
1675,12
1676,12
1677,12
1678,12
1679,12
1680,12
1681,12
1682,12
1683,13
1684,12
1685,12
1686,12
1687,12
1688,12
1689,12
1690,12
1691,12
1692,12
1693,12
1694,12
1695,12
1696,12
1697,12
1698,12
1699,12
1700,12
1701,12
1702,12
1703,12
1704,12
1705,12
1706,12
1707,12
1708,12
1709,12
1710,12
1711,12
1712,12
1713,12
1714,12
1715,12
1716,12
1717,12
1718,12
1719,12
1720,12
1721,12
1722,12
1723,12
1724,12
1725,12
1726,12
1727,12
1728,12
1729,12
1730,12
1731,12
1732,12
1733,12
1734,12
1735,12
1736,12
1737,12
1738,13
1739,13
1740,13
1741,13
1742,13
1743,13
1744,12
1745,12
1746,12
1747,12
1748,12
1749,12
1750,12
1751,13
1752,12
1753,12
1754,12
1755,12
1756,12
1757,12
1758,12
1759,12
1760,12
1761,12
1762,12
1763,12
1764,12
1765,12
1766,12
1767,12
1768,12
1769,12
1770,12
1771,12
1772,12
1773,13
1774,13
1775,13
1776,13
1777,13
1778,13
1779,13
1780,13
1781,13
1782,13
1783,13
1784,13
1785,13
1786,13
1787,13
1788,13
1789,12
1790,12
1791,12
1792,12
1793,12
1794,12
1795,12
1796,12
1797,12
1798,12
1799,12
1800,12
1801,12
1802,12
1803,12
1804,12
1805,12
1806,12
1807,12
1808,12
1809,12
1810,12
1811,12
1812,12
1813,12
1814,12
1815,12
1816,12
1817,12
1818,12
1819,12
1820,12
1821,12
1822,12
1823,12
1824,12
1825,12
1826,12
1827,12
1828,13
1829,12
1830,12
1831,12
1832,12
1833,12
1834,12
1835,12
1836,12
1837,12
1838,12
1839,12
1840,12
1841,12
1842,12
1843,12
1844,12
1845,12
1846,12
1847,12
1848,12
1849,12
1850,12
1851,13
1852,13
1853,13
1854,13
1855,13
1856,13
1857,13
1858,12
1859,12
1860,12
1861,12
1862,12
1863,12
1864,12
1865,13
1866,12
1867,12
1868,12
1869,12
1870,12
1871,12
1872,12
1873,12
1874,12
1875,12
1876,12
1877,12
1878,12
1879,12
1880,12
1881,12
1882,12
1883,12
1884,12
1885,12
1886,12
1887,12
1888,12
1889,12
1890,12
1891,12
1892,12
1893,12
1894,12
1895,12
1896,12
1897,12
1898,12
1899,12
1900,12
1901,12
1902,12
1903,12
1904,12
1905,12
1906,12
1907,12
1908,12
1909,12
1910,13
1911,12
1912,12
1913,12
1914,12
1915,12
1916,12
1917,12
1918,12
1919,12
1920,12
1921,12
1922,12
1923,12
1924,12
1925,12
1926,12
1927,12
1928,12
1929,12
1930,12
1931,12
1932,12
1933,12
1934,12
1935,12
1936,12
1937,12
1938,12
1939,12
1940,12
1941,12
1942,12
1943,12
1944,12
1945,12
1946,12
1947,12
1948,12
1949,12
1950,12
1951,12
1952,12
1953,12
1954,12
1955,12
1956,12
1957,12
1958,12
1959,12
1960,12
1961,12
1962,12
1963,12
1964,12
1965,12
1966,12
1967,12
1968,12
1969,12
1970,12
1971,12
1972,12
1973,12
1974,12
1975,12
1976,13
1977,13
1978,13
1979,13
1980,12
1981,12
1982,12
1983,12
1984,12
1985,12
1986,12
1987,12
1988,12
1989,12
1990,12
1991,12
1992,12
1993,12
1994,12
1995,12
1996,12
1997,12
1998,12
1999,12
2000,12
2001,12
2002,12
2003,12
2004,12
2005,12
2006,12
2007,12
2008,12
2009,12
2010,12
2011,12
2012,12
2013,12
2014,12
2015,12
2016,12
2017,12
2018,12
2019,12
2020,12
2021,12
2022,12
2023,12
2024,12
2025,12
2026,12
2027,12
2028,12
2029,12
2030,12
2031,12
2032,12
2033,12
2034,12
2035,12
2036,12
2037,12
2038,12
2039,12
2040,12
2041,12
2042,12
2043,12
2044,12
2045,12
2046,12
2047,12
2048,13
2049,13
2050,12
2051,12
2052,12
2053,12
2054,12
2055,12
2056,12
2057,12
2058,12
2059,12
2060,12
2061,12
2062,12
2063,12
2064,12
2065,12
2066,12
2067,12
2068,12
2069,12
2070,12
2071,12
2072,12
2073,12
2074,12
2075,12
2076,12
2077,12
2078,12
2079,12
2080,12
2081,12
2082,12
2083,12
2084,12
2085,12
2086,12
2087,12
2088,12
2089,12
2090,12
2091,12
2092,12
2093,12
2094,12
2095,12
2096,12
2097,12
2098,12
2099,12
2100,12
2101,12
2102,12
2103,12
2104,12
2105,12
2106,12
2107,12
2108,12
2109,12
2110,12
2111,12
2112,12
2113,12
2114,12
2115,12
2116,12
2117,13
2118,13
2119,12
2120,12
2121,12
2122,12
2123,12
2124,12
2125,12
2126,12
2127,12
2128,12
2129,12
2130,12
2131,12
2132,12
2133,12
2134,12
2135,12
2136,12
2137,12
2138,12
2139,12
2140,12
2141,12
2142,12
2143,12
2144,12
2145,12
2146,12
2147,12
2148,12
2149,12
2150,12
2151,12
2152,12
2153,12
2154,12
2155,12
2156,12
2157,12
2158,12
2159,12
2160,12
2161,12
2162,12
2163,12
2164,12
2165,12
2166,12
2167,12
2168,12
2169,12
2170,12
2171,12
2172,12
2173,12
2174,12
2175,12
2176,12
2177,12
2178,12
2179,12
2180,12
2181,12
2182,12
2183,12
2184,12
2185,12
2186,12
2187,12
2188,12
2189,12
2190,12
2191,12
2192,12
2193,12
2194,12
2195,12
2196,12
2197,12
2198,12
2199,12
2200,12
2201,12
2202,12
2203,12
2204,12
2205,12
2206,12
2207,12
2208,12
2209,12
2210,12
2211,12
2212,12
2213,12
2214,12
2215,12
2216,12
2217,12
2218,12
2219,12
2220,12
2221,12
2222,12
2223,12
2224,12
2225,12
2226,12
2227,12
2228,12
2229,12
2230,12
2231,12
2232,12
2233,12
2234,12
2235,12
2236,12
2237,12
2238,12
2239,12
2240,12
2241,12
2242,12
2243,12
2244,12
2245,12
2246,12
2247,12
2248,12
2249,12
2250,12
2251,12
2252,12
2253,12
2254,12
2255,12
2256,12
2257,12
2258,13
2259,13
2260,12
2261,12
2262,12
2263,12
2264,12
2265,12
2266,12
2267,12
2268,12
2269,12
2270,12
2271,12
2272,12
2273,12
2274,12
2275,12
2276,12
2277,12
2278,12
2279,12
2280,12
2281,12
2282,12
2283,12
2284,12
2285,12
2286,12
2287,12
2288,12
2289,12
2290,12
2291,12
2292,12
2293,12
2294,12
2295,12
2296,12
2297,12
2298,12
2299,12
2300,12
2301,12
2302,12
2303,12
2304,12
2305,12
2306,12
2307,12
2308,12
2309,12
2310,12
2311,12
2312,12
2313,12
2314,12
2315,12
2316,12
2317,12
2318,12
2319,12
2320,12
2321,12
2322,12
2323,12
2324,12
2325,12
2326,12
2327,12
2328,12
2329,12
2330,12
2331,12
2332,12
2333,12
2334,12
2335,12
2336,12
2337,12
2338,12
2339,12
2340,12
2341,12
2342,12
2343,13
2344,13
2345,12
2346,12
2347,12
2348,12
2349,12
2350,12
2351,12
2352,12
2353,12
2354,12
2355,12
2356,12
2357,12
2358,12
2359,12
2360,12
2361,12
2362,12
2363,12
2364,12
2365,12
2366,12
2367,12
2368,12
2369,12
2370,12
2371,12
2372,12
2373,12
2374,12
2375,12
2376,12
2377,12
2378,12
2379,12
2380,12
2381,12
2382,12
2383,12
2384,12
2385,12
2386,12
2387,12
2388,12
2389,12
2390,12
2391,12
2392,12
2393,12
2394,12
2395,12
2396,12
2397,12
2398,12
2399,12
2400,12
2401,12
2402,12
2403,12
2404,12
2405,12
2406,12
2407,12
2408,12
2409,12
2410,12
2411,12
2412,12
2413,13
2414,13
2415,13
2416,13
2417,13
2418,13
2419,13
2420,12
2421,12
2422,12
2423,12
2424,12
2425,12
2426,12
2427,12
2428,12
2429,12
2430,12
2431,12
2432,12
2433,12
2434,12
2435,12
2436,13
2437,13
2438,13
2439,13
2440,13
2441,13
2442,13
2443,13
2444,13
2445,13
2446,13
2447,13
2448,13
2449,13
2450,13
2451,13
2452,13
2453,13
2454,13
2455,13
2456,13
2457,13
2458,13
2459,13
2460,13
2461,13
2462,13
2463,13
2464,13
2465,13
2466,13
2467,13
2468,13
2469,13
2470,13
2471,13
2472,13
2473,13
2474,13
2475,13
2476,13
2477,13
2478,13
2479,13
2480,13
2481,13
2482,13
2483,13
2484,13
2485,13
2486,13
2487,13
2488,13
2489,13
2490,13
2491,13
2492,13
2493,13
2494,13
2495,13
2496,13
2497,13
2498,13
2499,13
2500,13
2501,13
2502,13
2503,13
2504,13
2505,13
2506,13
2507,13
2508,13
2509,13
2510,13
2511,13
2512,13
2513,13
2514,13
2515,13
2516,13
2517,13
2518,13
2519,14
2520,14
2521,14
2522,14
2523,14
2524,14
2525,14
2526,14
2527,14
2528,14
2529,14
2530,14
2531,14
2532,14
2533,14
2534,14
2535,14
2536,14
2537,14
2538,14
2539,14
2540,14
2541,14
2542,14
2543,14
2544,14
2545,14
2546,14
2547,14
2548,14
2549,14
2550,14
2551,14
2552,14
2553,14
2554,14
2555,14
2556,14
2557,14
2558,14
2559,14
2560,14
2561,14
2562,14
2563,14
2564,14
2565,14
2566,14
2567,14
2568,14
2569,14
2570,14
2571,14
2572,14
2573,14
2574,14
2575,14
2576,14
2577,14
2578,14
2579,14
2580,14
2581,14
2582,14
2583,14
2584,14
2585,14
2586,14
2587,14
2588,14
2589,14
2590,14
2591,14
2592,14
2593,14
2594,14
2595,14
2596,14
2597,14
2598,14
2599,14
2600,14
2601,14
2602,14
2603,14
2604,14
2605,14
2606,14
2607,14
2608,14
2609,14
2610,14
2611,14
2612,14
2613,14
2614,14
2615,14
2616,14
2617,14
2618,14
2619,14
2620,14
2621,14
2622,14
2623,14
2624,14
2625,14
2626,14
2627,14
2628,14
2629,14
2630,14
2631,14
2632,14
2633,14
2634,14
2635,14
2636,14
2637,14
2638,14
2639,14
2640,14
2641,14
2642,14
2643,14
2644,14
2645,14
2646,14
2647,14
2648,14
2649,14
2650,14
2651,14
2652,14
2653,14
2654,14
2655,14
2656,14
2657,14
2658,14
2659,14
2660,14
2661,14
2662,14
2663,14
2664,14
2665,14
2666,14
2667,14
2668,14
2669,14
2670,14
2671,14
2672,14
2673,14
2674,14
2675,15
2676,14
2677,14
2678,14
2679,14
2680,14
2681,14
2682,14
2683,14
2684,14
2685,14
2686,14
2687,14
2688,14
2689,14
2690,14
2691,14
2692,14
2693,14
2694,14
2695,14
2696,14
2697,14
2698,14
2699,14
2700,14
2701,14
2702,14
2703,14
2704,14
2705,14
2706,14
2707,14
2708,14
2709,14
2710,14
2711,14
2712,14
2713,14
2714,14
2715,14
2716,14
2717,14
2718,14
2719,14
2720,14
2721,14
2722,14
2723,14
2724,14
2725,14
2726,14
2727,14
2728,14
2729,14
2730,14
2731,14
2732,14
2733,14
2734,14
2735,14
2736,14
2737,14
2738,14
2739,14
2740,14
2741,14
2742,14
2743,14
2744,14
2745,14
2746,14
2747,14
2748,14
2749,14
2750,14
2751,14
2752,14
2753,14
2754,14
2755,15
2756,15
2757,15
2758,15
2759,15
2760,15
2761,15
2762,15
2763,15
2764,15
2765,15
2766,15
2767,15
2768,15
2769,15
2770,15
2771,15
2772,15
2773,15
2774,15
2775,15
2776,15
2777,15
2778,15
2779,15
2780,15
2781,15
2782,15
2783,15
2784,15
2785,15
2786,15
2787,15
2788,15
2789,15
2790,15
2791,15
2792,15
2793,15
2794,15
2795,15
2796,15
2797,15
2798,15
2799,15
2800,15
2801,15
2802,16
2803,16
2804,16
2805,16
2806,16
2807,15
2808,16
2809,15
2810,15
2811,15
2812,15
2813,15
2814,15
2815,15
2816,15
2817,15
2818,15
2819,15
2820,15
2821,15
2822,15
2823,15
2824,15
2825,15
2826,15
2827,15
2828,15
2829,15
2830,15
2831,15
2832,15
2833,15
2834,15
2835,15
2836,15
2837,15
2838,15
2839,15
2840,15
2841,15
2842,15
2843,15
2844,15
2845,15
2846,15
2847,15
2848,15
2849,15
2850,15
2851,15
2852,15
2853,15
2854,16
2855,15
2856,15
2857,15
2858,15
2859,15
2860,15
2861,15
2862,15
2863,15
2864,15
2865,15
2866,15
2867,15
2868,15
2869,15
2870,15
2871,15
2872,15
2873,15
2874,15
2875,15
2876,15
2877,15
2878,15
2879,15
2880,15
2881,15
2882,15
2883,15
2884,15
2885,15
2886,15
2887,16
2888,16
2889,15
2890,15
2891,15
2892,15
2893,15
2894,15
2895,15
2896,15
2897,15
2898,15
2899,15
2900,15
2901,15
2902,15
2903,15
2904,15
2905,15
2906,15
2907,15
2908,15
2909,15
2910,15
2911,15
2912,15
2913,15
2914,15
2915,15
2916,15
2917,15
2918,15
2919,15
2920,15
2921,15
2922,15
2923,15
2924,15
2925,15
2926,15
2927,15
2928,15
2929,15
2930,15
2931,15
2932,15
2933,15
2934,15
2935,15
2936,15
2937,15
2938,15
2939,15
2940,15
2941,15
2942,15
2943,15
2944,15
2945,15
2946,15
2947,15
2948,15
2949,15
2950,15
2951,15
2952,15
2953,15
2954,15
2955,15
2956,15
2957,15
2958,15
2959,15
2960,15
2961,15
2962,15
2963,15
2964,15
2965,15
2966,15
2967,15
2968,15
2969,15
2970,15
2971,15
2972,15
2973,15
2974,15
2975,15
2976,15
2977,15
2978,15
2979,15
2980,15
2981,15
2982,15
2983,15
2984,15
2985,15
2986,15
2987,15
2988,15
2989,15
2990,15
2991,15
2992,15
2993,15
2994,15
2995,15
2996,15
2997,15
2998,15
2999,15
3000,15
3001,15
3002,15
3003,15
3004,15
3005,15
3006,15
3007,15
3008,15
3009,15
3010,15
3011,15
3012,15
3013,15
3014,15
3015,15
3016,15
3017,15
3018,15
3019,15
3020,15
3021,15
3022,15
3023,15
3024,15
3025,15
3026,16
3027,15
3028,15
3029,15
3030,15
3031,15
3032,15
3033,15
3034,15
3035,15
3036,15
3037,15
3038,15
3039,15
3040,15
3041,15
3042,15
3043,15
3044,15
3045,15
3046,15
3047,15
3048,15
3049,15
3050,15
3051,15
3052,15
3053,15
3054,15
3055,15
3056,15
3057,15
3058,15
3059,15
3060,15
3061,15
3062,15
3063,15
3064,15
3065,15
3066,15
3067,15
3068,15
3069,15
3070,15
3071,15
3072,15
3073,15
3074,15
3075,15
3076,15
3077,15
3078,15
3079,15
3080,15
3081,15
3082,15
3083,15
3084,15
3085,15
3086,15
3087,15
3088,15
3089,15
3090,15
3091,15
3092,15
3093,15
3094,15
3095,15
3096,15
3097,15
3098,15
3099,15
3100,15
3101,15
3102,15
3103,15
3104,15
3105,15
3106,15
3107,15
3108,15
3109,15
3110,15
3111,15
3112,15
3113,15
3114,15
3115,15
3116,15
3117,15
3118,15
3119,15
3120,15
3121,15
3122,15
3123,15
3124,15
3125,15
3126,15
3127,15
3128,15
3129,15
3130,16
3131,15
3132,15
3133,15
3134,15
3135,15
3136,15
3137,15
3138,15
3139,15
3140,15
3141,15
3142,15
3143,15
3144,15
3145,15
3146,15
3147,15
3148,15
3149,15
3150,15
3151,15
3152,15
3153,15
3154,15
3155,15
3156,15
3157,15
3158,15
3159,15
3160,15
3161,15
3162,15
3163,15
3164,15
3165,15
3166,15
3167,15
3168,15
3169,15
3170,15
3171,15
3172,15
3173,15
3174,15
3175,15
3176,15
3177,15
3178,15
3179,16
3180,16
3181,16
3182,15
3183,15
3184,15
3185,15
3186,15
3187,15
3188,15
3189,15
3190,15
3191,15
3192,15
3193,15
3194,15
3195,15
3196,15
3197,15
3198,15
3199,15
3200,15
3201,15
3202,15
3203,15
3204,15
3205,15
3206,15
3207,15
3208,15
3209,15
3210,15
3211,15
3212,15
3213,15
3214,15
3215,15
3216,15
3217,15
3218,15
3219,15
3220,15
3221,15
3222,15
3223,15
3224,15
3225,15
3226,15
3227,15
3228,15
3229,15
3230,15
3231,15
3232,15
3233,15
3234,15
3235,15
3236,15
3237,15
3238,15
3239,15
3240,15
3241,15
3242,15
3243,15
3244,15
3245,15
3246,15
3247,15
3248,15
3249,15
3250,15
3251,15
3252,15
3253,15
3254,15
3255,15
3256,15
3257,15
3258,15
3259,15
3260,15
3261,15
3262,15
3263,15
3264,15
3265,15
3266,15
3267,15
3268,15
3269,15
3270,15
3271,16
3272,16
3273,15
3274,15
3275,15
3276,15
3277,15
3278,15
3279,15
3280,15
3281,15
3282,15
3283,16
3284,16
3285,16
3286,16
3287,15
3288,15
3289,15
3290,15
3291,15
3292,15
3293,15
3294,15
3295,15
3296,15
3297,15
3298,15
3299,15
3300,15
3301,15
3302,15
3303,15
3304,15
3305,15
3306,15
3307,15
3308,15
3309,15
3310,15
3311,15
3312,15
3313,15
3314,15
3315,15
3316,15
3317,15
3318,15
3319,15
3320,15
3321,15
3322,15
3323,15
3324,15
3325,15
3326,15
3327,15
3328,15
3329,15
3330,15
3331,15
3332,15
3333,15
3334,15
3335,15
3336,15
3337,15
3338,15
3339,15
3340,15
3341,15
3342,15
3343,15
3344,15
3345,15
3346,16
3347,16
3348,15
3349,15
3350,15
3351,15
3352,15
3353,15
3354,16
3355,15
3356,15
3357,15
3358,15
3359,15
3360,15
3361,15
3362,15
3363,15
3364,15
3365,15
3366,15
3367,15
3368,15
3369,15
3370,15
3371,15
3372,15
3373,15
3374,15
3375,15
3376,15
3377,15
3378,15
3379,15
3380,15
3381,15
3382,15
3383,15
3384,15
3385,15
3386,15
3387,15
3388,15
3389,15
3390,15
3391,15
3392,15
3393,15
3394,15
3395,15
3396,15
3397,16
3398,16
3399,15
3400,15
3401,15
3402,15
3403,15
3404,15
3405,15
3406,15
3407,15
3408,15
3409,15
3410,15
3411,15
3412,15
3413,15
3414,15
3415,15
3416,15
3417,15
3418,15
3419,15
3420,15
3421,15
3422,15
3423,15
3424,15
3425,15
3426,15
3427,15
3428,15
3429,15
3430,15
3431,15
3432,15
3433,15
3434,15
3435,15
3436,15
3437,15
3438,15
3439,15
3440,15
3441,15
3442,15
3443,15
3444,15
3445,15
3446,15
3447,15
3448,15
3449,15
3450,15
3451,15
3452,15
3453,16
3454,16
3455,15
3456,15
3457,15
3458,15
3459,15
3460,15
3461,15
3462,15
3463,15
3464,15
3465,15
3466,15
3467,15
3468,15
3469,15
3470,15
3471,15
3472,15
3473,15
3474,15
3475,15
3476,15
3477,15
3478,15
3479,15
3480,15
3481,15
3482,15
3483,15
3484,15
3485,15
3486,15
3487,15
3488,15
3489,15
3490,15
3491,15
3492,15
3493,15
3494,15
3495,15
3496,15
3497,15
3498,15
3499,15
3500,15
3501,15
3502,15
3503,15
3504,15
3505,15
3506,15
3507,15
3508,15
3509,15
3510,15
3511,15
3512,15
3513,15
3514,15
3515,15
3516,15
3517,15
3518,15
3519,15
3520,15
3521,15
3522,15
3523,15
3524,15
3525,15
3526,15
3527,15
3528,15
3529,15
3530,15
3531,15
3532,15
3533,15
3534,15
3535,15
3536,15
3537,15
3538,15
3539,15
3540,15
3541,15
3542,15
3543,15
3544,15
3545,15
3546,15
3547,15
3548,15
3549,15
3550,15
3551,15
3552,15
3553,15
3554,15
3555,15
3556,15
3557,15
3558,15
3559,15
3560,15
3561,15
3562,15
3563,15
3564,15
3565,15
3566,15
3567,15
3568,15
3569,15
3570,15
3571,15
3572,15
3573,15
3574,15
3575,15
3576,15
3577,15
3578,15
3579,15
3580,15
3581,15
3582,15
3583,15
3584,15
3585,15
3586,15
3587,15
3588,15
3589,15
3590,15
3591,15
3592,15
3593,15
3594,15
3595,15
3596,15
3597,15
3598,15
3599,15
3600,15
3601,15
3602,15
3603,15
3604,15
3605,15
3606,15
3607,15
3608,15
3609,15
3610,15
3611,15
3612,15
3613,15
3614,15
3615,15
3616,15
3617,15
3618,15
3619,15
3620,15
3621,15
3622,15
3623,15
3624,15
3625,15
3626,15
3627,15
3628,15
3629,15
3630,15
3631,15
3632,15
3633,15
3634,15
3635,15
3636,15
3637,15
3638,15
3639,15
3640,15
3641,15
3642,15
3643,15
3644,15
3645,15
3646,15
3647,15
3648,15
3649,15
3650,15
3651,15
3652,15
3653,15
3654,15
3655,15
3656,15
3657,15
3658,15
3659,15
3660,15
3661,15
3662,15
3663,15
3664,15
3665,15
3666,16
3667,15
3668,15
3669,15
3670,15
3671,15
3672,15
3673,15
3674,15
3675,15
3676,15
3677,15
3678,16
3679,16
3680,16
3681,16
3682,16
3683,16
3684,17
3685,17
3686,17
3687,17
3688,17
3689,17
3690,17
3691,16
3692,16
3693,16
3694,16
3695,16
3696,16
3697,16
3698,16
3699,16
3700,16
3701,16
3702,16
3703,16
3704,16
3705,16
3706,16
3707,16
3708,16
3709,16
3710,16
3711,16
3712,16
3713,16
3714,16
3715,16
3716,16
3717,16
3718,17
3719,17
3720,16
3721,16
3722,16
3723,16
3724,16
3725,16
3726,16
3727,16
3728,16
3729,16
3730,16
3731,16
3732,16
3733,16
3734,16
3735,16
3736,16
3737,16
3738,16
3739,16
3740,16
3741,16
3742,16
3743,16
3744,16
3745,17
3746,17
3747,17
3748,17
3749,17
3750,17
3751,17
3752,16
3753,16
3754,16
3755,16
3756,16
3757,16
3758,16
3759,16
3760,16
3761,16
3762,16
3763,16
3764,16
3765,16
3766,16
3767,16
3768,16
3769,16
3770,17
3771,16
3772,16
3773,16
3774,16
3775,16
3776,16
3777,16
3778,16
3779,16
3780,16
3781,16
3782,16
3783,16
3784,16
3785,16
3786,16
3787,16
3788,16
3789,16
3790,16
3791,16
3792,16
3793,16
3794,16
3795,16
3796,16
3797,16
3798,16
3799,16
3800,16
3801,16
3802,16
3803,16
3804,16
3805,16
3806,16
3807,16
3808,16
3809,16
3810,16
3811,16
3812,16
3813,16
3814,16
3815,16
3816,16
3817,16
3818,16
3819,16
3820,16
3821,16
3822,16
3823,16
3824,16
3825,16
3826,16
3827,16
3828,16
3829,16
3830,16
3831,16
3832,16
3833,16
3834,16
3835,16
3836,16
3837,16
3838,16
3839,16
3840,16
3841,16
3842,16
3843,16
3844,16
3845,16
3846,16
3847,16
3848,16
3849,16
3850,16
3851,16
3852,16
3853,16
3854,16
3855,16
3856,16
3857,16
3858,16
3859,16
3860,16
3861,16
3862,16
3863,16
3864,16
3865,16
3866,16
3867,16
3868,16
3869,16
3870,16
3871,18
3872,17
3873,17
3874,17
3875,17
3876,18
3877,18
3878,18
3879,18
3880,17
3881,17
3882,17
3883,17
3884,16
3885,16
3886,16
3887,16
3888,16
3889,16
3890,16
3891,16
3892,16
3893,16
3894,16
3895,16
3896,16
3897,16
3898,16
3899,16
3900,16
3901,16
3902,16
3903,16
3904,16
3905,16
3906,16
3907,16
3908,16
3909,16
3910,16
3911,16
3912,16
3913,16
3914,16
3915,16
3916,16
3917,16
3918,16
3919,16
3920,16
3921,16
3922,16
3923,16
3924,16
3925,16
3926,16
3927,16
3928,16
3929,16
3930,16
3931,16
3932,16
3933,16
3934,16
3935,16
3936,16
3937,16
3938,16
3939,16
3940,16
3941,16
3942,16
3943,16
3944,16
3945,16
3946,16
3947,16
3948,16
3949,16
3950,16
3951,16
3952,16
3953,16
3954,16
3955,16
3956,16
3957,16
3958,16
3959,16
3960,16
3961,16
3962,16
3963,16
3964,16
3965,16
3966,16
3967,16
3968,16
3969,16
3970,16
3971,16
3972,16
3973,16
3974,16
3975,17
3976,16
3977,16
3978,16
3979,16
3980,16
3981,16
3982,16
3983,16
3984,16
3985,16
3986,16
3987,16
3988,16
3989,16
3990,16
3991,16
3992,16
3993,16
3994,16
3995,16
3996,16
3997,16
3998,16
3999,16
4000,16
4001,16
4002,16
4003,16
4004,16
4005,16
4006,16
4007,16
4008,16
4009,16
4010,16
4011,16
4012,16
4013,16
4014,16
4015,16
4016,16
4017,16
4018,16
4019,16
4020,16
4021,16
4022,16
4023,16
4024,16
4025,16
4026,16
4027,16
4028,16
4029,16
4030,16
4031,16
4032,16
4033,16
4034,16
4035,16
4036,16
4037,16
4038,16
4039,16
4040,16
4041,16
4042,16
4043,16
4044,16
4045,16
4046,16
4047,17
4048,16
4049,16
4050,16
4051,16
4052,16
4053,16
4054,16
4055,16
4056,16
4057,16
4058,16
4059,16
4060,16
4061,16
4062,16
4063,16
4064,16
4065,16
4066,16
4067,16
4068,16
4069,16
4070,16
4071,16
4072,16
4073,16
4074,16
4075,16
4076,16
4077,16
4078,16
4079,16
4080,16
4081,16
4082,16
4083,16
4084,16
4085,16
4086,16
4087,16
4088,16
4089,16
4090,16
4091,16
4092,16
4093,16
4094,16
4095,16
4096,16
4097,16
4098,16
4099,16
4100,16
4101,16
4102,16
4103,16
4104,16
4105,16
4106,16
4107,16
4108,16
4109,16
4110,16
4111,16
4112,16
4113,16
4114,16
4115,16
4116,16
4117,16
4118,16
4119,16
4120,16
4121,16
4122,16
4123,16
4124,16
4125,16
4126,16
4127,16
4128,16
4129,16
4130,16
4131,16
4132,16
4133,16
4134,16
4135,16
4136,16
4137,16
4138,16
4139,16
4140,16
4141,16
4142,16
4143,16
4144,16
4145,16
4146,16
4147,16
4148,16
4149,16
4150,16
4151,16
4152,16
4153,16
4154,16
4155,16
4156,16
4157,16
4158,16
4159,16
4160,16
4161,16
4162,16
4163,16
4164,16
4165,16
4166,16
4167,16
4168,16
4169,16
4170,16
4171,16
4172,16
4173,16
4174,16
4175,16
4176,16
4177,16
4178,16
4179,17
4180,17
4181,17
4182,17
4183,17
4184,16
4185,16
4186,16
4187,17
4188,17
4189,17
4190,18
4191,18
4192,18
4193,18
4194,17
4195,17
4196,17
4197,17
4198,17
4199,17
4200,17
4201,17
4202,17
4203,17
4204,17
4205,17
4206,17
4207,17
4208,17
4209,17
4210,17
4211,17
4212,17
4213,17
4214,17
4215,17
4216,17
4217,17
4218,17
4219,17
4220,17
4221,17
4222,17
4223,17
4224,17
4225,17
4226,17
4227,17
4228,17
4229,17
4230,17
4231,17
4232,17
4233,17
4234,17
4235,17
4236,17
4237,17
4238,17
4239,17
4240,17
4241,17
4242,17
4243,17
4244,17
4245,17
4246,17
4247,17
4248,17
4249,17
4250,17
4251,17
4252,17
4253,17
4254,17
4255,17
4256,17
4257,17
4258,17
4259,17
4260,17
4261,17
4262,17
4263,17
4264,17
4265,17
4266,17
4267,17
4268,17
4269,17
4270,17
4271,17
4272,17
4273,17
4274,17
4275,18
4276,18
4277,18
4278,18
4279,18
4280,18
4281,18
4282,18
4283,18
4284,18
4285,18
4286,18
4287,18
4288,18
4289,18
4290,17
4291,17
4292,17
4293,17
4294,17
4295,17
4296,17
4297,17
4298,17
4299,17
4300,17
4301,17
4302,17
4303,17
4304,17
4305,17
4306,17
4307,17
4308,17
4309,17
4310,17
4311,17
4312,17
4313,17
4314,17
4315,17
4316,17
4317,17
4318,17
4319,17
4320,17
4321,17
4322,17
4323,17
4324,17
4325,17
4326,17
4327,17
4328,17
4329,17
4330,17
4331,17
4332,17
4333,17
4334,17
4335,17
4336,17
4337,17
4338,17
4339,17
4340,17
4341,17
4342,17
4343,17
4344,17
4345,17
4346,17
4347,17
4348,17
4349,17
4350,17
4351,17
4352,17
4353,17
4354,17
4355,17
4356,17
4357,17
4358,17
4359,17
4360,17
4361,17
4362,17
4363,17
4364,17
4365,17
4366,17
4367,17
4368,17
4369,17
4370,17
4371,17
4372,17
4373,17
4374,17
4375,17
4376,17
4377,17
4378,17
4379,17
4380,17
4381,17
4382,17
4383,17
4384,17
4385,17
4386,17
4387,17
4388,17
4389,17
4390,17
4391,17
4392,17
4393,17
4394,17
4395,17
4396,17
4397,17
4398,17
4399,17
4400,17
4401,17
4402,17
4403,17
4404,17
4405,17
4406,17
4407,17
4408,17
4409,17
4410,17
4411,17
4412,17
4413,17
4414,17
4415,17
4416,17
4417,17
4418,17
4419,17
4420,17
4421,17
4422,17
4423,17
4424,17
4425,17
4426,18
4427,18
4428,17
4429,17
4430,17
4431,17
4432,17
4433,17
4434,17
4435,17
4436,17
4437,17
4438,17
4439,17
4440,17
4441,17
4442,17
4443,17
4444,17
4445,17
4446,17
4447,17
4448,17
4449,17
4450,17
4451,17
4452,17
4453,17
4454,17
4455,17
4456,17
4457,17
4458,17
4459,17
4460,17
4461,17
4462,17
4463,17
4464,17
4465,17
4466,17
4467,17
4468,17
4469,17
4470,17
4471,17
4472,17
4473,17
4474,17
4475,17
4476,17
4477,17
4478,17
4479,17
4480,17
4481,17
4482,17
4483,17
4484,17
4485,17
4486,17
4487,17
4488,17
4489,17
4490,18
4491,18
4492,18
4493,17
4494,17
4495,17
4496,17
4497,17
4498,17
4499,17
4500,18
4501,18
4502,17
4503,17
4504,17
4505,17
4506,17
4507,17
4508,17
4509,17
4510,17
4511,17
4512,17
4513,17
4514,17
4515,17
4516,17
4517,17
4518,17
4519,17
4520,17
4521,17
4522,17
4523,17
4524,17
4525,17
4526,17
4527,17
4528,17
4529,17
4530,17
4531,17
4532,17
4533,17
4534,17
4535,17
4536,17
4537,17
4538,17
4539,17
4540,17
4541,17
4542,17
4543,17
4544,17
4545,17
4546,17
4547,17
4548,17
4549,17
4550,17
4551,17
4552,17
4553,17
4554,17
4555,17
4556,17
4557,17
4558,17
4559,17
4560,17
4561,17
4562,17
4563,17
4564,17
4565,17
4566,17
4567,17
4568,17
4569,17
4570,17
4571,17
4572,17
4573,17
4574,17
4575,17
4576,17
4577,17
4578,17
4579,17
4580,17
4581,17
4582,17
4583,17
4584,17
4585,17
4586,17
4587,17
4588,17
4589,17
4590,17
4591,17
4592,17
4593,17
4594,18
4595,18
4596,18
4597,17
4598,17
4599,17
4600,17
4601,17
4602,17
4603,17
4604,17
4605,17
4606,17
4607,17
4608,17
4609,17
4610,17
4611,17
4612,17
4613,17
4614,17
4615,17
4616,17
4617,17
4618,17
4619,17
4620,18
4621,18
4622,18
4623,18
4624,18
4625,17
4626,17
4627,17
4628,17
4629,17
4630,17
4631,17
4632,17
4633,17
4634,17
4635,17
4636,17
4637,17
4638,17
4639,17
4640,17
4641,17
4642,17
4643,17
4644,17
4645,17
4646,17
4647,18
4648,17
4649,17
4650,17
4651,17
4652,17
4653,17
4654,17
4655,17
4656,17
4657,17
4658,17
4659,17
4660,17
4661,17
4662,17
4663,17
4664,17
4665,17
4666,17
4667,17
4668,17
4669,17
4670,17
4671,17
4672,17
4673,17
4674,17
4675,17
4676,17
4677,17
4678,17
4679,17
4680,17
4681,17
4682,17
4683,17
4684,17
4685,17
4686,17
4687,17
4688,17
4689,17
4690,17
4691,17
4692,17
4693,17
4694,17
4695,17
4696,17
4697,17
4698,17
4699,17
4700,17
4701,17
4702,17
4703,17
4704,17
4705,17
4706,17
4707,17
4708,18
4709,18
4710,18
4711,18
4712,18
4713,18
4714,18
4715,18
4716,18
4717,18
4718,18
4719,18
4720,18
4721,17
4722,17
4723,17
4724,17
4725,17
4726,17
4727,17
4728,17
4729,17
4730,17
4731,17
4732,17
4733,17
4734,17
4735,17
4736,17
4737,17
4738,17
4739,17
4740,17
4741,17
4742,17
4743,17
4744,17
4745,17
4746,17
4747,17
4748,17
4749,17
4750,17
4751,17
4752,17
4753,17
4754,17
4755,17
4756,17
4757,17
4758,17
4759,17
4760,17
4761,17
4762,17
4763,17
4764,17
4765,17
4766,17
4767,17
4768,17
4769,17
4770,17
4771,17
4772,17
4773,17
4774,17
4775,17
4776,17
4777,17
4778,17
4779,17
4780,17
4781,17
4782,17
4783,17
4784,17
4785,17
4786,17
4787,17
4788,17
4789,17
4790,17
4791,17
4792,17
4793,17
4794,17
4795,17
4796,17
4797,17
4798,17
4799,17
4800,17
4801,17
4802,17
4803,17
4804,17
4805,17
4806,17
4807,17
4808,17
4809,17
4810,17
4811,17
4812,17
4813,17
4814,17
4815,17
4816,17
4817,17
4818,17
4819,17
4820,17
4821,17
4822,17
4823,17
4824,17
4825,17
4826,17
4827,17
4828,17
4829,17
4830,17
4831,17
4832,17
4833,17
4834,17
4835,17
4836,17
4837,17
4838,17
4839,17
4840,17
4841,17
4842,17
4843,17
4844,17
4845,17
4846,17
4847,17
4848,17
4849,17
4850,17
4851,17
4852,17
4853,17
4854,17
4855,17
4856,17
4857,17
4858,17
4859,17
4860,17
4861,17
4862,17
4863,17
4864,17
4865,17
4866,17
4867,17
4868,17
4869,17
4870,17
4871,17
4872,17
4873,17
4874,17
4875,17
4876,17
4877,17
4878,17
4879,17
4880,17
4881,17
4882,17
4883,17
4884,17
4885,17
4886,17
4887,17
4888,17
4889,17
4890,17
4891,17
4892,17
4893,17
4894,17
4895,17
4896,17
4897,17
4898,17
4899,17
4900,17
4901,17
4902,17
4903,17
4904,17
4905,17
4906,17
4907,17
4908,17
4909,17
4910,17
4911,17
4912,17
4913,17
4914,17
4915,17
4916,17
4917,17
4918,17
4919,17
4920,17
4921,17
4922,17
4923,17
4924,17
4925,17
4926,17
4927,17
4928,17
4929,17
4930,17
4931,17
4932,17
4933,17
4934,17
4935,17
4936,17
4937,17
4938,17
4939,17
4940,17
4941,17
4942,17
4943,17
4944,17
4945,17
4946,17
4947,17
4948,17
4949,17
4950,17
4951,17
4952,17
4953,17
4954,17
4955,17
4956,17
4957,17
4958,17
4959,17
4960,17
4961,17
4962,17
4963,17
4964,17
4965,17
4966,17
4967,17
4968,17
4969,17
4970,17
4971,17
4972,17
4973,17
4974,17
4975,17
4976,17
4977,17
4978,17
4979,17
4980,18
4981,17
4982,17
4983,17
4984,17
4985,17
4986,17
4987,17
4988,17
4989,17
4990,17
4991,17
4992,18
4993,17
4994,17
4995,17
4996,17
4997,17
4998,17
4999,17
5000,17
5001,17
5002,17
5003,17
5004,17
5005,17
5006,17
5007,17
5008,17
5009,17
5010,17
5011,17
5012,17
5013,17
5014,17
5015,18
5016,17
5017,17
5018,17
5019,17
5020,17
5021,17
5022,17
5023,17
5024,17
5025,17
5026,17
5027,17
5028,17
5029,17
5030,17
5031,17
5032,17
5033,17
5034,17
5035,17
5036,17
5037,17
5038,18
5039,18
5040,17
5041,17
5042,17
5043,17
5044,17
5045,17
5046,17
5047,17
5048,17
5049,17
5050,17
5051,17
5052,17
5053,17
5054,17
5055,17
5056,17
5057,17
5058,17
5059,17
5060,17
5061,17
5062,17
5063,17
5064,17
5065,17
5066,17
5067,17
5068,17
5069,17
5070,17
5071,17
5072,17
5073,17
5074,17
5075,17
5076,17
5077,17
5078,17
5079,17
5080,17
5081,17
5082,17
5083,17
5084,17
5085,17
5086,17
5087,17
5088,17
5089,17
5090,17
5091,17
5092,17
5093,17
5094,17
5095,17
5096,17
5097,17
5098,17
5099,17
5100,17
5101,17
5102,17
5103,17
5104,17
5105,17
5106,17
5107,17
5108,17
5109,17
5110,17
5111,17
5112,17
5113,17
5114,17
5115,17
5116,17
5117,17
5118,17
5119,17
5120,17
5121,17
5122,17
5123,17
5124,17
5125,17
5126,18
5127,17
5128,17
5129,17
5130,17
5131,17
5132,17
5133,17
5134,17
5135,17
5136,17
5137,17
5138,17
5139,17
5140,17
5141,17
5142,17
5143,17
5144,17
5145,17
5146,17
5147,17
5148,17
5149,17
5150,17
5151,17
5152,17
5153,17
5154,17
5155,17
5156,17
5157,17
5158,17
5159,17
5160,17
5161,17
5162,17
5163,17
5164,17
5165,17
5166,17
5167,17
5168,17
5169,17
5170,17
5171,17
5172,17
5173,17
5174,17
5175,17
5176,17
5177,17
5178,17
5179,17
5180,17
5181,17
5182,17
5183,17
5184,17
5185,17
5186,17
5187,17
5188,17
5189,18
5190,17
5191,17
5192,17
5193,17
5194,17
5195,17
5196,17
5197,17
5198,17
5199,17
5200,17
5201,17
5202,17
5203,17
5204,17
5205,17
5206,17
5207,17
5208,17
5209,17
5210,17
5211,17
5212,17
5213,17
5214,17
5215,17
5216,17
5217,17
5218,17
5219,17
5220,17
5221,17
5222,17
5223,17
5224,17
5225,17
5226,17
5227,17
5228,17
5229,17
5230,17
5231,17
5232,17
5233,17
5234,17
5235,17
5236,17
5237,17
5238,17
5239,17
5240,17
5241,17
5242,17
5243,17
5244,17
5245,17
5246,17
5247,17
5248,17
5249,17
5250,17
5251,17
5252,17
5253,17
5254,17
5255,17
5256,17
5257,17
5258,17
5259,17
5260,17
5261,17
5262,17
5263,17
5264,17
5265,17
5266,17
5267,17
5268,17
5269,17
5270,17
5271,17
5272,17
5273,17
5274,17
5275,17
5276,17
5277,17
5278,17
5279,17
5280,17
5281,17
5282,17
5283,17
5284,17
5285,17
5286,17
5287,18
5288,17
5289,17
5290,17
5291,17
5292,17
5293,17
5294,17
5295,17
5296,17
5297,17
5298,17
5299,17
5300,17
5301,17
5302,17
5303,17
5304,17
5305,17
5306,17
5307,17
5308,17
5309,17
5310,17
5311,17
5312,17
5313,17
5314,17
5315,17
5316,17
5317,17
5318,17
5319,17
5320,17
5321,17
5322,17
5323,17
5324,17
5325,17
5326,17
5327,17
5328,17
5329,17
5330,17
5331,17
5332,17
5333,17
5334,17
5335,17
5336,17
5337,17
5338,17
5339,17
5340,17
5341,17
5342,17
5343,17
5344,17
5345,17
5346,17
5347,17
5348,17
5349,17
5350,17
5351,17
5352,17
5353,17
5354,17
5355,17
5356,17
5357,17
5358,17
5359,17
5360,17
5361,17
5362,17
5363,17
5364,17
5365,17
5366,17
5367,17
5368,17
5369,17
5370,17
5371,17
5372,17
5373,17
5374,17
5375,17
5376,17
5377,17
5378,17
5379,17
5380,17
5381,17
5382,17
5383,17
5384,17
5385,17
5386,17
5387,17
5388,17
5389,17
5390,17
5391,17
5392,17
5393,17
5394,17
5395,17
5396,17
5397,17
5398,17
5399,17
5400,17
5401,17
5402,17
5403,17
5404,17
5405,17
5406,17
5407,17
5408,17
5409,17
5410,17
5411,17
5412,17
5413,17
5414,17
5415,17
5416,17
5417,17
5418,17
5419,17
5420,17
5421,17
5422,17
5423,17
5424,17
5425,17
5426,17
5427,18
5428,17
5429,17
5430,17
5431,17
5432,17
5433,17
5434,17
5435,17
5436,17
5437,17
5438,17
5439,17
5440,17
5441,17
5442,17
5443,17
5444,17
5445,17
5446,17
5447,17
5448,17
5449,17
5450,17
5451,17
5452,17
5453,17
5454,17
5455,17
5456,17
5457,17
5458,17
5459,17
5460,17
5461,17
5462,17
5463,17
5464,17
5465,17
5466,17
5467,17
5468,17
5469,17
5470,17
5471,17
5472,17
5473,17
5474,17
5475,17
5476,17
5477,17
5478,17
5479,17
5480,17
5481,17
5482,17
5483,17
5484,17
5485,17
5486,17
5487,17
5488,17
5489,17
5490,17
5491,17
5492,17
5493,17
5494,17
5495,17
5496,17
5497,17
5498,17
5499,17
5500,17
5501,17
5502,17
5503,17
5504,17
5505,17
5506,17
5507,17
5508,17
5509,17
5510,17
5511,17
5512,17
5513,17
5514,17
5515,17
5516,17
5517,17
5518,18
5519,18
5520,18
5521,17
5522,17
5523,17
5524,17
5525,17
5526,17
5527,17
5528,17
5529,17
5530,17
5531,17
5532,17
5533,17
5534,18
5535,17
5536,17
5537,17
5538,17
5539,17
5540,17
5541,17
5542,17
5543,17
5544,17
5545,17
5546,17
5547,17
5548,17
5549,17
5550,17
5551,17
5552,17
5553,17
5554,17
5555,17
5556,17
5557,17
5558,17
5559,18
5560,18
5561,18
5562,17
5563,17
5564,17
5565,17
5566,17
5567,17
5568,17
5569,17
5570,17
5571,17
5572,17
5573,17
5574,17
5575,17
5576,17
5577,17
5578,17
5579,17
5580,17
5581,17
5582,17
5583,17
5584,17
5585,18
5586,18
5587,18
5588,18
5589,18
5590,18
5591,18
5592,18
5593,18
5594,18
5595,18
5596,18
5597,18
5598,18
5599,18
5600,18
5601,18
5602,18
5603,18
5604,18
5605,18
5606,18
5607,18
5608,18
5609,18
5610,18
5611,18
5612,18
5613,18
5614,18
5615,18
5616,18
5617,18
5618,18
5619,19
5620,19
5621,19
5622,19
5623,19
5624,19
5625,19
5626,19
5627,19
5628,19
5629,19
5630,19
5631,19
5632,19
5633,19
5634,19
5635,19
5636,19
5637,19
5638,19
5639,18
5640,18
5641,18
5642,18
5643,18
5644,18
5645,18
5646,18
5647,18
5648,18
5649,18
5650,18
5651,18
5652,18
5653,18
5654,18
5655,18
5656,18
5657,18
5658,18
5659,18
5660,18
5661,18
5662,18
5663,18
5664,18
5665,18
5666,18
5667,18
5668,18
5669,18
5670,18
5671,18
5672,18
5673,18
5674,18
5675,18
5676,18
5677,18
5678,19
5679,18
5680,18
5681,18
5682,18
5683,18
5684,18
5685,18
5686,18
5687,18
5688,18
5689,18
5690,18
5691,18
5692,18
5693,18
5694,18
5695,18
5696,18
5697,18
5698,18
5699,18
5700,18
5701,18
5702,18
5703,18
5704,18
5705,18
5706,18
5707,18
5708,18
5709,18
5710,18
5711,18
5712,18
5713,18
5714,18
5715,18
5716,18
5717,18
5718,18
5719,18
5720,18
5721,18
5722,18
5723,18
5724,18
5725,18
5726,18
5727,18
5728,18
5729,18
5730,18
5731,18
5732,18
5733,18
5734,18
5735,18
5736,18
5737,18
5738,18
5739,18
5740,18
5741,18
5742,18
5743,18
5744,18
5745,18
5746,18
5747,18
5748,18
5749,18
5750,18
5751,18
5752,18
5753,18
5754,18
5755,18
5756,18
5757,18
5758,18
5759,18
5760,18
5761,18
5762,18
5763,18
5764,18
5765,18
5766,18
5767,18
5768,18
5769,18
5770,18
5771,18
5772,18
5773,18
5774,18
5775,18
5776,18
5777,18
5778,18
5779,18
5780,18
5781,18
5782,18
5783,18
5784,18
5785,18
5786,18
5787,18
5788,18
5789,18
5790,18
5791,18
5792,18
5793,18
5794,18
5795,18
5796,18
5797,18
5798,18
5799,18
5800,18
5801,18
5802,18
5803,18
5804,18
5805,19
5806,18
5807,18
5808,18
5809,18
5810,18
5811,18
5812,18
5813,18
5814,18
5815,18
5816,18
5817,18
5818,18
5819,18
5820,18
5821,18
5822,18
5823,18
5824,18
5825,18
5826,18
5827,18
5828,18
5829,18
5830,18
5831,18
5832,18
5833,18
5834,18
5835,18
5836,18
5837,18
5838,18
5839,18
5840,18
5841,18
5842,18
5843,18
5844,18
5845,18
5846,18
5847,18
5848,18
5849,18
5850,18
5851,18
5852,18
5853,19
5854,19
5855,19
5856,19
5857,19
5858,18
5859,18
5860,18
5861,18
5862,18
5863,18
5864,18
5865,18
5866,18
5867,18
5868,18
5869,18
5870,18
5871,18
5872,18
5873,18
5874,18
5875,18
5876,18
5877,18
5878,18
5879,18
5880,18
5881,18
5882,18
5883,18
5884,18
5885,18
5886,18
5887,18
5888,18
5889,18
5890,18
5891,18
5892,18
5893,18
5894,18
5895,18
5896,18
5897,18
5898,18
5899,18
5900,18
5901,18
5902,18
5903,18
5904,18
5905,18
5906,18
5907,18
5908,18
5909,18
5910,18
5911,18
5912,18
5913,18
5914,18
5915,18
5916,18
5917,18
5918,18
5919,18
5920,18
5921,18
5922,18
5923,18
5924,18
5925,18
5926,18
5927,18
5928,18
5929,18
5930,18
5931,18
5932,18
5933,18
5934,18
5935,18
5936,18
5937,18
5938,18
5939,18
5940,18
5941,18
5942,18
5943,18
5944,18
5945,18
5946,18
5947,18
5948,18
5949,18
5950,18
5951,18
5952,18
5953,18
5954,18
5955,18
5956,18
5957,18
5958,18
5959,18
5960,18
5961,18
5962,18
5963,18
5964,18
5965,18
5966,18
5967,18
5968,18
5969,18
5970,18
5971,18
5972,18
5973,18
5974,18
5975,18
5976,18
5977,18
5978,18
5979,19
5980,19
5981,20
5982,20
5983,20
5984,20
5985,20
5986,20
5987,20
5988,20
5989,20
5990,20
5991,19
5992,19
5993,19
5994,19
5995,19
5996,19
5997,19
5998,19
5999,19
6000,19
6001,19
6002,19
6003,19
6004,19
6005,19
6006,19
6007,19
6008,19
6009,19
6010,19
6011,19
6012,19
6013,19
6014,19
6015,19
6016,19
6017,19
6018,19
6019,19
6020,19
6021,19
6022,19
6023,19
6024,19
6025,19
6026,19
6027,19
6028,19
6029,19
6030,19
6031,19
6032,19
6033,19
6034,19
6035,19
6036,19
6037,19
6038,19
6039,19
6040,19
6041,19
6042,19
6043,19
6044,20
6045,19
6046,19
6047,19
6048,19
6049,19
6050,19
6051,19
6052,19
6053,19
6054,19
6055,19
6056,19
6057,19
6058,19
6059,19
6060,19
6061,19
6062,19
6063,19
6064,19
6065,19
6066,19
6067,19
6068,19
6069,19
6070,19
6071,19
6072,19
6073,19
6074,19
6075,19
6076,19
6077,19
6078,19
6079,19
6080,19
6081,19
6082,19
6083,19
6084,19
6085,19
6086,19
6087,19
6088,19
6089,19
6090,19
6091,19
6092,19
6093,19
6094,19
6095,19
6096,19
6097,19
6098,19
6099,19
6100,19
6101,19
6102,19
6103,19
6104,19
6105,19
6106,19
6107,19
6108,19
6109,19
6110,19
6111,19
6112,19
6113,19
6114,19
6115,19
6116,19
6117,19
6118,19
6119,19
6120,19
6121,19
6122,19
6123,19
6124,19
6125,19
6126,19
6127,19
6128,19
6129,19
6130,19
6131,19
6132,19
6133,19
6134,19
6135,19
6136,19
6137,19
6138,19
6139,19
6140,19
6141,19
6142,19
6143,19
6144,19
6145,19
6146,19
6147,19
6148,19
6149,19
6150,19
6151,19
6152,19
6153,19
6154,19
6155,19
6156,19
6157,19
6158,19
6159,19
6160,19
6161,19
6162,19
6163,19
6164,19
6165,19
6166,19
6167,19
6168,19
6169,19
6170,19
6171,19
6172,19
6173,19
6174,19
6175,19
6176,19
6177,20
6178,20
6179,20
6180,20
6181,20
6182,20
6183,20
6184,20
6185,20
6186,20
6187,20
6188,20
6189,20
6190,19
6191,19
6192,19
6193,19
6194,19
6195,19
6196,19
6197,20
6198,19
6199,19
6200,19
6201,19
6202,19
6203,19
6204,19
6205,19
6206,19
6207,19
6208,19
6209,19
6210,19
6211,19
6212,19
6213,19
6214,19
6215,19
6216,19
6217,19
6218,19
6219,19
6220,19
6221,19
6222,19
6223,19
6224,19
6225,19
6226,19
6227,19
6228,19
6229,19
6230,19
6231,19
6232,19
6233,19
6234,19
6235,19
6236,19
6237,19
6238,19
6239,19
6240,19
6241,19
6242,19
6243,19
6244,19
6245,19
6246,19
6247,19
6248,19
6249,19
6250,19
6251,19
6252,19
6253,19
6254,19
6255,19
6256,19
6257,19
6258,19
6259,19
6260,19
6261,19
6262,19
6263,19
6264,19
6265,20
6266,20
6267,19
6268,19
6269,19
6270,19
6271,19
6272,19
6273,19
6274,19
6275,19
6276,19
6277,19
6278,19
6279,19
6280,19
6281,19
6282,19
6283,19
6284,19
6285,19
6286,19
6287,19
6288,19
6289,19
6290,19
6291,19
6292,19
6293,19
6294,19
6295,19
6296,19
6297,19
6298,19
6299,19
6300,19
6301,19
6302,19
6303,19
6304,19
6305,19
6306,19
6307,19
6308,19
6309,19
6310,19
6311,19
6312,19
6313,20
6314,19
6315,19
6316,19
6317,19
6318,19
6319,19
6320,19
6321,19
6322,19
6323,19
6324,19
6325,19
6326,19
6327,19
6328,19
6329,19
6330,19
6331,19
6332,19
6333,19
6334,19
6335,19
6336,19
6337,19
6338,19
6339,19
6340,19
6341,19
6342,19
6343,19
6344,19
6345,19
6346,19
6347,19
6348,19
6349,19
6350,19
6351,19
6352,19
6353,19
6354,19
6355,19
6356,19
6357,19
6358,19
6359,19
6360,19
6361,19
6362,19
6363,19
6364,19
6365,19
6366,19
6367,19
6368,19
6369,19
6370,19
6371,19
6372,19
6373,19
6374,19
6375,19
6376,19
6377,19
6378,19
6379,19
6380,19
6381,19
6382,19
6383,19
6384,19
6385,19
6386,19
6387,19
6388,19
6389,19
6390,19
6391,19
6392,19
6393,19
6394,19
6395,19
6396,19
6397,19
6398,19
6399,19
6400,19
6401,19
6402,19
6403,19
6404,19
6405,19
6406,19
6407,19
6408,19
6409,19
6410,19
6411,19
6412,19
6413,19
6414,19
6415,19
6416,19
6417,19
6418,19
6419,19
6420,19
6421,19
6422,19
6423,19
6424,19
6425,19
6426,19
6427,19
6428,19
6429,19
6430,19
6431,19
6432,19
6433,19
6434,19
6435,19
6436,19
6437,19
6438,19
6439,19
6440,19
6441,19
6442,19
6443,19
6444,19
6445,19
6446,19
6447,19
6448,19
6449,19
6450,19
6451,19
6452,19
6453,19
6454,19
6455,19
6456,19
6457,19
6458,19
6459,19
6460,19
6461,19
6462,19
6463,19
6464,19
6465,19
6466,19
6467,19
6468,19
6469,19
6470,19
6471,19
6472,19
6473,19
6474,19
6475,19
6476,19
6477,19
6478,19
6479,19
6480,19
6481,19
6482,19
6483,19
6484,19
6485,19
6486,19
6487,19
6488,19
6489,19
6490,19
6491,19
6492,19
6493,19
6494,19
6495,19
6496,19
6497,19
6498,19
6499,19
6500,19
6501,19
6502,19
6503,19
6504,19
6505,19
6506,19
6507,19
6508,19
6509,19
6510,19
6511,19
6512,19
6513,19
6514,19
6515,19
6516,19
6517,19
6518,19
6519,19
6520,19
6521,19
6522,19
6523,19
6524,19
6525,19
6526,19
6527,19
6528,19
6529,19
6530,19
6531,19
6532,19
6533,19
6534,19
6535,19
6536,19
6537,19
6538,19
6539,19
6540,19
6541,19
6542,19
6543,19
6544,19
6545,19
6546,19
6547,19
6548,19
6549,19
6550,19
6551,19
6552,19
6553,19
6554,19
6555,19
6556,19
6557,19
6558,19
6559,19
6560,19
6561,19
6562,19
6563,19
6564,19
6565,19
6566,19
6567,19
6568,19
6569,19
6570,19
6571,19
6572,19
6573,19
6574,19
6575,19
6576,19
6577,19
6578,19
6579,19
6580,19
6581,19
6582,19
6583,19
6584,19
6585,19
6586,19
6587,19
6588,19
6589,19
6590,19
6591,19
6592,19
6593,19
6594,19
6595,19
6596,19
6597,19
6598,19
6599,19
6600,19
6601,19
6602,19
6603,19
6604,19
6605,19
6606,19
6607,19
6608,19
6609,19
6610,19
6611,19
6612,19
6613,19
6614,19
6615,19
6616,19
6617,19
6618,19
6619,20
6620,20
6621,20
6622,20
6623,20
6624,20
6625,20
6626,20
6627,20
6628,20
6629,20
6630,20
6631,20
6632,20
6633,20
6634,20
6635,20
6636,20
6637,20
6638,20
6639,20
6640,20
6641,20
6642,20
6643,20
6644,20
6645,20
6646,20
6647,20
6648,20
6649,20
6650,20
6651,20
6652,20
6653,20
6654,20
6655,20
6656,20
6657,20
6658,20
6659,20
6660,20
6661,20
6662,20
6663,20
6664,20
6665,21
6666,21
6667,21
6668,21
6669,21
6670,20
6671,20
6672,20
6673,20
6674,20
6675,20
6676,20
6677,20
6678,20
6679,20
6680,20
6681,20
6682,20
6683,20
6684,20
6685,20
6686,20
6687,20
6688,20
6689,20
6690,20
6691,20
6692,20
6693,20
6694,20
6695,20
6696,20
6697,20
6698,20
6699,20
6700,20
6701,20
6702,21
6703,21
6704,21
6705,21
6706,21
6707,20
6708,20
6709,20
6710,20
6711,20
6712,20
6713,20
6714,20
6715,20
6716,20
6717,21
6718,20
6719,20
6720,20
6721,20
6722,20
6723,20
6724,20
6725,20
6726,20
6727,20
6728,20
6729,20
6730,20
6731,20
6732,20
6733,20
6734,20
6735,20
6736,20
6737,20
6738,20
6739,20
6740,20
6741,20
6742,20
6743,20
6744,20
6745,20
6746,20
6747,20
6748,20
6749,20
6750,20
6751,20
6752,20
6753,20
6754,20
6755,20
6756,20
6757,20
6758,20
6759,20
6760,20
6761,20
6762,20
6763,20
6764,20
6765,20
6766,20
6767,20
6768,20
6769,20
6770,20
6771,20
6772,20
6773,20
6774,20
6775,20
6776,20
6777,20
6778,20
6779,20
6780,20
6781,20
6782,20
6783,20
6784,20
6785,20
6786,20
6787,20
6788,21
6789,21
6790,21
6791,21
6792,20
6793,20
6794,20
6795,20
6796,20
6797,20
6798,20
6799,20
6800,20
6801,20
6802,21
6803,20
6804,20
6805,20
6806,20
6807,20
6808,20
6809,20
6810,20
6811,20
6812,20
6813,20
6814,20
6815,20
6816,20
6817,20
6818,20
6819,20
6820,20
6821,20
6822,20
6823,20
6824,20
6825,20
6826,20
6827,20
6828,20
6829,20
6830,20
6831,20
6832,20
6833,20
6834,20
6835,20
6836,20
6837,20
6838,20
6839,20
6840,20
6841,20
6842,20
6843,20
6844,20
6845,20
6846,20
6847,20
6848,20
6849,20
6850,20
6851,20
6852,20
6853,20
6854,20
6855,20
6856,20
6857,20
6858,20
6859,20
6860,20
6861,20
6862,20
6863,20
6864,20
6865,20
6866,20
6867,20
6868,20
6869,20
6870,20
6871,20
6872,20
6873,20
6874,20
6875,20
6876,20
6877,20
6878,20
6879,20
6880,20
6881,20
6882,20
6883,20
6884,20
6885,20
6886,20
6887,20
6888,20
6889,20
6890,20
6891,20
6892,20
6893,20
6894,20
6895,20
6896,20
6897,20
6898,20
6899,20
6900,20
6901,20
6902,20
6903,20
6904,20
6905,20
6906,20
6907,20
6908,20
6909,20
6910,20
6911,20
6912,20
6913,20
6914,20
6915,20
6916,21
6917,21
6918,21
6919,21
6920,21
6921,21
6922,21
6923,21
6924,21
6925,21
6926,21
6927,21
6928,21
6929,21
6930,20
6931,20
6932,20
6933,20
6934,20
6935,20
6936,20
6937,20
6938,20
6939,20
6940,20
6941,20
6942,20
6943,20
6944,20
6945,20
6946,20
6947,20
6948,20
6949,20
6950,20
6951,20
6952,20
6953,20
6954,20
6955,20
6956,20
6957,20
6958,20
6959,20
6960,20
6961,20
6962,20
6963,20
6964,20
6965,20
6966,20
6967,20
6968,20
6969,20
6970,20
6971,20
6972,20
6973,20
6974,20
6975,20
6976,20
6977,20
6978,20
6979,20
6980,20
6981,20
6982,20
6983,20
6984,20
6985,20
6986,20
6987,20
6988,20
6989,20
6990,20
6991,20
6992,20
6993,20
6994,20
6995,20
6996,20
6997,20
6998,20
6999,20
7000,20
7001,20
7002,20
7003,20
7004,20
7005,20
7006,20
7007,20
7008,20
7009,20
7010,20
7011,20
7012,20
7013,20
7014,20
7015,20
7016,20
7017,20
7018,20
7019,20
7020,20
7021,20
7022,20
7023,20
7024,20
7025,20
7026,20
7027,20
7028,20
7029,20
7030,20
7031,20
7032,20
7033,20
7034,20
7035,20
7036,20
7037,20
7038,20
7039,20
7040,20
7041,20
7042,20
7043,20
7044,20
7045,20
7046,20
7047,20
7048,20
7049,20
7050,20
7051,20
7052,20
7053,20
7054,20
7055,20
7056,20
7057,20
7058,20
7059,20
7060,20
7061,20
7062,20
7063,20
7064,20
7065,20
7066,20
7067,20
7068,20
7069,20
7070,20
7071,20
7072,20
7073,20
7074,20
7075,20
7076,20
7077,20
7078,20
7079,20
7080,20
7081,20
7082,20
7083,20
7084,20
7085,20
7086,20
7087,20
7088,20
7089,20
7090,20
7091,20
7092,20
7093,20
7094,20
7095,20
7096,21
7097,21
7098,22
7099,21
7100,21
7101,21
7102,21
7103,21
7104,21
7105,21
7106,21
7107,21
7108,21
7109,21
7110,21
7111,21
7112,21
7113,21
7114,21
7115,21
7116,21
7117,21
7118,21
7119,21
7120,21
7121,21
7122,22
7123,22
7124,22
7125,22
7126,22
7127,21
7128,21
7129,21
7130,21
7131,21
7132,21
7133,21
7134,21
7135,21
7136,21
7137,21
7138,21
7139,21
7140,21
7141,21
7142,21
7143,21
7144,21
7145,21
7146,21
7147,21
7148,21
7149,21
7150,21
7151,21
7152,21
7153,21
7154,21
7155,21
7156,21
7157,21
7158,21
7159,21
7160,21
7161,21
7162,21
7163,21
7164,21
7165,21
7166,21
7167,21
7168,21
7169,21
7170,21
7171,21
7172,21
7173,21
7174,21
7175,21
7176,21
7177,21
7178,21
7179,21
7180,21
7181,21
7182,21
7183,21
7184,21
7185,21
7186,21
7187,21
7188,21
7189,21
7190,21
7191,21
7192,21
7193,21
7194,21
7195,21
7196,21
7197,21
7198,21
7199,21
7200,21
7201,21
7202,21
7203,21
7204,21
7205,21
7206,21
7207,21
7208,21
7209,21
7210,21
7211,21
7212,21
7213,21
7214,21
7215,21
7216,21
7217,21
7218,21
7219,21
7220,21
7221,21
7222,21
7223,21
7224,21
7225,21
7226,21
7227,21
7228,21
7229,21
7230,21
7231,21
7232,21
7233,21
7234,21
7235,21
7236,21
7237,21
7238,21
7239,21
7240,21
7241,21
7242,21
7243,21
7244,21
7245,21
7246,21
7247,21
7248,21
7249,21
7250,21
7251,21
7252,21
7253,21
7254,21
7255,21
7256,21
7257,21
7258,21
7259,21
7260,21
7261,21
7262,21
7263,21
7264,21
7265,21
7266,21
7267,21
7268,21
7269,21
7270,21
7271,21
7272,21
7273,21
7274,21
7275,21
7276,21
7277,21
7278,21
7279,21
7280,21
7281,21
7282,21
7283,21
7284,21
7285,21
7286,21
7287,21
7288,21
7289,21
7290,22
7291,21
7292,21
7293,21
7294,21
7295,21
7296,21
7297,21
7298,21
7299,21
7300,21
7301,21
7302,21
7303,21
7304,21
7305,21
7306,21
7307,21
7308,21
7309,21
7310,21
7311,21
7312,21
7313,21
7314,21
7315,21
7316,21
7317,21
7318,21
7319,21
7320,21
7321,21
7322,21
7323,21
7324,21
7325,21
7326,21
7327,21
7328,21
7329,21
7330,21
7331,21
7332,21
7333,21
7334,21
7335,21
7336,21
7337,21
7338,21
7339,21
7340,21
7341,21
7342,21
7343,22
7344,22
7345,22
7346,22
7347,22
7348,22
7349,22
7350,22
7351,22
7352,22
7353,22
7354,22
7355,22
7356,22
7357,22
7358,22
7359,22
7360,22
7361,22
7362,23
7363,23
7364,23
7365,23
7366,23
7367,23
7368,22
7369,22
7370,22
7371,22
7372,22
7373,22
7374,22
7375,22
7376,22
7377,22
7378,22
7379,22
7380,22
7381,22
7382,22
7383,22
7384,22
7385,22
7386,22
7387,22
7388,22
7389,22
7390,22
7391,22
7392,22
7393,22
7394,22
7395,22
7396,22
7397,22
7398,22
7399,22
7400,22
7401,22
7402,22
7403,22
7404,22
7405,22
7406,22
7407,22
7408,22
7409,22
7410,22
7411,22
7412,22
7413,22
7414,22
7415,22
7416,22
7417,22
7418,22
7419,22
7420,22
7421,22
7422,22
7423,22
7424,22
7425,22
7426,22
7427,22
7428,22
7429,22
7430,22
7431,22
7432,22
7433,22
7434,22
7435,22
7436,22
7437,22
7438,22
7439,22
7440,22
7441,22
7442,22
7443,22
7444,22
7445,22
7446,22
7447,22
7448,22
7449,22
7450,22
7451,22
7452,22
7453,22
7454,22
7455,22
7456,22
7457,22
7458,22
7459,22
7460,22
7461,22
7462,22
7463,22
7464,22
7465,22
7466,22
7467,22
7468,22
7469,22
7470,23
7471,23
7472,22
7473,22
7474,22
7475,22
7476,22
7477,22
7478,22
7479,22
7480,22
7481,22
7482,22
7483,22
7484,22
7485,22
7486,22
7487,22
7488,22
7489,22
7490,22
7491,22
7492,22
7493,22
7494,22
7495,22
7496,22
7497,22
7498,22
7499,22
7500,22
7501,23
7502,22
7503,22
7504,22
7505,22
7506,22
7507,22
7508,22
7509,22
7510,22
7511,22
7512,22
7513,22
7514,22
7515,22
7516,22
7517,22
7518,22
7519,22
7520,22
7521,22
7522,22
7523,22
7524,22
7525,22
7526,22
7527,22
7528,22
7529,22
7530,22
7531,22
7532,22
7533,22
7534,22
7535,22
7536,22
7537,22
7538,22
7539,22
7540,22
7541,22
7542,22
7543,22
7544,22
7545,22
7546,22
7547,22
7548,22
7549,22
7550,22
7551,22
7552,22
7553,22
7554,22
7555,22
7556,22
7557,22
7558,22
7559,22
7560,22
7561,22
7562,22
7563,22
7564,22
7565,22
7566,22
7567,22
7568,22
7569,22
7570,22
7571,22
7572,22
7573,22
7574,22
7575,22
7576,22
7577,22
7578,22
7579,22
7580,22
7581,22
7582,22
7583,22
7584,22
7585,22
7586,22
7587,22
7588,22
7589,22
7590,22
7591,22
7592,22
7593,22
7594,22
7595,22
7596,22
7597,22
7598,22
7599,22
7600,22
7601,22
7602,22
7603,22
7604,22
7605,22
7606,22
7607,22
7608,22
7609,22
7610,22
7611,22
7612,22
7613,22
7614,22
7615,22
7616,22
7617,22
7618,22
7619,22
7620,22
7621,22
7622,22
7623,22
7624,22
7625,22
7626,22
7627,22
7628,22
7629,22
7630,22
7631,22
7632,22
7633,22
7634,22
7635,22
7636,22
7637,22
7638,22
7639,22
7640,22
7641,22
7642,22
7643,22
7644,22
7645,22
7646,22
7647,22
7648,22
7649,22
7650,22
7651,22
7652,22
7653,22
7654,22
7655,22
7656,22
7657,22
7658,22
7659,22
7660,22
7661,22
7662,22
7663,22
7664,22
7665,22
7666,22
7667,22
7668,22
7669,22
7670,22
7671,22
7672,22
7673,22
7674,22
7675,22
7676,22
7677,22
7678,22
7679,22
7680,22
7681,22
7682,22
7683,22
7684,22
7685,22
7686,22
7687,22
7688,22
7689,22
7690,22
7691,22
7692,22
7693,22
7694,22
7695,22
7696,22
7697,22
7698,22
7699,22
7700,22
7701,22
7702,22
7703,22
7704,22
7705,22
7706,22
7707,22
7708,22
7709,22
7710,22
7711,22
7712,22
7713,22
7714,22
7715,22
7716,22
7717,22
7718,22
7719,22
7720,22
7721,22
7722,22
7723,23
7724,23
7725,22
7726,22
7727,22
7728,22
7729,22
7730,23
7731,23
7732,22
7733,22
7734,22
7735,22
7736,22
7737,22
7738,22
7739,22
7740,22
7741,22
7742,22
7743,22
7744,22
7745,22
7746,22
7747,22
7748,22
7749,22
7750,22
7751,22
7752,22
7753,22
7754,22
7755,22
7756,22
7757,22
7758,22
7759,22
7760,22
7761,22
7762,22
7763,22
7764,22
7765,22
7766,22
7767,22
7768,22
7769,22
7770,22
7771,22
7772,22
7773,22
7774,22
7775,22
7776,22
7777,22
7778,22
7779,22
7780,22
7781,22
7782,22
7783,22
7784,22
7785,22
7786,22
7787,22
7788,22
7789,22
7790,22
7791,22
7792,22
7793,22
7794,22
7795,22
7796,22
7797,22
7798,22
7799,22
7800,22
7801,22
7802,22
7803,22
7804,22
7805,22
7806,22
7807,22
7808,22
7809,22
7810,22
7811,22
7812,22
7813,22
7814,22
7815,22
7816,22
7817,22
7818,22
7819,22
7820,22
7821,22
7822,22
7823,22
7824,22
7825,22
7826,22
7827,22
7828,22
7829,22
7830,22
7831,22
7832,22
7833,22
7834,22
7835,22
7836,22
7837,22
7838,22
7839,22
7840,22
7841,22
7842,22
7843,22
7844,22
7845,22
7846,22
7847,22
7848,22
7849,22
7850,22
7851,22
7852,22
7853,22
7854,22
7855,22
7856,22
7857,22
7858,22
7859,22
7860,22
7861,22
7862,22
7863,22
7864,22
7865,22
7866,22
7867,22
7868,22
7869,22
7870,22
7871,22
7872,22
7873,22
7874,22
7875,22
7876,22
7877,22
7878,22
7879,22
7880,22
7881,22
7882,22
7883,22
7884,22
7885,22
7886,22
7887,22
7888,22
7889,22
7890,22
7891,22
7892,22
7893,22
7894,22
7895,22
7896,22
7897,23
7898,23
7899,23
7900,23
7901,22
7902,22
7903,22
7904,22
7905,22
7906,22
7907,22
7908,22
7909,22
7910,22
7911,22
7912,22
7913,22
7914,23
7915,23
7916,23
7917,23
7918,23
7919,23
7920,23
7921,23
7922,23
7923,23
7924,23
7925,23
7926,23
7927,23
7928,23
7929,23
7930,23
7931,23
7932,22
7933,22
7934,22
7935,22
7936,22
7937,22
7938,22
7939,22
7940,22
7941,22
7942,22
7943,22
7944,22
7945,22
7946,22
7947,22
7948,22
7949,22
7950,22
7951,22
7952,22
7953,22
7954,22
7955,22
7956,22
7957,22
7958,22
7959,22
7960,22
7961,22
7962,22
7963,22
7964,22
7965,22
7966,22
7967,22
7968,22
7969,22
7970,22
7971,22
7972,22
7973,22
7974,22
7975,22
7976,22
7977,22
7978,22
7979,22
7980,22
7981,22
7982,22
7983,22
7984,22
7985,22
7986,22
7987,22
7988,22
7989,22
7990,22
7991,22
7992,22
7993,22
7994,22
7995,22
7996,22
7997,22
7998,22
7999,22
8000,22
8001,22
8002,22
8003,22
8004,22
8005,22
8006,22
8007,22
8008,22
8009,22
8010,22
8011,22
8012,22
8013,22
8014,22
8015,22
8016,22
8017,22
8018,24
8019,24
8020,24
8021,24
8022,24
8023,24
8024,24
8025,25
8026,25
8027,25
8028,25
8029,25
8030,25
8031,24
8032,22
8033,22
8034,22
8035,22
8036,22
8037,22
8038,22
8039,22
8040,22
8041,22
8042,22
8043,22
8044,22
8045,22
8046,22
8047,22
8048,22
8049,23
8050,23
8051,23
8052,23
8053,23
8054,23
8055,23
8056,23
8057,23
8058,24
8059,23
8060,23
8061,23
8062,23
8063,23
8064,23
8065,23
8066,23
8067,23
8068,23
8069,23
8070,23
8071,23
8072,23
8073,23
8074,23
8075,23
8076,23
8077,23
8078,23
8079,23
8080,23
8081,23
8082,23
8083,23
8084,23
8085,23
8086,23
8087,23
8088,23
8089,23
8090,23
8091,23
8092,23
8093,23
8094,23
8095,23
8096,23
8097,24
8098,24
8099,24
8100,24
8101,24
8102,24
8103,23
8104,23
8105,23
8106,23
8107,23
8108,23
8109,23
8110,23
8111,23
8112,23
8113,23
8114,23
8115,23
8116,23
8117,23
8118,23
8119,23
8120,23
8121,23
8122,23
8123,23
8124,23
8125,23
8126,23
8127,23
8128,23
8129,24
8130,23
8131,23
8132,23
8133,23
8134,24
8135,23
8136,23
8137,23
8138,23
8139,23
8140,23
8141,23
8142,23
8143,23
8144,23
8145,23
8146,23
8147,23
8148,23
8149,23
8150,23
8151,23
8152,23
8153,23
8154,23
8155,23
8156,23
8157,23
8158,23
8159,23
8160,23
8161,23
8162,23
8163,23
8164,23
8165,23
8166,23
8167,23
8168,23
8169,23
8170,23
8171,23
8172,23
8173,23
8174,23
8175,23
8176,23
8177,23
8178,23
8179,23
8180,23
8181,23
8182,23
8183,23
8184,23
8185,23
8186,23
8187,23
8188,23
8189,23
8190,23
8191,23
8192,23
8193,23
8194,23
8195,23
8196,23
8197,23
8198,23
8199,23
8200,23
8201,23
8202,23
8203,23
8204,23
8205,23
8206,23
8207,23
8208,23
8209,23
8210,23
8211,23
8212,23
8213,23
8214,23
8215,23
8216,23
8217,23
8218,23
8219,23
8220,23
8221,23
8222,23
8223,23
8224,23
8225,23
8226,23
8227,23
8228,23
8229,23
8230,23
8231,23
8232,23
8233,23
8234,23
8235,23
8236,23
8237,23
8238,23
8239,23
8240,23
8241,23
8242,23
8243,23
8244,23
8245,23
8246,23
8247,23
8248,23
8249,23
8250,24
8251,23
8252,23
8253,23
8254,23
8255,23
8256,23
8257,23
8258,23
8259,23
8260,23
8261,23
8262,23
8263,23
8264,23
8265,23
8266,23
8267,24
8268,23
8269,23
8270,23
8271,23
8272,23
8273,23
8274,23
8275,23
8276,23
8277,23
8278,23
8279,23
8280,23
8281,23
8282,23
8283,23
8284,23
8285,23
8286,23
8287,23
8288,23
8289,23
8290,23
8291,23
8292,23
8293,23
8294,23
8295,23
8296,23
8297,23
8298,23
8299,23
8300,23
8301,23
8302,23
8303,23
8304,23
8305,23
8306,23
8307,23
8308,23
8309,23
8310,23
8311,23
8312,23
8313,23
8314,23
8315,23
8316,23
8317,23
8318,23
8319,23
8320,23
8321,23
8322,23
8323,23
8324,23
8325,23
8326,23
8327,23
8328,23
8329,23
8330,23
8331,23
8332,23
8333,23
8334,23
8335,23
8336,23
8337,23
8338,23
8339,23
8340,24
8341,24
8342,24
8343,23
8344,23
8345,23
8346,23
8347,23
8348,23
8349,23
8350,23
8351,23
8352,23
8353,23
8354,23
8355,23
8356,23
8357,23
8358,23
8359,23
8360,23
8361,23
8362,23
8363,23
8364,23
8365,23
8366,23
8367,23
8368,23
8369,23
8370,23
8371,23
8372,23
8373,23
8374,23
8375,23
8376,23
8377,23
8378,23
8379,23
8380,23
8381,23
8382,23
8383,23
8384,23
8385,23
8386,23
8387,23
8388,23
8389,23
8390,23
8391,23
8392,23
8393,23
8394,23
8395,23
8396,23
8397,23
8398,23
8399,23
8400,23
8401,23
8402,23
8403,23
8404,23
8405,23
8406,23
8407,23
8408,23
8409,23
8410,23
8411,23
8412,23
8413,23
8414,23
8415,23
8416,23
8417,23
8418,23
8419,23
8420,23
8421,23
8422,23
8423,23
8424,23
8425,23
8426,23
8427,23
8428,23
8429,24
8430,23
8431,23
8432,23
8433,23
8434,23
8435,24
8436,23
8437,23
8438,23
8439,23
8440,23
8441,23
8442,23
8443,23
8444,23
8445,23
8446,23
8447,23
8448,23
8449,23
8450,23
8451,23
8452,23
8453,23
8454,23
8455,23
8456,23
8457,23
8458,23
8459,23
8460,23
8461,23
8462,23
8463,23
8464,23
8465,23
8466,23
8467,23
8468,23
8469,23
8470,23
8471,23
8472,23
8473,23
8474,23
8475,23
8476,24
8477,24
8478,24
8479,24
8480,24
8481,24
8482,24
8483,24
8484,24
8485,24
8486,24
8487,24
8488,24
8489,24
8490,24
8491,24
8492,24
8493,24
8494,24
8495,24
8496,24
8497,24
8498,24
8499,24
8500,24
8501,24
8502,24
8503,24
8504,24
8505,24
8506,24
8507,24
8508,24
8509,24
8510,24
8511,24
8512,24
8513,24
8514,24
8515,24
8516,24
8517,24
8518,24
8519,24
8520,24
8521,24
8522,24
8523,24
8524,24
8525,24
8526,24
8527,24
8528,24
8529,24
8530,24
8531,24
8532,24
8533,24
8534,24
8535,24
8536,24
8537,24
8538,24
8539,24
8540,24
8541,24
8542,24
8543,24
8544,24
8545,25
8546,24
8547,24
8548,24
8549,24
8550,24
8551,24
8552,24
8553,24
8554,24
8555,24
8556,24
8557,24
8558,24
8559,24
8560,24
8561,24
8562,24
8563,24
8564,24
8565,24
8566,24
8567,24
8568,24
8569,24
8570,24
8571,24
8572,24
8573,24
8574,24
8575,24
8576,24
8577,24
8578,24
8579,24
8580,24
8581,24
8582,24
8583,24
8584,24
8585,24
8586,24
8587,24
8588,24
8589,24
8590,24
8591,24
8592,24
8593,24
8594,24
8595,24
8596,24
8597,24
8598,24
8599,24
8600,24
8601,24
8602,24
8603,24
8604,24
8605,24
8606,24
8607,24
8608,24
8609,24
8610,24
8611,24
8612,24
8613,24
8614,24
8615,24
8616,24
8617,24
8618,24
8619,24
8620,24
8621,24
8622,24
8623,24
8624,24
8625,24
8626,24
8627,24
8628,24
8629,24
8630,24
8631,24
8632,24
8633,24
8634,24
8635,24
8636,24
8637,24
8638,24
8639,24
8640,24
8641,24
8642,24
8643,24
8644,24
8645,24
8646,24
8647,24
8648,24
8649,24
8650,24
8651,24
8652,24
8653,24
8654,24
8655,24
8656,24
8657,24
8658,24
8659,24
8660,24
8661,24
8662,24
8663,24
8664,24
8665,24
8666,24
8667,24
8668,24
8669,24
8670,25
8671,25
8672,25
8673,25
8674,24
8675,24
8676,24
8677,24
8678,24
8679,24
8680,24
8681,24
8682,24
8683,24
8684,24
8685,24
8686,24
8687,24
8688,24
8689,24
8690,24
8691,24
8692,24
8693,24
8694,24
8695,24
8696,24
8697,24
8698,24
8699,24
8700,24
8701,24
8702,24
8703,24
8704,24
8705,24
8706,24
8707,24
8708,24
8709,24
8710,24
8711,24
8712,24
8713,24
8714,24
8715,24
8716,24
8717,24
8718,24
8719,24
8720,24
8721,24
8722,24
8723,24
8724,24
8725,24
8726,24
8727,24
8728,24
8729,24
8730,24
8731,24
8732,24
8733,24
8734,24
8735,24
8736,24
8737,24
8738,24
8739,24
8740,24
8741,24
8742,24
8743,24
8744,24
8745,24
8746,24
8747,24
8748,24
8749,24
8750,24
8751,24
8752,24
8753,24
8754,24
8755,24
8756,24
8757,24
8758,24
8759,24
8760,24
8761,24
8762,24
8763,24
8764,24
8765,24
8766,24
8767,24
8768,24
8769,24
8770,24
8771,24
8772,24
8773,24
8774,24
8775,24
8776,24
8777,24
8778,24
8779,24
8780,24
8781,24
8782,24
8783,24
8784,24
8785,24
8786,24
8787,24
8788,24
8789,24
8790,24
8791,24
8792,24
8793,24
8794,24
8795,24
8796,24
8797,24
8798,24
8799,24
8800,24
8801,24
8802,24
8803,24
8804,24
8805,24
8806,24
8807,24
8808,24
8809,24
8810,24
8811,24
8812,24
8813,24
8814,24
8815,24
8816,24
8817,24
8818,24
8819,24
8820,24
8821,24
8822,24
8823,24
8824,24
8825,25
8826,24
8827,24
8828,24
8829,24
8830,24
8831,24
8832,24
8833,24
8834,24
8835,24
8836,24
8837,24
8838,24
8839,24
8840,24
8841,24
8842,24
8843,24
8844,24
8845,24
8846,24
8847,24
8848,24
8849,24
8850,24
8851,24
8852,24
8853,24
8854,24
8855,24
8856,24
8857,24
8858,24
8859,24
8860,24
8861,24
8862,24
8863,24
8864,24
8865,24
8866,24
8867,24
8868,24
8869,24
8870,24
8871,24
8872,24
8873,24
8874,24
8875,24
8876,24
8877,24
8878,24
8879,24
8880,24
8881,24
8882,24
8883,24
8884,24
8885,24
8886,24
8887,24
8888,24
8889,24
8890,24
8891,24
8892,24
8893,24
8894,24
8895,24
8896,24
8897,24
8898,24
8899,24
8900,24
8901,24
8902,24
8903,24
8904,24
8905,24
8906,24
8907,24
8908,24
8909,24
8910,24
8911,24
8912,24
8913,24
8914,24
8915,24
8916,24
8917,24
8918,24
8919,24
8920,24
8921,24
8922,25
8923,24
8924,24
8925,24
8926,24
8927,24
8928,24
8929,24
8930,24
8931,24
8932,24
8933,24
8934,24
8935,24
8936,24
8937,24
8938,24
8939,24
8940,25
8941,25
8942,25
8943,24
8944,24
8945,24
8946,24
8947,24
8948,24
8949,24
8950,24
8951,24
8952,24
8953,24
8954,24
8955,24
8956,24
8957,24
8958,24
8959,24
8960,24
8961,24
8962,24
8963,24
8964,24
8965,24
8966,24
8967,24
8968,24
8969,24
8970,24
8971,24
8972,24
8973,24
8974,24
8975,24
8976,24
8977,24
8978,24
8979,24
8980,24
8981,24
8982,24
8983,24
8984,24
8985,24
8986,24
8987,24
8988,24
8989,24
8990,25
8991,24
8992,24
8993,24
8994,24
8995,24
8996,24
8997,24
8998,24
8999,24
9000,24
9001,24
9002,24
9003,24
9004,24
9005,24
9006,24
9007,24
9008,24
9009,24
9010,24
9011,24
9012,24
9013,24
9014,24
9015,24
9016,24
9017,24
9018,24
9019,24
9020,24
9021,24
9022,24
9023,24
9024,24
9025,24
9026,24
9027,24
9028,24
9029,24
9030,24
9031,24
9032,24
9033,24
9034,24
9035,24
9036,24
9037,24
9038,24
9039,24
9040,24
9041,24
9042,24
9043,24
9044,24
9045,24
9046,24
9047,24
9048,24
9049,24
9050,24
9051,24
9052,24
9053,24
9054,24
9055,24
9056,24
9057,24
9058,24
9059,24
9060,24
9061,24
9062,24
9063,24
9064,24
9065,24
9066,24
9067,24
9068,24
9069,24
9070,24
9071,24
9072,24
9073,24
9074,24
9075,24
9076,24
9077,24
9078,24
9079,24
9080,24
9081,24
9082,24
9083,24
9084,24
9085,24
9086,24
9087,24
9088,24
9089,24
9090,24
9091,24
9092,24
9093,24
9094,24
9095,24
9096,24
9097,24
9098,24
9099,24
9100,24
9101,24
9102,24
9103,24
9104,24
9105,24
9106,25
9107,25
9108,25
9109,25
9110,25
9111,25
9112,25
9113,25
9114,25
9115,25
9116,25
9117,25
9118,25
9119,25
9120,25
9121,25
9122,25
9123,25
9124,25
9125,25
9126,25
9127,25
9128,25
9129,25
9130,25
9131,25
9132,25
9133,25
9134,25
9135,25
9136,25
9137,25
9138,25
9139,25
9140,25
9141,25
9142,25
9143,25
9144,25
9145,25
9146,25
9147,25
9148,25
9149,25
9150,25
9151,25
9152,25
9153,25
9154,25
9155,25
9156,25
9157,25
9158,25
9159,25
9160,25
9161,25
9162,26
9163,26
9164,25
9165,25
9166,25
9167,25
9168,25
9169,25
9170,25
9171,25
9172,25
9173,25
9174,25
9175,25
9176,25
9177,25
9178,25
9179,25
9180,25
9181,25
9182,25
9183,25
9184,25
9185,25
9186,25
9187,25
9188,25
9189,25
9190,25
9191,25
9192,25
9193,25
9194,25
9195,25
9196,25
9197,25
9198,25
9199,25
9200,25
9201,25
9202,25
9203,25
9204,25
9205,25
9206,25
9207,25
9208,25
9209,25
9210,25
9211,25
9212,25
9213,26
9214,25
9215,25
9216,25
9217,25
9218,25
9219,25
9220,25
9221,25
9222,25
9223,25
9224,25
9225,25
9226,25
9227,25
9228,25
9229,25
9230,25
9231,25
9232,25
9233,25
9234,25
9235,25
9236,25
9237,25
9238,25
9239,25
9240,25
9241,25
9242,25
9243,25
9244,25
9245,25
9246,25
9247,25
9248,25
9249,25
9250,25
9251,25
9252,25
9253,25
9254,25
9255,25
9256,25
9257,25
9258,25
9259,25
9260,25
9261,25
9262,25
9263,25
9264,25
9265,25
9266,25
9267,25
9268,25
9269,25
9270,25
9271,25
9272,25
9273,25
9274,25
9275,25
9276,25
9277,25
9278,25
9279,25
9280,25
9281,25
9282,25
9283,25
9284,25
9285,25
9286,25
9287,25
9288,25
9289,25
9290,25
9291,25
9292,25
9293,25
9294,25
9295,25
9296,25
9297,25
9298,25
9299,25
9300,25
9301,25
9302,25
9303,25
9304,25
9305,25
9306,25
9307,25
9308,25
9309,25
9310,25
9311,25
9312,25
9313,25
9314,25
9315,25
9316,25
9317,25
9318,25
9319,25
9320,25
9321,25
9322,25
9323,25
9324,25
9325,25
9326,25
9327,25
9328,25
9329,25
9330,25
9331,25
9332,25
9333,25
9334,25
9335,25
9336,25
9337,25
9338,25
9339,25
9340,25
9341,25
9342,25
9343,25
9344,25
9345,25
9346,25
9347,25
9348,25
9349,25
9350,26
9351,25
9352,25
9353,25
9354,25
9355,25
9356,25
9357,25
9358,25
9359,25
9360,25
9361,25
9362,25
9363,25
9364,25
9365,25
9366,25
9367,25
9368,25
9369,25
9370,25
9371,25
9372,25
9373,25
9374,25
9375,25
9376,25
9377,25
9378,25
9379,26
9380,26
9381,26
9382,26
9383,25
9384,25
9385,25
9386,25
9387,25
9388,25
9389,25
9390,25
9391,25
9392,25
9393,25
9394,25
9395,26
9396,26
9397,25
9398,25
9399,25
9400,25
9401,25
9402,25
9403,25
9404,25
9405,25
9406,25
9407,25
9408,25
9409,25
9410,25
9411,25
9412,25
9413,25
9414,25
9415,25
9416,25
9417,25
9418,25
9419,25
9420,25
9421,25
9422,25
9423,25
9424,25
9425,25
9426,25
9427,25
9428,25
9429,25
9430,25
9431,25
9432,25
9433,25
9434,25
9435,25
9436,25
9437,25
9438,25
9439,25
9440,25
9441,25
9442,25
9443,25
9444,25
9445,25
9446,25
9447,25
9448,25
9449,25
9450,25
9451,25
9452,25
9453,25
9454,25
9455,25
9456,25
9457,25
9458,25
9459,25
9460,25
9461,25
9462,25
9463,25
9464,25
9465,25
9466,25
9467,25
9468,25
9469,25
9470,25
9471,25
9472,25
9473,25
9474,25
9475,25
9476,25
9477,25
9478,25
9479,25
9480,25
9481,25
9482,25
9483,25
9484,25
9485,25
9486,25
9487,25
9488,25
9489,25
9490,25
9491,25
9492,25
9493,25
9494,25
9495,25
9496,25
9497,25
9498,25
9499,25
9500,25
9501,25
9502,25
9503,25
9504,25
9505,25
9506,25
9507,25
9508,25
9509,25
9510,25
9511,25
9512,25
9513,25
9514,25
9515,25
9516,25
9517,25
9518,25
9519,25
9520,25
9521,25
9522,25
9523,25
9524,25
9525,25
9526,25
9527,25
9528,25
9529,25
9530,25
9531,25
9532,25
9533,25
9534,25
9535,25
9536,25
9537,25
9538,25
9539,25
9540,25
9541,25
9542,25
9543,25
9544,25
9545,25
9546,25
9547,25
9548,25
9549,25
9550,25
9551,25
9552,25
9553,25
9554,25
9555,25
9556,25
9557,25
9558,25
9559,25
9560,25
9561,25
9562,26
9563,25
9564,25
9565,25
9566,25
9567,25
9568,25
9569,25
9570,25
9571,25
9572,25
9573,25
9574,25
9575,25
9576,25
9577,25
9578,25
9579,25
9580,25
9581,25
9582,25
9583,25
9584,25
9585,25
9586,25
9587,25
9588,25
9589,25
9590,25
9591,25
9592,25
9593,25
9594,25
9595,25
9596,25
9597,25
9598,25
9599,25
9600,25
9601,25
9602,25
9603,25
9604,25
9605,25
9606,25
9607,25
9608,25
9609,25
9610,25
9611,25
9612,25
9613,25
9614,25
9615,25
9616,25
9617,25
9618,25
9619,25
9620,25
9621,25
9622,25
9623,25
9624,25
9625,25
9626,25
9627,25
9628,26
9629,26
9630,26
9631,26
9632,26
9633,25
9634,25
9635,25
9636,25
9637,25
9638,25
9639,25
9640,25
9641,25
9642,25
9643,25
9644,25
9645,25
9646,25
9647,25
9648,25
9649,25
9650,25
9651,25
9652,25
9653,25
9654,25
9655,25
9656,25
9657,25
9658,25
9659,25
9660,25
9661,25
9662,25
9663,25
9664,25
9665,25
9666,25
9667,25
9668,25
9669,25
9670,25
9671,25
9672,25
9673,25
9674,25
9675,25
9676,25
9677,25
9678,25
9679,25
9680,25
9681,25
9682,25
9683,25
9684,25
9685,25
9686,25
9687,25
9688,25
9689,25
9690,25
9691,25
9692,25
9693,25
9694,25
9695,25
9696,25
9697,26
9698,26
9699,25
9700,25
9701,25
9702,25
9703,25
9704,25
9705,25
9706,25
9707,25
9708,25
9709,26
9710,26
9711,26
9712,26
9713,26
9714,26
9715,25
9716,25
9717,25
9718,25
9719,25
9720,25
9721,25
9722,25
9723,25
9724,25
9725,25
9726,25
9727,25
9728,25
9729,25
9730,25
9731,25
9732,25
9733,25
9734,25
9735,25
9736,25
9737,25
9738,25
9739,25
9740,25
9741,25
9742,25
9743,25
9744,25
9745,25
9746,25
9747,25
9748,25
9749,25
9750,25
9751,25
9752,25
9753,25
9754,25
9755,25
9756,25
9757,25
9758,25
9759,25
9760,25
9761,25
9762,25
9763,25
9764,25
9765,25
9766,25
9767,25
9768,25
9769,25
9770,25
9771,25
9772,25
9773,25
9774,25
9775,25
9776,25
9777,25
9778,25
9779,25
9780,25
9781,25
9782,25
9783,25
9784,25
9785,25
9786,25
9787,25
9788,25
9789,25
9790,25
9791,25
9792,25
9793,25
9794,25
9795,25
9796,25
9797,25
9798,25
9799,25
9800,25
9801,25
9802,25
9803,25
9804,25
9805,25
9806,25
9807,26
9808,25
9809,25
9810,25
9811,26
9812,26
9813,25
9814,25
9815,25
9816,25
9817,25
9818,25
9819,25
9820,25
9821,25
9822,25
9823,25
9824,25
9825,25
9826,25
9827,25
9828,25
9829,25
9830,25
9831,25
9832,25
9833,25
9834,25
9835,25
9836,25
9837,25
9838,25
9839,25
9840,25
9841,25
9842,25
9843,25
9844,25
9845,25
9846,25
9847,25
9848,25
9849,25
9850,25
9851,25
9852,25
9853,25
9854,25
9855,25
9856,25
9857,25
9858,25
9859,25
9860,25
9861,25
9862,25
9863,25
9864,25
9865,25
9866,25
9867,25
9868,25
9869,25
9870,25
9871,25
9872,25
9873,25
9874,25
9875,25
9876,25
9877,25
9878,25
9879,25
9880,25
9881,25
9882,25
9883,25
9884,25
9885,25
9886,25
9887,25
9888,25
9889,25
9890,25
9891,25
9892,25
9893,25
9894,25
9895,25
9896,25
9897,25
9898,25
9899,25
9900,25
9901,25
9902,25
9903,25
9904,25
9905,25
9906,25
9907,25
9908,25
9909,25
9910,25
9911,25
9912,25
9913,25
9914,25
9915,25
9916,25
9917,25
9918,25
9919,25
9920,25
9921,25
9922,25
9923,25
9924,25
9925,25
9926,25
9927,25
9928,25
9929,25
9930,25
9931,25
9932,25
9933,25
9934,25
9935,25
9936,25
9937,25
9938,25
9939,25
9940,25
9941,25
9942,25
9943,25
9944,25
9945,25
9946,25
9947,25
9948,25
9949,25
9950,25
9951,25
9952,25
9953,25
9954,25
9955,25
9956,25
9957,25
9958,25
9959,25
9960,25
9961,25
9962,25
9963,25
9964,25
9965,25
9966,25
9967,25
9968,25
9969,25
9970,25
9971,25
9972,25
9973,25
9974,25
9975,25
9976,25
9977,25
9978,25
9979,25
9980,25
9981,25
9982,25
9983,25
9984,25
9985,25
9986,25
9987,25
9988,25
9989,25
9990,25
9991,25
9992,25
9993,25
9994,25
9995,25
9996,25
9997,25
9998,25
9999,25
10000,25
