1,3
2,3
3,3
4,3
5,3
6,3
7,3
8,3
9,3
10,3
11,3
12,3
13,3
14,3
15,3
16,3
17,3
18,3
19,3
20,3
21,3
22,3
23,3
24,3
25,3
26,3
27,3
28,3
29,3
30,3
31,3
32,3
33,3
34,3
35,3
36,3
37,3
38,3
39,3
40,3
41,3
42,3
43,3
44,3
45,3
46,3
47,3
48,3
49,3
50,3
51,3
52,3
53,3
54,3
55,3
56,3
57,3
58,3
59,3
60,3
61,3
62,3
63,3
64,3
65,3
66,3
67,3
68,3
69,3
70,3
71,3
72,3
73,3
74,3
75,3
76,3
77,3
78,3
79,3
80,3
81,3
82,3
83,3
84,3
85,3
86,3
87,3
88,3
89,3
90,3
91,3
92,3
93,3
94,3
95,3
96,3
97,3
98,3
99,3
100,3
101,3
102,3
103,3
104,3
105,3
106,3
107,3
108,3
109,3
110,3
111,3
112,3
113,3
114,3
115,3
116,3
117,3
118,3
119,3
120,3
121,3
122,3
123,3
124,3
125,3
126,3
127,3
128,3
129,3
130,3
131,3
132,3
133,3
134,3
135,3
136,3
137,3
138,3
139,3
140,3
141,3
142,3
143,3
144,3
145,3
146,3
147,3
148,3
149,3
150,3
151,3
152,3
153,3
154,3
155,3
156,3
157,3
158,3
159,3
160,3
161,3
162,3
163,3
164,3
165,3
166,3
167,3
168,3
169,3
170,3
171,3
172,3
173,3
174,3
175,3
176,3
177,3
178,3
179,3
180,3
181,3
182,3
183,3
184,3
185,3
186,3
187,3
188,3
189,3
190,3
191,3
192,3
193,3
194,3
195,3
196,4
197,4
198,4
199,4
200,4
201,4
202,4
203,4
204,4
205,4
206,4
207,4
208,4
209,4
210,4
211,4
212,4
213,4
214,4
215,4
216,4
217,4
218,4
219,4
220,4
221,4
222,4
223,4
224,4
225,4
226,4
227,4
228,4
229,4
230,4
231,4
232,4
233,4
234,4
235,4
236,4
237,4
238,4
239,4
240,4
241,4
242,4
243,4
244,4
245,4
246,4
247,4
248,4
249,4
250,4
251,4
252,4
253,4
254,4
255,4
256,4
257,4
258,4
259,4
260,4
261,4
262,4
263,4
264,4
265,4
266,4
267,4
268,4
269,4
270,4
271,4
272,4
273,4
274,4
275,4
276,4
277,5
278,4
279,4
280,4
281,4
282,4
283,4
284,4
285,4
286,4
287,4
288,4
289,4
290,4
291,4
292,4
293,4
294,4
295,4
296,4
297,4
298,4
299,4
300,4
301,4
302,4
303,4
304,4
305,4
306,4
307,4
308,4
309,4
310,4
311,4
312,4
313,4
314,4
315,4
316,4
317,4
318,4
319,4
320,4
321,4
322,4
323,4
324,4
325,4
326,4
327,4
328,4
329,4
330,4
331,4
332,4
333,4
334,4
335,4
336,4
337,4
338,4
339,4
340,4
341,4
342,4
343,4
344,4
345,4
346,4
347,4
348,4
349,4
350,4
351,4
352,4
353,4
354,4
355,4
356,4
357,4
358,4
359,4
360,4
361,4
362,4
363,4
364,4
365,4
366,4
367,4
368,4
369,4
370,4
371,4
372,4
373,4
374,4
375,4
376,4
377,4
378,4
379,4
380,4
381,4
382,4
383,4
384,4
385,4
386,4
387,4
388,4
389,4
390,4
391,4
392,4
393,4
394,4
395,4
396,4
397,4
398,4
399,4
400,4
401,4
402,4
403,4
404,4
405,4
406,4
407,4
408,4
409,4
410,4
411,4
412,4
413,4
414,4
415,4
416,4
417,4
418,4
419,4
420,4
421,4
422,4
423,4
424,4
425,4
426,4
427,4
428,4
429,4
430,4
431,4
432,4
433,4
434,4
435,4
436,4
437,4
438,4
439,4
440,4
441,4
442,4
443,4
444,4
445,4
446,4
447,4
448,4
449,4
450,4
451,4
452,4
453,4
454,4
455,4
456,4
457,4
458,4
459,4
460,4
461,4
462,4
463,4
464,4
465,4
466,4
467,4
468,4
469,4
470,4
471,4
472,4
473,4
474,4
475,4
476,5
477,5
478,5
479,5
480,5
481,5
482,5
483,5
484,5
485,5
486,5
487,5
488,5
489,5
490,5
491,5
492,5
493,5
494,5
495,5
496,5
497,5
498,5
499,5
500,5
501,6
502,6
503,6
504,6
505,6
506,6
507,6
508,6
509,6
510,6
511,6
512,6
513,6
514,6
515,6
516,6
517,6
518,6
519,6
520,6
521,6
522,6
523,6
524,6
525,6
526,6
527,6
528,6
529,6
530,6
531,6
532,6
533,6
534,6
535,6
536,6
537,6
538,6
539,6
540,6
541,6
542,6
543,6
544,6
545,6
546,6
547,6
548,6
549,6
550,6
551,6
552,6
553,6
554,6
555,6
556,6
557,6
558,6
559,6
560,6
561,6
562,6
563,6
564,6
565,6
566,6
567,6
568,6
569,6
570,6
571,6
572,6
573,6
574,6
575,6
576,6
577,6
578,6
579,6
580,6
581,6
582,6
583,6
584,6
585,6
586,6
587,6
588,6
589,6
590,6
591,6
592,6
593,6
594,6
595,6
596,6
597,6
598,6
599,6
600,6
601,6
602,6
603,6
604,6
605,6
606,6
607,6
608,6
609,6
610,6
611,6
612,6
613,6
614,6
615,6
616,6
617,6
618,6
619,6
620,6
621,6
622,7
623,6
624,6
625,6
626,6
627,6
628,6
629,6
630,6
631,6
632,6
633,6
634,6
635,6
636,6
637,6
638,6
639,6
640,6
641,6
642,6
643,6
644,6
645,6
646,6
647,6
648,6
649,6
650,6
651,6
652,6
653,6
654,6
655,6
656,6
657,6
658,6
659,6
660,6
661,6
662,6
663,6
664,6
665,7
666,7
667,7
668,7
669,7
670,7
671,7
672,7
673,7
674,7
675,7
676,7
677,7
678,7
679,7
680,7
681,7
682,7
683,7
684,7
685,7
686,7
687,7
688,7
689,7
690,7
691,7
692,7
693,7
694,7
695,7
696,7
697,7
698,7
699,7
700,7
701,7
702,7
703,7
704,7
705,7
706,7
707,7
708,7
709,7
710,7
711,7
712,7
713,7
714,7
715,7
716,7
717,7
718,7
719,7
720,7
721,7
722,7
723,7
724,7
725,7
726,7
727,7
728,7
729,7
730,7
731,7
732,7
733,7
734,7
735,7
736,7
737,7
738,7
739,7
740,7
741,7
742,7
743,7
744,7
745,7
746,7
747,7
748,7
749,7
750,7
751,7
752,7
753,7
754,7
755,7
756,7
757,7
758,7
759,7
760,7
761,7
762,7
763,7
764,7
765,7
766,7
767,7
768,7
769,7
770,7
771,7
772,7
773,7
774,7
775,7
776,7
777,7
778,7
779,7
780,7
781,7
782,7
783,7
784,7
785,7
786,7
787,7
788,7
789,7
790,7
791,7
792,7
793,7
794,7
795,7
796,7
797,7
798,7
799,7
800,7
801,7
802,7
803,7
804,7
805,7
806,7
807,7
808,7
809,7
810,7
811,7
812,7
813,7
814,7
815,7
816,7
817,7
818,7
819,7
820,7
821,7
822,7
823,7
824,7
825,7
826,7
827,8
828,7
829,7
830,7
831,7
832,8
833,8
834,7
835,7
836,7
837,7
838,7
839,7
840,7
841,7
842,7
843,7
844,7
845,8
846,8
847,8
848,8
849,8
850,7
851,7
852,7
853,7
854,7
855,7
856,7
857,7
858,7
859,7
860,7
861,7
862,7
863,7
864,7
865,7
866,8
867,7
868,7
869,7
870,7
871,7
872,7
873,7
874,7
875,7
876,7
877,7
878,7
879,7
880,7
881,7
882,7
883,7
884,7
885,7
886,7
887,7
888,7
889,7
890,7
891,7
892,7
893,7
894,7
895,7
896,7
897,7
898,7
899,7
900,7
901,7
902,7
903,7
904,7
905,7
906,7
907,7
908,7
909,7
910,7
911,7
912,7
913,7
914,7
915,7
916,7
917,7
918,7
919,7
920,7
921,7
922,7
923,7
924,7
925,7
926,7
927,7
928,7
929,7
930,7
931,7
932,7
933,8
934,8
935,8
936,7
937,7
938,7
939,7
940,7
941,7
942,7
943,7
944,7
945,7
946,7
947,7
948,7
949,7
950,7
951,7
952,7
953,7
954,7
955,7
956,7
957,7
958,7
959,7
960,7
961,7
962,7
963,7
964,7
965,7
966,7
967,7
968,7
969,7
970,7
971,7
972,7
973,7
974,7
975,7
976,7
977,7
978,7
979,7
980,7
981,7
982,7
983,7
984,7
985,8
986,7
987,7
988,7
989,7
990,7
991,7
992,7
993,7
994,7
995,7
996,7
997,7
998,7
999,7
1000,7
1001,7
1002,7
1003,7
1004,7
1005,7
1006,7
1007,7
1008,7
1009,7
1010,7
1011,7
1012,7
1013,7
1014,7
1015,7
1016,7
1017,7
1018,7
1019,7
1020,7
1021,7
1022,7
1023,7
1024,7
1025,7
1026,7
1027,7
1028,7
1029,7
1030,7
1031,7
1032,7
1033,7
1034,7
1035,7
1036,7
1037,7
1038,7
1039,7
1040,7
1041,7
1042,7
1043,7
1044,7
1045,7
1046,7
1047,7
1048,7
1049,7
1050,7
1051,7
1052,7
1053,7
1054,7
1055,7
1056,7
1057,7
1058,7
1059,7
1060,7
1061,7
1062,7
1063,7
1064,7
1065,7
1066,7
1067,7
1068,7
1069,7
1070,7
1071,7
1072,7
1073,7
1074,7
1075,7
1076,7
1077,7
1078,7
1079,7
1080,7
1081,7
1082,7
1083,7
1084,7
1085,7
1086,7
1087,7
1088,7
1089,7
1090,7
1091,7
1092,7
1093,7
1094,7
1095,7
1096,7
1097,7
1098,7
1099,7
1100,7
1101,7
1102,7
1103,7
1104,7
1105,7
1106,7
1107,7
1108,7
1109,7
1110,7
1111,7
1112,7
1113,7
1114,7
1115,7
1116,7
1117,7
1118,7
1119,7
1120,7
1121,7
1122,7
1123,7
1124,7
1125,7
1126,7
1127,7
1128,7
1129,7
1130,7
1131,7
1132,7
1133,7
1134,7
1135,7
1136,7
1137,7
1138,7
1139,7
1140,7
1141,7
1142,7
1143,7
1144,7
1145,7
1146,7
1147,7
1148,7
1149,7
1150,8
1151,7
1152,7
1153,7
1154,7
1155,7
1156,7
1157,7
1158,7
1159,7
1160,7
1161,7
1162,7
1163,7
1164,7
1165,7
1166,7
1167,7
1168,7
1169,7
1170,7
1171,7
1172,7
1173,7
1174,7
1175,7
1176,7
1177,7
1178,7
1179,7
1180,7
1181,7
1182,7
1183,7
1184,7
1185,7
1186,7
1187,7
1188,7
1189,7
1190,7
1191,7
1192,7
1193,7
1194,7
1195,7
1196,7
1197,7
1198,7
1199,7
1200,7
1201,7
1202,7
1203,7
1204,7
1205,7
1206,7
1207,7
1208,7
1209,7
1210,7
1211,7
1212,7
1213,7
1214,7
1215,7
1216,7
1217,7
1218,7
1219,7
1220,7
1221,7
1222,7
1223,7
1224,7
1225,7
1226,7
1227,7
1228,7
1229,7
1230,7
1231,7
1232,7
1233,7
1234,7
1235,7
1236,7
1237,7
1238,7
1239,7
1240,7
1241,7
1242,7
1243,7
1244,7
1245,7
1246,7
1247,7
1248,7
1249,7
1250,7
1251,7
1252,7
1253,7
1254,7
1255,7
1256,7
1257,7
1258,7
1259,7
1260,7
1261,7
1262,7
1263,7
1264,7
1265,7
1266,7
1267,7
1268,7
1269,7
1270,7
1271,7
1272,7
1273,7
1274,7
1275,7
1276,7
1277,7
1278,7
1279,7
1280,7
1281,7
1282,7
1283,7
1284,7
1285,7
1286,7
1287,7
1288,7
1289,7
1290,7
1291,7
1292,7
1293,7
1294,7
1295,7
1296,7
1297,7
1298,7
1299,7
1300,7
1301,7
1302,7
1303,7
1304,7
1305,7
1306,7
1307,7
1308,7
1309,7
1310,7
1311,8
1312,8
1313,8
1314,8
1315,8
1316,8
1317,8
1318,8
1319,8
1320,8
1321,8
1322,8
1323,8
1324,8
1325,8
1326,8
1327,8
1328,8
1329,8
1330,8
1331,8
1332,8
1333,8
1334,8
1335,8
1336,8
1337,8
1338,8
1339,8
1340,8
1341,8
1342,8
1343,8
1344,8
1345,8
1346,8
1347,8
1348,8
1349,8
1350,8
1351,8
1352,8
1353,8
1354,8
1355,8
1356,8
1357,8
1358,8
1359,8
1360,8
1361,8
1362,8
1363,8
1364,8
1365,8
1366,8
1367,8
1368,8
1369,8
1370,8
1371,8
1372,8
1373,8
1374,8
1375,8
1376,8
1377,8
1378,8
1379,8
1380,8
1381,8
1382,8
1383,8
1384,8
1385,9
1386,9
1387,9
1388,9
1389,9
1390,9
1391,9
1392,9
1393,9
1394,9
1395,9
1396,9
1397,9
1398,9
1399,9
1400,9
1401,9
1402,9
1403,9
1404,9
1405,9
1406,9
1407,9
1408,9
1409,9
1410,9
1411,9
1412,9
1413,9
1414,9
1415,9
1416,9
1417,9
1418,9
1419,9
1420,9
1421,9
1422,9
1423,9
1424,9
1425,9
1426,9
1427,9
1428,9
1429,9
1430,9
1431,9
1432,9
1433,9
1434,9
1435,9
1436,9
1437,9
1438,9
1439,9
1440,9
1441,9
1442,9
1443,9
1444,9
1445,9
1446,9
1447,9
1448,9
1449,9
1450,9
1451,9
1452,9
1453,9
1454,9
1455,9
1456,9
1457,9
1458,9
1459,9
1460,9
1461,9
1462,9
1463,9
1464,9
1465,9
1466,9
1467,9
1468,9
1469,9
1470,9
1471,9
1472,9
1473,9
1474,9
1475,9
1476,9
1477,9
1478,9
1479,9
1480,9
1481,9
1482,9
1483,9
1484,9
1485,9
1486,9
1487,9
1488,9
1489,9
1490,9
1491,9
1492,9
1493,10
1494,10
1495,9
1496,9
1497,9
1498,9
1499,9
1500,9
1501,9
1502,9
1503,9
1504,9
1505,10
1506,10
1507,10
1508,10
1509,10
1510,10
1511,10
1512,10
1513,10
1514,10
1515,10
1516,10
1517,10
1518,10
1519,10
1520,10
1521,10
1522,10
1523,10
1524,10
1525,10
1526,10
1527,10
1528,10
1529,10
1530,10
1531,10
1532,10
1533,10
1534,10
1535,10
1536,10
1537,10
1538,10
1539,11
1540,11
1541,11
1542,11
1543,11
1544,11
1545,10
1546,10
1547,10
1548,10
1549,10
1550,10
1551,10
1552,10
1553,11
1554,11
1555,11
1556,10
1557,10
1558,10
1559,10
1560,10
1561,10
1562,10
1563,10
1564,10
1565,10
1566,10
1567,10
1568,10
1569,10
1570,10
1571,10
1572,10
1573,10
1574,10
1575,10
1576,10
1577,10
1578,10
1579,10
1580,10
1581,10
1582,10
1583,10
1584,10
1585,10
1586,10
1587,10
1588,10
1589,10
1590,10
1591,10
1592,10
1593,10
1594,10
1595,10
1596,10
1597,10
1598,10
1599,10
1600,10
1601,10
1602,10
1603,10
1604,10
1605,10
1606,10
1607,10
1608,10
1609,10
1610,10
1611,10
1612,10
1613,11
1614,11
1615,11
1616,11
1617,11
1618,11
1619,11
1620,11
1621,11
1622,11
1623,11
1624,11
1625,10
1626,10
1627,10
1628,10
1629,10
1630,10
1631,10
1632,10
1633,10
1634,10
1635,10
1636,10
1637,10
1638,10
1639,10
1640,10
1641,10
1642,10
1643,10
1644,10
1645,10
1646,10
1647,10
1648,10
1649,10
1650,10
1651,10
1652,10
1653,10
1654,10
1655,10
1656,10
1657,10
1658,10
1659,10
1660,10
1661,10
1662,10
1663,10
1664,10
1665,10
1666,10
1667,10
1668,10
1669,10
1670,10
1671,10
1672,10
1673,10
1674,10
1675,10
1676,10
1677,10
1678,10
1679,10
1680,10
1681,10
1682,10
1683,10
1684,10
1685,10
1686,10
1687,10
1688,10
1689,10
1690,10
1691,10
1692,10
1693,10
1694,10
1695,10
1696,10
1697,10
1698,10
1699,10
1700,10
1701,10
1702,10
1703,10
1704,10
1705,10
1706,10
1707,10
1708,10
1709,10
1710,10
1711,10
1712,10
1713,10
1714,10
1715,10
1716,10
1717,11
1718,11
1719,11
1720,11
1721,11
1722,11
1723,11
1724,11
1725,11
1726,11
1727,11
1728,11
1729,11
1730,11
1731,11
1732,11
1733,11
1734,11
1735,11
1736,11
1737,11
1738,11
1739,11
1740,11
1741,11
1742,11
1743,11
1744,11
1745,11
1746,11
1747,11
1748,11
1749,11
1750,11
1751,11
1752,11
1753,11
1754,11
1755,11
1756,11
1757,11
1758,11
1759,11
1760,11
1761,11
1762,11
1763,11
1764,11
1765,11
1766,11
1767,11
1768,11
1769,11
1770,11
1771,11
1772,11
1773,11
1774,12
1775,12
1776,12
1777,12
1778,12
1779,12
1780,12
1781,12
1782,12
1783,12
1784,12
1785,12
1786,12
1787,12
1788,12
1789,12
1790,12
1791,12
1792,12
1793,12
1794,12
1795,12
1796,12
1797,12
1798,12
1799,12
1800,12
1801,12
1802,12
1803,12
1804,12
1805,12
1806,12
1807,12
1808,12
1809,12
1810,12
1811,12
1812,12
1813,12
1814,12
1815,12
1816,12
1817,12
1818,12
1819,12
1820,12
1821,12
1822,12
1823,12
1824,12
1825,12
1826,12
1827,12
1828,12
1829,12
1830,12
1831,12
1832,12
1833,12
1834,12
1835,12
1836,12
1837,12
1838,12
1839,12
1840,12
1841,12
1842,12
1843,12
1844,12
1845,12
1846,12
1847,12
1848,12
1849,12
1850,12
1851,12
1852,12
1853,13
1854,13
1855,12
1856,12
1857,12
1858,12
1859,12
1860,12
1861,12
1862,12
1863,12
1864,12
1865,12
1866,12
1867,12
1868,12
1869,12
1870,12
1871,12
1872,12
1873,12
1874,12
1875,12
1876,12
1877,12
1878,12
1879,12
1880,12
1881,12
1882,12
1883,12
1884,12
1885,12
1886,12
1887,12
1888,12
1889,13
1890,13
1891,13
1892,13
1893,13
1894,13
1895,13
1896,12
1897,12
1898,12
1899,12
1900,12
1901,12
1902,12
1903,12
1904,12
1905,12
1906,12
1907,12
1908,12
1909,12
1910,12
1911,12
1912,12
1913,12
1914,12
1915,12
1916,12
1917,12
1918,12
1919,12
1920,12
1921,12
1922,12
1923,12
1924,13
1925,14
1926,13
1927,13
1928,13
1929,13
1930,13
1931,13
1932,12
1933,12
1934,12
1935,12
1936,12
1937,12
1938,12
1939,12
1940,12
1941,12
1942,12
1943,12
1944,12
1945,12
1946,12
1947,12
1948,12
1949,12
1950,12
1951,12
1952,12
1953,12
1954,12
1955,12
1956,12
1957,12
1958,12
1959,12
1960,12
1961,12
1962,12
1963,12
1964,12
1965,12
1966,12
1967,12
1968,12
1969,12
1970,12
1971,12
1972,12
1973,12
1974,12
1975,12
1976,12
1977,12
1978,12
1979,12
1980,12
1981,12
1982,12
1983,12
1984,12
1985,12
1986,12
1987,12
1988,12
1989,12
1990,12
1991,12
1992,12
1993,12
1994,12
1995,12
1996,12
1997,12
1998,12
1999,12
2000,12
2001,12
2002,12
2003,12
2004,12
2005,12
2006,12
2007,12
2008,12
2009,12
2010,12
2011,12
2012,12
2013,12
2014,12
2015,12
2016,12
2017,12
2018,12
2019,12
2020,12
2021,12
2022,12
2023,12
2024,12
2025,12
2026,12
2027,12
2028,12
2029,12
2030,12
2031,12
2032,12
2033,12
2034,12
2035,12
2036,12
2037,12
2038,12
2039,12
2040,12
2041,12
2042,12
2043,12
2044,12
2045,12
2046,12
2047,12
2048,12
2049,12
2050,12
2051,12
2052,12
2053,14
2054,13
2055,13
2056,13
2057,13
2058,12
2059,12
2060,12
2061,12
2062,12
2063,12
2064,12
2065,12
2066,12
2067,12
2068,12
2069,12
2070,13
2071,12
2072,12
2073,12
2074,12
2075,12
2076,12
2077,12
2078,12
2079,12
2080,12
2081,12
2082,12
2083,12
2084,12
2085,12
2086,12
2087,12
2088,12
2089,12
2090,12
2091,12
2092,12
2093,12
2094,12
2095,12
2096,12
2097,12
2098,12
2099,12
2100,12
2101,12
2102,12
2103,12
2104,12
2105,12
2106,12
2107,12
2108,12
2109,12
2110,12
2111,12
2112,12
2113,12
2114,12
2115,12
2116,12
2117,12
2118,12
2119,12
2120,12
2121,12
2122,12
2123,12
2124,12
2125,12
2126,12
2127,12
2128,12
2129,12
2130,12
2131,12
2132,12
2133,12
2134,12
2135,12
2136,12
2137,12
2138,12
2139,12
2140,12
2141,12
2142,12
2143,12
2144,12
2145,12
2146,12
2147,12
2148,12
2149,12
2150,12
2151,12
2152,12
2153,12
2154,12
2155,12
2156,12
2157,12
2158,12
2159,12
2160,12
2161,12
2162,12
2163,12
2164,12
2165,12
2166,12
2167,12
2168,12
2169,13
2170,12
2171,12
2172,12
2173,12
2174,12
2175,12
2176,12
2177,12
2178,12
2179,12
2180,12
2181,12
2182,12
2183,12
2184,12
2185,12
2186,12
2187,12
2188,12
2189,12
2190,12
2191,12
2192,12
2193,12
2194,12
2195,12
2196,12
2197,12
2198,13
2199,12
2200,12
2201,12
2202,12
2203,12
2204,12
2205,12
2206,12
2207,12
2208,12
2209,12
2210,12
2211,12
2212,12
2213,12
2214,12
2215,12
2216,12
2217,12
2218,12
2219,12
2220,12
2221,12
2222,12
2223,12
2224,12
2225,12
2226,12
2227,12
2228,12
2229,12
2230,12
2231,12
2232,12
2233,12
2234,12
2235,12
2236,12
2237,12
2238,12
2239,12
2240,12
2241,12
2242,12
2243,12
2244,12
2245,12
2246,12
2247,12
2248,12
2249,12
2250,12
2251,12
2252,12
2253,12
2254,12
2255,12
2256,12
2257,12
2258,12
2259,12
2260,12
2261,12
2262,12
2263,12
2264,12
2265,12
2266,12
2267,12
2268,12
2269,12
2270,12
2271,12
2272,12
2273,12
2274,12
2275,12
2276,12
2277,12
2278,12
2279,12
2280,12
2281,12
2282,12
2283,12
2284,12
2285,12
2286,12
2287,12
2288,12
2289,12
2290,12
2291,12
2292,12
2293,12
2294,12
2295,12
2296,12
2297,12
2298,12
2299,12
2300,12
2301,12
2302,12
2303,12
2304,12
2305,12
2306,12
2307,12
2308,12
2309,12
2310,12
2311,12
2312,12
2313,12
2314,12
2315,12
2316,12
2317,12
2318,12
2319,12
2320,13
2321,12
2322,12
2323,12
2324,12
2325,12
2326,12
2327,12
2328,12
2329,12
2330,12
2331,12
2332,12
2333,12
2334,12
2335,12
2336,12
2337,12
2338,12
2339,12
2340,12
2341,12
2342,12
2343,12
2344,12
2345,12
2346,12
2347,12
2348,12
2349,12
2350,12
2351,12
2352,12
2353,12
2354,12
2355,12
2356,12
2357,12
2358,12
2359,12
2360,12
2361,12
2362,12
2363,12
2364,12
2365,12
2366,12
2367,12
2368,12
2369,12
2370,12
2371,12
2372,12
2373,12
2374,12
2375,12
2376,12
2377,12
2378,12
2379,12
2380,12
2381,12
2382,12
2383,12
2384,12
2385,12
2386,12
2387,12
2388,12
2389,12
2390,12
2391,12
2392,12
2393,12
2394,12
2395,12
2396,12
2397,12
2398,12
2399,12
2400,12
2401,12
2402,12
2403,12
2404,12
2405,12
2406,12
2407,12
2408,12
2409,12
2410,12
2411,12
2412,12
2413,12
2414,12
2415,12
2416,12
2417,12
2418,12
2419,12
2420,12
2421,12
2422,12
2423,12
2424,12
2425,12
2426,12
2427,12
2428,12
2429,12
2430,12
2431,12
2432,12
2433,12
2434,12
2435,12
2436,12
2437,12
2438,12
2439,12
2440,12
2441,12
2442,12
2443,12
2444,12
2445,12
2446,12
2447,12
2448,12
2449,12
2450,12
2451,12
2452,12
2453,12
2454,12
2455,12
2456,12
2457,12
2458,12
2459,12
2460,12
2461,12
2462,12
2463,12
2464,12
2465,12
2466,12
2467,12
2468,12
2469,12
2470,12
2471,12
2472,12
2473,12
2474,12
2475,12
2476,12
2477,12
2478,12
2479,12
2480,12
2481,12
2482,12
2483,12
2484,12
2485,12
2486,12
2487,12
2488,12
2489,12
2490,12
2491,12
2492,12
2493,12
2494,12
2495,12
2496,12
2497,12
2498,12
2499,12
2500,12
2501,12
2502,12
2503,12
2504,12
2505,12
2506,12
2507,12
2508,12
2509,12
2510,12
2511,12
2512,12
2513,12
2514,12
2515,12
2516,12
2517,12
2518,12
2519,12
2520,12
2521,12
2522,12
2523,12
2524,12
2525,12
2526,12
2527,12
2528,12
2529,12
2530,12
2531,12
2532,12
2533,12
2534,12
2535,12
2536,12
2537,12
2538,12
2539,12
2540,12
2541,12
2542,12
2543,12
2544,12
2545,12
2546,12
2547,12
2548,12
2549,12
2550,12
2551,12
2552,12
2553,12
2554,12
2555,12
2556,12
2557,12
2558,12
2559,12
2560,12
2561,12
2562,12
2563,12
2564,12
2565,12
2566,12
2567,12
2568,12
2569,12
2570,12
2571,12
2572,12
2573,12
2574,12
2575,12
2576,12
2577,12
2578,12
2579,12
2580,12
2581,12
2582,12
2583,12
2584,12
2585,12
2586,12
2587,12
2588,12
2589,12
2590,12
2591,12
2592,12
2593,12
2594,12
2595,12
2596,12
2597,12
2598,12
2599,12
2600,12
2601,12
2602,13
2603,12
2604,12
2605,12
2606,12
2607,12
2608,12
2609,12
2610,12
2611,12
2612,12
2613,12
2614,12
2615,12
2616,12
2617,12
2618,12
2619,12
2620,12
2621,12
2622,12
2623,12
2624,12
2625,12
2626,12
2627,12
2628,12
2629,12
2630,12
2631,12
2632,12
2633,12
2634,12
2635,12
2636,12
2637,12
2638,12
2639,12
2640,12
2641,12
2642,12
2643,12
2644,12
2645,12
2646,12
2647,12
2648,12
2649,12
2650,12
2651,12
2652,12
2653,12
2654,12
2655,12
2656,12
2657,12
2658,12
2659,12
2660,12
2661,12
2662,12
2663,12
2664,12
2665,12
2666,12
2667,12
2668,12
2669,12
2670,12
2671,12
2672,12
2673,12
2674,12
2675,12
2676,12
2677,12
2678,12
2679,12
2680,12
2681,12
2682,12
2683,12
2684,12
2685,12
2686,12
2687,12
2688,12
2689,12
2690,12
2691,12
2692,12
2693,12
2694,12
2695,12
2696,12
2697,12
2698,12
2699,12
2700,12
2701,12
2702,12
2703,12
2704,12
2705,12
2706,12
2707,12
2708,12
2709,12
2710,12
2711,12
2712,12
2713,12
2714,12
2715,12
2716,12
2717,12
2718,12
2719,12
2720,12
2721,12
2722,12
2723,12
2724,12
2725,12
2726,12
2727,12
2728,12
2729,12
2730,13
2731,13
2732,13
2733,13
2734,13
2735,13
2736,12
2737,12
2738,12
2739,12
2740,12
2741,12
2742,12
2743,12
2744,12
2745,12
2746,12
2747,12
2748,12
2749,12
2750,12
2751,12
2752,12
2753,12
2754,13
2755,13
2756,13
2757,13
2758,13
2759,12
2760,12
2761,12
2762,12
2763,12
2764,12
2765,12
2766,12
2767,12
2768,13
2769,13
2770,12
2771,12
2772,12
2773,12
2774,12
2775,13
2776,13
2777,12
2778,12
2779,12
2780,13
2781,13
2782,13
2783,13
2784,13
2785,12
2786,12
2787,12
2788,12
2789,12
2790,12
2791,12
2792,12
2793,12
2794,12
2795,13
2796,13
2797,13
2798,13
2799,13
2800,13
2801,12
2802,12
2803,12
2804,12
2805,12
2806,12
2807,12
2808,12
2809,12
2810,12
2811,12
2812,12
2813,12
2814,12
2815,12
2816,12
2817,12
2818,12
2819,12
2820,12
2821,12
2822,12
2823,12
2824,13
2825,13
2826,12
2827,12
2828,12
2829,12
2830,12
2831,12
2832,12
2833,12
2834,12
2835,12
2836,12
2837,12
2838,12
2839,12
2840,12
2841,12
2842,12
2843,12
2844,12
2845,12
2846,12
2847,12
2848,12
2849,12
2850,12
2851,12
2852,12
2853,12
2854,12
2855,12
2856,12
2857,12
2858,12
2859,12
2860,12
2861,12
2862,12
2863,12
2864,12
2865,12
2866,12
2867,12
2868,12
2869,12
2870,12
2871,12
2872,12
2873,12
2874,12
2875,12
2876,12
2877,12
2878,12
2879,12
2880,12
2881,12
2882,12
2883,12
2884,12
2885,12
2886,12
2887,12
2888,12
2889,12
2890,12
2891,12
2892,12
2893,12
2894,12
2895,12
2896,12
2897,12
2898,12
2899,12
2900,12
2901,12
2902,12
2903,12
2904,12
2905,12
2906,12
2907,12
2908,12
2909,12
2910,12
2911,12
2912,12
2913,12
2914,12
2915,12
2916,12
2917,12
2918,12
2919,12
2920,12
2921,12
2922,12
2923,12
2924,12
2925,12
2926,12
2927,12
2928,12
2929,12
2930,12
2931,12
2932,12
2933,12
2934,12
2935,12
2936,12
2937,12
2938,12
2939,12
2940,12
2941,12
2942,12
2943,12
2944,12
2945,12
2946,12
2947,12
2948,12
2949,12
2950,12
2951,12
2952,12
2953,12
2954,12
2955,12
2956,12
2957,12
2958,12
2959,12
2960,12
2961,12
2962,12
2963,12
2964,12
2965,12
2966,12
2967,12
2968,12
2969,12
2970,12
2971,12
2972,12
2973,12
2974,12
2975,12
2976,12
2977,12
2978,12
2979,12
2980,12
2981,12
2982,12
2983,12
2984,12
2985,12
2986,12
2987,12
2988,12
2989,12
2990,12
2991,12
2992,12
2993,12
2994,12
2995,12
2996,12
2997,12
2998,12
2999,12
3000,12
3001,12
3002,12
3003,12
3004,12
3005,12
3006,12
3007,12
3008,12
3009,12
3010,12
3011,12
3012,12
3013,12
3014,12
3015,12
3016,12
3017,12
3018,12
3019,12
3020,12
3021,12
3022,12
3023,12
3024,12
3025,12
3026,12
3027,12
3028,12
3029,12
3030,12
3031,12
3032,12
3033,12
3034,12
3035,12
3036,12
3037,12
3038,12
3039,12
3040,12
3041,12
3042,12
3043,12
3044,12
3045,12
3046,12
3047,12
3048,12
3049,12
3050,12
3051,12
3052,12
3053,12
3054,12
3055,12
3056,12
3057,12
3058,12
3059,12
3060,12
3061,12
3062,12
3063,12
3064,12
3065,12
3066,12
3067,12
3068,12
3069,12
3070,12
3071,12
3072,12
3073,12
3074,12
3075,12
3076,12
3077,12
3078,12
3079,12
3080,12
3081,12
3082,12
3083,12
3084,12
3085,12
3086,12
3087,12
3088,12
3089,12
3090,12
3091,12
3092,12
3093,12
3094,12
3095,12
3096,12
3097,12
3098,12
3099,12
3100,12
3101,12
3102,12
3103,12
3104,12
3105,12
3106,12
3107,12
3108,12
3109,12
3110,12
3111,12
3112,12
3113,12
3114,12
3115,12
3116,12
3117,12
3118,12
3119,12
3120,12
3121,12
3122,12
3123,12
3124,12
3125,12
3126,12
3127,12
3128,12
3129,12
3130,12
3131,12
3132,12
3133,12
3134,12
3135,12
3136,12
3137,12
3138,12
3139,12
3140,12
3141,12
3142,12
3143,12
3144,12
3145,12
3146,12
3147,12
3148,12
3149,12
3150,12
3151,12
3152,12
3153,12
3154,12
3155,12
3156,12
3157,12
3158,12
3159,12
3160,12
3161,12
3162,12
3163,12
3164,12
3165,12
3166,12
3167,12
3168,12
3169,12
3170,12
3171,12
3172,12
3173,12
3174,12
3175,12
3176,12
3177,12
3178,12
3179,12
3180,12
3181,12
3182,12
3183,12
3184,12
3185,12
3186,12
3187,12
3188,12
3189,12
3190,12
3191,12
3192,12
3193,12
3194,12
3195,12
3196,12
3197,12
3198,12
3199,12
3200,12
3201,12
3202,12
3203,12
3204,12
3205,12
3206,12
3207,12
3208,12
3209,12
3210,12
3211,12
3212,12
3213,12
3214,12
3215,12
3216,12
3217,12
3218,12
3219,12
3220,12
3221,12
3222,12
3223,12
3224,12
3225,12
3226,12
3227,12
3228,12
3229,12
3230,12
3231,12
3232,12
3233,12
3234,12
3235,12
3236,12
3237,12
3238,13
3239,12
3240,12
3241,12
3242,12
3243,12
3244,13
3245,13
3246,12
3247,12
3248,12
3249,12
3250,12
3251,12
3252,12
3253,12
3254,13
3255,13
3256,12
3257,12
3258,12
3259,12
3260,12
3261,12
3262,12
3263,12
3264,12
3265,12
3266,12
3267,12
3268,12
3269,12
3270,12
3271,12
3272,12
3273,12
3274,12
3275,12
3276,12
3277,12
3278,12
3279,12
3280,12
3281,12
3282,12
3283,12
3284,12
3285,12
3286,12
3287,12
3288,12
3289,12
3290,12
3291,12
3292,12
3293,12
3294,12
3295,12
3296,12
3297,12
3298,12
3299,12
3300,12
3301,12
3302,12
3303,12
3304,12
3305,12
3306,12
3307,12
3308,12
3309,12
3310,12
3311,12
3312,12
3313,12
3314,12
3315,12
3316,12
3317,12
3318,12
3319,12
3320,12
3321,12
3322,12
3323,12
3324,12
3325,12
3326,12
3327,12
3328,12
3329,12
3330,12
3331,12
3332,12
3333,12
3334,12
3335,12
3336,12
3337,12
3338,12
3339,12
3340,12
3341,12
3342,12
3343,12
3344,12
3345,12
3346,12
3347,12
3348,12
3349,12
3350,12
3351,12
3352,12
3353,12
3354,12
3355,12
3356,12
3357,12
3358,12
3359,12
3360,12
3361,12
3362,12
3363,12
3364,12
3365,12
3366,12
3367,12
3368,12
3369,12
3370,12
3371,12
3372,12
3373,12
3374,12
3375,12
3376,12
3377,12
3378,12
3379,12
3380,12
3381,12
3382,13
3383,12
3384,12
3385,12
3386,12
3387,12
3388,12
3389,12
3390,13
3391,12
3392,12
3393,12
3394,12
3395,12
3396,12
3397,12
3398,12
3399,12
3400,12
3401,12
3402,12
3403,12
3404,12
3405,12
3406,12
3407,12
3408,12
3409,12
3410,12
3411,12
3412,12
3413,12
3414,12
3415,12
3416,12
3417,12
3418,12
3419,12
3420,13
3421,13
3422,12
3423,12
3424,12
3425,12
3426,12
3427,12
3428,12
3429,12
3430,12
3431,12
3432,12
3433,12
3434,12
3435,12
3436,12
3437,12
3438,12
3439,12
3440,12
3441,12
3442,12
3443,12
3444,12
3445,12
3446,12
3447,12
3448,12
3449,12
3450,12
3451,12
3452,12
3453,12
3454,12
3455,12
3456,12
3457,12
3458,12
3459,12
3460,12
3461,12
3462,12
3463,12
3464,12
3465,12
3466,12
3467,12
3468,12
3469,12
3470,12
3471,12
3472,12
3473,12
3474,12
3475,12
3476,12
3477,12
3478,12
3479,12
3480,12
3481,12
3482,12
3483,12
3484,12
3485,12
3486,12
3487,12
3488,12
3489,12
3490,12
3491,12
3492,12
3493,12
3494,12
3495,12
3496,12
3497,12
3498,12
3499,12
3500,12
3501,12
3502,12
3503,12
3504,12
3505,12
3506,12
3507,12
3508,12
3509,12
3510,12
3511,12
3512,12
3513,12
3514,12
3515,12
3516,12
3517,12
3518,12
3519,12
3520,12
3521,12
3522,12
3523,12
3524,12
3525,12
3526,12
3527,12
3528,12
3529,12
3530,12
3531,12
3532,12
3533,12
3534,12
3535,12
3536,12
3537,12
3538,12
3539,12
3540,12
3541,12
3542,12
3543,12
3544,12
3545,12
3546,12
3547,12
3548,12
3549,12
3550,12
3551,12
3552,13
3553,13
3554,13
3555,13
3556,12
3557,12
3558,12
3559,12
3560,12
3561,12
3562,12
3563,12
3564,12
3565,12
3566,12
3567,12
3568,12
3569,12
3570,12
3571,12
3572,12
3573,12
3574,12
3575,12
3576,12
3577,12
3578,12
3579,12
3580,12
3581,12
3582,12
3583,12
3584,12
3585,12
3586,12
3587,12
3588,12
3589,12
3590,12
3591,12
3592,12
3593,12
3594,12
3595,12
3596,12
3597,12
3598,12
3599,12
3600,12
3601,12
3602,12
3603,12
3604,12
3605,12
3606,12
3607,12
3608,12
3609,12
3610,12
3611,12
3612,12
3613,12
3614,12
3615,12
3616,12
3617,12
3618,12
3619,12
3620,12
3621,12
3622,12
3623,12
3624,12
3625,12
3626,12
3627,12
3628,12
3629,12
3630,12
3631,12
3632,12
3633,12
3634,12
3635,12
3636,12
3637,12
3638,12
3639,12
3640,12
3641,12
3642,12
3643,12
3644,12
3645,12
3646,12
3647,12
3648,12
3649,12
3650,12
3651,12
3652,12
3653,12
3654,12
3655,13
3656,13
3657,12
3658,12
3659,12
3660,12
3661,12
3662,12
3663,12
3664,12
3665,12
3666,12
3667,12
3668,12
3669,12
3670,12
3671,12
3672,12
3673,12
3674,12
3675,12
3676,12
3677,12
3678,12
3679,12
3680,12
3681,13
3682,12
3683,12
3684,12
3685,12
3686,12
3687,12
3688,12
3689,12
3690,12
3691,12
3692,12
3693,12
3694,12
3695,12
3696,12
3697,12
3698,12
3699,12
3700,12
3701,12
3702,12
3703,12
3704,12
3705,12
3706,12
3707,12
3708,12
3709,12
3710,12
3711,12
3712,12
3713,12
3714,12
3715,12
3716,12
3717,12
3718,12
3719,12
3720,12
3721,12
3722,12
3723,12
3724,12
3725,12
3726,12
3727,12
3728,12
3729,12
3730,12
3731,12
3732,12
3733,12
3734,12
3735,12
3736,12
3737,12
3738,12
3739,12
3740,12
3741,12
3742,12
3743,12
3744,12
3745,12
3746,12
3747,12
3748,12
3749,12
3750,12
3751,12
3752,13
3753,13
3754,13
3755,13
3756,13
3757,13
3758,12
3759,12
3760,12
3761,12
3762,12
3763,12
3764,12
3765,12
3766,12
3767,12
3768,12
3769,12
3770,12
3771,12
3772,12
3773,12
3774,12
3775,12
3776,12
3777,12
3778,12
3779,12
3780,12
3781,12
3782,12
3783,12
3784,12
3785,12
3786,12
3787,12
3788,12
3789,12
3790,12
3791,12
3792,12
3793,12
3794,12
3795,12
3796,12
3797,12
3798,12
3799,12
3800,12
3801,12
3802,12
3803,12
3804,12
3805,12
3806,12
3807,12
3808,12
3809,12
3810,12
3811,12
3812,12
3813,12
3814,12
3815,12
3816,12
3817,12
3818,12
3819,12
3820,12
3821,12
3822,12
3823,12
3824,12
3825,12
3826,12
3827,12
3828,12
3829,12
3830,12
3831,12
3832,12
3833,12
3834,12
3835,12
3836,12
3837,12
3838,12
3839,12
3840,12
3841,12
3842,12
3843,12
3844,12
3845,12
3846,12
3847,12
3848,12
3849,12
3850,12
3851,12
3852,12
3853,12
3854,12
3855,12
3856,12
3857,12
3858,12
3859,12
3860,12
3861,13
3862,13
3863,13
3864,12
3865,12
3866,12
3867,12
3868,12
3869,12
3870,12
3871,12
3872,12
3873,12
3874,12
3875,12
3876,12
3877,12
3878,12
3879,12
3880,12
3881,12
3882,12
3883,12
3884,12
3885,12
3886,12
3887,12
3888,12
3889,12
3890,12
3891,12
3892,12
3893,12
3894,12
3895,12
3896,12
3897,12
3898,12
3899,12
3900,12
3901,12
3902,12
3903,12
3904,12
3905,12
3906,12
3907,12
3908,12
3909,12
3910,12
3911,12
3912,12
3913,12
3914,12
3915,12
3916,12
3917,12
3918,12
3919,12
3920,12
3921,12
3922,12
3923,12
3924,12
3925,12
3926,12
3927,12
3928,12
3929,12
3930,12
3931,12
3932,12
3933,12
3934,12
3935,12
3936,12
3937,12
3938,12
3939,12
3940,12
3941,12
3942,12
3943,12
3944,12
3945,12
3946,12
3947,12
3948,12
3949,12
3950,12
3951,12
3952,13
3953,13
3954,13
3955,13
3956,13
3957,13
3958,13
3959,13
3960,13
3961,13
3962,13
3963,13
3964,13
3965,13
3966,13
3967,13
3968,13
3969,13
3970,13
3971,13
3972,13
3973,13
3974,13
3975,14
3976,14
3977,14
3978,14
3979,14
3980,14
3981,13
3982,13
3983,13
3984,13
3985,13
3986,13
3987,13
3988,13
3989,13
3990,13
3991,13
3992,13
3993,13
3994,13
3995,13
3996,13
3997,13
3998,13
3999,13
4000,13
4001,13
4002,13
4003,13
4004,13
4005,13
4006,13
4007,13
4008,13
4009,13
4010,13
4011,13
4012,13
4013,13
4014,13
4015,13
4016,13
4017,13
4018,13
4019,13
4020,13
4021,13
4022,13
4023,13
4024,13
4025,13
4026,13
4027,13
4028,13
4029,13
4030,13
4031,13
4032,13
4033,13
4034,13
4035,13
4036,13
4037,13
4038,13
4039,13
4040,13
4041,13
4042,13
4043,13
4044,13
4045,13
4046,13
4047,13
4048,13
4049,13
4050,13
4051,13
4052,13
4053,13
4054,13
4055,13
4056,13
4057,13
4058,13
4059,13
4060,13
4061,13
4062,13
4063,13
4064,13
4065,13
4066,13
4067,13
4068,13
4069,13
4070,13
4071,13
4072,13
4073,13
4074,13
4075,13
4076,13
4077,13
4078,13
4079,13
4080,13
4081,13
4082,13
4083,13
4084,13
4085,13
4086,13
4087,13
4088,13
4089,13
4090,13
4091,13
4092,13
4093,13
4094,13
4095,13
4096,13
4097,13
4098,13
4099,13
4100,13
4101,13
4102,13
4103,13
4104,13
4105,13
4106,13
4107,13
4108,13
4109,13
4110,13
4111,13
4112,13
4113,13
4114,13
4115,13
4116,13
4117,13
4118,13
4119,13
4120,13
4121,13
4122,13
4123,13
4124,13
4125,13
4126,13
4127,13
4128,13
4129,13
4130,13
4131,13
4132,13
4133,13
4134,13
4135,13
4136,13
4137,13
4138,13
4139,13
4140,13
4141,13
4142,14
4143,13
4144,13
4145,13
4146,13
4147,13
4148,13
4149,13
4150,13
4151,13
4152,13
4153,13
4154,13
4155,13
4156,13
4157,14
4158,14
4159,14
4160,14
4161,14
4162,14
4163,14
4164,14
4165,14
4166,14
4167,14
4168,14
4169,14
4170,14
4171,14
4172,14
4173,14
4174,14
4175,13
4176,13
4177,13
4178,13
4179,13
4180,13
4181,13
4182,13
4183,13
4184,13
4185,13
4186,13
4187,13
4188,13
4189,13
4190,13
4191,13
4192,13
4193,13
4194,13
4195,13
4196,13
4197,13
4198,13
4199,13
4200,13
4201,13
4202,13
4203,13
4204,13
4205,13
4206,13
4207,13
4208,13
4209,13
4210,13
4211,13
4212,13
4213,13
4214,13
4215,13
4216,13
4217,13
4218,13
4219,13
4220,13
4221,13
4222,13
4223,13
4224,13
4225,13
4226,13
4227,13
4228,13
4229,13
4230,13
4231,13
4232,13
4233,13
4234,13
4235,13
4236,13
4237,13
4238,13
4239,13
4240,13
4241,13
4242,13
4243,13
4244,13
4245,13
4246,13
4247,13
4248,13
4249,13
4250,13
4251,13
4252,13
4253,13
4254,13
4255,13
4256,13
4257,13
4258,13
4259,13
4260,13
4261,13
4262,13
4263,13
4264,13
4265,13
4266,13
4267,13
4268,13
4269,13
4270,13
4271,13
4272,13
4273,13
4274,13
4275,13
4276,13
4277,13
4278,13
4279,13
4280,13
4281,13
4282,13
4283,13
4284,13
4285,13
4286,13
4287,13
4288,13
4289,13
4290,13
4291,13
4292,13
4293,13
4294,13
4295,13
4296,13
4297,13
4298,13
4299,13
4300,13
4301,13
4302,13
4303,13
4304,13
4305,13
4306,13
4307,13
4308,13
4309,13
4310,13
4311,13
4312,13
4313,13
4314,13
4315,13
4316,13
4317,13
4318,13
4319,13
4320,13
4321,13
4322,13
4323,13
4324,13
4325,13
4326,13
4327,13
4328,13
4329,13
4330,13
4331,13
4332,13
4333,13
4334,13
4335,13
4336,13
4337,13
4338,13
4339,13
4340,13
4341,13
4342,13
4343,13
4344,13
4345,13
4346,13
4347,13
4348,13
4349,13
4350,13
4351,13
4352,13
4353,13
4354,13
4355,13
4356,13
4357,13
4358,13
4359,13
4360,13
4361,13
4362,13
4363,13
4364,13
4365,13
4366,13
4367,13
4368,13
4369,13
4370,13
4371,13
4372,13
4373,13
4374,13
4375,13
4376,13
4377,13
4378,13
4379,13
4380,13
4381,13
4382,13
4383,13
4384,13
4385,13
4386,13
4387,13
4388,13
4389,13
4390,13
4391,14
4392,13
4393,13
4394,13
4395,13
4396,13
4397,13
4398,13
4399,13
4400,13
4401,13
4402,13
4403,13
4404,13
4405,13
4406,13
4407,13
4408,13
4409,13
4410,13
4411,13
4412,13
4413,13
4414,13
4415,13
4416,13
4417,13
4418,13
4419,13
4420,13
4421,13
4422,13
4423,13
4424,13
4425,13
4426,13
4427,13
4428,13
4429,13
4430,13
4431,13
4432,13
4433,13
4434,13
4435,13
4436,13
4437,13
4438,13
4439,13
4440,13
4441,13
4442,13
4443,13
4444,13
4445,13
4446,13
4447,13
4448,13
4449,13
4450,13
4451,13
4452,13
4453,13
4454,13
4455,13
4456,13
4457,13
4458,13
4459,13
4460,13
4461,13
4462,13
4463,13
4464,13
4465,13
4466,13
4467,13
4468,13
4469,13
4470,13
4471,13
4472,13
4473,13
4474,13
4475,13
4476,13
4477,13
4478,13
4479,13
4480,13
4481,13
4482,13
4483,13
4484,13
4485,13
4486,13
4487,13
4488,13
4489,13
4490,13
4491,13
4492,13
4493,13
4494,13
4495,13
4496,13
4497,13
4498,13
4499,13
4500,13
4501,13
4502,13
4503,13
4504,13
4505,13
4506,13
4507,13
4508,13
4509,13
4510,13
4511,13
4512,13
4513,13
4514,13
4515,13
4516,13
4517,13
4518,13
4519,13
4520,13
4521,13
4522,13
4523,13
4524,13
4525,13
4526,13
4527,13
4528,13
4529,13
4530,13
4531,13
4532,13
4533,13
4534,13
4535,13
4536,13
4537,13
4538,13
4539,13
4540,13
4541,13
4542,13
4543,13
4544,13
4545,13
4546,13
4547,13
4548,13
4549,13
4550,13
4551,13
4552,13
4553,13
4554,13
4555,13
4556,13
4557,13
4558,13
4559,13
4560,13
4561,13
4562,13
4563,13
4564,13
4565,13
4566,13
4567,13
4568,13
4569,13
4570,13
4571,13
4572,13
4573,13
4574,13
4575,13
4576,13
4577,13
4578,13
4579,13
4580,13
4581,13
4582,13
4583,13
4584,13
4585,13
4586,13
4587,14
4588,14
4589,14
4590,14
4591,13
4592,13
4593,13
4594,13
4595,13
4596,13
4597,13
4598,13
4599,13
4600,13
4601,13
4602,13
4603,13
4604,13
4605,13
4606,13
4607,13
4608,13
4609,13
4610,13
4611,13
4612,13
4613,13
4614,13
4615,13
4616,13
4617,13
4618,13
4619,13
4620,13
4621,13
4622,13
4623,13
4624,13
4625,13
4626,13
4627,13
4628,13
4629,13
4630,13
4631,13
4632,13
4633,13
4634,13
4635,13
4636,13
4637,13
4638,13
4639,13
4640,13
4641,13
4642,13
4643,13
4644,13
4645,13
4646,13
4647,13
4648,14
4649,13
4650,13
4651,13
4652,13
4653,13
4654,13
4655,13
4656,13
4657,13
4658,13
4659,13
4660,13
4661,13
4662,13
4663,13
4664,13
4665,13
4666,13
4667,13
4668,13
4669,13
4670,13
4671,13
4672,13
4673,13
4674,13
4675,14
4676,14
4677,14
4678,13
4679,13
4680,13
4681,13
4682,13
4683,14
4684,13
4685,13
4686,13
4687,13
4688,13
4689,13
4690,13
4691,13
4692,13
4693,13
4694,13
4695,13
4696,13
4697,13
4698,13
4699,13
4700,13
4701,13
4702,13
4703,13
4704,13
4705,13
4706,13
4707,13
4708,13
4709,13
4710,13
4711,13
4712,13
4713,13
4714,13
4715,13
4716,13
4717,14
4718,14
4719,14
4720,14
4721,14
4722,14
4723,13
4724,13
4725,13
4726,13
4727,13
4728,13
4729,13
4730,13
4731,13
4732,13
4733,13
4734,13
4735,13
4736,13
4737,13
4738,13
4739,13
4740,13
4741,13
4742,13
4743,13
4744,13
4745,13
4746,13
4747,13
4748,13
4749,13
4750,13
4751,13
4752,13
4753,13
4754,13
4755,13
4756,13
4757,13
4758,13
4759,13
4760,13
4761,13
4762,13
4763,13
4764,13
4765,13
4766,13
4767,13
4768,13
4769,13
4770,13
4771,13
4772,13
4773,13
4774,13
4775,13
4776,13
4777,13
4778,13
4779,13
4780,13
4781,13
4782,13
4783,14
4784,14
4785,14
4786,13
4787,13
4788,13
4789,13
4790,13
4791,13
4792,13
4793,13
4794,13
4795,13
4796,13
4797,13
4798,13
4799,13
4800,13
4801,13
4802,13
4803,13
4804,13
4805,13
4806,13
4807,13
4808,13
4809,13
4810,13
4811,13
4812,13
4813,13
4814,13
4815,13
4816,13
4817,13
4818,13
4819,13
4820,13
4821,13
4822,13
4823,13
4824,13
4825,13
4826,13
4827,13
4828,13
4829,13
4830,13
4831,13
4832,13
4833,13
4834,13
4835,13
4836,13
4837,13
4838,13
4839,13
4840,13
4841,13
4842,13
4843,13
4844,13
4845,13
4846,13
4847,13
4848,13
4849,13
4850,13
4851,13
4852,13
4853,13
4854,13
4855,13
4856,13
4857,13
4858,13
4859,13
4860,13
4861,13
4862,13
4863,13
4864,13
4865,13
4866,13
4867,13
4868,13
4869,13
4870,13
4871,13
4872,13
4873,13
4874,13
4875,13
4876,13
4877,13
4878,13
4879,13
4880,13
4881,13
4882,13
4883,13
4884,13
4885,13
4886,13
4887,13
4888,13
4889,13
4890,13
4891,13
4892,13
4893,13
4894,13
4895,13
4896,13
4897,13
4898,13
4899,13
4900,13
4901,13
4902,13
4903,13
4904,13
4905,13
4906,13
4907,13
4908,13
4909,13
4910,13
4911,13
4912,13
4913,13
4914,13
4915,13
4916,13
4917,13
4918,13
4919,13
4920,13
4921,13
4922,13
4923,13
4924,13
4925,13
4926,13
4927,13
4928,13
4929,13
4930,13
4931,13
4932,13
4933,13
4934,13
4935,13
4936,13
4937,13
4938,13
4939,13
4940,13
4941,13
4942,13
4943,13
4944,13
4945,13
4946,13
4947,13
4948,13
4949,13
4950,13
4951,13
4952,13
4953,13
4954,13
4955,13
4956,13
4957,13
4958,13
4959,13
4960,13
4961,13
4962,13
4963,13
4964,13
4965,13
4966,13
4967,13
4968,13
4969,13
4970,13
4971,13
4972,13
4973,13
4974,13
4975,13
4976,13
4977,13
4978,13
4979,14
4980,13
4981,13
4982,13
4983,13
4984,13
4985,13
4986,13
4987,13
4988,13
4989,13
4990,13
4991,14
4992,14
4993,14
4994,13
4995,13
4996,13
4997,13
4998,13
4999,13
5000,13
5001,13
5002,13
5003,13
5004,13
5005,13
5006,13
5007,13
5008,13
5009,13
5010,13
5011,13
5012,13
5013,13
5014,13
5015,13
5016,13
5017,13
5018,13
5019,13
5020,13
5021,13
5022,13
5023,13
5024,13
5025,13
5026,14
5027,13
5028,13
5029,13
5030,13
5031,13
5032,13
5033,13
5034,13
5035,13
5036,13
5037,13
5038,13
5039,13
5040,13
5041,13
5042,13
5043,13
5044,13
5045,13
5046,13
5047,13
5048,13
5049,13
5050,13
5051,13
5052,13
5053,13
5054,13
5055,13
5056,13
5057,13
5058,13
5059,13
5060,13
5061,13
5062,13
5063,13
5064,13
5065,13
5066,13
5067,13
5068,13
5069,13
5070,13
5071,13
5072,13
5073,13
5074,13
5075,13
5076,13
5077,13
5078,13
5079,13
5080,13
5081,13
5082,13
5083,13
5084,13
5085,13
5086,13
5087,13
5088,13
5089,13
5090,13
5091,13
5092,13
5093,13
5094,13
5095,13
5096,13
5097,13
5098,13
5099,13
5100,13
5101,13
5102,13
5103,13
5104,13
5105,13
5106,13
5107,13
5108,13
5109,13
5110,13
5111,13
5112,13
5113,13
5114,13
5115,13
5116,13
5117,13
5118,13
5119,13
5120,13
5121,13
5122,13
5123,13
5124,13
5125,13
5126,13
5127,13
5128,13
5129,13
5130,13
5131,13
5132,13
5133,13
5134,13
5135,13
5136,13
5137,13
5138,13
5139,13
5140,13
5141,13
5142,13
5143,13
5144,13
5145,13
5146,13
5147,13
5148,13
5149,13
5150,13
5151,13
5152,13
5153,13
5154,13
5155,13
5156,13
5157,13
5158,13
5159,13
5160,13
5161,13
5162,13
5163,13
5164,13
5165,13
5166,13
5167,13
5168,13
5169,13
5170,13
5171,13
5172,13
5173,13
5174,13
5175,13
5176,13
5177,13
5178,13
5179,13
5180,13
5181,13
5182,13
5183,13
5184,13
5185,13
5186,13
5187,13
5188,13
5189,13
5190,13
5191,13
5192,13
5193,13
5194,13
5195,13
5196,13
5197,13
5198,13
5199,13
5200,13
5201,13
5202,13
5203,13
5204,13
5205,13
5206,13
5207,13
5208,13
5209,13
5210,13
5211,13
5212,13
5213,13
5214,13
5215,13
5216,13
5217,13
5218,13
5219,13
5220,13
5221,13
5222,13
5223,13
5224,13
5225,13
5226,13
5227,13
5228,13
5229,13
5230,13
5231,13
5232,13
5233,13
5234,13
5235,13
5236,13
5237,13
5238,13
5239,13
5240,13
5241,13
5242,13
5243,13
5244,13
5245,13
5246,13
5247,13
5248,13
5249,13
5250,13
5251,13
5252,13
5253,14
5254,13
5255,13
5256,13
5257,13
5258,13
5259,13
5260,13
5261,13
5262,13
5263,13
5264,13
5265,13
5266,13
5267,13
5268,13
5269,13
5270,13
5271,13
5272,13
5273,13
5274,13
5275,13
5276,13
5277,13
5278,13
5279,13
5280,13
5281,13
5282,13
5283,13
5284,13
5285,13
5286,13
5287,13
5288,13
5289,13
5290,13
5291,13
5292,13
5293,13
5294,13
5295,13
5296,13
5297,13
5298,13
5299,13
5300,13
5301,13
5302,13
5303,13
5304,13
5305,13
5306,13
5307,13
5308,13
5309,13
5310,13
5311,13
5312,13
5313,13
5314,13
5315,13
5316,13
5317,13
5318,13
5319,13
5320,13
5321,13
5322,13
5323,13
5324,13
5325,13
5326,13
5327,13
5328,13
5329,13
5330,13
5331,13
5332,13
5333,13
5334,13
5335,13
5336,13
5337,13
5338,13
5339,13
5340,13
5341,13
5342,13
5343,13
5344,13
5345,13
5346,13
5347,13
5348,13
5349,13
5350,13
5351,13
5352,13
5353,13
5354,13
5355,13
5356,13
5357,13
5358,13
5359,13
5360,13
5361,13
5362,13
5363,13
5364,13
5365,13
5366,13
5367,13
5368,13
5369,13
5370,13
5371,13
5372,13
5373,13
5374,13
5375,13
5376,13
5377,13
5378,13
5379,13
5380,13
5381,13
5382,13
5383,13
5384,13
5385,13
5386,13
5387,13
5388,13
5389,13
5390,13
5391,13
5392,13
5393,13
5394,13
5395,13
5396,13
5397,13
5398,13
5399,13
5400,13
5401,13
5402,13
5403,13
5404,13
5405,13
5406,13
5407,13
5408,13
5409,13
5410,13
5411,13
5412,13
5413,13
5414,13
5415,13
5416,13
5417,13
5418,13
5419,13
5420,13
5421,13
5422,13
5423,13
5424,13
5425,13
5426,13
5427,13
5428,13
5429,13
5430,13
5431,13
5432,13
5433,13
5434,13
5435,13
5436,13
5437,13
5438,13
5439,13
5440,13
5441,13
5442,13
5443,13
5444,13
5445,13
5446,13
5447,13
5448,13
5449,13
5450,13
5451,13
5452,13
5453,13
5454,13
5455,13
5456,13
5457,13
5458,13
5459,13
5460,13
5461,13
5462,13
5463,13
5464,13
5465,13
5466,13
5467,13
5468,13
5469,13
5470,13
5471,13
5472,13
5473,13
5474,13
5475,13
5476,13
5477,13
5478,13
5479,13
5480,13
5481,13
5482,13
5483,13
5484,13
5485,13
5486,13
5487,13
5488,13
5489,13
5490,13
5491,13
5492,13
5493,13
5494,13
5495,13
5496,13
5497,13
5498,13
5499,13
5500,13
5501,13
5502,13
5503,13
5504,13
5505,13
5506,13
5507,13
5508,13
5509,13
5510,13
5511,13
5512,13
5513,13
5514,13
5515,13
5516,13
5517,13
5518,13
5519,13
5520,13
5521,13
5522,13
5523,13
5524,13
5525,13
5526,13
5527,13
5528,13
5529,13
5530,13
5531,13
5532,13
5533,13
5534,13
5535,13
5536,13
5537,13
5538,13
5539,13
5540,13
5541,13
5542,13
5543,13
5544,13
5545,13
5546,13
5547,13
5548,13
5549,13
5550,13
5551,14
5552,13
5553,13
5554,13
5555,13
5556,13
5557,13
5558,13
5559,13
5560,15
5561,14
5562,14
5563,14
5564,14
5565,14
5566,14
5567,14
5568,14
5569,14
5570,14
5571,14
5572,15
5573,15
5574,15
5575,15
5576,15
5577,15
5578,15
5579,15
5580,14
5581,14
5582,14
5583,14
5584,14
5585,14
5586,14
5587,14
5588,14
5589,15
5590,14
5591,14
5592,14
5593,14
5594,14
5595,14
5596,14
5597,14
5598,14
5599,14
5600,14
5601,14
5602,14
5603,14
5604,14
5605,14
5606,14
5607,14
5608,14
5609,14
5610,14
5611,14
5612,14
5613,14
5614,14
5615,14
5616,14
5617,14
5618,14
5619,14
5620,14
5621,14
5622,14
5623,14
5624,14
5625,14
5626,14
5627,14
5628,14
5629,14
5630,14
5631,14
5632,14
5633,14
5634,14
5635,14
5636,14
5637,14
5638,14
5639,14
5640,14
5641,14
5642,14
5643,14
5644,14
5645,14
5646,14
5647,14
5648,14
5649,14
5650,14
5651,14
5652,14
5653,14
5654,14
5655,14
5656,14
5657,14
5658,14
5659,14
5660,14
5661,14
5662,14
5663,14
5664,14
5665,14
5666,14
5667,14
5668,14
5669,14
5670,14
5671,14
5672,14
5673,14
5674,14
5675,14
5676,14
5677,14
5678,14
5679,14
5680,14
5681,14
5682,14
5683,14
5684,14
5685,14
5686,14
5687,14
5688,14
5689,14
5690,14
5691,14
5692,14
5693,14
5694,14
5695,14
5696,14
5697,14
5698,14
5699,14
5700,14
5701,14
5702,14
5703,14
5704,14
5705,14
5706,14
5707,14
5708,14
5709,14
5710,14
5711,14
5712,14
5713,14
5714,14
5715,14
5716,14
5717,14
5718,14
5719,14
5720,14
5721,14
5722,14
5723,14
5724,14
5725,14
5726,14
5727,14
5728,14
5729,14
5730,14
5731,14
5732,14
5733,14
5734,14
5735,14
5736,14
5737,14
5738,14
5739,14
5740,15
5741,15
5742,15
5743,15
5744,15
5745,15
5746,15
5747,15
5748,14
5749,14
5750,14
5751,14
5752,14
5753,14
5754,14
5755,14
5756,14
5757,14
5758,14
5759,14
5760,14
5761,14
5762,14
5763,14
5764,14
5765,14
5766,14
5767,14
5768,14
5769,14
5770,14
5771,15
5772,14
5773,14
5774,14
5775,14
5776,14
5777,14
5778,14
5779,14
5780,14
5781,14
5782,14
5783,14
5784,14
5785,14
5786,14
5787,14
5788,14
5789,14
5790,14
5791,14
5792,14
5793,14
5794,14
5795,14
5796,14
5797,14
5798,14
5799,14
5800,14
5801,14
5802,14
5803,14
5804,14
5805,14
5806,15
5807,15
5808,15
5809,15
5810,15
5811,15
5812,15
5813,15
5814,15
5815,15
5816,15
5817,14
5818,14
5819,14
5820,14
5821,14
5822,14
5823,14
5824,14
5825,14
5826,14
5827,14
5828,14
5829,14
5830,14
5831,14
5832,14
5833,14
5834,14
5835,14
5836,14
5837,14
5838,15
5839,15
5840,14
5841,14
5842,14
5843,14
5844,14
5845,14
5846,14
5847,14
5848,14
5849,14
5850,14
5851,14
5852,14
5853,14
5854,14
5855,14
5856,14
5857,14
5858,14
5859,14
5860,14
5861,14
5862,14
5863,14
5864,14
5865,14
5866,14
5867,14
5868,14
5869,14
5870,14
5871,14
5872,14
5873,14
5874,14
5875,14
5876,14
5877,14
5878,14
5879,14
5880,14
5881,14
5882,14
5883,14
5884,14
5885,14
5886,14
5887,14
5888,14
5889,14
5890,14
5891,15
5892,14
5893,14
5894,14
5895,14
5896,14
5897,14
5898,14
5899,14
5900,14
5901,14
5902,14
5903,14
5904,14
5905,14
5906,14
5907,14
5908,14
5909,14
5910,14
5911,14
5912,14
5913,14
5914,14
5915,14
5916,14
5917,14
5918,14
5919,14
5920,14
5921,14
5922,14
5923,14
5924,14
5925,14
5926,14
5927,14
5928,14
5929,14
5930,14
5931,14
5932,14
5933,14
5934,14
5935,14
5936,14
5937,14
5938,14
5939,14
5940,14
5941,14
5942,14
5943,14
5944,14
5945,14
5946,14
5947,14
5948,14
5949,14
5950,14
5951,14
5952,14
5953,14
5954,14
5955,14
5956,14
5957,14
5958,14
5959,14
5960,14
5961,14
5962,14
5963,14
5964,14
5965,14
5966,14
5967,14
5968,14
5969,14
5970,14
5971,14
5972,14
5973,14
5974,14
5975,14
5976,14
5977,14
5978,14
5979,14
5980,14
5981,14
5982,14
5983,14
5984,14
5985,14
5986,15
5987,15
5988,15
5989,15
5990,15
5991,15
5992,15
5993,15
5994,15
5995,15
5996,15
5997,15
5998,15
5999,15
6000,15
6001,15
6002,15
6003,15
6004,15
6005,15
6006,15
6007,15
6008,15
6009,15
6010,15
6011,15
6012,15
6013,15
6014,15
6015,15
6016,15
6017,15
6018,15
6019,15
6020,15
6021,15
6022,15
6023,15
6024,15
6025,15
6026,15
6027,15
6028,15
6029,15
6030,15
6031,15
6032,15
6033,15
6034,15
6035,15
6036,15
6037,15
6038,15
6039,15
6040,15
6041,15
6042,15
6043,15
6044,15
6045,15
6046,15
6047,15
6048,15
6049,15
6050,15
6051,15
6052,15
6053,15
6054,15
6055,15
6056,15
6057,15
6058,15
6059,15
6060,15
6061,15
6062,15
6063,15
6064,15
6065,15
6066,15
6067,15
6068,15
6069,15
6070,15
6071,15
6072,15
6073,15
6074,15
6075,15
6076,15
6077,15
6078,15
6079,15
6080,15
6081,15
6082,15
6083,15
6084,15
6085,15
6086,15
6087,15
6088,15
6089,15
6090,15
6091,15
6092,15
6093,15
6094,15
6095,15
6096,15
6097,15
6098,15
6099,15
6100,15
6101,15
6102,15
6103,15
6104,15
6105,15
6106,15
6107,15
6108,15
6109,15
6110,15
6111,15
6112,15
6113,15
6114,15
6115,15
6116,15
6117,15
6118,15
6119,15
6120,15
6121,15
6122,15
6123,15
6124,15
6125,15
6126,15
6127,15
6128,15
6129,15
6130,15
6131,15
6132,15
6133,15
6134,15
6135,15
6136,15
6137,15
6138,15
6139,15
6140,15
6141,15
6142,15
6143,15
6144,15
6145,15
6146,15
6147,15
6148,15
6149,15
6150,15
6151,15
6152,15
6153,15
6154,15
6155,15
6156,15
6157,15
6158,15
6159,15
6160,15
6161,15
6162,15
6163,15
6164,15
6165,15
6166,16
6167,15
6168,15
6169,15
6170,15
6171,15
6172,15
6173,15
6174,15
6175,15
6176,15
6177,15
6178,15
6179,15
6180,15
6181,15
6182,15
6183,15
6184,15
6185,15
6186,15
6187,15
6188,15
6189,15
6190,16
6191,15
6192,15
6193,15
6194,15
6195,15
6196,15
6197,15
6198,15
6199,15
6200,15
6201,15
6202,15
6203,15
6204,15
6205,15
6206,15
6207,15
6208,15
6209,15
6210,15
6211,15
6212,15
6213,15
6214,15
6215,15
6216,15
6217,15
6218,15
6219,15
6220,15
6221,15
6222,15
6223,15
6224,15
6225,15
6226,15
6227,15
6228,15
6229,15
6230,15
6231,16
6232,16
6233,16
6234,16
6235,16
6236,15
6237,15
6238,15
6239,15
6240,15
6241,15
6242,15
6243,15
6244,15
6245,15
6246,15
6247,15
6248,15
6249,15
6250,15
6251,15
6252,15
6253,15
6254,15
6255,15
6256,15
6257,15
6258,15
6259,15
6260,15
6261,15
6262,15
6263,15
6264,15
6265,15
6266,15
6267,15
6268,15
6269,15
6270,15
6271,15
6272,15
6273,15
6274,15
6275,15
6276,15
6277,15
6278,15
6279,15
6280,15
6281,16
6282,16
6283,16
6284,16
6285,16
6286,16
6287,16
6288,16
6289,16
6290,16
6291,16
6292,16
6293,16
6294,16
6295,16
6296,16
6297,16
6298,16
6299,16
6300,16
6301,16
6302,16
6303,16
6304,16
6305,16
6306,16
6307,16
6308,16
6309,16
6310,16
6311,16
6312,16
6313,16
6314,16
6315,16
6316,16
6317,16
6318,16
6319,16
6320,16
6321,16
6322,16
6323,16
6324,16
6325,16
6326,16
6327,16
6328,16
6329,16
6330,16
6331,16
6332,16
6333,16
6334,16
6335,16
6336,16
6337,16
6338,16
6339,16
6340,16
6341,16
6342,16
6343,16
6344,16
6345,16
6346,16
6347,16
6348,16
6349,16
6350,16
6351,16
6352,16
6353,16
6354,16
6355,16
6356,16
6357,16
6358,16
6359,16
6360,16
6361,16
6362,16
6363,16
6364,16
6365,16
6366,16
6367,16
6368,16
6369,16
6370,16
6371,16
6372,16
6373,16
6374,16
6375,16
6376,16
6377,16
6378,16
6379,16
6380,16
6381,16
6382,16
6383,16
6384,16
6385,16
6386,16
6387,16
6388,16
6389,16
6390,16
6391,16
6392,16
6393,16
6394,16
6395,16
6396,16
6397,17
6398,16
6399,16
6400,16
6401,16
6402,16
6403,16
6404,16
6405,16
6406,16
6407,16
6408,16
6409,16
6410,16
6411,16
6412,16
6413,16
6414,16
6415,16
6416,16
6417,16
6418,16
6419,16
6420,16
6421,16
6422,16
6423,16
6424,16
6425,16
6426,17
6427,17
6428,17
6429,17
6430,17
6431,17
6432,17
6433,17
6434,17
6435,17
6436,16
6437,16
6438,16
6439,16
6440,16
6441,16
6442,16
6443,16
6444,17
6445,17
6446,17
6447,17
6448,17
6449,17
6450,16
6451,16
6452,16
6453,16
6454,17
6455,17
6456,17
6457,17
6458,17
6459,17
6460,17
6461,17
6462,17
6463,17
6464,17
6465,17
6466,17
6467,17
6468,17
6469,17
6470,17
6471,17
6472,17
6473,17
6474,17
6475,17
6476,17
6477,17
6478,17
6479,17
6480,17
6481,17
6482,17
6483,17
6484,17
6485,17
6486,17
6487,17
6488,17
6489,17
6490,17
6491,17
6492,17
6493,17
6494,17
6495,17
6496,17
6497,16
6498,16
6499,16
6500,16
6501,16
6502,16
6503,16
6504,16
6505,16
6506,16
6507,17
6508,16
6509,16
6510,16
6511,16
6512,16
6513,16
6514,16
6515,16
6516,16
6517,16
6518,16
6519,16
6520,16
6521,16
6522,16
6523,16
6524,16
6525,16
6526,16
6527,16
6528,16
6529,16
6530,16
6531,16
6532,16
6533,16
6534,16
6535,16
6536,16
6537,16
6538,16
6539,16
6540,16
6541,16
6542,16
6543,16
6544,16
6545,16
6546,16
6547,16
6548,16
6549,16
6550,16
6551,16
6552,16
6553,16
6554,16
6555,16
6556,16
6557,16
6558,16
6559,16
6560,16
6561,16
6562,16
6563,16
6564,16
6565,16
6566,16
6567,16
6568,16
6569,17
6570,17
6571,17
6572,17
6573,17
6574,17
6575,17
6576,17
6577,17
6578,17
6579,17
6580,17
6581,17
6582,17
6583,17
6584,17
6585,17
6586,17
6587,17
6588,17
6589,17
6590,17
6591,17
6592,17
6593,17
6594,17
6595,17
6596,17
6597,17
6598,17
6599,17
6600,17
6601,17
6602,17
6603,17
6604,17
6605,17
6606,17
6607,17
6608,17
6609,17
6610,17
6611,17
6612,17
6613,17
6614,17
6615,17
6616,17
6617,17
6618,17
6619,17
6620,17
6621,17
6622,17
6623,17
6624,17
6625,17
6626,17
6627,17
6628,17
6629,17
6630,17
6631,17
6632,17
6633,17
6634,17
6635,17
6636,17
6637,17
6638,17
6639,17
6640,17
6641,17
6642,17
6643,17
6644,17
6645,17
6646,17
6647,17
6648,18
6649,17
6650,17
6651,17
6652,17
6653,17
6654,17
6655,17
6656,17
6657,17
6658,17
6659,17
6660,17
6661,17
6662,17
6663,17
6664,17
6665,17
6666,17
6667,17
6668,17
6669,17
6670,17
6671,17
6672,17
6673,17
6674,17
6675,17
6676,17
6677,17
6678,17
6679,17
6680,17
6681,17
6682,17
6683,17
6684,17
6685,18
6686,18
6687,17
6688,17
6689,17
6690,17
6691,17
6692,17
6693,17
6694,17
6695,17
6696,17
6697,18
6698,18
6699,17
6700,17
6701,17
6702,17
6703,17
6704,17
6705,17
6706,17
6707,17
6708,17
6709,17
6710,17
6711,17
6712,17
6713,17
6714,17
6715,17
6716,17
6717,17
6718,17
6719,17
6720,17
6721,17
6722,17
6723,17
6724,17
6725,17
6726,17
6727,17
6728,17
6729,17
6730,17
6731,17
6732,17
6733,17
6734,17
6735,17
6736,17
6737,17
6738,17
6739,17
6740,17
6741,17
6742,17
6743,17
6744,17
6745,17
6746,17
6747,17
6748,17
6749,17
6750,17
6751,17
6752,17
6753,17
6754,17
6755,17
6756,17
6757,17
6758,17
6759,17
6760,17
6761,17
6762,17
6763,17
6764,17
6765,17
6766,17
6767,17
6768,17
6769,17
6770,17
6771,17
6772,17
6773,17
6774,17
6775,17
6776,17
6777,17
6778,17
6779,17
6780,17
6781,17
6782,17
6783,17
6784,17
6785,17
6786,17
6787,17
6788,17
6789,17
6790,17
6791,17
6792,17
6793,17
6794,17
6795,17
6796,17
6797,17
6798,17
6799,17
6800,17
6801,17
6802,17
6803,17
6804,17
6805,17
6806,17
6807,17
6808,17
6809,17
6810,17
6811,17
6812,17
6813,17
6814,17
6815,17
6816,17
6817,17
6818,17
6819,18
6820,18
6821,17
6822,17
6823,17
6824,17
6825,17
6826,17
6827,17
6828,17
6829,17
6830,17
6831,17
6832,17
6833,17
6834,17
6835,17
6836,17
6837,17
6838,17
6839,17
6840,17
6841,17
6842,17
6843,17
6844,17
6845,17
6846,17
6847,17
6848,17
6849,17
6850,17
6851,17
6852,17
6853,17
6854,17
6855,17
6856,17
6857,17
6858,17
6859,17
6860,17
6861,17
6862,18
6863,17
6864,17
6865,17
6866,17
6867,17
6868,17
6869,17
6870,17
6871,17
6872,17
6873,17
6874,17
6875,17
6876,17
6877,17
6878,17
6879,17
6880,17
6881,17
6882,17
6883,17
6884,17
6885,17
6886,17
6887,17
6888,17
6889,17
6890,17
6891,17
6892,17
6893,17
6894,17
6895,17
6896,17
6897,17
6898,17
6899,17
6900,17
6901,17
6902,17
6903,17
6904,17
6905,17
6906,17
6907,17
6908,17
6909,17
6910,17
6911,17
6912,17
6913,17
6914,17
6915,17
6916,17
6917,17
6918,17
6919,17
6920,17
6921,17
6922,17
6923,17
6924,17
6925,17
6926,17
6927,17
6928,17
6929,17
6930,17
6931,17
6932,17
6933,17
6934,17
6935,17
6936,17
6937,17
6938,17
6939,17
6940,17
6941,17
6942,17
6943,17
6944,17
6945,17
6946,17
6947,17
6948,17
6949,17
6950,17
6951,17
6952,17
6953,17
6954,17
6955,17
6956,17
6957,17
6958,17
6959,17
6960,17
6961,17
6962,17
6963,17
6964,17
6965,17
6966,17
6967,17
6968,17
6969,17
6970,17
6971,17
6972,17
6973,17
6974,17
6975,17
6976,17
6977,17
6978,17
6979,17
6980,17
6981,17
6982,17
6983,17
6984,17
6985,17
6986,17
6987,17
6988,17
6989,17
6990,17
6991,17
6992,17
6993,17
6994,17
6995,17
6996,17
6997,17
6998,17
6999,17
7000,17
7001,17
7002,17
7003,17
7004,17
7005,17
7006,17
7007,17
7008,17
7009,17
7010,17
7011,17
7012,17
7013,17
7014,17
7015,17
7016,17
7017,17
7018,17
7019,17
7020,17
7021,17
7022,17
7023,17
7024,17
7025,17
7026,17
7027,17
7028,17
7029,17
7030,17
7031,17
7032,17
7033,17
7034,17
7035,17
7036,17
7037,17
7038,17
7039,17
7040,17
7041,17
7042,17
7043,17
7044,17
7045,17
7046,17
7047,17
7048,18
7049,18
7050,18
7051,18
7052,18
7053,18
7054,18
7055,17
7056,17
7057,17
7058,17
7059,17
7060,17
7061,17
7062,17
7063,17
7064,17
7065,17
7066,17
7067,17
7068,17
7069,17
7070,17
7071,17
7072,17
7073,17
7074,17
7075,17
7076,17
7077,17
7078,17
7079,17
7080,17
7081,17
7082,17
7083,17
7084,17
7085,17
7086,17
7087,17
7088,17
7089,17
7090,17
7091,17
7092,17
7093,17
7094,17
7095,17
7096,17
7097,17
7098,17
7099,17
7100,17
7101,17
7102,17
7103,17
7104,17
7105,17
7106,17
7107,17
7108,17
7109,17
7110,17
7111,17
7112,17
7113,17
7114,17
7115,17
7116,17
7117,17
7118,17
7119,17
7120,17
7121,17
7122,17
7123,17
7124,17
7125,17
7126,17
7127,17
7128,17
7129,17
7130,17
7131,17
7132,17
7133,17
7134,17
7135,17
7136,17
7137,17
7138,17
7139,17
7140,17
7141,17
7142,17
7143,17
7144,17
7145,17
7146,17
7147,17
7148,17
7149,17
7150,17
7151,17
7152,17
7153,17
7154,17
7155,17
7156,17
7157,17
7158,17
7159,17
7160,17
7161,17
7162,17
7163,17
7164,17
7165,17
7166,17
7167,17
7168,17
7169,17
7170,17
7171,17
7172,17
7173,17
7174,17
7175,17
7176,17
7177,17
7178,18
7179,18
7180,18
7181,18
7182,18
7183,19
7184,19
7185,18
7186,18
7187,18
7188,18
7189,18
7190,18
7191,18
7192,18
7193,18
7194,18
7195,18
7196,18
7197,18
7198,18
7199,18
7200,18
7201,18
7202,18
7203,18
7204,18
7205,18
7206,18
7207,18
7208,18
7209,18
7210,18
7211,18
7212,18
7213,18
7214,18
7215,18
7216,18
7217,18
7218,18
7219,18
7220,18
7221,18
7222,18
7223,18
7224,18
7225,18
7226,18
7227,18
7228,18
7229,18
7230,18
7231,18
7232,18
7233,18
7234,18
7235,18
7236,18
7237,18
7238,18
7239,18
7240,18
7241,18
7242,18
7243,18
7244,18
7245,18
7246,18
7247,18
7248,18
7249,18
7250,18
7251,18
7252,18
7253,18
7254,18
7255,18
7256,18
7257,18
7258,18
7259,18
7260,18
7261,18
7262,18
7263,18
7264,19
7265,19
7266,19
7267,19
7268,19
7269,19
7270,19
7271,19
7272,19
7273,19
7274,19
7275,19
7276,19
7277,19
7278,19
7279,19
7280,18
7281,18
7282,18
7283,18
7284,18
7285,18
7286,18
7287,18
7288,18
7289,18
7290,18
7291,18
7292,18
7293,18
7294,18
7295,18
7296,18
7297,18
7298,18
7299,18
7300,18
7301,18
7302,18
7303,18
7304,18
7305,18
7306,18
7307,18
7308,18
7309,18
7310,18
7311,18
7312,18
7313,18
7314,18
7315,18
7316,18
7317,18
7318,18
7319,18
7320,18
7321,18
7322,18
7323,18
7324,18
7325,18
7326,18
7327,18
7328,18
7329,18
7330,18
7331,18
7332,18
7333,18
7334,18
7335,18
7336,18
7337,18
7338,18
7339,18
7340,18
7341,18
7342,18
7343,18
7344,18
7345,18
7346,18
7347,18
7348,18
7349,18
7350,18
7351,18
7352,18
7353,18
7354,18
7355,18
7356,18
7357,18
7358,18
7359,18
7360,18
7361,19
7362,19
7363,18
7364,18
7365,18
7366,18
7367,18
7368,18
7369,18
7370,18
7371,18
7372,18
7373,18
7374,18
7375,18
7376,18
7377,18
7378,18
7379,18
7380,18
7381,18
7382,18
7383,18
7384,18
7385,18
7386,18
7387,18
7388,18
7389,18
7390,18
7391,18
7392,18
7393,18
7394,18
7395,18
7396,18
7397,18
7398,18
7399,18
7400,18
7401,18
7402,18
7403,18
7404,18
7405,18
7406,18
7407,18
7408,18
7409,18
7410,18
7411,18
7412,18
7413,18
7414,18
7415,18
7416,18
7417,18
7418,18
7419,18
7420,18
7421,18
7422,18
7423,18
7424,18
7425,18
7426,18
7427,18
7428,18
7429,18
7430,18
7431,18
7432,18
7433,18
7434,18
7435,18
7436,18
7437,18
7438,18
7439,18
7440,18
7441,18
7442,18
7443,18
7444,18
7445,18
7446,18
7447,18
7448,18
7449,18
7450,18
7451,18
7452,19
7453,19
7454,19
7455,19
7456,19
7457,19
7458,19
7459,19
7460,18
7461,18
7462,18
7463,18
7464,18
7465,18
7466,18
7467,18
7468,18
7469,18
7470,18
7471,18
7472,18
7473,18
7474,18
7475,18
7476,18
7477,18
7478,18
7479,18
7480,18
7481,18
7482,18
7483,18
7484,18
7485,18
7486,18
7487,18
7488,18
7489,18
7490,18
7491,18
7492,18
7493,18
7494,18
7495,18
7496,18
7497,18
7498,19
7499,19
7500,19
7501,19
7502,19
7503,18
7504,18
7505,18
7506,18
7507,18
7508,18
7509,18
7510,18
7511,18
7512,18
7513,18
7514,18
7515,18
7516,18
7517,18
7518,18
7519,18
7520,18
7521,18
7522,18
7523,18
7524,18
7525,18
7526,18
7527,18
7528,18
7529,18
7530,18
7531,18
7532,18
7533,18
7534,18
7535,18
7536,18
7537,18
7538,18
7539,18
7540,18
7541,18
7542,18
7543,18
7544,18
7545,18
7546,18
7547,18
7548,18
7549,18
7550,18
7551,18
7552,18
7553,18
7554,18
7555,18
7556,18
7557,18
7558,18
7559,18
7560,19
7561,19
7562,19
7563,19
7564,19
7565,19
7566,19
7567,19
7568,18
7569,18
7570,18
7571,18
7572,18
7573,18
7574,18
7575,18
7576,18
7577,18
7578,18
7579,18
7580,18
7581,19
7582,18
7583,18
7584,18
7585,18
7586,18
7587,18
7588,18
7589,18
7590,18
7591,18
7592,18
7593,18
7594,18
7595,18
7596,18
7597,18
7598,18
7599,18
7600,18
7601,18
7602,18
7603,18
7604,18
7605,18
7606,18
7607,18
7608,18
7609,18
7610,18
7611,18
7612,18
7613,18
7614,18
7615,18
7616,18
7617,18
7618,18
7619,18
7620,18
7621,18
7622,18
7623,18
7624,18
7625,18
7626,19
7627,19
7628,18
7629,18
7630,18
7631,18
7632,18
7633,18
7634,18
7635,18
7636,18
7637,18
7638,18
7639,18
7640,18
7641,18
7642,18
7643,18
7644,18
7645,18
7646,18
7647,18
7648,18
7649,18
7650,18
7651,18
7652,18
7653,18
7654,18
7655,18
7656,18
7657,18
7658,18
7659,18
7660,18
7661,18
7662,18
7663,18
7664,18
7665,18
7666,18
7667,18
7668,18
7669,18
7670,18
7671,18
7672,18
7673,18
7674,18
7675,18
7676,18
7677,18
7678,18
7679,18
7680,18
7681,18
7682,18
7683,18
7684,18
7685,18
7686,18
7687,18
7688,18
7689,18
7690,18
7691,18
7692,18
7693,18
7694,18
7695,18
7696,18
7697,18
7698,18
7699,18
7700,18
7701,18
7702,18
7703,18
7704,18
7705,18
7706,18
7707,18
7708,18
7709,18
7710,18
7711,18
7712,18
7713,18
7714,18
7715,18
7716,18
7717,18
7718,18
7719,18
7720,18
7721,18
7722,18
7723,18
7724,18
7725,18
7726,18
7727,18
7728,18
7729,18
7730,18
7731,18
7732,18
7733,18
7734,18
7735,18
7736,18
7737,18
7738,18
7739,18
7740,18
7741,18
7742,18
7743,18
7744,18
7745,18
7746,18
7747,18
7748,18
7749,18
7750,18
7751,18
7752,18
7753,18
7754,18
7755,18
7756,18
7757,18
7758,18
7759,18
7760,18
7761,18
7762,18
7763,18
7764,18
7765,18
7766,18
7767,18
7768,18
7769,18
7770,18
7771,18
7772,18
7773,18
7774,18
7775,18
7776,18
7777,18
7778,18
7779,18
7780,18
7781,19
7782,19
7783,18
7784,18
7785,18
7786,18
7787,18
7788,18
7789,18
7790,18
7791,18
7792,18
7793,18
7794,18
7795,18
7796,18
7797,18
7798,18
7799,18
7800,18
7801,18
7802,18
7803,18
7804,18
7805,18
7806,18
7807,18
7808,18
7809,18
7810,18
7811,18
7812,19
7813,18
7814,18
7815,18
7816,18
7817,18
7818,18
7819,18
7820,18
7821,18
7822,18
7823,18
7824,18
7825,18
7826,18
7827,18
7828,18
7829,18
7830,18
7831,18
7832,18
7833,18
7834,18
7835,18
7836,18
7837,18
7838,18
7839,18
7840,18
7841,18
7842,18
7843,18
7844,18
7845,18
7846,18
7847,18
7848,18
7849,18
7850,18
7851,18
7852,18
7853,18
7854,18
7855,18
7856,18
7857,18
7858,18
7859,18
7860,18
7861,18
7862,18
7863,18
7864,18
7865,18
7866,18
7867,18
7868,18
7869,18
7870,18
7871,18
7872,18
7873,18
7874,18
7875,18
7876,18
7877,18
7878,18
7879,18
7880,18
7881,18
7882,18
7883,18
7884,18
7885,18
7886,18
7887,18
7888,18
7889,18
7890,18
7891,18
7892,18
7893,18
7894,18
7895,18
7896,18
7897,19
7898,19
7899,19
7900,19
7901,19
7902,19
7903,19
7904,19
7905,18
7906,18
7907,18
7908,18
7909,18
7910,18
7911,18
7912,18
7913,18
7914,18
7915,18
7916,18
7917,18
7918,18
7919,18
7920,18
7921,18
7922,18
7923,18
7924,18
7925,18
7926,18
7927,18
7928,18
7929,18
7930,18
7931,18
7932,18
7933,18
7934,18
7935,18
7936,18
7937,18
7938,18
7939,18
7940,18
7941,18
7942,18
7943,18
7944,18
7945,18
7946,18
7947,18
7948,18
7949,18
7950,18
7951,18
7952,18
7953,18
7954,18
7955,18
7956,18
7957,18
7958,18
7959,18
7960,18
7961,18
7962,18
7963,18
7964,18
7965,18
7966,18
7967,18
7968,18
7969,18
7970,18
7971,18
7972,18
7973,18
7974,18
7975,18
7976,18
7977,18
7978,18
7979,18
7980,18
7981,18
7982,18
7983,18
7984,18
7985,18
7986,18
7987,18
7988,18
7989,18
7990,18
7991,18
7992,18
7993,18
7994,18
7995,18
7996,18
7997,18
7998,18
7999,18
8000,18
8001,18
8002,18
8003,18
8004,18
8005,18
8006,18
8007,18
8008,18
8009,18
8010,18
8011,18
8012,18
8013,19
8014,20
8015,20
8016,19
8017,19
8018,19
8019,19
8020,18
8021,18
8022,18
8023,18
8024,18
8025,18
8026,18
8027,18
8028,18
8029,18
8030,18
8031,18
8032,18
8033,18
8034,18
8035,18
8036,18
8037,18
8038,18
8039,18
8040,18
8041,18
8042,18
8043,18
8044,18
8045,18
8046,18
8047,18
8048,18
8049,18
8050,18
8051,18
8052,18
8053,18
8054,18
8055,18
8056,18
8057,18
8058,18
8059,18
8060,18
8061,18
8062,18
8063,18
8064,18
8065,18
8066,18
8067,18
8068,18
8069,18
8070,18
8071,18
8072,18
8073,18
8074,18
8075,18
8076,18
8077,18
8078,18
8079,18
8080,18
8081,18
8082,18
8083,18
8084,18
8085,18
8086,18
8087,18
8088,18
8089,18
8090,18
8091,18
8092,18
8093,18
8094,18
8095,18
8096,18
8097,18
8098,18
8099,18
8100,18
8101,18
8102,18
8103,18
8104,18
8105,18
8106,18
8107,18
8108,18
8109,18
8110,18
8111,18
8112,18
8113,18
8114,18
8115,18
8116,18
8117,18
8118,18
8119,18
8120,18
8121,18
8122,18
8123,18
8124,18
8125,18
8126,18
8127,18
8128,18
8129,18
8130,18
8131,18
8132,18
8133,18
8134,18
8135,18
8136,18
8137,18
8138,18
8139,18
8140,18
8141,18
8142,18
8143,18
8144,18
8145,18
8146,18
8147,18
8148,18
8149,18
8150,18
8151,18
8152,18
8153,18
8154,18
8155,18
8156,18
8157,18
8158,18
8159,18
8160,18
8161,18
8162,18
8163,18
8164,18
8165,18
8166,18
8167,18
8168,18
8169,18
8170,18
8171,18
8172,18
8173,18
8174,18
8175,18
8176,18
8177,18
8178,18
8179,18
8180,18
8181,18
8182,18
8183,18
8184,18
8185,18
8186,18
8187,18
8188,18
8189,18
8190,18
8191,18
8192,18
8193,18
8194,18
8195,18
8196,18
8197,18
8198,18
8199,18
8200,18
8201,18
8202,18
8203,18
8204,18
8205,18
8206,18
8207,18
8208,18
8209,18
8210,18
8211,18
8212,18
8213,18
8214,18
8215,18
8216,18
8217,18
8218,18
8219,18
8220,18
8221,18
8222,18
8223,18
8224,18
8225,18
8226,18
8227,18
8228,18
8229,18
8230,18
8231,18
8232,18
8233,18
8234,18
8235,18
8236,18
8237,18
8238,18
8239,18
8240,18
8241,18
8242,18
8243,18
8244,18
8245,18
8246,18
8247,19
8248,19
8249,19
8250,19
8251,19
8252,19
8253,19
8254,19
8255,19
8256,19
8257,19
8258,19
8259,19
8260,19
8261,19
8262,19
8263,19
8264,19
8265,19
8266,19
8267,19
8268,19
8269,19
8270,19
8271,19
8272,19
8273,19
8274,19
8275,19
8276,20
8277,19
8278,19
8279,19
8280,19
8281,19
8282,19
8283,19
8284,19
8285,19
8286,19
8287,19
8288,19
8289,19
8290,19
8291,19
8292,19
8293,19
8294,19
8295,19
8296,19
8297,19
8298,19
8299,19
8300,19
8301,19
8302,19
8303,19
8304,19
8305,19
8306,19
8307,19
8308,19
8309,19
8310,19
8311,20
8312,20
8313,20
8314,20
8315,20
8316,20
8317,20
8318,20
8319,19
8320,19
8321,19
8322,19
8323,19
8324,19
8325,19
8326,19
8327,19
8328,19
8329,19
8330,19
8331,19
8332,19
8333,19
8334,19
8335,19
8336,19
8337,19
8338,19
8339,19
8340,19
8341,19
8342,19
8343,19
8344,19
8345,19
8346,19
8347,19
8348,19
8349,19
8350,19
8351,19
8352,19
8353,19
8354,19
8355,19
8356,19
8357,19
8358,19
8359,19
8360,19
8361,19
8362,19
8363,19
8364,19
8365,19
8366,19
8367,19
8368,19
8369,19
8370,19
8371,19
8372,19
8373,19
8374,19
8375,19
8376,19
8377,19
8378,19
8379,19
8380,19
8381,19
8382,19
8383,19
8384,19
8385,19
8386,19
8387,19
8388,19
8389,19
8390,19
8391,19
8392,19
8393,19
8394,19
8395,19
8396,19
8397,19
8398,19
8399,19
8400,19
8401,19
8402,19
8403,19
8404,19
8405,19
8406,19
8407,19
8408,19
8409,19
8410,19
8411,19
8412,19
8413,19
8414,19
8415,19
8416,19
8417,19
8418,19
8419,19
8420,19
8421,19
8422,19
8423,19
8424,19
8425,19
8426,19
8427,19
8428,19
8429,20
8430,19
8431,19
8432,19
8433,19
8434,19
8435,19
8436,19
8437,19
8438,19
8439,19
8440,19
8441,19
8442,19
8443,19
8444,19
8445,19
8446,19
8447,19
8448,19
8449,19
8450,19
8451,19
8452,19
8453,19
8454,19
8455,19
8456,19
8457,19
8458,19
8459,19
8460,19
8461,19
8462,19
8463,19
8464,19
8465,19
8466,19
8467,19
8468,19
8469,19
8470,19
8471,19
8472,19
8473,19
8474,19
8475,19
8476,19
8477,19
8478,19
8479,19
8480,19
8481,19
8482,20
8483,20
8484,20
8485,19
8486,19
8487,19
8488,19
8489,19
8490,19
8491,19
8492,19
8493,19
8494,20
8495,19
8496,19
8497,19
8498,19
8499,19
8500,19
8501,19
8502,19
8503,19
8504,19
8505,19
8506,19
8507,19
8508,19
8509,19
8510,19
8511,19
8512,19
8513,19
8514,19
8515,19
8516,19
8517,19
8518,19
8519,19
8520,19
8521,19
8522,19
8523,19
8524,19
8525,19
8526,19
8527,19
8528,19
8529,19
8530,19
8531,19
8532,19
8533,19
8534,19
8535,19
8536,19
8537,19
8538,19
8539,19
8540,19
8541,19
8542,19
8543,19
8544,19
8545,19
8546,19
8547,19
8548,19
8549,19
8550,19
8551,19
8552,19
8553,19
8554,19
8555,19
8556,19
8557,19
8558,19
8559,19
8560,19
8561,19
8562,19
8563,19
8564,19
8565,19
8566,19
8567,19
8568,19
8569,19
8570,19
8571,19
8572,19
8573,19
8574,19
8575,19
8576,19
8577,19
8578,19
8579,19
8580,19
8581,19
8582,19
8583,19
8584,19
8585,19
8586,19
8587,19
8588,19
8589,19
8590,19
8591,19
8592,19
8593,19
8594,19
8595,19
8596,19
8597,19
8598,19
8599,19
8600,19
8601,19
8602,19
8603,19
8604,19
8605,19
8606,19
8607,19
8608,19
8609,19
8610,19
8611,19
8612,19
8613,19
8614,19
8615,19
8616,19
8617,19
8618,19
8619,19
8620,19
8621,19
8622,19
8623,19
8624,19
8625,19
8626,20
8627,20
8628,20
8629,20
8630,19
8631,19
8632,19
8633,19
8634,19
8635,19
8636,19
8637,19
8638,19
8639,19
8640,19
8641,19
8642,19
8643,19
8644,19
8645,19
8646,19
8647,19
8648,19
8649,19
8650,19
8651,19
8652,19
8653,19
8654,19
8655,19
8656,19
8657,19
8658,19
8659,19
8660,19
8661,19
8662,19
8663,19
8664,19
8665,19
8666,19
8667,19
8668,19
8669,19
8670,19
8671,19
8672,19
8673,19
8674,19
8675,19
8676,20
8677,19
8678,19
8679,19
8680,19
8681,19
8682,19
8683,19
8684,19
8685,19
8686,19
8687,19
8688,19
8689,19
8690,19
8691,19
8692,20
8693,20
8694,20
8695,20
8696,20
8697,20
8698,20
8699,20
8700,20
8701,19
8702,19
8703,19
8704,19
8705,19
8706,19
8707,19
8708,19
8709,19
8710,19
8711,19
8712,19
8713,19
8714,19
8715,19
8716,19
8717,19
8718,19
8719,19
8720,19
8721,19
8722,19
8723,19
8724,19
8725,19
8726,19
8727,19
8728,19
8729,19
8730,19
8731,19
8732,19
8733,19
8734,19
8735,19
8736,19
8737,19
8738,19
8739,19
8740,19
8741,19
8742,19
8743,19
8744,19
8745,19
8746,19
8747,19
8748,19
8749,19
8750,19
8751,19
8752,19
8753,19
8754,19
8755,19
8756,19
8757,19
8758,19
8759,19
8760,19
8761,19
8762,19
8763,19
8764,19
8765,19
8766,19
8767,19
8768,19
8769,19
8770,20
8771,20
8772,20
8773,19
8774,19
8775,19
8776,19
8777,19
8778,19
8779,19
8780,19
8781,19
8782,19
8783,19
8784,19
8785,19
8786,19
8787,19
8788,19
8789,19
8790,19
8791,19
8792,19
8793,19
8794,19
8795,19
8796,19
8797,19
8798,19
8799,19
8800,19
8801,19
8802,19
8803,19
8804,19
8805,19
8806,19
8807,19
8808,19
8809,19
8810,19
8811,19
8812,19
8813,19
8814,19
8815,19
8816,19
8817,19
8818,19
8819,19
8820,19
8821,19
8822,19
8823,19
8824,19
8825,19
8826,19
8827,19
8828,19
8829,19
8830,19
8831,19
8832,19
8833,19
8834,19
8835,19
8836,19
8837,19
8838,19
8839,19
8840,19
8841,19
8842,19
8843,19
8844,19
8845,19
8846,19
8847,19
8848,19
8849,19
8850,19
8851,19
8852,19
8853,19
8854,19
8855,19
8856,19
8857,19
8858,19
8859,19
8860,19
8861,19
8862,19
8863,19
8864,19
8865,19
8866,19
8867,19
8868,19
8869,19
8870,19
8871,19
8872,19
8873,19
8874,19
8875,19
8876,19
8877,19
8878,19
8879,19
8880,19
8881,19
8882,19
8883,19
8884,19
8885,19
8886,19
8887,19
8888,19
8889,19
8890,19
8891,19
8892,19
8893,19
8894,19
8895,19
8896,19
8897,19
8898,19
8899,19
8900,19
8901,19
8902,19
8903,19
8904,19
8905,19
8906,19
8907,19
8908,19
8909,19
8910,19
8911,19
8912,19
8913,19
8914,19
8915,19
8916,19
8917,19
8918,19
8919,19
8920,19
8921,19
8922,19
8923,19
8924,19
8925,19
8926,19
8927,19
8928,19
8929,19
8930,19
8931,19
8932,19
8933,19
8934,19
8935,19
8936,19
8937,19
8938,19
8939,19
8940,19
8941,19
8942,19
8943,19
8944,19
8945,19
8946,19
8947,19
8948,19
8949,19
8950,19
8951,19
8952,19
8953,19
8954,19
8955,19
8956,19
8957,19
8958,19
8959,19
8960,19
8961,19
8962,19
8963,19
8964,19
8965,19
8966,19
8967,19
8968,19
8969,19
8970,19
8971,19
8972,19
8973,19
8974,19
8975,19
8976,19
8977,19
8978,19
8979,19
8980,19
8981,19
8982,19
8983,19
8984,19
8985,19
8986,19
8987,19
8988,19
8989,19
8990,19
8991,19
8992,19
8993,19
8994,19
8995,19
8996,19
8997,19
8998,19
8999,19
9000,19
9001,19
9002,19
9003,19
9004,19
9005,19
9006,19
9007,19
9008,19
9009,19
9010,19
9011,19
9012,19
9013,19
9014,19
9015,19
9016,19
9017,19
9018,19
9019,19
9020,19
9021,19
9022,19
9023,19
9024,19
9025,19
9026,19
9027,19
9028,19
9029,19
9030,19
9031,19
9032,19
9033,19
9034,19
9035,20
9036,20
9037,20
9038,20
9039,20
9040,20
9041,20
9042,20
9043,20
9044,19
9045,19
9046,19
9047,19
9048,19
9049,19
9050,19
9051,19
9052,19
9053,20
9054,20
9055,19
9056,19
9057,19
9058,19
9059,19
9060,19
9061,19
9062,19
9063,19
9064,19
9065,19
9066,19
9067,19
9068,19
9069,19
9070,19
9071,19
9072,19
9073,19
9074,19
9075,19
9076,19
9077,19
9078,19
9079,19
9080,19
9081,20
9082,20
9083,19
9084,19
9085,19
9086,19
9087,19
9088,19
9089,19
9090,19
9091,19
9092,19
9093,19
9094,19
9095,19
9096,19
9097,19
9098,19
9099,19
9100,19
9101,19
9102,19
9103,19
9104,19
9105,19
9106,19
9107,19
9108,19
9109,19
9110,19
9111,19
9112,19
9113,19
9114,19
9115,19
9116,19
9117,19
9118,19
9119,19
9120,19
9121,19
9122,19
9123,19
9124,19
9125,19
9126,20
9127,20
9128,20
9129,19
9130,19
9131,19
9132,19
9133,19
9134,19
9135,19
9136,19
9137,19
9138,19
9139,19
9140,19
9141,19
9142,19
9143,19
9144,19
9145,19
9146,19
9147,19
9148,19
9149,19
9150,19
9151,19
9152,19
9153,19
9154,19
9155,19
9156,19
9157,19
9158,19
9159,19
9160,19
9161,19
9162,19
9163,19
9164,19
9165,19
9166,19
9167,19
9168,19
9169,19
9170,19
9171,19
9172,19
9173,19
9174,19
9175,19
9176,19
9177,19
9178,19
9179,19
9180,19
9181,19
9182,19
9183,19
9184,19
9185,19
9186,19
9187,19
9188,19
9189,19
9190,19
9191,19
9192,19
9193,19
9194,19
9195,19
9196,19
9197,19
9198,19
9199,19
9200,19
9201,19
9202,19
9203,19
9204,19
9205,19
9206,19
9207,19
9208,19
9209,19
9210,19
9211,19
9212,19
9213,19
9214,19
9215,19
9216,19
9217,19
9218,19
9219,19
9220,19
9221,19
9222,19
9223,19
9224,19
9225,19
9226,19
9227,19
9228,19
9229,19
9230,19
9231,19
9232,19
9233,19
9234,19
9235,19
9236,19
9237,19
9238,19
9239,19
9240,19
9241,19
9242,19
9243,19
9244,19
9245,19
9246,19
9247,19
9248,19
9249,19
9250,19
9251,19
9252,19
9253,19
9254,19
9255,19
9256,19
9257,19
9258,19
9259,19
9260,19
9261,19
9262,19
9263,19
9264,19
9265,19
9266,19
9267,19
9268,20
9269,20
9270,20
9271,19
9272,19
9273,19
9274,19
9275,19
9276,19
9277,19
9278,19
9279,19
9280,19
9281,19
9282,19
9283,20
9284,19
9285,19
9286,19
9287,19
9288,19
9289,19
9290,19
9291,19
9292,19
9293,19
9294,19
9295,19
9296,19
9297,19
9298,19
9299,19
9300,19
9301,19
9302,20
9303,19
9304,19
9305,19
9306,19
9307,19
9308,19
9309,19
9310,19
9311,19
9312,19
9313,19
9314,19
9315,19
9316,19
9317,19
9318,19
9319,19
9320,19
9321,19
9322,19
9323,19
9324,19
9325,19
9326,19
9327,20
9328,20
9329,20
9330,20
9331,20
9332,20
9333,20
9334,20
9335,20
9336,20
9337,19
9338,19
9339,19
9340,19
9341,19
9342,19
9343,19
9344,19
9345,19
9346,19
9347,19
9348,19
9349,19
9350,19
9351,19
9352,19
9353,19
9354,19
9355,19
9356,19
9357,19
9358,19
9359,19
9360,19
9361,19
9362,19
9363,19
9364,19
9365,19
9366,19
9367,19
9368,19
9369,19
9370,19
9371,19
9372,19
9373,19
9374,19
9375,19
9376,19
9377,19
9378,19
9379,19
9380,19
9381,19
9382,19
9383,19
9384,19
9385,19
9386,19
9387,19
9388,19
9389,19
9390,19
9391,19
9392,19
9393,19
9394,19
9395,19
9396,19
9397,19
9398,19
9399,19
9400,19
9401,19
9402,19
9403,19
9404,19
9405,19
9406,19
9407,19
9408,19
9409,19
9410,19
9411,19
9412,19
9413,19
9414,19
9415,19
9416,19
9417,19
9418,19
9419,19
9420,19
9421,19
9422,19
9423,19
9424,19
9425,19
9426,19
9427,19
9428,19
9429,19
9430,19
9431,19
9432,19
9433,19
9434,19
9435,19
9436,19
9437,19
9438,19
9439,19
9440,19
9441,19
9442,19
9443,19
9444,19
9445,20
9446,20
9447,20
9448,20
9449,20
9450,20
9451,20
9452,20
9453,19
9454,19
9455,19
9456,19
9457,19
9458,19
9459,19
9460,19
9461,19
9462,19
9463,19
9464,19
9465,19
9466,19
9467,19
9468,19
9469,19
9470,19
9471,19
9472,19
9473,19
9474,19
9475,19
9476,19
9477,19
9478,19
9479,19
9480,19
9481,19
9482,19
9483,19
9484,19
9485,19
9486,19
9487,19
9488,19
9489,19
9490,19
9491,19
9492,19
9493,19
9494,19
9495,19
9496,19
9497,19
9498,19
9499,19
9500,19
9501,19
9502,19
9503,19
9504,19
9505,19
9506,19
9507,19
9508,19
9509,19
9510,19
9511,19
9512,19
9513,19
9514,20
9515,20
9516,19
9517,19
9518,19
9519,19
9520,19
9521,19
9522,19
9523,19
9524,19
9525,19
9526,19
9527,19
9528,19
9529,19
9530,19
9531,19
9532,19
9533,19
9534,19
9535,19
9536,19
9537,19
9538,19
9539,19
9540,19
9541,19
9542,19
9543,19
9544,19
9545,19
9546,19
9547,19
9548,19
9549,19
9550,19
9551,19
9552,19
9553,19
9554,19
9555,19
9556,19
9557,19
9558,19
9559,19
9560,19
9561,19
9562,19
9563,19
9564,19
9565,19
9566,19
9567,19
9568,19
9569,19
9570,19
9571,19
9572,19
9573,19
9574,19
9575,19
9576,19
9577,19
9578,19
9579,19
9580,19
9581,19
9582,19
9583,19
9584,19
9585,19
9586,19
9587,19
9588,19
9589,20
9590,20
9591,20
9592,20
9593,20
9594,20
9595,20
9596,20
9597,19
9598,19
9599,19
9600,19
9601,19
9602,19
9603,19
9604,19
9605,19
9606,19
9607,19
9608,19
9609,19
9610,19
9611,19
9612,19
9613,19
9614,19
9615,19
9616,19
9617,19
9618,19
9619,19
9620,19
9621,19
9622,19
9623,20
9624,20
9625,20
9626,19
9627,19
9628,19
9629,19
9630,19
9631,19
9632,19
9633,20
9634,19
9635,19
9636,19
9637,19
9638,19
9639,19
9640,19
9641,19
9642,19
9643,19
9644,19
9645,19
9646,19
9647,19
9648,19
9649,19
9650,19
9651,19
9652,19
9653,19
9654,19
9655,19
9656,19
9657,19
9658,19
9659,19
9660,19
9661,19
9662,19
9663,19
9664,19
9665,19
9666,19
9667,19
9668,19
9669,19
9670,19
9671,19
9672,19
9673,19
9674,19
9675,19
9676,19
9677,19
9678,19
9679,19
9680,19
9681,19
9682,19
9683,19
9684,19
9685,19
9686,19
9687,19
9688,19
9689,19
9690,19
9691,19
9692,19
9693,19
9694,19
9695,19
9696,19
9697,19
9698,19
9699,19
9700,19
9701,19
9702,19
9703,19
9704,19
9705,19
9706,19
9707,19
9708,19
9709,19
9710,19
9711,19
9712,19
9713,19
9714,19
9715,19
9716,19
9717,19
9718,19
9719,19
9720,19
9721,19
9722,19
9723,19
9724,19
9725,19
9726,19
9727,19
9728,19
9729,19
9730,19
9731,19
9732,19
9733,19
9734,19
9735,19
9736,19
9737,19
9738,19
9739,19
9740,19
9741,19
9742,19
9743,19
9744,20
9745,19
9746,19
9747,19
9748,19
9749,19
9750,19
9751,19
9752,19
9753,19
9754,19
9755,19
9756,19
9757,19
9758,19
9759,19
9760,19
9761,19
9762,19
9763,19
9764,19
9765,19
9766,19
9767,19
9768,19
9769,19
9770,19
9771,19
9772,19
9773,19
9774,19
9775,19
9776,19
9777,19
9778,19
9779,19
9780,19
9781,19
9782,19
9783,19
9784,19
9785,19
9786,19
9787,19
9788,19
9789,19
9790,19
9791,19
9792,19
9793,19
9794,19
9795,19
9796,19
9797,19
9798,19
9799,20
9800,20
9801,21
9802,21
9803,21
9804,22
9805,22
9806,19
9807,19
9808,19
9809,19
9810,19
9811,19
9812,19
9813,20
9814,20
9815,20
9816,19
9817,19
9818,19
9819,19
9820,19
9821,19
9822,19
9823,19
9824,19
9825,19
9826,19
9827,19
9828,19
9829,19
9830,19
9831,19
9832,19
9833,19
9834,19
9835,19
9836,19
9837,19
9838,19
9839,19
9840,19
9841,19
9842,19
9843,19
9844,19
9845,19
9846,19
9847,19
9848,19
9849,19
9850,19
9851,19
9852,19
9853,19
9854,19
9855,19
9856,19
9857,19
9858,19
9859,19
9860,19
9861,19
9862,19
9863,19
9864,19
9865,19
9866,19
9867,19
9868,19
9869,19
9870,19
9871,19
9872,19
9873,19
9874,19
9875,19
9876,19
9877,19
9878,19
9879,19
9880,19
9881,19
9882,19
9883,19
9884,19
9885,19
9886,19
9887,19
9888,19
9889,19
9890,19
9891,19
9892,19
9893,19
9894,19
9895,19
9896,20
9897,19
9898,19
9899,20
9900,20
9901,20
9902,19
9903,19
9904,19
9905,19
9906,19
9907,19
9908,19
9909,19
9910,19
9911,19
9912,19
9913,19
9914,19
9915,19
9916,19
9917,19
9918,19
9919,19
9920,19
9921,19
9922,19
9923,19
9924,19
9925,19
9926,19
9927,19
9928,19
9929,19
9930,19
9931,19
9932,19
9933,19
9934,19
9935,19
9936,19
9937,19
9938,19
9939,19
9940,19
9941,20
9942,19
9943,19
9944,19
9945,19
9946,19
9947,19
9948,19
9949,19
9950,19
9951,19
9952,19
9953,19
9954,19
9955,19
9956,19
9957,19
9958,19
9959,19
9960,19
9961,19
9962,19
9963,19
9964,19
9965,19
9966,19
9967,19
9968,19
9969,20
9970,20
9971,20
9972,20
9973,20
9974,19
9975,19
9976,19
9977,19
9978,19
9979,19
9980,19
9981,19
9982,19
9983,19
9984,19
9985,19
9986,19
9987,19
9988,19
9989,20
9990,20
9991,20
9992,20
9993,20
9994,20
9995,19
9996,19
9997,19
9998,19
9999,19
10000,19
