1,3
2,3
3,3
4,3
5,3
6,3
7,3
8,3
9,3
10,3
11,3
12,3
13,3
14,3
15,3
16,3
17,3
18,3
19,3
20,3
21,3
22,3
23,3
24,3
25,3
26,3
27,3
28,3
29,3
30,3
31,3
32,3
33,3
34,3
35,3
36,3
37,3
38,3
39,3
40,3
41,3
42,3
43,3
44,3
45,4
46,4
47,4
48,4
49,4
50,4
51,4
52,4
53,4
54,4
55,4
56,4
57,4
58,4
59,4
60,4
61,4
62,4
63,4
64,4
65,4
66,4
67,4
68,4
69,4
70,4
71,4
72,4
73,4
74,4
75,4
76,4
77,4
78,4
79,4
80,4
81,4
82,4
83,4
84,4
85,4
86,4
87,4
88,4
89,4
90,4
91,4
92,4
93,4
94,4
95,4
96,4
97,4
98,4
99,4
100,4
101,4
102,4
103,4
104,4
105,4
106,4
107,4
108,4
109,4
110,4
111,4
112,4
113,4
114,4
115,4
116,4
117,4
118,4
119,4
120,4
121,4
122,4
123,4
124,4
125,4
126,4
127,4
128,4
129,4
130,4
131,4
132,4
133,4
134,4
135,4
136,4
137,4
138,4
139,4
140,4
141,4
142,4
143,4
144,4
145,4
146,5
147,5
148,5
149,5
150,5
151,5
152,5
153,5
154,5
155,5
156,5
157,5
158,5
159,5
160,5
161,5
162,5
163,5
164,5
165,5
166,5
167,5
168,6
169,6
170,6
171,6
172,6
173,6
174,6
175,6
176,6
177,6
178,6
179,6
180,6
181,6
182,6
183,6
184,6
185,6
186,6
187,6
188,6
189,6
190,6
191,6
192,7
193,6
194,6
195,6
196,6
197,6
198,6
199,6
200,6
201,6
202,6
203,6
204,6
205,6
206,6
207,6
208,6
209,6
210,6
211,6
212,6
213,6
214,6
215,6
216,6
217,6
218,6
219,6
220,6
221,6
222,6
223,6
224,6
225,6
226,6
227,6
228,6
229,6
230,6
231,6
232,6
233,6
234,6
235,6
236,6
237,6
238,6
239,6
240,6
241,6
242,6
243,6
244,6
245,6
246,6
247,6
248,7
249,7
250,7
251,7
252,7
253,7
254,7
255,7
256,7
257,9
258,8
259,7
260,7
261,7
262,7
263,7
264,7
265,7
266,7
267,7
268,7
269,7
270,8
271,8
272,8
273,8
274,8
275,8
276,8
277,8
278,8
279,8
280,8
281,8
282,8
283,8
284,8
285,8
286,8
287,8
288,8
289,8
290,8
291,8
292,8
293,8
294,8
295,8
296,8
297,8
298,8
299,8
300,8
301,8
302,8
303,8
304,8
305,8
306,8
307,8
308,8
309,8
310,8
311,8
312,8
313,8
314,8
315,8
316,8
317,8
318,8
319,8
320,8
321,8
322,8
323,8
324,8
325,8
326,8
327,8
328,8
329,8
330,8
331,8
332,8
333,8
334,8
335,8
336,8
337,8
338,8
339,8
340,8
341,8
342,8
343,8
344,8
345,8
346,8
347,8
348,8
349,8
350,8
351,8
352,8
353,8
354,8
355,8
356,8
357,8
358,8
359,8
360,8
361,8
362,8
363,8
364,8
365,8
366,8
367,8
368,8
369,8
370,8
371,8
372,8
373,8
374,8
375,8
376,8
377,8
378,8
379,8
380,8
381,8
382,8
383,8
384,8
385,8
386,8
387,8
388,8
389,8
390,8
391,8
392,8
393,8
394,8
395,8
396,8
397,8
398,8
399,8
400,8
401,8
402,8
403,8
404,8
405,8
406,8
407,8
408,8
409,8
410,8
411,8
412,8
413,8
414,8
415,8
416,8
417,8
418,8
419,8
420,8
421,8
422,8
423,8
424,8
425,8
426,8
427,8
428,8
429,8
430,8
431,8
432,8
433,8
434,8
435,8
436,8
437,8
438,8
439,8
440,8
441,8
442,8
443,8
444,8
445,8
446,8
447,8
448,8
449,8
450,8
451,8
452,8
453,8
454,8
455,8
456,8
457,8
458,8
459,8
460,8
461,8
462,8
463,8
464,8
465,8
466,8
467,8
468,9
469,8
470,8
471,8
472,8
473,8
474,8
475,8
476,8
477,8
478,8
479,8
480,8
481,8
482,8
483,8
484,8
485,8
486,8
487,8
488,8
489,8
490,8
491,8
492,8
493,8
494,8
495,8
496,8
497,8
498,8
499,8
500,8
501,8
502,8
503,8
504,8
505,8
506,8
507,8
508,8
509,8
510,8
511,8
512,8
513,8
514,8
515,9
516,9
517,9
518,9
519,9
520,9
521,9
522,9
523,8
524,8
525,8
526,8
527,8
528,8
529,8
530,8
531,8
532,8
533,8
534,8
535,8
536,8
537,8
538,9
539,8
540,8
541,8
542,9
543,8
544,8
545,8
546,8
547,8
548,8
549,8
550,8
551,8
552,8
553,8
554,8
555,8
556,8
557,8
558,8
559,8
560,8
561,8
562,8
563,8
564,8
565,8
566,8
567,8
568,8
569,8
570,8
571,8
572,8
573,8
574,8
575,8
576,8
577,8
578,8
579,8
580,8
581,8
582,8
583,8
584,8
585,8
586,8
587,8
588,8
589,8
590,8
591,8
592,8
593,8
594,8
595,8
596,8
597,8
598,8
599,9
600,8
601,8
602,8
603,8
604,8
605,8
606,8
607,8
608,8
609,8
610,8
611,8
612,8
613,8
614,8
615,8
616,8
617,8
618,9
619,9
620,9
621,9
622,9
623,9
624,9
625,9
626,9
627,9
628,9
629,9
630,9
631,9
632,9
633,9
634,9
635,9
636,9
637,9
638,9
639,9
640,9
641,9
642,9
643,9
644,9
645,9
646,9
647,9
648,9
649,9
650,9
651,9
652,9
653,9
654,9
655,9
656,9
657,9
658,9
659,9
660,9
661,9
662,9
663,9
664,9
665,9
666,9
667,9
668,9
669,9
670,9
671,9
672,9
673,9
674,9
675,9
676,9
677,9
678,9
679,9
680,9
681,9
682,9
683,9
684,9
685,10
686,9
687,9
688,9
689,9
690,9
691,9
692,9
693,9
694,9
695,9
696,9
697,9
698,9
699,9
700,9
701,9
702,9
703,9
704,9
705,9
706,9
707,9
708,9
709,9
710,9
711,9
712,9
713,9
714,9
715,9
716,9
717,9
718,9
719,9
720,9
721,9
722,9
723,9
724,9
725,9
726,9
727,9
728,9
729,9
730,9
731,9
732,9
733,9
734,9
735,9
736,9
737,9
738,9
739,9
740,9
741,9
742,9
743,9
744,9
745,9
746,9
747,9
748,9
749,9
750,9
751,9
752,9
753,9
754,9
755,9
756,9
757,9
758,9
759,9
760,9
761,9
762,9
763,9
764,9
765,10
766,9
767,9
768,9
769,9
770,9
771,9
772,9
773,9
774,9
775,9
776,9
777,9
778,9
779,9
780,9
781,9
782,9
783,9
784,9
785,9
786,9
787,9
788,9
789,9
790,9
791,9
792,9
793,9
794,9
795,9
796,9
797,9
798,10
799,9
800,9
801,9
802,9
803,9
804,9
805,9
806,9
807,9
808,9
809,9
810,9
811,9
812,9
813,9
814,9
815,9
816,9
817,9
818,9
819,9
820,9
821,9
822,9
823,9
824,9
825,9
826,9
827,9
828,9
829,9
830,9
831,9
832,9
833,9
834,9
835,9
836,9
837,9
838,9
839,9
840,9
841,9
842,9
843,9
844,9
845,9
846,9
847,9
848,9
849,9
850,9
851,9
852,9
853,9
854,9
855,9
856,9
857,9
858,9
859,10
860,10
861,10
862,10
863,10
864,10
865,10
866,10
867,10
868,10
869,10
870,10
871,11
872,11
873,11
874,11
875,10
876,10
877,10
878,10
879,10
880,10
881,10
882,10
883,10
884,10
885,10
886,10
887,10
888,10
889,10
890,10
891,10
892,10
893,10
894,10
895,10
896,10
897,10
898,10
899,10
900,10
901,10
902,10
903,10
904,10
905,10
906,10
907,10
908,10
909,10
910,10
911,10
912,10
913,10
914,10
915,10
916,10
917,10
918,10
919,10
920,10
921,10
922,10
923,10
924,10
925,10
926,10
927,10
928,10
929,10
930,10
931,10
932,10
933,10
934,10
935,10
936,10
937,10
938,10
939,10
940,10
941,10
942,10
943,10
944,10
945,10
946,10
947,10
948,10
949,10
950,10
951,10
952,10
953,10
954,10
955,10
956,10
957,11
958,11
959,11
960,11
961,11
962,11
963,11
964,11
965,11
966,11
967,10
968,10
969,10
970,10
971,10
972,10
973,10
974,10
975,10
976,10
977,10
978,10
979,10
980,10
981,10
982,10
983,11
984,11
985,11
986,11
987,12
988,12
989,12
990,12
991,12
992,12
993,12
994,12
995,12
996,12
997,12
998,12
999,12
1000,12
1001,12
1002,12
1003,12
1004,12
1005,12
1006,12
1007,12
1008,13
1009,13
1010,12
1011,12
1012,12
1013,12
1014,12
1015,12
1016,12
1017,12
1018,12
1019,12
1020,12
1021,12
1022,12
1023,12
1024,12
1025,12
1026,12
1027,12
1028,12
1029,12
1030,12
1031,12
1032,12
1033,12
1034,12
1035,12
1036,12
1037,12
1038,12
1039,12
1040,12
1041,12
1042,12
1043,12
1044,12
1045,12
1046,12
1047,12
1048,12
1049,12
1050,12
1051,12
1052,12
1053,12
1054,12
1055,12
1056,12
1057,12
1058,12
1059,12
1060,12
1061,12
1062,12
1063,12
1064,12
1065,12
1066,12
1067,12
1068,13
1069,13
1070,13
1071,13
1072,13
1073,13
1074,13
1075,13
1076,13
1077,13
1078,13
1079,13
1080,13
1081,13
1082,13
1083,13
1084,13
1085,13
1086,13
1087,13
1088,13
1089,13
1090,13
1091,13
1092,13
1093,13
1094,13
1095,13
1096,13
1097,13
1098,13
1099,13
1100,13
1101,13
1102,13
1103,13
1104,13
1105,13
1106,13
1107,13
1108,13
1109,13
1110,13
1111,13
1112,13
1113,13
1114,13
1115,13
1116,13
1117,13
1118,13
1119,13
1120,13
1121,13
1122,13
1123,13
1124,13
1125,13
1126,13
1127,13
1128,13
1129,13
1130,13
1131,13
1132,13
1133,13
1134,13
1135,13
1136,13
1137,13
1138,13
1139,13
1140,13
1141,13
1142,13
1143,13
1144,13
1145,13
1146,13
1147,13
1148,13
1149,13
1150,13
1151,13
1152,13
1153,13
1154,13
1155,13
1156,13
1157,13
1158,13
1159,13
1160,13
1161,13
1162,13
1163,13
1164,13
1165,13
1166,13
1167,13
1168,13
1169,13
1170,13
1171,13
1172,13
1173,13
1174,13
1175,13
1176,13
1177,13
1178,13
1179,13
1180,13
1181,13
1182,13
1183,13
1184,13
1185,13
1186,14
1187,13
1188,13
1189,13
1190,13
1191,13
1192,13
1193,13
1194,13
1195,13
1196,13
1197,13
1198,13
1199,13
1200,13
1201,13
1202,13
1203,13
1204,13
1205,13
1206,13
1207,13
1208,13
1209,13
1210,13
1211,13
1212,13
1213,13
1214,13
1215,13
1216,13
1217,13
1218,13
1219,13
1220,13
1221,13
1222,13
1223,13
1224,13
1225,13
1226,13
1227,13
1228,13
1229,13
1230,13
1231,13
1232,13
1233,13
1234,13
1235,13
1236,13
1237,13
1238,13
1239,13
1240,13
1241,13
1242,13
1243,13
1244,13
1245,13
1246,13
1247,13
1248,13
1249,13
1250,13
1251,13
1252,13
1253,13
1254,14
1255,14
1256,13
1257,13
1258,13
1259,13
1260,13
1261,13
1262,13
1263,13
1264,13
1265,13
1266,13
1267,13
1268,13
1269,13
1270,13
1271,13
1272,13
1273,13
1274,13
1275,13
1276,13
1277,13
1278,13
1279,13
1280,13
1281,13
1282,13
1283,13
1284,13
1285,13
1286,13
1287,14
1288,13
1289,13
1290,13
1291,13
1292,13
1293,13
1294,13
1295,13
1296,13
1297,13
1298,13
1299,13
1300,13
1301,13
1302,13
1303,13
1304,13
1305,13
1306,13
1307,13
1308,13
1309,13
1310,13
1311,13
1312,13
1313,13
1314,13
1315,13
1316,13
1317,13
1318,13
1319,13
1320,14
1321,14
1322,14
1323,14
1324,13
1325,13
1326,13
1327,13
1328,13
1329,13
1330,13
1331,13
1332,13
1333,13
1334,13
1335,13
1336,13
1337,13
1338,13
1339,13
1340,13
1341,13
1342,13
1343,13
1344,13
1345,13
1346,13
1347,13
1348,13
1349,13
1350,13
1351,13
1352,13
1353,13
1354,13
1355,13
1356,13
1357,13
1358,13
1359,13
1360,13
1361,13
1362,13
1363,13
1364,13
1365,13
1366,13
1367,13
1368,13
1369,13
1370,13
1371,13
1372,13
1373,13
1374,13
1375,13
1376,13
1377,13
1378,13
1379,13
1380,13
1381,13
1382,13
1383,13
1384,13
1385,13
1386,13
1387,13
1388,13
1389,13
1390,13
1391,13
1392,13
1393,13
1394,13
1395,13
1396,13
1397,13
1398,13
1399,13
1400,13
1401,13
1402,13
1403,13
1404,13
1405,13
1406,13
1407,13
1408,13
1409,13
1410,13
1411,13
1412,13
1413,13
1414,13
1415,13
1416,13
1417,13
1418,13
1419,13
1420,13
1421,13
1422,13
1423,13
1424,13
1425,13
1426,13
1427,13
1428,13
1429,13
1430,13
1431,13
1432,13
1433,13
1434,13
1435,13
1436,13
1437,13
1438,13
1439,13
1440,13
1441,13
1442,13
1443,13
1444,13
1445,13
1446,13
1447,13
1448,13
1449,13
1450,13
1451,13
1452,13
1453,13
1454,13
1455,13
1456,13
1457,13
1458,13
1459,13
1460,13
1461,13
1462,13
1463,13
1464,13
1465,13
1466,13
1467,13
1468,13
1469,13
1470,14
1471,14
1472,14
1473,14
1474,14
1475,14
1476,14
1477,14
1478,14
1479,14
1480,14
1481,14
1482,14
1483,14
1484,14
1485,14
1486,14
1487,14
1488,14
1489,14
1490,14
1491,14
1492,14
1493,14
1494,14
1495,14
1496,14
1497,14
1498,14
1499,14
1500,14
1501,14
1502,14
1503,14
1504,14
1505,14
1506,14
1507,14
1508,14
1509,14
1510,14
1511,14
1512,14
1513,14
1514,14
1515,14
1516,14
1517,14
1518,14
1519,14
1520,14
1521,14
1522,14
1523,14
1524,15
1525,14
1526,14
1527,14
1528,14
1529,14
1530,14
1531,14
1532,14
1533,14
1534,14
1535,14
1536,14
1537,14
1538,14
1539,14
1540,14
1541,14
1542,14
1543,14
1544,14
1545,14
1546,14
1547,14
1548,14
1549,14
1550,14
1551,14
1552,14
1553,14
1554,14
1555,14
1556,14
1557,14
1558,14
1559,14
1560,14
1561,14
1562,14
1563,14
1564,14
1565,14
1566,14
1567,14
1568,14
1569,14
1570,14
1571,14
1572,14
1573,14
1574,14
1575,14
1576,14
1577,14
1578,14
1579,14
1580,14
1581,14
1582,14
1583,14
1584,14
1585,14
1586,14
1587,14
1588,14
1589,14
1590,14
1591,14
1592,14
1593,14
1594,14
1595,14
1596,14
1597,14
1598,14
1599,14
1600,14
1601,14
1602,14
1603,14
1604,14
1605,14
1606,14
1607,14
1608,14
1609,14
1610,14
1611,14
1612,14
1613,14
1614,14
1615,14
1616,14
1617,14
1618,14
1619,14
1620,14
1621,14
1622,14
1623,14
1624,14
1625,14
1626,14
1627,14
1628,14
1629,14
1630,14
1631,14
1632,14
1633,14
1634,14
1635,14
1636,14
1637,14
1638,14
1639,14
1640,14
1641,14
1642,14
1643,14
1644,14
1645,14
1646,14
1647,14
1648,14
1649,14
1650,15
1651,15
1652,14
1653,14
1654,14
1655,14
1656,14
1657,14
1658,14
1659,14
1660,14
1661,14
1662,14
1663,14
1664,14
1665,14
1666,14
1667,14
1668,14
1669,14
1670,14
1671,14
1672,14
1673,14
1674,14
1675,14
1676,14
1677,14
1678,14
1679,14
1680,14
1681,14
1682,14
1683,14
1684,14
1685,14
1686,14
1687,14
1688,14
1689,15
1690,15
1691,14
1692,14
1693,14
1694,14
1695,14
1696,14
1697,14
1698,14
1699,14
1700,14
1701,14
1702,14
1703,14
1704,14
1705,14
1706,14
1707,14
1708,14
1709,14
1710,14
1711,14
1712,14
1713,14
1714,14
1715,14
1716,14
1717,14
1718,14
1719,14
1720,14
1721,14
1722,14
1723,14
1724,14
1725,14
1726,14
1727,14
1728,14
1729,14
1730,14
1731,14
1732,14
1733,14
1734,14
1735,14
1736,14
1737,14
1738,14
1739,14
1740,14
1741,14
1742,14
1743,14
1744,14
1745,14
1746,14
1747,14
1748,14
1749,14
1750,14
1751,14
1752,14
1753,14
1754,14
1755,14
1756,14
1757,14
1758,14
1759,14
1760,14
1761,14
1762,14
1763,14
1764,14
1765,14
1766,14
1767,14
1768,14
1769,14
1770,14
1771,14
1772,14
1773,14
1774,14
1775,14
1776,14
1777,14
1778,14
1779,14
1780,14
1781,14
1782,14
1783,14
1784,14
1785,14
1786,14
1787,14
1788,14
1789,14
1790,14
1791,14
1792,14
1793,14
1794,14
1795,14
1796,14
1797,14
1798,14
1799,14
1800,14
1801,14
1802,14
1803,14
1804,14
1805,14
1806,14
1807,14
1808,14
1809,14
1810,14
1811,14
1812,14
1813,14
1814,14
1815,14
1816,14
1817,14
1818,14
1819,14
1820,14
1821,14
1822,14
1823,14
1824,14
1825,14
1826,14
1827,14
1828,14
1829,14
1830,14
1831,14
1832,14
1833,14
1834,14
1835,14
1836,14
1837,14
1838,14
1839,14
1840,14
1841,14
1842,14
1843,14
1844,14
1845,14
1846,14
1847,14
1848,14
1849,14
1850,14
1851,14
1852,14
1853,14
1854,14
1855,14
1856,14
1857,14
1858,14
1859,14
1860,14
1861,14
1862,14
1863,14
1864,14
1865,14
1866,14
1867,14
1868,14
1869,14
1870,14
1871,14
1872,14
1873,14
1874,14
1875,14
1876,14
1877,14
1878,14
1879,14
1880,14
1881,14
1882,14
1883,14
1884,14
1885,14
1886,14
1887,14
1888,14
1889,14
1890,14
1891,14
1892,14
1893,14
1894,14
1895,14
1896,14
1897,14
1898,14
1899,14
1900,14
1901,14
1902,14
1903,14
1904,14
1905,14
1906,14
1907,14
1908,14
1909,14
1910,14
1911,14
1912,14
1913,14
1914,14
1915,14
1916,14
1917,14
1918,14
1919,14
1920,14
1921,14
1922,14
1923,14
1924,14
1925,14
1926,14
1927,14
1928,14
1929,14
1930,14
1931,14
1932,14
1933,14
1934,14
1935,14
1936,14
1937,14
1938,14
1939,14
1940,14
1941,14
1942,14
1943,14
1944,14
1945,14
1946,14
1947,14
1948,14
1949,14
1950,14
1951,14
1952,14
1953,14
1954,14
1955,14
1956,14
1957,14
1958,14
1959,14
1960,14
1961,14
1962,14
1963,14
1964,14
1965,14
1966,14
1967,14
1968,14
1969,14
1970,14
1971,14
1972,14
1973,14
1974,14
1975,14
1976,14
1977,14
1978,14
1979,14
1980,14
1981,14
1982,14
1983,14
1984,14
1985,14
1986,14
1987,14
1988,14
1989,14
1990,14
1991,14
1992,14
1993,14
1994,14
1995,14
1996,14
1997,14
1998,14
1999,14
2000,14
2001,14
2002,14
2003,14
2004,14
2005,14
2006,14
2007,14
2008,14
2009,14
2010,14
2011,14
2012,14
2013,14
2014,14
2015,14
2016,14
2017,14
2018,14
2019,14
2020,14
2021,14
2022,14
2023,14
2024,14
2025,14
2026,14
2027,14
2028,14
2029,14
2030,14
2031,14
2032,14
2033,14
2034,14
2035,14
2036,14
2037,14
2038,14
2039,14
2040,14
2041,14
2042,14
2043,14
2044,14
2045,14
2046,14
2047,14
2048,14
2049,14
2050,14
2051,14
2052,14
2053,14
2054,14
2055,14
2056,14
2057,14
2058,14
2059,14
2060,14
2061,14
2062,14
2063,14
2064,14
2065,14
2066,14
2067,14
2068,14
2069,14
2070,14
2071,14
2072,14
2073,14
2074,14
2075,14
2076,14
2077,14
2078,14
2079,14
2080,14
2081,14
2082,14
2083,14
2084,14
2085,14
2086,14
2087,14
2088,14
2089,14
2090,14
2091,14
2092,14
2093,14
2094,14
2095,14
2096,14
2097,14
2098,14
2099,14
2100,14
2101,14
2102,14
2103,14
2104,14
2105,14
2106,14
2107,14
2108,14
2109,14
2110,14
2111,14
2112,14
2113,14
2114,14
2115,14
2116,14
2117,14
2118,14
2119,14
2120,14
2121,14
2122,14
2123,14
2124,14
2125,14
2126,14
2127,14
2128,14
2129,14
2130,14
2131,14
2132,14
2133,14
2134,14
2135,14
2136,14
2137,14
2138,14
2139,14
2140,14
2141,14
2142,14
2143,14
2144,14
2145,14
2146,15
2147,15
2148,14
2149,14
2150,14
2151,14
2152,14
2153,14
2154,14
2155,14
2156,14
2157,14
2158,14
2159,14
2160,14
2161,14
2162,14
2163,14
2164,14
2165,14
2166,14
2167,14
2168,14
2169,14
2170,14
2171,14
2172,14
2173,14
2174,14
2175,14
2176,14
2177,14
2178,14
2179,14
2180,14
2181,14
2182,14
2183,14
2184,14
2185,14
2186,14
2187,14
2188,14
2189,14
2190,14
2191,14
2192,14
2193,14
2194,14
2195,14
2196,14
2197,14
2198,14
2199,14
2200,14
2201,14
2202,14
2203,14
2204,14
2205,14
2206,14
2207,14
2208,14
2209,14
2210,14
2211,14
2212,14
2213,14
2214,14
2215,14
2216,14
2217,14
2218,14
2219,14
2220,14
2221,14
2222,14
2223,14
2224,14
2225,14
2226,14
2227,14
2228,14
2229,14
2230,14
2231,14
2232,14
2233,14
2234,14
2235,14
2236,14
2237,14
2238,14
2239,14
2240,14
2241,14
2242,14
2243,14
2244,14
2245,14
2246,14
2247,14
2248,14
2249,14
2250,14
2251,14
2252,14
2253,14
2254,14
2255,14
2256,14
2257,14
2258,14
2259,14
2260,14
2261,14
2262,14
2263,14
2264,14
2265,14
2266,14
2267,14
2268,14
2269,14
2270,14
2271,14
2272,14
2273,14
2274,14
2275,14
2276,14
2277,14
2278,14
2279,14
2280,14
2281,14
2282,15
2283,15
2284,15
2285,15
2286,15
2287,15
2288,15
2289,15
2290,15
2291,15
2292,15
2293,14
2294,14
2295,14
2296,14
2297,14
2298,14
2299,14
2300,14
2301,14
2302,14
2303,14
2304,14
2305,14
2306,14
2307,14
2308,14
2309,14
2310,14
2311,14
2312,14
2313,14
2314,14
2315,14
2316,14
2317,14
2318,14
2319,14
2320,14
2321,14
2322,14
2323,14
2324,14
2325,14
2326,14
2327,14
2328,14
2329,14
2330,14
2331,14
2332,14
2333,14
2334,14
2335,14
2336,14
2337,14
2338,14
2339,14
2340,15
2341,14
2342,14
2343,14
2344,14
2345,14
2346,14
2347,14
2348,14
2349,14
2350,14
2351,14
2352,14
2353,14
2354,14
2355,14
2356,14
2357,14
2358,14
2359,14
2360,14
2361,14
2362,14
2363,14
2364,14
2365,14
2366,14
2367,14
2368,14
2369,14
2370,14
2371,14
2372,14
2373,14
2374,14
2375,14
2376,14
2377,14
2378,14
2379,14
2380,14
2381,14
2382,14
2383,14
2384,14
2385,14
2386,14
2387,14
2388,14
2389,14
2390,14
2391,14
2392,14
2393,14
2394,14
2395,15
2396,14
2397,14
2398,14
2399,14
2400,14
2401,14
2402,14
2403,14
2404,14
2405,14
2406,14
2407,14
2408,14
2409,14
2410,14
2411,14
2412,14
2413,14
2414,14
2415,14
2416,14
2417,14
2418,14
2419,14
2420,14
2421,14
2422,14
2423,14
2424,14
2425,14
2426,14
2427,14
2428,14
2429,14
2430,14
2431,14
2432,14
2433,14
2434,14
2435,14
2436,14
2437,14
2438,14
2439,14
2440,14
2441,14
2442,14
2443,14
2444,14
2445,14
2446,14
2447,14
2448,14
2449,14
2450,14
2451,15
2452,15
2453,15
2454,15
2455,15
2456,15
2457,15
2458,15
2459,15
2460,15
2461,15
2462,15
2463,15
2464,15
2465,15
2466,15
2467,15
2468,15
2469,15
2470,15
2471,15
2472,15
2473,15
2474,15
2475,15
2476,15
2477,15
2478,15
2479,15
2480,15
2481,15
2482,15
2483,15
2484,15
2485,15
2486,15
2487,15
2488,15
2489,15
2490,15
2491,15
2492,15
2493,15
2494,15
2495,15
2496,15
2497,15
2498,15
2499,15
2500,15
2501,15
2502,15
2503,15
2504,15
2505,15
2506,15
2507,15
2508,15
2509,15
2510,15
2511,15
2512,15
2513,15
2514,15
2515,15
2516,15
2517,15
2518,15
2519,15
2520,15
2521,15
2522,15
2523,15
2524,15
2525,15
2526,15
2527,15
2528,15
2529,15
2530,15
2531,15
2532,15
2533,15
2534,15
2535,15
2536,15
2537,15
2538,15
2539,15
2540,15
2541,15
2542,15
2543,15
2544,15
2545,15
2546,15
2547,15
2548,15
2549,15
2550,15
2551,15
2552,15
2553,15
2554,15
2555,15
2556,15
2557,15
2558,15
2559,16
2560,15
2561,15
2562,15
2563,15
2564,15
2565,15
2566,15
2567,15
2568,15
2569,15
2570,15
2571,15
2572,15
2573,15
2574,15
2575,15
2576,15
2577,15
2578,15
2579,15
2580,15
2581,15
2582,15
2583,15
2584,15
2585,15
2586,15
2587,15
2588,15
2589,15
2590,15
2591,15
2592,15
2593,15
2594,15
2595,15
2596,15
2597,15
2598,15
2599,15
2600,15
2601,15
2602,15
2603,15
2604,15
2605,15
2606,15
2607,15
2608,15
2609,15
2610,15
2611,15
2612,15
2613,15
2614,15
2615,15
2616,15
2617,15
2618,16
2619,16
2620,16
2621,16
2622,16
2623,16
2624,16
2625,16
2626,16
2627,16
2628,16
2629,16
2630,16
2631,15
2632,15
2633,15
2634,15
2635,15
2636,15
2637,15
2638,15
2639,15
2640,15
2641,15
2642,15
2643,15
2644,15
2645,15
2646,15
2647,15
2648,15
2649,15
2650,15
2651,15
2652,15
2653,15
2654,15
2655,15
2656,15
2657,15
2658,15
2659,15
2660,15
2661,15
2662,15
2663,15
2664,15
2665,15
2666,15
2667,15
2668,15
2669,15
2670,15
2671,15
2672,15
2673,15
2674,15
2675,15
2676,15
2677,15
2678,15
2679,15
2680,15
2681,15
2682,15
2683,15
2684,16
2685,15
2686,15
2687,15
2688,15
2689,15
2690,16
2691,16
2692,15
2693,15
2694,15
2695,15
2696,15
2697,15
2698,15
2699,15
2700,15
2701,15
2702,15
2703,15
2704,15
2705,15
2706,15
2707,15
2708,15
2709,15
2710,15
2711,15
2712,15
2713,15
2714,15
2715,15
2716,15
2717,15
2718,15
2719,15
2720,15
2721,15
2722,15
2723,15
2724,15
2725,15
2726,15
2727,15
2728,15
2729,15
2730,15
2731,15
2732,15
2733,15
2734,15
2735,15
2736,15
2737,15
2738,15
2739,15
2740,15
2741,15
2742,15
2743,15
2744,15
2745,15
2746,15
2747,15
2748,15
2749,15
2750,15
2751,15
2752,15
2753,15
2754,15
2755,15
2756,15
2757,15
2758,15
2759,15
2760,15
2761,15
2762,15
2763,15
2764,15
2765,15
2766,15
2767,15
2768,15
2769,15
2770,15
2771,16
2772,16
2773,16
2774,17
2775,16
2776,16
2777,15
2778,15
2779,15
2780,15
2781,15
2782,15
2783,15
2784,15
2785,15
2786,15
2787,15
2788,15
2789,15
2790,15
2791,15
2792,15
2793,15
2794,15
2795,15
2796,15
2797,15
2798,15
2799,15
2800,15
2801,15
2802,15
2803,15
2804,15
2805,15
2806,15
2807,15
2808,15
2809,15
2810,15
2811,15
2812,15
2813,15
2814,15
2815,15
2816,15
2817,15
2818,15
2819,15
2820,15
2821,15
2822,15
2823,15
2824,15
2825,15
2826,15
2827,15
2828,15
2829,15
2830,15
2831,15
2832,15
2833,15
2834,15
2835,15
2836,15
2837,15
2838,15
2839,15
2840,15
2841,15
2842,15
2843,15
2844,15
2845,15
2846,15
2847,15
2848,15
2849,15
2850,15
2851,15
2852,15
2853,15
2854,15
2855,15
2856,15
2857,15
2858,15
2859,15
2860,15
2861,15
2862,15
2863,15
2864,16
2865,16
2866,16
2867,16
2868,16
2869,16
2870,16
2871,16
2872,16
2873,16
2874,16
2875,16
2876,16
2877,16
2878,16
2879,16
2880,16
2881,16
2882,16
2883,16
2884,16
2885,16
2886,16
2887,16
2888,16
2889,16
2890,16
2891,16
2892,16
2893,16
2894,16
2895,16
2896,16
2897,16
2898,16
2899,16
2900,16
2901,16
2902,16
2903,16
2904,16
2905,16
2906,16
2907,16
2908,16
2909,16
2910,16
2911,16
2912,16
2913,16
2914,16
2915,16
2916,16
2917,16
2918,16
2919,16
2920,16
2921,16
2922,16
2923,16
2924,16
2925,16
2926,16
2927,16
2928,16
2929,16
2930,16
2931,16
2932,16
2933,16
2934,16
2935,16
2936,16
2937,16
2938,16
2939,16
2940,16
2941,16
2942,16
2943,16
2944,16
2945,16
2946,16
2947,16
2948,16
2949,16
2950,17
2951,16
2952,16
2953,16
2954,16
2955,16
2956,16
2957,16
2958,16
2959,16
2960,16
2961,16
2962,16
2963,16
2964,16
2965,16
2966,16
2967,16
2968,16
2969,16
2970,16
2971,16
2972,16
2973,16
2974,16
2975,16
2976,16
2977,16
2978,16
2979,16
2980,16
2981,16
2982,16
2983,16
2984,16
2985,16
2986,16
2987,16
2988,16
2989,17
2990,16
2991,16
2992,16
2993,16
2994,16
2995,16
2996,16
2997,16
2998,16
2999,16
3000,16
3001,16
3002,16
3003,16
3004,16
3005,16
3006,16
3007,16
3008,16
3009,16
3010,16
3011,16
3012,16
3013,16
3014,16
3015,16
3016,16
3017,16
3018,16
3019,16
3020,16
3021,16
3022,16
3023,16
3024,16
3025,16
3026,16
3027,16
3028,16
3029,16
3030,16
3031,16
3032,16
3033,16
3034,16
3035,16
3036,16
3037,16
3038,16
3039,16
3040,16
3041,16
3042,16
3043,16
3044,16
3045,16
3046,16
3047,16
3048,16
3049,16
3050,16
3051,16
3052,16
3053,16
3054,16
3055,16
3056,16
3057,16
3058,16
3059,16
3060,16
3061,16
3062,16
3063,16
3064,16
3065,16
3066,16
3067,16
3068,16
3069,16
3070,16
3071,16
3072,16
3073,16
3074,16
3075,16
3076,16
3077,16
3078,16
3079,16
3080,16
3081,16
3082,16
3083,16
3084,16
3085,16
3086,16
3087,16
3088,16
3089,16
3090,16
3091,16
3092,16
3093,16
3094,16
3095,16
3096,16
3097,16
3098,16
3099,16
3100,16
3101,16
3102,16
3103,16
3104,16
3105,16
3106,16
3107,16
3108,16
3109,16
3110,16
3111,16
3112,16
3113,16
3114,16
3115,16
3116,16
3117,16
3118,16
3119,16
3120,16
3121,16
3122,16
3123,16
3124,16
3125,16
3126,16
3127,16
3128,16
3129,16
3130,16
3131,16
3132,16
3133,16
3134,16
3135,16
3136,16
3137,16
3138,16
3139,16
3140,16
3141,16
3142,16
3143,16
3144,16
3145,16
3146,16
3147,16
3148,16
3149,16
3150,16
3151,16
3152,16
3153,16
3154,16
3155,16
3156,16
3157,16
3158,16
3159,16
3160,16
3161,16
3162,16
3163,16
3164,16
3165,16
3166,16
3167,16
3168,16
3169,16
3170,16
3171,16
3172,16
3173,16
3174,16
3175,16
3176,16
3177,16
3178,16
3179,16
3180,16
3181,16
3182,17
3183,16
3184,16
3185,16
3186,16
3187,16
3188,16
3189,16
3190,16
3191,16
3192,16
3193,16
3194,16
3195,16
3196,16
3197,16
3198,16
3199,16
3200,16
3201,16
3202,16
3203,16
3204,16
3205,16
3206,16
3207,16
3208,16
3209,16
3210,16
3211,16
3212,16
3213,16
3214,16
3215,16
3216,16
3217,16
3218,16
3219,16
3220,16
3221,16
3222,16
3223,16
3224,16
3225,16
3226,16
3227,16
3228,16
3229,16
3230,16
3231,16
3232,16
3233,16
3234,16
3235,16
3236,16
3237,16
3238,16
3239,16
3240,16
3241,16
3242,16
3243,16
3244,16
3245,16
3246,16
3247,16
3248,16
3249,16
3250,16
3251,16
3252,16
3253,16
3254,16
3255,16
3256,16
3257,16
3258,16
3259,16
3260,16
3261,16
3262,16
3263,16
3264,16
3265,16
3266,16
3267,16
3268,16
3269,16
3270,16
3271,16
3272,16
3273,16
3274,16
3275,16
3276,16
3277,16
3278,16
3279,16
3280,16
3281,16
3282,16
3283,16
3284,16
3285,16
3286,16
3287,16
3288,16
3289,16
3290,16
3291,16
3292,16
3293,16
3294,16
3295,16
3296,16
3297,16
3298,16
3299,16
3300,16
3301,16
3302,16
3303,16
3304,16
3305,16
3306,16
3307,16
3308,16
3309,16
3310,16
3311,16
3312,16
3313,16
3314,16
3315,16
3316,16
3317,16
3318,16
3319,16
3320,16
3321,16
3322,16
3323,16
3324,16
3325,16
3326,16
3327,16
3328,16
3329,16
3330,16
3331,16
3332,16
3333,16
3334,16
3335,16
3336,16
3337,16
3338,16
3339,16
3340,16
3341,16
3342,16
3343,16
3344,16
3345,16
3346,16
3347,16
3348,16
3349,16
3350,16
3351,16
3352,16
3353,16
3354,16
3355,16
3356,16
3357,16
3358,16
3359,16
3360,16
3361,16
3362,16
3363,16
3364,16
3365,16
3366,16
3367,16
3368,16
3369,16
3370,16
3371,16
3372,16
3373,16
3374,16
3375,16
3376,16
3377,16
3378,16
3379,16
3380,16
3381,16
3382,16
3383,16
3384,16
3385,16
3386,16
3387,16
3388,16
3389,16
3390,16
3391,16
3392,16
3393,16
3394,16
3395,16
3396,16
3397,16
3398,16
3399,16
3400,16
3401,16
3402,16
3403,16
3404,16
3405,16
3406,16
3407,16
3408,16
3409,16
3410,16
3411,16
3412,16
3413,16
3414,16
3415,16
3416,16
3417,16
3418,17
3419,16
3420,16
3421,16
3422,16
3423,16
3424,16
3425,16
3426,16
3427,16
3428,16
3429,16
3430,16
3431,16
3432,16
3433,16
3434,16
3435,16
3436,16
3437,16
3438,16
3439,16
3440,16
3441,16
3442,16
3443,16
3444,16
3445,16
3446,16
3447,16
3448,16
3449,16
3450,16
3451,16
3452,16
3453,16
3454,16
3455,16
3456,16
3457,16
3458,16
3459,16
3460,16
3461,16
3462,16
3463,16
3464,16
3465,16
3466,16
3467,16
3468,16
3469,16
3470,16
3471,16
3472,16
3473,16
3474,16
3475,16
3476,16
3477,16
3478,16
3479,16
3480,16
3481,16
3482,16
3483,16
3484,16
3485,16
3486,16
3487,16
3488,16
3489,16
3490,16
3491,16
3492,16
3493,16
3494,16
3495,16
3496,16
3497,16
3498,16
3499,16
3500,16
3501,16
3502,16
3503,16
3504,16
3505,16
3506,16
3507,16
3508,16
3509,16
3510,16
3511,16
3512,16
3513,16
3514,16
3515,16
3516,16
3517,16
3518,16
3519,16
3520,16
3521,16
3522,16
3523,16
3524,16
3525,16
3526,16
3527,16
3528,16
3529,16
3530,16
3531,16
3532,16
3533,16
3534,16
3535,16
3536,16
3537,16
3538,16
3539,16
3540,16
3541,16
3542,16
3543,16
3544,16
3545,16
3546,17
3547,17
3548,16
3549,16
3550,16
3551,16
3552,16
3553,16
3554,16
3555,16
3556,16
3557,16
3558,16
3559,16
3560,16
3561,16
3562,16
3563,16
3564,16
3565,16
3566,16
3567,16
3568,16
3569,16
3570,16
3571,16
3572,16
3573,16
3574,16
3575,16
3576,16
3577,16
3578,16
3579,16
3580,16
3581,16
3582,17
3583,17
3584,17
3585,17
3586,18
3587,18
3588,18
3589,18
3590,18
3591,18
3592,18
3593,17
3594,17
3595,18
3596,17
3597,17
3598,17
3599,17
3600,17
3601,17
3602,17
3603,17
3604,17
3605,17
3606,17
3607,17
3608,17
3609,17
3610,17
3611,17
3612,17
3613,17
3614,17
3615,17
3616,17
3617,17
3618,17
3619,17
3620,17
3621,17
3622,17
3623,17
3624,17
3625,17
3626,17
3627,17
3628,17
3629,17
3630,17
3631,17
3632,17
3633,17
3634,17
3635,17
3636,17
3637,17
3638,17
3639,17
3640,17
3641,17
3642,17
3643,18
3644,18
3645,18
3646,18
3647,18
3648,18
3649,18
3650,18
3651,18
3652,18
3653,18
3654,18
3655,18
3656,18
3657,18
3658,18
3659,18
3660,18
3661,18
3662,18
3663,18
3664,18
3665,18
3666,18
3667,19
3668,19
3669,19
3670,18
3671,18
3672,18
3673,18
3674,18
3675,18
3676,18
3677,18
3678,18
3679,18
3680,18
3681,18
3682,18
3683,18
3684,18
3685,18
3686,18
3687,18
3688,18
3689,18
3690,18
3691,18
3692,18
3693,18
3694,18
3695,18
3696,18
3697,18
3698,18
3699,18
3700,18
3701,18
3702,18
3703,18
3704,18
3705,18
3706,18
3707,18
3708,18
3709,18
3710,18
3711,18
3712,18
3713,18
3714,18
3715,18
3716,18
3717,18
3718,18
3719,18
3720,18
3721,18
3722,18
3723,19
3724,18
3725,18
3726,18
3727,18
3728,18
3729,18
3730,18
3731,18
3732,18
3733,18
3734,18
3735,18
3736,18
3737,18
3738,18
3739,18
3740,18
3741,18
3742,18
3743,18
3744,18
3745,18
3746,18
3747,18
3748,18
3749,18
3750,18
3751,18
3752,18
3753,18
3754,18
3755,18
3756,18
3757,18
3758,18
3759,18
3760,18
3761,18
3762,18
3763,18
3764,18
3765,18
3766,18
3767,18
3768,18
3769,18
3770,18
3771,18
3772,18
3773,18
3774,18
3775,18
3776,18
3777,18
3778,18
3779,18
3780,18
3781,18
3782,18
3783,18
3784,18
3785,18
3786,18
3787,18
3788,18
3789,18
3790,18
3791,18
3792,18
3793,18
3794,18
3795,18
3796,18
3797,18
3798,18
3799,18
3800,18
3801,18
3802,18
3803,18
3804,18
3805,18
3806,18
3807,18
3808,18
3809,18
3810,18
3811,18
3812,18
3813,18
3814,18
3815,18
3816,18
3817,18
3818,18
3819,18
3820,18
3821,18
3822,18
3823,18
3824,18
3825,18
3826,18
3827,18
3828,18
3829,18
3830,18
3831,18
3832,18
3833,18
3834,18
3835,18
3836,18
3837,19
3838,18
3839,18
3840,18
3841,18
3842,18
3843,18
3844,18
3845,18
3846,18
3847,18
3848,18
3849,18
3850,18
3851,18
3852,18
3853,18
3854,18
3855,18
3856,18
3857,18
3858,18
3859,18
3860,18
3861,18
3862,18
3863,18
3864,18
3865,18
3866,18
3867,18
3868,18
3869,18
3870,18
3871,18
3872,18
3873,18
3874,18
3875,18
3876,18
3877,18
3878,19
3879,18
3880,18
3881,18
3882,18
3883,18
3884,18
3885,18
3886,18
3887,18
3888,18
3889,18
3890,18
3891,18
3892,18
3893,18
3894,18
3895,18
3896,18
3897,18
3898,18
3899,18
3900,18
3901,18
3902,18
3903,18
3904,18
3905,18
3906,18
3907,18
3908,18
3909,18
3910,18
3911,18
3912,19
3913,18
3914,18
3915,18
3916,19
3917,18
3918,18
3919,18
3920,18
3921,18
3922,18
3923,18
3924,18
3925,18
3926,18
3927,18
3928,18
3929,18
3930,18
3931,18
3932,18
3933,18
3934,18
3935,18
3936,19
3937,19
3938,18
3939,18
3940,18
3941,19
3942,19
3943,19
3944,19
3945,19
3946,19
3947,19
3948,19
3949,18
3950,18
3951,18
3952,18
3953,18
3954,18
3955,18
3956,18
3957,18
3958,18
3959,18
3960,18
3961,18
3962,18
3963,18
3964,18
3965,18
3966,18
3967,18
3968,18
3969,18
3970,18
3971,18
3972,18
3973,18
3974,18
3975,18
3976,18
3977,18
3978,18
3979,18
3980,18
3981,18
3982,18
3983,18
3984,18
3985,18
3986,18
3987,18
3988,18
3989,18
3990,18
3991,18
3992,18
3993,18
3994,18
3995,18
3996,18
3997,18
3998,18
3999,18
4000,18
4001,18
4002,18
4003,18
4004,18
4005,18
4006,18
4007,18
4008,18
4009,18
4010,18
4011,18
4012,18
4013,18
4014,18
4015,18
4016,18
4017,18
4018,18
4019,18
4020,18
4021,18
4022,18
4023,18
4024,18
4025,18
4026,18
4027,18
4028,18
4029,18
4030,18
4031,18
4032,18
4033,18
4034,18
4035,18
4036,18
4037,18
4038,18
4039,18
4040,18
4041,18
4042,18
4043,18
4044,18
4045,18
4046,18
4047,18
4048,18
4049,18
4050,18
4051,18
4052,18
4053,18
4054,18
4055,18
4056,18
4057,18
4058,18
4059,18
4060,18
4061,18
4062,18
4063,18
4064,18
4065,18
4066,18
4067,18
4068,18
4069,18
4070,18
4071,18
4072,18
4073,18
4074,18
4075,18
4076,18
4077,18
4078,18
4079,18
4080,18
4081,18
4082,18
4083,18
4084,18
4085,18
4086,18
4087,18
4088,18
4089,18
4090,18
4091,18
4092,18
4093,18
4094,18
4095,18
4096,18
4097,18
4098,18
4099,18
4100,18
4101,18
4102,18
4103,18
4104,18
4105,18
4106,18
4107,18
4108,18
4109,18
4110,18
4111,18
4112,18
4113,18
4114,18
4115,18
4116,18
4117,18
4118,18
4119,18
4120,18
4121,18
4122,18
4123,18
4124,18
4125,18
4126,18
4127,18
4128,18
4129,18
4130,18
4131,18
4132,18
4133,18
4134,18
4135,18
4136,18
4137,18
4138,18
4139,18
4140,18
4141,18
4142,18
4143,18
4144,18
4145,18
4146,18
4147,18
4148,18
4149,18
4150,18
4151,18
4152,18
4153,18
4154,18
4155,18
4156,18
4157,18
4158,18
4159,18
4160,18
4161,18
4162,18
4163,18
4164,18
4165,18
4166,18
4167,18
4168,18
4169,18
4170,18
4171,18
4172,18
4173,18
4174,18
4175,18
4176,18
4177,18
4178,19
4179,19
4180,19
4181,18
4182,18
4183,18
4184,18
4185,18
4186,18
4187,18
4188,18
4189,18
4190,18
4191,18
4192,18
4193,18
4194,18
4195,18
4196,18
4197,18
4198,18
4199,18
4200,18
4201,18
4202,18
4203,18
4204,18
4205,18
4206,18
4207,18
4208,18
4209,18
4210,18
4211,18
4212,18
4213,18
4214,18
4215,18
4216,18
4217,18
4218,18
4219,18
4220,19
4221,19
4222,18
4223,18
4224,18
4225,18
4226,18
4227,18
4228,18
4229,18
4230,18
4231,18
4232,18
4233,18
4234,18
4235,18
4236,18
4237,18
4238,18
4239,18
4240,18
4241,18
4242,18
4243,18
4244,18
4245,18
4246,18
4247,18
4248,18
4249,18
4250,18
4251,18
4252,18
4253,18
4254,18
4255,18
4256,18
4257,18
4258,18
4259,18
4260,18
4261,18
4262,18
4263,18
4264,18
4265,18
4266,18
4267,18
4268,18
4269,18
4270,18
4271,18
4272,18
4273,18
4274,18
4275,19
4276,19
4277,19
4278,19
4279,19
4280,19
4281,19
4282,19
4283,19
4284,19
4285,18
4286,18
4287,18
4288,18
4289,18
4290,18
4291,18
4292,18
4293,18
4294,18
4295,18
4296,18
4297,18
4298,18
4299,18
4300,18
4301,18
4302,18
4303,18
4304,18
4305,18
4306,18
4307,18
4308,18
4309,18
4310,18
4311,18
4312,18
4313,18
4314,18
4315,18
4316,18
4317,18
4318,18
4319,18
4320,18
4321,18
4322,18
4323,18
4324,18
4325,18
4326,18
4327,18
4328,18
4329,18
4330,18
4331,18
4332,18
4333,18
4334,18
4335,18
4336,18
4337,18
4338,18
4339,18
4340,18
4341,19
4342,19
4343,19
4344,19
4345,19
4346,19
4347,19
4348,18
4349,18
4350,18
4351,18
4352,18
4353,18
4354,18
4355,18
4356,18
4357,18
4358,18
4359,18
4360,18
4361,18
4362,18
4363,18
4364,18
4365,18
4366,18
4367,18
4368,18
4369,18
4370,18
4371,18
4372,18
4373,18
4374,18
4375,18
4376,18
4377,18
4378,18
4379,18
4380,18
4381,18
4382,18
4383,18
4384,18
4385,18
4386,18
4387,18
4388,18
4389,18
4390,18
4391,18
4392,18
4393,18
4394,18
4395,18
4396,18
4397,18
4398,18
4399,18
4400,18
4401,18
4402,18
4403,18
4404,18
4405,18
4406,18
4407,18
4408,18
4409,18
4410,18
4411,18
4412,18
4413,18
4414,18
4415,18
4416,18
4417,18
4418,18
4419,18
4420,18
4421,18
4422,18
4423,18
4424,18
4425,18
4426,18
4427,18
4428,18
4429,18
4430,18
4431,18
4432,18
4433,18
4434,18
4435,18
4436,18
4437,18
4438,18
4439,18
4440,18
4441,18
4442,18
4443,18
4444,18
4445,18
4446,18
4447,18
4448,18
4449,18
4450,18
4451,18
4452,18
4453,18
4454,18
4455,18
4456,18
4457,18
4458,18
4459,18
4460,18
4461,18
4462,18
4463,18
4464,18
4465,18
4466,18
4467,18
4468,18
4469,18
4470,18
4471,18
4472,18
4473,18
4474,18
4475,18
4476,18
4477,18
4478,18
4479,18
4480,18
4481,18
4482,18
4483,18
4484,18
4485,18
4486,18
4487,18
4488,18
4489,18
4490,18
4491,18
4492,18
4493,18
4494,18
4495,18
4496,18
4497,18
4498,18
4499,18
4500,18
4501,18
4502,18
4503,19
4504,18
4505,18
4506,18
4507,18
4508,18
4509,18
4510,18
4511,18
4512,18
4513,18
4514,18
4515,18
4516,18
4517,18
4518,18
4519,18
4520,18
4521,18
4522,18
4523,18
4524,18
4525,18
4526,18
4527,18
4528,18
4529,18
4530,18
4531,18
4532,18
4533,19
4534,19
4535,18
4536,18
4537,18
4538,18
4539,18
4540,18
4541,19
4542,19
4543,19
4544,18
4545,18
4546,18
4547,18
4548,18
4549,18
4550,18
4551,18
4552,18
4553,18
4554,18
4555,18
4556,18
4557,18
4558,18
4559,18
4560,18
4561,18
4562,18
4563,18
4564,18
4565,18
4566,18
4567,18
4568,18
4569,18
4570,18
4571,18
4572,18
4573,18
4574,18
4575,18
4576,18
4577,18
4578,18
4579,18
4580,18
4581,18
4582,18
4583,18
4584,18
4585,18
4586,18
4587,18
4588,18
4589,18
4590,18
4591,18
4592,18
4593,18
4594,18
4595,18
4596,18
4597,18
4598,18
4599,18
4600,18
4601,18
4602,18
4603,18
4604,18
4605,18
4606,18
4607,18
4608,18
4609,18
4610,18
4611,18
4612,18
4613,18
4614,18
4615,18
4616,18
4617,18
4618,18
4619,18
4620,18
4621,18
4622,18
4623,18
4624,18
4625,18
4626,18
4627,18
4628,18
4629,18
4630,18
4631,18
4632,18
4633,18
4634,18
4635,18
4636,18
4637,18
4638,18
4639,18
4640,18
4641,19
4642,18
4643,18
4644,18
4645,18
4646,18
4647,18
4648,18
4649,18
4650,18
4651,18
4652,18
4653,18
4654,18
4655,18
4656,18
4657,18
4658,18
4659,18
4660,18
4661,18
4662,18
4663,18
4664,18
4665,18
4666,18
4667,18
4668,18
4669,18
4670,18
4671,18
4672,18
4673,18
4674,18
4675,18
4676,18
4677,18
4678,18
4679,18
4680,18
4681,18
4682,18
4683,18
4684,18
4685,18
4686,18
4687,18
4688,18
4689,18
4690,18
4691,18
4692,18
4693,18
4694,18
4695,18
4696,18
4697,18
4698,18
4699,18
4700,18
4701,18
4702,18
4703,18
4704,18
4705,18
4706,18
4707,18
4708,18
4709,18
4710,18
4711,18
4712,18
4713,18
4714,18
4715,18
4716,18
4717,18
4718,18
4719,18
4720,18
4721,18
4722,18
4723,18
4724,18
4725,18
4726,18
4727,18
4728,18
4729,18
4730,18
4731,18
4732,18
4733,18
4734,18
4735,18
4736,18
4737,18
4738,18
4739,18
4740,18
4741,18
4742,18
4743,18
4744,18
4745,18
4746,18
4747,18
4748,18
4749,18
4750,18
4751,18
4752,18
4753,18
4754,18
4755,18
4756,18
4757,18
4758,18
4759,18
4760,18
4761,18
4762,18
4763,18
4764,18
4765,18
4766,18
4767,18
4768,18
4769,18
4770,18
4771,18
4772,18
4773,18
4774,18
4775,18
4776,18
4777,18
4778,18
4779,18
4780,18
4781,18
4782,18
4783,18
4784,18
4785,18
4786,18
4787,18
4788,18
4789,18
4790,18
4791,18
4792,18
4793,18
4794,18
4795,18
4796,18
4797,18
4798,18
4799,18
4800,18
4801,18
4802,18
4803,18
4804,18
4805,18
4806,18
4807,18
4808,18
4809,18
4810,18
4811,18
4812,18
4813,18
4814,18
4815,18
4816,18
4817,18
4818,18
4819,18
4820,18
4821,18
4822,18
4823,18
4824,18
4825,18
4826,18
4827,18
4828,18
4829,18
4830,18
4831,18
4832,18
4833,18
4834,18
4835,18
4836,18
4837,18
4838,18
4839,18
4840,18
4841,18
4842,18
4843,18
4844,18
4845,18
4846,18
4847,18
4848,18
4849,18
4850,18
4851,18
4852,18
4853,18
4854,18
4855,18
4856,18
4857,18
4858,18
4859,18
4860,18
4861,18
4862,18
4863,18
4864,18
4865,18
4866,18
4867,18
4868,18
4869,18
4870,18
4871,18
4872,18
4873,18
4874,18
4875,18
4876,18
4877,18
4878,18
4879,18
4880,18
4881,18
4882,18
4883,18
4884,18
4885,18
4886,18
4887,18
4888,18
4889,18
4890,18
4891,18
4892,18
4893,18
4894,18
4895,18
4896,18
4897,18
4898,18
4899,18
4900,18
4901,18
4902,18
4903,18
4904,18
4905,18
4906,18
4907,18
4908,18
4909,18
4910,18
4911,18
4912,18
4913,18
4914,18
4915,18
4916,18
4917,18
4918,18
4919,18
4920,18
4921,18
4922,18
4923,18
4924,18
4925,18
4926,18
4927,18
4928,18
4929,18
4930,18
4931,18
4932,18
4933,18
4934,18
4935,18
4936,18
4937,18
4938,18
4939,18
4940,18
4941,19
4942,19
4943,18
4944,18
4945,18
4946,18
4947,18
4948,18
4949,18
4950,18
4951,18
4952,18
4953,18
4954,18
4955,18
4956,18
4957,18
4958,18
4959,18
4960,18
4961,18
4962,18
4963,18
4964,18
4965,18
4966,18
4967,18
4968,18
4969,18
4970,18
4971,18
4972,18
4973,18
4974,18
4975,18
4976,18
4977,18
4978,18
4979,18
4980,18
4981,18
4982,18
4983,18
4984,18
4985,18
4986,18
4987,18
4988,18
4989,18
4990,18
4991,18
4992,18
4993,18
4994,18
4995,18
4996,18
4997,18
4998,18
4999,18
5000,18
5001,18
5002,19
5003,18
5004,18
5005,19
5006,19
5007,19
5008,19
5009,19
5010,19
5011,19
5012,19
5013,19
5014,19
5015,19
5016,19
5017,19
5018,19
5019,19
5020,19
5021,19
5022,19
5023,19
5024,19
5025,19
5026,19
5027,19
5028,19
5029,19
5030,19
5031,18
5032,18
5033,18
5034,18
5035,18
5036,18
5037,18
5038,18
5039,18
5040,18
5041,18
5042,18
5043,18
5044,18
5045,18
5046,18
5047,18
5048,18
5049,18
5050,18
5051,18
5052,18
5053,18
5054,18
5055,18
5056,18
5057,18
5058,18
5059,18
5060,18
5061,18
5062,18
5063,18
5064,18
5065,18
5066,18
5067,18
5068,18
5069,18
5070,18
5071,18
5072,18
5073,18
5074,18
5075,18
5076,18
5077,18
5078,18
5079,18
5080,18
5081,18
5082,18
5083,18
5084,18
5085,18
5086,18
5087,18
5088,18
5089,18
5090,18
5091,18
5092,18
5093,18
5094,18
5095,18
5096,18
5097,18
5098,18
5099,18
5100,18
5101,18
5102,18
5103,18
5104,18
5105,18
5106,18
5107,18
5108,18
5109,18
5110,18
5111,18
5112,18
5113,18
5114,18
5115,18
5116,18
5117,18
5118,18
5119,18
5120,18
5121,18
5122,18
5123,18
5124,18
5125,18
5126,18
5127,18
5128,18
5129,18
5130,18
5131,18
5132,18
5133,18
5134,18
5135,18
5136,18
5137,18
5138,18
5139,18
5140,18
5141,18
5142,18
5143,18
5144,18
5145,19
5146,19
5147,19
5148,19
5149,19
5150,19
5151,19
5152,19
5153,18
5154,18
5155,18
5156,18
5157,18
5158,18
5159,18
5160,18
5161,18
5162,18
5163,18
5164,18
5165,18
5166,18
5167,18
5168,18
5169,18
5170,18
5171,18
5172,18
5173,18
5174,18
5175,18
5176,18
5177,18
5178,18
5179,18
5180,18
5181,18
5182,18
5183,18
5184,18
5185,18
5186,18
5187,18
5188,18
5189,18
5190,18
5191,18
5192,18
5193,18
5194,18
5195,18
5196,18
5197,18
5198,18
5199,18
5200,18
5201,18
5202,18
5203,18
5204,18
5205,18
5206,18
5207,18
5208,18
5209,18
5210,18
5211,18
5212,18
5213,18
5214,18
5215,18
5216,18
5217,18
5218,18
5219,18
5220,18
5221,18
5222,18
5223,18
5224,18
5225,18
5226,18
5227,18
5228,18
5229,18
5230,18
5231,18
5232,18
5233,18
5234,18
5235,18
5236,18
5237,18
5238,18
5239,18
5240,18
5241,18
5242,18
5243,18
5244,18
5245,18
5246,18
5247,18
5248,18
5249,18
5250,18
5251,18
5252,18
5253,18
5254,18
5255,18
5256,18
5257,18
5258,18
5259,18
5260,18
5261,18
5262,18
5263,18
5264,18
5265,18
5266,18
5267,18
5268,18
5269,18
5270,18
5271,18
5272,18
5273,18
5274,18
5275,18
5276,18
5277,18
5278,18
5279,18
5280,18
5281,18
5282,18
5283,18
5284,18
5285,18
5286,18
5287,18
5288,18
5289,18
5290,18
5291,18
5292,18
5293,19
5294,18
5295,18
5296,18
5297,18
5298,18
5299,18
5300,18
5301,18
5302,18
5303,18
5304,18
5305,18
5306,18
5307,18
5308,18
5309,18
5310,18
5311,18
5312,18
5313,18
5314,18
5315,18
5316,18
5317,19
5318,19
5319,19
5320,19
5321,19
5322,18
5323,18
5324,18
5325,18
5326,18
5327,18
5328,18
5329,18
5330,18
5331,18
5332,18
5333,18
5334,18
5335,18
5336,18
5337,18
5338,18
5339,18
5340,18
5341,18
5342,18
5343,18
5344,18
5345,18
5346,18
5347,18
5348,18
5349,18
5350,18
5351,18
5352,18
5353,18
5354,18
5355,18
5356,18
5357,18
5358,18
5359,18
5360,18
5361,18
5362,18
5363,18
5364,18
5365,18
5366,18
5367,18
5368,18
5369,18
5370,18
5371,18
5372,18
5373,18
5374,18
5375,18
5376,18
5377,18
5378,18
5379,18
5380,18
5381,18
5382,18
5383,18
5384,18
5385,18
5386,18
5387,18
5388,18
5389,18
5390,18
5391,18
5392,18
5393,18
5394,18
5395,18
5396,18
5397,18
5398,18
5399,18
5400,18
5401,18
5402,18
5403,18
5404,18
5405,18
5406,18
5407,18
5408,18
5409,18
5410,18
5411,18
5412,18
5413,18
5414,18
5415,18
5416,18
5417,18
5418,18
5419,18
5420,18
5421,18
5422,18
5423,18
5424,18
5425,18
5426,18
5427,18
5428,18
5429,18
5430,18
5431,18
5432,18
5433,18
5434,18
5435,18
5436,18
5437,18
5438,18
5439,18
5440,18
5441,18
5442,18
5443,18
5444,18
5445,18
5446,18
5447,18
5448,18
5449,18
5450,18
5451,18
5452,18
5453,18
5454,18
5455,18
5456,18
5457,18
5458,18
5459,18
5460,18
5461,18
5462,18
5463,18
5464,18
5465,18
5466,18
5467,18
5468,18
5469,18
5470,18
5471,18
5472,18
5473,18
5474,18
5475,18
5476,18
5477,18
5478,18
5479,18
5480,18
5481,18
5482,18
5483,19
5484,19
5485,18
5486,18
5487,18
5488,18
5489,18
5490,18
5491,18
5492,18
5493,18
5494,18
5495,18
5496,18
5497,18
5498,18
5499,18
5500,18
5501,18
5502,18
5503,18
5504,18
5505,18
5506,18
5507,18
5508,18
5509,18
5510,18
5511,18
5512,18
5513,18
5514,18
5515,19
5516,18
5517,18
5518,18
5519,18
5520,18
5521,18
5522,19
5523,19
5524,18
5525,18
5526,18
5527,18
5528,18
5529,18
5530,18
5531,18
5532,18
5533,18
5534,18
5535,18
5536,18
5537,18
5538,18
5539,18
5540,18
5541,18
5542,18
5543,18
5544,18
5545,18
5546,18
5547,18
5548,18
5549,18
5550,18
5551,18
5552,18
5553,18
5554,18
5555,18
5556,18
5557,18
5558,18
5559,18
5560,18
5561,18
5562,18
5563,18
5564,18
5565,18
5566,18
5567,18
5568,18
5569,18
5570,18
5571,18
5572,18
5573,18
5574,18
5575,18
5576,18
5577,18
5578,18
5579,18
5580,18
5581,18
5582,18
5583,18
5584,18
5585,18
5586,18
5587,18
5588,18
5589,18
5590,18
5591,18
5592,18
5593,18
5594,18
5595,18
5596,18
5597,18
5598,18
5599,18
5600,18
5601,18
5602,18
5603,18
5604,18
5605,18
5606,18
5607,18
5608,18
5609,18
5610,18
5611,19
5612,18
5613,18
5614,18
5615,18
5616,18
5617,18
5618,18
5619,18
5620,18
5621,18
5622,18
5623,18
5624,18
5625,18
5626,18
5627,18
5628,18
5629,18
5630,18
5631,18
5632,18
5633,18
5634,18
5635,18
5636,18
5637,18
5638,18
5639,18
5640,18
5641,18
5642,18
5643,18
5644,18
5645,18
5646,18
5647,18
5648,18
5649,18
5650,18
5651,18
5652,18
5653,18
5654,18
5655,18
5656,18
5657,18
5658,18
5659,18
5660,18
5661,18
5662,18
5663,18
5664,18
5665,18
5666,18
5667,18
5668,18
5669,18
5670,18
5671,18
5672,18
5673,18
5674,18
5675,18
5676,18
5677,18
5678,18
5679,18
5680,18
5681,18
5682,18
5683,18
5684,18
5685,18
5686,18
5687,18
5688,18
5689,18
5690,18
5691,18
5692,18
5693,18
5694,18
5695,18
5696,18
5697,18
5698,18
5699,18
5700,18
5701,18
5702,18
5703,18
5704,18
5705,18
5706,18
5707,18
5708,18
5709,18
5710,18
5711,18
5712,18
5713,18
5714,18
5715,18
5716,18
5717,18
5718,19
5719,19
5720,19
5721,18
5722,18
5723,18
5724,18
5725,18
5726,18
5727,18
5728,18
5729,18
5730,18
5731,18
5732,18
5733,18
5734,18
5735,18
5736,18
5737,18
5738,18
5739,18
5740,18
5741,18
5742,18
5743,18
5744,18
5745,18
5746,18
5747,18
5748,18
5749,18
5750,18
5751,18
5752,18
5753,18
5754,18
5755,18
5756,18
5757,18
5758,18
5759,18
5760,18
5761,18
5762,18
5763,18
5764,18
5765,18
5766,18
5767,18
5768,18
5769,18
5770,18
5771,18
5772,18
5773,18
5774,18
5775,18
5776,18
5777,18
5778,18
5779,18
5780,18
5781,18
5782,18
5783,18
5784,18
5785,18
5786,18
5787,18
5788,18
5789,18
5790,18
5791,18
5792,18
5793,18
5794,18
5795,18
5796,18
5797,18
5798,18
5799,18
5800,18
5801,18
5802,18
5803,18
5804,18
5805,18
5806,18
5807,18
5808,18
5809,18
5810,18
5811,18
5812,18
5813,18
5814,18
5815,18
5816,18
5817,18
5818,18
5819,18
5820,18
5821,18
5822,18
5823,18
5824,18
5825,18
5826,18
5827,18
5828,18
5829,18
5830,18
5831,18
5832,18
5833,18
5834,18
5835,18
5836,18
5837,18
5838,18
5839,18
5840,18
5841,18
5842,18
5843,18
5844,18
5845,18
5846,18
5847,18
5848,18
5849,18
5850,18
5851,18
5852,18
5853,18
5854,18
5855,18
5856,18
5857,18
5858,18
5859,18
5860,18
5861,18
5862,18
5863,18
5864,18
5865,18
5866,18
5867,18
5868,18
5869,18
5870,18
5871,18
5872,18
5873,18
5874,18
5875,18
5876,18
5877,18
5878,18
5879,18
5880,18
5881,18
5882,18
5883,18
5884,18
5885,18
5886,18
5887,18
5888,18
5889,18
5890,18
5891,18
5892,18
5893,18
5894,18
5895,18
5896,18
5897,18
5898,18
5899,18
5900,18
5901,18
5902,18
5903,18
5904,18
5905,18
5906,18
5907,18
5908,18
5909,18
5910,18
5911,18
5912,18
5913,18
5914,18
5915,18
5916,18
5917,18
5918,18
5919,18
5920,18
5921,18
5922,18
5923,18
5924,18
5925,18
5926,18
5927,18
5928,19
5929,18
5930,18
5931,18
5932,18
5933,18
5934,18
5935,18
5936,18
5937,18
5938,18
5939,18
5940,18
5941,18
5942,18
5943,18
5944,18
5945,18
5946,18
5947,18
5948,18
5949,18
5950,18
5951,18
5952,18
5953,18
5954,18
5955,18
5956,18
5957,18
5958,18
5959,18
5960,18
5961,18
5962,18
5963,18
5964,18
5965,18
5966,18
5967,18
5968,18
5969,19
5970,18
5971,18
5972,18
5973,18
5974,18
5975,18
5976,18
5977,18
5978,18
5979,18
5980,18
5981,18
5982,18
5983,18
5984,18
5985,18
5986,18
5987,18
5988,18
5989,18
5990,18
5991,18
5992,18
5993,18
5994,18
5995,18
5996,18
5997,18
5998,18
5999,18
6000,18
6001,18
6002,18
6003,18
6004,18
6005,18
6006,18
6007,18
6008,18
6009,18
6010,18
6011,18
6012,18
6013,18
6014,18
6015,18
6016,18
6017,18
6018,18
6019,18
6020,18
6021,18
6022,18
6023,18
6024,18
6025,18
6026,18
6027,18
6028,18
6029,18
6030,18
6031,18
6032,18
6033,18
6034,18
6035,18
6036,18
6037,18
6038,18
6039,18
6040,18
6041,18
6042,18
6043,18
6044,18
6045,18
6046,18
6047,18
6048,18
6049,18
6050,18
6051,18
6052,18
6053,18
6054,18
6055,18
6056,18
6057,18
6058,18
6059,18
6060,18
6061,18
6062,18
6063,18
6064,18
6065,18
6066,18
6067,18
6068,18
6069,18
6070,18
6071,18
6072,18
6073,18
6074,18
6075,18
6076,18
6077,18
6078,18
6079,18
6080,18
6081,18
6082,18
6083,18
6084,18
6085,18
6086,18
6087,18
6088,18
6089,18
6090,18
6091,18
6092,18
6093,18
6094,18
6095,18
6096,18
6097,18
6098,18
6099,18
6100,18
6101,18
6102,18
6103,18
6104,18
6105,18
6106,18
6107,18
6108,18
6109,18
6110,18
6111,18
6112,18
6113,18
6114,18
6115,18
6116,18
6117,18
6118,18
6119,18
6120,18
6121,18
6122,18
6123,18
6124,18
6125,18
6126,18
6127,18
6128,18
6129,18
6130,18
6131,18
6132,18
6133,18
6134,18
6135,18
6136,18
6137,18
6138,18
6139,18
6140,18
6141,18
6142,18
6143,18
6144,18
6145,18
6146,18
6147,18
6148,18
6149,18
6150,18
6151,18
6152,18
6153,18
6154,18
6155,18
6156,18
6157,18
6158,18
6159,18
6160,18
6161,18
6162,18
6163,18
6164,18
6165,18
6166,18
6167,18
6168,18
6169,18
6170,18
6171,18
6172,18
6173,18
6174,18
6175,18
6176,18
6177,18
6178,18
6179,18
6180,18
6181,18
6182,18
6183,18
6184,18
6185,18
6186,18
6187,18
6188,18
6189,18
6190,18
6191,18
6192,18
6193,18
6194,18
6195,18
6196,18
6197,18
6198,18
6199,18
6200,18
6201,18
6202,18
6203,18
6204,18
6205,18
6206,18
6207,18
6208,18
6209,18
6210,18
6211,18
6212,18
6213,18
6214,18
6215,18
6216,18
6217,18
6218,18
6219,18
6220,18
6221,18
6222,18
6223,18
6224,18
6225,18
6226,18
6227,18
6228,18
6229,18
6230,18
6231,18
6232,18
6233,18
6234,18
6235,18
6236,18
6237,18
6238,18
6239,18
6240,18
6241,18
6242,18
6243,18
6244,18
6245,18
6246,18
6247,18
6248,18
6249,18
6250,18
6251,18
6252,18
6253,18
6254,19
6255,19
6256,19
6257,19
6258,19
6259,19
6260,19
6261,19
6262,18
6263,18
6264,18
6265,18
6266,18
6267,18
6268,18
6269,18
6270,18
6271,18
6272,18
6273,18
6274,18
6275,18
6276,18
6277,18
6278,18
6279,18
6280,18
6281,18
6282,18
6283,18
6284,18
6285,18
6286,18
6287,18
6288,18
6289,18
6290,18
6291,18
6292,18
6293,18
6294,18
6295,18
6296,18
6297,18
6298,18
6299,18
6300,18
6301,18
6302,18
6303,18
6304,18
6305,18
6306,18
6307,18
6308,18
6309,18
6310,18
6311,18
6312,18
6313,18
6314,18
6315,18
6316,18
6317,18
6318,18
6319,18
6320,18
6321,18
6322,18
6323,18
6324,18
6325,18
6326,18
6327,18
6328,18
6329,18
6330,18
6331,18
6332,18
6333,18
6334,18
6335,18
6336,18
6337,18
6338,18
6339,18
6340,18
6341,18
6342,18
6343,18
6344,18
6345,18
6346,18
6347,18
6348,18
6349,18
6350,18
6351,18
6352,18
6353,18
6354,18
6355,18
6356,18
6357,18
6358,18
6359,18
6360,18
6361,18
6362,18
6363,18
6364,18
6365,18
6366,18
6367,18
6368,18
6369,18
6370,18
6371,18
6372,18
6373,18
6374,18
6375,18
6376,18
6377,18
6378,18
6379,18
6380,18
6381,18
6382,18
6383,18
6384,18
6385,18
6386,18
6387,18
6388,18
6389,18
6390,18
6391,18
6392,18
6393,18
6394,18
6395,18
6396,18
6397,18
6398,18
6399,18
6400,18
6401,18
6402,18
6403,18
6404,18
6405,18
6406,18
6407,18
6408,18
6409,18
6410,18
6411,18
6412,18
6413,18
6414,18
6415,18
6416,18
6417,18
6418,18
6419,18
6420,18
6421,18
6422,18
6423,18
6424,18
6425,18
6426,18
6427,18
6428,18
6429,18
6430,18
6431,18
6432,18
6433,18
6434,18
6435,18
6436,18
6437,18
6438,18
6439,18
6440,18
6441,18
6442,18
6443,18
6444,18
6445,18
6446,18
6447,18
6448,18
6449,18
6450,18
6451,18
6452,18
6453,18
6454,18
6455,18
6456,18
6457,18
6458,18
6459,18
6460,18
6461,18
6462,18
6463,18
6464,18
6465,18
6466,18
6467,18
6468,18
6469,18
6470,18
6471,18
6472,18
6473,18
6474,18
6475,18
6476,18
6477,18
6478,18
6479,18
6480,18
6481,18
6482,18
6483,18
6484,18
6485,18
6486,18
6487,18
6488,18
6489,18
6490,18
6491,18
6492,18
6493,18
6494,18
6495,18
6496,18
6497,18
6498,18
6499,18
6500,18
6501,18
6502,18
6503,18
6504,18
6505,18
6506,18
6507,18
6508,18
6509,18
6510,18
6511,18
6512,18
6513,18
6514,18
6515,18
6516,18
6517,18
6518,18
6519,18
6520,18
6521,18
6522,18
6523,18
6524,18
6525,18
6526,18
6527,18
6528,18
6529,18
6530,18
6531,18
6532,18
6533,18
6534,18
6535,18
6536,18
6537,18
6538,18
6539,18
6540,18
6541,18
6542,18
6543,18
6544,18
6545,18
6546,18
6547,18
6548,18
6549,18
6550,18
6551,18
6552,18
6553,18
6554,18
6555,18
6556,18
6557,18
6558,18
6559,18
6560,18
6561,18
6562,18
6563,18
6564,18
6565,18
6566,18
6567,18
6568,18
6569,18
6570,18
6571,18
6572,18
6573,18
6574,18
6575,18
6576,19
6577,19
6578,19
6579,19
6580,19
6581,19
6582,18
6583,18
6584,18
6585,18
6586,18
6587,18
6588,18
6589,18
6590,18
6591,18
6592,18
6593,18
6594,18
6595,18
6596,18
6597,18
6598,18
6599,18
6600,18
6601,18
6602,18
6603,18
6604,18
6605,18
6606,18
6607,18
6608,18
6609,18
6610,18
6611,18
6612,18
6613,18
6614,18
6615,18
6616,18
6617,18
6618,18
6619,18
6620,18
6621,18
6622,18
6623,18
6624,18
6625,18
6626,18
6627,18
6628,18
6629,18
6630,18
6631,18
6632,18
6633,18
6634,18
6635,18
6636,19
6637,18
6638,18
6639,18
6640,18
6641,18
6642,18
6643,18
6644,18
6645,18
6646,18
6647,18
6648,18
6649,18
6650,18
6651,18
6652,18
6653,18
6654,18
6655,18
6656,18
6657,18
6658,18
6659,18
6660,18
6661,18
6662,18
6663,18
6664,18
6665,18
6666,18
6667,18
6668,18
6669,18
6670,18
6671,18
6672,18
6673,18
6674,19
6675,19
6676,19
6677,19
6678,19
6679,19
6680,19
6681,19
6682,19
6683,19
6684,19
6685,19
6686,19
6687,19
6688,19
6689,20
6690,19
6691,19
6692,19
6693,19
6694,19
6695,19
6696,19
6697,19
6698,19
6699,19
6700,19
6701,19
6702,19
6703,19
6704,19
6705,19
6706,19
6707,19
6708,19
6709,19
6710,19
6711,19
6712,19
6713,19
6714,19
6715,19
6716,19
6717,19
6718,19
6719,19
6720,19
6721,19
6722,19
6723,19
6724,19
6725,19
6726,19
6727,19
6728,19
6729,19
6730,20
6731,20
6732,20
6733,19
6734,19
6735,19
6736,19
6737,19
6738,19
6739,19
6740,19
6741,19
6742,19
6743,19
6744,19
6745,19
6746,19
6747,19
6748,19
6749,19
6750,19
6751,19
6752,19
6753,19
6754,19
6755,19
6756,19
6757,19
6758,19
6759,19
6760,19
6761,19
6762,19
6763,19
6764,19
6765,19
6766,19
6767,19
6768,19
6769,19
6770,19
6771,19
6772,19
6773,19
6774,19
6775,19
6776,19
6777,19
6778,19
6779,19
6780,19
6781,19
6782,19
6783,20
6784,20
6785,20
6786,20
6787,19
6788,19
6789,19
6790,19
6791,19
6792,19
6793,19
6794,19
6795,19
6796,19
6797,20
6798,20
6799,19
6800,19
6801,19
6802,19
6803,19
6804,19
6805,19
6806,19
6807,19
6808,19
6809,19
6810,19
6811,19
6812,19
6813,19
6814,19
6815,19
6816,20
6817,20
6818,20
6819,20
6820,20
6821,20
6822,20
6823,19
6824,19
6825,19
6826,19
6827,19
6828,19
6829,19
6830,19
6831,19
6832,19
6833,19
6834,19
6835,19
6836,19
6837,19
6838,19
6839,19
6840,19
6841,19
6842,19
6843,19
6844,19
6845,19
6846,19
6847,19
6848,19
6849,19
6850,19
6851,19
6852,19
6853,19
6854,19
6855,19
6856,19
6857,19
6858,19
6859,19
6860,19
6861,19
6862,19
6863,19
6864,19
6865,19
6866,19
6867,19
6868,19
6869,19
6870,19
6871,19
6872,19
6873,19
6874,19
6875,19
6876,19
6877,19
6878,19
6879,19
6880,19
6881,19
6882,19
6883,19
6884,19
6885,19
6886,19
6887,19
6888,19
6889,19
6890,19
6891,19
6892,19
6893,19
6894,19
6895,19
6896,19
6897,19
6898,19
6899,19
6900,19
6901,19
6902,19
6903,19
6904,19
6905,19
6906,19
6907,19
6908,19
6909,19
6910,19
6911,19
6912,19
6913,19
6914,19
6915,19
6916,19
6917,19
6918,19
6919,19
6920,19
6921,19
6922,19
6923,19
6924,19
6925,19
6926,19
6927,19
6928,19
6929,19
6930,19
6931,19
6932,19
6933,19
6934,19
6935,19
6936,19
6937,19
6938,19
6939,19
6940,19
6941,19
6942,19
6943,19
6944,19
6945,19
6946,19
6947,19
6948,20
6949,20
6950,20
6951,20
6952,20
6953,20
6954,20
6955,20
6956,20
6957,20
6958,20
6959,20
6960,20
6961,20
6962,20
6963,20
6964,20
6965,20
6966,20
6967,20
6968,20
6969,20
6970,20
6971,20
6972,20
6973,20
6974,20
6975,20
6976,20
6977,20
6978,20
6979,20
6980,20
6981,20
6982,21
6983,21
6984,21
6985,21
6986,21
6987,21
6988,21
6989,21
6990,21
6991,21
6992,21
6993,21
6994,21
6995,21
6996,21
6997,21
6998,21
6999,21
7000,21
7001,21
7002,21
7003,21
7004,21
7005,21
7006,21
7007,21
7008,21
7009,21
7010,21
7011,21
7012,21
7013,21
7014,21
7015,21
7016,21
7017,21
7018,21
7019,21
7020,21
7021,21
7022,21
7023,21
7024,21
7025,21
7026,21
7027,21
7028,21
7029,21
7030,21
7031,21
7032,21
7033,21
7034,21
7035,21
7036,21
7037,21
7038,21
7039,21
7040,21
7041,21
7042,21
7043,21
7044,21
7045,21
7046,21
7047,21
7048,21
7049,21
7050,21
7051,21
7052,21
7053,21
7054,21
7055,21
7056,21
7057,21
7058,21
7059,21
7060,21
7061,21
7062,21
7063,21
7064,21
7065,21
7066,21
7067,21
7068,21
7069,21
7070,21
7071,21
7072,21
7073,21
7074,21
7075,21
7076,21
7077,21
7078,21
7079,21
7080,21
7081,21
7082,21
7083,21
7084,21
7085,21
7086,21
7087,21
7088,21
7089,21
7090,21
7091,21
7092,21
7093,21
7094,21
7095,21
7096,21
7097,21
7098,21
7099,21
7100,21
7101,21
7102,21
7103,21
7104,21
7105,21
7106,21
7107,21
7108,21
7109,21
7110,21
7111,21
7112,21
7113,21
7114,21
7115,21
7116,21
7117,21
7118,21
7119,21
7120,21
7121,21
7122,21
7123,22
7124,22
7125,22
7126,22
7127,22
7128,22
7129,22
7130,22
7131,22
7132,22
7133,22
7134,22
7135,22
7136,22
7137,22
7138,22
7139,22
7140,22
7141,22
7142,22
7143,22
7144,22
7145,22
7146,22
7147,23
7148,23
7149,23
7150,23
7151,23
7152,23
7153,23
7154,23
7155,23
7156,23
7157,23
7158,23
7159,23
7160,23
7161,23
7162,23
7163,23
7164,23
7165,23
7166,23
7167,23
7168,23
7169,23
7170,23
7171,23
7172,23
7173,23
7174,23
7175,23
7176,23
7177,23
7178,23
7179,23
7180,23
7181,23
7182,23
7183,23
7184,23
7185,23
7186,23
7187,23
7188,23
7189,23
7190,23
7191,23
7192,22
7193,22
7194,22
7195,22
7196,22
7197,22
7198,22
7199,22
7200,22
7201,22
7202,22
7203,22
7204,22
7205,22
7206,22
7207,22
7208,22
7209,22
7210,22
7211,22
7212,22
7213,22
7214,22
7215,22
7216,22
7217,22
7218,22
7219,22
7220,22
7221,22
7222,22
7223,22
7224,22
7225,22
7226,22
7227,22
7228,22
7229,22
7230,22
7231,22
7232,22
7233,22
7234,23
7235,22
7236,22
7237,22
7238,22
7239,22
7240,22
7241,22
7242,22
7243,22
7244,22
7245,22
7246,22
7247,22
7248,22
7249,22
7250,22
7251,22
7252,23
7253,23
7254,23
7255,23
7256,23
7257,23
7258,23
7259,23
7260,23
7261,23
7262,22
7263,22
7264,22
7265,22
7266,22
7267,22
7268,22
7269,22
7270,22
7271,22
7272,22
7273,22
7274,22
7275,22
7276,22
7277,22
7278,22
7279,22
7280,22
7281,22
7282,22
7283,22
7284,22
7285,22
7286,22
7287,22
7288,22
7289,22
7290,22
7291,22
7292,22
7293,22
7294,22
7295,22
7296,22
7297,22
7298,22
7299,22
7300,22
7301,22
7302,22
7303,22
7304,22
7305,22
7306,23
7307,23
7308,23
7309,23
7310,22
7311,22
7312,22
7313,22
7314,22
7315,22
7316,22
7317,22
7318,23
7319,23
7320,24
7321,23
7322,23
7323,23
7324,22
7325,22
7326,22
7327,22
7328,22
7329,22
7330,22
7331,22
7332,22
7333,22
7334,22
7335,22
7336,22
7337,22
7338,22
7339,22
7340,22
7341,22
7342,22
7343,22
7344,22
7345,22
7346,22
7347,22
7348,22
7349,22
7350,22
7351,22
7352,22
7353,22
7354,22
7355,22
7356,22
7357,22
7358,22
7359,22
7360,22
7361,22
7362,22
7363,22
7364,22
7365,22
7366,22
7367,22
7368,22
7369,22
7370,22
7371,22
7372,22
7373,22
7374,22
7375,22
7376,22
7377,22
7378,22
7379,22
7380,22
7381,22
7382,22
7383,22
7384,22
7385,22
7386,22
7387,22
7388,22
7389,22
7390,22
7391,22
7392,22
7393,22
7394,22
7395,22
7396,22
7397,22
7398,22
7399,22
7400,22
7401,22
7402,22
7403,22
7404,22
7405,22
7406,22
7407,22
7408,22
7409,22
7410,22
7411,22
7412,22
7413,22
7414,22
7415,22
7416,22
7417,22
7418,22
7419,22
7420,22
7421,22
7422,22
7423,22
7424,22
7425,22
7426,22
7427,23
7428,22
7429,22
7430,22
7431,22
7432,22
7433,22
7434,22
7435,22
7436,22
7437,22
7438,22
7439,22
7440,22
7441,22
7442,22
7443,22
7444,22
7445,22
7446,22
7447,22
7448,22
7449,22
7450,22
7451,22
7452,22
7453,22
7454,22
7455,22
7456,22
7457,22
7458,22
7459,22
7460,22
7461,22
7462,22
7463,22
7464,22
7465,22
7466,22
7467,22
7468,22
7469,22
7470,22
7471,22
7472,22
7473,22
7474,22
7475,22
7476,22
7477,22
7478,22
7479,22
7480,22
7481,22
7482,22
7483,22
7484,22
7485,22
7486,22
7487,22
7488,22
7489,22
7490,22
7491,22
7492,23
7493,23
7494,23
7495,23
7496,23
7497,23
7498,23
7499,23
7500,23
7501,23
7502,22
7503,22
7504,22
7505,22
7506,22
7507,22
7508,22
7509,22
7510,22
7511,22
7512,22
7513,22
7514,22
7515,22
7516,22
7517,22
7518,22
7519,22
7520,22
7521,22
7522,22
7523,22
7524,22
7525,22
7526,22
7527,22
7528,22
7529,22
7530,22
7531,22
7532,22
7533,22
7534,22
7535,22
7536,22
7537,22
7538,22
7539,22
7540,22
7541,22
7542,22
7543,22
7544,22
7545,22
7546,22
7547,22
7548,22
7549,22
7550,22
7551,22
7552,22
7553,22
7554,22
7555,22
7556,22
7557,22
7558,22
7559,22
7560,22
7561,22
7562,22
7563,22
7564,22
7565,22
7566,22
7567,22
7568,22
7569,22
7570,22
7571,22
7572,22
7573,22
7574,22
7575,22
7576,22
7577,22
7578,22
7579,22
7580,22
7581,22
7582,22
7583,22
7584,22
7585,22
7586,22
7587,22
7588,22
7589,22
7590,23
7591,23
7592,23
7593,23
7594,23
7595,23
7596,23
7597,23
7598,23
7599,23
7600,22
7601,22
7602,22
7603,22
7604,22
7605,22
7606,22
7607,22
7608,22
7609,22
7610,22
7611,22
7612,22
7613,22
7614,22
7615,22
7616,22
7617,22
7618,22
7619,22
7620,22
7621,22
7622,22
7623,22
7624,22
7625,22
7626,22
7627,22
7628,22
7629,22
7630,23
7631,23
7632,23
7633,23
7634,22
7635,22
7636,22
7637,22
7638,22
7639,22
7640,22
7641,22
7642,22
7643,22
7644,22
7645,22
7646,22
7647,22
7648,22
7649,22
7650,22
7651,22
7652,22
7653,22
7654,22
7655,22
7656,22
7657,22
7658,22
7659,22
7660,22
7661,22
7662,22
7663,22
7664,22
7665,22
7666,22
7667,22
7668,22
7669,22
7670,22
7671,22
7672,22
7673,22
7674,22
7675,22
7676,22
7677,22
7678,22
7679,22
7680,22
7681,22
7682,22
7683,22
7684,22
7685,22
7686,22
7687,22
7688,22
7689,22
7690,22
7691,22
7692,22
7693,22
7694,22
7695,22
7696,22
7697,22
7698,22
7699,22
7700,22
7701,22
7702,22
7703,22
7704,22
7705,22
7706,22
7707,22
7708,22
7709,22
7710,22
7711,22
7712,22
7713,22
7714,22
7715,22
7716,22
7717,22
7718,22
7719,22
7720,22
7721,22
7722,22
7723,22
7724,22
7725,22
7726,22
7727,22
7728,22
7729,22
7730,22
7731,22
7732,22
7733,22
7734,22
7735,22
7736,22
7737,23
7738,22
7739,22
7740,22
7741,22
7742,22
7743,22
7744,22
7745,22
7746,22
7747,22
7748,22
7749,22
7750,22
7751,22
7752,22
7753,22
7754,22
7755,22
7756,22
7757,22
7758,22
7759,22
7760,22
7761,22
7762,22
7763,22
7764,22
7765,22
7766,22
7767,22
7768,22
7769,22
7770,22
7771,22
7772,22
7773,22
7774,22
7775,22
7776,22
7777,22
7778,22
7779,22
7780,22
7781,22
7782,22
7783,22
7784,22
7785,22
7786,22
7787,22
7788,22
7789,22
7790,22
7791,22
7792,22
7793,22
7794,22
7795,22
7796,22
7797,22
7798,22
7799,22
7800,22
7801,22
7802,22
7803,22
7804,22
7805,22
7806,22
7807,22
7808,22
7809,22
7810,22
7811,22
7812,22
7813,22
7814,22
7815,22
7816,22
7817,22
7818,22
7819,22
7820,22
7821,22
7822,22
7823,22
7824,22
7825,22
7826,22
7827,22
7828,22
7829,22
7830,22
7831,22
7832,22
7833,22
7834,22
7835,22
7836,22
7837,22
7838,22
7839,22
7840,22
7841,22
7842,22
7843,22
7844,22
7845,22
7846,22
7847,22
7848,22
7849,22
7850,22
7851,22
7852,22
7853,22
7854,22
7855,22
7856,22
7857,22
7858,22
7859,22
7860,22
7861,22
7862,22
7863,22
7864,22
7865,22
7866,22
7867,22
7868,22
7869,22
7870,22
7871,22
7872,22
7873,22
7874,22
7875,22
7876,22
7877,22
7878,22
7879,22
7880,22
7881,22
7882,22
7883,22
7884,22
7885,22
7886,22
7887,22
7888,22
7889,22
7890,22
7891,22
7892,22
7893,22
7894,22
7895,22
7896,22
7897,22
7898,22
7899,22
7900,22
7901,22
7902,22
7903,22
7904,22
7905,22
7906,22
7907,22
7908,22
7909,22
7910,22
7911,22
7912,22
7913,22
7914,22
7915,22
7916,22
7917,22
7918,22
7919,22
7920,22
7921,22
7922,22
7923,22
7924,22
7925,22
7926,22
7927,22
7928,22
7929,22
7930,22
7931,22
7932,22
7933,22
7934,22
7935,22
7936,22
7937,22
7938,22
7939,22
7940,22
7941,22
7942,22
7943,22
7944,22
7945,22
7946,22
7947,22
7948,22
7949,22
7950,22
7951,22
7952,22
7953,22
7954,22
7955,22
7956,22
7957,22
7958,22
7959,22
7960,22
7961,22
7962,22
7963,22
7964,22
7965,22
7966,22
7967,22
7968,22
7969,22
7970,22
7971,22
7972,22
7973,22
7974,22
7975,22
7976,22
7977,22
7978,22
7979,22
7980,22
7981,22
7982,22
7983,22
7984,22
7985,22
7986,22
7987,22
7988,22
7989,23
7990,23
7991,22
7992,22
7993,22
7994,22
7995,22
7996,22
7997,22
7998,22
7999,22
8000,22
8001,22
8002,22
8003,22
8004,22
8005,22
8006,22
8007,22
8008,22
8009,22
8010,22
8011,22
8012,22
8013,22
8014,22
8015,22
8016,22
8017,22
8018,22
8019,22
8020,22
8021,22
8022,22
8023,22
8024,22
8025,22
8026,22
8027,22
8028,22
8029,22
8030,22
8031,22
8032,22
8033,22
8034,22
8035,22
8036,22
8037,22
8038,22
8039,22
8040,22
8041,22
8042,22
8043,22
8044,22
8045,22
8046,22
8047,22
8048,22
8049,22
8050,22
8051,22
8052,22
8053,22
8054,22
8055,22
8056,22
8057,22
8058,22
8059,22
8060,22
8061,22
8062,22
8063,22
8064,22
8065,22
8066,22
8067,22
8068,22
8069,22
8070,22
8071,22
8072,22
8073,22
8074,22
8075,22
8076,22
8077,22
8078,22
8079,22
8080,22
8081,23
8082,23
8083,23
8084,23
8085,22
8086,22
8087,22
8088,22
8089,22
8090,22
8091,22
8092,22
8093,22
8094,22
8095,22
8096,22
8097,22
8098,22
8099,22
8100,22
8101,22
8102,22
8103,22
8104,22
8105,22
8106,22
8107,22
8108,22
8109,22
8110,22
8111,22
8112,22
8113,22
8114,22
8115,22
8116,22
8117,22
8118,22
8119,22
8120,22
8121,22
8122,22
8123,22
8124,22
8125,22
8126,22
8127,22
8128,22
8129,22
8130,22
8131,22
8132,22
8133,22
8134,22
8135,22
8136,23
8137,22
8138,22
8139,22
8140,22
8141,22
8142,22
8143,22
8144,22
8145,22
8146,22
8147,22
8148,22
8149,22
8150,22
8151,22
8152,22
8153,22
8154,22
8155,22
8156,22
8157,22
8158,22
8159,22
8160,22
8161,22
8162,22
8163,22
8164,23
8165,23
8166,23
8167,23
8168,22
8169,22
8170,22
8171,22
8172,22
8173,22
8174,22
8175,22
8176,22
8177,22
8178,22
8179,22
8180,22
8181,22
8182,22
8183,22
8184,22
8185,22
8186,22
8187,22
8188,22
8189,23
8190,22
8191,22
8192,22
8193,22
8194,22
8195,22
8196,22
8197,22
8198,22
8199,22
8200,22
8201,22
8202,22
8203,22
8204,22
8205,22
8206,22
8207,22
8208,22
8209,22
8210,22
8211,22
8212,22
8213,22
8214,23
8215,22
8216,22
8217,22
8218,22
8219,22
8220,22
8221,22
8222,22
8223,22
8224,22
8225,22
8226,22
8227,22
8228,22
8229,22
8230,22
8231,22
8232,22
8233,22
8234,22
8235,22
8236,22
8237,22
8238,22
8239,22
8240,22
8241,22
8242,22
8243,22
8244,22
8245,22
8246,22
8247,22
8248,22
8249,22
8250,22
8251,22
8252,22
8253,22
8254,22
8255,22
8256,22
8257,22
8258,23
8259,22
8260,22
8261,22
8262,22
8263,22
8264,22
8265,22
8266,22
8267,22
8268,22
8269,22
8270,22
8271,22
8272,22
8273,22
8274,22
8275,22
8276,22
8277,22
8278,22
8279,22
8280,22
8281,22
8282,22
8283,22
8284,22
8285,22
8286,22
8287,22
8288,22
8289,22
8290,22
8291,22
8292,22
8293,22
8294,22
8295,22
8296,22
8297,22
8298,22
8299,22
8300,22
8301,22
8302,22
8303,22
8304,22
8305,22
8306,22
8307,22
8308,22
8309,22
8310,22
8311,22
8312,22
8313,22
8314,22
8315,22
8316,22
8317,22
8318,22
8319,22
8320,22
8321,22
8322,22
8323,22
8324,22
8325,22
8326,22
8327,22
8328,22
8329,22
8330,22
8331,22
8332,22
8333,22
8334,22
8335,22
8336,22
8337,22
8338,22
8339,22
8340,22
8341,22
8342,22
8343,22
8344,22
8345,22
8346,22
8347,22
8348,22
8349,22
8350,22
8351,22
8352,22
8353,22
8354,22
8355,22
8356,22
8357,22
8358,22
8359,22
8360,22
8361,22
8362,22
8363,23
8364,23
8365,22
8366,22
8367,22
8368,22
8369,22
8370,22
8371,22
8372,22
8373,22
8374,22
8375,22
8376,22
8377,22
8378,22
8379,22
8380,22
8381,22
8382,22
8383,22
8384,22
8385,22
8386,22
8387,22
8388,22
8389,22
8390,22
8391,22
8392,22
8393,22
8394,22
8395,22
8396,22
8397,22
8398,22
8399,22
8400,22
8401,22
8402,22
8403,22
8404,22
8405,22
8406,22
8407,22
8408,22
8409,22
8410,22
8411,22
8412,22
8413,22
8414,22
8415,22
8416,22
8417,22
8418,22
8419,22
8420,22
8421,22
8422,22
8423,22
8424,22
8425,22
8426,22
8427,22
8428,22
8429,22
8430,22
8431,22
8432,22
8433,22
8434,22
8435,22
8436,22
8437,22
8438,22
8439,22
8440,22
8441,22
8442,22
8443,22
8444,22
8445,22
8446,22
8447,22
8448,22
8449,22
8450,23
8451,23
8452,23
8453,23
8454,23
8455,23
8456,23
8457,23
8458,23
8459,23
8460,23
8461,23
8462,23
8463,23
8464,23
8465,23
8466,23
8467,23
8468,23
8469,23
8470,23
8471,23
8472,23
8473,23
8474,23
8475,23
8476,23
8477,23
8478,23
8479,23
8480,23
8481,23
8482,23
8483,23
8484,23
8485,23
8486,23
8487,23
8488,23
8489,23
8490,23
8491,23
8492,23
8493,24
8494,23
8495,23
8496,23
8497,23
8498,23
8499,23
8500,23
8501,23
8502,23
8503,23
8504,23
8505,23
8506,23
8507,23
8508,23
8509,23
8510,23
8511,23
8512,23
8513,23
8514,23
8515,24
8516,23
8517,23
8518,23
8519,23
8520,23
8521,23
8522,23
8523,23
8524,23
8525,23
8526,23
8527,23
8528,23
8529,23
8530,23
8531,23
8532,23
8533,23
8534,23
8535,23
8536,23
8537,23
8538,23
8539,24
8540,24
8541,24
8542,24
8543,24
8544,24
8545,24
8546,24
8547,23
8548,23
8549,23
8550,23
8551,23
8552,23
8553,23
8554,23
8555,23
8556,23
8557,23
8558,23
8559,23
8560,23
8561,23
8562,23
8563,23
8564,23
8565,23
8566,23
8567,23
8568,23
8569,23
8570,23
8571,23
8572,23
8573,23
8574,23
8575,23
8576,23
8577,23
8578,23
8579,23
8580,23
8581,23
8582,23
8583,23
8584,23
8585,23
8586,23
8587,23
8588,23
8589,23
8590,23
8591,23
8592,23
8593,23
8594,23
8595,23
8596,23
8597,23
8598,23
8599,23
8600,23
8601,23
8602,23
8603,23
8604,23
8605,23
8606,23
8607,23
8608,23
8609,23
8610,23
8611,23
8612,23
8613,23
8614,23
8615,23
8616,23
8617,23
8618,23
8619,23
8620,23
8621,23
8622,23
8623,24
8624,23
8625,23
8626,23
8627,23
8628,23
8629,23
8630,23
8631,23
8632,23
8633,23
8634,23
8635,24
8636,24
8637,24
8638,24
8639,23
8640,23
8641,23
8642,23
8643,23
8644,23
8645,23
8646,23
8647,23
8648,23
8649,24
8650,24
8651,24
8652,24
8653,24
8654,23
8655,23
8656,23
8657,23
8658,23
8659,23
8660,23
8661,23
8662,23
8663,23
8664,23
8665,23
8666,23
8667,23
8668,23
8669,23
8670,23
8671,23
8672,23
8673,23
8674,23
8675,23
8676,23
8677,23
8678,23
8679,23
8680,23
8681,23
8682,23
8683,23
8684,23
8685,23
8686,23
8687,23
8688,23
8689,23
8690,23
8691,23
8692,23
8693,23
8694,23
8695,23
8696,23
8697,23
8698,23
8699,23
8700,23
8701,23
8702,23
8703,23
8704,23
8705,23
8706,23
8707,23
8708,23
8709,23
8710,23
8711,23
8712,23
8713,23
8714,23
8715,23
8716,23
8717,23
8718,23
8719,23
8720,23
8721,23
8722,23
8723,23
8724,23
8725,23
8726,23
8727,23
8728,23
8729,23
8730,23
8731,23
8732,23
8733,23
8734,23
8735,23
8736,23
8737,23
8738,23
8739,23
8740,23
8741,23
8742,23
8743,23
8744,23
8745,23
8746,23
8747,23
8748,23
8749,23
8750,23
8751,23
8752,23
8753,23
8754,23
8755,23
8756,23
8757,23
8758,23
8759,23
8760,23
8761,23
8762,23
8763,23
8764,23
8765,23
8766,23
8767,23
8768,23
8769,23
8770,23
8771,23
8772,23
8773,23
8774,23
8775,23
8776,23
8777,23
8778,23
8779,23
8780,23
8781,23
8782,23
8783,23
8784,23
8785,23
8786,23
8787,23
8788,23
8789,23
8790,23
8791,23
8792,23
8793,23
8794,23
8795,23
8796,23
8797,23
8798,23
8799,23
8800,23
8801,23
8802,23
8803,23
8804,23
8805,23
8806,23
8807,23
8808,23
8809,23
8810,23
8811,23
8812,23
8813,23
8814,23
8815,23
8816,23
8817,23
8818,23
8819,23
8820,23
8821,23
8822,23
8823,23
8824,23
8825,23
8826,23
8827,23
8828,23
8829,23
8830,23
8831,23
8832,23
8833,23
8834,23
8835,23
8836,23
8837,23
8838,23
8839,23
8840,23
8841,23
8842,23
8843,23
8844,23
8845,23
8846,23
8847,23
8848,23
8849,23
8850,23
8851,23
8852,23
8853,23
8854,23
8855,23
8856,23
8857,23
8858,23
8859,23
8860,23
8861,23
8862,23
8863,23
8864,23
8865,23
8866,23
8867,23
8868,23
8869,23
8870,23
8871,23
8872,23
8873,23
8874,23
8875,23
8876,23
8877,23
8878,23
8879,23
8880,23
8881,23
8882,23
8883,23
8884,23
8885,23
8886,23
8887,23
8888,23
8889,23
8890,23
8891,23
8892,23
8893,23
8894,23
8895,23
8896,23
8897,23
8898,23
8899,23
8900,23
8901,23
8902,23
8903,23
8904,23
8905,23
8906,23
8907,23
8908,23
8909,23
8910,23
8911,23
8912,23
8913,23
8914,23
8915,23
8916,23
8917,23
8918,23
8919,23
8920,23
8921,23
8922,23
8923,23
8924,23
8925,23
8926,23
8927,23
8928,23
8929,23
8930,23
8931,23
8932,23
8933,23
8934,23
8935,23
8936,23
8937,23
8938,23
8939,23
8940,23
8941,23
8942,23
8943,23
8944,23
8945,23
8946,23
8947,23
8948,23
8949,23
8950,23
8951,23
8952,23
8953,23
8954,23
8955,23
8956,23
8957,23
8958,23
8959,23
8960,23
8961,23
8962,23
8963,23
8964,23
8965,23
8966,23
8967,23
8968,23
8969,23
8970,23
8971,23
8972,23
8973,23
8974,24
8975,23
8976,23
8977,23
8978,23
8979,23
8980,23
8981,23
8982,23
8983,23
8984,23
8985,23
8986,23
8987,23
8988,23
8989,23
8990,23
8991,23
8992,23
8993,23
8994,23
8995,23
8996,23
8997,24
8998,23
8999,23
9000,23
9001,23
9002,23
9003,23
9004,23
9005,23
9006,23
9007,23
9008,23
9009,23
9010,23
9011,23
9012,23
9013,23
9014,23
9015,23
9016,23
9017,23
9018,23
9019,23
9020,23
9021,23
9022,23
9023,23
9024,23
9025,23
9026,23
9027,23
9028,23
9029,23
9030,23
9031,23
9032,23
9033,23
9034,23
9035,23
9036,23
9037,23
9038,23
9039,23
9040,23
9041,23
9042,23
9043,23
9044,23
9045,23
9046,23
9047,23
9048,23
9049,23
9050,23
9051,23
9052,23
9053,23
9054,23
9055,23
9056,23
9057,23
9058,23
9059,23
9060,23
9061,23
9062,23
9063,23
9064,23
9065,23
9066,23
9067,23
9068,23
9069,23
9070,23
9071,23
9072,23
9073,23
9074,23
9075,23
9076,23
9077,23
9078,23
9079,23
9080,23
9081,23
9082,23
9083,23
9084,23
9085,23
9086,23
9087,23
9088,23
9089,23
9090,23
9091,23
9092,23
9093,23
9094,23
9095,23
9096,23
9097,23
9098,23
9099,23
9100,23
9101,23
9102,23
9103,23
9104,23
9105,23
9106,23
9107,23
9108,23
9109,23
9110,23
9111,23
9112,23
9113,23
9114,23
9115,23
9116,23
9117,23
9118,23
9119,23
9120,23
9121,23
9122,23
9123,23
9124,23
9125,23
9126,23
9127,23
9128,23
9129,23
9130,23
9131,23
9132,23
9133,23
9134,23
9135,23
9136,23
9137,23
9138,23
9139,23
9140,23
9141,23
9142,23
9143,23
9144,23
9145,23
9146,23
9147,23
9148,23
9149,23
9150,23
9151,23
9152,23
9153,23
9154,23
9155,23
9156,23
9157,23
9158,23
9159,23
9160,23
9161,23
9162,23
9163,23
9164,23
9165,23
9166,23
9167,23
9168,23
9169,23
9170,23
9171,23
9172,23
9173,23
9174,23
9175,23
9176,23
9177,23
9178,23
9179,23
9180,23
9181,23
9182,23
9183,23
9184,23
9185,23
9186,23
9187,23
9188,23
9189,23
9190,23
9191,23
9192,23
9193,23
9194,23
9195,23
9196,23
9197,23
9198,23
9199,23
9200,23
9201,23
9202,23
9203,23
9204,23
9205,23
9206,23
9207,23
9208,23
9209,23
9210,23
9211,23
9212,23
9213,23
9214,23
9215,23
9216,23
9217,23
9218,23
9219,23
9220,23
9221,23
9222,23
9223,23
9224,23
9225,23
9226,23
9227,23
9228,23
9229,23
9230,23
9231,23
9232,23
9233,23
9234,23
9235,23
9236,23
9237,23
9238,23
9239,23
9240,23
9241,23
9242,23
9243,23
9244,23
9245,23
9246,23
9247,23
9248,23
9249,23
9250,23
9251,23
9252,23
9253,23
9254,23
9255,23
9256,23
9257,23
9258,23
9259,23
9260,23
9261,23
9262,23
9263,23
9264,23
9265,23
9266,23
9267,23
9268,23
9269,23
9270,23
9271,23
9272,23
9273,23
9274,23
9275,23
9276,23
9277,23
9278,23
9279,23
9280,23
9281,23
9282,23
9283,23
9284,23
9285,23
9286,23
9287,23
9288,23
9289,23
9290,23
9291,23
9292,23
9293,23
9294,23
9295,23
9296,23
9297,23
9298,23
9299,23
9300,23
9301,23
9302,23
9303,23
9304,23
9305,23
9306,23
9307,23
9308,23
9309,23
9310,23
9311,23
9312,23
9313,23
9314,23
9315,23
9316,23
9317,23
9318,23
9319,23
9320,23
9321,23
9322,23
9323,23
9324,23
9325,23
9326,23
9327,23
9328,23
9329,23
9330,23
9331,23
9332,23
9333,23
9334,23
9335,23
9336,23
9337,23
9338,23
9339,23
9340,23
9341,23
9342,23
9343,23
9344,23
9345,23
9346,23
9347,23
9348,23
9349,23
9350,23
9351,23
9352,23
9353,23
9354,23
9355,23
9356,23
9357,23
9358,23
9359,23
9360,23
9361,23
9362,23
9363,23
9364,23
9365,23
9366,23
9367,23
9368,23
9369,23
9370,23
9371,23
9372,23
9373,23
9374,23
9375,23
9376,23
9377,23
9378,23
9379,23
9380,23
9381,23
9382,23
9383,23
9384,23
9385,23
9386,23
9387,23
9388,23
9389,23
9390,23
9391,23
9392,23
9393,23
9394,23
9395,23
9396,23
9397,23
9398,23
9399,23
9400,23
9401,23
9402,23
9403,23
9404,23
9405,23
9406,23
9407,23
9408,23
9409,23
9410,23
9411,23
9412,23
9413,23
9414,23
9415,23
9416,23
9417,23
9418,23
9419,23
9420,23
9421,23
9422,23
9423,23
9424,23
9425,23
9426,23
9427,23
9428,23
9429,23
9430,23
9431,23
9432,23
9433,23
9434,23
9435,23
9436,23
9437,23
9438,23
9439,23
9440,23
9441,23
9442,23
9443,23
9444,23
9445,23
9446,23
9447,23
9448,23
9449,23
9450,23
9451,23
9452,23
9453,23
9454,23
9455,23
9456,23
9457,23
9458,23
9459,23
9460,23
9461,23
9462,23
9463,23
9464,23
9465,23
9466,23
9467,23
9468,23
9469,23
9470,23
9471,23
9472,23
9473,23
9474,23
9475,23
9476,23
9477,23
9478,23
9479,23
9480,23
9481,23
9482,23
9483,23
9484,23
9485,23
9486,23
9487,23
9488,23
9489,23
9490,23
9491,23
9492,23
9493,23
9494,23
9495,23
9496,23
9497,23
9498,23
9499,23
9500,23
9501,23
9502,23
9503,23
9504,23
9505,23
9506,23
9507,23
9508,23
9509,23
9510,23
9511,23
9512,23
9513,23
9514,23
9515,23
9516,23
9517,23
9518,23
9519,23
9520,23
9521,23
9522,23
9523,23
9524,23
9525,23
9526,23
9527,23
9528,23
9529,23
9530,23
9531,23
9532,23
9533,23
9534,23
9535,23
9536,23
9537,23
9538,23
9539,23
9540,23
9541,23
9542,23
9543,23
9544,23
9545,23
9546,23
9547,23
9548,23
9549,23
9550,23
9551,23
9552,23
9553,23
9554,23
9555,23
9556,23
9557,24
9558,24
9559,24
9560,24
9561,23
9562,23
9563,23
9564,23
9565,23
9566,23
9567,23
9568,23
9569,23
9570,23
9571,23
9572,23
9573,23
9574,23
9575,23
9576,23
9577,23
9578,23
9579,23
9580,23
9581,23
9582,23
9583,23
9584,23
9585,23
9586,23
9587,23
9588,23
9589,23
9590,23
9591,23
9592,23
9593,23
9594,23
9595,23
9596,23
9597,23
9598,23
9599,23
9600,23
9601,23
9602,23
9603,23
9604,23
9605,23
9606,23
9607,23
9608,23
9609,23
9610,23
9611,23
9612,23
9613,23
9614,23
9615,23
9616,23
9617,23
9618,23
9619,23
9620,23
9621,23
9622,23
9623,23
9624,23
9625,23
9626,23
9627,23
9628,23
9629,23
9630,23
9631,23
9632,23
9633,23
9634,23
9635,23
9636,23
9637,23
9638,23
9639,23
9640,23
9641,24
9642,24
9643,24
9644,24
9645,24
9646,24
9647,24
9648,24
9649,24
9650,24
9651,23
9652,23
9653,23
9654,23
9655,23
9656,23
9657,23
9658,23
9659,23
9660,23
9661,23
9662,23
9663,23
9664,23
9665,23
9666,23
9667,23
9668,23
9669,23
9670,23
9671,23
9672,23
9673,23
9674,23
9675,23
9676,23
9677,23
9678,23
9679,23
9680,23
9681,23
9682,23
9683,23
9684,23
9685,23
9686,23
9687,23
9688,23
9689,23
9690,23
9691,23
9692,23
9693,23
9694,23
9695,23
9696,23
9697,23
9698,23
9699,23
9700,23
9701,23
9702,23
9703,23
9704,23
9705,23
9706,23
9707,23
9708,23
9709,23
9710,23
9711,23
9712,23
9713,23
9714,23
9715,23
9716,23
9717,23
9718,23
9719,23
9720,23
9721,23
9722,23
9723,23
9724,23
9725,23
9726,23
9727,23
9728,23
9729,23
9730,23
9731,23
9732,23
9733,23
9734,23
9735,23
9736,23
9737,23
9738,23
9739,23
9740,23
9741,23
9742,23
9743,23
9744,23
9745,23
9746,23
9747,23
9748,23
9749,23
9750,23
9751,23
9752,23
9753,23
9754,23
9755,23
9756,23
9757,23
9758,23
9759,23
9760,23
9761,23
9762,23
9763,23
9764,23
9765,23
9766,23
9767,23
9768,23
9769,23
9770,23
9771,23
9772,23
9773,23
9774,23
9775,23
9776,23
9777,23
9778,23
9779,23
9780,23
9781,23
9782,23
9783,23
9784,23
9785,23
9786,23
9787,23
9788,23
9789,23
9790,23
9791,23
9792,23
9793,23
9794,23
9795,23
9796,23
9797,23
9798,23
9799,23
9800,23
9801,23
9802,23
9803,23
9804,23
9805,23
9806,23
9807,23
9808,23
9809,23
9810,23
9811,23
9812,23
9813,23
9814,23
9815,23
9816,23
9817,23
9818,23
9819,23
9820,23
9821,23
9822,23
9823,23
9824,23
9825,23
9826,23
9827,23
9828,23
9829,23
9830,23
9831,23
9832,23
9833,23
9834,23
9835,23
9836,23
9837,23
9838,23
9839,23
9840,23
9841,23
9842,23
9843,23
9844,23
9845,23
9846,23
9847,23
9848,23
9849,23
9850,23
9851,23
9852,23
9853,23
9854,23
9855,23
9856,23
9857,23
9858,23
9859,23
9860,23
9861,23
9862,23
9863,23
9864,23
9865,23
9866,23
9867,23
9868,23
9869,23
9870,23
9871,23
9872,23
9873,23
9874,23
9875,23
9876,23
9877,23
9878,23
9879,23
9880,23
9881,23
9882,23
9883,23
9884,23
9885,23
9886,23
9887,23
9888,23
9889,23
9890,23
9891,23
9892,23
9893,23
9894,23
9895,23
9896,23
9897,23
9898,23
9899,24
9900,24
9901,24
9902,24
9903,23
9904,23
9905,23
9906,23
9907,23
9908,23
9909,23
9910,23
9911,23
9912,23
9913,23
9914,23
9915,23
9916,23
9917,23
9918,23
9919,24
9920,24
9921,24
9922,24
9923,24
9924,24
9925,24
9926,24
9927,24
9928,24
9929,24
9930,24
9931,24
9932,24
9933,24
9934,24
9935,24
9936,24
9937,24
9938,24
9939,24
9940,24
9941,24
9942,24
9943,24
9944,24
9945,24
9946,24
9947,24
9948,24
9949,24
9950,24
9951,24
9952,25
9953,25
9954,25
9955,25
9956,25
9957,25
9958,25
9959,25
9960,25
9961,25
9962,25
9963,25
9964,25
9965,25
9966,25
9967,25
9968,25
9969,25
9970,25
9971,25
9972,25
9973,25
9974,25
9975,25
9976,25
9977,24
9978,24
9979,24
9980,24
9981,24
9982,24
9983,24
9984,24
9985,25
9986,24
9987,24
9988,24
9989,24
9990,24
9991,24
9992,24
9993,24
9994,24
9995,24
9996,24
9997,24
9998,24
9999,24
10000,24
