1,3
2,3
3,3
4,3
5,3
6,3
7,3
8,3
9,3
10,3
11,3
12,3
13,3
14,3
15,3
16,3
17,3
18,3
19,3
20,3
21,3
22,3
23,3
24,3
25,3
26,3
27,3
28,3
29,3
30,3
31,3
32,3
33,3
34,3
35,3
36,3
37,3
38,3
39,3
40,3
41,3
42,3
43,3
44,3
45,3
46,3
47,3
48,3
49,3
50,3
51,3
52,3
53,3
54,3
55,3
56,3
57,3
58,3
59,3
60,3
61,3
62,3
63,3
64,3
65,3
66,3
67,3
68,3
69,3
70,3
71,3
72,3
73,3
74,3
75,3
76,3
77,3
78,3
79,3
80,3
81,3
82,3
83,3
84,3
85,3
86,3
87,3
88,3
89,3
90,3
91,3
92,3
93,3
94,3
95,3
96,3
97,3
98,3
99,3
100,3
101,3
102,3
103,3
104,3
105,3
106,3
107,3
108,3
109,3
110,3
111,3
112,3
113,3
114,3
115,3
116,3
117,3
118,3
119,3
120,3
121,3
122,3
123,3
124,3
125,3
126,3
127,3
128,3
129,3
130,3
131,3
132,3
133,3
134,3
135,3
136,3
137,3
138,3
139,3
140,3
141,3
142,3
143,3
144,3
145,3
146,3
147,3
148,3
149,3
150,3
151,3
152,3
153,3
154,3
155,3
156,3
157,3
158,3
159,3
160,3
161,3
162,3
163,3
164,3
165,3
166,3
167,3
168,3
169,3
170,3
171,3
172,3
173,3
174,3
175,3
176,3
177,3
178,3
179,3
180,3
181,3
182,3
183,3
184,3
185,3
186,3
187,3
188,3
189,3
190,3
191,3
192,3
193,3
194,3
195,3
196,3
197,3
198,3
199,3
200,3
201,3
202,4
203,4
204,4
205,4
206,4
207,4
208,4
209,4
210,4
211,4
212,4
213,4
214,4
215,4
216,5
217,5
218,5
219,5
220,5
221,5
222,5
223,5
224,5
225,5
226,6
227,6
228,6
229,6
230,6
231,6
232,6
233,6
234,6
235,6
236,6
237,6
238,6
239,6
240,6
241,6
242,6
243,6
244,6
245,6
246,6
247,6
248,6
249,7
250,6
251,6
252,6
253,6
254,6
255,6
256,6
257,6
258,6
259,6
260,6
261,6
262,6
263,6
264,6
265,6
266,6
267,6
268,6
269,6
270,6
271,6
272,6
273,6
274,6
275,6
276,6
277,6
278,6
279,6
280,6
281,6
282,6
283,6
284,6
285,6
286,6
287,6
288,6
289,6
290,6
291,6
292,6
293,6
294,6
295,6
296,6
297,6
298,6
299,7
300,7
301,7
302,7
303,7
304,7
305,7
306,7
307,7
308,7
309,7
310,7
311,7
312,7
313,7
314,7
315,7
316,7
317,7
318,7
319,7
320,7
321,7
322,7
323,7
324,7
325,7
326,7
327,7
328,7
329,7
330,7
331,7
332,7
333,7
334,7
335,7
336,7
337,7
338,7
339,7
340,7
341,7
342,7
343,7
344,7
345,7
346,7
347,7
348,7
349,7
350,7
351,7
352,7
353,7
354,7
355,7
356,7
357,7
358,7
359,7
360,7
361,7
362,7
363,7
364,7
365,7
366,7
367,7
368,7
369,7
370,7
371,7
372,7
373,7
374,7
375,7
376,7
377,7
378,7
379,7
380,7
381,7
382,7
383,7
384,7
385,7
386,7
387,7
388,7
389,7
390,7
391,7
392,7
393,7
394,7
395,7
396,7
397,7
398,7
399,7
400,7
401,7
402,7
403,7
404,7
405,7
406,7
407,7
408,7
409,7
410,7
411,7
412,7
413,7
414,7
415,7
416,7
417,7
418,7
419,7
420,7
421,7
422,7
423,7
424,7
425,7
426,7
427,7
428,7
429,7
430,7
431,7
432,7
433,7
434,7
435,7
436,7
437,7
438,7
439,8
440,7
441,7
442,7
443,7
444,8
445,7
446,7
447,7
448,7
449,7
450,7
451,7
452,7
453,7
454,7
455,7
456,7
457,7
458,7
459,7
460,7
461,7
462,7
463,7
464,7
465,7
466,7
467,7
468,7
469,7
470,7
471,7
472,7
473,7
474,7
475,7
476,7
477,7
478,7
479,7
480,7
481,7
482,7
483,7
484,7
485,7
486,7
487,7
488,7
489,7
490,7
491,7
492,7
493,8
494,8
495,8
496,8
497,8
498,8
499,8
500,8
501,8
502,8
503,8
504,8
505,8
506,8
507,8
508,8
509,9
510,9
511,9
512,9
513,9
514,9
515,9
516,9
517,8
518,8
519,8
520,8
521,8
522,8
523,8
524,8
525,8
526,8
527,8
528,8
529,8
530,9
531,9
532,9
533,8
534,8
535,8
536,8
537,8
538,8
539,8
540,8
541,8
542,8
543,8
544,8
545,8
546,8
547,8
548,8
549,8
550,8
551,8
552,8
553,8
554,8
555,8
556,8
557,8
558,8
559,8
560,8
561,8
562,8
563,8
564,8
565,8
566,8
567,8
568,8
569,8
570,8
571,8
572,8
573,8
574,8
575,8
576,8
577,8
578,8
579,8
580,8
581,8
582,8
583,8
584,8
585,8
586,8
587,8
588,8
589,8
590,8
591,8
592,8
593,8
594,8
595,8
596,8
597,8
598,8
599,8
600,8
601,8
602,8
603,8
604,8
605,8
606,8
607,8
608,8
609,8
610,8
611,8
612,9
613,9
614,9
615,9
616,9
617,8
618,8
619,8
620,8
621,8
622,8
623,8
624,8
625,8
626,8
627,8
628,8
629,8
630,8
631,8
632,8
633,8
634,8
635,8
636,8
637,8
638,8
639,8
640,8
641,8
642,8
643,8
644,8
645,8
646,8
647,8
648,8
649,8
650,8
651,8
652,9
653,9
654,9
655,9
656,8
657,8
658,8
659,8
660,8
661,8
662,8
663,8
664,8
665,9
666,8
667,9
668,9
669,8
670,8
671,8
672,8
673,8
674,8
675,8
676,8
677,8
678,8
679,8
680,8
681,8
682,8
683,8
684,8
685,8
686,8
687,8
688,8
689,8
690,8
691,8
692,8
693,8
694,8
695,8
696,8
697,8
698,8
699,8
700,8
701,8
702,8
703,8
704,8
705,8
706,8
707,8
708,8
709,8
710,8
711,8
712,8
713,8
714,8
715,8
716,8
717,8
718,8
719,8
720,8
721,8
722,8
723,8
724,8
725,8
726,8
727,8
728,8
729,8
730,8
731,8
732,8
733,8
734,8
735,8
736,8
737,8
738,8
739,8
740,8
741,8
742,8
743,8
744,8
745,8
746,8
747,8
748,8
749,8
750,8
751,8
752,8
753,8
754,8
755,8
756,8
757,8
758,8
759,8
760,8
761,8
762,8
763,8
764,8
765,8
766,8
767,8
768,8
769,8
770,8
771,8
772,8
773,8
774,8
775,8
776,8
777,8
778,8
779,8
780,8
781,8
782,8
783,8
784,8
785,8
786,8
787,8
788,8
789,8
790,8
791,8
792,8
793,8
794,8
795,8
796,8
797,8
798,8
799,8
800,8
801,8
802,8
803,8
804,8
805,8
806,8
807,8
808,8
809,8
810,8
811,8
812,8
813,8
814,8
815,8
816,8
817,8
818,8
819,8
820,8
821,8
822,8
823,8
824,8
825,8
826,8
827,8
828,8
829,8
830,8
831,8
832,8
833,8
834,8
835,8
836,8
837,8
838,8
839,8
840,8
841,8
842,8
843,8
844,8
845,8
846,8
847,8
848,8
849,8
850,8
851,8
852,8
853,8
854,8
855,8
856,8
857,8
858,8
859,8
860,8
861,8
862,8
863,8
864,8
865,8
866,8
867,8
868,8
869,8
870,8
871,8
872,8
873,8
874,8
875,8
876,8
877,8
878,8
879,8
880,8
881,8
882,8
883,8
884,8
885,8
886,8
887,8
888,8
889,8
890,8
891,8
892,8
893,8
894,8
895,8
896,8
897,8
898,8
899,8
900,8
901,8
902,8
903,8
904,8
905,8
906,8
907,8
908,8
909,8
910,8
911,8
912,8
913,8
914,8
915,8
916,8
917,8
918,8
919,8
920,8
921,8
922,8
923,8
924,8
925,8
926,8
927,8
928,8
929,8
930,9
931,8
932,8
933,8
934,8
935,8
936,8
937,8
938,8
939,8
940,8
941,8
942,8
943,8
944,8
945,8
946,8
947,8
948,9
949,9
950,8
951,8
952,8
953,8
954,8
955,8
956,8
957,8
958,8
959,8
960,8
961,8
962,8
963,8
964,8
965,8
966,8
967,8
968,8
969,8
970,8
971,8
972,8
973,8
974,8
975,8
976,8
977,8
978,8
979,8
980,8
981,8
982,8
983,8
984,8
985,8
986,8
987,8
988,8
989,8
990,8
991,8
992,8
993,8
994,8
995,8
996,8
997,8
998,8
999,8
1000,8
1001,8
1002,8
1003,8
1004,8
1005,8
1006,8
1007,8
1008,8
1009,8
1010,8
1011,8
1012,8
1013,8
1014,8
1015,8
1016,8
1017,8
1018,8
1019,8
1020,8
1021,8
1022,8
1023,8
1024,8
1025,8
1026,8
1027,8
1028,8
1029,8
1030,8
1031,8
1032,8
1033,8
1034,8
1035,8
1036,8
1037,8
1038,8
1039,8
1040,8
1041,8
1042,8
1043,8
1044,8
1045,8
1046,8
1047,8
1048,8
1049,8
1050,8
1051,8
1052,8
1053,8
1054,8
1055,8
1056,8
1057,8
1058,8
1059,8
1060,8
1061,8
1062,8
1063,8
1064,8
1065,8
1066,8
1067,8
1068,8
1069,8
1070,8
1071,8
1072,8
1073,8
1074,8
1075,8
1076,8
1077,8
1078,8
1079,8
1080,8
1081,8
1082,8
1083,8
1084,8
1085,9
1086,9
1087,9
1088,8
1089,8
1090,8
1091,8
1092,8
1093,8
1094,8
1095,8
1096,8
1097,8
1098,8
1099,8
1100,8
1101,8
1102,8
1103,8
1104,8
1105,8
1106,8
1107,8
1108,8
1109,8
1110,8
1111,8
1112,8
1113,8
1114,8
1115,8
1116,8
1117,8
1118,8
1119,8
1120,8
1121,8
1122,8
1123,8
1124,8
1125,8
1126,8
1127,8
1128,8
1129,8
1130,8
1131,8
1132,8
1133,8
1134,8
1135,8
1136,8
1137,8
1138,8
1139,8
1140,8
1141,8
1142,8
1143,8
1144,8
1145,8
1146,8
1147,8
1148,8
1149,8
1150,8
1151,8
1152,8
1153,8
1154,8
1155,8
1156,8
1157,8
1158,8
1159,8
1160,8
1161,8
1162,8
1163,8
1164,8
1165,8
1166,8
1167,8
1168,8
1169,8
1170,8
1171,8
1172,8
1173,8
1174,8
1175,8
1176,8
1177,8
1178,8
1179,8
1180,8
1181,8
1182,8
1183,8
1184,8
1185,8
1186,9
1187,9
1188,9
1189,9
1190,9
1191,9
1192,8
1193,8
1194,8
1195,8
1196,8
1197,8
1198,8
1199,8
1200,8
1201,8
1202,8
1203,8
1204,8
1205,8
1206,8
1207,8
1208,8
1209,8
1210,8
1211,8
1212,8
1213,8
1214,8
1215,8
1216,8
1217,8
1218,8
1219,8
1220,8
1221,8
1222,8
1223,8
1224,8
1225,8
1226,8
1227,8
1228,8
1229,8
1230,8
1231,8
1232,8
1233,8
1234,8
1235,8
1236,8
1237,8
1238,8
1239,8
1240,8
1241,8
1242,8
1243,8
1244,8
1245,8
1246,8
1247,8
1248,8
1249,8
1250,8
1251,8
1252,8
1253,8
1254,8
1255,8
1256,8
1257,8
1258,8
1259,8
1260,8
1261,9
1262,8
1263,8
1264,8
1265,8
1266,8
1267,9
1268,9
1269,9
1270,9
1271,9
1272,9
1273,9
1274,9
1275,9
1276,8
1277,8
1278,8
1279,8
1280,8
1281,8
1282,8
1283,8
1284,8
1285,8
1286,8
1287,8
1288,8
1289,8
1290,8
1291,8
1292,8
1293,8
1294,8
1295,8
1296,8
1297,8
1298,8
1299,8
1300,8
1301,8
1302,8
1303,8
1304,8
1305,8
1306,8
1307,8
1308,8
1309,8
1310,8
1311,8
1312,8
1313,8
1314,8
1315,8
1316,9
1317,8
1318,8
1319,8
1320,8
1321,8
1322,8
1323,8
1324,8
1325,8
1326,8
1327,8
1328,8
1329,8
1330,8
1331,8
1332,8
1333,8
1334,8
1335,8
1336,8
1337,8
1338,8
1339,8
1340,8
1341,8
1342,8
1343,8
1344,8
1345,8
1346,8
1347,8
1348,8
1349,8
1350,8
1351,8
1352,8
1353,8
1354,8
1355,8
1356,8
1357,8
1358,8
1359,8
1360,8
1361,8
1362,8
1363,8
1364,8
1365,8
1366,8
1367,8
1368,8
1369,8
1370,8
1371,8
1372,8
1373,8
1374,8
1375,8
1376,8
1377,8
1378,8
1379,8
1380,8
1381,8
1382,8
1383,8
1384,8
1385,8
1386,8
1387,8
1388,8
1389,8
1390,8
1391,8
1392,8
1393,8
1394,8
1395,8
1396,8
1397,8
1398,8
1399,8
1400,8
1401,8
1402,8
1403,8
1404,8
1405,8
1406,8
1407,8
1408,8
1409,8
1410,8
1411,8
1412,8
1413,8
1414,8
1415,8
1416,8
1417,8
1418,8
1419,8
1420,8
1421,8
1422,8
1423,8
1424,8
1425,8
1426,8
1427,8
1428,8
1429,8
1430,8
1431,8
1432,8
1433,8
1434,8
1435,8
1436,8
1437,8
1438,8
1439,8
1440,8
1441,8
1442,8
1443,8
1444,8
1445,8
1446,8
1447,8
1448,8
1449,8
1450,8
1451,8
1452,8
1453,8
1454,8
1455,8
1456,8
1457,8
1458,8
1459,8
1460,8
1461,8
1462,8
1463,8
1464,8
1465,8
1466,8
1467,8
1468,8
1469,8
1470,8
1471,8
1472,8
1473,8
1474,8
1475,8
1476,8
1477,8
1478,8
1479,8
1480,8
1481,8
1482,8
1483,8
1484,8
1485,8
1486,8
1487,8
1488,8
1489,8
1490,8
1491,8
1492,8
1493,8
1494,8
1495,8
1496,8
1497,8
1498,8
1499,8
1500,8
1501,8
1502,8
1503,8
1504,8
1505,8
1506,8
1507,8
1508,8
1509,8
1510,8
1511,8
1512,8
1513,8
1514,8
1515,8
1516,8
1517,8
1518,8
1519,8
1520,8
1521,8
1522,8
1523,9
1524,8
1525,8
1526,8
1527,8
1528,8
1529,8
1530,8
1531,8
1532,8
1533,8
1534,8
1535,8
1536,8
1537,8
1538,8
1539,8
1540,8
1541,8
1542,8
1543,8
1544,8
1545,8
1546,8
1547,8
1548,8
1549,8
1550,8
1551,8
1552,8
1553,8
1554,8
1555,8
1556,8
1557,8
1558,8
1559,8
1560,8
1561,8
1562,8
1563,8
1564,8
1565,8
1566,8
1567,8
1568,8
1569,8
1570,8
1571,8
1572,8
1573,8
1574,8
1575,8
1576,8
1577,8
1578,8
1579,8
1580,8
1581,8
1582,8
1583,8
1584,8
1585,8
1586,8
1587,8
1588,8
1589,8
1590,8
1591,8
1592,8
1593,8
1594,8
1595,8
1596,8
1597,8
1598,8
1599,8
1600,8
1601,8
1602,8
1603,8
1604,8
1605,8
1606,8
1607,8
1608,8
1609,8
1610,8
1611,8
1612,8
1613,8
1614,8
1615,8
1616,8
1617,8
1618,8
1619,8
1620,8
1621,8
1622,8
1623,8
1624,8
1625,8
1626,8
1627,9
1628,9
1629,9
1630,9
1631,9
1632,9
1633,9
1634,9
1635,9
1636,9
1637,9
1638,9
1639,9
1640,9
1641,9
1642,9
1643,9
1644,9
1645,9
1646,9
1647,9
1648,9
1649,9
1650,9
1651,9
1652,9
1653,9
1654,9
1655,9
1656,9
1657,9
1658,9
1659,9
1660,9
1661,9
1662,9
1663,9
1664,9
1665,9
1666,9
1667,9
1668,9
1669,9
1670,9
1671,9
1672,9
1673,9
1674,10
1675,10
1676,10
1677,10
1678,10
1679,10
1680,10
1681,10
1682,9
1683,9
1684,9
1685,9
1686,9
1687,9
1688,9
1689,9
1690,9
1691,9
1692,9
1693,9
1694,9
1695,9
1696,9
1697,9
1698,9
1699,9
1700,9
1701,9
1702,9
1703,9
1704,9
1705,9
1706,9
1707,9
1708,9
1709,9
1710,9
1711,9
1712,9
1713,9
1714,9
1715,9
1716,9
1717,9
1718,9
1719,9
1720,9
1721,9
1722,9
1723,9
1724,9
1725,9
1726,9
1727,9
1728,9
1729,9
1730,9
1731,9
1732,10
1733,10
1734,10
1735,10
1736,10
1737,10
1738,10
1739,10
1740,10
1741,10
1742,10
1743,10
1744,10
1745,10
1746,10
1747,10
1748,10
1749,10
1750,10
1751,10
1752,10
1753,10
1754,10
1755,10
1756,10
1757,10
1758,10
1759,10
1760,10
1761,10
1762,10
1763,10
1764,10
1765,10
1766,10
1767,10
1768,10
1769,10
1770,10
1771,10
1772,10
1773,10
1774,10
1775,10
1776,10
1777,10
1778,10
1779,10
1780,10
1781,10
1782,10
1783,10
1784,11
1785,10
1786,10
1787,10
1788,10
1789,10
1790,10
1791,10
1792,10
1793,10
1794,10
1795,10
1796,10
1797,10
1798,10
1799,10
1800,10
1801,10
1802,10
1803,10
1804,10
1805,10
1806,10
1807,10
1808,10
1809,10
1810,10
1811,10
1812,10
1813,10
1814,10
1815,10
1816,10
1817,10
1818,10
1819,10
1820,10
1821,10
1822,10
1823,10
1824,11
1825,10
1826,10
1827,10
1828,10
1829,10
1830,10
1831,10
1832,10
1833,10
1834,10
1835,10
1836,10
1837,10
1838,10
1839,10
1840,10
1841,10
1842,10
1843,11
1844,11
1845,11
1846,11
1847,11
1848,11
1849,11
1850,10
1851,10
1852,10
1853,10
1854,10
1855,10
1856,10
1857,10
1858,10
1859,10
1860,10
1861,10
1862,11
1863,10
1864,10
1865,10
1866,10
1867,10
1868,10
1869,10
1870,10
1871,10
1872,10
1873,10
1874,10
1875,10
1876,10
1877,10
1878,10
1879,10
1880,10
1881,10
1882,10
1883,10
1884,10
1885,10
1886,10
1887,10
1888,10
1889,10
1890,10
1891,10
1892,10
1893,10
1894,10
1895,10
1896,10
1897,10
1898,10
1899,10
1900,10
1901,10
1902,10
1903,10
1904,10
1905,10
1906,10
1907,10
1908,10
1909,10
1910,10
1911,10
1912,10
1913,10
1914,10
1915,10
1916,10
1917,10
1918,10
1919,10
1920,10
1921,10
1922,10
1923,10
1924,10
1925,10
1926,10
1927,10
1928,10
1929,10
1930,10
1931,10
1932,10
1933,10
1934,10
1935,10
1936,10
1937,10
1938,10
1939,10
1940,10
1941,10
1942,10
1943,10
1944,10
1945,10
1946,10
1947,10
1948,10
1949,10
1950,10
1951,10
1952,10
1953,10
1954,10
1955,10
1956,10
1957,10
1958,10
1959,10
1960,10
1961,10
1962,10
1963,10
1964,10
1965,10
1966,10
1967,10
1968,10
1969,10
1970,10
1971,10
1972,10
1973,10
1974,10
1975,10
1976,10
1977,10
1978,10
1979,10
1980,10
1981,10
1982,10
1983,10
1984,10
1985,10
1986,10
1987,10
1988,10
1989,10
1990,10
1991,10
1992,10
1993,10
1994,10
1995,10
1996,10
1997,10
1998,10
1999,10
2000,10
2001,10
2002,10
2003,10
2004,10
2005,10
2006,10
2007,10
2008,10
2009,10
2010,10
2011,10
2012,10
2013,10
2014,10
2015,10
2016,10
2017,10
2018,10
2019,10
2020,10
2021,10
2022,10
2023,10
2024,10
2025,10
2026,11
2027,12
2028,12
2029,11
2030,11
2031,11
2032,11
2033,11
2034,11
2035,11
2036,11
2037,11
2038,11
2039,11
2040,11
2041,11
2042,11
2043,11
2044,11
2045,11
2046,11
2047,11
2048,11
2049,11
2050,11
2051,11
2052,11
2053,11
2054,11
2055,11
2056,11
2057,11
2058,11
2059,11
2060,11
2061,11
2062,11
2063,11
2064,11
2065,11
2066,11
2067,11
2068,11
2069,11
2070,11
2071,11
2072,11
2073,11
2074,11
2075,11
2076,11
2077,11
2078,11
2079,11
2080,11
2081,11
2082,11
2083,11
2084,11
2085,11
2086,11
2087,11
2088,11
2089,11
2090,11
2091,11
2092,11
2093,11
2094,11
2095,11
2096,11
2097,11
2098,11
2099,11
2100,11
2101,11
2102,11
2103,11
2104,11
2105,11
2106,11
2107,11
2108,11
2109,11
2110,11
2111,11
2112,11
2113,11
2114,11
2115,11
2116,11
2117,11
2118,11
2119,11
2120,11
2121,11
2122,11
2123,11
2124,11
2125,11
2126,11
2127,11
2128,11
2129,11
2130,11
2131,11
2132,11
2133,11
2134,11
2135,11
2136,11
2137,11
2138,11
2139,11
2140,11
2141,11
2142,11
2143,11
2144,11
2145,11
2146,11
2147,11
2148,11
2149,11
2150,11
2151,11
2152,11
2153,11
2154,11
2155,11
2156,11
2157,11
2158,11
2159,11
2160,11
2161,11
2162,11
2163,11
2164,11
2165,11
2166,11
2167,11
2168,11
2169,11
2170,11
2171,11
2172,11
2173,11
2174,11
2175,11
2176,11
2177,11
2178,11
2179,11
2180,11
2181,11
2182,11
2183,11
2184,11
2185,11
2186,11
2187,11
2188,11
2189,11
2190,11
2191,11
2192,11
2193,11
2194,11
2195,11
2196,11
2197,11
2198,11
2199,11
2200,11
2201,11
2202,11
2203,11
2204,11
2205,11
2206,11
2207,11
2208,11
2209,11
2210,11
2211,11
2212,11
2213,11
2214,11
2215,11
2216,11
2217,11
2218,11
2219,11
2220,11
2221,11
2222,11
2223,11
2224,11
2225,11
2226,11
2227,11
2228,11
2229,11
2230,11
2231,11
2232,11
2233,11
2234,11
2235,11
2236,11
2237,11
2238,11
2239,11
2240,11
2241,11
2242,11
2243,11
2244,11
2245,11
2246,11
2247,11
2248,11
2249,11
2250,11
2251,11
2252,11
2253,11
2254,11
2255,11
2256,11
2257,11
2258,11
2259,11
2260,11
2261,11
2262,11
2263,11
2264,11
2265,11
2266,11
2267,11
2268,13
2269,13
2270,13
2271,12
2272,12
2273,12
2274,12
2275,12
2276,12
2277,12
2278,12
2279,12
2280,12
2281,12
2282,12
2283,12
2284,12
2285,12
2286,12
2287,12
2288,12
2289,12
2290,12
2291,12
2292,11
2293,11
2294,11
2295,11
2296,11
2297,11
2298,11
2299,11
2300,11
2301,11
2302,11
2303,11
2304,11
2305,11
2306,11
2307,11
2308,11
2309,11
2310,11
2311,11
2312,11
2313,11
2314,11
2315,11
2316,11
2317,11
2318,11
2319,11
2320,11
2321,11
2322,11
2323,11
2324,11
2325,11
2326,11
2327,11
2328,11
2329,11
2330,11
2331,11
2332,11
2333,11
2334,11
2335,12
2336,12
2337,12
2338,12
2339,12
2340,12
2341,12
2342,12
2343,13
2344,12
2345,12
2346,12
2347,12
2348,12
2349,12
2350,12
2351,12
2352,12
2353,12
2354,12
2355,12
2356,12
2357,12
2358,12
2359,12
2360,12
2361,12
2362,12
2363,12
2364,12
2365,12
2366,12
2367,12
2368,12
2369,12
2370,12
2371,12
2372,12
2373,12
2374,12
2375,12
2376,12
2377,12
2378,12
2379,12
2380,12
2381,12
2382,12
2383,12
2384,12
2385,12
2386,12
2387,12
2388,12
2389,12
2390,12
2391,12
2392,12
2393,12
2394,12
2395,12
2396,12
2397,12
2398,12
2399,12
2400,12
2401,12
2402,12
2403,12
2404,12
2405,12
2406,12
2407,12
2408,12
2409,12
2410,12
2411,12
2412,12
2413,12
2414,12
2415,12
2416,12
2417,12
2418,12
2419,12
2420,12
2421,12
2422,12
2423,12
2424,13
2425,13
2426,13
2427,13
2428,12
2429,12
2430,13
2431,13
2432,13
2433,13
2434,13
2435,13
2436,13
2437,13
2438,13
2439,13
2440,13
2441,13
2442,13
2443,13
2444,13
2445,13
2446,13
2447,13
2448,13
2449,13
2450,13
2451,13
2452,13
2453,13
2454,13
2455,13
2456,13
2457,13
2458,13
2459,13
2460,13
2461,13
2462,13
2463,13
2464,13
2465,13
2466,13
2467,13
2468,13
2469,13
2470,13
2471,13
2472,13
2473,13
2474,13
2475,13
2476,13
2477,13
2478,13
2479,13
2480,13
2481,13
2482,13
2483,13
2484,13
2485,13
2486,13
2487,13
2488,13
2489,14
2490,13
2491,13
2492,13
2493,13
2494,13
2495,13
2496,13
2497,13
2498,13
2499,13
2500,13
2501,13
2502,13
2503,13
2504,13
2505,13
2506,13
2507,13
2508,13
2509,13
2510,13
2511,13
2512,13
2513,13
2514,13
2515,13
2516,13
2517,13
2518,13
2519,13
2520,13
2521,13
2522,13
2523,13
2524,13
2525,13
2526,13
2527,13
2528,13
2529,13
2530,13
2531,13
2532,13
2533,13
2534,13
2535,13
2536,13
2537,13
2538,13
2539,13
2540,13
2541,13
2542,13
2543,13
2544,13
2545,13
2546,13
2547,13
2548,13
2549,13
2550,13
2551,13
2552,13
2553,13
2554,13
2555,13
2556,13
2557,13
2558,13
2559,13
2560,13
2561,13
2562,13
2563,13
2564,13
2565,13
2566,13
2567,13
2568,13
2569,13
2570,13
2571,13
2572,13
2573,13
2574,13
2575,13
2576,13
2577,13
2578,13
2579,13
2580,13
2581,13
2582,13
2583,13
2584,13
2585,13
2586,13
2587,13
2588,13
2589,13
2590,13
2591,13
2592,13
2593,13
2594,13
2595,13
2596,13
2597,13
2598,13
2599,13
2600,13
2601,13
2602,13
2603,13
2604,13
2605,13
2606,13
2607,13
2608,13
2609,13
2610,13
2611,13
2612,13
2613,13
2614,13
2615,13
2616,13
2617,13
2618,13
2619,13
2620,13
2621,13
2622,13
2623,13
2624,13
2625,13
2626,13
2627,13
2628,13
2629,13
2630,13
2631,13
2632,13
2633,13
2634,13
2635,13
2636,13
2637,13
2638,13
2639,13
2640,13
2641,13
2642,13
2643,13
2644,13
2645,13
2646,13
2647,13
2648,13
2649,13
2650,13
2651,13
2652,13
2653,13
2654,13
2655,13
2656,13
2657,13
2658,13
2659,13
2660,13
2661,13
2662,13
2663,13
2664,13
2665,13
2666,13
2667,13
2668,13
2669,13
2670,13
2671,13
2672,13
2673,13
2674,13
2675,13
2676,13
2677,13
2678,13
2679,13
2680,13
2681,13
2682,13
2683,13
2684,13
2685,13
2686,13
2687,13
2688,13
2689,13
2690,13
2691,13
2692,13
2693,13
2694,13
2695,13
2696,13
2697,13
2698,13
2699,13
2700,13
2701,13
2702,13
2703,13
2704,13
2705,13
2706,13
2707,13
2708,13
2709,13
2710,13
2711,13
2712,13
2713,13
2714,13
2715,13
2716,13
2717,13
2718,13
2719,13
2720,13
2721,13
2722,13
2723,13
2724,13
2725,13
2726,13
2727,13
2728,13
2729,13
2730,13
2731,13
2732,13
2733,13
2734,13
2735,13
2736,13
2737,13
2738,13
2739,13
2740,13
2741,13
2742,13
2743,13
2744,13
2745,13
2746,13
2747,13
2748,13
2749,13
2750,13
2751,13
2752,13
2753,13
2754,13
2755,13
2756,13
2757,13
2758,13
2759,13
2760,13
2761,13
2762,13
2763,13
2764,13
2765,13
2766,13
2767,13
2768,13
2769,13
2770,13
2771,13
2772,13
2773,13
2774,13
2775,13
2776,13
2777,13
2778,13
2779,13
2780,13
2781,13
2782,13
2783,13
2784,13
2785,13
2786,13
2787,13
2788,13
2789,13
2790,13
2791,13
2792,13
2793,13
2794,13
2795,13
2796,13
2797,13
2798,13
2799,13
2800,13
2801,13
2802,13
2803,13
2804,13
2805,13
2806,13
2807,13
2808,13
2809,13
2810,13
2811,13
2812,13
2813,13
2814,13
2815,13
2816,13
2817,13
2818,13
2819,13
2820,13
2821,13
2822,13
2823,13
2824,13
2825,13
2826,13
2827,13
2828,13
2829,14
2830,14
2831,14
2832,14
2833,14
2834,14
2835,14
2836,14
2837,14
2838,14
2839,14
2840,14
2841,14
2842,14
2843,14
2844,14
2845,14
2846,14
2847,14
2848,14
2849,13
2850,13
2851,13
2852,13
2853,13
2854,13
2855,13
2856,13
2857,13
2858,13
2859,13
2860,13
2861,13
2862,13
2863,13
2864,13
2865,13
2866,13
2867,13
2868,13
2869,13
2870,13
2871,13
2872,13
2873,13
2874,13
2875,13
2876,13
2877,13
2878,13
2879,13
2880,13
2881,13
2882,13
2883,13
2884,13
2885,13
2886,13
2887,13
2888,13
2889,13
2890,13
2891,13
2892,13
2893,13
2894,13
2895,13
2896,13
2897,13
2898,13
2899,13
2900,13
2901,13
2902,13
2903,13
2904,13
2905,13
2906,13
2907,13
2908,13
2909,13
2910,13
2911,13
2912,13
2913,13
2914,13
2915,13
2916,13
2917,13
2918,13
2919,13
2920,13
2921,13
2922,13
2923,13
2924,13
2925,13
2926,13
2927,13
2928,13
2929,13
2930,13
2931,13
2932,13
2933,13
2934,13
2935,13
2936,13
2937,13
2938,13
2939,13
2940,13
2941,13
2942,13
2943,13
2944,13
2945,13
2946,13
2947,13
2948,13
2949,13
2950,13
2951,13
2952,13
2953,13
2954,13
2955,13
2956,13
2957,13
2958,13
2959,13
2960,13
2961,13
2962,13
2963,13
2964,13
2965,13
2966,13
2967,13
2968,13
2969,13
2970,13
2971,13
2972,13
2973,13
2974,13
2975,13
2976,13
2977,13
2978,13
2979,13
2980,13
2981,13
2982,13
2983,13
2984,13
2985,13
2986,13
2987,13
2988,13
2989,13
2990,13
2991,13
2992,13
2993,13
2994,13
2995,13
2996,13
2997,13
2998,13
2999,13
3000,13
3001,14
3002,14
3003,14
3004,14
3005,14
3006,14
3007,14
3008,14
3009,14
3010,14
3011,14
3012,14
3013,14
3014,14
3015,14
3016,14
3017,14
3018,14
3019,14
3020,13
3021,13
3022,13
3023,13
3024,13
3025,13
3026,13
3027,13
3028,13
3029,13
3030,13
3031,13
3032,13
3033,13
3034,13
3035,13
3036,13
3037,13
3038,13
3039,13
3040,13
3041,13
3042,13
3043,13
3044,13
3045,13
3046,13
3047,13
3048,13
3049,13
3050,13
3051,13
3052,13
3053,13
3054,13
3055,13
3056,13
3057,13
3058,13
3059,13
3060,13
3061,13
3062,13
3063,13
3064,13
3065,13
3066,14
3067,14
3068,14
3069,14
3070,14
3071,14
3072,14
3073,14
3074,14
3075,14
3076,14
3077,14
3078,14
3079,14
3080,14
3081,14
3082,14
3083,14
3084,14
3085,14
3086,14
3087,14
3088,14
3089,14
3090,14
3091,14
3092,14
3093,14
3094,14
3095,14
3096,14
3097,14
3098,14
3099,14
3100,14
3101,14
3102,14
3103,14
3104,14
3105,14
3106,14
3107,14
3108,14
3109,14
3110,14
3111,14
3112,14
3113,14
3114,14
3115,14
3116,14
3117,14
3118,14
3119,14
3120,14
3121,14
3122,14
3123,14
3124,14
3125,14
3126,14
3127,14
3128,14
3129,14
3130,14
3131,14
3132,14
3133,14
3134,14
3135,14
3136,14
3137,14
3138,14
3139,14
3140,14
3141,14
3142,14
3143,14
3144,14
3145,14
3146,14
3147,14
3148,14
3149,15
3150,14
3151,14
3152,14
3153,14
3154,14
3155,14
3156,14
3157,14
3158,14
3159,14
3160,14
3161,14
3162,14
3163,14
3164,14
3165,14
3166,14
3167,14
3168,14
3169,14
3170,14
3171,14
3172,14
3173,14
3174,14
3175,14
3176,14
3177,14
3178,14
3179,14
3180,14
3181,14
3182,14
3183,14
3184,14
3185,14
3186,14
3187,14
3188,14
3189,14
3190,14
3191,14
3192,14
3193,14
3194,14
3195,14
3196,14
3197,14
3198,14
3199,14
3200,14
3201,14
3202,14
3203,14
3204,14
3205,14
3206,14
3207,14
3208,14
3209,14
3210,14
3211,14
3212,14
3213,14
3214,14
3215,14
3216,14
3217,14
3218,14
3219,14
3220,14
3221,14
3222,14
3223,14
3224,14
3225,14
3226,14
3227,14
3228,14
3229,14
3230,14
3231,14
3232,14
3233,14
3234,14
3235,14
3236,14
3237,14
3238,14
3239,14
3240,14
3241,14
3242,14
3243,14
3244,14
3245,14
3246,14
3247,14
3248,14
3249,14
3250,14
3251,14
3252,14
3253,14
3254,14
3255,14
3256,14
3257,14
3258,14
3259,14
3260,14
3261,14
3262,14
3263,14
3264,14
3265,14
3266,14
3267,14
3268,14
3269,14
3270,14
3271,14
3272,14
3273,14
3274,14
3275,14
3276,14
3277,14
3278,14
3279,14
3280,14
3281,14
3282,14
3283,14
3284,14
3285,14
3286,14
3287,14
3288,14
3289,14
3290,14
3291,15
3292,14
3293,14
3294,14
3295,14
3296,14
3297,14
3298,14
3299,14
3300,14
3301,14
3302,14
3303,14
3304,14
3305,14
3306,14
3307,14
3308,14
3309,14
3310,14
3311,14
3312,14
3313,14
3314,14
3315,14
3316,14
3317,14
3318,14
3319,14
3320,14
3321,14
3322,14
3323,14
3324,14
3325,14
3326,14
3327,14
3328,14
3329,14
3330,14
3331,14
3332,14
3333,14
3334,14
3335,14
3336,14
3337,14
3338,14
3339,14
3340,14
3341,14
3342,14
3343,14
3344,14
3345,14
3346,14
3347,14
3348,14
3349,14
3350,14
3351,14
3352,14
3353,14
3354,14
3355,14
3356,14
3357,14
3358,14
3359,14
3360,14
3361,14
3362,14
3363,14
3364,14
3365,14
3366,14
3367,14
3368,14
3369,14
3370,14
3371,14
3372,14
3373,14
3374,14
3375,14
3376,14
3377,14
3378,14
3379,14
3380,14
3381,14
3382,14
3383,14
3384,14
3385,14
3386,14
3387,14
3388,14
3389,14
3390,14
3391,14
3392,14
3393,14
3394,14
3395,14
3396,14
3397,14
3398,14
3399,14
3400,14
3401,14
3402,14
3403,14
3404,14
3405,14
3406,14
3407,14
3408,14
3409,14
3410,14
3411,14
3412,14
3413,14
3414,14
3415,14
3416,14
3417,14
3418,14
3419,14
3420,14
3421,14
3422,14
3423,14
3424,14
3425,14
3426,14
3427,14
3428,14
3429,14
3430,14
3431,14
3432,14
3433,14
3434,14
3435,14
3436,14
3437,14
3438,14
3439,14
3440,14
3441,14
3442,14
3443,14
3444,14
3445,14
3446,14
3447,14
3448,14
3449,14
3450,14
3451,14
3452,14
3453,14
3454,14
3455,14
3456,14
3457,14
3458,14
3459,14
3460,14
3461,14
3462,14
3463,14
3464,14
3465,14
3466,14
3467,14
3468,14
3469,14
3470,14
3471,14
3472,14
3473,14
3474,14
3475,14
3476,14
3477,14
3478,14
3479,14
3480,14
3481,14
3482,14
3483,14
3484,14
3485,14
3486,14
3487,14
3488,14
3489,14
3490,14
3491,14
3492,14
3493,15
3494,15
3495,15
3496,15
3497,15
3498,15
3499,15
3500,15
3501,15
3502,15
3503,14
3504,14
3505,14
3506,14
3507,14
3508,14
3509,14
3510,14
3511,14
3512,14
3513,14
3514,14
3515,14
3516,14
3517,14
3518,14
3519,14
3520,14
3521,14
3522,14
3523,14
3524,14
3525,14
3526,14
3527,14
3528,14
3529,14
3530,14
3531,14
3532,14
3533,14
3534,14
3535,14
3536,14
3537,14
3538,14
3539,14
3540,14
3541,14
3542,14
3543,14
3544,14
3545,14
3546,14
3547,14
3548,14
3549,14
3550,14
3551,14
3552,14
3553,14
3554,14
3555,14
3556,14
3557,14
3558,14
3559,14
3560,14
3561,14
3562,14
3563,14
3564,14
3565,14
3566,14
3567,14
3568,14
3569,14
3570,14
3571,14
3572,14
3573,14
3574,14
3575,14
3576,14
3577,14
3578,14
3579,14
3580,14
3581,14
3582,14
3583,14
3584,14
3585,14
3586,14
3587,14
3588,14
3589,14
3590,14
3591,14
3592,14
3593,14
3594,14
3595,14
3596,14
3597,14
3598,14
3599,14
3600,14
3601,14
3602,14
3603,14
3604,14
3605,14
3606,14
3607,14
3608,14
3609,14
3610,14
3611,14
3612,14
3613,14
3614,14
3615,14
3616,14
3617,14
3618,14
3619,14
3620,14
3621,14
3622,14
3623,14
3624,15
3625,14
3626,14
3627,14
3628,14
3629,14
3630,14
3631,14
3632,14
3633,14
3634,14
3635,14
3636,14
3637,14
3638,14
3639,14
3640,14
3641,14
3642,14
3643,14
3644,14
3645,14
3646,14
3647,14
3648,14
3649,14
3650,14
3651,14
3652,14
3653,14
3654,14
3655,14
3656,14
3657,14
3658,14
3659,14
3660,14
3661,14
3662,14
3663,14
3664,14
3665,14
3666,14
3667,14
3668,14
3669,14
3670,14
3671,14
3672,14
3673,14
3674,14
3675,14
3676,14
3677,14
3678,14
3679,14
3680,14
3681,14
3682,14
3683,14
3684,14
3685,14
3686,14
3687,14
3688,14
3689,14
3690,14
3691,14
3692,14
3693,14
3694,14
3695,14
3696,14
3697,14
3698,14
3699,14
3700,14
3701,14
3702,14
3703,14
3704,14
3705,14
3706,14
3707,14
3708,14
3709,14
3710,14
3711,14
3712,14
3713,14
3714,14
3715,14
3716,14
3717,14
3718,14
3719,14
3720,14
3721,14
3722,14
3723,14
3724,14
3725,14
3726,14
3727,14
3728,14
3729,14
3730,14
3731,14
3732,14
3733,14
3734,14
3735,14
3736,14
3737,14
3738,14
3739,14
3740,14
3741,14
3742,14
3743,14
3744,14
3745,14
3746,14
3747,14
3748,14
3749,14
3750,14
3751,14
3752,14
3753,14
3754,14
3755,14
3756,14
3757,14
3758,14
3759,14
3760,14
3761,14
3762,14
3763,14
3764,14
3765,14
3766,14
3767,14
3768,14
3769,14
3770,14
3771,14
3772,14
3773,14
3774,14
3775,14
3776,15
3777,14
3778,14
3779,14
3780,14
3781,14
3782,14
3783,14
3784,14
3785,14
3786,14
3787,14
3788,14
3789,14
3790,14
3791,14
3792,14
3793,14
3794,14
3795,14
3796,14
3797,14
3798,14
3799,14
3800,14
3801,14
3802,15
3803,15
3804,14
3805,14
3806,14
3807,14
3808,14
3809,14
3810,15
3811,14
3812,14
3813,14
3814,14
3815,14
3816,14
3817,14
3818,14
3819,14
3820,14
3821,14
3822,14
3823,14
3824,14
3825,14
3826,14
3827,14
3828,14
3829,14
3830,14
3831,14
3832,14
3833,14
3834,14
3835,14
3836,14
3837,14
3838,14
3839,14
3840,14
3841,14
3842,14
3843,14
3844,14
3845,14
3846,14
3847,14
3848,14
3849,14
3850,14
3851,14
3852,14
3853,14
3854,14
3855,14
3856,14
3857,14
3858,14
3859,14
3860,14
3861,14
3862,14
3863,14
3864,14
3865,14
3866,14
3867,14
3868,14
3869,14
3870,14
3871,14
3872,14
3873,14
3874,14
3875,14
3876,14
3877,14
3878,14
3879,14
3880,14
3881,14
3882,14
3883,14
3884,14
3885,14
3886,14
3887,14
3888,14
3889,14
3890,14
3891,14
3892,14
3893,14
3894,14
3895,14
3896,14
3897,14
3898,14
3899,14
3900,14
3901,14
3902,14
3903,14
3904,14
3905,14
3906,14
3907,14
3908,14
3909,14
3910,14
3911,14
3912,14
3913,14
3914,14
3915,14
3916,14
3917,14
3918,14
3919,14
3920,14
3921,14
3922,14
3923,14
3924,14
3925,14
3926,14
3927,14
3928,14
3929,14
3930,14
3931,14
3932,14
3933,14
3934,14
3935,14
3936,14
3937,14
3938,14
3939,14
3940,14
3941,14
3942,14
3943,14
3944,14
3945,14
3946,14
3947,14
3948,14
3949,14
3950,14
3951,14
3952,14
3953,14
3954,14
3955,14
3956,14
3957,14
3958,14
3959,14
3960,14
3961,14
3962,14
3963,14
3964,14
3965,14
3966,14
3967,14
3968,14
3969,14
3970,14
3971,14
3972,14
3973,14
3974,14
3975,14
3976,14
3977,14
3978,14
3979,14
3980,14
3981,14
3982,14
3983,14
3984,14
3985,14
3986,14
3987,14
3988,14
3989,14
3990,14
3991,14
3992,14
3993,14
3994,14
3995,14
3996,14
3997,14
3998,14
3999,14
4000,14
4001,14
4002,14
4003,14
4004,14
4005,14
4006,14
4007,14
4008,14
4009,14
4010,14
4011,14
4012,14
4013,14
4014,14
4015,14
4016,14
4017,14
4018,14
4019,14
4020,14
4021,14
4022,14
4023,14
4024,14
4025,14
4026,14
4027,14
4028,14
4029,14
4030,14
4031,14
4032,14
4033,14
4034,14
4035,14
4036,14
4037,14
4038,14
4039,14
4040,14
4041,14
4042,14
4043,14
4044,14
4045,14
4046,14
4047,14
4048,14
4049,14
4050,14
4051,14
4052,14
4053,14
4054,14
4055,14
4056,14
4057,14
4058,14
4059,14
4060,14
4061,14
4062,14
4063,14
4064,14
4065,14
4066,14
4067,14
4068,14
4069,14
4070,14
4071,14
4072,14
4073,14
4074,14
4075,14
4076,14
4077,14
4078,14
4079,14
4080,14
4081,14
4082,14
4083,14
4084,14
4085,14
4086,14
4087,14
4088,14
4089,14
4090,14
4091,14
4092,14
4093,14
4094,14
4095,14
4096,14
4097,14
4098,14
4099,14
4100,14
4101,15
4102,14
4103,14
4104,14
4105,14
4106,14
4107,14
4108,14
4109,14
4110,14
4111,14
4112,14
4113,14
4114,14
4115,14
4116,14
4117,14
4118,14
4119,14
4120,14
4121,14
4122,14
4123,14
4124,14
4125,14
4126,14
4127,14
4128,14
4129,14
4130,14
4131,14
4132,14
4133,14
4134,14
4135,14
4136,14
4137,14
4138,14
4139,14
4140,14
4141,14
4142,14
4143,14
4144,14
4145,14
4146,14
4147,14
4148,14
4149,14
4150,14
4151,14
4152,14
4153,14
4154,14
4155,14
4156,14
4157,14
4158,14
4159,14
4160,14
4161,14
4162,14
4163,14
4164,14
4165,14
4166,14
4167,14
4168,14
4169,14
4170,14
4171,14
4172,14
4173,14
4174,14
4175,14
4176,14
4177,14
4178,14
4179,14
4180,14
4181,14
4182,14
4183,14
4184,14
4185,14
4186,14
4187,14
4188,14
4189,14
4190,14
4191,14
4192,14
4193,14
4194,14
4195,14
4196,14
4197,14
4198,14
4199,14
4200,14
4201,14
4202,14
4203,14
4204,15
4205,15
4206,15
4207,15
4208,15
4209,15
4210,15
4211,15
4212,14
4213,14
4214,14
4215,14
4216,14
4217,14
4218,14
4219,14
4220,14
4221,14
4222,14
4223,14
4224,14
4225,14
4226,14
4227,14
4228,14
4229,14
4230,14
4231,14
4232,14
4233,14
4234,14
4235,14
4236,14
4237,14
4238,14
4239,14
4240,14
4241,14
4242,14
4243,14
4244,14
4245,14
4246,14
4247,14
4248,14
4249,14
4250,14
4251,14
4252,14
4253,14
4254,14
4255,14
4256,14
4257,14
4258,14
4259,14
4260,14
4261,14
4262,14
4263,14
4264,14
4265,14
4266,14
4267,14
4268,14
4269,14
4270,14
4271,14
4272,14
4273,14
4274,14
4275,14
4276,14
4277,14
4278,14
4279,14
4280,14
4281,14
4282,14
4283,14
4284,14
4285,14
4286,14
4287,14
4288,14
4289,15
4290,14
4291,14
4292,14
4293,14
4294,14
4295,14
4296,14
4297,14
4298,14
4299,14
4300,14
4301,14
4302,14
4303,14
4304,14
4305,14
4306,14
4307,14
4308,14
4309,14
4310,14
4311,14
4312,14
4313,14
4314,14
4315,14
4316,14
4317,14
4318,14
4319,14
4320,14
4321,14
4322,14
4323,14
4324,14
4325,14
4326,14
4327,14
4328,14
4329,14
4330,14
4331,14
4332,14
4333,14
4334,14
4335,14
4336,14
4337,14
4338,14
4339,14
4340,14
4341,14
4342,14
4343,14
4344,14
4345,14
4346,14
4347,14
4348,14
4349,14
4350,14
4351,14
4352,14
4353,14
4354,14
4355,14
4356,14
4357,14
4358,14
4359,14
4360,14
4361,14
4362,14
4363,14
4364,14
4365,14
4366,14
4367,14
4368,14
4369,16
4370,15
4371,15
4372,15
4373,15
4374,15
4375,15
4376,15
4377,15
4378,15
4379,15
4380,15
4381,15
4382,15
4383,15
4384,15
4385,15
4386,15
4387,15
4388,15
4389,15
4390,15
4391,15
4392,15
4393,15
4394,15
4395,15
4396,15
4397,15
4398,15
4399,15
4400,15
4401,15
4402,15
4403,15
4404,15
4405,15
4406,15
4407,15
4408,15
4409,15
4410,15
4411,15
4412,15
4413,15
4414,15
4415,15
4416,15
4417,15
4418,15
4419,15
4420,15
4421,15
4422,15
4423,15
4424,15
4425,15
4426,15
4427,15
4428,15
4429,15
4430,15
4431,15
4432,15
4433,15
4434,15
4435,15
4436,15
4437,15
4438,15
4439,15
4440,15
4441,15
4442,15
4443,15
4444,15
4445,15
4446,15
4447,15
4448,15
4449,15
4450,15
4451,15
4452,15
4453,15
4454,15
4455,15
4456,15
4457,15
4458,15
4459,15
4460,15
4461,15
4462,15
4463,15
4464,15
4465,15
4466,15
4467,15
4468,15
4469,15
4470,15
4471,15
4472,15
4473,15
4474,15
4475,15
4476,15
4477,15
4478,15
4479,15
4480,15
4481,15
4482,15
4483,15
4484,15
4485,15
4486,15
4487,15
4488,15
4489,15
4490,15
4491,15
4492,15
4493,15
4494,15
4495,15
4496,15
4497,15
4498,15
4499,15
4500,15
4501,15
4502,15
4503,15
4504,15
4505,15
4506,15
4507,15
4508,15
4509,15
4510,15
4511,15
4512,15
4513,16
4514,15
4515,15
4516,15
4517,15
4518,15
4519,15
4520,15
4521,15
4522,15
4523,15
4524,15
4525,15
4526,15
4527,15
4528,15
4529,15
4530,15
4531,15
4532,15
4533,15
4534,15
4535,15
4536,15
4537,15
4538,15
4539,15
4540,15
4541,15
4542,15
4543,15
4544,15
4545,15
4546,15
4547,15
4548,15
4549,15
4550,15
4551,15
4552,15
4553,15
4554,15
4555,15
4556,15
4557,15
4558,15
4559,15
4560,15
4561,15
4562,16
4563,15
4564,15
4565,15
4566,15
4567,15
4568,15
4569,15
4570,15
4571,15
4572,15
4573,15
4574,15
4575,15
4576,15
4577,15
4578,15
4579,15
4580,15
4581,15
4582,15
4583,15
4584,15
4585,15
4586,15
4587,15
4588,15
4589,15
4590,15
4591,15
4592,15
4593,15
4594,15
4595,15
4596,15
4597,15
4598,15
4599,15
4600,15
4601,15
4602,15
4603,15
4604,15
4605,15
4606,15
4607,15
4608,15
4609,15
4610,15
4611,15
4612,15
4613,15
4614,15
4615,15
4616,15
4617,15
4618,15
4619,15
4620,15
4621,15
4622,15
4623,15
4624,15
4625,15
4626,15
4627,15
4628,15
4629,15
4630,15
4631,15
4632,15
4633,15
4634,15
4635,15
4636,15
4637,15
4638,15
4639,15
4640,15
4641,15
4642,15
4643,15
4644,15
4645,15
4646,15
4647,15
4648,15
4649,15
4650,15
4651,15
4652,15
4653,15
4654,15
4655,15
4656,15
4657,15
4658,15
4659,15
4660,15
4661,15
4662,15
4663,15
4664,15
4665,15
4666,15
4667,15
4668,15
4669,15
4670,15
4671,15
4672,15
4673,15
4674,15
4675,15
4676,15
4677,15
4678,15
4679,15
4680,15
4681,15
4682,15
4683,15
4684,15
4685,15
4686,15
4687,15
4688,15
4689,15
4690,15
4691,15
4692,15
4693,15
4694,15
4695,15
4696,15
4697,15
4698,15
4699,15
4700,15
4701,15
4702,15
4703,15
4704,15
4705,15
4706,16
4707,15
4708,15
4709,15
4710,15
4711,15
4712,15
4713,15
4714,15
4715,15
4716,15
4717,15
4718,15
4719,15
4720,15
4721,15
4722,15
4723,15
4724,15
4725,15
4726,15
4727,15
4728,15
4729,15
4730,15
4731,15
4732,15
4733,15
4734,15
4735,15
4736,15
4737,15
4738,15
4739,15
4740,15
4741,15
4742,15
4743,15
4744,15
4745,15
4746,15
4747,15
4748,15
4749,15
4750,15
4751,15
4752,15
4753,15
4754,15
4755,15
4756,15
4757,15
4758,15
4759,15
4760,15
4761,16
4762,15
4763,15
4764,15
4765,15
4766,15
4767,15
4768,15
4769,15
4770,15
4771,15
4772,15
4773,15
4774,15
4775,15
4776,15
4777,15
4778,15
4779,15
4780,15
4781,15
4782,15
4783,15
4784,15
4785,15
4786,15
4787,15
4788,15
4789,15
4790,15
4791,15
4792,15
4793,15
4794,15
4795,15
4796,15
4797,15
4798,15
4799,15
4800,15
4801,15
4802,15
4803,15
4804,15
4805,15
4806,15
4807,15
4808,15
4809,15
4810,15
4811,15
4812,15
4813,15
4814,15
4815,15
4816,15
4817,15
4818,15
4819,15
4820,15
4821,15
4822,15
4823,15
4824,15
4825,15
4826,15
4827,15
4828,15
4829,15
4830,15
4831,15
4832,15
4833,15
4834,15
4835,15
4836,15
4837,15
4838,15
4839,15
4840,15
4841,15
4842,15
4843,15
4844,15
4845,15
4846,15
4847,15
4848,15
4849,15
4850,15
4851,15
4852,15
4853,15
4854,15
4855,15
4856,15
4857,15
4858,15
4859,15
4860,15
4861,15
4862,15
4863,15
4864,15
4865,15
4866,15
4867,15
4868,15
4869,15
4870,15
4871,15
4872,15
4873,15
4874,15
4875,15
4876,15
4877,15
4878,15
4879,15
4880,15
4881,15
4882,15
4883,15
4884,15
4885,15
4886,15
4887,15
4888,15
4889,16
4890,16
4891,16
4892,16
4893,16
4894,15
4895,15
4896,15
4897,15
4898,15
4899,15
4900,15
4901,15
4902,15
4903,15
4904,15
4905,15
4906,15
4907,15
4908,15
4909,15
4910,15
4911,15
4912,15
4913,15
4914,15
4915,15
4916,15
4917,15
4918,15
4919,15
4920,15
4921,15
4922,15
4923,15
4924,15
4925,15
4926,15
4927,15
4928,15
4929,15
4930,15
4931,15
4932,15
4933,15
4934,15
4935,15
4936,15
4937,15
4938,15
4939,15
4940,15
4941,15
4942,15
4943,15
4944,15
4945,15
4946,15
4947,15
4948,15
4949,15
4950,15
4951,15
4952,15
4953,15
4954,15
4955,15
4956,15
4957,15
4958,15
4959,15
4960,15
4961,15
4962,15
4963,15
4964,15
4965,15
4966,15
4967,15
4968,15
4969,15
4970,15
4971,15
4972,15
4973,15
4974,15
4975,15
4976,15
4977,15
4978,15
4979,15
4980,15
4981,15
4982,15
4983,15
4984,15
4985,15
4986,15
4987,15
4988,15
4989,15
4990,15
4991,15
4992,15
4993,15
4994,15
4995,15
4996,15
4997,15
4998,15
4999,15
5000,15
5001,15
5002,15
5003,15
5004,15
5005,15
5006,15
5007,15
5008,15
5009,15
5010,15
5011,15
5012,15
5013,15
5014,15
5015,15
5016,15
5017,15
5018,15
5019,15
5020,15
5021,15
5022,15
5023,15
5024,15
5025,15
5026,15
5027,15
5028,15
5029,15
5030,15
5031,15
5032,15
5033,15
5034,15
5035,15
5036,15
5037,15
5038,15
5039,15
5040,15
5041,15
5042,15
5043,15
5044,15
5045,15
5046,15
5047,15
5048,15
5049,15
5050,15
5051,15
5052,15
5053,15
5054,15
5055,15
5056,15
5057,15
5058,15
5059,15
5060,15
5061,15
5062,15
5063,15
5064,15
5065,15
5066,15
5067,15
5068,15
5069,15
5070,15
5071,15
5072,15
5073,15
5074,15
5075,15
5076,15
5077,15
5078,15
5079,15
5080,15
5081,15
5082,15
5083,15
5084,15
5085,15
5086,15
5087,15
5088,15
5089,15
5090,15
5091,15
5092,15
5093,15
5094,15
5095,15
5096,15
5097,15
5098,15
5099,15
5100,15
5101,15
5102,15
5103,15
5104,15
5105,15
5106,15
5107,15
5108,15
5109,15
5110,15
5111,15
5112,15
5113,16
5114,16
5115,16
5116,16
5117,15
5118,15
5119,16
5120,16
5121,16
5122,16
5123,16
5124,16
5125,16
5126,16
5127,16
5128,15
5129,15
5130,15
5131,15
5132,15
5133,15
5134,15
5135,15
5136,15
5137,15
5138,15
5139,15
5140,15
5141,16
5142,16
5143,16
5144,16
5145,16
5146,16
5147,16
5148,16
5149,16
5150,15
5151,15
5152,16
5153,15
5154,15
5155,15
5156,15
5157,15
5158,15
5159,15
5160,15
5161,15
5162,15
5163,15
5164,15
5165,15
5166,15
5167,15
5168,15
5169,15
5170,15
5171,15
5172,15
5173,15
5174,15
5175,15
5176,16
5177,17
5178,15
5179,15
5180,15
5181,15
5182,15
5183,15
5184,15
5185,15
5186,15
5187,15
5188,15
5189,15
5190,15
5191,15
5192,15
5193,15
5194,15
5195,15
5196,15
5197,15
5198,15
5199,15
5200,15
5201,15
5202,15
5203,15
5204,15
5205,15
5206,15
5207,15
5208,15
5209,15
5210,15
5211,15
5212,15
5213,15
5214,15
5215,15
5216,15
5217,15
5218,15
5219,15
5220,15
5221,15
5222,15
5223,15
5224,15
5225,15
5226,15
5227,15
5228,15
5229,15
5230,15
5231,15
5232,15
5233,15
5234,15
5235,15
5236,15
5237,15
5238,15
5239,15
5240,15
5241,15
5242,15
5243,15
5244,15
5245,15
5246,15
5247,15
5248,15
5249,15
5250,15
5251,15
5252,15
5253,15
5254,15
5255,15
5256,15
5257,15
5258,15
5259,15
5260,15
5261,15
5262,15
5263,15
5264,15
5265,15
5266,15
5267,15
5268,15
5269,15
5270,15
5271,15
5272,15
5273,15
5274,15
5275,15
5276,15
5277,15
5278,15
5279,15
5280,15
5281,15
5282,15
5283,15
5284,15
5285,15
5286,15
5287,15
5288,15
5289,15
5290,15
5291,15
5292,15
5293,15
5294,15
5295,15
5296,15
5297,15
5298,15
5299,15
5300,15
5301,15
5302,15
5303,15
5304,15
5305,15
5306,15
5307,15
5308,15
5309,15
5310,15
5311,15
5312,15
5313,15
5314,15
5315,15
5316,15
5317,15
5318,15
5319,15
5320,15
5321,15
5322,15
5323,15
5324,15
5325,15
5326,15
5327,15
5328,15
5329,15
5330,15
5331,15
5332,15
5333,15
5334,15
5335,15
5336,15
5337,15
5338,15
5339,15
5340,15
5341,15
5342,15
5343,15
5344,15
5345,15
5346,15
5347,15
5348,15
5349,15
5350,15
5351,15
5352,15
5353,15
5354,15
5355,15
5356,16
5357,16
5358,15
5359,15
5360,15
5361,15
5362,15
5363,15
5364,15
5365,15
5366,15
5367,15
5368,15
5369,15
5370,15
5371,15
5372,15
5373,15
5374,15
5375,15
5376,15
5377,15
5378,15
5379,15
5380,15
5381,15
5382,15
5383,15
5384,15
5385,15
5386,15
5387,15
5388,15
5389,15
5390,15
5391,15
5392,15
5393,15
5394,15
5395,15
5396,15
5397,15
5398,15
5399,15
5400,15
5401,15
5402,15
5403,15
5404,15
5405,15
5406,15
5407,15
5408,15
5409,15
5410,15
5411,15
5412,15
5413,15
5414,15
5415,15
5416,15
5417,15
5418,15
5419,15
5420,15
5421,15
5422,15
5423,15
5424,15
5425,15
5426,15
5427,15
5428,15
5429,15
5430,15
5431,15
5432,15
5433,15
5434,15
5435,15
5436,15
5437,15
5438,15
5439,15
5440,15
5441,15
5442,15
5443,15
5444,15
5445,15
5446,15
5447,15
5448,15
5449,15
5450,15
5451,15
5452,15
5453,15
5454,15
5455,15
5456,15
5457,15
5458,15
5459,15
5460,15
5461,15
5462,15
5463,15
5464,15
5465,15
5466,15
5467,15
5468,15
5469,15
5470,15
5471,15
5472,15
5473,15
5474,15
5475,16
5476,16
5477,16
5478,15
5479,15
5480,15
5481,15
5482,15
5483,15
5484,15
5485,15
5486,15
5487,15
5488,15
5489,15
5490,15
5491,15
5492,15
5493,15
5494,15
5495,15
5496,15
5497,15
5498,15
5499,15
5500,15
5501,15
5502,15
5503,15
5504,15
5505,15
5506,15
5507,15
5508,15
5509,15
5510,15
5511,15
5512,15
5513,15
5514,15
5515,15
5516,15
5517,15
5518,15
5519,15
5520,15
5521,15
5522,15
5523,15
5524,15
5525,15
5526,15
5527,15
5528,15
5529,15
5530,15
5531,15
5532,15
5533,15
5534,15
5535,15
5536,15
5537,15
5538,15
5539,15
5540,15
5541,15
5542,15
5543,15
5544,15
5545,15
5546,15
5547,15
5548,15
5549,15
5550,15
5551,15
5552,15
5553,15
5554,15
5555,15
5556,15
5557,15
5558,15
5559,15
5560,15
5561,15
5562,15
5563,15
5564,15
5565,15
5566,15
5567,15
5568,15
5569,15
5570,15
5571,15
5572,15
5573,15
5574,15
5575,15
5576,15
5577,15
5578,15
5579,15
5580,15
5581,15
5582,15
5583,15
5584,15
5585,15
5586,15
5587,15
5588,15
5589,15
5590,15
5591,15
5592,15
5593,15
5594,15
5595,15
5596,15
5597,15
5598,15
5599,15
5600,15
5601,15
5602,15
5603,15
5604,15
5605,15
5606,15
5607,15
5608,15
5609,15
5610,15
5611,15
5612,15
5613,15
5614,15
5615,15
5616,15
5617,15
5618,15
5619,15
5620,15
5621,15
5622,15
5623,15
5624,15
5625,15
5626,15
5627,15
5628,15
5629,15
5630,15
5631,15
5632,15
5633,15
5634,15
5635,15
5636,15
5637,15
5638,15
5639,15
5640,15
5641,15
5642,15
5643,15
5644,15
5645,15
5646,15
5647,15
5648,15
5649,15
5650,15
5651,15
5652,15
5653,15
5654,15
5655,15
5656,15
5657,15
5658,15
5659,15
5660,15
5661,15
5662,15
5663,15
5664,15
5665,15
5666,15
5667,15
5668,15
5669,15
5670,15
5671,15
5672,15
5673,15
5674,15
5675,15
5676,15
5677,15
5678,15
5679,15
5680,15
5681,15
5682,15
5683,15
5684,15
5685,15
5686,15
5687,15
5688,15
5689,15
5690,15
5691,15
5692,15
5693,15
5694,15
5695,15
5696,15
5697,15
5698,15
5699,15
5700,15
5701,15
5702,15
5703,15
5704,15
5705,15
5706,15
5707,15
5708,15
5709,15
5710,15
5711,15
5712,15
5713,15
5714,15
5715,15
5716,15
5717,15
5718,15
5719,15
5720,15
5721,15
5722,15
5723,15
5724,15
5725,15
5726,15
5727,15
5728,15
5729,15
5730,15
5731,15
5732,15
5733,15
5734,15
5735,15
5736,15
5737,15
5738,15
5739,15
5740,15
5741,15
5742,15
5743,15
5744,15
5745,15
5746,15
5747,15
5748,15
5749,15
5750,15
5751,15
5752,15
5753,15
5754,15
5755,15
5756,15
5757,15
5758,15
5759,15
5760,15
5761,15
5762,15
5763,15
5764,15
5765,15
5766,15
5767,15
5768,15
5769,16
5770,16
5771,16
5772,16
5773,16
5774,16
5775,16
5776,15
5777,15
5778,15
5779,15
5780,15
5781,15
5782,15
5783,15
5784,15
5785,15
5786,15
5787,15
5788,15
5789,15
5790,15
5791,15
5792,15
5793,15
5794,15
5795,15
5796,15
5797,15
5798,15
5799,15
5800,15
5801,15
5802,15
5803,15
5804,15
5805,15
5806,15
5807,15
5808,15
5809,15
5810,15
5811,15
5812,15
5813,15
5814,15
5815,15
5816,16
5817,16
5818,16
5819,17
5820,17
5821,17
5822,17
5823,16
5824,16
5825,16
5826,16
5827,16
5828,16
5829,15
5830,15
5831,15
5832,15
5833,15
5834,15
5835,15
5836,15
5837,15
5838,15
5839,15
5840,15
5841,15
5842,15
5843,15
5844,15
5845,15
5846,15
5847,16
5848,16
5849,16
5850,16
5851,15
5852,15
5853,15
5854,15
5855,15
5856,15
5857,15
5858,15
5859,15
5860,15
5861,15
5862,15
5863,15
5864,15
5865,15
5866,15
5867,15
5868,15
5869,15
5870,15
5871,15
5872,15
5873,15
5874,15
5875,15
5876,15
5877,15
5878,15
5879,15
5880,15
5881,15
5882,15
5883,15
5884,15
5885,15
5886,15
5887,15
5888,15
5889,15
5890,15
5891,15
5892,15
5893,15
5894,15
5895,15
5896,15
5897,15
5898,15
5899,15
5900,15
5901,15
5902,15
5903,15
5904,15
5905,15
5906,15
5907,15
5908,15
5909,15
5910,15
5911,15
5912,15
5913,15
5914,15
5915,15
5916,15
5917,15
5918,15
5919,15
5920,15
5921,15
5922,15
5923,15
5924,15
5925,15
5926,15
5927,15
5928,17
5929,16
5930,15
5931,15
5932,15
5933,15
5934,15
5935,15
5936,15
5937,15
5938,15
5939,15
5940,15
5941,15
5942,15
5943,15
5944,15
5945,15
5946,15
5947,15
5948,15
5949,15
5950,15
5951,15
5952,15
5953,15
5954,15
5955,15
5956,15
5957,15
5958,15
5959,15
5960,15
5961,15
5962,15
5963,15
5964,15
5965,15
5966,15
5967,15
5968,15
5969,15
5970,15
5971,15
5972,15
5973,15
5974,15
5975,15
5976,15
5977,15
5978,15
5979,15
5980,15
5981,15
5982,15
5983,15
5984,15
5985,15
5986,15
5987,15
5988,15
5989,15
5990,15
5991,15
5992,15
5993,15
5994,15
5995,15
5996,15
5997,15
5998,15
5999,15
6000,15
6001,15
6002,15
6003,15
6004,15
6005,15
6006,15
6007,15
6008,15
6009,15
6010,15
6011,15
6012,15
6013,15
6014,15
6015,15
6016,15
6017,15
6018,15
6019,15
6020,15
6021,15
6022,15
6023,15
6024,15
6025,15
6026,15
6027,15
6028,15
6029,15
6030,15
6031,15
6032,15
6033,15
6034,15
6035,15
6036,15
6037,15
6038,15
6039,15
6040,15
6041,15
6042,15
6043,15
6044,15
6045,15
6046,15
6047,15
6048,15
6049,15
6050,15
6051,15
6052,15
6053,15
6054,15
6055,15
6056,15
6057,15
6058,15
6059,15
6060,15
6061,15
6062,15
6063,15
6064,15
6065,15
6066,16
6067,16
6068,16
6069,15
6070,15
6071,15
6072,15
6073,15
6074,15
6075,15
6076,15
6077,15
6078,15
6079,15
6080,15
6081,15
6082,15
6083,15
6084,15
6085,15
6086,15
6087,15
6088,15
6089,15
6090,15
6091,15
6092,15
6093,15
6094,15
6095,15
6096,15
6097,15
6098,15
6099,16
6100,16
6101,17
6102,17
6103,16
6104,15
6105,15
6106,15
6107,15
6108,15
6109,15
6110,15
6111,16
6112,16
6113,16
6114,16
6115,16
6116,17
6117,17
6118,17
6119,17
6120,15
6121,15
6122,15
6123,15
6124,15
6125,15
6126,15
6127,15
6128,15
6129,15
6130,15
6131,15
6132,15
6133,15
6134,15
6135,15
6136,15
6137,15
6138,15
6139,15
6140,15
6141,15
6142,15
6143,15
6144,15
6145,15
6146,15
6147,15
6148,15
6149,15
6150,15
6151,15
6152,15
6153,15
6154,15
6155,15
6156,15
6157,15
6158,15
6159,15
6160,15
6161,15
6162,15
6163,15
6164,15
6165,15
6166,15
6167,15
6168,15
6169,15
6170,15
6171,15
6172,15
6173,15
6174,15
6175,15
6176,15
6177,15
6178,15
6179,15
6180,15
6181,15
6182,15
6183,15
6184,15
6185,15
6186,15
6187,15
6188,15
6189,15
6190,15
6191,15
6192,15
6193,15
6194,15
6195,15
6196,15
6197,15
6198,15
6199,15
6200,15
6201,15
6202,15
6203,15
6204,15
6205,15
6206,15
6207,15
6208,15
6209,15
6210,15
6211,15
6212,15
6213,15
6214,15
6215,15
6216,15
6217,15
6218,15
6219,15
6220,15
6221,15
6222,15
6223,15
6224,15
6225,15
6226,15
6227,15
6228,15
6229,15
6230,15
6231,15
6232,15
6233,15
6234,15
6235,15
6236,15
6237,15
6238,15
6239,15
6240,15
6241,15
6242,15
6243,15
6244,15
6245,15
6246,15
6247,15
6248,15
6249,15
6250,15
6251,15
6252,15
6253,15
6254,15
6255,15
6256,15
6257,15
6258,15
6259,15
6260,15
6261,15
6262,15
6263,15
6264,15
6265,15
6266,15
6267,15
6268,15
6269,15
6270,15
6271,15
6272,15
6273,15
6274,15
6275,15
6276,15
6277,15
6278,15
6279,15
6280,15
6281,15
6282,15
6283,15
6284,15
6285,15
6286,15
6287,15
6288,15
6289,15
6290,15
6291,15
6292,15
6293,15
6294,15
6295,15
6296,15
6297,15
6298,15
6299,15
6300,15
6301,15
6302,15
6303,15
6304,15
6305,15
6306,15
6307,15
6308,15
6309,15
6310,15
6311,15
6312,15
6313,15
6314,15
6315,15
6316,15
6317,15
6318,15
6319,15
6320,15
6321,15
6322,15
6323,15
6324,15
6325,15
6326,15
6327,15
6328,15
6329,15
6330,15
6331,15
6332,15
6333,15
6334,16
6335,16
6336,16
6337,16
6338,16
6339,16
6340,16
6341,16
6342,16
6343,15
6344,15
6345,15
6346,15
6347,15
6348,15
6349,15
6350,15
6351,15
6352,15
6353,15
6354,15
6355,15
6356,15
6357,15
6358,15
6359,15
6360,15
6361,15
6362,15
6363,15
6364,15
6365,15
6366,15
6367,15
6368,15
6369,15
6370,15
6371,15
6372,15
6373,15
6374,15
6375,15
6376,15
6377,15
6378,15
6379,15
6380,15
6381,15
6382,15
6383,15
6384,15
6385,15
6386,15
6387,15
6388,15
6389,15
6390,15
6391,15
6392,15
6393,15
6394,15
6395,15
6396,15
6397,15
6398,15
6399,15
6400,15
6401,15
6402,15
6403,15
6404,15
6405,15
6406,15
6407,15
6408,15
6409,15
6410,15
6411,15
6412,15
6413,15
6414,15
6415,15
6416,15
6417,15
6418,15
6419,15
6420,15
6421,15
6422,15
6423,15
6424,15
6425,15
6426,15
6427,15
6428,15
6429,15
6430,15
6431,15
6432,15
6433,15
6434,15
6435,15
6436,15
6437,15
6438,15
6439,15
6440,15
6441,15
6442,15
6443,15
6444,15
6445,15
6446,15
6447,15
6448,15
6449,15
6450,15
6451,15
6452,15
6453,15
6454,15
6455,15
6456,15
6457,15
6458,15
6459,15
6460,15
6461,15
6462,15
6463,15
6464,15
6465,15
6466,15
6467,15
6468,15
6469,15
6470,15
6471,15
6472,15
6473,15
6474,15
6475,15
6476,15
6477,15
6478,15
6479,15
6480,15
6481,15
6482,15
6483,15
6484,15
6485,15
6486,15
6487,15
6488,15
6489,15
6490,15
6491,15
6492,15
6493,15
6494,15
6495,15
6496,15
6497,15
6498,15
6499,15
6500,15
6501,15
6502,15
6503,15
6504,15
6505,15
6506,15
6507,15
6508,15
6509,15
6510,15
6511,15
6512,15
6513,15
6514,15
6515,15
6516,15
6517,15
6518,15
6519,15
6520,15
6521,15
6522,15
6523,15
6524,15
6525,15
6526,15
6527,15
6528,15
6529,15
6530,15
6531,15
6532,15
6533,15
6534,15
6535,15
6536,15
6537,15
6538,15
6539,15
6540,15
6541,15
6542,15
6543,15
6544,15
6545,15
6546,15
6547,15
6548,15
6549,15
6550,15
6551,15
6552,15
6553,15
6554,15
6555,15
6556,15
6557,15
6558,15
6559,15
6560,15
6561,15
6562,15
6563,15
6564,15
6565,15
6566,15
6567,15
6568,15
6569,15
6570,15
6571,15
6572,15
6573,15
6574,15
6575,15
6576,15
6577,15
6578,15
6579,15
6580,15
6581,15
6582,15
6583,15
6584,15
6585,15
6586,16
6587,16
6588,16
6589,16
6590,16
6591,16
6592,16
6593,16
6594,16
6595,16
6596,16
6597,16
6598,15
6599,15
6600,15
6601,15
6602,15
6603,15
6604,15
6605,16
6606,16
6607,17
6608,17
6609,16
6610,15
6611,15
6612,15
6613,15
6614,15
6615,15
6616,15
6617,15
6618,15
6619,15
6620,15
6621,15
6622,15
6623,15
6624,15
6625,15
6626,15
6627,15
6628,15
6629,15
6630,15
6631,15
6632,15
6633,15
6634,15
6635,15
6636,15
6637,15
6638,15
6639,15
6640,15
6641,15
6642,15
6643,15
6644,15
6645,15
6646,15
6647,15
6648,15
6649,15
6650,15
6651,15
6652,15
6653,16
6654,16
6655,16
6656,17
6657,16
6658,16
6659,16
6660,16
6661,16
6662,16
6663,16
6664,16
6665,16
6666,16
6667,16
6668,16
6669,16
6670,16
6671,16
6672,16
6673,16
6674,16
6675,16
6676,16
6677,16
6678,16
6679,16
6680,16
6681,16
6682,16
6683,16
6684,16
6685,16
6686,16
6687,16
6688,16
6689,16
6690,16
6691,16
6692,16
6693,16
6694,16
6695,16
6696,16
6697,16
6698,16
6699,16
6700,16
6701,16
6702,16
6703,16
6704,16
6705,16
6706,16
6707,16
6708,16
6709,16
6710,16
6711,17
6712,16
6713,16
6714,16
6715,16
6716,16
6717,16
6718,16
6719,16
6720,16
6721,16
6722,16
6723,16
6724,16
6725,16
6726,16
6727,16
6728,16
6729,16
6730,16
6731,16
6732,16
6733,16
6734,16
6735,16
6736,16
6737,16
6738,16
6739,16
6740,16
6741,16
6742,16
6743,16
6744,16
6745,16
6746,16
6747,16
6748,16
6749,16
6750,16
6751,16
6752,16
6753,16
6754,16
6755,16
6756,16
6757,16
6758,16
6759,16
6760,16
6761,16
6762,16
6763,16
6764,16
6765,16
6766,16
6767,16
6768,16
6769,16
6770,16
6771,16
6772,16
6773,16
6774,16
6775,16
6776,16
6777,16
6778,16
6779,16
6780,16
6781,16
6782,16
6783,16
6784,16
6785,16
6786,16
6787,16
6788,16
6789,16
6790,16
6791,16
6792,16
6793,17
6794,16
6795,16
6796,16
6797,16
6798,16
6799,16
6800,16
6801,16
6802,16
6803,16
6804,16
6805,16
6806,16
6807,16
6808,16
6809,17
6810,17
6811,17
6812,17
6813,17
6814,16
6815,16
6816,16
6817,16
6818,16
6819,16
6820,16
6821,16
6822,16
6823,16
6824,16
6825,16
6826,16
6827,16
6828,16
6829,16
6830,16
6831,16
6832,16
6833,16
6834,16
6835,16
6836,16
6837,16
6838,16
6839,16
6840,16
6841,16
6842,16
6843,16
6844,16
6845,16
6846,16
6847,16
6848,16
6849,16
6850,16
6851,16
6852,16
6853,16
6854,16
6855,16
6856,16
6857,16
6858,16
6859,16
6860,17
6861,16
6862,16
6863,16
6864,16
6865,16
6866,16
6867,16
6868,16
6869,16
6870,16
6871,16
6872,16
6873,16
6874,16
6875,16
6876,16
6877,16
6878,16
6879,16
6880,16
6881,16
6882,16
6883,16
6884,16
6885,16
6886,16
6887,16
6888,16
6889,16
6890,16
6891,16
6892,16
6893,16
6894,16
6895,16
6896,16
6897,16
6898,16
6899,16
6900,16
6901,16
6902,16
6903,16
6904,17
6905,17
6906,17
6907,17
6908,17
6909,17
6910,17
6911,17
6912,16
6913,16
6914,16
6915,16
6916,16
6917,16
6918,16
6919,16
6920,16
6921,16
6922,16
6923,16
6924,16
6925,16
6926,16
6927,16
6928,16
6929,16
6930,16
6931,16
6932,16
6933,16
6934,16
6935,16
6936,16
6937,16
6938,16
6939,16
6940,16
6941,17
6942,17
6943,17
6944,17
6945,17
6946,17
6947,17
6948,17
6949,17
6950,17
6951,17
6952,17
6953,17
6954,17
6955,17
6956,17
6957,17
6958,17
6959,17
6960,17
6961,17
6962,17
6963,17
6964,17
6965,17
6966,17
6967,17
6968,17
6969,17
6970,17
6971,17
6972,17
6973,17
6974,17
6975,17
6976,17
6977,17
6978,17
6979,17
6980,17
6981,17
6982,17
6983,17
6984,17
6985,17
6986,17
6987,17
6988,17
6989,17
6990,17
6991,17
6992,17
6993,17
6994,17
6995,17
6996,17
6997,17
6998,17
6999,17
7000,17
7001,17
7002,17
7003,17
7004,17
7005,17
7006,17
7007,17
7008,17
7009,17
7010,17
7011,17
7012,17
7013,17
7014,17
7015,17
7016,17
7017,17
7018,17
7019,17
7020,17
7021,17
7022,17
7023,17
7024,17
7025,17
7026,17
7027,17
7028,17
7029,17
7030,17
7031,17
7032,17
7033,17
7034,17
7035,17
7036,17
7037,17
7038,17
7039,17
7040,17
7041,17
7042,17
7043,17
7044,17
7045,17
7046,17
7047,17
7048,17
7049,17
7050,17
7051,17
7052,17
7053,17
7054,17
7055,17
7056,17
7057,17
7058,17
7059,17
7060,17
7061,17
7062,17
7063,17
7064,17
7065,17
7066,17
7067,17
7068,17
7069,17
7070,17
7071,17
7072,17
7073,17
7074,17
7075,17
7076,17
7077,17
7078,17
7079,17
7080,17
7081,17
7082,17
7083,17
7084,17
7085,17
7086,17
7087,17
7088,17
7089,17
7090,17
7091,17
7092,17
7093,17
7094,17
7095,17
7096,17
7097,17
7098,17
7099,17
7100,17
7101,18
7102,18
7103,17
7104,17
7105,17
7106,17
7107,17
7108,17
7109,17
7110,17
7111,17
7112,17
7113,17
7114,17
7115,17
7116,17
7117,18
7118,18
7119,18
7120,18
7121,18
7122,17
7123,17
7124,17
7125,17
7126,17
7127,17
7128,17
7129,17
7130,17
7131,17
7132,17
7133,17
7134,17
7135,17
7136,17
7137,17
7138,17
7139,17
7140,17
7141,17
7142,17
7143,17
7144,17
7145,17
7146,17
7147,17
7148,17
7149,17
7150,17
7151,17
7152,17
7153,17
7154,17
7155,17
7156,17
7157,17
7158,17
7159,17
7160,17
7161,17
7162,17
7163,17
7164,17
7165,17
7166,17
7167,17
7168,17
7169,17
7170,17
7171,17
7172,17
7173,17
7174,17
7175,17
7176,17
7177,17
7178,17
7179,17
7180,17
7181,17
7182,17
7183,17
7184,17
7185,17
7186,17
7187,17
7188,17
7189,17
7190,17
7191,17
7192,17
7193,17
7194,17
7195,17
7196,17
7197,17
7198,17
7199,17
7200,17
7201,17
7202,17
7203,17
7204,17
7205,17
7206,17
7207,17
7208,17
7209,17
7210,17
7211,17
7212,17
7213,17
7214,17
7215,17
7216,17
7217,17
7218,17
7219,17
7220,17
7221,17
7222,17
7223,17
7224,17
7225,17
7226,17
7227,17
7228,17
7229,17
7230,17
7231,17
7232,17
7233,17
7234,17
7235,17
7236,17
7237,17
7238,17
7239,17
7240,17
7241,17
7242,18
7243,18
7244,18
7245,17
7246,17
7247,17
7248,17
7249,17
7250,17
7251,17
7252,17
7253,17
7254,17
7255,17
7256,17
7257,17
7258,17
7259,17
7260,17
7261,18
7262,18
7263,18
7264,18
7265,18
7266,18
7267,18
7268,19
7269,18
7270,18
7271,18
7272,18
7273,18
7274,18
7275,18
7276,18
7277,18
7278,18
7279,18
7280,18
7281,18
7282,18
7283,18
7284,18
7285,18
7286,18
7287,18
7288,18
7289,18
7290,18
7291,18
7292,18
7293,18
7294,18
7295,18
7296,18
7297,18
7298,18
7299,18
7300,18
7301,18
7302,18
7303,18
7304,18
7305,18
7306,18
7307,18
7308,18
7309,17
7310,17
7311,17
7312,17
7313,17
7314,17
7315,17
7316,17
7317,17
7318,17
7319,17
7320,17
7321,17
7322,17
7323,17
7324,17
7325,17
7326,17
7327,17
7328,17
7329,17
7330,17
7331,17
7332,17
7333,17
7334,17
7335,17
7336,17
7337,17
7338,17
7339,17
7340,17
7341,17
7342,17
7343,17
7344,17
7345,17
7346,17
7347,17
7348,17
7349,17
7350,17
7351,17
7352,17
7353,17
7354,17
7355,17
7356,17
7357,17
7358,17
7359,17
7360,17
7361,17
7362,17
7363,17
7364,17
7365,17
7366,17
7367,17
7368,17
7369,17
7370,17
7371,17
7372,17
7373,17
7374,17
7375,17
7376,17
7377,17
7378,17
7379,17
7380,17
7381,17
7382,17
7383,17
7384,17
7385,17
7386,17
7387,17
7388,17
7389,17
7390,17
7391,17
7392,17
7393,17
7394,17
7395,17
7396,17
7397,17
7398,17
7399,17
7400,17
7401,17
7402,17
7403,17
7404,17
7405,17
7406,17
7407,17
7408,17
7409,17
7410,17
7411,17
7412,17
7413,17
7414,17
7415,17
7416,17
7417,17
7418,17
7419,17
7420,17
7421,17
7422,17
7423,17
7424,17
7425,17
7426,17
7427,17
7428,17
7429,17
7430,17
7431,17
7432,17
7433,17
7434,17
7435,17
7436,17
7437,17
7438,17
7439,17
7440,17
7441,17
7442,17
7443,17
7444,17
7445,17
7446,17
7447,17
7448,17
7449,17
7450,17
7451,17
7452,17
7453,17
7454,17
7455,17
7456,17
7457,17
7458,17
7459,17
7460,17
7461,17
7462,17
7463,17
7464,17
7465,17
7466,17
7467,17
7468,17
7469,17
7470,17
7471,17
7472,17
7473,17
7474,17
7475,17
7476,17
7477,17
7478,17
7479,17
7480,17
7481,17
7482,17
7483,17
7484,17
7485,17
7486,17
7487,17
7488,17
7489,17
7490,17
7491,17
7492,17
7493,17
7494,17
7495,17
7496,17
7497,17
7498,17
7499,17
7500,17
7501,17
7502,17
7503,17
7504,17
7505,17
7506,17
7507,17
7508,17
7509,17
7510,17
7511,17
7512,17
7513,17
7514,17
7515,17
7516,17
7517,17
7518,17
7519,17
7520,17
7521,17
7522,17
7523,17
7524,17
7525,17
7526,17
7527,17
7528,17
7529,17
7530,17
7531,17
7532,17
7533,17
7534,17
7535,17
7536,17
7537,17
7538,17
7539,17
7540,17
7541,17
7542,17
7543,17
7544,17
7545,17
7546,17
7547,17
7548,17
7549,17
7550,17
7551,17
7552,17
7553,17
7554,17
7555,17
7556,17
7557,17
7558,17
7559,17
7560,17
7561,17
7562,17
7563,17
7564,17
7565,17
7566,17
7567,17
7568,17
7569,17
7570,17
7571,17
7572,17
7573,17
7574,17
7575,17
7576,17
7577,17
7578,17
7579,17
7580,17
7581,17
7582,17
7583,17
7584,17
7585,17
7586,17
7587,17
7588,17
7589,17
7590,17
7591,17
7592,17
7593,17
7594,17
7595,17
7596,17
7597,17
7598,17
7599,17
7600,17
7601,17
7602,17
7603,17
7604,17
7605,17
7606,17
7607,17
7608,17
7609,17
7610,17
7611,17
7612,17
7613,17
7614,17
7615,17
7616,18
7617,17
7618,17
7619,17
7620,17
7621,17
7622,17
7623,17
7624,17
7625,17
7626,17
7627,17
7628,17
7629,17
7630,17
7631,17
7632,17
7633,18
7634,17
7635,17
7636,17
7637,17
7638,17
7639,17
7640,17
7641,17
7642,17
7643,17
7644,17
7645,17
7646,17
7647,17
7648,17
7649,17
7650,17
7651,17
7652,17
7653,17
7654,17
7655,17
7656,17
7657,17
7658,17
7659,17
7660,17
7661,17
7662,17
7663,17
7664,17
7665,17
7666,18
7667,18
7668,17
7669,18
7670,17
7671,17
7672,17
7673,17
7674,17
7675,17
7676,17
7677,17
7678,17
7679,17
7680,17
7681,17
7682,17
7683,17
7684,17
7685,17
7686,17
7687,17
7688,17
7689,17
7690,17
7691,17
7692,17
7693,17
7694,17
7695,17
7696,17
7697,18
7698,18
7699,18
7700,18
7701,18
7702,18
7703,18
7704,18
7705,18
7706,18
7707,18
7708,18
7709,18
7710,18
7711,18
7712,19
7713,19
7714,18
7715,18
7716,18
7717,18
7718,18
7719,18
7720,18
7721,18
7722,18
7723,18
7724,18
7725,18
7726,18
7727,18
7728,18
7729,18
7730,18
7731,18
7732,18
7733,18
7734,18
7735,18
7736,18
7737,18
7738,18
7739,18
7740,18
7741,18
7742,18
7743,18
7744,18
7745,18
7746,18
7747,18
7748,18
7749,18
7750,18
7751,18
7752,18
7753,18
7754,18
7755,18
7756,18
7757,19
7758,19
7759,19
7760,19
7761,19
7762,19
7763,18
7764,18
7765,18
7766,18
7767,18
7768,18
7769,18
7770,18
7771,18
7772,18
7773,18
7774,18
7775,19
7776,18
7777,18
7778,18
7779,18
7780,18
7781,18
7782,18
7783,18
7784,18
7785,18
7786,18
7787,18
7788,18
7789,18
7790,18
7791,18
7792,18
7793,18
7794,18
7795,18
7796,18
7797,18
7798,18
7799,18
7800,18
7801,18
7802,18
7803,18
7804,18
7805,18
7806,18
7807,18
7808,18
7809,18
7810,18
7811,18
7812,18
7813,18
7814,18
7815,18
7816,18
7817,18
7818,18
7819,18
7820,18
7821,18
7822,18
7823,18
7824,18
7825,18
7826,18
7827,18
7828,18
7829,18
7830,18
7831,18
7832,18
7833,18
7834,18
7835,18
7836,18
7837,18
7838,18
7839,18
7840,18
7841,18
7842,18
7843,19
7844,19
7845,19
7846,19
7847,19
7848,19
7849,19
7850,19
7851,19
7852,19
7853,19
7854,19
7855,19
7856,19
7857,19
7858,19
7859,19
7860,19
7861,19
7862,19
7863,19
7864,19
7865,19
7866,19
7867,19
7868,19
7869,19
7870,19
7871,19
7872,19
7873,19
7874,19
7875,19
7876,19
7877,19
7878,19
7879,19
7880,19
7881,19
7882,19
7883,19
7884,19
7885,19
7886,19
7887,19
7888,19
7889,19
7890,19
7891,19
7892,19
7893,19
7894,19
7895,19
7896,19
7897,19
7898,19
7899,19
7900,19
7901,19
7902,19
7903,19
7904,19
7905,19
7906,19
7907,19
7908,19
7909,19
7910,19
7911,19
7912,19
7913,19
7914,19
7915,19
7916,19
7917,19
7918,19
7919,19
7920,19
7921,19
7922,19
7923,19
7924,19
7925,19
7926,19
7927,19
7928,19
7929,19
7930,19
7931,19
7932,19
7933,19
7934,19
7935,19
7936,19
7937,19
7938,19
7939,19
7940,19
7941,19
7942,19
7943,19
7944,19
7945,19
7946,19
7947,19
7948,19
7949,19
7950,19
7951,19
7952,19
7953,19
7954,19
7955,19
7956,19
7957,19
7958,19
7959,19
7960,19
7961,19
7962,19
7963,19
7964,19
7965,19
7966,19
7967,19
7968,19
7969,19
7970,19
7971,19
7972,19
7973,19
7974,19
7975,19
7976,19
7977,19
7978,19
7979,19
7980,19
7981,19
7982,19
7983,19
7984,19
7985,19
7986,19
7987,19
7988,19
7989,19
7990,19
7991,19
7992,19
7993,19
7994,19
7995,19
7996,19
7997,19
7998,19
7999,19
8000,19
8001,19
8002,19
8003,19
8004,19
8005,19
8006,19
8007,19
8008,19
8009,19
8010,19
8011,19
8012,19
8013,19
8014,19
8015,19
8016,19
8017,19
8018,19
8019,19
8020,19
8021,19
8022,19
8023,19
8024,19
8025,19
8026,19
8027,19
8028,19
8029,19
8030,19
8031,19
8032,19
8033,19
8034,19
8035,19
8036,19
8037,19
8038,19
8039,19
8040,19
8041,19
8042,19
8043,19
8044,19
8045,19
8046,19
8047,19
8048,19
8049,19
8050,19
8051,19
8052,19
8053,19
8054,19
8055,19
8056,19
8057,19
8058,19
8059,19
8060,19
8061,19
8062,19
8063,19
8064,19
8065,19
8066,19
8067,19
8068,19
8069,19
8070,19
8071,19
8072,19
8073,19
8074,19
8075,19
8076,19
8077,19
8078,19
8079,19
8080,19
8081,19
8082,19
8083,19
8084,19
8085,19
8086,19
8087,19
8088,19
8089,19
8090,19
8091,19
8092,19
8093,19
8094,19
8095,19
8096,19
8097,19
8098,19
8099,19
8100,19
8101,19
8102,19
8103,19
8104,19
8105,19
8106,19
8107,19
8108,19
8109,19
8110,19
8111,19
8112,19
8113,19
8114,19
8115,19
8116,19
8117,19
8118,19
8119,19
8120,19
8121,19
8122,19
8123,19
8124,19
8125,19
8126,19
8127,19
8128,19
8129,19
8130,19
8131,19
8132,19
8133,19
8134,19
8135,19
8136,19
8137,19
8138,19
8139,19
8140,19
8141,19
8142,19
8143,19
8144,19
8145,19
8146,19
8147,19
8148,19
8149,19
8150,19
8151,19
8152,19
8153,19
8154,19
8155,19
8156,19
8157,19
8158,19
8159,19
8160,19
8161,19
8162,19
8163,19
8164,19
8165,19
8166,19
8167,19
8168,19
8169,19
8170,19
8171,20
8172,19
8173,19
8174,19
8175,19
8176,19
8177,19
8178,19
8179,19
8180,19
8181,19
8182,19
8183,19
8184,19
8185,19
8186,19
8187,19
8188,19
8189,19
8190,19
8191,19
8192,19
8193,19
8194,19
8195,19
8196,19
8197,19
8198,19
8199,19
8200,19
8201,19
8202,19
8203,19
8204,19
8205,19
8206,19
8207,19
8208,19
8209,19
8210,19
8211,19
8212,19
8213,19
8214,19
8215,19
8216,19
8217,19
8218,19
8219,19
8220,19
8221,19
8222,19
8223,19
8224,19
8225,19
8226,19
8227,19
8228,19
8229,19
8230,19
8231,19
8232,19
8233,19
8234,19
8235,19
8236,19
8237,19
8238,19
8239,19
8240,19
8241,19
8242,19
8243,20
8244,20
8245,20
8246,19
8247,19
8248,19
8249,19
8250,19
8251,19
8252,19
8253,19
8254,19
8255,19
8256,19
8257,19
8258,19
8259,19
8260,19
8261,19
8262,19
8263,19
8264,19
8265,19
8266,19
8267,19
8268,19
8269,19
8270,19
8271,19
8272,19
8273,19
8274,19
8275,19
8276,19
8277,19
8278,19
8279,19
8280,19
8281,19
8282,19
8283,19
8284,19
8285,19
8286,19
8287,19
8288,19
8289,19
8290,19
8291,19
8292,19
8293,19
8294,19
8295,19
8296,19
8297,19
8298,19
8299,19
8300,19
8301,19
8302,19
8303,19
8304,19
8305,19
8306,19
8307,19
8308,19
8309,19
8310,19
8311,19
8312,19
8313,19
8314,19
8315,19
8316,19
8317,19
8318,19
8319,19
8320,19
8321,19
8322,19
8323,19
8324,19
8325,19
8326,19
8327,19
8328,19
8329,19
8330,19
8331,19
8332,19
8333,19
8334,19
8335,19
8336,19
8337,19
8338,19
8339,19
8340,19
8341,19
8342,19
8343,19
8344,19
8345,19
8346,19
8347,19
8348,19
8349,19
8350,19
8351,19
8352,19
8353,19
8354,19
8355,19
8356,19
8357,19
8358,19
8359,19
8360,19
8361,19
8362,19
8363,19
8364,19
8365,19
8366,19
8367,19
8368,19
8369,19
8370,19
8371,19
8372,19
8373,19
8374,19
8375,19
8376,19
8377,19
8378,19
8379,19
8380,19
8381,19
8382,19
8383,19
8384,19
8385,19
8386,19
8387,19
8388,19
8389,19
8390,19
8391,19
8392,19
8393,19
8394,19
8395,19
8396,19
8397,19
8398,19
8399,19
8400,19
8401,19
8402,19
8403,19
8404,19
8405,19
8406,19
8407,19
8408,19
8409,19
8410,19
8411,19
8412,19
8413,19
8414,19
8415,19
8416,19
8417,19
8418,19
8419,19
8420,19
8421,19
8422,19
8423,19
8424,19
8425,19
8426,19
8427,19
8428,19
8429,19
8430,19
8431,19
8432,19
8433,19
8434,19
8435,19
8436,19
8437,19
8438,19
8439,19
8440,19
8441,19
8442,19
8443,19
8444,19
8445,19
8446,19
8447,19
8448,19
8449,19
8450,19
8451,19
8452,19
8453,19
8454,19
8455,19
8456,19
8457,19
8458,19
8459,19
8460,19
8461,19
8462,19
8463,19
8464,19
8465,19
8466,19
8467,19
8468,19
8469,19
8470,19
8471,19
8472,19
8473,19
8474,19
8475,19
8476,19
8477,19
8478,19
8479,19
8480,19
8481,19
8482,19
8483,19
8484,19
8485,19
8486,19
8487,19
8488,19
8489,19
8490,19
8491,19
8492,19
8493,19
8494,19
8495,19
8496,19
8497,19
8498,19
8499,19
8500,19
8501,19
8502,19
8503,19
8504,19
8505,19
8506,19
8507,19
8508,19
8509,19
8510,19
8511,19
8512,19
8513,19
8514,19
8515,19
8516,19
8517,19
8518,19
8519,19
8520,19
8521,19
8522,19
8523,19
8524,19
8525,19
8526,19
8527,19
8528,19
8529,19
8530,19
8531,19
8532,19
8533,19
8534,19
8535,19
8536,19
8537,19
8538,19
8539,19
8540,19
8541,19
8542,19
8543,19
8544,19
8545,19
8546,19
8547,19
8548,19
8549,19
8550,19
8551,19
8552,19
8553,19
8554,19
8555,19
8556,19
8557,19
8558,20
8559,19
8560,19
8561,19
8562,19
8563,19
8564,19
8565,19
8566,19
8567,19
8568,19
8569,19
8570,19
8571,19
8572,19
8573,19
8574,19
8575,19
8576,19
8577,19
8578,19
8579,19
8580,19
8581,19
8582,19
8583,19
8584,19
8585,19
8586,19
8587,19
8588,19
8589,19
8590,19
8591,19
8592,19
8593,19
8594,19
8595,19
8596,19
8597,19
8598,19
8599,19
8600,19
8601,19
8602,19
8603,19
8604,19
8605,19
8606,19
8607,19
8608,19
8609,19
8610,19
8611,19
8612,19
8613,19
8614,19
8615,19
8616,19
8617,19
8618,19
8619,19
8620,19
8621,19
8622,19
8623,19
8624,19
8625,19
8626,19
8627,19
8628,19
8629,19
8630,19
8631,19
8632,19
8633,19
8634,19
8635,19
8636,19
8637,19
8638,19
8639,19
8640,19
8641,19
8642,19
8643,19
8644,19
8645,19
8646,19
8647,19
8648,19
8649,19
8650,19
8651,19
8652,19
8653,19
8654,19
8655,19
8656,19
8657,19
8658,19
8659,19
8660,19
8661,19
8662,19
8663,19
8664,19
8665,19
8666,19
8667,19
8668,19
8669,19
8670,19
8671,19
8672,19
8673,19
8674,19
8675,19
8676,19
8677,19
8678,19
8679,19
8680,19
8681,19
8682,19
8683,19
8684,19
8685,19
8686,19
8687,19
8688,19
8689,19
8690,19
8691,19
8692,19
8693,19
8694,19
8695,19
8696,19
8697,19
8698,19
8699,19
8700,19
8701,19
8702,19
8703,19
8704,19
8705,19
8706,19
8707,19
8708,19
8709,19
8710,19
8711,19
8712,19
8713,19
8714,19
8715,19
8716,19
8717,19
8718,19
8719,19
8720,19
8721,19
8722,19
8723,19
8724,19
8725,19
8726,19
8727,19
8728,19
8729,19
8730,19
8731,19
8732,19
8733,19
8734,19
8735,19
8736,19
8737,19
8738,19
8739,19
8740,19
8741,19
8742,19
8743,19
8744,19
8745,19
8746,19
8747,19
8748,19
8749,19
8750,19
8751,19
8752,19
8753,19
8754,19
8755,19
8756,19
8757,19
8758,19
8759,19
8760,19
8761,19
8762,19
8763,19
8764,19
8765,19
8766,19
8767,19
8768,19
8769,19
8770,19
8771,19
8772,19
8773,19
8774,19
8775,19
8776,19
8777,19
8778,19
8779,19
8780,19
8781,19
8782,19
8783,19
8784,19
8785,19
8786,19
8787,19
8788,19
8789,19
8790,19
8791,19
8792,19
8793,19
8794,19
8795,19
8796,19
8797,19
8798,19
8799,19
8800,19
8801,19
8802,19
8803,19
8804,19
8805,19
8806,19
8807,19
8808,19
8809,19
8810,19
8811,19
8812,19
8813,19
8814,19
8815,19
8816,19
8817,19
8818,19
8819,19
8820,19
8821,19
8822,19
8823,19
8824,19
8825,19
8826,19
8827,19
8828,19
8829,19
8830,19
8831,19
8832,19
8833,19
8834,19
8835,19
8836,19
8837,19
8838,19
8839,19
8840,19
8841,19
8842,19
8843,19
8844,19
8845,19
8846,19
8847,19
8848,19
8849,19
8850,19
8851,19
8852,19
8853,19
8854,19
8855,19
8856,19
8857,19
8858,19
8859,19
8860,19
8861,19
8862,19
8863,19
8864,19
8865,19
8866,19
8867,19
8868,19
8869,19
8870,19
8871,19
8872,19
8873,19
8874,19
8875,19
8876,19
8877,19
8878,19
8879,19
8880,19
8881,19
8882,19
8883,19
8884,19
8885,19
8886,19
8887,19
8888,19
8889,19
8890,19
8891,19
8892,19
8893,19
8894,19
8895,19
8896,19
8897,19
8898,19
8899,19
8900,19
8901,19
8902,19
8903,19
8904,19
8905,19
8906,19
8907,19
8908,19
8909,19
8910,19
8911,19
8912,19
8913,19
8914,19
8915,19
8916,19
8917,19
8918,19
8919,19
8920,19
8921,19
8922,19
8923,19
8924,19
8925,19
8926,19
8927,19
8928,19
8929,19
8930,19
8931,19
8932,19
8933,19
8934,19
8935,19
8936,19
8937,19
8938,19
8939,19
8940,19
8941,19
8942,20
8943,19
8944,19
8945,19
8946,19
8947,19
8948,19
8949,19
8950,19
8951,19
8952,19
8953,19
8954,19
8955,19
8956,19
8957,19
8958,19
8959,19
8960,19
8961,19
8962,19
8963,19
8964,19
8965,19
8966,19
8967,19
8968,19
8969,19
8970,19
8971,19
8972,19
8973,19
8974,19
8975,19
8976,19
8977,19
8978,19
8979,19
8980,19
8981,19
8982,19
8983,19
8984,19
8985,19
8986,19
8987,19
8988,19
8989,19
8990,19
8991,19
8992,19
8993,19
8994,19
8995,19
8996,19
8997,19
8998,19
8999,19
9000,19
9001,19
9002,19
9003,19
9004,19
9005,19
9006,19
9007,19
9008,19
9009,19
9010,19
9011,19
9012,19
9013,19
9014,19
9015,19
9016,19
9017,19
9018,19
9019,19
9020,19
9021,19
9022,19
9023,19
9024,19
9025,19
9026,19
9027,19
9028,19
9029,19
9030,19
9031,19
9032,19
9033,19
9034,19
9035,19
9036,19
9037,19
9038,19
9039,19
9040,19
9041,19
9042,19
9043,19
9044,19
9045,19
9046,19
9047,19
9048,19
9049,19
9050,19
9051,19
9052,19
9053,19
9054,19
9055,19
9056,19
9057,19
9058,19
9059,19
9060,19
9061,19
9062,19
9063,19
9064,19
9065,19
9066,20
9067,19
9068,19
9069,19
9070,19
9071,19
9072,19
9073,19
9074,19
9075,19
9076,19
9077,19
9078,19
9079,19
9080,19
9081,19
9082,19
9083,19
9084,19
9085,19
9086,19
9087,19
9088,19
9089,19
9090,19
9091,19
9092,19
9093,19
9094,19
9095,19
9096,19
9097,19
9098,19
9099,19
9100,19
9101,19
9102,19
9103,19
9104,19
9105,19
9106,19
9107,19
9108,19
9109,19
9110,19
9111,19
9112,19
9113,19
9114,19
9115,19
9116,19
9117,19
9118,19
9119,19
9120,19
9121,19
9122,20
9123,19
9124,19
9125,19
9126,19
9127,19
9128,19
9129,19
9130,19
9131,19
9132,19
9133,19
9134,19
9135,19
9136,19
9137,19
9138,19
9139,19
9140,19
9141,19
9142,19
9143,19
9144,19
9145,19
9146,19
9147,19
9148,19
9149,19
9150,19
9151,19
9152,19
9153,19
9154,19
9155,19
9156,19
9157,19
9158,19
9159,19
9160,19
9161,19
9162,19
9163,19
9164,19
9165,19
9166,19
9167,19
9168,19
9169,19
9170,19
9171,19
9172,19
9173,19
9174,19
9175,19
9176,19
9177,19
9178,19
9179,19
9180,19
9181,19
9182,19
9183,19
9184,19
9185,19
9186,19
9187,19
9188,19
9189,19
9190,19
9191,19
9192,19
9193,19
9194,19
9195,19
9196,19
9197,19
9198,19
9199,19
9200,19
9201,19
9202,19
9203,19
9204,19
9205,19
9206,19
9207,19
9208,19
9209,19
9210,19
9211,19
9212,19
9213,19
9214,20
9215,20
9216,19
9217,19
9218,19
9219,19
9220,19
9221,19
9222,19
9223,19
9224,19
9225,19
9226,19
9227,19
9228,19
9229,19
9230,19
9231,19
9232,19
9233,20
9234,20
9235,20
9236,19
9237,19
9238,19
9239,19
9240,19
9241,19
9242,19
9243,19
9244,19
9245,19
9246,19
9247,19
9248,20
9249,19
9250,19
9251,19
9252,19
9253,19
9254,19
9255,19
9256,19
9257,19
9258,19
9259,19
9260,19
9261,19
9262,19
9263,19
9264,20
9265,19
9266,19
9267,19
9268,19
9269,19
9270,19
9271,19
9272,19
9273,19
9274,19
9275,19
9276,19
9277,19
9278,19
9279,19
9280,19
9281,19
9282,19
9283,19
9284,19
9285,19
9286,19
9287,19
9288,20
9289,19
9290,19
9291,19
9292,19
9293,19
9294,19
9295,19
9296,19
9297,19
9298,19
9299,19
9300,19
9301,19
9302,19
9303,19
9304,19
9305,19
9306,19
9307,19
9308,19
9309,19
9310,19
9311,19
9312,19
9313,19
9314,19
9315,19
9316,19
9317,19
9318,19
9319,19
9320,19
9321,19
9322,19
9323,19
9324,19
9325,19
9326,19
9327,19
9328,19
9329,19
9330,19
9331,19
9332,19
9333,19
9334,19
9335,19
9336,19
9337,19
9338,19
9339,19
9340,19
9341,19
9342,19
9343,19
9344,19
9345,19
9346,19
9347,19
9348,19
9349,19
9350,19
9351,19
9352,19
9353,19
9354,19
9355,19
9356,19
9357,19
9358,19
9359,19
9360,19
9361,19
9362,19
9363,19
9364,19
9365,19
9366,19
9367,19
9368,19
9369,19
9370,19
9371,19
9372,19
9373,19
9374,19
9375,19
9376,19
9377,19
9378,19
9379,19
9380,19
9381,19
9382,19
9383,19
9384,19
9385,19
9386,19
9387,19
9388,19
9389,19
9390,19
9391,19
9392,19
9393,19
9394,19
9395,19
9396,19
9397,19
9398,19
9399,19
9400,19
9401,19
9402,19
9403,19
9404,19
9405,19
9406,19
9407,19
9408,19
9409,19
9410,19
9411,19
9412,19
9413,19
9414,19
9415,19
9416,19
9417,19
9418,19
9419,19
9420,19
9421,19
9422,19
9423,19
9424,19
9425,19
9426,19
9427,19
9428,19
9429,19
9430,19
9431,19
9432,19
9433,19
9434,19
9435,19
9436,19
9437,19
9438,19
9439,19
9440,19
9441,19
9442,19
9443,19
9444,19
9445,19
9446,19
9447,19
9448,19
9449,20
9450,20
9451,20
9452,20
9453,20
9454,20
9455,20
9456,20
9457,20
9458,20
9459,19
9460,19
9461,19
9462,19
9463,19
9464,19
9465,19
9466,19
9467,19
9468,19
9469,19
9470,19
9471,19
9472,19
9473,19
9474,19
9475,19
9476,19
9477,19
9478,19
9479,19
9480,19
9481,20
9482,20
9483,20
9484,20
9485,20
9486,20
9487,20
9488,19
9489,19
9490,19
9491,19
9492,20
9493,19
9494,19
9495,19
9496,19
9497,19
9498,19
9499,19
9500,19
9501,19
9502,19
9503,19
9504,19
9505,19
9506,19
9507,19
9508,19
9509,19
9510,19
9511,19
9512,19
9513,19
9514,19
9515,19
9516,19
9517,19
9518,19
9519,19
9520,19
9521,19
9522,19
9523,19
9524,19
9525,19
9526,19
9527,19
9528,19
9529,19
9530,19
9531,19
9532,19
9533,19
9534,19
9535,19
9536,19
9537,19
9538,19
9539,19
9540,19
9541,19
9542,19
9543,19
9544,19
9545,19
9546,19
9547,19
9548,19
9549,19
9550,19
9551,19
9552,19
9553,19
9554,19
9555,19
9556,19
9557,19
9558,19
9559,19
9560,19
9561,19
9562,19
9563,19
9564,19
9565,19
9566,19
9567,19
9568,19
9569,19
9570,19
9571,19
9572,19
9573,19
9574,19
9575,19
9576,19
9577,19
9578,19
9579,19
9580,19
9581,19
9582,19
9583,19
9584,19
9585,19
9586,19
9587,19
9588,19
9589,19
9590,19
9591,19
9592,19
9593,19
9594,19
9595,19
9596,19
9597,19
9598,19
9599,19
9600,19
9601,19
9602,19
9603,19
9604,19
9605,19
9606,19
9607,19
9608,19
9609,20
9610,20
9611,19
9612,19
9613,19
9614,19
9615,19
9616,19
9617,19
9618,19
9619,19
9620,19
9621,19
9622,19
9623,19
9624,19
9625,19
9626,19
9627,19
9628,19
9629,19
9630,19
9631,19
9632,19
9633,19
9634,19
9635,19
9636,19
9637,19
9638,19
9639,19
9640,19
9641,19
9642,19
9643,19
9644,19
9645,19
9646,19
9647,19
9648,19
9649,19
9650,19
9651,19
9652,19
9653,19
9654,19
9655,19
9656,20
9657,20
9658,20
9659,19
9660,19
9661,19
9662,19
9663,19
9664,19
9665,19
9666,19
9667,19
9668,19
9669,19
9670,19
9671,19
9672,19
9673,19
9674,19
9675,19
9676,19
9677,19
9678,19
9679,19
9680,19
9681,19
9682,19
9683,19
9684,19
9685,19
9686,19
9687,19
9688,19
9689,19
9690,19
9691,20
9692,19
9693,19
9694,19
9695,19
9696,19
9697,19
9698,20
9699,19
9700,19
9701,19
9702,19
9703,19
9704,19
9705,19
9706,19
9707,19
9708,19
9709,19
9710,19
9711,19
9712,19
9713,19
9714,19
9715,19
9716,19
9717,19
9718,19
9719,19
9720,19
9721,19
9722,20
9723,19
9724,19
9725,19
9726,19
9727,19
9728,19
9729,19
9730,19
9731,19
9732,19
9733,19
9734,19
9735,19
9736,19
9737,19
9738,19
9739,19
9740,19
9741,19
9742,19
9743,19
9744,19
9745,19
9746,19
9747,19
9748,19
9749,19
9750,19
9751,19
9752,19
9753,19
9754,19
9755,19
9756,19
9757,19
9758,19
9759,19
9760,19
9761,19
9762,19
9763,19
9764,19
9765,19
9766,19
9767,19
9768,19
9769,19
9770,19
9771,19
9772,19
9773,19
9774,19
9775,19
9776,19
9777,19
9778,19
9779,19
9780,19
9781,19
9782,19
9783,19
9784,19
9785,19
9786,19
9787,19
9788,19
9789,19
9790,19
9791,19
9792,19
9793,19
9794,19
9795,19
9796,19
9797,19
9798,19
9799,19
9800,19
9801,19
9802,19
9803,19
9804,19
9805,19
9806,19
9807,19
9808,19
9809,20
9810,19
9811,19
9812,19
9813,19
9814,19
9815,19
9816,19
9817,19
9818,19
9819,19
9820,19
9821,19
9822,19
9823,19
9824,19
9825,19
9826,19
9827,20
9828,20
9829,19
9830,19
9831,19
9832,19
9833,19
9834,19
9835,19
9836,19
9837,19
9838,19
9839,19
9840,19
9841,19
9842,19
9843,19
9844,19
9845,19
9846,19
9847,19
9848,19
9849,20
9850,19
9851,19
9852,19
9853,19
9854,19
9855,19
9856,19
9857,19
9858,19
9859,19
9860,19
9861,19
9862,19
9863,19
9864,19
9865,19
9866,19
9867,19
9868,19
9869,19
9870,19
9871,19
9872,19
9873,19
9874,19
9875,19
9876,19
9877,19
9878,19
9879,19
9880,19
9881,19
9882,19
9883,19
9884,19
9885,19
9886,19
9887,19
9888,19
9889,19
9890,19
9891,19
9892,19
9893,19
9894,19
9895,19
9896,19
9897,19
9898,19
9899,19
9900,19
9901,19
9902,19
9903,19
9904,19
9905,19
9906,19
9907,19
9908,19
9909,19
9910,19
9911,19
9912,19
9913,19
9914,19
9915,19
9916,19
9917,19
9918,19
9919,19
9920,19
9921,19
9922,19
9923,19
9924,19
9925,19
9926,19
9927,19
9928,19
9929,19
9930,19
9931,19
9932,19
9933,19
9934,19
9935,19
9936,19
9937,19
9938,19
9939,19
9940,19
9941,19
9942,19
9943,19
9944,19
9945,19
9946,19
9947,19
9948,19
9949,19
9950,19
9951,19
9952,19
9953,19
9954,19
9955,19
9956,19
9957,19
9958,19
9959,19
9960,19
9961,19
9962,19
9963,19
9964,19
9965,20
9966,20
9967,20
9968,20
9969,21
9970,21
9971,21
9972,21
9973,20
9974,20
9975,20
9976,20
9977,20
9978,20
9979,20
9980,20
9981,20
9982,20
9983,20
9984,20
9985,20
9986,20
9987,20
9988,20
9989,20
9990,20
9991,20
9992,20
9993,20
9994,20
9995,20
9996,20
9997,20
9998,20
9999,20
10000,20
