1,3
2,3
3,3
4,3
5,3
6,3
7,3
8,3
9,3
10,3
11,3
12,3
13,3
14,3
15,3
16,3
17,3
18,3
19,3
20,3
21,3
22,3
23,3
24,3
25,3
26,3
27,3
28,3
29,3
30,3
31,3
32,3
33,3
34,3
35,3
36,3
37,3
38,3
39,3
40,3
41,3
42,3
43,3
44,3
45,3
46,3
47,3
48,3
49,3
50,3
51,3
52,3
53,3
54,3
55,3
56,3
57,3
58,3
59,3
60,3
61,3
62,3
63,3
64,3
65,3
66,3
67,3
68,3
69,3
70,3
71,3
72,3
73,3
74,3
75,3
76,3
77,3
78,3
79,3
80,3
81,3
82,3
83,3
84,3
85,3
86,3
87,3
88,3
89,3
90,3
91,3
92,3
93,3
94,3
95,3
96,3
97,3
98,3
99,3
100,3
101,3
102,3
103,3
104,3
105,3
106,3
107,3
108,3
109,3
110,3
111,3
112,3
113,3
114,3
115,3
116,3
117,3
118,3
119,3
120,3
121,3
122,3
123,4
124,4
125,4
126,4
127,4
128,4
129,4
130,4
131,4
132,4
133,4
134,4
135,4
136,4
137,4
138,4
139,4
140,4
141,4
142,4
143,4
144,4
145,4
146,4
147,4
148,4
149,4
150,4
151,4
152,4
153,4
154,4
155,4
156,5
157,5
158,5
159,5
160,4
161,4
162,4
163,4
164,4
165,4
166,4
167,4
168,4
169,4
170,4
171,4
172,4
173,4
174,4
175,4
176,4
177,4
178,4
179,4
180,4
181,4
182,4
183,4
184,4
185,4
186,4
187,4
188,4
189,4
190,4
191,4
192,4
193,4
194,4
195,4
196,4
197,4
198,4
199,4
200,4
201,4
202,4
203,4
204,4
205,4
206,4
207,4
208,4
209,4
210,4
211,4
212,4
213,4
214,4
215,4
216,4
217,4
218,4
219,4
220,4
221,4
222,4
223,4
224,4
225,4
226,4
227,4
228,4
229,4
230,4
231,4
232,4
233,4
234,4
235,4
236,4
237,4
238,4
239,4
240,4
241,4
242,4
243,4
244,4
245,4
246,4
247,4
248,4
249,4
250,4
251,4
252,4
253,4
254,4
255,4
256,4
257,4
258,4
259,4
260,4
261,4
262,4
263,4
264,4
265,4
266,4
267,4
268,4
269,4
270,4
271,4
272,4
273,4
274,4
275,4
276,4
277,4
278,4
279,4
280,4
281,4
282,4
283,5
284,5
285,5
286,6
287,6
288,6
289,6
290,6
291,6
292,6
293,6
294,6
295,6
296,6
297,6
298,6
299,6
300,6
301,6
302,6
303,6
304,6
305,6
306,6
307,6
308,6
309,6
310,6
311,6
312,6
313,6
314,6
315,6
316,6
317,6
318,6
319,6
320,6
321,6
322,6
323,6
324,6
325,6
326,6
327,6
328,6
329,6
330,6
331,6
332,6
333,6
334,6
335,6
336,6
337,6
338,6
339,7
340,7
341,7
342,6
343,6
344,6
345,6
346,6
347,6
348,6
349,6
350,7
351,7
352,7
353,7
354,7
355,7
356,7
357,7
358,7
359,7
360,7
361,7
362,7
363,7
364,7
365,7
366,7
367,7
368,7
369,8
370,7
371,7
372,7
373,7
374,7
375,7
376,7
377,7
378,7
379,8
380,7
381,7
382,7
383,7
384,8
385,8
386,8
387,8
388,7
389,7
390,7
391,7
392,7
393,7
394,7
395,7
396,7
397,7
398,8
399,8
400,8
401,8
402,8
403,8
404,8
405,8
406,8
407,8
408,8
409,8
410,8
411,8
412,8
413,8
414,8
415,8
416,8
417,8
418,8
419,8
420,8
421,8
422,8
423,8
424,8
425,8
426,8
427,8
428,8
429,8
430,8
431,8
432,8
433,8
434,8
435,8
436,8
437,8
438,8
439,8
440,8
441,8
442,8
443,8
444,8
445,8
446,8
447,8
448,8
449,8
450,8
451,8
452,8
453,8
454,8
455,8
456,8
457,8
458,8
459,8
460,8
461,8
462,8
463,8
464,8
465,8
466,8
467,8
468,8
469,8
470,8
471,8
472,8
473,8
474,8
475,8
476,8
477,8
478,8
479,8
480,8
481,8
482,8
483,8
484,8
485,8
486,8
487,8
488,8
489,8
490,8
491,8
492,8
493,8
494,8
495,8
496,8
497,8
498,8
499,8
500,8
501,8
502,8
503,8
504,8
505,8
506,8
507,8
508,8
509,8
510,8
511,8
512,8
513,8
514,8
515,8
516,8
517,8
518,8
519,8
520,8
521,8
522,8
523,8
524,8
525,8
526,8
527,8
528,8
529,8
530,8
531,8
532,8
533,8
534,8
535,8
536,8
537,8
538,8
539,8
540,8
541,8
542,8
543,8
544,8
545,8
546,9
547,9
548,9
549,9
550,10
551,10
552,10
553,9
554,9
555,9
556,9
557,9
558,9
559,9
560,9
561,9
562,9
563,9
564,9
565,9
566,9
567,9
568,9
569,9
570,9
571,10
572,10
573,9
574,9
575,9
576,9
577,9
578,9
579,9
580,9
581,9
582,9
583,9
584,9
585,9
586,9
587,9
588,9
589,9
590,9
591,9
592,9
593,9
594,9
595,9
596,9
597,9
598,9
599,9
600,9
601,9
602,9
603,9
604,9
605,9
606,9
607,9
608,9
609,9
610,9
611,9
612,9
613,9
614,9
615,9
616,9
617,9
618,9
619,9
620,9
621,9
622,9
623,9
624,10
625,10
626,10
627,10
628,10
629,10
630,10
631,10
632,10
633,10
634,10
635,10
636,10
637,10
638,10
639,10
640,10
641,10
642,10
643,10
644,10
645,10
646,10
647,10
648,10
649,10
650,10
651,10
652,10
653,10
654,10
655,10
656,10
657,10
658,10
659,10
660,10
661,10
662,10
663,10
664,10
665,10
666,10
667,10
668,10
669,10
670,10
671,10
672,10
673,10
674,11
675,11
676,11
677,11
678,11
679,11
680,11
681,11
682,11
683,11
684,11
685,11
686,11
687,11
688,11
689,10
690,10
691,10
692,10
693,10
694,10
695,10
696,10
697,10
698,10
699,10
700,10
701,10
702,10
703,10
704,10
705,10
706,10
707,10
708,10
709,10
710,10
711,10
712,10
713,10
714,10
715,10
716,10
717,10
718,10
719,10
720,10
721,10
722,10
723,10
724,10
725,10
726,10
727,10
728,10
729,10
730,10
731,10
732,10
733,10
734,10
735,10
736,10
737,10
738,10
739,10
740,10
741,10
742,10
743,10
744,10
745,10
746,10
747,10
748,10
749,10
750,10
751,10
752,10
753,10
754,10
755,10
756,10
757,10
758,10
759,10
760,10
761,10
762,10
763,10
764,10
765,10
766,10
767,10
768,10
769,10
770,10
771,10
772,10
773,10
774,10
775,10
776,10
777,10
778,10
779,10
780,10
781,10
782,10
783,10
784,10
785,10
786,10
787,10
788,10
789,10
790,10
791,10
792,10
793,10
794,10
795,10
796,10
797,10
798,10
799,10
800,10
801,10
802,10
803,10
804,10
805,10
806,10
807,10
808,10
809,10
810,10
811,10
812,10
813,10
814,10
815,10
816,10
817,10
818,10
819,10
820,10
821,10
822,10
823,10
824,10
825,10
826,10
827,10
828,10
829,10
830,10
831,10
832,10
833,10
834,10
835,10
836,10
837,10
838,10
839,10
840,10
841,11
842,11
843,10
844,10
845,10
846,10
847,10
848,10
849,10
850,10
851,10
852,10
853,10
854,10
855,10
856,10
857,10
858,10
859,10
860,10
861,10
862,10
863,10
864,10
865,10
866,10
867,10
868,10
869,10
870,10
871,10
872,10
873,10
874,10
875,10
876,10
877,10
878,10
879,10
880,10
881,10
882,10
883,10
884,10
885,10
886,10
887,10
888,10
889,10
890,10
891,10
892,10
893,10
894,10
895,10
896,10
897,10
898,10
899,10
900,10
901,10
902,10
903,10
904,10
905,10
906,10
907,10
908,10
909,10
910,10
911,10
912,10
913,10
914,10
915,10
916,10
917,10
918,10
919,10
920,10
921,10
922,10
923,10
924,10
925,10
926,10
927,10
928,10
929,10
930,10
931,10
932,10
933,10
934,10
935,10
936,10
937,10
938,10
939,10
940,10
941,10
942,10
943,10
944,10
945,10
946,10
947,10
948,10
949,10
950,10
951,10
952,10
953,10
954,10
955,10
956,10
957,10
958,10
959,10
960,10
961,10
962,10
963,10
964,10
965,10
966,10
967,10
968,10
969,10
970,10
971,10
972,10
973,10
974,10
975,10
976,10
977,10
978,10
979,10
980,10
981,10
982,10
983,10
984,10
985,10
986,10
987,10
988,10
989,10
990,10
991,10
992,10
993,10
994,10
995,10
996,10
997,11
998,11
999,11
1000,11
1001,11
1002,11
1003,10
1004,10
1005,10
1006,10
1007,10
1008,10
1009,10
1010,10
1011,10
1012,10
1013,10
1014,10
1015,10
1016,10
1017,10
1018,10
1019,10
1020,10
1021,10
1022,10
1023,10
1024,10
1025,10
1026,10
1027,10
1028,10
1029,10
1030,10
1031,10
1032,10
1033,10
1034,10
1035,10
1036,10
1037,10
1038,10
1039,10
1040,10
1041,10
1042,10
1043,10
1044,10
1045,10
1046,10
1047,10
1048,10
1049,10
1050,10
1051,10
1052,10
1053,10
1054,10
1055,10
1056,10
1057,10
1058,10
1059,10
1060,10
1061,10
1062,10
1063,10
1064,10
1065,10
1066,10
1067,10
1068,10
1069,10
1070,10
1071,10
1072,10
1073,10
1074,10
1075,10
1076,10
1077,10
1078,10
1079,10
1080,10
1081,10
1082,10
1083,10
1084,10
1085,10
1086,10
1087,10
1088,10
1089,10
1090,10
1091,10
1092,10
1093,10
1094,10
1095,10
1096,10
1097,10
1098,10
1099,10
1100,10
1101,10
1102,10
1103,10
1104,10
1105,10
1106,10
1107,10
1108,11
1109,11
1110,11
1111,11
1112,11
1113,11
1114,11
1115,11
1116,11
1117,11
1118,11
1119,11
1120,11
1121,11
1122,11
1123,11
1124,11
1125,11
1126,11
1127,11
1128,11
1129,11
1130,11
1131,11
1132,11
1133,11
1134,11
1135,11
1136,11
1137,11
1138,11
1139,11
1140,11
1141,11
1142,11
1143,11
1144,11
1145,11
1146,11
1147,11
1148,11
1149,11
1150,11
1151,11
1152,11
1153,11
1154,11
1155,11
1156,11
1157,11
1158,11
1159,11
1160,11
1161,11
1162,11
1163,11
1164,11
1165,11
1166,11
1167,11
1168,11
1169,11
1170,11
1171,11
1172,11
1173,11
1174,11
1175,11
1176,11
1177,11
1178,11
1179,11
1180,11
1181,11
1182,11
1183,11
1184,11
1185,11
1186,11
1187,11
1188,11
1189,11
1190,11
1191,11
1192,11
1193,11
1194,11
1195,11
1196,11
1197,11
1198,11
1199,11
1200,12
1201,12
1202,11
1203,11
1204,11
1205,11
1206,11
1207,11
1208,11
1209,11
1210,11
1211,11
1212,11
1213,11
1214,11
1215,11
1216,11
1217,11
1218,11
1219,11
1220,11
1221,11
1222,11
1223,11
1224,11
1225,11
1226,11
1227,11
1228,11
1229,11
1230,11
1231,11
1232,11
1233,11
1234,11
1235,11
1236,11
1237,11
1238,11
1239,11
1240,11
1241,11
1242,11
1243,11
1244,11
1245,11
1246,11
1247,11
1248,11
1249,11
1250,11
1251,11
1252,11
1253,11
1254,11
1255,11
1256,11
1257,11
1258,11
1259,11
1260,11
1261,11
1262,11
1263,11
1264,11
1265,11
1266,11
1267,11
1268,11
1269,11
1270,11
1271,11
1272,11
1273,11
1274,11
1275,11
1276,11
1277,11
1278,11
1279,11
1280,11
1281,11
1282,11
1283,11
1284,11
1285,11
1286,11
1287,11
1288,11
1289,11
1290,11
1291,11
1292,11
1293,11
1294,11
1295,11
1296,11
1297,11
1298,11
1299,11
1300,11
1301,11
1302,11
1303,11
1304,11
1305,11
1306,11
1307,11
1308,11
1309,11
1310,11
1311,11
1312,11
1313,11
1314,11
1315,11
1316,11
1317,11
1318,11
1319,11
1320,11
1321,11
1322,11
1323,11
1324,11
1325,11
1326,11
1327,11
1328,11
1329,11
1330,11
1331,11
1332,11
1333,11
1334,11
1335,11
1336,11
1337,11
1338,11
1339,11
1340,11
1341,11
1342,11
1343,11
1344,11
1345,11
1346,11
1347,11
1348,11
1349,11
1350,11
1351,11
1352,11
1353,11
1354,11
1355,11
1356,11
1357,11
1358,11
1359,11
1360,11
1361,11
1362,11
1363,11
1364,11
1365,11
1366,11
1367,11
1368,11
1369,11
1370,11
1371,11
1372,11
1373,11
1374,11
1375,11
1376,11
1377,11
1378,11
1379,11
1380,11
1381,11
1382,11
1383,11
1384,11
1385,11
1386,11
1387,11
1388,11
1389,11
1390,11
1391,11
1392,11
1393,11
1394,11
1395,11
1396,11
1397,11
1398,11
1399,11
1400,11
1401,11
1402,11
1403,11
1404,11
1405,11
1406,11
1407,11
1408,11
1409,11
1410,11
1411,11
1412,11
1413,11
1414,11
1415,11
1416,11
1417,11
1418,11
1419,11
1420,11
1421,11
1422,11
1423,11
1424,11
1425,11
1426,11
1427,11
1428,11
1429,11
1430,11
1431,11
1432,11
1433,11
1434,11
1435,11
1436,11
1437,11
1438,11
1439,11
1440,11
1441,11
1442,11
1443,11
1444,11
1445,11
1446,11
1447,11
1448,11
1449,11
1450,11
1451,11
1452,11
1453,11
1454,11
1455,11
1456,11
1457,11
1458,11
1459,11
1460,11
1461,11
1462,11
1463,11
1464,11
1465,11
1466,11
1467,11
1468,11
1469,11
1470,11
1471,11
1472,11
1473,11
1474,11
1475,11
1476,11
1477,11
1478,11
1479,11
1480,11
1481,11
1482,11
1483,11
1484,11
1485,11
1486,11
1487,11
1488,11
1489,11
1490,11
1491,11
1492,11
1493,11
1494,11
1495,11
1496,11
1497,11
1498,11
1499,11
1500,11
1501,11
1502,12
1503,12
1504,12
1505,11
1506,11
1507,11
1508,11
1509,11
1510,11
1511,11
1512,11
1513,11
1514,11
1515,11
1516,11
1517,11
1518,11
1519,11
1520,11
1521,11
1522,11
1523,11
1524,11
1525,11
1526,11
1527,11
1528,11
1529,11
1530,11
1531,11
1532,11
1533,11
1534,11
1535,11
1536,11
1537,11
1538,11
1539,11
1540,11
1541,11
1542,11
1543,11
1544,11
1545,11
1546,11
1547,11
1548,11
1549,11
1550,11
1551,11
1552,11
1553,11
1554,11
1555,11
1556,11
1557,11
1558,11
1559,11
1560,11
1561,11
1562,11
1563,11
1564,11
1565,11
1566,11
1567,11
1568,11
1569,11
1570,11
1571,11
1572,11
1573,11
1574,11
1575,11
1576,11
1577,11
1578,11
1579,11
1580,11
1581,11
1582,11
1583,11
1584,11
1585,11
1586,11
1587,11
1588,11
1589,11
1590,11
1591,11
1592,11
1593,11
1594,11
1595,11
1596,11
1597,11
1598,11
1599,11
1600,11
1601,11
1602,11
1603,11
1604,11
1605,11
1606,11
1607,11
1608,11
1609,11
1610,11
1611,11
1612,11
1613,11
1614,11
1615,11
1616,11
1617,11
1618,11
1619,11
1620,11
1621,11
1622,11
1623,11
1624,11
1625,11
1626,11
1627,11
1628,11
1629,11
1630,11
1631,11
1632,11
1633,11
1634,11
1635,11
1636,12
1637,12
1638,12
1639,12
1640,11
1641,11
1642,12
1643,12
1644,12
1645,11
1646,11
1647,11
1648,11
1649,11
1650,11
1651,11
1652,11
1653,11
1654,11
1655,11
1656,11
1657,11
1658,11
1659,11
1660,11
1661,11
1662,11
1663,11
1664,11
1665,11
1666,11
1667,11
1668,11
1669,11
1670,11
1671,11
1672,11
1673,11
1674,11
1675,11
1676,11
1677,11
1678,11
1679,11
1680,11
1681,11
1682,11
1683,11
1684,11
1685,11
1686,11
1687,11
1688,11
1689,11
1690,11
1691,11
1692,11
1693,11
1694,11
1695,11
1696,11
1697,11
1698,11
1699,11
1700,11
1701,11
1702,11
1703,11
1704,11
1705,11
1706,11
1707,11
1708,11
1709,11
1710,11
1711,11
1712,11
1713,11
1714,11
1715,11
1716,11
1717,11
1718,11
1719,11
1720,11
1721,11
1722,11
1723,11
1724,11
1725,11
1726,11
1727,11
1728,11
1729,11
1730,11
1731,11
1732,11
1733,11
1734,11
1735,11
1736,11
1737,11
1738,11
1739,11
1740,11
1741,11
1742,11
1743,11
1744,11
1745,11
1746,11
1747,11
1748,11
1749,11
1750,11
1751,11
1752,11
1753,11
1754,11
1755,11
1756,11
1757,11
1758,11
1759,11
1760,11
1761,11
1762,11
1763,11
1764,11
1765,11
1766,11
1767,11
1768,11
1769,11
1770,11
1771,11
1772,11
1773,11
1774,11
1775,11
1776,11
1777,11
1778,11
1779,11
1780,11
1781,11
1782,11
1783,11
1784,11
1785,11
1786,11
1787,11
1788,11
1789,11
1790,11
1791,11
1792,11
1793,11
1794,11
1795,11
1796,11
1797,11
1798,11
1799,11
1800,11
1801,11
1802,11
1803,11
1804,11
1805,11
1806,11
1807,11
1808,11
1809,11
1810,11
1811,11
1812,11
1813,11
1814,11
1815,11
1816,11
1817,11
1818,11
1819,11
1820,11
1821,11
1822,11
1823,11
1824,11
1825,11
1826,11
1827,11
1828,11
1829,11
1830,11
1831,11
1832,11
1833,11
1834,11
1835,11
1836,11
1837,11
1838,11
1839,11
1840,11
1841,11
1842,11
1843,11
1844,11
1845,11
1846,11
1847,11
1848,11
1849,11
1850,11
1851,11
1852,11
1853,11
1854,11
1855,11
1856,11
1857,11
1858,11
1859,11
1860,11
1861,11
1862,11
1863,11
1864,11
1865,11
1866,11
1867,11
1868,11
1869,11
1870,11
1871,11
1872,11
1873,11
1874,11
1875,11
1876,11
1877,11
1878,11
1879,11
1880,11
1881,11
1882,11
1883,11
1884,11
1885,11
1886,11
1887,11
1888,11
1889,11
1890,11
1891,11
1892,11
1893,11
1894,11
1895,11
1896,11
1897,11
1898,11
1899,11
1900,11
1901,11
1902,11
1903,11
1904,11
1905,11
1906,11
1907,11
1908,11
1909,11
1910,11
1911,11
1912,11
1913,11
1914,11
1915,11
1916,11
1917,11
1918,11
1919,11
1920,11
1921,11
1922,11
1923,11
1924,11
1925,11
1926,11
1927,11
1928,11
1929,11
1930,11
1931,11
1932,11
1933,11
1934,11
1935,11
1936,11
1937,11
1938,11
1939,11
1940,11
1941,11
1942,11
1943,11
1944,11
1945,11
1946,11
1947,11
1948,11
1949,11
1950,11
1951,11
1952,11
1953,11
1954,11
1955,11
1956,11
1957,11
1958,11
1959,11
1960,11
1961,11
1962,11
1963,11
1964,11
1965,11
1966,11
1967,11
1968,11
1969,11
1970,11
1971,11
1972,11
1973,11
1974,12
1975,12
1976,11
1977,11
1978,11
1979,11
1980,11
1981,11
1982,11
1983,11
1984,11
1985,11
1986,11
1987,11
1988,11
1989,11
1990,11
1991,11
1992,11
1993,11
1994,11
1995,11
1996,11
1997,11
1998,11
1999,11
2000,11
2001,11
2002,11
2003,11
2004,11
2005,11
2006,11
2007,11
2008,11
2009,11
2010,11
2011,11
2012,11
2013,11
2014,11
2015,11
2016,11
2017,11
2018,11
2019,11
2020,11
2021,11
2022,11
2023,11
2024,11
2025,11
2026,11
2027,11
2028,12
2029,12
2030,12
2031,12
2032,12
2033,12
2034,12
2035,12
2036,12
2037,12
2038,12
2039,12
2040,12
2041,12
2042,12
2043,12
2044,12
2045,12
2046,12
2047,12
2048,12
2049,12
2050,12
2051,12
2052,12
2053,12
2054,12
2055,12
2056,12
2057,12
2058,12
2059,12
2060,12
2061,12
2062,12
2063,12
2064,12
2065,12
2066,12
2067,12
2068,12
2069,12
2070,12
2071,12
2072,12
2073,12
2074,12
2075,12
2076,12
2077,12
2078,12
2079,12
2080,12
2081,12
2082,12
2083,12
2084,12
2085,12
2086,12
2087,12
2088,12
2089,12
2090,12
2091,12
2092,12
2093,12
2094,12
2095,12
2096,12
2097,12
2098,12
2099,12
2100,12
2101,12
2102,12
2103,12
2104,12
2105,12
2106,12
2107,12
2108,12
2109,12
2110,12
2111,12
2112,12
2113,12
2114,12
2115,12
2116,12
2117,12
2118,12
2119,12
2120,12
2121,12
2122,12
2123,12
2124,12
2125,12
2126,12
2127,12
2128,12
2129,12
2130,12
2131,12
2132,12
2133,12
2134,12
2135,12
2136,12
2137,12
2138,12
2139,12
2140,12
2141,12
2142,12
2143,12
2144,12
2145,12
2146,12
2147,12
2148,12
2149,12
2150,12
2151,12
2152,12
2153,12
2154,12
2155,12
2156,12
2157,12
2158,12
2159,12
2160,12
2161,12
2162,12
2163,12
2164,12
2165,12
2166,12
2167,12
2168,12
2169,12
2170,12
2171,12
2172,12
2173,12
2174,12
2175,12
2176,12
2177,12
2178,12
2179,12
2180,12
2181,12
2182,12
2183,12
2184,12
2185,13
2186,12
2187,12
2188,12
2189,12
2190,12
2191,12
2192,12
2193,12
2194,12
2195,12
2196,12
2197,12
2198,12
2199,12
2200,12
2201,12
2202,12
2203,12
2204,12
2205,12
2206,12
2207,12
2208,12
2209,12
2210,12
2211,12
2212,12
2213,12
2214,12
2215,12
2216,12
2217,12
2218,12
2219,12
2220,12
2221,12
2222,12
2223,12
2224,12
2225,12
2226,12
2227,12
2228,12
2229,12
2230,13
2231,12
2232,12
2233,12
2234,12
2235,12
2236,12
2237,12
2238,12
2239,12
2240,12
2241,12
2242,12
2243,12
2244,12
2245,12
2246,12
2247,12
2248,12
2249,12
2250,12
2251,12
2252,12
2253,12
2254,12
2255,13
2256,12
2257,12
2258,12
2259,13
2260,13
2261,13
2262,13
2263,13
2264,13
2265,12
2266,12
2267,12
2268,12
2269,12
2270,12
2271,12
2272,12
2273,12
2274,12
2275,12
2276,12
2277,12
2278,12
2279,12
2280,12
2281,12
2282,12
2283,12
2284,12
2285,12
2286,12
2287,12
2288,12
2289,12
2290,12
2291,12
2292,12
2293,12
2294,12
2295,12
2296,12
2297,12
2298,12
2299,12
2300,12
2301,12
2302,12
2303,12
2304,12
2305,12
2306,12
2307,12
2308,12
2309,12
2310,12
2311,12
2312,12
2313,12
2314,12
2315,12
2316,12
2317,12
2318,12
2319,12
2320,12
2321,12
2322,12
2323,12
2324,12
2325,12
2326,12
2327,12
2328,12
2329,12
2330,12
2331,12
2332,12
2333,12
2334,12
2335,12
2336,12
2337,12
2338,12
2339,12
2340,12
2341,12
2342,12
2343,12
2344,12
2345,12
2346,12
2347,12
2348,12
2349,12
2350,12
2351,12
2352,12
2353,12
2354,12
2355,12
2356,12
2357,12
2358,12
2359,12
2360,12
2361,12
2362,12
2363,12
2364,12
2365,12
2366,12
2367,12
2368,12
2369,12
2370,12
2371,12
2372,12
2373,12
2374,12
2375,12
2376,12
2377,12
2378,12
2379,12
2380,12
2381,12
2382,12
2383,13
2384,13
2385,13
2386,13
2387,12
2388,12
2389,12
2390,12
2391,12
2392,12
2393,12
2394,12
2395,12
2396,12
2397,12
2398,12
2399,12
2400,12
2401,12
2402,12
2403,12
2404,12
2405,12
2406,12
2407,12
2408,12
2409,12
2410,12
2411,12
2412,12
2413,12
2414,12
2415,12
2416,12
2417,12
2418,12
2419,12
2420,12
2421,12
2422,12
2423,12
2424,12
2425,12
2426,12
2427,12
2428,12
2429,12
2430,12
2431,13
2432,13
2433,13
2434,13
2435,13
2436,13
2437,13
2438,12
2439,12
2440,12
2441,12
2442,12
2443,12
2444,12
2445,12
2446,12
2447,12
2448,12
2449,12
2450,12
2451,12
2452,12
2453,12
2454,12
2455,12
2456,12
2457,12
2458,12
2459,12
2460,12
2461,12
2462,12
2463,12
2464,12
2465,12
2466,12
2467,12
2468,12
2469,12
2470,12
2471,12
2472,12
2473,12
2474,12
2475,12
2476,12
2477,12
2478,12
2479,12
2480,13
2481,13
2482,12
2483,12
2484,12
2485,12
2486,12
2487,12
2488,12
2489,12
2490,12
2491,12
2492,12
2493,12
2494,12
2495,12
2496,12
2497,12
2498,12
2499,12
2500,12
2501,12
2502,12
2503,12
2504,12
2505,12
2506,12
2507,12
2508,12
2509,12
2510,12
2511,12
2512,12
2513,12
2514,12
2515,12
2516,12
2517,12
2518,12
2519,12
2520,12
2521,12
2522,12
2523,12
2524,12
2525,12
2526,12
2527,12
2528,12
2529,12
2530,12
2531,12
2532,12
2533,12
2534,12
2535,12
2536,12
2537,12
2538,12
2539,12
2540,12
2541,12
2542,13
2543,13
2544,13
2545,13
2546,13
2547,13
2548,13
2549,13
2550,13
2551,14
2552,14
2553,13
2554,13
2555,13
2556,13
2557,13
2558,13
2559,13
2560,12
2561,12
2562,12
2563,12
2564,12
2565,12
2566,12
2567,12
2568,12
2569,12
2570,12
2571,12
2572,12
2573,12
2574,12
2575,12
2576,12
2577,12
2578,12
2579,12
2580,12
2581,12
2582,12
2583,12
2584,12
2585,12
2586,12
2587,12
2588,12
2589,12
2590,12
2591,12
2592,12
2593,12
2594,12
2595,12
2596,12
2597,12
2598,12
2599,12
2600,12
2601,12
2602,12
2603,12
2604,12
2605,12
2606,12
2607,12
2608,12
2609,12
2610,12
2611,12
2612,12
2613,12
2614,12
2615,12
2616,12
2617,12
2618,12
2619,12
2620,12
2621,12
2622,12
2623,12
2624,12
2625,12
2626,12
2627,12
2628,12
2629,12
2630,12
2631,12
2632,12
2633,12
2634,12
2635,12
2636,12
2637,12
2638,12
2639,12
2640,12
2641,12
2642,12
2643,12
2644,12
2645,12
2646,12
2647,12
2648,12
2649,12
2650,12
2651,12
2652,12
2653,12
2654,12
2655,12
2656,12
2657,12
2658,12
2659,12
2660,12
2661,12
2662,12
2663,12
2664,12
2665,12
2666,12
2667,12
2668,12
2669,12
2670,12
2671,12
2672,12
2673,12
2674,12
2675,12
2676,12
2677,12
2678,12
2679,12
2680,12
2681,12
2682,12
2683,12
2684,12
2685,12
2686,12
2687,12
2688,12
2689,12
2690,12
2691,12
2692,12
2693,12
2694,12
2695,12
2696,12
2697,12
2698,12
2699,12
2700,12
2701,12
2702,12
2703,12
2704,12
2705,12
2706,12
2707,12
2708,12
2709,12
2710,12
2711,12
2712,12
2713,12
2714,12
2715,12
2716,12
2717,12
2718,12
2719,12
2720,12
2721,12
2722,12
2723,12
2724,12
2725,12
2726,12
2727,12
2728,12
2729,12
2730,12
2731,12
2732,12
2733,12
2734,12
2735,12
2736,12
2737,12
2738,12
2739,12
2740,12
2741,12
2742,12
2743,12
2744,12
2745,12
2746,12
2747,12
2748,12
2749,12
2750,12
2751,12
2752,12
2753,12
2754,12
2755,12
2756,12
2757,12
2758,12
2759,12
2760,12
2761,12
2762,12
2763,12
2764,12
2765,12
2766,12
2767,12
2768,12
2769,12
2770,12
2771,12
2772,12
2773,12
2774,12
2775,12
2776,12
2777,12
2778,12
2779,12
2780,12
2781,12
2782,12
2783,12
2784,12
2785,12
2786,12
2787,12
2788,12
2789,12
2790,12
2791,12
2792,12
2793,12
2794,12
2795,12
2796,12
2797,12
2798,12
2799,12
2800,12
2801,12
2802,12
2803,12
2804,12
2805,12
2806,12
2807,12
2808,12
2809,12
2810,12
2811,12
2812,12
2813,12
2814,12
2815,12
2816,12
2817,13
2818,14
2819,14
2820,14
2821,14
2822,14
2823,14
2824,14
2825,14
2826,14
2827,14
2828,14
2829,14
2830,13
2831,13
2832,13
2833,13
2834,13
2835,13
2836,13
2837,13
2838,13
2839,13
2840,13
2841,13
2842,13
2843,13
2844,13
2845,13
2846,13
2847,13
2848,13
2849,13
2850,13
2851,13
2852,13
2853,13
2854,13
2855,13
2856,13
2857,13
2858,13
2859,13
2860,13
2861,13
2862,13
2863,13
2864,13
2865,13
2866,13
2867,13
2868,13
2869,13
2870,13
2871,13
2872,13
2873,13
2874,13
2875,13
2876,13
2877,13
2878,13
2879,13
2880,13
2881,13
2882,13
2883,13
2884,13
2885,13
2886,13
2887,13
2888,13
2889,13
2890,13
2891,13
2892,13
2893,13
2894,13
2895,13
2896,13
2897,13
2898,13
2899,13
2900,13
2901,13
2902,13
2903,13
2904,13
2905,13
2906,13
2907,13
2908,13
2909,13
2910,13
2911,13
2912,13
2913,14
2914,13
2915,13
2916,13
2917,13
2918,13
2919,13
2920,14
2921,14
2922,14
2923,13
2924,13
2925,13
2926,13
2927,13
2928,13
2929,13
2930,13
2931,13
2932,13
2933,13
2934,13
2935,13
2936,13
2937,13
2938,13
2939,13
2940,13
2941,13
2942,13
2943,13
2944,13
2945,13
2946,13
2947,13
2948,13
2949,13
2950,13
2951,13
2952,13
2953,13
2954,13
2955,13
2956,13
2957,13
2958,13
2959,13
2960,13
2961,13
2962,13
2963,13
2964,13
2965,13
2966,13
2967,13
2968,13
2969,13
2970,13
2971,13
2972,13
2973,13
2974,13
2975,13
2976,13
2977,13
2978,13
2979,13
2980,13
2981,13
2982,13
2983,13
2984,13
2985,13
2986,13
2987,13
2988,13
2989,13
2990,13
2991,13
2992,13
2993,13
2994,13
2995,13
2996,13
2997,13
2998,13
2999,13
3000,13
3001,13
3002,13
3003,13
3004,13
3005,13
3006,13
3007,13
3008,13
3009,13
3010,13
3011,13
3012,14
3013,14
3014,14
3015,14
3016,14
3017,14
3018,14
3019,14
3020,14
3021,14
3022,14
3023,14
3024,14
3025,14
3026,14
3027,14
3028,14
3029,14
3030,14
3031,14
3032,14
3033,14
3034,14
3035,14
3036,14
3037,14
3038,14
3039,14
3040,14
3041,14
3042,14
3043,14
3044,14
3045,14
3046,14
3047,14
3048,14
3049,14
3050,14
3051,14
3052,14
3053,14
3054,14
3055,14
3056,14
3057,14
3058,14
3059,14
3060,14
3061,14
3062,14
3063,14
3064,14
3065,14
3066,14
3067,14
3068,14
3069,14
3070,14
3071,14
3072,14
3073,14
3074,14
3075,14
3076,14
3077,14
3078,14
3079,14
3080,14
3081,14
3082,14
3083,14
3084,14
3085,14
3086,14
3087,14
3088,14
3089,14
3090,14
3091,14
3092,14
3093,14
3094,14
3095,14
3096,14
3097,14
3098,14
3099,14
3100,14
3101,14
3102,14
3103,14
3104,14
3105,14
3106,14
3107,14
3108,14
3109,14
3110,14
3111,14
3112,14
3113,14
3114,14
3115,14
3116,14
3117,14
3118,14
3119,14
3120,14
3121,14
3122,14
3123,14
3124,14
3125,14
3126,14
3127,14
3128,14
3129,14
3130,14
3131,14
3132,14
3133,14
3134,14
3135,14
3136,14
3137,14
3138,14
3139,14
3140,14
3141,14
3142,14
3143,14
3144,14
3145,14
3146,14
3147,14
3148,14
3149,14
3150,14
3151,14
3152,14
3153,14
3154,14
3155,14
3156,14
3157,14
3158,14
3159,14
3160,14
3161,14
3162,14
3163,14
3164,14
3165,14
3166,14
3167,14
3168,14
3169,14
3170,14
3171,14
3172,14
3173,14
3174,14
3175,14
3176,14
3177,14
3178,14
3179,14
3180,14
3181,14
3182,14
3183,14
3184,14
3185,14
3186,14
3187,14
3188,14
3189,14
3190,14
3191,14
3192,14
3193,14
3194,14
3195,14
3196,14
3197,14
3198,14
3199,14
3200,14
3201,14
3202,14
3203,14
3204,14
3205,14
3206,14
3207,14
3208,14
3209,14
3210,14
3211,14
3212,14
3213,14
3214,14
3215,14
3216,14
3217,14
3218,14
3219,14
3220,14
3221,14
3222,14
3223,14
3224,14
3225,14
3226,14
3227,14
3228,14
3229,14
3230,14
3231,14
3232,14
3233,14
3234,14
3235,14
3236,14
3237,14
3238,14
3239,14
3240,14
3241,14
3242,14
3243,14
3244,14
3245,14
3246,14
3247,14
3248,14
3249,14
3250,14
3251,14
3252,14
3253,14
3254,14
3255,14
3256,14
3257,14
3258,14
3259,14
3260,14
3261,15
3262,14
3263,14
3264,14
3265,14
3266,14
3267,14
3268,14
3269,14
3270,14
3271,14
3272,14
3273,14
3274,14
3275,14
3276,14
3277,14
3278,14
3279,14
3280,14
3281,14
3282,14
3283,14
3284,14
3285,14
3286,14
3287,14
3288,14
3289,14
3290,14
3291,14
3292,14
3293,14
3294,14
3295,14
3296,14
3297,14
3298,14
3299,15
3300,15
3301,15
3302,15
3303,15
3304,15
3305,15
3306,15
3307,15
3308,15
3309,15
3310,15
3311,14
3312,14
3313,14
3314,14
3315,14
3316,14
3317,14
3318,14
3319,14
3320,14
3321,14
3322,14
3323,14
3324,14
3325,14
3326,14
3327,14
3328,14
3329,14
3330,14
3331,14
3332,14
3333,14
3334,14
3335,14
3336,14
3337,14
3338,14
3339,14
3340,14
3341,14
3342,14
3343,14
3344,14
3345,14
3346,14
3347,14
3348,14
3349,14
3350,14
3351,14
3352,14
3353,14
3354,14
3355,14
3356,14
3357,14
3358,14
3359,14
3360,14
3361,14
3362,14
3363,14
3364,14
3365,14
3366,14
3367,14
3368,14
3369,14
3370,14
3371,14
3372,14
3373,14
3374,14
3375,14
3376,14
3377,14
3378,14
3379,14
3380,14
3381,14
3382,14
3383,14
3384,14
3385,14
3386,14
3387,14
3388,14
3389,14
3390,14
3391,14
3392,14
3393,14
3394,14
3395,14
3396,14
3397,14
3398,14
3399,14
3400,14
3401,14
3402,14
3403,14
3404,14
3405,14
3406,15
3407,14
3408,14
3409,14
3410,14
3411,14
3412,14
3413,14
3414,14
3415,14
3416,14
3417,14
3418,14
3419,14
3420,14
3421,14
3422,14
3423,14
3424,14
3425,14
3426,14
3427,14
3428,14
3429,14
3430,14
3431,14
3432,14
3433,14
3434,14
3435,14
3436,14
3437,14
3438,14
3439,14
3440,14
3441,14
3442,14
3443,14
3444,14
3445,14
3446,14
3447,14
3448,14
3449,14
3450,14
3451,14
3452,14
3453,14
3454,14
3455,14
3456,14
3457,14
3458,15
3459,15
3460,15
3461,15
3462,14
3463,14
3464,14
3465,14
3466,14
3467,14
3468,14
3469,14
3470,14
3471,14
3472,14
3473,14
3474,14
3475,14
3476,14
3477,14
3478,14
3479,14
3480,14
3481,14
3482,14
3483,14
3484,14
3485,14
3486,14
3487,14
3488,14
3489,14
3490,14
3491,14
3492,14
3493,14
3494,14
3495,14
3496,14
3497,14
3498,14
3499,14
3500,14
3501,14
3502,14
3503,14
3504,14
3505,14
3506,14
3507,14
3508,14
3509,14
3510,14
3511,14
3512,14
3513,14
3514,14
3515,14
3516,14
3517,14
3518,14
3519,14
3520,14
3521,14
3522,14
3523,14
3524,14
3525,14
3526,14
3527,14
3528,14
3529,14
3530,14
3531,14
3532,14
3533,14
3534,14
3535,14
3536,14
3537,14
3538,14
3539,14
3540,14
3541,14
3542,14
3543,14
3544,14
3545,14
3546,14
3547,14
3548,14
3549,14
3550,14
3551,14
3552,14
3553,14
3554,14
3555,14
3556,14
3557,14
3558,14
3559,14
3560,14
3561,14
3562,14
3563,14
3564,14
3565,14
3566,14
3567,14
3568,14
3569,14
3570,14
3571,14
3572,14
3573,14
3574,14
3575,14
3576,14
3577,14
3578,14
3579,14
3580,14
3581,14
3582,14
3583,14
3584,14
3585,14
3586,14
3587,14
3588,14
3589,14
3590,14
3591,14
3592,14
3593,14
3594,14
3595,15
3596,14
3597,14
3598,14
3599,14
3600,14
3601,14
3602,14
3603,14
3604,14
3605,14
3606,14
3607,14
3608,14
3609,14
3610,14
3611,14
3612,14
3613,14
3614,14
3615,14
3616,14
3617,14
3618,14
3619,14
3620,14
3621,14
3622,14
3623,14
3624,14
3625,14
3626,14
3627,14
3628,15
3629,15
3630,15
3631,15
3632,15
3633,14
3634,14
3635,14
3636,14
3637,14
3638,14
3639,14
3640,14
3641,14
3642,14
3643,14
3644,14
3645,14
3646,14
3647,14
3648,14
3649,14
3650,14
3651,14
3652,15
3653,15
3654,14
3655,14
3656,14
3657,14
3658,14
3659,14
3660,14
3661,14
3662,14
3663,14
3664,14
3665,14
3666,14
3667,14
3668,14
3669,14
3670,14
3671,14
3672,14
3673,14
3674,14
3675,14
3676,14
3677,14
3678,14
3679,14
3680,14
3681,14
3682,14
3683,14
3684,14
3685,14
3686,14
3687,14
3688,14
3689,14
3690,14
3691,14
3692,14
3693,14
3694,14
3695,14
3696,14
3697,14
3698,14
3699,14
3700,14
3701,14
3702,14
3703,14
3704,14
3705,14
3706,14
3707,14
3708,14
3709,14
3710,14
3711,14
3712,14
3713,14
3714,14
3715,14
3716,14
3717,14
3718,14
3719,14
3720,14
3721,14
3722,14
3723,14
3724,14
3725,14
3726,14
3727,14
3728,14
3729,14
3730,14
3731,14
3732,14
3733,14
3734,14
3735,14
3736,14
3737,14
3738,14
3739,14
3740,14
3741,14
3742,14
3743,14
3744,14
3745,14
3746,14
3747,14
3748,14
3749,14
3750,14
3751,14
3752,14
3753,14
3754,14
3755,14
3756,14
3757,14
3758,14
3759,14
3760,14
3761,14
3762,14
3763,14
3764,14
3765,14
3766,14
3767,14
3768,14
3769,14
3770,14
3771,14
3772,14
3773,14
3774,14
3775,14
3776,14
3777,14
3778,14
3779,14
3780,14
3781,14
3782,14
3783,14
3784,14
3785,14
3786,14
3787,14
3788,14
3789,14
3790,14
3791,14
3792,14
3793,14
3794,14
3795,14
3796,14
3797,14
3798,14
3799,14
3800,14
3801,14
3802,14
3803,14
3804,14
3805,14
3806,14
3807,14
3808,15
3809,15
3810,15
3811,15
3812,15
3813,14
3814,14
3815,14
3816,14
3817,14
3818,14
3819,14
3820,14
3821,14
3822,14
3823,14
3824,14
3825,14
3826,14
3827,14
3828,14
3829,14
3830,14
3831,14
3832,14
3833,14
3834,14
3835,14
3836,14
3837,14
3838,14
3839,14
3840,14
3841,14
3842,14
3843,14
3844,14
3845,14
3846,14
3847,14
3848,14
3849,14
3850,14
3851,14
3852,14
3853,14
3854,14
3855,14
3856,14
3857,14
3858,14
3859,14
3860,14
3861,14
3862,14
3863,14
3864,14
3865,14
3866,14
3867,14
3868,14
3869,14
3870,14
3871,14
3872,14
3873,14
3874,14
3875,14
3876,14
3877,14
3878,14
3879,14
3880,14
3881,14
3882,14
3883,14
3884,14
3885,14
3886,14
3887,14
3888,14
3889,14
3890,14
3891,14
3892,14
3893,15
3894,14
3895,14
3896,14
3897,14
3898,14
3899,14
3900,14
3901,14
3902,14
3903,14
3904,14
3905,14
3906,14
3907,14
3908,14
3909,14
3910,14
3911,14
3912,14
3913,14
3914,14
3915,14
3916,14
3917,14
3918,14
3919,14
3920,14
3921,14
3922,14
3923,14
3924,14
3925,14
3926,14
3927,14
3928,14
3929,14
3930,14
3931,14
3932,14
3933,14
3934,14
3935,14
3936,14
3937,14
3938,14
3939,14
3940,14
3941,14
3942,14
3943,14
3944,14
3945,14
3946,14
3947,14
3948,14
3949,14
3950,14
3951,14
3952,14
3953,14
3954,14
3955,14
3956,14
3957,14
3958,14
3959,14
3960,14
3961,14
3962,14
3963,14
3964,14
3965,14
3966,14
3967,14
3968,14
3969,14
3970,14
3971,14
3972,14
3973,14
3974,14
3975,14
3976,14
3977,14
3978,14
3979,14
3980,14
3981,14
3982,14
3983,14
3984,14
3985,14
3986,14
3987,14
3988,14
3989,14
3990,14
3991,14
3992,14
3993,14
3994,14
3995,14
3996,14
3997,14
3998,14
3999,14
4000,14
4001,14
4002,14
4003,14
4004,14
4005,14
4006,14
4007,14
4008,14
4009,14
4010,14
4011,14
4012,14
4013,14
4014,14
4015,14
4016,14
4017,14
4018,14
4019,14
4020,14
4021,14
4022,14
4023,14
4024,14
4025,14
4026,14
4027,14
4028,14
4029,14
4030,14
4031,14
4032,14
4033,14
4034,14
4035,14
4036,14
4037,14
4038,14
4039,14
4040,14
4041,14
4042,14
4043,15
4044,15
4045,15
4046,14
4047,14
4048,14
4049,14
4050,14
4051,14
4052,14
4053,14
4054,14
4055,14
4056,14
4057,14
4058,14
4059,14
4060,14
4061,14
4062,14
4063,14
4064,14
4065,14
4066,14
4067,14
4068,14
4069,14
4070,14
4071,14
4072,14
4073,14
4074,14
4075,14
4076,14
4077,14
4078,14
4079,14
4080,14
4081,14
4082,14
4083,14
4084,14
4085,14
4086,14
4087,14
4088,14
4089,14
4090,14
4091,14
4092,14
4093,14
4094,14
4095,14
4096,14
4097,14
4098,14
4099,14
4100,14
4101,14
4102,14
4103,14
4104,14
4105,14
4106,14
4107,14
4108,14
4109,14
4110,14
4111,14
4112,14
4113,14
4114,14
4115,14
4116,14
4117,14
4118,14
4119,14
4120,14
4121,14
4122,14
4123,14
4124,14
4125,14
4126,15
4127,14
4128,14
4129,14
4130,14
4131,14
4132,14
4133,14
4134,14
4135,14
4136,14
4137,14
4138,14
4139,14
4140,14
4141,14
4142,14
4143,14
4144,14
4145,14
4146,14
4147,14
4148,14
4149,14
4150,14
4151,14
4152,14
4153,14
4154,14
4155,14
4156,14
4157,14
4158,14
4159,14
4160,14
4161,14
4162,14
4163,14
4164,14
4165,14
4166,14
4167,14
4168,14
4169,14
4170,14
4171,14
4172,14
4173,14
4174,14
4175,14
4176,14
4177,15
4178,15
4179,15
4180,15
4181,15
4182,15
4183,15
4184,15
4185,15
4186,15
4187,15
4188,15
4189,15
4190,15
4191,15
4192,15
4193,15
4194,15
4195,15
4196,15
4197,15
4198,15
4199,15
4200,15
4201,15
4202,15
4203,15
4204,15
4205,15
4206,15
4207,15
4208,15
4209,15
4210,15
4211,15
4212,15
4213,15
4214,15
4215,15
4216,15
4217,15
4218,15
4219,15
4220,15
4221,15
4222,15
4223,15
4224,15
4225,15
4226,15
4227,15
4228,15
4229,15
4230,15
4231,15
4232,15
4233,15
4234,15
4235,15
4236,15
4237,15
4238,15
4239,15
4240,15
4241,15
4242,15
4243,15
4244,15
4245,15
4246,15
4247,15
4248,15
4249,15
4250,15
4251,15
4252,15
4253,15
4254,15
4255,15
4256,15
4257,15
4258,15
4259,15
4260,15
4261,15
4262,15
4263,15
4264,15
4265,15
4266,15
4267,15
4268,15
4269,15
4270,15
4271,15
4272,15
4273,15
4274,15
4275,15
4276,15
4277,15
4278,15
4279,15
4280,16
4281,16
4282,15
4283,15
4284,15
4285,15
4286,15
4287,15
4288,15
4289,15
4290,15
4291,15
4292,15
4293,15
4294,15
4295,15
4296,15
4297,15
4298,15
4299,15
4300,15
4301,15
4302,15
4303,15
4304,15
4305,15
4306,15
4307,15
4308,15
4309,15
4310,15
4311,15
4312,15
4313,15
4314,15
4315,15
4316,15
4317,15
4318,15
4319,15
4320,15
4321,15
4322,15
4323,15
4324,15
4325,15
4326,15
4327,15
4328,15
4329,15
4330,15
4331,15
4332,15
4333,15
4334,15
4335,15
4336,15
4337,15
4338,15
4339,15
4340,15
4341,15
4342,15
4343,15
4344,15
4345,15
4346,15
4347,15
4348,15
4349,15
4350,15
4351,15
4352,15
4353,16
4354,15
4355,15
4356,15
4357,15
4358,15
4359,15
4360,15
4361,15
4362,15
4363,15
4364,15
4365,15
4366,15
4367,15
4368,15
4369,15
4370,15
4371,15
4372,15
4373,15
4374,15
4375,15
4376,15
4377,15
4378,15
4379,15
4380,15
4381,15
4382,15
4383,15
4384,15
4385,15
4386,15
4387,15
4388,15
4389,15
4390,15
4391,15
4392,15
4393,15
4394,16
4395,16
4396,15
4397,15
4398,15
4399,15
4400,15
4401,15
4402,15
4403,15
4404,15
4405,15
4406,15
4407,15
4408,15
4409,15
4410,15
4411,15
4412,15
4413,15
4414,15
4415,15
4416,16
4417,16
4418,16
4419,15
4420,15
4421,15
4422,15
4423,15
4424,15
4425,15
4426,15
4427,15
4428,15
4429,15
4430,15
4431,15
4432,15
4433,15
4434,15
4435,15
4436,15
4437,15
4438,15
4439,15
4440,15
4441,15
4442,15
4443,15
4444,15
4445,15
4446,15
4447,15
4448,15
4449,15
4450,15
4451,15
4452,15
4453,15
4454,15
4455,15
4456,15
4457,15
4458,15
4459,15
4460,15
4461,15
4462,15
4463,15
4464,15
4465,15
4466,15
4467,15
4468,15
4469,15
4470,15
4471,15
4472,15
4473,15
4474,15
4475,15
4476,15
4477,15
4478,15
4479,15
4480,15
4481,16
4482,15
4483,15
4484,15
4485,15
4486,15
4487,15
4488,15
4489,15
4490,15
4491,15
4492,15
4493,15
4494,15
4495,15
4496,15
4497,15
4498,15
4499,15
4500,15
4501,15
4502,15
4503,15
4504,15
4505,15
4506,15
4507,15
4508,15
4509,15
4510,15
4511,15
4512,15
4513,15
4514,15
4515,15
4516,15
4517,15
4518,15
4519,15
4520,15
4521,15
4522,15
4523,15
4524,15
4525,15
4526,15
4527,15
4528,15
4529,15
4530,15
4531,15
4532,15
4533,15
4534,15
4535,15
4536,15
4537,15
4538,15
4539,15
4540,15
4541,15
4542,15
4543,15
4544,15
4545,16
4546,16
4547,15
4548,15
4549,15
4550,15
4551,15
4552,15
4553,15
4554,15
4555,15
4556,15
4557,15
4558,15
4559,15
4560,15
4561,15
4562,15
4563,15
4564,15
4565,15
4566,15
4567,15
4568,15
4569,15
4570,15
4571,15
4572,15
4573,15
4574,15
4575,15
4576,15
4577,15
4578,15
4579,15
4580,15
4581,15
4582,15
4583,15
4584,15
4585,15
4586,15
4587,15
4588,15
4589,15
4590,15
4591,15
4592,15
4593,15
4594,15
4595,15
4596,15
4597,15
4598,15
4599,15
4600,15
4601,15
4602,15
4603,15
4604,15
4605,15
4606,15
4607,15
4608,15
4609,15
4610,15
4611,15
4612,15
4613,15
4614,15
4615,15
4616,15
4617,15
4618,15
4619,15
4620,15
4621,15
4622,15
4623,15
4624,15
4625,15
4626,15
4627,15
4628,15
4629,15
4630,15
4631,15
4632,15
4633,15
4634,15
4635,15
4636,15
4637,15
4638,15
4639,15
4640,15
4641,15
4642,15
4643,15
4644,15
4645,15
4646,15
4647,15
4648,15
4649,15
4650,15
4651,15
4652,15
4653,15
4654,15
4655,15
4656,15
4657,15
4658,15
4659,15
4660,15
4661,15
4662,15
4663,15
4664,15
4665,15
4666,15
4667,15
4668,15
4669,15
4670,15
4671,15
4672,15
4673,15
4674,15
4675,15
4676,15
4677,15
4678,15
4679,15
4680,15
4681,15
4682,15
4683,15
4684,15
4685,15
4686,15
4687,15
4688,15
4689,15
4690,15
4691,15
4692,15
4693,15
4694,15
4695,15
4696,15
4697,15
4698,15
4699,15
4700,15
4701,15
4702,15
4703,15
4704,15
4705,15
4706,15
4707,15
4708,15
4709,15
4710,15
4711,16
4712,15
4713,15
4714,15
4715,15
4716,15
4717,15
4718,15
4719,15
4720,15
4721,15
4722,15
4723,15
4724,15
4725,15
4726,15
4727,15
4728,15
4729,15
4730,15
4731,15
4732,15
4733,15
4734,15
4735,15
4736,15
4737,15
4738,15
4739,15
4740,15
4741,15
4742,15
4743,15
4744,15
4745,15
4746,16
4747,15
4748,15
4749,15
4750,15
4751,15
4752,15
4753,15
4754,15
4755,15
4756,15
4757,15
4758,15
4759,15
4760,15
4761,15
4762,15
4763,15
4764,15
4765,15
4766,15
4767,15
4768,15
4769,15
4770,15
4771,15
4772,15
4773,15
4774,15
4775,15
4776,15
4777,15
4778,15
4779,15
4780,15
4781,15
4782,15
4783,15
4784,15
4785,15
4786,15
4787,15
4788,15
4789,15
4790,15
4791,15
4792,15
4793,15
4794,15
4795,15
4796,15
4797,15
4798,15
4799,15
4800,15
4801,15
4802,15
4803,15
4804,15
4805,15
4806,15
4807,15
4808,15
4809,15
4810,15
4811,15
4812,15
4813,15
4814,15
4815,15
4816,15
4817,15
4818,15
4819,15
4820,15
4821,15
4822,15
4823,15
4824,15
4825,15
4826,15
4827,15
4828,15
4829,15
4830,15
4831,15
4832,15
4833,15
4834,15
4835,15
4836,15
4837,15
4838,15
4839,15
4840,15
4841,15
4842,15
4843,15
4844,15
4845,15
4846,15
4847,15
4848,15
4849,15
4850,15
4851,15
4852,15
4853,15
4854,15
4855,15
4856,15
4857,15
4858,15
4859,15
4860,15
4861,15
4862,15
4863,15
4864,15
4865,15
4866,15
4867,15
4868,15
4869,15
4870,15
4871,15
4872,15
4873,15
4874,15
4875,15
4876,15
4877,15
4878,15
4879,15
4880,15
4881,15
4882,15
4883,15
4884,15
4885,15
4886,15
4887,15
4888,15
4889,15
4890,15
4891,15
4892,15
4893,15
4894,15
4895,15
4896,15
4897,15
4898,15
4899,15
4900,15
4901,15
4902,15
4903,15
4904,15
4905,15
4906,15
4907,15
4908,15
4909,16
4910,15
4911,15
4912,15
4913,15
4914,15
4915,15
4916,15
4917,15
4918,15
4919,15
4920,15
4921,15
4922,15
4923,15
4924,15
4925,15
4926,15
4927,15
4928,15
4929,15
4930,15
4931,15
4932,15
4933,15
4934,15
4935,15
4936,15
4937,15
4938,15
4939,15
4940,15
4941,15
4942,15
4943,15
4944,15
4945,15
4946,15
4947,15
4948,15
4949,15
4950,15
4951,15
4952,15
4953,15
4954,15
4955,15
4956,15
4957,15
4958,15
4959,15
4960,15
4961,15
4962,15
4963,15
4964,15
4965,15
4966,15
4967,15
4968,15
4969,15
4970,15
4971,15
4972,15
4973,15
4974,15
4975,15
4976,15
4977,15
4978,15
4979,15
4980,15
4981,15
4982,15
4983,15
4984,15
4985,15
4986,15
4987,15
4988,15
4989,15
4990,15
4991,15
4992,15
4993,15
4994,15
4995,15
4996,15
4997,15
4998,15
4999,15
5000,15
5001,15
5002,15
5003,15
5004,15
5005,15
5006,15
5007,15
5008,15
5009,15
5010,15
5011,15
5012,15
5013,15
5014,15
5015,15
5016,15
5017,15
5018,15
5019,15
5020,15
5021,15
5022,15
5023,15
5024,15
5025,15
5026,15
5027,15
5028,15
5029,15
5030,15
5031,15
5032,15
5033,15
5034,15
5035,15
5036,15
5037,15
5038,15
5039,15
5040,15
5041,17
5042,15
5043,15
5044,15
5045,15
5046,15
5047,15
5048,15
5049,15
5050,15
5051,15
5052,15
5053,15
5054,15
5055,16
5056,16
5057,16
5058,16
5059,15
5060,15
5061,15
5062,15
5063,15
5064,15
5065,15
5066,15
5067,15
5068,15
5069,15
5070,15
5071,15
5072,15
5073,15
5074,15
5075,15
5076,15
5077,16
5078,16
5079,16
5080,16
5081,16
5082,16
5083,16
5084,16
5085,16
5086,16
5087,16
5088,16
5089,16
5090,16
5091,16
5092,16
5093,17
5094,16
5095,16
5096,16
5097,16
5098,16
5099,16
5100,16
5101,17
5102,17
5103,17
5104,17
5105,17
5106,17
5107,17
5108,17
5109,17
5110,16
5111,16
5112,16
5113,16
5114,16
5115,16
5116,16
5117,16
5118,16
5119,16
5120,16
5121,16
5122,16
5123,16
5124,16
5125,16
5126,16
5127,16
5128,16
5129,16
5130,16
5131,16
5132,16
5133,16
5134,16
5135,16
5136,16
5137,16
5138,16
5139,16
5140,16
5141,16
5142,16
5143,16
5144,16
5145,16
5146,16
5147,16
5148,16
5149,16
5150,16
5151,16
5152,16
5153,16
5154,16
5155,16
5156,16
5157,16
5158,16
5159,16
5160,16
5161,16
5162,16
5163,16
5164,16
5165,16
5166,16
5167,16
5168,16
5169,16
5170,16
5171,16
5172,16
5173,16
5174,16
5175,16
5176,16
5177,16
5178,16
5179,16
5180,16
5181,16
5182,16
5183,16
5184,16
5185,16
5186,16
5187,16
5188,16
5189,16
5190,16
5191,16
5192,16
5193,16
5194,16
5195,16
5196,16
5197,16
5198,16
5199,16
5200,16
5201,16
5202,16
5203,16
5204,16
5205,16
5206,16
5207,16
5208,16
5209,16
5210,16
5211,16
5212,16
5213,16
5214,16
5215,16
5216,16
5217,16
5218,16
5219,16
5220,16
5221,16
5222,16
5223,16
5224,16
5225,16
5226,16
5227,16
5228,16
5229,16
5230,16
5231,16
5232,16
5233,16
5234,16
5235,16
5236,16
5237,16
5238,16
5239,16
5240,16
5241,16
5242,16
5243,16
5244,16
5245,16
5246,16
5247,16
5248,16
5249,16
5250,16
5251,16
5252,16
5253,16
5254,16
5255,16
5256,16
5257,16
5258,16
5259,16
5260,16
5261,16
5262,16
5263,16
5264,16
5265,16
5266,16
5267,16
5268,16
5269,16
5270,16
5271,16
5272,16
5273,16
5274,16
5275,16
5276,16
5277,16
5278,16
5279,16
5280,16
5281,16
5282,16
5283,16
5284,16
5285,16
5286,16
5287,16
5288,16
5289,16
5290,16
5291,16
5292,16
5293,16
5294,16
5295,16
5296,16
5297,16
5298,16
5299,16
5300,16
5301,16
5302,16
5303,16
5304,16
5305,16
5306,16
5307,16
5308,16
5309,16
5310,16
5311,16
5312,16
5313,16
5314,16
5315,16
5316,16
5317,16
5318,16
5319,16
5320,16
5321,16
5322,16
5323,16
5324,16
5325,16
5326,16
5327,16
5328,16
5329,16
5330,16
5331,16
5332,16
5333,16
5334,16
5335,16
5336,16
5337,16
5338,16
5339,16
5340,16
5341,16
5342,16
5343,16
5344,16
5345,16
5346,16
5347,16
5348,16
5349,16
5350,16
5351,16
5352,16
5353,16
5354,16
5355,16
5356,16
5357,16
5358,16
5359,16
5360,16
5361,16
5362,16
5363,16
5364,16
5365,16
5366,16
5367,16
5368,16
5369,16
5370,17
5371,16
5372,16
5373,16
5374,17
5375,17
5376,17
5377,17
5378,17
5379,17
5380,17
5381,17
5382,17
5383,17
5384,17
5385,17
5386,17
5387,16
5388,16
5389,16
5390,16
5391,16
5392,16
5393,16
5394,16
5395,16
5396,16
5397,16
5398,16
5399,16
5400,16
5401,16
5402,16
5403,16
5404,16
5405,16
5406,16
5407,16
5408,16
5409,16
5410,16
5411,16
5412,16
5413,16
5414,16
5415,16
5416,16
5417,16
5418,16
5419,16
5420,16
5421,16
5422,16
5423,16
5424,16
5425,16
5426,16
5427,16
5428,16
5429,16
5430,16
5431,16
5432,16
5433,16
5434,16
5435,16
5436,16
5437,16
5438,16
5439,16
5440,16
5441,16
5442,16
5443,16
5444,16
5445,16
5446,16
5447,16
5448,16
5449,16
5450,16
5451,16
5452,16
5453,16
5454,16
5455,16
5456,16
5457,16
5458,16
5459,16
5460,16
5461,16
5462,16
5463,16
5464,16
5465,16
5466,16
5467,16
5468,16
5469,16
5470,16
5471,16
5472,16
5473,16
5474,16
5475,16
5476,16
5477,16
5478,16
5479,16
5480,16
5481,16
5482,16
5483,16
5484,16
5485,16
5486,16
5487,16
5488,16
5489,16
5490,16
5491,16
5492,16
5493,16
5494,16
5495,16
5496,16
5497,16
5498,16
5499,16
5500,16
5501,16
5502,16
5503,16
5504,16
5505,16
5506,16
5507,16
5508,16
5509,17
5510,16
5511,16
5512,16
5513,16
5514,16
5515,16
5516,16
5517,16
5518,16
5519,16
5520,16
5521,16
5522,16
5523,16
5524,16
5525,16
5526,16
5527,16
5528,16
5529,16
5530,16
5531,16
5532,16
5533,16
5534,16
5535,16
5536,16
5537,16
5538,16
5539,16
5540,16
5541,16
5542,16
5543,16
5544,16
5545,16
5546,16
5547,16
5548,16
5549,16
5550,16
5551,16
5552,16
5553,16
5554,16
5555,16
5556,16
5557,16
5558,16
5559,16
5560,16
5561,16
5562,16
5563,16
5564,16
5565,16
5566,16
5567,16
5568,16
5569,16
5570,16
5571,16
5572,16
5573,16
5574,16
5575,16
5576,16
5577,16
5578,16
5579,16
5580,16
5581,16
5582,16
5583,16
5584,16
5585,17
5586,16
5587,16
5588,16
5589,17
5590,16
5591,17
5592,17
5593,17
5594,17
5595,17
5596,17
5597,17
5598,17
5599,17
5600,17
5601,16
5602,16
5603,16
5604,16
5605,16
5606,16
5607,16
5608,16
5609,16
5610,16
5611,16
5612,16
5613,16
5614,16
5615,16
5616,16
5617,16
5618,16
5619,16
5620,16
5621,16
5622,16
5623,16
5624,16
5625,16
5626,16
5627,16
5628,16
5629,16
5630,16
5631,16
5632,16
5633,16
5634,16
5635,16
5636,16
5637,16
5638,16
5639,16
5640,16
5641,16
5642,16
5643,16
5644,16
5645,16
5646,16
5647,16
5648,16
5649,16
5650,16
5651,16
5652,16
5653,16
5654,16
5655,16
5656,16
5657,16
5658,16
5659,16
5660,16
5661,16
5662,16
5663,16
5664,16
5665,16
5666,16
5667,16
5668,16
5669,16
5670,16
5671,16
5672,16
5673,16
5674,16
5675,16
5676,16
5677,16
5678,16
5679,16
5680,16
5681,16
5682,16
5683,16
5684,16
5685,16
5686,16
5687,16
5688,16
5689,16
5690,16
5691,16
5692,16
5693,16
5694,16
5695,16
5696,16
5697,16
5698,16
5699,16
5700,16
5701,16
5702,16
5703,16
5704,16
5705,16
5706,16
5707,16
5708,16
5709,16
5710,16
5711,16
5712,16
5713,16
5714,16
5715,16
5716,16
5717,16
5718,16
5719,16
5720,16
5721,16
5722,17
5723,17
5724,17
5725,16
5726,16
5727,16
5728,16
5729,16
5730,16
5731,16
5732,16
5733,16
5734,16
5735,16
5736,16
5737,16
5738,16
5739,16
5740,16
5741,16
5742,16
5743,16
5744,16
5745,16
5746,16
5747,16
5748,16
5749,16
5750,16
5751,16
5752,16
5753,16
5754,16
5755,16
5756,16
5757,16
5758,16
5759,16
5760,16
5761,16
5762,16
5763,16
5764,16
5765,16
5766,16
5767,16
5768,16
5769,16
5770,16
5771,16
5772,16
5773,16
5774,16
5775,16
5776,16
5777,16
5778,16
5779,16
5780,16
5781,16
5782,16
5783,16
5784,16
5785,16
5786,16
5787,16
5788,16
5789,16
5790,16
5791,16
5792,16
5793,16
5794,17
5795,17
5796,16
5797,16
5798,16
5799,16
5800,16
5801,16
5802,16
5803,16
5804,16
5805,16
5806,16
5807,16
5808,16
5809,16
5810,16
5811,17
5812,17
5813,16
5814,16
5815,16
5816,16
5817,16
5818,16
5819,16
5820,16
5821,16
5822,16
5823,16
5824,16
5825,16
5826,16
5827,16
5828,16
5829,16
5830,16
5831,16
5832,16
5833,16
5834,16
5835,16
5836,16
5837,16
5838,16
5839,16
5840,16
5841,16
5842,16
5843,16
5844,16
5845,16
5846,16
5847,16
5848,16
5849,16
5850,16
5851,16
5852,16
5853,16
5854,16
5855,16
5856,16
5857,16
5858,16
5859,16
5860,16
5861,16
5862,16
5863,16
5864,17
5865,16
5866,16
5867,16
5868,16
5869,16
5870,16
5871,16
5872,16
5873,16
5874,16
5875,16
5876,16
5877,16
5878,16
5879,16
5880,16
5881,16
5882,16
5883,16
5884,16
5885,16
5886,16
5887,16
5888,16
5889,16
5890,16
5891,16
5892,16
5893,16
5894,16
5895,16
5896,16
5897,16
5898,16
5899,16
5900,16
5901,16
5902,16
5903,16
5904,16
5905,16
5906,16
5907,16
5908,16
5909,16
5910,16
5911,16
5912,16
5913,16
5914,16
5915,16
5916,16
5917,16
5918,16
5919,16
5920,16
5921,16
5922,16
5923,16
5924,16
5925,16
5926,16
5927,17
5928,17
5929,16
5930,16
5931,16
5932,16
5933,16
5934,16
5935,16
5936,16
5937,16
5938,16
5939,16
5940,16
5941,16
5942,16
5943,16
5944,16
5945,16
5946,16
5947,16
5948,16
5949,16
5950,16
5951,16
5952,16
5953,16
5954,16
5955,16
5956,16
5957,16
5958,16
5959,16
5960,16
5961,16
5962,16
5963,16
5964,16
5965,16
5966,16
5967,16
5968,16
5969,16
5970,16
5971,16
5972,16
5973,16
5974,16
5975,16
5976,16
5977,16
5978,16
5979,16
5980,16
5981,16
5982,16
5983,16
5984,16
5985,16
5986,16
5987,16
5988,16
5989,16
5990,16
5991,16
5992,16
5993,16
5994,16
5995,16
5996,16
5997,16
5998,16
5999,16
6000,16
6001,16
6002,16
6003,16
6004,16
6005,17
6006,17
6007,17
6008,17
6009,17
6010,17
6011,17
6012,17
6013,17
6014,17
6015,17
6016,17
6017,17
6018,17
6019,17
6020,17
6021,17
6022,17
6023,17
6024,17
6025,17
6026,17
6027,18
6028,18
6029,18
6030,18
6031,18
6032,18
6033,17
6034,17
6035,16
6036,16
6037,16
6038,16
6039,16
6040,16
6041,16
6042,16
6043,17
6044,17
6045,16
6046,16
6047,16
6048,16
6049,16
6050,16
6051,16
6052,16
6053,16
6054,16
6055,16
6056,16
6057,16
6058,16
6059,16
6060,16
6061,16
6062,16
6063,16
6064,16
6065,16
6066,16
6067,16
6068,16
6069,16
6070,16
6071,16
6072,16
6073,16
6074,16
6075,16
6076,16
6077,16
6078,16
6079,16
6080,16
6081,16
6082,16
6083,16
6084,16
6085,16
6086,16
6087,16
6088,16
6089,16
6090,16
6091,16
6092,16
6093,16
6094,16
6095,16
6096,16
6097,16
6098,16
6099,16
6100,16
6101,16
6102,16
6103,16
6104,16
6105,16
6106,16
6107,16
6108,16
6109,16
6110,16
6111,16
6112,16
6113,16
6114,16
6115,16
6116,16
6117,16
6118,16
6119,16
6120,16
6121,16
6122,16
6123,16
6124,16
6125,16
6126,16
6127,16
6128,16
6129,16
6130,16
6131,16
6132,16
6133,16
6134,16
6135,16
6136,16
6137,16
6138,16
6139,16
6140,16
6141,16
6142,16
6143,16
6144,16
6145,16
6146,16
6147,16
6148,16
6149,16
6150,16
6151,16
6152,16
6153,16
6154,16
6155,16
6156,16
6157,16
6158,16
6159,16
6160,16
6161,16
6162,16
6163,16
6164,16
6165,16
6166,16
6167,16
6168,16
6169,16
6170,16
6171,16
6172,16
6173,16
6174,16
6175,16
6176,16
6177,16
6178,16
6179,16
6180,16
6181,16
6182,16
6183,16
6184,16
6185,16
6186,16
6187,16
6188,16
6189,16
6190,16
6191,16
6192,16
6193,16
6194,16
6195,16
6196,16
6197,16
6198,16
6199,16
6200,16
6201,16
6202,16
6203,16
6204,16
6205,16
6206,16
6207,16
6208,16
6209,16
6210,16
6211,16
6212,16
6213,16
6214,16
6215,16
6216,16
6217,16
6218,16
6219,16
6220,16
6221,16
6222,16
6223,16
6224,16
6225,16
6226,16
6227,16
6228,16
6229,16
6230,16
6231,16
6232,16
6233,16
6234,16
6235,16
6236,16
6237,16
6238,16
6239,16
6240,16
6241,16
6242,16
6243,16
6244,16
6245,16
6246,16
6247,16
6248,16
6249,16
6250,16
6251,16
6252,16
6253,16
6254,16
6255,16
6256,17
6257,17
6258,16
6259,16
6260,16
6261,16
6262,16
6263,16
6264,16
6265,16
6266,16
6267,16
6268,16
6269,16
6270,16
6271,16
6272,16
6273,16
6274,16
6275,16
6276,16
6277,16
6278,16
6279,16
6280,16
6281,16
6282,16
6283,16
6284,16
6285,16
6286,16
6287,16
6288,16
6289,16
6290,16
6291,16
6292,16
6293,16
6294,16
6295,16
6296,16
6297,16
6298,16
6299,16
6300,16
6301,16
6302,16
6303,18
6304,17
6305,17
6306,17
6307,17
6308,17
6309,17
6310,17
6311,16
6312,16
6313,16
6314,16
6315,16
6316,16
6317,16
6318,16
6319,16
6320,16
6321,16
6322,16
6323,16
6324,17
6325,17
6326,17
6327,17
6328,17
6329,17
6330,17
6331,16
6332,16
6333,16
6334,16
6335,16
6336,16
6337,16
6338,16
6339,16
6340,16
6341,16
6342,16
6343,16
6344,16
6345,16
6346,16
6347,16
6348,16
6349,16
6350,16
6351,17
6352,18
6353,18
6354,18
6355,18
6356,18
6357,18
6358,18
6359,18
6360,18
6361,18
6362,17
6363,17
6364,17
6365,17
6366,17
6367,17
6368,17
6369,17
6370,17
6371,17
6372,17
6373,17
6374,17
6375,17
6376,17
6377,16
6378,16
6379,16
6380,16
6381,16
6382,16
6383,16
6384,16
6385,16
6386,16
6387,16
6388,16
6389,16
6390,16
6391,16
6392,16
6393,16
6394,16
6395,16
6396,16
6397,16
6398,16
6399,16
6400,16
6401,16
6402,16
6403,17
6404,17
6405,17
6406,17
6407,17
6408,17
6409,17
6410,17
6411,16
6412,16
6413,16
6414,16
6415,16
6416,16
6417,16
6418,16
6419,16
6420,16
6421,16
6422,16
6423,16
6424,16
6425,16
6426,16
6427,16
6428,16
6429,16
6430,16
6431,16
6432,16
6433,16
6434,17
6435,17
6436,17
6437,17
6438,17
6439,17
6440,17
6441,17
6442,17
6443,16
6444,16
6445,16
6446,16
6447,16
6448,17
6449,16
6450,16
6451,16
6452,16
6453,16
6454,16
6455,16
6456,16
6457,16
6458,16
6459,16
6460,16
6461,16
6462,16
6463,16
6464,16
6465,16
6466,16
6467,16
6468,16
6469,16
6470,16
6471,16
6472,16
6473,17
6474,17
6475,17
6476,17
6477,16
6478,16
6479,16
6480,16
6481,16
6482,16
6483,16
6484,16
6485,16
6486,16
6487,16
6488,16
6489,16
6490,16
6491,16
6492,16
6493,16
6494,16
6495,16
6496,16
6497,16
6498,16
6499,16
6500,16
6501,16
6502,16
6503,16
6504,16
6505,16
6506,16
6507,16
6508,16
6509,16
6510,16
6511,16
6512,16
6513,16
6514,16
6515,16
6516,16
6517,16
6518,16
6519,16
6520,16
6521,16
6522,16
6523,16
6524,16
6525,16
6526,16
6527,16
6528,16
6529,16
6530,16
6531,16
6532,16
6533,16
6534,16
6535,16
6536,16
6537,17
6538,16
6539,16
6540,16
6541,16
6542,16
6543,16
6544,16
6545,16
6546,16
6547,16
6548,16
6549,16
6550,16
6551,16
6552,16
6553,16
6554,16
6555,16
6556,16
6557,16
6558,16
6559,16
6560,16
6561,16
6562,16
6563,16
6564,16
6565,16
6566,16
6567,16
6568,16
6569,16
6570,16
6571,16
6572,16
6573,16
6574,16
6575,16
6576,16
6577,16
6578,16
6579,16
6580,16
6581,16
6582,16
6583,16
6584,16
6585,16
6586,16
6587,16
6588,16
6589,16
6590,16
6591,16
6592,16
6593,16
6594,16
6595,16
6596,16
6597,16
6598,16
6599,16
6600,16
6601,16
6602,16
6603,16
6604,16
6605,16
6606,16
6607,16
6608,16
6609,16
6610,16
6611,16
6612,16
6613,16
6614,16
6615,16
6616,16
6617,16
6618,16
6619,16
6620,16
6621,16
6622,16
6623,16
6624,16
6625,16
6626,16
6627,16
6628,16
6629,16
6630,16
6631,16
6632,16
6633,16
6634,16
6635,16
6636,16
6637,16
6638,16
6639,16
6640,16
6641,16
6642,16
6643,16
6644,16
6645,16
6646,16
6647,16
6648,16
6649,16
6650,16
6651,16
6652,16
6653,16
6654,16
6655,16
6656,16
6657,16
6658,16
6659,16
6660,16
6661,16
6662,16
6663,16
6664,16
6665,16
6666,16
6667,16
6668,16
6669,16
6670,16
6671,16
6672,16
6673,16
6674,16
6675,16
6676,16
6677,16
6678,16
6679,16
6680,16
6681,16
6682,16
6683,16
6684,16
6685,16
6686,16
6687,16
6688,16
6689,16
6690,16
6691,16
6692,16
6693,16
6694,16
6695,16
6696,16
6697,16
6698,16
6699,16
6700,16
6701,16
6702,16
6703,16
6704,16
6705,16
6706,16
6707,16
6708,16
6709,16
6710,16
6711,16
6712,16
6713,16
6714,16
6715,16
6716,16
6717,16
6718,16
6719,16
6720,16
6721,16
6722,16
6723,16
6724,16
6725,16
6726,16
6727,16
6728,16
6729,16
6730,16
6731,16
6732,16
6733,16
6734,16
6735,16
6736,16
6737,16
6738,16
6739,16
6740,16
6741,16
6742,16
6743,16
6744,16
6745,16
6746,16
6747,16
6748,16
6749,16
6750,16
6751,16
6752,16
6753,16
6754,16
6755,16
6756,16
6757,16
6758,16
6759,16
6760,16
6761,17
6762,17
6763,17
6764,17
6765,17
6766,17
6767,17
6768,17
6769,17
6770,17
6771,17
6772,17
6773,17
6774,17
6775,17
6776,17
6777,17
6778,17
6779,17
6780,17
6781,17
6782,17
6783,17
6784,17
6785,17
6786,17
6787,17
6788,17
6789,17
6790,17
6791,17
6792,17
6793,17
6794,17
6795,17
6796,17
6797,17
6798,17
6799,17
6800,17
6801,17
6802,17
6803,17
6804,17
6805,17
6806,17
6807,17
6808,17
6809,17
6810,17
6811,17
6812,17
6813,17
6814,17
6815,17
6816,17
6817,17
6818,17
6819,17
6820,17
6821,17
6822,17
6823,17
6824,17
6825,17
6826,17
6827,17
6828,17
6829,17
6830,17
6831,17
6832,17
6833,17
6834,17
6835,17
6836,17
6837,17
6838,17
6839,17
6840,17
6841,17
6842,17
6843,17
6844,17
6845,17
6846,17
6847,17
6848,17
6849,17
6850,17
6851,17
6852,17
6853,17
6854,17
6855,17
6856,17
6857,17
6858,17
6859,17
6860,17
6861,17
6862,17
6863,17
6864,17
6865,17
6866,17
6867,17
6868,17
6869,17
6870,17
6871,17
6872,17
6873,17
6874,17
6875,17
6876,17
6877,17
6878,17
6879,17
6880,17
6881,18
6882,18
6883,18
6884,18
6885,17
6886,17
6887,17
6888,17
6889,17
6890,17
6891,17
6892,17
6893,17
6894,17
6895,17
6896,17
6897,17
6898,17
6899,17
6900,17
6901,17
6902,17
6903,17
6904,17
6905,17
6906,17
6907,17
6908,17
6909,17
6910,17
6911,17
6912,17
6913,17
6914,17
6915,17
6916,17
6917,17
6918,17
6919,17
6920,17
6921,17
6922,17
6923,17
6924,17
6925,17
6926,17
6927,17
6928,17
6929,17
6930,17
6931,17
6932,17
6933,17
6934,17
6935,17
6936,17
6937,17
6938,17
6939,17
6940,17
6941,17
6942,17
6943,17
6944,17
6945,17
6946,17
6947,17
6948,17
6949,17
6950,17
6951,17
6952,17
6953,17
6954,17
6955,17
6956,17
6957,17
6958,17
6959,17
6960,17
6961,17
6962,17
6963,17
6964,17
6965,17
6966,17
6967,17
6968,17
6969,17
6970,17
6971,17
6972,17
6973,17
6974,17
6975,17
6976,17
6977,17
6978,17
6979,17
6980,17
6981,17
6982,17
6983,17
6984,17
6985,17
6986,17
6987,17
6988,17
6989,17
6990,17
6991,17
6992,17
6993,17
6994,17
6995,17
6996,17
6997,17
6998,17
6999,17
7000,17
7001,17
7002,17
7003,17
7004,17
7005,17
7006,17
7007,17
7008,17
7009,17
7010,17
7011,17
7012,17
7013,17
7014,17
7015,17
7016,17
7017,17
7018,17
7019,17
7020,17
7021,17
7022,17
7023,17
7024,17
7025,17
7026,17
7027,17
7028,17
7029,17
7030,17
7031,17
7032,17
7033,17
7034,17
7035,17
7036,17
7037,17
7038,17
7039,17
7040,17
7041,17
7042,17
7043,17
7044,17
7045,17
7046,18
7047,18
7048,18
7049,18
7050,18
7051,17
7052,17
7053,17
7054,17
7055,17
7056,17
7057,17
7058,17
7059,17
7060,17
7061,17
7062,17
7063,18
7064,18
7065,17
7066,17
7067,17
7068,17
7069,17
7070,17
7071,17
7072,17
7073,17
7074,17
7075,17
7076,17
7077,17
7078,17
7079,17
7080,17
7081,17
7082,17
7083,17
7084,18
7085,17
7086,17
7087,17
7088,17
7089,17
7090,17
7091,17
7092,17
7093,17
7094,17
7095,17
7096,17
7097,17
7098,17
7099,17
7100,17
7101,17
7102,17
7103,17
7104,17
7105,17
7106,17
7107,17
7108,17
7109,17
7110,17
7111,17
7112,17
7113,17
7114,17
7115,17
7116,17
7117,17
7118,17
7119,17
7120,17
7121,17
7122,17
7123,17
7124,17
7125,17
7126,17
7127,17
7128,17
7129,17
7130,17
7131,17
7132,17
7133,17
7134,17
7135,17
7136,17
7137,17
7138,17
7139,17
7140,17
7141,17
7142,17
7143,17
7144,17
7145,17
7146,17
7147,17
7148,17
7149,17
7150,17
7151,17
7152,17
7153,17
7154,17
7155,17
7156,17
7157,18
7158,18
7159,18
7160,17
7161,17
7162,17
7163,17
7164,17
7165,17
7166,17
7167,17
7168,17
7169,17
7170,17
7171,17
7172,17
7173,17
7174,17
7175,17
7176,17
7177,17
7178,17
7179,17
7180,17
7181,17
7182,17
7183,17
7184,17
7185,17
7186,17
7187,17
7188,17
7189,17
7190,17
7191,17
7192,17
7193,17
7194,17
7195,17
7196,17
7197,17
7198,17
7199,17
7200,17
7201,17
7202,17
7203,17
7204,17
7205,17
7206,17
7207,17
7208,17
7209,17
7210,17
7211,17
7212,17
7213,17
7214,17
7215,17
7216,17
7217,17
7218,17
7219,17
7220,17
7221,17
7222,17
7223,18
7224,17
7225,17
7226,17
7227,17
7228,17
7229,17
7230,17
7231,17
7232,17
7233,17
7234,17
7235,17
7236,17
7237,17
7238,17
7239,17
7240,17
7241,17
7242,17
7243,17
7244,17
7245,17
7246,17
7247,17
7248,17
7249,17
7250,17
7251,17
7252,17
7253,17
7254,17
7255,17
7256,17
7257,17
7258,17
7259,17
7260,17
7261,17
7262,17
7263,17
7264,17
7265,17
7266,17
7267,17
7268,17
7269,17
7270,17
7271,17
7272,17
7273,17
7274,17
7275,17
7276,17
7277,17
7278,17
7279,17
7280,17
7281,17
7282,17
7283,17
7284,17
7285,17
7286,17
7287,17
7288,17
7289,17
7290,17
7291,17
7292,17
7293,17
7294,17
7295,17
7296,17
7297,17
7298,17
7299,17
7300,17
7301,17
7302,17
7303,17
7304,17
7305,17
7306,17
7307,17
7308,17
7309,17
7310,17
7311,17
7312,17
7313,17
7314,18
7315,18
7316,18
7317,18
7318,18
7319,18
7320,18
7321,18
7322,18
7323,18
7324,18
7325,18
7326,18
7327,18
7328,18
7329,18
7330,18
7331,18
7332,18
7333,18
7334,18
7335,18
7336,18
7337,18
7338,18
7339,18
7340,18
7341,18
7342,18
7343,18
7344,18
7345,18
7346,18
7347,18
7348,18
7349,18
7350,18
7351,18
7352,18
7353,18
7354,18
7355,18
7356,18
7357,18
7358,18
7359,18
7360,18
7361,18
7362,18
7363,18
7364,18
7365,18
7366,18
7367,18
7368,18
7369,18
7370,18
7371,18
7372,18
7373,18
7374,18
7375,18
7376,18
7377,18
7378,18
7379,18
7380,18
7381,18
7382,18
7383,18
7384,18
7385,18
7386,18
7387,18
7388,18
7389,18
7390,18
7391,18
7392,18
7393,18
7394,18
7395,18
7396,18
7397,18
7398,18
7399,18
7400,18
7401,18
7402,18
7403,18
7404,18
7405,18
7406,18
7407,18
7408,18
7409,18
7410,18
7411,18
7412,18
7413,18
7414,18
7415,18
7416,18
7417,18
7418,18
7419,18
7420,18
7421,18
7422,18
7423,18
7424,18
7425,18
7426,18
7427,18
7428,18
7429,18
7430,18
7431,19
7432,19
7433,19
7434,18
7435,18
7436,18
7437,18
7438,18
7439,18
7440,18
7441,18
7442,18
7443,18
7444,19
7445,19
7446,19
7447,19
7448,18
7449,18
7450,18
7451,18
7452,18
7453,18
7454,18
7455,18
7456,18
7457,18
7458,18
7459,18
7460,18
7461,18
7462,18
7463,18
7464,18
7465,18
7466,18
7467,18
7468,18
7469,18
7470,18
7471,18
7472,18
7473,18
7474,18
7475,18
7476,18
7477,18
7478,18
7479,18
7480,18
7481,18
7482,18
7483,18
7484,18
7485,18
7486,18
7487,18
7488,18
7489,18
7490,18
7491,18
7492,18
7493,18
7494,18
7495,18
7496,18
7497,18
7498,18
7499,18
7500,18
7501,18
7502,18
7503,18
7504,18
7505,18
7506,18
7507,18
7508,18
7509,18
7510,18
7511,18
7512,18
7513,18
7514,18
7515,18
7516,18
7517,18
7518,18
7519,18
7520,18
7521,18
7522,18
7523,18
7524,18
7525,18
7526,18
7527,18
7528,18
7529,18
7530,18
7531,18
7532,18
7533,18
7534,18
7535,18
7536,18
7537,18
7538,18
7539,18
7540,18
7541,18
7542,18
7543,19
7544,19
7545,19
7546,19
7547,19
7548,19
7549,18
7550,18
7551,18
7552,18
7553,18
7554,18
7555,18
7556,18
7557,18
7558,18
7559,18
7560,18
7561,18
7562,18
7563,18
7564,18
7565,18
7566,18
7567,18
7568,18
7569,18
7570,18
7571,18
7572,18
7573,18
7574,18
7575,18
7576,18
7577,18
7578,18
7579,18
7580,18
7581,18
7582,18
7583,18
7584,18
7585,18
7586,18
7587,18
7588,18
7589,18
7590,18
7591,18
7592,18
7593,18
7594,18
7595,18
7596,18
7597,18
7598,18
7599,18
7600,18
7601,18
7602,18
7603,18
7604,18
7605,18
7606,18
7607,18
7608,18
7609,18
7610,18
7611,18
7612,18
7613,18
7614,18
7615,18
7616,18
7617,18
7618,18
7619,18
7620,18
7621,18
7622,18
7623,18
7624,18
7625,18
7626,18
7627,18
7628,18
7629,18
7630,18
7631,18
7632,18
7633,18
7634,18
7635,18
7636,18
7637,18
7638,18
7639,18
7640,18
7641,18
7642,18
7643,18
7644,18
7645,18
7646,18
7647,18
7648,18
7649,18
7650,18
7651,18
7652,18
7653,18
7654,18
7655,18
7656,18
7657,18
7658,18
7659,18
7660,18
7661,18
7662,18
7663,18
7664,18
7665,18
7666,18
7667,18
7668,18
7669,18
7670,18
7671,18
7672,18
7673,18
7674,18
7675,18
7676,18
7677,18
7678,18
7679,18
7680,18
7681,18
7682,18
7683,18
7684,18
7685,18
7686,18
7687,18
7688,18
7689,18
7690,18
7691,18
7692,18
7693,18
7694,18
7695,18
7696,18
7697,18
7698,18
7699,18
7700,18
7701,18
7702,18
7703,18
7704,18
7705,18
7706,18
7707,18
7708,18
7709,18
7710,18
7711,18
7712,18
7713,18
7714,18
7715,18
7716,18
7717,18
7718,18
7719,18
7720,18
7721,18
7722,18
7723,18
7724,18
7725,18
7726,18
7727,18
7728,18
7729,18
7730,18
7731,18
7732,18
7733,18
7734,18
7735,18
7736,19
7737,18
7738,18
7739,18
7740,18
7741,18
7742,18
7743,18
7744,18
7745,18
7746,18
7747,18
7748,18
7749,18
7750,18
7751,18
7752,18
7753,18
7754,18
7755,18
7756,18
7757,18
7758,18
7759,18
7760,18
7761,18
7762,18
7763,18
7764,18
7765,18
7766,18
7767,18
7768,18
7769,18
7770,18
7771,18
7772,18
7773,18
7774,18
7775,18
7776,18
7777,18
7778,18
7779,18
7780,18
7781,18
7782,18
7783,18
7784,18
7785,18
7786,18
7787,18
7788,18
7789,18
7790,18
7791,18
7792,18
7793,18
7794,18
7795,18
7796,18
7797,18
7798,18
7799,18
7800,18
7801,18
7802,18
7803,18
7804,18
7805,18
7806,18
7807,18
7808,18
7809,18
7810,18
7811,18
7812,18
7813,18
7814,18
7815,18
7816,18
7817,18
7818,18
7819,18
7820,18
7821,18
7822,18
7823,18
7824,18
7825,18
7826,18
7827,18
7828,18
7829,18
7830,18
7831,18
7832,18
7833,18
7834,18
7835,18
7836,18
7837,18
7838,18
7839,18
7840,18
7841,18
7842,18
7843,18
7844,18
7845,18
7846,19
7847,18
7848,18
7849,18
7850,18
7851,18
7852,18
7853,18
7854,18
7855,18
7856,18
7857,18
7858,18
7859,18
7860,18
7861,18
7862,18
7863,18
7864,18
7865,18
7866,18
7867,18
7868,18
7869,18
7870,18
7871,18
7872,18
7873,18
7874,18
7875,18
7876,18
7877,18
7878,18
7879,18
7880,18
7881,18
7882,18
7883,18
7884,18
7885,18
7886,18
7887,18
7888,18
7889,19
7890,18
7891,18
7892,18
7893,18
7894,18
7895,18
7896,18
7897,18
7898,18
7899,18
7900,18
7901,18
7902,18
7903,18
7904,18
7905,18
7906,18
7907,18
7908,18
7909,19
7910,18
7911,18
7912,18
7913,18
7914,18
7915,19
7916,18
7917,18
7918,18
7919,18
7920,18
7921,18
7922,18
7923,18
7924,18
7925,18
7926,18
7927,18
7928,18
7929,18
7930,18
7931,18
7932,18
7933,18
7934,18
7935,18
7936,18
7937,18
7938,18
7939,18
7940,18
7941,18
7942,18
7943,18
7944,18
7945,18
7946,18
7947,18
7948,18
7949,18
7950,18
7951,18
7952,18
7953,18
7954,18
7955,18
7956,18
7957,18
7958,18
7959,18
7960,18
7961,18
7962,18
7963,18
7964,18
7965,18
7966,18
7967,18
7968,18
7969,18
7970,18
7971,18
7972,18
7973,18
7974,18
7975,18
7976,19
7977,19
7978,19
7979,19
7980,19
7981,19
7982,19
7983,19
7984,19
7985,19
7986,19
7987,19
7988,19
7989,19
7990,18
7991,18
7992,18
7993,18
7994,18
7995,18
7996,18
7997,18
7998,18
7999,18
8000,18
8001,18
8002,18
8003,18
8004,18
8005,19
8006,19
8007,19
8008,19
8009,18
8010,18
8011,18
8012,18
8013,18
8014,18
8015,18
8016,18
8017,18
8018,18
8019,18
8020,18
8021,18
8022,18
8023,18
8024,18
8025,18
8026,18
8027,18
8028,18
8029,18
8030,18
8031,18
8032,18
8033,18
8034,18
8035,18
8036,18
8037,18
8038,18
8039,18
8040,18
8041,18
8042,18
8043,18
8044,18
8045,18
8046,18
8047,18
8048,18
8049,18
8050,18
8051,18
8052,18
8053,18
8054,18
8055,18
8056,18
8057,18
8058,18
8059,18
8060,18
8061,18
8062,18
8063,18
8064,18
8065,18
8066,18
8067,18
8068,18
8069,18
8070,18
8071,18
8072,18
8073,18
8074,18
8075,18
8076,18
8077,18
8078,18
8079,18
8080,18
8081,18
8082,18
8083,18
8084,18
8085,18
8086,18
8087,18
8088,18
8089,18
8090,18
8091,18
8092,18
8093,18
8094,18
8095,18
8096,18
8097,18
8098,18
8099,18
8100,18
8101,18
8102,18
8103,18
8104,18
8105,18
8106,18
8107,18
8108,18
8109,18
8110,18
8111,18
8112,18
8113,18
8114,18
8115,18
8116,18
8117,19
8118,18
8119,18
8120,18
8121,18
8122,18
8123,18
8124,18
8125,18
8126,18
8127,18
8128,18
8129,18
8130,18
8131,18
8132,18
8133,18
8134,18
8135,18
8136,18
8137,18
8138,18
8139,18
8140,18
8141,18
8142,18
8143,18
8144,18
8145,18
8146,18
8147,18
8148,19
8149,19
8150,19
8151,19
8152,19
8153,18
8154,18
8155,18
8156,18
8157,18
8158,18
8159,18
8160,18
8161,18
8162,18
8163,18
8164,18
8165,18
8166,18
8167,18
8168,18
8169,18
8170,18
8171,18
8172,18
8173,18
8174,18
8175,18
8176,18
8177,18
8178,18
8179,18
8180,18
8181,18
8182,18
8183,18
8184,18
8185,18
8186,18
8187,18
8188,18
8189,18
8190,18
8191,18
8192,18
8193,18
8194,18
8195,18
8196,18
8197,18
8198,18
8199,18
8200,18
8201,18
8202,18
8203,18
8204,18
8205,18
8206,18
8207,18
8208,18
8209,18
8210,18
8211,18
8212,18
8213,18
8214,18
8215,18
8216,18
8217,18
8218,18
8219,18
8220,18
8221,18
8222,18
8223,18
8224,18
8225,18
8226,18
8227,18
8228,18
8229,19
8230,18
8231,18
8232,18
8233,18
8234,18
8235,18
8236,18
8237,18
8238,18
8239,18
8240,18
8241,18
8242,18
8243,18
8244,18
8245,18
8246,18
8247,18
8248,18
8249,18
8250,18
8251,18
8252,18
8253,18
8254,18
8255,18
8256,18
8257,18
8258,18
8259,18
8260,18
8261,18
8262,18
8263,18
8264,18
8265,18
8266,18
8267,18
8268,18
8269,18
8270,18
8271,18
8272,18
8273,18
8274,18
8275,18
8276,18
8277,18
8278,18
8279,18
8280,18
8281,18
8282,18
8283,18
8284,18
8285,18
8286,18
8287,18
8288,18
8289,18
8290,18
8291,18
8292,18
8293,18
8294,18
8295,18
8296,18
8297,18
8298,18
8299,18
8300,18
8301,18
8302,18
8303,18
8304,18
8305,18
8306,18
8307,18
8308,18
8309,18
8310,18
8311,18
8312,18
8313,18
8314,18
8315,18
8316,18
8317,18
8318,18
8319,18
8320,18
8321,18
8322,18
8323,18
8324,18
8325,18
8326,18
8327,18
8328,18
8329,18
8330,18
8331,18
8332,18
8333,18
8334,18
8335,18
8336,18
8337,18
8338,18
8339,18
8340,18
8341,18
8342,18
8343,18
8344,18
8345,18
8346,18
8347,18
8348,18
8349,18
8350,18
8351,18
8352,18
8353,18
8354,18
8355,18
8356,18
8357,18
8358,18
8359,18
8360,18
8361,18
8362,18
8363,18
8364,18
8365,18
8366,18
8367,18
8368,18
8369,18
8370,18
8371,18
8372,18
8373,18
8374,18
8375,18
8376,18
8377,18
8378,18
8379,18
8380,18
8381,18
8382,18
8383,18
8384,18
8385,18
8386,18
8387,18
8388,18
8389,18
8390,18
8391,18
8392,18
8393,18
8394,18
8395,18
8396,18
8397,18
8398,18
8399,18
8400,18
8401,18
8402,18
8403,18
8404,18
8405,19
8406,18
8407,18
8408,18
8409,18
8410,18
8411,18
8412,18
8413,18
8414,18
8415,18
8416,18
8417,18
8418,18
8419,18
8420,18
8421,18
8422,18
8423,18
8424,18
8425,18
8426,18
8427,18
8428,18
8429,18
8430,18
8431,18
8432,18
8433,18
8434,18
8435,18
8436,18
8437,18
8438,18
8439,18
8440,18
8441,18
8442,18
8443,18
8444,18
8445,18
8446,18
8447,18
8448,18
8449,18
8450,18
8451,18
8452,18
8453,18
8454,18
8455,18
8456,18
8457,18
8458,18
8459,18
8460,18
8461,18
8462,18
8463,18
8464,18
8465,18
8466,18
8467,18
8468,18
8469,18
8470,18
8471,18
8472,18
8473,18
8474,18
8475,18
8476,18
8477,18
8478,18
8479,18
8480,18
8481,18
8482,18
8483,18
8484,18
8485,18
8486,18
8487,18
8488,18
8489,18
8490,18
8491,18
8492,18
8493,18
8494,18
8495,18
8496,18
8497,18
8498,18
8499,18
8500,18
8501,18
8502,18
8503,19
8504,18
8505,18
8506,18
8507,18
8508,18
8509,18
8510,18
8511,18
8512,18
8513,18
8514,18
8515,18
8516,18
8517,18
8518,18
8519,18
8520,18
8521,18
8522,18
8523,18
8524,18
8525,18
8526,18
8527,18
8528,18
8529,18
8530,18
8531,18
8532,18
8533,18
8534,18
8535,18
8536,18
8537,18
8538,18
8539,18
8540,18
8541,18
8542,18
8543,18
8544,18
8545,18
8546,18
8547,18
8548,18
8549,18
8550,18
8551,18
8552,18
8553,18
8554,18
8555,18
8556,18
8557,18
8558,18
8559,18
8560,18
8561,18
8562,18
8563,18
8564,18
8565,18
8566,18
8567,18
8568,18
8569,18
8570,18
8571,18
8572,18
8573,18
8574,18
8575,18
8576,18
8577,18
8578,18
8579,18
8580,18
8581,18
8582,18
8583,18
8584,18
8585,18
8586,18
8587,18
8588,18
8589,18
8590,18
8591,18
8592,18
8593,18
8594,18
8595,18
8596,18
8597,18
8598,18
8599,18
8600,18
8601,18
8602,18
8603,18
8604,18
8605,18
8606,18
8607,18
8608,18
8609,18
8610,18
8611,18
8612,18
8613,18
8614,18
8615,18
8616,18
8617,18
8618,18
8619,18
8620,18
8621,18
8622,18
8623,18
8624,18
8625,18
8626,18
8627,18
8628,18
8629,18
8630,18
8631,18
8632,18
8633,18
8634,18
8635,18
8636,18
8637,18
8638,18
8639,18
8640,18
8641,18
8642,18
8643,18
8644,18
8645,18
8646,18
8647,18
8648,18
8649,18
8650,18
8651,18
8652,18
8653,18
8654,18
8655,18
8656,18
8657,18
8658,18
8659,18
8660,18
8661,18
8662,18
8663,18
8664,18
8665,18
8666,18
8667,18
8668,18
8669,18
8670,18
8671,18
8672,18
8673,18
8674,18
8675,18
8676,18
8677,18
8678,18
8679,18
8680,18
8681,18
8682,18
8683,18
8684,18
8685,18
8686,18
8687,18
8688,18
8689,18
8690,18
8691,18
8692,18
8693,18
8694,18
8695,18
8696,18
8697,18
8698,18
8699,18
8700,18
8701,18
8702,18
8703,18
8704,18
8705,18
8706,18
8707,18
8708,18
8709,19
8710,19
8711,18
8712,18
8713,18
8714,18
8715,18
8716,18
8717,18
8718,18
8719,18
8720,18
8721,18
8722,18
8723,18
8724,18
8725,18
8726,18
8727,18
8728,18
8729,18
8730,18
8731,18
8732,18
8733,18
8734,18
8735,18
8736,18
8737,18
8738,18
8739,18
8740,18
8741,18
8742,18
8743,18
8744,18
8745,18
8746,18
8747,18
8748,18
8749,18
8750,18
8751,18
8752,18
8753,18
8754,18
8755,18
8756,18
8757,18
8758,18
8759,18
8760,18
8761,18
8762,18
8763,18
8764,18
8765,18
8766,18
8767,18
8768,18
8769,18
8770,18
8771,18
8772,18
8773,18
8774,18
8775,18
8776,18
8777,18
8778,18
8779,18
8780,18
8781,18
8782,18
8783,18
8784,18
8785,18
8786,18
8787,18
8788,18
8789,18
8790,18
8791,18
8792,18
8793,18
8794,18
8795,18
8796,18
8797,18
8798,18
8799,18
8800,18
8801,18
8802,18
8803,18
8804,18
8805,18
8806,18
8807,18
8808,18
8809,18
8810,18
8811,18
8812,18
8813,18
8814,18
8815,18
8816,18
8817,18
8818,18
8819,18
8820,18
8821,18
8822,18
8823,18
8824,18
8825,18
8826,18
8827,18
8828,18
8829,18
8830,18
8831,18
8832,18
8833,18
8834,18
8835,18
8836,18
8837,18
8838,18
8839,18
8840,18
8841,18
8842,18
8843,18
8844,18
8845,18
8846,18
8847,18
8848,18
8849,18
8850,18
8851,18
8852,18
8853,18
8854,18
8855,18
8856,18
8857,18
8858,18
8859,18
8860,18
8861,19
8862,18
8863,18
8864,18
8865,19
8866,19
8867,19
8868,18
8869,18
8870,18
8871,18
8872,18
8873,18
8874,18
8875,18
8876,18
8877,18
8878,18
8879,18
8880,18
8881,18
8882,18
8883,18
8884,18
8885,18
8886,18
8887,18
8888,18
8889,18
8890,18
8891,18
8892,18
8893,18
8894,18
8895,18
8896,18
8897,18
8898,18
8899,18
8900,18
8901,18
8902,18
8903,18
8904,18
8905,18
8906,18
8907,18
8908,18
8909,18
8910,18
8911,18
8912,18
8913,18
8914,18
8915,18
8916,18
8917,18
8918,18
8919,18
8920,18
8921,18
8922,18
8923,18
8924,18
8925,18
8926,18
8927,18
8928,18
8929,18
8930,18
8931,18
8932,18
8933,18
8934,18
8935,18
8936,18
8937,18
8938,18
8939,18
8940,18
8941,18
8942,18
8943,18
8944,18
8945,18
8946,18
8947,18
8948,18
8949,18
8950,18
8951,18
8952,18
8953,18
8954,18
8955,18
8956,18
8957,18
8958,18
8959,18
8960,18
8961,18
8962,18
8963,18
8964,18
8965,18
8966,18
8967,18
8968,18
8969,18
8970,19
8971,18
8972,18
8973,18
8974,18
8975,18
8976,18
8977,18
8978,18
8979,18
8980,18
8981,18
8982,18
8983,18
8984,18
8985,18
8986,18
8987,18
8988,18
8989,18
8990,18
8991,18
8992,18
8993,18
8994,18
8995,18
8996,18
8997,18
8998,18
8999,18
9000,18
9001,18
9002,18
9003,18
9004,18
9005,18
9006,18
9007,18
9008,18
9009,18
9010,18
9011,18
9012,18
9013,18
9014,18
9015,18
9016,18
9017,18
9018,18
9019,18
9020,18
9021,18
9022,18
9023,18
9024,18
9025,18
9026,18
9027,18
9028,18
9029,18
9030,18
9031,18
9032,18
9033,18
9034,18
9035,18
9036,18
9037,18
9038,18
9039,18
9040,18
9041,18
9042,18
9043,18
9044,18
9045,18
9046,18
9047,18
9048,18
9049,18
9050,18
9051,18
9052,18
9053,18
9054,18
9055,18
9056,18
9057,18
9058,18
9059,18
9060,18
9061,18
9062,18
9063,18
9064,18
9065,18
9066,18
9067,18
9068,18
9069,18
9070,18
9071,18
9072,18
9073,18
9074,18
9075,18
9076,18
9077,18
9078,18
9079,18
9080,18
9081,18
9082,18
9083,18
9084,18
9085,18
9086,18
9087,18
9088,18
9089,18
9090,18
9091,18
9092,18
9093,18
9094,18
9095,18
9096,18
9097,18
9098,18
9099,18
9100,18
9101,18
9102,18
9103,18
9104,18
9105,18
9106,18
9107,18
9108,18
9109,18
9110,18
9111,18
9112,18
9113,18
9114,18
9115,18
9116,18
9117,18
9118,18
9119,18
9120,18
9121,18
9122,18
9123,18
9124,18
9125,18
9126,18
9127,18
9128,18
9129,18
9130,18
9131,18
9132,18
9133,18
9134,18
9135,18
9136,18
9137,18
9138,18
9139,18
9140,18
9141,18
9142,18
9143,18
9144,18
9145,18
9146,18
9147,18
9148,18
9149,18
9150,18
9151,18
9152,18
9153,18
9154,18
9155,18
9156,18
9157,18
9158,18
9159,18
9160,18
9161,18
9162,18
9163,18
9164,18
9165,18
9166,18
9167,19
9168,18
9169,18
9170,18
9171,18
9172,18
9173,18
9174,18
9175,18
9176,18
9177,18
9178,18
9179,18
9180,18
9181,18
9182,18
9183,18
9184,18
9185,18
9186,18
9187,18
9188,18
9189,18
9190,18
9191,18
9192,18
9193,18
9194,18
9195,18
9196,18
9197,18
9198,18
9199,18
9200,18
9201,18
9202,18
9203,18
9204,18
9205,18
9206,18
9207,18
9208,18
9209,18
9210,18
9211,18
9212,18
9213,18
9214,18
9215,18
9216,18
9217,18
9218,18
9219,18
9220,18
9221,18
9222,18
9223,18
9224,18
9225,18
9226,18
9227,18
9228,18
9229,18
9230,18
9231,18
9232,18
9233,18
9234,18
9235,18
9236,18
9237,18
9238,18
9239,18
9240,18
9241,18
9242,18
9243,18
9244,18
9245,18
9246,18
9247,18
9248,18
9249,18
9250,18
9251,18
9252,18
9253,18
9254,18
9255,18
9256,18
9257,18
9258,18
9259,18
9260,18
9261,18
9262,18
9263,18
9264,18
9265,19
9266,18
9267,18
9268,18
9269,18
9270,18
9271,18
9272,18
9273,18
9274,18
9275,18
9276,18
9277,18
9278,18
9279,18
9280,18
9281,18
9282,18
9283,18
9284,18
9285,18
9286,18
9287,18
9288,18
9289,18
9290,18
9291,18
9292,18
9293,18
9294,18
9295,18
9296,18
9297,18
9298,18
9299,18
9300,18
9301,18
9302,18
9303,18
9304,18
9305,18
9306,18
9307,18
9308,18
9309,18
9310,18
9311,18
9312,18
9313,18
9314,18
9315,18
9316,18
9317,18
9318,18
9319,18
9320,18
9321,18
9322,18
9323,18
9324,18
9325,18
9326,18
9327,18
9328,18
9329,18
9330,18
9331,18
9332,18
9333,18
9334,18
9335,18
9336,18
9337,18
9338,18
9339,18
9340,18
9341,18
9342,18
9343,18
9344,18
9345,18
9346,18
9347,18
9348,18
9349,18
9350,18
9351,18
9352,18
9353,18
9354,18
9355,18
9356,18
9357,18
9358,18
9359,18
9360,18
9361,18
9362,18
9363,18
9364,18
9365,18
9366,18
9367,18
9368,18
9369,18
9370,18
9371,18
9372,18
9373,18
9374,18
9375,18
9376,18
9377,18
9378,18
9379,18
9380,18
9381,18
9382,18
9383,18
9384,18
9385,18
9386,18
9387,18
9388,18
9389,18
9390,18
9391,18
9392,18
9393,18
9394,18
9395,18
9396,18
9397,18
9398,18
9399,18
9400,18
9401,18
9402,18
9403,18
9404,18
9405,18
9406,18
9407,18
9408,18
9409,18
9410,18
9411,18
9412,18
9413,18
9414,18
9415,18
9416,18
9417,18
9418,18
9419,18
9420,19
9421,18
9422,18
9423,18
9424,18
9425,18
9426,18
9427,18
9428,18
9429,18
9430,18
9431,18
9432,18
9433,18
9434,18
9435,18
9436,18
9437,18
9438,18
9439,18
9440,18
9441,18
9442,18
9443,18
9444,18
9445,18
9446,18
9447,18
9448,19
9449,18
9450,18
9451,18
9452,18
9453,18
9454,18
9455,18
9456,18
9457,18
9458,18
9459,18
9460,18
9461,18
9462,18
9463,18
9464,18
9465,18
9466,18
9467,18
9468,18
9469,18
9470,18
9471,18
9472,18
9473,18
9474,18
9475,18
9476,18
9477,18
9478,18
9479,18
9480,18
9481,18
9482,18
9483,18
9484,18
9485,18
9486,18
9487,18
9488,18
9489,18
9490,18
9491,18
9492,18
9493,18
9494,18
9495,18
9496,18
9497,18
9498,18
9499,18
9500,18
9501,18
9502,18
9503,18
9504,18
9505,18
9506,19
9507,18
9508,18
9509,18
9510,18
9511,18
9512,18
9513,18
9514,18
9515,18
9516,18
9517,18
9518,18
9519,18
9520,18
9521,18
9522,18
9523,18
9524,18
9525,18
9526,18
9527,18
9528,18
9529,18
9530,18
9531,18
9532,18
9533,18
9534,18
9535,18
9536,18
9537,18
9538,18
9539,18
9540,18
9541,18
9542,18
9543,18
9544,18
9545,18
9546,18
9547,18
9548,18
9549,18
9550,18
9551,18
9552,18
9553,18
9554,18
9555,18
9556,18
9557,18
9558,18
9559,18
9560,18
9561,18
9562,18
9563,18
9564,18
9565,18
9566,18
9567,18
9568,18
9569,18
9570,18
9571,18
9572,18
9573,18
9574,18
9575,18
9576,18
9577,18
9578,18
9579,18
9580,18
9581,18
9582,18
9583,18
9584,18
9585,18
9586,18
9587,18
9588,18
9589,18
9590,18
9591,18
9592,18
9593,18
9594,18
9595,18
9596,19
9597,18
9598,18
9599,18
9600,18
9601,18
9602,18
9603,18
9604,18
9605,18
9606,18
9607,18
9608,18
9609,18
9610,18
9611,18
9612,18
9613,18
9614,18
9615,18
9616,18
9617,18
9618,18
9619,18
9620,18
9621,18
9622,18
9623,18
9624,18
9625,18
9626,18
9627,18
9628,18
9629,18
9630,18
9631,18
9632,18
9633,18
9634,18
9635,18
9636,18
9637,18
9638,18
9639,18
9640,18
9641,18
9642,18
9643,18
9644,18
9645,18
9646,18
9647,18
9648,18
9649,19
9650,19
9651,19
9652,19
9653,19
9654,19
9655,19
9656,19
9657,19
9658,19
9659,19
9660,19
9661,19
9662,19
9663,19
9664,19
9665,19
9666,19
9667,19
9668,19
9669,19
9670,19
9671,19
9672,19
9673,19
9674,19
9675,19
9676,19
9677,19
9678,19
9679,19
9680,19
9681,18
9682,18
9683,18
9684,18
9685,18
9686,18
9687,18
9688,18
9689,18
9690,18
9691,18
9692,18
9693,18
9694,18
9695,18
9696,18
9697,18
9698,18
9699,18
9700,18
9701,18
9702,18
9703,18
9704,18
9705,18
9706,18
9707,18
9708,18
9709,18
9710,18
9711,18
9712,18
9713,18
9714,18
9715,18
9716,18
9717,18
9718,18
9719,18
9720,18
9721,18
9722,18
9723,18
9724,18
9725,18
9726,19
9727,19
9728,19
9729,19
9730,19
9731,19
9732,19
9733,19
9734,19
9735,19
9736,19
9737,19
9738,19
9739,18
9740,18
9741,18
9742,18
9743,18
9744,18
9745,18
9746,18
9747,18
9748,18
9749,18
9750,18
9751,18
9752,18
9753,18
9754,18
9755,18
9756,18
9757,18
9758,18
9759,18
9760,18
9761,18
9762,18
9763,18
9764,18
9765,18
9766,18
9767,18
9768,18
9769,18
9770,18
9771,18
9772,18
9773,18
9774,18
9775,18
9776,18
9777,18
9778,18
9779,18
9780,18
9781,18
9782,18
9783,18
9784,18
9785,18
9786,18
9787,18
9788,18
9789,18
9790,18
9791,18
9792,18
9793,18
9794,18
9795,18
9796,18
9797,18
9798,18
9799,18
9800,18
9801,18
9802,18
9803,18
9804,18
9805,18
9806,18
9807,18
9808,18
9809,18
9810,18
9811,18
9812,18
9813,18
9814,18
9815,18
9816,18
9817,18
9818,18
9819,18
9820,18
9821,18
9822,18
9823,18
9824,18
9825,18
9826,18
9827,18
9828,18
9829,18
9830,18
9831,18
9832,18
9833,18
9834,18
9835,18
9836,18
9837,18
9838,18
9839,18
9840,18
9841,18
9842,18
9843,18
9844,18
9845,18
9846,18
9847,18
9848,19
9849,19
9850,19
9851,19
9852,19
9853,19
9854,19
9855,19
9856,19
9857,19
9858,19
9859,19
9860,19
9861,20
9862,19
9863,19
9864,19
9865,19
9866,19
9867,19
9868,19
9869,19
9870,19
9871,19
9872,19
9873,19
9874,19
9875,19
9876,19
9877,19
9878,19
9879,19
9880,19
9881,19
9882,19
9883,19
9884,19
9885,19
9886,19
9887,19
9888,19
9889,19
9890,19
9891,19
9892,19
9893,19
9894,19
9895,19
9896,19
9897,19
9898,19
9899,19
9900,19
9901,19
9902,19
9903,19
9904,19
9905,19
9906,19
9907,19
9908,19
9909,19
9910,19
9911,19
9912,19
9913,19
9914,19
9915,19
9916,19
9917,19
9918,19
9919,19
9920,19
9921,19
9922,19
9923,19
9924,19
9925,19
9926,19
9927,19
9928,19
9929,19
9930,19
9931,19
9932,19
9933,19
9934,19
9935,19
9936,19
9937,19
9938,19
9939,19
9940,19
9941,19
9942,19
9943,19
9944,19
9945,19
9946,19
9947,19
9948,19
9949,19
9950,19
9951,19
9952,19
9953,19
9954,19
9955,19
9956,19
9957,19
9958,19
9959,19
9960,19
9961,19
9962,19
9963,19
9964,19
9965,19
9966,19
9967,19
9968,19
9969,19
9970,19
9971,19
9972,19
9973,19
9974,19
9975,19
9976,19
9977,19
9978,19
9979,19
9980,19
9981,19
9982,19
9983,19
9984,19
9985,19
9986,19
9987,19
9988,19
9989,19
9990,19
9991,19
9992,19
9993,19
9994,19
9995,19
9996,19
9997,19
9998,19
9999,19
10000,19
