1,3
2,3
3,3
4,3
5,3
6,3
7,3
8,3
9,3
10,3
11,3
12,3
13,3
14,3
15,3
16,3
17,3
18,3
19,3
20,3
21,3
22,3
23,3
24,3
25,3
26,3
27,3
28,3
29,3
30,3
31,3
32,3
33,3
34,3
35,3
36,3
37,3
38,3
39,3
40,3
41,3
42,3
43,4
44,4
45,4
46,4
47,4
48,4
49,4
50,4
51,4
52,4
53,4
54,4
55,4
56,4
57,4
58,4
59,4
60,4
61,4
62,4
63,4
64,4
65,4
66,4
67,4
68,4
69,4
70,4
71,4
72,4
73,4
74,4
75,4
76,4
77,4
78,4
79,4
80,4
81,4
82,4
83,4
84,4
85,4
86,4
87,4
88,4
89,4
90,4
91,4
92,4
93,4
94,4
95,4
96,4
97,4
98,4
99,4
100,4
101,4
102,4
103,4
104,4
105,4
106,4
107,4
108,4
109,4
110,4
111,4
112,4
113,4
114,4
115,4
116,4
117,4
118,4
119,4
120,4
121,4
122,4
123,4
124,4
125,4
126,4
127,4
128,4
129,4
130,4
131,4
132,4
133,4
134,4
135,4
136,4
137,4
138,4
139,4
140,4
141,4
142,4
143,4
144,4
145,4
146,4
147,4
148,4
149,4
150,4
151,4
152,4
153,4
154,4
155,4
156,4
157,4
158,4
159,4
160,4
161,4
162,4
163,4
164,4
165,4
166,4
167,4
168,4
169,4
170,4
171,4
172,4
173,4
174,4
175,4
176,5
177,5
178,5
179,5
180,5
181,5
182,6
183,5
184,5
185,5
186,5
187,5
188,5
189,5
190,5
191,5
192,5
193,5
194,5
195,5
196,5
197,5
198,5
199,5
200,5
201,5
202,5
203,5
204,5
205,5
206,5
207,5
208,5
209,5
210,5
211,5
212,5
213,5
214,5
215,5
216,5
217,5
218,5
219,5
220,5
221,5
222,5
223,6
224,6
225,6
226,6
227,6
228,6
229,6
230,6
231,6
232,6
233,6
234,6
235,7
236,6
237,6
238,6
239,6
240,6
241,6
242,6
243,6
244,6
245,6
246,6
247,6
248,6
249,6
250,6
251,6
252,6
253,6
254,6
255,6
256,6
257,6
258,6
259,6
260,6
261,6
262,6
263,6
264,6
265,6
266,6
267,6
268,6
269,6
270,6
271,6
272,6
273,6
274,6
275,6
276,6
277,6
278,6
279,6
280,6
281,6
282,6
283,6
284,6
285,6
286,6
287,6
288,6
289,6
290,6
291,6
292,6
293,6
294,6
295,6
296,6
297,6
298,6
299,6
300,6
301,6
302,6
303,6
304,6
305,6
306,6
307,6
308,6
309,6
310,6
311,6
312,6
313,6
314,6
315,6
316,6
317,6
318,6
319,6
320,6
321,6
322,6
323,6
324,6
325,6
326,6
327,6
328,6
329,6
330,6
331,6
332,6
333,6
334,6
335,6
336,6
337,6
338,6
339,6
340,6
341,6
342,6
343,6
344,6
345,6
346,6
347,6
348,6
349,6
350,6
351,6
352,6
353,6
354,6
355,6
356,6
357,7
358,6
359,6
360,6
361,6
362,6
363,6
364,6
365,6
366,6
367,6
368,6
369,6
370,6
371,6
372,6
373,6
374,6
375,6
376,6
377,6
378,6
379,6
380,6
381,6
382,6
383,6
384,6
385,6
386,6
387,6
388,6
389,6
390,6
391,6
392,6
393,6
394,6
395,6
396,6
397,6
398,6
399,6
400,6
401,6
402,6
403,6
404,6
405,6
406,6
407,6
408,6
409,6
410,6
411,6
412,6
413,6
414,6
415,6
416,6
417,6
418,6
419,6
420,6
421,6
422,6
423,6
424,6
425,6
426,6
427,6
428,6
429,6
430,6
431,6
432,6
433,6
434,6
435,6
436,6
437,6
438,6
439,6
440,6
441,6
442,6
443,6
444,6
445,6
446,6
447,6
448,6
449,6
450,6
451,6
452,6
453,7
454,6
455,6
456,6
457,6
458,6
459,6
460,6
461,6
462,6
463,6
464,6
465,6
466,6
467,6
468,6
469,6
470,6
471,6
472,6
473,6
474,6
475,6
476,6
477,6
478,6
479,6
480,6
481,6
482,6
483,6
484,6
485,6
486,6
487,6
488,6
489,6
490,6
491,6
492,6
493,6
494,6
495,6
496,6
497,6
498,6
499,6
500,6
501,6
502,6
503,6
504,6
505,6
506,6
507,6
508,6
509,6
510,6
511,6
512,6
513,6
514,6
515,6
516,6
517,6
518,6
519,6
520,6
521,6
522,6
523,6
524,6
525,6
526,6
527,6
528,6
529,6
530,6
531,6
532,6
533,6
534,6
535,6
536,6
537,6
538,6
539,6
540,6
541,6
542,6
543,6
544,6
545,6
546,6
547,6
548,6
549,6
550,6
551,6
552,6
553,6
554,6
555,6
556,6
557,6
558,6
559,6
560,6
561,6
562,6
563,6
564,6
565,6
566,6
567,6
568,6
569,6
570,6
571,6
572,6
573,6
574,6
575,6
576,6
577,6
578,6
579,6
580,6
581,6
582,6
583,6
584,6
585,6
586,6
587,6
588,6
589,6
590,6
591,6
592,6
593,6
594,6
595,6
596,6
597,6
598,6
599,6
600,6
601,6
602,6
603,6
604,6
605,6
606,6
607,6
608,6
609,6
610,6
611,6
612,6
613,6
614,6
615,6
616,6
617,6
618,6
619,6
620,6
621,6
622,6
623,6
624,6
625,6
626,6
627,6
628,6
629,6
630,6
631,6
632,6
633,6
634,6
635,6
636,6
637,6
638,6
639,6
640,6
641,6
642,6
643,6
644,6
645,6
646,6
647,6
648,6
649,6
650,6
651,6
652,6
653,6
654,6
655,6
656,6
657,6
658,6
659,6
660,6
661,6
662,6
663,6
664,6
665,6
666,6
667,6
668,6
669,6
670,6
671,6
672,6
673,6
674,6
675,6
676,6
677,6
678,6
679,6
680,6
681,6
682,6
683,6
684,6
685,6
686,6
687,6
688,6
689,6
690,6
691,6
692,6
693,6
694,6
695,6
696,6
697,6
698,6
699,6
700,7
701,7
702,7
703,7
704,7
705,7
706,7
707,7
708,7
709,7
710,7
711,7
712,7
713,7
714,7
715,7
716,7
717,7
718,7
719,7
720,7
721,7
722,7
723,7
724,7
725,7
726,7
727,7
728,7
729,7
730,7
731,7
732,7
733,7
734,7
735,7
736,7
737,7
738,7
739,7
740,7
741,7
742,7
743,7
744,7
745,7
746,8
747,8
748,8
749,8
750,8
751,8
752,8
753,8
754,8
755,8
756,8
757,8
758,8
759,8
760,8
761,8
762,9
763,8
764,8
765,8
766,8
767,8
768,8
769,8
770,8
771,8
772,8
773,8
774,8
775,8
776,8
777,8
778,8
779,8
780,8
781,8
782,8
783,8
784,8
785,8
786,8
787,8
788,8
789,8
790,8
791,8
792,8
793,8
794,8
795,8
796,8
797,8
798,8
799,8
800,8
801,8
802,8
803,8
804,8
805,8
806,8
807,8
808,8
809,8
810,8
811,8
812,8
813,8
814,8
815,8
816,8
817,8
818,8
819,8
820,8
821,8
822,8
823,8
824,8
825,8
826,8
827,8
828,8
829,8
830,8
831,8
832,8
833,8
834,8
835,8
836,8
837,8
838,8
839,8
840,8
841,8
842,8
843,8
844,8
845,8
846,8
847,8
848,8
849,8
850,8
851,8
852,8
853,8
854,8
855,8
856,8
857,8
858,8
859,8
860,8
861,8
862,8
863,8
864,8
865,8
866,8
867,8
868,8
869,8
870,8
871,8
872,8
873,8
874,8
875,8
876,8
877,8
878,8
879,8
880,8
881,8
882,8
883,8
884,8
885,8
886,8
887,8
888,8
889,8
890,8
891,8
892,8
893,8
894,8
895,8
896,8
897,8
898,8
899,8
900,8
901,8
902,8
903,8
904,8
905,8
906,8
907,8
908,8
909,8
910,8
911,8
912,8
913,8
914,8
915,8
916,8
917,8
918,8
919,8
920,8
921,8
922,8
923,8
924,8
925,8
926,8
927,8
928,8
929,8
930,8
931,8
932,8
933,8
934,8
935,8
936,8
937,8
938,8
939,8
940,8
941,8
942,8
943,8
944,8
945,8
946,8
947,8
948,8
949,8
950,8
951,8
952,8
953,8
954,8
955,8
956,8
957,8
958,8
959,8
960,8
961,8
962,8
963,8
964,8
965,8
966,8
967,8
968,8
969,8
970,8
971,8
972,8
973,8
974,8
975,8
976,8
977,8
978,8
979,8
980,8
981,8
982,8
983,8
984,8
985,8
986,8
987,8
988,8
989,8
990,8
991,8
992,8
993,8
994,8
995,8
996,8
997,8
998,8
999,8
1000,8
1001,8
1002,8
1003,8
1004,8
1005,8
1006,8
1007,8
1008,8
1009,8
1010,8
1011,8
1012,8
1013,8
1014,8
1015,8
1016,8
1017,8
1018,8
1019,8
1020,8
1021,8
1022,8
1023,8
1024,8
1025,8
1026,8
1027,8
1028,8
1029,8
1030,8
1031,8
1032,8
1033,8
1034,8
1035,9
1036,9
1037,9
1038,9
1039,9
1040,9
1041,9
1042,9
1043,9
1044,9
1045,9
1046,10
1047,10
1048,10
1049,9
1050,9
1051,9
1052,9
1053,9
1054,9
1055,9
1056,9
1057,9
1058,9
1059,9
1060,9
1061,9
1062,9
1063,9
1064,9
1065,9
1066,9
1067,9
1068,9
1069,9
1070,9
1071,9
1072,9
1073,9
1074,9
1075,9
1076,9
1077,9
1078,9
1079,9
1080,9
1081,9
1082,9
1083,9
1084,9
1085,9
1086,9
1087,9
1088,9
1089,9
1090,9
1091,9
1092,9
1093,9
1094,9
1095,9
1096,9
1097,9
1098,9
1099,9
1100,9
1101,9
1102,9
1103,9
1104,9
1105,9
1106,9
1107,9
1108,9
1109,9
1110,9
1111,9
1112,9
1113,9
1114,9
1115,9
1116,9
1117,9
1118,9
1119,9
1120,9
1121,9
1122,9
1123,9
1124,9
1125,9
1126,9
1127,9
1128,9
1129,9
1130,9
1131,9
1132,9
1133,9
1134,9
1135,9
1136,9
1137,9
1138,9
1139,9
1140,9
1141,9
1142,9
1143,9
1144,10
1145,9
1146,9
1147,9
1148,9
1149,9
1150,9
1151,9
1152,9
1153,9
1154,9
1155,9
1156,9
1157,9
1158,9
1159,9
1160,9
1161,9
1162,9
1163,9
1164,9
1165,9
1166,9
1167,9
1168,9
1169,9
1170,9
1171,9
1172,9
1173,9
1174,9
1175,9
1176,9
1177,9
1178,9
1179,9
1180,9
1181,9
1182,9
1183,9
1184,9
1185,9
1186,9
1187,9
1188,9
1189,9
1190,9
1191,9
1192,9
1193,9
1194,9
1195,9
1196,9
1197,9
1198,9
1199,9
1200,9
1201,9
1202,9
1203,9
1204,9
1205,9
1206,9
1207,9
1208,9
1209,9
1210,9
1211,9
1212,9
1213,9
1214,9
1215,9
1216,9
1217,9
1218,9
1219,9
1220,9
1221,9
1222,9
1223,9
1224,9
1225,9
1226,9
1227,9
1228,9
1229,9
1230,9
1231,9
1232,9
1233,9
1234,9
1235,9
1236,9
1237,9
1238,9
1239,9
1240,9
1241,9
1242,9
1243,9
1244,9
1245,9
1246,9
1247,9
1248,9
1249,9
1250,10
1251,10
1252,10
1253,10
1254,10
1255,10
1256,10
1257,10
1258,10
1259,10
1260,10
1261,10
1262,10
1263,10
1264,10
1265,10
1266,10
1267,10
1268,10
1269,10
1270,10
1271,10
1272,10
1273,10
1274,10
1275,10
1276,10
1277,10
1278,10
1279,10
1280,10
1281,10
1282,10
1283,10
1284,10
1285,10
1286,10
1287,10
1288,10
1289,10
1290,10
1291,10
1292,10
1293,10
1294,10
1295,10
1296,10
1297,10
1298,10
1299,10
1300,10
1301,10
1302,10
1303,11
1304,10
1305,10
1306,10
1307,10
1308,10
1309,10
1310,10
1311,10
1312,10
1313,10
1314,10
1315,10
1316,10
1317,10
1318,10
1319,10
1320,10
1321,10
1322,10
1323,10
1324,10
1325,10
1326,10
1327,10
1328,10
1329,10
1330,10
1331,10
1332,10
1333,10
1334,10
1335,10
1336,10
1337,10
1338,10
1339,10
1340,10
1341,10
1342,10
1343,10
1344,10
1345,10
1346,10
1347,10
1348,10
1349,10
1350,10
1351,10
1352,10
1353,10
1354,10
1355,10
1356,10
1357,10
1358,10
1359,10
1360,10
1361,10
1362,10
1363,10
1364,10
1365,10
1366,11
1367,11
1368,11
1369,12
1370,13
1371,13
1372,12
1373,11
1374,11
1375,11
1376,11
1377,11
1378,11
1379,11
1380,11
1381,11
1382,11
1383,11
1384,11
1385,11
1386,11
1387,11
1388,12
1389,12
1390,12
1391,12
1392,12
1393,12
1394,12
1395,12
1396,12
1397,12
1398,12
1399,12
1400,12
1401,12
1402,12
1403,12
1404,12
1405,12
1406,12
1407,12
1408,12
1409,12
1410,12
1411,12
1412,12
1413,12
1414,12
1415,12
1416,12
1417,12
1418,12
1419,12
1420,12
1421,12
1422,12
1423,12
1424,12
1425,12
1426,12
1427,12
1428,12
1429,13
1430,12
1431,12
1432,13
1433,13
1434,13
1435,13
1436,12
1437,12
1438,12
1439,12
1440,12
1441,12
1442,12
1443,12
1444,12
1445,12
1446,12
1447,12
1448,12
1449,12
1450,12
1451,12
1452,12
1453,12
1454,12
1455,12
1456,12
1457,12
1458,12
1459,12
1460,12
1461,12
1462,12
1463,12
1464,12
1465,12
1466,12
1467,12
1468,12
1469,12
1470,12
1471,12
1472,12
1473,12
1474,13
1475,13
1476,12
1477,13
1478,12
1479,12
1480,12
1481,12
1482,12
1483,12
1484,12
1485,12
1486,12
1487,12
1488,12
1489,12
1490,12
1491,12
1492,12
1493,12
1494,12
1495,12
1496,12
1497,12
1498,12
1499,12
1500,12
1501,12
1502,12
1503,12
1504,12
1505,12
1506,12
1507,12
1508,12
1509,12
1510,12
1511,12
1512,12
1513,12
1514,12
1515,12
1516,12
1517,12
1518,12
1519,12
1520,12
1521,12
1522,12
1523,12
1524,12
1525,12
1526,12
1527,12
1528,12
1529,12
1530,12
1531,12
1532,12
1533,12
1534,12
1535,12
1536,12
1537,12
1538,12
1539,12
1540,12
1541,12
1542,12
1543,12
1544,12
1545,12
1546,12
1547,12
1548,12
1549,12
1550,12
1551,12
1552,12
1553,12
1554,12
1555,12
1556,12
1557,12
1558,12
1559,12
1560,12
1561,12
1562,12
1563,12
1564,12
1565,12
1566,12
1567,12
1568,12
1569,12
1570,12
1571,12
1572,12
1573,12
1574,12
1575,12
1576,12
1577,12
1578,12
1579,12
1580,12
1581,12
1582,12
1583,12
1584,12
1585,12
1586,12
1587,12
1588,12
1589,12
1590,12
1591,12
1592,12
1593,12
1594,12
1595,12
1596,12
1597,12
1598,12
1599,12
1600,12
1601,12
1602,12
1603,12
1604,12
1605,12
1606,12
1607,12
1608,12
1609,12
1610,12
1611,12
1612,12
1613,12
1614,12
1615,12
1616,12
1617,12
1618,12
1619,12
1620,12
1621,12
1622,12
1623,12
1624,12
1625,12
1626,12
1627,12
1628,12
1629,12
1630,12
1631,12
1632,12
1633,12
1634,12
1635,12
1636,12
1637,12
1638,12
1639,12
1640,12
1641,12
1642,12
1643,12
1644,12
1645,12
1646,12
1647,12
1648,12
1649,12
1650,12
1651,12
1652,12
1653,12
1654,12
1655,12
1656,12
1657,12
1658,12
1659,13
1660,12
1661,12
1662,12
1663,12
1664,12
1665,12
1666,12
1667,12
1668,12
1669,12
1670,12
1671,12
1672,12
1673,12
1674,12
1675,12
1676,12
1677,12
1678,12
1679,12
1680,12
1681,13
1682,13
1683,13
1684,13
1685,13
1686,13
1687,13
1688,13
1689,13
1690,13
1691,13
1692,13
1693,13
1694,14
1695,13
1696,13
1697,13
1698,13
1699,13
1700,13
1701,13
1702,13
1703,13
1704,13
1705,13
1706,13
1707,13
1708,13
1709,13
1710,13
1711,13
1712,13
1713,13
1714,13
1715,13
1716,13
1717,13
1718,13
1719,13
1720,13
1721,13
1722,13
1723,13
1724,13
1725,13
1726,13
1727,13
1728,13
1729,13
1730,13
1731,13
1732,13
1733,13
1734,13
1735,13
1736,13
1737,13
1738,13
1739,13
1740,13
1741,13
1742,13
1743,13
1744,13
1745,13
1746,13
1747,13
1748,13
1749,13
1750,13
1751,13
1752,13
1753,13
1754,13
1755,13
1756,13
1757,13
1758,13
1759,13
1760,13
1761,13
1762,13
1763,13
1764,13
1765,13
1766,13
1767,13
1768,13
1769,13
1770,13
1771,13
1772,13
1773,13
1774,13
1775,13
1776,13
1777,13
1778,13
1779,13
1780,13
1781,13
1782,13
1783,13
1784,13
1785,13
1786,13
1787,13
1788,13
1789,13
1790,13
1791,13
1792,14
1793,14
1794,14
1795,14
1796,14
1797,14
1798,14
1799,14
1800,14
1801,14
1802,14
1803,14
1804,14
1805,14
1806,14
1807,14
1808,14
1809,13
1810,13
1811,13
1812,13
1813,13
1814,13
1815,13
1816,13
1817,13
1818,13
1819,13
1820,13
1821,13
1822,13
1823,13
1824,13
1825,13
1826,13
1827,13
1828,13
1829,13
1830,13
1831,13
1832,13
1833,13
1834,13
1835,13
1836,13
1837,13
1838,13
1839,13
1840,13
1841,13
1842,13
1843,14
1844,14
1845,14
1846,14
1847,14
1848,14
1849,14
1850,14
1851,14
1852,14
1853,14
1854,14
1855,14
1856,14
1857,14
1858,14
1859,14
1860,14
1861,14
1862,14
1863,14
1864,14
1865,14
1866,14
1867,14
1868,14
1869,14
1870,14
1871,14
1872,14
1873,14
1874,14
1875,14
1876,14
1877,14
1878,14
1879,14
1880,14
1881,14
1882,14
1883,14
1884,14
1885,14
1886,14
1887,14
1888,14
1889,14
1890,14
1891,14
1892,14
1893,14
1894,14
1895,14
1896,14
1897,14
1898,14
1899,14
1900,14
1901,14
1902,14
1903,14
1904,14
1905,14
1906,14
1907,14
1908,14
1909,14
1910,14
1911,14
1912,14
1913,14
1914,14
1915,14
1916,14
1917,14
1918,14
1919,14
1920,14
1921,14
1922,14
1923,14
1924,14
1925,14
1926,14
1927,14
1928,15
1929,15
1930,15
1931,15
1932,15
1933,15
1934,15
1935,15
1936,15
1937,15
1938,15
1939,15
1940,15
1941,15
1942,16
1943,15
1944,15
1945,15
1946,15
1947,15
1948,15
1949,15
1950,15
1951,15
1952,15
1953,15
1954,15
1955,15
1956,15
1957,15
1958,15
1959,15
1960,15
1961,15
1962,15
1963,15
1964,15
1965,15
1966,16
1967,15
1968,15
1969,15
1970,15
1971,15
1972,15
1973,15
1974,15
1975,15
1976,15
1977,15
1978,15
1979,15
1980,15
1981,15
1982,15
1983,15
1984,15
1985,15
1986,15
1987,15
1988,15
1989,15
1990,15
1991,15
1992,15
1993,15
1994,15
1995,15
1996,15
1997,15
1998,15
1999,15
2000,15
2001,15
2002,15
2003,15
2004,15
2005,16
2006,16
2007,16
2008,16
2009,16
2010,16
2011,16
2012,16
2013,16
2014,17
2015,16
2016,16
2017,16
2018,16
2019,16
2020,16
2021,16
2022,16
2023,16
2024,16
2025,16
2026,16
2027,16
2028,16
2029,16
2030,16
2031,16
2032,16
2033,16
2034,16
2035,16
2036,16
2037,16
2038,16
2039,16
2040,16
2041,16
2042,16
2043,16
2044,16
2045,16
2046,16
2047,16
2048,16
2049,16
2050,16
2051,16
2052,16
2053,16
2054,16
2055,16
2056,16
2057,16
2058,16
2059,16
2060,16
2061,16
2062,16
2063,16
2064,16
2065,16
2066,16
2067,16
2068,16
2069,16
2070,16
2071,16
2072,16
2073,16
2074,16
2075,16
2076,16
2077,16
2078,16
2079,16
2080,16
2081,16
2082,16
2083,16
2084,16
2085,16
2086,16
2087,16
2088,16
2089,16
2090,16
2091,16
2092,16
2093,16
2094,16
2095,16
2096,16
2097,16
2098,16
2099,16
2100,16
2101,16
2102,16
2103,16
2104,16
2105,16
2106,16
2107,16
2108,16
2109,16
2110,16
2111,16
2112,16
2113,16
2114,16
2115,16
2116,16
2117,16
2118,16
2119,16
2120,16
2121,16
2122,16
2123,16
2124,16
2125,16
2126,16
2127,16
2128,16
2129,16
2130,16
2131,16
2132,16
2133,16
2134,16
2135,16
2136,16
2137,16
2138,16
2139,16
2140,16
2141,16
2142,16
2143,16
2144,16
2145,16
2146,16
2147,16
2148,16
2149,16
2150,16
2151,16
2152,16
2153,16
2154,16
2155,16
2156,16
2157,16
2158,17
2159,17
2160,17
2161,17
2162,17
2163,17
2164,17
2165,17
2166,17
2167,17
2168,17
2169,16
2170,16
2171,16
2172,16
2173,16
2174,16
2175,16
2176,16
2177,16
2178,16
2179,16
2180,16
2181,16
2182,16
2183,16
2184,16
2185,16
2186,16
2187,16
2188,16
2189,16
2190,16
2191,16
2192,16
2193,16
2194,16
2195,16
2196,16
2197,16
2198,16
2199,16
2200,16
2201,16
2202,16
2203,16
2204,16
2205,16
2206,16
2207,16
2208,16
2209,16
2210,16
2211,16
2212,16
2213,16
2214,16
2215,16
2216,16
2217,16
2218,16
2219,16
2220,16
2221,16
2222,16
2223,16
2224,16
2225,16
2226,16
2227,16
2228,16
2229,16
2230,16
2231,16
2232,16
2233,16
2234,16
2235,16
2236,16
2237,16
2238,16
2239,16
2240,16
2241,16
2242,16
2243,16
2244,16
2245,16
2246,16
2247,16
2248,16
2249,16
2250,16
2251,16
2252,16
2253,16
2254,16
2255,16
2256,16
2257,16
2258,16
2259,16
2260,16
2261,16
2262,16
2263,16
2264,16
2265,16
2266,16
2267,16
2268,16
2269,16
2270,16
2271,16
2272,16
2273,16
2274,16
2275,16
2276,16
2277,16
2278,16
2279,16
2280,16
2281,16
2282,16
2283,16
2284,16
2285,16
2286,16
2287,16
2288,16
2289,16
2290,16
2291,16
2292,16
2293,16
2294,16
2295,16
2296,16
2297,16
2298,16
2299,16
2300,16
2301,16
2302,16
2303,16
2304,16
2305,16
2306,16
2307,16
2308,16
2309,16
2310,16
2311,16
2312,16
2313,16
2314,16
2315,16
2316,16
2317,16
2318,16
2319,16
2320,16
2321,16
2322,16
2323,16
2324,16
2325,16
2326,16
2327,16
2328,16
2329,16
2330,17
2331,17
2332,17
2333,17
2334,17
2335,17
2336,17
2337,17
2338,17
2339,17
2340,17
2341,17
2342,17
2343,17
2344,17
2345,17
2346,17
2347,17
2348,17
2349,17
2350,17
2351,17
2352,17
2353,17
2354,17
2355,17
2356,17
2357,17
2358,17
2359,17
2360,17
2361,17
2362,17
2363,17
2364,17
2365,17
2366,17
2367,17
2368,17
2369,17
2370,17
2371,17
2372,17
2373,17
2374,17
2375,17
2376,17
2377,17
2378,17
2379,17
2380,17
2381,17
2382,17
2383,17
2384,17
2385,17
2386,18
2387,17
2388,17
2389,17
2390,17
2391,17
2392,17
2393,17
2394,17
2395,17
2396,17
2397,17
2398,17
2399,17
2400,17
2401,17
2402,17
2403,17
2404,17
2405,17
2406,17
2407,17
2408,17
2409,17
2410,17
2411,17
2412,17
2413,17
2414,17
2415,17
2416,17
2417,17
2418,17
2419,17
2420,17
2421,17
2422,17
2423,18
2424,18
2425,18
2426,18
2427,18
2428,18
2429,18
2430,18
2431,18
2432,18
2433,18
2434,18
2435,18
2436,18
2437,18
2438,18
2439,18
2440,18
2441,18
2442,18
2443,18
2444,18
2445,18
2446,19
2447,19
2448,19
2449,18
2450,18
2451,18
2452,17
2453,17
2454,17
2455,17
2456,17
2457,17
2458,17
2459,17
2460,17
2461,17
2462,17
2463,17
2464,17
2465,17
2466,17
2467,17
2468,17
2469,17
2470,17
2471,17
2472,17
2473,17
2474,17
2475,17
2476,17
2477,17
2478,17
2479,17
2480,17
2481,18
2482,18
2483,17
2484,17
2485,17
2486,17
2487,17
2488,17
2489,17
2490,17
2491,17
2492,17
2493,17
2494,17
2495,17
2496,17
2497,17
2498,17
2499,17
2500,17
2501,17
2502,17
2503,17
2504,17
2505,18
2506,18
2507,19
2508,18
2509,18
2510,18
2511,18
2512,18
2513,18
2514,17
2515,17
2516,17
2517,17
2518,17
2519,17
2520,17
2521,17
2522,17
2523,17
2524,17
2525,17
2526,17
2527,17
2528,17
2529,17
2530,17
2531,17
2532,17
2533,17
2534,17
2535,17
2536,17
2537,18
2538,17
2539,17
2540,17
2541,17
2542,17
2543,17
2544,17
2545,17
2546,17
2547,17
2548,17
2549,17
2550,17
2551,17
2552,17
2553,17
2554,17
2555,17
2556,17
2557,17
2558,17
2559,17
2560,17
2561,17
2562,17
2563,17
2564,17
2565,17
2566,17
2567,17
2568,17
2569,17
2570,17
2571,17
2572,17
2573,17
2574,17
2575,17
2576,17
2577,17
2578,17
2579,18
2580,18
2581,18
2582,18
2583,18
2584,17
2585,17
2586,17
2587,17
2588,17
2589,17
2590,17
2591,17
2592,17
2593,18
2594,17
2595,17
2596,17
2597,17
2598,17
2599,17
2600,17
2601,17
2602,17
2603,17
2604,17
2605,17
2606,17
2607,17
2608,17
2609,17
2610,17
2611,17
2612,17
2613,17
2614,17
2615,17
2616,17
2617,17
2618,17
2619,17
2620,17
2621,17
2622,17
2623,17
2624,17
2625,17
2626,17
2627,17
2628,17
2629,17
2630,17
2631,17
2632,17
2633,17
2634,17
2635,17
2636,17
2637,17
2638,17
2639,17
2640,17
2641,17
2642,17
2643,17
2644,17
2645,17
2646,17
2647,17
2648,17
2649,17
2650,17
2651,17
2652,17
2653,17
2654,17
2655,17
2656,17
2657,17
2658,17
2659,17
2660,17
2661,17
2662,17
2663,17
2664,17
2665,17
2666,17
2667,17
2668,17
2669,17
2670,17
2671,17
2672,17
2673,17
2674,17
2675,17
2676,17
2677,17
2678,17
2679,17
2680,17
2681,17
2682,17
2683,17
2684,17
2685,17
2686,17
2687,17
2688,17
2689,17
2690,17
2691,17
2692,17
2693,17
2694,17
2695,17
2696,17
2697,17
2698,17
2699,17
2700,17
2701,17
2702,17
2703,17
2704,17
2705,17
2706,17
2707,17
2708,17
2709,17
2710,17
2711,17
2712,17
2713,17
2714,17
2715,17
2716,17
2717,17
2718,17
2719,17
2720,17
2721,17
2722,17
2723,17
2724,17
2725,17
2726,17
2727,17
2728,17
2729,17
2730,17
2731,17
2732,17
2733,17
2734,17
2735,17
2736,17
2737,17
2738,17
2739,17
2740,17
2741,17
2742,17
2743,17
2744,17
2745,17
2746,17
2747,17
2748,17
2749,17
2750,17
2751,17
2752,17
2753,17
2754,17
2755,17
2756,17
2757,17
2758,17
2759,17
2760,17
2761,17
2762,17
2763,17
2764,17
2765,17
2766,17
2767,17
2768,17
2769,17
2770,17
2771,17
2772,17
2773,17
2774,17
2775,17
2776,17
2777,17
2778,17
2779,17
2780,18
2781,17
2782,17
2783,17
2784,17
2785,17
2786,17
2787,17
2788,17
2789,17
2790,17
2791,17
2792,17
2793,17
2794,17
2795,17
2796,17
2797,17
2798,17
2799,17
2800,17
2801,17
2802,17
2803,17
2804,17
2805,18
2806,18
2807,17
2808,17
2809,17
2810,17
2811,17
2812,17
2813,17
2814,17
2815,17
2816,17
2817,17
2818,17
2819,17
2820,17
2821,17
2822,17
2823,17
2824,17
2825,17
2826,17
2827,17
2828,17
2829,17
2830,17
2831,17
2832,17
2833,17
2834,17
2835,17
2836,17
2837,17
2838,17
2839,17
2840,17
2841,17
2842,17
2843,17
2844,17
2845,17
2846,17
2847,17
2848,17
2849,17
2850,17
2851,17
2852,17
2853,17
2854,17
2855,17
2856,17
2857,17
2858,17
2859,17
2860,17
2861,17
2862,17
2863,17
2864,17
2865,17
2866,17
2867,17
2868,17
2869,17
2870,17
2871,17
2872,17
2873,17
2874,17
2875,17
2876,17
2877,17
2878,17
2879,17
2880,17
2881,17
2882,17
2883,17
2884,17
2885,17
2886,17
2887,17
2888,17
2889,17
2890,17
2891,17
2892,17
2893,17
2894,17
2895,17
2896,17
2897,17
2898,17
2899,17
2900,17
2901,17
2902,17
2903,17
2904,17
2905,17
2906,17
2907,17
2908,17
2909,17
2910,17
2911,17
2912,17
2913,17
2914,17
2915,17
2916,17
2917,17
2918,17
2919,17
2920,17
2921,17
2922,17
2923,17
2924,17
2925,17
2926,17
2927,17
2928,17
2929,17
2930,17
2931,17
2932,17
2933,17
2934,17
2935,17
2936,17
2937,17
2938,17
2939,17
2940,17
2941,17
2942,17
2943,17
2944,17
2945,17
2946,17
2947,17
2948,17
2949,17
2950,17
2951,17
2952,17
2953,17
2954,17
2955,17
2956,17
2957,17
2958,17
2959,17
2960,17
2961,17
2962,17
2963,17
2964,17
2965,18
2966,17
2967,17
2968,17
2969,18
2970,17
2971,17
2972,17
2973,17
2974,17
2975,17
2976,17
2977,17
2978,17
2979,17
2980,17
2981,17
2982,17
2983,17
2984,17
2985,17
2986,17
2987,17
2988,17
2989,17
2990,17
2991,17
2992,17
2993,17
2994,17
2995,17
2996,17
2997,17
2998,17
2999,17
3000,17
3001,17
3002,17
3003,17
3004,17
3005,17
3006,17
3007,17
3008,17
3009,17
3010,17
3011,17
3012,17
3013,17
3014,17
3015,17
3016,17
3017,17
3018,17
3019,17
3020,17
3021,17
3022,17
3023,17
3024,17
3025,17
3026,17
3027,17
3028,17
3029,17
3030,17
3031,17
3032,17
3033,17
3034,17
3035,17
3036,17
3037,17
3038,17
3039,17
3040,17
3041,17
3042,17
3043,17
3044,17
3045,17
3046,17
3047,17
3048,17
3049,17
3050,17
3051,17
3052,17
3053,17
3054,17
3055,17
3056,17
3057,17
3058,17
3059,17
3060,17
3061,17
3062,17
3063,17
3064,17
3065,17
3066,17
3067,17
3068,17
3069,17
3070,17
3071,17
3072,17
3073,17
3074,17
3075,17
3076,17
3077,17
3078,17
3079,17
3080,17
3081,17
3082,17
3083,17
3084,17
3085,17
3086,17
3087,17
3088,17
3089,17
3090,17
3091,17
3092,17
3093,17
3094,17
3095,17
3096,17
3097,17
3098,17
3099,17
3100,17
3101,17
3102,17
3103,17
3104,17
3105,17
3106,17
3107,17
3108,17
3109,17
3110,17
3111,17
3112,17
3113,17
3114,17
3115,17
3116,17
3117,17
3118,17
3119,17
3120,17
3121,17
3122,17
3123,17
3124,17
3125,17
3126,17
3127,17
3128,17
3129,17
3130,17
3131,17
3132,17
3133,17
3134,17
3135,17
3136,17
3137,17
3138,17
3139,17
3140,17
3141,17
3142,17
3143,17
3144,17
3145,17
3146,17
3147,17
3148,17
3149,17
3150,17
3151,17
3152,17
3153,17
3154,18
3155,18
3156,18
3157,18
3158,18
3159,17
3160,17
3161,17
3162,18
3163,17
3164,17
3165,17
3166,17
3167,17
3168,17
3169,17
3170,17
3171,17
3172,17
3173,17
3174,17
3175,17
3176,17
3177,17
3178,17
3179,17
3180,17
3181,17
3182,17
3183,17
3184,17
3185,17
3186,17
3187,17
3188,17
3189,17
3190,17
3191,17
3192,17
3193,17
3194,17
3195,17
3196,17
3197,17
3198,17
3199,17
3200,17
3201,17
3202,17
3203,17
3204,17
3205,17
3206,17
3207,17
3208,17
3209,17
3210,17
3211,17
3212,17
3213,17
3214,17
3215,17
3216,17
3217,17
3218,17
3219,17
3220,17
3221,17
3222,17
3223,17
3224,17
3225,17
3226,17
3227,17
3228,17
3229,18
3230,17
3231,17
3232,17
3233,17
3234,17
3235,17
3236,17
3237,17
3238,17
3239,17
3240,17
3241,17
3242,17
3243,17
3244,17
3245,17
3246,17
3247,17
3248,17
3249,17
3250,17
3251,17
3252,17
3253,17
3254,17
3255,17
3256,17
3257,17
3258,17
3259,17
3260,17
3261,17
3262,17
3263,17
3264,17
3265,17
3266,17
3267,17
3268,17
3269,17
3270,17
3271,17
3272,17
3273,17
3274,17
3275,17
3276,17
3277,17
3278,17
3279,17
3280,17
3281,17
3282,17
3283,17
3284,17
3285,17
3286,17
3287,17
3288,17
3289,17
3290,17
3291,17
3292,17
3293,17
3294,17
3295,17
3296,17
3297,17
3298,17
3299,17
3300,17
3301,17
3302,17
3303,17
3304,17
3305,17
3306,17
3307,17
3308,17
3309,17
3310,17
3311,17
3312,17
3313,17
3314,17
3315,17
3316,17
3317,17
3318,17
3319,17
3320,17
3321,17
3322,17
3323,17
3324,17
3325,17
3326,17
3327,17
3328,17
3329,17
3330,17
3331,17
3332,17
3333,17
3334,17
3335,17
3336,17
3337,17
3338,17
3339,17
3340,17
3341,17
3342,17
3343,17
3344,17
3345,17
3346,17
3347,17
3348,17
3349,17
3350,17
3351,17
3352,17
3353,17
3354,17
3355,17
3356,17
3357,17
3358,17
3359,17
3360,17
3361,17
3362,17
3363,17
3364,17
3365,17
3366,17
3367,17
3368,17
3369,17
3370,17
3371,17
3372,17
3373,17
3374,17
3375,17
3376,17
3377,17
3378,17
3379,17
3380,17
3381,18
3382,17
3383,17
3384,17
3385,17
3386,17
3387,17
3388,17
3389,17
3390,17
3391,17
3392,17
3393,17
3394,17
3395,17
3396,17
3397,17
3398,17
3399,17
3400,17
3401,17
3402,17
3403,17
3404,17
3405,17
3406,17
3407,17
3408,17
3409,17
3410,17
3411,17
3412,17
3413,17
3414,17
3415,17
3416,17
3417,17
3418,17
3419,17
3420,17
3421,17
3422,17
3423,17
3424,17
3425,17
3426,17
3427,17
3428,17
3429,17
3430,17
3431,17
3432,17
3433,17
3434,17
3435,17
3436,17
3437,17
3438,17
3439,17
3440,17
3441,17
3442,17
3443,17
3444,17
3445,17
3446,17
3447,17
3448,17
3449,17
3450,17
3451,17
3452,17
3453,17
3454,17
3455,17
3456,17
3457,17
3458,17
3459,17
3460,17
3461,17
3462,17
3463,17
3464,17
3465,17
3466,17
3467,18
3468,17
3469,17
3470,17
3471,17
3472,17
3473,17
3474,17
3475,17
3476,17
3477,17
3478,17
3479,17
3480,17
3481,17
3482,17
3483,17
3484,17
3485,17
3486,17
3487,17
3488,17
3489,17
3490,17
3491,17
3492,17
3493,17
3494,17
3495,17
3496,17
3497,17
3498,17
3499,17
3500,17
3501,17
3502,17
3503,17
3504,17
3505,17
3506,17
3507,17
3508,17
3509,17
3510,17
3511,17
3512,17
3513,17
3514,17
3515,17
3516,17
3517,17
3518,17
3519,17
3520,17
3521,17
3522,17
3523,17
3524,17
3525,17
3526,17
3527,17
3528,17
3529,17
3530,17
3531,17
3532,17
3533,17
3534,17
3535,17
3536,17
3537,17
3538,17
3539,17
3540,17
3541,17
3542,17
3543,17
3544,17
3545,17
3546,17
3547,17
3548,17
3549,17
3550,17
3551,17
3552,17
3553,17
3554,17
3555,17
3556,17
3557,17
3558,17
3559,17
3560,17
3561,17
3562,17
3563,17
3564,17
3565,17
3566,17
3567,17
3568,17
3569,17
3570,17
3571,17
3572,17
3573,17
3574,17
3575,17
3576,17
3577,17
3578,17
3579,17
3580,17
3581,17
3582,17
3583,17
3584,17
3585,17
3586,17
3587,17
3588,17
3589,17
3590,17
3591,17
3592,17
3593,17
3594,17
3595,17
3596,17
3597,17
3598,17
3599,17
3600,17
3601,17
3602,17
3603,17
3604,17
3605,17
3606,17
3607,17
3608,17
3609,17
3610,17
3611,17
3612,17
3613,17
3614,17
3615,17
3616,17
3617,17
3618,17
3619,17
3620,17
3621,17
3622,17
3623,17
3624,17
3625,17
3626,17
3627,17
3628,17
3629,17
3630,17
3631,17
3632,17
3633,17
3634,17
3635,17
3636,17
3637,17
3638,17
3639,17
3640,17
3641,17
3642,17
3643,17
3644,17
3645,17
3646,17
3647,17
3648,17
3649,17
3650,17
3651,17
3652,17
3653,17
3654,17
3655,17
3656,17
3657,17
3658,17
3659,17
3660,17
3661,17
3662,17
3663,17
3664,17
3665,17
3666,17
3667,17
3668,17
3669,17
3670,17
3671,17
3672,17
3673,17
3674,17
3675,17
3676,17
3677,17
3678,17
3679,17
3680,17
3681,17
3682,17
3683,17
3684,17
3685,17
3686,17
3687,17
3688,17
3689,17
3690,17
3691,17
3692,17
3693,17
3694,17
3695,17
3696,17
3697,17
3698,17
3699,17
3700,17
3701,17
3702,17
3703,17
3704,17
3705,17
3706,17
3707,17
3708,17
3709,17
3710,17
3711,17
3712,17
3713,17
3714,17
3715,17
3716,17
3717,17
3718,17
3719,17
3720,17
3721,17
3722,17
3723,17
3724,17
3725,17
3726,17
3727,17
3728,17
3729,17
3730,17
3731,17
3732,17
3733,17
3734,17
3735,17
3736,17
3737,17
3738,17
3739,17
3740,17
3741,17
3742,17
3743,17
3744,17
3745,17
3746,17
3747,17
3748,17
3749,17
3750,17
3751,17
3752,17
3753,17
3754,17
3755,17
3756,17
3757,17
3758,17
3759,17
3760,17
3761,17
3762,17
3763,17
3764,17
3765,17
3766,17
3767,17
3768,17
3769,17
3770,17
3771,17
3772,17
3773,17
3774,17
3775,17
3776,17
3777,17
3778,17
3779,17
3780,17
3781,17
3782,17
3783,17
3784,17
3785,17
3786,17
3787,17
3788,18
3789,17
3790,17
3791,17
3792,17
3793,17
3794,17
3795,17
3796,17
3797,17
3798,17
3799,17
3800,17
3801,17
3802,17
3803,17
3804,17
3805,17
3806,17
3807,17
3808,17
3809,17
3810,17
3811,17
3812,17
3813,17
3814,17
3815,17
3816,17
3817,17
3818,17
3819,17
3820,17
3821,17
3822,17
3823,17
3824,17
3825,17
3826,17
3827,17
3828,17
3829,17
3830,17
3831,17
3832,17
3833,17
3834,17
3835,17
3836,17
3837,17
3838,17
3839,17
3840,17
3841,17
3842,17
3843,17
3844,17
3845,17
3846,17
3847,17
3848,17
3849,17
3850,17
3851,17
3852,18
3853,17
3854,17
3855,17
3856,17
3857,17
3858,17
3859,17
3860,17
3861,17
3862,17
3863,17
3864,17
3865,17
3866,17
3867,17
3868,17
3869,17
3870,17
3871,17
3872,17
3873,17
3874,17
3875,17
3876,17
3877,17
3878,17
3879,17
3880,17
3881,17
3882,17
3883,17
3884,17
3885,17
3886,17
3887,17
3888,17
3889,17
3890,17
3891,17
3892,17
3893,17
3894,17
3895,17
3896,17
3897,17
3898,17
3899,17
3900,17
3901,17
3902,17
3903,17
3904,17
3905,17
3906,17
3907,17
3908,17
3909,17
3910,17
3911,17
3912,17
3913,17
3914,17
3915,17
3916,17
3917,17
3918,17
3919,17
3920,17
3921,17
3922,17
3923,17
3924,17
3925,17
3926,17
3927,17
3928,17
3929,17
3930,17
3931,17
3932,17
3933,17
3934,17
3935,17
3936,17
3937,17
3938,17
3939,17
3940,17
3941,17
3942,17
3943,17
3944,17
3945,17
3946,17
3947,17
3948,17
3949,17
3950,17
3951,17
3952,17
3953,17
3954,17
3955,17
3956,17
3957,17
3958,17
3959,17
3960,17
3961,17
3962,17
3963,17
3964,17
3965,17
3966,17
3967,17
3968,17
3969,17
3970,17
3971,17
3972,17
3973,17
3974,17
3975,17
3976,17
3977,17
3978,17
3979,17
3980,17
3981,17
3982,17
3983,17
3984,17
3985,17
3986,17
3987,17
3988,17
3989,17
3990,17
3991,17
3992,17
3993,18
3994,17
3995,17
3996,17
3997,17
3998,17
3999,17
4000,17
4001,17
4002,17
4003,17
4004,17
4005,17
4006,17
4007,17
4008,17
4009,17
4010,17
4011,17
4012,17
4013,17
4014,17
4015,17
4016,17
4017,17
4018,17
4019,17
4020,17
4021,17
4022,17
4023,17
4024,17
4025,17
4026,17
4027,17
4028,17
4029,17
4030,17
4031,17
4032,17
4033,17
4034,17
4035,17
4036,17
4037,17
4038,17
4039,17
4040,17
4041,17
4042,17
4043,17
4044,17
4045,17
4046,17
4047,17
4048,17
4049,17
4050,17
4051,17
4052,17
4053,17
4054,17
4055,17
4056,17
4057,17
4058,17
4059,17
4060,17
4061,17
4062,17
4063,17
4064,17
4065,17
4066,17
4067,17
4068,17
4069,17
4070,17
4071,17
4072,17
4073,17
4074,17
4075,17
4076,17
4077,17
4078,17
4079,17
4080,17
4081,17
4082,17
4083,17
4084,17
4085,17
4086,17
4087,17
4088,17
4089,17
4090,17
4091,17
4092,17
4093,17
4094,18
4095,18
4096,17
4097,17
4098,17
4099,17
4100,17
4101,17
4102,17
4103,17
4104,17
4105,17
4106,17
4107,17
4108,17
4109,17
4110,17
4111,17
4112,17
4113,17
4114,17
4115,17
4116,17
4117,17
4118,17
4119,17
4120,17
4121,17
4122,17
4123,17
4124,17
4125,17
4126,17
4127,17
4128,17
4129,17
4130,17
4131,17
4132,17
4133,17
4134,17
4135,17
4136,17
4137,17
4138,17
4139,17
4140,17
4141,17
4142,17
4143,17
4144,17
4145,17
4146,17
4147,17
4148,17
4149,17
4150,17
4151,17
4152,17
4153,17
4154,17
4155,17
4156,17
4157,17
4158,17
4159,17
4160,17
4161,17
4162,17
4163,17
4164,17
4165,17
4166,17
4167,17
4168,17
4169,17
4170,17
4171,17
4172,17
4173,17
4174,17
4175,17
4176,17
4177,17
4178,17
4179,17
4180,17
4181,17
4182,17
4183,17
4184,17
4185,17
4186,17
4187,17
4188,17
4189,17
4190,17
4191,17
4192,17
4193,17
4194,17
4195,17
4196,18
4197,17
4198,17
4199,17
4200,17
4201,17
4202,17
4203,17
4204,17
4205,17
4206,17
4207,17
4208,17
4209,17
4210,17
4211,17
4212,17
4213,17
4214,17
4215,17
4216,17
4217,17
4218,18
4219,17
4220,17
4221,17
4222,17
4223,17
4224,17
4225,17
4226,17
4227,17
4228,17
4229,17
4230,17
4231,17
4232,17
4233,17
4234,17
4235,17
4236,17
4237,17
4238,17
4239,17
4240,17
4241,17
4242,17
4243,17
4244,17
4245,17
4246,17
4247,17
4248,17
4249,17
4250,17
4251,17
4252,17
4253,17
4254,17
4255,17
4256,17
4257,17
4258,17
4259,17
4260,17
4261,17
4262,17
4263,17
4264,17
4265,17
4266,17
4267,17
4268,17
4269,17
4270,17
4271,17
4272,17
4273,17
4274,17
4275,17
4276,17
4277,17
4278,17
4279,17
4280,17
4281,17
4282,17
4283,17
4284,17
4285,17
4286,17
4287,17
4288,17
4289,17
4290,17
4291,17
4292,17
4293,17
4294,17
4295,17
4296,17
4297,17
4298,17
4299,17
4300,17
4301,17
4302,17
4303,17
4304,17
4305,17
4306,17
4307,17
4308,17
4309,17
4310,17
4311,17
4312,17
4313,17
4314,17
4315,17
4316,17
4317,17
4318,17
4319,17
4320,17
4321,17
4322,17
4323,17
4324,17
4325,17
4326,17
4327,17
4328,17
4329,17
4330,17
4331,17
4332,17
4333,17
4334,17
4335,17
4336,17
4337,17
4338,17
4339,17
4340,17
4341,17
4342,17
4343,17
4344,17
4345,17
4346,17
4347,17
4348,17
4349,17
4350,17
4351,17
4352,17
4353,17
4354,17
4355,17
4356,17
4357,17
4358,17
4359,17
4360,17
4361,17
4362,17
4363,17
4364,17
4365,18
4366,17
4367,17
4368,17
4369,17
4370,17
4371,17
4372,17
4373,17
4374,17
4375,17
4376,17
4377,17
4378,17
4379,17
4380,17
4381,17
4382,17
4383,17
4384,17
4385,17
4386,17
4387,17
4388,17
4389,17
4390,17
4391,17
4392,17
4393,17
4394,17
4395,17
4396,17
4397,17
4398,17
4399,17
4400,17
4401,17
4402,17
4403,17
4404,17
4405,17
4406,17
4407,17
4408,17
4409,17
4410,17
4411,17
4412,17
4413,17
4414,17
4415,17
4416,17
4417,17
4418,17
4419,17
4420,17
4421,17
4422,17
4423,17
4424,17
4425,17
4426,17
4427,17
4428,17
4429,17
4430,17
4431,17
4432,17
4433,18
4434,17
4435,17
4436,17
4437,17
4438,17
4439,17
4440,17
4441,17
4442,17
4443,17
4444,17
4445,17
4446,17
4447,17
4448,17
4449,17
4450,17
4451,17
4452,17
4453,17
4454,17
4455,17
4456,17
4457,17
4458,17
4459,17
4460,17
4461,17
4462,17
4463,17
4464,17
4465,17
4466,17
4467,17
4468,17
4469,17
4470,17
4471,17
4472,17
4473,17
4474,17
4475,17
4476,17
4477,17
4478,17
4479,17
4480,17
4481,17
4482,17
4483,17
4484,17
4485,17
4486,17
4487,17
4488,17
4489,17
4490,17
4491,17
4492,17
4493,17
4494,17
4495,17
4496,17
4497,17
4498,17
4499,17
4500,17
4501,17
4502,17
4503,17
4504,17
4505,17
4506,17
4507,17
4508,17
4509,17
4510,17
4511,17
4512,17
4513,17
4514,17
4515,17
4516,17
4517,17
4518,17
4519,17
4520,17
4521,17
4522,17
4523,17
4524,17
4525,17
4526,17
4527,17
4528,17
4529,17
4530,18
4531,18
4532,17
4533,17
4534,17
4535,17
4536,17
4537,17
4538,17
4539,17
4540,17
4541,18
4542,17
4543,17
4544,17
4545,17
4546,17
4547,17
4548,17
4549,17
4550,17
4551,17
4552,17
4553,17
4554,17
4555,17
4556,17
4557,17
4558,17
4559,17
4560,17
4561,17
4562,17
4563,17
4564,17
4565,17
4566,17
4567,17
4568,17
4569,17
4570,17
4571,17
4572,17
4573,17
4574,17
4575,17
4576,17
4577,17
4578,17
4579,17
4580,17
4581,17
4582,17
4583,17
4584,17
4585,17
4586,17
4587,17
4588,17
4589,17
4590,17
4591,17
4592,17
4593,17
4594,17
4595,17
4596,17
4597,17
4598,17
4599,19
4600,19
4601,19
4602,18
4603,18
4604,18
4605,18
4606,17
4607,17
4608,17
4609,17
4610,17
4611,17
4612,17
4613,17
4614,17
4615,17
4616,17
4617,17
4618,17
4619,17
4620,17
4621,17
4622,17
4623,17
4624,17
4625,17
4626,17
4627,17
4628,17
4629,17
4630,18
4631,18
4632,18
4633,18
4634,18
4635,18
4636,18
4637,18
4638,17
4639,17
4640,17
4641,17
4642,17
4643,17
4644,17
4645,17
4646,17
4647,17
4648,17
4649,17
4650,17
4651,17
4652,17
4653,17
4654,17
4655,17
4656,17
4657,17
4658,17
4659,17
4660,17
4661,17
4662,17
4663,17
4664,17
4665,17
4666,17
4667,17
4668,17
4669,17
4670,17
4671,17
4672,17
4673,17
4674,17
4675,17
4676,17
4677,17
4678,17
4679,17
4680,17
4681,17
4682,17
4683,17
4684,17
4685,17
4686,17
4687,17
4688,17
4689,17
4690,17
4691,17
4692,17
4693,17
4694,17
4695,17
4696,17
4697,17
4698,17
4699,17
4700,17
4701,17
4702,17
4703,17
4704,17
4705,17
4706,18
4707,18
4708,18
4709,18
4710,18
4711,18
4712,18
4713,18
4714,18
4715,17
4716,17
4717,17
4718,17
4719,17
4720,17
4721,17
4722,17
4723,17
4724,17
4725,17
4726,17
4727,17
4728,17
4729,17
4730,17
4731,17
4732,17
4733,17
4734,17
4735,17
4736,17
4737,17
4738,17
4739,17
4740,17
4741,17
4742,17
4743,17
4744,17
4745,17
4746,17
4747,17
4748,17
4749,17
4750,17
4751,17
4752,17
4753,17
4754,17
4755,17
4756,17
4757,17
4758,17
4759,17
4760,17
4761,17
4762,17
4763,17
4764,17
4765,17
4766,17
4767,17
4768,17
4769,17
4770,17
4771,17
4772,17
4773,17
4774,17
4775,17
4776,17
4777,17
4778,17
4779,17
4780,17
4781,17
4782,17
4783,17
4784,17
4785,17
4786,17
4787,17
4788,17
4789,17
4790,17
4791,17
4792,17
4793,17
4794,17
4795,17
4796,17
4797,17
4798,17
4799,17
4800,17
4801,17
4802,17
4803,17
4804,17
4805,17
4806,17
4807,17
4808,17
4809,17
4810,17
4811,17
4812,17
4813,17
4814,17
4815,17
4816,17
4817,17
4818,17
4819,17
4820,17
4821,17
4822,17
4823,17
4824,17
4825,17
4826,17
4827,17
4828,17
4829,17
4830,17
4831,17
4832,17
4833,17
4834,17
4835,17
4836,17
4837,17
4838,17
4839,17
4840,17
4841,17
4842,17
4843,18
4844,17
4845,17
4846,17
4847,17
4848,17
4849,17
4850,17
4851,17
4852,17
4853,17
4854,17
4855,17
4856,17
4857,17
4858,17
4859,17
4860,17
4861,17
4862,17
4863,17
4864,17
4865,17
4866,17
4867,17
4868,17
4869,17
4870,17
4871,18
4872,17
4873,17
4874,17
4875,17
4876,17
4877,17
4878,17
4879,17
4880,17
4881,17
4882,17
4883,17
4884,17
4885,17
4886,17
4887,17
4888,17
4889,17
4890,17
4891,18
4892,17
4893,17
4894,17
4895,17
4896,17
4897,17
4898,17
4899,17
4900,17
4901,17
4902,17
4903,17
4904,17
4905,17
4906,17
4907,17
4908,17
4909,17
4910,17
4911,17
4912,17
4913,17
4914,17
4915,17
4916,17
4917,17
4918,17
4919,17
4920,17
4921,17
4922,17
4923,17
4924,17
4925,17
4926,17
4927,17
4928,17
4929,17
4930,17
4931,17
4932,17
4933,17
4934,17
4935,17
4936,17
4937,17
4938,17
4939,17
4940,17
4941,17
4942,17
4943,17
4944,17
4945,17
4946,17
4947,17
4948,17
4949,17
4950,17
4951,17
4952,17
4953,17
4954,17
4955,17
4956,17
4957,17
4958,17
4959,17
4960,17
4961,17
4962,17
4963,17
4964,18
4965,17
4966,17
4967,17
4968,17
4969,17
4970,17
4971,17
4972,17
4973,17
4974,17
4975,17
4976,17
4977,17
4978,17
4979,17
4980,17
4981,17
4982,17
4983,17
4984,17
4985,17
4986,17
4987,17
4988,17
4989,17
4990,17
4991,17
4992,17
4993,17
4994,17
4995,17
4996,17
4997,17
4998,17
4999,17
5000,17
5001,17
5002,17
5003,17
5004,17
5005,17
5006,17
5007,17
5008,17
5009,17
5010,17
5011,17
5012,17
5013,17
5014,17
5015,17
5016,17
5017,17
5018,17
5019,17
5020,17
5021,17
5022,17
5023,17
5024,17
5025,17
5026,17
5027,17
5028,17
5029,17
5030,17
5031,17
5032,17
5033,17
5034,17
5035,17
5036,17
5037,17
5038,17
5039,17
5040,17
5041,17
5042,17
5043,17
5044,17
5045,17
5046,17
5047,17
5048,17
5049,17
5050,17
5051,17
5052,17
5053,17
5054,17
5055,17
5056,17
5057,17
5058,17
5059,17
5060,17
5061,17
5062,17
5063,17
5064,17
5065,17
5066,17
5067,17
5068,17
5069,17
5070,17
5071,17
5072,17
5073,17
5074,17
5075,17
5076,17
5077,17
5078,17
5079,17
5080,17
5081,17
5082,17
5083,17
5084,17
5085,17
5086,17
5087,17
5088,17
5089,17
5090,17
5091,17
5092,17
5093,17
5094,17
5095,17
5096,17
5097,17
5098,17
5099,17
5100,17
5101,17
5102,17
5103,17
5104,17
5105,17
5106,17
5107,17
5108,17
5109,17
5110,17
5111,17
5112,17
5113,17
5114,17
5115,17
5116,17
5117,17
5118,17
5119,17
5120,17
5121,17
5122,17
5123,17
5124,17
5125,17
5126,17
5127,17
5128,17
5129,17
5130,17
5131,17
5132,17
5133,17
5134,17
5135,17
5136,17
5137,17
5138,17
5139,17
5140,17
5141,17
5142,17
5143,17
5144,17
5145,17
5146,17
5147,17
5148,17
5149,17
5150,17
5151,17
5152,17
5153,17
5154,17
5155,17
5156,17
5157,17
5158,17
5159,17
5160,17
5161,17
5162,17
5163,17
5164,17
5165,17
5166,17
5167,17
5168,17
5169,17
5170,17
5171,17
5172,17
5173,17
5174,17
5175,18
5176,17
5177,17
5178,17
5179,17
5180,17
5181,17
5182,17
5183,17
5184,17
5185,17
5186,17
5187,17
5188,17
5189,17
5190,17
5191,17
5192,17
5193,17
5194,17
5195,17
5196,17
5197,17
5198,17
5199,17
5200,17
5201,17
5202,17
5203,17
5204,17
5205,17
5206,17
5207,17
5208,17
5209,17
5210,17
5211,17
5212,17
5213,17
5214,17
5215,17
5216,17
5217,17
5218,17
5219,17
5220,17
5221,17
5222,17
5223,17
5224,17
5225,17
5226,17
5227,17
5228,17
5229,17
5230,17
5231,17
5232,17
5233,17
5234,17
5235,17
5236,17
5237,17
5238,17
5239,17
5240,17
5241,17
5242,17
5243,17
5244,17
5245,17
5246,17
5247,17
5248,17
5249,17
5250,17
5251,17
5252,17
5253,17
5254,17
5255,17
5256,17
5257,17
5258,17
5259,17
5260,17
5261,17
5262,17
5263,17
5264,17
5265,17
5266,17
5267,17
5268,17
5269,17
5270,17
5271,17
5272,17
5273,17
5274,17
5275,17
5276,17
5277,17
5278,17
5279,17
5280,17
5281,17
5282,17
5283,17
5284,18
5285,18
5286,18
5287,18
5288,18
5289,18
5290,17
5291,17
5292,17
5293,17
5294,17
5295,17
5296,17
5297,17
5298,17
5299,17
5300,17
5301,17
5302,17
5303,17
5304,17
5305,17
5306,17
5307,17
5308,17
5309,17
5310,17
5311,17
5312,17
5313,17
5314,17
5315,17
5316,17
5317,17
5318,17
5319,17
5320,17
5321,17
5322,17
5323,17
5324,17
5325,17
5326,17
5327,17
5328,17
5329,17
5330,17
5331,17
5332,17
5333,17
5334,17
5335,17
5336,17
5337,17
5338,17
5339,17
5340,17
5341,17
5342,17
5343,17
5344,17
5345,17
5346,17
5347,17
5348,17
5349,17
5350,17
5351,17
5352,17
5353,17
5354,17
5355,17
5356,17
5357,17
5358,17
5359,17
5360,17
5361,17
5362,18
5363,18
5364,18
5365,18
5366,18
5367,18
5368,18
5369,18
5370,18
5371,18
5372,18
5373,18
5374,18
5375,18
5376,18
5377,18
5378,17
5379,17
5380,17
5381,17
5382,17
5383,17
5384,17
5385,17
5386,17
5387,17
5388,17
5389,17
5390,17
5391,17
5392,17
5393,17
5394,17
5395,17
5396,17
5397,17
5398,17
5399,17
5400,17
5401,17
5402,17
5403,17
5404,17
5405,17
5406,17
5407,17
5408,17
5409,17
5410,17
5411,17
5412,17
5413,17
5414,17
5415,17
5416,17
5417,17
5418,17
5419,17
5420,17
5421,17
5422,17
5423,17
5424,17
5425,17
5426,17
5427,17
5428,17
5429,17
5430,17
5431,17
5432,18
5433,17
5434,17
5435,17
5436,17
5437,17
5438,17
5439,17
5440,17
5441,17
5442,17
5443,17
5444,17
5445,17
5446,17
5447,17
5448,17
5449,17
5450,17
5451,17
5452,17
5453,17
5454,17
5455,17
5456,17
5457,17
5458,17
5459,17
5460,17
5461,17
5462,17
5463,17
5464,17
5465,17
5466,17
5467,17
5468,17
5469,17
5470,17
5471,17
5472,17
5473,17
5474,17
5475,17
5476,17
5477,17
5478,17
5479,17
5480,17
5481,17
5482,17
5483,17
5484,17
5485,17
5486,17
5487,17
5488,17
5489,17
5490,17
5491,17
5492,17
5493,17
5494,17
5495,17
5496,17
5497,17
5498,17
5499,17
5500,17
5501,17
5502,17
5503,17
5504,17
5505,17
5506,17
5507,17
5508,17
5509,17
5510,17
5511,17
5512,17
5513,17
5514,17
5515,17
5516,17
5517,17
5518,17
5519,17
5520,17
5521,17
5522,17
5523,17
5524,17
5525,17
5526,17
5527,17
5528,17
5529,17
5530,17
5531,17
5532,17
5533,17
5534,17
5535,17
5536,17
5537,17
5538,17
5539,17
5540,17
5541,17
5542,17
5543,17
5544,17
5545,17
5546,17
5547,17
5548,17
5549,17
5550,17
5551,18
5552,17
5553,17
5554,17
5555,17
5556,17
5557,17
5558,17
5559,17
5560,17
5561,17
5562,17
5563,17
5564,17
5565,17
5566,17
5567,17
5568,17
5569,17
5570,17
5571,17
5572,17
5573,17
5574,17
5575,17
5576,17
5577,17
5578,17
5579,17
5580,17
5581,17
5582,17
5583,17
5584,17
5585,17
5586,17
5587,17
5588,17
5589,17
5590,17
5591,17
5592,17
5593,17
5594,17
5595,17
5596,17
5597,17
5598,17
5599,17
5600,17
5601,17
5602,17
5603,17
5604,17
5605,17
5606,17
5607,17
5608,17
5609,17
5610,17
5611,17
5612,17
5613,17
5614,17
5615,17
5616,17
5617,17
5618,17
5619,17
5620,17
5621,17
5622,17
5623,17
5624,17
5625,17
5626,17
5627,17
5628,17
5629,17
5630,17
5631,17
5632,17
5633,17
5634,17
5635,17
5636,17
5637,17
5638,17
5639,17
5640,17
5641,17
5642,17
5643,17
5644,17
5645,17
5646,17
5647,17
5648,18
5649,18
5650,18
5651,18
5652,17
5653,17
5654,17
5655,17
5656,17
5657,17
5658,17
5659,17
5660,17
5661,17
5662,17
5663,17
5664,17
5665,17
5666,17
5667,17
5668,17
5669,17
5670,17
5671,17
5672,17
5673,17
5674,17
5675,17
5676,17
5677,17
5678,17
5679,17
5680,17
5681,17
5682,17
5683,17
5684,17
5685,17
5686,17
5687,17
5688,17
5689,17
5690,17
5691,17
5692,17
5693,17
5694,17
5695,17
5696,17
5697,17
5698,17
5699,17
5700,17
5701,17
5702,18
5703,18
5704,18
5705,18
5706,18
5707,18
5708,18
5709,18
5710,18
5711,18
5712,18
5713,18
5714,18
5715,18
5716,18
5717,18
5718,18
5719,18
5720,18
5721,18
5722,18
5723,18
5724,18
5725,18
5726,18
5727,18
5728,18
5729,18
5730,18
5731,18
5732,18
5733,18
5734,18
5735,18
5736,18
5737,18
5738,18
5739,18
5740,18
5741,18
5742,18
5743,18
5744,18
5745,18
5746,18
5747,18
5748,18
5749,18
5750,18
5751,18
5752,18
5753,18
5754,18
5755,18
5756,18
5757,18
5758,18
5759,18
5760,18
5761,18
5762,19
5763,19
5764,19
5765,19
5766,18
5767,18
5768,18
5769,18
5770,18
5771,18
5772,18
5773,18
5774,19
5775,19
5776,19
5777,18
5778,18
5779,18
5780,18
5781,18
5782,18
5783,18
5784,18
5785,18
5786,18
5787,18
5788,18
5789,18
5790,18
5791,18
5792,18
5793,18
5794,18
5795,18
5796,18
5797,18
5798,18
5799,18
5800,18
5801,18
5802,18
5803,18
5804,18
5805,18
5806,18
5807,18
5808,18
5809,18
5810,18
5811,18
5812,18
5813,18
5814,18
5815,18
5816,18
5817,18
5818,18
5819,18
5820,18
5821,18
5822,19
5823,19
5824,19
5825,18
5826,18
5827,18
5828,18
5829,18
5830,18
5831,18
5832,18
5833,18
5834,18
5835,18
5836,18
5837,18
5838,18
5839,18
5840,18
5841,18
5842,18
5843,18
5844,18
5845,18
5846,18
5847,19
5848,18
5849,18
5850,18
5851,18
5852,18
5853,18
5854,18
5855,18
5856,18
5857,18
5858,18
5859,18
5860,18
5861,18
5862,18
5863,18
5864,18
5865,18
5866,18
5867,18
5868,18
5869,18
5870,18
5871,18
5872,18
5873,18
5874,18
5875,18
5876,18
5877,18
5878,19
5879,19
5880,18
5881,18
5882,18
5883,18
5884,18
5885,18
5886,18
5887,18
5888,18
5889,18
5890,18
5891,18
5892,18
5893,18
5894,18
5895,18
5896,18
5897,18
5898,19
5899,18
5900,18
5901,18
5902,18
5903,18
5904,18
5905,18
5906,18
5907,18
5908,18
5909,18
5910,18
5911,18
5912,18
5913,19
5914,19
5915,19
5916,18
5917,18
5918,18
5919,18
5920,18
5921,18
5922,18
5923,18
5924,18
5925,18
5926,18
5927,18
5928,18
5929,18
5930,18
5931,18
5932,18
5933,18
5934,18
5935,18
5936,18
5937,18
5938,18
5939,18
5940,18
5941,18
5942,18
5943,18
5944,18
5945,18
5946,18
5947,18
5948,18
5949,18
5950,18
5951,18
5952,18
5953,18
5954,18
5955,18
5956,18
5957,18
5958,18
5959,18
5960,18
5961,18
5962,18
5963,18
5964,18
5965,18
5966,18
5967,18
5968,18
5969,19
5970,18
5971,18
5972,18
5973,18
5974,18
5975,18
5976,18
5977,18
5978,18
5979,18
5980,18
5981,18
5982,18
5983,18
5984,18
5985,18
5986,18
5987,18
5988,18
5989,18
5990,18
5991,18
5992,18
5993,18
5994,18
5995,18
5996,18
5997,18
5998,18
5999,18
6000,18
6001,18
6002,18
6003,18
6004,18
6005,18
6006,18
6007,18
6008,18
6009,18
6010,18
6011,18
6012,18
6013,18
6014,18
6015,18
6016,18
6017,18
6018,18
6019,18
6020,18
6021,18
6022,18
6023,18
6024,18
6025,18
6026,18
6027,18
6028,18
6029,18
6030,18
6031,18
6032,18
6033,18
6034,18
6035,18
6036,19
6037,19
6038,19
6039,19
6040,18
6041,18
6042,18
6043,18
6044,18
6045,18
6046,18
6047,18
6048,18
6049,18
6050,18
6051,18
6052,18
6053,18
6054,18
6055,18
6056,18
6057,18
6058,18
6059,18
6060,18
6061,18
6062,18
6063,18
6064,18
6065,18
6066,18
6067,18
6068,18
6069,18
6070,18
6071,18
6072,18
6073,18
6074,18
6075,18
6076,18
6077,18
6078,18
6079,18
6080,18
6081,18
6082,18
6083,18
6084,18
6085,18
6086,18
6087,18
6088,18
6089,18
6090,18
6091,18
6092,18
6093,18
6094,18
6095,18
6096,18
6097,18
6098,19
6099,19
6100,18
6101,18
6102,18
6103,18
6104,18
6105,18
6106,18
6107,18
6108,18
6109,18
6110,18
6111,18
6112,19
6113,19
6114,19
6115,19
6116,19
6117,19
6118,19
6119,19
6120,19
6121,19
6122,19
6123,19
6124,19
6125,19
6126,19
6127,19
6128,19
6129,19
6130,19
6131,19
6132,19
6133,19
6134,19
6135,19
6136,19
6137,19
6138,19
6139,19
6140,19
6141,19
6142,19
6143,19
6144,19
6145,19
6146,19
6147,19
6148,19
6149,19
6150,19
6151,19
6152,19
6153,19
6154,19
6155,19
6156,19
6157,19
6158,19
6159,19
6160,19
6161,19
6162,19
6163,19
6164,19
6165,19
6166,19
6167,19
6168,19
6169,19
6170,19
6171,19
6172,19
6173,19
6174,19
6175,19
6176,19
6177,19
6178,19
6179,19
6180,19
6181,19
6182,19
6183,19
6184,19
6185,19
6186,19
6187,19
6188,19
6189,19
6190,19
6191,19
6192,19
6193,19
6194,19
6195,19
6196,19
6197,19
6198,19
6199,19
6200,19
6201,19
6202,19
6203,19
6204,19
6205,19
6206,19
6207,19
6208,19
6209,19
6210,19
6211,19
6212,19
6213,19
6214,19
6215,19
6216,19
6217,19
6218,19
6219,19
6220,19
6221,19
6222,19
6223,19
6224,19
6225,19
6226,19
6227,19
6228,19
6229,19
6230,19
6231,19
6232,19
6233,19
6234,19
6235,19
6236,19
6237,19
6238,19
6239,19
6240,19
6241,19
6242,19
6243,19
6244,19
6245,19
6246,19
6247,19
6248,19
6249,19
6250,19
6251,19
6252,19
6253,19
6254,19
6255,19
6256,19
6257,19
6258,19
6259,19
6260,19
6261,19
6262,19
6263,20
6264,20
6265,20
6266,20
6267,20
6268,19
6269,19
6270,19
6271,19
6272,19
6273,19
6274,19
6275,19
6276,19
6277,19
6278,19
6279,19
6280,19
6281,19
6282,19
6283,19
6284,19
6285,19
6286,19
6287,19
6288,19
6289,19
6290,19
6291,19
6292,19
6293,19
6294,19
6295,19
6296,19
6297,19
6298,19
6299,19
6300,19
6301,19
6302,19
6303,19
6304,19
6305,19
6306,19
6307,19
6308,19
6309,19
6310,19
6311,19
6312,19
6313,19
6314,19
6315,19
6316,19
6317,19
6318,19
6319,19
6320,19
6321,19
6322,19
6323,19
6324,19
6325,19
6326,19
6327,19
6328,19
6329,19
6330,19
6331,19
6332,19
6333,19
6334,19
6335,19
6336,19
6337,19
6338,19
6339,19
6340,19
6341,19
6342,19
6343,19
6344,19
6345,19
6346,19
6347,19
6348,19
6349,19
6350,19
6351,19
6352,19
6353,19
6354,19
6355,19
6356,19
6357,19
6358,19
6359,19
6360,19
6361,19
6362,19
6363,19
6364,19
6365,19
6366,19
6367,19
6368,19
6369,19
6370,19
6371,19
6372,19
6373,19
6374,19
6375,19
6376,19
6377,19
6378,19
6379,19
6380,19
6381,19
6382,19
6383,19
6384,19
6385,19
6386,19
6387,19
6388,19
6389,19
6390,19
6391,19
6392,19
6393,19
6394,19
6395,19
6396,19
6397,19
6398,19
6399,19
6400,19
6401,19
6402,19
6403,19
6404,19
6405,19
6406,19
6407,19
6408,19
6409,19
6410,19
6411,19
6412,19
6413,19
6414,19
6415,19
6416,19
6417,19
6418,19
6419,19
6420,19
6421,19
6422,19
6423,19
6424,19
6425,19
6426,19
6427,19
6428,19
6429,19
6430,19
6431,19
6432,19
6433,19
6434,19
6435,19
6436,19
6437,19
6438,19
6439,19
6440,19
6441,19
6442,19
6443,19
6444,19
6445,19
6446,19
6447,19
6448,19
6449,19
6450,19
6451,19
6452,19
6453,19
6454,19
6455,19
6456,19
6457,19
6458,19
6459,19
6460,19
6461,19
6462,19
6463,19
6464,19
6465,19
6466,19
6467,19
6468,19
6469,19
6470,20
6471,19
6472,19
6473,19
6474,19
6475,19
6476,19
6477,19
6478,19
6479,20
6480,20
6481,20
6482,20
6483,20
6484,20
6485,20
6486,20
6487,19
6488,19
6489,19
6490,19
6491,20
6492,19
6493,19
6494,19
6495,19
6496,19
6497,19
6498,19
6499,19
6500,19
6501,19
6502,19
6503,19
6504,19
6505,19
6506,19
6507,19
6508,19
6509,19
6510,19
6511,19
6512,19
6513,19
6514,19
6515,19
6516,19
6517,19
6518,19
6519,19
6520,19
6521,19
6522,19
6523,19
6524,19
6525,19
6526,19
6527,19
6528,19
6529,19
6530,19
6531,19
6532,19
6533,19
6534,19
6535,19
6536,19
6537,19
6538,19
6539,19
6540,19
6541,19
6542,19
6543,19
6544,19
6545,19
6546,19
6547,19
6548,19
6549,19
6550,19
6551,19
6552,19
6553,19
6554,19
6555,19
6556,19
6557,19
6558,19
6559,19
6560,19
6561,19
6562,19
6563,19
6564,19
6565,19
6566,19
6567,19
6568,19
6569,19
6570,19
6571,19
6572,19
6573,19
6574,19
6575,19
6576,19
6577,19
6578,19
6579,19
6580,19
6581,19
6582,19
6583,19
6584,19
6585,19
6586,19
6587,19
6588,19
6589,19
6590,19
6591,19
6592,19
6593,19
6594,19
6595,19
6596,19
6597,19
6598,19
6599,19
6600,19
6601,19
6602,19
6603,19
6604,19
6605,19
6606,20
6607,19
6608,19
6609,19
6610,19
6611,19
6612,19
6613,19
6614,19
6615,19
6616,19
6617,19
6618,19
6619,19
6620,19
6621,19
6622,19
6623,19
6624,19
6625,20
6626,20
6627,20
6628,20
6629,20
6630,20
6631,20
6632,20
6633,20
6634,20
6635,20
6636,19
6637,19
6638,19
6639,19
6640,19
6641,19
6642,19
6643,19
6644,19
6645,19
6646,19
6647,19
6648,19
6649,19
6650,19
6651,19
6652,19
6653,19
6654,19
6655,19
6656,19
6657,19
6658,19
6659,19
6660,19
6661,19
6662,19
6663,19
6664,19
6665,19
6666,19
6667,19
6668,19
6669,19
6670,19
6671,19
6672,19
6673,19
6674,19
6675,19
6676,19
6677,19
6678,19
6679,19
6680,19
6681,20
6682,19
6683,19
6684,19
6685,19
6686,19
6687,19
6688,19
6689,19
6690,19
6691,19
6692,19
6693,19
6694,19
6695,19
6696,19
6697,19
6698,19
6699,19
6700,19
6701,19
6702,19
6703,19
6704,19
6705,19
6706,19
6707,19
6708,19
6709,19
6710,19
6711,19
6712,19
6713,19
6714,19
6715,19
6716,20
6717,19
6718,19
6719,19
6720,19
6721,19
6722,19
6723,19
6724,19
6725,19
6726,19
6727,19
6728,19
6729,19
6730,19
6731,19
6732,19
6733,19
6734,19
6735,19
6736,19
6737,19
6738,19
6739,19
6740,19
6741,19
6742,19
6743,20
6744,20
6745,19
6746,19
6747,19
6748,19
6749,19
6750,19
6751,19
6752,19
6753,19
6754,19
6755,19
6756,19
6757,19
6758,19
6759,19
6760,19
6761,19
6762,19
6763,19
6764,19
6765,19
6766,19
6767,19
6768,19
6769,19
6770,19
6771,19
6772,19
6773,19
6774,19
6775,19
6776,19
6777,19
6778,19
6779,19
6780,19
6781,19
6782,19
6783,19
6784,19
6785,19
6786,19
6787,19
6788,19
6789,19
6790,19
6791,19
6792,19
6793,19
6794,19
6795,19
6796,19
6797,19
6798,19
6799,19
6800,19
6801,19
6802,19
6803,19
6804,19
6805,19
6806,19
6807,19
6808,19
6809,19
6810,19
6811,19
6812,19
6813,19
6814,19
6815,19
6816,19
6817,19
6818,19
6819,19
6820,19
6821,19
6822,19
6823,19
6824,19
6825,19
6826,19
6827,19
6828,19
6829,19
6830,19
6831,19
6832,19
6833,20
6834,20
6835,19
6836,19
6837,19
6838,19
6839,19
6840,19
6841,19
6842,19
6843,19
6844,19
6845,19
6846,19
6847,19
6848,19
6849,19
6850,19
6851,19
6852,19
6853,19
6854,19
6855,20
6856,20
6857,19
6858,19
6859,19
6860,19
6861,19
6862,19
6863,19
6864,19
6865,19
6866,19
6867,19
6868,19
6869,19
6870,19
6871,19
6872,19
6873,19
6874,19
6875,19
6876,19
6877,19
6878,19
6879,19
6880,19
6881,19
6882,19
6883,19
6884,19
6885,19
6886,19
6887,19
6888,19
6889,19
6890,19
6891,19
6892,19
6893,19
6894,19
6895,19
6896,19
6897,19
6898,19
6899,19
6900,19
6901,20
6902,20
6903,19
6904,19
6905,19
6906,19
6907,19
6908,19
6909,19
6910,19
6911,19
6912,19
6913,19
6914,20
6915,19
6916,19
6917,19
6918,19
6919,19
6920,19
6921,19
6922,19
6923,19
6924,19
6925,19
6926,19
6927,19
6928,19
6929,19
6930,19
6931,19
6932,19
6933,19
6934,19
6935,19
6936,19
6937,19
6938,19
6939,19
6940,19
6941,19
6942,19
6943,19
6944,19
6945,19
6946,19
6947,19
6948,19
6949,19
6950,20
6951,19
6952,19
6953,19
6954,19
6955,19
6956,19
6957,19
6958,19
6959,19
6960,19
6961,19
6962,19
6963,19
6964,19
6965,19
6966,19
6967,19
6968,19
6969,19
6970,19
6971,19
6972,19
6973,19
6974,19
6975,19
6976,19
6977,19
6978,19
6979,19
6980,19
6981,19
6982,19
6983,19
6984,19
6985,19
6986,19
6987,19
6988,19
6989,19
6990,19
6991,19
6992,19
6993,19
6994,19
6995,19
6996,19
6997,19
6998,19
6999,19
7000,19
7001,19
7002,19
7003,19
7004,19
7005,19
7006,19
7007,19
7008,19
7009,19
7010,19
7011,19
7012,19
7013,19
7014,19
7015,19
7016,19
7017,19
7018,19
7019,19
7020,19
7021,19
7022,19
7023,20
7024,20
7025,20
7026,20
7027,20
7028,20
7029,20
7030,20
7031,20
7032,20
7033,20
7034,20
7035,20
7036,20
7037,20
7038,20
7039,20
7040,20
7041,20
7042,20
7043,20
7044,20
7045,20
7046,20
7047,20
7048,20
7049,20
7050,20
7051,20
7052,20
7053,20
7054,20
7055,20
7056,20
7057,20
7058,20
7059,20
7060,20
7061,20
7062,20
7063,20
7064,20
7065,20
7066,20
7067,20
7068,20
7069,20
7070,20
7071,20
7072,20
7073,20
7074,20
7075,20
7076,20
7077,20
7078,20
7079,20
7080,20
7081,20
7082,20
7083,20
7084,20
7085,20
7086,20
7087,20
7088,20
7089,20
7090,20
7091,20
7092,20
7093,20
7094,21
7095,20
7096,20
7097,20
7098,20
7099,20
7100,20
7101,20
7102,20
7103,20
7104,20
7105,20
7106,20
7107,20
7108,20
7109,20
7110,20
7111,20
7112,20
7113,20
7114,20
7115,20
7116,20
7117,20
7118,20
7119,20
7120,20
7121,20
7122,20
7123,20
7124,20
7125,20
7126,20
7127,20
7128,20
7129,20
7130,20
7131,20
7132,20
7133,20
7134,20
7135,20
7136,20
7137,20
7138,20
7139,20
7140,20
7141,20
7142,20
7143,20
7144,20
7145,20
7146,20
7147,20
7148,20
7149,20
7150,20
7151,20
7152,20
7153,20
7154,20
7155,20
7156,20
7157,20
7158,20
7159,20
7160,20
7161,20
7162,20
7163,20
7164,20
7165,20
7166,20
7167,20
7168,20
7169,20
7170,20
7171,20
7172,20
7173,20
7174,20
7175,20
7176,20
7177,20
7178,20
7179,20
7180,20
7181,20
7182,20
7183,20
7184,20
7185,20
7186,20
7187,20
7188,20
7189,20
7190,20
7191,20
7192,20
7193,20
7194,20
7195,20
7196,20
7197,20
7198,20
7199,20
7200,20
7201,20
7202,20
7203,20
7204,20
7205,20
7206,20
7207,20
7208,20
7209,20
7210,20
7211,20
7212,20
7213,20
7214,20
7215,20
7216,20
7217,20
7218,20
7219,20
7220,20
7221,20
7222,20
7223,20
7224,20
7225,20
7226,20
7227,20
7228,20
7229,20
7230,20
7231,20
7232,20
7233,20
7234,20
7235,20
7236,20
7237,20
7238,20
7239,20
7240,20
7241,20
7242,20
7243,20
7244,20
7245,20
7246,20
7247,20
7248,20
7249,20
7250,20
7251,20
7252,20
7253,20
7254,20
7255,20
7256,20
7257,20
7258,20
7259,20
7260,20
7261,20
7262,20
7263,20
7264,20
7265,20
7266,20
7267,20
7268,20
7269,20
7270,20
7271,20
7272,20
7273,20
7274,20
7275,20
7276,20
7277,20
7278,20
7279,20
7280,20
7281,20
7282,20
7283,20
7284,20
7285,20
7286,20
7287,20
7288,20
7289,20
7290,20
7291,20
7292,20
7293,20
7294,20
7295,20
7296,20
7297,20
7298,20
7299,20
7300,20
7301,20
7302,20
7303,20
7304,20
7305,20
7306,20
7307,20
7308,20
7309,20
7310,20
7311,20
7312,20
7313,20
7314,20
7315,20
7316,20
7317,20
7318,20
7319,20
7320,20
7321,20
7322,20
7323,20
7324,20
7325,20
7326,20
7327,20
7328,20
7329,20
7330,20
7331,20
7332,20
7333,20
7334,20
7335,20
7336,20
7337,20
7338,20
7339,21
7340,20
7341,20
7342,20
7343,20
7344,20
7345,20
7346,20
7347,20
7348,20
7349,20
7350,20
7351,20
7352,20
7353,20
7354,20
7355,20
7356,20
7357,20
7358,20
7359,20
7360,20
7361,20
7362,20
7363,20
7364,20
7365,20
7366,20
7367,20
7368,20
7369,20
7370,20
7371,20
7372,20
7373,20
7374,20
7375,20
7376,20
7377,20
7378,20
7379,20
7380,20
7381,20
7382,20
7383,20
7384,20
7385,20
7386,20
7387,20
7388,20
7389,20
7390,20
7391,20
7392,20
7393,20
7394,20
7395,20
7396,20
7397,20
7398,20
7399,20
7400,20
7401,20
7402,20
7403,20
7404,20
7405,20
7406,20
7407,20
7408,20
7409,20
7410,20
7411,20
7412,20
7413,20
7414,20
7415,20
7416,20
7417,20
7418,20
7419,20
7420,20
7421,20
7422,20
7423,20
7424,20
7425,20
7426,20
7427,20
7428,20
7429,20
7430,20
7431,20
7432,20
7433,20
7434,20
7435,20
7436,20
7437,20
7438,20
7439,20
7440,20
7441,20
7442,20
7443,20
7444,20
7445,20
7446,20
7447,20
7448,20
7449,20
7450,20
7451,20
7452,20
7453,20
7454,20
7455,20
7456,20
7457,20
7458,20
7459,20
7460,20
7461,20
7462,20
7463,20
7464,20
7465,20
7466,20
7467,20
7468,20
7469,20
7470,20
7471,20
7472,20
7473,20
7474,20
7475,20
7476,20
7477,20
7478,20
7479,20
7480,20
7481,20
7482,21
7483,21
7484,21
7485,21
7486,20
7487,20
7488,20
7489,20
7490,20
7491,20
7492,20
7493,20
7494,20
7495,20
7496,20
7497,20
7498,20
7499,20
7500,20
7501,20
7502,20
7503,20
7504,20
7505,20
7506,20
7507,20
7508,20
7509,20
7510,20
7511,20
7512,20
7513,20
7514,20
7515,20
7516,20
7517,20
7518,20
7519,20
7520,20
7521,20
7522,20
7523,20
7524,20
7525,20
7526,20
7527,20
7528,20
7529,20
7530,20
7531,20
7532,20
7533,20
7534,20
7535,20
7536,20
7537,20
7538,20
7539,20
7540,20
7541,20
7542,20
7543,20
7544,20
7545,20
7546,20
7547,20
7548,20
7549,20
7550,20
7551,20
7552,20
7553,20
7554,20
7555,20
7556,20
7557,20
7558,20
7559,20
7560,20
7561,20
7562,20
7563,20
7564,20
7565,20
7566,20
7567,20
7568,20
7569,20
7570,20
7571,20
7572,20
7573,20
7574,20
7575,20
7576,20
7577,20
7578,20
7579,20
7580,20
7581,20
7582,20
7583,20
7584,20
7585,20
7586,20
7587,20
7588,20
7589,20
7590,20
7591,20
7592,20
7593,20
7594,20
7595,20
7596,20
7597,20
7598,20
7599,20
7600,20
7601,20
7602,20
7603,20
7604,20
7605,20
7606,20
7607,20
7608,20
7609,20
7610,20
7611,20
7612,20
7613,20
7614,20
7615,20
7616,20
7617,20
7618,20
7619,20
7620,20
7621,20
7622,20
7623,20
7624,20
7625,20
7626,20
7627,20
7628,20
7629,20
7630,20
7631,20
7632,20
7633,20
7634,20
7635,20
7636,20
7637,20
7638,20
7639,20
7640,20
7641,20
7642,20
7643,20
7644,20
7645,20
7646,20
7647,20
7648,20
7649,20
7650,20
7651,20
7652,20
7653,20
7654,20
7655,20
7656,20
7657,20
7658,20
7659,20
7660,20
7661,20
7662,20
7663,20
7664,20
7665,20
7666,20
7667,20
7668,20
7669,20
7670,20
7671,20
7672,20
7673,20
7674,20
7675,20
7676,20
7677,20
7678,20
7679,20
7680,20
7681,20
7682,21
7683,21
7684,21
7685,21
7686,21
7687,21
7688,21
7689,21
7690,21
7691,21
7692,21
7693,21
7694,21
7695,21
7696,21
7697,21
7698,21
7699,21
7700,21
7701,21
7702,21
7703,21
7704,21
7705,21
7706,21
7707,21
7708,21
7709,21
7710,21
7711,21
7712,21
7713,21
7714,21
7715,21
7716,21
7717,21
7718,21
7719,21
7720,21
7721,21
7722,21
7723,21
7724,21
7725,21
7726,21
7727,21
7728,21
7729,21
7730,21
7731,21
7732,21
7733,21
7734,21
7735,21
7736,21
7737,21
7738,21
7739,21
7740,21
7741,21
7742,21
7743,21
7744,21
7745,21
7746,21
7747,21
7748,21
7749,21
7750,21
7751,21
7752,21
7753,21
7754,21
7755,21
7756,21
7757,21
7758,21
7759,21
7760,21
7761,21
7762,21
7763,21
7764,21
7765,21
7766,21
7767,21
7768,21
7769,21
7770,21
7771,21
7772,21
7773,21
7774,21
7775,21
7776,21
7777,21
7778,21
7779,21
7780,21
7781,21
7782,21
7783,21
7784,21
7785,21
7786,21
7787,21
7788,21
7789,21
7790,21
7791,21
7792,21
7793,21
7794,21
7795,21
7796,21
7797,21
7798,21
7799,21
7800,21
7801,21
7802,21
7803,21
7804,21
7805,21
7806,21
7807,21
7808,21
7809,21
7810,21
7811,21
7812,21
7813,21
7814,21
7815,21
7816,21
7817,21
7818,21
7819,21
7820,21
7821,21
7822,21
7823,21
7824,21
7825,21
7826,21
7827,21
7828,21
7829,21
7830,21
7831,21
7832,21
7833,21
7834,21
7835,21
7836,21
7837,21
7838,21
7839,21
7840,21
7841,21
7842,21
7843,21
7844,21
7845,21
7846,21
7847,22
7848,22
7849,21
7850,21
7851,21
7852,21
7853,21
7854,21
7855,21
7856,21
7857,21
7858,21
7859,21
7860,21
7861,21
7862,21
7863,21
7864,21
7865,21
7866,21
7867,21
7868,21
7869,21
7870,21
7871,21
7872,21
7873,21
7874,21
7875,21
7876,21
7877,21
7878,21
7879,21
7880,21
7881,21
7882,21
7883,21
7884,21
7885,21
7886,21
7887,21
7888,21
7889,21
7890,21
7891,21
7892,21
7893,21
7894,21
7895,21
7896,21
7897,21
7898,21
7899,21
7900,21
7901,21
7902,21
7903,21
7904,21
7905,21
7906,21
7907,21
7908,21
7909,21
7910,21
7911,21
7912,21
7913,21
7914,21
7915,21
7916,21
7917,21
7918,21
7919,21
7920,21
7921,21
7922,21
7923,21
7924,21
7925,21
7926,21
7927,21
7928,21
7929,21
7930,21
7931,21
7932,21
7933,21
7934,21
7935,21
7936,21
7937,21
7938,21
7939,21
7940,21
7941,21
7942,21
7943,21
7944,21
7945,21
7946,21
7947,21
7948,21
7949,21
7950,21
7951,21
7952,21
7953,21
7954,21
7955,21
7956,21
7957,21
7958,21
7959,21
7960,21
7961,21
7962,21
7963,21
7964,21
7965,21
7966,21
7967,21
7968,21
7969,21
7970,21
7971,21
7972,21
7973,22
7974,22
7975,22
7976,22
7977,22
7978,22
7979,22
7980,22
7981,22
7982,22
7983,22
7984,22
7985,22
7986,22
7987,22
7988,22
7989,22
7990,22
7991,22
7992,22
7993,22
7994,22
7995,22
7996,22
7997,22
7998,22
7999,22
8000,22
8001,22
8002,22
8003,22
8004,22
8005,22
8006,22
8007,22
8008,22
8009,22
8010,22
8011,22
8012,22
8013,22
8014,22
8015,22
8016,22
8017,22
8018,22
8019,22
8020,21
8021,21
8022,21
8023,21
8024,21
8025,21
8026,21
8027,21
8028,21
8029,21
8030,21
8031,21
8032,21
8033,21
8034,21
8035,21
8036,21
8037,21
8038,21
8039,21
8040,21
8041,21
8042,21
8043,21
8044,21
8045,21
8046,21
8047,21
8048,23
8049,22
8050,22
8051,22
8052,22
8053,22
8054,21
8055,21
8056,21
8057,21
8058,21
8059,21
8060,21
8061,21
8062,21
8063,21
8064,21
8065,21
8066,21
8067,21
8068,21
8069,21
8070,21
8071,21
8072,21
8073,21
8074,21
8075,21
8076,21
8077,21
8078,21
8079,21
8080,22
8081,21
8082,21
8083,21
8084,21
8085,21
8086,21
8087,21
8088,21
8089,21
8090,21
8091,21
8092,21
8093,21
8094,21
8095,21
8096,21
8097,21
8098,21
8099,21
8100,21
8101,21
8102,21
8103,21
8104,21
8105,21
8106,21
8107,21
8108,21
8109,21
8110,21
8111,21
8112,21
8113,21
8114,21
8115,21
8116,21
8117,21
8118,21
8119,21
8120,21
8121,21
8122,21
8123,21
8124,21
8125,21
8126,21
8127,21
8128,21
8129,21
8130,21
8131,21
8132,21
8133,21
8134,21
8135,21
8136,21
8137,21
8138,21
8139,21
8140,21
8141,21
8142,21
8143,21
8144,21
8145,21
8146,21
8147,21
8148,21
8149,21
8150,21
8151,21
8152,21
8153,21
8154,21
8155,21
8156,21
8157,21
8158,21
8159,21
8160,21
8161,21
8162,21
8163,21
8164,21
8165,21
8166,21
8167,21
8168,21
8169,22
8170,22
8171,22
8172,22
8173,22
8174,22
8175,22
8176,22
8177,22
8178,22
8179,22
8180,22
8181,22
8182,22
8183,22
8184,22
8185,22
8186,22
8187,22
8188,22
8189,23
8190,23
8191,23
8192,23
8193,22
8194,22
8195,22
8196,22
8197,22
8198,22
8199,22
8200,22
8201,22
8202,22
8203,22
8204,22
8205,22
8206,22
8207,22
8208,22
8209,22
8210,22
8211,22
8212,22
8213,22
8214,22
8215,22
8216,22
8217,22
8218,22
8219,22
8220,22
8221,22
8222,22
8223,22
8224,22
8225,22
8226,22
8227,22
8228,22
8229,22
8230,22
8231,22
8232,22
8233,22
8234,22
8235,22
8236,22
8237,22
8238,22
8239,22
8240,22
8241,22
8242,22
8243,22
8244,22
8245,22
8246,22
8247,22
8248,22
8249,22
8250,22
8251,22
8252,22
8253,22
8254,22
8255,22
8256,22
8257,22
8258,22
8259,22
8260,22
8261,23
8262,22
8263,22
8264,22
8265,22
8266,22
8267,22
8268,22
8269,22
8270,22
8271,22
8272,22
8273,22
8274,22
8275,22
8276,22
8277,22
8278,22
8279,22
8280,22
8281,22
8282,22
8283,22
8284,22
8285,23
8286,22
8287,22
8288,22
8289,22
8290,23
8291,23
8292,23
8293,22
8294,22
8295,22
8296,22
8297,22
8298,22
8299,22
8300,22
8301,22
8302,22
8303,22
8304,22
8305,22
8306,22
8307,22
8308,22
8309,22
8310,22
8311,22
8312,22
8313,22
8314,22
8315,22
8316,22
8317,22
8318,22
8319,22
8320,22
8321,22
8322,22
8323,22
8324,22
8325,22
8326,22
8327,22
8328,22
8329,22
8330,22
8331,22
8332,22
8333,22
8334,22
8335,22
8336,22
8337,22
8338,22
8339,22
8340,22
8341,22
8342,22
8343,22
8344,22
8345,22
8346,22
8347,22
8348,22
8349,22
8350,22
8351,22
8352,22
8353,22
8354,22
8355,22
8356,22
8357,22
8358,22
8359,22
8360,22
8361,22
8362,22
8363,22
8364,23
8365,24
8366,23
8367,23
8368,23
8369,22
8370,22
8371,22
8372,22
8373,22
8374,22
8375,22
8376,22
8377,22
8378,22
8379,22
8380,22
8381,22
8382,22
8383,22
8384,22
8385,22
8386,22
8387,22
8388,22
8389,22
8390,22
8391,22
8392,22
8393,22
8394,22
8395,22
8396,22
8397,22
8398,22
8399,22
8400,22
8401,22
8402,22
8403,22
8404,22
8405,22
8406,22
8407,22
8408,22
8409,22
8410,22
8411,22
8412,22
8413,22
8414,22
8415,22
8416,22
8417,22
8418,22
8419,22
8420,22
8421,22
8422,22
8423,22
8424,22
8425,22
8426,22
8427,22
8428,22
8429,22
8430,22
8431,22
8432,22
8433,22
8434,22
8435,22
8436,22
8437,22
8438,22
8439,22
8440,22
8441,22
8442,22
8443,22
8444,22
8445,22
8446,22
8447,22
8448,22
8449,22
8450,22
8451,22
8452,22
8453,22
8454,22
8455,22
8456,22
8457,22
8458,22
8459,22
8460,22
8461,22
8462,22
8463,22
8464,22
8465,22
8466,22
8467,22
8468,22
8469,22
8470,22
8471,22
8472,22
8473,22
8474,22
8475,22
8476,22
8477,22
8478,22
8479,22
8480,22
8481,22
8482,22
8483,22
8484,22
8485,22
8486,22
8487,22
8488,22
8489,22
8490,22
8491,22
8492,22
8493,22
8494,22
8495,22
8496,22
8497,22
8498,22
8499,22
8500,22
8501,22
8502,22
8503,22
8504,22
8505,22
8506,22
8507,22
8508,22
8509,22
8510,22
8511,22
8512,22
8513,22
8514,22
8515,22
8516,22
8517,22
8518,22
8519,22
8520,22
8521,22
8522,22
8523,22
8524,22
8525,22
8526,22
8527,22
8528,22
8529,22
8530,22
8531,22
8532,22
8533,22
8534,22
8535,22
8536,22
8537,22
8538,22
8539,22
8540,22
8541,22
8542,22
8543,22
8544,22
8545,22
8546,22
8547,22
8548,22
8549,22
8550,22
8551,22
8552,22
8553,22
8554,22
8555,22
8556,22
8557,22
8558,22
8559,22
8560,22
8561,22
8562,22
8563,22
8564,22
8565,22
8566,22
8567,22
8568,22
8569,22
8570,22
8571,22
8572,22
8573,22
8574,22
8575,22
8576,22
8577,22
8578,22
8579,22
8580,22
8581,22
8582,22
8583,22
8584,22
8585,22
8586,22
8587,22
8588,22
8589,22
8590,22
8591,22
8592,22
8593,22
8594,22
8595,22
8596,22
8597,22
8598,22
8599,22
8600,22
8601,22
8602,22
8603,22
8604,22
8605,22
8606,22
8607,22
8608,22
8609,22
8610,22
8611,22
8612,22
8613,22
8614,22
8615,22
8616,22
8617,22
8618,22
8619,22
8620,22
8621,22
8622,22
8623,22
8624,22
8625,22
8626,22
8627,22
8628,22
8629,22
8630,22
8631,22
8632,22
8633,22
8634,22
8635,22
8636,22
8637,22
8638,22
8639,22
8640,22
8641,22
8642,22
8643,22
8644,22
8645,22
8646,22
8647,22
8648,22
8649,22
8650,22
8651,22
8652,22
8653,22
8654,22
8655,22
8656,22
8657,22
8658,22
8659,22
8660,22
8661,22
8662,22
8663,22
8664,22
8665,22
8666,22
8667,22
8668,22
8669,22
8670,22
8671,22
8672,22
8673,22
8674,22
8675,22
8676,22
8677,22
8678,22
8679,22
8680,22
8681,22
8682,23
8683,23
8684,23
8685,23
8686,23
8687,23
8688,23
8689,23
8690,22
8691,22
8692,22
8693,22
8694,22
8695,22
8696,22
8697,22
8698,22
8699,22
8700,22
8701,22
8702,22
8703,22
8704,22
8705,22
8706,22
8707,22
8708,22
8709,23
8710,23
8711,23
8712,23
8713,23
8714,23
8715,23
8716,23
8717,23
8718,23
8719,23
8720,23
8721,23
8722,23
8723,23
8724,23
8725,23
8726,22
8727,22
8728,22
8729,22
8730,22
8731,22
8732,22
8733,22
8734,22
8735,22
8736,22
8737,22
8738,22
8739,22
8740,22
8741,22
8742,22
8743,22
8744,22
8745,22
8746,22
8747,22
8748,22
8749,22
8750,22
8751,22
8752,22
8753,22
8754,22
8755,22
8756,22
8757,22
8758,22
8759,22
8760,22
8761,22
8762,22
8763,22
8764,22
8765,22
8766,22
8767,22
8768,22
8769,22
8770,22
8771,22
8772,22
8773,22
8774,22
8775,22
8776,22
8777,22
8778,22
8779,23
8780,22
8781,22
8782,22
8783,22
8784,22
8785,22
8786,22
8787,22
8788,22
8789,22
8790,22
8791,22
8792,22
8793,22
8794,22
8795,22
8796,22
8797,22
8798,22
8799,22
8800,22
8801,22
8802,22
8803,22
8804,22
8805,22
8806,22
8807,22
8808,22
8809,22
8810,22
8811,22
8812,22
8813,22
8814,22
8815,22
8816,22
8817,22
8818,22
8819,22
8820,22
8821,22
8822,22
8823,22
8824,22
8825,22
8826,22
8827,22
8828,22
8829,22
8830,22
8831,22
8832,22
8833,22
8834,22
8835,22
8836,22
8837,22
8838,22
8839,22
8840,22
8841,22
8842,22
8843,22
8844,22
8845,22
8846,22
8847,22
8848,22
8849,22
8850,22
8851,22
8852,22
8853,22
8854,22
8855,22
8856,22
8857,22
8858,22
8859,22
8860,22
8861,22
8862,22
8863,22
8864,22
8865,22
8866,22
8867,22
8868,22
8869,22
8870,22
8871,22
8872,23
8873,22
8874,22
8875,22
8876,22
8877,22
8878,22
8879,22
8880,22
8881,22
8882,22
8883,22
8884,22
8885,22
8886,22
8887,22
8888,22
8889,23
8890,23
8891,22
8892,22
8893,22
8894,22
8895,22
8896,22
8897,22
8898,22
8899,22
8900,22
8901,22
8902,22
8903,22
8904,22
8905,22
8906,22
8907,23
8908,22
8909,22
8910,22
8911,22
8912,22
8913,22
8914,22
8915,22
8916,22
8917,22
8918,22
8919,22
8920,22
8921,22
8922,22
8923,22
8924,22
8925,22
8926,22
8927,22
8928,22
8929,22
8930,22
8931,22
8932,22
8933,22
8934,22
8935,22
8936,22
8937,22
8938,22
8939,22
8940,22
8941,22
8942,22
8943,22
8944,22
8945,22
8946,22
8947,22
8948,22
8949,22
8950,22
8951,22
8952,22
8953,22
8954,22
8955,22
8956,22
8957,22
8958,22
8959,22
8960,22
8961,22
8962,22
8963,22
8964,22
8965,22
8966,22
8967,22
8968,22
8969,22
8970,22
8971,22
8972,22
8973,23
8974,22
8975,22
8976,22
8977,22
8978,22
8979,22
8980,22
8981,22
8982,22
8983,22
8984,22
8985,22
8986,22
8987,22
8988,22
8989,22
8990,22
8991,22
8992,22
8993,22
8994,22
8995,22
8996,22
8997,22
8998,22
8999,22
9000,22
9001,22
9002,22
9003,22
9004,22
9005,22
9006,22
9007,22
9008,22
9009,22
9010,22
9011,22
9012,22
9013,22
9014,22
9015,22
9016,22
9017,22
9018,22
9019,22
9020,22
9021,23
9022,22
9023,22
9024,22
9025,22
9026,22
9027,22
9028,22
9029,22
9030,22
9031,22
9032,22
9033,22
9034,22
9035,22
9036,22
9037,22
9038,22
9039,22
9040,22
9041,22
9042,22
9043,22
9044,22
9045,22
9046,22
9047,22
9048,22
9049,22
9050,22
9051,22
9052,22
9053,22
9054,22
9055,22
9056,22
9057,22
9058,22
9059,22
9060,22
9061,22
9062,22
9063,22
9064,22
9065,22
9066,22
9067,22
9068,22
9069,22
9070,22
9071,22
9072,22
9073,22
9074,22
9075,22
9076,22
9077,22
9078,22
9079,22
9080,22
9081,22
9082,22
9083,22
9084,22
9085,22
9086,22
9087,22
9088,22
9089,22
9090,22
9091,22
9092,22
9093,22
9094,22
9095,22
9096,22
9097,22
9098,22
9099,22
9100,22
9101,22
9102,22
9103,22
9104,22
9105,22
9106,22
9107,22
9108,22
9109,22
9110,22
9111,22
9112,22
9113,22
9114,22
9115,22
9116,22
9117,22
9118,22
9119,22
9120,22
9121,22
9122,22
9123,22
9124,22
9125,22
9126,22
9127,22
9128,22
9129,22
9130,22
9131,22
9132,22
9133,22
9134,22
9135,22
9136,22
9137,22
9138,22
9139,22
9140,22
9141,22
9142,22
9143,22
9144,22
9145,22
9146,22
9147,22
9148,22
9149,22
9150,22
9151,22
9152,22
9153,22
9154,22
9155,22
9156,22
9157,22
9158,22
9159,22
9160,23
9161,23
9162,23
9163,23
9164,22
9165,22
9166,22
9167,22
9168,22
9169,22
9170,22
9171,22
9172,22
9173,22
9174,22
9175,22
9176,22
9177,22
9178,22
9179,22
9180,22
9181,22
9182,22
9183,22
9184,22
9185,22
9186,22
9187,22
9188,22
9189,22
9190,22
9191,22
9192,22
9193,22
9194,22
9195,22
9196,22
9197,22
9198,22
9199,22
9200,22
9201,22
9202,22
9203,22
9204,22
9205,22
9206,22
9207,22
9208,22
9209,22
9210,22
9211,22
9212,22
9213,22
9214,22
9215,22
9216,22
9217,23
9218,23
9219,22
9220,22
9221,22
9222,22
9223,22
9224,22
9225,22
9226,22
9227,22
9228,22
9229,22
9230,22
9231,22
9232,22
9233,22
9234,22
9235,22
9236,22
9237,22
9238,22
9239,22
9240,22
9241,22
9242,22
9243,22
9244,22
9245,22
9246,22
9247,22
9248,22
9249,22
9250,22
9251,22
9252,22
9253,22
9254,22
9255,22
9256,22
9257,22
9258,22
9259,22
9260,22
9261,22
9262,22
9263,22
9264,22
9265,22
9266,22
9267,22
9268,22
9269,22
9270,22
9271,22
9272,22
9273,22
9274,22
9275,22
9276,22
9277,22
9278,22
9279,22
9280,22
9281,22
9282,22
9283,22
9284,22
9285,22
9286,22
9287,22
9288,22
9289,22
9290,22
9291,22
9292,22
9293,22
9294,22
9295,22
9296,22
9297,22
9298,22
9299,22
9300,22
9301,22
9302,22
9303,22
9304,22
9305,22
9306,22
9307,22
9308,22
9309,22
9310,22
9311,22
9312,22
9313,22
9314,22
9315,22
9316,22
9317,22
9318,22
9319,22
9320,22
9321,22
9322,22
9323,22
9324,22
9325,22
9326,22
9327,22
9328,22
9329,22
9330,22
9331,22
9332,22
9333,22
9334,22
9335,22
9336,22
9337,22
9338,22
9339,22
9340,22
9341,22
9342,22
9343,22
9344,22
9345,22
9346,22
9347,22
9348,22
9349,22
9350,22
9351,22
9352,22
9353,22
9354,23
9355,23
9356,23
9357,23
9358,23
9359,22
9360,22
9361,22
9362,22
9363,22
9364,22
9365,22
9366,22
9367,22
9368,22
9369,22
9370,22
9371,22
9372,22
9373,22
9374,22
9375,22
9376,22
9377,22
9378,22
9379,22
9380,22
9381,22
9382,22
9383,22
9384,22
9385,22
9386,22
9387,22
9388,22
9389,22
9390,22
9391,22
9392,22
9393,22
9394,22
9395,22
9396,22
9397,22
9398,23
9399,22
9400,22
9401,22
9402,22
9403,22
9404,22
9405,22
9406,22
9407,22
9408,22
9409,22
9410,22
9411,22
9412,22
9413,22
9414,22
9415,22
9416,22
9417,22
9418,22
9419,22
9420,22
9421,22
9422,22
9423,22
9424,22
9425,22
9426,22
9427,22
9428,22
9429,22
9430,22
9431,22
9432,22
9433,22
9434,22
9435,22
9436,22
9437,22
9438,23
9439,23
9440,22
9441,22
9442,22
9443,22
9444,22
9445,22
9446,22
9447,22
9448,22
9449,22
9450,22
9451,22
9452,22
9453,22
9454,22
9455,22
9456,22
9457,23
9458,23
9459,23
9460,23
9461,23
9462,23
9463,23
9464,23
9465,23
9466,23
9467,23
9468,23
9469,23
9470,23
9471,23
9472,23
9473,23
9474,23
9475,23
9476,23
9477,23
9478,23
9479,23
9480,23
9481,23
9482,23
9483,23
9484,23
9485,23
9486,23
9487,23
9488,23
9489,23
9490,23
9491,23
9492,23
9493,23
9494,23
9495,23
9496,23
9497,23
9498,23
9499,23
9500,23
9501,23
9502,23
9503,23
9504,23
9505,23
9506,23
9507,23
9508,23
9509,23
9510,23
9511,23
9512,23
9513,23
9514,23
9515,23
9516,23
9517,23
9518,23
9519,23
9520,23
9521,23
9522,23
9523,23
9524,23
9525,23
9526,23
9527,23
9528,23
9529,23
9530,23
9531,23
9532,23
9533,23
9534,23
9535,23
9536,23
9537,23
9538,23
9539,23
9540,23
9541,23
9542,23
9543,23
9544,23
9545,23
9546,23
9547,23
9548,23
9549,23
9550,23
9551,23
9552,23
9553,23
9554,23
9555,23
9556,23
9557,23
9558,23
9559,23
9560,23
9561,23
9562,23
9563,23
9564,23
9565,23
9566,23
9567,23
9568,23
9569,23
9570,23
9571,23
9572,23
9573,23
9574,23
9575,23
9576,23
9577,23
9578,23
9579,23
9580,23
9581,23
9582,23
9583,23
9584,23
9585,23
9586,23
9587,24
9588,23
9589,23
9590,23
9591,23
9592,23
9593,23
9594,23
9595,23
9596,23
9597,23
9598,23
9599,23
9600,23
9601,23
9602,23
9603,23
9604,23
9605,23
9606,23
9607,23
9608,23
9609,23
9610,23
9611,23
9612,23
9613,23
9614,23
9615,23
9616,23
9617,23
9618,23
9619,23
9620,23
9621,23
9622,23
9623,23
9624,23
9625,23
9626,23
9627,23
9628,23
9629,23
9630,23
9631,23
9632,23
9633,23
9634,23
9635,23
9636,23
9637,23
9638,23
9639,23
9640,23
9641,23
9642,23
9643,23
9644,23
9645,23
9646,23
9647,23
9648,23
9649,23
9650,23
9651,23
9652,23
9653,23
9654,23
9655,24
9656,23
9657,23
9658,23
9659,23
9660,23
9661,23
9662,23
9663,23
9664,23
9665,23
9666,23
9667,23
9668,23
9669,23
9670,23
9671,23
9672,23
9673,23
9674,23
9675,23
9676,23
9677,23
9678,23
9679,23
9680,23
9681,23
9682,23
9683,23
9684,23
9685,23
9686,23
9687,23
9688,23
9689,23
9690,23
9691,23
9692,23
9693,23
9694,23
9695,23
9696,23
9697,23
9698,23
9699,23
9700,23
9701,23
9702,23
9703,23
9704,23
9705,23
9706,23
9707,23
9708,23
9709,23
9710,23
9711,23
9712,23
9713,23
9714,23
9715,24
9716,23
9717,23
9718,23
9719,23
9720,23
9721,23
9722,23
9723,23
9724,23
9725,23
9726,23
9727,23
9728,23
9729,23
9730,23
9731,24
9732,24
9733,24
9734,24
9735,24
9736,24
9737,24
9738,24
9739,24
9740,24
9741,24
9742,24
9743,24
9744,24
9745,24
9746,24
9747,24
9748,24
9749,24
9750,23
9751,23
9752,23
9753,23
9754,23
9755,23
9756,23
9757,23
9758,23
9759,23
9760,23
9761,23
9762,23
9763,23
9764,23
9765,23
9766,23
9767,23
9768,23
9769,23
9770,23
9771,23
9772,23
9773,23
9774,23
9775,23
9776,23
9777,23
9778,23
9779,23
9780,23
9781,23
9782,23
9783,23
9784,23
9785,23
9786,23
9787,23
9788,23
9789,23
9790,23
9791,23
9792,23
9793,23
9794,23
9795,23
9796,23
9797,23
9798,23
9799,23
9800,23
9801,23
9802,23
9803,23
9804,23
9805,23
9806,23
9807,23
9808,23
9809,23
9810,23
9811,23
9812,23
9813,23
9814,23
9815,23
9816,23
9817,23
9818,23
9819,23
9820,23
9821,23
9822,23
9823,23
9824,23
9825,23
9826,23
9827,23
9828,23
9829,23
9830,23
9831,24
9832,24
9833,23
9834,23
9835,23
9836,23
9837,23
9838,23
9839,23
9840,23
9841,23
9842,23
9843,23
9844,23
9845,23
9846,23
9847,23
9848,23
9849,23
9850,23
9851,23
9852,23
9853,23
9854,23
9855,23
9856,23
9857,23
9858,23
9859,23
9860,23
9861,23
9862,23
9863,23
9864,23
9865,23
9866,23
9867,23
9868,23
9869,23
9870,23
9871,23
9872,23
9873,23
9874,23
9875,23
9876,23
9877,23
9878,23
9879,23
9880,23
9881,23
9882,23
9883,23
9884,23
9885,23
9886,23
9887,23
9888,23
9889,23
9890,23
9891,23
9892,23
9893,23
9894,23
9895,23
9896,23
9897,23
9898,23
9899,23
9900,23
9901,23
9902,23
9903,23
9904,23
9905,23
9906,23
9907,23
9908,23
9909,23
9910,23
9911,23
9912,23
9913,23
9914,23
9915,23
9916,23
9917,23
9918,23
9919,23
9920,23
9921,23
9922,23
9923,23
9924,23
9925,23
9926,23
9927,23
9928,23
9929,23
9930,23
9931,23
9932,23
9933,23
9934,23
9935,23
9936,23
9937,23
9938,23
9939,23
9940,23
9941,23
9942,23
9943,23
9944,23
9945,23
9946,23
9947,23
9948,23
9949,23
9950,23
9951,23
9952,23
9953,23
9954,23
9955,23
9956,23
9957,23
9958,23
9959,23
9960,23
9961,23
9962,23
9963,23
9964,23
9965,23
9966,23
9967,23
9968,23
9969,23
9970,23
9971,23
9972,23
9973,23
9974,23
9975,23
9976,23
9977,23
9978,23
9979,23
9980,23
9981,23
9982,23
9983,23
9984,23
9985,23
9986,23
9987,23
9988,23
9989,23
9990,23
9991,23
9992,23
9993,23
9994,23
9995,23
9996,23
9997,23
9998,23
9999,23
10000,23
