1,3
2,3
3,3
4,3
5,3
6,3
7,3
8,3
9,3
10,3
11,3
12,3
13,3
14,3
15,3
16,3
17,3
18,3
19,3
20,3
21,3
22,3
23,3
24,3
25,3
26,3
27,3
28,3
29,3
30,3
31,3
32,3
33,3
34,3
35,3
36,3
37,3
38,3
39,3
40,3
41,3
42,3
43,3
44,3
45,3
46,3
47,3
48,3
49,3
50,3
51,3
52,3
53,3
54,3
55,3
56,3
57,3
58,3
59,3
60,3
61,3
62,3
63,3
64,3
65,3
66,3
67,3
68,3
69,3
70,3
71,3
72,3
73,3
74,3
75,3
76,3
77,3
78,3
79,3
80,3
81,3
82,3
83,3
84,4
85,3
86,3
87,3
88,3
89,3
90,3
91,3
92,3
93,3
94,3
95,3
96,3
97,3
98,4
99,4
100,4
101,4
102,4
103,4
104,4
105,4
106,4
107,4
108,5
109,5
110,5
111,5
112,5
113,5
114,5
115,5
116,5
117,5
118,5
119,5
120,5
121,5
122,5
123,5
124,5
125,5
126,5
127,5
128,5
129,5
130,5
131,5
132,5
133,5
134,5
135,5
136,5
137,5
138,5
139,5
140,5
141,5
142,5
143,5
144,5
145,5
146,5
147,5
148,5
149,5
150,5
151,5
152,5
153,5
154,5
155,6
156,6
157,6
158,6
159,6
160,6
161,6
162,6
163,6
164,6
165,6
166,6
167,6
168,6
169,6
170,6
171,6
172,6
173,6
174,6
175,6
176,6
177,6
178,6
179,6
180,6
181,6
182,6
183,6
184,6
185,6
186,6
187,6
188,7
189,6
190,6
191,6
192,6
193,6
194,6
195,6
196,6
197,6
198,6
199,6
200,6
201,6
202,6
203,6
204,6
205,6
206,6
207,6
208,6
209,6
210,6
211,6
212,6
213,6
214,6
215,6
216,6
217,6
218,6
219,6
220,6
221,6
222,6
223,6
224,6
225,6
226,6
227,6
228,6
229,7
230,6
231,6
232,6
233,6
234,6
235,7
236,6
237,6
238,6
239,6
240,6
241,6
242,6
243,6
244,6
245,6
246,6
247,6
248,6
249,6
250,6
251,6
252,6
253,6
254,6
255,6
256,6
257,6
258,6
259,6
260,6
261,6
262,6
263,6
264,6
265,6
266,6
267,6
268,6
269,6
270,6
271,6
272,6
273,6
274,6
275,6
276,6
277,6
278,7
279,7
280,7
281,7
282,7
283,7
284,7
285,7
286,7
287,8
288,8
289,8
290,8
291,8
292,8
293,8
294,8
295,8
296,8
297,8
298,8
299,8
300,8
301,8
302,8
303,8
304,8
305,8
306,8
307,8
308,8
309,8
310,8
311,8
312,8
313,8
314,8
315,8
316,8
317,9
318,9
319,8
320,8
321,8
322,8
323,8
324,8
325,8
326,8
327,8
328,8
329,8
330,8
331,8
332,8
333,8
334,8
335,8
336,8
337,8
338,8
339,8
340,8
341,8
342,8
343,8
344,8
345,8
346,8
347,8
348,8
349,8
350,8
351,8
352,8
353,8
354,8
355,8
356,8
357,8
358,8
359,8
360,8
361,8
362,8
363,8
364,8
365,8
366,8
367,8
368,8
369,8
370,8
371,8
372,8
373,8
374,8
375,8
376,8
377,8
378,8
379,8
380,8
381,8
382,8
383,8
384,8
385,8
386,8
387,8
388,8
389,8
390,8
391,8
392,8
393,8
394,8
395,8
396,8
397,8
398,8
399,8
400,8
401,8
402,8
403,8
404,8
405,8
406,8
407,8
408,8
409,8
410,8
411,8
412,8
413,8
414,8
415,8
416,8
417,8
418,8
419,8
420,8
421,8
422,8
423,8
424,8
425,8
426,8
427,8
428,8
429,8
430,8
431,8
432,8
433,8
434,8
435,8
436,8
437,8
438,9
439,9
440,8
441,8
442,8
443,8
444,8
445,8
446,8
447,8
448,8
449,8
450,8
451,8
452,8
453,8
454,8
455,8
456,8
457,8
458,8
459,8
460,8
461,8
462,8
463,8
464,8
465,8
466,8
467,8
468,8
469,8
470,8
471,8
472,8
473,8
474,8
475,8
476,8
477,8
478,8
479,8
480,8
481,8
482,8
483,8
484,8
485,8
486,8
487,8
488,8
489,8
490,8
491,8
492,8
493,8
494,8
495,8
496,8
497,9
498,9
499,8
500,8
501,8
502,8
503,9
504,9
505,9
506,8
507,8
508,9
509,9
510,8
511,8
512,8
513,8
514,8
515,8
516,8
517,8
518,8
519,8
520,8
521,8
522,8
523,8
524,8
525,8
526,8
527,8
528,8
529,8
530,8
531,8
532,8
533,8
534,8
535,8
536,8
537,8
538,8
539,8
540,8
541,8
542,8
543,8
544,8
545,8
546,8
547,8
548,8
549,9
550,8
551,8
552,8
553,8
554,8
555,8
556,8
557,8
558,8
559,8
560,8
561,8
562,8
563,8
564,8
565,8
566,8
567,8
568,8
569,8
570,8
571,8
572,8
573,8
574,8
575,8
576,8
577,8
578,8
579,8
580,8
581,8
582,8
583,8
584,8
585,8
586,8
587,8
588,8
589,8
590,8
591,8
592,8
593,8
594,8
595,8
596,8
597,8
598,8
599,8
600,8
601,8
602,8
603,8
604,8
605,8
606,8
607,8
608,8
609,8
610,8
611,8
612,8
613,8
614,8
615,8
616,8
617,8
618,8
619,8
620,8
621,8
622,8
623,8
624,8
625,8
626,8
627,8
628,8
629,8
630,8
631,8
632,8
633,8
634,8
635,8
636,8
637,8
638,8
639,8
640,8
641,8
642,8
643,8
644,8
645,8
646,8
647,8
648,8
649,8
650,8
651,8
652,8
653,8
654,8
655,8
656,8
657,8
658,8
659,8
660,8
661,8
662,8
663,8
664,8
665,8
666,8
667,8
668,8
669,8
670,8
671,8
672,8
673,8
674,8
675,8
676,8
677,8
678,8
679,8
680,8
681,8
682,8
683,8
684,8
685,8
686,8
687,8
688,9
689,9
690,9
691,9
692,9
693,9
694,9
695,9
696,9
697,9
698,9
699,9
700,9
701,9
702,9
703,9
704,9
705,9
706,9
707,9
708,9
709,9
710,9
711,9
712,9
713,9
714,9
715,9
716,9
717,9
718,9
719,9
720,9
721,9
722,9
723,9
724,9
725,9
726,9
727,9
728,9
729,9
730,9
731,9
732,10
733,9
734,9
735,9
736,9
737,9
738,9
739,9
740,9
741,9
742,9
743,9
744,9
745,9
746,9
747,9
748,9
749,9
750,9
751,9
752,9
753,9
754,10
755,10
756,10
757,9
758,9
759,9
760,9
761,9
762,9
763,9
764,9
765,9
766,9
767,9
768,9
769,9
770,9
771,9
772,9
773,9
774,9
775,9
776,9
777,9
778,9
779,9
780,9
781,9
782,9
783,9
784,9
785,9
786,9
787,9
788,9
789,9
790,9
791,9
792,9
793,9
794,9
795,9
796,9
797,9
798,9
799,9
800,9
801,9
802,9
803,9
804,9
805,9
806,9
807,9
808,9
809,9
810,9
811,9
812,9
813,9
814,9
815,9
816,9
817,9
818,9
819,9
820,9
821,9
822,9
823,9
824,9
825,9
826,9
827,9
828,9
829,9
830,9
831,9
832,9
833,9
834,9
835,9
836,9
837,9
838,9
839,9
840,9
841,9
842,9
843,9
844,9
845,9
846,9
847,9
848,9
849,9
850,9
851,9
852,9
853,9
854,9
855,9
856,9
857,9
858,9
859,9
860,9
861,9
862,9
863,9
864,9
865,9
866,9
867,9
868,9
869,9
870,9
871,9
872,9
873,9
874,9
875,9
876,9
877,9
878,9
879,9
880,9
881,9
882,9
883,9
884,9
885,9
886,9
887,9
888,9
889,9
890,9
891,9
892,9
893,9
894,9
895,9
896,9
897,9
898,9
899,10
900,9
901,9
902,9
903,9
904,9
905,9
906,9
907,10
908,10
909,10
910,9
911,9
912,9
913,9
914,9
915,9
916,9
917,9
918,9
919,9
920,9
921,9
922,9
923,9
924,9
925,10
926,10
927,10
928,10
929,10
930,10
931,10
932,10
933,10
934,10
935,10
936,10
937,10
938,10
939,10
940,10
941,10
942,10
943,10
944,10
945,10
946,10
947,10
948,10
949,10
950,10
951,10
952,10
953,10
954,10
955,10
956,10
957,10
958,10
959,10
960,10
961,10
962,10
963,10
964,10
965,10
966,10
967,10
968,10
969,10
970,10
971,10
972,10
973,10
974,10
975,10
976,10
977,10
978,10
979,10
980,10
981,10
982,10
983,10
984,10
985,10
986,10
987,10
988,10
989,10
990,10
991,10
992,10
993,10
994,10
995,10
996,10
997,10
998,10
999,10
1000,10
1001,10
1002,10
1003,10
1004,10
1005,10
1006,10
1007,10
1008,10
1009,10
1010,10
1011,10
1012,10
1013,10
1014,10
1015,10
1016,10
1017,10
1018,10
1019,10
1020,10
1021,10
1022,10
1023,10
1024,10
1025,10
1026,10
1027,10
1028,10
1029,10
1030,10
1031,10
1032,10
1033,10
1034,10
1035,10
1036,10
1037,10
1038,10
1039,10
1040,10
1041,10
1042,10
1043,10
1044,10
1045,10
1046,10
1047,10
1048,10
1049,10
1050,10
1051,10
1052,10
1053,10
1054,10
1055,10
1056,10
1057,10
1058,10
1059,10
1060,10
1061,10
1062,10
1063,10
1064,10
1065,10
1066,10
1067,10
1068,10
1069,10
1070,10
1071,10
1072,10
1073,10
1074,10
1075,10
1076,10
1077,10
1078,10
1079,10
1080,10
1081,10
1082,10
1083,11
1084,11
1085,11
1086,11
1087,11
1088,11
1089,11
1090,11
1091,11
1092,11
1093,11
1094,11
1095,11
1096,11
1097,11
1098,11
1099,11
1100,11
1101,11
1102,11
1103,11
1104,11
1105,12
1106,11
1107,11
1108,11
1109,11
1110,11
1111,11
1112,11
1113,11
1114,11
1115,11
1116,11
1117,11
1118,11
1119,11
1120,11
1121,11
1122,11
1123,11
1124,11
1125,11
1126,11
1127,11
1128,11
1129,11
1130,11
1131,11
1132,11
1133,11
1134,11
1135,11
1136,11
1137,11
1138,11
1139,11
1140,11
1141,11
1142,11
1143,11
1144,11
1145,11
1146,11
1147,11
1148,11
1149,11
1150,11
1151,11
1152,11
1153,12
1154,11
1155,11
1156,11
1157,11
1158,11
1159,11
1160,11
1161,11
1162,11
1163,11
1164,11
1165,11
1166,11
1167,11
1168,11
1169,11
1170,11
1171,11
1172,11
1173,11
1174,11
1175,11
1176,11
1177,11
1178,11
1179,11
1180,11
1181,11
1182,11
1183,11
1184,11
1185,11
1186,11
1187,11
1188,11
1189,11
1190,11
1191,11
1192,11
1193,11
1194,11
1195,11
1196,11
1197,11
1198,11
1199,11
1200,11
1201,11
1202,11
1203,11
1204,11
1205,11
1206,11
1207,11
1208,11
1209,11
1210,11
1211,11
1212,11
1213,11
1214,11
1215,11
1216,11
1217,11
1218,11
1219,11
1220,11
1221,11
1222,11
1223,11
1224,11
1225,11
1226,11
1227,11
1228,11
1229,11
1230,11
1231,11
1232,11
1233,11
1234,11
1235,11
1236,11
1237,11
1238,11
1239,11
1240,11
1241,11
1242,11
1243,11
1244,11
1245,11
1246,11
1247,11
1248,11
1249,11
1250,11
1251,11
1252,11
1253,11
1254,11
1255,11
1256,11
1257,11
1258,11
1259,11
1260,11
1261,11
1262,11
1263,11
1264,11
1265,11
1266,11
1267,11
1268,11
1269,11
1270,11
1271,11
1272,11
1273,11
1274,11
1275,11
1276,11
1277,11
1278,11
1279,11
1280,11
1281,11
1282,11
1283,11
1284,11
1285,11
1286,11
1287,11
1288,11
1289,11
1290,11
1291,11
1292,11
1293,11
1294,11
1295,11
1296,11
1297,11
1298,11
1299,11
1300,11
1301,11
1302,11
1303,11
1304,11
1305,11
1306,11
1307,11
1308,11
1309,11
1310,11
1311,11
1312,11
1313,11
1314,11
1315,11
1316,11
1317,11
1318,11
1319,11
1320,11
1321,11
1322,11
1323,11
1324,11
1325,11
1326,11
1327,11
1328,11
1329,11
1330,11
1331,11
1332,11
1333,11
1334,11
1335,11
1336,11
1337,11
1338,11
1339,11
1340,11
1341,11
1342,11
1343,11
1344,11
1345,11
1346,11
1347,11
1348,11
1349,11
1350,11
1351,11
1352,11
1353,11
1354,11
1355,11
1356,11
1357,11
1358,11
1359,11
1360,11
1361,11
1362,11
1363,11
1364,11
1365,11
1366,11
1367,11
1368,11
1369,11
1370,11
1371,11
1372,11
1373,11
1374,11
1375,11
1376,11
1377,11
1378,12
1379,12
1380,12
1381,12
1382,12
1383,11
1384,11
1385,11
1386,11
1387,11
1388,11
1389,11
1390,11
1391,11
1392,11
1393,11
1394,11
1395,11
1396,11
1397,11
1398,11
1399,11
1400,11
1401,11
1402,11
1403,11
1404,11
1405,11
1406,11
1407,11
1408,11
1409,11
1410,11
1411,11
1412,11
1413,11
1414,11
1415,11
1416,11
1417,11
1418,11
1419,11
1420,11
1421,11
1422,11
1423,11
1424,11
1425,11
1426,11
1427,11
1428,11
1429,11
1430,11
1431,11
1432,11
1433,11
1434,11
1435,12
1436,11
1437,11
1438,11
1439,11
1440,11
1441,11
1442,11
1443,11
1444,11
1445,11
1446,12
1447,12
1448,12
1449,12
1450,12
1451,12
1452,12
1453,12
1454,12
1455,12
1456,12
1457,12
1458,12
1459,12
1460,12
1461,12
1462,12
1463,13
1464,13
1465,13
1466,13
1467,12
1468,12
1469,12
1470,12
1471,12
1472,12
1473,12
1474,12
1475,12
1476,12
1477,12
1478,12
1479,12
1480,12
1481,12
1482,12
1483,12
1484,12
1485,12
1486,12
1487,12
1488,12
1489,12
1490,12
1491,12
1492,12
1493,12
1494,12
1495,12
1496,12
1497,12
1498,12
1499,12
1500,12
1501,12
1502,12
1503,12
1504,12
1505,12
1506,12
1507,12
1508,12
1509,12
1510,12
1511,12
1512,12
1513,12
1514,12
1515,12
1516,12
1517,12
1518,12
1519,12
1520,12
1521,12
1522,12
1523,12
1524,12
1525,12
1526,13
1527,13
1528,13
1529,13
1530,12
1531,12
1532,12
1533,12
1534,12
1535,12
1536,12
1537,12
1538,12
1539,12
1540,12
1541,12
1542,12
1543,12
1544,12
1545,12
1546,12
1547,12
1548,12
1549,12
1550,12
1551,12
1552,12
1553,12
1554,12
1555,12
1556,12
1557,12
1558,12
1559,12
1560,12
1561,12
1562,12
1563,12
1564,12
1565,12
1566,12
1567,12
1568,12
1569,12
1570,12
1571,12
1572,12
1573,12
1574,12
1575,12
1576,12
1577,12
1578,12
1579,12
1580,12
1581,12
1582,12
1583,12
1584,12
1585,12
1586,12
1587,12
1588,12
1589,12
1590,12
1591,12
1592,12
1593,12
1594,12
1595,12
1596,12
1597,12
1598,12
1599,12
1600,12
1601,12
1602,12
1603,12
1604,12
1605,12
1606,12
1607,12
1608,12
1609,12
1610,12
1611,12
1612,12
1613,12
1614,12
1615,12
1616,12
1617,12
1618,12
1619,12
1620,12
1621,12
1622,12
1623,12
1624,12
1625,12
1626,12
1627,12
1628,12
1629,12
1630,12
1631,12
1632,12
1633,12
1634,12
1635,12
1636,12
1637,12
1638,12
1639,12
1640,12
1641,12
1642,12
1643,12
1644,12
1645,12
1646,12
1647,12
1648,12
1649,12
1650,12
1651,12
1652,12
1653,12
1654,12
1655,12
1656,12
1657,12
1658,12
1659,12
1660,12
1661,12
1662,12
1663,12
1664,12
1665,12
1666,12
1667,12
1668,12
1669,12
1670,12
1671,12
1672,12
1673,12
1674,12
1675,12
1676,12
1677,12
1678,12
1679,12
1680,12
1681,12
1682,12
1683,12
1684,12
1685,12
1686,12
1687,12
1688,12
1689,12
1690,12
1691,12
1692,12
1693,12
1694,12
1695,12
1696,12
1697,12
1698,12
1699,12
1700,12
1701,12
1702,12
1703,12
1704,12
1705,12
1706,12
1707,12
1708,12
1709,12
1710,12
1711,12
1712,12
1713,12
1714,12
1715,12
1716,12
1717,12
1718,12
1719,12
1720,12
1721,12
1722,12
1723,12
1724,12
1725,12
1726,12
1727,12
1728,12
1729,12
1730,12
1731,12
1732,12
1733,12
1734,12
1735,12
1736,12
1737,12
1738,12
1739,12
1740,12
1741,12
1742,12
1743,12
1744,12
1745,12
1746,12
1747,12
1748,12
1749,12
1750,12
1751,12
1752,12
1753,12
1754,12
1755,12
1756,12
1757,12
1758,12
1759,12
1760,12
1761,12
1762,12
1763,12
1764,12
1765,12
1766,12
1767,12
1768,12
1769,13
1770,13
1771,13
1772,13
1773,13
1774,13
1775,13
1776,13
1777,13
1778,12
1779,12
1780,12
1781,12
1782,12
1783,12
1784,12
1785,12
1786,12
1787,12
1788,12
1789,12
1790,12
1791,12
1792,12
1793,12
1794,12
1795,12
1796,12
1797,12
1798,12
1799,12
1800,12
1801,12
1802,12
1803,12
1804,12
1805,12
1806,12
1807,12
1808,12
1809,12
1810,12
1811,12
1812,12
1813,12
1814,12
1815,12
1816,12
1817,12
1818,12
1819,12
1820,12
1821,12
1822,12
1823,12
1824,12
1825,13
1826,13
1827,13
1828,13
1829,13
1830,13
1831,13
1832,13
1833,13
1834,13
1835,13
1836,14
1837,13
1838,13
1839,12
1840,12
1841,12
1842,12
1843,12
1844,12
1845,12
1846,12
1847,12
1848,12
1849,12
1850,12
1851,12
1852,12
1853,12
1854,12
1855,12
1856,12
1857,12
1858,12
1859,12
1860,12
1861,12
1862,12
1863,12
1864,12
1865,12
1866,12
1867,12
1868,12
1869,12
1870,12
1871,12
1872,12
1873,12
1874,12
1875,12
1876,12
1877,12
1878,12
1879,12
1880,12
1881,12
1882,12
1883,12
1884,12
1885,12
1886,12
1887,12
1888,12
1889,12
1890,12
1891,12
1892,12
1893,12
1894,12
1895,12
1896,12
1897,12
1898,12
1899,12
1900,12
1901,12
1902,12
1903,12
1904,12
1905,12
1906,12
1907,12
1908,12
1909,12
1910,12
1911,12
1912,12
1913,12
1914,12
1915,12
1916,12
1917,12
1918,12
1919,12
1920,12
1921,12
1922,12
1923,12
1924,12
1925,12
1926,12
1927,12
1928,12
1929,12
1930,12
1931,12
1932,12
1933,12
1934,12
1935,12
1936,12
1937,12
1938,12
1939,12
1940,12
1941,12
1942,12
1943,12
1944,12
1945,12
1946,12
1947,12
1948,12
1949,12
1950,12
1951,12
1952,12
1953,12
1954,13
1955,13
1956,13
1957,13
1958,12
1959,12
1960,12
1961,12
1962,12
1963,12
1964,12
1965,12
1966,12
1967,12
1968,12
1969,12
1970,12
1971,12
1972,12
1973,12
1974,12
1975,12
1976,12
1977,12
1978,12
1979,12
1980,12
1981,12
1982,12
1983,12
1984,12
1985,12
1986,12
1987,12
1988,12
1989,12
1990,12
1991,12
1992,12
1993,12
1994,12
1995,12
1996,12
1997,12
1998,12
1999,12
2000,12
2001,12
2002,12
2003,12
2004,12
2005,12
2006,12
2007,12
2008,12
2009,12
2010,12
2011,12
2012,12
2013,12
2014,12
2015,12
2016,12
2017,12
2018,12
2019,12
2020,12
2021,12
2022,12
2023,12
2024,12
2025,12
2026,12
2027,12
2028,12
2029,12
2030,12
2031,12
2032,12
2033,12
2034,12
2035,12
2036,12
2037,12
2038,12
2039,12
2040,12
2041,12
2042,12
2043,12
2044,12
2045,12
2046,12
2047,12
2048,12
2049,12
2050,12
2051,12
2052,12
2053,12
2054,12
2055,12
2056,12
2057,12
2058,12
2059,12
2060,12
2061,12
2062,12
2063,12
2064,12
2065,12
2066,12
2067,12
2068,12
2069,12
2070,12
2071,12
2072,12
2073,12
2074,12
2075,12
2076,12
2077,12
2078,12
2079,12
2080,12
2081,12
2082,12
2083,12
2084,12
2085,12
2086,12
2087,12
2088,12
2089,12
2090,12
2091,12
2092,12
2093,12
2094,12
2095,12
2096,12
2097,12
2098,12
2099,13
2100,12
2101,12
2102,12
2103,12
2104,12
2105,12
2106,12
2107,12
2108,12
2109,12
2110,12
2111,12
2112,12
2113,12
2114,12
2115,12
2116,12
2117,12
2118,12
2119,12
2120,12
2121,12
2122,12
2123,12
2124,12
2125,12
2126,12
2127,12
2128,12
2129,12
2130,12
2131,12
2132,12
2133,12
2134,12
2135,12
2136,12
2137,12
2138,12
2139,12
2140,12
2141,12
2142,12
2143,12
2144,12
2145,12
2146,12
2147,12
2148,12
2149,12
2150,12
2151,12
2152,12
2153,12
2154,12
2155,12
2156,12
2157,12
2158,12
2159,12
2160,12
2161,12
2162,12
2163,12
2164,12
2165,12
2166,12
2167,12
2168,12
2169,12
2170,12
2171,12
2172,12
2173,12
2174,12
2175,12
2176,12
2177,12
2178,12
2179,13
2180,13
2181,13
2182,12
2183,12
2184,12
2185,12
2186,12
2187,12
2188,12
2189,12
2190,12
2191,12
2192,12
2193,12
2194,12
2195,12
2196,12
2197,12
2198,12
2199,12
2200,12
2201,13
2202,13
2203,13
2204,12
2205,12
2206,12
2207,12
2208,12
2209,12
2210,12
2211,12
2212,12
2213,12
2214,12
2215,12
2216,12
2217,12
2218,12
2219,12
2220,12
2221,12
2222,12
2223,12
2224,12
2225,12
2226,12
2227,12
2228,12
2229,12
2230,12
2231,12
2232,12
2233,12
2234,12
2235,12
2236,12
2237,12
2238,12
2239,12
2240,12
2241,12
2242,12
2243,12
2244,12
2245,12
2246,12
2247,12
2248,12
2249,12
2250,12
2251,12
2252,12
2253,12
2254,12
2255,12
2256,12
2257,12
2258,12
2259,12
2260,12
2261,12
2262,12
2263,12
2264,12
2265,12
2266,12
2267,12
2268,12
2269,12
2270,12
2271,12
2272,12
2273,12
2274,12
2275,12
2276,12
2277,12
2278,12
2279,12
2280,12
2281,12
2282,12
2283,12
2284,12
2285,12
2286,12
2287,12
2288,12
2289,12
2290,12
2291,12
2292,12
2293,12
2294,12
2295,12
2296,12
2297,12
2298,12
2299,12
2300,12
2301,12
2302,12
2303,12
2304,12
2305,12
2306,12
2307,12
2308,12
2309,12
2310,12
2311,12
2312,12
2313,12
2314,12
2315,12
2316,12
2317,12
2318,12
2319,12
2320,12
2321,12
2322,12
2323,12
2324,12
2325,12
2326,12
2327,12
2328,12
2329,12
2330,12
2331,12
2332,12
2333,12
2334,12
2335,13
2336,12
2337,12
2338,12
2339,12
2340,12
2341,12
2342,12
2343,12
2344,12
2345,12
2346,12
2347,12
2348,12
2349,12
2350,12
2351,12
2352,12
2353,12
2354,12
2355,12
2356,12
2357,12
2358,12
2359,12
2360,12
2361,12
2362,12
2363,12
2364,12
2365,12
2366,12
2367,12
2368,12
2369,12
2370,12
2371,12
2372,12
2373,12
2374,12
2375,12
2376,12
2377,12
2378,12
2379,12
2380,12
2381,13
2382,13
2383,13
2384,13
2385,12
2386,12
2387,12
2388,12
2389,12
2390,12
2391,12
2392,12
2393,12
2394,12
2395,12
2396,12
2397,12
2398,12
2399,12
2400,12
2401,12
2402,12
2403,12
2404,12
2405,12
2406,12
2407,12
2408,12
2409,12
2410,12
2411,12
2412,12
2413,12
2414,12
2415,12
2416,12
2417,12
2418,12
2419,12
2420,12
2421,12
2422,12
2423,12
2424,12
2425,12
2426,12
2427,12
2428,12
2429,12
2430,12
2431,12
2432,12
2433,12
2434,12
2435,12
2436,12
2437,12
2438,12
2439,12
2440,12
2441,12
2442,12
2443,12
2444,12
2445,12
2446,12
2447,12
2448,12
2449,12
2450,12
2451,12
2452,12
2453,12
2454,12
2455,12
2456,12
2457,12
2458,12
2459,12
2460,12
2461,12
2462,12
2463,12
2464,12
2465,12
2466,12
2467,12
2468,12
2469,12
2470,12
2471,12
2472,12
2473,12
2474,12
2475,12
2476,12
2477,12
2478,12
2479,12
2480,12
2481,12
2482,12
2483,12
2484,12
2485,12
2486,12
2487,12
2488,12
2489,12
2490,12
2491,12
2492,12
2493,12
2494,12
2495,12
2496,12
2497,12
2498,12
2499,12
2500,12
2501,12
2502,12
2503,12
2504,12
2505,12
2506,12
2507,12
2508,12
2509,12
2510,12
2511,12
2512,12
2513,12
2514,12
2515,12
2516,12
2517,12
2518,12
2519,12
2520,12
2521,12
2522,12
2523,12
2524,12
2525,12
2526,12
2527,12
2528,12
2529,12
2530,12
2531,12
2532,12
2533,12
2534,12
2535,12
2536,12
2537,12
2538,12
2539,12
2540,12
2541,12
2542,12
2543,12
2544,12
2545,12
2546,12
2547,12
2548,12
2549,12
2550,12
2551,12
2552,12
2553,12
2554,12
2555,12
2556,12
2557,12
2558,12
2559,12
2560,12
2561,12
2562,12
2563,12
2564,12
2565,12
2566,12
2567,12
2568,13
2569,13
2570,12
2571,12
2572,12
2573,12
2574,12
2575,12
2576,12
2577,12
2578,12
2579,12
2580,12
2581,12
2582,12
2583,12
2584,12
2585,12
2586,12
2587,12
2588,12
2589,12
2590,12
2591,12
2592,12
2593,12
2594,12
2595,12
2596,12
2597,12
2598,12
2599,12
2600,12
2601,12
2602,12
2603,12
2604,12
2605,12
2606,12
2607,12
2608,12
2609,12
2610,12
2611,12
2612,12
2613,12
2614,12
2615,12
2616,12
2617,12
2618,12
2619,12
2620,12
2621,12
2622,12
2623,12
2624,12
2625,12
2626,12
2627,12
2628,12
2629,12
2630,12
2631,12
2632,12
2633,12
2634,12
2635,12
2636,12
2637,12
2638,12
2639,12
2640,12
2641,12
2642,12
2643,12
2644,12
2645,12
2646,12
2647,12
2648,12
2649,12
2650,12
2651,12
2652,12
2653,12
2654,12
2655,12
2656,12
2657,12
2658,12
2659,12
2660,12
2661,12
2662,12
2663,12
2664,12
2665,12
2666,12
2667,12
2668,12
2669,12
2670,12
2671,12
2672,12
2673,12
2674,12
2675,12
2676,12
2677,12
2678,12
2679,12
2680,12
2681,12
2682,12
2683,12
2684,12
2685,12
2686,12
2687,12
2688,12
2689,12
2690,12
2691,12
2692,12
2693,12
2694,12
2695,12
2696,12
2697,12
2698,12
2699,12
2700,12
2701,12
2702,12
2703,12
2704,12
2705,12
2706,12
2707,12
2708,12
2709,12
2710,12
2711,12
2712,12
2713,12
2714,12
2715,12
2716,12
2717,12
2718,12
2719,12
2720,12
2721,12
2722,12
2723,12
2724,12
2725,12
2726,12
2727,12
2728,12
2729,12
2730,12
2731,12
2732,12
2733,12
2734,12
2735,12
2736,12
2737,12
2738,12
2739,12
2740,12
2741,12
2742,12
2743,12
2744,12
2745,12
2746,12
2747,12
2748,12
2749,12
2750,12
2751,12
2752,12
2753,12
2754,12
2755,12
2756,12
2757,12
2758,12
2759,12
2760,12
2761,12
2762,12
2763,12
2764,12
2765,12
2766,12
2767,12
2768,12
2769,12
2770,12
2771,12
2772,12
2773,12
2774,12
2775,12
2776,12
2777,12
2778,12
2779,12
2780,12
2781,12
2782,12
2783,12
2784,12
2785,12
2786,12
2787,12
2788,12
2789,12
2790,12
2791,12
2792,12
2793,12
2794,12
2795,12
2796,12
2797,12
2798,12
2799,12
2800,12
2801,12
2802,12
2803,12
2804,12
2805,12
2806,12
2807,12
2808,12
2809,12
2810,12
2811,12
2812,12
2813,12
2814,12
2815,12
2816,12
2817,12
2818,12
2819,12
2820,12
2821,12
2822,12
2823,12
2824,12
2825,13
2826,12
2827,12
2828,12
2829,12
2830,12
2831,12
2832,12
2833,12
2834,12
2835,12
2836,12
2837,12
2838,12
2839,12
2840,12
2841,12
2842,12
2843,12
2844,12
2845,12
2846,12
2847,12
2848,12
2849,12
2850,12
2851,12
2852,12
2853,12
2854,12
2855,12
2856,12
2857,12
2858,12
2859,12
2860,12
2861,12
2862,12
2863,12
2864,12
2865,12
2866,12
2867,12
2868,12
2869,12
2870,12
2871,12
2872,12
2873,12
2874,12
2875,12
2876,12
2877,12
2878,12
2879,12
2880,12
2881,12
2882,12
2883,12
2884,12
2885,12
2886,12
2887,12
2888,12
2889,12
2890,12
2891,12
2892,12
2893,12
2894,12
2895,12
2896,12
2897,12
2898,12
2899,12
2900,12
2901,12
2902,12
2903,12
2904,12
2905,12
2906,12
2907,12
2908,12
2909,12
2910,12
2911,12
2912,12
2913,12
2914,12
2915,12
2916,12
2917,12
2918,12
2919,12
2920,12
2921,12
2922,12
2923,12
2924,12
2925,12
2926,12
2927,12
2928,12
2929,12
2930,12
2931,12
2932,12
2933,12
2934,12
2935,12
2936,12
2937,12
2938,12
2939,12
2940,12
2941,12
2942,12
2943,12
2944,12
2945,12
2946,12
2947,12
2948,12
2949,12
2950,12
2951,12
2952,12
2953,12
2954,12
2955,12
2956,12
2957,12
2958,12
2959,12
2960,12
2961,12
2962,12
2963,12
2964,12
2965,12
2966,12
2967,12
2968,12
2969,12
2970,12
2971,12
2972,12
2973,12
2974,12
2975,12
2976,12
2977,12
2978,12
2979,12
2980,12
2981,12
2982,12
2983,12
2984,12
2985,12
2986,12
2987,12
2988,12
2989,12
2990,12
2991,12
2992,12
2993,12
2994,12
2995,12
2996,12
2997,12
2998,12
2999,12
3000,12
3001,12
3002,12
3003,12
3004,12
3005,12
3006,12
3007,12
3008,12
3009,12
3010,12
3011,12
3012,12
3013,12
3014,12
3015,12
3016,12
3017,12
3018,12
3019,12
3020,12
3021,12
3022,12
3023,12
3024,12
3025,12
3026,12
3027,12
3028,12
3029,12
3030,12
3031,12
3032,12
3033,12
3034,12
3035,12
3036,12
3037,12
3038,12
3039,12
3040,12
3041,12
3042,12
3043,12
3044,12
3045,12
3046,12
3047,12
3048,12
3049,12
3050,12
3051,12
3052,12
3053,12
3054,12
3055,12
3056,12
3057,12
3058,12
3059,12
3060,12
3061,12
3062,12
3063,12
3064,12
3065,12
3066,12
3067,12
3068,12
3069,12
3070,12
3071,12
3072,12
3073,12
3074,12
3075,12
3076,12
3077,12
3078,12
3079,12
3080,12
3081,12
3082,12
3083,12
3084,12
3085,12
3086,12
3087,12
3088,12
3089,12
3090,12
3091,12
3092,12
3093,12
3094,12
3095,12
3096,12
3097,12
3098,12
3099,12
3100,12
3101,12
3102,12
3103,12
3104,12
3105,12
3106,12
3107,12
3108,12
3109,12
3110,12
3111,12
3112,12
3113,12
3114,12
3115,12
3116,12
3117,12
3118,12
3119,12
3120,12
3121,12
3122,12
3123,12
3124,12
3125,12
3126,12
3127,12
3128,12
3129,12
3130,12
3131,12
3132,12
3133,12
3134,12
3135,12
3136,12
3137,12
3138,12
3139,12
3140,12
3141,12
3142,12
3143,12
3144,12
3145,13
3146,12
3147,12
3148,12
3149,12
3150,12
3151,12
3152,12
3153,12
3154,12
3155,12
3156,12
3157,12
3158,12
3159,12
3160,12
3161,12
3162,12
3163,12
3164,12
3165,12
3166,12
3167,12
3168,12
3169,12
3170,12
3171,12
3172,12
3173,12
3174,12
3175,12
3176,12
3177,12
3178,12
3179,12
3180,12
3181,12
3182,12
3183,12
3184,12
3185,12
3186,12
3187,12
3188,12
3189,12
3190,12
3191,12
3192,12
3193,12
3194,12
3195,12
3196,12
3197,12
3198,12
3199,12
3200,12
3201,12
3202,12
3203,12
3204,12
3205,12
3206,12
3207,12
3208,12
3209,12
3210,12
3211,12
3212,12
3213,12
3214,12
3215,12
3216,12
3217,12
3218,12
3219,12
3220,12
3221,12
3222,12
3223,12
3224,12
3225,12
3226,12
3227,12
3228,12
3229,12
3230,12
3231,12
3232,12
3233,12
3234,12
3235,12
3236,12
3237,12
3238,12
3239,12
3240,12
3241,12
3242,12
3243,12
3244,12
3245,12
3246,12
3247,12
3248,12
3249,12
3250,12
3251,12
3252,12
3253,12
3254,12
3255,12
3256,13
3257,13
3258,13
3259,13
3260,13
3261,13
3262,13
3263,13
3264,13
3265,12
3266,12
3267,12
3268,12
3269,12
3270,12
3271,12
3272,12
3273,12
3274,12
3275,12
3276,12
3277,12
3278,12
3279,12
3280,12
3281,12
3282,12
3283,12
3284,12
3285,12
3286,12
3287,12
3288,13
3289,13
3290,13
3291,13
3292,13
3293,13
3294,13
3295,13
3296,13
3297,12
3298,12
3299,12
3300,12
3301,12
3302,12
3303,12
3304,12
3305,12
3306,12
3307,12
3308,12
3309,12
3310,12
3311,12
3312,12
3313,12
3314,12
3315,12
3316,12
3317,12
3318,12
3319,12
3320,12
3321,12
3322,12
3323,12
3324,12
3325,12
3326,12
3327,12
3328,12
3329,12
3330,12
3331,12
3332,12
3333,12
3334,12
3335,12
3336,12
3337,12
3338,12
3339,12
3340,12
3341,12
3342,12
3343,12
3344,12
3345,12
3346,12
3347,12
3348,12
3349,12
3350,12
3351,12
3352,12
3353,12
3354,12
3355,12
3356,12
3357,12
3358,12
3359,12
3360,12
3361,12
3362,12
3363,12
3364,13
3365,13
3366,12
3367,12
3368,12
3369,12
3370,12
3371,12
3372,12
3373,12
3374,12
3375,12
3376,12
3377,12
3378,13
3379,13
3380,13
3381,13
3382,13
3383,13
3384,13
3385,13
3386,13
3387,13
3388,13
3389,13
3390,13
3391,13
3392,13
3393,13
3394,13
3395,13
3396,13
3397,13
3398,13
3399,13
3400,13
3401,13
3402,13
3403,13
3404,13
3405,13
3406,13
3407,13
3408,13
3409,13
3410,13
3411,13
3412,13
3413,13
3414,13
3415,13
3416,13
3417,13
3418,13
3419,13
3420,13
3421,13
3422,13
3423,13
3424,13
3425,13
3426,13
3427,13
3428,13
3429,13
3430,13
3431,13
3432,13
3433,13
3434,13
3435,13
3436,13
3437,13
3438,13
3439,13
3440,13
3441,13
3442,13
3443,13
3444,13
3445,13
3446,13
3447,13
3448,13
3449,13
3450,13
3451,13
3452,13
3453,13
3454,13
3455,13
3456,13
3457,13
3458,13
3459,13
3460,13
3461,13
3462,13
3463,13
3464,13
3465,13
3466,13
3467,13
3468,13
3469,13
3470,13
3471,13
3472,13
3473,13
3474,13
3475,14
3476,14
3477,14
3478,13
3479,13
3480,13
3481,13
3482,13
3483,13
3484,13
3485,13
3486,13
3487,13
3488,13
3489,13
3490,13
3491,13
3492,13
3493,13
3494,13
3495,13
3496,13
3497,13
3498,13
3499,13
3500,13
3501,13
3502,13
3503,13
3504,13
3505,13
3506,13
3507,13
3508,13
3509,13
3510,13
3511,13
3512,13
3513,13
3514,13
3515,13
3516,13
3517,13
3518,13
3519,13
3520,13
3521,13
3522,13
3523,13
3524,13
3525,13
3526,13
3527,13
3528,13
3529,13
3530,13
3531,13
3532,13
3533,13
3534,13
3535,13
3536,13
3537,13
3538,13
3539,13
3540,13
3541,13
3542,13
3543,13
3544,13
3545,13
3546,13
3547,13
3548,13
3549,13
3550,13
3551,13
3552,13
3553,13
3554,13
3555,13
3556,13
3557,13
3558,13
3559,13
3560,13
3561,13
3562,13
3563,13
3564,13
3565,13
3566,13
3567,13
3568,13
3569,13
3570,13
3571,13
3572,13
3573,13
3574,13
3575,13
3576,13
3577,13
3578,13
3579,13
3580,13
3581,13
3582,13
3583,13
3584,13
3585,13
3586,13
3587,13
3588,13
3589,13
3590,13
3591,13
3592,13
3593,13
3594,13
3595,13
3596,13
3597,13
3598,13
3599,13
3600,13
3601,13
3602,13
3603,13
3604,13
3605,13
3606,13
3607,13
3608,13
3609,13
3610,13
3611,13
3612,13
3613,13
3614,13
3615,13
3616,13
3617,13
3618,13
3619,13
3620,13
3621,13
3622,13
3623,13
3624,13
3625,13
3626,13
3627,13
3628,13
3629,13
3630,13
3631,13
3632,13
3633,13
3634,13
3635,13
3636,13
3637,13
3638,13
3639,13
3640,13
3641,13
3642,13
3643,13
3644,13
3645,13
3646,13
3647,13
3648,13
3649,13
3650,13
3651,13
3652,13
3653,13
3654,13
3655,13
3656,13
3657,13
3658,13
3659,13
3660,13
3661,13
3662,13
3663,13
3664,13
3665,13
3666,13
3667,13
3668,13
3669,13
3670,13
3671,13
3672,13
3673,13
3674,13
3675,13
3676,13
3677,13
3678,13
3679,13
3680,13
3681,13
3682,13
3683,13
3684,13
3685,13
3686,13
3687,13
3688,13
3689,13
3690,13
3691,13
3692,13
3693,13
3694,13
3695,13
3696,13
3697,13
3698,13
3699,13
3700,13
3701,13
3702,13
3703,13
3704,13
3705,13
3706,13
3707,13
3708,13
3709,13
3710,13
3711,13
3712,13
3713,13
3714,13
3715,13
3716,13
3717,13
3718,13
3719,13
3720,13
3721,13
3722,13
3723,13
3724,13
3725,13
3726,13
3727,13
3728,13
3729,13
3730,13
3731,13
3732,13
3733,13
3734,13
3735,13
3736,13
3737,13
3738,13
3739,13
3740,13
3741,13
3742,13
3743,13
3744,13
3745,13
3746,13
3747,13
3748,13
3749,13
3750,13
3751,13
3752,13
3753,13
3754,13
3755,13
3756,14
3757,14
3758,14
3759,14
3760,13
3761,13
3762,13
3763,13
3764,13
3765,13
3766,13
3767,13
3768,13
3769,13
3770,13
3771,13
3772,13
3773,13
3774,13
3775,13
3776,13
3777,13
3778,13
3779,13
3780,13
3781,13
3782,13
3783,13
3784,13
3785,13
3786,13
3787,13
3788,14
3789,14
3790,13
3791,13
3792,13
3793,13
3794,13
3795,13
3796,13
3797,13
3798,13
3799,13
3800,13
3801,13
3802,13
3803,13
3804,13
3805,13
3806,13
3807,13
3808,13
3809,13
3810,13
3811,13
3812,13
3813,13
3814,13
3815,13
3816,13
3817,13
3818,13
3819,13
3820,13
3821,13
3822,13
3823,13
3824,13
3825,13
3826,13
3827,13
3828,13
3829,13
3830,13
3831,13
3832,13
3833,13
3834,13
3835,13
3836,13
3837,13
3838,13
3839,13
3840,13
3841,13
3842,13
3843,13
3844,13
3845,13
3846,13
3847,13
3848,13
3849,13
3850,13
3851,13
3852,13
3853,13
3854,13
3855,13
3856,13
3857,13
3858,13
3859,13
3860,13
3861,13
3862,13
3863,13
3864,13
3865,13
3866,13
3867,13
3868,13
3869,13
3870,13
3871,13
3872,13
3873,13
3874,13
3875,13
3876,13
3877,13
3878,13
3879,13
3880,13
3881,13
3882,13
3883,13
3884,13
3885,13
3886,13
3887,13
3888,13
3889,14
3890,14
3891,14
3892,13
3893,13
3894,13
3895,13
3896,13
3897,13
3898,13
3899,13
3900,13
3901,13
3902,13
3903,13
3904,13
3905,13
3906,13
3907,13
3908,13
3909,13
3910,13
3911,13
3912,13
3913,13
3914,14
3915,14
3916,14
3917,14
3918,14
3919,14
3920,14
3921,14
3922,14
3923,14
3924,14
3925,14
3926,14
3927,13
3928,13
3929,13
3930,13
3931,13
3932,13
3933,13
3934,13
3935,13
3936,13
3937,13
3938,13
3939,13
3940,13
3941,13
3942,13
3943,13
3944,13
3945,13
3946,13
3947,13
3948,13
3949,13
3950,13
3951,13
3952,13
3953,13
3954,13
3955,13
3956,13
3957,13
3958,13
3959,13
3960,13
3961,13
3962,13
3963,13
3964,13
3965,13
3966,13
3967,13
3968,13
3969,13
3970,13
3971,13
3972,13
3973,13
3974,13
3975,13
3976,13
3977,13
3978,13
3979,13
3980,13
3981,13
3982,13
3983,13
3984,13
3985,13
3986,13
3987,13
3988,13
3989,13
3990,13
3991,13
3992,13
3993,13
3994,13
3995,13
3996,13
3997,13
3998,13
3999,13
4000,13
4001,13
4002,13
4003,13
4004,13
4005,13
4006,13
4007,13
4008,13
4009,13
4010,14
4011,14
4012,14
4013,14
4014,14
4015,14
4016,14
4017,14
4018,14
4019,14
4020,14
4021,14
4022,14
4023,14
4024,14
4025,14
4026,14
4027,14
4028,14
4029,14
4030,14
4031,14
4032,14
4033,14
4034,14
4035,14
4036,14
4037,14
4038,14
4039,14
4040,14
4041,14
4042,14
4043,14
4044,14
4045,14
4046,14
4047,14
4048,14
4049,14
4050,14
4051,14
4052,14
4053,14
4054,14
4055,14
4056,14
4057,14
4058,14
4059,15
4060,15
4061,15
4062,15
4063,15
4064,15
4065,15
4066,15
4067,15
4068,15
4069,15
4070,15
4071,15
4072,15
4073,15
4074,15
4075,15
4076,15
4077,15
4078,15
4079,15
4080,15
4081,15
4082,15
4083,15
4084,15
4085,15
4086,15
4087,15
4088,15
4089,15
4090,15
4091,15
4092,15
4093,15
4094,15
4095,15
4096,15
4097,15
4098,15
4099,15
4100,15
4101,15
4102,15
4103,15
4104,15
4105,15
4106,15
4107,15
4108,15
4109,15
4110,15
4111,15
4112,15
4113,15
4114,15
4115,15
4116,15
4117,15
4118,15
4119,15
4120,15
4121,15
4122,15
4123,15
4124,15
4125,15
4126,15
4127,15
4128,15
4129,15
4130,15
4131,15
4132,15
4133,15
4134,15
4135,15
4136,15
4137,15
4138,15
4139,15
4140,15
4141,15
4142,15
4143,15
4144,15
4145,15
4146,15
4147,15
4148,15
4149,15
4150,15
4151,15
4152,15
4153,15
4154,15
4155,15
4156,15
4157,15
4158,15
4159,15
4160,15
4161,15
4162,15
4163,15
4164,15
4165,15
4166,15
4167,15
4168,15
4169,15
4170,15
4171,15
4172,15
4173,15
4174,15
4175,15
4176,15
4177,15
4178,15
4179,15
4180,15
4181,15
4182,15
4183,15
4184,15
4185,15
4186,15
4187,15
4188,15
4189,15
4190,15
4191,15
4192,15
4193,15
4194,15
4195,15
4196,15
4197,15
4198,15
4199,15
4200,15
4201,15
4202,15
4203,15
4204,15
4205,15
4206,15
4207,15
4208,15
4209,15
4210,15
4211,15
4212,15
4213,15
4214,15
4215,15
4216,15
4217,15
4218,15
4219,15
4220,15
4221,15
4222,15
4223,15
4224,15
4225,15
4226,15
4227,15
4228,15
4229,15
4230,15
4231,15
4232,15
4233,15
4234,15
4235,15
4236,15
4237,15
4238,15
4239,15
4240,15
4241,15
4242,15
4243,15
4244,15
4245,15
4246,15
4247,15
4248,15
4249,15
4250,15
4251,15
4252,15
4253,15
4254,16
4255,16
4256,16
4257,16
4258,16
4259,16
4260,16
4261,16
4262,16
4263,16
4264,16
4265,16
4266,16
4267,16
4268,16
4269,16
4270,16
4271,16
4272,16
4273,16
4274,16
4275,16
4276,16
4277,16
4278,16
4279,16
4280,16
4281,16
4282,16
4283,16
4284,16
4285,16
4286,16
4287,16
4288,16
4289,16
4290,16
4291,16
4292,16
4293,16
4294,16
4295,16
4296,16
4297,16
4298,16
4299,16
4300,16
4301,16
4302,16
4303,16
4304,16
4305,16
4306,16
4307,16
4308,16
4309,16
4310,16
4311,16
4312,16
4313,16
4314,16
4315,16
4316,16
4317,16
4318,16
4319,16
4320,16
4321,16
4322,16
4323,16
4324,16
4325,16
4326,16
4327,16
4328,16
4329,16
4330,16
4331,16
4332,16
4333,16
4334,16
4335,16
4336,16
4337,16
4338,16
4339,16
4340,16
4341,16
4342,16
4343,16
4344,16
4345,16
4346,16
4347,16
4348,16
4349,16
4350,16
4351,16
4352,16
4353,16
4354,16
4355,16
4356,16
4357,16
4358,16
4359,16
4360,16
4361,16
4362,16
4363,16
4364,16
4365,16
4366,16
4367,16
4368,16
4369,16
4370,16
4371,16
4372,16
4373,16
4374,16
4375,16
4376,16
4377,16
4378,16
4379,16
4380,16
4381,16
4382,16
4383,16
4384,16
4385,16
4386,16
4387,16
4388,16
4389,16
4390,16
4391,16
4392,16
4393,16
4394,16
4395,16
4396,16
4397,16
4398,16
4399,16
4400,16
4401,16
4402,16
4403,16
4404,16
4405,16
4406,16
4407,16
4408,16
4409,16
4410,16
4411,16
4412,16
4413,16
4414,16
4415,16
4416,16
4417,16
4418,16
4419,16
4420,16
4421,16
4422,16
4423,16
4424,16
4425,16
4426,16
4427,16
4428,16
4429,16
4430,16
4431,16
4432,16
4433,16
4434,16
4435,16
4436,16
4437,16
4438,16
4439,16
4440,16
4441,16
4442,16
4443,16
4444,16
4445,16
4446,16
4447,16
4448,16
4449,16
4450,16
4451,16
4452,16
4453,16
4454,16
4455,16
4456,16
4457,16
4458,16
4459,16
4460,16
4461,16
4462,16
4463,16
4464,16
4465,16
4466,16
4467,17
4468,17
4469,16
4470,16
4471,16
4472,16
4473,16
4474,16
4475,16
4476,16
4477,16
4478,16
4479,16
4480,16
4481,16
4482,16
4483,16
4484,16
4485,16
4486,16
4487,16
4488,16
4489,16
4490,16
4491,16
4492,16
4493,16
4494,16
4495,16
4496,16
4497,16
4498,16
4499,16
4500,16
4501,16
4502,16
4503,16
4504,16
4505,16
4506,17
4507,17
4508,17
4509,17
4510,17
4511,17
4512,17
4513,17
4514,17
4515,17
4516,17
4517,17
4518,17
4519,17
4520,17
4521,17
4522,17
4523,17
4524,17
4525,17
4526,17
4527,17
4528,17
4529,17
4530,17
4531,17
4532,17
4533,17
4534,17
4535,17
4536,17
4537,17
4538,17
4539,17
4540,17
4541,17
4542,17
4543,17
4544,17
4545,17
4546,17
4547,17
4548,17
4549,17
4550,17
4551,17
4552,17
4553,17
4554,17
4555,17
4556,17
4557,17
4558,17
4559,17
4560,17
4561,17
4562,17
4563,17
4564,17
4565,17
4566,17
4567,17
4568,17
4569,17
4570,17
4571,17
4572,17
4573,17
4574,17
4575,17
4576,17
4577,17
4578,17
4579,17
4580,17
4581,17
4582,17
4583,17
4584,17
4585,17
4586,17
4587,17
4588,17
4589,17
4590,17
4591,17
4592,17
4593,17
4594,17
4595,17
4596,18
4597,18
4598,18
4599,17
4600,17
4601,17
4602,17
4603,17
4604,17
4605,17
4606,17
4607,17
4608,17
4609,17
4610,18
4611,17
4612,17
4613,17
4614,17
4615,17
4616,17
4617,17
4618,17
4619,17
4620,17
4621,17
4622,17
4623,17
4624,17
4625,17
4626,17
4627,17
4628,17
4629,17
4630,17
4631,17
4632,17
4633,17
4634,17
4635,17
4636,17
4637,17
4638,17
4639,17
4640,17
4641,17
4642,17
4643,17
4644,17
4645,17
4646,17
4647,17
4648,17
4649,17
4650,17
4651,17
4652,17
4653,18
4654,17
4655,17
4656,17
4657,17
4658,17
4659,17
4660,17
4661,17
4662,17
4663,17
4664,17
4665,17
4666,17
4667,17
4668,17
4669,17
4670,17
4671,17
4672,17
4673,17
4674,17
4675,17
4676,17
4677,17
4678,17
4679,17
4680,17
4681,17
4682,17
4683,17
4684,17
4685,17
4686,17
4687,17
4688,17
4689,17
4690,17
4691,17
4692,17
4693,17
4694,17
4695,17
4696,17
4697,17
4698,17
4699,17
4700,17
4701,17
4702,17
4703,17
4704,17
4705,17
4706,17
4707,17
4708,17
4709,17
4710,17
4711,17
4712,17
4713,17
4714,17
4715,17
4716,17
4717,17
4718,17
4719,17
4720,17
4721,17
4722,17
4723,17
4724,17
4725,17
4726,17
4727,17
4728,17
4729,17
4730,17
4731,17
4732,17
4733,17
4734,17
4735,17
4736,17
4737,17
4738,17
4739,17
4740,17
4741,17
4742,17
4743,18
4744,17
4745,17
4746,17
4747,17
4748,17
4749,17
4750,17
4751,17
4752,17
4753,17
4754,17
4755,17
4756,17
4757,17
4758,17
4759,17
4760,17
4761,17
4762,17
4763,17
4764,17
4765,17
4766,17
4767,17
4768,17
4769,17
4770,17
4771,17
4772,17
4773,17
4774,17
4775,17
4776,17
4777,17
4778,17
4779,17
4780,17
4781,17
4782,17
4783,17
4784,17
4785,17
4786,17
4787,17
4788,17
4789,17
4790,17
4791,17
4792,17
4793,17
4794,17
4795,17
4796,17
4797,17
4798,17
4799,17
4800,17
4801,17
4802,17
4803,17
4804,17
4805,17
4806,17
4807,17
4808,17
4809,17
4810,17
4811,17
4812,17
4813,17
4814,17
4815,17
4816,17
4817,17
4818,17
4819,17
4820,17
4821,17
4822,17
4823,17
4824,17
4825,17
4826,17
4827,17
4828,17
4829,18
4830,18
4831,18
4832,18
4833,18
4834,17
4835,17
4836,17
4837,17
4838,17
4839,17
4840,17
4841,17
4842,17
4843,17
4844,17
4845,17
4846,17
4847,17
4848,17
4849,17
4850,17
4851,17
4852,17
4853,17
4854,17
4855,17
4856,17
4857,17
4858,17
4859,17
4860,17
4861,17
4862,17
4863,18
4864,18
4865,18
4866,18
4867,18
4868,18
4869,18
4870,18
4871,18
4872,18
4873,18
4874,18
4875,19
4876,19
4877,19
4878,18
4879,19
4880,19
4881,19
4882,19
4883,19
4884,19
4885,19
4886,19
4887,19
4888,19
4889,19
4890,19
4891,19
4892,19
4893,19
4894,19
4895,19
4896,19
4897,19
4898,19
4899,19
4900,19
4901,18
4902,18
4903,18
4904,18
4905,18
4906,18
4907,18
4908,17
4909,17
4910,17
4911,17
4912,17
4913,17
4914,17
4915,17
4916,17
4917,17
4918,17
4919,17
4920,17
4921,17
4922,17
4923,17
4924,17
4925,17
4926,17
4927,17
4928,17
4929,17
4930,17
4931,17
4932,17
4933,17
4934,17
4935,17
4936,17
4937,17
4938,17
4939,17
4940,17
4941,17
4942,17
4943,17
4944,17
4945,17
4946,17
4947,17
4948,17
4949,17
4950,17
4951,17
4952,17
4953,17
4954,17
4955,17
4956,17
4957,17
4958,17
4959,17
4960,17
4961,17
4962,17
4963,17
4964,17
4965,17
4966,17
4967,17
4968,17
4969,17
4970,17
4971,17
4972,17
4973,17
4974,17
4975,17
4976,17
4977,17
4978,17
4979,17
4980,17
4981,17
4982,17
4983,17
4984,17
4985,17
4986,17
4987,17
4988,18
4989,18
4990,17
4991,17
4992,17
4993,17
4994,17
4995,17
4996,17
4997,17
4998,17
4999,17
5000,17
5001,17
5002,17
5003,17
5004,17
5005,17
5006,17
5007,17
5008,17
5009,17
5010,17
5011,17
5012,17
5013,17
5014,17
5015,17
5016,17
5017,17
5018,17
5019,17
5020,17
5021,17
5022,17
5023,17
5024,17
5025,17
5026,17
5027,17
5028,17
5029,17
5030,17
5031,17
5032,17
5033,17
5034,17
5035,17
5036,17
5037,17
5038,17
5039,17
5040,17
5041,17
5042,17
5043,17
5044,17
5045,17
5046,17
5047,17
5048,17
5049,17
5050,17
5051,17
5052,17
5053,17
5054,17
5055,17
5056,17
5057,17
5058,17
5059,18
5060,18
5061,18
5062,17
5063,17
5064,17
5065,17
5066,17
5067,17
5068,17
5069,17
5070,17
5071,17
5072,17
5073,17
5074,17
5075,17
5076,17
5077,17
5078,17
5079,17
5080,17
5081,17
5082,17
5083,17
5084,17
5085,17
5086,17
5087,17
5088,17
5089,17
5090,17
5091,17
5092,17
5093,17
5094,17
5095,17
5096,17
5097,17
5098,17
5099,17
5100,17
5101,17
5102,17
5103,17
5104,17
5105,17
5106,17
5107,17
5108,17
5109,17
5110,17
5111,17
5112,17
5113,17
5114,17
5115,17
5116,17
5117,17
5118,17
5119,17
5120,17
5121,17
5122,17
5123,17
5124,17
5125,17
5126,17
5127,17
5128,17
5129,17
5130,17
5131,17
5132,17
5133,17
5134,17
5135,17
5136,17
5137,17
5138,17
5139,17
5140,17
5141,17
5142,17
5143,17
5144,17
5145,17
5146,17
5147,17
5148,17
5149,17
5150,17
5151,17
5152,17
5153,17
5154,17
5155,17
5156,17
5157,17
5158,17
5159,17
5160,17
5161,17
5162,17
5163,17
5164,17
5165,17
5166,17
5167,17
5168,17
5169,17
5170,17
5171,17
5172,17
5173,17
5174,17
5175,17
5176,17
5177,17
5178,17
5179,17
5180,17
5181,17
5182,17
5183,18
5184,18
5185,18
5186,18
5187,18
5188,18
5189,18
5190,18
5191,18
5192,18
5193,18
5194,18
5195,18
5196,18
5197,18
5198,18
5199,18
5200,18
5201,18
5202,18
5203,18
5204,18
5205,18
5206,18
5207,18
5208,18
5209,18
5210,18
5211,18
5212,18
5213,18
5214,17
5215,17
5216,17
5217,17
5218,17
5219,17
5220,17
5221,17
5222,17
5223,17
5224,17
5225,17
5226,17
5227,17
5228,17
5229,18
5230,17
5231,17
5232,17
5233,17
5234,17
5235,17
5236,17
5237,17
5238,17
5239,17
5240,17
5241,17
5242,17
5243,17
5244,17
5245,17
5246,17
5247,17
5248,17
5249,17
5250,17
5251,17
5252,17
5253,17
5254,17
5255,17
5256,17
5257,17
5258,17
5259,17
5260,17
5261,17
5262,17
5263,17
5264,17
5265,17
5266,17
5267,17
5268,17
5269,17
5270,17
5271,17
5272,17
5273,17
5274,17
5275,17
5276,17
5277,17
5278,17
5279,17
5280,17
5281,17
5282,18
5283,18
5284,18
5285,18
5286,18
5287,18
5288,18
5289,18
5290,18
5291,18
5292,18
5293,18
5294,18
5295,18
5296,18
5297,18
5298,18
5299,18
5300,18
5301,18
5302,18
5303,18
5304,18
5305,18
5306,18
5307,18
5308,18
5309,18
5310,18
5311,18
5312,18
5313,18
5314,18
5315,18
5316,18
5317,18
5318,18
5319,18
5320,18
5321,18
5322,18
5323,18
5324,18
5325,18
5326,18
5327,18
5328,18
5329,18
5330,18
5331,18
5332,18
5333,18
5334,18
5335,18
5336,18
5337,18
5338,18
5339,18
5340,18
5341,18
5342,18
5343,18
5344,18
5345,18
5346,18
5347,18
5348,18
5349,18
5350,18
5351,18
5352,18
5353,18
5354,18
5355,18
5356,18
5357,18
5358,18
5359,18
5360,19
5361,19
5362,18
5363,18
5364,18
5365,18
5366,18
5367,18
5368,18
5369,18
5370,18
5371,18
5372,18
5373,18
5374,18
5375,18
5376,18
5377,18
5378,18
5379,18
5380,18
5381,18
5382,18
5383,18
5384,18
5385,18
5386,18
5387,18
5388,18
5389,18
5390,18
5391,18
5392,18
5393,18
5394,18
5395,18
5396,18
5397,18
5398,18
5399,18
5400,18
5401,18
5402,18
5403,18
5404,18
5405,18
5406,18
5407,18
5408,18
5409,19
5410,19
5411,19
5412,19
5413,19
5414,19
5415,19
5416,19
5417,18
5418,18
5419,18
5420,18
5421,18
5422,18
5423,18
5424,18
5425,18
5426,18
5427,18
5428,18
5429,18
5430,18
5431,18
5432,18
5433,18
5434,18
5435,18
5436,18
5437,18
5438,18
5439,18
5440,18
5441,18
5442,18
5443,19
5444,18
5445,18
5446,18
5447,18
5448,18
5449,18
5450,18
5451,18
5452,18
5453,18
5454,18
5455,18
5456,18
5457,19
5458,19
5459,18
5460,18
5461,18
5462,18
5463,18
5464,18
5465,18
5466,18
5467,18
5468,18
5469,18
5470,18
5471,18
5472,18
5473,18
5474,18
5475,18
5476,18
5477,18
5478,18
5479,18
5480,18
5481,18
5482,18
5483,18
5484,18
5485,18
5486,18
5487,18
5488,18
5489,18
5490,18
5491,18
5492,18
5493,19
5494,19
5495,19
5496,19
5497,19
5498,18
5499,18
5500,18
5501,18
5502,18
5503,18
5504,18
5505,18
5506,18
5507,18
5508,18
5509,18
5510,18
5511,19
5512,19
5513,19
5514,19
5515,19
5516,19
5517,19
5518,19
5519,19
5520,19
5521,19
5522,19
5523,19
5524,19
5525,19
5526,19
5527,19
5528,19
5529,19
5530,19
5531,19
5532,19
5533,19
5534,19
5535,20
5536,19
5537,19
5538,19
5539,19
5540,19
5541,19
5542,19
5543,19
5544,19
5545,19
5546,19
5547,19
5548,19
5549,19
5550,19
5551,19
5552,19
5553,19
5554,19
5555,19
5556,19
5557,19
5558,19
5559,19
5560,19
5561,20
5562,19
5563,19
5564,19
5565,20
5566,19
5567,19
5568,19
5569,19
5570,19
5571,19
5572,19
5573,19
5574,19
5575,19
5576,19
5577,19
5578,19
5579,19
5580,19
5581,19
5582,19
5583,19
5584,19
5585,19
5586,20
5587,20
5588,20
5589,20
5590,20
5591,20
5592,20
5593,20
5594,19
5595,19
5596,19
5597,19
5598,19
5599,19
5600,19
5601,19
5602,19
5603,19
5604,19
5605,19
5606,19
5607,19
5608,19
5609,19
5610,19
5611,19
5612,20
5613,20
5614,20
5615,20
5616,20
5617,20
5618,20
5619,20
5620,20
5621,20
5622,20
5623,20
5624,20
5625,20
5626,20
5627,20
5628,20
5629,20
5630,20
5631,20
5632,20
5633,20
5634,20
5635,20
5636,20
5637,20
5638,20
5639,19
5640,19
5641,19
5642,19
5643,19
5644,19
5645,19
5646,19
5647,19
5648,19
5649,19
5650,19
5651,19
5652,19
5653,19
5654,19
5655,19
5656,19
5657,19
5658,19
5659,19
5660,19
5661,19
5662,19
5663,19
5664,19
5665,19
5666,19
5667,19
5668,19
5669,19
5670,19
5671,20
5672,19
5673,19
5674,19
5675,19
5676,19
5677,19
5678,19
5679,19
5680,19
5681,19
5682,19
5683,19
5684,19
5685,19
5686,19
5687,19
5688,19
5689,19
5690,19
5691,19
5692,19
5693,19
5694,19
5695,19
5696,19
5697,19
5698,19
5699,19
5700,19
5701,19
5702,19
5703,19
5704,19
5705,19
5706,19
5707,19
5708,19
5709,19
5710,19
5711,19
5712,19
5713,19
5714,19
5715,19
5716,19
5717,19
5718,19
5719,19
5720,19
5721,19
5722,19
5723,19
5724,19
5725,19
5726,19
5727,19
5728,19
5729,19
5730,19
5731,19
5732,19
5733,19
5734,19
5735,19
5736,19
5737,19
5738,19
5739,19
5740,19
5741,19
5742,19
5743,19
5744,19
5745,19
5746,19
5747,19
5748,19
5749,19
5750,19
5751,19
5752,19
5753,19
5754,19
5755,19
5756,19
5757,19
5758,19
5759,19
5760,19
5761,19
5762,19
5763,19
5764,19
5765,19
5766,19
5767,19
5768,19
5769,19
5770,19
5771,19
5772,19
5773,19
5774,19
5775,19
5776,19
5777,19
5778,19
5779,19
5780,19
5781,19
5782,19
5783,19
5784,19
5785,19
5786,19
5787,19
5788,19
5789,19
5790,19
5791,19
5792,19
5793,19
5794,19
5795,19
5796,19
5797,19
5798,19
5799,19
5800,19
5801,19
5802,19
5803,19
5804,19
5805,19
5806,19
5807,19
5808,19
5809,19
5810,19
5811,19
5812,19
5813,19
5814,19
5815,19
5816,19
5817,19
5818,19
5819,19
5820,19
5821,19
5822,19
5823,19
5824,19
5825,19
5826,19
5827,19
5828,19
5829,19
5830,19
5831,19
5832,19
5833,19
5834,19
5835,19
5836,19
5837,19
5838,19
5839,19
5840,19
5841,19
5842,19
5843,19
5844,19
5845,19
5846,19
5847,19
5848,19
5849,19
5850,19
5851,19
5852,19
5853,19
5854,19
5855,19
5856,19
5857,19
5858,19
5859,19
5860,19
5861,19
5862,19
5863,19
5864,19
5865,19
5866,19
5867,19
5868,19
5869,19
5870,20
5871,20
5872,20
5873,20
5874,20
5875,20
5876,20
5877,20
5878,20
5879,20
5880,20
5881,20
5882,20
5883,20
5884,19
5885,19
5886,19
5887,19
5888,19
5889,19
5890,19
5891,19
5892,19
5893,19
5894,19
5895,19
5896,19
5897,19
5898,19
5899,19
5900,19
5901,19
5902,19
5903,19
5904,19
5905,19
5906,19
5907,19
5908,19
5909,19
5910,19
5911,19
5912,19
5913,19
5914,19
5915,19
5916,19
5917,19
5918,19
5919,19
5920,19
5921,19
5922,19
5923,19
5924,19
5925,20
5926,20
5927,20
5928,19
5929,19
5930,19
5931,19
5932,19
5933,19
5934,19
5935,19
5936,19
5937,19
5938,19
5939,19
5940,19
5941,19
5942,19
5943,19
5944,19
5945,19
5946,19
5947,19
5948,19
5949,19
5950,19
5951,19
5952,19
5953,19
5954,19
5955,19
5956,19
5957,19
5958,19
5959,19
5960,20
5961,20
5962,20
5963,20
5964,20
5965,20
5966,20
5967,20
5968,20
5969,20
5970,20
5971,20
5972,20
5973,20
5974,20
5975,20
5976,20
5977,20
5978,20
5979,20
5980,20
5981,20
5982,20
5983,20
5984,20
5985,20
5986,20
5987,20
5988,20
5989,20
5990,20
5991,20
5992,20
5993,20
5994,20
5995,20
5996,20
5997,20
5998,20
5999,20
6000,20
6001,20
6002,20
6003,20
6004,20
6005,20
6006,20
6007,20
6008,20
6009,20
6010,20
6011,20
6012,20
6013,20
6014,20
6015,20
6016,20
6017,21
6018,21
6019,20
6020,20
6021,20
6022,20
6023,20
6024,20
6025,20
6026,20
6027,20
6028,20
6029,20
6030,20
6031,20
6032,20
6033,20
6034,20
6035,20
6036,20
6037,20
6038,20
6039,20
6040,20
6041,20
6042,20
6043,20
6044,20
6045,20
6046,20
6047,20
6048,20
6049,20
6050,20
6051,20
6052,20
6053,20
6054,20
6055,20
6056,20
6057,20
6058,20
6059,20
6060,20
6061,20
6062,20
6063,20
6064,20
6065,20
6066,20
6067,20
6068,20
6069,20
6070,20
6071,20
6072,20
6073,20
6074,20
6075,20
6076,20
6077,20
6078,20
6079,20
6080,20
6081,20
6082,20
6083,20
6084,20
6085,20
6086,20
6087,20
6088,20
6089,20
6090,20
6091,20
6092,20
6093,20
6094,20
6095,20
6096,20
6097,20
6098,20
6099,20
6100,20
6101,20
6102,20
6103,20
6104,20
6105,20
6106,20
6107,20
6108,20
6109,20
6110,20
6111,20
6112,20
6113,20
6114,20
6115,20
6116,20
6117,20
6118,20
6119,20
6120,20
6121,20
6122,20
6123,20
6124,20
6125,20
6126,20
6127,20
6128,20
6129,20
6130,20
6131,20
6132,20
6133,20
6134,20
6135,20
6136,20
6137,20
6138,20
6139,20
6140,20
6141,20
6142,20
6143,20
6144,20
6145,20
6146,20
6147,20
6148,20
6149,20
6150,20
6151,20
6152,21
6153,20
6154,20
6155,20
6156,20
6157,20
6158,20
6159,20
6160,20
6161,20
6162,20
6163,20
6164,20
6165,20
6166,20
6167,20
6168,20
6169,20
6170,20
6171,20
6172,20
6173,20
6174,20
6175,20
6176,20
6177,20
6178,20
6179,20
6180,20
6181,20
6182,20
6183,20
6184,20
6185,21
6186,21
6187,20
6188,20
6189,20
6190,20
6191,20
6192,20
6193,20
6194,20
6195,20
6196,20
6197,20
6198,20
6199,20
6200,20
6201,20
6202,20
6203,20
6204,20
6205,20
6206,20
6207,20
6208,20
6209,20
6210,20
6211,20
6212,20
6213,20
6214,20
6215,20
6216,20
6217,20
6218,20
6219,20
6220,20
6221,20
6222,20
6223,20
6224,20
6225,20
6226,20
6227,20
6228,20
6229,20
6230,20
6231,20
6232,20
6233,20
6234,20
6235,20
6236,21
6237,21
6238,20
6239,20
6240,20
6241,20
6242,21
6243,21
6244,21
6245,21
6246,20
6247,20
6248,20
6249,20
6250,20
6251,20
6252,20
6253,20
6254,20
6255,20
6256,20
6257,20
6258,20
6259,20
6260,20
6261,20
6262,20
6263,20
6264,20
6265,20
6266,20
6267,20
6268,20
6269,20
6270,20
6271,20
6272,20
6273,20
6274,20
6275,20
6276,20
6277,20
6278,20
6279,21
6280,20
6281,20
6282,20
6283,20
6284,20
6285,20
6286,20
6287,20
6288,20
6289,20
6290,20
6291,20
6292,20
6293,20
6294,20
6295,20
6296,20
6297,20
6298,20
6299,20
6300,20
6301,20
6302,20
6303,20
6304,20
6305,20
6306,20
6307,20
6308,20
6309,20
6310,20
6311,20
6312,20
6313,20
6314,20
6315,20
6316,20
6317,20
6318,20
6319,20
6320,20
6321,20
6322,20
6323,20
6324,20
6325,20
6326,20
6327,20
6328,20
6329,20
6330,20
6331,20
6332,20
6333,20
6334,20
6335,20
6336,20
6337,20
6338,20
6339,20
6340,20
6341,20
6342,20
6343,20
6344,20
6345,20
6346,20
6347,20
6348,20
6349,20
6350,20
6351,20
6352,20
6353,20
6354,20
6355,20
6356,20
6357,20
6358,20
6359,20
6360,20
6361,20
6362,20
6363,20
6364,20
6365,20
6366,20
6367,20
6368,20
6369,20
6370,20
6371,20
6372,20
6373,20
6374,20
6375,20
6376,20
6377,20
6378,20
6379,20
6380,20
6381,21
6382,21
6383,21
6384,20
6385,20
6386,20
6387,20
6388,20
6389,20
6390,20
6391,20
6392,20
6393,20
6394,20
6395,20
6396,20
6397,20
6398,20
6399,20
6400,20
6401,20
6402,20
6403,20
6404,20
6405,20
6406,20
6407,20
6408,20
6409,20
6410,20
6411,20
6412,20
6413,20
6414,20
6415,20
6416,20
6417,20
6418,20
6419,20
6420,20
6421,20
6422,20
6423,20
6424,20
6425,20
6426,20
6427,20
6428,20
6429,20
6430,20
6431,20
6432,20
6433,20
6434,20
6435,20
6436,20
6437,20
6438,20
6439,20
6440,20
6441,20
6442,20
6443,20
6444,20
6445,20
6446,20
6447,20
6448,20
6449,20
6450,20
6451,20
6452,20
6453,20
6454,20
6455,20
6456,20
6457,20
6458,20
6459,20
6460,20
6461,20
6462,20
6463,20
6464,20
6465,20
6466,20
6467,20
6468,20
6469,20
6470,20
6471,20
6472,20
6473,20
6474,20
6475,20
6476,20
6477,20
6478,20
6479,20
6480,20
6481,20
6482,20
6483,20
6484,20
6485,20
6486,20
6487,20
6488,20
6489,20
6490,20
6491,20
6492,20
6493,20
6494,20
6495,20
6496,20
6497,20
6498,20
6499,20
6500,20
6501,20
6502,20
6503,20
6504,20
6505,20
6506,20
6507,20
6508,20
6509,20
6510,20
6511,20
6512,20
6513,20
6514,20
6515,20
6516,20
6517,20
6518,20
6519,20
6520,20
6521,20
6522,20
6523,20
6524,20
6525,21
6526,21
6527,20
6528,20
6529,20
6530,20
6531,20
6532,20
6533,20
6534,21
6535,20
6536,20
6537,20
6538,20
6539,20
6540,20
6541,20
6542,20
6543,20
6544,20
6545,20
6546,20
6547,20
6548,20
6549,20
6550,20
6551,20
6552,20
6553,20
6554,20
6555,20
6556,20
6557,20
6558,20
6559,20
6560,20
6561,20
6562,20
6563,20
6564,20
6565,21
6566,21
6567,21
6568,20
6569,20
6570,20
6571,20
6572,20
6573,20
6574,20
6575,20
6576,20
6577,20
6578,20
6579,20
6580,20
6581,20
6582,20
6583,20
6584,20
6585,20
6586,20
6587,20
6588,20
6589,20
6590,20
6591,21
6592,20
6593,20
6594,20
6595,20
6596,20
6597,20
6598,20
6599,20
6600,20
6601,20
6602,20
6603,20
6604,20
6605,20
6606,20
6607,20
6608,20
6609,20
6610,20
6611,20
6612,20
6613,20
6614,20
6615,20
6616,20
6617,20
6618,20
6619,20
6620,20
6621,20
6622,20
6623,20
6624,20
6625,20
6626,20
6627,20
6628,20
6629,20
6630,20
6631,20
6632,20
6633,20
6634,20
6635,20
6636,20
6637,20
6638,20
6639,20
6640,20
6641,20
6642,20
6643,20
6644,20
6645,20
6646,20
6647,20
6648,20
6649,20
6650,21
6651,21
6652,21
6653,20
6654,20
6655,20
6656,20
6657,20
6658,20
6659,20
6660,20
6661,20
6662,20
6663,20
6664,20
6665,20
6666,20
6667,20
6668,20
6669,20
6670,21
6671,21
6672,20
6673,20
6674,20
6675,20
6676,20
6677,20
6678,20
6679,20
6680,20
6681,20
6682,20
6683,20
6684,20
6685,20
6686,20
6687,20
6688,20
6689,20
6690,20
6691,20
6692,20
6693,20
6694,20
6695,20
6696,20
6697,20
6698,20
6699,20
6700,20
6701,20
6702,20
6703,20
6704,20
6705,20
6706,20
6707,20
6708,20
6709,20
6710,20
6711,20
6712,20
6713,20
6714,20
6715,20
6716,20
6717,20
6718,20
6719,20
6720,20
6721,20
6722,20
6723,20
6724,20
6725,20
6726,20
6727,20
6728,20
6729,20
6730,20
6731,20
6732,20
6733,20
6734,20
6735,20
6736,20
6737,20
6738,20
6739,20
6740,20
6741,20
6742,20
6743,20
6744,20
6745,20
6746,20
6747,20
6748,20
6749,20
6750,20
6751,20
6752,20
6753,20
6754,20
6755,20
6756,20
6757,20
6758,20
6759,20
6760,20
6761,20
6762,20
6763,20
6764,20
6765,20
6766,20
6767,20
6768,20
6769,20
6770,20
6771,20
6772,20
6773,20
6774,20
6775,20
6776,20
6777,20
6778,20
6779,20
6780,20
6781,20
6782,20
6783,20
6784,20
6785,20
6786,20
6787,20
6788,20
6789,20
6790,20
6791,20
6792,20
6793,20
6794,20
6795,20
6796,20
6797,20
6798,20
6799,20
6800,20
6801,20
6802,20
6803,20
6804,20
6805,20
6806,20
6807,20
6808,20
6809,20
6810,20
6811,20
6812,20
6813,20
6814,21
6815,20
6816,20
6817,20
6818,20
6819,20
6820,20
6821,20
6822,20
6823,20
6824,20
6825,20
6826,20
6827,20
6828,20
6829,20
6830,20
6831,20
6832,20
6833,20
6834,21
6835,21
6836,21
6837,21
6838,21
6839,21
6840,21
6841,21
6842,21
6843,21
6844,21
6845,21
6846,21
6847,21
6848,21
6849,21
6850,21
6851,21
6852,21
6853,21
6854,21
6855,20
6856,20
6857,20
6858,20
6859,20
6860,20
6861,20
6862,20
6863,20
6864,20
6865,20
6866,20
6867,20
6868,20
6869,20
6870,20
6871,20
6872,20
6873,20
6874,20
6875,20
6876,20
6877,20
6878,20
6879,20
6880,20
6881,20
6882,20
6883,20
6884,20
6885,20
6886,20
6887,20
6888,20
6889,20
6890,20
6891,20
6892,20
6893,20
6894,20
6895,20
6896,20
6897,20
6898,20
6899,20
6900,20
6901,20
6902,20
6903,20
6904,21
6905,20
6906,20
6907,20
6908,20
6909,20
6910,20
6911,20
6912,20
6913,20
6914,20
6915,20
6916,20
6917,20
6918,20
6919,20
6920,20
6921,21
6922,21
6923,21
6924,21
6925,21
6926,20
6927,20
6928,20
6929,20
6930,20
6931,20
6932,20
6933,20
6934,20
6935,20
6936,20
6937,20
6938,20
6939,20
6940,20
6941,20
6942,20
6943,20
6944,20
6945,20
6946,20
6947,20
6948,20
6949,20
6950,20
6951,21
6952,20
6953,20
6954,20
6955,20
6956,20
6957,20
6958,20
6959,20
6960,20
6961,20
6962,20
6963,20
6964,20
6965,20
6966,20
6967,20
6968,20
6969,20
6970,20
6971,20
6972,20
6973,20
6974,20
6975,20
6976,20
6977,20
6978,20
6979,20
6980,20
6981,20
6982,20
6983,20
6984,20
6985,20
6986,20
6987,20
6988,20
6989,20
6990,20
6991,20
6992,20
6993,20
6994,20
6995,20
6996,20
6997,20
6998,20
6999,20
7000,20
7001,21
7002,20
7003,20
7004,20
7005,20
7006,20
7007,20
7008,20
7009,20
7010,20
7011,20
7012,20
7013,20
7014,20
7015,21
7016,21
7017,21
7018,20
7019,20
7020,20
7021,20
7022,20
7023,20
7024,20
7025,20
7026,20
7027,20
7028,20
7029,20
7030,20
7031,20
7032,20
7033,20
7034,20
7035,20
7036,20
7037,20
7038,20
7039,20
7040,20
7041,20
7042,20
7043,20
7044,20
7045,20
7046,20
7047,20
7048,20
7049,20
7050,20
7051,20
7052,20
7053,20
7054,20
7055,20
7056,20
7057,20
7058,20
7059,21
7060,21
7061,20
7062,20
7063,20
7064,20
7065,20
7066,20
7067,20
7068,20
7069,20
7070,20
7071,20
7072,20
7073,20
7074,20
7075,20
7076,20
7077,20
7078,20
7079,20
7080,20
7081,20
7082,20
7083,20
7084,20
7085,20
7086,20
7087,20
7088,20
7089,20
7090,20
7091,20
7092,20
7093,20
7094,20
7095,20
7096,20
7097,20
7098,20
7099,20
7100,20
7101,20
7102,20
7103,20
7104,20
7105,20
7106,20
7107,20
7108,20
7109,20
7110,20
7111,20
7112,20
7113,20
7114,20
7115,20
7116,20
7117,20
7118,20
7119,20
7120,20
7121,20
7122,20
7123,20
7124,20
7125,20
7126,20
7127,20
7128,20
7129,20
7130,20
7131,20
7132,20
7133,20
7134,20
7135,20
7136,20
7137,20
7138,20
7139,20
7140,20
7141,20
7142,20
7143,20
7144,20
7145,20
7146,20
7147,20
7148,20
7149,20
7150,20
7151,20
7152,20
7153,20
7154,20
7155,20
7156,20
7157,20
7158,20
7159,20
7160,20
7161,20
7162,20
7163,20
7164,20
7165,20
7166,20
7167,20
7168,20
7169,20
7170,20
7171,20
7172,20
7173,20
7174,20
7175,20
7176,20
7177,20
7178,20
7179,21
7180,21
7181,21
7182,21
7183,21
7184,20
7185,20
7186,20
7187,20
7188,20
7189,20
7190,20
7191,20
7192,20
7193,20
7194,20
7195,20
7196,20
7197,20
7198,20
7199,20
7200,20
7201,20
7202,20
7203,20
7204,20
7205,20
7206,20
7207,20
7208,20
7209,20
7210,20
7211,20
7212,20
7213,20
7214,20
7215,20
7216,20
7217,20
7218,20
7219,20
7220,20
7221,20
7222,20
7223,20
7224,20
7225,20
7226,20
7227,20
7228,20
7229,20
7230,20
7231,20
7232,20
7233,20
7234,20
7235,20
7236,20
7237,20
7238,21
7239,21
7240,21
7241,21
7242,21
7243,20
7244,20
7245,20
7246,20
7247,20
7248,20
7249,20
7250,20
7251,20
7252,20
7253,20
7254,20
7255,20
7256,20
7257,20
7258,20
7259,20
7260,20
7261,20
7262,20
7263,20
7264,20
7265,20
7266,21
7267,20
7268,20
7269,20
7270,20
7271,20
7272,20
7273,20
7274,21
7275,21
7276,21
7277,21
7278,21
7279,21
7280,20
7281,20
7282,20
7283,20
7284,20
7285,20
7286,20
7287,20
7288,20
7289,20
7290,20
7291,20
7292,20
7293,20
7294,20
7295,20
7296,20
7297,20
7298,20
7299,20
7300,20
7301,20
7302,20
7303,20
7304,20
7305,20
7306,20
7307,20
7308,20
7309,20
7310,20
7311,20
7312,20
7313,20
7314,20
7315,20
7316,20
7317,20
7318,20
7319,20
7320,20
7321,20
7322,20
7323,20
7324,20
7325,20
7326,20
7327,20
7328,20
7329,20
7330,20
7331,20
7332,20
7333,20
7334,20
7335,20
7336,20
7337,20
7338,20
7339,20
7340,20
7341,20
7342,20
7343,20
7344,20
7345,20
7346,20
7347,20
7348,20
7349,20
7350,20
7351,20
7352,20
7353,20
7354,20
7355,20
7356,20
7357,20
7358,20
7359,20
7360,20
7361,20
7362,20
7363,20
7364,20
7365,20
7366,20
7367,20
7368,20
7369,20
7370,20
7371,20
7372,20
7373,20
7374,20
7375,20
7376,20
7377,20
7378,20
7379,20
7380,20
7381,20
7382,20
7383,20
7384,20
7385,20
7386,20
7387,20
7388,20
7389,20
7390,20
7391,20
7392,20
7393,20
7394,20
7395,20
7396,20
7397,20
7398,20
7399,20
7400,20
7401,20
7402,20
7403,20
7404,20
7405,20
7406,20
7407,20
7408,20
7409,20
7410,20
7411,20
7412,20
7413,20
7414,20
7415,20
7416,21
7417,21
7418,21
7419,21
7420,21
7421,21
7422,21
7423,22
7424,21
7425,21
7426,21
7427,21
7428,21
7429,21
7430,21
7431,21
7432,21
7433,20
7434,20
7435,20
7436,20
7437,20
7438,20
7439,20
7440,20
7441,20
7442,20
7443,20
7444,20
7445,20
7446,20
7447,20
7448,20
7449,20
7450,20
7451,20
7452,20
7453,20
7454,20
7455,20
7456,20
7457,20
7458,20
7459,20
7460,20
7461,20
7462,21
7463,20
7464,20
7465,20
7466,20
7467,20
7468,20
7469,20
7470,20
7471,21
7472,20
7473,20
7474,20
7475,20
7476,20
7477,20
7478,20
7479,20
7480,21
7481,20
7482,20
7483,20
7484,20
7485,20
7486,20
7487,20
7488,20
7489,20
7490,20
7491,20
7492,20
7493,20
7494,20
7495,20
7496,20
7497,20
7498,20
7499,20
7500,20
7501,20
7502,20
7503,20
7504,20
7505,20
7506,20
7507,20
7508,20
7509,20
7510,20
7511,20
7512,20
7513,20
7514,20
7515,20
7516,20
7517,20
7518,20
7519,20
7520,20
7521,20
7522,20
7523,20
7524,20
7525,20
7526,20
7527,20
7528,20
7529,20
7530,20
7531,20
7532,20
7533,20
7534,20
7535,20
7536,20
7537,20
7538,20
7539,20
7540,20
7541,20
7542,20
7543,20
7544,20
7545,20
7546,20
7547,20
7548,20
7549,20
7550,20
7551,20
7552,20
7553,20
7554,20
7555,20
7556,20
7557,20
7558,20
7559,20
7560,20
7561,20
7562,20
7563,20
7564,20
7565,20
7566,20
7567,20
7568,20
7569,20
7570,20
7571,20
7572,20
7573,20
7574,21
7575,20
7576,20
7577,20
7578,20
7579,20
7580,20
7581,20
7582,20
7583,20
7584,20
7585,20
7586,20
7587,20
7588,20
7589,20
7590,20
7591,20
7592,20
7593,20
7594,20
7595,20
7596,20
7597,20
7598,20
7599,20
7600,20
7601,20
7602,20
7603,20
7604,20
7605,20
7606,20
7607,20
7608,20
7609,20
7610,20
7611,20
7612,20
7613,20
7614,20
7615,20
7616,20
7617,20
7618,20
7619,20
7620,20
7621,20
7622,20
7623,20
7624,20
7625,20
7626,20
7627,20
7628,20
7629,20
7630,20
7631,20
7632,20
7633,20
7634,20
7635,20
7636,20
7637,20
7638,20
7639,20
7640,20
7641,21
7642,20
7643,20
7644,20
7645,20
7646,20
7647,20
7648,20
7649,20
7650,20
7651,20
7652,20
7653,20
7654,20
7655,20
7656,20
7657,20
7658,20
7659,20
7660,20
7661,20
7662,20
7663,20
7664,20
7665,20
7666,20
7667,20
7668,20
7669,20
7670,20
7671,20
7672,20
7673,20
7674,20
7675,20
7676,20
7677,20
7678,20
7679,20
7680,20
7681,20
7682,20
7683,20
7684,20
7685,20
7686,20
7687,20
7688,20
7689,21
7690,21
7691,20
7692,20
7693,20
7694,20
7695,20
7696,20
7697,20
7698,20
7699,20
7700,20
7701,20
7702,20
7703,20
7704,20
7705,20
7706,20
7707,20
7708,20
7709,20
7710,20
7711,20
7712,20
7713,20
7714,20
7715,20
7716,20
7717,20
7718,20
7719,21
7720,21
7721,21
7722,21
7723,21
7724,20
7725,20
7726,20
7727,20
7728,20
7729,20
7730,20
7731,20
7732,20
7733,20
7734,20
7735,20
7736,20
7737,20
7738,20
7739,20
7740,20
7741,20
7742,20
7743,20
7744,20
7745,20
7746,20
7747,20
7748,20
7749,20
7750,20
7751,20
7752,20
7753,20
7754,20
7755,20
7756,20
7757,20
7758,20
7759,20
7760,20
7761,20
7762,20
7763,20
7764,20
7765,20
7766,20
7767,20
7768,20
7769,20
7770,20
7771,20
7772,20
7773,20
7774,20
7775,20
7776,20
7777,20
7778,20
7779,20
7780,20
7781,20
7782,20
7783,20
7784,20
7785,20
7786,20
7787,20
7788,20
7789,20
7790,20
7791,20
7792,20
7793,20
7794,20
7795,20
7796,20
7797,20
7798,20
7799,20
7800,20
7801,20
7802,20
7803,20
7804,20
7805,20
7806,20
7807,20
7808,20
7809,20
7810,20
7811,20
7812,20
7813,20
7814,20
7815,20
7816,20
7817,20
7818,20
7819,20
7820,20
7821,20
7822,20
7823,20
7824,20
7825,20
7826,20
7827,20
7828,20
7829,20
7830,20
7831,20
7832,20
7833,20
7834,20
7835,20
7836,20
7837,20
7838,20
7839,20
7840,20
7841,20
7842,20
7843,20
7844,20
7845,20
7846,20
7847,20
7848,20
7849,20
7850,20
7851,20
7852,20
7853,20
7854,20
7855,20
7856,20
7857,20
7858,20
7859,20
7860,20
7861,20
7862,20
7863,20
7864,20
7865,20
7866,20
7867,20
7868,20
7869,20
7870,20
7871,20
7872,20
7873,20
7874,20
7875,20
7876,20
7877,20
7878,20
7879,20
7880,20
7881,20
7882,20
7883,20
7884,20
7885,20
7886,20
7887,20
7888,20
7889,20
7890,20
7891,20
7892,20
7893,20
7894,20
7895,20
7896,20
7897,20
7898,20
7899,20
7900,20
7901,20
7902,20
7903,20
7904,20
7905,20
7906,20
7907,20
7908,20
7909,20
7910,20
7911,20
7912,20
7913,20
7914,20
7915,20
7916,20
7917,20
7918,20
7919,20
7920,20
7921,20
7922,20
7923,20
7924,20
7925,20
7926,20
7927,20
7928,20
7929,20
7930,20
7931,20
7932,20
7933,20
7934,20
7935,20
7936,20
7937,20
7938,20
7939,20
7940,20
7941,20
7942,20
7943,20
7944,20
7945,20
7946,20
7947,20
7948,20
7949,20
7950,20
7951,20
7952,20
7953,20
7954,20
7955,20
7956,20
7957,20
7958,20
7959,20
7960,20
7961,20
7962,20
7963,20
7964,20
7965,20
7966,20
7967,20
7968,20
7969,20
7970,20
7971,20
7972,20
7973,20
7974,20
7975,20
7976,20
7977,20
7978,20
7979,20
7980,20
7981,20
7982,20
7983,20
7984,20
7985,20
7986,20
7987,20
7988,20
7989,20
7990,20
7991,20
7992,20
7993,20
7994,20
7995,20
7996,20
7997,20
7998,20
7999,20
8000,20
8001,20
8002,20
8003,20
8004,20
8005,20
8006,20
8007,20
8008,20
8009,20
8010,20
8011,20
8012,20
8013,20
8014,20
8015,20
8016,20
8017,20
8018,20
8019,20
8020,20
8021,20
8022,20
8023,20
8024,20
8025,20
8026,20
8027,20
8028,20
8029,20
8030,20
8031,20
8032,20
8033,20
8034,20
8035,20
8036,20
8037,20
8038,20
8039,20
8040,20
8041,20
8042,20
8043,20
8044,20
8045,20
8046,20
8047,20
8048,20
8049,20
8050,20
8051,20
8052,20
8053,20
8054,20
8055,20
8056,20
8057,20
8058,20
8059,20
8060,20
8061,20
8062,20
8063,20
8064,20
8065,20
8066,20
8067,20
8068,20
8069,20
8070,20
8071,20
8072,20
8073,20
8074,20
8075,20
8076,20
8077,20
8078,21
8079,20
8080,20
8081,20
8082,20
8083,20
8084,20
8085,20
8086,20
8087,20
8088,20
8089,20
8090,20
8091,20
8092,20
8093,21
8094,21
8095,21
8096,21
8097,21
8098,21
8099,21
8100,21
8101,21
8102,21
8103,21
8104,21
8105,22
8106,22
8107,22
8108,22
8109,22
8110,22
8111,22
8112,22
8113,22
8114,22
8115,22
8116,22
8117,22
8118,22
8119,22
8120,22
8121,22
8122,21
8123,21
8124,21
8125,21
8126,21
8127,21
8128,21
8129,21
8130,21
8131,21
8132,21
8133,21
8134,21
8135,21
8136,21
8137,21
8138,21
8139,21
8140,21
8141,21
8142,21
8143,21
8144,21
8145,21
8146,21
8147,21
8148,21
8149,21
8150,21
8151,21
8152,21
8153,21
8154,21
8155,21
8156,21
8157,21
8158,21
8159,21
8160,21
8161,21
8162,21
8163,21
8164,21
8165,21
8166,21
8167,21
8168,21
8169,21
8170,21
8171,21
8172,21
8173,21
8174,21
8175,21
8176,21
8177,21
8178,21
8179,21
8180,21
8181,21
8182,21
8183,21
8184,21
8185,21
8186,21
8187,21
8188,21
8189,21
8190,21
8191,21
8192,21
8193,21
8194,21
8195,21
8196,21
8197,21
8198,21
8199,21
8200,21
8201,21
8202,22
8203,22
8204,21
8205,21
8206,21
8207,21
8208,21
8209,21
8210,21
8211,21
8212,21
8213,21
8214,21
8215,21
8216,21
8217,21
8218,21
8219,21
8220,21
8221,21
8222,21
8223,21
8224,21
8225,21
8226,21
8227,21
8228,21
8229,21
8230,21
8231,21
8232,21
8233,21
8234,21
8235,21
8236,21
8237,21
8238,21
8239,21
8240,21
8241,21
8242,21
8243,21
8244,21
8245,21
8246,21
8247,21
8248,21
8249,21
8250,21
8251,21
8252,21
8253,21
8254,21
8255,21
8256,21
8257,21
8258,21
8259,21
8260,21
8261,21
8262,21
8263,21
8264,21
8265,21
8266,21
8267,21
8268,21
8269,21
8270,21
8271,21
8272,21
8273,21
8274,21
8275,21
8276,21
8277,21
8278,21
8279,21
8280,21
8281,21
8282,21
8283,21
8284,21
8285,21
8286,21
8287,21
8288,21
8289,21
8290,21
8291,21
8292,21
8293,21
8294,21
8295,21
8296,21
8297,21
8298,21
8299,21
8300,21
8301,21
8302,21
8303,21
8304,21
8305,21
8306,21
8307,21
8308,21
8309,21
8310,21
8311,21
8312,21
8313,21
8314,21
8315,21
8316,21
8317,21
8318,21
8319,21
8320,21
8321,21
8322,21
8323,21
8324,21
8325,21
8326,21
8327,21
8328,21
8329,21
8330,21
8331,21
8332,21
8333,21
8334,21
8335,21
8336,21
8337,21
8338,21
8339,21
8340,21
8341,21
8342,21
8343,21
8344,21
8345,21
8346,21
8347,21
8348,21
8349,21
8350,21
8351,21
8352,21
8353,21
8354,21
8355,21
8356,21
8357,21
8358,21
8359,21
8360,21
8361,21
8362,21
8363,21
8364,21
8365,21
8366,21
8367,21
8368,21
8369,21
8370,21
8371,21
8372,21
8373,21
8374,21
8375,21
8376,21
8377,21
8378,21
8379,21
8380,21
8381,21
8382,21
8383,21
8384,21
8385,21
8386,21
8387,21
8388,21
8389,21
8390,21
8391,21
8392,21
8393,21
8394,21
8395,21
8396,21
8397,21
8398,21
8399,21
8400,21
8401,21
8402,21
8403,21
8404,21
8405,21
8406,21
8407,21
8408,21
8409,21
8410,21
8411,21
8412,21
8413,21
8414,21
8415,21
8416,21
8417,21
8418,21
8419,21
8420,21
8421,21
8422,21
8423,21
8424,21
8425,21
8426,21
8427,21
8428,21
8429,21
8430,21
8431,21
8432,21
8433,21
8434,21
8435,21
8436,21
8437,21
8438,21
8439,21
8440,21
8441,21
8442,21
8443,21
8444,21
8445,21
8446,21
8447,21
8448,21
8449,21
8450,21
8451,21
8452,21
8453,21
8454,21
8455,21
8456,21
8457,21
8458,21
8459,21
8460,21
8461,21
8462,21
8463,21
8464,21
8465,21
8466,21
8467,21
8468,21
8469,21
8470,21
8471,21
8472,21
8473,21
8474,21
8475,21
8476,21
8477,21
8478,21
8479,21
8480,21
8481,21
8482,21
8483,21
8484,21
8485,21
8486,21
8487,21
8488,21
8489,21
8490,21
8491,21
8492,21
8493,21
8494,21
8495,21
8496,21
8497,21
8498,21
8499,21
8500,21
8501,21
8502,21
8503,21
8504,21
8505,21
8506,21
8507,21
8508,21
8509,21
8510,21
8511,21
8512,21
8513,21
8514,21
8515,21
8516,21
8517,21
8518,21
8519,21
8520,21
8521,21
8522,21
8523,21
8524,21
8525,21
8526,21
8527,21
8528,21
8529,21
8530,21
8531,21
8532,21
8533,21
8534,21
8535,21
8536,21
8537,21
8538,22
8539,21
8540,21
8541,21
8542,21
8543,21
8544,21
8545,21
8546,21
8547,21
8548,21
8549,21
8550,21
8551,21
8552,21
8553,21
8554,21
8555,21
8556,21
8557,21
8558,21
8559,21
8560,21
8561,21
8562,21
8563,21
8564,21
8565,21
8566,21
8567,21
8568,21
8569,21
8570,21
8571,21
8572,21
8573,22
8574,22
8575,21
8576,21
8577,21
8578,21
8579,21
8580,21
8581,21
8582,21
8583,21
8584,21
8585,21
8586,21
8587,21
8588,21
8589,21
8590,21
8591,21
8592,21
8593,21
8594,21
8595,21
8596,21
8597,21
8598,21
8599,21
8600,21
8601,21
8602,21
8603,21
8604,21
8605,21
8606,21
8607,21
8608,21
8609,21
8610,21
8611,21
8612,21
8613,21
8614,21
8615,21
8616,21
8617,21
8618,21
8619,21
8620,21
8621,21
8622,21
8623,21
8624,21
8625,21
8626,21
8627,21
8628,21
8629,21
8630,21
8631,21
8632,21
8633,21
8634,21
8635,21
8636,21
8637,21
8638,21
8639,21
8640,21
8641,21
8642,21
8643,21
8644,21
8645,21
8646,21
8647,21
8648,21
8649,21
8650,21
8651,21
8652,21
8653,21
8654,21
8655,21
8656,21
8657,21
8658,21
8659,21
8660,21
8661,21
8662,21
8663,21
8664,21
8665,21
8666,21
8667,21
8668,21
8669,21
8670,21
8671,21
8672,21
8673,21
8674,21
8675,21
8676,21
8677,21
8678,21
8679,21
8680,21
8681,21
8682,21
8683,21
8684,21
8685,21
8686,21
8687,21
8688,21
8689,21
8690,21
8691,21
8692,21
8693,21
8694,21
8695,21
8696,21
8697,21
8698,21
8699,21
8700,21
8701,21
8702,21
8703,21
8704,21
8705,21
8706,21
8707,21
8708,21
8709,21
8710,21
8711,21
8712,21
8713,21
8714,21
8715,21
8716,21
8717,21
8718,21
8719,21
8720,21
8721,21
8722,21
8723,21
8724,21
8725,21
8726,21
8727,21
8728,21
8729,21
8730,21
8731,21
8732,21
8733,21
8734,21
8735,21
8736,21
8737,21
8738,21
8739,21
8740,21
8741,21
8742,21
8743,21
8744,21
8745,21
8746,21
8747,21
8748,21
8749,21
8750,21
8751,21
8752,21
8753,21
8754,21
8755,21
8756,21
8757,21
8758,21
8759,21
8760,21
8761,21
8762,21
8763,21
8764,21
8765,21
8766,21
8767,21
8768,21
8769,21
8770,21
8771,21
8772,21
8773,21
8774,21
8775,21
8776,21
8777,21
8778,21
8779,21
8780,21
8781,21
8782,21
8783,21
8784,21
8785,21
8786,21
8787,21
8788,21
8789,21
8790,21
8791,21
8792,21
8793,21
8794,21
8795,21
8796,21
8797,21
8798,21
8799,21
8800,21
8801,21
8802,21
8803,21
8804,21
8805,21
8806,21
8807,21
8808,21
8809,21
8810,21
8811,21
8812,21
8813,21
8814,21
8815,21
8816,21
8817,21
8818,21
8819,21
8820,21
8821,21
8822,21
8823,21
8824,21
8825,21
8826,21
8827,21
8828,21
8829,21
8830,21
8831,21
8832,21
8833,21
8834,21
8835,21
8836,21
8837,21
8838,21
8839,21
8840,21
8841,21
8842,21
8843,21
8844,21
8845,21
8846,21
8847,21
8848,21
8849,21
8850,21
8851,21
8852,21
8853,21
8854,21
8855,21
8856,21
8857,21
8858,21
8859,21
8860,21
8861,21
8862,21
8863,21
8864,21
8865,21
8866,21
8867,21
8868,21
8869,21
8870,21
8871,21
8872,21
8873,21
8874,21
8875,21
8876,21
8877,21
8878,21
8879,21
8880,21
8881,21
8882,21
8883,21
8884,21
8885,21
8886,21
8887,21
8888,21
8889,21
8890,21
8891,21
8892,21
8893,21
8894,22
8895,22
8896,22
8897,22
8898,22
8899,22
8900,22
8901,22
8902,22
8903,22
8904,21
8905,21
8906,21
8907,21
8908,21
8909,21
8910,21
8911,21
8912,21
8913,21
8914,21
8915,21
8916,21
8917,21
8918,21
8919,21
8920,21
8921,21
8922,21
8923,21
8924,21
8925,21
8926,21
8927,21
8928,21
8929,21
8930,21
8931,21
8932,21
8933,22
8934,22
8935,22
8936,22
8937,22
8938,22
8939,22
8940,21
8941,21
8942,21
8943,21
8944,21
8945,21
8946,21
8947,21
8948,21
8949,21
8950,21
8951,21
8952,21
8953,21
8954,21
8955,21
8956,21
8957,21
8958,21
8959,21
8960,21
8961,21
8962,21
8963,21
8964,21
8965,22
8966,21
8967,21
8968,21
8969,21
8970,21
8971,21
8972,21
8973,21
8974,21
8975,21
8976,21
8977,21
8978,21
8979,21
8980,21
8981,21
8982,21
8983,21
8984,21
8985,21
8986,21
8987,21
8988,21
8989,21
8990,21
8991,21
8992,21
8993,21
8994,21
8995,21
8996,21
8997,21
8998,21
8999,21
9000,21
9001,21
9002,21
9003,21
9004,21
9005,21
9006,21
9007,21
9008,21
9009,21
9010,21
9011,21
9012,21
9013,21
9014,21
9015,21
9016,21
9017,21
9018,21
9019,21
9020,21
9021,21
9022,21
9023,21
9024,21
9025,21
9026,21
9027,21
9028,22
9029,21
9030,21
9031,21
9032,21
9033,21
9034,21
9035,21
9036,21
9037,21
9038,21
9039,21
9040,21
9041,21
9042,21
9043,21
9044,21
9045,21
9046,21
9047,21
9048,21
9049,21
9050,21
9051,21
9052,21
9053,21
9054,21
9055,21
9056,21
9057,21
9058,21
9059,21
9060,21
9061,21
9062,21
9063,21
9064,21
9065,21
9066,21
9067,21
9068,21
9069,21
9070,21
9071,21
9072,21
9073,21
9074,21
9075,21
9076,21
9077,21
9078,21
9079,21
9080,21
9081,21
9082,21
9083,21
9084,21
9085,21
9086,21
9087,21
9088,21
9089,21
9090,21
9091,21
9092,21
9093,21
9094,21
9095,21
9096,21
9097,21
9098,21
9099,21
9100,21
9101,21
9102,21
9103,21
9104,21
9105,21
9106,21
9107,21
9108,21
9109,21
9110,21
9111,21
9112,21
9113,21
9114,21
9115,21
9116,21
9117,21
9118,21
9119,21
9120,21
9121,21
9122,21
9123,21
9124,21
9125,21
9126,21
9127,21
9128,21
9129,21
9130,21
9131,21
9132,21
9133,21
9134,21
9135,21
9136,21
9137,21
9138,21
9139,21
9140,21
9141,21
9142,21
9143,21
9144,21
9145,21
9146,21
9147,21
9148,21
9149,21
9150,21
9151,22
9152,22
9153,22
9154,22
9155,22
9156,21
9157,21
9158,21
9159,21
9160,21
9161,21
9162,21
9163,21
9164,21
9165,21
9166,21
9167,21
9168,21
9169,21
9170,21
9171,21
9172,21
9173,21
9174,21
9175,21
9176,21
9177,21
9178,21
9179,21
9180,21
9181,21
9182,21
9183,21
9184,21
9185,21
9186,21
9187,21
9188,21
9189,21
9190,21
9191,21
9192,21
9193,21
9194,21
9195,21
9196,21
9197,21
9198,21
9199,21
9200,21
9201,21
9202,22
9203,21
9204,21
9205,21
9206,21
9207,21
9208,21
9209,21
9210,21
9211,21
9212,21
9213,21
9214,21
9215,21
9216,21
9217,21
9218,21
9219,21
9220,21
9221,21
9222,21
9223,21
9224,21
9225,21
9226,21
9227,21
9228,21
9229,21
9230,21
9231,21
9232,21
9233,21
9234,21
9235,21
9236,21
9237,21
9238,21
9239,21
9240,21
9241,21
9242,21
9243,21
9244,21
9245,21
9246,21
9247,21
9248,21
9249,21
9250,21
9251,21
9252,21
9253,21
9254,21
9255,21
9256,21
9257,21
9258,21
9259,21
9260,21
9261,21
9262,21
9263,21
9264,21
9265,21
9266,21
9267,21
9268,21
9269,21
9270,21
9271,21
9272,21
9273,21
9274,21
9275,21
9276,21
9277,21
9278,21
9279,21
9280,21
9281,21
9282,21
9283,21
9284,21
9285,21
9286,21
9287,21
9288,21
9289,21
9290,21
9291,21
9292,21
9293,21
9294,21
9295,21
9296,21
9297,21
9298,22
9299,22
9300,22
9301,21
9302,21
9303,21
9304,21
9305,21
9306,21
9307,21
9308,21
9309,21
9310,21
9311,21
9312,21
9313,21
9314,21
9315,21
9316,21
9317,21
9318,21
9319,21
9320,21
9321,21
9322,21
9323,21
9324,21
9325,21
9326,21
9327,21
9328,21
9329,21
9330,21
9331,21
9332,21
9333,21
9334,21
9335,21
9336,21
9337,21
9338,21
9339,21
9340,21
9341,21
9342,21
9343,21
9344,21
9345,21
9346,21
9347,21
9348,21
9349,21
9350,21
9351,22
9352,21
9353,21
9354,21
9355,21
9356,21
9357,21
9358,21
9359,21
9360,21
9361,21
9362,21
9363,21
9364,21
9365,21
9366,21
9367,21
9368,21
9369,21
9370,22
9371,21
9372,21
9373,21
9374,21
9375,21
9376,21
9377,21
9378,21
9379,21
9380,21
9381,21
9382,22
9383,22
9384,22
9385,22
9386,22
9387,22
9388,22
9389,22
9390,22
9391,22
9392,22
9393,22
9394,22
9395,22
9396,21
9397,21
9398,21
9399,21
9400,21
9401,21
9402,21
9403,21
9404,21
9405,21
9406,21
9407,21
9408,21
9409,21
9410,21
9411,21
9412,21
9413,21
9414,21
9415,21
9416,21
9417,21
9418,21
9419,21
9420,21
9421,21
9422,21
9423,21
9424,21
9425,21
9426,21
9427,21
9428,21
9429,21
9430,21
9431,21
9432,21
9433,21
9434,21
9435,21
9436,21
9437,21
9438,21
9439,21
9440,21
9441,21
9442,21
9443,21
9444,21
9445,21
9446,21
9447,21
9448,21
9449,21
9450,21
9451,21
9452,21
9453,21
9454,21
9455,21
9456,21
9457,21
9458,21
9459,21
9460,21
9461,21
9462,21
9463,21
9464,21
9465,21
9466,21
9467,21
9468,21
9469,21
9470,21
9471,21
9472,21
9473,21
9474,21
9475,21
9476,21
9477,21
9478,21
9479,21
9480,21
9481,21
9482,21
9483,21
9484,21
9485,21
9486,21
9487,21
9488,21
9489,21
9490,21
9491,21
9492,21
9493,21
9494,21
9495,21
9496,21
9497,21
9498,21
9499,21
9500,21
9501,21
9502,21
9503,21
9504,21
9505,21
9506,21
9507,21
9508,21
9509,21
9510,21
9511,21
9512,21
9513,21
9514,21
9515,21
9516,21
9517,21
9518,21
9519,21
9520,21
9521,21
9522,21
9523,21
9524,21
9525,21
9526,21
9527,21
9528,21
9529,21
9530,22
9531,22
9532,22
9533,22
9534,22
9535,22
9536,22
9537,22
9538,22
9539,22
9540,22
9541,22
9542,22
9543,22
9544,22
9545,22
9546,22
9547,22
9548,22
9549,22
9550,22
9551,22
9552,22
9553,22
9554,22
9555,22
9556,22
9557,22
9558,22
9559,22
9560,22
9561,22
9562,22
9563,22
9564,22
9565,22
9566,22
9567,22
9568,22
9569,22
9570,22
9571,22
9572,22
9573,22
9574,22
9575,22
9576,22
9577,22
9578,22
9579,22
9580,22
9581,22
9582,22
9583,22
9584,22
9585,22
9586,22
9587,22
9588,22
9589,22
9590,22
9591,22
9592,22
9593,22
9594,22
9595,22
9596,22
9597,22
9598,22
9599,22
9600,22
9601,22
9602,22
9603,22
9604,22
9605,22
9606,22
9607,22
9608,22
9609,22
9610,22
9611,22
9612,22
9613,22
9614,22
9615,22
9616,22
9617,22
9618,22
9619,22
9620,22
9621,22
9622,22
9623,22
9624,22
9625,22
9626,22
9627,22
9628,22
9629,22
9630,22
9631,22
9632,22
9633,22
9634,22
9635,22
9636,22
9637,22
9638,22
9639,22
9640,22
9641,22
9642,22
9643,22
9644,22
9645,22
9646,22
9647,22
9648,22
9649,22
9650,22
9651,22
9652,22
9653,22
9654,22
9655,22
9656,22
9657,22
9658,22
9659,22
9660,22
9661,22
9662,22
9663,22
9664,22
9665,22
9666,22
9667,22
9668,22
9669,22
9670,22
9671,22
9672,23
9673,22
9674,22
9675,22
9676,22
9677,22
9678,22
9679,22
9680,22
9681,22
9682,22
9683,22
9684,22
9685,22
9686,22
9687,22
9688,22
9689,22
9690,22
9691,22
9692,22
9693,22
9694,22
9695,22
9696,22
9697,22
9698,22
9699,22
9700,22
9701,22
9702,22
9703,22
9704,22
9705,22
9706,22
9707,22
9708,22
9709,22
9710,22
9711,22
9712,22
9713,22
9714,22
9715,22
9716,22
9717,22
9718,22
9719,22
9720,22
9721,22
9722,22
9723,22
9724,22
9725,22
9726,22
9727,22
9728,22
9729,22
9730,22
9731,22
9732,22
9733,22
9734,22
9735,22
9736,22
9737,22
9738,22
9739,22
9740,22
9741,22
9742,22
9743,22
9744,22
9745,22
9746,22
9747,22
9748,22
9749,22
9750,22
9751,22
9752,22
9753,22
9754,22
9755,22
9756,22
9757,22
9758,22
9759,22
9760,22
9761,22
9762,22
9763,22
9764,22
9765,22
9766,22
9767,22
9768,22
9769,22
9770,22
9771,22
9772,22
9773,22
9774,22
9775,22
9776,22
9777,22
9778,22
9779,22
9780,22
9781,22
9782,22
9783,22
9784,22
9785,22
9786,22
9787,22
9788,22
9789,22
9790,22
9791,22
9792,22
9793,22
9794,22
9795,22
9796,22
9797,22
9798,22
9799,22
9800,22
9801,22
9802,22
9803,22
9804,22
9805,22
9806,22
9807,22
9808,22
9809,22
9810,22
9811,22
9812,22
9813,22
9814,22
9815,22
9816,22
9817,22
9818,22
9819,22
9820,22
9821,22
9822,22
9823,22
9824,22
9825,22
9826,22
9827,22
9828,22
9829,22
9830,22
9831,22
9832,22
9833,22
9834,22
9835,22
9836,22
9837,22
9838,22
9839,22
9840,22
9841,22
9842,22
9843,22
9844,22
9845,22
9846,22
9847,22
9848,22
9849,22
9850,22
9851,22
9852,22
9853,22
9854,22
9855,22
9856,22
9857,22
9858,23
9859,23
9860,22
9861,22
9862,22
9863,22
9864,22
9865,22
9866,22
9867,22
9868,22
9869,22
9870,22
9871,22
9872,22
9873,22
9874,22
9875,22
9876,22
9877,22
9878,22
9879,22
9880,22
9881,22
9882,22
9883,22
9884,22
9885,22
9886,22
9887,22
9888,22
9889,22
9890,22
9891,22
9892,22
9893,22
9894,22
9895,22
9896,22
9897,22
9898,22
9899,22
9900,22
9901,22
9902,22
9903,22
9904,22
9905,22
9906,22
9907,22
9908,22
9909,22
9910,22
9911,22
9912,22
9913,22
9914,22
9915,22
9916,22
9917,22
9918,22
9919,22
9920,22
9921,22
9922,22
9923,22
9924,22
9925,22
9926,22
9927,22
9928,22
9929,22
9930,22
9931,22
9932,23
9933,23
9934,23
9935,22
9936,22
9937,22
9938,22
9939,22
9940,22
9941,22
9942,22
9943,22
9944,22
9945,22
9946,22
9947,22
9948,22
9949,22
9950,22
9951,22
9952,22
9953,22
9954,22
9955,22
9956,22
9957,22
9958,22
9959,22
9960,22
9961,22
9962,22
9963,22
9964,22
9965,22
9966,22
9967,22
9968,22
9969,22
9970,22
9971,22
9972,22
9973,22
9974,22
9975,22
9976,22
9977,22
9978,22
9979,22
9980,22
9981,22
9982,22
9983,22
9984,22
9985,22
9986,22
9987,22
9988,22
9989,22
9990,22
9991,22
9992,22
9993,22
9994,22
9995,22
9996,22
9997,22
9998,22
9999,22
10000,22
