1,3
2,3
3,3
4,3
5,4
6,4
7,5
8,5
9,5
10,5
11,5
12,5
13,5
14,5
15,5
16,5
17,6
18,5
19,6
20,5
21,5
22,5
23,5
24,5
25,5
26,5
27,5
28,5
29,6
30,6
31,6
32,6
33,7
34,6
35,6
36,6
37,7
38,7
39,7
40,7
41,7
42,7
43,7
44,7
45,7
46,7
47,7
48,8
49,8
50,8
51,8
52,8
53,8
54,8
55,8
56,8
57,8
58,8
59,8
60,8
61,8
62,9
63,9
64,9
65,9
66,9
67,9
68,9
69,10
70,9
71,9
72,9
73,9
74,9
75,9
76,8
77,8
78,8
79,8
80,8
81,8
82,8
83,8
84,8
85,8
86,8
87,8
88,8
89,8
90,8
91,8
92,8
93,8
94,8
95,8
96,8
97,8
98,8
99,8
100,8
101,8
102,8
103,8
104,8
105,8
106,8
107,8
108,8
109,8
110,8
111,8
112,8
113,8
114,8
115,8
116,8
117,8
118,8
119,8
120,8
121,8
122,8
123,8
124,8
125,8
126,8
127,8
128,8
129,8
130,8
131,9
132,9
133,9
134,9
135,9
136,9
137,9
138,8
139,8
140,8
141,8
142,8
143,8
144,8
145,8
146,8
147,8
148,8
149,8
150,8
151,8
152,8
153,8
154,8
155,8
156,8
157,8
158,8
159,8
160,8
161,9
162,9
163,9
164,9
165,9
166,9
167,9
168,9
169,9
170,9
171,9
172,8
173,8
174,8
175,8
176,8
177,8
178,8
179,8
180,8
181,8
182,8
183,8
184,8
185,8
186,8
187,8
188,8
189,8
190,8
191,8
192,8
193,8
194,8
195,8
196,8
197,8
198,8
199,8
200,8
201,8
202,8
203,8
204,8
205,8
206,8
207,8
208,8
209,8
210,8
211,8
212,8
213,8
214,8
215,8
216,8
217,8
218,8
219,8
220,8
221,8
222,8
223,8
224,8
225,8
226,8
227,8
228,8
229,8
230,8
231,8
232,8
233,8
234,8
235,8
236,8
237,8
238,8
239,8
240,8
241,8
242,8
243,8
244,8
245,8
246,8
247,8
248,8
249,8
250,8
251,8
252,8
253,8
254,8
255,9
256,10
257,10
258,10
259,10
260,10
261,10
262,10
263,10
264,10
265,10
266,10
267,10
268,10
269,10
270,10
271,10
272,10
273,10
274,11
275,10
276,10
277,11
278,11
279,11
280,11
281,10
282,10
283,10
284,10
285,10
286,10
287,10
288,10
289,10
290,10
291,10
292,10
293,10
294,10
295,10
296,10
297,10
298,11
299,11
300,11
301,11
302,11
303,11
304,11
305,11
306,11
307,11
308,11
309,10
310,10
311,10
312,10
313,10
314,10
315,10
316,10
317,10
318,10
319,10
320,10
321,11
322,11
323,11
324,10
325,11
326,11
327,11
328,11
329,12
330,11
331,11
332,11
333,11
334,10
335,10
336,10
337,11
338,11
339,11
340,11
341,11
342,11
343,11
344,11
345,11
346,11
347,11
348,11
349,11
350,11
351,11
352,11
353,11
354,11
355,11
356,11
357,11
358,11
359,11
360,11
361,11
362,12
363,12
364,13
365,13
366,13
367,13
368,13
369,13
370,13
371,13
372,13
373,12
374,12
375,13
376,11
377,12
378,11
379,11
380,11
381,11
382,11
383,11
384,11
385,11
386,11
387,11
388,11
389,11
390,11
391,11
392,11
393,11
394,11
395,11
396,11
397,11
398,11
399,11
400,11
401,11
402,11
403,11
404,11
405,11
406,11
407,11
408,11
409,11
410,11
411,11
412,11
413,11
414,11
415,11
416,11
417,12
418,11
419,12
420,12
421,12
422,12
423,13
424,13
425,13
426,13
427,13
428,13
429,13
430,13
431,13
432,13
433,13
434,13
435,13
436,13
437,13
438,13
439,13
440,13
441,13
442,13
443,13
444,13
445,13
446,14
447,14
448,13
449,13
450,13
451,13
452,13
453,13
454,13
455,13
456,14
457,15
458,15
459,14
460,14
461,14
462,14
463,14
464,14
465,13
466,13
467,13
468,13
469,13
470,13
471,14
472,14
473,13
474,13
475,13
476,13
477,13
478,13
479,13
480,13
481,13
482,13
483,13
484,13
485,13
486,13
487,13
488,13
489,13
490,13
491,13
492,13
493,13
494,13
495,13
496,14
497,14
498,14
499,13
500,13
501,13
502,13
503,13
504,13
505,13
506,13
507,13
508,13
509,13
510,13
511,13
512,13
513,13
514,14
515,14
516,14
517,14
518,14
519,14
520,14
521,15
522,14
523,13
524,13
525,13
526,13
527,13
528,14
529,13
530,13
531,13
532,13
533,13
534,13
535,13
536,13
537,13
538,13
539,14
540,14
541,13
542,13
543,13
544,13
545,13
546,13
547,13
548,13
549,13
550,13
551,13
552,13
553,13
554,13
555,13
556,13
557,13
558,13
559,13
560,13
561,13
562,13
563,13
564,13
565,13
566,13
567,13
568,13
569,13
570,13
571,13
572,13
573,13
574,13
575,13
576,13
577,13
578,13
579,13
580,13
581,13
582,13
583,13
584,13
585,13
586,13
587,13
588,13
589,13
590,13
591,13
592,13
593,14
594,14
595,14
596,14
597,14
598,14
599,14
600,14
601,14
602,14
603,14
604,14
605,14
606,14
607,14
608,14
609,14
610,14
611,14
612,15
613,15
614,16
615,16
616,14
617,14
618,15
619,15
620,15
621,14
622,14
623,14
624,14
625,14
626,14
627,14
628,15
629,15
630,15
631,15
632,15
633,15
634,15
635,15
636,15
637,15
638,15
639,14
640,14
641,14
642,14
643,14
644,14
645,14
646,14
647,14
648,14
649,14
650,14
651,14
652,14
653,14
654,14
655,14
656,14
657,14
658,14
659,14
660,14
661,14
662,14
663,15
664,14
665,14
666,14
667,14
668,14
669,14
670,14
671,14
672,14
673,14
674,14
675,14
676,14
677,14
678,14
679,14
680,14
681,14
682,14
683,14
684,15
685,15
686,15
687,15
688,15
689,15
690,15
691,15
692,15
693,15
694,15
695,15
696,15
697,15
698,15
699,15
700,16
701,15
702,15
703,15
704,15
705,15
706,16
707,16
708,17
709,16
710,15
711,15
712,15
713,15
714,15
715,15
716,15
717,15
718,15
719,15
720,15
721,15
722,16
723,15
724,16
725,15
726,15
727,15
728,15
729,15
730,15
731,15
732,15
733,15
734,15
735,15
736,15
737,15
738,15
739,15
740,16
741,16
742,16
743,16
744,16
745,15
746,15
747,15
748,15
749,16
750,16
751,16
752,16
753,16
754,16
755,16
756,16
757,16
758,16
759,16
760,16
761,17
762,17
763,16
764,15
765,15
766,15
767,15
768,16
769,16
770,15
771,15
772,15
773,15
774,15
775,15
776,15
777,15
778,15
779,15
780,15
781,15
782,15
783,15
784,15
785,15
786,15
787,16
788,15
789,15
790,15
791,15
792,15
793,15
794,15
795,15
796,15
797,15
798,15
799,15
800,15
801,15
802,15
803,15
804,15
805,15
806,15
807,15
808,15
809,15
810,15
811,15
812,15
813,15
814,15
815,15
816,15
817,15
818,15
819,15
820,15
821,15
822,15
823,15
824,15
825,15
826,15
827,15
828,15
829,15
830,15
831,15
832,15
833,15
834,15
835,15
836,15
837,15
838,15
839,15
840,15
841,15
842,15
843,15
844,16
845,17
846,15
847,15
848,15
849,15
850,15
851,15
852,15
853,15
854,15
855,15
856,15
857,15
858,15
859,15
860,15
861,15
862,15
863,15
864,15
865,15
866,15
867,15
868,15
869,15
870,15
871,15
872,15
873,15
874,15
875,15
876,15
877,15
878,16
879,16
880,16
881,16
882,16
883,16
884,16
885,16
886,16
887,16
888,16
889,16
890,16
891,16
892,16
893,16
894,16
895,15
896,15
897,15
898,15
899,15
900,15
901,15
902,15
903,15
904,15
905,15
906,15
907,15
908,15
909,15
910,15
911,15
912,15
913,15
914,15
915,15
916,15
917,15
918,15
919,15
920,15
921,15
922,16
923,15
924,15
925,15
926,15
927,15
928,15
929,15
930,15
931,15
932,15
933,15
934,16
935,16
936,16
937,16
938,16
939,15
940,15
941,16
942,16
943,16
944,15
945,15
946,15
947,15
948,15
949,15
950,15
951,15
952,15
953,15
954,15
955,15
956,15
957,15
958,16
959,15
960,15
961,15
962,15
963,15
964,15
965,15
966,15
967,15
968,15
969,15
970,16
971,15
972,15
973,15
974,15
975,15
976,15
977,15
978,15
979,16
980,15
981,15
982,15
983,15
984,15
985,15
986,15
987,15
988,15
989,15
990,15
991,15
992,15
993,15
994,15
995,15
996,15
997,15
998,15
999,15
1000,15
1001,15
1002,15
1003,15
1004,16
1005,15
1006,15
1007,15
1008,16
1009,15
1010,15
1011,16
1012,16
1013,16
1014,16
1015,15
1016,16
1017,16
1018,16
1019,16
1020,16
1021,16
1022,16
1023,16
1024,16
1025,16
1026,16
1027,16
1028,17
1029,17
1030,17
1031,17
1032,17
1033,17
1034,17
1035,17
1036,17
1037,17
1038,17
1039,17
1040,17
1041,17
1042,18
1043,18
1044,17
1045,17
1046,17
1047,17
1048,17
1049,17
1050,17
1051,17
1052,18
1053,18
1054,17
1055,17
1056,17
1057,17
1058,17
1059,17
1060,17
1061,17
1062,17
1063,17
1064,17
1065,17
1066,18
1067,17
1068,17
1069,17
1070,17
1071,17
1072,17
1073,17
1074,17
1075,17
1076,17
1077,17
1078,17
1079,17
1080,18
1081,18
1082,18
1083,18
1084,18
1085,18
1086,18
1087,18
1088,18
1089,18
1090,19
1091,19
1092,19
1093,19
1094,19
1095,19
1096,19
1097,19
1098,19
1099,19
1100,19
1101,18
1102,18
1103,18
1104,18
1105,18
1106,18
1107,18
1108,19
1109,19
1110,18
1111,18
1112,18
1113,18
1114,18
1115,18
1116,18
1117,18
1118,18
1119,18
1120,18
1121,18
1122,18
1123,18
1124,18
1125,18
1126,19
1127,19
1128,19
1129,19
1130,19
1131,20
1132,19
1133,19
1134,19
1135,19
1136,19
1137,18
1138,18
1139,18
1140,19
1141,19
1142,19
1143,19
1144,19
1145,19
1146,19
1147,19
1148,19
1149,19
1150,19
1151,19
1152,19
1153,19
1154,20
1155,20
1156,19
1157,19
1158,19
1159,19
1160,19
1161,19
1162,19
1163,19
1164,19
1165,19
1166,19
1167,19
1168,19
1169,19
1170,19
1171,20
1172,20
1173,20
1174,20
1175,20
1176,20
1177,21
1178,20
1179,20
1180,20
1181,20
1182,20
1183,20
1184,20
1185,19
1186,19
1187,19
1188,19
1189,19
1190,19
1191,19
1192,19
1193,20
1194,20
1195,20
1196,21
1197,20
1198,20
1199,20
1200,20
1201,20
1202,20
1203,20
1204,20
1205,20
1206,20
1207,21
1208,21
1209,21
1210,21
1211,20
1212,20
1213,19
1214,20
1215,19
1216,19
1217,19
1218,20
1219,20
1220,20
1221,19
1222,19
1223,19
1224,19
1225,19
1226,19
1227,19
1228,19
1229,19
1230,19
1231,19
1232,19
1233,19
1234,19
1235,19
1236,19
1237,19
1238,19
1239,19
1240,19
1241,19
1242,19
1243,19
1244,19
1245,20
1246,20
1247,20
1248,20
1249,20
1250,20
1251,20
1252,20
1253,20
1254,20
1255,20
1256,20
1257,20
1258,20
1259,20
1260,20
1261,20
1262,20
1263,20
1264,20
1265,20
1266,20
1267,20
1268,20
1269,20
1270,20
1271,20
1272,20
1273,20
1274,20
1275,20
1276,20
1277,20
1278,20
1279,20
1280,20
1281,20
1282,20
1283,20
1284,20
1285,20
1286,20
1287,20
1288,20
1289,20
1290,20
1291,20
1292,20
1293,20
1294,20
1295,20
1296,20
1297,20
1298,20
1299,20
1300,20
1301,20
1302,20
1303,20
1304,20
1305,20
1306,20
1307,20
1308,20
1309,20
1310,20
1311,20
1312,20
1313,20
1314,20
1315,20
1316,20
1317,20
1318,20
1319,21
1320,21
1321,21
1322,21
1323,21
1324,21
1325,21
1326,21
1327,21
1328,21
1329,23
1330,22
1331,22
1332,22
1333,22
1334,22
1335,22
1336,22
1337,22
1338,21
1339,21
1340,22
1341,22
1342,22
1343,22
1344,22
1345,22
1346,22
1347,22
1348,22
1349,22
1350,21
1351,22
1352,21
1353,21
1354,21
1355,21
1356,21
1357,21
1358,21
1359,22
1360,21
1361,21
1362,21
1363,21
1364,21
1365,21
1366,21
1367,21
1368,21
1369,21
1370,21
1371,21
1372,21
1373,21
1374,21
1375,21
1376,21
1377,21
1378,21
1379,21
1380,21
1381,21
1382,21
1383,21
1384,21
1385,21
1386,22
1387,22
1388,22
1389,22
1390,22
1391,22
1392,21
1393,21
1394,21
1395,21
1396,21
1397,21
1398,21
1399,21
1400,22
1401,22
1402,22
1403,22
1404,22
1405,22
1406,22
1407,22
1408,22
1409,21
1410,21
1411,21
1412,22
1413,22
1414,22
1415,22
1416,23
1417,23
1418,22
1419,22
1420,22
1421,21
1422,21
1423,21
1424,21
1425,21
1426,21
1427,22
1428,22
1429,22
1430,22
1431,22
1432,22
1433,22
1434,22
1435,22
1436,22
1437,22
1438,22
1439,21
1440,21
1441,21
1442,21
1443,21
1444,21
1445,21
1446,21
1447,21
1448,21
1449,21
1450,21
1451,21
1452,21
1453,21
1454,21
1455,21
1456,21
1457,22
1458,22
1459,22
1460,21
1461,21
1462,21
1463,21
1464,21
1465,21
1466,21
1467,21
1468,22
1469,21
1470,21
1471,21
1472,21
1473,21
1474,21
1475,21
1476,21
1477,21
1478,21
1479,21
1480,21
1481,22
1482,22
1483,22
1484,22
1485,22
1486,22
1487,22
1488,22
1489,22
1490,22
1491,22
1492,22
1493,22
1494,22
1495,22
1496,22
1497,22
1498,22
1499,22
1500,22
1501,22
1502,22
1503,22
1504,22
1505,22
1506,22
1507,22
1508,22
1509,22
1510,22
1511,22
1512,22
1513,23
1514,23
1515,23
1516,22
1517,22
1518,22
1519,23
1520,22
1521,22
1522,22
1523,22
1524,22
1525,22
1526,22
1527,22
1528,22
1529,23
1530,23
1531,22
1532,22
1533,23
1534,23
1535,23
1536,24
1537,23
1538,23
1539,23
1540,23
1541,23
1542,23
1543,23
1544,23
1545,23
1546,23
1547,23
1548,23
1549,23
1550,23
1551,23
1552,22
1553,22
1554,22
1555,22
1556,22
1557,22
1558,22
1559,22
1560,23
1561,23
1562,23
1563,23
1564,23
1565,23
1566,23
1567,24
1568,24
1569,24
1570,24
1571,24
1572,24
1573,24
1574,25
1575,24
1576,24
1577,24
1578,24
1579,24
1580,24
1581,24
1582,24
1583,24
1584,24
1585,25
1586,25
1587,25
1588,25
1589,25
1590,26
1591,26
1592,26
1593,26
1594,26
1595,25
1596,25
1597,25
1598,25
1599,25
1600,25
1601,26
1602,25
1603,25
1604,25
1605,25
1606,25
1607,25
1608,25
1609,26
1610,26
1611,26
1612,26
1613,26
1614,26
1615,26
1616,26
1617,27
1618,27
1619,27
1620,27
1621,27
1622,27
1623,27
1624,26
1625,26
1626,26
1627,26
1628,26
1629,26
1630,26
1631,26
1632,26
1633,26
1634,26
1635,26
1636,26
1637,26
1638,26
1639,27
1640,27
1641,26
1642,26
1643,26
1644,26
1645,26
1646,25
1647,25
1648,25
1649,25
1650,25
1651,25
1652,25
1653,25
1654,26
1655,25
1656,25
1657,25
1658,25
1659,25
1660,25
1661,25
1662,25
1663,25
1664,25
1665,25
1666,25
1667,25
1668,25
1669,25
1670,25
1671,25
1672,25
1673,25
1674,25
1675,25
1676,26
1677,26
1678,26
1679,26
1680,27
1681,27
1682,26
1683,26
1684,26
1685,26
1686,26
1687,26
1688,26
1689,26
1690,26
1691,26
1692,25
1693,25
1694,25
1695,25
1696,25
1697,25
1698,25
1699,25
1700,26
1701,26
1702,26
1703,26
1704,26
1705,26
1706,26
1707,26
1708,25
1709,25
1710,25
1711,25
1712,25
1713,25
1714,25
1715,25
1716,25
1717,25
1718,25
1719,25
1720,25
1721,25
1722,25
1723,25
1724,25
1725,25
1726,25
1727,25
1728,25
1729,26
1730,26
1731,25
1732,27
1733,27
1734,26
1735,26
1736,26
1737,26
1738,26
1739,26
1740,26
1741,26
1742,26
1743,26
1744,28
1745,27
1746,27
1747,27
1748,27
1749,27
1750,27
1751,26
1752,26
1753,26
1754,26
1755,27
1756,27
1757,27
1758,26
1759,26
1760,26
1761,26
1762,26
1763,26
1764,26
1765,25
1766,25
1767,25
1768,25
1769,25
1770,25
1771,25
1772,25
1773,25
1774,25
1775,25
1776,26
1777,26
1778,27
1779,27
1780,26
1781,25
1782,25
1783,25
1784,26
1785,25
1786,25
1787,25
1788,25
1789,25
1790,25
1791,25
1792,25
1793,25
1794,25
1795,25
1796,26
1797,26
1798,26
1799,26
1800,26
1801,26
1802,26
1803,26
1804,26
1805,26
1806,27
1807,28
1808,28
1809,28
1810,28
1811,28
1812,27
1813,27
1814,27
1815,27
1816,27
1817,27
1818,27
1819,27
1820,27
1821,27
1822,27
1823,27
1824,27
1825,27
1826,27
1827,27
1828,27
1829,28
1830,28
1831,27
1832,28
1833,28
1834,27
1835,27
1836,27
1837,27
1838,27
1839,27
1840,27
1841,27
1842,27
1843,27
1844,27
1845,27
1846,27
1847,27
1848,27
1849,27
1850,27
1851,27
1852,27
1853,27
1854,27
1855,27
1856,28
1857,28
1858,28
1859,28
1860,28
1861,28
1862,28
1863,28
1864,28
1865,29
1866,29
1867,28
1868,28
1869,28
1870,28
1871,28
1872,28
1873,28
1874,28
1875,28
1876,28
1877,28
1878,28
1879,28
1880,28
1881,28
1882,28
1883,28
1884,28
1885,28
1886,28
1887,28
1888,29
1889,29
1890,28
1891,28
1892,28
1893,29
1894,29
1895,28
1896,28
1897,28
1898,28
1899,28
1900,28
1901,28
1902,28
1903,28
1904,28
1905,28
1906,28
1907,28
1908,28
1909,28
1910,28
1911,28
1912,28
1913,28
1914,28
1915,28
1916,28
1917,28
1918,28
1919,28
1920,28
1921,28
1922,28
1923,28
1924,28
1925,28
1926,28
1927,28
1928,28
1929,28
1930,28
1931,28
1932,29
1933,28
1934,29
1935,29
1936,29
1937,29
1938,29
1939,29
1940,28
1941,28
1942,27
1943,27
1944,27
1945,28
1946,27
1947,27
1948,27
1949,27
1950,27
1951,27
1952,27
1953,27
1954,27
1955,27
1956,27
1957,27
1958,27
1959,27
1960,27
1961,27
1962,27
1963,27
1964,27
1965,27
1966,27
1967,27
1968,27
1969,27
1970,27
1971,27
1972,27
1973,27
1974,27
1975,27
1976,27
1977,27
1978,27
1979,27
1980,27
1981,27
1982,28
1983,28
1984,28
1985,28
1986,28
1987,28
1988,27
1989,27
1990,27
1991,27
1992,27
1993,27
1994,27
1995,27
1996,27
1997,27
1998,27
1999,27
2000,27
2001,27
2002,27
2003,27
2004,27
2005,27
2006,28
2007,27
2008,27
2009,27
2010,27
2011,27
2012,27
2013,27
2014,27
2015,28
2016,28
2017,27
2018,27
2019,27
2020,27
2021,27
2022,27
2023,27
2024,27
2025,27
2026,27
2027,27
2028,27
2029,27
2030,28
2031,28
2032,27
2033,27
2034,27
2035,27
2036,27
2037,27
2038,27
2039,27
2040,27
2041,27
2042,27
2043,28
2044,27
2045,27
2046,27
2047,28
2048,29
2049,30
2050,28
2051,27
2052,27
2053,28
2054,28
2055,28
2056,28
2057,27
2058,27
2059,27
2060,27
2061,27
2062,27
2063,27
2064,27
2065,27
2066,27
2067,27
2068,27
2069,27
2070,27
2071,27
2072,27
2073,27
2074,27
2075,28
2076,27
2077,27
2078,27
2079,27
2080,27
2081,27
2082,27
2083,27
2084,27
2085,28
2086,28
2087,28
2088,28
2089,28
2090,28
2091,28
2092,28
2093,28
2094,28
2095,29
2096,28
2097,28
2098,28
2099,28
2100,28
2101,28
2102,28
2103,28
2104,28
2105,28
2106,28
2107,28
2108,28
2109,28
2110,28
2111,28
2112,28
2113,28
2114,28
2115,28
2116,28
2117,28
2118,28
2119,28
2120,28
2121,28
2122,28
2123,28
2124,28
2125,28
2126,28
2127,28
2128,28
2129,28
2130,28
2131,28
2132,29
2133,29
2134,29
2135,29
2136,29
2137,29
2138,29
2139,29
2140,29
2141,29
2142,29
2143,30
2144,29
2145,29
2146,29
2147,29
2148,28
2149,28
2150,28
2151,28
2152,28
2153,28
2154,28
2155,28
2156,28
2157,28
2158,28
2159,29
2160,30
2161,30
2162,30
2163,30
2164,30
2165,30
2166,30
2167,29
2168,28
2169,28
2170,28
2171,28
2172,28
2173,28
2174,28
2175,28
2176,28
2177,28
2178,28
2179,28
2180,28
2181,28
2182,28
2183,28
2184,28
2185,28
2186,28
2187,28
2188,28
2189,28
2190,28
2191,28
2192,28
2193,28
2194,28
2195,28
2196,28
2197,28
2198,28
2199,28
2200,28
2201,28
2202,28
2203,28
2204,28
2205,28
2206,28
2207,28
2208,28
2209,28
2210,28
2211,28
2212,28
2213,28
2214,28
2215,28
2216,28
2217,28
2218,28
2219,28
2220,28
2221,28
2222,29
2223,29
2224,29
2225,29
2226,29
2227,28
2228,28
2229,28
2230,28
2231,28
2232,28
2233,28
2234,28
2235,28
2236,28
2237,28
2238,28
2239,28
2240,28
2241,29
2242,28
2243,28
2244,28
2245,28
2246,28
2247,29
2248,29
2249,29
2250,29
2251,29
2252,29
2253,29
2254,29
2255,28
2256,28
2257,28
2258,28
2259,28
2260,29
2261,28
2262,28
2263,28
2264,28
2265,28
2266,28
2267,28
2268,28
2269,28
2270,28
2271,28
2272,28
2273,28
2274,28
2275,28
2276,28
2277,28
2278,28
2279,28
2280,28
2281,29
2282,28
2283,28
2284,28
2285,28
2286,28
2287,28
2288,29
2289,29
2290,29
2291,30
2292,30
2293,28
2294,28
2295,28
2296,28
2297,28
2298,28
2299,28
2300,28
2301,28
2302,28
2303,28
2304,28
2305,28
2306,28
2307,28
2308,28
2309,28
2310,28
2311,28
2312,28
2313,28
2314,28
2315,28
2316,28
2317,28
2318,28
2319,28
2320,28
2321,28
2322,28
2323,28
2324,28
2325,28
2326,28
2327,28
2328,28
2329,28
2330,29
2331,28
2332,28
2333,28
2334,28
2335,28
2336,28
2337,28
2338,28
2339,28
2340,28
2341,28
2342,28
2343,28
2344,28
2345,28
2346,28
2347,28
2348,28
2349,28
2350,28
2351,28
2352,28
2353,28
2354,28
2355,28
2356,28
2357,28
2358,28
2359,28
2360,28
2361,28
2362,28
2363,28
2364,28
2365,28
2366,28
2367,28
2368,28
2369,28
2370,28
2371,28
2372,28
2373,28
2374,28
2375,28
2376,28
2377,28
2378,28
2379,28
2380,28
2381,28
2382,28
2383,28
2384,28
2385,28
2386,28
2387,28
2388,28
2389,28
2390,28
2391,28
2392,28
2393,28
2394,28
2395,28
2396,28
2397,28
2398,29
2399,28
2400,28
2401,28
2402,28
2403,28
2404,28
2405,28
2406,28
2407,28
2408,28
2409,28
2410,28
2411,28
2412,28
2413,28
2414,28
2415,28
2416,28
2417,28
2418,28
2419,28
2420,28
2421,28
2422,28
2423,28
2424,28
2425,29
2426,28
2427,29
2428,28
2429,28
2430,28
2431,28
2432,28
2433,28
2434,28
2435,28
2436,28
2437,28
2438,28
2439,28
2440,28
2441,28
2442,28
2443,28
2444,28
2445,28
2446,28
2447,28
2448,28
2449,28
2450,28
2451,28
2452,28
2453,28
2454,28
2455,28
2456,28
2457,28
2458,28
2459,28
2460,28
2461,28
2462,28
2463,28
2464,28
2465,28
2466,28
2467,29
2468,28
2469,29
2470,28
2471,28
2472,28
2473,28
2474,28
2475,28
2476,28
2477,28
2478,28
2479,29
2480,28
2481,28
2482,28
2483,28
2484,28
2485,28
2486,28
2487,28
2488,28
2489,28
2490,28
2491,28
2492,28
2493,28
2494,28
2495,28
2496,28
2497,28
2498,29
2499,29
2500,29
2501,29
2502,29
2503,29
2504,29
2505,30
2506,30
2507,30
2508,30
2509,30
2510,30
2511,30
2512,30
2513,30
2514,30
2515,30
2516,30
2517,30
2518,30
2519,31
2520,31
2521,31
2522,31
2523,31
2524,30
2525,30
2526,30
2527,30
2528,30
2529,30
2530,30
2531,29
2532,29
2533,29
2534,29
2535,29
2536,29
2537,29
2538,29
2539,30
2540,30
2541,30
2542,30
2543,30
2544,30
2545,30
2546,30
2547,31
2548,31
2549,31
2550,31
2551,30
2552,30
2553,31
2554,31
2555,30
2556,31
2557,31
2558,30
2559,30
2560,30
2561,30
2562,30
2563,30
2564,30
2565,30
2566,30
2567,30
2568,30
2569,30
2570,31
2571,30
2572,30
2573,30
2574,30
2575,30
2576,31
2577,30
2578,30
2579,30
2580,30
2581,30
2582,30
2583,30
2584,30
2585,30
2586,31
2587,31
2588,31
2589,31
2590,31
2591,31
2592,31
2593,31
2594,31
2595,31
2596,31
2597,31
2598,31
2599,32
2600,32
2601,31
2602,32
2603,32
2604,32
2605,32
2606,32
2607,32
2608,32
2609,32
2610,32
2611,32
2612,32
2613,32
2614,32
2615,32
2616,32
2617,32
2618,32
2619,32
2620,32
2621,32
2622,32
2623,32
2624,32
2625,32
2626,32
2627,31
2628,31
2629,31
2630,31
2631,30
2632,30
2633,30
2634,31
2635,30
2636,30
2637,30
2638,30
2639,30
2640,30
2641,30
2642,30
2643,30
2644,30
2645,30
2646,30
2647,30
2648,30
2649,30
2650,30
2651,30
2652,30
2653,30
2654,30
2655,30
2656,30
2657,30
2658,30
2659,30
2660,30
2661,30
2662,30
2663,31
2664,31
2665,31
2666,31
2667,31
2668,31
2669,32
2670,31
2671,31
2672,31
2673,30
2674,30
2675,30
2676,30
2677,30
2678,30
2679,31
2680,30
2681,30
2682,30
2683,30
2684,30
2685,30
2686,30
2687,30
2688,30
2689,31
2690,31
2691,30
2692,30
2693,31
2694,31
2695,30
2696,30
2697,30
2698,30
2699,30
2700,30
2701,30
2702,30
2703,31
2704,31
2705,31
2706,31
2707,32
2708,32
2709,31
2710,32
2711,32
2712,32
2713,31
2714,31
2715,31
2716,31
2717,31
2718,31
2719,31
2720,31
2721,31
2722,32
2723,31
2724,31
2725,31
2726,31
2727,32
2728,32
2729,32
2730,32
2731,32
2732,32
2733,32
2734,32
2735,32
2736,32
2737,32
2738,32
2739,32
2740,32
2741,32
2742,32
2743,33
2744,32
2745,32
2746,32
2747,32
2748,33
2749,33
2750,33
2751,33
2752,33
2753,33
2754,33
2755,33
2756,33
2757,33
2758,33
2759,34
2760,34
2761,32
2762,31
2763,32
2764,32
2765,32
2766,32
2767,32
2768,32
2769,32
2770,31
2771,31
2772,31
2773,31
2774,31
2775,32
2776,31
2777,31
2778,31
2779,31
2780,31
2781,31
2782,31
2783,31
2784,31
2785,31
2786,31
2787,31
2788,31
2789,31
2790,31
2791,31
2792,31
2793,31
2794,31
2795,32
2796,33
2797,33
2798,33
2799,33
2800,33
2801,32
2802,32
2803,32
2804,32
2805,32
2806,32
2807,32
2808,32
2809,32
2810,32
2811,32
2812,32
2813,32
2814,32
2815,32
2816,32
2817,33
2818,33
2819,33
2820,33
2821,32
2822,32
2823,32
2824,32
2825,32
2826,32
2827,32
2828,32
2829,32
2830,33
2831,32
2832,33
2833,33
2834,33
2835,32
2836,32
2837,32
2838,32
2839,32
2840,32
2841,32
2842,32
2843,32
2844,32
2845,32
2846,32
2847,32
2848,32
2849,32
2850,32
2851,32
2852,32
2853,32
2854,33
2855,33
2856,33
2857,33
2858,33
2859,33
2860,33
2861,33
2862,34
2863,34
2864,33
2865,33
2866,33
2867,33
2868,33
2869,33
2870,33
2871,33
2872,33
2873,34
2874,34
2875,34
2876,34
2877,34
2878,33
2879,33
2880,33
2881,33
2882,33
2883,33
2884,34
2885,33
2886,33
2887,33
2888,33
2889,33
2890,34
2891,34
2892,35
2893,35
2894,35
2895,34
2896,34
2897,34
2898,34
2899,34
2900,34
2901,34
2902,34
2903,34
2904,34
2905,34
2906,34
2907,34
2908,34
2909,34
2910,34
2911,34
2912,35
2913,35
2914,35
2915,34
2916,34
2917,34
2918,34
2919,34
2920,34
2921,34
2922,34
2923,35
2924,35
2925,34
2926,34
2927,34
2928,34
2929,34
2930,34
2931,34
2932,34
2933,36
2934,35
2935,35
2936,35
2937,35
2938,35
2939,35
2940,35
2941,35
2942,35
2943,35
2944,34
2945,34
2946,34
2947,33
2948,33
2949,33
2950,33
2951,33
2952,33
2953,33
2954,33
2955,33
2956,33
2957,33
2958,35
2959,34
2960,33
2961,33
2962,33
2963,33
2964,33
2965,33
2966,33
2967,33
2968,33
2969,33
2970,33
2971,33
2972,33
2973,33
2974,33
2975,33
2976,33
2977,34
2978,33
2979,33
2980,33
2981,33
2982,33
2983,33
2984,33
2985,33
2986,33
2987,33
2988,33
2989,33
2990,33
2991,33
2992,33
2993,33
2994,32
2995,33
2996,32
2997,32
2998,32
2999,32
3000,32
3001,32
3002,32
3003,32
3004,32
3005,32
3006,32
3007,32
3008,32
3009,32
3010,32
3011,32
3012,32
3013,32
3014,32
3015,32
3016,32
3017,32
3018,32
3019,32
3020,32
3021,32
3022,32
3023,32
3024,32
3025,32
3026,32
3027,32
3028,32
3029,32
3030,32
3031,32
3032,32
3033,32
3034,32
3035,32
3036,32
3037,32
3038,32
3039,32
3040,32
3041,32
3042,32
3043,33
3044,32
3045,32
3046,32
3047,32
3048,32
3049,32
3050,32
3051,32
3052,32
3053,32
3054,32
3055,32
3056,32
3057,32
3058,32
3059,32
3060,33
3061,32
3062,32
3063,32
3064,32
3065,32
3066,33
3067,32
3068,33
3069,33
3070,33
3071,33
3072,33
3073,33
3074,33
3075,33
3076,33
3077,33
3078,33
3079,33
3080,34
3081,34
3082,34
3083,34
3084,34
3085,34
3086,34
3087,34
3088,34
3089,34
3090,34
3091,34
3092,34
3093,34
3094,34
3095,34
3096,34
3097,34
3098,34
3099,34
3100,34
3101,34
3102,34
3103,34
3104,34
3105,35
3106,34
3107,34
3108,34
3109,34
3110,34
3111,34
3112,35
3113,34
3114,34
3115,34
3116,33
3117,33
3118,33
3119,33
3120,33
3121,33
3122,33
3123,33
3124,33
3125,33
3126,33
3127,33
3128,33
3129,33
3130,33
3131,33
3132,33
3133,33
3134,33
3135,33
3136,33
3137,33
3138,33
3139,33
3140,33
3141,33
3142,33
3143,33
3144,33
3145,33
3146,33
3147,33
3148,33
3149,33
3150,34
3151,34
3152,34
3153,34
3154,34
3155,34
3156,34
3157,34
3158,34
3159,34
3160,34
3161,34
3162,34
3163,34
3164,34
3165,34
3166,34
3167,34
3168,34
3169,34
3170,34
3171,34
3172,34
3173,34
3174,34
3175,34
3176,34
3177,34
3178,35
3179,35
3180,35
3181,35
3182,35
3183,35
3184,35
3185,35
3186,35
3187,35
3188,35
3189,35
3190,35
3191,35
3192,34
3193,34
3194,34
3195,35
3196,35
3197,35
3198,35
3199,35
3200,35
3201,36
3202,35
3203,35
3204,34
3205,34
3206,34
3207,35
3208,36
3209,36
3210,36
3211,36
3212,36
3213,36
3214,36
3215,36
3216,36
3217,36
3218,35
3219,35
3220,34
3221,35
3222,35
3223,35
3224,35
3225,35
3226,35
3227,34
3228,34
3229,34
3230,35
3231,35
3232,35
3233,35
3234,35
3235,35
3236,35
3237,35
3238,35
3239,35
3240,35
3241,35
3242,35
3243,36
3244,37
3245,36
3246,36
3247,36
3248,35
3249,35
3250,35
3251,35
3252,35
3253,35
3254,35
3255,35
3256,35
3257,35
3258,35
3259,35
3260,35
3261,35
3262,35
3263,35
3264,35
3265,35
3266,35
3267,35
3268,35
3269,36
3270,35
3271,35
3272,35
3273,35
3274,35
3275,35
3276,35
3277,35
3278,35
3279,35
3280,35
3281,35
3282,35
3283,35
3284,35
3285,35
3286,35
3287,35
3288,36
3289,35
3290,35
3291,35
3292,35
3293,35
3294,35
3295,35
3296,35
3297,35
3298,35
3299,36
3300,35
3301,35
3302,35
3303,35
3304,35
3305,36
3306,36
3307,35
3308,35
3309,35
3310,35
3311,35
3312,35
3313,35
3314,35
3315,35
3316,35
3317,35
3318,35
3319,35
3320,35
3321,35
3322,35
3323,35
3324,35
3325,35
3326,35
3327,35
3328,35
3329,35
3330,36
3331,36
3332,35
3333,35
3334,35
3335,35
3336,35
3337,35
3338,35
3339,35
3340,35
3341,35
3342,35
3343,35
3344,35
3345,35
3346,35
3347,35
3348,35
3349,35
3350,35
3351,35
3352,35
3353,35
3354,35
3355,35
3356,34
3357,34
3358,34
3359,34
3360,34
3361,34
3362,34
3363,34
3364,34
3365,35
3366,34
3367,34
3368,34
3369,34
3370,34
3371,34
3372,34
3373,34
3374,34
3375,35
3376,35
3377,35
3378,34
3379,34
3380,34
3381,34
3382,35
3383,35
3384,34
3385,34
3386,34
3387,34
3388,34
3389,34
3390,34
3391,34
3392,34
3393,34
3394,34
3395,34
3396,34
3397,34
3398,34
3399,34
3400,34
3401,34
3402,34
3403,35
3404,34
3405,34
3406,35
3407,34
3408,34
3409,34
3410,34
3411,34
3412,35
3413,35
3414,35
3415,35
3416,34
3417,34
3418,34
3419,34
3420,34
3421,34
3422,34
3423,35
3424,38
3425,37
3426,36
3427,36
3428,36
3429,36
3430,36
3431,36
3432,36
3433,36
3434,36
3435,36
3436,36
3437,35
3438,35
3439,35
3440,35
3441,35
3442,35
3443,35
3444,35
3445,35
3446,35
3447,35
3448,34
3449,34
3450,35
3451,35
3452,34
3453,34
3454,34
3455,34
3456,34
3457,35
3458,34
3459,34
3460,34
3461,34
3462,34
3463,34
3464,34
3465,34
3466,34
3467,34
3468,34
3469,34
3470,34
3471,34
3472,34
3473,34
3474,34
3475,34
3476,34
3477,34
3478,34
3479,34
3480,34
3481,34
3482,34
3483,34
3484,34
3485,34
3486,34
3487,34
3488,34
3489,34
3490,34
3491,34
3492,34
3493,34
3494,34
3495,34
3496,34
3497,34
3498,34
3499,34
3500,34
3501,34
3502,34
3503,34
3504,34
3505,34
3506,34
3507,34
3508,34
3509,34
3510,34
3511,34
3512,34
3513,34
3514,35
3515,34
3516,34
3517,34
3518,34
3519,34
3520,34
3521,34
3522,34
3523,35
3524,34
3525,34
3526,34
3527,34
3528,34
3529,34
3530,34
3531,34
3532,34
3533,35
3534,34
3535,34
3536,34
3537,36
3538,36
3539,36
3540,35
3541,35
3542,35
3543,34
3544,34
3545,34
3546,34
3547,34
3548,34
3549,34
3550,34
3551,34
3552,34
3553,34
3554,34
3555,34
3556,34
3557,34
3558,34
3559,34
3560,34
3561,35
3562,35
3563,34
3564,34
3565,34
3566,34
3567,34
3568,34
3569,34
3570,34
3571,34
3572,34
3573,34
3574,34
3575,34
3576,34
3577,34
3578,34
3579,34
3580,34
3581,34
3582,34
3583,34
3584,34
3585,34
3586,34
3587,34
3588,34
3589,34
3590,34
3591,34
3592,34
3593,34
3594,34
3595,34
3596,34
3597,34
3598,34
3599,34
3600,34
3601,34
3602,34
3603,34
3604,34
3605,34
3606,34
3607,34
3608,34
3609,34
3610,34
3611,34
3612,34
3613,34
3614,34
3615,34
3616,34
3617,34
3618,34
3619,34
3620,34
3621,34
3622,34
3623,34
3624,34
3625,34
3626,34
3627,34
3628,34
3629,34
3630,34
3631,34
3632,34
3633,34
3634,35
3635,35
3636,35
3637,34
3638,34
3639,34
3640,34
3641,34
3642,34
3643,34
3644,34
3645,35
3646,34
3647,34
3648,34
3649,34
3650,34
3651,34
3652,34
3653,34
3654,34
3655,34
3656,34
3657,34
3658,35
3659,35
3660,35
3661,35
3662,35
3663,35
3664,35
3665,36
3666,36
3667,36
3668,36
3669,35
3670,35
3671,35
3672,35
3673,35
3674,35
3675,35
3676,36
3677,35
3678,35
3679,35
3680,35
3681,36
3682,36
3683,36
3684,36
3685,35
3686,35
3687,35
3688,35
3689,35
3690,35
3691,35
3692,35
3693,35
3694,35
3695,35
3696,35
3697,35
3698,35
3699,35
3700,35
3701,35
3702,35
3703,35
3704,35
3705,35
3706,35
3707,35
3708,35
3709,35
3710,35
3711,35
3712,35
3713,36
3714,35
3715,35
3716,35
3717,35
3718,35
3719,35
3720,35
3721,35
3722,35
3723,35
3724,34
3725,34
3726,34
3727,34
3728,34
3729,34
3730,34
3731,34
3732,34
3733,34
3734,34
3735,34
3736,34
3737,34
3738,34
3739,34
3740,35
3741,36
3742,35
3743,35
3744,34
3745,34
3746,34
3747,34
3748,34
3749,34
3750,34
3751,34
3752,34
3753,34
3754,34
3755,34
3756,34
3757,34
3758,34
3759,34
3760,34
3761,34
3762,34
3763,34
3764,34
3765,34
3766,34
3767,34
3768,34
3769,34
3770,34
3771,34
3772,34
3773,34
3774,34
3775,34
3776,34
3777,34
3778,34
3779,34
3780,34
3781,34
3782,34
3783,34
3784,34
3785,34
3786,34
3787,34
3788,34
3789,34
3790,34
3791,34
3792,34
3793,34
3794,34
3795,34
3796,34
3797,34
3798,34
3799,34
3800,34
3801,35
3802,34
3803,34
3804,34
3805,34
3806,34
3807,34
3808,34
3809,35
3810,35
3811,35
3812,35
3813,35
3814,35
3815,35
3816,35
3817,35
3818,35
3819,35
3820,35
3821,35
3822,35
3823,35
3824,35
3825,35
3826,35
3827,35
3828,35
3829,35
3830,35
3831,35
3832,35
3833,35
3834,35
3835,35
3836,36
3837,36
3838,36
3839,36
3840,36
3841,36
3842,36
3843,36
3844,36
3845,36
3846,35
3847,35
3848,35
3849,35
3850,35
3851,35
3852,34
3853,34
3854,34
3855,34
3856,34
3857,34
3858,34
3859,35
3860,34
3861,34
3862,34
3863,34
3864,34
3865,34
3866,34
3867,35
3868,34
3869,34
3870,35
3871,35
3872,35
3873,35
3874,35
3875,34
3876,34
3877,34
3878,34
3879,34
3880,34
3881,34
3882,34
3883,34
3884,34
3885,34
3886,34
3887,34
3888,34
3889,34
3890,34
3891,34
3892,34
3893,34
3894,34
3895,34
3896,34
3897,34
3898,35
3899,35
3900,35
3901,35
3902,34
3903,34
3904,34
3905,34
3906,34
3907,34
3908,34
3909,34
3910,34
3911,34
3912,34
3913,34
3914,34
3915,34
3916,34
3917,34
3918,34
3919,34
3920,34
3921,34
3922,34
3923,34
3924,34
3925,34
3926,34
3927,34
3928,34
3929,34
3930,34
3931,34
3932,34
3933,34
3934,34
3935,34
3936,35
3937,35
3938,35
3939,35
3940,35
3941,34
3942,34
3943,34
3944,34
3945,34
3946,34
3947,34
3948,34
3949,34
3950,34
3951,35
3952,35
3953,35
3954,35
3955,34
3956,34
3957,34
3958,34
3959,34
3960,34
3961,34
3962,34
3963,34
3964,34
3965,34
3966,34
3967,34
3968,34
3969,34
3970,34
3971,34
3972,34
3973,34
3974,34
3975,34
3976,34
3977,34
3978,34
3979,34
3980,34
3981,34
3982,34
3983,34
3984,34
3985,34
3986,34
3987,34
3988,34
3989,34
3990,34
3991,34
3992,34
3993,34
3994,34
3995,34
3996,35
3997,34
3998,34
3999,34
4000,34
4001,34
4002,35
4003,35
4004,34
4005,34
4006,34
4007,34
4008,34
4009,34
4010,34
4011,34
4012,34
4013,35
4014,35
4015,34
4016,34
4017,34
4018,34
4019,34
4020,34
4021,34
4022,34
4023,35
4024,35
4025,35
4026,35
4027,35
4028,35
4029,35
4030,35
4031,37
4032,36
4033,36
4034,36
4035,36
4036,36
4037,36
4038,36
4039,36
4040,37
4041,36
4042,36
4043,36
4044,35
4045,35
4046,35
4047,35
4048,35
4049,35
4050,35
4051,35
4052,35
4053,35
4054,35
4055,35
4056,36
4057,36
4058,36
4059,36
4060,36
4061,36
4062,36
4063,36
4064,36
4065,36
4066,36
4067,37
4068,36
4069,36
4070,36
4071,36
4072,35
4073,35
4074,35
4075,35
4076,35
4077,35
4078,35
4079,35
4080,35
4081,35
4082,35
4083,36
4084,36
4085,36
4086,36
4087,35
4088,35
4089,35
4090,35
4091,35
4092,35
4093,35
4094,35
4095,35
4096,35
4097,35
4098,35
4099,35
4100,35
4101,35
4102,35
4103,35
4104,35
4105,35
4106,35
4107,36
4108,35
4109,35
4110,35
4111,35
4112,36
4113,37
4114,36
4115,36
4116,36
4117,36
4118,36
4119,36
4120,35
4121,35
4122,35
4123,35
4124,35
4125,35
4126,35
4127,35
4128,35
4129,35
4130,35
4131,35
4132,35
4133,35
4134,35
4135,35
4136,35
4137,35
4138,35
4139,35
4140,35
4141,35
4142,35
4143,35
4144,35
4145,35
4146,35
4147,35
4148,36
4149,36
4150,35
4151,35
4152,35
4153,35
4154,35
4155,35
4156,35
4157,35
4158,35
4159,36
4160,36
4161,36
4162,36
4163,36
4164,35
4165,36
4166,36
4167,36
4168,35
4169,35
4170,35
4171,36
4172,37
4173,37
4174,36
4175,37
4176,37
4177,37
4178,37
4179,36
4180,36
4181,36
4182,36
4183,36
4184,36
4185,36
4186,36
4187,36
4188,36
4189,36
4190,36
4191,36
4192,36
4193,36
4194,36
4195,36
4196,36
4197,36
4198,37
4199,37
4200,37
4201,37
4202,37
4203,37
4204,37
4205,37
4206,37
4207,37
4208,37
4209,38
4210,36
4211,37
4212,37
4213,37
4214,37
4215,37
4216,37
4217,36
4218,36
4219,36
4220,36
4221,36
4222,36
4223,36
4224,36
4225,36
4226,36
4227,37
4228,36
4229,36
4230,36
4231,36
4232,36
4233,36
4234,36
4235,36
4236,36
4237,36
4238,36
4239,36
4240,36
4241,36
4242,36
4243,36
4244,36
4245,36
4246,36
4247,36
4248,36
4249,36
4250,37
4251,36
4252,36
4253,36
4254,36
4255,36
4256,35
4257,36
4258,35
4259,35
4260,35
4261,35
4262,35
4263,35
4264,35
4265,35
4266,35
4267,35
4268,35
4269,35
4270,35
4271,35
4272,35
4273,35
4274,35
4275,35
4276,35
4277,35
4278,35
4279,35
4280,35
4281,35
4282,35
4283,35
4284,35
4285,35
4286,35
4287,35
4288,35
4289,35
4290,35
4291,35
4292,35
4293,35
4294,35
4295,35
4296,35
4297,36
4298,36
4299,36
4300,36
4301,35
4302,35
4303,35
4304,35
4305,36
4306,35
4307,35
4308,35
4309,35
4310,36
4311,36
4312,35
4313,35
4314,35
4315,35
4316,35
4317,35
4318,35
4319,35
4320,35
4321,35
4322,35
4323,35
4324,35
4325,35
4326,35
4327,35
4328,35
4329,35
4330,35
4331,35
4332,35
4333,35
4334,35
4335,35
4336,35
4337,35
4338,35
4339,35
4340,35
4341,35
4342,35
4343,37
4344,37
4345,36
4346,36
4347,36
4348,36
4349,36
4350,36
4351,35
4352,35
4353,35
4354,35
4355,35
4356,35
4357,35
4358,35
4359,35
4360,35
4361,35
4362,35
4363,35
4364,35
4365,35
4366,35
4367,35
4368,35
4369,35
4370,35
4371,35
4372,35
4373,35
4374,35
4375,36
4376,36
4377,36
4378,36
4379,37
4380,36
4381,36
4382,36
4383,36
4384,36
4385,36
4386,36
4387,36
4388,36
4389,36
4390,36
4391,36
4392,36
4393,36
4394,36
4395,36
4396,36
4397,36
4398,37
4399,38
4400,38
4401,38
4402,38
4403,38
4404,38
4405,37
4406,37
4407,37
4408,38
4409,38
4410,38
4411,37
4412,37
4413,37
4414,37
4415,37
4416,37
4417,39
4418,39
4419,38
4420,39
4421,38
4422,38
4423,38
4424,38
4425,38
4426,38
4427,38
4428,38
4429,38
4430,38
4431,39
4432,38
4433,38
4434,38
4435,38
4436,38
4437,38
4438,38
4439,37
4440,37
4441,37
4442,37
4443,37
4444,37
4445,37
4446,38
4447,37
4448,37
4449,38
4450,38
4451,38
4452,38
4453,38
4454,39
4455,38
4456,38
4457,38
4458,38
4459,38
4460,38
4461,37
4462,37
4463,37
4464,38
4465,37
4466,36
4467,36
4468,36
4469,36
4470,36
4471,36
4472,36
4473,36
4474,36
4475,36
4476,36
4477,36
4478,36
4479,36
4480,36
4481,36
4482,35
4483,35
4484,35
4485,35
4486,35
4487,35
4488,36
4489,36
4490,35
4491,35
4492,35
4493,35
4494,35
4495,35
4496,35
4497,35
4498,35
4499,35
4500,35
4501,36
4502,35
4503,35
4504,35
4505,35
4506,35
4507,36
4508,37
4509,36
4510,35
4511,35
4512,36
4513,37
4514,37
4515,36
4516,36
4517,36
4518,35
4519,35
4520,35
4521,35
4522,35
4523,35
4524,35
4525,35
4526,35
4527,35
4528,35
4529,35
4530,35
4531,35
4532,35
4533,35
4534,35
4535,35
4536,35
4537,35
4538,35
4539,35
4540,35
4541,35
4542,35
4543,35
4544,35
4545,35
4546,35
4547,35
4548,35
4549,35
4550,35
4551,35
4552,34
4553,34
4554,34
4555,34
4556,34
4557,34
4558,34
4559,34
4560,34
4561,34
4562,34
4563,34
4564,34
4565,34
4566,34
4567,35
4568,35
4569,35
4570,34
4571,34
4572,34
4573,34
4574,34
4575,34
4576,34
4577,34
4578,34
4579,34
4580,34
4581,34
4582,34
4583,34
4584,34
4585,34
4586,34
4587,35
4588,35
4589,36
4590,36
4591,36
4592,35
4593,36
4594,35
4595,35
4596,34
4597,34
4598,34
4599,34
4600,34
4601,34
4602,34
4603,34
4604,34
4605,34
4606,34
4607,34
4608,35
4609,35
4610,35
4611,35
4612,35
4613,35
4614,35
4615,35
4616,35
4617,35
4618,35
4619,35
4620,35
4621,35
4622,34
4623,34
4624,34
4625,34
4626,34
4627,34
4628,34
4629,34
4630,34
4631,34
4632,34
4633,34
4634,34
4635,34
4636,34
4637,35
4638,35
4639,35
4640,35
4641,35
4642,35
4643,35
4644,35
4645,35
4646,35
4647,35
4648,35
4649,35
4650,35
4651,35
4652,35
4653,35
4654,35
4655,35
4656,35
4657,35
4658,35
4659,35
4660,35
4661,36
4662,35
4663,35
4664,35
4665,36
4666,35
4667,35
4668,35
4669,35
4670,35
4671,35
4672,35
4673,35
4674,35
4675,35
4676,35
4677,35
4678,35
4679,36
4680,36
4681,36
4682,36
4683,36
4684,36
4685,37
4686,37
4687,36
4688,36
4689,36
4690,37
4691,36
4692,36
4693,36
4694,37
4695,38
4696,38
4697,38
4698,38
4699,38
4700,38
4701,37
4702,37
4703,36
4704,36
4705,36
4706,36
4707,36
4708,36
4709,36
4710,38
4711,38
4712,38
4713,38
4714,38
4715,38
4716,38
4717,37
4718,37
4719,38
4720,37
4721,37
4722,37
4723,37
4724,37
4725,37
4726,37
4727,37
4728,37
4729,37
4730,37
4731,38
4732,38
4733,38
4734,38
4735,37
4736,37
4737,37
4738,37
4739,37
4740,37
4741,37
4742,37
4743,37
4744,37
4745,37
4746,36
4747,37
4748,37
4749,37
4750,37
4751,37
4752,38
4753,38
4754,37
4755,37
4756,37
4757,37
4758,37
4759,37
4760,37
4761,37
4762,37
4763,37
4764,37
4765,37
4766,37
4767,37
4768,37
4769,37
4770,37
4771,38
4772,37
4773,37
4774,37
4775,37
4776,37
4777,37
4778,37
4779,37
4780,37
4781,37
4782,37
4783,36
4784,36
4785,36
4786,36
4787,36
4788,36
4789,36
4790,36
4791,37
4792,37
4793,37
4794,37
4795,37
4796,37
4797,37
4798,38
4799,38
4800,38
4801,38
4802,38
4803,38
4804,37
4805,37
4806,37
4807,37
4808,37
4809,37
4810,38
4811,37
4812,37
4813,37
4814,37
4815,37
4816,37
4817,37
4818,37
4819,37
4820,37
4821,37
4822,37
4823,37
4824,37
4825,37
4826,37
4827,38
4828,38
4829,38
4830,39
4831,38
4832,37
4833,37
4834,37
4835,37
4836,37
4837,37
4838,37
4839,37
4840,37
4841,37
4842,37
4843,37
4844,37
4845,37
4846,37
4847,37
4848,37
4849,37
4850,37
4851,37
4852,37
4853,37
4854,37
4855,37
4856,37
4857,37
4858,37
4859,37
4860,37
4861,37
4862,37
4863,37
4864,37
4865,37
4866,37
4867,37
4868,37
4869,37
4870,37
4871,38
4872,39
4873,38
4874,38
4875,38
4876,38
4877,38
4878,38
4879,38
4880,38
4881,38
4882,38
4883,38
4884,38
4885,38
4886,38
4887,39
4888,38
4889,38
4890,38
4891,39
4892,38
4893,38
4894,38
4895,38
4896,38
4897,37
4898,37
4899,37
4900,38
4901,38
4902,38
4903,38
4904,38
4905,38
4906,38
4907,38
4908,38
4909,38
4910,38
4911,38
4912,38
4913,37
4914,37
4915,37
4916,37
4917,37
4918,37
4919,37
4920,37
4921,37
4922,37
4923,37
4924,37
4925,37
4926,37
4927,37
4928,37
4929,37
4930,37
4931,37
4932,37
4933,37
4934,37
4935,37
4936,37
4937,37
4938,37
4939,37
4940,37
4941,37
4942,37
4943,37
4944,37
4945,37
4946,37
4947,37
4948,37
4949,37
4950,37
4951,37
4952,37
4953,37
4954,37
4955,37
4956,37
4957,37
4958,37
4959,37
4960,37
4961,37
4962,37
4963,37
4964,37
4965,37
4966,36
4967,36
4968,36
4969,36
4970,36
4971,36
4972,36
4973,36
4974,36
4975,36
4976,36
4977,36
4978,36
4979,36
4980,36
4981,36
4982,36
4983,36
4984,36
4985,36
4986,36
4987,36
4988,36
4989,36
4990,36
4991,36
4992,36
4993,36
4994,36
4995,36
4996,36
4997,36
4998,36
4999,36
5000,36
5001,36
5002,36
5003,36
5004,36
5005,36
5006,36
5007,36
5008,36
5009,36
5010,36
5011,36
5012,36
5013,36
5014,36
5015,36
5016,36
5017,37
5018,37
5019,37
5020,37
5021,37
5022,37
5023,37
5024,37
5025,37
5026,37
5027,37
5028,37
5029,37
5030,37
5031,37
5032,38
5033,38
5034,38
5035,38
5036,38
5037,38
5038,38
5039,38
5040,38
5041,38
5042,38
5043,38
5044,38
5045,38
5046,38
5047,38
5048,39
5049,39
5050,38
5051,38
5052,38
5053,37
5054,37
5055,37
5056,37
5057,37
5058,37
5059,37
5060,37
5061,37
5062,37
5063,37
5064,37
5065,37
5066,36
5067,36
5068,36
5069,36
5070,35
5071,35
5072,36
5073,36
5074,35
5075,35
5076,35
5077,35
5078,35
5079,35
5080,35
5081,36
5082,36
5083,36
5084,36
5085,36
5086,36
5087,36
5088,36
5089,36
5090,36
5091,36
5092,36
5093,36
5094,36
5095,36
5096,36
5097,36
5098,36
5099,36
5100,36
5101,36
5102,36
5103,36
5104,36
5105,36
5106,36
5107,36
5108,36
5109,36
5110,36
5111,36
5112,36
5113,36
5114,36
5115,36
5116,36
5117,36
5118,36
5119,36
5120,36
5121,36
5122,36
5123,36
5124,36
5125,36
5126,36
5127,36
5128,35
5129,35
5130,35
5131,35
5132,35
5133,35
5134,36
5135,36
5136,36
5137,35
5138,35
5139,35
5140,35
5141,35
5142,35
5143,35
5144,35
5145,36
5146,35
5147,35
5148,35
5149,35
5150,35
5151,35
5152,35
5153,35
5154,35
5155,35
5156,35
5157,35
5158,35
5159,35
5160,35
5161,35
5162,35
5163,35
5164,35
5165,35
5166,35
5167,35
5168,35
5169,35
5170,36
5171,35
5172,36
5173,36
5174,36
5175,36
5176,36
5177,36
5178,36
5179,36
5180,36
5181,36
5182,36
5183,36
5184,36
5185,35
5186,35
5187,35
5188,35
5189,35
5190,35
5191,35
5192,35
5193,35
5194,35
5195,35
5196,36
5197,35
5198,35
5199,36
5200,36
5201,35
5202,35
5203,35
5204,35
5205,35
5206,35
5207,35
5208,35
5209,35
5210,35
5211,35
5212,35
5213,35
5214,35
5215,35
5216,36
5217,36
5218,36
5219,36
5220,36
5221,36
5222,36
5223,36
5224,36
5225,36
5226,36
5227,36
5228,36
5229,36
5230,36
5231,36
5232,36
5233,35
5234,35
5235,35
5236,35
5237,35
5238,35
5239,35
5240,35
5241,35
5242,35
5243,35
5244,35
5245,36
5246,35
5247,35
5248,35
5249,35
5250,35
5251,35
5252,35
5253,35
5254,35
5255,35
5256,35
5257,35
5258,35
5259,35
5260,35
5261,35
5262,36
5263,36
5264,36
5265,36
5266,36
5267,36
5268,36
5269,36
5270,36
5271,36
5272,36
5273,36
5274,36
5275,36
5276,36
5277,36
5278,36
5279,36
5280,36
5281,36
5282,36
5283,36
5284,37
5285,37
5286,36
5287,36
5288,36
5289,36
5290,36
5291,36
5292,36
5293,36
5294,36
5295,36
5296,36
5297,36
5298,36
5299,36
5300,36
5301,36
5302,36
5303,36
5304,37
5305,38
5306,37
5307,37
5308,37
5309,38
5310,37
5311,37
5312,37
5313,37
5314,37
5315,37
5316,37
5317,37
5318,37
5319,37
5320,38
5321,38
5322,38
5323,38
5324,38
5325,38
5326,36
5327,36
5328,36
5329,36
5330,36
5331,36
5332,36
5333,36
5334,36
5335,36
5336,36
5337,36
5338,36
5339,36
5340,36
5341,36
5342,36
5343,36
5344,36
5345,36
5346,36
5347,36
5348,36
5349,36
5350,36
5351,36
5352,36
5353,37
5354,37
5355,37
5356,37
5357,37
5358,37
5359,37
5360,37
5361,36
5362,36
5363,36
5364,36
5365,36
5366,36
5367,36
5368,37
5369,36
5370,36
5371,36
5372,36
5373,36
5374,36
5375,36
5376,36
5377,36
5378,36
5379,36
5380,36
5381,36
5382,36
5383,36
5384,36
5385,36
5386,37
5387,36
5388,36
5389,37
5390,37
5391,37
5392,35
5393,35
5394,35
5395,35
5396,35
5397,35
5398,35
5399,34
5400,35
5401,34
5402,34
5403,34
5404,34
5405,34
5406,34
5407,34
5408,34
5409,34
5410,34
5411,34
5412,35
5413,35
5414,35
5415,35
5416,35
5417,35
5418,35
5419,35
5420,35
5421,35
5422,35
5423,34
5424,34
5425,34
5426,34
5427,34
5428,35
5429,34
5430,34
5431,34
5432,34
5433,34
5434,34
5435,34
5436,34
5437,34
5438,34
5439,34
5440,34
5441,34
5442,34
5443,34
5444,34
5445,34
5446,34
5447,34
5448,35
5449,34
5450,34
5451,34
5452,34
5453,34
5454,34
5455,34
5456,34
5457,35
5458,35
5459,35
5460,35
5461,35
5462,35
5463,35
5464,35
5465,35
5466,35
5467,35
5468,35
5469,35
5470,35
5471,35
5472,35
5473,35
5474,36
5475,36
5476,36
5477,36
5478,36
5479,36
5480,36
5481,36
5482,36
5483,36
5484,36
5485,36
5486,36
5487,36
5488,35
5489,35
5490,35
5491,35
5492,35
5493,35
5494,35
5495,35
5496,35
5497,35
5498,35
5499,35
5500,35
5501,35
5502,35
5503,36
5504,36
5505,36
5506,36
5507,36
5508,37
5509,37
5510,36
5511,37
5512,37
5513,36
5514,36
5515,36
5516,36
5517,35
5518,35
5519,35
5520,35
5521,35
5522,35
5523,35
5524,35
5525,35
5526,35
5527,35
5528,35
5529,35
5530,35
5531,35
5532,35
5533,35
5534,35
5535,35
5536,35
5537,35
5538,35
5539,35
5540,35
5541,35
5542,35
5543,35
5544,35
5545,35
5546,35
5547,35
5548,35
5549,35
5550,36
5551,36
5552,35
5553,35
5554,35
5555,36
5556,37
5557,37
5558,36
5559,36
5560,35
5561,35
5562,35
5563,35
5564,35
5565,35
5566,35
5567,35
5568,35
5569,35
5570,35
5571,35
5572,35
5573,35
5574,36
5575,37
5576,36
5577,36
5578,36
5579,36
5580,36
5581,36
5582,36
5583,36
5584,36
5585,36
5586,36
5587,36
5588,37
5589,36
5590,36
5591,36
5592,36
5593,36
5594,36
5595,36
5596,36
5597,35
5598,35
5599,35
5600,35
5601,35
5602,35
5603,35
5604,35
5605,35
5606,35
5607,35
5608,36
5609,36
5610,36
5611,36
5612,36
5613,36
5614,36
5615,36
5616,36
5617,35
5618,35
5619,35
5620,35
5621,35
5622,35
5623,35
5624,35
5625,35
5626,35
5627,35
5628,35
5629,35
5630,35
5631,35
5632,35
5633,35
5634,35
5635,35
5636,35
5637,35
5638,35
5639,35
5640,35
5641,35
5642,35
5643,35
5644,35
5645,35
5646,35
5647,35
5648,35
5649,35
5650,35
5651,35
5652,35
5653,35
5654,35
5655,35
5656,35
5657,35
5658,35
5659,35
5660,35
5661,35
5662,35
5663,35
5664,35
5665,35
5666,35
5667,35
5668,35
5669,35
5670,36
5671,36
5672,36
5673,36
5674,37
5675,37
5676,37
5677,37
5678,37
5679,37
5680,37
5681,37
5682,37
5683,37
5684,37
5685,37
5686,37
5687,37
5688,37
5689,37
5690,37
5691,37
5692,37
5693,37
5694,37
5695,37
5696,37
5697,37
5698,37
5699,37
5700,37
5701,36
5702,36
5703,36
5704,36
5705,36
5706,36
5707,36
5708,36
5709,36
5710,36
5711,36
5712,36
5713,37
5714,36
5715,36
5716,36
5717,36
5718,36
5719,36
5720,36
5721,36
5722,36
5723,36
5724,36
5725,36
5726,36
5727,36
5728,36
5729,36
5730,36
5731,36
5732,36
5733,36
5734,36
5735,36
5736,37
5737,37
5738,37
5739,37
5740,36
5741,36
5742,36
5743,36
5744,36
5745,36
5746,37
5747,36
5748,36
5749,36
5750,36
5751,36
5752,36
5753,36
5754,36
5755,36
5756,36
5757,36
5758,36
5759,37
5760,37
5761,37
5762,37
5763,37
5764,37
5765,37
5766,37
5767,37
5768,37
5769,37
5770,36
5771,36
5772,36
5773,36
5774,36
5775,36
5776,36
5777,36
5778,36
5779,36
5780,36
5781,38
5782,38
5783,38
5784,38
5785,37
5786,37
5787,37
5788,37
5789,38
5790,37
5791,36
5792,36
5793,36
5794,36
5795,36
5796,36
5797,36
5798,37
5799,37
5800,37
5801,38
5802,38
5803,37
5804,37
5805,37
5806,37
5807,37
5808,37
5809,37
5810,37
5811,37
5812,37
5813,37
5814,37
5815,37
5816,37
5817,37
5818,37
5819,37
5820,37
5821,37
5822,38
5823,38
5824,38
5825,38
5826,38
5827,38
5828,37
5829,37
5830,37
5831,37
5832,37
5833,37
5834,37
5835,37
5836,38
5837,38
5838,37
5839,37
5840,37
5841,37
5842,37
5843,37
5844,38
5845,37
5846,37
5847,37
5848,37
5849,37
5850,37
5851,37
5852,38
5853,37
5854,38
5855,37
5856,37
5857,37
5858,37
5859,37
5860,37
5861,36
5862,37
5863,37
5864,37
5865,37
5866,37
5867,36
5868,36
5869,36
5870,36
5871,36
5872,36
5873,36
5874,36
5875,36
5876,36
5877,36
5878,36
5879,36
5880,36
5881,36
5882,36
5883,36
5884,36
5885,36
5886,36
5887,36
5888,36
5889,36
5890,36
5891,36
5892,36
5893,36
5894,36
5895,36
5896,36
5897,36
5898,36
5899,36
5900,36
5901,36
5902,36
5903,36
5904,36
5905,36
5906,36
5907,36
5908,36
5909,36
5910,36
5911,36
5912,36
5913,37
5914,37
5915,37
5916,37
5917,37
5918,37
5919,36
5920,36
5921,36
5922,36
5923,36
5924,36
5925,36
5926,36
5927,36
5928,36
5929,36
5930,36
5931,36
5932,36
5933,36
5934,36
5935,36
5936,36
5937,36
5938,36
5939,36
5940,37
5941,37
5942,38
5943,38
5944,38
5945,37
5946,37
5947,37
5948,37
5949,37
5950,37
5951,37
5952,37
5953,37
5954,37
5955,37
5956,37
5957,37
5958,37
5959,37
5960,37
5961,37
5962,37
5963,38
5964,38
5965,37
5966,36
5967,36
5968,37
5969,38
5970,38
5971,38
5972,37
5973,37
5974,37
5975,37
5976,37
5977,37
5978,37
5979,37
5980,37
5981,37
5982,38
5983,37
5984,37
5985,37
5986,37
5987,37
5988,37
5989,37
5990,37
5991,37
5992,37
5993,37
5994,37
5995,37
5996,37
5997,37
5998,37
5999,37
6000,37
6001,37
6002,37
6003,37
6004,37
6005,37
6006,37
6007,37
6008,37
6009,37
6010,37
6011,37
6012,37
6013,37
6014,39
6015,39
6016,39
6017,39
6018,38
6019,38
6020,37
6021,37
6022,37
6023,37
6024,37
6025,37
6026,37
6027,37
6028,37
6029,37
6030,37
6031,37
6032,37
6033,37
6034,37
6035,37
6036,37
6037,37
6038,37
6039,37
6040,37
6041,37
6042,37
6043,37
6044,37
6045,37
6046,37
6047,37
6048,37
6049,37
6050,37
6051,37
6052,37
6053,37
6054,37
6055,37
6056,37
6057,37
6058,37
6059,37
6060,37
6061,37
6062,38
6063,38
6064,38
6065,38
6066,38
6067,38
6068,38
6069,38
6070,38
6071,38
6072,38
6073,39
6074,38
6075,38
6076,38
6077,38
6078,38
6079,38
6080,38
6081,38
6082,38
6083,38
6084,38
6085,38
6086,38
6087,38
6088,38
6089,39
6090,39
6091,38
6092,38
6093,38
6094,39
6095,38
6096,38
6097,38
6098,38
6099,39
6100,39
6101,37
6102,37
6103,37
6104,37
6105,37
6106,37
6107,37
6108,37
6109,37
6110,37
6111,37
6112,37
6113,37
6114,37
6115,37
6116,37
6117,37
6118,37
6119,37
6120,37
6121,37
6122,37
6123,37
6124,37
6125,37
6126,37
6127,38
6128,37
6129,37
6130,37
6131,37
6132,37
6133,37
6134,37
6135,37
6136,37
6137,37
6138,37
6139,37
6140,38
6141,39
6142,39
6143,39
6144,40
6145,39
6146,39
6147,40
6148,38
6149,38
6150,37
6151,37
6152,37
6153,37
6154,38
6155,38
6156,38
6157,38
6158,38
6159,38
6160,38
6161,38
6162,37
6163,37
6164,37
6165,38
6166,37
6167,37
6168,37
6169,37
6170,37
6171,37
6172,37
6173,37
6174,37
6175,37
6176,37
6177,37
6178,37
6179,37
6180,37
6181,37
6182,37
6183,37
6184,37
6185,37
6186,37
6187,37
6188,37
6189,37
6190,37
6191,37
6192,37
6193,37
6194,37
6195,37
6196,37
6197,37
6198,37
6199,37
6200,37
6201,37
6202,37
6203,37
6204,37
6205,36
6206,36
6207,36
6208,36
6209,36
6210,36
6211,36
6212,36
6213,36
6214,36
6215,36
6216,35
6217,35
6218,35
6219,35
6220,35
6221,35
6222,35
6223,35
6224,35
6225,35
6226,35
6227,35
6228,35
6229,35
6230,35
6231,35
6232,35
6233,35
6234,35
6235,35
6236,35
6237,35
6238,34
6239,34
6240,34
6241,34
6242,34
6243,34
6244,34
6245,34
6246,34
6247,34
6248,34
6249,34
6250,34
6251,34
6252,34
6253,34
6254,34
6255,34
6256,34
6257,34
6258,34
6259,34
6260,34
6261,34
6262,34
6263,34
6264,34
6265,34
6266,34
6267,34
6268,34
6269,34
6270,34
6271,34
6272,34
6273,35
6274,36
6275,34
6276,34
6277,34
6278,34
6279,34
6280,34
6281,34
6282,34
6283,34
6284,34
6285,34
6286,34
6287,34
6288,34
6289,34
6290,34
6291,34
6292,34
6293,34
6294,34
6295,36
6296,35
6297,35
6298,35
6299,35
6300,35
6301,35
6302,35
6303,35
6304,36
6305,36
6306,36
6307,35
6308,35
6309,34
6310,34
6311,34
6312,35
6313,34
6314,35
6315,35
6316,34
6317,34
6318,34
6319,34
6320,34
6321,34
6322,34
6323,34
6324,34
6325,34
6326,34
6327,34
6328,34
6329,34
6330,34
6331,34
6332,34
6333,34
6334,34
6335,34
6336,34
6337,34
6338,34
6339,34
6340,34
6341,34
6342,34
6343,34
6344,34
6345,34
6346,34
6347,34
6348,34
6349,34
6350,34
6351,34
6352,35
6353,35
6354,35
6355,34
6356,34
6357,34
6358,34
6359,34
6360,34
6361,34
6362,34
6363,34
6364,34
6365,34
6366,34
6367,34
6368,34
6369,34
6370,34
6371,35
6372,34
6373,34
6374,34
6375,34
6376,34
6377,35
6378,34
6379,34
6380,34
6381,34
6382,34
6383,34
6384,34
6385,34
6386,34
6387,34
6388,34
6389,34
6390,34
6391,34
6392,36
6393,34
6394,34
6395,34
6396,34
6397,34
6398,34
6399,34
6400,34
6401,34
6402,34
6403,34
6404,34
6405,34
6406,34
6407,34
6408,34
6409,35
6410,35
6411,35
6412,36
6413,36
6414,36
6415,35
6416,35
6417,35
6418,35
6419,35
6420,35
6421,35
6422,35
6423,35
6424,35
6425,35
6426,35
6427,35
6428,35
6429,35
6430,35
6431,35
6432,35
6433,35
6434,35
6435,35
6436,35
6437,35
6438,35
6439,35
6440,36
6441,36
6442,36
6443,36
6444,36
6445,36
6446,36
6447,36
6448,35
6449,35
6450,35
6451,35
6452,35
6453,36
6454,35
6455,35
6456,36
6457,36
6458,36
6459,36
6460,36
6461,36
6462,36
6463,36
6464,36
6465,37
6466,37
6467,37
6468,37
6469,37
6470,37
6471,37
6472,37
6473,37
6474,37
6475,37
6476,37
6477,36
6478,36
6479,36
6480,36
6481,36
6482,36
6483,36
6484,36
6485,36
6486,36
6487,36
6488,36
6489,36
6490,36
6491,36
6492,36
6493,36
6494,36
6495,37
6496,36
6497,36
6498,36
6499,37
6500,37
6501,36
6502,36
6503,37
6504,37
6505,37
6506,37
6507,37
6508,36
6509,35
6510,35
6511,35
6512,35
6513,35
6514,36
6515,35
6516,35
6517,35
6518,35
6519,35
6520,35
6521,35
6522,35
6523,35
6524,35
6525,35
6526,35
6527,35
6528,35
6529,35
6530,35
6531,35
6532,35
6533,36
6534,36
6535,35
6536,35
6537,35
6538,35
6539,35
6540,35
6541,35
6542,35
6543,35
6544,35
6545,35
6546,35
6547,35
6548,35
6549,34
6550,34
6551,34
6552,34
6553,34
6554,34
6555,34
6556,34
6557,34
6558,34
6559,34
6560,34
6561,34
6562,34
6563,34
6564,34
6565,34
6566,34
6567,34
6568,34
6569,34
6570,34
6571,34
6572,34
6573,34
6574,34
6575,34
6576,35
6577,35
6578,34
6579,34
6580,34
6581,34
6582,34
6583,34
6584,35
6585,35
6586,35
6587,34
6588,34
6589,34
6590,34
6591,34
6592,34
6593,34
6594,34
6595,34
6596,34
6597,34
6598,34
6599,34
6600,34
6601,34
6602,34
6603,35
6604,35
6605,35
6606,35
6607,35
6608,34
6609,34
6610,34
6611,34
6612,33
6613,34
6614,34
6615,34
6616,34
6617,34
6618,33
6619,33
6620,33
6621,33
6622,33
6623,33
6624,33
6625,33
6626,33
6627,33
6628,33
6629,33
6630,33
6631,33
6632,34
6633,33
6634,33
6635,34
6636,34
6637,33
6638,34
6639,34
6640,35
6641,34
6642,34
6643,34
6644,34
6645,34
6646,34
6647,34
6648,35
6649,34
6650,34
6651,34
6652,34
6653,34
6654,34
6655,33
6656,33
6657,33
6658,33
6659,33
6660,33
6661,33
6662,33
6663,33
6664,33
6665,33
6666,33
6667,33
6668,33
6669,33
6670,33
6671,33
6672,34
6673,33
6674,34
6675,34
6676,33
6677,34
6678,34
6679,34
6680,34
6681,35
6682,34
6683,34
6684,34
6685,34
6686,34
6687,34
6688,35
6689,35
6690,35
6691,34
6692,34
6693,34
6694,34
6695,36
6696,35
6697,34
6698,34
6699,34
6700,34
6701,34
6702,34
6703,34
6704,34
6705,34
6706,34
6707,34
6708,34
6709,34
6710,34
6711,34
6712,34
6713,34
6714,34
6715,34
6716,34
6717,34
6718,34
6719,34
6720,34
6721,34
6722,34
6723,34
6724,34
6725,34
6726,34
6727,34
6728,34
6729,34
6730,34
6731,34
6732,34
6733,34
6734,35
6735,35
6736,35
6737,34
6738,34
6739,34
6740,34
6741,34
6742,34
6743,34
6744,34
6745,34
6746,34
6747,34
6748,34
6749,34
6750,34
6751,35
6752,35
6753,35
6754,35
6755,34
6756,34
6757,34
6758,34
6759,34
6760,34
6761,34
6762,34
6763,34
6764,34
6765,34
6766,35
6767,34
6768,34
6769,34
6770,34
6771,34
6772,34
6773,35
6774,34
6775,34
6776,34
6777,34
6778,34
6779,34
6780,34
6781,34
6782,34
6783,34
6784,34
6785,34
6786,35
6787,35
6788,35
6789,34
6790,34
6791,34
6792,34
6793,34
6794,34
6795,34
6796,35
6797,35
6798,34
6799,34
6800,34
6801,34
6802,34
6803,34
6804,34
6805,34
6806,34
6807,34
6808,34
6809,34
6810,34
6811,34
6812,34
6813,34
6814,34
6815,34
6816,34
6817,34
6818,34
6819,34
6820,34
6821,35
6822,35
6823,35
6824,35
6825,35
6826,36
6827,36
6828,37
6829,35
6830,35
6831,34
6832,34
6833,34
6834,34
6835,34
6836,34
6837,34
6838,34
6839,34
6840,34
6841,34
6842,34
6843,34
6844,34
6845,34
6846,34
6847,34
6848,34
6849,34
6850,34
6851,34
6852,34
6853,34
6854,34
6855,34
6856,34
6857,34
6858,34
6859,34
6860,34
6861,34
6862,34
6863,34
6864,34
6865,34
6866,34
6867,34
6868,35
6869,35
6870,34
6871,34
6872,34
6873,34
6874,34
6875,34
6876,34
6877,34
6878,34
6879,34
6880,34
6881,34
6882,34
6883,34
6884,35
6885,34
6886,34
6887,34
6888,34
6889,34
6890,34
6891,34
6892,34
6893,34
6894,34
6895,34
6896,34
6897,34
6898,34
6899,34
6900,34
6901,34
6902,34
6903,34
6904,34
6905,34
6906,34
6907,34
6908,34
6909,34
6910,34
6911,34
6912,34
6913,34
6914,34
6915,34
6916,34
6917,34
6918,34
6919,34
6920,34
6921,34
6922,34
6923,34
6924,34
6925,34
6926,34
6927,34
6928,34
6929,34
6930,34
6931,34
6932,34
6933,34
6934,34
6935,34
6936,34
6937,34
6938,34
6939,34
6940,34
6941,34
6942,34
6943,34
6944,34
6945,34
6946,34
6947,34
6948,34
6949,34
6950,35
6951,35
6952,35
6953,35
6954,35
6955,35
6956,35
6957,35
6958,35
6959,35
6960,35
6961,35
6962,35
6963,35
6964,35
6965,35
6966,35
6967,35
6968,35
6969,35
6970,34
6971,34
6972,34
6973,34
6974,34
6975,34
6976,34
6977,34
6978,34
6979,34
6980,34
6981,34
6982,34
6983,34
6984,34
6985,34
6986,34
6987,34
6988,34
6989,34
6990,34
6991,34
6992,34
6993,34
6994,34
6995,34
6996,34
6997,34
6998,34
6999,34
7000,34
7001,34
7002,34
7003,34
7004,35
7005,34
7006,34
7007,34
7008,34
7009,34
7010,34
7011,34
7012,34
7013,34
7014,34
7015,34
7016,34
7017,34
7018,35
7019,35
7020,35
7021,35
7022,35
7023,35
7024,35
7025,35
7026,34
7027,34
7028,34
7029,34
7030,34
7031,34
7032,34
7033,34
7034,34
7035,34
7036,34
7037,34
7038,34
7039,34
7040,34
7041,34
7042,34
7043,34
7044,34
7045,34
7046,34
7047,34
7048,34
7049,34
7050,35
7051,35
7052,35
7053,34
7054,34
7055,35
7056,35
7057,34
7058,34
7059,34
7060,34
7061,34
7062,34
7063,34
7064,34
7065,34
7066,34
7067,34
7068,34
7069,34
7070,34
7071,34
7072,34
7073,34
7074,34
7075,34
7076,34
7077,34
7078,34
7079,34
7080,34
7081,34
7082,34
7083,34
7084,34
7085,34
7086,34
7087,34
7088,34
7089,34
7090,34
7091,34
7092,34
7093,35
7094,35
7095,34
7096,34
7097,34
7098,34
7099,34
7100,34
7101,34
7102,34
7103,35
7104,34
7105,34
7106,34
7107,34
7108,34
7109,34
7110,34
7111,34
7112,34
7113,34
7114,34
7115,34
7116,34
7117,34
7118,34
7119,34
7120,34
7121,35
7122,35
7123,35
7124,35
7125,35
7126,35
7127,35
7128,35
7129,35
7130,35
7131,36
7132,36
7133,36
7134,36
7135,36
7136,36
7137,36
7138,36
7139,35
7140,35
7141,35
7142,35
7143,35
7144,35
7145,34
7146,34
7147,34
7148,34
7149,34
7150,34
7151,34
7152,34
7153,34
7154,34
7155,34
7156,35
7157,34
7158,34
7159,34
7160,34
7161,34
7162,34
7163,34
7164,35
7165,35
7166,34
7167,35
7168,34
7169,34
7170,34
7171,34
7172,34
7173,34
7174,34
7175,34
7176,34
7177,34
7178,34
7179,34
7180,34
7181,34
7182,34
7183,34
7184,34
7185,34
7186,34
7187,34
7188,35
7189,35
7190,35
7191,34
7192,34
7193,34
7194,34
7195,34
7196,34
7197,34
7198,34
7199,34
7200,34
7201,34
7202,34
7203,34
7204,34
7205,34
7206,35
7207,35
7208,36
7209,36
7210,37
7211,37
7212,36
7213,36
7214,35
7215,35
7216,35
7217,35
7218,34
7219,35
7220,35
7221,35
7222,35
7223,36
7224,35
7225,35
7226,36
7227,36
7228,36
7229,36
7230,36
7231,36
7232,35
7233,35
7234,35
7235,34
7236,34
7237,34
7238,34
7239,34
7240,34
7241,34
7242,34
7243,34
7244,34
7245,34
7246,34
7247,34
7248,34
7249,34
7250,34
7251,34
7252,34
7253,34
7254,34
7255,34
7256,34
7257,34
7258,34
7259,34
7260,34
7261,35
7262,34
7263,34
7264,34
7265,35
7266,35
7267,35
7268,35
7269,35
7270,35
7271,35
7272,35
7273,35
7274,35
7275,35
7276,35
7277,35
7278,35
7279,35
7280,36
7281,35
7282,35
7283,35
7284,36
7285,36
7286,36
7287,36
7288,36
7289,35
7290,36
7291,37
7292,36
7293,36
7294,36
7295,35
7296,35
7297,35
7298,35
7299,35
7300,35
7301,35
7302,34
7303,35
7304,35
7305,35
7306,34
7307,34
7308,34
7309,34
7310,34
7311,34
7312,34
7313,34
7314,34
7315,34
7316,34
7317,35
7318,34
7319,34
7320,34
7321,34
7322,34
7323,34
7324,34
7325,35
7326,35
7327,35
7328,35
7329,35
7330,35
7331,35
7332,34
7333,34
7334,34
7335,34
7336,34
7337,34
7338,34