1,4
2,4
3,5
4,4
5,4
6,4
7,4
8,4
9,4
10,4
11,5
12,5
13,5
14,5
15,5
16,6
17,6
18,6
19,6
20,6
21,7
22,6
23,6
24,7
25,7
26,7
27,7
28,6
29,6
30,6
31,6
32,6
33,6
34,6
35,6
36,6
37,6
38,6
39,6
40,6
41,6
42,6
43,6
44,6
45,6
46,6
47,6
48,6
49,6
50,6
51,6
52,6
53,6
54,6
55,6
56,6
57,6
58,6
59,6
60,6
61,6
62,6
63,6
64,7
65,7
66,7
67,7
68,7
69,7
70,7
71,7
72,7
73,7
74,7
75,7
76,7
77,7
78,7
79,7
80,7
81,7
82,7
83,7
84,7
85,7
86,7
87,7
88,8
89,8
90,8
91,8
92,8
93,8
94,8
95,8
96,8
97,8
98,8
99,8
100,8
101,8
102,8
103,8
104,8
105,8
106,8
107,8
108,8
109,8
110,8
111,8
112,8
113,8
114,8
115,8
116,8
117,8
118,8
119,8
120,8
121,8
122,8
123,8
124,8
125,8
126,8
127,8
128,8
129,8
130,8
131,8
132,8
133,8
134,8
135,8
136,9
137,9
138,9
139,9
140,9
141,9
142,9
143,9
144,9
145,9
146,9
147,8
148,8
149,8
150,8
151,8
152,8
153,8
154,8
155,8
156,8
157,8
158,8
159,8
160,8
161,8
162,8
163,8
164,8
165,8
166,9
167,8
168,8
169,8
170,8
171,8
172,8
173,8
174,8
175,8
176,8
177,8
178,8
179,8
180,8
181,8
182,8
183,8
184,8
185,8
186,8
187,8
188,8
189,8
190,8
191,9
192,9
193,9
194,9
195,9
196,9
197,9
198,9
199,9
200,9
201,9
202,9
203,9
204,9
205,9
206,9
207,9
208,9
209,9
210,9
211,9
212,9
213,9
214,9
215,10
216,9
217,9
218,9
219,9
220,9
221,9
222,9
223,9
224,9
225,9
226,9
227,9
228,9
229,9
230,9
231,9
232,9
233,9
234,9
235,9
236,9
237,9
238,9
239,9
240,9
241,9
242,9
243,9
244,9
245,9
246,9
247,9
248,9
249,9
250,9
251,9
252,9
253,9
254,9
255,9
256,9
257,9
258,9
259,9
260,9
261,9
262,9
263,9
264,9
265,9
266,9
267,9
268,9
269,9
270,9
271,9
272,9
273,9
274,9
275,9
276,9
277,9
278,9
279,9
280,9
281,9
282,9
283,9
284,9
285,9
286,9
287,9
288,9
289,9
290,9
291,10
292,10
293,10
294,10
295,10
296,10
297,10
298,10
299,10
300,11
301,11
302,10
303,10
304,10
305,10
306,10
307,11
308,10
309,10
310,10
311,10
312,10
313,10
314,10
315,10
316,10
317,10
318,10
319,10
320,10
321,10
322,10
323,11
324,10
325,10
326,10
327,10
328,10
329,10
330,10
331,10
332,10
333,10
334,10
335,10
336,10
337,10
338,10
339,10
340,10
341,10
342,10
343,10
344,10
345,10
346,10
347,10
348,10
349,10
350,10
351,10
352,10
353,10
354,10
355,10
356,10
357,10
358,10
359,10
360,10
361,10
362,10
363,10
364,10
365,10
366,10
367,10
368,10
369,10
370,10
371,10
372,10
373,10
374,10
375,10
376,10
377,10
378,10
379,10
380,10
381,10
382,10
383,10
384,10
385,10
386,10
387,10
388,10
389,10
390,10
391,10
392,10
393,10
394,10
395,10
396,10
397,10
398,10
399,10
400,10
401,10
402,11
403,11
404,12
405,11
406,10
407,10
408,10
409,10
410,10
411,11
412,11
413,10
414,10
415,10
416,10
417,10
418,10
419,10
420,10
421,10
422,10
423,10
424,10
425,10
426,10
427,10
428,10
429,10
430,10
431,10
432,10
433,10
434,10
435,10
436,10
437,10
438,10
439,10
440,10
441,10
442,10
443,10
444,10
445,10
446,10
447,10
448,10
449,10
450,10
451,10
452,10
453,10
454,10
455,10
456,10
457,10
458,10
459,10
460,10
461,10
462,10
463,10
464,10
465,10
466,10
467,10
468,10
469,10
470,10
471,10
472,10
473,10
474,10
475,10
476,10
477,10
478,10
479,11
480,10
481,10
482,10
483,10
484,10
485,10
486,10
487,10
488,10
489,10
490,10
491,10
492,10
493,10
494,10
495,10
496,10
497,10
498,11
499,11
500,10
501,10
502,10
503,10
504,10
505,10
506,10
507,10
508,10
509,10
510,10
511,10
512,10
513,10
514,10
515,10
516,10
517,10
518,10
519,10
520,11
521,11
522,11
523,11
524,11
525,12
526,11
527,11
528,11
529,11
530,11
531,12
532,12
533,11
534,11
535,11
536,11
537,11
538,11
539,11
540,11
541,11
542,11
543,11
544,11
545,11
546,12
547,12
548,12
549,13
550,12
551,12
552,12
553,12
554,12
555,12
556,12
557,12
558,12
559,12
560,12
561,12
562,12
563,12
564,12
565,12
566,13
567,13
568,12
569,12
570,12
571,12
572,12
573,12
574,12
575,12
576,12
577,12
578,12
579,12
580,12
581,12
582,12
583,13
584,14
585,13
586,12
587,12
588,12
589,13
590,12
591,12
592,12
593,12
594,12
595,13
596,13
597,13
598,13
599,13
600,13
601,13
602,13
603,13
604,13
605,13
606,13
607,13
608,13
609,13
610,13
611,13
612,13
613,13
614,13
615,13
616,14
617,14
618,13
619,13
620,13
621,13
622,13
623,13
624,13
625,13
626,13
627,13
628,13
629,13
630,13
631,13
632,14
633,13
634,13
635,13
636,13
637,13
638,13
639,13
640,13
641,13
642,13
643,13
644,13
645,13
646,13
647,13
648,13
649,13
650,13
651,13
652,13
653,13
654,13
655,13
656,13
657,13
658,13
659,13
660,13
661,13
662,13
663,14
664,14
665,14
666,14
667,14
668,14
669,14
670,15
671,14
672,14
673,14
674,14
675,15
676,15
677,15
678,15
679,15
680,15
681,15
682,15
683,15
684,15
685,15
686,15
687,15
688,15
689,15
690,15
691,15
692,15
693,15
694,15
695,15
696,15
697,16
698,16
699,16
700,16
701,16
702,16
703,16
704,15
705,15
706,15
707,15
708,15
709,15
710,16
711,16
712,16
713,16
714,16
715,16
716,16
717,16
718,16
719,16
720,16
721,16
722,16
723,16
724,16
725,16
726,16
727,16
728,16
729,16
730,16
731,16
732,16
733,16
734,16
735,16
736,16
737,16
738,16
739,16
740,16
741,16
742,16
743,16
744,16
745,16
746,16
747,16
748,16
749,16
750,16
751,16
752,16
753,16
754,16
755,16
756,16
757,16
758,16
759,16
760,16
761,18
762,18
763,18
764,18
765,18
766,18
767,18
768,18
769,18
770,18
771,18
772,18
773,17
774,17
775,17
776,17
777,17
778,18
779,17
780,17
781,17
782,17
783,17
784,17
785,17
786,17
787,17
788,17
789,17
790,18
791,18
792,18
793,18
794,18
795,18
796,19
797,18
798,18
799,18
800,18
801,19
802,18
803,18
804,18
805,18
806,18
807,19
808,19
809,19
810,19
811,19
812,18
813,18
814,18
815,18
816,18
817,18
818,18
819,18
820,18
821,18
822,18
823,18
824,18
825,18
826,18
827,18
828,18
829,18
830,18
831,18
832,18
833,18
834,18
835,18
836,18
837,18
838,19
839,19
840,20
841,20
842,19
843,19
844,19
845,19
846,19
847,19
848,19
849,20
850,20
851,20
852,20
853,20
854,20
855,20
856,20
857,20
858,20
859,20
860,21
861,21
862,21
863,21
864,21
865,21
866,21
867,21
868,21
869,21
870,21
871,21
872,19
873,19
874,19
875,19
876,19
877,19
878,19
879,19
880,19
881,19
882,19
883,20
884,20
885,20
886,19
887,19
888,19
889,19
890,19
891,19
892,19
893,19
894,19
895,19
896,19
897,19
898,19
899,19
900,19
901,19
902,19
903,19
904,19
905,19
906,19
907,19
908,19
909,19
910,19
911,19
912,19
913,19
914,20
915,20
916,20
917,20
918,20
919,20
920,20
921,20
922,20
923,22
924,20
925,20
926,20
927,20
928,20
929,20
930,20
931,19
932,19
933,20
934,20
935,20
936,20
937,20
938,19
939,19
940,19
941,19
942,19
943,19
944,19
945,19
946,19
947,19
948,19
949,19
950,19
951,19
952,19
953,19
954,19
955,21
956,20
957,20
958,19
959,20
960,19
961,19
962,19
963,19
964,19
965,19
966,20
967,20
968,20
969,21
970,20
971,20
972,20
973,20
974,20
975,20
976,20
977,20
978,20
979,20
980,20
981,20
982,20
983,20
984,20
985,20
986,20
987,20
988,20
989,20
990,21
991,21
992,21
993,21
994,21
995,21
996,21
997,21
998,21
999,21
1000,21
1001,21
1002,21
1003,21
1004,21
1005,20
1006,20
1007,20
1008,20
1009,20
1010,20
1011,21
1012,20
1013,20
1014,20
1015,20
1016,20
1017,20
1018,20
1019,20
1020,21
1021,20
1022,20
1023,20
1024,20
1025,20
1026,20
1027,20
1028,20
1029,20
1030,20
1031,20
1032,20
1033,20
1034,20
1035,21
1036,21
1037,20
1038,20
1039,20
1040,20
1041,20
1042,20
1043,20
1044,20
1045,20
1046,20
1047,20
1048,20
1049,20
1050,20
1051,20
1052,20
1053,20
1054,20
1055,20
1056,20
1057,20
1058,20
1059,20
1060,21
1061,21
1062,21
1063,20
1064,20
1065,20
1066,20
1067,20
1068,21
1069,21
1070,21
1071,21
1072,21
1073,20
1074,21
1075,20
1076,20
1077,20
1078,20
1079,20
1080,20
1081,20
1082,20
1083,20
1084,20
1085,20
1086,20
1087,20
1088,20
1089,20
1090,20
1091,20
1092,20
1093,20
1094,20
1095,20
1096,20
1097,20
1098,20
1099,20
1100,20
1101,20
1102,20
1103,20
1104,20
1105,20
1106,20
1107,20
1108,20
1109,20
1110,20
1111,20
1112,21
1113,20
1114,20
1115,20
1116,20
1117,20
1118,20
1119,20
1120,20
1121,20
1122,20
1123,20
1124,20
1125,20
1126,20
1127,20
1128,20
1129,20
1130,20
1131,20
1132,20
1133,20
1134,20
1135,20
1136,20
1137,20
1138,20
1139,20
1140,20
1141,20
1142,20
1143,21
1144,21
1145,21
1146,21
1147,21
1148,21
1149,21
1150,21
1151,21
1152,21
1153,21
1154,21
1155,21
1156,21
1157,21
1158,21
1159,21
1160,21
1161,21
1162,21
1163,21
1164,21
1165,21
1166,21
1167,21
1168,21
1169,21
1170,21
1171,21
1172,21
1173,21
1174,21
1175,21
1176,21
1177,21
1178,21
1179,22
1180,21
1181,21
1182,21
1183,21
1184,21
1185,21
1186,21
1187,21
1188,21
1189,21
1190,21
1191,21
1192,21
1193,21
1194,21
1195,21
1196,21
1197,21
1198,21
1199,22
1200,21
1201,21
1202,21
1203,21
1204,21
1205,21
1206,21
1207,21
1208,21
1209,21
1210,21
1211,21
1212,21
1213,21
1214,21
1215,21
1216,22
1217,22
1218,22
1219,22
1220,22
1221,22
1222,22
1223,22
1224,21
1225,21
1226,21
1227,21
1228,21
1229,21
1230,21
1231,21
1232,21
1233,21
1234,21
1235,21
1236,21
1237,21
1238,21
1239,21
1240,21
1241,21
1242,21
1243,21
1244,21
1245,21
1246,21
1247,21
1248,21
1249,21
1250,21
1251,21
1252,21
1253,21
1254,21
1255,21
1256,21
1257,21
1258,21
1259,21
1260,21
1261,21
1262,21
1263,21
1264,21
1265,21
1266,21
1267,21
1268,21
1269,21
1270,21
1271,21
1272,21
1273,21
1274,21
1275,21
1276,21
1277,21
1278,21
1279,21
1280,21
1281,21
1282,21
1283,21
1284,21
1285,21
1286,21
1287,21
1288,21
1289,21
1290,21
1291,21
1292,21
1293,21
1294,21
1295,21
1296,21
1297,21
1298,21
1299,21
1300,21
1301,21
1302,21
1303,21
1304,22
1305,22
1306,22
1307,21
1308,21
1309,21
1310,22
1311,22
1312,22
1313,22
1314,22
1315,21
1316,21
1317,21
1318,21
1319,21
1320,22
1321,22
1322,22
1323,22
1324,22
1325,22
1326,22
1327,22
1328,22
1329,22
1330,22
1331,22
1332,22
1333,22
1334,22
1335,22
1336,22
1337,22
1338,22
1339,23
1340,22
1341,22
1342,22
1343,23
1344,23
1345,22
1346,22
1347,22
1348,22
1349,22
1350,22
1351,22
1352,22
1353,22
1354,23
1355,23
1356,23
1357,23
1358,23
1359,23
1360,23
1361,23
1362,23
1363,23
1364,23
1365,23
1366,23
1367,23
1368,23
1369,23
1370,23
1371,23
1372,23
1373,23
1374,24
1375,23
1376,23
1377,23
1378,23
1379,23
1380,23
1381,23
1382,23
1383,23
1384,23
1385,23
1386,23
1387,23
1388,23
1389,23
1390,23
1391,23
1392,23
1393,23
1394,23
1395,23
1396,23
1397,23
1398,23
1399,23
1400,23
1401,23
1402,23
1403,24
1404,24
1405,23
1406,23
1407,23
1408,23
1409,23
1410,23
1411,23
1412,23
1413,23
1414,23
1415,23
1416,23
1417,23
1418,23
1419,23
1420,23
1421,23
1422,23
1423,23
1424,23
1425,23
1426,24
1427,24
1428,24
1429,24
1430,23
1431,23
1432,23
1433,23
1434,23
1435,23
1436,23
1437,23
1438,23
1439,23
1440,23
1441,23
1442,23
1443,23
1444,23
1445,23
1446,23
1447,23
1448,23
1449,23
1450,23
1451,23
1452,23
1453,23
1454,23
1455,23
1456,23
1457,23
1458,23
1459,23
1460,23
1461,23
1462,23
1463,23
1464,23
1465,23
1466,23
1467,23
1468,23
1469,23
1470,23
1471,23
1472,23
1473,23
1474,23
1475,23
1476,23
1477,23
1478,23
1479,23
1480,23
1481,23
1482,23
1483,23
1484,23
1485,23
1486,23
1487,23
1488,23
1489,23
1490,23
1491,23
1492,23
1493,23
1494,23
1495,23
1496,23
1497,23
1498,23
1499,24
1500,24
1501,24
1502,24
1503,24
1504,23
1505,24
1506,23
1507,23
1508,23
1509,23
1510,23
1511,23
1512,23
1513,23
1514,23
1515,23
1516,23
1517,23
1518,23
1519,23
1520,23
1521,24
1522,24
1523,24
1524,24
1525,24
1526,24
1527,24
1528,23
1529,23
1530,23
1531,23
1532,23
1533,24
1534,24
1535,24
1536,24
1537,24
1538,23
1539,23
1540,23
1541,23
1542,23
1543,23
1544,23
1545,23
1546,23
1547,23
1548,23
1549,23
1550,23
1551,23
1552,23
1553,23
1554,23
1555,23
1556,23
1557,23
1558,23
1559,23
1560,23
1561,23
1562,23
1563,23
1564,23
1565,23
1566,23
1567,23
1568,23
1569,23
1570,23
1571,23
1572,23
1573,23
1574,23
1575,23
1576,23
1577,24
1578,24
1579,24
1580,24
1581,24
1582,24
1583,24
1584,24
1585,24
1586,24
1587,23
1588,23
1589,23
1590,24
1591,24
1592,23
1593,23
1594,23
1595,23
1596,23
1597,24
1598,23
1599,24
1600,24
1601,24
1602,24
1603,24
1604,24
1605,24
1606,24
1607,24
1608,24
1609,24
1610,24
1611,24
1612,24
1613,24
1614,24
1615,24
1616,23
1617,23
1618,23
1619,23
1620,24
1621,24
1622,24
1623,23
1624,23
1625,23
1626,23
1627,23
1628,23
1629,23
1630,23
1631,23
1632,23
1633,23
1634,23
1635,24
1636,23
1637,24
1638,24
1639,23
1640,23
1641,23
1642,23
1643,23
1644,23
1645,23
1646,23
1647,23
1648,24
1649,23
1650,23
1651,23
1652,23
1653,23
1654,23
1655,23
1656,23
1657,23
1658,23
1659,23
1660,23
1661,23
1662,23
1663,23
1664,23
1665,23
1666,23
1667,23
1668,23
1669,24
1670,23
1671,23
1672,23
1673,23
1674,23
1675,23
1676,23
1677,23
1678,23
1679,23
1680,23
1681,23
1682,23
1683,24
1684,23
1685,23
1686,23
1687,23
1688,23
1689,23
1690,23
1691,23
1692,23
1693,23
1694,23
1695,23
1696,23
1697,23
1698,23
1699,23
1700,23
1701,24
1702,23
1703,23
1704,23
1705,23
1706,23
1707,23
1708,23
1709,23
1710,23
1711,23
1712,24
1713,24
1714,24
1715,24
1716,24
1717,25
1718,25
1719,25
1720,25
1721,25
1722,26
1723,25
1724,25
1725,24
1726,24
1727,24
1728,24
1729,24
1730,24
1731,24
1732,24
1733,24
1734,24
1735,24
1736,24
1737,24
1738,24
1739,24
1740,24
1741,24
1742,25
1743,25
1744,25
1745,25
1746,25
1747,25
1748,25
1749,25
1750,25
1751,25
1752,25
1753,25
1754,26
1755,25
1756,26
1757,25
1758,25
1759,25
1760,25
1761,25
1762,25
1763,25
1764,25
1765,25
1766,25
1767,25
1768,25
1769,25
1770,25
1771,25
1772,25
1773,25
1774,25
1775,25
1776,25
1777,25
1778,25
1779,25
1780,25
1781,25
1782,25
1783,25
1784,25
1785,25
1786,25
1787,25
1788,25
1789,25
1790,25
1791,25
1792,25
1793,25
1794,25
1795,25
1796,26
1797,25
1798,25
1799,26
1800,26
1801,25
1802,25
1803,25
1804,25
1805,25
1806,25
1807,25
1808,26
1809,26
1810,26
1811,27
1812,27
1813,27
1814,28
1815,27
1816,27
1817,26
1818,26
1819,26
1820,26
1821,26
1822,26
1823,26
1824,25
1825,25
1826,25
1827,25
1828,25
1829,25
1830,25
1831,25
1832,25
1833,25
1834,25
1835,25
1836,25
1837,25
1838,25
1839,25
1840,25
1841,25
1842,25
1843,25
1844,25
1845,25
1846,25
1847,26
1848,26
1849,26
1850,26
1851,25
1852,25
1853,25
1854,25
1855,26
1856,25
1857,26
1858,26
1859,26
1860,26
1861,26
1862,26
1863,25
1864,25
1865,25
1866,25
1867,25
1868,25
1869,25
1870,25
1871,25
1872,25
1873,25
1874,25
1875,25
1876,25
1877,25
1878,25
1879,25
1880,25
1881,25
1882,25
1883,25
1884,25
1885,25
1886,25
1887,25
1888,25
1889,25
1890,25
1891,25
1892,25
1893,25
1894,25
1895,25
1896,25
1897,25
1898,25
1899,25
1900,25
1901,25
1902,25
1903,25
1904,26
1905,25
1906,25
1907,25
1908,25
1909,25
1910,25
1911,26
1912,26
1913,25
1914,25
1915,25
1916,25
1917,25
1918,25
1919,25
1920,25
1921,25
1922,25
1923,25
1924,26
1925,26
1926,25
1927,25
1928,26
1929,25
1930,25
1931,25
1932,27
1933,27
1934,27
1935,27
1936,27
1937,26
1938,26
1939,26
1940,26
1941,26
1942,26
1943,26
1944,26
1945,26
1946,26
1947,26
1948,26
1949,26
1950,26
1951,26
1952,26
1953,26
1954,27
1955,27
1956,27
1957,27
1958,26
1959,26
1960,26
1961,26
1962,26
1963,26
1964,26
1965,26
1966,26
1967,26
1968,26
1969,26
1970,26
1971,26
1972,27
1973,26
1974,26
1975,26
1976,26
1977,26
1978,27
1979,27
1980,27
1981,27
1982,27
1983,26
1984,26
1985,26
1986,26
1987,26
1988,26
1989,26
1990,26
1991,26
1992,26
1993,26
1994,26
1995,26
1996,26
1997,26
1998,26
1999,27
2000,26
2001,26
2002,26
2003,26
2004,26
2005,26
2006,26
2007,26
2008,26
2009,26
2010,26
2011,26
2012,26
2013,26
2014,26
2015,26
2016,26
2017,26
2018,26
2019,26
2020,26
2021,26
2022,27
2023,27
2024,27
2025,27
2026,27
2027,27
2028,26
2029,26
2030,26
2031,26
2032,26
2033,26
2034,26
2035,26
2036,26
2037,26
2038,26
2039,27
2040,27
2041,27
2042,27
2043,27
2044,27
2045,27
2046,27
2047,27
2048,27
2049,27
2050,27
2051,27
2052,27
2053,28
2054,27
2055,27
2056,27
2057,27
2058,28
2059,28
2060,27
2061,27
2062,27
2063,27
2064,28
2065,28
2066,28
2067,28
2068,28
2069,28
2070,28
2071,27
2072,27
2073,28
2074,29
2075,28
2076,29
2077,29
2078,28
2079,28
2080,27
2081,27
2082,27
2083,27
2084,27
2085,27
2086,27
2087,27
2088,27
2089,27
2090,27
2091,27
2092,27
2093,27
2094,27
2095,27
2096,27
2097,27
2098,27
2099,28
2100,28
2101,27
2102,27
2103,27
2104,27
2105,27
2106,27
2107,27
2108,27
2109,27
2110,27
2111,27
2112,27
2113,27
2114,27
2115,27
2116,27
2117,27
2118,28
2119,28
2120,27
2121,27
2122,27
2123,27
2124,27
2125,27
2126,27
2127,27
2128,27
2129,27
2130,27
2131,27
2132,27
2133,27
2134,27
2135,27
2136,28
2137,28
2138,28
2139,28
2140,28
2141,28
2142,27
2143,27
2144,27
2145,27
2146,27
2147,28
2148,28
2149,27
2150,27
2151,27
2152,27
2153,27
2154,27
2155,27
2156,27
2157,27
2158,27
2159,27
2160,27
2161,27
2162,27
2163,28
2164,27
2165,27
2166,27
2167,27
2168,27
2169,28
2170,28
2171,28
2172,28
2173,28
2174,28
2175,28
2176,28
2177,28
2178,28
2179,28
2180,28
2181,28
2182,28
2183,28
2184,28
2185,28
2186,28
2187,27
2188,27
2189,27
2190,27
2191,29
2192,29
2193,28
2194,28
2195,28
2196,28
2197,28
2198,28
2199,28
2200,27
2201,27
2202,27
2203,27
2204,27
2205,27
2206,28
2207,27
2208,27
2209,27
2210,27
2211,27
2212,27
2213,27
2214,27
2215,28
2216,27
2217,27
2218,27
2219,27
2220,27
2221,27
2222,27
2223,27
2224,27
2225,27
2226,27
2227,27
2228,27
2229,27
2230,27
2231,27
2232,27
2233,27
2234,27
2235,27
2236,27
2237,28
2238,27
2239,27
2240,27
2241,27
2242,27
2243,27
2244,27
2245,27
2246,27
2247,27
2248,27
2249,27
2250,28
2251,28
2252,28
2253,28
2254,28
2255,28
2256,28
2257,27
2258,27
2259,27
2260,27
2261,27
2262,27
2263,27
2264,27
2265,27
2266,27
2267,27
2268,27
2269,27
2270,27
2271,27
2272,27
2273,27
2274,27
2275,27
2276,27
2277,27
2278,28
2279,27
2280,28
2281,28
2282,28
2283,27
2284,27
2285,27
2286,27
2287,27
2288,27
2289,27
2290,27
2291,27
2292,27
2293,27
2294,27
2295,27
2296,27
2297,27
2298,27
2299,27
2300,27
2301,27
2302,27
2303,27
2304,27
2305,27
2306,27
2307,27
2308,27
2309,27
2310,27
2311,27
2312,27
2313,27
2314,27
2315,27
2316,27
2317,27
2318,27
2319,27
2320,27
2321,27
2322,27
2323,27
2324,27
2325,27
2326,27
2327,27
2328,27
2329,27
2330,27
2331,27
2332,27
2333,27
2334,27
2335,28
2336,27
2337,27
2338,27
2339,27
2340,27
2341,27
2342,27
2343,27
2344,27
2345,27
2346,27
2347,27
2348,27
2349,27
2350,27
2351,27
2352,27
2353,27
2354,27
2355,27
2356,27
2357,27
2358,27
2359,27
2360,27
2361,27
2362,27
2363,27
2364,27
2365,27
2366,27
2367,28
2368,28
2369,28
2370,28
2371,28
2372,28
2373,27
2374,27
2375,27
2376,27
2377,27
2378,27
2379,27
2380,27
2381,27
2382,27
2383,27
2384,27
2385,27
2386,27
2387,27
2388,27
2389,27
2390,28
2391,27
2392,28
2393,28
2394,28
2395,28
2396,28
2397,29
2398,28
2399,28
2400,28
2401,28
2402,28
2403,28
2404,28
2405,28
2406,28
2407,28
2408,28
2409,28
2410,28
2411,28
2412,27
2413,27
2414,27
2415,27
2416,27
2417,27
2418,27
2419,27
2420,27
2421,27
2422,27
2423,27
2424,27
2425,27
2426,27
2427,27
2428,27
2429,27
2430,27
2431,27
2432,27
2433,27
2434,27
2435,27
2436,27
2437,27
2438,27
2439,27
2440,27
2441,29
2442,29
2443,27
2444,27
2445,27
2446,27
2447,27
2448,27
2449,27
2450,27
2451,27
2452,27
2453,27
2454,28
2455,28
2456,28
2457,28
2458,28
2459,29
2460,28
2461,28
2462,28
2463,28
2464,28
2465,28
2466,28
2467,28
2468,28
2469,28
2470,28
2471,28
2472,28
2473,28
2474,27
2475,27
2476,27
2477,27
2478,27
2479,27
2480,27
2481,27
2482,27
2483,27
2484,27
2485,27
2486,27
2487,27
2488,27
2489,27
2490,27
2491,27
2492,27
2493,27
2494,27
2495,27
2496,27
2497,27
2498,27
2499,27
2500,27
2501,27
2502,27
2503,27
2504,27
2505,27
2506,27
2507,27
2508,27
2509,27
2510,27
2511,27
2512,27
2513,27
2514,28
2515,28
2516,28
2517,28
2518,28
2519,28
2520,28
2521,28
2522,28
2523,28
2524,28
2525,28
2526,28
2527,28
2528,28
2529,28
2530,28
2531,28
2532,27
2533,27
2534,27
2535,27
2536,27
2537,27
2538,27
2539,28
2540,28
2541,28
2542,28
2543,28
2544,28
2545,28
2546,28
2547,28
2548,28
2549,28
2550,28
2551,28
2552,28
2553,28
2554,28
2555,28
2556,28
2557,28
2558,28
2559,28
2560,28
2561,28
2562,28
2563,29
2564,29
2565,29
2566,29
2567,29
2568,29
2569,29
2570,29
2571,29
2572,29
2573,29
2574,28
2575,28
2576,28
2577,28
2578,28
2579,28
2580,28
2581,28
2582,28
2583,28
2584,28
2585,28
2586,28
2587,28
2588,28
2589,28
2590,28
2591,28
2592,28
2593,28
2594,28
2595,28
2596,28
2597,28
2598,29
2599,29
2600,29
2601,29
2602,29
2603,29
2604,28
2605,28
2606,28
2607,28
2608,28
2609,28
2610,28
2611,28
2612,28
2613,28
2614,28
2615,28
2616,28
2617,28
2618,28
2619,28
2620,28
2621,28
2622,28
2623,28
2624,28
2625,28
2626,28
2627,28
2628,28
2629,28
2630,28
2631,28
2632,28
2633,28
2634,28
2635,28
2636,28
2637,28
2638,29
2639,28
2640,28
2641,28
2642,28
2643,28
2644,29
2645,29
2646,29
2647,29
2648,29
2649,29
2650,29
2651,28
2652,28
2653,28
2654,28
2655,28
2656,28
2657,28
2658,28
2659,28
2660,28
2661,28
2662,28
2663,28
2664,28
2665,28
2666,28
2667,28
2668,28
2669,29
2670,29
2671,29
2672,29
2673,29
2674,29
2675,29
2676,29
2677,28
2678,28
2679,28
2680,28
2681,28
2682,28
2683,28
2684,28
2685,28
2686,28
2687,28
2688,28
2689,28
2690,29
2691,28
2692,28
2693,29
2694,28
2695,28
2696,28
2697,28
2698,28
2699,28
2700,28
2701,28
2702,28
2703,28
2704,28
2705,28
2706,28
2707,28
2708,28
2709,28
2710,28
2711,28
2712,28
2713,28
2714,28
2715,29
2716,29
2717,28
2718,28
2719,28
2720,28
2721,28
2722,29
2723,29
2724,29
2725,29
2726,29
2727,29
2728,29
2729,29
2730,29
2731,29
2732,29
2733,29
2734,29
2735,29
2736,29
2737,29
2738,30
2739,30
2740,31
2741,31
2742,31
2743,30
2744,30
2745,30
2746,30
2747,30
2748,30
2749,30
2750,30
2751,30
2752,30
2753,30
2754,30
2755,30
2756,30
2757,30
2758,30
2759,30
2760,30
2761,30
2762,30
2763,30
2764,30
2765,30
2766,30
2767,30
2768,30
2769,30
2770,30
2771,29
2772,29
2773,29
2774,29
2775,29
2776,29
2777,29
2778,29
2779,29
2780,29
2781,29
2782,29
2783,29
2784,29
2785,29
2786,29
2787,29
2788,29
2789,29
2790,30
2791,29
2792,29
2793,29
2794,29
2795,29
2796,29
2797,29
2798,29
2799,30
2800,30
2801,29
2802,29
2803,29
2804,29
2805,29
2806,29
2807,29
2808,29
2809,29
2810,29
2811,28
2812,28
2813,28
2814,28
2815,28
2816,28
2817,28
2818,28
2819,28
2820,28
2821,28
2822,28
2823,28
2824,28
2825,28
2826,28
2827,28
2828,28
2829,28
2830,28
2831,28
2832,28
2833,28
2834,28
2835,28
2836,28
2837,28
2838,28
2839,28
2840,28
2841,28
2842,28
2843,28
2844,28
2845,28
2846,28
2847,28
2848,28
2849,28
2850,28
2851,28
2852,28
2853,28
2854,28
2855,28
2856,28
2857,28
2858,28
2859,28
2860,28
2861,28
2862,28
2863,28
2864,28
2865,28
2866,28
2867,28
2868,28
2869,28
2870,28
2871,28
2872,28
2873,28
2874,28
2875,29
2876,28
2877,28
2878,28
2879,28
2880,28
2881,28
2882,28
2883,28
2884,28
2885,28
2886,28
2887,28
2888,28
2889,28
2890,28
2891,28
2892,28
2893,28
2894,28
2895,28
2896,28
2897,28
2898,28
2899,28
2900,28
2901,29
2902,30
2903,28
2904,28
2905,28
2906,28
2907,28
2908,28
2909,28
2910,28
2911,28
2912,29
2913,29
2914,29
2915,28
2916,28
2917,28
2918,28
2919,28
2920,28
2921,28
2922,28
2923,28
2924,28
2925,28
2926,29
2927,29
2928,29
2929,29
2930,29
2931,29
2932,30
2933,29
2934,29
2935,29
2936,29
2937,30
2938,30
2939,30
2940,30
2941,29
2942,29
2943,28
2944,28
2945,28
2946,28
2947,29
2948,28
2949,28
2950,28
2951,28
2952,28
2953,28
2954,28
2955,28
2956,28
2957,28
2958,28
2959,28
2960,28
2961,28
2962,28
2963,28
2964,28
2965,28
2966,28
2967,28
2968,28
2969,28
2970,28
2971,28
2972,28
2973,28
2974,28
2975,28
2976,28
2977,28
2978,28
2979,28
2980,28
2981,28
2982,28
2983,28
2984,29
2985,29
2986,29
2987,30
2988,29
2989,28
2990,28
2991,28
2992,28
2993,29
2994,29
2995,29
2996,30
2997,29
2998,30
2999,30
3000,30
3001,30
3002,30
3003,30
3004,30
3005,29
3006,29
3007,29
3008,29
3009,29
3010,29
3011,28
3012,28
3013,28
3014,28
3015,28
3016,29
3017,28
3018,28
3019,28
3020,28
3021,28
3022,28
3023,28
3024,28
3025,28
3026,28
3027,28
3028,28
3029,28
3030,28
3031,28
3032,28
3033,28
3034,28
3035,28
3036,28
3037,28
3038,28
3039,28
3040,28
3041,28
3042,28
3043,28
3044,29
3045,29
3046,28
3047,28
3048,28
3049,28
3050,28
3051,29
3052,29
3053,29
3054,29
3055,29
3056,29
3057,29
3058,29
3059,29
3060,29
3061,29
3062,29
3063,28
3064,28
3065,28
3066,28
3067,28
3068,28
3069,28
3070,28
3071,28
3072,28
3073,28
3074,28
3075,29
3076,29
3077,29
3078,29
3079,30
3080,30
3081,29
3082,29
3083,29
3084,29
3085,29
3086,29
3087,29
3088,29
3089,29
3090,29
3091,29
3092,29
3093,29
3094,29
3095,29
3096,29
3097,29
3098,29
3099,29
3100,29
3101,29
3102,29
3103,30
3104,29
3105,29
3106,29
3107,29
3108,29
3109,29
3110,29
3111,29
3112,29
3113,29
3114,29
3115,29
3116,29
3117,29
3118,28
3119,28
3120,28
3121,28
3122,28
3123,28
3124,29
3125,28
3126,29
3127,29
3128,29
3129,28
3130,28
3131,28
3132,28
3133,28
3134,28
3135,28
3136,28
3137,28
3138,28
3139,28
3140,28
3141,28
3142,28
3143,28
3144,28
3145,28
3146,28
3147,28
3148,28
3149,29
3150,30
3151,28
3152,28
3153,28
3154,28
3155,28
3156,28
3157,28
3158,28
3159,28
3160,28
3161,28
3162,28
3163,28
3164,28
3165,28
3166,29
3167,29
3168,30
3169,30
3170,30
3171,30
3172,30
3173,29
3174,29
3175,29
3176,29
3177,29
3178,29
3179,29
3180,29
3181,29
3182,29
3183,29
3184,29
3185,29
3186,29
3187,29
3188,29
3189,29
3190,29
3191,29
3192,29
3193,29
3194,29
3195,29
3196,29
3197,29
3198,29
3199,29
3200,29
3201,29
3202,29
3203,29
3204,29
3205,29
3206,29
3207,30
3208,30
3209,30
3210,30
3211,30
3212,30
3213,30
3214,29
3215,29
3216,29
3217,29
3218,30
3219,29
3220,29
3221,29
3222,29
3223,29
3224,29
3225,29
3226,29
3227,29
3228,29
3229,29
3230,29
3231,29
3232,29
3233,29
3234,29
3235,29
3236,29
3237,29
3238,29
3239,29
3240,29
3241,29
3242,29
3243,29
3244,29
3245,29
3246,29
3247,29
3248,29
3249,29
3250,29
3251,29
3252,29
3253,29
3254,29
3255,30
3256,30
3257,30
3258,30
3259,30
3260,30
3261,31
3262,29
3263,29
3264,29
3265,29
3266,29
3267,29
3268,29
3269,29
3270,29
3271,29
3272,29
3273,29
3274,29
3275,29
3276,29
3277,29
3278,30
3279,29
3280,29
3281,29
3282,29
3283,29
3284,29
3285,29
3286,30
3287,30
3288,29
3289,29
3290,29
3291,29
3292,29
3293,29
3294,29
3295,30
3296,31
3297,30
3298,30
3299,30
3300,30
3301,30
3302,30
3303,30
3304,30
3305,30
3306,30
3307,30
3308,30
3309,30
3310,30
3311,30
3312,30
3313,31
3314,30
3315,30
3316,30
3317,29
3318,29
3319,29
3320,29
3321,29
3322,29
3323,29
3324,29
3325,29
3326,29
3327,29
3328,29
3329,29
3330,29
3331,30
3332,30
3333,30
3334,30
3335,30
3336,30
3337,30
3338,30
3339,30
3340,31
3341,31
3342,31
3343,31
3344,31
3345,31
3346,31
3347,30
3348,29
3349,29
3350,29
3351,29
3352,29
3353,29
3354,29
3355,29
3356,30
3357,30
3358,29
3359,29
3360,30
3361,29
3362,29
3363,29
3364,29
3365,29
3366,29
3367,29
3368,29
3369,29
3370,30
3371,30
3372,30
3373,30
3374,30
3375,30
3376,30
3377,30
3378,30
3379,30
3380,30
3381,30
3382,30
3383,30
3384,30
3385,30
3386,30
3387,30
3388,30
3389,31
3390,30
3391,30
3392,30
3393,30
3394,30
3395,30
3396,30
3397,31
3398,30
3399,30
3400,30
3401,30
3402,30
3403,30
3404,31
3405,31
3406,31
3407,31
3408,31
3409,31
3410,31
3411,31
3412,31
3413,31
3414,31
3415,31
3416,31
3417,32
3418,33
3419,33
3420,33
3421,32
3422,31
3423,31
3424,31
3425,31
3426,31
3427,31
3428,31
3429,31
3430,31
3431,31
3432,31
3433,31
3434,31
3435,31
3436,31
3437,31
3438,31
3439,31
3440,30
3441,30
3442,30
3443,30
3444,29
3445,29
3446,29
3447,29
3448,29
3449,29
3450,29
3451,29
3452,29
3453,30
3454,29
3455,30
3456,30
3457,30
3458,29
3459,29
3460,29
3461,29
3462,29
3463,29
3464,29
3465,29
3466,29
3467,29
3468,29
3469,29
3470,29
3471,29
3472,29
3473,29
3474,29
3475,30
3476,29
3477,29
3478,29
3479,29
3480,29
3481,29
3482,29
3483,29
3484,29
3485,29
3486,29
3487,29
3488,29
3489,29
3490,29
3491,29
3492,29
3493,29
3494,29
3495,29
3496,29
3497,29
3498,29
3499,29
3500,29
3501,29
3502,29
3503,29
3504,29
3505,29
3506,29
3507,29
3508,29
3509,29
3510,29
3511,29
3512,29
3513,29
3514,29
3515,29
3516,30
3517,30
3518,30
3519,30
3520,30
3521,30
3522,30
3523,30
3524,30
3525,30
3526,31
3527,30
3528,29
3529,29
3530,29
3531,29
3532,29
3533,29
3534,29
3535,29
3536,29
3537,29
3538,29
3539,29
3540,29
3541,29
3542,29
3543,29
3544,29
3545,29
3546,29
3547,30
3548,30
3549,29
3550,29
3551,29
3552,29
3553,29
3554,29
3555,29
3556,29
3557,29
3558,29
3559,29
3560,29
3561,29
3562,29
3563,29
3564,29
3565,29
3566,30
3567,30
3568,30
3569,30
3570,30
3571,30
3572,30
3573,30
3574,30
3575,30
3576,29
3577,29
3578,29
3579,29
3580,30
3581,30
3582,30
3583,29
3584,29
3585,29
3586,29
3587,29
3588,30
3589,30
3590,30
3591,31
3592,31
3593,31
3594,32
3595,30
3596,30
3597,30
3598,30
3599,31
3600,30
3601,30
3602,29
3603,29
3604,29
3605,29
3606,29
3607,29
3608,29
3609,29
3610,29
3611,29
3612,29
3613,29
3614,29
3615,29
3616,29
3617,29
3618,29
3619,29
3620,29
3621,29
3622,29
3623,29
3624,29
3625,30
3626,30
3627,30
3628,30
3629,30
3630,30
3631,30
3632,30
3633,30
3634,29
3635,29
3636,29
3637,29
3638,29
3639,30
3640,30
3641,30
3642,30
3643,30
3644,30
3645,29
3646,30
3647,29
3648,29
3649,29
3650,29
3651,29
3652,29
3653,29
3654,29
3655,29
3656,29
3657,29
3658,30
3659,30
3660,29
3661,29
3662,29
3663,29
3664,29
3665,29
3666,29
3667,29
3668,29
3669,29
3670,29
3671,29
3672,29
3673,29
3674,29
3675,29
3676,29
3677,29
3678,29
3679,29
3680,29
3681,30
3682,29
3683,29
3684,29
3685,29
3686,29
3687,29
3688,29
3689,29
3690,29
3691,29
3692,29
3693,29
3694,29
3695,29
3696,29
3697,29
3698,29
3699,29
3700,29
3701,29
3702,29
3703,29
3704,29
3705,29
3706,29
3707,29
3708,29
3709,29
3710,29
3711,29
3712,29
3713,29
3714,29
3715,29
3716,29
3717,29
3718,30
3719,30
3720,30
3721,30
3722,30
3723,30
3724,30
3725,30
3726,31
3727,31
3728,30
3729,31
3730,30
3731,30
3732,31
3733,32
3734,31
3735,29
3736,29
3737,29
3738,29
3739,29
3740,29
3741,29
3742,29
3743,29
3744,29
3745,29
3746,30
3747,30
3748,30
3749,29
3750,29
3751,29
3752,29
3753,29
3754,29
3755,29
3756,29
3757,30
3758,30
3759,30
3760,29
3761,29
3762,29
3763,29
3764,29
3765,29
3766,29
3767,29
3768,29
3769,29
3770,29
3771,29
3772,29
3773,29
3774,29
3775,29
3776,29
3777,29
3778,29
3779,29
3780,29
3781,29
3782,29
3783,29
3784,29
3785,29
3786,29
3787,29
3788,29
3789,29
3790,29
3791,29
3792,29
3793,29
3794,29
3795,29
3796,29
3797,29
3798,29
3799,29
3800,29
3801,29
3802,29
3803,29
3804,29
3805,29
3806,29
3807,29
3808,29
3809,29
3810,29
3811,29
3812,29
3813,29
3814,29
3815,29
3816,29
3817,29
3818,29
3819,29
3820,29
3821,29
3822,29
3823,29
3824,29
3825,29
3826,29
3827,29
3828,29
3829,29
3830,29
3831,29
3832,29
3833,30
3834,30
3835,30
3836,30
3837,30
3838,30
3839,29
3840,29
3841,29
3842,29
3843,29
3844,29
3845,30
3846,30
3847,30
3848,30
3849,30
3850,29
3851,29
3852,29
3853,29
3854,29
3855,29
3856,29
3857,29
3858,29
3859,29
3860,29
3861,29
3862,29
3863,29
3864,29
3865,29
3866,29
3867,29
3868,29
3869,29
3870,29
3871,30
3872,29
3873,29
3874,29
3875,29
3876,29
3877,29
3878,29
3879,29
3880,29
3881,29
3882,30
3883,31
3884,31
3885,30
3886,30
3887,30
3888,31
3889,31
3890,31
3891,31
3892,31
3893,31
3894,31
3895,31
3896,31
3897,31
3898,31
3899,31
3900,31
3901,31
3902,31
3903,30
3904,30
3905,30
3906,30
3907,30
3908,30
3909,30
3910,30
3911,30
3912,30
3913,30
3914,30
3915,29
3916,29
3917,29
3918,29
3919,29
3920,29
3921,29
3922,29
3923,29
3924,29
3925,29
3926,29
3927,29
3928,29
3929,29
3930,29
3931,29
3932,29
3933,29
3934,29
3935,29
3936,30
3937,30
3938,30
3939,30
3940,30
3941,30
3942,30
3943,29
3944,29
3945,29
3946,29
3947,29
3948,29
3949,29
3950,29
3951,29
3952,29
3953,29
3954,29
3955,29
3956,29
3957,29
3958,30
3959,31
3960,30
3961,29
3962,29
3963,29
3964,29
3965,29
3966,29
3967,29
3968,29
3969,29
3970,29
3971,29
3972,29
3973,29
3974,29
3975,29
3976,29
3977,29
3978,29
3979,29
3980,29
3981,29
3982,30
3983,30
3984,30
3985,30
3986,30
3987,30
3988,30
3989,30
3990,31
3991,31
3992,31
3993,31
3994,31
3995,31
3996,31
3997,31
3998,31
3999,31
4000,30
4001,30
4002,29
4003,29
4004,29
4005,29
4006,29
4007,29
4008,29
4009,29
4010,29
4011,29
4012,29
4013,30
4014,30
4015,30
4016,29
4017,29
4018,29
4019,29
4020,29
4021,29
4022,29
4023,29
4024,29
4025,29
4026,29
4027,29
4028,29
4029,29
4030,29
4031,29
4032,29
4033,30
4034,30
4035,30
4036,30
4037,30
4038,30
4039,30
4040,30
4041,30
4042,30
4043,30
4044,30
4045,30
4046,31
4047,30
4048,30
4049,30
4050,30
4051,29
4052,29
4053,29
4054,29
4055,29
4056,29
4057,29
4058,29
4059,29
4060,31
4061,31
4062,30
4063,30
4064,30
4065,30
4066,30
4067,30
4068,31
4069,30
4070,30
4071,30
4072,30
4073,30
4074,31
4075,31
4076,31
4077,32
4078,32
4079,32
4080,32
4081,33
4082,32
4083,32
4084,32
4085,32
4086,32
4087,31
4088,31
4089,31
4090,31
4091,31
4092,31
4093,31
4094,31
4095,30
4096,30
4097,31
4098,31
4099,31
4100,31
4101,30
4102,30
4103,29
4104,29
4105,29
4106,29
4107,29
4108,29
4109,29
4110,29
4111,29
4112,29
4113,29
4114,29
4115,29
4116,29
4117,29
4118,29
4119,29
4120,29
4121,29
4122,29
4123,29
4124,29
4125,29
4126,29
4127,29
4128,29
4129,29
4130,29
4131,29
4132,29
4133,29
4134,29
4135,29
4136,29
4137,29
4138,29
4139,29
4140,29
4141,29
4142,29
4143,29
4144,29
4145,29
4146,29
4147,30
4148,30
4149,29
4150,29
4151,29
4152,29
4153,29
4154,29
4155,30
4156,30
4157,29
4158,29
4159,29
4160,29
4161,29
4162,29
4163,30
4164,30
4165,30
4166,30
4167,29
4168,29
4169,29
4170,29
4171,29
4172,29
4173,29
4174,30
4175,29
4176,29
4177,29
4178,31
4179,31
4180,30
4181,31
4182,31
4183,31
4184,31
4185,31
4186,30
4187,30
4188,31
4189,29
4190,29
4191,29
4192,29
4193,30
4194,29
4195,29
4196,29
4197,29
4198,29
4199,30
4200,29
4201,29
4202,29
4203,29
4204,29
4205,29
4206,29
4207,29
4208,29
4209,29
4210,29
4211,29
4212,29
4213,29
4214,29
4215,29
4216,29
4217,29
4218,29
4219,29
4220,30
4221,29
4222,29
4223,29
4224,29
4225,29
4226,29
4227,29
4228,29
4229,29
4230,29
4231,29
4232,29
4233,30
4234,30
4235,29
4236,30
4237,30
4238,30
4239,30
4240,30
4241,30
4242,30
4243,30
4244,30
4245,31
4246,31
4247,31
4248,29
4249,29
4250,29
4251,29
4252,29
4253,30
4254,30
4255,30
4256,29
4257,29
4258,29
4259,29
4260,29
4261,29
4262,29
4263,29
4264,29
4265,29
4266,29
4267,29
4268,29
4269,29
4270,29
4271,29
4272,29
4273,29
4274,29
4275,29
4276,29
4277,29
4278,29
4279,30
4280,29
4281,30
4282,29
4283,29
4284,29
4285,29
4286,29
4287,29
4288,29
4289,29
4290,29
4291,30
4292,29
4293,29
4294,29
4295,29
4296,29
4297,29
4298,29
4299,29
4300,30
4301,29
4302,29
4303,29
4304,29
4305,29
4306,29
4307,29
4308,29
4309,29
4310,29
4311,29
4312,29
4313,29
4314,29
4315,29
4316,30
4317,30
4318,30
4319,30
4320,30
4321,30
4322,30
4323,30
4324,30
4325,29
4326,29
4327,29
4328,29
4329,29
4330,29
4331,29
4332,29
4333,29
4334,29
4335,29
4336,29
4337,29
4338,29
4339,29
4340,29
4341,29
4342,29
4343,30
4344,29
4345,29
4346,29
4347,29
4348,29
4349,29
4350,29
4351,29
4352,29
4353,29
4354,29
4355,29
4356,29
4357,29
4358,29
4359,29
4360,29
4361,29
4362,29
4363,29
4364,29
4365,29
4366,29
4367,29
4368,29
4369,29
4370,29
4371,29
4372,30
4373,30
4374,30
4375,30
4376,30
4377,30
4378,30
4379,31
4380,31
4381,31
4382,31
4383,31
4384,31
4385,31
4386,31
4387,31
4388,31
4389,31
4390,31
4391,32
4392,31
4393,31
4394,31
4395,30
4396,30
4397,30
4398,30
4399,30
4400,29
4401,29
4402,29
4403,29
4404,29
4405,29
4406,29
4407,30
4408,29
4409,29
4410,29
4411,29
4412,29
4413,29
4414,29
4415,29
4416,29
4417,29
4418,29
4419,29
4420,29
4421,29
4422,29
4423,29
4424,29
4425,29
4426,29
4427,29
4428,29
4429,29
4430,29
4431,29
4432,29
4433,29
4434,29
4435,29
4436,29
4437,29
4438,29
4439,29
4440,29
4441,29
4442,29
4443,29
4444,29
4445,29
4446,29
4447,29
4448,29
4449,29
4450,29
4451,29
4452,29
4453,29
4454,29
4455,29
4456,29
4457,29
4458,29
4459,29
4460,30
4461,29
4462,29
4463,29
4464,29
4465,29
4466,29
4467,29
4468,29
4469,29
4470,29
4471,29
4472,30
4473,29
4474,29
4475,29
4476,29
4477,29
4478,29
4479,29
4480,30
4481,29
4482,29
4483,29
4484,29
4485,29
4486,29
4487,29
4488,29
4489,29
4490,29
4491,29
4492,29
4493,29
4494,29
4495,29
4496,29
4497,29
4498,30
4499,30
4500,29
4501,30
4502,30
4503,30
4504,31
4505,30
4506,30
4507,30
4508,30
4509,29
4510,30
4511,29
4512,29
4513,29
4514,29
4515,29
4516,29
4517,29
4518,29
4519,29
4520,29
4521,29
4522,29
4523,29
4524,29
4525,29
4526,29
4527,29
4528,29
4529,29
4530,29
4531,29
4532,29
4533,29
4534,29
4535,29
4536,29
4537,29
4538,29
4539,29
4540,29
4541,29
4542,29
4543,29
4544,29
4545,29
4546,29
4547,29
4548,29
4549,29
4550,29
4551,29
4552,29
4553,29
4554,30
4555,30
4556,30
4557,30
4558,30
4559,30
4560,30
4561,30
4562,30
4563,30
4564,30
4565,30
4566,30
4567,30
4568,30
4569,30
4570,30
4571,30
4572,30
4573,30
4574,30
4575,30
4576,30
4577,30
4578,30
4579,30
4580,30
4581,30
4582,30
4583,30
4584,30
4585,30
4586,30
4587,30
4588,30
4589,32
4590,32
4591,31
4592,31
4593,31
4594,31
4595,31
4596,31
4597,31
4598,31
4599,31
4600,32
4601,31
4602,31
4603,31
4604,30
4605,30
4606,30
4607,30
4608,30
4609,30
4610,30
4611,30
4612,30
4613,30
4614,30
4615,30
4616,30
4617,30
4618,30
4619,30
4620,30
4621,30
4622,30
4623,30
4624,30
4625,30
4626,30
4627,30
4628,30
4629,30
4630,30
4631,31
4632,30
4633,30
4634,30
4635,31
4636,30
4637,30
4638,30
4639,30
4640,30
4641,30
4642,30
4643,30
4644,30
4645,30
4646,30
4647,30
4648,30
4649,30
4650,30
4651,30
4652,30
4653,30
4654,30
4655,30
4656,30
4657,30
4658,30
4659,30
4660,30
4661,30
4662,30
4663,30
4664,30
4665,30
4666,30
4667,30
4668,30
4669,30
4670,30
4671,30
4672,31
4673,31
4674,31
4675,30
4676,30
4677,30
4678,30
4679,30
4680,30
4681,30
4682,30
4683,30
4684,30
4685,30
4686,31
4687,30
4688,30
4689,30
4690,31
4691,30
4692,30
4693,30
4694,30
4695,30
4696,30
4697,30
4698,30
4699,30
4700,30
4701,30
4702,30
4703,30
4704,31
4705,31
4706,30
4707,30
4708,30
4709,30
4710,30
4711,30
4712,30
4713,30
4714,31
4715,32
4716,32
4717,32
4718,32
4719,30
4720,30
4721,31
4722,31
4723,31
4724,31
4725,31
4726,30
4727,30
4728,30
4729,30
4730,30
4731,30
4732,30
4733,30
4734,30
4735,30
4736,31
4737,30
4738,30
4739,30
4740,30
4741,30
4742,30
4743,30
4744,30
4745,30
4746,30
4747,30
4748,30
4749,30
4750,30
4751,30
4752,30
4753,30
4754,30
4755,30
4756,30
4757,30
4758,30
4759,30
4760,31
4761,30
4762,30
4763,30
4764,30
4765,30
4766,30
4767,30
4768,30
4769,30
4770,30
4771,30
4772,30
4773,31
4774,31
4775,31
4776,31
4777,31
4778,31
4779,31
4780,31
4781,31
4782,31
4783,31
4784,31
4785,30
4786,31
4787,30
4788,30
4789,30
4790,31
4791,31
4792,31
4793,31
4794,31
4795,31
4796,31
4797,31
4798,31
4799,31
4800,31
4801,31
4802,31
4803,31
4804,31
4805,31
4806,31
4807,31
4808,31
4809,31
4810,31
4811,31
4812,31
4813,31
4814,31
4815,31
4816,31
4817,31
4818,31
4819,31
4820,31
4821,31
4822,31
4823,30
4824,30
4825,30
4826,30
4827,30
4828,31
4829,31
4830,31
4831,30
4832,30
4833,30
4834,30
4835,30
4836,30
4837,30
4838,31
4839,30
4840,30
4841,30
4842,30
4843,30
4844,30
4845,30
4846,30
4847,30
4848,30
4849,30
4850,30
4851,30
4852,30
4853,30
4854,30
4855,30
4856,30
4857,30
4858,30
4859,30
4860,30
4861,30
4862,30
4863,30
4864,30
4865,30
4866,30
4867,30
4868,30
4869,30
4870,31
4871,31
4872,31
4873,31
4874,31
4875,30
4876,30
4877,30
4878,30
4879,31
4880,30
4881,31
4882,31
4883,31
4884,31
4885,31
4886,31
4887,30
4888,30
4889,30
4890,30
4891,30
4892,30
4893,30
4894,30
4895,32
4896,31
4897,32
4898,32
4899,32
4900,31
4901,31
4902,31
4903,31
4904,31
4905,31
4906,31
4907,31
4908,31
4909,32
4910,32
4911,32
4912,32
4913,32
4914,31
4915,31
4916,31
4917,31
4918,31
4919,31
4920,31
4921,31
4922,31
4923,31
4924,31
4925,31
4926,31
4927,31
4928,30
4929,31
4930,31
4931,30
4932,30
4933,30
4934,30
4935,31
4936,31
4937,31
4938,30
4939,30
4940,30
4941,30
4942,31
4943,31
4944,31
4945,31
4946,30
4947,30
4948,31
4949,31
4950,31
4951,30
4952,30
4953,30
4954,30
4955,30
4956,30
4957,30
4958,30
4959,30
4960,30
4961,30
4962,30
4963,30
4964,30
4965,30
4966,30
4967,30
4968,30
4969,30
4970,30
4971,30
4972,30
4973,29
4974,29
4975,29
4976,29
4977,29
4978,30
4979,29
4980,29
4981,29
4982,29
4983,29
4984,29
4985,29
4986,29
4987,29
4988,29
4989,29
4990,29
4991,29
4992,29
4993,29
4994,29
4995,29
4996,29
4997,29
4998,29
4999,29
5000,29
5001,29
5002,30
5003,30
5004,30
5005,30
5006,30
5007,30
5008,30
5009,30
5010,29
5011,29
5012,29
5013,29
5014,29
5015,29
5016,29
5017,29
5018,29
5019,29
5020,29
5021,29
5022,30
5023,30
5024,30
5025,30
5026,30
5027,30
5028,30
5029,30
5030,30
5031,30
5032,30
5033,30
5034,30
5035,31
5036,31
5037,31
5038,31
5039,30
5040,30
5041,30
5042,30
5043,29
5044,29
5045,30
5046,29
5047,30
5048,29
5049,29
5050,29
5051,29
5052,29
5053,29
5054,29
5055,29
5056,29
5057,29
5058,29
5059,29
5060,29
5061,29
5062,29
5063,29
5064,29
5065,29
5066,29
5067,29
5068,29
5069,29
5070,30
5071,30
5072,30
5073,30
5074,30
5075,30
5076,30
5077,30
5078,30
5079,30
5080,30
5081,30
5082,29
5083,29
5084,29
5085,29
5086,29
5087,29
5088,29
5089,29
5090,29
5091,29
5092,29
5093,29
5094,29
5095,29
5096,29
5097,29
5098,29
5099,29
5100,29
5101,29
5102,29
5103,29
5104,29
5105,29
5106,29
5107,29
5108,29
5109,29
5110,29
5111,29
5112,29
5113,29
5114,29
5115,29
5116,29
5117,29
5118,29
5119,29
5120,29
5121,29
5122,29
5123,29
5124,29
5125,29
5126,30
5127,29
5128,29
5129,29
5130,29
5131,29
5132,30
5133,30
5134,29
5135,29
5136,30
5137,30
5138,30
5139,30
5140,30
5141,30
5142,30
5143,30
5144,30
5145,30
5146,30
5147,30
5148,30
5149,30
5150,30
5151,30
5152,30
5153,30
5154,30
5155,30
5156,30
5157,30
5158,31
5159,31
5160,31
5161,31
5162,31
5163,31
5164,31
5165,31
5166,31
5167,31
5168,30
5169,30
5170,30
5171,30
5172,30
5173,30
5174,30
5175,30
5176,30
5177,30
5178,30
5179,30
5180,30
5181,31
5182,30
5183,30
5184,30
5185,30
5186,30
5187,30
5188,30
5189,30
5190,31
5191,31
5192,32
5193,32
5194,32
5195,32
5196,32
5197,32
5198,32
5199,31
5200,31
5201,31
5202,31
5203,31
5204,31
5205,31
5206,32
5207,32
5208,32
5209,32
5210,31
5211,31
5212,31
5213,31
5214,31
5215,31
5216,31
5217,31
5218,31
5219,32
5220,32
5221,32
5222,33
5223,32
5224,32
5225,31
5226,31
5227,31
5228,31
5229,31
5230,31
5231,31
5232,31
5233,31
5234,31
5235,32
5236,32
5237,32
5238,32
5239,32
5240,32
5241,32
5242,32
5243,32
5244,33
5245,33
5246,33
5247,33
5248,33
5249,33
5250,33
5251,33
5252,34
5253,33
5254,33
5255,33
5256,33
5257,33
5258,33
5259,33
5260,33
5261,33
5262,33
5263,33
5264,33
5265,33
5266,33
5267,33
5268,33
5269,32
5270,32
5271,32
5272,32
5273,32
5274,32
5275,32
5276,32
5277,32
5278,32
5279,32
5280,32
5281,32
5282,32
5283,32
5284,32
5285,32
5286,32
5287,32
5288,32
5289,32
5290,32
5291,32
5292,32
5293,32
5294,32
5295,32
5296,32
5297,32
5298,32
5299,33
5300,33
5301,33
5302,33
5303,32
5304,32
5305,32
5306,32
5307,32
5308,32
5309,32
5310,32
5311,33
5312,33
5313,33
5314,32
5315,32
5316,32
5317,32
5318,32
5319,32
5320,32
5321,32
5322,32
5323,32
5324,32
5325,32
5326,32
5327,32
5328,32
5329,32
5330,32
5331,32
5332,32
5333,32
5334,32
5335,32
5336,32
5337,32
5338,32
5339,32
5340,32
5341,32
5342,32
5343,32
5344,32
5345,32
5346,32
5347,32
5348,32
5349,32
5350,32
5351,33
5352,32
5353,32
5354,33
5355,33
5356,32
5357,32
5358,32
5359,32
5360,32
5361,32
5362,32
5363,32
5364,32
5365,32
5366,32
5367,33
5368,33
5369,33
5370,33
5371,33
5372,33
5373,33
5374,33
5375,33
5376,33
5377,33
5378,33
5379,33
5380,33
5381,33
5382,33
5383,33
5384,33
5385,33
5386,33
5387,33
5388,33
5389,33
5390,33
5391,33
5392,33
5393,33
5394,33
5395,33
5396,33
5397,33
5398,33
5399,33
5400,33
5401,33
5402,33
5403,33
5404,33
5405,33
5406,33
5407,33
5408,33
5409,33
5410,33
5411,33
5412,33
5413,33
5414,33
5415,33
5416,33
5417,33
5418,33
5419,33
5420,33
5421,33
5422,33
5423,34
5424,33
5425,33
5426,33
5427,33
5428,33
5429,33
5430,33
5431,33
5432,33
5433,33
5434,33
5435,32
5436,32
5437,32
5438,32
5439,32
5440,32
5441,32
5442,32
5443,32
5444,32
5445,32
5446,32
5447,32
5448,32
5449,32
5450,32
5451,32
5452,32
5453,32
5454,32
5455,32
5456,32
5457,32
5458,32
5459,32
5460,32
5461,33
5462,33
5463,33
5464,33
5465,33
5466,33
5467,34
5468,34
5469,34
5470,34
5471,35
5472,34
5473,34
5474,34
5475,34
5476,34
5477,34
5478,34
5479,33
5480,33
5481,33
5482,33
5483,33
5484,32
5485,32
5486,32
5487,32
5488,32
5489,32
5490,33
5491,33
5492,32
5493,32
5494,32
5495,32
5496,32
5497,33
5498,33
5499,32
5500,32
5501,32
5502,32
5503,32
5504,32
5505,32
5506,32
5507,32
5508,32
5509,32
5510,32
5511,32
5512,32
5513,32
5514,32
5515,32
5516,32
5517,32
5518,32
5519,32
5520,32
5521,32
5522,32
5523,32
5524,32
5525,32
5526,32
5527,32
5528,32
5529,32
5530,32
5531,33
5532,32
5533,32
5534,32
5535,32
5536,32
5537,32
5538,32
5539,32
5540,32
5541,32
5542,32
5543,33
5544,35
5545,33
5546,33
5547,32
5548,32
5549,32
5550,32
5551,32
5552,32
5553,32
5554,32
5555,32
5556,32
5557,32
5558,32
5559,32
5560,32
5561,32
5562,32
5563,32
5564,33
5565,33
5566,33
5567,33
5568,33
5569,33
5570,33
5571,33
5572,33
5573,33
5574,33
5575,33
5576,33
5577,33
5578,32
5579,32
5580,32
5581,32
5582,32
5583,32
5584,32
5585,32
5586,32
5587,32
5588,32
5589,32
5590,32
5591,32
5592,32
5593,32
5594,32
5595,32
5596,32
5597,32
5598,32
5599,32
5600,32
5601,32
5602,32
5603,32
5604,32
5605,32
5606,32
5607,32
5608,32
5609,32
5610,32
5611,32
5612,32
5613,33
5614,33
5615,32
5616,32
5617,32
5618,32
5619,32
5620,32
5621,32
5622,32
5623,32
5624,32
5625,32
5626,33
5627,33
5628,33
5629,33
5630,32
5631,32
5632,32
5633,32
5634,32
5635,32
5636,33
5637,33
5638,33
5639,33
5640,33
5641,33
5642,34
5643,33
5644,33
5645,33
5646,33
5647,33
5648,33
5649,33
5650,33
5651,33
5652,33
5653,33
5654,33
5655,32
5656,32
5657,32
5658,32
5659,32
5660,32
5661,32
5662,32
5663,32
5664,33
5665,33
5666,32
5667,32
5668,32
5669,32
5670,33
5671,33
5672,32
5673,32
5674,32
5675,32
5676,33
5677,33
5678,33
5679,33
5680,33
5681,32
5682,32
5683,32
5684,32
5685,32
5686,32
5687,32
5688,32
5689,32
5690,33
5691,33
5692,32
5693,32
5694,32
5695,32
5696,32
5697,32
5698,32
5699,32
5700,32
5701,32
5702,32
5703,32
5704,32
5705,32
5706,32
5707,32
5708,32
5709,32
5710,32
5711,32
5712,32
5713,32
5714,32
5715,32
5716,32
5717,32
5718,32
5719,32
5720,32
5721,32
5722,32
5723,32
5724,32
5725,32
5726,33
5727,33
5728,33
5729,32
5730,32
5731,32
5732,32
5733,32
5734,32
5735,32
5736,32
5737,32
5738,32
5739,32
5740,32
5741,32
5742,32
5743,32
5744,32
5745,33
5746,32
5747,32
5748,32
5749,32
5750,32
5751,32
5752,33
5753,33
5754,33
5755,33
5756,33
5757,33
5758,33
5759,33
5760,33
5761,32
5762,32
5763,32
5764,32
5765,32
5766,33
5767,33
5768,33
5769,33
5770,33
5771,33
5772,33
5773,33
5774,33
5775,33
5776,33
5777,33
5778,33
5779,34
5780,33
5781,34
5782,34
5783,34
5784,34
5785,35
5786,33
5787,33
5788,33
5789,33
5790,33
5791,33
5792,33
5793,33
5794,33
5795,33
5796,33
5797,33
5798,33
5799,33
5800,33
5801,34
5802,33
5803,33
5804,33
5805,33
5806,34
5807,34
5808,33
5809,33
5810,33
5811,33
5812,33
5813,33
5814,33
5815,33
5816,33
5817,34
5818,34
5819,34
5820,34
5821,34
5822,34
5823,34
5824,34
5825,35
5826,34
5827,35
5828,35
5829,35
5830,35
5831,35
5832,34
5833,33
5834,33
5835,33
5836,33
5837,33
5838,33
5839,33
5840,33
5841,33
5842,33
5843,33
5844,33
5845,33
5846,33
5847,33
5848,33
5849,33
5850,33
5851,33
5852,33
5853,33
5854,33
5855,33
5856,34
5857,33
5858,33
5859,33
5860,33
5861,33
5862,33
5863,33
5864,34
5865,33
5866,33
5867,33
5868,33
5869,33
5870,33
5871,33
5872,33
5873,33
5874,33
5875,33
5876,33
5877,33
5878,33
5879,33
5880,33
5881,33
5882,33
5883,33
5884,33
5885,33
5886,33
5887,33
5888,33
5889,33
5890,33
5891,34
5892,34
5893,34
5894,34
5895,34
5896,34
5897,34
5898,34
5899,34
5900,34
5901,34
5902,34
5903,34
5904,34
5905,34
5906,34
5907,34
5908,34
5909,34
5910,35
5911,34
5912,33
5913,34
5914,34
5915,33
5916,33
5917,33
5918,34
5919,33
5920,33
5921,33
5922,34
5923,34
5924,34
5925,35
5926,35
5927,35
5928,35
5929,34
5930,34
5931,34
5932,34
5933,35
5934,35
5935,34
5936,34
5937,34
5938,34
5939,35
5940,35
5941,34
5942,34
5943,34
5944,34
5945,34
5946,34
5947,34
5948,35
5949,35
5950,35
5951,35
5952,35
5953,35
5954,35
5955,35
5956,35
5957,35
5958,35
5959,34
5960,34
5961,34
5962,34
5963,35
5964,35
5965,35
5966,35
5967,35
5968,35
5969,35
5970,35
5971,35
5972,35
5973,35
5974,35
5975,35
5976,35
5977,35
5978,34
5979,34
5980,34
5981,34
5982,34
5983,34
5984,34
5985,34
5986,34
5987,34
5988,34
5989,34
5990,34
5991,34
5992,34
5993,34
5994,34
5995,34
5996,34
5997,34
5998,34
5999,34
6000,34
6001,34
6002,34
6003,35
6004,35
6005,35
6006,35
6007,34
6008,34
6009,34
6010,33
6011,33
6012,33
6013,34
6014,33
6015,33
6016,33
6017,33
6018,33
6019,33
6020,33
6021,33
6022,33
6023,33
6024,33
6025,33
6026,33
6027,33
6028,33
6029,33
6030,33
6031,34
6032,34
6033,34
6034,34
6035,34
6036,34
6037,34
6038,34
6039,34
6040,34
6041,34
6042,34
6043,34
6044,34
6045,34
6046,34
6047,35
6048,34
6049,34
6050,34
6051,33
6052,33
6053,33
6054,34
6055,34
6056,34
6057,34
6058,34
6059,34
6060,35
6061,34
6062,34
6063,34
6064,34
6065,34
6066,34
6067,34
6068,34
6069,35
6070,35
6071,35
6072,34
6073,34
6074,34
6075,34
6076,34
6077,34
6078,34
6079,34
6080,34
6081,34
6082,34
6083,34
6084,34
6085,35
6086,36
6087,36
6088,35
6089,34
6090,34
6091,34
6092,35
6093,33
6094,33
6095,33
6096,34
6097,34
6098,34
6099,33
6100,33
6101,33
6102,33
6103,33
6104,33
6105,34
6106,34
6107,33
6108,33
6109,33
6110,33
6111,34
6112,33
6113,33
6114,33
6115,34
6116,34
6117,33
6118,33
6119,34
6120,33
6121,33
6122,33
6123,33
6124,33
6125,33
6126,33
6127,33
6128,33
6129,33
6130,33
6131,33
6132,33
6133,33
6134,33
6135,33
6136,33
6137,33
6138,33
6139,33
6140,33
6141,33
6142,33
6143,33
6144,33
6145,33
6146,34
6147,34
6148,34
6149,34
6150,34
6151,34
6152,34
6153,34
6154,34
6155,35
6156,35
6157,34
6158,34
6159,34
6160,34
6161,34
6162,34
6163,35
6164,35
6165,35
6166,34
6167,34
6168,34
6169,34
6170,34
6171,34
6172,34
6173,34
6174,34
6175,34
6176,34
6177,34
6178,34
6179,34
6180,34
6181,34
6182,34
6183,34
6184,34
6185,34
6186,34
6187,34
6188,35
6189,35
6190,35
6191,35
6192,35
6193,35
6194,35
6195,35
6196,34
6197,34
6198,34
6199,34
6200,34
6201,34
6202,34
6203,34
6204,34
6205,34
6206,34
6207,34
6208,34
6209,34
6210,34
6211,34
6212,34
6213,34
6214,34
6215,34
6216,34
6217,34
6218,34
6219,34
6220,34
6221,34
6222,34
6223,34
6224,34
6225,34
6226,34
6227,34
6228,34
6229,34
6230,34
6231,34
6232,34
6233,34
6234,34
6235,34
6236,34
6237,34
6238,34
6239,34
6240,34
6241,34
6242,34
6243,34
6244,34
6245,34
6246,34
6247,34
6248,34
6249,34
6250,34
6251,34
6252,34
6253,34
6254,34
6255,35
6256,35
6257,35
6258,36
6259,35
6260,35
6261,35
6262,34
6263,34
6264,34
6265,34
6266,34
6267,34
6268,34
6269,34
6270,34
6271,34
6272,34
6273,34
6274,34
6275,34
6276,34
6277,34
6278,34
6279,34
6280,34
6281,34
6282,34
6283,34
6284,34
6285,35
6286,34
6287,34
6288,34
6289,34
6290,34
6291,34
6292,34
6293,34
6294,34
6295,34
6296,34
6297,34
6298,34
6299,34
6300,34
6301,34
6302,34
6303,34
6304,34
6305,34
6306,34
6307,34
6308,34
6309,34
6310,35
6311,35
6312,35
6313,35
6314,35
6315,35
6316,35
6317,35
6318,35
6319,35
6320,35
6321,36
6322,35
6323,34
6324,34
6325,34
6326,34
6327,34
6328,34
6329,34
6330,34
6331,34
6332,34
6333,34
6334,34
6335,34
6336,34
6337,35
6338,34
6339,34
6340,34
6341,34
6342,34
6343,34
6344,34
6345,34
6346,34
6347,34
6348,34
6349,34
6350,34
6351,34
6352,34
6353,34
6354,34
6355,34
6356,34
6357,35
6358,35
6359,35
6360,35
6361,34
6362,34
6363,34
6364,34
6365,34
6366,34
6367,34
6368,34
6369,34
6370,34
6371,34
6372,34
6373,34
6374,34
6375,34
6376,34
6377,34
6378,35
6379,35
6380,34
6381,34
6382,34
6383,34
6384,34
6385,34
6386,34
6387,34
6388,34
6389,35
6390,35
6391,35
6392,34
6393,34
6394,34
6395,34
6396,34
6397,34
6398,34
6399,34
6400,34
6401,34
6402,34
6403,34
6404,34
6405,34
6406,34
6407,34
6408,34
6409,34
6410,34
6411,34
6412,34
6413,34
6414,35
6415,35
6416,35
6417,36
6418,37
6419,36
6420,36
6421,35
6422,35
6423,35
6424,35
6425,34
6426,34
6427,34
6428,34
6429,34
6430,34
6431,34
6432,34
6433,34
6434,34
6435,34
6436,34
6437,34
6438,35
6439,35
6440,34
6441,34
6442,35
6443,34
6444,34
6445,34
6446,34
6447,34
6448,34
6449,34
6450,34
6451,34
6452,35
6453,35
6454,35
6455,35
6456,34
6457,34
6458,35
6459,35
6460,35
6461,35
6462,35
6463,35
6464,35
6465,35
6466,35
6467,35
6468,34
6469,34
6470,35
6471,36
6472,35
6473,35
6474,35
6475,35
6476,35
6477,35
6478,35
6479,35
6480,35
6481,35
6482,35
6483,35
6484,35
6485,35
6486,35
6487,35
6488,35
6489,35
6490,35
6491,35
6492,35
6493,35
6494,35
6495,34
6496,34
6497,34
6498,34
6499,34
6500,34
6501,34
6502,34
6503,34
6504,34
6505,36
6506,35
6507,35
6508,35
6509,34
6510,34
6511,34
6512,34
6513,34
6514,34
6515,34
6516,34
6517,34
6518,34
6519,34
6520,34
6521,34
6522,34
6523,34
6524,34
6525,34
6526,34
6527,34
6528,34
6529,34
6530,34
6531,34
6532,34
6533,34
6534,34
6535,34
6536,34
6537,34
6538,34
6539,34
6540,34
6541,34
6542,34
6543,34
6544,34
6545,35
6546,35
6547,34
6548,34
6549,34
6550,34
6551,34
6552,34
6553,34
6554,34
6555,34
6556,34
6557,34
6558,34
6559,35
6560,35
6561,34
6562,34
6563,34
6564,34
6565,34
6566,34
6567,34
6568,34
6569,34
6570,34
6571,34
6572,34
6573,34
6574,34
6575,34
6576,34
6577,34
6578,34
6579,34
6580,34
6581,34
6582,35
6583,35
6584,34
6585,34
6586,34
6587,34
6588,34
6589,34
6590,34
6591,34
6592,34
6593,34
6594,34
6595,34
6596,34
6597,34
6598,34
6599,34
6600,34
6601,34
6602,34
6603,35
6604,35
6605,35
6606,35
6607,35
6608,36
6609,35
6610,35
6611,35
6612,35
6613,35
6614,35
6615,35
6616,35
6617,36
6618,35
6619,34
6620,34
6621,34
6622,35
6623,35
6624,35
6625,35
6626,35
6627,35
6628,36
6629,35
6630,34
6631,34
6632,34
6633,34
6634,34
6635,34
6636,34
6637,34
6638,34
6639,34
6640,34
6641,34
6642,34
6643,34
6644,34
6645,34
6646,34
6647,34
6648,34
6649,34
6650,34
6651,34
6652,34
6653,34
6654,34
6655,34
6656,35
6657,35
6658,34
6659,34
6660,34
6661,34
6662,35
6663,35
6664,35
6665,34
6666,34
6667,34
6668,34
6669,34
6670,34
6671,34
6672,34
6673,34
6674,33
6675,33
6676,33
6677,33
6678,33
6679,33
6680,33
6681,33
6682,33
6683,33
6684,33
6685,33
6686,33
6687,33
6688,33
6689,34
6690,34
6691,34
6692,33
6693,33
6694,33
6695,33
6696,33
6697,33
6698,33
6699,34
6700,34
6701,34
6702,33
6703,33
6704,33
6705,33
6706,33
6707,33
6708,33
6709,33
6710,33
6711,33
6712,33
6713,33
6714,33
6715,33
6716,33
6717,33
6718,33
6719,33
6720,33
6721,34
6722,33
6723,33
6724,33
6725,33
6726,33
6727,33
6728,33
6729,33
6730,33
6731,33
6732,33
6733,33
6734,33
6735,33
6736,33
6737,33
6738,34
6739,34
6740,34
6741,34
6742,34
6743,35
6744,35
6745,35
6746,35
6747,35
6748,35
6749,35
6750,35
6751,35
6752,35
6753,34
6754,34
6755,34
6756,34
6757,34
6758,34
6759,34
6760,34
6761,33
6762,33
6763,33
6764,33
6765,33
6766,33
6767,33
6768,33
6769,35
6770,34
6771,33
6772,33
6773,33
6774,33
6775,33
6776,33
6777,33
6778,33
6779,33
6780,33
6781,33
6782,33
6783,33
6784,33
6785,33
6786,33
6787,33
6788,33
6789,33
6790,33
6791,33
6792,34
6793,34
6794,34
6795,34
6796,33
6797,33
6798,33
6799,33
6800,33
6801,33
6802,33
6803,33
6804,33
6805,33
6806,33
6807,33
6808,33
6809,33
6810,33
6811,33
6812,33
6813,33
6814,33
6815,33
6816,33
6817,33
6818,33
6819,33
6820,33
6821,33
6822,33
6823,33
6824,33
6825,33
6826,33
6827,33
6828,33
6829,33
6830,33
6831,33
6832,34
6833,33
6834,33
6835,33
6836,33
6837,33
6838,33
6839,33
6840,33
6841,34
6842,34
6843,34
6844,33
6845,33
6846,33
6847,33
6848,33
6849,33
6850,33
6851,33
6852,33
6853,33
6854,33
6855,33
6856,33
6857,34
6858,33
6859,33
6860,33
6861,33
6862,33
6863,33
6864,33
6865,33
6866,33
6867,33
6868,33
6869,33
6870,33
6871,33
6872,33
6873,33
6874,33
6875,33
6876,33
6877,33
6878,33
6879,34
6880,34
6881,34
6882,34
6883,34
6884,34
6885,35
6886,34
6887,34
6888,33
6889,33
6890,33
6891,33
6892,33
6893,33
6894,33
6895,33
6896,33
6897,33
6898,33
6899,33
6900,33
6901,33
6902,33
6903,33
6904,33
6905,33
6906,33
6907,33
6908,33
6909,33
6910,33
6911,33
6912,33
6913,33
6914,33
6915,33
6916,33
6917,33
6918,33
6919,34
6920,34
6921,34
6922,34
6923,34
6924,34
6925,33
6926,33
6927,33
6928,33
6929,33
6930,33
6931,32
6932,32
6933,32
6934,32
6935,33
6936,32
6937,32
6938,32
6939,32
6940,32
6941,33
6942,32
6943,33
6944,33
6945,33
6946,33
6947,33
6948,33
6949,33
6950,33
6951,33
6952,33
6953,33
6954,33
6955,33
6956,33
6957,33
6958,33
6959,33
6960,32
6961,32
6962,32
6963,32
6964,32
6965,33
6966,32
6967,32
6968,32
6969,32
6970,32
6971,32
6972,32
6973,32
6974,32
6975,32
6976,32
6977,32
6978,32
6979,32
6980,32
6981,32
6982,32
6983,33
6984,32
6985,33
6986,33
6987,33
6988,33
6989,32
6990,32
6991,32
6992,32
6993,32
6994,32
6995,32
6996,34
6997,33
6998,33
6999,33
7000,34
7001,34
7002,33
7003,32
7004,32
7005,32
7006,32
7007,32
7008,32
7009,32
7010,32
7011,32
7012,32
7013,32
7014,32
7015,32
7016,32
7017,32
7018,32
7019,32
7020,32
7021,32
7022,32
7023,32
7024,32
7025,32
7026,32
7027,33
7028,32
7029,32
7030,32
7031,32
7032,32
7033,32
7034,32
7035,32
7036,32
7037,32
7038,32
7039,32
7040,32
7041,32
7042,32
7043,32
7044,32
7045,32
7046,32
7047,32
7048,32
7049,32
7050,32
7051,32
7052,32
7053,32
7054,32
7055,32
7056,32
7057,32
7058,32
7059,32
7060,32
7061,32
7062,32
7063,33
7064,32
7065,32
7066,32
7067,32
7068,32
7069,32
7070,32
7071,32
7072,32
7073,32
7074,32
7075,33
7076,32
7077,32
7078,32
7079,32
7080,32
7081,32
7082,32
7083,32
7084,32
7085,32
7086,32
7087,32
7088,32
7089,32
7090,32
7091,32
7092,32
7093,32
7094,32
7095,32
7096,32
7097,33
7098,33
7099,33
7100,33
7101,33
7102,34
7103,34
7104,34
7105,34
7106,34
7107,34
7108,34
7109,34
7110,34
7111,33
7112,33
7113,33
7114,33
7115,33
7116,33
7117,33
7118,33
7119,33
7120,32
7121,32
7122,32
7123,32
7124,32
7125,32
7126,32
7127,32
7128,32
7129,32
7130,31
7131,31
7132,31
7133,31
7134,31
7135,31
7136,31
7137,31
7138,31
7139,31
7140,31
7141,31
7142,31
7143,31
7144,31
7145,31
7146,31
7147,31
7148,31
7149,31
7150,31
7151,31
7152,31
7153,31
7154,31
7155,31
7156,31
7157,32
7158,32
7159,32
7160,31
7161,31
7162,31
7163,31
7164,31
7165,31
7166,32
7167,32
7168,32
7169,32
7170,31
7171,31
7172,31
7173,31
7174,31
7175,31
7176,33
7177,32
7178,32
7179,32
7180,32
7181,32
7182,32
7183,32
7184,31
7185,32
7186,32
7187,33
7188,34
7189,32
7190,32
7191,32
7192,32
7193,32
7194,32
7195,32
7196,33
7197,33
7198,33
7199,32
7200,32
7201,32
7202,32
7203,32
7204,32
7205,32
7206,32
7207,32
7208,32
7209,32
7210,32
7211,32
7212,32
7213,32
7214,32
7215,33
7216,32
7217,32
7218,32
7219,33
7220,33
7221,33
7222,33
7223,33
7224,32
7225,32
7226,32
7227,32
7228,33
7229,33
7230,33
7231,33
7232,33
7233,33
7234,33
7235,32
7236,32
7237,33
7238,33
7239,32
7240,32
7241,32
7242,32
7243,32
7244,32
7245,32
7246,32
7247,32
7248,32
7249,32
7250,32
7251,32
7252,32
7253,32
7254,32
7255,32
7256,32
7257,32
7258,32
7259,33
7260,33
7261,33
7262,33
7263,32
7264,32
7265,32
7266,33
7267,33
7268,32
7269,32
7270,32
7271,32
7272,32
7273,32
7274,32
7275,32
7276,32
7277,32
7278,32
7279,32
7280,32
7281,33
7282,33
7283,33
7284,32
7285,32
7286,32
7287,32
7288,32
7289,33
7290,33
7291,33
7292,33
7293,33
7294,33
7295,33
7296,33
7297,33
7298,33
7299,33
7300,33
7301,33
7302,33
7303,33
7304,33
7305,33
7306,33
7307,33
7308,33
7309,33
7310,33
7311,33
7312,33
7313,33
7314,33
7315,33
7316,33
7317,33
7318,33
7319,33
7320,33
7321,33
7322,33
7323,33
7324,33
7325,33
7326,33
7327,33
7328,33
7329,33
7330,33
7331,33
7332,33
7333,33
7334,33
7335,33
7336,33
7337,33
7338,33
7339,33
7340,33
7341,33
7342,33
7343,33
7344,33
7345,33
7346,33
7347,33
7348,34
7349,33
7350,33
7351,33
7352,33
7353,33
7354,33
7355,33
7356,33
7357,34
7358,34
7359,34
7360,34
7361,33
7362,34
7363,34
7364,34
7365,34
7366,33
7367,33
7368,33
7369,33
7370,33
7371,33
7372,33
7373,33
7374,33
7375,33
7376,33
7377,33
7378,33
7379,33
7380,33
7381,33
7382,34
7383,34
7384,34
7385,34
7386,34
7387,33
7388,33
7389,33
7390,33
7391,33
7392,33
7393,33
7394,33
7395,33
7396,33
7397,33
7398,34
7399,35
7400,35
7401,35
7402,34
7403,34
7404,34
7405,34
7406,34
7407,33
7408,33
7409,33
7410,33
7411,33
7412,33
7413,33
7414,33
7415,34
7416,35
7417,33
7418,33
7419,33
7420,34
7421,35
7422,34
7423,34
7424,34
7425,34
7426,34
7427,34
7428,34
7429,34
7430,34
7431,34
7432,33
7433,33
7434,33
7435,33
7436,33
7437,33
7438,33
7439,33
7440,33
7441,33
7442,33
7443,33
7444,33
7445,33
7446,33
7447,33
7448,33
7449,33
7450,33
7451,33
7452,33
7453,33
7454,33
7455,33
7456,33
7457,33
7458,33
7459,33
7460,33
7461,33
7462,33
7463,33
7464,33
7465,33
7466,33
7467,33
7468,33
7469,33
7470,33
7471,33
7472,33
7473,33
7474,33
7475,33
7476,33
7477,33
7478,33
7479,33
7480,33
7481,33
7482,33
7483,33
7484,33
7485,33
7486,33
7487,33
7488,33
7489,33
7490,33
7491,33
7492,33
7493,33
7494,34
7495,34
7496,33
7497,33
7498,33
7499,33
7500,33
7501,33
7502,33
7503,33
7504,33
7505,33
7506,33
7507,33
7508,33
7509,32
7510,32
7511,32
7512,32
7513,32
7514,32
7515,32
7516,33
7517,33
7518,33
7519,33
7520,33
7521,33
7522,33
7523,33
7524,34
7525,33
7526,33
7527,33
7528,33
7529,33
7530,33
7531,33
7532,33
7533,33
7534,34
7535,32
7536,32
7537,33
7538,32
7539,32
7540,32
7541,32
7542,32
7543,32
7544,32
7545,33
7546,32
7547,32
7548,32
7549,32
7550,32
7551,32
7552,33
7553,33
7554,33
7555,33
7556,32
7557,32
7558,32
7559,32
7560,32
7561,32
7562,32
7563,32
7564,32
7565,32
7566,32
7567,32
7568,32
7569,32
7570,32
7571,32
7572,32
7573,32
7574,32
7575,32
7576,32
7577,32
7578,32
7579,32
7580,32
7581,32
7582,32
7583,32
7584,32
7585,32
7586,32
7587,32
7588,32
7589,33
7590,33
7591,33
7592,33
7593,32
7594,32
7595,32
7596,32
7597,32
7598,32
7599,32
7600,32
7601,33
7602,32
7603,32
7604,32
7605,33
7606,33
7607,33
7608,33
7609,33
7610,33
7611,34
7612,33
7613,33
7614,33
7615,33
7616,33
7617,33
7618,33
7619,33
7620,33
7621,33
7622,33
7623,34
7624,34
7625,34
7626,34
7627,34
7628,34
7629,33
7630,34
7631,33
7632,33
7633,33
7634,33
7635,34
7636,33
7637,34
7638,34
7639,34
7640,34
7641,34
7642,34
7643,34
7644,34
7645,34
7646,33
7647,34
7648,34
7649,34
7650,34
7651,34
7652,34
7653,35
7654,34
7655,33
7656,33
7657,34
7658,33
7659,33
7660,33
7661,33
7662,33
7663,33
7664,33
7665,33
7666,33
7667,33
7668,33
7669,33
7670,33
7671,33
7672,33
7673,33
7674,33
7675,33
7676,34
7677,34
7678,35
7679,34
7680,34
7681,34
7682,34
7683,35
7684,35
7685,35
7686,35
7687,35
7688,34
7689,34
7690,34
7691,34
7692,34
7693,34
7694,34
7695,34
7696,34
7697,34
7698,34
7699,34
7700,35
7701,34
7702,34
7703,34
7704,34
7705,34
7706,34
7707,34
7708,34
7709,34
7710,34
7711,34
7712,34
7713,34
7714,34
7715,34
7716,34
7717,34
7718,34
7719,34
7720,36
7721,35
7722,36
7723,36
7724,36
7725,36
7726,36
7727,35
7728,35
7729,34
7730,34
7731,34
7732,34
7733,34
7734,34
7735,34
7736,34
7737,34
7738,34
7739,34
7740,34
7741,34
7742,34
7743,34
7744,34
7745,34
7746,34
7747,35
7748,35
7749,36
7750,36
7751,36
7752,35
7753,34
7754,34
7755,34
7756,34
7757,34
7758,34
7759,34
7760,34
7761,34
7762,34
7763,34
7764,34
7765,34
7766,34
7767,34
7768,35
7769,34
7770,35
7771,35
7772,35
7773,35
7774,35
7775,35
7776,34
7777,34
7778,34
7779,34
7780,34
7781,34
7782,34
7783,34
7784,34
7785,34
7786,34
7787,34
7788,34
7789,34
7790,34
7791,34
7792,34
7793,34
7794,34
7795,34
7796,34
7797,34
7798,34
7799,34
7800,34
7801,34
7802,34
7803,34
7804,34
7805,34
7806,34
7807,34
7808,34
7809,34
7810,34
7811,34
7812,34
7813,34
7814,34
7815,34
7816,34
7817,35
7818,35
7819,34
7820,34
7821,34
7822,34
7823,34
7824,34
7825,34
7826,34
7827,34
7828,34
7829,34
7830,34
7831,34
7832,34
7833,34
7834,34
7835,34
7836,35
7837,34
7838,34
7839,34
7840,35
7841,35
7842,35
7843,34
7844,34
7845,34
7846,35
7847,35
7848,35
7849,35
7850,35
7851,35
7852,35
7853,35
7854,35
7855,35
7856,35
7857,35
7858,34
7859,34
7860,34
7861,34
7862,34
7863,34
7864,34
7865,34
7866,34
7867,34
7868,34
7869,34
7870,34
7871,34
7872,34
7873,34
7874,34
7875,34
7876,35
7877,34
7878,34
7879,34
7880,34
7881,34
7882,34
7883,34
7884,34
7885,34
7886,35
7887,36
7888,35
7889,35
7890,35
7891,35
7892,34
7893,34
7894,34
7895,34
7896,34
7897,34
7898,34
7899,34
7900,34
7901,34
7902,34
7903,35
7904,35
7905,35
7906,34
7907,34
7908,34
7909,35
7910,35
7911,34
7912,34
7913,34
7914,34
7915,34
7916,34
7917,34
7918,34
7919,34
7920,34
7921,34
7922,34
7923,34
7924,34
7925,34
7926,35
7927,34
7928,34
7929,34
7930,34
7931,34
7932,34
7933,34
7934,34
7935,34
7936,35
7937,34
7938,34
7939,34
7940,34
7941,34
7942,34
7943,34
7944,34
7945,34
7946,34
7947,34
7948,34
7949,35
7950,34
7951,34
7952,34
7953,34
7954,34
7955,34
7956,34
7957,35
7958,35
7959,34
7960,34
7961,34
7962,35
7963,34
7964,34
7965,34
7966,34
7967,34
7968,34
7969,34
7970,34
7971,34
7972,34
7973,34
7974,34
7975,34
7976,34
7977,35
7978,35
7979,35
7980,34
7981,34
7982,34
7983,34
7984,34
7985,35
7986,35
7987,35
7988,35
7989,34
7990,34
7991,34
7992,34
7993,34
7994,34
7995,34
7996,34
7997,35
7998,34
7999,34
8000,34
8001,34
8002,34
8003,34
8004,34
8005,34
8006,34
8007,34
8008,34
8009,34
8010,34
8011,34
8012,34
8013,34
8014,34
8015,34
8016,34
8017,34
8018,35
8019,36
8020,36
8021,36
8022,36
8023,36
8024,35
8025,35
8026,35
8027,35
8028,35
8029,35
8030,35
8031,34
8032,34
8033,34
8034,34
8035,34
8036,34
8037,34
8038,34
8039,34
8040,34
8041,34
8042,34
8043,34
8044,34
8045,34
8046,34
8047,34
8048,34
8049,34
8050,34
8051,34
8052,34
8053,34
8054,34
8055,34
8056,34
8057,34
8058,34
8059,34
8060,34
8061,34
8062,34
8063,34
8064,35
8065,35
8066,36
8067,35
8068,35
8069,35
8070,35
8071,35
8072,35
8073,35
8074,35
8075,34
8076,34
8077,34
8078,34
8079,34
8080,34
8081,34
8082,35
8083,34
8084,34
8085,35
8086,35
8087,35
8088,35
8089,35
8090,34
8091,34
8092,34
8093,34
8094,34
8095,34
8096,34
8097,34
8098,34
8099,34
8100,34
8101,34
8102,34
8103,34
8104,34
8105,34
8106,34
8107,34
8108,34
8109,34
8110,34
8111,34
8112,34
8113,34
8114,34
8115,34
8116,34
8117,34
8118,34
8119,34
8120,34
8121,34
8122,34
8123,34
8124,34
8125,34
8126,34
8127,34
8128,34
8129,34
8130,34
8131,34
8132,34
8133,34
8134,34
8135,34
8136,34
8137,34
8138,34
8139,34
8140,34
8141,34
8142,34
8143,34
8144,34
8145,34
8146,35
8147,36
8148,34
8149,34
8150,34
8151,34
8152,34
8153,34
8154,34
8155,34
8156,34
8157,34
8158,34
8159,34
8160,34
8161,34
8162,34
8163,34
8164,34
8165,34
8166,34
8167,34
8168,34
8169,34
8170,34
8171,34
8172,34
8173,34
8174,34
8175,34
8176,36
8177,36
8178,35
8179,35
8180,36
8181,36
8182,36
8183,36
8184,36
8185,36
8186,36
8187,35
8188,36
8189,36
8190,35
8191,35
8192,35
8193,36
8194,36
8195,36
8196,37
8197,35
8198,35
8199,35
8200,35
8201,35
8202,35
8203,35
8204,35
8205,35
8206,35
8207,35
8208,35
8209,35
8210,34
8211,34
8212,34
8213,34
8214,34
8215,34
8216,34
8217,34
8218,34
8219,35
8220,35
8221,35
8222,35
8223,34
8224,35
8225,34
8226,34
8227,34
8228,34
8229,34
8230,34
8231,34
8232,34
8233,34
8234,34
8235,34
8236,34
8237,34
8238,34
8239,34
8240,34
8241,34
8242,34
8243,34
8244,34
8245,34
8246,34
8247,34
8248,34
8249,34
8250,34
8251,34
8252,34
8253,34
8254,34
8255,34
8256,34
8257,34
8258,34
8259,34
8260,34
8261,34
8262,34
8263,34
8264,34
8265,34
8266,34
8267,34
8268,34
8269,34
8270,34
8271,34
8272,34
8273,34
8274,34
8275,34
8276,34
8277,34
8278,34
8279,34
8280,34
8281,34
8282,34
8283,34
8284,34
8285,34
8286,34
8287,34
8288,34
8289,34
8290,34
8291,34
8292,34
8293,34
8294,34
8295,34
8296,34
8297,34
8298,34
8299,34
8300,34
8301,35
8302,35
8303,35
8304,35
8305,35
8306,35
8307,35
8308,35
8309,35
8310,35
8311,35
8312,35
8313,35
8314,35
8315,34
8316,34
8317,34
8318,34
8319,34
8320,34
8321,34
8322,34
8323,34
8324,34
8325,34
8326,35
8327,35
8328,35
8329,35
8330,35
8331,34
8332,34
8333,34
8334,34
8335,34
8336,34
8337,34
8338,34
8339,34
8340,34
8341,34
8342,34
8343,34
8344,34
8345,34
8346,34
8347,34
8348,34
8349,34
8350,34
8351,34
8352,34
8353,34
8354,34
8355,34
8356,34
8357,34
8358,34
8359,34
8360,34
8361,35
8362,35
8363,34
8364,34
8365,34
8366,34
8367,34
8368,34
8369,34
8370,34
8371,34
8372,34
8373,34
8374,34
8375,34
8376,34
8377,34
8378,34
8379,34
8380,34
8381,34
8382,34
8383,34
8384,34
8385,34
8386,34
8387,34
8388,34
8389,34
8390,34
8391,34
8392,34
8393,34
8394,34
8395,34
8396,35
8397,35
8398,35
8399,35
8400,34
8401,34
8402,34
8403,34
8404,34
8405,34
8406,34
8407,34
8408,34
8409,34
8410,34
8411,35
8412,35
8413,34
8414,34
8415,34
8416,34
8417,34
8418,34
8419,34
8420,34
8421,34
8422,34
8423,34
8424,34
8425,34
8426,34
8427,34
8428,34
8429,34
8430,34
8431,34
8432,34
8433,34
8434,34
8435,34
8436,34
8437,34
8438,34
8439,34
8440,34
8441,34
8442,34
8443,34
8444,34
8445,34
8446,34
8447,34
8448,34
8449,34
8450,34
8451,34
8452,34
8453,34
8454,34
8455,34
8456,34
8457,34
8458,34
8459,34
8460,34
8461,34
8462,34
8463,34
8464,34
8465,34
8466,34
8467,34
8468,34
8469,34
8470,34
8471,34
8472,34
8473,34
8474,34
8475,35
8476,35
8477,34
8478,34
8479,34
8480,34
8481,34
8482,34
8483,34
8484,34
8485,34
8486,34
8487,34
8488,34
8489,34
8490,34
8491,34
8492,34
8493,34
8494,34
8495,34
8496,34
8497,34
8498,34
8499,34
8500,34
8501,34
8502,34
8503,34
8504,34
8505,34
8506,34
8507,34
8508,34
8509,34
8510,34
8511,34
8512,34
8513,34
8514,35
8515,34
8516,34
8517,34
8518,34
8519,34
8520,34
8521,34
8522,34
8523,34
8524,34
8525,34
8526,35
8527,36
8528,36
8529,36
8530,36
8531,36
8532,36
8533,36
8534,36
8535,35
8536,35
8537,35
8538,34
8539,35
8540,34
8541,34
8542,34
8543,34
8544,34
8545,34
8546,34
8547,34
8548,34
8549,34
8550,35
8551,36
8552,37
8553,37
8554,37
8555,37
8556,37
8557,37
8558,37
8559,36
8560,36
8561,36
8562,36
8563,36
8564,36
8565,36
8566,36
8567,36
8568,36
8569,35
8570,35
8571,35
8572,35
8573,35
8574,35
8575,35
8576,35
8577,35
8578,35
8579,35
8580,35
8581,35
8582,35
8583,35
8584,35
8585,35
8586,35
8587,35
8588,36
8589,35
8590,35
8591,35
8592,35
8593,35
8594,35
8595,35
8596,35
8597,35
8598,35
8599,35
8600,35
8601,35
8602,36
8603,36
8604,36
8605,36
8606,36
8607,36
8608,36
8609,36
8610,36
8611,36
8612,36
8613,35
8614,35
8615,35
8616,35
8617,35
8618,35
8619,35
8620,35
8621,35
8622,35
8623,35
8624,35
8625,35
8626,35
8627,35
8628,35
8629,35
8630,35
8631,36
8632,36
8633,36
8634,36
8635,36
8636,36
8637,37
8638,37
8639,37
8640,36
8641,35
8642,35
8643,35
8644,35
8645,35
8646,35
8647,35
8648,35
8649,35
8650,35
8651,35
8652,35
8653,35
8654,35
8655,35
8656,35
8657,35
8658,35
8659,35
8660,35
8661,35
8662,35
8663,35
8664,35
8665,35
8666,35
8667,35
8668,35
8669,35
8670,35
8671,35
8672,35
8673,35
8674,35
8675,35
8676,35
8677,35
8678,35
8679,35
8680,36
8681,36
8682,36
8683,36
8684,35
8685,35
8686,35
8687,35
8688,35
8689,35
8690,35
8691,36
8692,36
8693,35
8694,35
8695,35
8696,35
8697,35
8698,35
8699,35
8700,35
8701,36
8702,36
8703,36
8704,36
8705,35
8706,35
8707,35
8708,35
8709,35
8710,36
8711,35
8712,35
8713,35
8714,35
8715,35
8716,35
8717,35
8718,36
8719,36
8720,35
8721,35
8722,35
8723,35
8724,35
8725,35
8726,35
8727,35
8728,35
8729,35
8730,35
8731,35
8732,35
8733,35
8734,35
8735,35
8736,35
8737,35
8738,36
8739,36
8740,35
8741,35
8742,35
8743,35
8744,35
8745,35
8746,35
8747,35
8748,35
8749,35
8750,35
8751,35
8752,35
8753,35
8754,35
8755,35
8756,35
8757,35
8758,35
8759,36
8760,36
8761,36
8762,37
8763,37
8764,36
8765,36
8766,36
8767,36
8768,36
8769,36
8770,36
8771,36
8772,36
8773,36
8774,36
8775,36
8776,36
8777,36
8778,36
8779,36
8780,36
8781,36
8782,36
8783,36
8784,36
8785,36
8786,36
8787,36
8788,36
8789,36
8790,37
8791,36
8792,36
8793,36
8794,36
8795,36
8796,36
8797,36
8798,36
8799,36
8800,36
8801,36
8802,36
8803,38
8804,38
8805,38
8806,39
8807,39
8808,40
8809,38
8810,38
8811,38
8812,38
8813,38
8814,38
8815,38
8816,37
8817,37
8818,37
8819,37
8820,37
8821,37
8822,37
8823,37
8824,37
8825,37
8826,37
8827,37
8828,37
8829,37
8830,37
8831,37
8832,37
8833,37
8834,37
8835,37
8836,37
8837,37
8838,37
8839,37
8840,37
8841,37
8842,37
8843,37
8844,37
8845,38
8846,38
8847,38
8848,38
8849,38
8850,38
8851,38
8852,38
8853,38
8854,38
8855,38
8856,38
8857,38
8858,38
8859,38
8860,38
8861,38
8862,38
8863,38
8864,38
8865,38
8866,38
8867,38
8868,39
8869,39
8870,39
8871,39
8872,38
8873,38
8874,38
8875,38
8876,38
8877,38
8878,38
8879,38
8880,38
8881,39
8882,39
8883,39
8884,39
8885,39
8886,39
8887,39
8888,41
8889,41
8890,38
8891,38
8892,38
8893,38
8894,38
8895,39
8896,39
8897,38
8898,38
8899,38
8900,38
8901,38
8902,38
8903,38
8904,38
8905,38
8906,38
8907,38
8908,38
8909,38
8910,38
8911,38
8912,38
8913,38
8914,38
8915,38
8916,38
8917,38
8918,38
8919,38
8920,38
8921,38
8922,38
8923,38
8924,38
8925,38
8926,39
8927,39
8928,39
8929,39
8930,39
8931,38
8932,38
8933,38
8934,38
8935,38
8936,39
8937,39
8938,39
8939,39
8940,39
8941,39
8942,39
8943,39
8944,39
8945,38
8946,38
8947,38
8948,38
8949,38
8950,38
8951,38
8952,38
8953,38
8954,38
8955,38
8956,38
8957,38
8958,38
8959,38
8960,38
8961,38
8962,38
8963,38
8964,38
8965,38
8966,38
8967,38
8968,38
8969,40
8970,40
8971,40
8972,39
8973,38
8974,38
8975,38
8976,38
8977,37
8978,37
8979,37
8980,37
8981,36
8982,36
8983,36
8984,36
8985,37
8986,38
8987,37
8988,37
8989,37
8990,37
8991,36
8992,36
8993,36
8994,35
8995,35
8996,35
8997,35
8998,35
8999,35
9000,35
9001,35
9002,35
9003,35
9004,35
9005,35
9006,35
9007,35
9008,35
9009,35
9010,35
9011,35
9012,35
9013,35
9014,35
9015,35
9016,35
9017,35
9018,35
9019,37
9020,37
9021,36
9022,36
9023,35
9024,35
9025,35
9026,35
9027,35
9028,35
9029,35
9030,36
9031,35
9032,35
9033,35
9034,35
9035,35
9036,35
9037,35
9038,35
9039,35
9040,35
9041,35
9042,35
9043,36
9044,35
9045,35
9046,35
9047,35
9048,35
9049,35
9050,35
9051,36
9052,36
9053,36
9054,35
9055,35
9056,35
9057,35
9058,35
9059,35
9060,35
9061,35
9062,35
9063,35
9064,35
9065,35
9066,35
9067,36
9068,35
9069,35
9070,35
9071,35
9072,35
9073,35
9074,35
9075,35
9076,35
9077,35
9078,35
9079,35
9080,35
9081,35
9082,35
9083,35
9084,35
9085,35
9086,35
9087,35
9088,35
9089,36
9090,36
9091,36
9092,35
9093,35
9094,35
9095,35
9096,35
9097,35
9098,35
9099,35
9100,35
9101,35
9102,35
9103,35
9104,35
9105,35
9106,36
9107,35
9108,35
9109,35
9110,35
9111,35
9112,35
9113,35
9114,35
9115,35
9116,35
9117,36
9118,36
9119,35
9120,35
9121,35
9122,35
9123,35
9124,35
9125,35
9126,35
9127,35
9128,35
9129,35
9130,35
9131,35
9132,35
9133,35
9134,35
9135,35
9136,35
9137,35
9138,35
9139,35
9140,35
9141,35
9142,35
9143,35
9144,35
9145,35
9146,35
9147,35
9148,35
9149,35
9150,35
9151,35
9152,36
9153,36
9154,36
9155,35
9156,35
9157,35
9158,35
9159,35
9160,35
9161,35
9162,35
9163,35
9164,36
9165,36
9166,36
9167,36
9168,36
9169,36
9170,36
9171,36
9172,36
9173,36
9174,36
9175,36
9176,36
9177,36
9178,36
9179,36
9180,36
9181,36
9182,36
9183,36
9184,36
9185,36
9186,36
9187,36
9188,36
9189,36
9190,36
9191,37
9192,37
9193,37
9194,37
9195,37
9196,37
9197,37
9198,37
9199,37
9200,37
9201,37
9202,37
9203,37
9204,37
9205,37
9206,37
9207,37
9208,37
9209,37
9210,37
9211,37
9212,37
9213,37
9214,37
9215,37
9216,37
9217,37
9218,37
9219,37
9220,36
9221,36
9222,36
9223,36
9224,36
9225,36
9226,36
9227,36
9228,36
9229,36
9230,36
9231,37
9232,37
9233,37
9234,37
9235,37
9236,37
9237,37
9238,37
9239,37
9240,37
9241,37
9242,37
9243,36
9244,36
9245,36
9246,36
9247,36
9248,37
9249,36
9250,36
9251,36
9252,36
9253,36
9254,36
9255,37
9256,37
9257,37
9258,36
9259,36
9260,36
9261,36
9262,36
9263,36
9264,36
9265,36
9266,36
9267,36
9268,36
9269,36
9270,36
9271,36
9272,36
9273,36
9274,36
9275,36
9276,37
9277,36
9278,36
9279,36
9280,36
9281,36
9282,36
9283,36
9284,36
9285,36
9286,36
9287,36
9288,36
9289,36
9290,36
9291,36
9292,36
9293,36
9294,36
9295,37
9296,37
9297,37
9298,38
9299,38
9300,37
9301,37
9302,37
9303,36
9304,36
9305,36
9306,36
9307,36
9308,36
9309,36
9310,36
9311,36
9312,36
9313,36
9314,36
9315,36
9316,36
9317,36
9318,36
9319,36
9320,36
9321,36
9322,36
9323,36
9324,36
9325,36
9326,36
9327,36
9328,36
9329,36
9330,36
9331,36
9332,36
9333,36
9334,36
9335,36
9336,36
9337,36
9338,36
9339,36
9340,36
9341,36
9342,36
9343,36
9344,36
9345,36
9346,36
9347,36
9348,36
9349,36
9350,36
9351,36
9352,37
9353,37
9354,37
9355,37
9356,37
9357,37
9358,37
9359,37
9360,37
9361,37
9362,37
9363,36
9364,36
9365,36
9366,36
9367,36
9368,36
9369,36
9370,36
9371,37
9372,37
9373,37
9374,37
9375,37
9376,36
9377,36
9378,37
9379,36
9380,36
9381,36
9382,36
9383,37
9384,37
9385,37
9386,37
9387,37
9388,37
9389,37
9390,37
9391