1,3
2,3
3,3
4,3
5,3
6,3
7,4
8,4
9,4
10,4
11,4
12,4
13,4
14,4
15,4
16,4
17,4
18,4
19,4
20,4
21,4
22,4
23,4
24,4
25,4
26,4
27,4
28,4
29,4
30,4
31,4
32,4
33,4
34,4
35,5
36,5
37,7
38,7
39,7
40,7
41,7
42,7
43,8
44,8
45,9
46,9
47,8
48,8
49,8
50,8
51,8
52,8
53,8
54,8
55,8
56,8
57,8
58,8
59,8
60,8
61,8
62,8
63,8
64,8
65,8
66,8
67,8
68,8
69,8
70,8
71,8
72,8
73,8
74,8
75,8
76,8
77,8
78,8
79,8
80,8
81,8
82,8
83,9
84,9
85,9
86,9
87,9
88,9
89,10
90,9
91,9
92,9
93,9
94,9
95,9
96,9
97,9
98,9
99,9
100,9
101,9
102,11
103,11
104,10
105,10
106,10
107,10
108,10
109,10
110,10
111,10
112,10
113,10
114,10
115,10
116,10
117,10
118,10
119,10
120,10
121,10
122,10
123,10
124,10
125,10
126,10
127,10
128,10
129,10
130,10
131,10
132,10
133,10
134,10
135,10
136,10
137,10
138,10
139,10
140,10
141,10
142,10
143,10
144,10
145,10
146,10
147,10
148,10
149,10
150,10
151,10
152,10
153,10
154,10
155,10
156,10
157,10
158,10
159,10
160,10
161,11
162,10
163,10
164,10
165,10
166,10
167,10
168,10
169,10
170,10
171,10
172,10
173,10
174,10
175,10
176,10
177,11
178,11
179,11
180,12
181,11
182,11
183,11
184,11
185,11
186,11
187,10
188,10
189,10
190,12
191,12
192,12
193,12
194,12
195,12
196,12
197,12
198,12
199,12
200,12
201,12
202,12
203,12
204,12
205,12
206,12
207,13
208,13
209,13
210,13
211,12
212,12
213,12
214,12
215,12
216,12
217,12
218,12
219,12
220,12
221,12
222,12
223,12
224,12
225,12
226,12
227,12
228,12
229,12
230,12
231,12
232,12
233,12
234,12
235,12
236,12
237,12
238,12
239,12
240,12
241,12
242,12
243,12
244,12
245,12
246,12
247,12
248,12
249,12
250,12
251,14
252,12
253,12
254,12
255,12
256,12
257,12
258,12
259,13
260,13
261,12
262,12
263,12
264,13
265,13
266,13
267,13
268,13
269,13
270,14
271,14
272,13
273,12
274,12
275,12
276,12
277,12
278,12
279,12
280,12
281,12
282,12
283,12
284,12
285,12
286,12
287,12
288,12
289,12
290,12
291,12
292,12
293,12
294,12
295,12
296,12
297,12
298,12
299,12
300,12
301,12
302,12
303,12
304,12
305,12
306,12
307,13
308,13
309,13
310,13
311,14
312,13
313,13
314,13
315,12
316,12
317,13
318,12
319,12
320,12
321,12
322,12
323,12
324,12
325,12
326,12
327,12
328,12
329,12
330,12
331,12
332,12
333,12
334,12
335,12
336,13
337,13
338,13
339,12
340,12
341,12
342,13
343,13
344,13
345,13
346,14
347,13
348,13
349,13
350,13
351,13
352,13
353,13
354,12
355,12
356,12
357,12
358,12
359,12
360,13
361,13
362,12
363,14
364,13
365,12
366,12
367,12
368,12
369,12
370,12
371,12
372,12
373,12
374,12
375,12
376,12
377,12
378,12
379,13
380,12
381,12
382,12
383,12
384,12
385,12
386,12
387,12
388,12
389,12
390,12
391,12
392,12
393,12
394,12
395,12
396,12
397,12
398,12
399,12
400,12
401,12
402,12
403,12
404,12
405,12
406,12
407,12
408,12
409,13
410,12
411,12
412,12
413,12
414,12
415,12
416,12
417,12
418,12
419,12
420,12
421,12
422,12
423,12
424,12
425,12
426,12
427,12
428,12
429,12
430,12
431,12
432,12
433,12
434,12
435,12
436,12
437,12
438,12
439,12
440,12
441,13
442,13
443,12
444,12
445,12
446,13
447,13
448,14
449,14
450,14
451,14
452,14
453,13
454,13
455,13
456,13
457,13
458,13
459,13
460,13
461,13
462,13
463,13
464,13
465,13
466,13
467,13
468,13
469,13
470,13
471,13
472,13
473,13
474,13
475,14
476,14
477,14
478,14
479,14
480,14
481,14
482,14
483,14
484,14
485,14
486,14
487,14
488,13
489,13
490,13
491,13
492,13
493,13
494,13
495,13
496,13
497,13
498,13
499,13
500,13
501,13
502,13
503,13
504,13
505,13
506,13
507,13
508,13
509,13
510,13
511,13
512,13
513,13
514,13
515,13
516,13
517,13
518,13
519,13
520,13
521,13
522,13
523,13
524,13
525,13
526,13
527,13
528,13
529,13
530,13
531,13
532,13
533,13
534,13
535,13
536,13
537,13
538,13
539,13
540,13
541,13
542,13
543,14
544,14
545,14
546,14
547,14
548,14
549,14
550,14
551,14
552,14
553,14
554,14
555,14
556,14
557,14
558,14
559,14
560,14
561,14
562,14
563,14
564,14
565,14
566,14
567,14
568,14
569,14
570,14
571,14
572,14
573,14
574,14
575,14
576,14
577,14
578,14
579,14
580,14
581,14
582,15
583,15
584,15
585,15
586,15
587,15
588,15
589,16
590,15
591,15
592,15
593,15
594,15
595,15
596,15
597,15
598,15
599,15
600,15
601,15
602,15
603,15
604,15
605,15
606,15
607,15
608,15
609,15
610,15
611,15
612,15
613,15
614,15
615,15
616,15
617,15
618,15
619,15
620,15
621,15
622,15
623,15
624,15
625,15
626,15
627,15
628,15
629,15
630,15
631,15
632,15
633,15
634,15
635,15
636,15
637,15
638,15
639,15
640,15
641,15
642,15
643,15
644,15
645,15
646,15
647,15
648,15
649,15
650,15
651,15
652,16
653,16
654,16
655,16
656,16
657,16
658,16
659,16
660,16
661,16
662,16
663,16
664,16
665,16
666,16
667,16
668,16
669,16
670,16
671,16
672,16
673,17
674,16
675,16
676,16
677,16
678,16
679,16
680,16
681,16
682,16
683,16
684,16
685,16
686,16
687,16
688,16
689,16
690,16
691,16
692,16
693,16
694,16
695,16
696,16
697,16
698,17
699,17
700,16
701,16
702,16
703,16
704,16
705,16
706,16
707,16
708,16
709,16
710,16
711,17
712,17
713,16
714,16
715,16
716,16
717,16
718,16
719,16
720,16
721,16
722,16
723,16
724,16
725,16
726,16
727,16
728,16
729,16
730,16
731,16
732,16
733,17
734,16
735,16
736,16
737,16
738,17
739,16
740,16
741,16
742,16
743,16
744,16
745,16
746,16
747,16
748,16
749,16
750,16
751,16
752,16
753,16
754,16
755,16
756,16
757,16
758,16
759,16
760,16
761,16
762,16
763,16
764,17
765,18
766,17
767,17
768,17
769,17
770,17
771,17
772,17
773,17
774,17
775,17
776,17
777,17
778,17
779,17
780,17
781,17
782,17
783,17
784,17
785,17
786,17
787,17
788,17
789,17
790,17
791,17
792,17
793,17
794,17
795,17
796,17
797,17
798,17
799,17
800,17
801,17
802,17
803,17
804,17
805,17
806,17
807,17
808,17
809,17
810,17
811,18
812,18
813,17
814,17
815,17
816,17
817,17
818,17
819,17
820,17
821,17
822,17
823,17
824,17
825,17
826,17
827,17
828,17
829,17
830,17
831,17
832,17
833,17
834,17
835,17
836,17
837,17
838,17
839,17
840,17
841,17
842,17
843,17
844,17
845,17
846,17
847,17
848,17
849,17
850,17
851,17
852,17
853,17
854,17
855,17
856,17
857,17
858,17
859,17
860,17
861,17
862,17
863,17
864,17
865,17
866,17
867,17
868,17
869,17
870,17
871,17
872,17
873,17
874,17
875,17
876,17
877,17
878,17
879,17
880,17
881,17
882,17
883,17
884,17
885,17
886,17
887,17
888,17
889,17
890,17
891,17
892,17
893,18
894,17
895,17
896,17
897,17
898,17
899,17
900,17
901,17
902,17
903,17
904,17
905,18
906,17
907,17
908,17
909,17
910,17
911,17
912,18
913,18
914,18
915,18
916,18
917,18
918,18
919,18
920,17
921,17
922,17
923,17
924,17
925,17
926,17
927,17
928,17
929,17
930,17
931,17
932,18
933,18
934,17
935,17
936,17
937,18
938,18
939,17
940,17
941,17
942,17
943,17
944,17
945,17
946,17
947,17
948,17
949,18
950,18
951,17
952,17
953,17
954,17
955,17
956,17
957,17
958,17
959,17
960,19
961,19
962,19
963,18
964,18
965,18
966,18
967,18
968,17
969,17
970,17
971,17
972,17
973,17
974,17
975,17
976,17
977,17
978,18
979,18
980,18
981,18
982,18
983,18
984,18
985,18
986,18
987,18
988,18
989,18
990,18
991,18
992,18
993,18
994,18
995,18
996,18
997,19
998,19
999,19
1000,18
1001,18
1002,19
1003,19
1004,19
1005,19
1006,19
1007,18
1008,18
1009,18
1010,18
1011,18
1012,18
1013,18
1014,18
1015,18
1016,18
1017,18
1018,18
1019,18
1020,18
1021,18
1022,18
1023,18
1024,18
1025,19
1026,19
1027,19
1028,19
1029,19
1030,19
1031,19
1032,19
1033,19
1034,19
1035,20
1036,20
1037,20
1038,20
1039,20
1040,20
1041,20
1042,20
1043,20
1044,21
1045,21
1046,21
1047,21
1048,21
1049,21
1050,20
1051,20
1052,20
1053,20
1054,20
1055,20
1056,20
1057,20
1058,19
1059,19
1060,19
1061,19
1062,19
1063,19
1064,19
1065,19
1066,19
1067,19
1068,20
1069,20
1070,20
1071,20
1072,20
1073,19
1074,19
1075,19
1076,19
1077,19
1078,19
1079,19
1080,19
1081,19
1082,19
1083,20
1084,20
1085,20
1086,20
1087,20
1088,20
1089,20
1090,20
1091,20
1092,20
1093,20
1094,21
1095,20
1096,20
1097,20
1098,21
1099,20
1100,20
1101,20
1102,20
1103,20
1104,20
1105,20
1106,20
1107,20
1108,20
1109,20
1110,20
1111,20
1112,20
1113,20
1114,20
1115,20
1116,20
1117,20
1118,20
1119,20
1120,20
1121,20
1122,20
1123,20
1124,20
1125,20
1126,20
1127,20
1128,20
1129,20
1130,20
1131,20
1132,20
1133,20
1134,20
1135,20
1136,21
1137,21
1138,21
1139,21
1140,20
1141,20
1142,20
1143,20
1144,20
1145,20
1146,20
1147,20
1148,20
1149,20
1150,20
1151,20
1152,20
1153,21
1154,21
1155,21
1156,22
1157,22
1158,21
1159,22
1160,21
1161,21
1162,21
1163,21
1164,21
1165,21
1166,21
1167,21
1168,21
1169,21
1170,21
1171,21
1172,21
1173,21
1174,21
1175,21
1176,21
1177,21
1178,21
1179,21
1180,22
1181,22
1182,21
1183,21
1184,20
1185,20
1186,20
1187,20
1188,20
1189,20
1190,20
1191,20
1192,20
1193,20
1194,20
1195,20
1196,20
1197,20
1198,20
1199,20
1200,21
1201,21
1202,21
1203,21
1204,20
1205,20
1206,20
1207,20
1208,21
1209,20
1210,20
1211,20
1212,20
1213,20
1214,20
1215,20
1216,20
1217,20
1218,20
1219,20
1220,20
1221,20
1222,20
1223,20
1224,20
1225,20
1226,20
1227,20
1228,20
1229,20
1230,20
1231,20
1232,20
1233,20
1234,20
1235,20
1236,20
1237,20
1238,20
1239,20
1240,20
1241,20
1242,20
1243,21
1244,21
1245,20
1246,20
1247,20
1248,20
1249,20
1250,20
1251,21
1252,21
1253,21
1254,21
1255,21
1256,21
1257,21
1258,21
1259,21
1260,21
1261,21
1262,21
1263,21
1264,21
1265,21
1266,21
1267,21
1268,21
1269,21
1270,21
1271,21
1272,21
1273,21
1274,21
1275,21
1276,21
1277,21
1278,21
1279,21
1280,21
1281,21
1282,21
1283,21
1284,21
1285,21
1286,21
1287,21
1288,21
1289,21
1290,21
1291,21
1292,21
1293,21
1294,21
1295,21
1296,21
1297,21
1298,21
1299,21
1300,21
1301,22
1302,21
1303,21
1304,21
1305,21
1306,21
1307,21
1308,21
1309,21
1310,21
1311,21
1312,22
1313,22
1314,22
1315,22
1316,22
1317,21
1318,21
1319,21
1320,21
1321,21
1322,21
1323,21
1324,21
1325,21
1326,21
1327,21
1328,21
1329,21
1330,21
1331,21
1332,21
1333,22
1334,22
1335,22
1336,22
1337,22
1338,22
1339,22
1340,22
1341,22
1342,21
1343,21
1344,21
1345,21
1346,22
1347,21
1348,21
1349,21
1350,21
1351,21
1352,21
1353,21
1354,21
1355,21
1356,21
1357,21
1358,21
1359,21
1360,21
1361,21
1362,21
1363,21
1364,21
1365,22
1366,22
1367,22
1368,22
1369,21
1370,21
1371,21
1372,21
1373,21
1374,23
1375,23
1376,22
1377,21
1378,21
1379,21
1380,21
1381,21
1382,21
1383,21
1384,21
1385,21
1386,21
1387,21
1388,21
1389,21
1390,21
1391,21
1392,21
1393,21
1394,21
1395,21
1396,22
1397,23
1398,23
1399,23
1400,23
1401,21
1402,21
1403,21
1404,21
1405,22
1406,22
1407,22
1408,22
1409,21
1410,21
1411,21
1412,21
1413,21
1414,21
1415,21
1416,21
1417,21
1418,21
1419,21
1420,21
1421,21
1422,21
1423,22
1424,21
1425,22
1426,23
1427,22
1428,22
1429,22
1430,22
1431,22
1432,22
1433,22
1434,22
1435,22
1436,22
1437,22
1438,22
1439,22
1440,22
1441,22
1442,22
1443,22
1444,22
1445,22
1446,22
1447,22
1448,22
1449,22
1450,22
1451,22
1452,22
1453,22
1454,22
1455,22
1456,22
1457,22
1458,22
1459,22
1460,22
1461,22
1462,22
1463,22
1464,22
1465,22
1466,22
1467,22
1468,22
1469,22
1470,22
1471,22
1472,22
1473,22
1474,22
1475,22
1476,22
1477,22
1478,22
1479,22
1480,22
1481,22
1482,22
1483,22
1484,22
1485,22
1486,22
1487,22
1488,22
1489,22
1490,22
1491,22
1492,22
1493,23
1494,24
1495,22
1496,22
1497,22
1498,22
1499,22
1500,22
1501,22
1502,22
1503,22
1504,22
1505,22
1506,22
1507,22
1508,22
1509,22
1510,23
1511,22
1512,22
1513,22
1514,22
1515,22
1516,23
1517,22
1518,22
1519,22
1520,22
1521,22
1522,22
1523,22
1524,22
1525,22
1526,22
1527,22
1528,22
1529,22
1530,22
1531,22
1532,23
1533,23
1534,22
1535,22
1536,22
1537,22
1538,22
1539,22
1540,22
1541,22
1542,22
1543,23
1544,22
1545,22
1546,22
1547,22
1548,22
1549,22
1550,22
1551,22
1552,22
1553,22
1554,22
1555,22
1556,22
1557,22
1558,22
1559,22
1560,22
1561,22
1562,22
1563,22
1564,22
1565,22
1566,22
1567,22
1568,22
1569,22
1570,22
1571,23
1572,23
1573,23
1574,23
1575,22
1576,22
1577,23
1578,23
1579,23
1580,22
1581,22
1582,22
1583,22
1584,22
1585,22
1586,22
1587,22
1588,22
1589,22
1590,22
1591,22
1592,22
1593,22
1594,22
1595,22
1596,22
1597,22
1598,22
1599,22
1600,23
1601,23
1602,23
1603,24
1604,24
1605,24
1606,24
1607,24
1608,23
1609,23
1610,23
1611,23
1612,23
1613,24
1614,23
1615,23
1616,24
1617,24
1618,24
1619,24
1620,24
1621,24
1622,24
1623,23
1624,23
1625,23
1626,23
1627,23
1628,23
1629,23
1630,23
1631,23
1632,23
1633,23
1634,23
1635,23
1636,23
1637,23
1638,23
1639,23
1640,23
1641,23
1642,24
1643,24
1644,23
1645,23
1646,23
1647,23
1648,23
1649,23
1650,23
1651,23
1652,23
1653,23
1654,23
1655,23
1656,23
1657,23
1658,23
1659,24
1660,23
1661,24
1662,24
1663,23
1664,23
1665,23
1666,23
1667,23
1668,23
1669,23
1670,23
1671,23
1672,23
1673,23
1674,23
1675,23
1676,23
1677,23
1678,24
1679,23
1680,23
1681,23
1682,23
1683,23
1684,23
1685,23
1686,23
1687,23
1688,23
1689,23
1690,24
1691,23
1692,23
1693,23
1694,23
1695,23
1696,23
1697,23
1698,23
1699,23
1700,23
1701,23
1702,23
1703,23
1704,23
1705,23
1706,23
1707,23
1708,23
1709,24
1710,24
1711,24
1712,24
1713,24
1714,24
1715,24
1716,24
1717,24
1718,24
1719,24
1720,23
1721,23
1722,23
1723,24
1724,24
1725,24
1726,24
1727,24
1728,24
1729,23
1730,23
1731,23
1732,23
1733,23
1734,23
1735,23
1736,23
1737,23
1738,23
1739,23
1740,23
1741,23
1742,23
1743,23
1744,23
1745,23
1746,23
1747,23
1748,24
1749,24
1750,24
1751,24
1752,24
1753,24
1754,24
1755,24
1756,24
1757,24
1758,24
1759,24
1760,24
1761,24
1762,24
1763,24
1764,24
1765,24
1766,24
1767,24
1768,24
1769,24
1770,24
1771,25
1772,25
1773,25
1774,25
1775,25
1776,25
1777,25
1778,25
1779,25
1780,25
1781,25
1782,25
1783,25
1784,25
1785,24
1786,24
1787,24
1788,24
1789,24
1790,24
1791,24
1792,24
1793,24
1794,24
1795,24
1796,24
1797,24
1798,24
1799,24
1800,24
1801,24
1802,24
1803,24
1804,25
1805,24
1806,25
1807,24
1808,24
1809,25
1810,26
1811,27
1812,25
1813,25
1814,25
1815,24
1816,24
1817,24
1818,24
1819,24
1820,24
1821,24
1822,24
1823,24
1824,24
1825,24
1826,25
1827,24
1828,24
1829,24
1830,24
1831,24
1832,24
1833,24
1834,24
1835,24
1836,24
1837,24
1838,24
1839,24
1840,24
1841,24
1842,24
1843,24
1844,24
1845,24
1846,24
1847,24
1848,25
1849,24
1850,24
1851,24
1852,24
1853,24
1854,24
1855,24
1856,24
1857,24
1858,24
1859,24
1860,24
1861,24
1862,24
1863,24
1864,24
1865,24
1866,24
1867,24
1868,24
1869,24
1870,24
1871,24
1872,24
1873,24
1874,25
1875,25
1876,25
1877,25
1878,25
1879,24
1880,24
1881,24
1882,24
1883,24
1884,24
1885,24
1886,24
1887,24
1888,24
1889,25
1890,25
1891,25
1892,25
1893,25
1894,25
1895,25
1896,25
1897,25
1898,25
1899,25
1900,26
1901,26
1902,26
1903,25
1904,25
1905,25
1906,25
1907,25
1908,25
1909,25
1910,25
1911,25
1912,25
1913,25
1914,25
1915,25
1916,25
1917,25
1918,25
1919,25
1920,25
1921,25
1922,25
1923,25
1924,25
1925,25
1926,26
1927,25
1928,25
1929,25
1930,25
1931,25
1932,25
1933,25
1934,25
1935,25
1936,25
1937,25
1938,25
1939,25
1940,25
1941,25
1942,25
1943,25
1944,25
1945,25
1946,25
1947,25
1948,25
1949,25
1950,25
1951,25
1952,25
1953,25
1954,25
1955,25
1956,25
1957,25
1958,25
1959,25
1960,25
1961,25
1962,25
1963,25
1964,25
1965,25
1966,25
1967,25
1968,25
1969,25
1970,25
1971,25
1972,25
1973,25
1974,25
1975,25
1976,25
1977,25
1978,25
1979,25
1980,25
1981,26
1982,26
1983,26
1984,25
1985,25
1986,25
1987,25
1988,25
1989,25
1990,25
1991,25
1992,25
1993,25
1994,25
1995,25
1996,25
1997,25
1998,25
1999,25
2000,25
2001,25
2002,25
2003,25
2004,25
2005,25
2006,25
2007,25
2008,25
2009,25
2010,25
2011,25
2012,25
2013,25
2014,25
2015,25
2016,25
2017,25
2018,25
2019,25
2020,25
2021,25
2022,25
2023,26
2024,25
2025,25
2026,25
2027,26
2028,25
2029,25
2030,25
2031,25
2032,25
2033,25
2034,25
2035,25
2036,25
2037,25
2038,25
2039,25
2040,25
2041,26
2042,26
2043,27
2044,26
2045,25
2046,25
2047,25
2048,25
2049,25
2050,25
2051,25
2052,25
2053,25
2054,25
2055,25
2056,26
2057,25
2058,25
2059,25
2060,25
2061,25
2062,25
2063,25
2064,25
2065,25
2066,25
2067,25
2068,25
2069,25
2070,25
2071,25
2072,25
2073,25
2074,25
2075,25
2076,25
2077,25
2078,25
2079,25
2080,26
2081,26
2082,26
2083,26
2084,26
2085,26
2086,26
2087,26
2088,26
2089,26
2090,26
2091,26
2092,26
2093,26
2094,27
2095,27
2096,27
2097,27
2098,28
2099,28
2100,28
2101,28
2102,28
2103,28
2104,28
2105,27
2106,26
2107,26
2108,26
2109,26
2110,26
2111,26
2112,26
2113,26
2114,27
2115,27
2116,27
2117,27
2118,27
2119,27
2120,27
2121,28
2122,28
2123,26
2124,27
2125,27
2126,26
2127,26
2128,26
2129,26
2130,26
2131,26
2132,26
2133,26
2134,26
2135,26
2136,26
2137,26
2138,26
2139,26
2140,26
2141,26
2142,26
2143,26
2144,26
2145,26
2146,26
2147,26
2148,26
2149,26
2150,26
2151,26
2152,26
2153,26
2154,26
2155,26
2156,26
2157,26
2158,26
2159,27
2160,27
2161,26
2162,26
2163,26
2164,26
2165,27
2166,26
2167,26
2168,26
2169,27
2170,27
2171,27
2172,26
2173,26
2174,26
2175,26
2176,26
2177,26
2178,26
2179,26
2180,26
2181,26
2182,26
2183,26
2184,26
2185,26
2186,26
2187,26
2188,26
2189,26
2190,26
2191,26
2192,26
2193,26
2194,26
2195,26
2196,26
2197,26
2198,26
2199,26
2200,26
2201,26
2202,26
2203,27
2204,27
2205,27
2206,27
2207,26
2208,26
2209,26
2210,26
2211,26
2212,26
2213,26
2214,26
2215,26
2216,26
2217,26
2218,26
2219,26
2220,26
2221,27
2222,27
2223,27
2224,26
2225,26
2226,26
2227,26
2228,26
2229,26
2230,26
2231,26
2232,26
2233,26
2234,26
2235,26
2236,26
2237,26
2238,26
2239,27
2240,26
2241,27
2242,26
2243,26
2244,26
2245,26
2246,27
2247,27
2248,26
2249,26
2250,26
2251,26
2252,26
2253,26
2254,26
2255,26
2256,27
2257,27
2258,27
2259,27
2260,27
2261,27
2262,28
2263,28
2264,28
2265,27
2266,27
2267,27
2268,27
2269,27
2270,27
2271,27
2272,27
2273,27
2274,27
2275,27
2276,27
2277,27
2278,27
2279,28
2280,28
2281,28
2282,28
2283,28
2284,28
2285,28
2286,28
2287,28
2288,28
2289,28
2290,27
2291,27
2292,27
2293,27
2294,27
2295,27
2296,27
2297,27
2298,27
2299,27
2300,27
2301,27
2302,27
2303,27
2304,27
2305,27
2306,27
2307,27
2308,27
2309,27
2310,27
2311,27
2312,27
2313,27
2314,27
2315,27
2316,27
2317,27
2318,27
2319,27
2320,27
2321,27
2322,27
2323,27
2324,27
2325,27
2326,27
2327,27
2328,27
2329,27
2330,27
2331,28
2332,28
2333,27
2334,27
2335,27
2336,27
2337,27
2338,27
2339,27
2340,27
2341,27
2342,28
2343,27
2344,27
2345,27
2346,27
2347,27
2348,28
2349,28
2350,28
2351,28
2352,28
2353,28
2354,28
2355,27
2356,28
2357,28
2358,27
2359,27
2360,27
2361,27
2362,27
2363,27
2364,27
2365,27
2366,27
2367,27
2368,27
2369,27
2370,27
2371,27
2372,27
2373,27
2374,27
2375,27
2376,28
2377,27
2378,27
2379,27
2380,27
2381,27
2382,27
2383,27
2384,27
2385,27
2386,27
2387,27
2388,27
2389,27
2390,27
2391,27
2392,27
2393,27
2394,27
2395,27
2396,27
2397,27
2398,26
2399,26
2400,26
2401,26
2402,26
2403,26
2404,26
2405,26
2406,26
2407,26
2408,26
2409,26
2410,26
2411,26
2412,26
2413,28
2414,26
2415,26
2416,26
2417,26
2418,26
2419,26
2420,26
2421,26
2422,26
2423,26
2424,26
2425,26
2426,26
2427,26
2428,26
2429,26
2430,27
2431,27
2432,27
2433,27
2434,27
2435,27
2436,27
2437,27
2438,27
2439,27
2440,27
2441,27
2442,27
2443,28
2444,28
2445,28
2446,27
2447,27
2448,28
2449,28
2450,28
2451,27
2452,27
2453,27
2454,28
2455,27
2456,27
2457,27
2458,27
2459,27
2460,27
2461,27
2462,29
2463,28
2464,28
2465,28
2466,28
2467,28
2468,28
2469,28
2470,28
2471,27
2472,27
2473,27
2474,27
2475,27
2476,27
2477,27
2478,27
2479,27
2480,27
2481,27
2482,27
2483,27
2484,27
2485,27
2486,28
2487,28
2488,28
2489,28
2490,28
2491,28
2492,28
2493,28
2494,28
2495,27
2496,27
2497,27
2498,27
2499,27
2500,27
2501,27
2502,27
2503,27
2504,27
2505,27
2506,27
2507,27
2508,27
2509,27
2510,27
2511,27
2512,27
2513,27
2514,28
2515,28
2516,28
2517,28
2518,27
2519,27
2520,27
2521,27
2522,27
2523,27
2524,27
2525,27
2526,27
2527,27
2528,27
2529,27
2530,27
2531,27
2532,27
2533,27
2534,27
2535,27
2536,27
2537,27
2538,27
2539,27
2540,27
2541,27
2542,27
2543,27
2544,27
2545,27
2546,27
2547,28
2548,28
2549,27
2550,27
2551,27
2552,27
2553,27
2554,27
2555,27
2556,27
2557,27
2558,27
2559,27
2560,27
2561,27
2562,27
2563,27
2564,27
2565,27
2566,27
2567,27
2568,27
2569,27
2570,27
2571,27
2572,27
2573,27
2574,27
2575,27
2576,27
2577,27
2578,27
2579,27
2580,27
2581,28
2582,28
2583,28
2584,27
2585,27
2586,27
2587,27
2588,27
2589,27
2590,27
2591,27
2592,27
2593,27
2594,27
2595,27
2596,27
2597,27
2598,27
2599,28
2600,28
2601,28
2602,28
2603,28
2604,28
2605,28
2606,27
2607,27
2608,27
2609,27
2610,27
2611,27
2612,27
2613,27
2614,27
2615,27
2616,27
2617,27
2618,27
2619,27
2620,27
2621,27
2622,27
2623,27
2624,27
2625,28
2626,28
2627,28
2628,28
2629,27
2630,27
2631,27
2632,27
2633,27
2634,27
2635,27
2636,27
2637,27
2638,27
2639,27
2640,27
2641,27
2642,27
2643,27
2644,27
2645,27
2646,27
2647,28
2648,28
2649,27
2650,27
2651,27
2652,27
2653,27
2654,27
2655,27
2656,27
2657,27
2658,27
2659,27
2660,27
2661,28
2662,28
2663,29
2664,29
2665,28
2666,28
2667,28
2668,28
2669,28
2670,28
2671,28
2672,28
2673,28
2674,28
2675,28
2676,28
2677,28
2678,28
2679,28
2680,28
2681,28
2682,28
2683,28
2684,28
2685,28
2686,28
2687,28
2688,28
2689,28
2690,28
2691,29
2692,29
2693,28
2694,28
2695,28
2696,28
2697,28
2698,28
2699,28
2700,28
2701,28
2702,28
2703,27
2704,27
2705,27
2706,27
2707,28
2708,28
2709,28
2710,28
2711,29
2712,28
2713,28
2714,28
2715,27
2716,27
2717,27
2718,27
2719,27
2720,27
2721,27
2722,27
2723,27
2724,27
2725,27
2726,27
2727,27
2728,27
2729,28
2730,27
2731,27
2732,27
2733,27
2734,27
2735,27
2736,27
2737,27
2738,28
2739,27
2740,27
2741,27
2742,27
2743,27
2744,27
2745,27
2746,27
2747,27
2748,27
2749,27
2750,27
2751,27
2752,27
2753,27
2754,27
2755,27
2756,27
2757,28
2758,27
2759,27
2760,27
2761,27
2762,27
2763,27
2764,27
2765,27
2766,27
2767,27
2768,28
2769,27
2770,27
2771,27
2772,27
2773,27
2774,27
2775,27
2776,27
2777,27
2778,27
2779,27
2780,27
2781,27
2782,27
2783,27
2784,27
2785,27
2786,27
2787,27
2788,27
2789,27
2790,27
2791,27
2792,27
2793,27
2794,27
2795,27
2796,28
2797,27
2798,27
2799,27
2800,27
2801,27
2802,27
2803,27
2804,27
2805,27
2806,27
2807,27
2808,28
2809,27
2810,27
2811,27
2812,27
2813,29
2814,28
2815,27
2816,27
2817,27
2818,27
2819,27
2820,27
2821,27
2822,27
2823,27
2824,27
2825,27
2826,27
2827,27
2828,27
2829,27
2830,27
2831,27
2832,28
2833,29
2834,29
2835,27
2836,27
2837,27
2838,27
2839,27
2840,27
2841,27
2842,27
2843,27
2844,27
2845,27
2846,27
2847,27
2848,27
2849,27
2850,27
2851,27
2852,27
2853,27
2854,27
2855,27
2856,27
2857,27
2858,27
2859,27
2860,27
2861,27
2862,27
2863,27
2864,27
2865,27
2866,27
2867,27
2868,27
2869,27
2870,27
2871,28
2872,28
2873,28
2874,28
2875,27
2876,27
2877,27
2878,27
2879,27
2880,27
2881,27
2882,27
2883,27
2884,27
2885,27
2886,27
2887,27
2888,27
2889,27
2890,27
2891,27
2892,27
2893,27
2894,27
2895,27
2896,27
2897,27
2898,27
2899,27
2900,27
2901,27
2902,27
2903,27
2904,27
2905,27
2906,27
2907,27
2908,27
2909,27
2910,27
2911,28
2912,28
2913,28
2914,28
2915,28
2916,28
2917,28
2918,28
2919,28
2920,28
2921,28
2922,28
2923,28
2924,27
2925,27
2926,27
2927,27
2928,27
2929,27
2930,27
2931,27
2932,28
2933,28
2934,27
2935,27
2936,27
2937,27
2938,27
2939,27
2940,27
2941,27
2942,27
2943,27
2944,27
2945,27
2946,27
2947,27
2948,27
2949,27
2950,27
2951,27
2952,27
2953,27
2954,27
2955,27
2956,27
2957,27
2958,27
2959,27
2960,27
2961,27
2962,27
2963,27
2964,27
2965,27
2966,27
2967,27
2968,27
2969,27
2970,27
2971,27
2972,27
2973,27
2974,27
2975,27
2976,27
2977,27
2978,27
2979,27
2980,27
2981,27
2982,28
2983,27
2984,27
2985,27
2986,27
2987,27
2988,27
2989,27
2990,27
2991,27
2992,27
2993,27
2994,27
2995,27
2996,27
2997,27
2998,27
2999,27
3000,27
3001,27
3002,27
3003,27
3004,27
3005,27
3006,27
3007,27
3008,27
3009,27
3010,27
3011,27
3012,27
3013,27
3014,27
3015,27
3016,27
3017,27
3018,28
3019,28
3020,27
3021,27
3022,27
3023,27
3024,27
3025,27
3026,27
3027,27
3028,27
3029,27
3030,27
3031,27
3032,27
3033,27
3034,27
3035,27
3036,27
3037,27
3038,27
3039,27
3040,27
3041,27
3042,27
3043,28
3044,27
3045,27
3046,27
3047,28
3048,28
3049,28
3050,29
3051,28
3052,28
3053,29
3054,28
3055,28
3056,28
3057,28
3058,28
3059,28
3060,28
3061,28
3062,28
3063,28
3064,28
3065,28
3066,28
3067,28
3068,28
3069,28
3070,28
3071,28
3072,27
3073,28
3074,28
3075,27
3076,27
3077,27
3078,27
3079,27
3080,27
3081,27
3082,27
3083,27
3084,27
3085,27
3086,27
3087,27
3088,27
3089,27
3090,27
3091,27
3092,27
3093,27
3094,27
3095,28
3096,28
3097,28
3098,28
3099,28
3100,28
3101,28
3102,27
3103,27
3104,27
3105,27
3106,27
3107,27
3108,27
3109,27
3110,27
3111,27
3112,28
3113,27
3114,27
3115,27
3116,28
3117,28
3118,28
3119,30
3120,29
3121,29
3122,29
3123,28
3124,28
3125,28
3126,29
3127,29
3128,28
3129,27
3130,27
3131,27
3132,27
3133,27
3134,27
3135,27
3136,27
3137,27
3138,27
3139,27
3140,27
3141,27
3142,27
3143,27
3144,27
3145,27
3146,27
3147,27
3148,27
3149,27
3150,27
3151,27
3152,27
3153,27
3154,27
3155,27
3156,27
3157,27
3158,27
3159,27
3160,27
3161,27
3162,27
3163,27
3164,27
3165,27
3166,28
3167,29
3168,29
3169,30
3170,30
3171,30
3172,30
3173,30
3174,30
3175,30
3176,30
3177,30
3178,29
3179,29
3180,29
3181,29
3182,29
3183,29
3184,28
3185,28
3186,28
3187,28
3188,28
3189,28
3190,28
3191,28
3192,28
3193,28
3194,28
3195,28
3196,28
3197,28
3198,28
3199,28
3200,28
3201,28
3202,28
3203,28
3204,28
3205,28
3206,28
3207,28
3208,28
3209,28
3210,28
3211,28
3212,28
3213,28
3214,29
3215,29
3216,29
3217,29
3218,29
3219,29
3220,29
3221,29
3222,29
3223,29
3224,29
3225,29
3226,29
3227,29
3228,30
3229,30
3230,29
3231,29
3232,29
3233,29
3234,29
3235,29
3236,29
3237,29
3238,29
3239,29
3240,29
3241,29
3242,29
3243,29
3244,29
3245,29
3246,29
3247,29
3248,29
3249,29
3250,29
3251,29
3252,29
3253,30
3254,29
3255,29
3256,29
3257,29
3258,30
3259,29
3260,29
3261,29
3262,29
3263,29
3264,29
3265,29
3266,29
3267,29
3268,29
3269,29
3270,29
3271,29
3272,29
3273,29
3274,29
3275,29
3276,29
3277,29
3278,29
3279,30
3280,30
3281,29
3282,29
3283,29
3284,29
3285,29
3286,29
3287,29
3288,29
3289,29
3290,29
3291,29
3292,29
3293,29
3294,29
3295,29
3296,29
3297,29
3298,29
3299,29
3300,29
3301,29
3302,29
3303,29
3304,29
3305,29
3306,29
3307,29
3308,29
3309,29
3310,29
3311,29
3312,29
3313,29
3314,29
3315,29
3316,29
3317,29
3318,29
3319,29
3320,29
3321,29
3322,29
3323,29
3324,29
3325,29
3326,29
3327,29
3328,29
3329,29
3330,29
3331,29
3332,29
3333,29
3334,29
3335,29
3336,29
3337,29
3338,29
3339,29
3340,29
3341,29
3342,29
3343,29
3344,29
3345,30
3346,30
3347,30
3348,30
3349,30
3350,30
3351,29
3352,29
3353,29
3354,29
3355,29
3356,29
3357,29
3358,29
3359,29
3360,29
3361,29
3362,29
3363,29
3364,30
3365,30
3366,29
3367,29
3368,29
3369,29
3370,29
3371,29
3372,29
3373,29
3374,29
3375,29
3376,29
3377,29
3378,29
3379,29
3380,29
3381,29
3382,29
3383,29
3384,29
3385,29
3386,29
3387,29
3388,29
3389,29
3390,29
3391,29
3392,29
3393,29
3394,29
3395,29
3396,29
3397,29
3398,29
3399,29
3400,29
3401,29
3402,29
3403,29
3404,29
3405,29
3406,29
3407,29
3408,29
3409,29
3410,29
3411,29
3412,29
3413,29
3414,29
3415,29
3416,29
3417,29
3418,29
3419,29
3420,29
3421,29
3422,29
3423,30
3424,30
3425,30
3426,29
3427,29
3428,29
3429,29
3430,29
3431,30
3432,29
3433,29
3434,29
3435,29
3436,29
3437,29
3438,29
3439,29
3440,29
3441,29
3442,29
3443,29
3444,29
3445,29
3446,29
3447,29
3448,30
3449,29
3450,29
3451,29
3452,29
3453,29
3454,29
3455,29
3456,29
3457,29
3458,29
3459,29
3460,29
3461,29
3462,29
3463,29
3464,29
3465,29
3466,29
3467,29
3468,29
3469,29
3470,29
3471,30
3472,29
3473,29
3474,29
3475,29
3476,29
3477,29
3478,30
3479,30
3480,31
3481,30
3482,30
3483,31
3484,30
3485,30
3486,30
3487,30
3488,30
3489,30
3490,30
3491,30
3492,30
3493,30
3494,30
3495,30
3496,30
3497,30
3498,30
3499,30
3500,30
3501,30
3502,30
3503,30
3504,30
3505,30
3506,30
3507,30
3508,30
3509,30
3510,30
3511,30
3512,30
3513,30
3514,30
3515,30
3516,30
3517,31
3518,31
3519,31
3520,30
3521,30
3522,31
3523,31
3524,31
3525,30
3526,30
3527,31
3528,31
3529,31
3530,31
3531,31
3532,31
3533,31
3534,31
3535,31
3536,31
3537,30
3538,30
3539,30
3540,30
3541,30
3542,30
3543,30
3544,30
3545,30
3546,30
3547,30
3548,30
3549,30
3550,30
3551,30
3552,30
3553,30
3554,30
3555,30
3556,31
3557,31
3558,31
3559,31
3560,31
3561,31
3562,31
3563,31
3564,32
3565,31
3566,31
3567,31
3568,31
3569,31
3570,31
3571,31
3572,31
3573,31
3574,31
3575,31
3576,32
3577,32
3578,31
3579,31
3580,31
3581,31
3582,31
3583,31
3584,31
3585,31
3586,32
3587,30
3588,30
3589,30
3590,30
3591,30
3592,30
3593,30
3594,30
3595,30
3596,30
3597,30
3598,30
3599,30
3600,30
3601,30
3602,30
3603,30
3604,30
3605,30
3606,30
3607,30
3608,30
3609,30
3610,30
3611,30
3612,30
3613,30
3614,30
3615,30
3616,30
3617,30
3618,30
3619,30
3620,30
3621,30
3622,30
3623,30
3624,30
3625,30
3626,30
3627,30
3628,30
3629,30
3630,30
3631,30
3632,30
3633,30
3634,30
3635,30
3636,30
3637,30
3638,30
3639,30
3640,30
3641,30
3642,30
3643,31
3644,31
3645,31
3646,31
3647,31
3648,31
3649,31
3650,30
3651,30
3652,30
3653,30
3654,30
3655,30
3656,30
3657,30
3658,30
3659,30
3660,30
3661,30
3662,30
3663,30
3664,30
3665,30
3666,30
3667,30
3668,30
3669,30
3670,30
3671,30
3672,30
3673,30
3674,30
3675,30
3676,31
3677,31
3678,32
3679,31
3680,31
3681,30
3682,30
3683,30
3684,30
3685,30
3686,30
3687,30
3688,30
3689,30
3690,30
3691,30
3692,30
3693,31
3694,31
3695,31
3696,31
3697,31
3698,31
3699,31
3700,31
3701,31
3702,31
3703,30
3704,30
3705,30
3706,30
3707,30
3708,30
3709,30
3710,30
3711,30
3712,30
3713,30
3714,30
3715,30
3716,30
3717,30
3718,30
3719,30
3720,31
3721,31
3722,31
3723,31
3724,31
3725,31
3726,30
3727,30
3728,30
3729,30
3730,30
3731,30
3732,30
3733,30
3734,30
3735,30
3736,30
3737,30
3738,30
3739,30
3740,30
3741,30
3742,30
3743,30
3744,30
3745,30
3746,30
3747,30
3748,30
3749,30
3750,30
3751,30
3752,30
3753,30
3754,30
3755,30
3756,30
3757,30
3758,30
3759,30
3760,30
3761,30
3762,30
3763,30
3764,30
3765,30
3766,30
3767,30
3768,30
3769,30
3770,30
3771,30
3772,30
3773,30
3774,30
3775,30
3776,30
3777,31
3778,31
3779,31
3780,30
3781,30
3782,30
3783,30
3784,31
3785,31
3786,32
3787,32
3788,31
3789,31
3790,30
3791,30
3792,30
3793,30
3794,30
3795,30
3796,30
3797,30
3798,30
3799,30
3800,30
3801,30
3802,30
3803,30
3804,30
3805,30
3806,30
3807,30
3808,30
3809,30
3810,30
3811,30
3812,30
3813,30
3814,30
3815,30
3816,30
3817,30
3818,30
3819,30
3820,30
3821,30
3822,30
3823,30
3824,30
3825,30
3826,30
3827,30
3828,30
3829,30
3830,30
3831,30
3832,30
3833,30
3834,30
3835,30
3836,30
3837,30
3838,30
3839,30
3840,30
3841,30
3842,30
3843,30
3844,30
3845,30
3846,30
3847,30
3848,30
3849,30
3850,30
3851,30
3852,30
3853,30
3854,30
3855,30
3856,30
3857,30
3858,30
3859,30
3860,31
3861,31
3862,31
3863,31
3864,31
3865,31
3866,31
3867,31
3868,31
3869,31
3870,31
3871,31
3872,32
3873,32
3874,32
3875,32
3876,33
3877,33
3878,33
3879,33
3880,33
3881,33
3882,33
3883,33
3884,33
3885,33
3886,33
3887,33
3888,33
3889,34
3890,34
3891,33
3892,33
3893,33
3894,33
3895,33
3896,33
3897,34
3898,34
3899,33
3900,33
3901,33
3902,33
3903,33
3904,33
3905,33
3906,33
3907,33
3908,33
3909,33
3910,33
3911,33
3912,34
3913,34
3914,34
3915,33
3916,33
3917,33
3918,33
3919,33
3920,33
3921,33
3922,34
3923,33
3924,33
3925,33
3926,33
3927,33
3928,33
3929,33
3930,33
3931,33
3932,33
3933,33
3934,33
3935,33
3936,33
3937,34
3938,34
3939,33
3940,33
3941,33
3942,34
3943,33
3944,33
3945,33
3946,33
3947,33
3948,33
3949,33
3950,33
3951,33
3952,33
3953,33
3954,33
3955,33
3956,33
3957,33
3958,33
3959,33
3960,33
3961,33
3962,33
3963,33
3964,33
3965,33
3966,33
3967,33
3968,33
3969,34
3970,34
3971,34
3972,34
3973,34
3974,33
3975,33
3976,33
3977,33
3978,33
3979,33
3980,33
3981,33
3982,33
3983,33
3984,33
3985,33
3986,33
3987,33
3988,33
3989,33
3990,33
3991,33
3992,33
3993,33
3994,33
3995,33
3996,33
3997,33
3998,33
3999,33
4000,33
4001,33
4002,33
4003,33
4004,33
4005,33
4006,33
4007,34
4008,34
4009,34
4010,34
4011,34
4012,34
4013,34
4014,34
4015,35
4016,34
4017,34
4018,34
4019,34
4020,33
4021,33
4022,33
4023,33
4024,33
4025,33
4026,33
4027,33
4028,33
4029,33
4030,33
4031,33
4032,34
4033,33
4034,33
4035,33
4036,33
4037,33
4038,33
4039,33
4040,33
4041,33
4042,33
4043,33
4044,33
4045,33
4046,33
4047,33
4048,33
4049,33
4050,34
4051,34
4052,34
4053,34
4054,33
4055,33
4056,33
4057,33
4058,33
4059,33
4060,33
4061,33
4062,33
4063,33
4064,33
4065,33
4066,34
4067,34
4068,34
4069,34
4070,33
4071,33
4072,33
4073,33
4074,33
4075,33
4076,33
4077,33
4078,33
4079,33
4080,33
4081,33
4082,34
4083,34
4084,34
4085,34
4086,34
4087,34
4088,33
4089,33
4090,33
4091,33
4092,33
4093,33
4094,33
4095,33
4096,33
4097,33
4098,33
4099,34
4100,33
4101,33
4102,33
4103,33
4104,33
4105,33
4106,33
4107,33
4108,34
4109,34
4110,34
4111,34
4112,34
4113,34
4114,34
4115,34
4116,34
4117,34
4118,34
4119,34
4120,34
4121,34
4122,34
4123,34
4124,34
4125,34
4126,34
4127,34
4128,34
4129,34
4130,34
4131,34
4132,34
4133,34
4134,34
4135,34
4136,34
4137,34
4138,34
4139,34
4140,34
4141,34
4142,34
4143,34
4144,34
4145,34
4146,34
4147,34
4148,34
4149,34
4150,34
4151,34
4152,34
4153,34
4154,34
4155,34
4156,34
4157,34
4158,34
4159,34
4160,34
4161,34
4162,34
4163,34
4164,34
4165,34
4166,34
4167,35
4168,34
4169,35
4170,34
4171,35
4172,35
4173,35
4174,34
4175,33
4176,34
4177,34
4178,34
4179,34
4180,34
4181,34
4182,34
4183,34
4184,34
4185,34
4186,34
4187,34
4188,34
4189,34
4190,34
4191,34
4192,35
4193,34
4194,34
4195,34
4196,34
4197,34
4198,34
4199,34
4200,34
4201,34
4202,34
4203,34
4204,34
4205,34
4206,34
4207,34
4208,34
4209,34
4210,34
4211,34
4212,34
4213,35
4214,35
4215,35
4216,35
4217,35
4218,34
4219,34
4220,34
4221,34
4222,34
4223,35
4224,34
4225,34
4226,34
4227,34
4228,34
4229,34
4230,34
4231,34
4232,34
4233,34
4234,34
4235,34
4236,34
4237,34
4238,34
4239,34
4240,35
4241,34
4242,34
4243,34
4244,34
4245,34
4246,34
4247,34
4248,34
4249,35
4250,35
4251,34
4252,34
4253,34
4254,34
4255,34
4256,34
4257,34
4258,34
4259,34
4260,34
4261,35
4262,34
4263,34
4264,34
4265,34
4266,34
4267,34
4268,34
4269,34
4270,34
4271,34
4272,34
4273,34
4274,34
4275,34
4276,34
4277,34
4278,34
4279,34
4280,34
4281,34
4282,34
4283,34
4284,34
4285,34
4286,34
4287,34
4288,34
4289,34
4290,34
4291,34
4292,34
4293,34
4294,34
4295,34
4296,34
4297,34
4298,34
4299,34
4300,34
4301,34
4302,34
4303,34
4304,34
4305,34
4306,34
4307,34
4308,34
4309,34
4310,35
4311,35
4312,35
4313,35
4314,35
4315,35
4316,35
4317,35
4318,36
4319,35
4320,35
4321,35
4322,35
4323,35
4324,35
4325,35
4326,35
4327,36
4328,36
4329,36
4330,35
4331,35
4332,35
4333,35
4334,35
4335,34
4336,34
4337,34
4338,34
4339,34
4340,34
4341,34
4342,34
4343,34
4344,34
4345,34
4346,34
4347,34
4348,34
4349,34
4350,34
4351,34
4352,34
4353,34
4354,34
4355,34
4356,34
4357,34
4358,34
4359,34
4360,34
4361,34
4362,34
4363,34
4364,34
4365,34
4366,34
4367,34
4368,35
4369,35
4370,35
4371,35
4372,35
4373,36
4374,36
4375,36
4376,36
4377,35
4378,35
4379,35
4380,35
4381,35
4382,35
4383,35
4384,35
4385,35
4386,35
4387,35
4388,35
4389,35
4390,34
4391,34
4392,34
4393,34
4394,34
4395,34
4396,35
4397,34
4398,34
4399,34
4400,34
4401,34
4402,34
4403,34
4404,34
4405,35
4406,34
4407,34
4408,34
4409,34
4410,34
4411,35
4412,35
4413,34
4414,34
4415,34
4416,34
4417,34
4418,34
4419,34
4420,34
4421,34
4422,34
4423,34
4424,34
4425,34
4426,34
4427,34
4428,34
4429,34
4430,34
4431,34
4432,35
4433,35
4434,35
4435,35
4436,35
4437,35
4438,35
4439,34
4440,34
4441,34
4442,34
4443,34
4444,34
4445,34
4446,34
4447,34
4448,34
4449,34
4450,34
4451,34
4452,34
4453,34
4454,35
4455,35
4456,35
4457,35
4458,34
4459,34
4460,34
4461,34
4462,34
4463,34
4464,34
4465,34
4466,34
4467,34
4468,34
4469,34
4470,34
4471,34
4472,34
4473,34
4474,34
4475,34
4476,34
4477,34
4478,34
4479,34
4480,34
4481,34
4482,34
4483,34
4484,34
4485,34
4486,34
4487,34
4488,34
4489,34
4490,34
4491,34
4492,34
4493,34
4494,34
4495,34
4496,34
4497,35
4498,34
4499,35
4500,34
4501,34
4502,34
4503,35
4504,35
4505,35
4506,34
4507,34
4508,34
4509,34
4510,34
4511,34
4512,34
4513,34
4514,34
4515,35
4516,34
4517,35
4518,34
4519,34
4520,34
4521,34
4522,34
4523,34
4524,34
4525,34
4526,34
4527,34
4528,34
4529,34
4530,34
4531,34
4532,34
4533,34
4534,34
4535,34
4536,34
4537,34
4538,34
4539,34
4540,34
4541,34
4542,34
4543,34
4544,34
4545,34
4546,34
4547,34
4548,34
4549,34
4550,34
4551,34
4552,34
4553,34
4554,34
4555,34
4556,34
4557,34
4558,34
4559,34
4560,34
4561,34
4562,35
4563,34
4564,34
4565,34
4566,34
4567,34
4568,34
4569,34
4570,34
4571,34
4572,34
4573,34
4574,34
4575,34
4576,34
4577,34
4578,34
4579,34
4580,34
4581,34
4582,34
4583,34
4584,34
4585,34
4586,35
4587,34
4588,34
4589,34
4590,34
4591,34
4592,34
4593,34
4594,34
4595,34
4596,34
4597,34
4598,34
4599,35
4600,35
4601,34
4602,34
4603,34
4604,34
4605,34
4606,34
4607,34
4608,34
4609,34
4610,34
4611,34
4612,34
4613,34
4614,35
4615,34
4616,34
4617,34
4618,34
4619,35
4620,35
4621,34
4622,34
4623,34
4624,34
4625,34
4626,34
4627,34
4628,34
4629,34
4630,34
4631,34
4632,34
4633,34
4634,34
4635,34
4636,34
4637,34
4638,34
4639,34
4640,34
4641,34
4642,34
4643,34
4644,35
4645,34
4646,34
4647,34
4648,34
4649,34
4650,34
4651,34
4652,34
4653,34
4654,34
4655,34
4656,34
4657,34
4658,35
4659,34
4660,34
4661,35
4662,34
4663,34
4664,34
4665,34
4666,34
4667,34
4668,34
4669,34
4670,34
4671,34
4672,34
4673,34
4674,34
4675,35
4676,35
4677,35
4678,35
4679,35
4680,35
4681,35
4682,35
4683,35
4684,35
4685,35
4686,35
4687,37
4688,37
4689,36
4690,36
4691,36
4692,36
4693,36
4694,36
4695,36
4696,36
4697,36
4698,36
4699,36
4700,36
4701,36
4702,37
4703,37
4704,36
4705,36
4706,36
4707,36
4708,36
4709,36
4710,36
4711,36
4712,36
4713,36
4714,36
4715,36
4716,36
4717,36
4718,37
4719,37
4720,36
4721,36
4722,36
4723,36
4724,36
4725,36
4726,37
4727,37
4728,36
4729,36
4730,36
4731,36
4732,36
4733,36
4734,36
4735,36
4736,36
4737,36
4738,36
4739,36
4740,36
4741,36
4742,36
4743,36
4744,36
4745,36
4746,36
4747,36
4748,36
4749,36
4750,36
4751,36
4752,36
4753,36
4754,36
4755,36
4756,36
4757,36
4758,36
4759,36
4760,36
4761,36
4762,36
4763,36
4764,36
4765,36
4766,36
4767,36
4768,36
4769,36
4770,36
4771,36
4772,36
4773,36
4774,36
4775,36
4776,36
4777,36
4778,36
4779,36
4780,36
4781,36
4782,36
4783,36
4784,36
4785,36
4786,36
4787,36
4788,36
4789,36
4790,36
4791,36
4792,36
4793,36
4794,36
4795,36
4796,36
4797,36
4798,36
4799,37
4800,37
4801,37
4802,37
4803,37
4804,37
4805,38
4806,38
4807,37
4808,37
4809,37
4810,37
4811,37
4812,37
4813,36
4814,36
4815,36
4816,36
4817,36
4818,36
4819,36
4820,36
4821,37
4822,38
4823,36
4824,36
4825,36
4826,36
4827,36
4828,36
4829,36
4830,36
4831,36
4832,36
4833,36
4834,36
4835,36
4836,36
4837,36
4838,36
4839,36
4840,36
4841,37
4842,37
4843,38
4844,38
4845,37
4846,36
4847,36
4848,36
4849,36
4850,36
4851,36
4852,36
4853,36
4854,37
4855,37
4856,37
4857,36
4858,36
4859,36
4860,36
4861,36
4862,36
4863,36
4864,35
4865,35
4866,35
4867,35
4868,35
4869,36
4870,36
4871,36
4872,36
4873,36
4874,36
4875,36
4876,36
4877,36
4878,36
4879,36
4880,36
4881,36
4882,36
4883,36
4884,36
4885,36
4886,36
4887,36
4888,36
4889,36
4890,36
4891,36
4892,36
4893,36
4894,36
4895,36
4896,36
4897,36
4898,36
4899,36
4900,36
4901,36
4902,36
4903,36
4904,36
4905,36
4906,36
4907,36
4908,36
4909,36
4910,36
4911,36
4912,36
4913,36
4914,36
4915,36
4916,36
4917,36
4918,36
4919,36
4920,36
4921,36
4922,36
4923,37
4924,37
4925,37
4926,36
4927,36
4928,36
4929,36
4930,36
4931,36
4932,36
4933,36
4934,36
4935,36
4936,36
4937,36
4938,36
4939,36
4940,36
4941,36
4942,36
4943,36
4944,36
4945,36
4946,36
4947,36
4948,36
4949,36
4950,36
4951,36
4952,36
4953,36
4954,36
4955,36
4956,36
4957,36
4958,36
4959,36
4960,36
4961,36
4962,36
4963,36
4964,36
4965,36
4966,36
4967,36
4968,37
4969,38
4970,37
4971,37
4972,38
4973,37
4974,37
4975,37
4976,37
4977,37
4978,37
4979,37
4980,37
4981,38
4982,37
4983,37
4984,37
4985,38
4986,37
4987,37
4988,37
4989,37
4990,37
4991,37
4992,37
4993,37
4994,37
4995,37
4996,37
4997,37
4998,37
4999,37
5000,37
5001,37
5002,37
5003,37
5004,37
5005,37
5006,37
5007,37
5008,37
5009,37
5010,37
5011,37
5012,37
5013,37
5014,37
5015,37
5016,37
5017,37
5018,37
5019,37
5020,37
5021,37
5022,37
5023,37
5024,37
5025,37
5026,37
5027,37
5028,37
5029,37
5030,37
5031,37
5032,38
5033,38
5034,37
5035,37
5036,37
5037,37
5038,37
5039,37
5040,37
5041,37
5042,37
5043,37
5044,37
5045,37
5046,37
5047,37
5048,37
5049,38
5050,38
5051,37
5052,37
5053,37
5054,37
5055,37
5056,37
5057,37
5058,37
5059,37
5060,38
5061,38
5062,38
5063,37
5064,37
5065,37
5066,37
5067,37
5068,37
5069,37
5070,37
5071,37
5072,37
5073,37
5074,37
5075,37
5076,37
5077,37
5078,37
5079,37
5080,37
5081,37
5082,37
5083,37
5084,37
5085,37
5086,37
5087,37
5088,37
5089,37
5090,37
5091,38
5092,38
5093,38
5094,37
5095,37
5096,37
5097,38
5098,37
5099,37
5100,37
5101,37
5102,37
5103,37
5104,37
5105,36
5106,36
5107,36
5108,36
5109,36
5110,36
5111,36
5112,36
5113,36
5114,36
5115,36
5116,36
5117,36
5118,36
5119,36
5120,37
5121,37
5122,37
5123,36
5124,36
5125,36
5126,36
5127,36
5128,36
5129,36
5130,36
5131,36
5132,36
5133,36
5134,37
5135,37
5136,37
5137,37
5138,37
5139,37
5140,37
5141,37
5142,37
5143,36
5144,37
5145,36
5146,36
5147,36
5148,36
5149,36
5150,36
5151,36
5152,36
5153,36
5154,36
5155,36
5156,36
5157,36
5158,36
5159,36
5160,36
5161,36
5162,36
5163,36
5164,36
5165,36
5166,36
5167,36
5168,36
5169,36
5170,37
5171,37
5172,38
5173,37
5174,37
5175,37
5176,37
5177,37
5178,37
5179,36
5180,36
5181,36
5182,36
5183,36
5184,36
5185,36
5186,36
5187,36
5188,36
5189,36
5190,36
5191,36
5192,36
5193,36
5194,36
5195,36
5196,36
5197,36
5198,36
5199,36
5200,36
5201,37
5202,37
5203,36
5204,36
5205,36
5206,36
5207,36
5208,36
5209,36
5210,36
5211,36
5212,36
5213,36
5214,36
5215,36
5216,36
5217,36
5218,36
5219,36
5220,36
5221,37
5222,37
5223,37
5224,37
5225,37
5226,36
5227,36
5228,36
5229,36
5230,36
5231,36
5232,36
5233,36
5234,37
5235,37
5236,37
5237,37
5238,36
5239,36
5240,36
5241,36
5242,36
5243,36
5244,36
5245,36
5246,36
5247,36
5248,36
5249,36
5250,36
5251,36
5252,36
5253,36
5254,36
5255,36
5256,36
5257,36
5258,36
5259,36
5260,36
5261,36
5262,36
5263,36
5264,36
5265,36
5266,36
5267,36
5268,36
5269,36
5270,36
5271,36
5272,36
5273,36
5274,36
5275,36
5276,36
5277,36
5278,36
5279,36
5280,36
5281,36
5282,36
5283,36
5284,36
5285,36
5286,36
5287,36
5288,36
5289,36
5290,36
5291,36
5292,36
5293,36
5294,36
5295,36
5296,36
5297,36
5298,36
5299,36
5300,36
5301,37
5302,36
5303,36
5304,37
5305,36
5306,36
5307,36
5308,36
5309,36
5310,36
5311,36
5312,36
5313,36
5314,37
5315,37
5316,38
5317,37
5318,36
5319,36
5320,36
5321,36
5322,36
5323,36
5324,36
5325,37
5326,36
5327,36
5328,36
5329,36
5330,36
5331,36
5332,36
5333,36
5334,36
5335,36
5336,36
5337,36
5338,36
5339,36
5340,36
5341,36
5342,36
5343,36
5344,36
5345,36
5346,37
5347,36
5348,36
5349,36
5350,36
5351,36
5352,36
5353,36
5354,36
5355,36
5356,36
5357,36
5358,36
5359,36
5360,36
5361,36
5362,36
5363,36
5364,36
5365,36
5366,36
5367,36
5368,36
5369,36
5370,36
5371,36
5372,36
5373,36
5374,36
5375,37
5376,37
5377,36
5378,37
5379,37
5380,36
5381,36
5382,36
5383,36
5384,36
5385,36
5386,36
5387,36
5388,36
5389,36
5390,36
5391,36
5392,36
5393,36
5394,36
5395,36
5396,36
5397,36
5398,36
5399,36
5400,36
5401,36
5402,36
5403,37
5404,37
5405,37
5406,36
5407,36
5408,36
5409,36
5410,36
5411,36
5412,36
5413,36
5414,36
5415,36
5416,37
5417,37
5418,36
5419,36
5420,36
5421,36
5422,36
5423,36
5424,36
5425,36
5426,36
5427,36
5428,36
5429,36
5430,36
5431,36
5432,37
5433,36
5434,36
5435,36
5436,36
5437,36
5438,36
5439,36
5440,36
5441,36
5442,36
5443,36
5444,36
5445,36
5446,36
5447,36
5448,36
5449,36
5450,36
5451,36
5452,36
5453,36
5454,38
5455,37
5456,36
5457,36
5458,36
5459,36
5460,36
5461,36
5462,36
5463,36
5464,36
5465,36
5466,36
5467,36
5468,36
5469,36
5470,36
5471,37
5472,37
5473,37
5474,37
5475,37
5476,37
5477,37
5478,38
5479,38
5480,37
5481,37
5482,37
5483,37
5484,37
5485,37
5486,37
5487,38
5488,37
5489,37
5490,36
5491,36
5492,36
5493,36
5494,36
5495,36
5496,36
5497,36
5498,36
5499,36
5500,36
5501,36
5502,36
5503,37
5504,37
5505,37
5506,36
5507,36
5508,37
5509,36
5510,36
5511,36
5512,36
5513,36
5514,36
5515,36
5516,36
5517,36
5518,36
5519,36
5520,36
5521,36
5522,36
5523,36
5524,36
5525,36
5526,36
5527,36
5528,36
5529,36
5530,36
5531,36
5532,36
5533,37
5534,37
5535,36
5536,36
5537,36
5538,36
5539,36
5540,36
5541,36
5542,36
5543,36
5544,36
5545,36
5546,36
5547,36
5548,36
5549,36
5550,36
5551,36
5552,37
5553,36
5554,36
5555,36
5556,36
5557,36
5558,36
5559,37
5560,37
5561,37
5562,36
5563,37
5564,37
5565,37
5566,37
5567,37
5568,37
5569,37
5570,38
5571,38
5572,38
5573,38
5574,37
5575,37
5576,36
5577,36
5578,36
5579,36
5580,36
5581,36
5582,36
5583,36
5584,36
5585,36
5586,36
5587,36
5588,36
5589,36
5590,36
5591,36
5592,37
5593,36
5594,36
5595,36
5596,36
5597,36
5598,36
5599,36
5600,36
5601,36
5602,36
5603,36
5604,37
5605,37
5606,36
5607,36
5608,37
5609,37
5610,37
5611,37
5612,37
5613,37
5614,37
5615,37
5616,37
5617,37
5618,37
5619,37
5620,37
5621,37
5622,37
5623,37
5624,37
5625,37
5626,37
5627,37
5628,37
5629,38
5630,38
5631,38
5632,38
5633,38
5634,38
5635,37
5636,37
5637,37
5638,37
5639,37
5640,37
5641,37
5642,37
5643,37
5644,37
5645,37
5646,37
5647,37
5648,37
5649,37
5650,37
5651,37
5652,37
5653,37
5654,37
5655,37
5656,37
5657,37
5658,37
5659,37
5660,37
5661,37
5662,37
5663,37
5664,37
5665,37
5666,37
5667,37
5668,37
5669,37
5670,37
5671,37
5672,37
5673,37
5674,37
5675,37
5676,37
5677,37
5678,37
5679,38
5680,37
5681,36
5682,36
5683,36
5684,36
5685,37
5686,37
5687,37
5688,37
5689,36
5690,36
5691,36
5692,36
5693,36
5694,37
5695,37
5696,37
5697,36
5698,36
5699,36
5700,36
5701,36
5702,36
5703,36
5704,36
5705,36
5706,36
5707,36
5708,36
5709,37
5710,36
5711,36
5712,36
5713,36
5714,36
5715,36
5716,36
5717,36
5718,36
5719,36
5720,36
5721,36
5722,36
5723,36
5724,36
5725,36
5726,36
5727,36
5728,36
5729,36
5730,36
5731,36
5732,36
5733,36
5734,36
5735,36
5736,36
5737,36
5738,36
5739,36
5740,36
5741,36
5742,37
5743,36
5744,36
5745,37
5746,37
5747,37
5748,37
5749,37
5750,37
5751,37
5752,36
5753,36
5754,36
5755,36
5756,36
5757,36
5758,36
5759,36
5760,36
5761,36
5762,36
5763,36
5764,36
5765,36
5766,36
5767,36
5768,36
5769,36
5770,36
5771,36
5772,36
5773,36
5774,36
5775,36
5776,36
5777,36
5778,36
5779,36
5780,36
5781,36
5782,36
5783,36
5784,36
5785,36
5786,36
5787,36
5788,36
5789,36
5790,36
5791,36
5792,36
5793,36
5794,36
5795,36
5796,36
5797,36
5798,36
5799,36
5800,36
5801,36
5802,36
5803,36
5804,36
5805,36
5806,37
5807,37
5808,37
5809,37
5810,37
5811,37
5812,37
5813,37
5814,37
5815,37
5816,37
5817,37
5818,37
5819,37
5820,37
5821,37
5822,37
5823,37
5824,37
5825,37
5826,37
5827,37
5828,36
5829,36
5830,36
5831,36
5832,36
5833,36
5834,36
5835,36
5836,36
5837,36
5838,36
5839,36
5840,36
5841,36
5842,36
5843,36
5844,36
5845,36
5846,36
5847,37
5848,37
5849,37
5850,36
5851,36
5852,36
5853,36
5854,36
5855,36
5856,36
5857,36
5858,36
5859,36
5860,36
5861,36
5862,36
5863,36
5864,36
5865,36
5866,36
5867,36
5868,36
5869,36
5870,36
5871,36
5872,36
5873,36
5874,36
5875,36
5876,36
5877,36
5878,36
5879,36
5880,36
5881,36
5882,36
5883,36
5884,36
5885,36
5886,36
5887,36
5888,36
5889,36
5890,36
5891,36
5892,36
5893,36
5894,35
5895,35
5896,35
5897,35
5898,35
5899,35
5900,35
5901,35
5902,35
5903,35
5904,35
5905,35
5906,35
5907,35
5908,35
5909,35
5910,35
5911,35
5912,35
5913,35
5914,35
5915,35
5916,35
5917,35
5918,35
5919,35
5920,35
5921,35
5922,35
5923,35
5924,35
5925,35
5926,35
5927,35
5928,35
5929,35
5930,35
5931,35
5932,35
5933,35
5934,35
5935,35
5936,35
5937,35
5938,35
5939,36
5940,35
5941,35
5942,36
5943,36
5944,36
5945,36
5946,36
5947,36
5948,36
5949,36
5950,36
5951,36
5952,35
5953,36
5954,36
5955,35
5956,35
5957,35
5958,35
5959,35
5960,35
5961,34
5962,34
5963,34
5964,34
5965,34
5966,34
5967,34
5968,34
5969,34
5970,34
5971,34
5972,34
5973,34
5974,34
5975,34
5976,34
5977,34
5978,35
5979,35
5980,35
5981,34
5982,34
5983,34
5984,34
5985,34
5986,34
5987,34
5988,34
5989,34
5990,35
5991,34
5992,34
5993,34
5994,34
5995,34
5996,34
5997,34
5998,34
5999,34
6000,34
6001,34
6002,34
6003,34
6004,34
6005,34
6006,34
6007,34
6008,34
6009,34
6010,34
6011,34
6012,34
6013,34
6014,34
6015,34
6016,34
6017,34
6018,34
6019,34
6020,34
6021,34
6022,34
6023,34
6024,34
6025,34
6026,34
6027,34
6028,34
6029,34
6030,34
6031,34
6032,34
6033,34
6034,34
6035,34
6036,34
6037,34
6038,34
6039,34
6040,35
6041,35
6042,35
6043,35
6044,35
6045,35
6046,35
6047,35
6048,35
6049,35
6050,35
6051,35
6052,35
6053,35
6054,35
6055,35
6056,35
6057,35
6058,35
6059,35
6060,35
6061,35
6062,35
6063,34
6064,34
6065,34
6066,34
6067,34
6068,35
6069,35
6070,34
6071,34
6072,34
6073,34
6074,34
6075,34
6076,34
6077,34
6078,34
6079,34
6080,34
6081,34
6082,34
6083,34
6084,34
6085,34
6086,34
6087,34
6088,34
6089,34
6090,34
6091,34
6092,34
6093,34
6094,34
6095,34
6096,34
6097,34
6098,34
6099,34
6100,35
6101,34
6102,34
6103,34
6104,34
6105,34
6106,34
6107,34
6108,34
6109,34
6110,34
6111,34
6112,34
6113,34
6114,34
6115,34
6116,34
6117,34
6118,34
6119,34
6120,34
6121,34
6122,34
6123,34
6124,35
6125,35
6126,35
6127,35
6128,35
6129,35
6130,35
6131,35
6132,35
6133,35
6134,35
6135,36
6136,36
6137,36
6138,36
6139,36
6140,36
6141,36
6142,36
6143,36
6144,36
6145,37
6146,36
6147,36
6148,36
6149,36
6150,36
6151,36
6152,35
6153,35
6154,36
6155,35
6156,35
6157,35
6158,35
6159,35
6160,35
6161,35
6162,35
6163,35
6164,35
6165,35
6166,35
6167,36
6168,37
6169,36
6170,36
6171,36
6172,36
6173,36
6174,36
6175,36
6176,36
6177,35
6178,35
6179,35
6180,35
6181,35
6182,35
6183,35
6184,35
6185,35
6186,35
6187,35
6188,35
6189,35
6190,35
6191,35
6192,35
6193,35
6194,35
6195,35
6196,35
6197,35
6198,35
6199,35
6200,35
6201,35
6202,36
6203,36
6204,36
6205,36
6206,36
6207,36
6208,37
6209,37
6210,37
6211,38
6212,36
6213,36
6214,35
6215,35
6216,35
6217,35
6218,35
6219,35
6220,35
6221,35
6222,35
6223,35
6224,35
6225,35
6226,35
6227,35
6228,35
6229,36
6230,35
6231,35
6232,35
6233,35
6234,35
6235,35
6236,35
6237,35
6238,35
6239,35
6240,35
6241,35
6242,35
6243,35
6244,35
6245,35
6246,35
6247,35
6248,35
6249,36
6250,36
6251,35
6252,35
6253,35
6254,35
6255,35
6256,35
6257,35
6258,35
6259,35
6260,35
6261,35
6262,35
6263,35
6264,35
6265,35
6266,35
6267,35
6268,36
6269,35
6270,35
6271,35
6272,35
6273,35
6274,35
6275,36
6276,35
6277,35
6278,35
6279,35
6280,35
6281,35
6282,35
6283,35
6284,35
6285,35
6286,35
6287,36
6288,36
6289,36
6290,36
6291,36
6292,36
6293,36
6294,35
6295,35
6296,35
6297,35
6298,35
6299,35
6300,35
6301,35
6302,35
6303,35
6304,36
6305,35
6306,35
6307,35
6308,36
6309,36
6310,36
6311,36
6312,35
6313,35
6314,35
6315,35
6316,35
6317,35
6318,35
6319,35
6320,35
6321,35
6322,35
6323,35
6324,35
6325,35
6326,35
6327,35
6328,35
6329,35
6330,35
6331,35
6332,35
6333,35
6334,35
6335,35
6336,36
6337,35
6338,35
6339,35
6340,35
6341,35
6342,35
6343,35
6344,35
6345,35
6346,35
6347,35
6348,35
6349,35
6350,35
6351,35
6352,35
6353,35
6354,35
6355,35
6356,36
6357,36
6358,36
6359,37
6360,37
6361,36
6362,36
6363,37
6364,37
6365,37
6366,37
6367,39
6368,38
6369,38
6370,38
6371,37
6372,36
6373,37
6374,37
6375,37
6376,37
6377,36
6378,36
6379,36
6380,36
6381,36
6382,36
6383,37
6384,37
6385,37
6386,37
6387,37
6388,37
6389,37
6390,37
6391,37
6392,37
6393,37
6394,37
6395,36
6396,36
6397,36
6398,36
6399,36
6400,36
6401,37
6402,36
6403,36
6404,36
6405,36
6406,36
6407,36
6408,36
6409,36
6410,37
6411,37
6412,36
6413,36
6414,36
6415,36
6416,36
6417,36
6418,36
6419,36
6420,36
6421,36
6422,36
6423,36
6424,36
6425,36
6426,37
6427,36
6428,36
6429,36
6430,37
6431,36
6432,36
6433,36
6434,36
6435,36
6436,36
6437,36
6438,36
6439,36
6440,36
6441,36
6442,36
6443,36
6444,36
6445,36
6446,36
6447,36
6448,36
6449,37
6450,37
6451,37
6452,37
6453,37
6454,37
6455,37
6456,37
6457,37
6458,37
6459,37
6460,37
6461,37
6462,37
6463,37
6464,37
6465,37
6466,37
6467,36
6468,36
6469,36
6470,37
6471,38
6472,38
6473,38
6474,38
6475,38
6476,38
6477,38
6478,38
6479,38
6480,38
6481,38
6482,38
6483,38
6484,37
6485,37
6486,37
6487,36
6488,36
6489,36
6490,36
6491,37
6492,37
6493,37
6494,37
6495,37
6496,37
6497,37
6498,37
6499,37
6500,38
6501,38
6502,38
6503,38
6504,38
6505,38
6506,38
6507,39
6508,39
6509,39
6510,39
6511,39
6512,39
6513,39
6514,39
6515,39
6516,39
6517,39
6518,38
6519,38
6520,38
6521,38
6522,38
6523,38
6524,38
6525,38
6526,39
6527,38
6528,39
6529,38
6530,38
6531,39
6532,38
6533,37
6534,37
6535,36
6536,36
6537,36
6538,36
6539,36
6540,36
6541,36
6542,36
6543,36
6544,36
6545,36
6546,36
6547,36
6548,36
6549,36
6550,36
6551,36
6552,36
6553,36
6554,36
6555,36
6556,36
6557,36
6558,37
6559,37
6560,37
6561,37
6562,37
6563,37
6564,37
6565,37
6566,37
6567,37
6568,38
6569,37
6570,37
6571,37
6572,37
6573,37
6574,37
6575,37
6576,37
6577,37
6578,37
6579,37
6580,37
6581,37
6582,36
6583,36
6584,36
6585,36
6586,36
6587,36
6588,36
6589,36
6590,36
6591,36
6592,36
6593,36
6594,36
6595,36
6596,36
6597,36
6598,36
6599,36
6600,36
6601,36
6602,36
6603,36
6604,36
6605,36
6606,36
6607,36
6608,36
6609,36
6610,36
6611,36
6612,36
6613,37
6614,36
6615,36
6616,36
6617,36
6618,36
6619,36
6620,37
6621,37
6622,37
6623,37
6624,36
6625,36
6626,37
6627,36
6628,36
6629,36
6630,36
6631,36
6632,36
6633,36
6634,36
6635,36
6636,37
6637,37
6638,37
6639,37
6640,37
6641,37
6642,37
6643,37
6644,37
6645,37
6646,37
6647,38
6648,38
6649,38
6650,38
6651,38
6652,38
6653,38
6654,38
6655,38
6656,38
6657,38
6658,38
6659,40
6660,40
6661,39
6662,38
6663,38
6664,38
6665,38
6666,37
6667,37
6668,37
6669,37
6670,38
6671,37
6672,37
6673,37
6674,37
6675,37
6676,37
6677,37
6678,37
6679,37
6680,37
6681,37
6682,37
6683,37
6684,37
6685,37
6686,37
6687,37
6688,37
6689,38
6690,39
6691,39
6692,38
6693,38
6694,38
6695,38
6696,38
6697,38
6698,38
6699,38
6700,39
6701,39
6702,39
6703,39
6704,39
6705,39
6706,39
6707,38
6708,38
6709,37
6710,37
6711,37
6712,37
6713,37
6714,37
6715,37
6716,37
6717,37
6718,37
6719,37
6720,37
6721,37
6722,37
6723,37
6724,36
6725,36
6726,36
6727,36
6728,36
6729,36
6730,36
6731,36
6732,36
6733,36
6734,36
6735,36
6736,36
6737,36
6738,37
6739,37
6740,37
6741,37
6742,36
6743,36
6744,36
6745,36
6746,36
6747,36
6748,36
6749,36
6750,36
6751,36
6752,36
6753,36
6754,36
6755,36
6756,36
6757,36
6758,36
6759,36
6760,36
6761,36
6762,36
6763,36
6764,36
6765,36
6766,36
6767,36
6768,36
6769,36
6770,36
6771,36
6772,36
6773,36
6774,36
6775,36
6776,36
6777,36
6778,36
6779,36
6780,36
6781,36
6782,36
6783,36
6784,36
6785,36
6786,36
6787,36
6788,36
6789,36
6790,36
6791,36
6792,36
6793,36
6794,36
6795,36
6796,36
6797,36
6798,37
6799,37
6800,37
6801,37
6802,37
6803,37
6804,38
6805,38
6806,38
6807,38
6808,38
6809,37
6810,37
6811,37
6812,37
6813,37
6814,37
6815,37
6816,37
6817,37
6818,37
6819,36
6820,36
6821,36
6822,36
6823,36
6824,36
6825,36
6826,36
6827,36
6828,36
6829,36
6830,36
6831,36
6832,36
6833,36
6834,36
6835,36
6836,36
6837,36
6838,36
6839,36
6840,36
6841,36
6842,36
6843,36
6844,36
6845,36
6846,37
6847,36
6848,36
6849,36
6850,36
6851,37
6852,36
6853,36
6854,36
6855,36
6856,36
6857,36
6858,36
6859,36
6860,37
6861,37
6862,37
6863,36
6864,36
6865,36
6866,36
6867,36
6868,37
6869,36
6870,37
6871,36
6872,36
6873,38
6874,38
6875,37
6876,37
6877,37
6878,37
6879,37
6880,37
6881,37
6882,37
6883,37
6884,37
6885,37
6886,37
6887,37
6888,37
6889,37
6890,37
6891,38
6892,38
6893,38
6894,38
6895,38
6896,39
6897,39
6898,39
6899,39
6900,39
6901,39
6902,38
6903,38
6904,38
6905,38
6906,38
6907,37
6908,37
6909,37
6910,37
6911,37
6912,37
6913,37
6914,38
6915,38
6916,38
6917,37
6918,37
6919,36
6920,36
6921,36
6922,37
6923,37
6924,37
6925,36
6926,36
6927,36
6928,36
6929,36
6930,36
6931,36
6932,37
6933,36
6934,36
6935,36
6936,36
6937,36
6938,37
6939,37
6940,37
6941,37
6942,37
6943,37
6944,37
6945,37
6946,37
6947,37
6948,37
6949,37
6950,37
6951,37
6952,36
6953,36
6954,36
6955,36
6956,36
6957,36
6958,36
6959,36
6960,36
6961,37
6962,37
6963,37
6964,37
6965,37
6966,37
6967,37
6968,37
6969,37
6970,37
6971,37
6972,37
6973,37
6974,37
6975,37
6976,37
6977,37
6978,37
6979,37
6980,38
6981,38
6982,37
6983,37
6984,37
6985,37
6986,37
6987,37
6988,37
6989,37
6990,37
6991,37
6992,37
6993,37
6994,38
6995,38
6996,39
6997,37
6998,37
6999,37
7000,37
7001,38
7002,37
7003,37
7004,37
7005,37
7006,38
7007,38
7008,39
7009,38
7010,38
7011,38
7012,38
7013,37
7014,37
7015,37
7016,37
7017,37
7018,37
7019,37
7020,37
7021,37
7022,37
7023,38
7024,38
7025,37
7026,37
7027,37
7028,37
7029,37
7030,37
7031,37
7032,37
7033,37
7034,37
7035,37
7036,38
7037,37
7038,37
7039,37
7040,37
7041,37
7042,37
7043,37
7044,37
7045,37
7046,37
7047,37
7048,37
7049,37
7050,39
7051,39
7052,39
7053,39
7054,39
7055,39
7056,39
7057,39
7058,39
7059,39
7060,39
7061,39
7062,39
7063,39
7064,39
7065,39
7066,38
7067,38
7068,38
7069,38
7070,39
7071,38
7072,38
7073,38
7074,38
7075,38
7076,38
7077,38
7078,38
7079,38
7080,38
7081,38
7082,38
7083,38
7084,38
7085,38
7086,38
7087,38
7088,38
7089,38
7090,38
7091,38
7092,38
7093,38
7094,38
7095,38
7096,38
7097,38
7098,39
7099,39
7100,38
7101,38
7102,38
7103,38
7104,38
7105,38
7106,38
7107,38
7108,38
7109,38
7110,38
7111,38
7112,39
7113,39
7114,39
7115,39
7116,39
7117,39
7118,39
7119,40
7120,40
7121,39
7122,39
7123,39
7124,39
7125,39
7126,39
7127,39
7128,39
7129,39
7130,40
7131,40
7132,40
7133,40
7134,40
7135,39
7136,39
7137,39
7138,39
7139,39
7140,39
7141,39
7142,39
7143,39
7144,39
7145,39
7146,39
7147,39
7148,39
7149,39
7150,39
7151,39
7152,40
7153,40
7154,39
7155,39
7156,39
7157,39
7158,39
7159,39
7160,39
7161,39
7162,39
7163,39
7164,39
7165,39
7166,39
7167,39
7168,39
7169,39
7170,39
7171,39
7172,39
7173,39
7174,39
7175,39
7176,39
7177,39
7178,39
7179,39
7180,39
7181,39
7182,39
7183,39
7184,39
7185,39
7186,39
7187,39
7188,39
7189,39
7190,39
7191,39
7192,39
7193,39
7194,39
7195,39
7196,39
7197,39
7198,39
7199,39
7200,39
7201,39
7202,39
7203,39
7204,39
7205,38
7206,38
7207,38
7208,38
7209,38
7210,38
7211,38
7212,38
7213,37
7214,37
7215,37
7216,37
7217,37
7218,37
7219,37
7220,37
7221,37
7222,37
7223,37
7224,37
7225,38
7226,38
7227,37
7228,37
7229,37
7230,37
7231,37
7232,37
7233,37
7234,37
7235,37
7236,37
7237,38
7238,37
7239,37
7240,37
7241,37
7242,37
7243,37
7244,37
7245,37
7246,37
7247,37
7248,37
7249,37
7250,37
7251,37
7252,37
7253,37
7254,37
7255,37
7256,37
7257,37
7258,37
7259,37
7260,37
7261,37
7262,38
7263,38
7264,38
7265,38
7266,38
7267,38
7268,38
7269,38
7270,38
7271,37
7272,37
7273,37
7274,37
7275,37
7276,38
7277,38
7278,37
7279,38
7280,37
7281,37
7282,37
7283,36
7284,36
7285,36
7286,36
7287,36
7288,36
7289,36
7290,36
7291,36
7292,36
7293,36
7294,36
7295,37
7296,36
7297,36
7298,36
7299,36
7300,36
7301,36
7302,36
7303,36
7304,36
7305,36
7306,36
7307,36
7308,36
7309,36
7310,36
7311,36
7312,36
7313,36
7314,36
7315,37
7316,38
7317,36
7318,36
7319,36
7320,37
7321,37
7322,37
7323,37
7324,37
7325,37
7326,36
7327,36
7328,36
7329,36
7330,36
7331,36
7332,36
7333,36
7334,36
7335,36
7336,36
7337,36
7338,37
7339,36
7340,36
7341,36
7342,36
7343,36
7344,36
7345,36
7346,36
7347,36
7348,36
7349,36
7350,36
7351,36
7352,36
7353,38
7354,37
7355,37
7356,37
7357,37
7358,37
7359,37
7360,36
7361,36
7362,36
7363,36
7364,36
7365,36
7366,36
7367,36
7368,36
7369,36
7370,37
7371,37
7372,37
7373,37
7374,37
7375,37
7376,37
7377,37
7378,37
7379,37
7380,37
7381,37
7382,37
7383,37
7384,36
7385,36
7386,36
7387,36
7388,36
7389,36
7390,36
7391,36
7392,36
7393,36
7394,36
7395,36
7396,36
7397,36
7398,37
7399,37
7400,38
7401,39
7402,37
7403,37
7404,37
7405,37
7406,36
7407,36
7408,37
7409,36
7410,37
7411,37
7412,37
7413,36
7414,36
7415,36
7416,36
7417,36
7418,36
7419,36
7420,36
7421,36
7422,36
7423,36
7424,36
7425,36
7426,36
7427,36
7428,36
7429,36
7430,36
7431,36
7432,36
7433,36
7434,36
7435,36
7436,36
7437,36
7438,36
7439,36
7440,36
7441,37
7442,36
7443,36
7444,36
7445,36
7446,36
7447,36
7448,36
7449,36
7450,36
7451,36
7452,35
7453,35
7454,35
7455,35
7456,35
7457,35
7458,35
7459,35
7460,35
7461,35
7462,35
7463,35
7464,35
7465,35
7466,35
7467,35
7468,35
7469,35
7470,35
7471,35
7472,35
7473,35
7474,35
7475,35
7476,35
7477,35
7478,35
7479,35
7480,35
7481,35
7482,35
7483,35
7484,35
7485,35
7486,35
7487,35
7488,35
7489,35
7490,35
7491,35
7492,35
7493,35
7494,35
7495,35
7496,35
7497,35
7498,35
7499,35
7500,35
7501,35
7502,36
7503,35
7504,35
7505,35
7506,35
7507,35
7508,35
7509,35
7510,35
7511,35
7512,35
7513,35
7514,35
7515,35
7516,35
7517,35
7518,35
7519,35
7520,35
7521,35
7522,35
7523,35
7524,35
7525,35
7526,35
7527,35
7528,35
7529,35
7530,35
7531,35
7532,35
7533,35
7534,35
7535,35
7536,35
7537,35
7538,35
7539,35
7540,35
7541,35
7542,35
7543,35
7544,35
7545,35
7546,35
7547,35
7548,35
7549,35
7550,35
7551,35
7552,35
7553,35
7554,35
7555,35
7556,35
7557,35
7558,35
7559,35
7560,37
7561,36
7562,35
7563,35
7564,35
7565,35
7566,35
7567,35
7568,35
7569,35
7570,35
7571,35
7572,35
7573,35
7574,35
7575,35
7576,35
7577,35
7578,35
7579,35
7580,35
7581,35
7582,35
7583,35
7584,35
7585,35
7586,35
7587,35
7588,35
7589,35
7590,35
7591,35
7592,35
7593,35
7594,35
7595,35
7596,35
7597,35
7598,35
7599,35
7600,35
7601,35
7602,35
7603,35
7604,35
7605,35
7606,35
7607,36
7608,36
7609,36
7610,36
7611,36
7612,36
7613,37
7614,36
7615,36
7616,36
7617,36
7618,36
7619,36
7620,36
7621,36
7622,36
7623,36
7624,35
7625,35
7626,35
7627,35
7628,35
7629,35
7630,35
7631,35
7632,35
7633,35
7634,35
7635,34
7636,35
7637,35
7638,36
7639,35
7640,35
7641,35
7642,34
7643,34
7644,34
7645,34
7646,34
7647,34
7648,34
7649,34
7650,34
7651,34
7652,34
7653,34
7654,34
7655,34
7656,35
7657,34
7658,34
7659,34
7660,34
7661,34
7662,34
7663,34
7664,35
7665,35
7666,35
7667,35
7668,36
7669,36
7670,36
7671,36
7672,36
7673,36
7674,36
7675,36
7676,36
7677,35
7678,35
7679,34
7680,34
7681,34
7682,34
7683,34
7684,34
7685,34
7686,34
7687,34
7688,34
7689,34
7690,34
7691,34
7692,34
7693,34
7694,35
7695,35
7696,35
7697,35
7698,35
7699,35
7700,36
7701,35
7702,35
7703,35
7704,35
7705,35
7706,35
7707,35
7708,35
7709,35
7710,35
7711,35
7712,35
7713,35
7714,35
7715,35
7716,35
7717,35
7718,35
7719,35
7720,35
7721,35
7722,35
7723,35
7724,35
7725,35
7726,35
7727,35
7728,35
7729,35
7730,35
7731,35
7732,35
7733,35
7734,35
7735,35
7736,35
7737,35
7738,35
7739,36
7740,35
7741,35
7742,35
7743,35
7744,35
7745,35
7746,35
7747,35
7748,35
7749,36
7750,37
7751,36
7752,36
7753,35
7754,35
7755,35
7756,35
7757,35
7758,35
7759,35
7760,35
7761,35
7762,35
7763,35
7764,35
7765,36
7766,35
7767,35
7768,35
7769,35
7770,35
7771,35
7772,34
7773,34
7774,34
7775,34
7776,34
7777,34
7778,34
7779,34
7780,34
7781,35
7782,34
7783,34
7784,34
7785,33
7786,33
7787,33
7788,33
7789,33
7790,33
7791,33
7792,33
7793,33
7794,33
7795,33
7796,33
7797,33
7798,33
7799,33
7800,33
7801,33
7802,33
7803,33
7804,33
7805,33
7806,33
7807,33
7808,33
7809,33
7810,33
7811,33
7812,33
7813,33
7814,33
7815,34
7816,34
7817,34
7818,33
7819,33
7820,33
7821,33
7822,33
7823,33
7824,33
7825,33
7826,33
7827,33
7828,33
7829,33
7830,34
7831,34
7832,34
7833,33
7834,33
7835,33
7836,33
7837,33
7838,33
7839,34
7840,35
7841,34
7842,34
7843,33
7844,33
7845,33
7846,33
7847,33
7848,33
7849,33
7850,33
7851,33
7852,33
7853,34
7854,33
7855,33
7856,33
7857,33
7858,33
7859,34
7860,34
7861,34
7862,34
7863,34
7864,34
7865,34
7866,34
7867,34
7868,33
7869,33
7870,33
7871,33
7872,33
7873,33
7874,33
7875,33
7876,33
7877,33
7878,33
7879,34
7880,34
7881,33
7882,33
7883,33
7884,33
7885,33
7886,33
7887,33
7888,33
7889,33
7890,33
7891,33
7892,33
7893,34
7894,34
7895,34
7896,34
7897,34
7898,33
7899,33
7900,34
7901,33
7902,33
7903,33
7904,33
7905,33
7906,33
7907,33
7908,33
7909,33
7910,33
7911,34
7912,34
7913,33
7914,33
7915,33
7916,33
7917,33
7918,33
7919,34
7920,33
7921,33
7922,33
7923,33
7924,34
7925,34
7926,33
7927,34
7928,34
7929,35
7930,34
7931,34
7932,34
7933,34
7934,34
7935,34
7936,35
7937,33
7938,33
7939,33
7940,33
7941,33
7942,33
7943,33
7944,33
7945,33
7946,33
7947,33
7948,33
7949,33
7950,33
7951,33
7952,33
7953,33
7954,33
7955,33
7956,33
7957,33
7958,33
7959,33
7960,33
7961,33
7962,33
7963,33
7964,33
7965,33
7966,33
7967,33
7968,33
7969,33
7970,33
7971,33
7972,33
7973,33
7974,33
7975,33
7976,33
7977,33
7978,33
7979,33
7980,33
7981,33
7982,33
7983,33
7984,33
7985,33
7986,33
7987,33
7988,33
7989,33
7990,33
7991,33
7992,34
7993,34
7994,34
7995,34
7996,34
7997,34
7998,34
7999,34
8000,34
8001,33
8002,33
8003,33
8004,33
8005,33
8006,33
8007,33
8008,33
8009,33
8010,33
8011,33
8012,33
8013,33
8014,33
8015,33
8016,33
8017,33
8018,33
8019,33
8020,33
8021,33
8022,33
8023,33
8024,33
8025,33
8026,33
8027,33
8028,33
8029,33
8030,33
8031,33
8032,33
8033,33
8034,33
8035,33
8036,34
8037,33
8038,33
8039,33
8040,33
8041,33
8042,33
8043,33
8044,33
8045,33
8046,33
8047,33
8048,33
8049,33
8050,33
8051,33
8052,33
8053,33
8054,33
8055,33
8056,33
8057,33
8058,33
8059,33
8060,33
8061,33
8062,33
8063,33
8064,33
8065,33
8066,33
8067,33
8068,33
8069,33
8070,33
8071,33
8072,33
8073,33
8074,33
8075,33
8076,33
8077,33
8078,33
8079,33
8080,33
8081,33
8082,33
8083,33
8084,33
8085,33
8086,33
8087,33
8088,33
8089,33
8090,33
8091,33
8092,33
8093,33
8094,34
8095,33
8096,33
8097,33
8098,33
8099,33
8100,33
8101,33
8102,33
8103,33
8104,33
8105,34
8106,33
8107,33
8108,33
8109,33
8110,33
8111,33
8112,33
8113,33
8114,34
8115,33
8116,33
8117,33
8118,33
8119,33
8120,33
8121,33
8122,34
8123,33
8124,33
8125,33
8126,33
8127,33
8128,34
8129,33
8130,33
8131,33
8132,33
8133,33
8134,33
8135,33
8136,33
8137,33
8138,33
8139,33
8140,33
8141,33
8142,33
8143,33
8144,33
8145,33
8146,33
8147,33
8148,33
8149,33
8150,33
8151,33
8152,33
8153,34
8154,34
8155,33
8156,33
8157,33
8158,33
8159,33
8160,33
8161,33
8162,33
8163,33
8164,33
8165,33
8166,33
8167,33
8168,33
8169,33
8170,33
8171,33
8172,33
8173,33
8174,33
8175,33
8176,33
8177,33
8178,33
8179,33
8180,33
8181,33
8182,33
8183,34
8184,33
8185,33
8186,33
8187,33
8188,34
8189,34
8190,34
8191,34
8192,34
8193,35
8194,34
8195,35
8196,34
8197,34
8198,34
8199,35
8200,35
8201,34
8202,34
8203,34
8204,34
8205,34
8206,34
8207,34
8208,35
8209,35
8210,34
8211,34
8212,35
8213,35
8214,36
8215,36
8216,36
8217,36
8218,36
8219,36
8220,36
8221,35
8222,35
8223,35
8224,35
8225,35
8226,35
8227,35
8228,35
8229,35
8230,35
8231,35
8232,35
8233,35
8234,35
8235,35
8236,35
8237,35
8238,35
8239,35
8240,35
8241,35
8242,35
8243,35
8244,35
8245,35
8246,35
8247,35
8248,35
8249,35
8250,35
8251,35
8252,35
8253,35
8254,35
8255,35
8256,35
8257,35
8258,35
8259,36
8260,36
8261,36
8262,36
8263,36
8264,35
8265,35
8266,35
8267,35
8268,35
8269,35
8270,35
8271,35
8272,36
8273,35
8274,35
8275,35
8276,35
8277,35
8278,35
8279,35
8280,35
8281,35
8282,35
8283,35
8284,35
8285,35
8286,35
8287,35
8288,35
8289,35
8290,35
8291,35
8292,36
8293,36
8294,36
8295,36
8296,36
8297,36
8298,36
8299,36
8300,36
8301,36
8302,36
8303,36
8304,36
8305,36
8306,36
8307,37
8308,37
8309,37
8310,37
8311,37
8312,37
8313,37
8314,37
8315,37
8316,37
8317,37
8318,37
8319,37
8320,37
8321,37
8322,37
8323,37
8324,37
8325,37
8326,37
8327,37
8328,38
8329,38
8330,38
8331,38
8332,39
8333,39
8334,38
8335,38
8336,38
8337,38
8338,38
8339,38
8340,38
8341,38
8342,38
8343,38
8344,39
8345,39
8346,39
8347,39
8348,38
8349,38
8350,38
8351,38
8352,38
8353,38
8354,38
8355,38
8356,39
8357,38
8358,38
8359,38
8360,38
8361,38
8362,38
8363,38
8364,38
8365,38
8366,38
8367,38
8368,38
8369,38
8370,38
8371,38
8372,39
8373,39
8374,38
8375,38
8376,38
8377,38
8378,38
8379,38
8380,38
8381,38
8382,38
8383,38
8384,38
8385,38
8386,38
8387,38
8388,38
8389,38
8390,38
8391,38
8392,38
8393,38
8394,38
8395,38
8396,38
8397,38
8398,38
8399,38
8400,38
8401,38
8402,38
8403,38
8404,38
8405,38
8406,38
8407,38
8408,38
8409,38
8410,38
8411,38
8412,38
8413,38
8414,38
8415,38
8416,38
8417,38
8418,38
8419,38
8420,37
8421,37
8422,37
8423,37
8424,37
8425,37
8426,37
8427,37
8428,37
8429,37
8430,38
8431,38
8432,37
8433,37
8434,38
8435,38
8436,37
8437,36
8438,36
8439,36
8440,36
8441,36
8442,36
8443,36
8444,36
8445,36
8446,36
8447,36
8448,36
8449,36
8450,36
8451,36
8452,36
8453,36
8454,36
8455,36
8456,36
8457,36
8458,36
8459,36
8460,36
8461,36
8462,36
8463,36
8464,36
8465,36
8466,36
8467,36
8468,36
8469,36
8470,36
8471,36
8472,36
8473,36
8474,36
8475,36
8476,36
8477,36
8478,36
8479,36
8480,36
8481,36
8482,36
8483,36
8484,36
8485,36
8486,36
8487,36
8488,36
8489,35
8490,35
8491,35
8492,35
8493,35
8494,35
8495,35
8496,35
8497,35
8498,35
8499,35
8500,35
8501,36
8502,35
8503,35
8504,35
8505,35
8506,35
8507,35
8508,35
8509,35
8510,36
8511,36
8512,36
8513,36
8514,36
8515,35
8516,36
8517,35
8518,35
8519,35
8520,35
8521,36
8522,36
8523,36
8524,36
8525,36
8526,36
8527,36
8528,37
8529,37
8530,38
8531,38
8532,38
8533,37
8534,37
8535,38
8536,38
8537,38
8538,38
8539,38
8540,38
8541,36
8542,36
8543,36
8544,36
8545,36
8546,36
8547,36
8548,36
8549,35
8550,35
8551,35
8552,35
8553,35
8554,35
8555,35
8556,35
8557,35
8558,35
8559,35
8560,36
8561,36
8562,36
8563,35
8564,35
8565,35
8566,36
8567,36
8568,36
8569,36
8570,36
8571,36
8572,36
8573,36
8574,37
8575,36
8576,36
8577,36
8578,35
8579,35
8580,35
8581,35
8582,35
8583,35
8584,35
8585,35
8586,35
8587,35
8588,35
8589,36
8590,36
8591,36
8592,36
8593,36
8594,35
8595,35
8596,35
8597,35
8598,35
8599,36
8600,36
8601,35
8602,35
8603,35
8604,35
8605,35
8606,35
8607,35
8608,35
8609,35
8610,35
8611,35
8612,35
8613,35
8614,35
8615,36
8616,37
8617,36
8618,36
8619,36
8620,36
8621,36
8622,36
8623,36
8624,36
8625,35
8626,35
8627,35
8628,35
8629,35
8630,35
8631,36
8632,35
8633,35
8634,35
8635,35
8636,35
8637,35
8638,35
8639,35
8640,35
8641,35
8642,36
8643,35
8644,35
8645,35
8646,35
8647,35
8648,35
8649,35
8650,35
8651,35
8652,35
8653,35
8654,35
8655,35
8656,35
8657,35
8658,36
8659,35
8660,35
8661,35
8662,35
8663,35
8664,35
8665,35
8666,35
8667,35
8668,35
8669,35
8670,35
8671,35
8672,35
8673,35
8674,35
8675,35
8676,35
8677,35
8678,35
8679,35
8680,36
8681,36
8682,36
8683,36
8684,36
8685,36
8686,35
8687,35
8688,36
8689,36
8690,35
8691,35
8692,35
8693,35
8694,35
8695,35
8696,35
8697,35
8698,35
8699,35
8700,36
8701,36
8702,35
8703,36
8704,35
8705,35
8706,35
8707,35
8708,35
8709,37
8710,35
8711,35
8712,35
8713,35
8714,35
8715,35
8716,35
8717,35
8718,36
8719,38
8720,38
8721,37
8722,37
8723,37
8724,37
8725,38
8726,38
8727,38
8728,38
8729,37
8730,37
8731,38
8732,37
8733,37
8734,37
8735,37
8736,36
8737,36
8738,37
8739,36
8740,36
8741,35
8742,35
8743,35
8744,35
8745,35
8746,35
8747,35
8748,36
8749,35
8750,35
8751,35
8752,35
8753,35
8754,35
8755,35
8756,35
8757,35
8758,36
8759,35
8760,36
8761,36
8762,36
8763,35
8764,36
8765,35
8766,35
8767,35
8768,35
8769,35
8770,36
8771,36
8772,35
8773,35
8774,35
8775,35
8776,35
8777,35
8778,35
8779,35
8780,35
8781,35
8782,35
8783,35
8784,35
8785,35
8786,35
8787,36
8788,35
8789,35
8790,35
8791,36
8792,36
8793,36
8794,36
8795,36
8796,36
8797,36
8798,36
8799,36
8800,36
8801,36
8802,36
8803,36
8804,36
8805,36
8806,36
8807,36
8808,36
8809,36
8810,37
8811,36
8812,36
8813,36
8814,36
8815,36
8816,38
8817,36
8818,36
8819,36
8820,36
8821,36
8822,36
8823,36
8824,36
8825,36
8826,36
8827,36
8828,36
8829,36
8830,36
8831,36
8832,36
8833,36
8834,36
8835,36
8836,36
8837,36
8838,36
8839,36
8840,36
8841,36
8842,36
8843,36
8844,35
8845,35
8846,35
8847,35
8848,35
8849,35
8850,35
8851,35
8852,35
8853,35
8854,35
8855,35
8856,35
8857,35
8858,35
8859,35
8860,35
8861,35
8862,35
8863,36
8864,36
8865,36
8866,35
8867,35
8868,35
8869,36
8870,35
8871,35
8872,35
8873,35
8874,35
8875,35
8876,35
8877,35
8878,35
8879,35
8880,35
8881,35
8882,35
8883,35
8884,35
8885,35
8886,35
8887,35
8888,35
8889,35
8890,35
8891,35
8892,35
8893,35
8894,35
8895,35
8896,36
8897,35
8898,35
8899,35
8900,35
8901,35
8902,35
8903,35
8904,35
8905,35
8906,35
8907,35
8908,35
8909,35
8910,35
8911,35
8912,35
8913,35
8914,36
8915,35
8916,35
8917,35
8918,35
8919,35
8920,35
8921,35
8922,35
8923,35
8924,35
8925,35
8926,35
8927,35
8928,34
8929,34
8930,35
8931,34
8932,34
8933,34
8934,34
8935,34
8936,35
8937,34
8938,34
8939,35
8940,35
8941,34
8942,34
8943,34
8944,35
8945,35
8946,35
8947,35
8948,35
8949,35
8950,35
8951,35
8952,35
8953,34
8954,34
8955,34
8956,34
8957,35
8958,35
8959,34
8960,34
8961,34
8962,35
8963,35
8964,35
8965,35
8966,34
8967,34
8968,35
8969,34
8970,34
8971,34
8972,34
8973,34
8974,34
8975,34
8976,34
8977,34
8978,34
8979,34
8980,34
8981,34
8982,34
8983,34
8984,36
8985,36
8986,36
8987,35
8988,35
8989,34
8990,34
8991,34
8992,34
8993,34
8994,34
8995,34
8996,34
8997,34
8998,34
8999,34
9000,34
9001,34
9002,34
9003,34
9004,34
9005,34
9006,34
9007,34
9008,34
9009,34
9010,34
9011,34
9012,34
9013,35
9014,35
9015,36
9016,35
9017,35
9018,35
9019,35
9020,35
9021,35
9022,35
9023,35
9024,34
9025,34
9026,34
9027,34
9028,34
9029,34
9030,34
9031,34
9032,34
9033,34
9034,34
9035,34
9036,35
9037,34
9038,34
9039,34
9040,34
9041,34
9042,34
9043,34
9044,34
9045,34
9046,34
9047,34
9048,35
9049,35
9050,35
9051,36
9052,35
9053,36
9054,35
9055,35
9056,35
9057,35
9058,35
9059,35
9060,35
9061,35
9062,35
9063,34
9064,34
9065,34
9066,34
9067,34
9068,34
9069,34
9070,34
9071,34
9072,34
9073,35
9074,34
9075,34
9076,34
9077,34
9078,34
9079,35
9080,35
9081,34
9082,34
9083,34
9084,34
9085,34
9086,34
9087,34
9088,34
9089,34
9090,34
9091,34
9092,34
9093,34
9094,35
9095,35
9096,35
9097,35
9098,35
9099,35
9100,35
9101,35
9102,35
9103,35
9104,35
9105,35
9106,35
9107,35
9108,35
9109,35
9110,35
9111,35
9112,35
9113,34
9114,34
9115,34
9116,35
9117,35
9118,35
9119,35
9120,35
9121,36
9122,34
9123,34
9124,34
9125,34
9126,34
9127,34
9128,34
9129,34
9130,34
9131,34
9132,34
9133,34
9134,34
9135,34
9136,34
9137,34
9138,34
9139,34
9140,34
9141,34
9142,34
9143,34
9144,34
9145,34
9146,34
9147,34
9148,34
9149,34
9150,34
9151,34
9152,34
9153,34
9154,34
9155,34
9156,35
9157,35
9158,34
9159,34
9160,34
9161,34
9162,34
9163,34
9164,34
9165,34
9166,34
9167,34
9168,34
9169,34
9170,34
9171,34
9172,34
9173,34
9174,34
9175,34
9176,34
9177,34
9178,35
9179,34
9180,34
9181,34
9182,34
9183,34
9184,34
9185,34
9186,34
9187,34
9188,34
9189,34
9190,35
9191,35
9192,35
9193,34
9194,35
9195,36
9196,35
9197,35
9198,36
9199,36
9200,36
9201,36
9202,36
9203,36
9204,35
9205,35
9206,35
9207,35
9208,35
9209,35
9210,35
9211,35
9212,35
9213,35
9214,35
9215,35
9216,34
9217,34
9218,35
9219,35
9220,35
9221,35
9222,34
9223,34
9224,34
9225,34
9226,34
9227,34
9228,34
9229,34
9230,34
9231,34
9232,34
9233,34
9234,34
9235,34
9236,34
9237,35
9238,35
9239,35
9240,35
9241,35
9242,35
9243,34
9244,34
9245,35
9246,35
9247,35
9248,35
9249,35
9250,35
9251,35
9252,34
9253,34
9254,34
9255,34
9256,34
9257,34
9258,34
9259,34
9260,34
9261,34
9262,34
9263,34
9264,35
9265,35
9266,35
9267,35
9268,35
9269,35
9270,35
9271,34
9272,34
9273,34
9274,34
9275,34
9276,34
9277,34
9278,34
9279,34
9280,34
9281,34
9282,34
9283,34
9284,34
9285,34
9286,34
9287,34
9288,34
9289,34
9290,34
9291,34
9292,34
9293,34
9294,34
9295,34
9296,34
9297,34
9298,34
9299,34
9300,34
9301,34
9302,34
9303,34
9304,34
9305,34
9306,34
9307,34
9308,34
9309,34
9310,34
9311,34
9312,34
9313,34
9314,34
9315,34
9316,34
9317,34
9318,34
9319,34
9320,34
9321,34
9322,34
9323,34
9324,34
9325,34
9326,34
9327,34
9328,34
9329,34
9330,34
9331,34
9332,34
9333,34
9334,34
9335,34
9336,34
9337,34
9338,34
9339,34
9340,34
9341,34
9342,34
9343,34
9344,35
9345,35
9346,34
9347,34
9348,34
9349,34
9350,35
9351,35
9352,35
9353,35
9354,35
9355,35
9356,35
9357,34
9358,34
9359,34
9360,34
9361,34
9362,34
9363,34
9364,34
9365,34
9366,34
9367,34