1,3
2,3
3,3
4,3
5,3
6,3
7,3
8,3
9,3
10,3
11,3
12,3
13,4
14,4
15,4
16,5
17,4
18,4
19,4
20,4
21,4
22,4
23,4
24,4
25,4
26,4
27,4
28,4
29,4
30,4
31,4
32,5
33,5
34,6
35,6
36,6
37,6
38,6
39,6
40,6
41,6
42,6
43,6
44,6
45,6
46,6
47,6
48,6
49,6
50,6
51,6
52,6
53,6
54,6
55,6
56,6
57,7
58,7
59,8
60,8
61,8
62,8
63,8
64,8
65,8
66,8
67,8
68,8
69,8
70,8
71,8
72,9
73,8
74,8
75,8
76,8
77,8
78,8
79,8
80,8
81,8
82,8
83,8
84,8
85,8
86,8
87,8
88,8
89,8
90,8
91,8
92,8
93,8
94,8
95,8
96,8
97,8
98,8
99,8
100,8
101,8
102,8
103,9
104,8
105,8
106,8
107,8
108,8
109,8
110,8
111,8
112,8
113,8
114,8
115,8
116,8
117,8
118,8
119,8
120,8
121,8
122,8
123,9
124,9
125,10
126,10
127,9
128,8
129,8
130,8
131,8
132,8
133,8
134,8
135,8
136,8
137,8
138,8
139,8
140,8
141,8
142,8
143,8
144,8
145,8
146,8
147,8
148,8
149,8
150,8
151,8
152,8
153,8
154,8
155,8
156,8
157,8
158,9
159,8
160,8
161,8
162,9
163,9
164,8
165,8
166,8
167,8
168,8
169,8
170,9
171,8
172,8
173,8
174,8
175,8
176,8
177,8
178,8
179,8
180,8
181,8
182,8
183,8
184,8
185,8
186,8
187,8
188,8
189,8
190,8
191,8
192,8
193,8
194,8
195,8
196,8
197,8
198,8
199,8
200,8
201,8
202,8
203,8
204,8
205,8
206,8
207,8
208,8
209,8
210,8
211,8
212,8
213,8
214,8
215,9
216,9
217,9
218,9
219,9
220,9
221,9
222,9
223,9
224,9
225,9
226,9
227,9
228,10
229,10
230,10
231,10
232,10
233,10
234,9
235,9
236,9
237,9
238,9
239,9
240,9
241,9
242,9
243,9
244,9
245,9
246,9
247,9
248,9
249,9
250,9
251,9
252,9
253,9
254,9
255,9
256,9
257,9
258,9
259,9
260,10
261,10
262,9
263,9
264,9
265,9
266,9
267,10
268,10
269,9
270,9
271,9
272,9
273,9
274,9
275,9
276,9
277,9
278,9
279,9
280,9
281,10
282,9
283,10
284,10
285,9
286,9
287,9
288,9
289,9
290,9
291,9
292,9
293,9
294,9
295,9
296,9
297,9
298,9
299,9
300,9
301,9
302,9
303,9
304,10
305,10
306,10
307,9
308,10
309,9
310,9
311,9
312,9
313,9
314,9
315,10
316,9
317,9
318,9
319,9
320,9
321,9
322,9
323,9
324,9
325,9
326,9
327,9
328,9
329,9
330,9
331,9
332,9
333,9
334,9
335,9
336,9
337,9
338,9
339,9
340,9
341,9
342,9
343,9
344,9
345,9
346,9
347,9
348,9
349,9
350,9
351,9
352,9
353,9
354,9
355,9
356,9
357,9
358,9
359,9
360,9
361,9
362,9
363,9
364,9
365,9
366,9
367,9
368,9
369,9
370,9
371,9
372,10
373,11
374,11
375,11
376,11
377,11
378,11
379,11
380,11
381,11
382,11
383,11
384,11
385,11
386,11
387,11
388,11
389,11
390,11
391,12
392,12
393,11
394,11
395,11
396,11
397,11
398,11
399,11
400,11
401,11
402,11
403,11
404,11
405,11
406,11
407,11
408,11
409,11
410,11
411,11
412,11
413,11
414,11
415,11
416,11
417,11
418,11
419,11
420,11
421,11
422,11
423,11
424,11
425,11
426,11
427,11
428,11
429,11
430,12
431,11
432,11
433,11
434,11
435,11
436,11
437,11
438,11
439,11
440,11
441,11
442,11
443,11
444,12
445,11
446,11
447,11
448,11
449,11
450,11
451,11
452,11
453,12
454,12
455,12
456,12
457,12
458,12
459,12
460,12
461,12
462,12
463,12
464,11
465,11
466,11
467,11
468,11
469,11
470,11
471,11
472,11
473,11
474,11
475,11
476,11
477,11
478,11
479,11
480,11
481,11
482,11
483,11
484,11
485,11
486,11
487,12
488,12
489,12
490,12
491,12
492,12
493,12
494,12
495,12
496,12
497,12
498,12
499,12
500,12
501,12
502,12
503,13
504,13
505,13
506,12
507,12
508,12
509,12
510,12
511,12
512,12
513,12
514,12
515,12
516,12
517,12
518,12
519,12
520,13
521,13
522,13
523,13
524,13
525,13
526,13
527,13
528,13
529,13
530,13
531,13
532,13
533,13
534,13
535,13
536,13
537,13
538,13
539,13
540,13
541,13
542,13
543,13
544,14
545,14
546,14
547,14
548,13
549,14
550,14
551,13
552,13
553,13
554,13
555,13
556,13
557,13
558,13
559,13
560,13
561,13
562,13
563,13
564,13
565,13
566,13
567,13
568,13
569,13
570,13
571,13
572,13
573,13
574,13
575,13
576,13
577,13
578,13
579,13
580,13
581,14
582,14
583,14
584,14
585,14
586,14
587,14
588,14
589,13
590,13
591,13
592,13
593,13
594,13
595,13
596,13
597,13
598,13
599,13
600,13
601,13
602,13
603,13
604,13
605,13
606,13
607,13
608,13
609,13
610,13
611,13
612,13
613,13
614,14
615,14
616,14
617,14
618,13
619,13
620,13
621,13
622,13
623,13
624,13
625,13
626,13
627,13
628,13
629,13
630,13
631,13
632,13
633,13
634,13
635,13
636,13
637,13
638,13
639,14
640,13
641,13
642,13
643,13
644,14
645,14
646,14
647,13
648,13
649,13
650,13
651,13
652,13
653,13
654,13
655,13
656,13
657,13
658,13
659,13
660,14
661,13
662,13
663,13
664,13
665,14
666,14
667,14
668,14
669,14
670,14
671,15
672,15
673,15
674,14
675,14
676,14
677,14
678,14
679,14
680,14
681,14
682,14
683,14
684,14
685,14
686,14
687,14
688,14
689,14
690,14
691,15
692,15
693,15
694,15
695,15
696,15
697,14
698,14
699,14
700,14
701,14
702,14
703,14
704,14
705,14
706,14
707,14
708,14
709,14
710,14
711,14
712,14
713,14
714,14
715,14
716,14
717,14
718,14
719,14
720,14
721,14
722,14
723,14
724,15
725,15
726,14
727,14
728,14
729,14
730,14
731,14
732,14
733,14
734,14
735,14
736,14
737,14
738,14
739,14
740,14
741,14
742,14
743,14
744,14
745,14
746,14
747,14
748,14
749,14
750,14
751,14
752,14
753,14
754,14
755,14
756,14
757,14
758,14
759,14
760,14
761,14
762,14
763,14
764,14
765,14
766,14
767,14
768,15
769,14
770,14
771,14
772,15
773,14
774,14
775,14
776,14
777,14
778,14
779,14
780,14
781,14
782,14
783,14
784,14
785,14
786,14
787,14
788,14
789,14
790,14
791,14
792,15
793,14
794,14
795,14
796,14
797,14
798,14
799,14
800,14
801,15
802,14
803,14
804,14
805,14
806,14
807,14
808,14
809,14
810,14
811,14
812,14
813,14
814,14
815,14
816,14
817,14
818,14
819,15
820,15
821,15
822,15
823,15
824,15
825,15
826,15
827,15
828,15
829,15
830,16
831,16
832,16
833,16
834,16
835,16
836,16
837,16
838,16
839,16
840,16
841,16
842,16
843,16
844,15
845,15
846,15
847,15
848,15
849,15
850,15
851,15
852,15
853,15
854,15
855,15
856,15
857,15
858,15
859,15
860,15
861,15
862,15
863,15
864,15
865,15
866,15
867,15
868,15
869,15
870,15
871,15
872,15
873,15
874,15
875,15
876,15
877,15
878,15
879,15
880,15
881,15
882,15
883,15
884,15
885,15
886,15
887,15
888,15
889,15
890,15
891,15
892,15
893,15
894,15
895,15
896,15
897,15
898,15
899,15
900,15
901,15
902,15
903,15
904,15
905,15
906,15
907,15
908,15
909,15
910,15
911,16
912,15
913,15
914,15
915,15
916,15
917,15
918,15
919,15
920,15
921,15
922,15
923,15
924,15
925,15
926,15
927,15
928,15
929,16
930,15
931,15
932,15
933,15
934,15
935,15
936,15
937,15
938,15
939,15
940,15
941,15
942,15
943,15
944,15
945,16
946,15
947,15
948,15
949,15
950,15
951,15
952,15
953,15
954,16
955,16
956,16
957,16
958,17
959,18
960,17
961,17
962,16
963,15
964,15
965,15
966,15
967,15
968,15
969,15
970,15
971,15
972,15
973,15
974,15
975,15
976,15
977,15
978,16
979,15
980,15
981,16
982,16
983,15
984,15
985,15
986,15
987,15
988,15
989,15
990,15
991,15
992,15
993,15
994,15
995,15
996,15
997,15
998,15
999,16
1000,16
1001,16
1002,15
1003,15
1004,15
1005,16
1006,15
1007,15
1008,15
1009,15
1010,15
1011,15
1012,15
1013,15
1014,15
1015,16
1016,16
1017,16
1018,15
1019,15
1020,15
1021,15
1022,15
1023,15
1024,15
1025,15
1026,15
1027,15
1028,15
1029,16
1030,16
1031,16
1032,16
1033,15
1034,15
1035,15
1036,15
1037,15
1038,15
1039,15
1040,15
1041,15
1042,15
1043,15
1044,15
1045,15
1046,15
1047,15
1048,15
1049,15
1050,15
1051,15
1052,15
1053,15
1054,15
1055,15
1056,15
1057,15
1058,15
1059,15
1060,15
1061,15
1062,15
1063,15
1064,15
1065,15
1066,15
1067,15
1068,15
1069,15
1070,15
1071,15
1072,15
1073,15
1074,15
1075,16
1076,15
1077,15
1078,15
1079,15
1080,15
1081,15
1082,15
1083,15
1084,15
1085,15
1086,15
1087,15
1088,15
1089,15
1090,15
1091,16
1092,15
1093,15
1094,15
1095,15
1096,15
1097,16
1098,16
1099,16
1100,16
1101,15
1102,15
1103,15
1104,15
1105,15
1106,15
1107,15
1108,15
1109,15
1110,15
1111,15
1112,15
1113,15
1114,16
1115,16
1116,15
1117,15
1118,16
1119,16
1120,15
1121,15
1122,15
1123,15
1124,15
1125,15
1126,15
1127,15
1128,15
1129,15
1130,15
1131,15
1132,15
1133,15
1134,15
1135,15
1136,15
1137,15
1138,15
1139,15
1140,15
1141,15
1142,15
1143,15
1144,15
1145,15
1146,16
1147,16
1148,16
1149,16
1150,16
1151,16
1152,16
1153,16
1154,16
1155,16
1156,16
1157,16
1158,16
1159,16
1160,16
1161,16
1162,16
1163,16
1164,17
1165,17
1166,16
1167,16
1168,16
1169,16
1170,16
1171,16
1172,16
1173,16
1174,16
1175,16
1176,16
1177,16
1178,16
1179,16
1180,16
1181,16
1182,16
1183,16
1184,16
1185,16
1186,16
1187,16
1188,16
1189,16
1190,16
1191,16
1192,16
1193,16
1194,16
1195,16
1196,16
1197,16
1198,16
1199,16
1200,16
1201,16
1202,16
1203,16
1204,16
1205,16
1206,16
1207,18
1208,17
1209,17
1210,17
1211,17
1212,17
1213,17
1214,16
1215,16
1216,16
1217,16
1218,16
1219,16
1220,16
1221,16
1222,16
1223,16
1224,16
1225,16
1226,16
1227,16
1228,16
1229,16
1230,16
1231,16
1232,17
1233,17
1234,16
1235,16
1236,17
1237,16
1238,16
1239,16
1240,16
1241,16
1242,16
1243,16
1244,16
1245,16
1246,16
1247,16
1248,16
1249,16
1250,16
1251,16
1252,16
1253,16
1254,16
1255,16
1256,16
1257,16
1258,16
1259,16
1260,16
1261,16
1262,16
1263,16
1264,16
1265,16
1266,16
1267,16
1268,16
1269,16
1270,16
1271,16
1272,16
1273,16
1274,16
1275,16
1276,16
1277,16
1278,16
1279,16
1280,16
1281,16
1282,16
1283,16
1284,16
1285,16
1286,16
1287,16
1288,16
1289,16
1290,16
1291,16
1292,16
1293,17
1294,16
1295,16
1296,17
1297,17
1298,17
1299,17
1300,16
1301,16
1302,16
1303,16
1304,16
1305,16
1306,17
1307,17
1308,17
1309,17
1310,17
1311,17
1312,19
1313,17
1314,17
1315,17
1316,16
1317,16
1318,16
1319,16
1320,16
1321,16
1322,17
1323,17
1324,17
1325,16
1326,16
1327,16
1328,16
1329,16
1330,16
1331,16
1332,16
1333,16
1334,16
1335,17
1336,16
1337,16
1338,17
1339,16
1340,16
1341,16
1342,17
1343,16
1344,16
1345,16
1346,16
1347,16
1348,16
1349,16
1350,16
1351,16
1352,16
1353,16
1354,16
1355,16
1356,16
1357,16
1358,16
1359,16
1360,16
1361,16
1362,16
1363,16
1364,17
1365,17
1366,17
1367,17
1368,17
1369,17
1370,17
1371,17
1372,17
1373,17
1374,17
1375,18
1376,18
1377,18
1378,18
1379,18
1380,18
1381,18
1382,18
1383,18
1384,18
1385,18
1386,18
1387,17
1388,17
1389,17
1390,17
1391,17
1392,17
1393,17
1394,17
1395,17
1396,17
1397,17
1398,17
1399,18
1400,17
1401,17
1402,17
1403,17
1404,17
1405,17
1406,17
1407,17
1408,17
1409,17
1410,17
1411,17
1412,17
1413,17
1414,17
1415,17
1416,17
1417,17
1418,17
1419,18
1420,18
1421,18
1422,18
1423,18
1424,18
1425,18
1426,18
1427,18
1428,18
1429,18
1430,18
1431,17
1432,17
1433,17
1434,17
1435,17
1436,17
1437,17
1438,17
1439,18
1440,17
1441,17
1442,17
1443,17
1444,17
1445,17
1446,17
1447,17
1448,17
1449,17
1450,17
1451,17
1452,18
1453,18
1454,17
1455,17
1456,17
1457,17
1458,17
1459,18
1460,18
1461,18
1462,18
1463,18
1464,18
1465,18
1466,18
1467,18
1468,18
1469,18
1470,19
1471,19
1472,18
1473,18
1474,18
1475,18
1476,18
1477,18
1478,19
1479,19
1480,18
1481,18
1482,18
1483,18
1484,18
1485,18
1486,18
1487,18
1488,18
1489,18
1490,18
1491,18
1492,18
1493,19
1494,18
1495,18
1496,18
1497,18
1498,18
1499,18
1500,18
1501,18
1502,18
1503,18
1504,18
1505,18
1506,18
1507,18
1508,18
1509,18
1510,18
1511,18
1512,18
1513,19
1514,19
1515,18
1516,18
1517,19
1518,19
1519,18
1520,18
1521,18
1522,18
1523,18
1524,18
1525,18
1526,18
1527,19
1528,19
1529,19
1530,19
1531,19
1532,19
1533,19
1534,19
1535,18
1536,18
1537,18
1538,18
1539,18
1540,18
1541,18
1542,18
1543,18
1544,18
1545,18
1546,18
1547,19
1548,19
1549,18
1550,18
1551,19
1552,18
1553,18
1554,18
1555,18
1556,18
1557,18
1558,18
1559,18
1560,18
1561,19
1562,18
1563,18
1564,18
1565,18
1566,18
1567,18
1568,18
1569,18
1570,18
1571,19
1572,18
1573,18
1574,18
1575,18
1576,19
1577,18
1578,18
1579,18
1580,18
1581,18
1582,18
1583,18
1584,18
1585,18
1586,18
1587,18
1588,18
1589,18
1590,18
1591,19
1592,18
1593,18
1594,18
1595,18
1596,18
1597,19
1598,18
1599,18
1600,18
1601,18
1602,18
1603,18
1604,18
1605,18
1606,18
1607,18
1608,18
1609,20
1610,19
1611,20
1612,19
1613,18
1614,18
1615,18
1616,18
1617,18
1618,19
1619,19
1620,19
1621,19
1622,18
1623,18
1624,18
1625,18
1626,18
1627,19
1628,18
1629,18
1630,18
1631,18
1632,18
1633,18
1634,18
1635,18
1636,18
1637,19
1638,19
1639,18
1640,18
1641,18
1642,18
1643,18
1644,18
1645,18
1646,18
1647,18
1648,18
1649,18
1650,18
1651,18
1652,18
1653,18
1654,19
1655,18
1656,18
1657,18
1658,18
1659,18
1660,18
1661,18
1662,18
1663,18
1664,18
1665,19
1666,19
1667,18
1668,18
1669,18
1670,18
1671,18
1672,18
1673,18
1674,18
1675,18
1676,18
1677,18
1678,18
1679,18
1680,18
1681,18
1682,18
1683,18
1684,19
1685,19
1686,18
1687,18
1688,18
1689,18
1690,18
1691,18
1692,18
1693,18
1694,19
1695,18
1696,18
1697,18
1698,18
1699,18
1700,18
1701,18
1702,18
1703,18
1704,18
1705,18
1706,19
1707,18
1708,18
1709,18
1710,18
1711,18
1712,18
1713,18
1714,18
1715,18
1716,18
1717,18
1718,18
1719,18
1720,18
1721,18
1722,18
1723,18
1724,18
1725,19
1726,19
1727,19
1728,19
1729,19
1730,18
1731,18
1732,18
1733,18
1734,18
1735,18
1736,18
1737,18
1738,18
1739,18
1740,18
1741,18
1742,18
1743,18
1744,18
1745,18
1746,18
1747,18
1748,18
1749,18
1750,18
1751,18
1752,18
1753,18
1754,18
1755,18
1756,19
1757,20
1758,19
1759,18
1760,18
1761,19
1762,19
1763,18
1764,18
1765,18
1766,18
1767,18
1768,18
1769,18
1770,18
1771,18
1772,18
1773,18
1774,18
1775,18
1776,18
1777,18
1778,18
1779,18
1780,18
1781,18
1782,18
1783,18
1784,18
1785,18
1786,18
1787,18
1788,18
1789,18
1790,18
1791,18
1792,18
1793,18
1794,18
1795,18
1796,18
1797,18
1798,18
1799,18
1800,18
1801,18
1802,18
1803,18
1804,18
1805,18
1806,18
1807,18
1808,18
1809,18
1810,18
1811,18
1812,18
1813,18
1814,18
1815,18
1816,18
1817,18
1818,18
1819,18
1820,18
1821,18
1822,18
1823,18
1824,18
1825,18
1826,18
1827,18
1828,18
1829,18
1830,18
1831,18
1832,18
1833,18
1834,18
1835,18
1836,18
1837,18
1838,18
1839,18
1840,18
1841,18
1842,18
1843,18
1844,18
1845,18
1846,18
1847,18
1848,18
1849,18
1850,18
1851,18
1852,18
1853,18
1854,18
1855,18
1856,18
1857,18
1858,18
1859,18
1860,18
1861,18
1862,18
1863,18
1864,18
1865,18
1866,18
1867,18
1868,18
1869,18
1870,18
1871,18
1872,18
1873,18
1874,18
1875,18
1876,18
1877,18
1878,18
1879,19
1880,19
1881,19
1882,18
1883,18
1884,18
1885,18
1886,18
1887,18
1888,18
1889,18
1890,18
1891,18
1892,18
1893,19
1894,19
1895,19
1896,19
1897,19
1898,19
1899,19
1900,19
1901,19
1902,20
1903,19
1904,19
1905,19
1906,19
1907,19
1908,19
1909,19
1910,19
1911,19
1912,19
1913,19
1914,19
1915,19
1916,19
1917,19
1918,19
1919,19
1920,19
1921,20
1922,20
1923,19
1924,19
1925,19
1926,19
1927,19
1928,19
1929,19
1930,19
1931,19
1932,19
1933,19
1934,19
1935,19
1936,19
1937,19
1938,19
1939,19
1940,19
1941,19
1942,19
1943,19
1944,19
1945,19
1946,19
1947,19
1948,19
1949,19
1950,19
1951,19
1952,19
1953,19
1954,19
1955,19
1956,19
1957,19
1958,19
1959,19
1960,19
1961,20
1962,19
1963,19
1964,19
1965,19
1966,19
1967,19
1968,19
1969,19
1970,19
1971,19
1972,19
1973,19
1974,19
1975,20
1976,20
1977,20
1978,20
1979,19
1980,19
1981,19
1982,19
1983,19
1984,19
1985,19
1986,19
1987,19
1988,19
1989,19
1990,19
1991,19
1992,19
1993,19
1994,19
1995,19
1996,19
1997,19
1998,19
1999,19
2000,20
2001,20
2002,20
2003,20
2004,20
2005,20
2006,20
2007,20
2008,20
2009,20
2010,20
2011,20
2012,20
2013,20
2014,20
2015,20
2016,20
2017,20
2018,21
2019,21
2020,20
2021,20
2022,20
2023,20
2024,20
2025,20
2026,21
2027,21
2028,20
2029,20
2030,20
2031,20
2032,20
2033,20
2034,20
2035,20
2036,20
2037,20
2038,20
2039,20
2040,20
2041,21
2042,20
2043,20
2044,21
2045,20
2046,20
2047,20
2048,20
2049,20
2050,20
2051,21
2052,20
2053,20
2054,21
2055,21
2056,21
2057,21
2058,21
2059,21
2060,21
2061,21
2062,21
2063,21
2064,21
2065,21
2066,21
2067,21
2068,21
2069,21
2070,21
2071,21
2072,21
2073,21
2074,21
2075,21
2076,21
2077,21
2078,21
2079,21
2080,21
2081,21
2082,21
2083,21
2084,21
2085,22
2086,22
2087,22
2088,22
2089,21
2090,21
2091,21
2092,21
2093,21
2094,22
2095,21
2096,21
2097,21
2098,21
2099,21
2100,21
2101,21
2102,21
2103,21
2104,21
2105,21
2106,21
2107,21
2108,21
2109,21
2110,21
2111,21
2112,21
2113,21
2114,21
2115,21
2116,21
2117,21
2118,21
2119,21
2120,21
2121,21
2122,21
2123,21
2124,21
2125,21
2126,21
2127,21
2128,21
2129,21
2130,21
2131,21
2132,21
2133,21
2134,21
2135,21
2136,21
2137,21
2138,21
2139,21
2140,21
2141,21
2142,21
2143,21
2144,21
2145,21
2146,21
2147,21
2148,21
2149,21
2150,21
2151,21
2152,21
2153,21
2154,21
2155,21
2156,21
2157,21
2158,21
2159,21
2160,22
2161,21
2162,22
2163,22
2164,21
2165,21
2166,21
2167,21
2168,21
2169,21
2170,21
2171,22
2172,22
2173,22
2174,21
2175,21
2176,21
2177,21
2178,21
2179,21
2180,21
2181,21
2182,21
2183,21
2184,21
2185,21
2186,21
2187,21
2188,21
2189,21
2190,21
2191,21
2192,21
2193,21
2194,21
2195,22
2196,23
2197,23
2198,23
2199,22
2200,22
2201,22
2202,22
2203,22
2204,22
2205,22
2206,22
2207,22
2208,22
2209,21
2210,21
2211,21
2212,22
2213,21
2214,21
2215,21
2216,21
2217,21
2218,21
2219,21
2220,21
2221,21
2222,21
2223,21
2224,21
2225,21
2226,21
2227,21
2228,21
2229,21
2230,21
2231,21
2232,21
2233,21
2234,21
2235,21
2236,21
2237,21
2238,21
2239,21
2240,21
2241,21
2242,21
2243,21
2244,21
2245,21
2246,21
2247,21
2248,21
2249,21
2250,22
2251,21
2252,21
2253,21
2254,22
2255,22
2256,22
2257,21
2258,21
2259,21
2260,21
2261,21
2262,21
2263,21
2264,21
2265,21
2266,21
2267,21
2268,21
2269,21
2270,21
2271,21
2272,21
2273,21
2274,21
2275,21
2276,21
2277,21
2278,21
2279,21
2280,21
2281,21
2282,21
2283,21
2284,21
2285,21
2286,21
2287,21
2288,21
2289,21
2290,21
2291,21
2292,21
2293,21
2294,21
2295,21
2296,21
2297,21
2298,22
2299,22
2300,21
2301,22
2302,22
2303,21
2304,21
2305,21
2306,21
2307,21
2308,21
2309,21
2310,21
2311,21
2312,21
2313,21
2314,21
2315,22
2316,21
2317,21
2318,21
2319,21
2320,21
2321,21
2322,21
2323,21
2324,21
2325,21
2326,21
2327,21
2328,21
2329,21
2330,21
2331,21
2332,21
2333,21
2334,21
2335,21
2336,21
2337,21
2338,21
2339,21
2340,21
2341,21
2342,21
2343,21
2344,21
2345,21
2346,21
2347,22
2348,22
2349,23
2350,23
2351,23
2352,22
2353,22
2354,22
2355,22
2356,22
2357,22
2358,22
2359,22
2360,22
2361,22
2362,22
2363,22
2364,21
2365,21
2366,21
2367,21
2368,21
2369,21
2370,21
2371,21
2372,21
2373,21
2374,21
2375,21
2376,21
2377,21
2378,21
2379,21
2380,21
2381,21
2382,21
2383,21
2384,21
2385,21
2386,21
2387,21
2388,21
2389,21
2390,21
2391,21
2392,21
2393,21
2394,22
2395,22
2396,21
2397,21
2398,21
2399,21
2400,21
2401,21
2402,21
2403,21
2404,21
2405,21
2406,21
2407,21
2408,21
2409,22
2410,21
2411,21
2412,21
2413,21
2414,21
2415,21
2416,21
2417,21
2418,22
2419,22
2420,22
2421,21
2422,21
2423,21
2424,21
2425,21
2426,21
2427,21
2428,21
2429,21
2430,21
2431,21
2432,21
2433,21
2434,21
2435,21
2436,21
2437,21
2438,21
2439,22
2440,21
2441,21
2442,21
2443,21
2444,21
2445,21
2446,21
2447,21
2448,22
2449,22
2450,22
2451,22
2452,22
2453,22
2454,21
2455,21
2456,21
2457,21
2458,21
2459,21
2460,21
2461,21
2462,21
2463,21
2464,21
2465,21
2466,21
2467,21
2468,21
2469,21
2470,21
2471,21
2472,21
2473,22
2474,22
2475,21
2476,21
2477,22
2478,22
2479,21
2480,21
2481,21
2482,21
2483,21
2484,21
2485,21
2486,21
2487,21
2488,21
2489,21
2490,21
2491,21
2492,21
2493,21
2494,21
2495,21
2496,21
2497,23
2498,22
2499,22
2500,23
2501,23
2502,23
2503,23
2504,23
2505,22
2506,22
2507,22
2508,22
2509,22
2510,22
2511,22
2512,22
2513,22
2514,22
2515,22
2516,23
2517,23
2518,23
2519,23
2520,23
2521,23
2522,23
2523,23
2524,22
2525,22
2526,22
2527,22
2528,22
2529,22
2530,22
2531,22
2532,22
2533,22
2534,22
2535,22
2536,22
2537,22
2538,22
2539,22
2540,22
2541,22
2542,22
2543,22
2544,22
2545,22
2546,22
2547,22
2548,22
2549,22
2550,22
2551,22
2552,22
2553,22
2554,22
2555,22
2556,22
2557,22
2558,22
2559,22
2560,23
2561,23
2562,23
2563,23
2564,23
2565,23
2566,23
2567,23
2568,23
2569,23
2570,23
2571,23
2572,23
2573,23
2574,23
2575,23
2576,23
2577,23
2578,23
2579,23
2580,23
2581,23
2582,23
2583,23
2584,24
2585,23
2586,23
2587,24
2588,23
2589,23
2590,23
2591,23
2592,23
2593,23
2594,23
2595,24
2596,23
2597,23
2598,23
2599,23
2600,23
2601,24
2602,23
2603,23
2604,23
2605,23
2606,23
2607,24
2608,24
2609,23
2610,23
2611,24
2612,24
2613,24
2614,24
2615,24
2616,24
2617,24
2618,24
2619,24
2620,24
2621,24
2622,24
2623,24
2624,24
2625,24
2626,23
2627,23
2628,23
2629,23
2630,23
2631,23
2632,23
2633,23
2634,24
2635,24
2636,24
2637,24
2638,23
2639,23
2640,23
2641,23
2642,23
2643,23
2644,23
2645,23
2646,23
2647,23
2648,23
2649,23
2650,24
2651,24
2652,24
2653,24
2654,24
2655,24
2656,24
2657,24
2658,24
2659,24
2660,24
2661,24
2662,25
2663,25
2664,25
2665,25
2666,24
2667,24
2668,24
2669,24
2670,24
2671,24
2672,24
2673,24
2674,24
2675,24
2676,24
2677,23
2678,23
2679,23
2680,23
2681,23
2682,23
2683,23
2684,23
2685,23
2686,24
2687,23
2688,23
2689,23
2690,23
2691,23
2692,23
2693,24
2694,24
2695,24
2696,24
2697,24
2698,24
2699,24
2700,24
2701,24
2702,24
2703,24
2704,24
2705,24
2706,24
2707,24
2708,24
2709,25
2710,25
2711,27
2712,27
2713,27
2714,25
2715,26
2716,26
2717,26
2718,26
2719,25
2720,25
2721,25
2722,24
2723,24
2724,24
2725,24
2726,24
2727,24
2728,24
2729,24
2730,24
2731,24
2732,24
2733,24
2734,25
2735,24
2736,24
2737,24
2738,24
2739,24
2740,24
2741,24
2742,24
2743,24
2744,24
2745,24
2746,24
2747,24
2748,24
2749,24
2750,24
2751,24
2752,24
2753,24
2754,24
2755,24
2756,24
2757,25
2758,25
2759,25
2760,25
2761,25
2762,25
2763,25
2764,25
2765,26
2766,25
2767,25
2768,25
2769,25
2770,25
2771,25
2772,25
2773,25
2774,25
2775,25
2776,25
2777,25
2778,25
2779,25
2780,26
2781,25
2782,25
2783,25
2784,26
2785,25
2786,25
2787,25
2788,25
2789,25
2790,26
2791,26
2792,26
2793,26
2794,26
2795,26
2796,26
2797,26
2798,26
2799,26
2800,25
2801,25
2802,25
2803,26
2804,27
2805,26
2806,25
2807,25
2808,25
2809,25
2810,25
2811,25
2812,25
2813,25
2814,25
2815,25
2816,25
2817,25
2818,25
2819,25
2820,25
2821,25
2822,25
2823,25
2824,25
2825,25
2826,25
2827,25
2828,25
2829,25
2830,25
2831,25
2832,25
2833,25
2834,26
2835,25
2836,25
2837,25
2838,25
2839,25
2840,25
2841,25
2842,25
2843,25
2844,25
2845,25
2846,25
2847,25
2848,25
2849,25
2850,25
2851,25
2852,27
2853,27
2854,28
2855,28
2856,27
2857,26
2858,26
2859,26
2860,26
2861,26
2862,26
2863,26
2864,26
2865,26
2866,27
2867,27
2868,27
2869,27
2870,26
2871,26
2872,26
2873,26
2874,26
2875,26
2876,26
2877,26
2878,26
2879,26
2880,26
2881,26
2882,26
2883,26
2884,26
2885,26
2886,26
2887,26
2888,26
2889,26
2890,26
2891,26
2892,26
2893,27
2894,26
2895,26
2896,26
2897,26
2898,26
2899,26
2900,26
2901,26
2902,26
2903,26
2904,26
2905,26
2906,26
2907,26
2908,26
2909,26
2910,26
2911,27
2912,27
2913,26
2914,26
2915,26
2916,27
2917,27
2918,27
2919,27
2920,26
2921,26
2922,26
2923,26
2924,26
2925,26
2926,26
2927,26
2928,26
2929,26
2930,26
2931,26
2932,26
2933,26
2934,26
2935,26
2936,26
2937,26
2938,26
2939,26
2940,26
2941,26
2942,26
2943,26
2944,26
2945,26
2946,26
2947,26
2948,26
2949,26
2950,26
2951,26
2952,26
2953,26
2954,27
2955,27
2956,27
2957,27
2958,27
2959,27
2960,27
2961,27
2962,27
2963,27
2964,27
2965,27
2966,28
2967,27
2968,27
2969,27
2970,27
2971,27
2972,27
2973,27
2974,27
2975,27
2976,27
2977,27
2978,27
2979,27
2980,27
2981,27
2982,27
2983,27
2984,27
2985,27
2986,26
2987,27
2988,27
2989,27
2990,27
2991,28
2992,28
2993,27
2994,27
2995,27
2996,27
2997,27
2998,27
2999,27
3000,27
3001,27
3002,27
3003,27
3004,27
3005,27
3006,27
3007,27
3008,27
3009,27
3010,27
3011,27
3012,27
3013,27
3014,27
3015,27
3016,27
3017,27
3018,27
3019,27
3020,27
3021,27
3022,27
3023,27
3024,27
3025,27
3026,27
3027,27
3028,27
3029,27
3030,27
3031,27
3032,27
3033,27
3034,27
3035,27
3036,27
3037,27
3038,27
3039,27
3040,27
3041,27
3042,27
3043,27
3044,27
3045,27
3046,27
3047,27
3048,27
3049,27
3050,28
3051,28
3052,29
3053,28
3054,28
3055,27
3056,27
3057,27
3058,27
3059,27
3060,27
3061,27
3062,27
3063,27
3064,27
3065,27
3066,27
3067,27
3068,27
3069,27
3070,27
3071,27
3072,27
3073,27
3074,27
3075,27
3076,27
3077,27
3078,27
3079,27
3080,27
3081,27
3082,27
3083,27
3084,27
3085,27
3086,27
3087,27
3088,27
3089,27
3090,28
3091,27
3092,27
3093,27
3094,27
3095,29
3096,29
3097,30
3098,30
3099,29
3100,28
3101,28
3102,28
3103,28
3104,28
3105,28
3106,28
3107,28
3108,28
3109,28
3110,28
3111,28
3112,28
3113,28
3114,28
3115,28
3116,28
3117,28
3118,28
3119,28
3120,27
3121,27
3122,27
3123,27
3124,27
3125,27
3126,27
3127,28
3128,28
3129,27
3130,27
3131,27
3132,28
3133,28
3134,28
3135,28
3136,28
3137,28
3138,28
3139,28
3140,28
3141,28
3142,27
3143,27
3144,27
3145,28
3146,28
3147,28
3148,28
3149,29
3150,28
3151,27
3152,28
3153,27
3154,27
3155,27
3156,27
3157,27
3158,28
3159,28
3160,28
3161,28
3162,27
3163,27
3164,27
3165,27
3166,27
3167,27
3168,27
3169,27
3170,27
3171,27
3172,27
3173,27
3174,27
3175,27
3176,27
3177,27
3178,27
3179,27
3180,27
3181,27
3182,27
3183,28
3184,28
3185,27
3186,27
3187,27
3188,27
3189,27
3190,27
3191,27
3192,27
3193,27
3194,27
3195,28
3196,28
3197,29
3198,28
3199,28
3200,27
3201,27
3202,27
3203,27
3204,27
3205,28
3206,27
3207,27
3208,27
3209,27
3210,27
3211,27
3212,27
3213,27
3214,27
3215,27
3216,27
3217,27
3218,27
3219,27
3220,27
3221,27
3222,27
3223,27
3224,27
3225,27
3226,28
3227,28
3228,28
3229,27
3230,27
3231,27
3232,27
3233,27
3234,27
3235,27
3236,27
3237,27
3238,27
3239,27
3240,27
3241,27
3242,27
3243,27
3244,27
3245,27
3246,27
3247,27
3248,27
3249,27
3250,27
3251,27
3252,27
3253,27
3254,27
3255,27
3256,27
3257,27
3258,27
3259,27
3260,27
3261,27
3262,27
3263,27
3264,27
3265,27
3266,27
3267,27
3268,27
3269,27
3270,27
3271,27
3272,27
3273,27
3274,27
3275,27
3276,27
3277,27
3278,27
3279,27
3280,27
3281,27
3282,27
3283,27
3284,27
3285,27
3286,27
3287,27
3288,27
3289,27
3290,27
3291,27
3292,27
3293,27
3294,27
3295,27
3296,27
3297,27
3298,27
3299,27
3300,27
3301,27
3302,27
3303,27
3304,27
3305,27
3306,27
3307,27
3308,27
3309,27
3310,27
3311,27
3312,27
3313,27
3314,27
3315,28
3316,28
3317,28
3318,27
3319,27
3320,27
3321,27
3322,27
3323,27
3324,27
3325,27
3326,27
3327,27
3328,27
3329,27
3330,27
3331,27
3332,27
3333,27
3334,27
3335,27
3336,27
3337,27
3338,27
3339,28
3340,28
3341,27
3342,27
3343,27
3344,27
3345,27
3346,27
3347,27
3348,27
3349,27
3350,27
3351,27
3352,27
3353,27
3354,27
3355,27
3356,27
3357,27
3358,27
3359,27
3360,27
3361,27
3362,27
3363,27
3364,27
3365,27
3366,27
3367,27
3368,27
3369,27
3370,27
3371,27
3372,28
3373,28
3374,27
3375,27
3376,27
3377,27
3378,27
3379,27
3380,27
3381,27
3382,27
3383,27
3384,27
3385,27
3386,27
3387,27
3388,27
3389,27
3390,27
3391,27
3392,27
3393,27
3394,27
3395,27
3396,27
3397,27
3398,27
3399,27
3400,27
3401,27
3402,27
3403,27
3404,27
3405,27
3406,27
3407,27
3408,28
3409,28
3410,27
3411,27
3412,27
3413,27
3414,27
3415,27
3416,27
3417,27
3418,27
3419,27
3420,27
3421,27
3422,27
3423,27
3424,27
3425,27
3426,27
3427,27
3428,27
3429,28
3430,27
3431,27
3432,27
3433,27
3434,27
3435,27
3436,27
3437,27
3438,27
3439,27
3440,27
3441,27
3442,27
3443,27
3444,27
3445,28
3446,28
3447,28
3448,28
3449,28
3450,28
3451,28
3452,28
3453,28
3454,28
3455,28
3456,28
3457,28
3458,29
3459,28
3460,28
3461,28
3462,29
3463,29
3464,27
3465,27
3466,27
3467,27
3468,27
3469,27
3470,27
3471,27
3472,27
3473,27
3474,27
3475,27
3476,27
3477,27
3478,27
3479,28
3480,28
3481,28
3482,28
3483,28
3484,28
3485,28
3486,28
3487,28
3488,28
3489,28
3490,27
3491,27
3492,27
3493,27
3494,27
3495,27
3496,27
3497,27
3498,27
3499,27
3500,27
3501,27
3502,27
3503,27
3504,27
3505,27
3506,27
3507,27
3508,27
3509,27
3510,27
3511,27
3512,27
3513,27
3514,27
3515,27
3516,27
3517,27
3518,27
3519,27
3520,27
3521,27
3522,27
3523,27
3524,27
3525,27
3526,27
3527,27
3528,27
3529,27
3530,27
3531,27
3532,27
3533,27
3534,27
3535,27
3536,27
3537,27
3538,27
3539,27
3540,27
3541,27
3542,27
3543,27
3544,27
3545,27
3546,28
3547,27
3548,27
3549,27
3550,27
3551,27
3552,27
3553,27
3554,27
3555,27
3556,27
3557,27
3558,28
3559,28
3560,28
3561,27
3562,27
3563,27
3564,27
3565,27
3566,27
3567,27
3568,27
3569,27
3570,27
3571,27
3572,27
3573,27
3574,27
3575,28
3576,28
3577,28
3578,28
3579,28
3580,28
3581,28
3582,28
3583,28
3584,28
3585,28
3586,28
3587,28
3588,28
3589,28
3590,28
3591,28
3592,29
3593,28
3594,28
3595,28
3596,28
3597,28
3598,28
3599,28
3600,28
3601,28
3602,28
3603,28
3604,28
3605,28
3606,28
3607,28
3608,28
3609,28
3610,29
3611,28
3612,29
3613,29
3614,29
3615,29
3616,29
3617,29
3618,29
3619,29
3620,29
3621,29
3622,29
3623,29
3624,29
3625,28
3626,28
3627,28
3628,28
3629,28
3630,28
3631,28
3632,29
3633,29
3634,28
3635,28
3636,28
3637,28
3638,28
3639,28
3640,28
3641,28
3642,28
3643,28
3644,28
3645,28
3646,29
3647,29
3648,29
3649,29
3650,28
3651,28
3652,28
3653,28
3654,28
3655,28
3656,28
3657,28
3658,28
3659,28
3660,29
3661,28
3662,28
3663,28
3664,28
3665,28
3666,29
3667,28
3668,28
3669,28
3670,28
3671,28
3672,29
3673,28
3674,28
3675,28
3676,28
3677,29
3678,29
3679,29
3680,29
3681,28
3682,29
3683,29
3684,29
3685,29
3686,29
3687,29
3688,30
3689,30
3690,30
3691,29
3692,29
3693,29
3694,28
3695,28
3696,28
3697,28
3698,28
3699,28
3700,28
3701,28
3702,28
3703,28
3704,28
3705,28
3706,28
3707,29
3708,29
3709,29
3710,29
3711,28
3712,28
3713,28
3714,28
3715,28
3716,28
3717,28
3718,28
3719,28
3720,28
3721,28
3722,28
3723,28
3724,28
3725,28
3726,28
3727,28
3728,28
3729,28
3730,28
3731,28
3732,28
3733,28
3734,28
3735,28
3736,28
3737,28
3738,28
3739,28
3740,28
3741,28
3742,28
3743,28
3744,28
3745,28
3746,28
3747,28
3748,28
3749,28
3750,28
3751,28
3752,28
3753,28
3754,29
3755,29
3756,29
3757,29
3758,29
3759,29
3760,28
3761,28
3762,28
3763,29
3764,29
3765,29
3766,29
3767,29
3768,29
3769,29
3770,29
3771,29
3772,29
3773,29
3774,29
3775,29
3776,29
3777,30
3778,30
3779,29
3780,29
3781,29
3782,29
3783,28
3784,28
3785,28
3786,28
3787,29
3788,29
3789,29
3790,29
3791,29
3792,29
3793,29
3794,29
3795,29
3796,29
3797,29
3798,29
3799,29
3800,29
3801,29
3802,29
3803,29
3804,29
3805,29
3806,29
3807,29
3808,29
3809,29
3810,30
3811,29
3812,29
3813,29
3814,29
3815,30
3816,29
3817,29
3818,29
3819,29
3820,29
3821,29
3822,29
3823,29
3824,29
3825,29
3826,29
3827,29
3828,29
3829,29
3830,29
3831,29
3832,29
3833,29
3834,29
3835,29
3836,29
3837,29
3838,29
3839,29
3840,29
3841,30
3842,29
3843,29
3844,29
3845,29
3846,29
3847,29
3848,29
3849,29
3850,29
3851,29
3852,29
3853,29
3854,29
3855,29
3856,30
3857,29
3858,29
3859,29
3860,29
3861,29
3862,29
3863,29
3864,29
3865,29
3866,29
3867,29
3868,29
3869,29
3870,29
3871,29
3872,29
3873,29
3874,29
3875,29
3876,29
3877,29
3878,29
3879,29
3880,29
3881,29
3882,29
3883,29
3884,29
3885,29
3886,29
3887,30
3888,30
3889,30
3890,30
3891,30
3892,30
3893,30
3894,30
3895,30
3896,30
3897,30
3898,30
3899,30
3900,30
3901,30
3902,30
3903,30
3904,30
3905,30
3906,30
3907,30
3908,30
3909,30
3910,30
3911,30
3912,30
3913,30
3914,30
3915,30
3916,30
3917,30
3918,30
3919,30
3920,30
3921,30
3922,31
3923,30
3924,30
3925,30
3926,30
3927,30
3928,30
3929,30
3930,30
3931,30
3932,30
3933,30
3934,30
3935,30
3936,30
3937,30
3938,31
3939,30
3940,30
3941,30
3942,30
3943,30
3944,30
3945,30
3946,30
3947,30
3948,30
3949,30
3950,30
3951,30
3952,30
3953,30
3954,31
3955,31
3956,30
3957,30
3958,31
3959,31
3960,31
3961,31
3962,31
3963,31
3964,31
3965,31
3966,31
3967,30
3968,30
3969,30
3970,30
3971,30
3972,30
3973,31
3974,31
3975,31
3976,31
3977,31
3978,31
3979,31
3980,32
3981,32
3982,32
3983,31
3984,31
3985,31
3986,32
3987,33
3988,32
3989,31
3990,31
3991,31
3992,31
3993,31
3994,31
3995,31
3996,31
3997,31
3998,30
3999,30
4000,30
4001,30
4002,30
4003,30
4004,30
4005,30
4006,30
4007,30
4008,31
4009,30
4010,30
4011,30
4012,30
4013,30
4014,30
4015,30
4016,30
4017,30
4018,30
4019,30
4020,30
4021,30
4022,30
4023,30
4024,30
4025,30
4026,30
4027,30
4028,30
4029,30
4030,30
4031,30
4032,30
4033,30
4034,30
4035,30
4036,30
4037,30
4038,30
4039,30
4040,30
4041,30
4042,30
4043,30
4044,31
4045,30
4046,30
4047,30
4048,30
4049,30
4050,30
4051,30
4052,32
4053,30
4054,30
4055,30
4056,31
4057,30
4058,30
4059,30
4060,30
4061,30
4062,30
4063,30
4064,30
4065,30
4066,30
4067,30
4068,30
4069,30
4070,30
4071,30
4072,30
4073,30
4074,30
4075,30
4076,30
4077,30
4078,30
4079,30
4080,30
4081,30
4082,30
4083,30
4084,31
4085,31
4086,31
4087,30
4088,31
4089,31
4090,31
4091,31
4092,30
4093,30
4094,30
4095,30
4096,30
4097,30
4098,30
4099,30
4100,30
4101,30
4102,30
4103,31
4104,30
4105,30
4106,30
4107,30
4108,30
4109,30
4110,30
4111,30
4112,30
4113,30
4114,30
4115,30
4116,30
4117,30
4118,30
4119,30
4120,30
4121,30
4122,30
4123,30
4124,30
4125,30
4126,30
4127,30
4128,30
4129,31
4130,30
4131,30
4132,30
4133,30
4134,30
4135,30
4136,30
4137,30
4138,30
4139,30
4140,30
4141,30
4142,30
4143,30
4144,30
4145,30
4146,30
4147,30
4148,30
4149,30
4150,30
4151,30
4152,30
4153,30
4154,30
4155,30
4156,30
4157,30
4158,30
4159,30
4160,30
4161,30
4162,30
4163,30
4164,30
4165,30
4166,31
4167,31
4168,31
4169,31
4170,31
4171,32
4172,31
4173,31
4174,31
4175,31
4176,31
4177,31
4178,31
4179,31
4180,31
4181,31
4182,31
4183,30
4184,30
4185,30
4186,30
4187,30
4188,30
4189,30
4190,30
4191,30
4192,30
4193,30
4194,30
4195,30
4196,30
4197,30
4198,30
4199,30
4200,30
4201,30
4202,30
4203,30
4204,30
4205,30
4206,30
4207,30
4208,30
4209,30
4210,30
4211,30
4212,30
4213,30
4214,30
4215,30
4216,30
4217,30
4218,30
4219,30
4220,30
4221,30
4222,30
4223,30
4224,30
4225,31
4226,31
4227,33
4228,33
4229,32
4230,32
4231,32
4232,32
4233,32
4234,32
4235,32
4236,31
4237,31
4238,31
4239,32
4240,32
4241,32
4242,31
4243,31
4244,31
4245,31
4246,31
4247,31
4248,31
4249,32
4250,32
4251,32
4252,31
4253,32
4254,32
4255,32
4256,32
4257,31
4258,31
4259,31
4260,31
4261,31
4262,31
4263,31
4264,30
4265,31
4266,30
4267,30
4268,30
4269,30
4270,30
4271,30
4272,30
4273,30
4274,30
4275,31
4276,30
4277,30
4278,31
4279,30
4280,30
4281,30
4282,30
4283,30
4284,30
4285,30
4286,30
4287,30
4288,30
4289,30
4290,30
4291,30
4292,30
4293,31
4294,30
4295,30
4296,30
4297,30
4298,30
4299,30
4300,30
4301,30
4302,30
4303,30
4304,31
4305,31
4306,31
4307,31
4308,31
4309,31
4310,31
4311,31
4312,31
4313,31
4314,31
4315,31
4316,31
4317,31
4318,32
4319,32
4320,32
4321,31
4322,31
4323,31
4324,31
4325,31
4326,31
4327,31
4328,31
4329,31
4330,31
4331,31
4332,31
4333,31
4334,31
4335,31
4336,31
4337,31
4338,31
4339,31
4340,31
4341,31
4342,32
4343,31
4344,31
4345,31
4346,31
4347,31
4348,31
4349,31
4350,31
4351,32
4352,31
4353,31
4354,31
4355,32
4356,32
4357,32
4358,32
4359,32
4360,32
4361,31
4362,31
4363,31
4364,31
4365,31
4366,31
4367,31
4368,31
4369,31
4370,31
4371,31
4372,31
4373,31
4374,31
4375,31
4376,31
4377,31
4378,31
4379,31
4380,31
4381,31
4382,31
4383,31
4384,31
4385,31
4386,31
4387,31
4388,31
4389,33
4390,31
4391,31
4392,30
4393,30
4394,30
4395,30
4396,30
4397,30
4398,31
4399,30
4400,30
4401,30
4402,30
4403,30
4404,30
4405,30
4406,30
4407,30
4408,30
4409,31
4410,30
4411,30
4412,30
4413,30
4414,30
4415,30
4416,30
4417,30
4418,30
4419,30
4420,30
4421,31
4422,31
4423,30
4424,30
4425,30
4426,30
4427,30
4428,30
4429,30
4430,30
4431,30
4432,30
4433,30
4434,30
4435,30
4436,30
4437,31
4438,31
4439,31
4440,31
4441,32
4442,32
4443,32
4444,32
4445,32
4446,32
4447,32
4448,32
4449,33
4450,32
4451,32
4452,32
4453,32
4454,32
4455,32
4456,32
4457,32
4458,31
4459,31
4460,31
4461,31
4462,31
4463,31
4464,31
4465,31
4466,31
4467,31
4468,31
4469,31
4470,31
4471,31
4472,31
4473,31
4474,31
4475,31
4476,31
4477,31
4478,31
4479,31
4480,31
4481,31
4482,31
4483,31
4484,31
4485,31
4486,31
4487,31
4488,31
4489,31
4490,31
4491,31
4492,31
4493,31
4494,31
4495,31
4496,31
4497,31
4498,31
4499,31
4500,31
4501,31
4502,31
4503,31
4504,31
4505,31
4506,31
4507,31
4508,32
4509,31
4510,31
4511,31
4512,31
4513,31
4514,31
4515,31
4516,31
4517,31
4518,32
4519,31
4520,31
4521,31
4522,31
4523,31
4524,31
4525,31
4526,31
4527,31
4528,31
4529,31
4530,31
4531,31
4532,31
4533,31
4534,31
4535,31
4536,31
4537,31
4538,31
4539,31
4540,31
4541,31
4542,31
4543,31
4544,32
4545,32
4546,31
4547,31
4548,31
4549,31
4550,31
4551,31
4552,31
4553,31
4554,31
4555,31
4556,32
4557,32
4558,32
4559,32
4560,31
4561,31
4562,31
4563,31
4564,31
4565,31
4566,31
4567,31
4568,31
4569,31
4570,31
4571,31
4572,31
4573,31
4574,31
4575,31
4576,31
4577,31
4578,31
4579,31
4580,31
4581,31
4582,31
4583,31
4584,31
4585,31
4586,31
4587,31
4588,31
4589,31
4590,31
4591,32
4592,31
4593,31
4594,32
4595,31
4596,32
4597,32
4598,32
4599,32
4600,32
4601,33
4602,33
4603,33
4604,32
4605,31
4606,31
4607,32
4608,32
4609,31
4610,31
4611,31
4612,31
4613,31
4614,31
4615,31
4616,31
4617,31
4618,31
4619,31
4620,31
4621,31
4622,31
4623,31
4624,31
4625,31
4626,31
4627,31
4628,31
4629,31
4630,31
4631,31
4632,31
4633,31
4634,31
4635,31
4636,31
4637,31
4638,31
4639,32
4640,32
4641,31
4642,31
4643,31
4644,31
4645,31
4646,31
4647,31
4648,31
4649,31
4650,31
4651,31
4652,31
4653,31
4654,31
4655,31
4656,31
4657,31
4658,31
4659,31
4660,31
4661,31
4662,31
4663,31
4664,31
4665,31
4666,31
4667,31
4668,31
4669,31
4670,31
4671,31
4672,32
4673,32
4674,32
4675,32
4676,32
4677,31
4678,31
4679,31
4680,31
4681,31
4682,31
4683,31
4684,31
4685,31
4686,31
4687,31
4688,31
4689,31
4690,31
4691,31
4692,33
4693,31
4694,31
4695,31
4696,31
4697,31
4698,31
4699,31
4700,32
4701,31
4702,32
4703,32
4704,32
4705,32
4706,32
4707,32
4708,32
4709,32
4710,32
4711,32
4712,32
4713,32
4714,32
4715,32
4716,32
4717,32
4718,32
4719,32
4720,32
4721,32
4722,32
4723,32
4724,32
4725,32
4726,33
4727,33
4728,33
4729,32
4730,32
4731,32
4732,32
4733,32
4734,32
4735,32
4736,32
4737,32
4738,32
4739,32
4740,32
4741,32
4742,32
4743,33
4744,33
4745,33
4746,33
4747,33
4748,33
4749,33
4750,33
4751,33
4752,33
4753,33
4754,33
4755,33
4756,34
4757,33
4758,33
4759,33
4760,33
4761,33
4762,33
4763,33
4764,33
4765,33
4766,33
4767,33
4768,33
4769,33
4770,33
4771,33
4772,33
4773,33
4774,33
4775,33
4776,33
4777,33
4778,33
4779,34
4780,34
4781,34
4782,34
4783,34
4784,34
4785,34
4786,34
4787,34
4788,34
4789,34
4790,34
4791,34
4792,34
4793,34
4794,34
4795,34
4796,34
4797,34
4798,34
4799,34
4800,34
4801,34
4802,34
4803,34
4804,35
4805,34
4806,34
4807,35
4808,35
4809,34
4810,35
4811,35
4812,35
4813,35
4814,35
4815,35
4816,35
4817,34
4818,34
4819,34
4820,34
4821,34
4822,34
4823,34
4824,34
4825,34
4826,34
4827,34
4828,34
4829,34
4830,34
4831,34
4832,34
4833,34
4834,34
4835,34
4836,34
4837,34
4838,34
4839,34
4840,34
4841,34
4842,34
4843,34
4844,34
4845,34
4846,34
4847,34
4848,34
4849,34
4850,34
4851,34
4852,34
4853,34
4854,34
4855,34
4856,34
4857,34
4858,34
4859,34
4860,34
4861,34
4862,34
4863,34
4864,34
4865,34
4866,34
4867,34
4868,34
4869,34
4870,34
4871,34
4872,34
4873,34
4874,34
4875,34
4876,34
4877,34
4878,35
4879,35
4880,35
4881,34
4882,34
4883,34
4884,34
4885,34
4886,34
4887,34
4888,34
4889,34
4890,34
4891,34
4892,34
4893,34
4894,35
4895,34
4896,34
4897,34
4898,35
4899,35
4900,34
4901,34
4902,34
4903,34
4904,34
4905,35
4906,35
4907,35
4908,35
4909,35
4910,35
4911,35
4912,35
4913,35
4914,35
4915,35
4916,35
4917,35
4918,35
4919,35
4920,35
4921,35
4922,35
4923,35
4924,35
4925,35
4926,35
4927,35
4928,35
4929,35
4930,35
4931,35
4932,36
4933,36
4934,36
4935,36
4936,35
4937,35
4938,35
4939,35
4940,35
4941,35
4942,35
4943,35
4944,35
4945,35
4946,35
4947,35
4948,35
4949,35
4950,35
4951,35
4952,35
4953,35
4954,36
4955,36
4956,35
4957,35
4958,35
4959,35
4960,35
4961,35
4962,35
4963,35
4964,35
4965,35
4966,35
4967,35
4968,35
4969,35
4970,35
4971,36
4972,35
4973,35
4974,35
4975,35
4976,35
4977,35
4978,36
4979,36
4980,35
4981,35
4982,35
4983,35
4984,35
4985,35
4986,35
4987,35
4988,35
4989,35
4990,35
4991,35
4992,35
4993,35
4994,35
4995,35
4996,35
4997,35
4998,36
4999,35
5000,36
5001,35
5002,35
5003,35
5004,35
5005,35
5006,35
5007,35
5008,35
5009,35
5010,35
5011,35
5012,35
5013,35
5014,35
5015,35
5016,35
5017,35
5018,35
5019,35
5020,35
5021,35
5022,36
5023,36
5024,36
5025,36
5026,37
5027,38
5028,36
5029,35
5030,35
5031,35
5032,35
5033,36
5034,36
5035,36
5036,36
5037,36
5038,36
5039,36
5040,36
5041,35
5042,35
5043,35
5044,35
5045,35
5046,35
5047,35
5048,35
5049,35
5050,35
5051,35
5052,35
5053,35
5054,35
5055,35
5056,35
5057,35
5058,35
5059,36
5060,35
5061,35
5062,35
5063,35
5064,35
5065,35
5066,35
5067,35
5068,35
5069,35
5070,35
5071,36
5072,36
5073,36
5074,35
5075,35
5076,35
5077,35
5078,36
5079,35
5080,35
5081,35
5082,35
5083,35
5084,35
5085,35
5086,35
5087,35
5088,35
5089,35
5090,35
5091,35
5092,35
5093,35
5094,35
5095,35
5096,35
5097,35
5098,36
5099,36
5100,36
5101,36
5102,36
5103,36
5104,36
5105,36
5106,35
5107,35
5108,35
5109,35
5110,35
5111,35
5112,35
5113,35
5114,35
5115,35
5116,35
5117,35
5118,35
5119,35
5120,35
5121,34
5122,34
5123,34
5124,35
5125,34
5126,34
5127,34
5128,34
5129,34
5130,34
5131,34
5132,34
5133,34
5134,34
5135,34
5136,34
5137,34
5138,34
5139,34
5140,34
5141,34
5142,34
5143,34
5144,34
5145,34
5146,34
5147,34
5148,34
5149,34
5150,34
5151,34
5152,34
5153,34
5154,34
5155,34
5156,34
5157,34
5158,34
5159,34
5160,34
5161,34
5162,34
5163,34
5164,34
5165,34
5166,34
5167,34
5168,34
5169,34
5170,34
5171,34
5172,34
5173,34
5174,34
5175,34
5176,34
5177,34
5178,34
5179,34
5180,34
5181,34
5182,34
5183,34
5184,34
5185,34
5186,35
5187,35
5188,35
5189,35
5190,35
5191,35
5192,35
5193,35
5194,35
5195,35
5196,35
5197,34
5198,34
5199,35
5200,35
5201,36
5202,35
5203,35
5204,35
5205,35
5206,35
5207,35
5208,35
5209,35
5210,34
5211,34
5212,34
5213,34
5214,34
5215,34
5216,34
5217,34
5218,34
5219,34
5220,34
5221,34
5222,34
5223,34
5224,34
5225,34
5226,34
5227,34
5228,34
5229,34
5230,35
5231,35
5232,36
5233,36
5234,36
5235,35
5236,34
5237,34
5238,34
5239,34
5240,34
5241,34
5242,34
5243,34
5244,34
5245,34
5246,34
5247,34
5248,34
5249,34
5250,34
5251,34
5252,34
5253,34
5254,36
5255,34
5256,34
5257,34
5258,35
5259,34
5260,34
5261,34
5262,34
5263,34
5264,34
5265,34
5266,34
5267,34
5268,34
5269,34
5270,34
5271,34
5272,35
5273,35
5274,34
5275,34
5276,34
5277,34
5278,34
5279,34
5280,34
5281,35
5282,34
5283,34
5284,34
5285,34
5286,34
5287,34
5288,34
5289,34
5290,34
5291,34
5292,34
5293,34
5294,34
5295,34
5296,34
5297,34
5298,34
5299,34
5300,34
5301,34
5302,34
5303,34
5304,34
5305,34
5306,35
5307,35
5308,35
5309,35
5310,35
5311,35
5312,35
5313,36
5314,37
5315,36
5316,36
5317,35
5318,35
5319,35
5320,35
5321,35
5322,34
5323,34
5324,34
5325,34
5326,34
5327,34
5328,34
5329,34
5330,34
5331,34
5332,34
5333,35
5334,34
5335,34
5336,34
5337,34
5338,34
5339,34
5340,34
5341,34
5342,34
5343,34
5344,34
5345,33
5346,33
5347,33
5348,33
5349,33
5350,34
5351,34
5352,34
5353,34
5354,34
5355,34
5356,34
5357,34
5358,34
5359,34
5360,34
5361,34
5362,35
5363,34
5364,34
5365,35
5366,35
5367,35
5368,35
5369,34
5370,34
5371,34
5372,34
5373,34
5374,34
5375,34
5376,34
5377,34
5378,34
5379,34
5380,34
5381,34
5382,34
5383,34
5384,34
5385,34
5386,34
5387,34
5388,34
5389,34
5390,35
5391,34
5392,34
5393,34
5394,34
5395,34
5396,34
5397,34
5398,34
5399,34
5400,34
5401,34
5402,34
5403,34
5404,34
5405,34
5406,34
5407,34
5408,34
5409,35
5410,35
5411,35
5412,35
5413,34
5414,34
5415,34
5416,34
5417,34
5418,34
5419,34
5420,34
5421,34
5422,34
5423,34
5424,34
5425,34
5426,35
5427,34
5428,34
5429,34
5430,34
5431,34
5432,34
5433,34
5434,34
5435,34
5436,34
5437,34
5438,34
5439,34
5440,34
5441,34
5442,34
5443,34
5444,34
5445,34
5446,34
5447,34
5448,34
5449,34
5450,34
5451,35
5452,34
5453,34
5454,34
5455,34
5456,34
5457,34
5458,34
5459,34
5460,34
5461,34
5462,34
5463,34
5464,34
5465,34
5466,34
5467,34
5468,34
5469,34
5470,34
5471,34
5472,35
5473,34
5474,34
5475,34
5476,34
5477,35
5478,35
5479,35
5480,35
5481,35
5482,35
5483,35
5484,35
5485,35
5486,35
5487,35
5488,35
5489,35
5490,35
5491,34
5492,34
5493,34
5494,34
5495,34
5496,34
5497,34
5498,34
5499,34
5500,34
5501,34
5502,35
5503,36
5504,35
5505,35
5506,35
5507,35
5508,35
5509,35
5510,35
5511,36
5512,36
5513,36
5514,36
5515,35
5516,35
5517,35
5518,35
5519,34
5520,35
5521,35
5522,35
5523,35
5524,35
5525,35
5526,35
5527,35
5528,35
5529,36
5530,35
5531,35
5532,35
5533,35
5534,35
5535,35
5536,35
5537,36
5538,36
5539,36
5540,35
5541,35
5542,35
5543,36
5544,36
5545,36
5546,36
5547,36
5548,36
5549,36
5550,35
5551,35
5552,35
5553,35
5554,35
5555,35
5556,35
5557,35
5558,35
5559,35
5560,35
5561,35
5562,35
5563,35
5564,35
5565,35
5566,35
5567,35
5568,35
5569,35
5570,35
5571,35
5572,35
5573,35
5574,35
5575,36
5576,36
5577,36
5578,35
5579,35
5580,35
5581,35
5582,36
5583,35
5584,35
5585,35
5586,35
5587,35
5588,35
5589,35
5590,35
5591,35
5592,35
5593,35
5594,35
5595,35
5596,35
5597,35
5598,35
5599,35
5600,35
5601,35
5602,35
5603,36
5604,36
5605,37
5606,37
5607,37
5608,36
5609,36
5610,36
5611,35
5612,35
5613,35
5614,35
5615,35
5616,36
5617,36
5618,36
5619,36
5620,37
5621,37
5622,37
5623,37
5624,38
5625,38
5626,37
5627,36
5628,36
5629,36
5630,36
5631,36
5632,36
5633,35
5634,35
5635,35
5636,35
5637,35
5638,36
5639,35
5640,35
5641,35
5642,35
5643,36
5644,35
5645,35
5646,35
5647,35
5648,36
5649,35
5650,35
5651,35
5652,35
5653,35
5654,35
5655,35
5656,35
5657,35
5658,35
5659,36
5660,35
5661,35
5662,35
5663,35
5664,35
5665,35
5666,35
5667,35
5668,35
5669,35
5670,36
5671,36
5672,35
5673,36
5674,36
5675,36
5676,37
5677,36
5678,35
5679,35
5680,35
5681,35
5682,35
5683,35
5684,35
5685,35
5686,37
5687,35
5688,35
5689,35
5690,35
5691,35
5692,35
5693,34
5694,34
5695,34
5696,34
5697,34
5698,35
5699,34
5700,34
5701,34
5702,34
5703,34
5704,34
5705,34
5706,34
5707,34
5708,35
5709,34
5710,34
5711,34
5712,34
5713,34
5714,34
5715,34
5716,34
5717,34
5718,34
5719,34
5720,34
5721,34
5722,34
5723,34
5724,34
5725,34
5726,34
5727,34
5728,34
5729,34
5730,34
5731,34
5732,34
5733,34
5734,34
5735,34
5736,34
5737,34
5738,34
5739,34
5740,34
5741,34
5742,34
5743,34
5744,34
5745,34
5746,34
5747,34
5748,34
5749,34
5750,34
5751,34
5752,35
5753,35
5754,34
5755,34
5756,34
5757,34
5758,34
5759,34
5760,35
5761,34
5762,34
5763,34
5764,34
5765,34
5766,34
5767,34
5768,34
5769,35
5770,35
5771,35
5772,35
5773,35
5774,35
5775,35
5776,35
5777,35
5778,35
5779,34
5780,34
5781,34
5782,34
5783,34
5784,34
5785,34
5786,34
5787,34
5788,34
5789,34
5790,34
5791,34
5792,34
5793,34
5794,34
5795,34
5796,34
5797,34
5798,34
5799,34
5800,34
5801,34
5802,34
5803,34
5804,34
5805,34
5806,34
5807,34
5808,34
5809,34
5810,34
5811,34
5812,34
5813,34
5814,35
5815,35
5816,35
5817,35
5818,35
5819,34
5820,34
5821,34
5822,34
5823,34
5824,34
5825,34
5826,34
5827,34
5828,34
5829,34
5830,34
5831,34
5832,34
5833,34
5834,34
5835,34
5836,34
5837,34
5838,34
5839,34
5840,34
5841,35
5842,35
5843,34
5844,34
5845,34
5846,34
5847,34
5848,34
5849,35
5850,34
5851,34
5852,34
5853,35
5854,35
5855,35
5856,35
5857,35
5858,35
5859,35
5860,35
5861,35
5862,35
5863,35
5864,35
5865,36
5866,35
5867,35
5868,36
5869,35
5870,35
5871,35
5872,35
5873,35
5874,35
5875,35
5876,35
5877,35
5878,35
5879,35
5880,35
5881,35
5882,35
5883,35
5884,35
5885,35
5886,36
5887,36
5888,36
5889,35
5890,35
5891,35
5892,36
5893,36
5894,35
5895,35
5896,37
5897,37
5898,37
5899,36
5900,36
5901,36
5902,36
5903,36
5904,36
5905,36
5906,36
5907,35
5908,35
5909,35
5910,35
5911,35
5912,35
5913,35
5914,35
5915,35
5916,35
5917,35
5918,35
5919,35
5920,35
5921,35
5922,35
5923,35
5924,36
5925,36
5926,36
5927,36
5928,36
5929,36
5930,36
5931,36
5932,36
5933,36
5934,36
5935,36
5936,36
5937,36
5938,36
5939,36
5940,36
5941,36
5942,36
5943,36
5944,36
5945,36
5946,36
5947,36
5948,36
5949,36
5950,37
5951,36
5952,36
5953,36
5954,36
5955,36
5956,36
5957,35
5958,35
5959,35
5960,35
5961,35
5962,35
5963,35
5964,35
5965,35
5966,35
5967,35
5968,35
5969,35
5970,35
5971,35
5972,35
5973,35
5974,35
5975,35
5976,35
5977,35
5978,35
5979,35
5980,35
5981,35
5982,35
5983,35
5984,35
5985,35
5986,35
5987,35
5988,35
5989,35
5990,35
5991,35
5992,35
5993,35
5994,35
5995,35
5996,35
5997,35
5998,35
5999,35
6000,35
6001,35
6002,35
6003,35
6004,35
6005,35
6006,35
6007,35
6008,35
6009,35
6010,35
6011,35
6012,35
6013,35
6014,35
6015,35
6016,36
6017,37
6018,35
6019,35
6020,35
6021,35
6022,35
6023,35
6024,35
6025,35
6026,35
6027,35
6028,35
6029,35
6030,35
6031,35
6032,35
6033,35
6034,35
6035,35
6036,35
6037,35
6038,35
6039,35
6040,35
6041,35
6042,35
6043,35
6044,35
6045,35
6046,35
6047,35
6048,35
6049,35
6050,35
6051,35
6052,35
6053,35
6054,35
6055,35
6056,36
6057,35
6058,36
6059,36
6060,36
6061,36
6062,36
6063,35
6064,35
6065,35
6066,35
6067,35
6068,35
6069,35
6070,35
6071,35
6072,35
6073,35
6074,35
6075,35
6076,35
6077,35
6078,35
6079,35
6080,35
6081,35
6082,35
6083,35
6084,36
6085,35
6086,35
6087,35
6088,37
6089,36
6090,36
6091,36
6092,36
6093,36
6094,36
6095,36
6096,36
6097,36
6098,36
6099,36
6100,37
6101,35
6102,35
6103,35
6104,35
6105,35
6106,35
6107,35
6108,35
6109,35
6110,35
6111,35
6112,35
6113,35
6114,35
6115,35
6116,35
6117,35
6118,35
6119,35
6120,35
6121,35
6122,35
6123,35
6124,35
6125,35
6126,35
6127,35
6128,35
6129,35
6130,35
6131,35
6132,35
6133,35
6134,35
6135,35
6136,36
6137,35
6138,35
6139,35
6140,35
6141,35
6142,35
6143,35
6144,35
6145,35
6146,35
6147,35
6148,35
6149,35
6150,35
6151,35
6152,35
6153,35
6154,35
6155,35
6156,35
6157,35
6158,35
6159,35
6160,35
6161,35
6162,35
6163,35
6164,35
6165,35
6166,36
6167,36
6168,36
6169,35
6170,35
6171,35
6172,35
6173,35
6174,35
6175,35
6176,35
6177,35
6178,35
6179,35
6180,35
6181,35
6182,35
6183,35
6184,35
6185,35
6186,35
6187,35
6188,36
6189,36
6190,36
6191,36
6192,36
6193,36
6194,37
6195,36
6196,36
6197,36
6198,36
6199,36
6200,35
6201,35
6202,35
6203,35
6204,35
6205,35
6206,36
6207,36
6208,36
6209,36
6210,37
6211,37
6212,37
6213,37
6214,38
6215,38
6216,37
6217,37
6218,37
6219,37
6220,37
6221,37
6222,37
6223,35
6224,34
6225,34
6226,34
6227,34
6228,35
6229,35
6230,36
6231,35
6232,35
6233,36
6234,35
6235,36
6236,36
6237,36
6238,36
6239,35
6240,35
6241,36
6242,35
6243,35
6244,35
6245,35
6246,35
6247,35
6248,35
6249,35
6250,35
6251,35
6252,35
6253,35
6254,35
6255,35
6256,35
6257,35
6258,35
6259,35
6260,35
6261,35
6262,36
6263,35
6264,35
6265,35
6266,35
6267,35
6268,35
6269,35
6270,35
6271,35
6272,35
6273,35
6274,35
6275,35
6276,35
6277,35
6278,35
6279,35
6280,35
6281,35
6282,35
6283,35
6284,35
6285,35
6286,35
6287,35
6288,35
6289,36
6290,35
6291,35
6292,35
6293,35
6294,35
6295,35
6296,35
6297,35
6298,35
6299,35
6300,35
6301,35
6302,35
6303,35
6304,35
6305,35
6306,35
6307,35
6308,35
6309,35
6310,35
6311,35
6312,35
6313,35
6314,35
6315,35
6316,35
6317,35
6318,35
6319,35
6320,35
6321,35
6322,35
6323,35
6324,35
6325,35
6326,34
6327,34
6328,34
6329,34
6330,34
6331,34
6332,34
6333,34
6334,34
6335,34
6336,34
6337,34
6338,34
6339,34
6340,35
6341,34
6342,34
6343,34
6344,34
6345,34
6346,34
6347,34
6348,34
6349,34
6350,34
6351,34
6352,34
6353,34
6354,34
6355,34
6356,34
6357,34
6358,34
6359,35
6360,34
6361,34
6362,35
6363,35
6364,35
6365,35
6366,35
6367,35
6368,35
6369,35
6370,35
6371,35
6372,35
6373,35
6374,35
6375,35
6376,35
6377,35
6378,35
6379,35
6380,35
6381,35
6382,35
6383,35
6384,35
6385,35
6386,35
6387,35
6388,35
6389,35
6390,35
6391,34
6392,34
6393,34
6394,34
6395,34
6396,34
6397,34
6398,35
6399,36
6400,36
6401,35
6402,35
6403,35
6404,35
6405,35
6406,35
6407,36
6408,35
6409,35
6410,35
6411,35
6412,34
6413,34
6414,34
6415,34
6416,35
6417,35
6418,35
6419,34
6420,34
6421,34
6422,34
6423,34
6424,34
6425,34
6426,34
6427,34
6428,34
6429,34
6430,34
6431,34
6432,34
6433,34
6434,34
6435,34
6436,34
6437,34
6438,34
6439,34
6440,34
6441,34
6442,34
6443,35
6444,35
6445,34
6446,34
6447,34
6448,34
6449,34
6450,34
6451,34
6452,34
6453,34
6454,34
6455,34
6456,35
6457,34
6458,34
6459,34
6460,34
6461,34
6462,34
6463,34
6464,34
6465,34
6466,34
6467,34
6468,35
6469,34
6470,34
6471,34
6472,34
6473,34
6474,34
6475,34
6476,34
6477,34
6478,34
6479,34
6480,34
6481,34
6482,34
6483,34
6484,34
6485,34
6486,34
6487,34
6488,34
6489,34
6490,34
6491,34
6492,34
6493,33
6494,33
6495,33
6496,33
6497,33
6498,33
6499,33
6500,33
6501,33
6502,33
6503,33
6504,33
6505,33
6506,33
6507,33
6508,33
6509,33
6510,33
6511,33
6512,34
6513,34
6514,33
6515,33
6516,33
6517,33
6518,33
6519,33
6520,33
6521,33
6522,33
6523,33
6524,33
6525,33
6526,33
6527,33
6528,33
6529,33
6530,34
6531,33
6532,33
6533,33
6534,34
6535,34
6536,34
6537,34
6538,34
6539,34
6540,34
6541,33
6542,33
6543,34
6544,33
6545,33
6546,34
6547,35
6548,35
6549,34
6550,35
6551,33
6552,33
6553,33
6554,33
6555,33
6556,33
6557,33
6558,33
6559,33
6560,34
6561,33
6562,33
6563,33
6564,33
6565,33
6566,33
6567,33
6568,33
6569,33
6570,33
6571,33
6572,33
6573,33
6574,33
6575,33
6576,33
6577,33
6578,33
6579,33
6580,33
6581,33
6582,34
6583,33
6584,33
6585,33
6586,33
6587,33
6588,33
6589,33
6590,33
6591,33
6592,33
6593,33
6594,33
6595,33
6596,33
6597,33
6598,33
6599,33
6600,33
6601,33
6602,33
6603,33
6604,33
6605,33
6606,33
6607,33
6608,33
6609,33
6610,33
6611,34
6612,35
6613,35
6614,34
6615,34
6616,34
6617,34
6618,34
6619,34
6620,34
6621,34
6622,34
6623,34
6624,34
6625,34
6626,34
6627,34
6628,34
6629,33
6630,34
6631,33
6632,33
6633,34
6634,34
6635,34
6636,33
6637,33
6638,33
6639,33
6640,33
6641,33
6642,33
6643,33
6644,33
6645,33
6646,33
6647,34
6648,35
6649,35
6650,35
6651,35
6652,34
6653,34
6654,34
6655,34
6656,34
6657,34
6658,34
6659,34
6660,34
6661,34
6662,34
6663,34
6664,34
6665,34
6666,34
6667,34
6668,34
6669,34
6670,34
6671,33
6672,33
6673,33
6674,33
6675,33
6676,33
6677,33
6678,33
6679,33
6680,33
6681,33
6682,33
6683,33
6684,33
6685,33
6686,33
6687,33
6688,33
6689,33
6690,34
6691,34
6692,34
6693,34
6694,34
6695,34
6696,34
6697,34
6698,34
6699,34
6700,34
6701,34
6702,34
6703,34
6704,33
6705,33
6706,33
6707,33
6708,33
6709,34
6710,33
6711,33
6712,33
6713,33
6714,33
6715,33
6716,33
6717,33
6718,33
6719,33
6720,33
6721,33
6722,33
6723,33
6724,33
6725,33
6726,33
6727,33
6728,33
6729,33
6730,33
6731,33
6732,33
6733,33
6734,33
6735,33
6736,34
6737,33
6738,33
6739,33
6740,33
6741,33
6742,33
6743,33
6744,33
6745,33
6746,33
6747,33
6748,34
6749,34
6750,34
6751,34
6752,35
6753,33
6754,33
6755,33
6756,33
6757,33
6758,33
6759,33
6760,33
6761,33
6762,33
6763,33
6764,33
6765,33
6766,33
6767,33
6768,33
6769,33
6770,33
6771,33
6772,33
6773,33
6774,33
6775,33
6776,33
6777,33
6778,33
6779,33
6780,34
6781,34
6782,34
6783,33
6784,33
6785,33
6786,33
6787,33
6788,33
6789,33
6790,33
6791,33
6792,33
6793,33
6794,33
6795,33
6796,33
6797,33
6798,33
6799,33
6800,33
6801,33
6802,33
6803,33
6804,33
6805,33
6806,33
6807,33
6808,33
6809,33
6810,33
6811,34
6812,33
6813,33
6814,33
6815,35
6816,34
6817,33
6818,33
6819,33
6820,33
6821,33
6822,33
6823,33
6824,33
6825,33
6826,33
6827,33
6828,33
6829,33
6830,34
6831,34
6832,34
6833,34
6834,34
6835,34
6836,34
6837,34
6838,34
6839,34
6840,36
6841,35
6842,35
6843,35
6844,35
6845,35
6846,35
6847,34
6848,34
6849,34
6850,34
6851,34
6852,34
6853,34
6854,34
6855,34
6856,34
6857,34
6858,34
6859,34
6860,34
6861,35
6862,36
6863,35
6864,35
6865,35
6866,35
6867,35
6868,35
6869,35
6870,35
6871,35
6872,35
6873,35
6874,35
6875,35
6876,35
6877,35
6878,35
6879,35
6880,35
6881,35
6882,36
6883,36
6884,35
6885,35
6886,35
6887,35
6888,35
6889,35
6890,35
6891,35
6892,36
6893,35
6894,35
6895,35
6896,35
6897,35
6898,35
6899,35
6900,35
6901,35
6902,35
6903,35
6904,35
6905,35
6906,35
6907,35
6908,35
6909,35
6910,35
6911,35
6912,35
6913,35
6914,35
6915,35
6916,35
6917,35
6918,35
6919,35
6920,36
6921,35
6922,35
6923,35
6924,35
6925,36
6926,35
6927,35
6928,36
6929,36
6930,35
6931,35
6932,35
6933,35
6934,35
6935,35
6936,35
6937,35
6938,35
6939,35
6940,35
6941,35
6942,35
6943,35
6944,35
6945,35
6946,35
6947,35
6948,35
6949,35
6950,35
6951,35
6952,35
6953,35
6954,35
6955,35
6956,35
6957,35
6958,35
6959,35
6960,35
6961,35
6962,35
6963,35
6964,35
6965,36
6966,35
6967,35
6968,35
6969,35
6970,35
6971,35
6972,35
6973,36
6974,36
6975,35
6976,35
6977,35
6978,35
6979,35
6980,35
6981,35
6982,35
6983,35
6984,35
6985,35
6986,35
6987,35
6988,35
6989,35
6990,35
6991,35
6992,35
6993,35
6994,35
6995,35
6996,35
6997,35
6998,35
6999,35
7000,35
7001,35
7002,35
7003,35
7004,35
7005,35
7006,35
7007,35
7008,35
7009,35
7010,35
7011,35
7012,35
7013,35
7014,35
7015,35
7016,36
7017,35
7018,36
7019,35
7020,35
7021,36
7022,36
7023,35
7024,35
7025,35
7026,35
7027,35
7028,35
7029,35
7030,35
7031,35
7032,34
7033,34
7034,34
7035,34
7036,34
7037,34
7038,34
7039,34
7040,34
7041,35
7042,35
7043,35
7044,35
7045,35
7046,35
7047,35
7048,35
7049,35
7050,35
7051,35
7052,35
7053,35
7054,35
7055,35
7056,35
7057,35
7058,35
7059,35
7060,35
7061,35
7062,35
7063,35
7064,35
7065,35
7066,35
7067,35
7068,35
7069,35
7070,35
7071,35
7072,35
7073,35
7074,35
7075,35
7076,35
7077,35
7078,35
7079,35
7080,35
7081,36
7082,36
7083,36
7084,36
7085,36
7086,36
7087,36
7088,35
7089,35
7090,35
7091,35
7092,35
7093,35
7094,35
7095,35
7096,35
7097,35
7098,35
7099,35
7100,35
7101,35
7102,35
7103,36
7104,36
7105,36
7106,36
7107,36
7108,36
7109,36
7110,36
7111,36
7112,36
7113,36
7114,37
7115,36
7116,35
7117,35
7118,35
7119,35
7120,35
7121,35
7122,35
7123,35
7124,35
7125,35
7126,35
7127,35
7128,35
7129,35
7130,35
7131,35
7132,35
7133,35
7134,35
7135,35
7136,35
7137,35
7138,35
7139,35
7140,35
7141,35
7142,35
7143,35
7144,35
7145,35
7146,35
7147,35
7148,35
7149,35
7150,36
7151,36
7152,35
7153,35
7154,35
7155,35
7156,35
7157,35
7158,35
7159,36
7160,35
7161,35
7162,35
7163,35
7164,35
7165,35
7166,35
7167,35
7168,36
7169,37
7170,37
7171,37
7172,37
7173,38
7174,37
7175,36
7176,35
7177,35
7178,35
7179,35
7180,35
7181,37
7182,36
7183,37
7184,36
7185,36
7186,36
7187,36
7188,36
7189,36
7190,36
7191,36
7192,36
7193,36
7194,36
7195,36
7196,36
7197,36
7198,36
7199,37
7200,37
7201,37
7202,37
7203,37
7204,38
7205,37
7206,37
7207,37
7208,37
7209,37
7210,37
7211,37
7212,37
7213,37
7214,36
7215,36
7216,36
7217,36
7218,36
7219,36
7220,36
7221,36
7222,36
7223,36
7224,36
7225,36
7226,36
7227,36
7228,36
7229,36
7230,37
7231,37
7232,36
7233,36
7234,36
7235,36
7236,37
7237,37
7238,37
7239,37
7240,37
7241,37
7242,37
7243,36
7244,36
7245,36
7246,37
7247,36
7248,36
7249,37
7250,36
7251,36
7252,36
7253,36
7254,36
7255,36
7256,36
7257,36
7258,36
7259,36
7260,36
7261,36
7262,36
7263,36
7264,36
7265,35
7266,35
7267,35
7268,35
7269,35
7270,35
7271,35
7272,35
7273,35
7274,35
7275,35
7276,35
7277,35
7278,35
7279,35
7280,36
7281,36
7282,36
7283,36
7284,35
7285,35
7286,35
7287,35
7288,35
7289,35
7290,35
7291,36
7292,36
7293,36
7294,36
7295,36
7296,36
7297,36
7298,36
7299,37
7300,37
7301,37
7302,37
7303,36
7304,36
7305,36
7306,36
7307,36
7308,36
7309,36
7310,36
7311,36
7312,36
7313,36
7314,36
7315,36
7316,37
7317,38
7318,38
7319,37
7320,38
7321,38
7322,37
7323,37
7324,37
7325,37
7326,37
7327,36
7328,36
7329,36
7330,36
7331,36
7332,36
7333,36
7334,36
7335,36
7336,36
7337,37
7338,37
7339,37
7340,37
7341,37
7342,37
7343,37
7344,37
7345,37
7346,37
7347,37
7348,37
7349,37
7350,37
7351,37
7352,37
7353,37
7354,38
7355,37
7356,37
7357,37
7358,37
7359,37
7360,37
7361,37
7362,37
7363,37
7364,37
7365,37
7366,37
7367,37
7368,37
7369,36
7370,36
7371,36
7372,36
7373,36
7374,36
7375,36
7376,37
7377,37
7378,37
7379,37
7380,37
7381,37
7382,37
7383,37
7384,37
7385,37
7386,38
7387,38
7388,38
7389,37
7390,37
7391,37
7392,37
7393,37
7394,37
7395,37
7396,37
7397,37
7398,37
7399,37
7400,37
7401,37
7402,37
7403,37
7404,37
7405,37
7406,37
7407,37
7408,37
7409,37
7410,37
7411,37
7412,37
7413,37
7414,37
7415,37
7416,37
7417,37
7418,37
7419,37
7420,37
7421,37
7422,37
7423,37
7424,38
7425,38
7426,37
7427,37
7428,37
7429,37
7430,37
7431,37
7432,37
7433,37
7434,38
7435,38
7436,38
7437,38
7438,38
7439,38
7440,38
7441,38
7442,38
7443,38
7444,38
7445,38
7446,38
7447,37
7448,37
7449,37
7450,37
7451,38
7452,38
7453,38
7454,38
7455,38
7456,38
7457,38
7458,38
7459,38
7460,38
7461,38
7462,38
7463,39
7464,39
7465,38
7466,38
7467,38
7468,38
7469,39
7470,39
7471,39
7472,38
7473,38
7474,38
7475,38
7476,38
7477,37
7478,37
7479,37
7480,37
7481,37
7482,37
7483,37
7484,38
7485,38
7486,37
7487,37
7488,37
7489,38
7490,38
7491,38
7492,38
7493,38
7494,38
7495,38
7496,38
7497,38
7498,38
7499,38
7500,38
7501,38
7502,38
7503,38
7504,38
7505,38
7506,38
7507,38
7508,38
7509,38
7510,38
7511,38
7512,39
7513,38
7514,38
7515,38
7516,38
7517,38
7518,39
7519,39
7520,39
7521,38
7522,38
7523,38
7524,39
7525,39
7526,39
7527,39
7528,39
7529,39
7530,39
7531,39
7532,39
7533,39
7534,39
7535,39
7536,39
7537,39
7538,39
7539,39
7540,39
7541,39
7542,39
7543,39
7544,39
7545,39
7546,39
7547,39
7548,39
7549,39
7550,39
7551,39
7552,39
7553,39
7554,40
7555,40
7556,40
7557,39
7558,39
7559,39
7560,39
7561,39
7562,39
7563,39
7564,39
7565,39
7566,39
7567,39
7568,39
7569,39
7570,39
7571,39
7572,39
7573,40
7574,40
7575,40
7576,40
7577,40
7578,40
7579,40
7580,40
7581,40
7582,40
7583,40
7584,40
7585,40
7586,40
7587,40
7588,40
7589,40
7590,40
7591,40
7592,40
7593,40
7594,41
7595,40
7596,40
7597,41
7598,41
7599,41
7600,41
7601,41
7602,41
7603,41
7604,41
7605,41
7606,41
7607,41
7608,41
7609,41
7610,41
7611,41
7612,41
7613,41
7614,41
7615,41
7616,40
7617,40
7618,40
7619,40
7620,40
7621,40
7622,40
7623,40
7624,41
7625,41
7626,40
7627,41
7628,41
7629,40
7630,40
7631,40
7632,40
7633,40
7634,40
7635,40
7636,40
7637,40
7638,40
7639,40
7640,40
7641,40
7642,40
7643,40
7644,40
7645,40
7646,40
7647,40
7648,40
7649,40
7650,40
7651,40
7652,40
7653,40
7654,40
7655,40
7656,40
7657,40
7658,40
7659,40
7660,40
7661,40
7662,40
7663,40
7664,40
7665,40
7666,40
7667,40
7668,40
7669,40
7670,40
7671,40
7672,40
7673,41
7674,40
7675,40
7676,40
7677,40
7678,40
7679,40
7680,40
7681,40
7682,40
7683,40
7684,40
7685,40
7686,40
7687,40
7688,40
7689,40
7690,40
7691,40
7692,40
7693,40
7694,40
7695,40
7696,40
7697,40
7698,40
7699,40
7700,40
7701,40
7702,40
7703,40
7704,40
7705,40
7706,40
7707,41
7708,40
7709,40
7710,40
7711,40
7712,40
7713,40
7714,40
7715,40
7716,40
7717,40
7718,40
7719,40
7720,40
7721,40
7722,40
7723,40
7724,40
7725,40
7726,40
7727,40
7728,39
7729,39
7730,39
7731,39
7732,39
7733,39
7734,39
7735,39
7736,39
7737,40
7738,39
7739,39
7740,39
7741,38
7742,38
7743,38
7744,37
7745,38
7746,38
7747,38
7748,38
7749,38
7750,38
7751,37
7752,37
7753,38
7754,38
7755,38
7756,37
7757,37
7758,37
7759,37
7760,37
7761,37
7762,37
7763,37
7764,37
7765,37
7766,37
7767,37
7768,37
7769,37
7770,37
7771,37
7772,37
7773,38
7774,37
7775,37
7776,37
7777,37
7778,38
7779,37
7780,37
7781,37
7782,37
7783,37
7784,37
7785,37
7786,37
7787,37
7788,37
7789,37
7790,37
7791,37
7792,37
7793,37
7794,37
7795,37
7796,37
7797,37
7798,37
7799,37
7800,37
7801,37
7802,37
7803,37
7804,37
7805,37
7806,37
7807,37
7808,37
7809,37
7810,37
7811,37
7812,37
7813,37
7814,37
7815,37
7816,37
7817,37
7818,37
7819,37
7820,37
7821,37
7822,37
7823,37
7824,37
7825,37
7826,37
7827,37
7828,37
7829,37
7830,37
7831,37
7832,37
7833,37
7834,37
7835,37
7836,37
7837,37
7838,37
7839,37
7840,37
7841,37
7842,37
7843,38
7844,38
7845,38
7846,38
7847,38
7848,38
7849,38
7850,37
7851,37
7852,36
7853,36
7854,36
7855,36
7856,36
7857,36
7858,36
7859,36
7860,36
7861,36
7862,37
7863,37
7864,37
7865,37
7866,37
7867,38
7868,38
7869,37
7870,37
7871,36
7872,36
7873,36
7874,36
7875,36
7876,36
7877,36
7878,36
7879,35
7880,35
7881,35
7882,35
7883,35
7884,35
7885,35
7886,35
7887,35
7888,35
7889,35
7890,35
7891,35
7892,35
7893,35
7894,35
7895,35
7896,35
7897,36
7898,36
7899,36
7900,37
7901,37
7902,37
7903,37
7904,37
7905,37
7906,37
7907,37
7908,37
7909,37
7910,37
7911,37
7912,36
7913,36
7914,36
7915,37
7916,37
7917,37
7918,37
7919,37
7920,37
7921,37
7922,37
7923,37
7924,37
7925,37
7926,36
7927,36
7928,36
7929,36
7930,36
7931,36
7932,36
7933,36
7934,36
7935,36
7936,36
7937,36
7938,36
7939,36
7940,36
7941,36
7942,36
7943,36
7944,36
7945,36
7946,36
7947,36
7948,36
7949,35
7950,35
7951,35
7952,35
7953,36
7954,35
7955,35
7956,35
7957,35
7958,35
7959,35
7960,35
7961,35
7962,35
7963,35
7964,35
7965,35
7966,36
7967,35
7968,35
7969,35
7970,35
7971,35
7972,36
7973,36
7974,36
7975,36
7976,36
7977,35
7978,35
7979,35
7980,35
7981,35
7982,35
7983,35
7984,35
7985,35
7986,35
7987,35
7988,35
7989,35
7990,35
7991,35
7992,35
7993,35
7994,35
7995,35
7996,35
7997,35
7998,35
7999,35
8000,35
8001,35
8002,35
8003,35
8004,35
8005,35
8006,35
8007,35
8008,35
8009,35
8010,35
8011,35
8012,35
8013,35
8014,35
8015,35
8016,35
8017,35
8018,35
8019,35
8020,35
8021,35
8022,36
8023,36
8024,36
8025,36
8026,36
8027,37
8028,37
8029,37
8030,37
8031,36
8032,36
8033,36
8034,36
8035,36
8036,36
8037,36
8038,35
8039,35
8040,35
8041,35
8042,35
8043,35
8044,35
8045,35
8046,35
8047,36
8048,36
8049,36
8050,37
8051,36
8052,36
8053,36
8054,36
8055,36
8056,36
8057,36
8058,36
8059,36
8060,36
8061,36
8062,36
8063,36
8064,36
8065,36
8066,36
8067,37
8068,36
8069,36
8070,36
8071,36
8072,36
8073,36
8074,36
8075,36
8076,36
8077,36
8078,36
8079,36
8080,36
8081,36
8082,36
8083,36
8084,36
8085,36
8086,36
8087,36
8088,36
8089,36
8090,36
8091,36
8092,36
8093,36
8094,36
8095,36
8096,36
8097,36
8098,37
8099,37
8100,37
8101,38
8102,37
8103,37
8104,37
8105,37
8106,37
8107,37
8108,37
8109,37
8110,37
8111,37
8112,37
8113,37
8114,37
8115,37
8116,37
8117,37
8118,38
8119,37
8120,38
8121,38
8122,38
8123,38
8124,38
8125,38
8126,38
8127,38
8128,38
8129,38
8130,38
8131,38
8132,38
8133,38
8134,38
8135,37
8136,37
8137,36
8138,36
8139,36
8140,36
8141,36
8142,36
8143,36
8144,36
8145,36
8146,36
8147,36
8148,36
8149,36
8150,36
8151,36
8152,36
8153,36
8154,36
8155,36
8156,36
8157,36
8158,36
8159,36
8160,36
8161,36
8162,36
8163,36
8164,36
8165,36
8166,36
8167,36
8168,36
8169,36
8170,36
8171,36
8172,36
8173,36
8174,36
8175,36
8176,36
8177,36
8178,36
8179,36
8180,36
8181,36
8182,36
8183,36
8184,36
8185,36
8186,35
8187,35
8188,35
8189,35
8190,35
8191,35
8192,35
8193,35
8194,35
8195,35
8196,35
8197,35
8198,35
8199,35
8200,35
8201,35
8202,35
8203,35
8204,35
8205,35
8206,35
8207,35
8208,35
8209,35
8210,35
8211,35
8212,35
8213,35
8214,36
8215,35
8216,35
8217,35
8218,35
8219,35
8220,35
8221,35
8222,35
8223,35
8224,36
8225,36
8226,36
8227,36
8228,35
8229,35
8230,35
8231,35
8232,35
8233,35
8234,35
8235,36
8236,36
8237,36
8238,36
8239,36
8240,36
8241,35
8242,35
8243,35
8244,35
8245,35
8246,35
8247,35
8248,35
8249,35
8250,35
8251,35
8252,36
8253,35
8254,35
8255,35
8256,35
8257,35
8258,35
8259,35
8260,35
8261,36
8262,35
8263,35
8264,35
8265,35
8266,35
8267,35
8268,35
8269,35
8270,35
8271,35
8272,35
8273,35
8274,35
8275,35
8276,35
8277,35
8278,35
8279,35
8280,36
8281,36
8282,35
8283,35
8284,35
8285,35
8286,35
8287,35
8288,36
8289,36
8290,35
8291,35
8292,36
8293,35
8294,35
8295,35
8296,35
8297,36
8298,36
8299,36
8300,36
8301,36
8302,37
8303,36
8304,36
8305,36
8306,36
8307,36
8308,36
8309,36
8310,36
8311,36
8312,36
8313,36
8314,36
8315,36
8316,36
8317,37
8318,37
8319,36
8320,36
8321,35
8322,35
8323,35
8324,35
8325,35
8326,35
8327,35
8328,35
8329,35
8330,35
8331,35
8332,35
8333,35
8334,35
8335,36
8336,35
8337,35
8338,35
8339,35
8340,35
8341,35
8342,35
8343,36
8344,35
8345,36
8346,36
8347,36
8348,36
8349,36
8350,35
8351,35
8352,35
8353,35
8354,35
8355,35
8356,36
8357,35
8358,35
8359,35
8360,35
8361,35
8362,35
8363,35
8364,35
8365,35
8366,35
8367,35
8368,35
8369,35
8370,35
8371,35
8372,35
8373,35
8374,35
8375,35
8376,35
8377,35
8378,35
8379,35
8380,35
8381,35
8382,35
8383,35
8384,35
8385,36
8386,36
8387,36
8388,36
8389,36
8390,36
8391,36
8392,36
8393,36
8394,36
8395,36
8396,36
8397,36
8398,36
8399,35
8400,35
8401,35
8402,35
8403,35
8404,36
8405,35
8406,36
8407,35
8408,36
8409,36
8410,36
8411,36
8412,36
8413,36
8414,37
8415,37
8416,37
8417,36
8418,36
8419,36
8420,36
8421,36
8422,37
8423,37
8424,37
8425,37
8426,37
8427,37
8428,37
8429,37
8430,37
8431,37
8432,37
8433,37
8434,38
8435,38
8436,37
8437,37
8438,37
8439,37
8440,37
8441,37
8442,37
8443,37
8444,37
8445,37
8446,36
8447,36
8448,36
8449,36
8450,36
8451,36
8452,36
8453,36
8454,36
8455,37
8456,36
8457,36
8458,36
8459,36
8460,36
8461,36
8462,35
8463,35
8464,35
8465,36
8466,36
8467,37
8468,36
8469,36
8470,35
8471,36
8472,36
8473,37
8474,36
8475,36
8476,36
8477,36
8478,36
8479,36
8480,36
8481,36
8482,36
8483,36
8484,36
8485,36
8486,36
8487,36
8488,36
8489,36
8490,36
8491,36
8492,36
8493,36
8494,36
8495,36
8496,36
8497,36
8498,36
8499,36
8500,36
8501,36
8502,36
8503,36
8504,36
8505,36
8506,36
8507,36
8508,36
8509,36
8510,36
8511,36
8512,36
8513,36
8514,36
8515,36
8516,37
8517,37
8518,37
8519,37
8520,37
8521,38
8522,38
8523,38
8524,39
8525,39
8526,39
8527,39
8528,39
8529,39
8530,39
8531,38
8532,38
8533,38
8534,38
8535,38
8536,38
8537,38
8538,38
8539,38
8540,38
8541,39
8542,39
8543,39
8544,39
8545,39
8546,38
8547,38
8548,38
8549,38
8550,38
8551,38
8552,38
8553,38
8554,38
8555,38
8556,38
8557,38
8558,38
8559,39
8560,39
8561,39
8562,39
8563,40
8564,41
8565,41
8566,40
8567,40
8568,40
8569,39
8570,39
8571,39
8572,39
8573,38
8574,38
8575,38
8576,38
8577,38
8578,38
8579,38
8580,38
8581,38
8582,38
8583,38
8584,38
8585,38
8586,38
8587,38
8588,38
8589,38
8590,38
8591,39
8592,38
8593,38
8594,38
8595,38
8596,38
8597,38
8598,38
8599,38
8600,38
8601,38
8602,38
8603,38
8604,38
8605,38
8606,38
8607,38
8608,38
8609,38
8610,37
8611,37
8612,37
8613,37
8614,37
8615,37
8616,37
8617,37
8618,37
8619,37
8620,37
8621,37
8622,37
8623,37
8624,37
8625,37
8626,37
8627,37
8628,37
8629,37
8630,37
8631,37
8632,37
8633,37
8634,37
8635,37
8636,37
8637,37
8638,37
8639,37
8640,37
8641,37
8642,37
8643,37
8644,37
8645,37
8646,37
8647,37
8648,38
8649,37
8650,37
8651,37
8652,36
8653,36
8654,36
8655,36
8656,36
8657,36
8658,36
8659,36
8660,36
8661,36
8662,36
8663,36
8664,36
8665,37
8666,36
8667,36
8668,36
8669,36
8670,36
8671,36
8672,36
8673,36
8674,36
8675,36
8676,36
8677,37
8678,37
8679,37
8680,37
8681,37
8682,37
8683,37
8684,37
8685,36
8686,36
8687,36
8688,36
8689,36
8690,36
8691,36
8692,36
8693,36
8694,36
8695,36
8696,36
8697,36
8698,36
8699,36
8700,36
8701,36
8702,37
8703,37
8704,36
8705,36
8706,36
8707,36
8708,36
8709,36
8710,36
8711,36
8712,36
8713,36
8714,36
8715,36
8716,36
8717,36
8718,36
8719,36
8720,36
8721,36
8722,37
8723,36
8724,36
8725,36
8726,36
8727,36
8728,36
8729,36
8730,36
8731,36
8732,36
8733,36
8734,36
8735,36
8736,36
8737,36
8738,36
8739,36
8740,36
8741,36
8742,36
8743,36
8744,36
8745,36
8746,37
8747,37
8748,37
8749,37
8750,37
8751,37
8752,37
8753,37
8754,37
8755,38
8756,38
8757,38
8758,38
8759,38
8760,38
8761,38
8762,37
8763,37
8764,37
8765,37
8766,37
8767,37
8768,37
8769,37
8770,37
8771,37
8772,38
8773,38
8774,37
8775,37
8776,37
8777,37
8778,37
8779,37
8780,37
8781,37
8782,36
8783,36
8784,36
8785,36
8786,36
8787,36
8788,37
8789,37
8790,37
8791,37
8792,37
8793,37
8794,37
8795,37
8796,37
8797,37
8798,37
8799,37
8800,37
8801,37
8802,37
8803,37
8804,37
8805,37
8806,37
8807,37
8808,37
8809,37
8810,37
8811,37
8812,37
8813,37
8814,37
8815,37
8816,37
8817,37
8818,37
8819,37
8820,37
8821,37
8822,37
8823,37
8824,37
8825,37
8826,37
8827,37
8828,37
8829,37
8830,37
8831,37
8832,37
8833,37
8834,37
8835,36
8836,36
8837,36
8838,36
8839,37
8840,38
8841,37
8842,37
8843,37
8844,37
8845,38
8846,38
8847,37
8848,37
8849,37
8850,37
8851,38
8852,38
8853,38
8854,38
8855,39
8856,38
8857,38
8858,38
8859,38
8860,39
8861,38
8862,38
8863,38
8864,38
8865,38
8866,38
8867,38
8868,38
8869,38
8870,38
8871,38
8872,38
8873,37
8874,37
8875,37
8876,37
8877,37
8878,37
8879,37
8880,37
8881,37
8882,37
8883,37
8884,37
8885,37
8886,37
8887,37
8888,37
8889,37
8890,38
8891,38
8892,37
8893,37
8894,38
8895,38
8896,38
8897,38
8898,38
8899,39
8900,38
8901,37
8902,37
8903,37
8904,37
8905,37
8906,37
8907,37
8908,37
8909,38
8910,37
8911,37
8912,37
8913,37
8914,37
8915,37
8916,37
8917,37
8918,37
8919,37
8920,37
8921,37
8922,37
8923,37
8924,37
8925,37
8926,37
8927,37
8928,37
8929,37
8930,37
8931,37
8932,37
8933,37
8934,37
8935,37
8936,37
8937,37
8938,38
8939,38
8940,38
8941,37
8942,37
8943,37
8944,37
8945,37
8946,37
8947,37
8948,37
8949,37
8950,37
8951,38
8952,37
8953,37
8954,37
8955,37
8956,37
8957,37
8958,37
8959,37
8960,37
8961,37
8962,37
8963,37
8964,37
8965,37
8966,37
8967,37
8968,37
8969,38
8970,38
8971,37
8972,37
8973,38
8974,37
8975,37
8976,37
8977,37
8978,37
8979,37
8980,37
8981,37
8982,37
8983,37
8984,37
8985,37
8986,37
8987,37
8988,37
8989,37
8990,37
8991,38
8992,38
8993,38
8994,38
8995,38
8996,38
8997,38
8998,38
8999,38
9000,38
9001,37
9002,38
9003,38
9004,38
9005,38
9006,38
9007,38
9008,38
9009,38
9010,38
9011,38
9012,38
9013,38
9014,38
9015,39
9016,39
9017,39
9018,39
9019,39
9020,39
9021,40
9022,39
9023,38
9024,38
9025,37
9026,37
9027,37
9028,37
9029,37
9030,37
9031,37
9032,37
9033,37
9034,37
9035,37
9036,37
9037,37
9038,37
9039,37
9040,37
9041,37
9042,37
9043,37
9044,37
9045,36
9046,36
9047,36
9048,36
9049,36
9050,36
9051,37
9052,37
9053,37
9054,37
9055,37
9056,37
9057,37
9058,37
9059,37
9060,37
9061,37
9062,37
9063,37
9064,37
9065,37
9066,37
9067,37
9068,37
9069,38
9070,37
9071,37
9072,37
9073,37
9074,37
9075,37
9076,37
9077,37
9078,37
9079,37
9080,37
9081,37
9082,37
9083,37
9084,37
9085,37
9086,38
9087,37
9088,37
9089,37
9090,37
9091,38
9092,38
9093,37
9094,37
9095,37
9096,37
9097,37
9098,38
9099,38
9100,39
9101,38
9102,38
9103,38
9104,38
9105,38
9106,38
9107,38
9108,38
9109,37
9110,37
9111,37
9112,38
9113,37
9114,37
9115,37
9116,37
9117,37
9118,37
9119,38
9120,38
9121,37
9122,37
9123,37
9124,37
9125,38
9126,38
9127,37
9128,37
9129,37
9130,37
9131,37
9132,37
9133,37
9134,37
9135,37
9136,37
9137,37
9138,37
9139,37
9140,37
9141,37
9142,37
9143,37
9144,37
9145,37
9146,38
9147,37
9148,37
9149,37
9150,37
9151,37
9152,37
9153,37
9154,37
9155,37
9156,37
9157,37
9158,37
9159,37
9160,37
9161,37
9162,37
9163,37
9164,37
9165,37
9166,37
9167,37
9168,37
9169,37
9170,37
9171,37
9172,37
9173,37
9174,37
9175,37
9176,38
9177,38
9178,37
9179,37
9180,37
9181,37
9182,38
9183,38
9184,37
9185,37
9186,37
9187,37
9188,37
9189,37
9190,37
9191,37
9192,37
9193,37
9194,37
9195,37
9196,38
9197,37
9198,37
9199,37
9200,37
9201,37
9202,37
9203,37
9204,37
9205,37
9206,36
9207,36
9208,36
9209,36
9210,36
9211,36
9212,36
9213,36
9214,36
9215,36
9216,36
9217,36
9218,37
9219,37
9220,37
9221,37
9222,37
9223,37
9224,37
9225,37
9226,37
9227,37
9228,37
9229,37
9230,37
9231,37
9232,37
9233,37
9234,37
9235,37
9236,37
9237,37
9238,37
9239,37
9240,37
9241,37
9242,37
9243,37
9244,37
9245,37
9246,37
9247,37
9248,37
9249,37
9250,38
9251,38
9252,37
9253,37
9254,37
9255,37
9256,37
9257,38
9258,38
9259,38
9260,38
9261,37
9262,37
9263,37
9264,37
9265,37
9266,37
9267,37
9268,37
9269,37
9270,37
9271,37
9272,37
9273,37
9274,37
9275,37
9276,37
9277,37
9278,37
9279,37
9280,37
9281,37
9282,37
9283,37
9284,37
9285,37
9286,37
9287,37
9288,37
9289,37
9290,37
9291,37
9292,37
9293,37
9294,37
9295,37
9296,37
9297,37
9298,37
9299,37
9300,37
9301,37
9302,37
9303,37
9304,37
9305,37
9306,37
9307,37
9308,37
9309,38
9310,37
9311,37
9312,37
9313,37
9314,37
9315,37
9316,37
9317,37
9318,37
9319,37
9320,37
9321,37
9322,37
9323,37
9324,37
9325,37
9326,37
9327,37
9328,37
9329,37
9330,37
9331,37
9332,38
9333,39
9334,39
9335,37
9336,37
9337,37
9338,37
9339,37
9340,37
9341,37
9342,38
9343,37
9344,38
9345,37
9346,37
9347,37
9348,37
9349,37
9350,38
9351,38
9352,38
9353,38
9354,39
9355,39
9356,38
9357,38
9358,38
9359,38
9360,38
9361,38
9362,38
9363,38
9364,38
9365,38
9366,38
9367,38
9368,38
9369,38
9370,38
9371,38
9372,38
9373,38
9374,38
9375,38
9376,38
9377,38
9378,38
9379,38
9380,38
9381,38
9382,38
9383,38
9384,38
9385,38
9386,38
9387,38
9388,38
9389,38
9390,38
9391,38
9392,38
9393,39
9394,39
9395,39
9396,39
9397,39
9398,39
9399