1,3
2,3
3,3
4,4
5,5
6,4
7,4
8,5
9,5
10,5
11,4
12,4
13,5
14,5
15,4
16,4
17,4
18,4
19,4
20,4
21,4
22,4
23,4
24,4
25,4
26,4
27,4
28,4
29,4
30,4
31,4
32,4
33,4
34,4
35,4
36,4
37,4
38,4
39,4
40,5
41,6
42,6
43,6
44,6
45,6
46,6
47,6
48,6
49,6
50,7
51,7
52,7
53,7
54,7
55,7
56,7
57,7
58,7
59,7
60,8
61,8
62,8
63,8
64,8
65,8
66,8
67,8
68,9
69,8
70,8
71,8
72,8
73,8
74,8
75,8
76,8
77,8
78,8
79,8
80,8
81,8
82,8
83,8
84,8
85,8
86,8
87,8
88,8
89,8
90,8
91,8
92,8
93,8
94,8
95,8
96,8
97,8
98,8
99,8
100,8
101,8
102,8
103,9
104,8
105,8
106,8
107,8
108,8
109,8
110,8
111,8
112,8
113,8
114,8
115,8
116,8
117,8
118,8
119,8
120,8
121,8
122,8
123,9
124,9
125,9
126,9
127,8
128,8
129,8
130,8
131,8
132,8
133,8
134,8
135,8
136,9
137,8
138,8
139,8
140,8
141,9
142,9
143,8
144,8
145,8
146,8
147,8
148,8
149,8
150,8
151,8
152,8
153,8
154,8
155,8
156,8
157,8
158,8
159,8
160,8
161,8
162,8
163,8
164,9
165,9
166,9
167,9
168,9
169,9
170,9
171,9
172,9
173,9
174,9
175,9
176,9
177,9
178,9
179,9
180,9
181,9
182,9
183,9
184,9
185,9
186,9
187,9
188,9
189,9
190,9
191,9
192,9
193,9
194,10
195,9
196,9
197,9
198,9
199,9
200,9
201,9
202,9
203,9
204,9
205,9
206,9
207,9
208,9
209,9
210,9
211,9
212,9
213,9
214,9
215,9
216,9
217,9
218,9
219,9
220,9
221,9
222,9
223,9
224,9
225,9
226,9
227,9
228,9
229,9
230,9
231,9
232,9
233,9
234,9
235,9
236,9
237,9
238,9
239,9
240,10
241,9
242,9
243,9
244,9
245,9
246,9
247,10
248,9
249,9
250,9
251,9
252,9
253,9
254,9
255,9
256,9
257,9
258,9
259,9
260,9
261,9
262,9
263,10
264,10
265,9
266,9
267,9
268,10
269,10
270,9
271,9
272,9
273,9
274,9
275,9
276,9
277,10
278,9
279,9
280,9
281,9
282,10
283,10
284,10
285,10
286,10
287,10
288,10
289,10
290,10
291,10
292,11
293,11
294,11
295,11
296,12
297,12
298,12
299,11
300,11
301,11
302,11
303,11
304,11
305,11
306,11
307,11
308,12
309,12
310,11
311,12
312,11
313,11
314,11
315,11
316,11
317,11
318,11
319,11
320,11
321,12
322,12
323,12
324,12
325,11
326,11
327,11
328,11
329,11
330,11
331,11
332,11
333,11
334,12
335,12
336,12
337,12
338,12
339,12
340,12
341,12
342,12
343,12
344,12
345,12
346,13
347,13
348,13
349,13
350,13
351,13
352,12
353,12
354,12
355,12
356,13
357,12
358,12
359,12
360,12
361,12
362,13
363,14
364,13
365,13
366,13
367,13
368,12
369,12
370,12
371,12
372,12
373,12
374,12
375,12
376,12
377,12
378,12
379,12
380,12
381,12
382,12
383,12
384,12
385,12
386,12
387,12
388,12
389,12
390,12
391,12
392,12
393,12
394,12
395,12
396,12
397,13
398,13
399,13
400,13
401,12
402,12
403,12
404,12
405,12
406,12
407,12
408,13
409,13
410,13
411,13
412,13
413,13
414,13
415,13
416,13
417,13
418,13
419,13
420,13
421,13
422,13
423,13
424,13
425,13
426,13
427,13
428,13
429,13
430,13
431,13
432,14
433,13
434,13
435,13
436,13
437,13
438,14
439,13
440,13
441,13
442,13
443,13
444,13
445,13
446,13
447,13
448,13
449,13
450,13
451,13
452,13
453,13
454,13
455,13
456,13
457,13
458,13
459,13
460,13
461,13
462,13
463,13
464,13
465,13
466,13
467,13
468,14
469,14
470,14
471,15
472,15
473,15
474,15
475,15
476,16
477,16
478,16
479,16
480,16
481,16
482,16
483,16
484,16
485,16
486,16
487,16
488,16
489,16
490,16
491,16
492,16
493,16
494,16
495,16
496,17
497,16
498,17
499,16
500,16
501,17
502,17
503,18
504,18
505,18
506,18
507,17
508,18
509,17
510,17
511,17
512,17
513,17
514,17
515,16
516,17
517,17
518,17
519,17
520,17
521,17
522,17
523,17
524,16
525,16
526,16
527,16
528,16
529,16
530,16
531,16
532,16
533,16
534,16
535,16
536,16
537,16
538,16
539,17
540,16
541,16
542,16
543,16
544,16
545,16
546,16
547,16
548,16
549,16
550,16
551,16
552,16
553,16
554,16
555,16
556,16
557,16
558,17
559,17
560,17
561,17
562,17
563,18
564,17
565,17
566,17
567,17
568,17
569,17
570,17
571,17
572,17
573,17
574,17
575,18
576,18
577,18
578,18
579,17
580,17
581,17
582,17
583,17
584,17
585,17
586,17
587,17
588,17
589,17
590,17
591,17
592,17
593,17
594,17
595,17
596,18
597,18
598,18
599,18
600,18
601,18
602,18
603,18
604,18
605,18
606,18
607,18
608,18
609,18
610,18
611,18
612,18
613,18
614,18
615,18
616,18
617,18
618,18
619,18
620,18
621,18
622,19
623,18
624,18
625,18
626,19
627,18
628,18
629,18
630,19
631,18
632,18
633,18
634,18
635,18
636,18
637,18
638,18
639,18
640,18
641,18
642,18
643,19
644,19
645,18
646,18
647,18
648,18
649,18
650,18
651,18
652,18
653,18
654,18
655,18
656,19
657,18
658,18
659,18
660,18
661,18
662,18
663,18
664,18
665,18
666,18
667,18
668,18
669,18
670,18
671,18
672,18
673,18
674,18
675,19
676,19
677,19
678,19
679,19
680,19
681,19
682,20
683,20
684,20
685,19
686,19
687,19
688,19
689,19
690,19
691,19
692,19
693,19
694,19
695,19
696,20
697,20
698,19
699,19
700,19
701,20
702,19
703,19
704,18
705,18
706,18
707,18
708,18
709,18
710,18
711,18
712,18
713,19
714,19
715,19
716,19
717,19
718,19
719,19
720,19
721,19
722,19
723,19
724,19
725,19
726,19
727,19
728,20
729,20
730,19
731,19
732,19
733,19
734,19
735,19
736,19
737,19
738,19
739,19
740,19
741,19
742,19
743,19
744,19
745,19
746,19
747,20
748,20
749,20
750,21
751,21
752,21
753,21
754,21
755,21
756,21
757,19
758,19
759,19
760,19
761,19
762,19
763,19
764,19
765,19
766,19
767,19
768,19
769,19
770,19
771,19
772,19
773,19
774,19
775,19
776,19
777,19
778,19
779,20
780,20
781,20
782,20
783,20
784,20
785,20
786,20
787,19
788,19
789,19
790,19
791,19
792,19
793,19
794,19
795,19
796,19
797,19
798,19
799,19
800,19
801,19
802,19
803,19
804,19
805,19
806,19
807,19
808,19
809,19
810,19
811,19
812,19
813,19
814,19
815,19
816,19
817,19
818,19
819,19
820,19
821,19
822,19
823,19
824,19
825,19
826,19
827,19
828,19
829,19
830,20
831,20
832,20
833,20
834,20
835,20
836,20
837,19
838,19
839,19
840,19
841,20
842,20
843,19
844,19
845,19
846,19
847,19
848,19
849,20
850,20
851,20
852,20
853,20
854,20
855,20
856,20
857,20
858,20
859,20
860,19
861,19
862,19
863,19
864,19
865,19
866,19
867,19
868,19
869,19
870,19
871,19
872,19
873,19
874,19
875,19
876,19
877,19
878,19
879,19
880,19
881,19
882,19
883,19
884,19
885,19
886,19
887,19
888,19
889,19
890,19
891,19
892,19
893,19
894,19
895,19
896,19
897,19
898,19
899,19
900,20
901,20
902,19
903,19
904,20
905,19
906,19
907,19
908,19
909,19
910,19
911,19
912,19
913,19
914,19
915,19
916,20
917,20
918,20
919,19
920,19
921,19
922,19
923,19
924,19
925,19
926,19
927,19
928,19
929,19
930,19
931,19
932,19
933,19
934,19
935,19
936,19
937,19
938,19
939,19
940,21
941,20
942,20
943,21
944,21
945,21
946,21
947,21
948,21
949,21
950,21
951,22
952,22
953,22
954,22
955,22
956,22
957,22
958,22
959,22
960,23
961,23
962,23
963,23
964,23
965,23
966,23
967,23
968,24
969,23
970,23
971,23
972,23
973,23
974,23
975,23
976,23
977,23
978,24
979,23
980,23
981,24
982,23
983,23
984,23
985,23
986,23
987,23
988,23
989,23
990,23
991,24
992,23
993,23
994,23
995,23
996,23
997,23
998,23
999,23
1000,23
1001,24
1002,24
1003,24
1004,24
1005,24
1006,24
1007,23
1008,23
1009,23
1010,23
1011,23
1012,23
1013,23
1014,24
1015,24
1016,24
1017,24
1018,24
1019,24
1020,25
1021,24
1022,24
1023,24
1024,25
1025,24
1026,25
1027,25
1028,26
1029,26
1030,25
1031,25
1032,25
1033,25
1034,25
1035,25
1036,25
1037,25
1038,25
1039,25
1040,25
1041,25
1042,25
1043,25
1044,27
1045,26
1046,25
1047,25
1048,25
1049,25
1050,25
1051,25
1052,25
1053,25
1054,25
1055,25
1056,25
1057,25
1058,25
1059,25
1060,25
1061,25
1062,25
1063,25
1064,25
1065,25
1066,25
1067,25
1068,25
1069,25
1070,25
1071,25
1072,25
1073,25
1074,25
1075,25
1076,25
1077,25
1078,25
1079,25
1080,25
1081,25
1082,25
1083,25
1084,26
1085,25
1086,25
1087,26
1088,26
1089,26
1090,26
1091,27
1092,27
1093,27
1094,27
1095,26
1096,26
1097,26
1098,25
1099,25
1100,25
1101,25
1102,25
1103,25
1104,25
1105,25
1106,25
1107,25
1108,26
1109,26
1110,26
1111,26
1112,26
1113,26
1114,26
1115,26
1116,26
1117,26
1118,27
1119,27
1120,27
1121,26
1122,26
1123,26
1124,26
1125,26
1126,27
1127,27
1128,28
1129,28
1130,29
1131,29
1132,28
1133,28
1134,27
1135,28
1136,28
1137,28
1138,27
1139,27
1140,27
1141,28
1142,28
1143,28
1144,27
1145,27
1146,27
1147,27
1148,27
1149,27
1150,27
1151,27
1152,27
1153,27
1154,27
1155,28
1156,27
1157,27
1158,27
1159,27
1160,27
1161,27
1162,26
1163,26
1164,26
1165,26
1166,26
1167,26
1168,26
1169,26
1170,26
1171,26
1172,26
1173,26
1174,26
1175,26
1176,26
1177,26
1178,26
1179,27
1180,27
1181,26
1182,26
1183,26
1184,26
1185,26
1186,26
1187,26
1188,26
1189,27
1190,27
1191,26
1192,26
1193,26
1194,26
1195,26
1196,26
1197,26
1198,26
1199,26
1200,26
1201,26
1202,26
1203,26
1204,26
1205,26
1206,26
1207,26
1208,26
1209,26
1210,26
1211,26
1212,26
1213,26
1214,26
1215,26
1216,26
1217,26
1218,26
1219,26
1220,26
1221,26
1222,26
1223,26
1224,26
1225,26
1226,26
1227,26
1228,26
1229,26
1230,26
1231,26
1232,26
1233,26
1234,26
1235,26
1236,26
1237,26
1238,26
1239,26
1240,26
1241,26
1242,26
1243,26
1244,26
1245,26
1246,26
1247,26
1248,26
1249,26
1250,26
1251,27
1252,26
1253,27
1254,27
1255,27
1256,27
1257,27
1258,26
1259,26
1260,26
1261,26
1262,26
1263,26
1264,26
1265,27
1266,26
1267,26
1268,26
1269,26
1270,26
1271,26
1272,26
1273,26
1274,26
1275,26
1276,26
1277,26
1278,26
1279,26
1280,26
1281,26
1282,26
1283,26
1284,26
1285,26
1286,26
1287,26
1288,26
1289,26
1290,26
1291,26
1292,26
1293,26
1294,27
1295,27
1296,27
1297,27
1298,27
1299,27
1300,27
1301,27
1302,27
1303,27
1304,27
1305,27
1306,27
1307,27
1308,27
1309,28
1310,28
1311,27
1312,27
1313,27
1314,27
1315,27
1316,27
1317,27
1318,28
1319,28
1320,28
1321,28
1322,28
1323,28
1324,27
1325,27
1326,27
1327,27
1328,27
1329,27
1330,27
1331,28
1332,27
1333,27
1334,27
1335,27
1336,27
1337,27
1338,28
1339,27
1340,27
1341,28
1342,28
1343,28
1344,28
1345,28
1346,28
1347,28
1348,28
1349,28
1350,28
1351,28
1352,28
1353,27
1354,27
1355,27
1356,27
1357,28
1358,28
1359,28
1360,27
1361,27
1362,27
1363,27
1364,27
1365,27
1366,27
1367,27
1368,27
1369,27
1370,27
1371,27
1372,27
1373,27
1374,27
1375,27
1376,27
1377,27
1378,27
1379,27
1380,27
1381,27
1382,27
1383,27
1384,27
1385,27
1386,27
1387,27
1388,27
1389,27
1390,27
1391,27
1392,27
1393,27
1394,27
1395,27
1396,27
1397,27
1398,27
1399,27
1400,27
1401,27
1402,27
1403,27
1404,27
1405,27
1406,27
1407,27
1408,27
1409,27
1410,27
1411,27
1412,27
1413,27
1414,27
1415,27
1416,27
1417,27
1418,27
1419,27
1420,27
1421,27
1422,27
1423,27
1424,27
1425,27
1426,28
1427,28
1428,28
1429,28
1430,27
1431,27
1432,27
1433,27
1434,27
1435,27
1436,27
1437,27
1438,27
1439,27
1440,27
1441,27
1442,27
1443,27
1444,27
1445,27
1446,27
1447,27
1448,27
1449,27
1450,27
1451,27
1452,27
1453,28
1454,28
1455,27
1456,27
1457,27
1458,28
1459,27
1460,27
1461,27
1462,27
1463,27
1464,27
1465,27
1466,27
1467,27
1468,27
1469,27
1470,27
1471,27
1472,27
1473,28
1474,28
1475,27
1476,28
1477,27
1478,27
1479,28
1480,28
1481,28
1482,28
1483,28
1484,27
1485,27
1486,27
1487,27
1488,27
1489,27
1490,27
1491,27
1492,27
1493,27
1494,27
1495,27
1496,28
1497,27
1498,27
1499,27
1500,27
1501,27
1502,27
1503,27
1504,27
1505,27
1506,27
1507,27
1508,27
1509,27
1510,27
1511,27
1512,27
1513,27
1514,27
1515,27
1516,27
1517,27
1518,27
1519,27
1520,27
1521,27
1522,27
1523,27
1524,27
1525,27
1526,27
1527,27
1528,27
1529,28
1530,27
1531,27
1532,28
1533,27
1534,27
1535,27
1536,27
1537,27
1538,27
1539,27
1540,27
1541,27
1542,27
1543,27
1544,27
1545,27
1546,27
1547,28
1548,28
1549,27
1550,27
1551,27
1552,27
1553,27
1554,27
1555,27
1556,27
1557,27
1558,28
1559,27
1560,27
1561,27
1562,28
1563,28
1564,28
1565,28
1566,28
1567,28
1568,28
1569,28
1570,28
1571,28
1572,28
1573,28
1574,27
1575,27
1576,27
1577,27
1578,27
1579,27
1580,27
1581,27
1582,27
1583,27
1584,27
1585,27
1586,27
1587,27
1588,27
1589,27
1590,27
1591,27
1592,27
1593,27
1594,27
1595,27
1596,27
1597,27
1598,27
1599,27
1600,27
1601,27
1602,27
1603,27
1604,27
1605,27
1606,27
1607,27
1608,27
1609,28
1610,27
1611,27
1612,27
1613,27
1614,28
1615,28
1616,28
1617,28
1618,28
1619,28
1620,28
1621,27
1622,27
1623,27
1624,27
1625,27
1626,27
1627,27
1628,27
1629,27
1630,27
1631,27
1632,27
1633,27
1634,27
1635,27
1636,27
1637,27
1638,27
1639,27
1640,27
1641,27
1642,27
1643,27
1644,27
1645,27
1646,27
1647,27
1648,28
1649,28
1650,28
1651,28
1652,28
1653,28
1654,29
1655,29
1656,29
1657,29
1658,28
1659,28
1660,28
1661,28
1662,28
1663,28
1664,28
1665,28
1666,28
1667,28
1668,28
1669,28
1670,28
1671,28
1672,28
1673,28
1674,28
1675,28
1676,28
1677,28
1678,28
1679,28
1680,28
1681,28
1682,28
1683,28
1684,28
1685,28
1686,28
1687,28
1688,28
1689,28
1690,28
1691,28
1692,28
1693,28
1694,29
1695,29
1696,29
1697,29
1698,28
1699,28
1700,28
1701,28
1702,28
1703,28
1704,28
1705,28
1706,28
1707,28
1708,28
1709,28
1710,28
1711,29
1712,29
1713,29
1714,29
1715,29
1716,29
1717,29
1718,29
1719,29
1720,29
1721,29
1722,29
1723,29
1724,29
1725,29
1726,29
1727,29
1728,29
1729,28
1730,28
1731,28
1732,28
1733,28
1734,28
1735,28
1736,28
1737,28
1738,28
1739,28
1740,28
1741,28
1742,28
1743,28
1744,29
1745,28
1746,28
1747,28
1748,28
1749,28
1750,28
1751,28
1752,28
1753,28
1754,28
1755,28
1756,28
1757,28
1758,28
1759,28
1760,28
1761,28
1762,28
1763,28
1764,28
1765,28
1766,29
1767,29
1768,29
1769,29
1770,29
1771,29
1772,28
1773,28
1774,28
1775,28
1776,28
1777,28
1778,28
1779,28
1780,28
1781,28
1782,28
1783,28
1784,28
1785,28
1786,28
1787,28
1788,28
1789,29
1790,29
1791,29
1792,28
1793,28
1794,28
1795,28
1796,28
1797,28
1798,28
1799,28
1800,28
1801,28
1802,28
1803,28
1804,29
1805,28
1806,28
1807,28
1808,28
1809,29
1810,29
1811,30
1812,30
1813,30
1814,29
1815,29
1816,29
1817,30
1818,29
1819,29
1820,29
1821,30
1822,30
1823,30
1824,29
1825,29
1826,29
1827,29
1828,29
1829,29
1830,29
1831,29
1832,29
1833,29
1834,29
1835,29
1836,29
1837,29
1838,29
1839,29
1840,29
1841,29
1842,29
1843,29
1844,29
1845,29
1846,29
1847,29
1848,29
1849,28
1850,28
1851,28
1852,28
1853,28
1854,28
1855,29
1856,29
1857,29
1858,28
1859,28
1860,28
1861,28
1862,28
1863,28
1864,28
1865,28
1866,28
1867,28
1868,28
1869,28
1870,28
1871,28
1872,28
1873,28
1874,28
1875,28
1876,28
1877,28
1878,28
1879,28
1880,28
1881,28
1882,28
1883,28
1884,28
1885,28
1886,28
1887,28
1888,28
1889,28
1890,28
1891,28
1892,28
1893,28
1894,28
1895,28
1896,28
1897,28
1898,28
1899,28
1900,28
1901,28
1902,28
1903,28
1904,28
1905,28
1906,28
1907,28
1908,28
1909,28
1910,28
1911,28
1912,28
1913,28
1914,28
1915,28
1916,28
1917,28
1918,28
1919,28
1920,28
1921,28
1922,28
1923,28
1924,28
1925,28
1926,28
1927,28
1928,28
1929,28
1930,28
1931,28
1932,28
1933,28
1934,28
1935,28
1936,28
1937,28
1938,28
1939,28
1940,28
1941,28
1942,28
1943,28
1944,28
1945,28
1946,28
1947,28
1948,28
1949,28
1950,28
1951,28
1952,28
1953,28
1954,28
1955,28
1956,28
1957,28
1958,28
1959,28
1960,28
1961,29
1962,29
1963,28
1964,28
1965,28
1966,28
1967,28
1968,28
1969,29
1970,29
1971,29
1972,28
1973,28
1974,28
1975,28
1976,28
1977,28
1978,28
1979,28
1980,28
1981,28
1982,28
1983,29
1984,28
1985,28
1986,28
1987,28
1988,28
1989,28
1990,28
1991,28
1992,28
1993,28
1994,28
1995,28
1996,28
1997,28
1998,28
1999,28
2000,28
2001,28
2002,28
2003,28
2004,28
2005,28
2006,28
2007,28
2008,28
2009,28
2010,28
2011,28
2012,28
2013,28
2014,28
2015,28
2016,28
2017,28
2018,28
2019,28
2020,28
2021,28
2022,28
2023,28
2024,28
2025,28
2026,28
2027,28
2028,28
2029,28
2030,28
2031,28
2032,28
2033,28
2034,28
2035,28
2036,28
2037,28
2038,28
2039,28
2040,28
2041,28
2042,28
2043,28
2044,28
2045,28
2046,28
2047,29
2048,29
2049,29
2050,29
2051,28
2052,28
2053,28
2054,28
2055,29
2056,28
2057,28
2058,28
2059,28
2060,29
2061,29
2062,29
2063,28
2064,28
2065,29
2066,28
2067,28
2068,28
2069,29
2070,28
2071,28
2072,28
2073,28
2074,28
2075,28
2076,28
2077,28
2078,28
2079,28
2080,28
2081,28
2082,28
2083,28
2084,28
2085,28
2086,28
2087,28
2088,28
2089,28
2090,28
2091,28
2092,28
2093,28
2094,28
2095,28
2096,28
2097,28
2098,28
2099,28
2100,28
2101,28
2102,28
2103,28
2104,28
2105,28
2106,28
2107,28
2108,28
2109,29
2110,29
2111,29
2112,29
2113,29
2114,28
2115,28
2116,28
2117,28
2118,28
2119,28
2120,28
2121,28
2122,28
2123,28
2124,28
2125,28
2126,28
2127,28
2128,28
2129,29
2130,29
2131,29
2132,29
2133,29
2134,29
2135,29
2136,30
2137,29
2138,28
2139,28
2140,28
2141,28
2142,28
2143,28
2144,28
2145,28
2146,28
2147,28
2148,28
2149,28
2150,28
2151,28
2152,28
2153,28
2154,28
2155,28
2156,28
2157,28
2158,28
2159,28
2160,28
2161,28
2162,28
2163,28
2164,28
2165,28
2166,28
2167,28
2168,28
2169,28
2170,28
2171,28
2172,28
2173,28
2174,28
2175,28
2176,28
2177,28
2178,28
2179,28
2180,28
2181,28
2182,28
2183,28
2184,28
2185,28
2186,28
2187,28
2188,28
2189,28
2190,28
2191,28
2192,28
2193,28
2194,28
2195,28
2196,28
2197,28
2198,28
2199,28
2200,28
2201,28
2202,28
2203,28
2204,28
2205,28
2206,28
2207,28
2208,28
2209,28
2210,28
2211,29
2212,29
2213,29
2214,29
2215,29
2216,30
2217,30
2218,29
2219,29
2220,29
2221,29
2222,29
2223,29
2224,29
2225,29
2226,29
2227,30
2228,30
2229,29
2230,29
2231,29
2232,29
2233,29
2234,29
2235,29
2236,29
2237,29
2238,29
2239,29
2240,29
2241,29
2242,29
2243,29
2244,29
2245,29
2246,29
2247,29
2248,29
2249,29
2250,29
2251,29
2252,29
2253,29
2254,29
2255,29
2256,29
2257,29
2258,29
2259,29
2260,30
2261,30
2262,30
2263,30
2264,30
2265,30
2266,30
2267,30
2268,30
2269,30
2270,29
2271,29
2272,29
2273,29
2274,29
2275,29
2276,29
2277,29
2278,29
2279,29
2280,29
2281,29
2282,29
2283,29
2284,29
2285,30
2286,29
2287,29
2288,29
2289,29
2290,29
2291,29
2292,29
2293,29
2294,29
2295,29
2296,29
2297,29
2298,29
2299,29
2300,29
2301,29
2302,29
2303,29
2304,29
2305,29
2306,29
2307,29
2308,29
2309,29
2310,29
2311,29
2312,29
2313,29
2314,29
2315,29
2316,29
2317,29
2318,29
2319,29
2320,29
2321,29
2322,29
2323,29
2324,29
2325,29
2326,30
2327,30
2328,30
2329,30
2330,30
2331,30
2332,30
2333,30
2334,30
2335,30
2336,30
2337,30
2338,30
2339,30
2340,30
2341,30
2342,31
2343,31
2344,30
2345,30
2346,30
2347,30
2348,30
2349,30
2350,30
2351,29
2352,29
2353,29
2354,29
2355,29
2356,29
2357,29
2358,29
2359,29
2360,29
2361,29
2362,29
2363,29
2364,29
2365,29
2366,29
2367,29
2368,29
2369,30
2370,30
2371,30
2372,30
2373,30
2374,30
2375,29
2376,29
2377,29
2378,29
2379,29
2380,29
2381,29
2382,29
2383,29
2384,29
2385,29
2386,29
2387,29
2388,29
2389,29
2390,29
2391,29
2392,29
2393,29
2394,29
2395,29
2396,29
2397,29
2398,29
2399,29
2400,29
2401,29
2402,29
2403,29
2404,29
2405,29
2406,29
2407,29
2408,29
2409,29
2410,29
2411,29
2412,29
2413,29
2414,29
2415,29
2416,29
2417,29
2418,29
2419,29
2420,29
2421,29
2422,29
2423,29
2424,29
2425,29
2426,29
2427,29
2428,29
2429,30
2430,30
2431,30
2432,30
2433,30
2434,30
2435,30
2436,30
2437,31
2438,31
2439,32
2440,32
2441,32
2442,32
2443,32
2444,32
2445,32
2446,32
2447,33
2448,32
2449,30
2450,30
2451,30
2452,30
2453,29
2454,29
2455,29
2456,29
2457,29
2458,29
2459,29
2460,29
2461,29
2462,29
2463,29
2464,30
2465,29
2466,29
2467,29
2468,29
2469,30
2470,30
2471,29
2472,29
2473,30
2474,30
2475,30
2476,29
2477,29
2478,29
2479,29
2480,29
2481,29
2482,29
2483,29
2484,29
2485,29
2486,29
2487,29
2488,29
2489,29
2490,29
2491,29
2492,29
2493,29
2494,29
2495,29
2496,29
2497,29
2498,29
2499,29
2500,29
2501,29
2502,29
2503,29
2504,29
2505,29
2506,29
2507,29
2508,29
2509,29
2510,29
2511,29
2512,29
2513,29
2514,29
2515,29
2516,29
2517,29
2518,29
2519,29
2520,29
2521,29
2522,29
2523,29
2524,29
2525,29
2526,30
2527,30
2528,30
2529,29
2530,29
2531,29
2532,29
2533,29
2534,29
2535,29
2536,29
2537,29
2538,29
2539,29
2540,29
2541,29
2542,29
2543,29
2544,29
2545,29
2546,29
2547,29
2548,29
2549,29
2550,29
2551,29
2552,29
2553,29
2554,30
2555,30
2556,30
2557,29
2558,29
2559,29
2560,29
2561,29
2562,29
2563,29
2564,29
2565,29
2566,29
2567,29
2568,29
2569,29
2570,29
2571,29
2572,29
2573,29
2574,29
2575,29
2576,31
2577,32
2578,32
2579,31
2580,31
2581,31
2582,31
2583,31
2584,31
2585,31
2586,31
2587,31
2588,31
2589,31
2590,31
2591,31
2592,31
2593,31
2594,31
2595,32
2596,32
2597,31
2598,31
2599,31
2600,31
2601,31
2602,31
2603,31
2604,31
2605,32
2606,31
2607,31
2608,31
2609,31
2610,31
2611,31
2612,31
2613,31
2614,31
2615,31
2616,31
2617,31
2618,31
2619,31
2620,31
2621,31
2622,31
2623,32
2624,31
2625,31
2626,31
2627,31
2628,31
2629,32
2630,31
2631,31
2632,31
2633,31
2634,31
2635,31
2636,31
2637,31
2638,31
2639,31
2640,31
2641,31
2642,31
2643,31
2644,32
2645,32
2646,32
2647,31
2648,32
2649,31
2650,31
2651,31
2652,31
2653,31
2654,31
2655,31
2656,31
2657,32
2658,31
2659,31
2660,31
2661,31
2662,31
2663,31
2664,31
2665,31
2666,31
2667,31
2668,31
2669,31
2670,32
2671,31
2672,31
2673,31
2674,31
2675,31
2676,32
2677,33
2678,32
2679,32
2680,32
2681,32
2682,31
2683,31
2684,31
2685,31
2686,31
2687,31
2688,31
2689,31
2690,31
2691,31
2692,31
2693,31
2694,31
2695,31
2696,31
2697,31
2698,31
2699,32
2700,32
2701,32
2702,31
2703,31
2704,31
2705,31
2706,31
2707,31
2708,31
2709,31
2710,31
2711,31
2712,31
2713,31
2714,31
2715,31
2716,31
2717,31
2718,31
2719,31
2720,31
2721,31
2722,31
2723,31
2724,31
2725,31
2726,31
2727,31
2728,31
2729,31
2730,32
2731,32
2732,32
2733,31
2734,31
2735,31
2736,31
2737,31
2738,32
2739,32
2740,32
2741,31
2742,31
2743,31
2744,31
2745,31
2746,31
2747,31
2748,31
2749,31
2750,31
2751,32
2752,32
2753,32
2754,32
2755,32
2756,32
2757,32
2758,32
2759,32
2760,32
2761,31
2762,31
2763,31
2764,31
2765,31
2766,31
2767,31
2768,31
2769,31
2770,31
2771,31
2772,32
2773,33
2774,31
2775,31
2776,31
2777,31
2778,31
2779,31
2780,31
2781,31
2782,31
2783,31
2784,31
2785,31
2786,31
2787,32
2788,31
2789,31
2790,31
2791,31
2792,31
2793,31
2794,31
2795,31
2796,31
2797,31
2798,31
2799,31
2800,31
2801,31
2802,31
2803,31
2804,31
2805,32
2806,32
2807,32
2808,31
2809,31
2810,31
2811,31
2812,31
2813,31
2814,31
2815,31
2816,31
2817,33
2818,32
2819,33
2820,33
2821,32
2822,32
2823,31
2824,31
2825,31
2826,32
2827,33
2828,31
2829,31
2830,31
2831,31
2832,31
2833,31
2834,31
2835,31
2836,31
2837,31
2838,31
2839,31
2840,31
2841,31
2842,31
2843,31
2844,31
2845,31
2846,31
2847,31
2848,31
2849,32
2850,32
2851,31
2852,31
2853,31
2854,31
2855,31
2856,31
2857,31
2858,31
2859,31
2860,31
2861,31
2862,31
2863,31
2864,31
2865,31
2866,31
2867,32
2868,32
2869,32
2870,33
2871,32
2872,32
2873,32
2874,32
2875,32
2876,31
2877,31
2878,31
2879,32
2880,31
2881,31
2882,31
2883,31
2884,31
2885,32
2886,32
2887,31
2888,31
2889,31
2890,31
2891,31
2892,31
2893,31
2894,31
2895,31
2896,31
2897,31
2898,31
2899,31
2900,31
2901,31
2902,31
2903,31
2904,31
2905,31
2906,31
2907,31
2908,32
2909,31
2910,31
2911,31
2912,31
2913,31
2914,31
2915,31
2916,31
2917,31
2918,31
2919,31
2920,31
2921,32
2922,32
2923,32
2924,31
2925,31
2926,32
2927,31
2928,31
2929,31
2930,31
2931,31
2932,31
2933,31
2934,31
2935,31
2936,31
2937,31
2938,31
2939,31
2940,31
2941,31
2942,31
2943,31
2944,31
2945,31
2946,31
2947,31
2948,31
2949,31
2950,31
2951,31
2952,31
2953,31
2954,31
2955,31
2956,31
2957,31
2958,31
2959,31
2960,31
2961,31
2962,31
2963,32
2964,31
2965,31
2966,31
2967,31
2968,31
2969,32
2970,31
2971,31
2972,31
2973,31
2974,31
2975,31
2976,31
2977,31
2978,31
2979,31
2980,31
2981,31
2982,31
2983,31
2984,31
2985,31
2986,31
2987,31
2988,31
2989,31
2990,31
2991,31
2992,32
2993,32
2994,33
2995,33
2996,31
2997,31
2998,31
2999,31
3000,31
3001,32
3002,32
3003,32
3004,32
3005,32
3006,32
3007,32
3008,33
3009,33
3010,32
3011,32
3012,32
3013,31
3014,31
3015,31
3016,31
3017,31
3018,31
3019,31
3020,31
3021,31
3022,31
3023,31
3024,31
3025,31
3026,31
3027,31
3028,31
3029,31
3030,31
3031,32
3032,31
3033,31
3034,31
3035,31
3036,31
3037,31
3038,31
3039,31
3040,31
3041,31
3042,31
3043,31
3044,31
3045,31
3046,31
3047,31
3048,31
3049,31
3050,31
3051,31
3052,31
3053,31
3054,32
3055,31
3056,31
3057,31
3058,31
3059,31
3060,31
3061,31
3062,31
3063,31
3064,31
3065,31
3066,32
3067,32
3068,33
3069,31
3070,31
3071,31
3072,31
3073,31
3074,31
3075,31
3076,31
3077,31
3078,31
3079,31
3080,31
3081,31
3082,31
3083,31
3084,32
3085,32
3086,32
3087,32
3088,32
3089,31
3090,31
3091,31
3092,31
3093,31
3094,31
3095,31
3096,31
3097,31
3098,31
3099,31
3100,31
3101,31
3102,31
3103,31
3104,31
3105,31
3106,31
3107,31
3108,32
3109,33
3110,33
3111,33
3112,33
3113,33
3114,33
3115,33
3116,33
3117,33
3118,33
3119,33
3120,32
3121,32
3122,32
3123,32
3124,32
3125,32
3126,32
3127,32
3128,32
3129,32
3130,32
3131,32
3132,32
3133,32
3134,32
3135,32
3136,32
3137,32
3138,32
3139,32
3140,32
3141,32
3142,32
3143,32
3144,32
3145,32
3146,32
3147,32
3148,32
3149,32
3150,33
3151,32
3152,32
3153,32
3154,33
3155,32
3156,32
3157,31
3158,31
3159,31
3160,31
3161,31
3162,31
3163,31
3164,31
3165,31
3166,31
3167,31
3168,31
3169,31
3170,31
3171,31
3172,31
3173,31
3174,31
3175,31
3176,31
3177,31
3178,31
3179,31
3180,31
3181,31
3182,31
3183,31
3184,31
3185,31
3186,31
3187,31
3188,31
3189,31
3190,31
3191,31
3192,31
3193,31
3194,31
3195,31
3196,31
3197,31
3198,31
3199,31
3200,31
3201,31
3202,31
3203,31
3204,31
3205,31
3206,31
3207,31
3208,31
3209,31
3210,32
3211,32
3212,32
3213,32
3214,32
3215,32
3216,32
3217,32
3218,32
3219,33
3220,34
3221,33
3222,33
3223,32
3224,32
3225,32
3226,32
3227,32
3228,32
3229,32
3230,32
3231,32
3232,32
3233,32
3234,32
3235,32
3236,33
3237,33
3238,33
3239,33
3240,33
3241,32
3242,32
3243,32
3244,32
3245,32
3246,32
3247,32
3248,32
3249,32
3250,32
3251,32
3252,32
3253,32
3254,32
3255,32
3256,32
3257,32
3258,32
3259,32
3260,33
3261,32
3262,32
3263,32
3264,32
3265,32
3266,32
3267,32
3268,32
3269,32
3270,32
3271,32
3272,32
3273,32
3274,32
3275,32
3276,32
3277,32
3278,32
3279,32
3280,32
3281,32
3282,31
3283,31
3284,31
3285,31
3286,31
3287,32
3288,32
3289,32
3290,33
3291,33
3292,33
3293,33
3294,33
3295,33
3296,33
3297,32
3298,32
3299,32
3300,32
3301,32
3302,32
3303,32
3304,32
3305,32
3306,32
3307,32
3308,32
3309,32
3310,32
3311,32
3312,32
3313,32
3314,32
3315,32
3316,32
3317,32
3318,32
3319,32
3320,32
3321,33
3322,32
3323,32
3324,32
3325,32
3326,32
3327,32
3328,32
3329,32
3330,33
3331,33
3332,33
3333,33
3334,33
3335,33
3336,33
3337,33
3338,32
3339,32
3340,32
3341,33
3342,33
3343,33
3344,33
3345,33
3346,32
3347,32
3348,32
3349,32
3350,32
3351,32
3352,33
3353,33
3354,33
3355,34
3356,33
3357,33
3358,33
3359,33
3360,33
3361,33
3362,34
3363,34
3364,34
3365,33
3366,34
3367,34
3368,34
3369,34
3370,34
3371,34
3372,34
3373,34
3374,34
3375,34
3376,34
3377,34
3378,34
3379,33
3380,33
3381,33
3382,33
3383,34
3384,34
3385,33
3386,33
3387,33
3388,33
3389,34
3390,34
3391,34
3392,35
3393,35
3394,35
3395,35
3396,35
3397,34
3398,34
3399,34
3400,34
3401,34
3402,34
3403,35
3404,34
3405,34
3406,34
3407,34
3408,34
3409,33
3410,33
3411,33
3412,33
3413,32
3414,32
3415,32
3416,33
3417,33
3418,32
3419,32
3420,32
3421,32
3422,32
3423,32
3424,32
3425,32
3426,32
3427,32
3428,32
3429,32
3430,32
3431,32
3432,32
3433,32
3434,32
3435,32
3436,32
3437,32
3438,32
3439,32
3440,32
3441,32
3442,32
3443,32
3444,32
3445,32
3446,32
3447,32
3448,32
3449,32
3450,32
3451,32
3452,32
3453,32
3454,32
3455,32
3456,32
3457,32
3458,33
3459,33
3460,33
3461,33
3462,33
3463,33
3464,33
3465,32
3466,32
3467,32
3468,32
3469,32
3470,32
3471,32
3472,32
3473,32
3474,32
3475,32
3476,32
3477,32
3478,32
3479,32
3480,32
3481,32
3482,32
3483,32
3484,32
3485,32
3486,32
3487,32
3488,33
3489,32
3490,32
3491,32
3492,32
3493,32
3494,32
3495,32
3496,32
3497,32
3498,32
3499,32
3500,32
3501,32
3502,32
3503,33
3504,32
3505,32
3506,32
3507,32
3508,32
3509,32
3510,32
3511,33
3512,34
3513,34
3514,33
3515,32
3516,32
3517,32
3518,32
3519,32
3520,32
3521,32
3522,32
3523,33
3524,33
3525,32
3526,32
3527,32
3528,32
3529,32
3530,32
3531,32
3532,32
3533,32
3534,33
3535,32
3536,32
3537,32
3538,32
3539,32
3540,32
3541,32
3542,32
3543,31
3544,31
3545,32
3546,32
3547,32
3548,32
3549,32
3550,32
3551,32
3552,31
3553,31
3554,31
3555,31
3556,31
3557,31
3558,31
3559,31
3560,31
3561,31
3562,31
3563,31
3564,31
3565,31
3566,31
3567,31
3568,31
3569,31
3570,31
3571,31
3572,31
3573,31
3574,31
3575,31
3576,31
3577,31
3578,31
3579,31
3580,31
3581,32
3582,32
3583,31
3584,31
3585,31
3586,31
3587,31
3588,31
3589,31
3590,31
3591,31
3592,31
3593,31
3594,31
3595,31
3596,31
3597,31
3598,31
3599,31
3600,31
3601,31
3602,31
3603,31
3604,31
3605,31
3606,31
3607,31
3608,31
3609,31
3610,31
3611,31
3612,31
3613,31
3614,31
3615,31
3616,31
3617,31
3618,32
3619,31
3620,31
3621,31
3622,31
3623,31
3624,31
3625,31
3626,31
3627,31
3628,31
3629,31
3630,31
3631,31
3632,32
3633,32
3634,32
3635,32
3636,32
3637,32
3638,32
3639,31
3640,32
3641,31
3642,31
3643,31
3644,31
3645,31
3646,31
3647,31
3648,31
3649,30
3650,30
3651,30
3652,30
3653,30
3654,30
3655,30
3656,31
3657,30
3658,30
3659,30
3660,30
3661,30
3662,30
3663,30
3664,30
3665,30
3666,30
3667,30
3668,30
3669,30
3670,30
3671,30
3672,30
3673,30
3674,30
3675,30
3676,30
3677,30
3678,30
3679,30
3680,30
3681,30
3682,30
3683,30
3684,30
3685,31
3686,31
3687,31
3688,31
3689,31
3690,31
3691,32
3692,32
3693,32
3694,32
3695,32
3696,31
3697,31
3698,31
3699,31
3700,31
3701,31
3702,31
3703,31
3704,31
3705,31
3706,31
3707,31
3708,31
3709,31
3710,31
3711,31
3712,31
3713,31
3714,31
3715,31
3716,31
3717,31
3718,31
3719,31
3720,31
3721,31
3722,31
3723,31
3724,31
3725,31
3726,31
3727,31
3728,31
3729,31
3730,31
3731,31
3732,31
3733,31
3734,31
3735,32
3736,32
3737,32
3738,32
3739,33
3740,33
3741,33
3742,33
3743,33
3744,32
3745,32
3746,32
3747,33
3748,33
3749,32
3750,31
3751,31
3752,31
3753,31
3754,31
3755,31
3756,31
3757,31
3758,31
3759,31
3760,31
3761,31
3762,31
3763,31
3764,31
3765,31
3766,31
3767,31
3768,31
3769,31
3770,31
3771,32
3772,32
3773,31
3774,31
3775,31
3776,31
3777,31
3778,31
3779,31
3780,31
3781,31
3782,31
3783,31
3784,31
3785,31
3786,31
3787,31
3788,31
3789,31
3790,31
3791,31
3792,31
3793,31
3794,31
3795,31
3796,32
3797,32
3798,32
3799,32
3800,32
3801,32
3802,32
3803,32
3804,32
3805,33
3806,32
3807,32
3808,32
3809,32
3810,32
3811,33
3812,32
3813,32
3814,32
3815,32
3816,32
3817,32
3818,32
3819,32
3820,32
3821,32
3822,32
3823,33
3824,34
3825,33
3826,33
3827,33
3828,33
3829,32
3830,32
3831,32
3832,32
3833,32
3834,32
3835,32
3836,32
3837,32
3838,32
3839,32
3840,32
3841,32
3842,32
3843,31
3844,31
3845,31
3846,31
3847,31
3848,31
3849,31
3850,32
3851,32
3852,32
3853,32
3854,32
3855,31
3856,31
3857,31
3858,31
3859,31
3860,31
3861,31
3862,31
3863,31
3864,31
3865,31
3866,31
3867,31
3868,31
3869,31
3870,31
3871,31
3872,31
3873,31
3874,31
3875,31
3876,31
3877,31
3878,31
3879,32
3880,32
3881,32
3882,32
3883,32
3884,33
3885,33
3886,33
3887,33
3888,33
3889,33
3890,33
3891,33
3892,34
3893,34
3894,34
3895,34
3896,34
3897,34
3898,35
3899,34
3900,34
3901,34
3902,34
3903,34
3904,34
3905,34
3906,35
3907,35
3908,35
3909,34
3910,35
3911,35
3912,35
3913,35
3914,35
3915,35
3916,35
3917,35
3918,35
3919,35
3920,35
3921,35
3922,36
3923,35
3924,35
3925,34
3926,34
3927,34
3928,34
3929,33
3930,33
3931,33
3932,33
3933,33
3934,33
3935,33
3936,33
3937,33
3938,33
3939,33
3940,33
3941,33
3942,33
3943,33
3944,33
3945,33
3946,33
3947,33
3948,33
3949,33
3950,33
3951,33
3952,33
3953,33
3954,33
3955,34
3956,34
3957,34
3958,34
3959,34
3960,34
3961,34
3962,34
3963,34
3964,33
3965,33
3966,33
3967,33
3968,33
3969,33
3970,33
3971,33
3972,33
3973,33
3974,33
3975,33
3976,33
3977,33
3978,33
3979,33
3980,33
3981,33
3982,33
3983,33
3984,34
3985,34
3986,34
3987,34
3988,34
3989,34
3990,34
3991,34
3992,34
3993,34
3994,34
3995,34
3996,34
3997,34
3998,34
3999,34
4000,34
4001,34
4002,34
4003,34
4004,34
4005,34
4006,34
4007,34
4008,34
4009,34
4010,34
4011,34
4012,34
4013,34
4014,34
4015,34
4016,34
4017,34
4018,34
4019,34
4020,34
4021,34
4022,34
4023,34
4024,34
4025,34
4026,34
4027,34
4028,34
4029,34
4030,34
4031,34
4032,34
4033,35
4034,35
4035,35
4036,35
4037,35
4038,35
4039,35
4040,35
4041,35
4042,35
4043,35
4044,35
4045,35
4046,35
4047,34
4048,34
4049,34
4050,34
4051,34
4052,34
4053,34
4054,34
4055,34
4056,34
4057,34
4058,34
4059,34
4060,34
4061,34
4062,34
4063,34
4064,34
4065,34
4066,34
4067,35
4068,35
4069,35
4070,35
4071,35
4072,35
4073,35
4074,35
4075,35
4076,34
4077,33
4078,33
4079,33
4080,33
4081,33
4082,33
4083,33
4084,33
4085,33
4086,33
4087,33
4088,33
4089,33
4090,33
4091,33
4092,33
4093,33
4094,33
4095,33
4096,33
4097,33
4098,33
4099,33
4100,33
4101,33
4102,33
4103,33
4104,33
4105,33
4106,33
4107,33
4108,33
4109,33
4110,33
4111,33
4112,33
4113,33
4114,33
4115,33
4116,33
4117,33
4118,33
4119,34
4120,33
4121,33
4122,33
4123,33
4124,33
4125,33
4126,33
4127,33
4128,33
4129,33
4130,33
4131,33
4132,33
4133,33
4134,33
4135,33
4136,33
4137,33
4138,33
4139,33
4140,33
4141,33
4142,33
4143,33
4144,33
4145,33
4146,33
4147,33
4148,33
4149,33
4150,33
4151,33
4152,33
4153,33
4154,33
4155,33
4156,33
4157,33
4158,33
4159,33
4160,33
4161,33
4162,33
4163,33
4164,33
4165,34
4166,34
4167,34
4168,33
4169,33
4170,33
4171,33
4172,33
4173,33
4174,33
4175,33
4176,33
4177,33
4178,33
4179,33
4180,33
4181,34
4182,34
4183,34
4184,34
4185,34
4186,34
4187,34
4188,34
4189,34
4190,34
4191,34
4192,34
4193,34
4194,34
4195,34
4196,34
4197,34
4198,34
4199,34
4200,34
4201,34
4202,34
4203,34
4204,34
4205,34
4206,34
4207,34
4208,35
4209,35
4210,35
4211,36
4212,36
4213,37
4214,37
4215,37
4216,37
4217,37
4218,37
4219,36
4220,35
4221,34
4222,35
4223,33
4224,33
4225,33
4226,33
4227,33
4228,33
4229,33
4230,33
4231,33
4232,33
4233,33
4234,33
4235,33
4236,33
4237,33
4238,33
4239,33
4240,33
4241,33
4242,33
4243,33
4244,33
4245,33
4246,33
4247,33
4248,33
4249,33
4250,33
4251,33
4252,33
4253,33
4254,33
4255,33
4256,33
4257,33
4258,33
4259,33
4260,33
4261,33
4262,33
4263,33
4264,33
4265,33
4266,33
4267,33
4268,33
4269,33
4270,33
4271,33
4272,33
4273,33
4274,33
4275,33
4276,34
4277,34
4278,34
4279,34
4280,35
4281,34
4282,34
4283,34
4284,34
4285,33
4286,33
4287,33
4288,33
4289,33
4290,33
4291,33
4292,33
4293,33
4294,33
4295,33
4296,33
4297,33
4298,35
4299,35
4300,35
4301,34
4302,34
4303,35
4304,35
4305,34
4306,35
4307,35
4308,35
4309,34
4310,34
4311,35
4312,34
4313,34
4314,34
4315,35
4316,34
4317,34
4318,34
4319,34
4320,34
4321,35
4322,33
4323,33
4324,33
4325,33
4326,33
4327,33
4328,33
4329,33
4330,33
4331,33
4332,33
4333,33
4334,33
4335,33
4336,33
4337,33
4338,33
4339,33
4340,33
4341,33
4342,33
4343,33
4344,33
4345,33
4346,33
4347,33
4348,33
4349,33
4350,33
4351,33
4352,33
4353,33
4354,33
4355,33
4356,33
4357,33
4358,33
4359,34
4360,33
4361,33
4362,33
4363,34
4364,34
4365,34
4366,33
4367,33
4368,33
4369,33
4370,33
4371,33
4372,33
4373,33
4374,33
4375,33
4376,33
4377,33
4378,33
4379,33
4380,33
4381,33
4382,33
4383,33
4384,33
4385,33
4386,33
4387,33
4388,33
4389,33
4390,33
4391,33
4392,33
4393,33
4394,33
4395,33
4396,33
4397,34
4398,34
4399,34
4400,34
4401,34
4402,33
4403,34
4404,34
4405,34
4406,34
4407,34
4408,33
4409,33
4410,33
4411,33
4412,34
4413,34
4414,34
4415,34
4416,34
4417,34
4418,34
4419,34
4420,34
4421,34
4422,34
4423,34
4424,34
4425,34
4426,35
4427,35
4428,35
4429,35
4430,35
4431,35
4432,35
4433,35
4434,35
4435,35
4436,35
4437,35
4438,35
4439,35
4440,35
4441,35
4442,36
4443,36
4444,36
4445,35
4446,35
4447,35
4448,35
4449,35
4450,35
4451,35
4452,35
4453,35
4454,35
4455,35
4456,35
4457,35
4458,35
4459,35
4460,35
4461,35
4462,35
4463,35
4464,35
4465,35
4466,35
4467,35
4468,35
4469,35
4470,35
4471,35
4472,35
4473,35
4474,35
4475,35
4476,35
4477,35
4478,35
4479,35
4480,35
4481,35
4482,35
4483,35
4484,36
4485,36
4486,37
4487,35
4488,35
4489,36
4490,36
4491,36
4492,36
4493,37
4494,37
4495,37
4496,36
4497,36
4498,36
4499,36
4500,36
4501,36
4502,36
4503,36
4504,36
4505,36
4506,36
4507,36
4508,37
4509,36
4510,36
4511,36
4512,36
4513,35
4514,35
4515,35
4516,35
4517,35
4518,35
4519,35
4520,35
4521,35
4522,36
4523,38
4524,37
4525,36
4526,36
4527,37
4528,37
4529,36
4530,36
4531,37
4532,37
4533,37
4534,37
4535,37
4536,36
4537,36
4538,36
4539,36
4540,36
4541,36
4542,36
4543,36
4544,37
4545,36
4546,36
4547,36
4548,36
4549,36
4550,36
4551,36
4552,36
4553,36
4554,36
4555,36
4556,36
4557,36
4558,36
4559,36
4560,36
4561,37
4562,37
4563,37
4564,37
4565,37
4566,37
4567,37
4568,38
4569,37
4570,37
4571,37
4572,37
4573,37
4574,37
4575,37
4576,36
4577,36
4578,36
4579,36
4580,36
4581,36
4582,36
4583,36
4584,36
4585,36
4586,36
4587,36
4588,36
4589,36
4590,36
4591,36
4592,36
4593,36
4594,36
4595,36
4596,36
4597,37
4598,36
4599,35
4600,36
4601,35
4602,35
4603,35
4604,35
4605,35
4606,35
4607,35
4608,35
4609,35
4610,35
4611,35
4612,35
4613,35
4614,35
4615,35
4616,35
4617,35
4618,35
4619,35
4620,35
4621,35
4622,35
4623,36
4624,36
4625,36
4626,36
4627,36
4628,36
4629,36
4630,36
4631,35
4632,35
4633,35
4634,35
4635,35
4636,35
4637,35
4638,35
4639,35
4640,37
4641,36
4642,35
4643,35
4644,35
4645,35
4646,35
4647,35
4648,35
4649,35
4650,36
4651,36
4652,36
4653,36
4654,36
4655,36
4656,36
4657,36
4658,36
4659,36
4660,36
4661,36
4662,36
4663,36
4664,36
4665,36
4666,36
4667,36
4668,36
4669,36
4670,36
4671,36
4672,36
4673,36
4674,36
4675,36
4676,36
4677,36
4678,36
4679,36
4680,37
4681,36
4682,37
4683,37
4684,36
4685,36
4686,37
4687,37
4688,36
4689,36
4690,36
4691,36
4692,36
4693,36
4694,36
4695,36
4696,36
4697,36
4698,37
4699,37
4700,36
4701,36
4702,36
4703,36
4704,36
4705,36
4706,36
4707,36
4708,36
4709,36
4710,36
4711,36
4712,36
4713,36
4714,36
4715,36
4716,36
4717,36
4718,36
4719,36
4720,36
4721,36
4722,36
4723,36
4724,36
4725,36
4726,36
4727,36
4728,36
4729,36
4730,36
4731,36
4732,36
4733,36
4734,36
4735,36
4736,36
4737,36
4738,36
4739,36
4740,36
4741,37
4742,37
4743,37
4744,37
4745,36
4746,36
4747,36
4748,36
4749,36
4750,36
4751,36
4752,36
4753,36
4754,36
4755,36
4756,36
4757,36
4758,36
4759,36
4760,36
4761,36
4762,35
4763,35
4764,36
4765,36
4766,36
4767,36
4768,35
4769,35
4770,35
4771,35
4772,35
4773,35
4774,35
4775,35
4776,35
4777,35
4778,35
4779,36
4780,36
4781,36
4782,35
4783,36
4784,36
4785,35
4786,35
4787,35
4788,36
4789,36
4790,36
4791,36
4792,36
4793,36
4794,36
4795,35
4796,35
4797,35
4798,35
4799,35
4800,35
4801,35
4802,35
4803,35
4804,35
4805,35
4806,35
4807,35
4808,35
4809,35
4810,35
4811,35
4812,35
4813,35
4814,36
4815,36
4816,36
4817,36
4818,36
4819,35
4820,35
4821,35
4822,35
4823,35
4824,35
4825,35
4826,36
4827,36
4828,37
4829,37
4830,37
4831,36
4832,35
4833,35
4834,35
4835,35
4836,35
4837,35
4838,35
4839,35
4840,35
4841,35
4842,35
4843,35
4844,35
4845,35
4846,35
4847,36
4848,35
4849,35
4850,35
4851,35
4852,35
4853,35
4854,35
4855,35
4856,35
4857,36
4858,36
4859,36
4860,36
4861,36
4862,36
4863,36
4864,36
4865,36
4866,38
4867,37
4868,37
4869,37
4870,37
4871,37
4872,37
4873,37
4874,36
4875,36
4876,36
4877,36
4878,36
4879,36
4880,36
4881,36
4882,36
4883,36
4884,36
4885,36
4886,37
4887,37
4888,37
4889,37
4890,37
4891,37
4892,37
4893,37
4894,37
4895,37
4896,37
4897,37
4898,37
4899,37
4900,37
4901,37
4902,37
4903,37
4904,38
4905,37
4906,37
4907,37
4908,37
4909,37
4910,37
4911,37
4912,37
4913,37
4914,37
4915,37
4916,38
4917,37
4918,38
4919,38
4920,38
4921,38
4922,38
4923,38
4924,38
4925,38
4926,38
4927,38
4928,38
4929,38
4930,38
4931,38
4932,38
4933,38
4934,38
4935,38
4936,38
4937,38
4938,38
4939,38
4940,38
4941,38
4942,38
4943,39
4944,39
4945,39
4946,39
4947,39
4948,39
4949,39
4950,39
4951,39
4952,39
4953,40
4954,40
4955,39
4956,40
4957,38
4958,38
4959,38
4960,38
4961,38
4962,37
4963,37
4964,37
4965,37
4966,37
4967,37
4968,36
4969,36
4970,36
4971,36
4972,36
4973,36
4974,37
4975,36
4976,36
4977,36
4978,36
4979,36
4980,36
4981,36
4982,36
4983,36
4984,36
4985,36
4986,36
4987,36
4988,36
4989,36
4990,36
4991,36
4992,36
4993,36
4994,36
4995,36
4996,36
4997,37
4998,37
4999,37
5000,37
5001,37
5002,37
5003,37
5004,37
5005,37
5006,37
5007,37
5008,37
5009,37
5010,36
5011,36
5012,36
5013,36
5014,36
5015,36
5016,36
5017,37
5018,37
5019,37
5020,37
5021,37
5022,37
5023,36
5024,36
5025,36
5026,36
5027,36
5028,36
5029,36
5030,36
5031,36
5032,37
5033,37
5034,37
5035,37
5036,37
5037,37
5038,37
5039,37
5040,38
5041,38
5042,37
5043,36
5044,36
5045,37
5046,37
5047,36
5048,36
5049,36
5050,36
5051,36
5052,36
5053,36
5054,36
5055,36
5056,36
5057,36
5058,36
5059,36
5060,36
5061,36
5062,36
5063,36
5064,36
5065,36
5066,36
5067,36
5068,36
5069,36
5070,36
5071,37
5072,36
5073,36
5074,36
5075,36
5076,36
5077,36
5078,36
5079,36
5080,36
5081,37
5082,37
5083,37
5084,37
5085,37
5086,37
5087,37
5088,36
5089,36
5090,36
5091,36
5092,37
5093,37
5094,36
5095,36
5096,36
5097,36
5098,36
5099,36
5100,36
5101,36
5102,36
5103,36
5104,36
5105,36
5106,37
5107,36
5108,36
5109,36
5110,36
5111,36
5112,36
5113,36
5114,36
5115,36
5116,36
5117,36
5118,36
5119,36
5120,36
5121,36
5122,36
5123,36
5124,36
5125,36
5126,36
5127,36
5128,36
5129,36
5130,36
5131,36
5132,36
5133,36
5134,36
5135,36
5136,36
5137,36
5138,36
5139,36
5140,36
5141,36
5142,36
5143,36
5144,36
5145,36
5146,36
5147,36
5148,36
5149,36
5150,36
5151,36
5152,36
5153,36
5154,36
5155,36
5156,36
5157,36
5158,36
5159,36
5160,36
5161,36
5162,36
5163,36
5164,36
5165,36
5166,36
5167,36
5168,37
5169,37
5170,37
5171,37
5172,36
5173,37
5174,37
5175,37
5176,37
5177,37
5178,37
5179,37
5180,37
5181,37
5182,37
5183,37
5184,37
5185,37
5186,37
5187,37
5188,37
5189,37
5190,37
5191,37
5192,37
5193,37
5194,37
5195,37
5196,37
5197,37
5198,37
5199,37
5200,37
5201,37
5202,37
5203,37
5204,37
5205,37
5206,37
5207,37
5208,37
5209,37
5210,38
5211,37
5212,37
5213,37
5214,37
5215,37
5216,37
5217,37
5218,37
5219,37
5220,37
5221,37
5222,37
5223,37
5224,37
5225,37
5226,37
5227,37
5228,38
5229,37
5230,38
5231,38
5232,38
5233,38
5234,37
5235,37
5236,37
5237,37
5238,38
5239,37
5240,37
5241,37
5242,37
5243,37
5244,37
5245,37
5246,37
5247,37
5248,37
5249,37
5250,37
5251,37
5252,37
5253,37
5254,37
5255,37
5256,37
5257,37
5258,37
5259,37
5260,37
5261,37
5262,37
5263,38
5264,37
5265,37
5266,37
5267,38
5268,38
5269,38
5270,38
5271,38
5272,37
5273,37
5274,37
5275,38
5276,38
5277,39
5278,40
5279,39
5280,38
5281,38
5282,38
5283,38
5284,38
5285,38
5286,37
5287,37
5288,37
5289,37
5290,37
5291,37
5292,37
5293,37
5294,37
5295,37
5296,37
5297,36
5298,37
5299,37
5300,37
5301,37
5302,37
5303,37
5304,37
5305,37
5306,37
5307,36
5308,36
5309,36
5310,36
5311,36
5312,37
5313,36
5314,36
5315,36
5316,36
5317,36
5318,36
5319,36
5320,36
5321,36
5322,36
5323,36
5324,37
5325,36
5326,36
5327,36
5328,36
5329,36
5330,36
5331,36
5332,36
5333,36
5334,36
5335,36
5336,36
5337,37
5338,36
5339,36
5340,36
5341,36
5342,36
5343,36
5344,36
5345,36
5346,36
5347,36
5348,36
5349,36
5350,36
5351,36
5352,36
5353,36
5354,36
5355,36
5356,36
5357,36
5358,36
5359,36
5360,36
5361,36
5362,36
5363,36
5364,36
5365,36
5366,36
5367,36
5368,36
5369,36
5370,36
5371,36
5372,36
5373,36
5374,36
5375,36
5376,36
5377,36
5378,36
5379,36
5380,36
5381,36
5382,36
5383,36
5384,36
5385,36
5386,36
5387,36
5388,36
5389,36
5390,36
5391,36
5392,36
5393,36
5394,36
5395,36
5396,36
5397,36
5398,36
5399,36
5400,36
5401,36
5402,36
5403,36
5404,36
5405,36
5406,36
5407,36
5408,36
5409,36
5410,36
5411,36
5412,36
5413,36
5414,36
5415,36
5416,36
5417,37
5418,36
5419,36
5420,36
5421,36
5422,37
5423,37
5424,37
5425,36
5426,36
5427,36
5428,36
5429,36
5430,36
5431,36
5432,36
5433,36
5434,36
5435,36
5436,36
5437,37
5438,37
5439,36
5440,36
5441,36
5442,36
5443,37
5444,37
5445,36
5446,36
5447,36
5448,36
5449,36
5450,36
5451,36
5452,37
5453,37
5454,37
5455,37
5456,37
5457,37
5458,37
5459,37
5460,37
5461,37
5462,36
5463,37
5464,36
5465,36
5466,36
5467,36
5468,36
5469,36
5470,36
5471,37
5472,37
5473,37
5474,37
5475,36
5476,36
5477,36
5478,36
5479,36
5480,36
5481,36
5482,36
5483,36
5484,36
5485,36
5486,36
5487,36
5488,36
5489,36
5490,36
5491,37
5492,37
5493,37
5494,38
5495,38
5496,37
5497,36
5498,36
5499,37
5500,37
5501,37
5502,37
5503,38
5504,37
5505,37
5506,36
5507,37
5508,36
5509,36
5510,37
5511,37
5512,37
5513,37
5514,38
5515,37
5516,37
5517,37
5518,37
5519,37
5520,39
5521,39
5522,38
5523,38
5524,38
5525,38
5526,38
5527,38
5528,37
5529,37
5530,37
5531,37
5532,37
5533,37
5534,37
5535,37
5536,37
5537,37
5538,37
5539,37
5540,37
5541,37
5542,37
5543,37
5544,37
5545,37
5546,37
5547,37
5548,37
5549,37
5550,37
5551,37
5552,37
5553,37
5554,37
5555,37
5556,37
5557,38
5558,37
5559,37
5560,37
5561,37
5562,37
5563,36
5564,36
5565,36
5566,36
5567,36
5568,36
5569,36
5570,35
5571,35
5572,36
5573,36
5574,36
5575,35
5576,35
5577,35
5578,35
5579,35
5580,35
5581,35
5582,35
5583,35
5584,35
5585,35
5586,35
5587,35
5588,35
5589,35
5590,35
5591,35
5592,35
5593,36
5594,36
5595,35
5596,35
5597,35
5598,35
5599,35
5600,35
5601,35
5602,35
5603,35
5604,35
5605,35
5606,35
5607,35
5608,35
5609,35
5610,35
5611,35
5612,35
5613,35
5614,35
5615,35
5616,35
5617,35
5618,35
5619,35
5620,35
5621,35
5622,35
5623,35
5624,35
5625,35
5626,35
5627,36
5628,36
5629,36
5630,36
5631,35
5632,35
5633,35
5634,36
5635,36
5636,36
5637,36
5638,36
5639,36
5640,36
5641,36
5642,36
5643,36
5644,36
5645,36
5646,36
5647,36
5648,36
5649,36
5650,36
5651,36
5652,36
5653,36
5654,36
5655,36
5656,36
5657,35
5658,34
5659,34
5660,34
5661,34
5662,34
5663,34
5664,34
5665,34
5666,34
5667,34
5668,34
5669,34
5670,34
5671,34
5672,34
5673,34
5674,34
5675,35
5676,34
5677,34
5678,34
5679,34
5680,34
5681,34
5682,35
5683,35
5684,35
5685,35
5686,35
5687,35
5688,36
5689,35
5690,35
5691,35
5692,35
5693,35
5694,35
5695,35
5696,35
5697,35
5698,34
5699,34
5700,34
5701,34
5702,34
5703,34
5704,34
5705,34
5706,34
5707,34
5708,34
5709,34
5710,34
5711,34
5712,34
5713,34
5714,34
5715,34
5716,34
5717,34
5718,34
5719,34
5720,34
5721,34
5722,34
5723,34
5724,34
5725,34
5726,34
5727,35
5728,35
5729,34
5730,35
5731,34
5732,34
5733,34
5734,34
5735,34
5736,34
5737,34
5738,34
5739,34
5740,34
5741,35
5742,35
5743,35
5744,35
5745,35
5746,35
5747,35
5748,34
5749,34
5750,34
5751,35
5752,35
5753,35
5754,35
5755,35
5756,34
5757,34
5758,34
5759,34
5760,34
5761,34
5762,35
5763,34
5764,35
5765,35
5766,34
5767,34
5768,34
5769,34
5770,34
5771,34
5772,34
5773,34
5774,34
5775,34
5776,34
5777,34
5778,34
5779,34
5780,34
5781,34
5782,34
5783,34
5784,34
5785,35
5786,35
5787,35
5788,34
5789,34
5790,34
5791,34
5792,34
5793,34
5794,34
5795,35
5796,35
5797,34
5798,34
5799,34
5800,34
5801,34
5802,34
5803,34
5804,34
5805,34
5806,35
5807,35
5808,35
5809,35
5810,34
5811,34
5812,34
5813,34
5814,34
5815,34
5816,34
5817,34
5818,34
5819,34
5820,34
5821,34
5822,34
5823,34
5824,34
5825,34
5826,34
5827,35
5828,34
5829,34
5830,34
5831,34
5832,34
5833,34
5834,34
5835,34
5836,35
5837,34
5838,34
5839,34
5840,34
5841,34
5842,34
5843,34
5844,34
5845,34
5846,34
5847,34
5848,34
5849,34
5850,34
5851,34
5852,34
5853,34
5854,34
5855,34
5856,34
5857,34
5858,34
5859,34
5860,34
5861,34
5862,34
5863,34
5864,35
5865,34
5866,34
5867,34
5868,35
5869,34
5870,34
5871,34
5872,34
5873,34
5874,34
5875,34
5876,34
5877,34
5878,34
5879,34
5880,34
5881,34
5882,34
5883,34
5884,34
5885,34
5886,34
5887,34
5888,34
5889,34
5890,34
5891,34
5892,35
5893,35
5894,35
5895,34
5896,34
5897,34
5898,34
5899,34
5900,34
5901,34
5902,34
5903,34
5904,34
5905,34
5906,34
5907,34
5908,34
5909,34
5910,34
5911,34
5912,35
5913,35
5914,34
5915,34
5916,34
5917,34
5918,34
5919,34
5920,34
5921,34
5922,34
5923,35
5924,36
5925,36
5926,36
5927,35
5928,35
5929,34
5930,34
5931,34
5932,34
5933,34
5934,34
5935,34
5936,34
5937,34
5938,34
5939,34
5940,34
5941,34
5942,34
5943,34
5944,34
5945,34
5946,34
5947,34
5948,34
5949,34
5950,34
5951,34
5952,35
5953,36
5954,36
5955,36
5956,36
5957,36
5958,35
5959,35
5960,35
5961,35
5962,35
5963,35
5964,35
5965,35
5966,35
5967,35
5968,35
5969,34
5970,34
5971,34
5972,34
5973,34
5974,35
5975,36
5976,36
5977,36
5978,36
5979,36
5980,36
5981,35
5982,36
5983,36
5984,35
5985,35
5986,35
5987,34
5988,34
5989,34
5990,34
5991,34
5992,34
5993,34
5994,34
5995,34
5996,34
5997,34
5998,34
5999,34
6000,34
6001,35
6002,34
6003,34
6004,34
6005,35
6006,35
6007,35
6008,35
6009,35
6010,34
6011,34
6012,34
6013,35
6014,35
6015,34
6016,34
6017,34
6018,34
6019,34
6020,34
6021,34
6022,34
6023,34
6024,34
6025,34
6026,34
6027,33
6028,33
6029,33
6030,34
6031,34
6032,34
6033,35
6034,34
6035,34
6036,34
6037,34
6038,34
6039,34
6040,35
6041,34
6042,34
6043,34
6044,34
6045,34
6046,34
6047,34
6048,34
6049,34
6050,34
6051,34
6052,34
6053,34
6054,34
6055,33
6056,33
6057,33
6058,33
6059,33
6060,33
6061,33
6062,33
6063,33
6064,33
6065,33
6066,33
6067,33
6068,33
6069,33
6070,33
6071,33
6072,33
6073,33
6074,33
6075,33
6076,33
6077,33
6078,33
6079,33
6080,33
6081,33
6082,33
6083,33
6084,33
6085,33
6086,33
6087,33
6088,33
6089,33
6090,33
6091,33
6092,33
6093,33
6094,33
6095,34
6096,34
6097,33
6098,33
6099,33
6100,34
6101,34
6102,33
6103,33
6104,33
6105,33
6106,33
6107,33
6108,33
6109,33
6110,33
6111,33
6112,33
6113,33
6114,33
6115,33
6116,33
6117,33
6118,33
6119,33
6120,33
6121,33
6122,33
6123,34
6124,34
6125,34
6126,34
6127,33
6128,33
6129,33
6130,33
6131,33
6132,33
6133,33
6134,33
6135,33
6136,33
6137,33
6138,33
6139,33
6140,33
6141,33
6142,33
6143,33
6144,33
6145,33
6146,33
6147,33
6148,33
6149,33
6150,33
6151,33
6152,33
6153,33
6154,33
6155,33
6156,34
6157,35
6158,33
6159,33
6160,33
6161,33
6162,33
6163,33
6164,33
6165,33
6166,33
6167,33
6168,33
6169,33
6170,34
6171,33
6172,33
6173,33
6174,33
6175,33
6176,34
6177,33
6178,33
6179,33
6180,33
6181,33
6182,33
6183,33
6184,33
6185,33
6186,33
6187,33
6188,33
6189,33
6190,33
6191,33
6192,34
6193,34
6194,33
6195,33
6196,33
6197,33
6198,33
6199,33
6200,33
6201,33
6202,33
6203,33
6204,34
6205,34
6206,34
6207,34
6208,34
6209,34
6210,34
6211,33
6212,33
6213,33
6214,34
6215,34
6216,34
6217,34
6218,33
6219,33
6220,33
6221,33
6222,33
6223,33
6224,33
6225,33
6226,33
6227,33
6228,34
6229,34
6230,34
6231,34
6232,34
6233,33
6234,33
6235,34
6236,33
6237,33
6238,33
6239,33
6240,32
6241,32
6242,32
6243,32
6244,32
6245,32
6246,33
6247,33
6248,33
6249,34
6250,33
6251,33
6252,33
6253,33
6254,33
6255,33
6256,33
6257,33
6258,34
6259,33
6260,33
6261,33
6262,32
6263,32
6264,32
6265,33
6266,32
6267,32
6268,32
6269,32
6270,32
6271,32
6272,32
6273,32
6274,32
6275,32
6276,32
6277,32
6278,32
6279,32
6280,32
6281,32
6282,32
6283,32
6284,32
6285,32
6286,32
6287,32
6288,32
6289,32
6290,32
6291,32
6292,32
6293,32
6294,32
6295,32
6296,32
6297,32
6298,32
6299,32
6300,32
6301,32
6302,31
6303,31
6304,31
6305,31
6306,31
6307,31
6308,31
6309,31
6310,31
6311,32
6312,32
6313,32
6314,31
6315,31
6316,31
6317,31
6318,31
6319,31
6320,31
6321,31
6322,31
6323,31
6324,31
6325,31
6326,31
6327,31
6328,31
6329,31
6330,31
6331,31
6332,33
6333,32
6334,32
6335,32
6336,32
6337,32
6338,32
6339,32
6340,32
6341,31
6342,31
6343,31
6344,31
6345,31
6346,31
6347,31
6348,31
6349,32
6350,32
6351,32
6352,32
6353,32
6354,31
6355,31
6356,31
6357,31
6358,31
6359,31
6360,31
6361,31
6362,31
6363,31
6364,31
6365,31
6366,31
6367,31
6368,31
6369,31
6370,31
6371,31
6372,31
6373,31
6374,31
6375,31
6376,31
6377,31
6378,31
6379,31
6380,31
6381,31
6382,31
6383,31
6384,31
6385,31
6386,32
6387,32
6388,32
6389,32
6390,32
6391,32
6392,33
6393,32
6394,32
6395,32
6396,32
6397,33
6398,33
6399,33
6400,33
6401,33
6402,34
6403,34
6404,33
6405,33
6406,33
6407,33
6408,33
6409,34
6410,33
6411,33
6412,33
6413,33
6414,33
6415,33
6416,33
6417,33
6418,33
6419,33
6420,33
6421,33
6422,33
6423,33
6424,33
6425,33
6426,33
6427,33
6428,34
6429,34
6430,34
6431,34
6432,34
6433,33
6434,32
6435,32
6436,32
6437,32
6438,32
6439,32
6440,32
6441,32
6442,32
6443,32
6444,32
6445,32
6446,32
6447,32
6448,32
6449,32
6450,32
6451,33
6452,32
6453,32
6454,32
6455,32
6456,32
6457,32
6458,32
6459,32
6460,32
6461,32
6462,32
6463,32
6464,33
6465,33
6466,33
6467,33
6468,33
6469,34
6470,34
6471,34
6472,34
6473,34
6474,34
6475,33
6476,33
6477,33
6478,33
6479,33
6480,33
6481,34
6482,34
6483,33
6484,33
6485,33
6486,33
6487,32
6488,32
6489,32
6490,32
6491,32
6492,33
6493,33
6494,33
6495,32
6496,32
6497,32
6498,32
6499,32
6500,32
6501,32
6502,32
6503,32
6504,32
6505,32
6506,32
6507,32
6508,32
6509,32
6510,32
6511,32
6512,32
6513,32
6514,33
6515,34
6516,33
6517,34
6518,32
6519,32
6520,32
6521,32
6522,32
6523,32
6524,32
6525,32
6526,32
6527,32
6528,32
6529,32
6530,32
6531,32
6532,32
6533,32
6534,32
6535,32
6536,32
6537,32
6538,32
6539,32
6540,32
6541,32
6542,32
6543,32
6544,32
6545,32
6546,32
6547,32
6548,32
6549,32
6550,32
6551,32
6552,32
6553,33
6554,33
6555,33
6556,33
6557,33
6558,32
6559,32
6560,32
6561,32
6562,32
6563,32
6564,32
6565,32
6566,32
6567,32
6568,32
6569,32
6570,32
6571,33
6572,32
6573,32
6574,32
6575,32
6576,33
6577,33
6578,34
6579,33
6580,33
6581,33
6582,33
6583,33
6584,33
6585,33
6586,33
6587,33
6588,33
6589,33
6590,33
6591,33
6592,33
6593,33
6594,33
6595,33
6596,33
6597,34
6598,34
6599,34
6600,33
6601,33
6602,33
6603,33
6604,33
6605,33
6606,33
6607,33
6608,33
6609,33
6610,33
6611,33
6612,33
6613,33
6614,33
6615,33
6616,33
6617,33
6618,33
6619,33
6620,33
6621,34
6622,34
6623,34
6624,34
6625,35
6626,35
6627,33
6628,33
6629,33
6630,34
6631,34
6632,34
6633,33
6634,33
6635,33
6636,33
6637,33
6638,33
6639,33
6640,33
6641,32
6642,32
6643,32
6644,32
6645,32
6646,33
6647,32
6648,33
6649,34
6650,33
6651,33
6652,33
6653,33
6654,33
6655,33
6656,33
6657,33
6658,34
6659,33
6660,33
6661,33
6662,33
6663,33
6664,33
6665,33
6666,33
6667,33
6668,33
6669,33
6670,33
6671,33
6672,33
6673,33
6674,33
6675,33
6676,33
6677,33
6678,33
6679,33
6680,33
6681,33
6682,33
6683,33
6684,33
6685,33
6686,33
6687,34
6688,34
6689,34
6690,33
6691,33
6692,33
6693,33
6694,33
6695,33
6696,33
6697,33
6698,34
6699,34
6700,34
6701,35
6702,34
6703,34
6704,34
6705,34
6706,34
6707,34
6708,34
6709,34
6710,34
6711,34
6712,33
6713,33
6714,33
6715,33
6716,33
6717,33
6718,33
6719,33
6720,33
6721,33
6722,33
6723,33
6724,33
6725,33
6726,33
6727,33
6728,33
6729,33
6730,33
6731,33
6732,33
6733,33
6734,33
6735,33
6736,33
6737,33
6738,33
6739,33
6740,33
6741,33
6742,33
6743,33
6744,33
6745,33
6746,33
6747,33
6748,33
6749,33
6750,33
6751,33
6752,33
6753,34
6754,34
6755,34
6756,34
6757,34
6758,35
6759,34
6760,34
6761,34
6762,34
6763,34
6764,35
6765,35
6766,35
6767,35
6768,35
6769,36
6770,36
6771,36
6772,36
6773,37
6774,36
6775,36
6776,36
6777,36
6778,36
6779,36
6780,36
6781,36
6782,36
6783,36
6784,36
6785,36
6786,36
6787,36
6788,36
6789,36
6790,36
6791,36
6792,36
6793,36
6794,36
6795,36
6796,36
6797,36
6798,36
6799,37
6800,36
6801,36
6802,36
6803,36
6804,36
6805,36
6806,36
6807,36
6808,36
6809,36
6810,36
6811,36
6812,36
6813,36
6814,36
6815,36
6816,36
6817,36
6818,36
6819,36
6820,36
6821,36
6822,36
6823,35
6824,35
6825,35
6826,35
6827,35
6828,35
6829,35
6830,35
6831,35
6832,35
6833,35
6834,35
6835,35
6836,35
6837,35
6838,35
6839,36
6840,36
6841,36
6842,36
6843,36
6844,36
6845,36
6846,36
6847,36
6848,36
6849,37
6850,36
6851,36
6852,36
6853,36
6854,36
6855,36
6856,36
6857,36
6858,37
6859,36
6860,37
6861,37
6862,37
6863,35
6864,35
6865,37
6866,37
6867,37
6868,38
6869,37
6870,38
6871,37
6872,37
6873,36
6874,36
6875,36
6876,36
6877,36
6878,36
6879,36
6880,36
6881,36
6882,36
6883,36
6884,36
6885,36
6886,36
6887,36
6888,36
6889,36
6890,36
6891,36
6892,36
6893,36
6894,36
6895,36
6896,36
6897,36
6898,36
6899,36
6900,36
6901,36
6902,36
6903,36
6904,36
6905,36
6906,36
6907,36
6908,36
6909,36
6910,36
6911,36
6912,36
6913,36
6914,36
6915,36
6916,36
6917,36
6918,36
6919,36
6920,36
6921,36
6922,36
6923,36
6924,37
6925,37
6926,36
6927,36
6928,36
6929,36
6930,36
6931,37
6932,37
6933,37
6934,37
6935,37
6936,37
6937,37
6938,37
6939,37
6940,36
6941,36
6942,36
6943,36
6944,36
6945,36
6946,36
6947,36
6948,36
6949,36
6950,36
6951,36
6952,36
6953,36
6954,36
6955,36
6956,36
6957,36
6958,36
6959,36
6960,36
6961,36
6962,36
6963,36
6964,36
6965,37
6966,37
6967,37
6968,37
6969,37
6970,37
6971,38
6972,37
6973,37
6974,36
6975,36
6976,36
6977,37
6978,37
6979,36
6980,36
6981,36
6982,36
6983,36
6984,36
6985,36
6986,36
6987,36
6988,36
6989,36
6990,36
6991,36
6992,36
6993,36
6994,36
6995,36
6996,36
6997,36
6998,36
6999,37
7000,36
7001,36
7002,36
7003,36
7004,36
7005,36
7006,36
7007,36
7008,36
7009,36
7010,36
7011,36
7012,36
7013,36
7014,36
7015,36
7016,36
7017,37
7018,37
7019,37
7020,37
7021,36
7022,36
7023,36
7024,36
7025,36
7026,36
7027,36
7028,36
7029,36
7030,36
7031,36
7032,36
7033,36
7034,36
7035,36
7036,36
7037,37
7038,37
7039,36
7040,36
7041,36
7042,36
7043,36
7044,36
7045,36
7046,36
7047,36
7048,36
7049,36
7050,36
7051,36
7052,36
7053,36
7054,37
7055,37
7056,38
7057,38
7058,37
7059,38
7060,37
7061,37
7062,37
7063,37
7064,37
7065,37
7066,37
7067,37
7068,36
7069,36
7070,36
7071,36
7072,36
7073,36
7074,36
7075,36
7076,36
7077,37
7078,37
7079,36
7080,36
7081,36
7082,36
7083,36
7084,36
7085,36
7086,36
7087,36
7088,36
7089,36
7090,36
7091,36
7092,36
7093,36
7094,36
7095,36
7096,36
7097,36
7098,37
7099,37
7100,37
7101,37
7102,37
7103,37
7104,37
7105,37
7106,37
7107,37
7108,37
7109,36
7110,36
7111,36
7112,36
7113,37
7114,36
7115,36
7116,36
7117,36
7118,36
7119,36
7120,36
7121,36
7122,36
7123,36
7124,36
7125,36
7126,36
7127,36
7128,36
7129,36
7130,36
7131,36
7132,36
7133,36
7134,36
7135,36
7136,36
7137,36
7138,36
7139,36
7140,37
7141,37
7142,37
7143,36
7144,36
7145,36
7146,37
7147,36
7148,36
7149,36
7150,36
7151,36
7152,36
7153,36
7154,36
7155,36
7156,36
7157,36
7158,36
7159,37
7160,36
7161,36
7162,37
7163,37
7164,37
7165,36
7166,36
7167,36
7168,36
7169,36
7170,36
7171,36
7172,36
7173,36
7174,36
7175,37
7176,36
7177,36
7178,36
7179,37
7180,36
7181,36
7182,36
7183,37
7184,37
7185,37
7186,36
7187,36
7188,36
7189,36
7190,36
7191,36
7192,36
7193,36
7194,36
7195,36
7196,36
7197,36
7198,36
7199,36
7200,36
7201,36
7202,36
7203,36
7204,36
7205,36
7206,35
7207,35
7208,35
7209,35
7210,35
7211,35
7212,35
7213,35
7214,35
7215,36
7216,36
7217,35
7218,35
7219,35
7220,35
7221,35
7222,35
7223,35
7224,35
7225,35
7226,35
7227,35
7228,35
7229,35
7230,35
7231,35
7232,35
7233,35
7234,35
7235,35
7236,35
7237,35
7238,35
7239,35
7240,35
7241,35
7242,35
7243,35
7244,35
7245,35
7246,35
7247,35
7248,35
7249,35
7250,35
7251,35
7252,35
7253,35
7254,35
7255,35
7256,35
7257,35
7258,35
7259,35
7260,35
7261,35
7262,35
7263,35
7264,35
7265,35
7266,35
7267,35
7268,35
7269,35
7270,35
7271,35
7272,35
7273,35
7274,35
7275,35
7276,35
7277,35
7278,35
7279,35
7280,35
7281,35
7282,35
7283,35
7284,35
7285,35
7286,35
7287,35
7288,35
7289,35
7290,35
7291,35
7292,35
7293,35
7294,35
7295,35
7296,35
7297,35
7298,35
7299,35
7300,35
7301,35
7302,35
7303,35
7304,35
7305,35
7306,35
7307,35
7308,35
7309,35
7310,35
7311,35
7312,35
7313,35
7314,35
7315,35
7316,35
7317,35
7318,36
7319,35
7320,35
7321,35
7322,35
7323,35
7324,35
7325,35
7326,35
7327,35
7328,35
7329,35
7330,36
7331,36
7332,36
7333,36
7334,36
7335,36
7336,36
7337,35
7338,35
7339,35
7340,35
7341,35
7342,36
7343,36
7344,35
7345,35
7346,35
7347,35
7348,35
7349,35
7350,35
7351,35
7352,35
7353,35
7354,35
7355,35
7356,35
7357,35
7358,35
7359,35
7360,35
7361,35
7362,36
7363,35
7364,35
7365,35
7366,35
7367,35
7368,35
7369,35
7370,35
7371,36
7372,36
7373,36
7374,35
7375,35
7376,35
7377,35
7378,35
7379,35
7380,35
7381,35
7382,35
7383,35
7384,35
7385,35
7386,35
7387,35
7388,36
7389,35
7390,35
7391,35
7392,35
7393,35
7394,35
7395,35
7396,35
7397,35
7398,35
7399,35
7400,35
7401,35
7402,35
7403,35
7404,36
7405,36
7406,35
7407,35
7408,35
7409,36
7410,35
7411,35
7412,35
7413,35
7414,35
7415,36
7416,35
7417,35
7418,35
7419,35
7420,35
7421,35
7422,35
7423,35
7424,35
7425,35
7426,35
7427,35
7428,35
7429,35
7430,36
7431,35
7432,36
7433,35
7434,35
7435,35
7436,35
7437,35
7438,35
7439,35
7440,35
7441,35
7442,35
7443,35
7444,35
7445,35
7446,35
7447,35
7448,35
7449,35
7450,35
7451,35
7452,35
7453,35
7454,35
7455,35
7456,35
7457,35
7458,35
7459,35
7460,35
7461,35
7462,35
7463,35
7464,35
7465,35
7466,36
7467,36
7468,36
7469,37
7470,35
7471,35
7472,35
7473,35
7474,35
7475,35
7476,35
7477,35
7478,35
7479,35
7480,35
7481,35
7482,35
7483,35
7484,35
7485,35
7486,35
7487,35
7488,35
7489,35
7490,35
7491,35
7492,35
7493,35
7494,35
7495,35
7496,35
7497,35
7498,35
7499,35
7500,35
7501,35
7502,35
7503,35
7504,37
7505,37
7506,37
7507,37
7508,37
7509,37
7510,37
7511,36
7512,36
7513,36
7514,35
7515,35
7516,35
7517,35
7518,35
7519,35
7520,35
7521,35
7522,35
7523,35
7524,35
7525,35
7526,35
7527,35
7528,35
7529,35
7530,35
7531,35
7532,35
7533,35
7534,35
7535,35
7536,35
7537,35
7538,35
7539,35
7540,35
7541,35
7542,35
7543,35
7544,36
7545,36
7546,35
7547,35
7548,35
7549,35
7550,35
7551,35
7552,35
7553,35
7554,35
7555,35
7556,35
7557,35
7558,35
7559,35
7560,35
7561,35
7562,35
7563,35
7564,35
7565,35
7566,35
7567,35
7568,35
7569,35
7570,35
7571,35
7572,35
7573,35
7574,35
7575,35
7576,35
7577,35
7578,35
7579,35
7580,35
7581,36
7582,35
7583,35
7584,36
7585,37
7586,36
7587,36
7588,36
7589,36
7590,36
7591,36
7592,36
7593,36
7594,36
7595,36
7596,36
7597,36
7598,36
7599,36
7600,36
7601,37
7602,37
7603,36
7604,36
7605,36
7606,36
7607,36
7608,36
7609,36
7610,36
7611,36
7612,36
7613,36
7614,36
7615,36
7616,36
7617,36
7618,36
7619,36
7620,37
7621,36
7622,36
7623,36
7624,36
7625,36
7626,36
7627,36
7628,36
7629,36
7630,36
7631,37
7632,37
7633,37
7634,37
7635,37
7636,37
7637,37
7638,37
7639,37
7640,38
7641,38
7642,38
7643,36
7644,36
7645,36
7646,36
7647,36
7648,36
7649,36
7650,36
7651,35
7652,35
7653,35
7654,35
7655,35
7656,35
7657,35
7658,35
7659,35
7660,35
7661,35
7662,35
7663,35
7664,35
7665,35
7666,35
7667,35
7668,35
7669,35
7670,35
7671,35
7672,35
7673,35
7674,35
7675,35
7676,35
7677,35
7678,35
7679,35
7680,35
7681,35
7682,35
7683,35
7684,35
7685,35
7686,35
7687,35
7688,35
7689,35
7690,35
7691,35
7692,35
7693,36
7694,37
7695,36
7696,35
7697,35
7698,35
7699,35
7700,35
7701,35
7702,36
7703,35
7704,35
7705,35
7706,35
7707,35
7708,35
7709,35
7710,35
7711,35
7712,35
7713,35
7714,35
7715,35
7716,35
7717,35
7718,35
7719,35
7720,35
7721,35
7722,35
7723,35
7724,35
7725,35
7726,35
7727,35
7728,35
7729,35
7730,35
7731,35
7732,35
7733,35
7734,36
7735,35
7736,35
7737,35
7738,35
7739,35
7740,35
7741,35
7742,35
7743,35
7744,36
7745,36
7746,36
7747,37
7748,37
7749,37
7750,38
7751,36
7752,36
7753,36
7754,35
7755,35
7756,35
7757,35
7758,36
7759,35
7760,35
7761,35
7762,35
7763,35
7764,35
7765,35
7766,35
7767,35
7768,35
7769,35
7770,35
7771,36
7772,36
7773,35
7774,35
7775,35
7776,35
7777,35
7778,35
7779,35
7780,35
7781,35
7782,36
7783,35
7784,35
7785,35
7786,35
7787,35
7788,35
7789,35
7790,35
7791,35
7792,35
7793,35
7794,35
7795,34
7796,34
7797,34
7798,34
7799,34
7800,34
7801,35
7802,35
7803,35
7804,35
7805,35
7806,35
7807,35
7808,36
7809,36
7810,36
7811,36
7812,36
7813,36
7814,36
7815,36
7816,36
7817,36
7818,35
7819,35
7820,35
7821,35
7822,35
7823,35
7824,35
7825,35
7826,35
7827,35
7828,35
7829,35
7830,35
7831,35
7832,35
7833,35
7834,35
7835,35
7836,35
7837,35
7838,35
7839,35
7840,35
7841,35
7842,35
7843,35
7844,35
7845,35
7846,35
7847,35
7848,35
7849,35
7850,35
7851,36
7852,36
7853,36
7854,36
7855,36
7856,36
7857,36
7858,36
7859,36
7860,36
7861,36
7862,35
7863,35
7864,35
7865,35
7866,37
7867,35
7868,36
7869,35
7870,35
7871,35
7872,35
7873,36
7874,36
7875,35
7876,35
7877,35
7878,35
7879,35
7880,35
7881,35
7882,35
7883,35
7884,36
7885,35
7886,35
7887,35
7888,35
7889,35
7890,35
7891,36
7892,36
7893,36
7894,36
7895,35
7896,35
7897,35
7898,37
7899,35
7900,35
7901,35
7902,35
7903,36
7904,35
7905,35
7906,35
7907,35
7908,36
7909,35
7910,36
7911,35
7912,35
7913,35
7914,35
7915,36
7916,36
7917,36
7918,35
7919,35
7920,35
7921,35
7922,35
7923,35
7924,35
7925,35
7926,35
7927,35
7928,36
7929,36
7930,36
7931,36
7932,36
7933,36
7934,36
7935,35
7936,35
7937,35
7938,35
7939,35
7940,35
7941,34
7942,34
7943,34
7944,34
7945,34
7946,34
7947,34
7948,34
7949,34
7950,34
7951,34
7952,34
7953,34
7954,34
7955,34
7956,34
7957,34
7958,34
7959,34
7960,34
7961,34
7962,34
7963,34
7964,34
7965,34
7966,34
7967,34
7968,35
7969,35
7970,35
7971,34
7972,33
7973,33
7974,33
7975,33
7976,33
7977,33
7978,33
7979,33
7980,33
7981,33
7982,33
7983,33
7984,33
7985,33
7986,33
7987,33
7988,33
7989,33
7990,33
7991,34
7992,33
7993,33
7994,33
7995,33
7996,33
7997,33
7998,33
7999,33
8000,33
8001,33
8002,33
8003,34
8004,34
8005,34
8006,34
8007,35
8008,34
8009,33
8010,33
8011,33
8012,33
8013,33
8014,33
8015,33
8016,33
8017,33
8018,34
8019,34
8020,34
8021,34
8022,34
8023,34
8024,33
8025,33
8026,33
8027,33
8028,33
8029,33
8030,33
8031,33
8032,34
8033,33
8034,33
8035,33
8036,33
8037,33
8038,33
8039,33
8040,33
8041,33
8042,33
8043,33
8044,33
8045,33
8046,33
8047,33
8048,33
8049,33
8050,33
8051,33
8052,33
8053,33
8054,33
8055,33
8056,33
8057,33
8058,33
8059,33
8060,33
8061,33
8062,33
8063,33
8064,33
8065,33
8066,33
8067,33
8068,33
8069,33
8070,33
8071,33
8072,33
8073,33
8074,33
8075,33
8076,33
8077,33
8078,33
8079,33
8080,33
8081,33
8082,33
8083,33
8084,33
8085,34
8086,33
8087,33
8088,33
8089,33
8090,33
8091,33
8092,33
8093,34
8094,33
8095,33
8096,33
8097,33
8098,33
8099,33
8100,33
8101,33
8102,33
8103,34
8104,34
8105,34
8106,34
8107,34
8108,34
8109,34
8110,34
8111,34
8112,34
8113,34
8114,34
8115,34
8116,34
8117,34
8118,34
8119,34
8120,34
8121,34
8122,34
8123,34
8124,34
8125,34
8126,34
8127,34
8128,34
8129,34
8130,34
8131,34
8132,34
8133,34
8134,34
8135,34
8136,34
8137,35
8138,35
8139,35
8140,34
8141,34
8142,34
8143,34
8144,34
8145,34
8146,34
8147,34
8148,34
8149,34
8150,34
8151,34
8152,34
8153,34
8154,34
8155,34
8156,34
8157,34
8158,34
8159,34
8160,34
8161,34
8162,34
8163,34
8164,34
8165,34
8166,34
8167,34
8168,34
8169,34
8170,34
8171,34
8172,34
8173,34
8174,34
8175,34
8176,34
8177,34
8178,34
8179,34
8180,34
8181,34
8182,34
8183,34
8184,34
8185,34
8186,34
8187,34
8188,34
8189,34
8190,34
8191,34
8192,34
8193,34
8194,34
8195,34
8196,34
8197,34
8198,34
8199,34
8200,34
8201,34
8202,34
8203,34
8204,34
8205,34
8206,34
8207,34
8208,34
8209,34
8210,35
8211,36
8212,36
8213,35
8214,35
8215,35
8216,35
8217,36
8218,36
8219,35
8220,35
8221,35
8222,35
8223,35
8224,35
8225,36
8226,36
8227,36
8228,37
8229,37
8230,37
8231,37
8232,37
8233,37
8234,37
8235,37
8236,36
8237,35
8238,36
8239,36
8240,36
8241,36
8242,36
8243,36
8244,36
8245,36
8246,36
8247,35
8248,35
8249,35
8250,35
8251,35
8252,35
8253,35
8254,35
8255,35
8256,35
8257,35
8258,35
8259,35
8260,35
8261,35
8262,35
8263,35
8264,35
8265,35
8266,35
8267,35
8268,35
8269,35
8270,35
8271,35
8272,35
8273,35
8274,35
8275,36
8276,36
8277,36
8278,37
8279,37
8280,36
8281,36
8282,36
8283,36
8284,36
8285,36
8286,35
8287,35
8288,35
8289,35
8290,35
8291,35
8292,35
8293,35
8294,35
8295,35
8296,35
8297,35
8298,35
8299,35
8300,35
8301,35
8302,35
8303,35
8304,35
8305,35
8306,35
8307,35
8308,35
8309,35
8310,35
8311,35
8312,35
8313,35
8314,35
8315,35
8316,35
8317,35
8318,35
8319,36
8320,35
8321,35
8322,35
8323,36
8324,35
8325,35
8326,35
8327,35
8328,35
8329,35
8330,35
8331,35
8332,35
8333,35
8334,35
8335,36
8336,35
8337,35
8338,35
8339,35
8340,35
8341,35
8342,36
8343,36
8344,36
8345,36
8346,36
8347,35
8348,35
8349,35
8350,35
8351,36
8352,36
8353,37
8354,36
8355,36
8356,36
8357,36
8358,36
8359,36
8360,36
8361,36
8362,36
8363,36
8364,36
8365