1,3
2,3
3,3
4,3
5,3
6,3
7,3
8,3
9,3
10,4
11,4
12,5
13,5
14,6
15,6
16,6
17,6
18,6
19,6
20,6
21,6
22,6
23,6
24,6
25,6
26,6
27,6
28,6
29,6
30,6
31,6
32,6
33,6
34,6
35,6
36,6
37,6
38,6
39,6
40,6
41,8
42,7
43,7
44,6
45,6
46,6
47,6
48,6
49,6
50,6
51,6
52,6
53,6
54,6
55,6
56,6
57,6
58,6
59,6
60,6
61,6
62,6
63,6
64,6
65,6
66,6
67,6
68,7
69,7
70,6
71,6
72,7
73,7
74,6
75,6
76,6
77,6
78,6
79,6
80,6
81,6
82,6
83,6
84,7
85,7
86,7
87,7
88,7
89,7
90,7
91,7
92,6
93,6
94,6
95,6
96,6
97,6
98,6
99,7
100,6
101,6
102,6
103,6
104,6
105,6
106,6
107,6
108,6
109,6
110,6
111,6
112,6
113,6
114,6
115,6
116,6
117,6
118,7
119,7
120,7
121,6
122,6
123,7
124,7
125,7
126,7
127,7
128,7
129,7
130,7
131,7
132,7
133,7
134,7
135,7
136,7
137,7
138,7
139,7
140,7
141,8
142,9
143,8
144,8
145,8
146,8
147,8
148,8
149,8
150,8
151,8
152,8
153,8
154,8
155,8
156,8
157,8
158,8
159,8
160,8
161,9
162,9
163,9
164,9
165,9
166,9
167,9
168,9
169,10
170,10
171,10
172,10
173,10
174,9
175,9
176,9
177,9
178,10
179,10
180,10
181,10
182,10
183,10
184,9
185,9
186,9
187,9
188,9
189,9
190,10
191,10
192,10
193,10
194,10
195,10
196,10
197,10
198,10
199,10
200,10
201,10
202,10
203,10
204,10
205,10
206,10
207,10
208,10
209,10
210,10
211,10
212,10
213,10
214,10
215,10
216,10
217,10
218,10
219,10
220,10
221,10
222,10
223,11
224,11
225,10
226,10
227,10
228,10
229,10
230,10
231,10
232,11
233,11
234,10
235,10
236,11
237,11
238,11
239,11
240,11
241,11
242,11
243,12
244,12
245,12
246,12
247,12
248,13
249,13
250,13
251,13
252,13
253,12
254,12
255,11
256,11
257,11
258,11
259,11
260,11
261,11
262,11
263,11
264,11
265,11
266,11
267,11
268,11
269,11
270,11
271,11
272,11
273,11
274,11
275,11
276,11
277,11
278,11
279,11
280,11
281,11
282,11
283,11
284,11
285,11
286,11
287,12
288,11
289,11
290,11
291,11
292,11
293,11
294,11
295,11
296,11
297,11
298,11
299,11
300,11
301,11
302,11
303,11
304,12
305,13
306,12
307,12
308,12
309,12
310,12
311,12
312,12
313,12
314,13
315,13
316,14
317,14
318,13
319,13
320,13
321,13
322,13
323,13
324,13
325,13
326,14
327,13
328,13
329,13
330,13
331,13
332,13
333,13
334,13
335,13
336,13
337,13
338,13
339,13
340,13
341,13
342,13
343,13
344,13
345,13
346,13
347,13
348,13
349,13
350,13
351,13
352,13
353,13
354,13
355,14
356,13
357,13
358,13
359,13
360,13
361,13
362,13
363,13
364,13
365,13
366,14
367,14
368,14
369,14
370,13
371,13
372,13
373,13
374,13
375,13
376,13
377,13
378,13
379,13
380,13
381,13
382,13
383,13
384,13
385,13
386,13
387,13
388,13
389,13
390,13
391,13
392,13
393,13
394,13
395,13
396,13
397,13
398,14
399,14
400,14
401,14
402,14
403,13
404,13
405,13
406,14
407,13
408,13
409,13
410,13
411,13
412,13
413,13
414,13
415,13
416,13
417,13
418,13
419,13
420,13
421,13
422,13
423,13
424,13
425,13
426,13
427,13
428,13
429,13
430,13
431,13
432,13
433,14
434,14
435,14
436,13
437,14
438,14
439,14
440,14
441,14
442,14
443,14
444,14
445,13
446,13
447,13
448,13
449,13
450,13
451,13
452,13
453,13
454,13
455,13
456,14
457,13
458,13
459,13
460,14
461,14
462,13
463,13
464,13
465,13
466,14
467,13
468,15
469,14
470,14
471,14
472,14
473,14
474,14
475,14
476,14
477,14
478,14
479,14
480,14
481,14
482,14
483,14
484,14
485,14
486,14
487,14
488,14
489,14
490,14
491,14
492,14
493,14
494,14
495,14
496,14
497,14
498,14
499,14
500,14
501,15
502,15
503,15
504,15
505,15
506,15
507,15
508,15
509,15
510,15
511,15
512,15
513,15
514,15
515,15
516,15
517,15
518,15
519,15
520,15
521,15
522,15
523,15
524,15
525,15
526,15
527,15
528,15
529,15
530,16
531,16
532,17
533,17
534,17
535,18
536,17
537,16
538,16
539,16
540,16
541,16
542,16
543,16
544,16
545,16
546,16
547,16
548,16
549,16
550,16
551,16
552,16
553,16
554,16
555,16
556,16
557,16
558,16
559,16
560,16
561,16
562,17
563,16
564,16
565,16
566,16
567,16
568,16
569,16
570,17
571,17
572,17
573,17
574,18
575,17
576,16
577,16
578,16
579,16
580,17
581,17
582,17
583,17
584,18
585,17
586,17
587,17
588,17
589,16
590,16
591,16
592,16
593,16
594,16
595,16
596,16
597,16
598,16
599,16
600,16
601,16
602,16
603,16
604,16
605,16
606,16
607,16
608,16
609,16
610,17
611,17
612,17
613,16
614,16
615,16
616,16
617,16
618,16
619,16
620,16
621,16
622,17
623,16
624,17
625,17
626,17
627,18
628,17
629,17
630,17
631,17
632,16
633,17
634,17
635,17
636,17
637,17
638,17
639,16
640,16
641,16
642,17
643,17
644,16
645,16
646,16
647,16
648,16
649,16
650,16
651,16
652,16
653,17
654,18
655,18
656,17
657,16
658,16
659,16
660,16
661,16
662,16
663,16
664,16
665,16
666,16
667,16
668,16
669,16
670,16
671,16
672,16
673,16
674,16
675,16
676,16
677,16
678,17
679,17
680,16
681,16
682,16
683,17
684,17
685,17
686,16
687,16
688,16
689,16
690,16
691,16
692,17
693,16
694,16
695,16
696,16
697,16
698,16
699,16
700,16
701,16
702,16
703,16
704,16
705,17
706,16
707,16
708,16
709,17
710,16
711,16
712,16
713,17
714,17
715,17
716,17
717,17
718,17
719,17
720,17
721,17
722,17
723,17
724,18
725,17
726,17
727,17
728,18
729,17
730,17
731,17
732,17
733,17
734,17
735,17
736,17
737,17
738,17
739,17
740,17
741,17
742,17
743,17
744,18
745,18
746,18
747,19
748,18
749,18
750,17
751,17
752,17
753,17
754,17
755,17
756,17
757,17
758,17
759,17
760,17
761,17
762,18
763,18
764,18
765,18
766,18
767,18
768,18
769,18
770,18
771,18
772,18
773,18
774,18
775,18
776,18
777,18
778,18
779,18
780,18
781,18
782,18
783,18
784,18
785,18
786,18
787,18
788,18
789,18
790,18
791,18
792,18
793,18
794,18
795,18
796,18
797,18
798,18
799,18
800,18
801,19
802,19
803,19
804,19
805,19
806,20
807,19
808,18
809,18
810,18
811,18
812,18
813,18
814,18
815,18
816,18
817,18
818,18
819,18
820,19
821,18
822,18
823,18
824,18
825,18
826,18
827,19
828,18
829,18
830,18
831,18
832,18
833,18
834,18
835,18
836,18
837,18
838,18
839,18
840,18
841,18
842,18
843,18
844,18
845,18
846,18
847,19
848,18
849,18
850,18
851,18
852,18
853,18
854,18
855,18
856,18
857,18
858,18
859,19
860,18
861,18
862,18
863,18
864,18
865,18
866,19
867,19
868,19
869,19
870,19
871,19
872,19
873,19
874,19
875,19
876,19
877,19
878,19
879,19
880,19
881,19
882,19
883,19
884,19
885,19
886,19
887,19
888,19
889,19
890,18
891,18
892,18
893,18
894,18
895,18
896,18
897,18
898,18
899,18
900,18
901,18
902,18
903,18
904,18
905,18
906,18
907,18
908,18
909,18
910,18
911,18
912,18
913,18
914,19
915,18
916,18
917,18
918,18
919,18
920,18
921,18
922,18
923,18
924,18
925,18
926,18
927,18
928,18
929,18
930,19
931,18
932,18
933,18
934,18
935,18
936,18
937,18
938,19
939,19
940,19
941,19
942,20
943,19
944,19
945,19
946,19
947,19
948,19
949,19
950,19
951,19
952,19
953,19
954,18
955,18
956,18
957,18
958,18
959,18
960,19
961,18
962,18
963,18
964,18
965,18
966,18
967,18
968,18
969,18
970,18
971,18
972,18
973,18
974,18
975,18
976,18
977,18
978,18
979,18
980,18
981,18
982,18
983,18
984,18
985,19
986,20
987,19
988,19
989,19
990,19
991,19
992,19
993,19
994,19
995,20
996,20
997,19
998,19
999,20
1000,20
1001,20
1002,20
1003,20
1004,20
1005,20
1006,20
1007,21
1008,21
1009,21
1010,21
1011,21
1012,21
1013,21
1014,21
1015,20
1016,20
1017,20
1018,20
1019,20
1020,20
1021,21
1022,21
1023,20
1024,20
1025,20
1026,20
1027,20
1028,21
1029,21
1030,20
1031,20
1032,20
1033,20
1034,19
1035,19
1036,19
1037,20
1038,19
1039,19
1040,19
1041,19
1042,19
1043,19
1044,19
1045,19
1046,19
1047,19
1048,19
1049,19
1050,19
1051,20
1052,19
1053,20
1054,20
1055,21
1056,21
1057,21
1058,21
1059,21
1060,21
1061,21
1062,21
1063,21
1064,21
1065,20
1066,20
1067,20
1068,20
1069,20
1070,20
1071,20
1072,20
1073,19
1074,19
1075,19
1076,19
1077,19
1078,20
1079,20
1080,20
1081,20
1082,20
1083,20
1084,20
1085,20
1086,20
1087,20
1088,20
1089,20
1090,20
1091,20
1092,20
1093,19
1094,19
1095,19
1096,19
1097,19
1098,19
1099,19
1100,19
1101,19
1102,19
1103,19
1104,19
1105,19
1106,19
1107,19
1108,19
1109,19
1110,19
1111,19
1112,19
1113,19
1114,19
1115,20
1116,20
1117,20
1118,20
1119,20
1120,19
1121,19
1122,19
1123,19
1124,19
1125,19
1126,19
1127,19
1128,19
1129,19
1130,19
1131,19
1132,19
1133,19
1134,19
1135,19
1136,19
1137,19
1138,19
1139,19
1140,19
1141,19
1142,19
1143,19
1144,19
1145,19
1146,19
1147,19
1148,19
1149,19
1150,19
1151,19
1152,19
1153,19
1154,19
1155,19
1156,19
1157,20
1158,21
1159,21
1160,21
1161,21
1162,21
1163,21
1164,22
1165,21
1166,22
1167,22
1168,21
1169,21
1170,22
1171,21
1172,21
1173,21
1174,21
1175,20
1176,20
1177,21
1178,21
1179,21
1180,20
1181,20
1182,21
1183,21
1184,20
1185,20
1186,20
1187,21
1188,21
1189,21
1190,21
1191,21
1192,21
1193,20
1194,20
1195,20
1196,20
1197,20
1198,20
1199,20
1200,20
1201,20
1202,20
1203,20
1204,20
1205,20
1206,20
1207,20
1208,20
1209,20
1210,20
1211,20
1212,20
1213,20
1214,20
1215,20
1216,20
1217,20
1218,20
1219,20
1220,20
1221,20
1222,20
1223,20
1224,20
1225,20
1226,20
1227,20
1228,20
1229,21
1230,20
1231,20
1232,20
1233,20
1234,20
1235,20
1236,20
1237,20
1238,20
1239,20
1240,20
1241,20
1242,20
1243,20
1244,20
1245,20
1246,20
1247,20
1248,20
1249,20
1250,20
1251,20
1252,21
1253,21
1254,21
1255,21
1256,21
1257,20
1258,20
1259,20
1260,20
1261,20
1262,20
1263,20
1264,20
1265,20
1266,20
1267,20
1268,20
1269,20
1270,20
1271,20
1272,21
1273,20
1274,20
1275,20
1276,20
1277,21
1278,20
1279,20
1280,20
1281,20
1282,20
1283,20
1284,20
1285,20
1286,20
1287,20
1288,20
1289,20
1290,20
1291,20
1292,20
1293,20
1294,20
1295,20
1296,20
1297,20
1298,20
1299,20
1300,20
1301,20
1302,20
1303,20
1304,20
1305,20
1306,20
1307,20
1308,20
1309,20
1310,20
1311,21
1312,21
1313,21
1314,21
1315,21
1316,20
1317,20
1318,21
1319,20
1320,20
1321,20
1322,20
1323,20
1324,20
1325,21
1326,21
1327,21
1328,21
1329,21
1330,20
1331,20
1332,20
1333,20
1334,20
1335,20
1336,20
1337,20
1338,20
1339,20
1340,20
1341,20
1342,20
1343,20
1344,20
1345,20
1346,20
1347,20
1348,20
1349,20
1350,20
1351,20
1352,20
1353,20
1354,20
1355,20
1356,20
1357,20
1358,20
1359,20
1360,20
1361,20
1362,20
1363,20
1364,20
1365,20
1366,20
1367,20
1368,20
1369,20
1370,20
1371,20
1372,20
1373,20
1374,20
1375,21
1376,21
1377,21
1378,21
1379,20
1380,20
1381,20
1382,20
1383,20
1384,20
1385,20
1386,21
1387,21
1388,21
1389,20
1390,20
1391,20
1392,20
1393,21
1394,21
1395,21
1396,21
1397,21
1398,21
1399,21
1400,21
1401,21
1402,21
1403,21
1404,21
1405,21
1406,21
1407,21
1408,21
1409,21
1410,21
1411,21
1412,21
1413,21
1414,21
1415,21
1416,21
1417,21
1418,21
1419,21
1420,21
1421,21
1422,21
1423,21
1424,21
1425,21
1426,21
1427,22
1428,21
1429,21
1430,21
1431,21
1432,21
1433,21
1434,21
1435,21
1436,21
1437,21
1438,21
1439,22
1440,21
1441,21
1442,21
1443,21
1444,21
1445,21
1446,22
1447,21
1448,21
1449,22
1450,21
1451,21
1452,21
1453,21
1454,21
1455,21
1456,21
1457,21
1458,21
1459,21
1460,22
1461,21
1462,21
1463,21
1464,21
1465,21
1466,21
1467,21
1468,21
1469,21
1470,21
1471,21
1472,21
1473,21
1474,22
1475,21
1476,21
1477,21
1478,21
1479,21
1480,21
1481,21
1482,21
1483,21
1484,21
1485,21
1486,21
1487,21
1488,21
1489,21
1490,21
1491,21
1492,21
1493,21
1494,21
1495,21
1496,21
1497,21
1498,21
1499,21
1500,21
1501,21
1502,21
1503,21
1504,21
1505,21
1506,22
1507,22
1508,22
1509,22
1510,22
1511,22
1512,22
1513,21
1514,21
1515,22
1516,21
1517,21
1518,21
1519,21
1520,21
1521,21
1522,21
1523,21
1524,21
1525,21
1526,21
1527,21
1528,21
1529,21
1530,21
1531,21
1532,21
1533,21
1534,21
1535,21
1536,21
1537,21
1538,21
1539,21
1540,21
1541,21
1542,21
1543,22
1544,22
1545,21
1546,21
1547,21
1548,21
1549,21
1550,22
1551,21
1552,21
1553,21
1554,21
1555,21
1556,21
1557,21
1558,21
1559,21
1560,21
1561,22
1562,22
1563,22
1564,22
1565,22
1566,21
1567,21
1568,21
1569,21
1570,21
1571,21
1572,21
1573,21
1574,21
1575,21
1576,21
1577,21
1578,21
1579,21
1580,21
1581,21
1582,21
1583,21
1584,21
1585,21
1586,21
1587,21
1588,21
1589,22
1590,21
1591,21
1592,21
1593,21
1594,21
1595,21
1596,21
1597,21
1598,21
1599,21
1600,21
1601,21
1602,21
1603,22
1604,21
1605,22
1606,22
1607,22
1608,22
1609,22
1610,21
1611,21
1612,21
1613,21
1614,21
1615,21
1616,21
1617,21
1618,21
1619,21
1620,21
1621,21
1622,21
1623,21
1624,21
1625,21
1626,21
1627,21
1628,21
1629,21
1630,21
1631,21
1632,21
1633,21
1634,21
1635,21
1636,21
1637,21
1638,21
1639,21
1640,21
1641,21
1642,21
1643,21
1644,21
1645,21
1646,21
1647,22
1648,21
1649,21
1650,22
1651,22
1652,22
1653,22
1654,22
1655,22
1656,22
1657,22
1658,22
1659,22
1660,22
1661,22
1662,22
1663,22
1664,23
1665,22
1666,22
1667,22
1668,22
1669,22
1670,22
1671,22
1672,22
1673,22
1674,22
1675,22
1676,23
1677,24
1678,22
1679,22
1680,22
1681,22
1682,22
1683,22
1684,22
1685,22
1686,22
1687,22
1688,22
1689,22
1690,22
1691,22
1692,22
1693,22
1694,22
1695,22
1696,22
1697,22
1698,22
1699,22
1700,22
1701,22
1702,22
1703,22
1704,22
1705,22
1706,22
1707,22
1708,22
1709,22
1710,22
1711,22
1712,22
1713,22
1714,22
1715,22
1716,23
1717,23
1718,22
1719,22
1720,22
1721,22
1722,22
1723,22
1724,22
1725,22
1726,22
1727,22
1728,22
1729,22
1730,22
1731,22
1732,22
1733,23
1734,23
1735,22
1736,22
1737,22
1738,22
1739,22
1740,22
1741,22
1742,23
1743,23
1744,23
1745,23
1746,23
1747,23
1748,23
1749,23
1750,23
1751,23
1752,24
1753,23
1754,22
1755,22
1756,22
1757,22
1758,22
1759,22
1760,22
1761,22
1762,22
1763,22
1764,22
1765,22
1766,22
1767,22
1768,22
1769,22
1770,22
1771,22
1772,22
1773,22
1774,23
1775,22
1776,22
1777,22
1778,22
1779,22
1780,22
1781,22
1782,22
1783,22
1784,22
1785,22
1786,23
1787,23
1788,23
1789,23
1790,23
1791,23
1792,23
1793,23
1794,23
1795,23
1796,24
1797,24
1798,23
1799,24
1800,24
1801,24
1802,23
1803,22
1804,22
1805,22
1806,22
1807,22
1808,22
1809,22
1810,22
1811,22
1812,22
1813,22
1814,22
1815,22
1816,22
1817,23
1818,22
1819,22
1820,22
1821,22
1822,22
1823,22
1824,22
1825,22
1826,22
1827,22
1828,22
1829,22
1830,22
1831,22
1832,22
1833,22
1834,22
1835,22
1836,22
1837,22
1838,22
1839,22
1840,22
1841,22
1842,22
1843,22
1844,22
1845,22
1846,22
1847,22
1848,22
1849,22
1850,22
1851,22
1852,22
1853,22
1854,22
1855,22
1856,22
1857,22
1858,22
1859,22
1860,22
1861,22
1862,22
1863,22
1864,22
1865,22
1866,22
1867,22
1868,22
1869,22
1870,22
1871,22
1872,22
1873,22
1874,22
1875,22
1876,22
1877,23
1878,23
1879,22
1880,22
1881,22
1882,22
1883,22
1884,22
1885,22
1886,23
1887,23
1888,23
1889,23
1890,23
1891,23
1892,23
1893,23
1894,23
1895,23
1896,23
1897,23
1898,23
1899,23
1900,23
1901,23
1902,23
1903,23
1904,23
1905,23
1906,23
1907,23
1908,23
1909,23
1910,23
1911,23
1912,23
1913,23
1914,23
1915,23
1916,23
1917,23
1918,23
1919,23
1920,23
1921,23
1922,23
1923,23
1924,23
1925,23
1926,23
1927,23
1928,23
1929,23
1930,23
1931,23
1932,23
1933,23
1934,24
1935,24
1936,24
1937,24
1938,24
1939,24
1940,24
1941,24
1942,24
1943,24
1944,24
1945,24
1946,24
1947,24
1948,24
1949,24
1950,24
1951,24
1952,24
1953,24
1954,23
1955,23
1956,23
1957,23
1958,23
1959,24
1960,24
1961,23
1962,23
1963,23
1964,23
1965,23
1966,23
1967,23
1968,23
1969,23
1970,23
1971,23
1972,23
1973,23
1974,23
1975,23
1976,23
1977,23
1978,23
1979,23
1980,23
1981,23
1982,23
1983,23
1984,23
1985,23
1986,23
1987,23
1988,23
1989,23
1990,23
1991,23
1992,23
1993,23
1994,23
1995,23
1996,23
1997,23
1998,23
1999,23
2000,23
2001,23
2002,23
2003,23
2004,24
2005,24
2006,24
2007,24
2008,24
2009,24
2010,24
2011,24
2012,24
2013,23
2014,23
2015,23
2016,23
2017,23
2018,23
2019,23
2020,23
2021,23
2022,23
2023,23
2024,23
2025,23
2026,23
2027,23
2028,23
2029,23
2030,23
2031,23
2032,23
2033,23
2034,23
2035,23
2036,23
2037,23
2038,23
2039,23
2040,23
2041,23
2042,23
2043,23
2044,23
2045,23
2046,23
2047,24
2048,23
2049,23
2050,24
2051,23
2052,23
2053,23
2054,23
2055,23
2056,24
2057,24
2058,24
2059,24
2060,24
2061,24
2062,24
2063,24
2064,24
2065,24
2066,24
2067,24
2068,24
2069,24
2070,24
2071,24
2072,24
2073,24
2074,24
2075,24
2076,24
2077,24
2078,24
2079,24
2080,24
2081,24
2082,26
2083,24
2084,24
2085,24
2086,25
2087,25
2088,24
2089,24
2090,24
2091,23
2092,23
2093,23
2094,23
2095,23
2096,23
2097,24
2098,23
2099,23
2100,23
2101,23
2102,23
2103,23
2104,23
2105,23
2106,23
2107,23
2108,23
2109,23
2110,23
2111,23
2112,24
2113,24
2114,24
2115,24
2116,24
2117,24
2118,24
2119,24
2120,23
2121,23
2122,23
2123,23
2124,23
2125,23
2126,23
2127,23
2128,23
2129,23
2130,23
2131,23
2132,23
2133,23
2134,23
2135,23
2136,23
2137,23
2138,23
2139,23
2140,23
2141,23
2142,23
2143,23
2144,23
2145,24
2146,23
2147,23
2148,23
2149,23
2150,23
2151,23
2152,23
2153,23
2154,23
2155,23
2156,23
2157,23
2158,23
2159,23
2160,23
2161,23
2162,24
2163,23
2164,23
2165,23
2166,23
2167,23
2168,24
2169,23
2170,23
2171,23
2172,23
2173,23
2174,23
2175,23
2176,23
2177,23
2178,23
2179,23
2180,23
2181,23
2182,23
2183,23
2184,23
2185,23
2186,23
2187,23
2188,23
2189,23
2190,23
2191,23
2192,23
2193,23
2194,23
2195,23
2196,23
2197,23
2198,23
2199,23
2200,23
2201,23
2202,23
2203,23
2204,23
2205,23
2206,23
2207,23
2208,23
2209,23
2210,24
2211,23
2212,23
2213,23
2214,23
2215,23
2216,23
2217,23
2218,23
2219,23
2220,23
2221,23
2222,23
2223,23
2224,23
2225,23
2226,23
2227,23
2228,23
2229,23
2230,23
2231,23
2232,23
2233,23
2234,23
2235,23
2236,23
2237,23
2238,23
2239,23
2240,23
2241,23
2242,23
2243,23
2244,23
2245,23
2246,23
2247,23
2248,23
2249,23
2250,23
2251,23
2252,23
2253,23
2254,23
2255,23
2256,23
2257,23
2258,23
2259,23
2260,23
2261,23
2262,23
2263,23
2264,23
2265,23
2266,23
2267,23
2268,23
2269,23
2270,23
2271,23
2272,23
2273,24
2274,24
2275,24
2276,24
2277,24
2278,23
2279,23
2280,23
2281,23
2282,23
2283,23
2284,23
2285,23
2286,23
2287,23
2288,23
2289,24
2290,24
2291,23
2292,23
2293,23
2294,23
2295,23
2296,23
2297,23
2298,23
2299,23
2300,24
2301,23
2302,23
2303,23
2304,23
2305,23
2306,23
2307,23
2308,23
2309,23
2310,23
2311,23
2312,23
2313,23
2314,23
2315,24
2316,24
2317,23
2318,24
2319,24
2320,24
2321,23
2322,23
2323,23
2324,23
2325,23
2326,23
2327,23
2328,23
2329,23
2330,23
2331,23
2332,23
2333,23
2334,23
2335,23
2336,23
2337,23
2338,23
2339,23
2340,23
2341,23
2342,23
2343,23
2344,23
2345,24
2346,23
2347,23
2348,23
2349,23
2350,23
2351,23
2352,23
2353,23
2354,23
2355,23
2356,23
2357,23
2358,23
2359,23
2360,23
2361,23
2362,23
2363,23
2364,23
2365,23
2366,24
2367,24
2368,23
2369,23
2370,23
2371,23
2372,24
2373,23
2374,23
2375,24
2376,23
2377,23
2378,23
2379,23
2380,23
2381,24
2382,23
2383,23
2384,23
2385,24
2386,24
2387,25
2388,25
2389,24
2390,23
2391,23
2392,24
2393,24
2394,24
2395,24
2396,24
2397,25
2398,25
2399,25
2400,25
2401,26
2402,26
2403,26
2404,25
2405,25
2406,25
2407,25
2408,26
2409,25
2410,25
2411,25
2412,25
2413,25
2414,25
2415,25
2416,25
2417,25
2418,26
2419,26
2420,26
2421,25
2422,25
2423,25
2424,25
2425,25
2426,25
2427,25
2428,25
2429,25
2430,25
2431,25
2432,25
2433,25
2434,26
2435,25
2436,25
2437,25
2438,25
2439,25
2440,25
2441,25
2442,25
2443,25
2444,26
2445,25
2446,25
2447,25
2448,25
2449,25
2450,25
2451,25
2452,25
2453,25
2454,25
2455,25
2456,25
2457,25
2458,25
2459,25
2460,25
2461,25
2462,26
2463,26
2464,25
2465,25
2466,25
2467,25
2468,25
2469,25
2470,26
2471,26
2472,26
2473,26
2474,26
2475,25
2476,25
2477,26
2478,26
2479,26
2480,26
2481,26
2482,25
2483,25
2484,25
2485,25
2486,25
2487,25
2488,25
2489,25
2490,25
2491,25
2492,25
2493,25
2494,25
2495,25
2496,25
2497,25
2498,25
2499,25
2500,25
2501,25
2502,25
2503,25
2504,25
2505,25
2506,25
2507,26
2508,25
2509,25
2510,25
2511,25
2512,27
2513,27
2514,27
2515,27
2516,27
2517,26
2518,26
2519,26
2520,26
2521,26
2522,26
2523,26
2524,26
2525,26
2526,26
2527,26
2528,26
2529,26
2530,26
2531,26
2532,26
2533,26
2534,26
2535,26
2536,25
2537,25
2538,25
2539,25
2540,25
2541,25
2542,25
2543,25
2544,25
2545,25
2546,26
2547,25
2548,26
2549,25
2550,25
2551,25
2552,25
2553,25
2554,25
2555,25
2556,25
2557,25
2558,25
2559,25
2560,25
2561,25
2562,25
2563,26
2564,26
2565,26
2566,26
2567,26
2568,26
2569,26
2570,26
2571,26
2572,26
2573,26
2574,26
2575,26
2576,26
2577,26
2578,26
2579,26
2580,26
2581,26
2582,26
2583,26
2584,26
2585,26
2586,26
2587,26
2588,26
2589,27
2590,27
2591,27
2592,27
2593,27
2594,27
2595,27
2596,27
2597,26
2598,26
2599,26
2600,26
2601,26
2602,26
2603,26
2604,26
2605,26
2606,26
2607,26
2608,26
2609,25
2610,25
2611,26
2612,25
2613,25
2614,25
2615,25
2616,25
2617,25
2618,25
2619,25
2620,25
2621,25
2622,25
2623,25
2624,25
2625,25
2626,26
2627,26
2628,25
2629,25
2630,25
2631,25
2632,26
2633,26
2634,25
2635,25
2636,25
2637,25
2638,25
2639,25
2640,25
2641,25
2642,25
2643,26
2644,25
2645,25
2646,25
2647,25
2648,25
2649,25
2650,25
2651,25
2652,25
2653,25
2654,25
2655,25
2656,25
2657,25
2658,25
2659,25
2660,25
2661,25
2662,25
2663,25
2664,25
2665,25
2666,25
2667,25
2668,25
2669,25
2670,25
2671,25
2672,25
2673,25
2674,25
2675,26
2676,26
2677,26
2678,26
2679,26
2680,26
2681,25
2682,26
2683,25
2684,25
2685,25
2686,25
2687,25
2688,25
2689,25
2690,25
2691,25
2692,25
2693,25
2694,26
2695,25
2696,25
2697,25
2698,25
2699,25
2700,25
2701,25
2702,25
2703,25
2704,25
2705,25
2706,25
2707,25
2708,25
2709,25
2710,25
2711,25
2712,25
2713,25
2714,25
2715,25
2716,25
2717,25
2718,25
2719,25
2720,25
2721,25
2722,25
2723,25
2724,25
2725,25
2726,25
2727,25
2728,25
2729,25
2730,25
2731,25
2732,25
2733,25
2734,25
2735,25
2736,25
2737,25
2738,25
2739,25
2740,25
2741,25
2742,25
2743,25
2744,25
2745,25
2746,25
2747,25
2748,26
2749,26
2750,26
2751,25
2752,25
2753,25
2754,25
2755,25
2756,25
2757,25
2758,25
2759,25
2760,25
2761,25
2762,25
2763,25
2764,25
2765,26
2766,25
2767,25
2768,25
2769,25
2770,25
2771,25
2772,25
2773,26
2774,26
2775,26
2776,26
2777,26
2778,26
2779,26
2780,26
2781,26
2782,27
2783,26
2784,26
2785,26
2786,26
2787,25
2788,25
2789,25
2790,25
2791,25
2792,26
2793,26
2794,25
2795,25
2796,25
2797,25
2798,25
2799,25
2800,25
2801,25
2802,26
2803,28
2804,28
2805,27
2806,27
2807,27
2808,26
2809,26
2810,26
2811,26
2812,26
2813,26
2814,26
2815,26
2816,26
2817,26
2818,27
2819,27
2820,26
2821,27
2822,26
2823,26
2824,26
2825,26
2826,26
2827,26
2828,27
2829,26
2830,26
2831,26
2832,26
2833,26
2834,26
2835,26
2836,26
2837,26
2838,26
2839,26
2840,26
2841,26
2842,26
2843,26
2844,26
2845,26
2846,26
2847,26
2848,26
2849,26
2850,26
2851,26
2852,26
2853,26
2854,26
2855,26
2856,26
2857,26
2858,26
2859,26
2860,26
2861,26
2862,26
2863,26
2864,26
2865,26
2866,26
2867,26
2868,26
2869,26
2870,26
2871,26
2872,26
2873,26
2874,26
2875,27
2876,28
2877,28
2878,28
2879,28
2880,28
2881,28
2882,28
2883,28
2884,28
2885,28
2886,28
2887,28
2888,29
2889,29
2890,29
2891,29
2892,28
2893,28
2894,27
2895,27
2896,27
2897,27
2898,27
2899,27
2900,27
2901,27
2902,27
2903,27
2904,27
2905,27
2906,27
2907,27
2908,27
2909,29
2910,29
2911,28
2912,28
2913,28
2914,28
2915,28
2916,28
2917,28
2918,28
2919,27
2920,27
2921,27
2922,27
2923,27
2924,27
2925,27
2926,27
2927,27
2928,27
2929,27
2930,27
2931,27
2932,28
2933,28
2934,28
2935,28
2936,29
2937,28
2938,28
2939,28
2940,28
2941,28
2942,28
2943,28
2944,28
2945,30
2946,28
2947,28
2948,28
2949,28
2950,28
2951,28
2952,28
2953,28
2954,28
2955,28
2956,28
2957,29
2958,29
2959,28
2960,28
2961,28
2962,28
2963,28
2964,28
2965,28
2966,28
2967,28
2968,28
2969,28
2970,28
2971,28
2972,28
2973,28
2974,28
2975,28
2976,28
2977,28
2978,28
2979,28
2980,28
2981,28
2982,28
2983,28
2984,28
2985,28
2986,28
2987,28
2988,28
2989,28
2990,28
2991,28
2992,28
2993,28
2994,28
2995,28
2996,28
2997,28
2998,28
2999,28
3000,28
3001,28
3002,28
3003,28
3004,28
3005,29
3006,29
3007,28
3008,28
3009,28
3010,29
3011,29
3012,29
3013,29
3014,29
3015,28
3016,28
3017,29
3018,29
3019,28
3020,28
3021,28
3022,28
3023,28
3024,28
3025,28
3026,28
3027,28
3028,28
3029,28
3030,28
3031,28
3032,28
3033,28
3034,28
3035,28
3036,28
3037,28
3038,28
3039,28
3040,28
3041,28
3042,28
3043,28
3044,28
3045,28
3046,28
3047,28
3048,28
3049,28
3050,28
3051,28
3052,28
3053,29
3054,29
3055,28
3056,28
3057,28
3058,28
3059,28
3060,28
3061,28
3062,28
3063,28
3064,28
3065,28
3066,28
3067,28
3068,28
3069,28
3070,28
3071,28
3072,28
3073,28
3074,28
3075,28
3076,28
3077,28
3078,28
3079,28
3080,28
3081,28
3082,29
3083,29
3084,28
3085,28
3086,28
3087,28
3088,28
3089,28
3090,28
3091,28
3092,29
3093,29
3094,29
3095,29
3096,29
3097,29
3098,29
3099,28
3100,28
3101,29
3102,29
3103,29
3104,29
3105,28
3106,28
3107,28
3108,28
3109,28
3110,28
3111,28
3112,28
3113,28
3114,28
3115,28
3116,28
3117,28
3118,28
3119,28
3120,28
3121,28
3122,28
3123,28
3124,28
3125,28
3126,28
3127,28
3128,28
3129,28
3130,28
3131,28
3132,28
3133,28
3134,29
3135,29
3136,28
3137,28
3138,28
3139,28
3140,28
3141,29
3142,29
3143,29
3144,29
3145,29
3146,29
3147,29
3148,29
3149,29
3150,29
3151,29
3152,29
3153,29
3154,29
3155,29
3156,29
3157,29
3158,28
3159,28
3160,29
3161,29
3162,29
3163,29
3164,29
3165,29
3166,29
3167,29
3168,29
3169,28
3170,28
3171,28
3172,28
3173,28
3174,28
3175,28
3176,28
3177,28
3178,29
3179,28
3180,28
3181,28
3182,28
3183,28
3184,29
3185,28
3186,28
3187,28
3188,28
3189,28
3190,28
3191,28
3192,28
3193,28
3194,28
3195,28
3196,28
3197,28
3198,28
3199,28
3200,28
3201,28
3202,28
3203,28
3204,28
3205,28
3206,28
3207,28
3208,28
3209,28
3210,28
3211,28
3212,28
3213,28
3214,28
3215,28
3216,28
3217,28
3218,28
3219,28
3220,28
3221,28
3222,28
3223,28
3224,28
3225,28
3226,28
3227,28
3228,28
3229,28
3230,28
3231,28
3232,28
3233,28
3234,28
3235,28
3236,28
3237,28
3238,28
3239,28
3240,28
3241,28
3242,28
3243,28
3244,28
3245,28
3246,28
3247,29
3248,29
3249,29
3250,28
3251,28
3252,28
3253,28
3254,28
3255,28
3256,28
3257,28
3258,28
3259,28
3260,28
3261,28
3262,28
3263,29
3264,28
3265,28
3266,28
3267,28
3268,28
3269,29
3270,30
3271,28
3272,28
3273,30
3274,29
3275,29
3276,29
3277,29
3278,29
3279,29
3280,30
3281,28
3282,28
3283,28
3284,28
3285,28
3286,28
3287,28
3288,28
3289,28
3290,28
3291,28
3292,28
3293,28
3294,28
3295,28
3296,28
3297,28
3298,28
3299,28
3300,28
3301,28
3302,29
3303,29
3304,29
3305,29
3306,29
3307,29
3308,29
3309,28
3310,28
3311,28
3312,29
3313,29
3314,29
3315,29
3316,29
3317,28
3318,28
3319,28
3320,28
3321,28
3322,28
3323,28
3324,28
3325,28
3326,28
3327,28
3328,28
3329,28
3330,28
3331,28
3332,28
3333,28
3334,28
3335,28
3336,28
3337,28
3338,28
3339,28
3340,28
3341,28
3342,29
3343,29
3344,29
3345,29
3346,29
3347,29
3348,30
3349,29
3350,29
3351,29
3352,29
3353,29
3354,29
3355,29
3356,29
3357,29
3358,29
3359,29
3360,29
3361,29
3362,30
3363,30
3364,29
3365,29
3366,29
3367,28
3368,28
3369,28
3370,28
3371,28
3372,28
3373,28
3374,28
3375,28
3376,28
3377,28
3378,28
3379,28
3380,28
3381,28
3382,28
3383,28
3384,28
3385,28
3386,28
3387,28
3388,28
3389,28
3390,28
3391,29
3392,29
3393,30
3394,30
3395,29
3396,29
3397,30
3398,30
3399,29
3400,29
3401,29
3402,29
3403,29
3404,29
3405,29
3406,29
3407,29
3408,30
3409,29
3410,29
3411,29
3412,30
3413,30
3414,30
3415,29
3416,29
3417,29
3418,29
3419,29
3420,29
3421,29
3422,29
3423,29
3424,29
3425,29
3426,29
3427,29
3428,29
3429,29
3430,29
3431,29
3432,30
3433,30
3434,29
3435,29
3436,29
3437,29
3438,29
3439,29
3440,29
3441,29
3442,30
3443,29
3444,29
3445,29
3446,29
3447,29
3448,29
3449,29
3450,30
3451,30
3452,30
3453,29
3454,30
3455,29
3456,29
3457,29
3458,29
3459,29
3460,29
3461,29
3462,29
3463,29
3464,29
3465,29
3466,29
3467,29
3468,29
3469,29
3470,29
3471,29
3472,29
3473,29
3474,30
3475,29
3476,29
3477,29
3478,30
3479,29
3480,29
3481,30
3482,29
3483,29
3484,29
3485,30
3486,29
3487,29
3488,29
3489,29
3490,29
3491,29
3492,29
3493,29
3494,29
3495,29
3496,30
3497,30
3498,30
3499,29
3500,29
3501,29
3502,29
3503,29
3504,29
3505,29
3506,29
3507,29
3508,29
3509,29
3510,29
3511,29
3512,29
3513,29
3514,29
3515,29
3516,29
3517,29
3518,29
3519,29
3520,29
3521,29
3522,29
3523,29
3524,29
3525,29
3526,29
3527,29
3528,29
3529,30
3530,29
3531,29
3532,29
3533,29
3534,29
3535,30
3536,29
3537,29
3538,29
3539,29
3540,29
3541,29
3542,29
3543,29
3544,29
3545,29
3546,29
3547,29
3548,29
3549,29
3550,29
3551,29
3552,29
3553,29
3554,29
3555,29
3556,29
3557,29
3558,29
3559,29
3560,29
3561,29
3562,29
3563,29
3564,29
3565,29
3566,29
3567,29
3568,29
3569,29
3570,29
3571,29
3572,29
3573,29
3574,30
3575,29
3576,29
3577,29
3578,30
3579,29
3580,29
3581,29
3582,29
3583,29
3584,29
3585,29
3586,29
3587,29
3588,29
3589,29
3590,29
3591,29
3592,29
3593,29
3594,29
3595,29
3596,29
3597,29
3598,29
3599,29
3600,29
3601,29
3602,29
3603,29
3604,30
3605,30
3606,31
3607,31
3608,30
3609,30
3610,30
3611,30
3612,30
3613,30
3614,30
3615,30
3616,30
3617,30
3618,30
3619,30
3620,30
3621,30
3622,30
3623,30
3624,30
3625,30
3626,30
3627,30
3628,30
3629,30
3630,30
3631,30
3632,30
3633,30
3634,29
3635,29
3636,29
3637,29
3638,29
3639,29
3640,29
3641,30
3642,29
3643,29
3644,29
3645,29
3646,29
3647,29
3648,29
3649,29
3650,29
3651,29
3652,29
3653,29
3654,29
3655,29
3656,29
3657,29
3658,29
3659,29
3660,29
3661,29
3662,29
3663,29
3664,29
3665,29
3666,29
3667,29
3668,29
3669,29
3670,29
3671,29
3672,29
3673,29
3674,29
3675,29
3676,30
3677,29
3678,29
3679,29
3680,30
3681,30
3682,29
3683,29
3684,29
3685,29
3686,29
3687,29
3688,29
3689,29
3690,29
3691,29
3692,29
3693,29
3694,29
3695,29
3696,30
3697,29
3698,29
3699,29
3700,29
3701,29
3702,29
3703,29
3704,29
3705,29
3706,29
3707,30
3708,30
3709,30
3710,30
3711,30
3712,29
3713,29
3714,29
3715,29
3716,29
3717,29
3718,29
3719,29
3720,29
3721,29
3722,29
3723,29
3724,29
3725,29
3726,29
3727,29
3728,29
3729,29
3730,29
3731,29
3732,29
3733,29
3734,29
3735,29
3736,30
3737,29
3738,29
3739,29
3740,29
3741,29
3742,29
3743,29
3744,29
3745,29
3746,32
3747,31
3748,31
3749,31
3750,31
3751,29
3752,29
3753,29
3754,29
3755,29
3756,29
3757,29
3758,29
3759,29
3760,29
3761,29
3762,29
3763,29
3764,29
3765,29
3766,29
3767,29
3768,29
3769,30
3770,30
3771,29
3772,29
3773,29
3774,29
3775,29
3776,29
3777,29
3778,30
3779,30
3780,30
3781,30
3782,30
3783,29
3784,29
3785,29
3786,29
3787,29
3788,29
3789,29
3790,29
3791,29
3792,30
3793,29
3794,29
3795,29
3796,29
3797,29
3798,29
3799,29
3800,29
3801,29
3802,29
3803,29
3804,29
3805,29
3806,29
3807,30
3808,30
3809,30
3810,29
3811,29
3812,30
3813,29
3814,29
3815,30
3816,29
3817,29
3818,29
3819,29
3820,29
3821,29
3822,29
3823,29
3824,29
3825,29
3826,29
3827,29
3828,29
3829,29
3830,29
3831,29
3832,29
3833,30
3834,29
3835,29
3836,29
3837,29
3838,29
3839,29
3840,29
3841,29
3842,29
3843,29
3844,29
3845,29
3846,29
3847,29
3848,29
3849,29
3850,30
3851,29
3852,30
3853,30
3854,29
3855,29
3856,29
3857,29
3858,29
3859,29
3860,29
3861,29
3862,29
3863,29
3864,29
3865,29
3866,29
3867,29
3868,29
3869,29
3870,29
3871,29
3872,29
3873,29
3874,29
3875,29
3876,29
3877,29
3878,29
3879,30
3880,29
3881,29
3882,29
3883,29
3884,29
3885,29
3886,30
3887,29
3888,29
3889,29
3890,29
3891,29
3892,29
3893,29
3894,29
3895,30
3896,30
3897,30
3898,30
3899,30
3900,30
3901,30
3902,30
3903,30
3904,30
3905,31
3906,30
3907,30
3908,31
3909,31
3910,30
3911,30
3912,30
3913,30
3914,30
3915,30
3916,30
3917,30
3918,30
3919,30
3920,30
3921,30
3922,30
3923,30
3924,30
3925,30
3926,30
3927,30
3928,30
3929,30
3930,30
3931,30
3932,30
3933,30
3934,30
3935,30
3936,30
3937,29
3938,30
3939,30
3940,30
3941,30
3942,30
3943,30
3944,29
3945,29
3946,29
3947,29
3948,29
3949,30
3950,30
3951,30
3952,30
3953,29
3954,29
3955,29
3956,29
3957,30
3958,30
3959,30
3960,30
3961,30
3962,30
3963,29
3964,29
3965,29
3966,29
3967,29
3968,30
3969,29
3970,29
3971,29
3972,29
3973,29
3974,29
3975,30
3976,30
3977,29
3978,29
3979,29
3980,29
3981,29
3982,29
3983,29
3984,29
3985,29
3986,30
3987,29
3988,29
3989,29
3990,29
3991,29
3992,29
3993,29
3994,29
3995,29
3996,29
3997,29
3998,29
3999,30
4000,30
4001,30
4002,30
4003,30
4004,30
4005,30
4006,30
4007,30
4008,30
4009,30
4010,30
4011,30
4012,30
4013,30
4014,30
4015,29
4016,29
4017,30
4018,29
4019,29
4020,29
4021,29
4022,30
4023,30
4024,30
4025,30
4026,30
4027,30
4028,29
4029,29
4030,29
4031,29
4032,29
4033,29
4034,29
4035,29
4036,29
4037,30
4038,29
4039,29
4040,29
4041,29
4042,29
4043,29
4044,29
4045,29
4046,29
4047,29
4048,29
4049,29
4050,29
4051,29
4052,29
4053,29
4054,30
4055,30
4056,30
4057,29
4058,29
4059,29
4060,29
4061,29
4062,29
4063,29
4064,29
4065,30
4066,30
4067,29
4068,29
4069,29
4070,29
4071,30
4072,30
4073,30
4074,29
4075,29
4076,29
4077,29
4078,29
4079,29
4080,29
4081,29
4082,29
4083,29
4084,29
4085,29
4086,30
4087,29
4088,29
4089,29
4090,30
4091,30
4092,30
4093,30
4094,30
4095,30
4096,30
4097,30
4098,30
4099,29
4100,29
4101,29
4102,29
4103,29
4104,29
4105,29
4106,29
4107,29
4108,29
4109,29
4110,29
4111,30
4112,30
4113,29
4114,29
4115,29
4116,29
4117,29
4118,29
4119,29
4120,29
4121,29
4122,29
4123,29
4124,29
4125,29
4126,29
4127,29
4128,29
4129,29
4130,29
4131,29
4132,29
4133,29
4134,29
4135,29
4136,29
4137,29
4138,29
4139,29
4140,29
4141,29
4142,29
4143,29
4144,30
4145,30
4146,29
4147,29
4148,29
4149,29
4150,29
4151,29
4152,29
4153,29
4154,29
4155,29
4156,29
4157,29
4158,29
4159,29
4160,29
4161,29
4162,29
4163,29
4164,29
4165,29
4166,29
4167,29
4168,29
4169,29
4170,29
4171,29
4172,30
4173,30
4174,30
4175,30
4176,29
4177,29
4178,29
4179,29
4180,29
4181,29
4182,29
4183,29
4184,29
4185,29
4186,29
4187,29
4188,29
4189,29
4190,29
4191,29
4192,29
4193,29
4194,29
4195,29
4196,29
4197,29
4198,29
4199,29
4200,29
4201,29
4202,29
4203,29
4204,29
4205,29
4206,29
4207,29
4208,29
4209,29
4210,29
4211,29
4212,30
4213,29
4214,29
4215,29
4216,29
4217,29
4218,29
4219,29
4220,29
4221,29
4222,29
4223,29
4224,29
4225,29
4226,29
4227,29
4228,29
4229,30
4230,30
4231,30
4232,30
4233,30
4234,31
4235,31
4236,31
4237,31
4238,31
4239,30
4240,30
4241,29
4242,29
4243,30
4244,30
4245,30
4246,31
4247,31
4248,31
4249,31
4250,31
4251,31
4252,32
4253,32
4254,31
4255,31
4256,31
4257,31
4258,31
4259,31
4260,32
4261,31
4262,31
4263,31
4264,32
4265,31
4266,31
4267,31
4268,30
4269,30
4270,30
4271,30
4272,30
4273,30
4274,30
4275,30
4276,30
4277,30
4278,30
4279,30
4280,30
4281,30
4282,30
4283,30
4284,30
4285,30
4286,30
4287,30
4288,32
4289,32
4290,32
4291,31
4292,31
4293,31
4294,31
4295,30
4296,30
4297,30
4298,31
4299,30
4300,30
4301,30
4302,30
4303,30
4304,30
4305,30
4306,30
4307,30
4308,30
4309,30
4310,31
4311,31
4312,30
4313,30
4314,30
4315,30
4316,30
4317,30
4318,30
4319,30
4320,30
4321,30
4322,30
4323,30
4324,30
4325,30
4326,30
4327,30
4328,30
4329,30
4330,30
4331,31
4332,30
4333,30
4334,30
4335,30
4336,30
4337,31
4338,31
4339,31
4340,31
4341,31
4342,30
4343,30
4344,30
4345,31
4346,31
4347,31
4348,31
4349,31
4350,31
4351,31
4352,31
4353,31
4354,31
4355,31
4356,31
4357,32
4358,31
4359,31
4360,31
4361,31
4362,31
4363,31
4364,31
4365,31
4366,31
4367,31
4368,31
4369,31
4370,31
4371,31
4372,31
4373,31
4374,31
4375,31
4376,31
4377,31
4378,31
4379,31
4380,31
4381,31
4382,31
4383,31
4384,31
4385,31
4386,31
4387,31
4388,31
4389,31
4390,31
4391,31
4392,32
4393,31
4394,31
4395,31
4396,31
4397,31
4398,31
4399,31
4400,31
4401,31
4402,31
4403,31
4404,31
4405,32
4406,32
4407,32
4408,32
4409,32
4410,32
4411,32
4412,32
4413,32
4414,32
4415,32
4416,32
4417,32
4418,32
4419,32
4420,32
4421,32
4422,32
4423,32
4424,32
4425,32
4426,32
4427,32
4428,32
4429,32
4430,32
4431,32
4432,32
4433,32
4434,32
4435,32
4436,33
4437,33
4438,32
4439,32
4440,32
4441,32
4442,33
4443,33
4444,33
4445,33
4446,33
4447,33
4448,33
4449,32
4450,32
4451,32
4452,32
4453,32
4454,32
4455,32
4456,32
4457,32
4458,32
4459,32
4460,32
4461,33
4462,33
4463,33
4464,33
4465,33
4466,32
4467,32
4468,32
4469,32
4470,32
4471,32
4472,33
4473,32
4474,32
4475,32
4476,32
4477,32
4478,32
4479,32
4480,33
4481,32
4482,32
4483,32
4484,32
4485,33
4486,33
4487,32
4488,32
4489,32
4490,32
4491,33
4492,32
4493,32
4494,33
4495,33
4496,33
4497,33
4498,34
4499,33
4500,33
4501,33
4502,33
4503,33
4504,33
4505,33
4506,33
4507,33
4508,33
4509,33
4510,33
4511,33
4512,33
4513,33
4514,33
4515,33
4516,33
4517,33
4518,33
4519,33
4520,33
4521,33
4522,33
4523,33
4524,33
4525,33
4526,33
4527,34
4528,34
4529,34
4530,34
4531,34
4532,34
4533,34
4534,34
4535,33
4536,32
4537,33
4538,33
4539,32
4540,32
4541,32
4542,32
4543,32
4544,32
4545,33
4546,33
4547,33
4548,33
4549,32
4550,32
4551,32
4552,32
4553,32
4554,32
4555,32
4556,32
4557,32
4558,33
4559,32
4560,32
4561,32
4562,32
4563,32
4564,33
4565,32
4566,32
4567,32
4568,32
4569,32
4570,32
4571,33
4572,33
4573,32
4574,32
4575,32
4576,32
4577,33
4578,33
4579,33
4580,34
4581,33
4582,33
4583,33
4584,33
4585,34
4586,34
4587,34
4588,34
4589,34
4590,34
4591,34
4592,34
4593,34
4594,34
4595,34
4596,34
4597,34
4598,34
4599,34
4600,34
4601,34
4602,34
4603,34
4604,34
4605,34
4606,34
4607,34
4608,34
4609,34
4610,34
4611,34
4612,34
4613,34
4614,34
4615,34
4616,34
4617,34
4618,34
4619,34
4620,34
4621,34
4622,34
4623,35
4624,34
4625,33
4626,33
4627,33
4628,33
4629,33
4630,33
4631,33
4632,33
4633,33
4634,33
4635,33
4636,33
4637,33
4638,33
4639,33
4640,33
4641,33
4642,33
4643,33
4644,33
4645,33
4646,33
4647,33
4648,33
4649,33
4650,33
4651,33
4652,33
4653,33
4654,33
4655,33
4656,33
4657,33
4658,33
4659,33
4660,33
4661,33
4662,33
4663,34
4664,33
4665,33
4666,33
4667,33
4668,33
4669,33
4670,33
4671,34
4672,34
4673,34
4674,33
4675,33
4676,33
4677,33
4678,33
4679,33
4680,33
4681,33
4682,33
4683,33
4684,33
4685,33
4686,33
4687,33
4688,33
4689,33
4690,33
4691,33
4692,33
4693,33
4694,33
4695,33
4696,33
4697,33
4698,33
4699,33
4700,33
4701,33
4702,33
4703,33
4704,33
4705,33
4706,33
4707,33
4708,33
4709,33
4710,33
4711,33
4712,33
4713,33
4714,33
4715,33
4716,33
4717,33
4718,33
4719,33
4720,33
4721,33
4722,33
4723,33
4724,33
4725,33
4726,33
4727,33
4728,33
4729,33
4730,33
4731,33
4732,33
4733,33
4734,33
4735,33
4736,33
4737,33
4738,33
4739,33
4740,33
4741,33
4742,33
4743,33
4744,33
4745,33
4746,33
4747,34
4748,34
4749,34
4750,33
4751,33
4752,33
4753,33
4754,34
4755,34
4756,33
4757,33
4758,33
4759,33
4760,33
4761,33
4762,33
4763,33
4764,33
4765,33
4766,34
4767,34
4768,34
4769,34
4770,34
4771,34
4772,34
4773,34
4774,35
4775,34
4776,34
4777,34
4778,34
4779,34
4780,33
4781,33
4782,33
4783,33
4784,33
4785,33
4786,33
4787,33
4788,33
4789,33
4790,34
4791,34
4792,33
4793,33
4794,33
4795,33
4796,34
4797,33
4798,33
4799,33
4800,33
4801,33
4802,33
4803,33
4804,33
4805,33
4806,33
4807,33
4808,33
4809,35
4810,34
4811,33
4812,33
4813,33
4814,33
4815,33
4816,33
4817,33
4818,33
4819,33
4820,33
4821,33
4822,33
4823,33
4824,33
4825,33
4826,33
4827,33
4828,33
4829,33
4830,33
4831,33
4832,33
4833,33
4834,33
4835,33
4836,33
4837,33
4838,33
4839,33
4840,33
4841,33
4842,33
4843,33
4844,33
4845,33
4846,33
4847,33
4848,33
4849,33
4850,33
4851,33
4852,33
4853,33
4854,33
4855,33
4856,33
4857,33
4858,33
4859,33
4860,33
4861,33
4862,33
4863,33
4864,34
4865,35
4866,35
4867,35
4868,35
4869,34
4870,33
4871,33
4872,33
4873,33
4874,33
4875,33
4876,33
4877,34
4878,34
4879,34
4880,35
4881,35
4882,35
4883,34
4884,34
4885,34
4886,35
4887,35
4888,35
4889,35
4890,35
4891,35
4892,34
4893,34
4894,34
4895,34
4896,34
4897,34
4898,34
4899,34
4900,34
4901,34
4902,34
4903,34
4904,34
4905,34
4906,34
4907,34
4908,34
4909,34
4910,34
4911,34
4912,34
4913,34
4914,34
4915,34
4916,34
4917,34
4918,34
4919,34
4920,34
4921,33
4922,33
4923,33
4924,33
4925,33
4926,33
4927,33
4928,33
4929,33
4930,33
4931,33
4932,33
4933,33
4934,33
4935,33
4936,33
4937,33
4938,33
4939,34
4940,34
4941,33
4942,33
4943,33
4944,33
4945,33
4946,34
4947,34
4948,35
4949,35
4950,35
4951,35
4952,35
4953,35
4954,36
4955,35
4956,36
4957,36
4958,35
4959,35
4960,35
4961,35
4962,35
4963,36
4964,36
4965,36
4966,36
4967,36
4968,36
4969,36
4970,36
4971,35
4972,35
4973,35
4974,35
4975,35
4976,35
4977,35
4978,35
4979,35
4980,35
4981,35
4982,35
4983,36
4984,35
4985,35
4986,35
4987,35
4988,35
4989,35
4990,35
4991,35
4992,36
4993,36
4994,36
4995,36
4996,36
4997,36
4998,36
4999,36
5000,36
5001,36
5002,36
5003,36
5004,36
5005,36
5006,36
5007,36
5008,36
5009,36
5010,36
5011,36
5012,36
5013,36
5014,36
5015,36
5016,36
5017,36
5018,36
5019,36
5020,36
5021,36
5022,36
5023,36
5024,36
5025,36
5026,37
5027,36
5028,36
5029,35
5030,35
5031,36
5032,35
5033,35
5034,35
5035,35
5036,35
5037,35
5038,35
5039,35
5040,35
5041,35
5042,35
5043,35
5044,35
5045,35
5046,35
5047,35
5048,35
5049,35
5050,35
5051,35
5052,35
5053,35
5054,35
5055,35
5056,35
5057,35
5058,35
5059,35
5060,35
5061,35
5062,35
5063,35
5064,35
5065,35
5066,35
5067,35
5068,36
5069,36
5070,36
5071,36
5072,36
5073,37
5074,36
5075,35
5076,36
5077,36
5078,35
5079,35
5080,35
5081,35
5082,36
5083,35
5084,36
5085,36
5086,36
5087,36
5088,36
5089,36
5090,36
5091,36
5092,36
5093,36
5094,36
5095,36
5096,36
5097,36
5098,36
5099,37
5100,36
5101,36
5102,36
5103,36
5104,36
5105,36
5106,36
5107,36
5108,36
5109,36
5110,36
5111,36
5112,36
5113,36
5114,36
5115,36
5116,36
5117,36
5118,36
5119,36
5120,36
5121,36
5122,36
5123,36
5124,36
5125,36
5126,36
5127,36
5128,36
5129,37
5130,37
5131,37
5132,37
5133,37
5134,37
5135,37
5136,37
5137,37
5138,37
5139,37
5140,37
5141,37
5142,37
5143,37
5144,37
5145,37
5146,38
5147,37
5148,38
5149,38
5150,38
5151,38
5152,37
5153,37
5154,37
5155,37
5156,37
5157,37
5158,38
5159,38
5160,38
5161,37
5162,37
5163,37
5164,37
5165,37
5166,37
5167,37
5168,37
5169,37
5170,37
5171,37
5172,37
5173,37
5174,37
5175,37
5176,37
5177,37
5178,37
5179,37
5180,37
5181,37
5182,37
5183,37
5184,37
5185,37
5186,37
5187,37
5188,37
5189,37
5190,37
5191,37
5192,37
5193,37
5194,37
5195,37
5196,37
5197,37
5198,37
5199,38
5200,38
5201,38
5202,38
5203,38
5204,38
5205,38
5206,38
5207,38
5208,38
5209,38
5210,38
5211,38
5212,37
5213,37
5214,37
5215,37
5216,37
5217,38
5218,38
5219,38
5220,37
5221,38
5222,36
5223,36
5224,36
5225,36
5226,36
5227,36
5228,36
5229,36
5230,38
5231,36
5232,36
5233,36
5234,36
5235,36
5236,36
5237,36
5238,36
5239,36
5240,36
5241,36
5242,36
5243,36
5244,36
5245,36
5246,36
5247,36
5248,36
5249,36
5250,36
5251,36
5252,36
5253,37
5254,36
5255,36
5256,36
5257,36
5258,36
5259,36
5260,36
5261,36
5262,36
5263,36
5264,36
5265,37
5266,36
5267,37
5268,37
5269,38
5270,38
5271,37
5272,39
5273,38
5274,38
5275,37
5276,37
5277,37
5278,37
5279,37
5280,37
5281,37
5282,37
5283,37
5284,37
5285,37
5286,37
5287,37
5288,37
5289,37
5290,38
5291,37
5292,37
5293,37
5294,38
5295,38
5296,38
5297,37
5298,37
5299,37
5300,37
5301,37
5302,37
5303,37
5304,37
5305,37
5306,37
5307,38
5308,38
5309,38
5310,38
5311,38
5312,38
5313,38
5314,38
5315,38
5316,37
5317,37
5318,37
5319,37
5320,37
5321,38
5322,38
5323,37
5324,37
5325,37
5326,37
5327,37
5328,37
5329,37
5330,37
5331,37
5332,37
5333,37
5334,37
5335,37
5336,37
5337,37
5338,37
5339,37
5340,37
5341,37
5342,37
5343,38
5344,38
5345,38
5346,38
5347,38
5348,38
5349,38
5350,37
5351,37
5352,37
5353,37
5354,37
5355,37
5356,37
5357,37
5358,37
5359,37
5360,37
5361,37
5362,37
5363,37
5364,37
5365,37
5366,37
5367,37
5368,37
5369,37
5370,37
5371,37
5372,37
5373,37
5374,37
5375,37
5376,37
5377,37
5378,37
5379,37
5380,37
5381,37
5382,37
5383,38
5384,37
5385,37
5386,37
5387,37
5388,37
5389,37
5390,37
5391,37
5392,37
5393,37
5394,37
5395,37
5396,37
5397,37
5398,37
5399,37
5400,37
5401,37
5402,37
5403,37
5404,37
5405,37
5406,37
5407,37
5408,37
5409,37
5410,37
5411,37
5412,37
5413,38
5414,38
5415,38
5416,38
5417,38
5418,38
5419,38
5420,38
5421,38
5422,38
5423,38
5424,38
5425,39
5426,39
5427,39
5428,39
5429,38
5430,38
5431,37
5432,37
5433,37
5434,37
5435,37
5436,37
5437,37
5438,37
5439,37
5440,37
5441,37
5442,38
5443,38
5444,37
5445,37
5446,37
5447,37
5448,37
5449,37
5450,37
5451,37
5452,37
5453,37
5454,37
5455,37
5456,37
5457,37
5458,37
5459,38
5460,38
5461,38
5462,38
5463,37
5464,37
5465,37
5466,37
5467,37
5468,37
5469,37
5470,37
5471,37
5472,37
5473,37
5474,37
5475,37
5476,37
5477,37
5478,38
5479,38
5480,37
5481,37
5482,37
5483,37
5484,37
5485,37
5486,37
5487,37
5488,37
5489,37
5490,37
5491,37
5492,37
5493,37
5494,37
5495,37
5496,37
5497,39
5498,38
5499,38
5500,38
5501,38
5502,38
5503,38
5504,38
5505,38
5506,38
5507,38
5508,38
5509,38
5510,38
5511,38
5512,38
5513,38
5514,38
5515,38
5516,38
5517,37
5518,37
5519,37
5520,37
5521,36
5522,36
5523,36
5524,36
5525,37
5526,36
5527,36
5528,36
5529,36
5530,36
5531,36
5532,36
5533,36
5534,36
5535,36
5536,36
5537,37
5538,36
5539,36
5540,36
5541,36
5542,36
5543,37
5544,36
5545,36
5546,37
5547,37
5548,37
5549,37
5550,37
5551,37
5552,38
5553,38
5554,37
5555,37
5556,37
5557,37
5558,37
5559,37
5560,37
5561,37
5562,37
5563,37
5564,37
5565,38
5566,38
5567,37
5568,38
5569,37
5570,37
5571,36
5572,36
5573,36
5574,36
5575,36
5576,36
5577,36
5578,36
5579,36
5580,36
5581,36
5582,36
5583,36
5584,36
5585,36
5586,36
5587,36
5588,36
5589,36
5590,36
5591,36
5592,36
5593,36
5594,36
5595,36
5596,36
5597,36
5598,36
5599,36
5600,36
5601,36
5602,36
5603,36
5604,36
5605,37
5606,37
5607,37
5608,37
5609,37
5610,37
5611,37
5612,37
5613,37
5614,37
5615,37
5616,37
5617,37
5618,37
5619,37
5620,37
5621,37
5622,37
5623,37
5624,37
5625,37
5626,37
5627,37
5628,37
5629,37
5630,37
5631,37
5632,37
5633,37
5634,37
5635,37
5636,37
5637,37
5638,37
5639,37
5640,37
5641,37
5642,37
5643,37
5644,37
5645,37
5646,37
5647,37
5648,37
5649,37
5650,37
5651,37
5652,37
5653,37
5654,37
5655,37
5656,37
5657,37
5658,37
5659,37
5660,37
5661,37
5662,37
5663,37
5664,37
5665,37
5666,37
5667,37
5668,37
5669,37
5670,37
5671,37
5672,37
5673,37
5674,37
5675,37
5676,37
5677,37
5678,37
5679,37
5680,37
5681,37
5682,37
5683,37
5684,37
5685,37
5686,37
5687,37
5688,38
5689,37
5690,37
5691,38
5692,38
5693,38
5694,37
5695,37
5696,37
5697,37
5698,37
5699,37
5700,36
5701,36
5702,36
5703,36
5704,36
5705,36
5706,36
5707,36
5708,36
5709,36
5710,36
5711,36
5712,36
5713,37
5714,36
5715,36
5716,36
5717,36
5718,36
5719,36
5720,36
5721,36
5722,36
5723,36
5724,37
5725,37
5726,37
5727,37
5728,37
5729,37
5730,37
5731,37
5732,37
5733,37
5734,37
5735,37
5736,37
5737,37
5738,37
5739,37
5740,37
5741,38
5742,38
5743,38
5744,38
5745,38
5746,38
5747,38
5748,38
5749,38
5750,38
5751,38
5752,38
5753,38
5754,38
5755,38
5756,38
5757,38
5758,38
5759,38
5760,38
5761,38
5762,38
5763,38
5764,38
5765,38
5766,38
5767,39
5768,38
5769,38
5770,39
5771,38
5772,38
5773,38
5774,38
5775,38
5776,37
5777,37
5778,37
5779,37
5780,37
5781,37
5782,37
5783,37
5784,37
5785,37
5786,37
5787,37
5788,37
5789,37
5790,37
5791,37
5792,37
5793,37
5794,37
5795,37
5796,38
5797,38
5798,38
5799,37
5800,37
5801,37
5802,37
5803,38
5804,38
5805,38
5806,38
5807,37
5808,37
5809,37
5810,37
5811,37
5812,37
5813,38
5814,38
5815,38
5816,38
5817,38
5818,39
5819,38
5820,38
5821,38
5822,38
5823,38
5824,38
5825,38
5826,39
5827,39
5828,39
5829,39
5830,39
5831,39
5832,38
5833,38
5834,38
5835,38
5836,38
5837,38
5838,39
5839,38
5840,37
5841,37
5842,37
5843,36
5844,36
5845,36
5846,36
5847,36
5848,37
5849,37
5850,37
5851,37
5852,37
5853,37
5854,38
5855,38
5856,38
5857,38
5858,37
5859,37
5860,36
5861,36
5862,36
5863,36
5864,36
5865,36
5866,36
5867,36
5868,36
5869,36
5870,36
5871,36
5872,36
5873,36
5874,36
5875,36
5876,36
5877,36
5878,36
5879,36
5880,36
5881,36
5882,36
5883,37
5884,37
5885,37
5886,36
5887,36
5888,36
5889,36
5890,36
5891,36
5892,36
5893,36
5894,36
5895,36
5896,36
5897,36
5898,35
5899,36
5900,36
5901,35
5902,35
5903,36
5904,35
5905,35
5906,36
5907,36
5908,36
5909,36
5910,36
5911,36
5912,36
5913,36
5914,36
5915,36
5916,35
5917,35
5918,35
5919,35
5920,35
5921,35
5922,35
5923,35
5924,35
5925,35
5926,35
5927,35
5928,36
5929,36
5930,36
5931,36
5932,35
5933,35
5934,35
5935,35
5936,35
5937,35
5938,35
5939,35
5940,34
5941,34
5942,34
5943,34
5944,34
5945,34
5946,34
5947,34
5948,34
5949,34
5950,34
5951,34
5952,34
5953,34
5954,34
5955,34
5956,34
5957,34
5958,34
5959,34
5960,34
5961,34
5962,34
5963,34
5964,34
5965,34
5966,34
5967,34
5968,34
5969,34
5970,34
5971,34
5972,34
5973,34
5974,34
5975,34
5976,34
5977,34
5978,34
5979,34
5980,34
5981,34
5982,34
5983,35
5984,34
5985,35
5986,35
5987,35
5988,35
5989,35
5990,35
5991,35
5992,35
5993,34
5994,34
5995,34
5996,34
5997,34
5998,34
5999,34
6000,34
6001,34
6002,34
6003,34
6004,34
6005,34
6006,34
6007,34
6008,34
6009,34
6010,34
6011,34
6012,34
6013,34
6014,35
6015,35
6016,35
6017,35
6018,35
6019,35
6020,35
6021,35
6022,35
6023,35
6024,35
6025,35
6026,35
6027,35
6028,35
6029,35
6030,35
6031,35
6032,35
6033,35
6034,35
6035,36
6036,36
6037,35
6038,35
6039,35
6040,35
6041,35
6042,35
6043,35
6044,35
6045,34
6046,34
6047,34
6048,34
6049,34
6050,34
6051,34
6052,34
6053,34
6054,34
6055,34
6056,34
6057,34
6058,34
6059,34
6060,34
6061,34
6062,34
6063,34
6064,34
6065,34
6066,34
6067,34
6068,34
6069,34
6070,34
6071,34
6072,34
6073,34
6074,34
6075,34
6076,34
6077,34
6078,34
6079,34
6080,34
6081,34
6082,34
6083,34
6084,34
6085,35
6086,35
6087,34
6088,34
6089,34
6090,34
6091,34
6092,35
6093,34
6094,34
6095,34
6096,34
6097,34
6098,34
6099,34
6100,34
6101,34
6102,34
6103,34
6104,34
6105,34
6106,34
6107,34
6108,34
6109,34
6110,34
6111,34
6112,34
6113,34
6114,34
6115,34
6116,34
6117,34
6118,34
6119,34
6120,34
6121,34
6122,34
6123,34
6124,34
6125,34
6126,34
6127,34
6128,34
6129,34
6130,34
6131,35
6132,35
6133,35
6134,35
6135,35
6136,35
6137,34
6138,34
6139,34
6140,35
6141,34
6142,34
6143,35
6144,35
6145,35
6146,35
6147,35
6148,35
6149,36
6150,37
6151,37
6152,36
6153,36
6154,36
6155,36
6156,36
6157,36
6158,36
6159,36
6160,36
6161,36
6162,36
6163,36
6164,36
6165,36
6166,36
6167,36
6168,36
6169,36
6170,36
6171,36
6172,37
6173,36
6174,36
6175,36
6176,36
6177,36
6178,36
6179,36
6180,36
6181,36
6182,36
6183,36
6184,36
6185,36
6186,36
6187,36
6188,36
6189,35
6190,35
6191,35
6192,35
6193,35
6194,35
6195,36
6196,35
6197,35
6198,35
6199,35
6200,35
6201,35
6202,36
6203,36
6204,36
6205,35
6206,35
6207,35
6208,35
6209,35
6210,35
6211,35
6212,36
6213,35
6214,35
6215,35
6216,35
6217,35
6218,35
6219,35
6220,35
6221,35
6222,35
6223,35
6224,35
6225,35
6226,35
6227,35
6228,35
6229,35
6230,35
6231,35
6232,35
6233,35
6234,35
6235,35
6236,35
6237,35
6238,35
6239,35
6240,35
6241,35
6242,35
6243,35
6244,35
6245,35
6246,35
6247,35
6248,35
6249,35
6250,35
6251,35
6252,35
6253,35
6254,35
6255,35
6256,35
6257,35
6258,35
6259,35
6260,35
6261,35
6262,35
6263,35
6264,35
6265,35
6266,35
6267,35
6268,35
6269,35
6270,35
6271,35
6272,36
6273,35
6274,35
6275,35
6276,35
6277,35
6278,35
6279,35
6280,35
6281,35
6282,35
6283,35
6284,35
6285,35
6286,36
6287,36
6288,36
6289,35
6290,35
6291,35
6292,35
6293,35
6294,35
6295,35
6296,35
6297,35
6298,35
6299,36
6300,35
6301,35
6302,35
6303,35
6304,35
6305,35
6306,35
6307,35
6308,35
6309,35
6310,35
6311,35
6312,35
6313,36
6314,36
6315,35
6316,35
6317,36
6318,36
6319,36
6320,36
6321,36
6322,36
6323,36
6324,36
6325,35
6326,35
6327,35
6328,35
6329,36
6330,35
6331,35
6332,35
6333,36
6334,36
6335,36
6336,37
6337,38
6338,37
6339,37
6340,37
6341,37
6342,37
6343,37
6344,37
6345,36
6346,35
6347,35
6348,35
6349,35
6350,36
6351,36
6352,37
6353,37
6354,36
6355,35
6356,35
6357,35
6358,34
6359,34
6360,34
6361,34
6362,34
6363,34
6364,34
6365,34
6366,34
6367,34
6368,34
6369,35
6370,35
6371,35
6372,35
6373,35
6374,34
6375,34
6376,34
6377,34
6378,34
6379,34
6380,34
6381,34
6382,34
6383,34
6384,34
6385,34
6386,34
6387,34
6388,34
6389,34
6390,35
6391,34
6392,34
6393,34
6394,34
6395,34
6396,34
6397,34
6398,34
6399,34
6400,34
6401,34
6402,34
6403,34
6404,34
6405,35
6406,34
6407,34
6408,34
6409,35
6410,35
6411,34
6412,34
6413,34
6414,34
6415,34
6416,34
6417,34
6418,34
6419,34
6420,34
6421,34
6422,34
6423,34
6424,35
6425,35
6426,35
6427,35
6428,36
6429,35
6430,35
6431,36
6432,36
6433,36
6434,36
6435,36
6436,36
6437,36
6438,36
6439,36
6440,37
6441,36
6442,36
6443,35
6444,35
6445,35
6446,35
6447,35
6448,35
6449,35
6450,35
6451,35
6452,35
6453,36
6454,35
6455,35
6456,36
6457,35
6458,35
6459,35
6460,35
6461,35
6462,35
6463,35
6464,36
6465,35
6466,35
6467,35
6468,35
6469,35
6470,36
6471,35
6472,35
6473,35
6474,35
6475,35
6476,35
6477,35
6478,35
6479,35
6480,35
6481,35
6482,35
6483,35
6484,35
6485,35
6486,35
6487,35
6488,35
6489,36
6490,36
6491,36
6492,35
6493,35
6494,35
6495,35
6496,35
6497,35
6498,35
6499,35
6500,35
6501,35
6502,35
6503,35
6504,35
6505,35
6506,35
6507,36
6508,36
6509,36
6510,36
6511,36
6512,36
6513,36
6514,36
6515,36
6516,36
6517,37
6518,37
6519,37
6520,37
6521,37
6522,37
6523,37
6524,37
6525,37
6526,37
6527,37
6528,37
6529,37
6530,37
6531,37
6532,37
6533,37
6534,37
6535,37
6536,37
6537,37
6538,37
6539,37
6540,37
6541,37
6542,37
6543,37
6544,37
6545,37
6546,37
6547,37
6548,36
6549,36
6550,36
6551,36
6552,36
6553,36
6554,36
6555,36
6556,37
6557,37
6558,36
6559,36
6560,36
6561,36
6562,36
6563,36
6564,36
6565,36
6566,36
6567,37
6568,37
6569,36
6570,36
6571,36
6572,36
6573,37
6574,37
6575,38
6576,37
6577,37
6578,37
6579,38
6580,37
6581,36
6582,36
6583,36
6584,36
6585,36
6586,36
6587,36
6588,36
6589,36
6590,36
6591,36
6592,36
6593,36
6594,36
6595,36
6596,36
6597,36
6598,36
6599,36
6600,36
6601,36
6602,36
6603,36
6604,36
6605,36
6606,36
6607,36
6608,36
6609,36
6610,36
6611,36
6612,36
6613,36
6614,36
6615,36
6616,36
6617,36
6618,36
6619,36
6620,37
6621,36
6622,36
6623,36
6624,36
6625,36
6626,36
6627,36
6628,36
6629,36
6630,36
6631,36
6632,36
6633,37
6634,37
6635,37
6636,37
6637,36
6638,36
6639,36
6640,36
6641,36
6642,36
6643,36
6644,36
6645,36
6646,36
6647,36
6648,36
6649,36
6650,36
6651,35
6652,35
6653,35
6654,35
6655,35
6656,35
6657,35
6658,35
6659,35
6660,35
6661,35
6662,35
6663,35
6664,35
6665,35
6666,35
6667,35
6668,35
6669,35
6670,35
6671,35
6672,35
6673,36
6674,35
6675,35
6676,36
6677,36
6678,36
6679,36
6680,36
6681,36
6682,36
6683,36
6684,36
6685,35
6686,35
6687,35
6688,35
6689,35
6690,35
6691,35
6692,35
6693,35
6694,35
6695,35
6696,35
6697,35
6698,35
6699,35
6700,36
6701,35
6702,35
6703,35
6704,35
6705,35
6706,35
6707,35
6708,35
6709,35
6710,34
6711,34
6712,34
6713,34
6714,34
6715,36
6716,36
6717,35
6718,35
6719,35
6720,35
6721,35
6722,36
6723,36
6724,36
6725,35
6726,35
6727,35
6728,35
6729,35
6730,35
6731,35
6732,35
6733,35
6734,35
6735,35
6736,34
6737,34
6738,34
6739,34
6740,34
6741,34
6742,34
6743,34
6744,34
6745,34
6746,34
6747,34
6748,34
6749,34
6750,34
6751,35
6752,34
6753,35
6754,35
6755,35
6756,34
6757,34
6758,34
6759,34
6760,34
6761,34
6762,34
6763,35
6764,35
6765,34
6766,34
6767,34
6768,34
6769,34
6770,34
6771,34
6772,34
6773,35
6774,34
6775,34
6776,34
6777,34
6778,34
6779,34
6780,34
6781,34
6782,34
6783,34
6784,34
6785,34
6786,34
6787,34
6788,34
6789,34
6790,34
6791,34
6792,34
6793,34
6794,34
6795,34
6796,34
6797,34
6798,34
6799,34
6800,34
6801,34
6802,34
6803,34
6804,34
6805,34
6806,34
6807,35
6808,35
6809,34
6810,34
6811,34
6812,34
6813,34
6814,34
6815,34
6816,34
6817,34
6818,34
6819,34
6820,34
6821,34
6822,34
6823,34
6824,34
6825,34
6826,34
6827,34
6828,34
6829,34
6830,34
6831,34
6832,34
6833,34
6834,34
6835,34
6836,34
6837,34
6838,34
6839,35
6840,35
6841,35
6842,35
6843,35
6844,35
6845,35
6846,35
6847,35
6848,36
6849,36
6850,36
6851,37
6852,37
6853,36
6854,36
6855,36
6856,35
6857,34
6858,34
6859,34
6860,34
6861,34
6862,34
6863,34
6864,34
6865,34
6866,34
6867,34
6868,34
6869,34
6870,34
6871,34
6872,34
6873,34
6874,34
6875,34
6876,34
6877,34
6878,34
6879,34
6880,34
6881,34
6882,34
6883,34
6884,34
6885,34
6886,34
6887,34
6888,34
6889,34
6890,34
6891,34
6892,35
6893,35
6894,35
6895,35
6896,35
6897,36
6898,36
6899,35
6900,35
6901,35
6902,35
6903,35
6904,35
6905,35
6906,35
6907,35
6908,35
6909,35
6910,35
6911,35
6912,35
6913,36
6914,36
6915,36
6916,35
6917,35
6918,35
6919,35
6920,35
6921,35
6922,35
6923,35
6924,35
6925,35
6926,35
6927,34
6928,34
6929,34
6930,34
6931,34
6932,34
6933,34
6934,34
6935,34
6936,34
6937,34
6938,34
6939,34
6940,34
6941,34
6942,34
6943,34
6944,34
6945,34
6946,34
6947,34
6948,34
6949,34
6950,35
6951,34
6952,34
6953,34
6954,34
6955,34
6956,34
6957,34
6958,35
6959,35
6960,35
6961,35
6962,36
6963,36
6964,35
6965,35
6966,35
6967,35
6968,35
6969,35
6970,35
6971,35
6972,35
6973,35
6974,35
6975,35
6976,35
6977,35
6978,35
6979,34
6980,34
6981,34
6982,34
6983,34
6984,34
6985,34
6986,34
6987,34
6988,34
6989,34
6990,34
6991,35
6992,35
6993,34
6994,34
6995,34
6996,34
6997,34
6998,34
6999,36
7000,35
7001,35
7002,35
7003,35
7004,35
7005,35
7006,35
7007,35
7008,35
7009,35
7010,35
7011,35
7012,35
7013,35
7014,35
7015,35
7016,35
7017,35
7018,35
7019,35
7020,35
7021,35
7022,35
7023,35
7024,35
7025,35
7026,35
7027,35
7028,35
7029,35
7030,35
7031,34
7032,34
7033,34
7034,34
7035,34
7036,34
7037,34
7038,34
7039,34
7040,34
7041,34
7042,34
7043,34
7044,34
7045,34
7046,34
7047,35
7048,35
7049,35
7050,34
7051,34
7052,34
7053,34
7054,34
7055,34
7056,34
7057,34
7058,34
7059,34
7060,34
7061,34
7062,34
7063,34
7064,34
7065,34
7066,34
7067,35
7068,34
7069,34
7070,34
7071,34
7072,34
7073,34
7074,34
7075,35
7076,34
7077,34
7078,35
7079,35
7080,35
7081,35
7082,34
7083,34
7084,34
7085,34
7086,34
7087,34
7088,34
7089,34
7090,34
7091,34
7092,34
7093,34
7094,34
7095,34
7096,34
7097,34
7098,34
7099,34
7100,34
7101,34
7102,34
7103,34
7104,34
7105,34
7106,34
7107,34
7108,34
7109,34
7110,34
7111,34
7112,34
7113,35
7114,34
7115,34
7116,34
7117,34
7118,34
7119,34
7120,35
7121,35
7122,35
7123,35
7124,35
7125,35
7126,35
7127,36
7128,36
7129,36
7130,36
7131,37
7132,37
7133,37
7134,37
7135,37
7136,37
7137,36
7138,36
7139,37
7140,38
7141,37
7142,37
7143,37
7144,37
7145,37
7146,37
7147,37
7148,36
7149,36
7150,36
7151,36
7152,36
7153,36
7154,36
7155,36
7156,36
7157,36
7158,36
7159,36
7160,36
7161,36
7162,36
7163,36
7164,36
7165,36
7166,36
7167,36
7168,36
7169,36
7170,36
7171,36
7172,35
7173,35
7174,35
7175,35
7176,35
7177,35
7178,35
7179,35
7180,35
7181,35
7182,35
7183,36
7184,36
7185,36
7186,36
7187,36
7188,36
7189,36
7190,37
7191,37
7192,37
7193,37
7194,37
7195,37
7196,36
7197,36
7198,36
7199,36
7200,36
7201,37
7202,36
7203,36
7204,36
7205,36
7206,36
7207,36
7208,35
7209,34
7210,34
7211,34
7212,34
7213,34
7214,34
7215,34
7216,34
7217,34
7218,34
7219,34
7220,34
7221,34
7222,34
7223,34
7224,34
7225,34
7226,34
7227,34
7228,34
7229,34
7230,34
7231,34
7232,35
7233,35
7234,34
7235,34
7236,34
7237,34
7238,34
7239,34
7240,34
7241,34
7242,34
7243,34
7244,34
7245,34
7246,34
7247,34
7248,34
7249,34
7250,34
7251,34
7252,34
7253,34
7254,34
7255,34
7256,34
7257,34
7258,34
7259,34
7260,34
7261,35
7262,35
7263,35
7264,35
7265,35
7266,34
7267,34
7268,34
7269,34
7270,34
7271,34
7272,34
7273,34
7274,34
7275,34
7276,34
7277,34
7278,34
7279,34
7280,34
7281,34
7282,34
7283,34
7284,34
7285,34
7286,34
7287,34
7288,34
7289,34
7290,34
7291,34
7292,34
7293,34
7294,34
7295,34
7296,34
7297,34
7298,34
7299,34
7300,34
7301,34
7302,34
7303,34
7304,34
7305,34
7306,34
7307,35
7308,34
7309,34
7310,34
7311,34
7312,34
7313,34
7314,34
7315,34
7316,34
7317,35
7318,35
7319,34
7320,34
7321,34
7322,34
7323,34
7324,34
7325,34
7326,34
7327,35
7328,35
7329,34
7330,34
7331,34
7332,34
7333,34
7334,34
7335,34
7336,34
7337,34
7338,34
7339,34
7340,34
7341,34
7342,34
7343,35
7344,34
7345,34
7346,34
7347,34
7348,34
7349,34
7350,34
7351,34
7352,34
7353,34
7354,34
7355,34
7356,34
7357,34
7358,34
7359,34
7360,34
7361,34
7362,34
7363,34
7364,34
7365,34
7366,34
7367,34
7368,34
7369,34
7370,34
7371,34
7372,34
7373,34
7374,34
7375,34
7376,34
7377,34
7378,34
7379,34
7380,34
7381,34
7382,34
7383,34
7384,35
7385,35
7386,34
7387,34
7388,35
7389,35
7390,35
7391,35
7392,34
7393,35
7394,34
7395,34
7396,34
7397,34
7398,35
7399,35
7400,35
7401,35
7402,35
7403,35
7404,35
7405,35
7406,35
7407,35
7408,35
7409,35
7410,35
7411,35
7412,35
7413,34
7414,34
7415,34
7416,34
7417,34
7418,34
7419,34
7420,34
7421,34
7422,34
7423,34
7424,34
7425,34
7426,34
7427,34
7428,34
7429,35
7430,35
7431,35
7432,35
7433,35
7434,35
7435,35
7436,36
7437,34
7438,34
7439,34
7440,34
7441,34
7442,34
7443,34
7444,34
7445,35
7446,35
7447,36
7448,35
7449,35
7450,35
7451,35
7452,35
7453,36
7454,36
7455,36
7456,36
7457,35
7458,35
7459,35
7460,35
7461,35
7462,35
7463,35
7464,35
7465,35
7466,35
7467,35
7468,35
7469,35
7470,35
7471,34
7472,34
7473,34
7474,34
7475,34
7476,34
7477,34
7478,34
7479,35
7480,36
7481,36
7482,35
7483,34
7484,34
7485,34
7486,34
7487,34
7488,34
7489,35
7490,35
7491,35
7492,35
7493,34
7494,34
7495,34
7496,35
7497,35
7498,35
7499,35
7500,35
7501,34
7502,34
7503,34
7504,34
7505,34
7506,34
7507,34
7508,34
7509,34
7510,34
7511,34
7512,34
7513,35
7514,34
7515,34
7516,34
7517,34
7518,34
7519,34
7520,34
7521,34
7522,34
7523,34
7524,34
7525,34
7526,34
7527,34
7528,34
7529,34
7530,34
7531,34
7532,34
7533,34
7534,34
7535,34
7536,34
7537,34
7538,34
7539,34
7540,34
7541,34
7542,34
7543,34
7544,34
7545,34
7546,34
7547,35
7548,35
7549,35
7550,35
7551,34
7552,34
7553,34
7554,35
7555,35
7556,34
7557,34
7558,35
7559,34
7560,34
7561,34
7562,34
7563,34
7564,34
7565,34
7566,34
7567,34
7568,34
7569,34
7570,34
7571,34
7572,34
7573,34
7574,34
7575,34
7576,34
7577,34
7578,34
7579,34
7580,35
7581,34
7582,34
7583,34
7584,34
7585,34
7586,34
7587,34
7588,34
7589,34
7590,34
7591,34
7592,34
7593,34
7594,34
7595,34
7596,34
7597,34
7598,34
7599,34
7600,34
7601,34
7602,34
7603,34
7604,34
7605,35
7606,35
7607,34
7608,34
7609,34
7610,34
7611,34
7612,34
7613,35
7614,34
7615,34
7616,35
7617,34
7618,34
7619,34
7620,34
7621,34
7622,34
7623,34
7624,34
7625,34
7626,34
7627,34
7628,34
7629,34
7630,34
7631,34
7632,34
7633,34
7634,34
7635,34
7636,34
7637,34
7638,34
7639,34
7640,34
7641,34
7642,34
7643,34
7644,34
7645,34
7646,34
7647,34
7648,34
7649,35
7650,35
7651,34
7652,34
7653,34
7654,34
7655,34
7656,34
7657,34
7658,34
7659,34
7660,34
7661,34
7662,34
7663,34
7664,34
7665,34
7666,34
7667,34
7668,34
7669,34
7670,34
7671,34
7672,34
7673,34
7674,34
7675,34
7676,34
7677,34
7678,34
7679,35
7680,35
7681,35
7682,35
7683,35
7684,36
7685,36
7686,36
7687,35
7688,35
7689,35
7690,35
7691,34
7692,34
7693,34
7694,34
7695,34
7696,35
7697,35
7698,34
7699,34
7700,34
7701,34
7702,34
7703,34
7704,34
7705,35
7706,35
7707,35
7708,35
7709,34
7710,35
7711,36
7712,35
7713,35
7714,34
7715,34
7716,34
7717,34
7718,34
7719,35
7720,35
7721,35
7722,35
7723,35
7724,35
7725,35
7726,35
7727,35
7728,35
7729,35
7730,35
7731,34
7732,34
7733,34
7734,34
7735,34
7736,34
7737,34
7738,34
7739,34
7740,34
7741,34
7742,34
7743,34
7744,34
7745,34
7746,34
7747,34
7748,34
7749,34
7750,34
7751,34
7752,34
7753,34
7754,35
7755,35
7756,35
7757,34
7758,34
7759,34
7760,34
7761,34
7762,34
7763,34
7764,34
7765,34
7766,34
7767,34
7768,34
7769,34
7770,34
7771,34
7772,34
7773,34
7774,34
7775,34
7776,34
7777,34
7778,34
7779,35
7780,35
7781,35
7782,35
7783,35
7784,35
7785,35
7786,35
7787,35
7788,34
7789,34
7790,34
7791,34
7792,34
7793,34
7794,34
7795,34
7796,34
7797,34
7798,34
7799,34
7800,34
7801,34
7802,35
7803,35
7804,35
7805,35
7806,34
7807,34
7808,34
7809,34
7810,34
7811,34
7812,34
7813,34
7814,34
7815,34
7816,34
7817,34
7818,35
7819,34
7820,34
7821,34
7822,34
7823,34
7824,35
7825,34
7826,35
7827,35
7828,35
7829,35
7830,35
7831,35
7832,35
7833,35
7834,35
7835,35
7836,35
7837,34
7838,34
7839,34
7840,34
7841,34
7842,34
7843,34
7844,34
7845,34
7846,34
7847,34
7848,34
7849,34
7850,34
7851,34
7852,34
7853,35
7854,35
7855,35
7856,35
7857,34
7858,34
7859,34
7860,34
7861,34
7862,34
7863,34
7864,34
7865,34
7866,34
7867,34
7868,34
7869,34
7870,34
7871,34
7872,34
7873,34
7874,34
7875,34
7876,34
7877,34
7878,34
7879,34
7880,34
7881,34
7882,34
7883,34
7884,34
7885,34
7886,34
7887,34
7888,34
7889,34
7890,34
7891,34
7892,34
7893,34
7894,34
7895,34
7896,34
7897,34
7898,34
7899,34
7900,34
7901,34
7902,34
7903,35
7904,35
7905,34
7906,34
7907,34
7908,34
7909,34
7910,34
7911,34
7912,34
7913,34
7914,34
7915,34
7916,34
7917,34
7918,34
7919,34
7920,34
7921,34
7922,34
7923,34
7924,34
7925,34
7926,35
7927,34
7928,34
7929,34
7930,34
7931,34
7932,34
7933,35
7934,35
7935,35
7936,35
7937,35
7938,35
7939,35
7940,35
7941,35
7942,35
7943,35
7944,35
7945,35
7946,35
7947,35
7948,35
7949,35
7950,35
7951,36
7952,36
7953,36
7954,35
7955,35
7956,35
7957,35
7958,35
7959,35
7960,35
7961,35
7962,35
7963,35
7964,35
7965,35
7966,35
7967,35
7968,35
7969,35
7970,35
7971,35
7972,34
7973,34
7974,34
7975,34
7976,34
7977,34
7978,34
7979,34
7980,34
7981,34
7982,34
7983,34
7984,35
7985,34
7986,34
7987,34
7988,34
7989,34
7990,34
7991,34
7992,34
7993,34
7994,34
7995,34
7996,34
7997,34
7998,34
7999,33
8000,33
8001,33
8002,33
8003,33
8004,33
8005,33
8006,33
8007,33
8008,33
8009,33
8010,33
8011,33
8012,33
8013,33
8014,33
8015,33
8016,33
8017,33
8018,33
8019,33
8020,33
8021,34
8022,33
8023,33
8024,33
8025,33
8026,33
8027,33
8028,33
8029,33
8030,33
8031,33
8032,33
8033,33
8034,33
8035,33
8036,33
8037,34
8038,34
8039,33
8040,33
8041,33
8042,33
8043,33
8044,33
8045,33
8046,33
8047,33
8048,33
8049,33
8050,33
8051,33
8052,33
8053,33
8054,33
8055,33
8056,33
8057,33
8058,33
8059,33
8060,33
8061,33
8062,33
8063,33
8064,33
8065,33
8066,33
8067,33
8068,33
8069,33
8070,33
8071,33
8072,33
8073,33
8074,33
8075,33
8076,33
8077,34
8078,33
8079,33
8080,33
8081,33
8082,33
8083,33
8084,33
8085,33
8086,33
8087,33
8088,33
8089,33
8090,33
8091,33
8092,33
8093,33
8094,33
8095,33
8096,33
8097,33
8098,33
8099,33
8100,33
8101,33
8102,33
8103,33
8104,33
8105,33
8106,33
8107,33
8108,33
8109,33
8110,33
8111,33
8112,33
8113,33
8114,33
8115,33
8116,33
8117,33
8118,33
8119,33
8120,33
8121,33
8122,33
8123,33
8124,33
8125,33
8126,33
8127,33
8128,33
8129,33
8130,33
8131,33
8132,33
8133,33
8134,33
8135,33
8136,33
8137,33
8138,33
8139,33
8140,33
8141,33
8142,33
8143,34
8144,33
8145,33
8146,33
8147,33
8148,33
8149,33
8150,33
8151,33
8152,33
8153,33
8154,33
8155,33
8156,33
8157,33
8158,33
8159,33
8160,33
8161,33
8162,33
8163,33
8164,33
8165,33
8166,33
8167,33
8168,33
8169,34
8170,36
8171,36
8172,35
8173,34
8174,34
8175,34
8176,34
8177,34
8178,34
8179,34
8180,34
8181,34
8182,34
8183,33
8184,33
8185,33
8186,33
8187,33
8188,34
8189,34
8190,33
8191,33
8192,33
8193,33
8194,33
8195,33
8196,33
8197,33
8198,34
8199,34
8200,34
8201,34
8202,34
8203,34
8204,34
8205,34
8206,34
8207,34
8208,34
8209,35
8210,33
8211,33
8212,33
8213,34
8214,33
8215,33
8216,33
8217,33
8218,33
8219,33
8220,34
8221,34
8222,34
8223,33
8224,33
8225,34
8226,35
8227,34
8228,34
8229,34
8230,34
8231,34
8232,34
8233,34
8234,34
8235,34
8236,34
8237,34
8238,34
8239,34
8240,34
8241,34
8242,34
8243,33
8244,33
8245,33
8246,33
8247,33
8248,33
8249,33
8250,33
8251,33
8252,33
8253,33
8254,33
8255,33
8256,33
8257,33
8258,33
8259,33
8260,33
8261,33
8262,33
8263,33
8264,34
8265,37
8266,36
8267,35
8268,35
8269,34
8270,34
8271,34
8272,34
8273,34
8274,34
8275,33
8276,33
8277,33
8278,33
8279,33
8280,33
8281,33
8282,33
8283,33
8284,33
8285,33
8286,33
8287,33
8288,34
8289,33
8290,33
8291,33
8292,33
8293,33
8294,33
8295,33
8296,33
8297,33
8298,33
8299,33
8300,33
8301,33
8302,33
8303,33
8304,33
8305,33
8306,33
8307,33
8308,33
8309,33
8310,33
8311,33
8312,33
8313,33
8314,33
8315,33
8316,33
8317,33
8318,33
8319,33
8320,33
8321,33
8322,33
8323,33
8324,33
8325,33
8326,33
8327,33
8328,33
8329,33
8330,33
8331,33
8332,33
8333,33
8334,33
8335,33
8336,34
8337,34
8338,34
8339,34
8340,34
8341,34
8342,34
8343,34
8344,34
8345,34
8346,33
8347,33
8348,33
8349,33
8350,34
8351,34
8352,34
8353,34
8354,34
8355,34
8356,34
8357,34
8358,34
8359,34
8360,34
8361,34
8362,34
8363,34
8364,34
8365,34
8366,34
8367,34
8368,34
8369,34
8370,34
8371,34
8372,34
8373,34
8374,34
8375,34
8376,34
8377,34
8378,34
8379,34
8380,34
8381,34
8382,34
8383,34
8384,34
8385,34
8386,34
8387,34
8388,34
8389,34
8390,34
8391,34
8392,34
8393,34
8394,34
8395,34
8396,34
8397,34
8398,34
8399,35
8400,35
8401,34
8402,34
8403,34
8404,34
8405,34
8406,34
8407,34
8408,34
8409,34
8410,34
8411,34
8412,34
8413,34
8414,35
8415,34
8416,34
8417,34
8418,34
8419,34
8420,34
8421,35
8422,34
8423,34
8424,34
8425,34
8426,34
8427,34
8428,34
8429,34
8430,34
8431,34
8432,34
8433,34
8434,35
8435,35
8436,35
8437,35
8438,35
8439,35
8440,34
8441,34
8442,34
8443,34
8444,34
8445,34
8446,34
8447,35
8448,34
8449,34
8450,34
8451,34
8452,34
8453,34
8454,34
8455,34
8456,34
8457,34
8458,35
8459,35
8460,35
8461,34
8462,34
8463,34
8464,34
8465,34
8466,34
8467,34
8468,34
8469,34
8470,35
8471,35
8472,35
8473,35
8474,35
8475,36
8476,36
8477,36
8478,36
8479,36
8480,37
8481,36
8482,36
8483,36
8484,36
8485,36
8486,37
8487,36
8488,36
8489,36
8490,36
8491,36
8492,36
8493,36
8494,36
8495,35
8496,35
8497,35
8498,35
8499,35
8500,35
8501,35
8502,35
8503,35
8504,35
8505,35
8506,35
8507,35
8508,35
8509,35
8510,35
8511,35
8512,35
8513,35
8514,35
8515,35
8516,35
8517,35
8518,35
8519,35
8520,35
8521,35
8522,35
8523,35
8524,35
8525,35
8526,35
8527,35
8528,35
8529,35
8530,35
8531,35
8532,35
8533,35
8534,35
8535,35
8536,35
8537,35
8538,35
8539,35
8540,35
8541,35
8542,35
8543,35
8544,36
8545,35
8546,35
8547,35
8548,35
8549,35
8550,35
8551,35
8552,35
8553,35
8554,35
8555,36
8556,36
8557,36
8558,36
8559,35
8560,35
8561,35
8562,35
8563,35
8564,35
8565,35
8566,35
8567,35
8568,35
8569,35
8570,35
8571,35
8572,35
8573,35
8574,35
8575,35
8576,35
8577,36
8578,35
8579,35
8580,35
8581,36
8582,36
8583,36
8584,36
8585,36
8586,36
8587,37
8588,37
8589,36
8590,36
8591,36
8592,36
8593,36
8594,36
8595,36
8596,36
8597,36
8598,36
8599,36
8600,36
8601,36
8602,36
8603,36
8604,36
8605,36
8606,36
8607,36
8608,37
8609,36
8610,36
8611,37
8612,36
8613,36
8614,37
8615,36
8616,36
8617,36
8618,36
8619,36
8620,36
8621,36
8622,36
8623,36
8624,36
8625,36
8626,36
8627,38
8628,38
8629,37
8630,37
8631,37
8632,37
8633,37
8634,37
8635,37
8636,38
8637,39
8638,38
8639,38
8640,38
8641,38
8642,38
8643,38
8644,37
8645,36
8646,36
8647,37
8648,37
8649,36
8650,36
8651,36
8652,36
8653,36
8654,36
8655,36
8656,37
8657,37
8658,37
8659,37
8660,37
8661,36
8662,36
8663,36
8664,37
8665,36
8666,36
8667,36
8668,36
8669,36
8670,36
8671,36
8672,36
8673,36
8674,36
8675,36
8676,36
8677,36
8678,37
8679,37
8680,37
8681,37
8682,37
8683,36
8684,36
8685,36
8686,36
8687,36
8688,36
8689,36
8690,36
8691,36
8692,35
8693,35
8694,35
8695,36
8696,36
8697,36
8698,36
8699,35
8700,35
8701,35
8702,35
8703,35
8704,36
8705,36
8706,35
8707,35
8708,35
8709,35
8710,35
8711,35
8712,35
8713,35
8714,35
8715,35
8716,35
8717,35
8718,35
8719,36
8720,35
8721,35
8722,35
8723,35
8724,35
8725,35
8726,35
8727,35
8728,35
8729,35
8730,35
8731,35
8732,35
8733,35
8734,35
8735,35
8736,35
8737,35
8738,35
8739,35
8740,35
8741,35
8742,35
8743,35
8744,35
8745,35
8746,36
8747,35
8748,35
8749,35
8750,35
8751,36
8752,35
8753,35
8754,35
8755,35
8756,35
8757,35
8758,35
8759,35
8760,35
8761,35
8762,35
8763,35
8764,35
8765,35
8766,35
8767,35
8768,35
8769,35
8770,35
8771,35
8772,35
8773,35
8774,35
8775,35
8776,35
8777,35
8778,35
8779,35
8780,35
8781,35
8782,35
8783,35
8784,35
8785,35
8786,35
8787,36
8788,36
8789,36
8790,35
8791,35
8792,35
8793,35
8794,35
8795,35
8796,35
8797,35
8798,35
8799,35
8800,35
8801,36
8802,35
8803,35
8804,35
8805,35
8806,35
8807,35
8808,35
8809,35
8810,35
8811,35
8812,35
8813,35
8814,35
8815,35
8816,35
8817,35
8818,35
8819,35
8820,35
8821,35
8822,35
8823,35
8824,35
8825,35
8826,35
8827,35
8828,35
8829,35
8830,35
8831,35
8832,35
8833,35
8834,35
8835,35
8836,35
8837,35
8838,35
8839,35
8840,36
8841,36
8842,36
8843,36
8844,36
8845,36
8846,36
8847,36
8848,36
8849,36
8850,36
8851,36
8852,36
8853,36
8854,36
8855,36
8856,36
8857,36
8858,36
8859,36
8860,37
8861,37
8862,38
8863,37
8864,37
8865,37
8866,37
8867,35
8868,35
8869,35
8870,35
8871,35
8872,35
8873,35
8874,35
8875,35
8876,35
8877,35
8878,35
8879,36
8880,35
8881,35
8882,35
8883,35
8884,35
8885,35
8886,35
8887,35
8888,35
8889,35
8890,35
8891,35
8892,35
8893,35
8894,35
8895,35
8896,34
8897,34
8898,34
8899,34
8900,34
8901,34
8902,34
8903,34
8904,34
8905,34
8906,34
8907,34
8908,34
8909,34
8910,34
8911,34
8912,34
8913,34
8914,34
8915,34
8916,34
8917,34
8918,34
8919,34
8920,34
8921,34
8922,34
8923,34
8924,34
8925,34
8926,35
8927,34
8928,34
8929,34
8930,34
8931,34
8932,34
8933,34
8934,34
8935,34
8936,34
8937,34
8938,34
8939,34
8940,34
8941,34
8942,34
8943,35
8944,34
8945,34
8946,34
8947,34
8948,34
8949,34
8950,34
8951,34
8952,34
8953,34
8954,34
8955,35
8956,34
8957,34
8958,34
8959,34
8960,35
8961,35
8962,35
8963,35
8964,35
8965,35
8966,36
8967,36
8968,36
8969,36
8970,36
8971,36
8972,36
8973,36
8974,36
8975,36
8976,36
8977,36
8978,36
8979,35
8980,35
8981,35
8982,35
8983,35
8984,35
8985,35
8986,36
8987,35
8988,35
8989,35
8990,35
8991,35
8992,35
8993,35
8994,35
8995,35
8996,35
8997,35
8998,35
8999,35
9000,35
9001,35
9002,35
9003,35
9004,35
9005,35
9006,34
9007,34
9008,34
9009,34
9010,34
9011,34
9012,34
9013,34
9014,34
9015,34
9016,35
9017,34
9018,34
9019,34
9020,34
9021,34
9022,34
9023,34
9024,34
9025,34
9026,34
9027,34
9028,34
9029,34
9030,34
9031,35
9032,35
9033,35
9034,34
9035,34
9036,34
9037,34
9038,34
9039,34
9040,34
9041,34
9042,34
9043,34
9044,34
9045,34
9046,34
9047,34
9048,34
9049,34
9050,34
9051,34
9052,34
9053,34
9054,34
9055,34
9056,34
9057,34
9058,34
9059,34
9060,34
9061,34
9062,34
9063,34
9064,34
9065,34
9066,34
9067,34
9068,34
9069,34
9070,34
9071,34
9072,34
9073,34
9074,34
9075,34
9076,34
9077,34
9078,34
9079,34
9080,34
9081,34
9082,34
9083,34
9084,34
9085,34
9086,34
9087,35
9088,35
9089,35
9090,35
9091,35
9092,34
9093,34
9094,34
9095,34
9096,34
9097,34
9098,34
9099,34
9100,34
9101,34
9102,34
9103,34
9104,34
9105,34
9106,34
9107,34
9108,34
9109,34
9110,34
9111,34
9112,34
9113,34
9114,34
9115,34
9116,34
9117,34
9118,35
9119,34
9120,34
9121,35
9122,35
9123,35
9124,35
9125,35
9126,35
9127,35
9128,35
9129,35
9130,35
9131,35
9132,34
9133,34
9134,34
9135,34
9136,34
9137,34
9138,35
9139,34
9140,34
9141,35
9142,34
9143,34
9144,34
9145,34
9146,34
9147,36
9148,36
9149,36
9150,35
9151,35
9152,34
9153,34
9154,34
9155,34
9156,34
9157,34
9158,34
9159,34
9160,34
9161,34
9162,34
9163,34
9164,34
9165,34
9166,34
9167,34
9168,34
9169,34
9170,34
9171,34
9172,34
9173,34
9174,34
9175,34
9176,34
9177,34
9178,34
9179,35
9180,35
9181,35
9182,35
9183,35
9184,35
9185,35
9186,35
9187,35
9188,35
9189,35
9190,35
9191,35
9192,35
9193,35
9194,35
9195,36
9196,36
9197,36
9198,36
9199,36
9200,36
9201,36
9202,36
9203,36
9204,36
9205,36
9206,36
9207,35
9208,35
9209,35
9210,35
9211,35
9212,35
9213,35
9214,35
9215,35
9216,35
9217,35
9218,35
9219,35
9220,35
9221,35
9222,35
9223,35
9224,35
9225,35
9226,35
9227,35
9228,35
9229,35
9230,35
9231,36
9232,36
9233,35
9234,35
9235,35
9236,36
9237,36
9238,37
9239,37
9240,36
9241,35
9242,35
9243,35
9244,35
9245,35
9246,35
9247,35
9248,35
9249,35
9250,35
9251,35
9252,35
9253,35
9254,35
9255,35
9256,35
9257,35
9258,35
9259,35
9260,35
9261,35
9262,35
9263,35
9264,35
9265,35
9266,34
9267,34
9268,34
9269,34
9270,34
9271,35
9272,34
9273,34
9274,34
9275,34
9276,34
9277,35
9278,35
9279,35
9280,35
9281,35
9282,36
9283,35
9284,35
9285,35
9286,35
9287,35
9288,35
9289,35
9290,35
9291,36
9292,37
9293,37
9294,37
9295,36
9296,35
9297,35
9298,35
9299,35
9300,36
9301,36
9302,35
9303,35
9304,35
9305,34
9306,34
9307,34
9308,34
9309,34
9310,34
9311,34
9312,34
9313,34
9314,34
9315,34
9316,34
9317,34
9318,34
9319,34
9320,34
9321,34
9322,34
9323,34
9324,34
9325,34
9326,34
9327,35
9328,35
9329,35
9330,35
9331,35
9332,35
9333,35
9334,35
9335,34
9336,34
9337,33
9338,33
9339,33
9340,34
9341,34
9342,33
9343,33
9344,33
9345,33
9346,33
9347,33
9348,33
9349,33
9350,33
9351,33
9352,33
9353,33
9354,33
9355,33
9356,33
9357,33
9358,33
9359,33
9360,33
9361,33
9362,33
9363,33
9364,33
9365,33
9366,33
9367,33
9368,33
9369,33
9370,33
9371,33
9372,33
9373,33
9374,33
9375,33
9376,34
9377