1,3
2,3
3,3
4,3
5,3
6,3
7,3
8,3
9,3
10,3
11,3
12,3
13,3
14,3
15,3
16,3
17,3
18,3
19,3
20,3
21,3
22,3
23,4
24,4
25,4
26,4
27,4
28,4
29,4
30,4
31,4
32,4
33,4
34,4
35,4
36,4
37,4
38,4
39,4
40,4
41,4
42,5
43,5
44,5
45,5
46,5
47,5
48,5
49,5
50,5
51,5
52,5
53,5
54,5
55,5
56,5
57,5
58,5
59,5
60,5
61,5
62,6
63,6
64,6
65,6
66,6
67,6
68,6
69,6
70,6
71,6
72,6
73,6
74,6
75,6
76,7
77,7
78,7
79,7
80,7
81,7
82,7
83,7
84,7
85,7
86,7
87,7
88,7
89,7
90,7
91,7
92,7
93,7
94,7
95,7
96,7
97,7
98,8
99,7
100,7
101,7
102,8
103,8
104,8
105,7
106,7
107,7
108,8
109,8
110,8
111,8
112,8
113,8
114,8
115,8
116,8
117,8
118,8
119,8
120,8
121,8
122,8
123,8
124,8
125,8
126,8
127,8
128,8
129,8
130,8
131,8
132,8
133,8
134,8
135,8
136,9
137,9
138,9
139,9
140,9
141,9
142,10
143,9
144,9
145,9
146,9
147,9
148,9
149,9
150,9
151,9
152,9
153,9
154,9
155,9
156,9
157,9
158,9
159,9
160,9
161,9
162,9
163,9
164,9
165,9
166,9
167,9
168,10
169,10
170,10
171,10
172,10
173,10
174,10
175,11
176,10
177,10
178,10
179,10
180,10
181,10
182,10
183,10
184,10
185,10
186,10
187,10
188,10
189,10
190,10
191,10
192,10
193,10
194,11
195,11
196,10
197,10
198,10
199,10
200,10
201,10
202,10
203,10
204,10
205,10
206,11
207,11
208,11
209,10
210,10
211,10
212,10
213,10
214,10
215,10
216,10
217,10
218,10
219,10
220,10
221,10
222,10
223,10
224,10
225,11
226,10
227,10
228,10
229,10
230,10
231,10
232,11
233,11
234,11
235,11
236,12
237,12
238,12
239,12
240,12
241,11
242,11
243,11
244,11
245,11
246,11
247,11
248,11
249,11
250,11
251,11
252,12
253,12
254,12
255,12
256,12
257,12
258,12
259,13
260,12
261,12
262,12
263,12
264,12
265,12
266,12
267,12
268,12
269,12
270,12
271,12
272,12
273,12
274,12
275,13
276,12
277,12
278,12
279,12
280,12
281,12
282,13
283,13
284,13
285,12
286,12
287,12
288,12
289,12
290,12
291,12
292,12
293,12
294,12
295,12
296,12
297,13
298,13
299,14
300,13
301,13
302,13
303,13
304,12
305,12
306,12
307,13
308,12
309,12
310,12
311,12
312,12
313,12
314,12
315,12
316,12
317,12
318,12
319,12
320,12
321,12
322,12
323,12
324,12
325,12
326,12
327,12
328,12
329,12
330,12
331,12
332,12
333,12
334,12
335,12
336,12
337,12
338,12
339,12
340,12
341,12
342,12
343,12
344,12
345,12
346,12
347,12
348,12
349,12
350,12
351,12
352,12
353,12
354,12
355,12
356,12
357,12
358,12
359,12
360,12
361,14
362,13
363,12
364,12
365,13
366,13
367,12
368,12
369,12
370,12
371,12
372,12
373,12
374,12
375,12
376,12
377,12
378,12
379,12
380,12
381,12
382,12
383,12
384,12
385,12
386,12
387,12
388,12
389,12
390,12
391,12
392,12
393,12
394,13
395,12
396,12
397,12
398,12
399,12
400,12
401,12
402,12
403,12
404,12
405,12
406,12
407,12
408,12
409,12
410,12
411,12
412,12
413,12
414,12
415,12
416,12
417,12
418,12
419,12
420,12
421,12
422,12
423,12
424,12
425,12
426,12
427,12
428,12
429,13
430,12
431,12
432,12
433,12
434,12
435,12
436,12
437,12
438,12
439,12
440,12
441,12
442,12
443,12
444,12
445,12
446,12
447,12
448,12
449,12
450,13
451,13
452,13
453,13
454,14
455,14
456,14
457,13
458,13
459,13
460,13
461,12
462,12
463,12
464,12
465,12
466,12
467,12
468,12
469,12
470,12
471,12
472,12
473,12
474,12
475,12
476,12
477,13
478,12
479,12
480,12
481,12
482,13
483,12
484,12
485,12
486,12
487,13
488,12
489,12
490,12
491,12
492,12
493,12
494,13
495,12
496,12
497,12
498,12
499,13
500,13
501,12
502,12
503,12
504,12
505,12
506,12
507,13
508,13
509,13
510,13
511,12
512,12
513,12
514,12
515,12
516,12
517,12
518,12
519,12
520,12
521,12
522,12
523,12
524,12
525,12
526,12
527,12
528,12
529,12
530,12
531,12
532,12
533,12
534,12
535,12
536,12
537,12
538,12
539,12
540,12
541,12
542,12
543,12
544,12
545,12
546,12
547,12
548,12
549,12
550,12
551,12
552,12
553,12
554,13
555,12
556,12
557,12
558,12
559,12
560,12
561,12
562,12
563,12
564,12
565,12
566,12
567,12
568,12
569,12
570,12
571,12
572,12
573,12
574,13
575,13
576,13
577,13
578,13
579,13
580,14
581,14
582,15
583,15
584,15
585,15
586,15
587,15
588,15
589,15
590,15
591,15
592,15
593,14
594,14
595,14
596,14
597,14
598,14
599,14
600,14
601,14
602,14
603,14
604,14
605,14
606,14
607,14
608,14
609,14
610,14
611,15
612,15
613,15
614,15
615,14
616,14
617,14
618,14
619,14
620,14
621,14
622,14
623,14
624,14
625,14
626,14
627,14
628,14
629,15
630,15
631,15
632,14
633,14
634,14
635,14
636,14
637,14
638,14
639,14
640,14
641,14
642,14
643,14
644,14
645,15
646,14
647,14
648,14
649,14
650,14
651,14
652,14
653,14
654,14
655,15
656,14
657,14
658,14
659,14
660,14
661,14
662,14
663,14
664,15
665,14
666,14
667,14
668,14
669,14
670,14
671,14
672,14
673,14
674,14
675,14
676,14
677,14
678,14
679,14
680,14
681,14
682,14
683,14
684,14
685,14
686,14
687,14
688,14
689,14
690,14
691,14
692,14
693,14
694,14
695,14
696,14
697,14
698,14
699,14
700,14
701,15
702,15
703,14
704,14
705,14
706,14
707,14
708,14
709,14
710,14
711,14
712,14
713,14
714,14
715,14
716,14
717,14
718,14
719,14
720,14
721,14
722,14
723,14
724,14
725,14
726,14
727,14
728,14
729,15
730,15
731,15
732,15
733,15
734,15
735,15
736,14
737,14
738,15
739,15
740,15
741,14
742,14
743,15
744,15
745,15
746,15
747,15
748,15
749,15
750,15
751,15
752,15
753,15
754,15
755,15
756,15
757,16
758,16
759,15
760,15
761,15
762,15
763,15
764,15
765,15
766,15
767,15
768,15
769,15
770,15
771,15
772,15
773,15
774,15
775,15
776,15
777,15
778,16
779,16
780,16
781,16
782,16
783,16
784,16
785,16
786,16
787,16
788,16
789,16
790,16
791,16
792,16
793,16
794,16
795,15
796,15
797,15
798,15
799,15
800,15
801,15
802,15
803,15
804,16
805,16
806,15
807,15
808,15
809,15
810,15
811,15
812,15
813,15
814,15
815,15
816,15
817,15
818,15
819,15
820,15
821,15
822,15
823,15
824,16
825,16
826,15
827,15
828,15
829,15
830,16
831,15
832,15
833,15
834,15
835,15
836,15
837,15
838,15
839,15
840,15
841,15
842,15
843,15
844,15
845,15
846,15
847,15
848,15
849,15
850,15
851,15
852,15
853,15
854,15
855,15
856,15
857,15
858,15
859,15
860,15
861,15
862,15
863,15
864,16
865,16
866,16
867,16
868,16
869,16
870,16
871,16
872,16
873,15
874,16
875,16
876,16
877,16
878,15
879,15
880,15
881,15
882,15
883,15
884,15
885,15
886,15
887,15
888,15
889,15
890,15
891,16
892,17
893,17
894,18
895,19
896,17
897,16
898,16
899,16
900,16
901,16
902,16
903,16
904,16
905,16
906,16
907,16
908,15
909,15
910,15
911,15
912,15
913,15
914,15
915,15
916,15
917,15
918,15
919,15
920,15
921,16
922,15
923,15
924,15
925,15
926,15
927,16
928,16
929,16
930,15
931,15
932,15
933,15
934,16
935,15
936,15
937,15
938,16
939,15
940,15
941,15
942,15
943,15
944,15
945,15
946,15
947,15
948,15
949,15
950,15
951,15
952,15
953,15
954,16
955,16
956,16
957,16
958,16
959,16
960,16
961,16
962,16
963,16
964,16
965,16
966,16
967,16
968,16
969,16
970,16
971,16
972,16
973,16
974,16
975,16
976,16
977,16
978,16
979,16
980,18
981,17
982,16
983,16
984,16
985,16
986,16
987,16
988,16
989,16
990,16
991,16
992,16
993,16
994,16
995,16
996,16
997,16
998,16
999,16
1000,16
1001,16
1002,16
1003,16
1004,16
1005,16
1006,16
1007,16
1008,16
1009,17
1010,17
1011,17
1012,16
1013,16
1014,16
1015,16
1016,16
1017,16
1018,16
1019,17
1020,17
1021,17
1022,16
1023,16
1024,16
1025,16
1026,16
1027,16
1028,18
1029,18
1030,18
1031,18
1032,18
1033,18
1034,18
1035,18
1036,18
1037,18
1038,18
1039,18
1040,18
1041,18
1042,18
1043,18
1044,18
1045,18
1046,18
1047,18
1048,18
1049,18
1050,18
1051,18
1052,18
1053,18
1054,18
1055,19
1056,19
1057,18
1058,18
1059,18
1060,18
1061,18
1062,18
1063,18
1064,18
1065,18
1066,18
1067,18
1068,18
1069,18
1070,18
1071,18
1072,18
1073,18
1074,18
1075,18
1076,19
1077,18
1078,19
1079,18
1080,18
1081,18
1082,18
1083,18
1084,18
1085,18
1086,18
1087,18
1088,18
1089,18
1090,18
1091,18
1092,18
1093,18
1094,18
1095,18
1096,19
1097,19
1098,20
1099,21
1100,20
1101,20
1102,20
1103,20
1104,20
1105,20
1106,20
1107,20
1108,19
1109,19
1110,18
1111,18
1112,18
1113,18
1114,18
1115,18
1116,18
1117,18
1118,18
1119,18
1120,18
1121,18
1122,18
1123,18
1124,18
1125,18
1126,18
1127,18
1128,18
1129,18
1130,18
1131,18
1132,18
1133,18
1134,18
1135,18
1136,18
1137,18
1138,18
1139,18
1140,18
1141,18
1142,18
1143,19
1144,19
1145,19
1146,19
1147,18
1148,18
1149,18
1150,18
1151,18
1152,18
1153,18
1154,18
1155,18
1156,18
1157,18
1158,18
1159,18
1160,18
1161,18
1162,18
1163,18
1164,18
1165,18
1166,18
1167,18
1168,18
1169,18
1170,18
1171,18
1172,18
1173,18
1174,18
1175,18
1176,18
1177,19
1178,19
1179,19
1180,19
1181,19
1182,19
1183,19
1184,19
1185,19
1186,19
1187,18
1188,18
1189,18
1190,18
1191,18
1192,18
1193,18
1194,18
1195,18
1196,18
1197,18
1198,18
1199,18
1200,19
1201,18
1202,18
1203,19
1204,19
1205,19
1206,19
1207,19
1208,20
1209,19
1210,19
1211,19
1212,19
1213,19
1214,19
1215,20
1216,19
1217,19
1218,19
1219,19
1220,19
1221,19
1222,19
1223,18
1224,18
1225,18
1226,18
1227,18
1228,18
1229,18
1230,18
1231,18
1232,18
1233,18
1234,18
1235,18
1236,18
1237,18
1238,18
1239,18
1240,18
1241,18
1242,18
1243,18
1244,18
1245,18
1246,18
1247,18
1248,18
1249,18
1250,18
1251,18
1252,19
1253,18
1254,18
1255,18
1256,18
1257,18
1258,18
1259,18
1260,18
1261,18
1262,19
1263,18
1264,18
1265,18
1266,18
1267,18
1268,18
1269,18
1270,18
1271,18
1272,18
1273,18
1274,18
1275,18
1276,18
1277,18
1278,18
1279,18
1280,18
1281,18
1282,19
1283,19
1284,18
1285,18
1286,18
1287,18
1288,18
1289,18
1290,18
1291,18
1292,18
1293,18
1294,18
1295,18
1296,18
1297,18
1298,18
1299,18
1300,18
1301,18
1302,18
1303,18
1304,18
1305,18
1306,18
1307,18
1308,18
1309,18
1310,18
1311,18
1312,18
1313,18
1314,18
1315,18
1316,18
1317,18
1318,18
1319,18
1320,18
1321,18
1322,18
1323,18
1324,18
1325,18
1326,18
1327,18
1328,18
1329,18
1330,18
1331,18
1332,18
1333,18
1334,18
1335,18
1336,18
1337,18
1338,18
1339,18
1340,18
1341,18
1342,18
1343,18
1344,18
1345,18
1346,18
1347,18
1348,19
1349,18
1350,18
1351,18
1352,18
1353,18
1354,18
1355,18
1356,18
1357,18
1358,18
1359,18
1360,19
1361,19
1362,19
1363,20
1364,19
1365,18
1366,19
1367,18
1368,18
1369,18
1370,18
1371,18
1372,18
1373,18
1374,18
1375,18
1376,18
1377,18
1378,18
1379,18
1380,18
1381,18
1382,18
1383,18
1384,19
1385,19
1386,19
1387,19
1388,19
1389,19
1390,19
1391,19
1392,19
1393,19
1394,19
1395,19
1396,19
1397,19
1398,19
1399,19
1400,19
1401,20
1402,20
1403,20
1404,20
1405,20
1406,20
1407,20
1408,20
1409,20
1410,20
1411,20
1412,20
1413,20
1414,20
1415,20
1416,20
1417,20
1418,20
1419,20
1420,21
1421,20
1422,20
1423,20
1424,20
1425,20
1426,20
1427,20
1428,20
1429,20
1430,20
1431,20
1432,20
1433,20
1434,20
1435,20
1436,20
1437,20
1438,20
1439,20
1440,20
1441,20
1442,20
1443,20
1444,20
1445,20
1446,20
1447,20
1448,20
1449,20
1450,20
1451,20
1452,20
1453,20
1454,20
1455,20
1456,20
1457,20
1458,20
1459,20
1460,20
1461,20
1462,20
1463,20
1464,20
1465,20
1466,20
1467,20
1468,20
1469,20
1470,20
1471,20
1472,20
1473,20
1474,20
1475,20
1476,20
1477,20
1478,20
1479,20
1480,20
1481,20
1482,20
1483,20
1484,20
1485,20
1486,20
1487,20
1488,20
1489,20
1490,20
1491,20
1492,20
1493,20
1494,20
1495,21
1496,21
1497,21
1498,21
1499,21
1500,21
1501,21
1502,20
1503,20
1504,20
1505,20
1506,20
1507,20
1508,20
1509,20
1510,21
1511,21
1512,21
1513,22
1514,20
1515,20
1516,20
1517,20
1518,20
1519,20
1520,20
1521,21
1522,21
1523,20
1524,19
1525,19
1526,19
1527,19
1528,19
1529,19
1530,19
1531,19
1532,19
1533,19
1534,20
1535,20
1536,19
1537,19
1538,19
1539,19
1540,19
1541,19
1542,19
1543,19
1544,19
1545,19
1546,19
1547,19
1548,20
1549,20
1550,19
1551,19
1552,19
1553,19
1554,19
1555,20
1556,19
1557,19
1558,19
1559,19
1560,19
1561,19
1562,19
1563,19
1564,19
1565,19
1566,19
1567,19
1568,19
1569,19
1570,19
1571,19
1572,19
1573,19
1574,19
1575,19
1576,19
1577,19
1578,19
1579,19
1580,19
1581,19
1582,19
1583,20
1584,20
1585,20
1586,20
1587,20
1588,20
1589,20
1590,20
1591,20
1592,20
1593,20
1594,20
1595,20
1596,20
1597,20
1598,20
1599,21
1600,21
1601,20
1602,20
1603,20
1604,20
1605,20
1606,20
1607,20
1608,20
1609,20
1610,20
1611,20
1612,21
1613,20
1614,20
1615,20
1616,20
1617,20
1618,20
1619,20
1620,20
1621,21
1622,21
1623,21
1624,20
1625,20
1626,20
1627,20
1628,20
1629,20
1630,20
1631,20
1632,20
1633,20
1634,20
1635,20
1636,20
1637,20
1638,20
1639,20
1640,20
1641,20
1642,20
1643,20
1644,20
1645,20
1646,20
1647,20
1648,20
1649,20
1650,20
1651,20
1652,20
1653,20
1654,21
1655,21
1656,20
1657,20
1658,20
1659,20
1660,20
1661,20
1662,20
1663,20
1664,20
1665,20
1666,20
1667,20
1668,20
1669,20
1670,20
1671,20
1672,20
1673,20
1674,20
1675,21
1676,22
1677,22
1678,22
1679,22
1680,21
1681,21
1682,20
1683,20
1684,20
1685,20
1686,20
1687,20
1688,20
1689,20
1690,20
1691,20
1692,20
1693,20
1694,20
1695,20
1696,20
1697,20
1698,20
1699,21
1700,21
1701,21
1702,21
1703,22
1704,22
1705,22
1706,22
1707,22
1708,21
1709,21
1710,21
1711,21
1712,22
1713,21
1714,21
1715,21
1716,21
1717,22
1718,22
1719,22
1720,22
1721,22
1722,22
1723,22
1724,22
1725,24
1726,23
1727,23
1728,22
1729,22
1730,23
1731,22
1732,22
1733,21
1734,21
1735,21
1736,20
1737,20
1738,20
1739,20
1740,20
1741,20
1742,20
1743,20
1744,20
1745,20
1746,20
1747,20
1748,20
1749,20
1750,20
1751,20
1752,20
1753,20
1754,20
1755,20
1756,20
1757,20
1758,20
1759,20
1760,21
1761,20
1762,21
1763,20
1764,20
1765,20
1766,21
1767,21
1768,21
1769,21
1770,21
1771,21
1772,20
1773,20
1774,20
1775,20
1776,21
1777,21
1778,20
1779,20
1780,20
1781,20
1782,20
1783,20
1784,20
1785,20
1786,20
1787,20
1788,20
1789,20
1790,20
1791,20
1792,20
1793,20
1794,20
1795,20
1796,20
1797,20
1798,20
1799,20
1800,20
1801,20
1802,20
1803,20
1804,20
1805,20
1806,20
1807,20
1808,20
1809,20
1810,20
1811,20
1812,20
1813,20
1814,20
1815,20
1816,20
1817,20
1818,20
1819,20
1820,20
1821,20
1822,20
1823,20
1824,20
1825,20
1826,20
1827,20
1828,20
1829,20
1830,20
1831,20
1832,20
1833,20
1834,20
1835,21
1836,21
1837,21
1838,21
1839,21
1840,22
1841,22
1842,21
1843,21
1844,21
1845,21
1846,20
1847,20
1848,20
1849,20
1850,20
1851,20
1852,20
1853,20
1854,20
1855,20
1856,20
1857,20
1858,20
1859,20
1860,20
1861,20
1862,20
1863,20
1864,20
1865,20
1866,20
1867,20
1868,20
1869,20
1870,20
1871,20
1872,20
1873,20
1874,20
1875,20
1876,20
1877,20
1878,20
1879,20
1880,21
1881,21
1882,21
1883,21
1884,20
1885,20
1886,20
1887,20
1888,20
1889,20
1890,20
1891,20
1892,20
1893,20
1894,20
1895,20
1896,20
1897,20
1898,21
1899,20
1900,21
1901,20
1902,20
1903,20
1904,20
1905,20
1906,20
1907,20
1908,20
1909,20
1910,20
1911,20
1912,20
1913,20
1914,20
1915,20
1916,20
1917,20
1918,20
1919,20
1920,20
1921,20
1922,20
1923,20
1924,21
1925,20
1926,20
1927,20
1928,20
1929,20
1930,20
1931,20
1932,20
1933,20
1934,20
1935,20
1936,20
1937,20
1938,20
1939,20
1940,20
1941,20
1942,20
1943,20
1944,20
1945,20
1946,20
1947,20
1948,20
1949,20
1950,20
1951,20
1952,20
1953,20
1954,20
1955,20
1956,20
1957,21
1958,20
1959,20
1960,20
1961,21
1962,21
1963,21
1964,21
1965,22
1966,21
1967,21
1968,21
1969,21
1970,21
1971,21
1972,21
1973,20
1974,20
1975,20
1976,20
1977,20
1978,20
1979,20
1980,20
1981,20
1982,20
1983,20
1984,20
1985,20
1986,20
1987,20
1988,20
1989,20
1990,20
1991,20
1992,20
1993,20
1994,20
1995,20
1996,20
1997,20
1998,20
1999,20
2000,20
2001,21
2002,21
2003,21
2004,21
2005,21
2006,21
2007,21
2008,21
2009,22
2010,21
2011,21
2012,21
2013,21
2014,21
2015,22
2016,22
2017,21
2018,21
2019,20
2020,20
2021,20
2022,20
2023,20
2024,20
2025,20
2026,21
2027,20
2028,20
2029,20
2030,20
2031,20
2032,20
2033,20
2034,20
2035,20
2036,20
2037,20
2038,20
2039,20
2040,20
2041,20
2042,20
2043,20
2044,20
2045,20
2046,20
2047,20
2048,20
2049,20
2050,20
2051,20
2052,20
2053,20
2054,20
2055,20
2056,20
2057,20
2058,20
2059,20
2060,20
2061,20
2062,20
2063,20
2064,20
2065,20
2066,20
2067,20
2068,20
2069,20
2070,20
2071,20
2072,20
2073,20
2074,20
2075,20
2076,20
2077,20
2078,20
2079,20
2080,20
2081,20
2082,20
2083,20
2084,20
2085,20
2086,20
2087,21
2088,21
2089,21
2090,21
2091,21
2092,21
2093,20
2094,20
2095,20
2096,20
2097,20
2098,20
2099,20
2100,20
2101,20
2102,20
2103,20
2104,20
2105,20
2106,20
2107,20
2108,20
2109,20
2110,20
2111,20
2112,20
2113,20
2114,20
2115,20
2116,20
2117,21
2118,21
2119,21
2120,21
2121,20
2122,20
2123,21
2124,20
2125,20
2126,20
2127,20
2128,20
2129,20
2130,20
2131,20
2132,20
2133,20
2134,20
2135,21
2136,21
2137,20
2138,20
2139,20
2140,20
2141,21
2142,21
2143,21
2144,21
2145,21
2146,21
2147,21
2148,20
2149,20
2150,21
2151,21
2152,21
2153,21
2154,21
2155,21
2156,21
2157,21
2158,21
2159,21
2160,21
2161,20
2162,20
2163,20
2164,20
2165,20
2166,20
2167,20
2168,20
2169,20
2170,20
2171,20
2172,20
2173,20
2174,20
2175,20
2176,21
2177,20
2178,20
2179,20
2180,20
2181,21
2182,21
2183,20
2184,20
2185,20
2186,20
2187,20
2188,20
2189,20
2190,20
2191,20
2192,20
2193,20
2194,20
2195,20
2196,20
2197,20
2198,20
2199,20
2200,21
2201,21
2202,21
2203,21
2204,21
2205,21
2206,21
2207,22
2208,22
2209,21
2210,20
2211,21
2212,20
2213,20
2214,20
2215,21
2216,21
2217,21
2218,21
2219,21
2220,21
2221,20
2222,20
2223,20
2224,20
2225,20
2226,20
2227,20
2228,20
2229,20
2230,20
2231,20
2232,20
2233,20
2234,20
2235,20
2236,20
2237,20
2238,20
2239,20
2240,20
2241,20
2242,20
2243,20
2244,20
2245,20
2246,20
2247,20
2248,20
2249,20
2250,20
2251,20
2252,20
2253,20
2254,20
2255,20
2256,20
2257,20
2258,20
2259,20
2260,20
2261,20
2262,21
2263,20
2264,20
2265,20
2266,20
2267,20
2268,20
2269,20
2270,20
2271,20
2272,20
2273,20
2274,21
2275,21
2276,21
2277,21
2278,21
2279,22
2280,21
2281,21
2282,21
2283,21
2284,21
2285,21
2286,21
2287,21
2288,21
2289,21
2290,21
2291,21
2292,21
2293,21
2294,21
2295,21
2296,21
2297,21
2298,21
2299,22
2300,22
2301,22
2302,22
2303,22
2304,22
2305,22
2306,22
2307,23
2308,23
2309,23
2310,23
2311,23
2312,23
2313,23
2314,23
2315,23
2316,22
2317,22
2318,22
2319,22
2320,22
2321,22
2322,22
2323,22
2324,22
2325,22
2326,22
2327,22
2328,22
2329,22
2330,22
2331,22
2332,22
2333,22
2334,22
2335,22
2336,22
2337,22
2338,22
2339,22
2340,22
2341,23
2342,24
2343,24
2344,24
2345,24
2346,24
2347,23
2348,23
2349,24
2350,24
2351,24
2352,25
2353,25
2354,24
2355,23
2356,23
2357,23
2358,23
2359,23
2360,23
2361,23
2362,23
2363,23
2364,23
2365,23
2366,23
2367,23
2368,25
2369,25
2370,25
2371,24
2372,24
2373,24
2374,23
2375,23
2376,23
2377,24
2378,24
2379,23
2380,23
2381,23
2382,23
2383,24
2384,24
2385,24
2386,25
2387,24
2388,24
2389,24
2390,24
2391,24
2392,24
2393,24
2394,24
2395,25
2396,25
2397,25
2398,25
2399,25
2400,25
2401,25
2402,25
2403,25
2404,25
2405,24
2406,24
2407,24
2408,24
2409,24
2410,24
2411,24
2412,25
2413,25
2414,25
2415,25
2416,25
2417,25
2418,24
2419,24
2420,24
2421,24
2422,24
2423,24
2424,24
2425,24
2426,24
2427,24
2428,25
2429,25
2430,24
2431,24
2432,24
2433,24
2434,24
2435,24
2436,24
2437,24
2438,24
2439,24
2440,24
2441,24
2442,24
2443,24
2444,24
2445,24
2446,24
2447,24
2448,24
2449,24
2450,26
2451,25
2452,24
2453,24
2454,24
2455,24
2456,24
2457,25
2458,25
2459,25
2460,24
2461,24
2462,24
2463,24
2464,24
2465,24
2466,24
2467,24
2468,24
2469,24
2470,24
2471,24
2472,24
2473,24
2474,24
2475,24
2476,24
2477,24
2478,24
2479,24
2480,24
2481,24
2482,24
2483,24
2484,25
2485,25
2486,25
2487,25
2488,25
2489,25
2490,25
2491,24
2492,24
2493,24
2494,24
2495,24
2496,24
2497,24
2498,24
2499,24
2500,24
2501,24
2502,24
2503,24
2504,24
2505,24
2506,24
2507,25
2508,24
2509,24
2510,24
2511,24
2512,24
2513,24
2514,24
2515,24
2516,24
2517,24
2518,24
2519,24
2520,24
2521,24
2522,24
2523,24
2524,24
2525,24
2526,24
2527,24
2528,24
2529,24
2530,24
2531,24
2532,25
2533,25
2534,24
2535,25
2536,25
2537,25
2538,25
2539,25
2540,25
2541,25
2542,25
2543,25
2544,25
2545,25
2546,25
2547,24
2548,24
2549,24
2550,24
2551,24
2552,24
2553,24
2554,24
2555,24
2556,24
2557,24
2558,24
2559,25
2560,24
2561,24
2562,24
2563,24
2564,24
2565,24
2566,24
2567,24
2568,24
2569,24
2570,24
2571,24
2572,24
2573,24
2574,24
2575,24
2576,24
2577,24
2578,24
2579,24
2580,24
2581,24
2582,24
2583,24
2584,24
2585,25
2586,25
2587,24
2588,24
2589,25
2590,24
2591,24
2592,24
2593,24
2594,24
2595,24
2596,24
2597,24
2598,24
2599,24
2600,24
2601,24
2602,24
2603,24
2604,24
2605,24
2606,24
2607,24
2608,24
2609,24
2610,24
2611,24
2612,24
2613,25
2614,24
2615,24
2616,24
2617,24
2618,24
2619,24
2620,24
2621,24
2622,25
2623,25
2624,25
2625,25
2626,25
2627,25
2628,24
2629,24
2630,24
2631,24
2632,24
2633,24
2634,25
2635,24
2636,24
2637,24
2638,24
2639,24
2640,24
2641,24
2642,24
2643,24
2644,24
2645,24
2646,24
2647,24
2648,24
2649,24
2650,24
2651,25
2652,25
2653,25
2654,25
2655,25
2656,25
2657,25
2658,25
2659,25
2660,25
2661,25
2662,25
2663,25
2664,25
2665,25
2666,25
2667,25
2668,25
2669,25
2670,25
2671,25
2672,25
2673,25
2674,25
2675,25
2676,25
2677,25
2678,26
2679,26
2680,26
2681,25
2682,25
2683,25
2684,25
2685,25
2686,25
2687,26
2688,26
2689,25
2690,25
2691,25
2692,25
2693,25
2694,25
2695,25
2696,25
2697,25
2698,25
2699,25
2700,25
2701,25
2702,25
2703,25
2704,25
2705,25
2706,25
2707,25
2708,25
2709,25
2710,25
2711,25
2712,25
2713,25
2714,25
2715,25
2716,25
2717,25
2718,25
2719,25
2720,25
2721,25
2722,25
2723,25
2724,25
2725,25
2726,25
2727,26
2728,26
2729,26
2730,26
2731,25
2732,25
2733,26
2734,25
2735,25
2736,25
2737,25
2738,25
2739,25
2740,25
2741,25
2742,25
2743,25
2744,26
2745,26
2746,26
2747,26
2748,26
2749,26
2750,26
2751,25
2752,25
2753,26
2754,25
2755,25
2756,25
2757,25
2758,26
2759,26
2760,26
2761,26
2762,26
2763,26
2764,26
2765,26
2766,26
2767,26
2768,26
2769,26
2770,26
2771,26
2772,26
2773,26
2774,26
2775,26
2776,26
2777,26
2778,26
2779,26
2780,26
2781,26
2782,26
2783,26
2784,26
2785,26
2786,27
2787,27
2788,27
2789,26
2790,26
2791,25
2792,25
2793,25
2794,25
2795,25
2796,25
2797,25
2798,25
2799,25
2800,25
2801,25
2802,25
2803,25
2804,25
2805,25
2806,25
2807,25
2808,25
2809,25
2810,25
2811,25
2812,25
2813,25
2814,25
2815,25
2816,25
2817,26
2818,26
2819,27
2820,27
2821,26
2822,26
2823,25
2824,25
2825,25
2826,25
2827,25
2828,25
2829,26
2830,25
2831,25
2832,25
2833,25
2834,25
2835,25
2836,25
2837,25
2838,25
2839,25
2840,25
2841,25
2842,25
2843,25
2844,25
2845,25
2846,25
2847,25
2848,25
2849,25
2850,25
2851,25
2852,25
2853,25
2854,26
2855,25
2856,25
2857,25
2858,25
2859,25
2860,26
2861,25
2862,26
2863,26
2864,25
2865,25
2866,26
2867,26
2868,25
2869,25
2870,26
2871,25
2872,25
2873,25
2874,25
2875,25
2876,25
2877,25
2878,25
2879,25
2880,25
2881,25
2882,26
2883,25
2884,25
2885,25
2886,25
2887,25
2888,25
2889,25
2890,25
2891,25
2892,25
2893,25
2894,25
2895,25
2896,25
2897,25
2898,25
2899,25
2900,25
2901,25
2902,25
2903,25
2904,25
2905,26
2906,26
2907,25
2908,25
2909,25
2910,25
2911,25
2912,25
2913,27
2914,25
2915,25
2916,26
2917,25
2918,25
2919,25
2920,25
2921,26
2922,26
2923,26
2924,26
2925,26
2926,26
2927,26
2928,26
2929,25
2930,25
2931,26
2932,26
2933,26
2934,25
2935,25
2936,25
2937,25
2938,25
2939,25
2940,25
2941,25
2942,25
2943,26
2944,27
2945,26
2946,26
2947,25
2948,25
2949,25
2950,25
2951,25
2952,25
2953,25
2954,25
2955,25
2956,25
2957,25
2958,25
2959,25
2960,25
2961,25
2962,25
2963,25
2964,25
2965,25
2966,25
2967,25
2968,25
2969,25
2970,25
2971,25
2972,25
2973,25
2974,25
2975,25
2976,25
2977,25
2978,25
2979,25
2980,25
2981,25
2982,25
2983,25
2984,25
2985,25
2986,25
2987,25
2988,25
2989,25
2990,25
2991,25
2992,25
2993,25
2994,25
2995,25
2996,25
2997,25
2998,25
2999,25
3000,25
3001,25
3002,25
3003,25
3004,25
3005,25
3006,25
3007,25
3008,25
3009,25
3010,25
3011,26
3012,25
3013,25
3014,25
3015,25
3016,25
3017,25
3018,25
3019,25
3020,25
3021,25
3022,25
3023,25
3024,25
3025,25
3026,25
3027,25
3028,25
3029,25
3030,25
3031,25
3032,25
3033,25
3034,25
3035,25
3036,26
3037,26
3038,26
3039,26
3040,26
3041,26
3042,26
3043,26
3044,25
3045,25
3046,25
3047,25
3048,25
3049,25
3050,25
3051,25
3052,25
3053,25
3054,25
3055,25
3056,25
3057,25
3058,25
3059,25
3060,25
3061,25
3062,25
3063,25
3064,25
3065,25
3066,26
3067,26
3068,26
3069,25
3070,25
3071,25
3072,25
3073,25
3074,25
3075,25
3076,25
3077,25
3078,26
3079,25
3080,25
3081,25
3082,25
3083,25
3084,25
3085,25
3086,25
3087,25
3088,25
3089,25
3090,25
3091,25
3092,25
3093,25
3094,25
3095,25
3096,25
3097,25
3098,25
3099,25
3100,25
3101,25
3102,25
3103,25
3104,25
3105,25
3106,25
3107,25
3108,25
3109,25
3110,25
3111,26
3112,25
3113,26
3114,25
3115,25
3116,25
3117,25
3118,25
3119,25
3120,25
3121,25
3122,25
3123,25
3124,25
3125,25
3126,25
3127,25
3128,26
3129,25
3130,25
3131,25
3132,25
3133,25
3134,25
3135,25
3136,25
3137,25
3138,25
3139,25
3140,26
3141,26
3142,26
3143,26
3144,26
3145,26
3146,26
3147,26
3148,26
3149,26
3150,26
3151,26
3152,26
3153,26
3154,26
3155,25
3156,25
3157,25
3158,25
3159,25
3160,25
3161,25
3162,25
3163,25
3164,26
3165,26
3166,25
3167,25
3168,25
3169,25
3170,25
3171,25
3172,25
3173,25
3174,25
3175,25
3176,25
3177,25
3178,25
3179,25
3180,25
3181,26
3182,26
3183,28
3184,26
3185,26
3186,25
3187,25
3188,25
3189,25
3190,25
3191,25
3192,25
3193,25
3194,25
3195,25
3196,25
3197,25
3198,25
3199,25
3200,25
3201,25
3202,25
3203,25
3204,25
3205,25
3206,25
3207,25
3208,25
3209,25
3210,25
3211,25
3212,25
3213,25
3214,25
3215,25
3216,26
3217,26
3218,26
3219,25
3220,25
3221,25
3222,25
3223,25
3224,25
3225,25
3226,25
3227,25
3228,25
3229,25
3230,25
3231,25
3232,25
3233,25
3234,25
3235,25
3236,25
3237,25
3238,25
3239,25
3240,25
3241,25
3242,25
3243,25
3244,25
3245,25
3246,25
3247,25
3248,25
3249,25
3250,26
3251,26
3252,26
3253,26
3254,26
3255,26
3256,25
3257,25
3258,25
3259,25
3260,25
3261,25
3262,25
3263,25
3264,25
3265,25
3266,25
3267,25
3268,25
3269,25
3270,26
3271,25
3272,25
3273,25
3274,25
3275,25
3276,25
3277,25
3278,25
3279,25
3280,25
3281,25
3282,25
3283,25
3284,25
3285,25
3286,25
3287,25
3288,25
3289,25
3290,25
3291,25
3292,25
3293,25
3294,26
3295,25
3296,25
3297,26
3298,25
3299,25
3300,25
3301,25
3302,25
3303,25
3304,25
3305,25
3306,25
3307,25
3308,26
3309,25
3310,25
3311,25
3312,25
3313,25
3314,25
3315,25
3316,25
3317,25
3318,25
3319,25
3320,25
3321,25
3322,25
3323,25
3324,25
3325,25
3326,25
3327,25
3328,26
3329,25
3330,25
3331,25
3332,25
3333,25
3334,25
3335,25
3336,26
3337,25
3338,25
3339,25
3340,25
3341,25
3342,25
3343,25
3344,25
3345,25
3346,25
3347,25
3348,26
3349,25
3350,25
3351,25
3352,25
3353,25
3354,25
3355,25
3356,25
3357,25
3358,25
3359,25
3360,25
3361,25
3362,26
3363,26
3364,26
3365,26
3366,25
3367,25
3368,25
3369,25
3370,25
3371,25
3372,25
3373,25
3374,25
3375,25
3376,25
3377,25
3378,25
3379,25
3380,25
3381,25
3382,25
3383,25
3384,25
3385,25
3386,26
3387,25
3388,25
3389,26
3390,26
3391,25
3392,25
3393,25
3394,25
3395,25
3396,26
3397,27
3398,27
3399,26
3400,25
3401,25
3402,25
3403,25
3404,25
3405,25
3406,25
3407,26
3408,25
3409,25
3410,25
3411,25
3412,25
3413,25
3414,25
3415,25
3416,25
3417,25
3418,25
3419,25
3420,25
3421,25
3422,25
3423,25
3424,25
3425,25
3426,25
3427,25
3428,25
3429,25
3430,25
3431,25
3432,25
3433,25
3434,25
3435,25
3436,25
3437,25
3438,25
3439,26
3440,26
3441,26
3442,26
3443,25
3444,25
3445,25
3446,25
3447,25
3448,25
3449,25
3450,25
3451,25
3452,25
3453,25
3454,25
3455,25
3456,25
3457,25
3458,25
3459,25
3460,25
3461,25
3462,25
3463,25
3464,25
3465,25
3466,25
3467,25
3468,25
3469,25
3470,25
3471,25
3472,25
3473,25
3474,25
3475,26
3476,25
3477,25
3478,25
3479,25
3480,25
3481,25
3482,25
3483,25
3484,25
3485,25
3486,25
3487,25
3488,25
3489,25
3490,26
3491,27
3492,26
3493,26
3494,26
3495,26
3496,26
3497,26
3498,26
3499,26
3500,26
3501,26
3502,26
3503,26
3504,26
3505,27
3506,25
3507,25
3508,25
3509,25
3510,25
3511,25
3512,25
3513,25
3514,25
3515,25
3516,25
3517,25
3518,25
3519,25
3520,25
3521,25
3522,25
3523,25
3524,25
3525,25
3526,25
3527,25
3528,26
3529,26
3530,26
3531,26
3532,26
3533,26
3534,25
3535,25
3536,25
3537,25
3538,26
3539,26
3540,26
3541,25
3542,25
3543,25
3544,25
3545,27
3546,27
3547,26
3548,26
3549,26
3550,26
3551,26
3552,26
3553,26
3554,26
3555,26
3556,27
3557,27
3558,27
3559,26
3560,26
3561,26
3562,26
3563,26
3564,26
3565,26
3566,26
3567,26
3568,26
3569,26
3570,26
3571,26
3572,26
3573,26
3574,26
3575,26
3576,26
3577,26
3578,25
3579,25
3580,26
3581,25
3582,25
3583,25
3584,25
3585,25
3586,25
3587,25
3588,25
3589,25
3590,25
3591,25
3592,25
3593,25
3594,25
3595,25
3596,26
3597,26
3598,27
3599,26
3600,26
3601,26
3602,26
3603,26
3604,26
3605,26
3606,26
3607,26
3608,26
3609,27
3610,26
3611,26
3612,26
3613,26
3614,26
3615,26
3616,26
3617,26
3618,26
3619,26
3620,26
3621,26
3622,26
3623,26
3624,26
3625,26
3626,26
3627,27
3628,26
3629,26
3630,26
3631,26
3632,26
3633,26
3634,26
3635,26
3636,26
3637,27
3638,27
3639,26
3640,26
3641,26
3642,26
3643,26
3644,26
3645,26
3646,26
3647,26
3648,26
3649,26
3650,26
3651,26
3652,26
3653,26
3654,26
3655,26
3656,26
3657,26
3658,26
3659,26
3660,26
3661,26
3662,26
3663,26
3664,26
3665,26
3666,26
3667,26
3668,26
3669,26
3670,26
3671,26
3672,26
3673,26
3674,26
3675,26
3676,26
3677,26
3678,26
3679,26
3680,26
3681,26
3682,26
3683,26
3684,26
3685,26
3686,26
3687,26
3688,26
3689,27
3690,26
3691,26
3692,26
3693,27
3694,27
3695,26
3696,27
3697,29
3698,28
3699,28
3700,28
3701,28
3702,28
3703,28
3704,28
3705,28
3706,27
3707,27
3708,27
3709,27
3710,27
3711,27
3712,27
3713,27
3714,27
3715,27
3716,27
3717,27
3718,27
3719,27
3720,27
3721,27
3722,28
3723,28
3724,28
3725,28
3726,28
3727,28
3728,28
3729,28
3730,28
3731,28
3732,27
3733,27
3734,27
3735,27
3736,27
3737,26
3738,26
3739,26
3740,26
3741,26
3742,26
3743,26
3744,26
3745,26
3746,26
3747,26
3748,26
3749,26
3750,26
3751,26
3752,26
3753,26
3754,26
3755,26
3756,26
3757,26
3758,26
3759,26
3760,26
3761,26
3762,26
3763,27
3764,27
3765,28
3766,27
3767,27
3768,26
3769,26
3770,26
3771,26
3772,26
3773,26
3774,26
3775,26
3776,26
3777,26
3778,26
3779,26
3780,26
3781,27
3782,26
3783,26
3784,26
3785,26
3786,26
3787,26
3788,26
3789,26
3790,26
3791,26
3792,26
3793,26
3794,26
3795,26
3796,26
3797,26
3798,26
3799,26
3800,26
3801,26
3802,26
3803,26
3804,26
3805,26
3806,26
3807,26
3808,26
3809,26
3810,27
3811,26
3812,26
3813,26
3814,26
3815,26
3816,26
3817,26
3818,26
3819,26
3820,26
3821,26
3822,26
3823,26
3824,26
3825,26
3826,26
3827,26
3828,26
3829,26
3830,26
3831,26
3832,26
3833,26
3834,26
3835,26
3836,26
3837,26
3838,27
3839,27
3840,27
3841,26
3842,26
3843,26
3844,26
3845,26
3846,27
3847,27
3848,26
3849,26
3850,26
3851,26
3852,26
3853,26
3854,26
3855,26
3856,26
3857,26
3858,26
3859,26
3860,26
3861,26
3862,26
3863,26
3864,26
3865,26
3866,26
3867,26
3868,26
3869,26
3870,26
3871,26
3872,26
3873,26
3874,26
3875,26
3876,26
3877,26
3878,26
3879,26
3880,26
3881,26
3882,27
3883,27
3884,27
3885,27
3886,27
3887,27
3888,28
3889,27
3890,27
3891,27
3892,28
3893,27
3894,27
3895,27
3896,27
3897,27
3898,27
3899,27
3900,27
3901,27
3902,27
3903,27
3904,27
3905,27
3906,27
3907,27
3908,27
3909,27
3910,27
3911,27
3912,27
3913,28
3914,28
3915,29
3916,29
3917,28
3918,28
3919,27
3920,27
3921,27
3922,27
3923,27
3924,27
3925,27
3926,27
3927,27
3928,27
3929,27
3930,27
3931,27
3932,27
3933,27
3934,27
3935,27
3936,27
3937,27
3938,27
3939,27
3940,27
3941,27
3942,27
3943,27
3944,27
3945,27
3946,29
3947,28
3948,27
3949,27
3950,27
3951,27
3952,28
3953,28
3954,28
3955,27
3956,27
3957,27
3958,27
3959,28
3960,28
3961,28
3962,28
3963,28
3964,27
3965,27
3966,27
3967,27
3968,27
3969,27
3970,27
3971,27
3972,27
3973,27
3974,27
3975,27
3976,27
3977,27
3978,27
3979,27
3980,27
3981,27
3982,27
3983,27
3984,27
3985,27
3986,27
3987,27
3988,27
3989,27
3990,27
3991,27
3992,27
3993,27
3994,27
3995,27
3996,28
3997,28
3998,27
3999,27
4000,27
4001,27
4002,27
4003,27
4004,27
4005,27
4006,28
4007,28
4008,28
4009,27
4010,27
4011,27
4012,27
4013,27
4014,27
4015,27
4016,27
4017,27
4018,27
4019,27
4020,27
4021,27
4022,27
4023,27
4024,27
4025,27
4026,27
4027,27
4028,27
4029,27
4030,27
4031,27
4032,28
4033,27
4034,27
4035,27
4036,27
4037,27
4038,27
4039,27
4040,27
4041,27
4042,27
4043,27
4044,27
4045,27
4046,27
4047,27
4048,27
4049,27
4050,27
4051,27
4052,27
4053,27
4054,27
4055,27
4056,27
4057,27
4058,27
4059,28
4060,28
4061,28
4062,27
4063,27
4064,27
4065,27
4066,27
4067,27
4068,27
4069,27
4070,27
4071,27
4072,27
4073,27
4074,27
4075,27
4076,28
4077,27
4078,27
4079,27
4080,27
4081,27
4082,27
4083,27
4084,27
4085,27
4086,27
4087,27
4088,27
4089,27
4090,27
4091,27
4092,27
4093,27
4094,27
4095,27
4096,27
4097,27
4098,27
4099,27
4100,27
4101,27
4102,27
4103,27
4104,27
4105,27
4106,27
4107,27
4108,27
4109,27
4110,27
4111,27
4112,27
4113,27
4114,27
4115,27
4116,27
4117,27
4118,27
4119,27
4120,27
4121,27
4122,27
4123,27
4124,27
4125,27
4126,27
4127,27
4128,27
4129,27
4130,27
4131,27
4132,28
4133,28
4134,28
4135,28
4136,28
4137,28
4138,28
4139,27
4140,27
4141,27
4142,27
4143,27
4144,27
4145,27
4146,27
4147,27
4148,27
4149,27
4150,28
4151,28
4152,28
4153,28
4154,28
4155,28
4156,28
4157,28
4158,28
4159,28
4160,28
4161,28
4162,28
4163,28
4164,28
4165,28
4166,28
4167,28
4168,28
4169,28
4170,28
4171,28
4172,28
4173,28
4174,28
4175,29
4176,28
4177,28
4178,27
4179,27
4180,27
4181,27
4182,27
4183,27
4184,27
4185,27
4186,27
4187,27
4188,27
4189,27
4190,27
4191,27
4192,27
4193,27
4194,27
4195,27
4196,27
4197,27
4198,27
4199,27
4200,28
4201,28
4202,28
4203,29
4204,27
4205,27
4206,27
4207,27
4208,27
4209,27
4210,28
4211,28
4212,28
4213,28
4214,28
4215,28
4216,28
4217,28
4218,28
4219,28
4220,28
4221,28
4222,28
4223,28
4224,27
4225,28
4226,27
4227,27
4228,27
4229,27
4230,27
4231,27
4232,27
4233,27
4234,27
4235,27
4236,27
4237,27
4238,27
4239,27
4240,27
4241,27
4242,27
4243,27
4244,27
4245,27
4246,27
4247,27
4248,27
4249,27
4250,27
4251,27
4252,27
4253,27
4254,27
4255,27
4256,27
4257,27
4258,27
4259,27
4260,27
4261,27
4262,27
4263,27
4264,27
4265,27
4266,27
4267,27
4268,27
4269,27
4270,27
4271,27
4272,27
4273,27
4274,27
4275,27
4276,27
4277,27
4278,27
4279,27
4280,27
4281,27
4282,27
4283,27
4284,27
4285,28
4286,27
4287,28
4288,27
4289,27
4290,27
4291,27
4292,27
4293,27
4294,27
4295,27
4296,27
4297,27
4298,27
4299,27
4300,27
4301,27
4302,27
4303,28
4304,28
4305,27
4306,27
4307,27
4308,27
4309,27
4310,27
4311,27
4312,27
4313,27
4314,27
4315,27
4316,27
4317,27
4318,27
4319,27
4320,27
4321,27
4322,27
4323,27
4324,27
4325,27
4326,27
4327,27
4328,27
4329,27
4330,27
4331,28
4332,28
4333,28
4334,27
4335,27
4336,27
4337,27
4338,27
4339,27
4340,27
4341,27
4342,27
4343,27
4344,27
4345,27
4346,28
4347,28
4348,28
4349,29
4350,28
4351,29
4352,29
4353,29
4354,29
4355,29
4356,29
4357,29
4358,29
4359,29
4360,29
4361,29
4362,29
4363,29
4364,29
4365,29
4366,29
4367,28
4368,28
4369,28
4370,28
4371,29
4372,28
4373,28
4374,27
4375,27
4376,27
4377,28
4378,28
4379,28
4380,28
4381,28
4382,27
4383,27
4384,27
4385,27
4386,27
4387,27
4388,27
4389,27
4390,27
4391,27
4392,27
4393,27
4394,27
4395,27
4396,29
4397,28
4398,28
4399,29
4400,28
4401,28
4402,29
4403,29
4404,30
4405,29
4406,29
4407,28
4408,28
4409,28
4410,28
4411,28
4412,28
4413,28
4414,28
4415,28
4416,28
4417,28
4418,28
4419,28
4420,28
4421,28
4422,28
4423,28
4424,28
4425,28
4426,28
4427,28
4428,28
4429,28
4430,28
4431,28
4432,28
4433,28
4434,28
4435,28
4436,28
4437,28
4438,28
4439,28
4440,28
4441,28
4442,28
4443,28
4444,29
4445,28
4446,28
4447,28
4448,28
4449,28
4450,28
4451,28
4452,28
4453,28
4454,28
4455,29
4456,29
4457,28
4458,28
4459,28
4460,28
4461,28
4462,28
4463,28
4464,28
4465,28
4466,28
4467,28
4468,28
4469,28
4470,28
4471,28
4472,28
4473,28
4474,28
4475,29
4476,29
4477,29
4478,29
4479,30
4480,30
4481,30
4482,30
4483,30
4484,30
4485,30
4486,30
4487,30
4488,30
4489,30
4490,30
4491,31
4492,30
4493,30
4494,30
4495,30
4496,30
4497,30
4498,30
4499,30
4500,30
4501,31
4502,31
4503,29
4504,29
4505,29
4506,29
4507,28
4508,28
4509,28
4510,28
4511,28
4512,28
4513,28
4514,29
4515,28
4516,28
4517,28
4518,28
4519,28
4520,28
4521,28
4522,28
4523,28
4524,28
4525,28
4526,28
4527,28
4528,28
4529,28
4530,28
4531,28
4532,28
4533,28
4534,28
4535,28
4536,28
4537,28
4538,28
4539,28
4540,28
4541,28
4542,28
4543,28
4544,28
4545,29
4546,28
4547,28
4548,29
4549,28
4550,28
4551,28
4552,28
4553,28
4554,28
4555,28
4556,28
4557,29
4558,28
4559,28
4560,29
4561,29
4562,29
4563,29
4564,29
4565,29
4566,29
4567,29
4568,29
4569,29
4570,30
4571,29
4572,29
4573,29
4574,30
4575,29
4576,29
4577,29
4578,29
4579,29
4580,29
4581,29
4582,29
4583,29
4584,29
4585,30
4586,29
4587,29
4588,29
4589,29
4590,29
4591,29
4592,29
4593,29
4594,29
4595,29
4596,29
4597,29
4598,29
4599,29
4600,29
4601,29
4602,29
4603,29
4604,29
4605,29
4606,29
4607,29
4608,29
4609,30
4610,29
4611,30
4612,30
4613,29
4614,29
4615,29
4616,29
4617,29
4618,29
4619,29
4620,29
4621,30
4622,30
4623,30
4624,30
4625,31
4626,31
4627,31
4628,30
4629,30
4630,30
4631,30
4632,30
4633,30
4634,30
4635,31
4636,31
4637,30
4638,29
4639,29
4640,29
4641,29
4642,29
4643,29
4644,29
4645,29
4646,29
4647,29
4648,29
4649,29
4650,29
4651,29
4652,29
4653,29
4654,29
4655,29
4656,29
4657,29
4658,29
4659,29
4660,29
4661,29
4662,29
4663,29
4664,29
4665,29
4666,29
4667,29
4668,29
4669,29
4670,29
4671,29
4672,29
4673,29
4674,29
4675,29
4676,29
4677,29
4678,29
4679,29
4680,29
4681,30
4682,30
4683,29
4684,29
4685,29
4686,29
4687,29
4688,29
4689,30
4690,30
4691,30
4692,30
4693,30
4694,31
4695,30
4696,30
4697,30
4698,30
4699,30
4700,30
4701,30
4702,29
4703,29
4704,29
4705,29
4706,29
4707,29
4708,29
4709,29
4710,29
4711,29
4712,29
4713,29
4714,29
4715,30
4716,30
4717,30
4718,29
4719,29
4720,29
4721,29
4722,29
4723,29
4724,29
4725,29
4726,29
4727,29
4728,29
4729,29
4730,29
4731,29
4732,29
4733,29
4734,29
4735,29
4736,30
4737,30
4738,31
4739,31
4740,31
4741,31
4742,31
4743,31
4744,30
4745,30
4746,30
4747,30
4748,30
4749,30
4750,30
4751,30
4752,30
4753,30
4754,30
4755,30
4756,32
4757,34
4758,33
4759,32
4760,30
4761,31
4762,31
4763,30
4764,30
4765,30
4766,30
4767,30
4768,30
4769,30
4770,30
4771,31
4772,31
4773,31
4774,31
4775,31
4776,32
4777,32
4778,31
4779,31
4780,30
4781,30
4782,30
4783,30
4784,30
4785,30
4786,30
4787,30
4788,30
4789,30
4790,30
4791,30
4792,30
4793,30
4794,31
4795,30
4796,30
4797,30
4798,30
4799,30
4800,30
4801,30
4802,30
4803,30
4804,30
4805,30
4806,30
4807,30
4808,30
4809,30
4810,30
4811,30
4812,30
4813,30
4814,30
4815,30
4816,30
4817,30
4818,30
4819,30
4820,30
4821,30
4822,30
4823,30
4824,30
4825,31
4826,30
4827,30
4828,30
4829,30
4830,30
4831,30
4832,30
4833,30
4834,30
4835,30
4836,30
4837,30
4838,30
4839,30
4840,30
4841,30
4842,30
4843,30
4844,30
4845,30
4846,30
4847,30
4848,30
4849,30
4850,30
4851,30
4852,30
4853,30
4854,30
4855,30
4856,30
4857,30
4858,30
4859,30
4860,30
4861,30
4862,30
4863,30
4864,30
4865,30
4866,30
4867,30
4868,30
4869,30
4870,30
4871,30
4872,30
4873,30
4874,30
4875,30
4876,30
4877,30
4878,30
4879,30
4880,30
4881,30
4882,29
4883,29
4884,29
4885,29
4886,29
4887,29
4888,29
4889,29
4890,29
4891,29
4892,29
4893,29
4894,29
4895,29
4896,29
4897,29
4898,29
4899,29
4900,29
4901,29
4902,29
4903,29
4904,29
4905,29
4906,29
4907,29
4908,29
4909,29
4910,29
4911,29
4912,29
4913,29
4914,29
4915,29
4916,29
4917,29
4918,29
4919,29
4920,29
4921,30
4922,29
4923,29
4924,29
4925,29
4926,29
4927,29
4928,29
4929,29
4930,29
4931,29
4932,29
4933,30
4934,29
4935,29
4936,29
4937,29
4938,29
4939,29
4940,29
4941,29
4942,30
4943,30
4944,30
4945,30
4946,30
4947,30
4948,30
4949,30
4950,30
4951,30
4952,30
4953,30
4954,30
4955,30
4956,30
4957,30
4958,31
4959,30
4960,30
4961,30
4962,30
4963,30
4964,30
4965,30
4966,30
4967,30
4968,30
4969,30
4970,30
4971,30
4972,31
4973,32
4974,32
4975,31
4976,31
4977,31
4978,31
4979,31
4980,32
4981,32
4982,32
4983,32
4984,32
4985,31
4986,31
4987,31
4988,31
4989,31
4990,31
4991,31
4992,31
4993,32
4994,31
4995,31
4996,31
4997,31
4998,31
4999,31
5000,31
5001,31
5002,31
5003,31
5004,31
5005,31
5006,31
5007,31
5008,31
5009,32
5010,32
5011,31
5012,31
5013,31
5014,31
5015,31
5016,31
5017,31
5018,31
5019,31
5020,31
5021,31
5022,31
5023,31
5024,31
5025,31
5026,31
5027,31
5028,31
5029,31
5030,31
5031,31
5032,31
5033,31
5034,31
5035,31
5036,31
5037,31
5038,31
5039,31
5040,31
5041,31
5042,31
5043,31
5044,31
5045,31
5046,31
5047,31
5048,31
5049,31
5050,31
5051,31
5052,31
5053,31
5054,31
5055,31
5056,31
5057,31
5058,31
5059,31
5060,31
5061,31
5062,31
5063,31
5064,31
5065,31
5066,31
5067,31
5068,31
5069,31
5070,31
5071,31
5072,31
5073,31
5074,31
5075,31
5076,31
5077,31
5078,31
5079,31
5080,32
5081,32
5082,31
5083,31
5084,31
5085,31
5086,32
5087,32
5088,32
5089,32
5090,32
5091,31
5092,31
5093,31
5094,31
5095,31
5096,31
5097,31
5098,31
5099,31
5100,31
5101,31
5102,32
5103,32
5104,32
5105,31
5106,31
5107,31
5108,31
5109,31
5110,31
5111,31
5112,31
5113,31
5114,31
5115,31
5116,31
5117,31
5118,31
5119,31
5120,31
5121,31
5122,31
5123,31
5124,31
5125,31
5126,31
5127,31
5128,31
5129,31
5130,31
5131,32
5132,32
5133,33
5134,33
5135,32
5136,32
5137,32
5138,32
5139,31
5140,31
5141,32
5142,32
5143,32
5144,31
5145,31
5146,31
5147,31
5148,31
5149,31
5150,31
5151,31
5152,32
5153,32
5154,32
5155,31
5156,31
5157,31
5158,31
5159,32
5160,32
5161,32
5162,31
5163,31
5164,31
5165,31
5166,31
5167,31
5168,31
5169,31
5170,31
5171,31
5172,31
5173,31
5174,31
5175,31
5176,31
5177,31
5178,31
5179,31
5180,31
5181,31
5182,31
5183,31
5184,31
5185,31
5186,31
5187,31
5188,31
5189,31
5190,31
5191,31
5192,31
5193,31
5194,31
5195,31
5196,31
5197,31
5198,31
5199,31
5200,32
5201,31
5202,31
5203,32
5204,32
5205,31
5206,31
5207,31
5208,31
5209,31
5210,31
5211,31
5212,31
5213,31
5214,31
5215,31
5216,31
5217,31
5218,31
5219,31
5220,31
5221,31
5222,32
5223,32
5224,31
5225,31
5226,31
5227,31
5228,31
5229,31
5230,31
5231,31
5232,31
5233,31
5234,31
5235,31
5236,31
5237,31
5238,31
5239,31
5240,31
5241,32
5242,32
5243,32
5244,32
5245,32
5246,32
5247,32
5248,32
5249,32
5250,32
5251,32
5252,32
5253,32
5254,32
5255,32
5256,32
5257,32
5258,31
5259,31
5260,31
5261,31
5262,31
5263,31
5264,32
5265,31
5266,31
5267,31
5268,31
5269,31
5270,31
5271,31
5272,31
5273,31
5274,32
5275,32
5276,31
5277,31
5278,31
5279,31
5280,31
5281,31
5282,31
5283,31
5284,31
5285,31
5286,31
5287,31
5288,31
5289,31
5290,32
5291,32
5292,31
5293,31
5294,31
5295,31
5296,31
5297,31
5298,31
5299,31
5300,31
5301,31
5302,31
5303,31
5304,31
5305,31
5306,31
5307,31
5308,31
5309,31
5310,31
5311,31
5312,31
5313,31
5314,31
5315,32
5316,31
5317,31
5318,31
5319,31
5320,31
5321,31
5322,31
5323,31
5324,31
5325,31
5326,31
5327,31
5328,31
5329,31
5330,31
5331,31
5332,31
5333,32
5334,31
5335,31
5336,31
5337,32
5338,32
5339,32
5340,32
5341,32
5342,32
5343,32
5344,32
5345,32
5346,32
5347,32
5348,32
5349,32
5350,32
5351,32
5352,32
5353,32
5354,32
5355,32
5356,32
5357,32
5358,33
5359,32
5360,32
5361,32
5362,32
5363,32
5364,32
5365,32
5366,32
5367,32
5368,32
5369,32
5370,32
5371,32
5372,32
5373,33
5374,33
5375,33
5376,33
5377,34
5378,34
5379,33
5380,33
5381,33
5382,33
5383,33
5384,34
5385,34
5386,33
5387,33
5388,33
5389,33
5390,33
5391,33
5392,33
5393,33
5394,33
5395,33
5396,33
5397,33
5398,33
5399,32
5400,32
5401,32
5402,32
5403,32
5404,32
5405,32
5406,32
5407,31
5408,31
5409,31
5410,31
5411,31
5412,31
5413,32
5414,32
5415,31
5416,31
5417,31
5418,31
5419,31
5420,31
5421,31
5422,31
5423,31
5424,31
5425,31
5426,31
5427,31
5428,31
5429,31
5430,31
5431,31
5432,31
5433,31
5434,31
5435,31
5436,31
5437,31
5438,31
5439,32
5440,32
5441,32
5442,32
5443,32
5444,32
5445,32
5446,31
5447,31
5448,32
5449,31
5450,31
5451,31
5452,31
5453,31
5454,31
5455,31
5456,31
5457,31
5458,31
5459,32
5460,31
5461,32
5462,31
5463,31
5464,31
5465,32
5466,32
5467,32
5468,32
5469,32
5470,32
5471,32
5472,32
5473,31
5474,31
5475,31
5476,31
5477,31
5478,31
5479,31
5480,32
5481,31
5482,31
5483,31
5484,31
5485,31
5486,31
5487,31
5488,31
5489,31
5490,31
5491,31
5492,31
5493,31
5494,31
5495,31
5496,31
5497,31
5498,31
5499,31
5500,31
5501,32
5502,31
5503,31
5504,31
5505,31
5506,31
5507,31
5508,31
5509,31
5510,31
5511,31
5512,31
5513,31
5514,31
5515,31
5516,31
5517,31
5518,31
5519,31
5520,31
5521,31
5522,31
5523,31
5524,31
5525,31
5526,31
5527,31
5528,31
5529,31
5530,31
5531,31
5532,33
5533,33
5534,33
5535,33
5536,32
5537,32
5538,32
5539,32
5540,32
5541,32
5542,32
5543,33
5544,33
5545,32
5546,33
5547,33
5548,33
5549,33
5550,33
5551,33
5552,34
5553,33
5554,33
5555,33
5556,33
5557,32
5558,32
5559,32
5560,32
5561,33
5562,32
5563,33
5564,32
5565,32
5566,32
5567,32
5568,32
5569,32
5570,32
5571,32
5572,32
5573,32
5574,32
5575,32
5576,32
5577,32
5578,32
5579,32
5580,32
5581,32
5582,32
5583,32
5584,32
5585,32
5586,32
5587,32
5588,32
5589,32
5590,32
5591,32
5592,32
5593,32
5594,32
5595,32
5596,32
5597,32
5598,32
5599,32
5600,32
5601,32
5602,32
5603,32
5604,32
5605,32
5606,33
5607,33
5608,32
5609,32
5610,32
5611,32
5612,32
5613,32
5614,32
5615,32
5616,32
5617,32
5618,32
5619,32
5620,32
5621,32
5622,32
5623,32
5624,32
5625,32
5626,32
5627,32
5628,32
5629,32
5630,32
5631,32
5632,32
5633,32
5634,32
5635,32
5636,32
5637,32
5638,32
5639,32
5640,32
5641,32
5642,32
5643,32
5644,32
5645,32
5646,32
5647,32
5648,32
5649,32
5650,32
5651,32
5652,32
5653,32
5654,32
5655,32
5656,32
5657,32
5658,32
5659,32
5660,32
5661,32
5662,32
5663,32
5664,32
5665,32
5666,32
5667,32
5668,32
5669,32
5670,32
5671,32
5672,33
5673,33
5674,33
5675,33
5676,32
5677,32
5678,32
5679,32
5680,33
5681,32
5682,32
5683,32
5684,32
5685,32
5686,32
5687,32
5688,33
5689,32
5690,32
5691,32
5692,32
5693,32
5694,32
5695,33
5696,33
5697,33
5698,33
5699,33
5700,33
5701,32
5702,32
5703,32
5704,32
5705,32
5706,32
5707,32
5708,32
5709,32
5710,32
5711,32
5712,32
5713,32
5714,32
5715,32
5716,32
5717,32
5718,32
5719,32
5720,32
5721,32
5722,32
5723,32
5724,33
5725,33
5726,33
5727,32
5728,32
5729,32
5730,32
5731,32
5732,32
5733,31
5734,31
5735,31
5736,31
5737,31
5738,31
5739,31
5740,31
5741,31
5742,31
5743,31
5744,31
5745,31
5746,31
5747,31
5748,31
5749,31
5750,31
5751,31
5752,31
5753,31
5754,31
5755,31
5756,31
5757,31
5758,32
5759,32
5760,32
5761,32
5762,32
5763,32
5764,32
5765,32
5766,32
5767,32
5768,32
5769,33
5770,32
5771,32
5772,32
5773,32
5774,33
5775,32
5776,32
5777,32
5778,32
5779,32
5780,32
5781,32
5782,32
5783,32
5784,32
5785,32
5786,32
5787,32
5788,32
5789,32
5790,32
5791,32
5792,32
5793,32
5794,32
5795,32
5796,32
5797,32
5798,32
5799,32
5800,32
5801,32
5802,33
5803,32
5804,32
5805,32
5806,32
5807,32
5808,32
5809,32
5810,33
5811,33
5812,34
5813,33
5814,32
5815,32
5816,32
5817,32
5818,32
5819,32
5820,32
5821,32
5822,32
5823,32
5824,32
5825,32
5826,33
5827,33
5828,33
5829,32
5830,32
5831,32
5832,32
5833,32
5834,32
5835,32
5836,34
5837,32
5838,32
5839,32
5840,32
5841,32
5842,32
5843,32
5844,32
5845,32
5846,32
5847,32
5848,32
5849,32
5850,32
5851,33
5852,31
5853,31
5854,31
5855,32
5856,31
5857,31
5858,31
5859,31
5860,31
5861,31
5862,31
5863,31
5864,31
5865,31
5866,31
5867,31
5868,31
5869,31
5870,31
5871,31
5872,31
5873,31
5874,32
5875,32
5876,31
5877,32
5878,31
5879,31
5880,31
5881,31
5882,32
5883,31
5884,31
5885,31
5886,31
5887,31
5888,31
5889,31
5890,31
5891,32
5892,32
5893,32
5894,33
5895,32
5896,31
5897,31
5898,31
5899,31
5900,31
5901,31
5902,31
5903,31
5904,31
5905,31
5906,31
5907,31
5908,31
5909,31
5910,31
5911,31
5912,31
5913,31
5914,31
5915,31
5916,31
5917,31
5918,31
5919,31
5920,31
5921,31
5922,31
5923,31
5924,31
5925,31
5926,31
5927,31
5928,31
5929,31
5930,31
5931,31
5932,31
5933,31
5934,31
5935,31
5936,31
5937,31
5938,31
5939,31
5940,31
5941,31
5942,31
5943,31
5944,31
5945,31
5946,31
5947,31
5948,31
5949,32
5950,32
5951,32
5952,32
5953,32
5954,32
5955,32
5956,32
5957,32
5958,32
5959,32
5960,32
5961,32
5962,32
5963,32
5964,32
5965,32
5966,32
5967,32
5968,32
5969,32
5970,32
5971,32
5972,32
5973,32
5974,32
5975,32
5976,32
5977,32
5978,32
5979,32
5980,32
5981,32
5982,32
5983,32
5984,32
5985,32
5986,32
5987,32
5988,32
5989,32
5990,32
5991,32
5992,32
5993,32
5994,32
5995,32
5996,32
5997,33
5998,33
5999,33
6000,33
6001,33
6002,33
6003,33
6004,33
6005,33
6006,34
6007,34
6008,35
6009,35
6010,34
6011,34
6012,34
6013,34
6014,34
6015,33
6016,32
6017,32
6018,32
6019,34
6020,34
6021,34
6022,34
6023,35
6024,33
6025,32
6026,32
6027,32
6028,32
6029,32
6030,32
6031,32
6032,32
6033,32
6034,32
6035,32
6036,32
6037,32
6038,32
6039,32
6040,32
6041,32
6042,32
6043,32
6044,32
6045,32
6046,32
6047,32
6048,32
6049,32
6050,32
6051,32
6052,32
6053,32
6054,32
6055,32
6056,32
6057,32
6058,32
6059,32
6060,32
6061,32
6062,32
6063,32
6064,32
6065,32
6066,32
6067,32
6068,32
6069,32
6070,32
6071,33
6072,32
6073,33
6074,33
6075,33
6076,33
6077,33
6078,33
6079,33
6080,33
6081,35
6082,35
6083,35
6084,35
6085,34
6086,34
6087,34
6088,34
6089,34
6090,34
6091,34
6092,34
6093,34
6094,33
6095,33
6096,33
6097,34
6098,34
6099,34
6100,34
6101,34
6102,34
6103,33
6104,33
6105,33
6106,33
6107,33
6108,33
6109,33
6110,33
6111,33
6112,33
6113,33
6114,33
6115,33
6116,33
6117,33
6118,33
6119,33
6120,33
6121,33
6122,33
6123,33
6124,33
6125,33
6126,33
6127,33
6128,33
6129,33
6130,34
6131,34
6132,34
6133,33
6134,33
6135,33
6136,33
6137,33
6138,33
6139,33
6140,33
6141,33
6142,33
6143,33
6144,33
6145,33
6146,33
6147,33
6148,33
6149,33
6150,33
6151,33
6152,33
6153,33
6154,33
6155,33
6156,33
6157,33
6158,33
6159,33
6160,33
6161,33
6162,33
6163,34
6164,33
6165,33
6166,33
6167,33
6168,33
6169,33
6170,33
6171,34
6172,33
6173,33
6174,33
6175,33
6176,33
6177,33
6178,33
6179,33
6180,33
6181,33
6182,33
6183,33
6184,33
6185,33
6186,33
6187,33
6188,33
6189,33
6190,33
6191,33
6192,34
6193,34
6194,34
6195,33
6196,33
6197,33
6198,33
6199,33
6200,33
6201,33
6202,34
6203,33
6204,33
6205,33
6206,33
6207,33
6208,35
6209,34
6210,34
6211,34
6212,34
6213,34
6214,34
6215,34
6216,33
6217,33
6218,33
6219,33
6220,34
6221,34
6222,34
6223,34
6224,34
6225,34
6226,34
6227,33
6228,33
6229,33
6230,33
6231,33
6232,33
6233,33
6234,33
6235,34
6236,34
6237,34
6238,34
6239,35
6240,35
6241,35
6242,35
6243,34
6244,34
6245,34
6246,33
6247,33
6248,33
6249,33
6250,33
6251,33
6252,33
6253,33
6254,33
6255,33
6256,33
6257,33
6258,33
6259,33
6260,34
6261,33
6262,33
6263,34
6264,33
6265,33
6266,33
6267,33
6268,33
6269,33
6270,34
6271,34
6272,34
6273,34
6274,34
6275,34
6276,34
6277,34
6278,34
6279,33
6280,33
6281,33
6282,33
6283,33
6284,33
6285,33
6286,33
6287,33
6288,33
6289,33
6290,33
6291,33
6292,33
6293,33
6294,33
6295,33
6296,33
6297,33
6298,34
6299,34
6300,34
6301,34
6302,34
6303,33
6304,33
6305,33
6306,33
6307,33
6308,33
6309,33
6310,33
6311,33
6312,33
6313,33
6314,33
6315,33
6316,33
6317,33
6318,33
6319,33
6320,33
6321,33
6322,33
6323,33
6324,33
6325,33
6326,33
6327,33
6328,33
6329,33
6330,33
6331,33
6332,33
6333,33
6334,33
6335,33
6336,33
6337,33
6338,33
6339,34
6340,34
6341,34
6342,34
6343,34
6344,34
6345,34
6346,34
6347,34
6348,34
6349,33
6350,33
6351,33
6352,33
6353,33
6354,33
6355,33
6356,33
6357,33
6358,33
6359,33
6360,33
6361,33
6362,33
6363,33
6364,33
6365,33
6366,33
6367,33
6368,33
6369,35
6370,35
6371,34
6372,34
6373,33
6374,33
6375,33
6376,33
6377,33
6378,33
6379,33
6380,33
6381,33
6382,33
6383,34
6384,33
6385,33
6386,33
6387,33
6388,33
6389,33
6390,33
6391,33
6392,33
6393,33
6394,33
6395,33
6396,34
6397,34
6398,34
6399,33
6400,33
6401,33
6402,34
6403,33
6404,33
6405,33
6406,33
6407,33
6408,33
6409,33
6410,34
6411,34
6412,33
6413,33
6414,33
6415,34
6416,35
6417,34
6418,35
6419,35
6420,35
6421,35
6422,34
6423,34
6424,34
6425,34
6426,34
6427,34
6428,34
6429,34
6430,34
6431,34
6432,34
6433,34
6434,34
6435,34
6436,34
6437,34
6438,34
6439,34
6440,34
6441,34
6442,34
6443,34
6444,34
6445,34
6446,34
6447,34
6448,34
6449,34
6450,34
6451,34
6452,34
6453,34
6454,34
6455,34
6456,34
6457,34
6458,34
6459,34
6460,34
6461,35
6462,35
6463,35
6464,35
6465,35
6466,34
6467,34
6468,34
6469,34
6470,34
6471,34
6472,34
6473,34
6474,33
6475,33
6476,33
6477,33
6478,33
6479,34
6480,35
6481,32
6482,32
6483,33
6484,32
6485,32
6486,32
6487,32
6488,32
6489,32
6490,32
6491,32
6492,33
6493,33
6494,33
6495,33
6496,33
6497,32
6498,32
6499,32
6500,32
6501,32
6502,32
6503,32
6504,32
6505,32
6506,32
6507,32
6508,32
6509,32
6510,32
6511,32
6512,32
6513,32
6514,32
6515,32
6516,32
6517,32
6518,32
6519,32
6520,32
6521,32
6522,32
6523,32
6524,32
6525,32
6526,32
6527,32
6528,32
6529,32
6530,32
6531,32
6532,32
6533,32
6534,32
6535,32
6536,32
6537,32
6538,32
6539,32
6540,32
6541,32
6542,32
6543,33
6544,33
6545,32
6546,32
6547,32
6548,32
6549,32
6550,32
6551,32
6552,32
6553,32
6554,33
6555,34
6556,33
6557,33
6558,34
6559,34
6560,34
6561,34
6562,33
6563,33
6564,32
6565,32
6566,32
6567,32
6568,32
6569,32
6570,32
6571,32
6572,32
6573,32
6574,32
6575,32
6576,32
6577,32
6578,32
6579,32
6580,32
6581,32
6582,33
6583,32
6584,32
6585,32
6586,32
6587,32
6588,32
6589,32
6590,32
6591,32
6592,32
6593,32
6594,32
6595,32
6596,32
6597,32
6598,32
6599,32
6600,33
6601,33
6602,33
6603,32
6604,32
6605,32
6606,32
6607,33
6608,33
6609,33
6610,33
6611,33
6612,32
6613,32
6614,33
6615,32
6616,32
6617,32
6618,32
6619,32
6620,32
6621,32
6622,32
6623,32
6624,33
6625,32
6626,32
6627,33
6628,33
6629,34
6630,34
6631,33
6632,33
6633,33
6634,33
6635,33
6636,33
6637,33
6638,33
6639,33
6640,33
6641,33
6642,33
6643,33
6644,34
6645,33
6646,33
6647,33
6648,33
6649,33
6650,33
6651,33
6652,33
6653,33
6654,34
6655,34
6656,33
6657,33
6658,33
6659,33
6660,34
6661,34
6662,33
6663,34
6664,34
6665,33
6666,33
6667,33
6668,33
6669,33
6670,33
6671,33
6672,34
6673,34
6674,34
6675,34
6676,34
6677,34
6678,34
6679,33
6680,33
6681,34
6682,33
6683,33
6684,33
6685,33
6686,33
6687,33
6688,33
6689,33
6690,33
6691,33
6692,33
6693,33
6694,33
6695,33
6696,33
6697,33
6698,33
6699,33
6700,33
6701,33
6702,33
6703,33
6704,33
6705,33
6706,33
6707,33
6708,33
6709,33
6710,33
6711,33
6712,33
6713,33
6714,33
6715,33
6716,33
6717,33
6718,33
6719,33
6720,33
6721,33
6722,33
6723,33
6724,33
6725,33
6726,33
6727,33
6728,33
6729,33
6730,33
6731,33
6732,33
6733,33
6734,33
6735,33
6736,33
6737,33
6738,33
6739,33
6740,33
6741,33
6742,33
6743,34
6744,34
6745,34
6746,34
6747,34
6748,34
6749,34
6750,34
6751,34
6752,34
6753,34
6754,35
6755,35
6756,35
6757,35
6758,34
6759,34
6760,34
6761,34
6762,34
6763,34
6764,34
6765,34
6766,34
6767,34
6768,34
6769,34
6770,34
6771,34
6772,34
6773,34
6774,34
6775,34
6776,34
6777,35
6778,35
6779,35
6780,36
6781,36
6782,36
6783,36
6784,36
6785,35
6786,34
6787,34
6788,34
6789,34
6790,34
6791,34
6792,34
6793,34
6794,34
6795,34
6796,34
6797,34
6798,34
6799,34
6800,34
6801,34
6802,34
6803,34
6804,34
6805,34
6806,34
6807,34
6808,34
6809,34
6810,34
6811,35
6812,35
6813,35
6814,35
6815,35
6816,35
6817,35
6818,35
6819,35
6820,35
6821,35
6822,35
6823,35
6824,34
6825,34
6826,34
6827,34
6828,34
6829,34
6830,35
6831,35
6832,35
6833,35
6834,35
6835,35
6836,35
6837,35
6838,35
6839,35
6840,36
6841,36
6842,35
6843,35
6844,34
6845,34
6846,34
6847,34
6848,34
6849,34
6850,34
6851,34
6852,34
6853,34
6854,34
6855,34
6856,34
6857,34
6858,34
6859,34
6860,34
6861,35
6862,35
6863,35
6864,34
6865,34
6866,34
6867,34
6868,34
6869,34
6870,34
6871,35
6872,36
6873,36
6874,35
6875,34
6876,34
6877,34
6878,34
6879,34
6880,34
6881,34
6882,35
6883,35
6884,35
6885,35
6886,35
6887,35
6888,34
6889,34
6890,34
6891,34
6892,34
6893,34
6894,34
6895,34
6896,34
6897,34
6898,34
6899,34
6900,34
6901,34
6902,34
6903,34
6904,34
6905,34
6906,34
6907,34
6908,34
6909,34
6910,34
6911,34
6912,34
6913,34
6914,34
6915,35
6916,35
6917,36
6918,35
6919,35
6920,34
6921,34
6922,34
6923,34
6924,34
6925,34
6926,35
6927,35
6928,35
6929,35
6930,35
6931,35
6932,34
6933,34
6934,34
6935,34
6936,34
6937,34
6938,34
6939,34
6940,34
6941,34
6942,34
6943,34
6944,34
6945,34
6946,34
6947,34
6948,34
6949,34
6950,34
6951,34
6952,34
6953,34
6954,34
6955,34
6956,34
6957,34
6958,34
6959,34
6960,34
6961,34
6962,34
6963,34
6964,34
6965,34
6966,34
6967,34
6968,35
6969,34
6970,34
6971,34
6972,34
6973,34
6974,34
6975,34
6976,34
6977,34
6978,34
6979,34
6980,34
6981,34
6982,34
6983,34
6984,34
6985,34
6986,34
6987,34
6988,34
6989,34
6990,34
6991,34
6992,34
6993,34
6994,34
6995,34
6996,34
6997,34
6998,34
6999,34
7000,34
7001,34
7002,34
7003,34
7004,34
7005,34
7006,34
7007,35
7008,35
7009,35
7010,35
7011,35
7012,35
7013,35
7014,35
7015,35
7016,35
7017,35
7018,35
7019,35
7020,34
7021,34
7022,34
7023,34
7024,34
7025,34
7026,34
7027,34
7028,34
7029,34
7030,34
7031,34
7032,34
7033,34
7034,34
7035,34
7036,34
7037,36
7038,34
7039,34
7040,34
7041,34
7042,34
7043,34
7044,34
7045,34
7046,34
7047,34
7048,34
7049,34
7050,34
7051,34
7052,34
7053,34
7054,34
7055,34
7056,34
7057,34
7058,34
7059,34
7060,34
7061,34
7062,34
7063,34
7064,34
7065,34
7066,34
7067,34
7068,34
7069,34
7070,34
7071,34
7072,34
7073,34
7074,34
7075,35
7076,35
7077,34
7078,34
7079,34
7080,34
7081,34
7082,33
7083,33
7084,33
7085,34
7086,34
7087,34
7088,33
7089,33
7090,33
7091,33
7092,33
7093,33
7094,33
7095,33
7096,33
7097,33
7098,33
7099,33
7100,33
7101,33
7102,33
7103,33
7104,33
7105,33
7106,33
7107,33
7108,33
7109,33
7110,33
7111,33
7112,33
7113,33
7114,33
7115,33
7116,33
7117,33
7118,33
7119,33
7120,33
7121,33
7122,33
7123,34
7124,33
7125,33
7126,33
7127,33
7128,33
7129,33
7130,33
7131,33
7132,33
7133,33
7134,33
7135,33
7136,33
7137,33
7138,33
7139,35
7140,35
7141,34
7142,34
7143,34
7144,34
7145,34
7146,33
7147,33
7148,33
7149,33
7150,33
7151,33
7152,33
7153,33
7154,33
7155,33
7156,33
7157,33
7158,33
7159,33
7160,33
7161,34
7162,34
7163,34
7164,34
7165,34
7166,34
7167,33
7168,33
7169,33
7170,33
7171,33
7172,35
7173,34
7174,34
7175,33
7176,33
7177,34
7178,33
7179,33
7180,33
7181,33
7182,33
7183,33
7184,33
7185,33
7186,34
7187,33
7188,33
7189,33
7190,33
7191,33
7192,33
7193,33
7194,34
7195,34
7196,34
7197,34
7198,34
7199,34
7200,34
7201,34
7202,34
7203,34
7204,34
7205,33
7206,33
7207,33
7208,33
7209,33
7210,33
7211,33
7212,33
7213,33
7214,33
7215,33
7216,33
7217,33
7218,34
7219,34
7220,34
7221,33
7222,33
7223,33
7224,34
7225,34
7226,34
7227,34
7228,34
7229,34
7230,34
7231,34
7232,34
7233,34
7234,35
7235,35
7236,35
7237,34
7238,34
7239,35
7240,34
7241,34
7242,34
7243,33
7244,33
7245,33
7246,33
7247,33
7248,33
7249,33
7250,33
7251,33
7252,33
7253,33
7254,33
7255,33
7256,33
7257,33
7258,34
7259,34
7260,33
7261,33
7262,33
7263,33
7264,33
7265,33
7266,33
7267,33
7268,33
7269,33
7270,33
7271,33
7272,33
7273,33
7274,33
7275,33
7276,33
7277,33
7278,33
7279,33
7280,33
7281,34
7282,34
7283,33
7284,33
7285,33
7286,33
7287,33
7288,33
7289,33
7290,33
7291,34
7292,34
7293,33
7294,33
7295,33
7296,33
7297,34
7298,35
7299,34
7300,33
7301,33
7302,33
7303,33
7304,33
7305,33
7306,33
7307,33
7308,33
7309,33
7310,33
7311,34
7312,34
7313,34
7314,34
7315,33
7316,33
7317,33
7318,33
7319,33
7320,33
7321,33
7322,33
7323,33
7324,33
7325,33
7326,33
7327,33
7328,34
7329,33
7330,33
7331,33
7332,33
7333,33
7334,33
7335,33
7336,33
7337,33
7338,33
7339,33
7340,33
7341,33
7342,33
7343,33
7344,33
7345,33
7346,34
7347,33
7348,33
7349,33
7350,33
7351,33
7352,33
7353,33
7354,33
7355,33
7356,33
7357,33
7358,33
7359,33
7360,33
7361,33
7362,33
7363,33
7364,33
7365,33
7366,33
7367,33
7368,33
7369,33
7370,34
7371,35
7372,35
7373,35
7374,34
7375,34
7376,34
7377,34
7378,34
7379,34
7380,34
7381,34
7382,34
7383,34
7384,33
7385,33
7386,33
7387,33
7388,33
7389,33
7390,33
7391,33
7392,33
7393,33
7394,33
7395,33
7396,33
7397,33
7398,33
7399,33
7400,33
7401,33
7402,33
7403,33
7404,33
7405,33
7406,33
7407,33
7408,33
7409,34
7410,35
7411,34
7412,34
7413,34
7414,34
7415,34
7416,33
7417,33
7418,33
7419,33
7420,34
7421,33
7422,33
7423,33
7424,33
7425,33
7426,33
7427,33
7428,33
7429,33
7430,33
7431,33
7432,33
7433,33
7434,33
7435,35
7436,34
7437,34
7438,34
7439,34
7440,34
7441,34
7442,34
7443,34
7444,34
7445,33
7446,33
7447,33
7448,33
7449,33
7450,33
7451,33
7452,33
7453,33
7454,33
7455,33
7456,33
7457,33
7458,33
7459,33
7460,33
7461,33
7462,33
7463,33
7464,33
7465,33
7466,33
7467,34
7468,34
7469,33
7470,34
7471,34
7472,35
7473,35
7474,34
7475,34
7476,34
7477,35
7478,34
7479,34
7480,34
7481,34
7482,34
7483,34
7484,34
7485,34
7486,34
7487,34
7488,34
7489,34
7490,34
7491,35
7492,34
7493,34
7494,34
7495,34
7496,34
7497,34
7498,34
7499,34
7500,35
7501,34
7502,34
7503,34
7504,34
7505,34
7506,34
7507,34
7508,34
7509,34
7510,34
7511,34
7512,34
7513,34
7514,35
7515,35
7516,35
7517,35
7518,35
7519,35
7520,35
7521,35
7522,35
7523,36
7524,36
7525,36
7526,36
7527,35
7528,35
7529,36
7530,36
7531,36
7532,36
7533,36
7534,36
7535,36
7536,35
7537,35
7538,35
7539,35
7540,35
7541,35
7542,35
7543,35
7544,35
7545,36
7546,36
7547,36
7548,37
7549,36
7550,36
7551,36
7552,36
7553,36
7554,36
7555,36
7556,36
7557,36
7558,36
7559,36
7560,36
7561,35
7562,35
7563,35
7564,35
7565,34
7566,34
7567,34
7568,34
7569,34
7570,34
7571,34
7572,35
7573,35
7574,35
7575,34
7576,34
7577,34
7578,34
7579,34
7580,34
7581,34
7582,34
7583,34
7584,34
7585,34
7586,34
7587,34
7588,34
7589,34
7590,34
7591,34
7592,34
7593,35
7594,35
7595,35
7596,35
7597,35
7598,35
7599,35
7600,35
7601,35
7602,35
7603,35
7604,35
7605,35
7606,35
7607,35
7608,35
7609,35
7610,35
7611,35
7612,35
7613,35
7614,36
7615,36
7616,36
7617,36
7618,36
7619,35
7620,35
7621,35
7622,35
7623,34
7624,34
7625,34
7626,34
7627,34
7628,34
7629,34
7630,34
7631,34
7632,34
7633,34
7634,34
7635,34
7636,34
7637,34
7638,34
7639,34
7640,34
7641,34
7642,34
7643,34
7644,34
7645,34
7646,34
7647,34
7648,35
7649,34
7650,34
7651,34
7652,34
7653,34
7654,34
7655,34
7656,34
7657,34
7658,34
7659,34
7660,34
7661,35
7662,34
7663,34
7664,34
7665,34
7666,34
7667,34
7668,34
7669,34
7670,34
7671,34
7672,34
7673,34
7674,34
7675,34
7676,34
7677,35
7678,34
7679,34
7680,34
7681,34
7682,34
7683,34
7684,34
7685,34
7686,34
7687,34
7688,34
7689,34
7690,34
7691,34
7692,34
7693,34
7694,35
7695,34
7696,34
7697,34
7698,34
7699,34
7700,34
7701,34
7702,34
7703,34
7704,34
7705,34
7706,34
7707,34
7708,34
7709,34
7710,35
7711,35
7712,34
7713,34
7714,34
7715,34
7716,34
7717,34
7718,34
7719,34
7720,34
7721,34
7722,34
7723,34
7724,34
7725,34
7726,34
7727,34
7728,34
7729,34
7730,35
7731,35
7732,35
7733,34
7734,34
7735,34
7736,34
7737,34
7738,34
7739,34
7740,35
7741,35
7742,35
7743,35
7744,35
7745,35
7746,35
7747,35
7748,35
7749,35
7750,35
7751,35
7752,35
7753,35
7754,35
7755,35
7756,35
7757,35
7758,35
7759,35
7760,35
7761,35
7762,35
7763,35
7764,35
7765,35
7766,35
7767,35
7768,35
7769,35
7770,35
7771,35
7772,35
7773,35
7774,35
7775,35
7776,35
7777,35
7778,35
7779,35
7780,35
7781,34
7782,34
7783,34
7784,34
7785,34
7786,35
7787,34
7788,34
7789,34
7790,34
7791,34
7792,34
7793,34
7794,34
7795,34
7796,33
7797,33
7798,33
7799,33
7800,33
7801,33
7802,33
7803,33
7804,34
7805,33
7806,33
7807,33
7808,33
7809,33
7810,33
7811,33
7812,33
7813,33
7814,33
7815,33
7816,33
7817,33
7818,33
7819,33
7820,34
7821,34
7822,34
7823,34
7824,33
7825,33
7826,33
7827,33
7828,33
7829,33
7830,34
7831,34
7832,33
7833,33
7834,34
7835,34
7836,34
7837,34
7838,34
7839,34
7840,34
7841,34
7842,33
7843,33
7844,33
7845,33
7846,33
7847,33
7848,33
7849,33
7850,32
7851,32
7852,32
7853,32
7854,32
7855,32
7856,32
7857,32
7858,32
7859,32
7860,32
7861,32
7862,32
7863,32
7864,33
7865,33
7866,32
7867,32
7868,32
7869,32
7870,32
7871,33
7872,33
7873,33
7874,33
7875,34
7876,32
7877,32
7878,32
7879,32
7880,32
7881,32
7882,32
7883,32
7884,32
7885,32
7886,32
7887,32
7888,32
7889,32
7890,32
7891,33
7892,33
7893,32
7894,32
7895,32
7896,32
7897,32
7898,32
7899,33
7900,33
7901,32
7902,32
7903,32
7904,32
7905,33
7906,33
7907,33
7908,33
7909,34
7910,34
7911,35
7912,34
7913,33
7914,32
7915,32
7916,32
7917,32
7918,32
7919,32
7920,33
7921,33
7922,32
7923,32
7924,32
7925,32
7926,32
7927,32
7928,32
7929,32
7930,32
7931,32
7932,32
7933,32
7934,32
7935,32
7936,32
7937,32
7938,32
7939,32
7940,33
7941,32
7942,32
7943,33
7944,33
7945,32
7946,32
7947,32
7948,32
7949,32
7950,32
7951,33
7952,33
7953,33
7954,33
7955,33
7956,34
7957,34
7958,34
7959,33
7960,34
7961,33
7962,33
7963,33
7964,33
7965,33
7966,33
7967,34
7968,34
7969,34
7970,34
7971,33
7972,33
7973,33
7974,33
7975,32
7976,32
7977,32
7978,32
7979,32
7980,32
7981,32
7982,32
7983,32
7984,32
7985,32
7986,32
7987,32
7988,32
7989,32
7990,32
7991,32
7992,32
7993,32
7994,32
7995,32
7996,32
7997,32
7998,32
7999,32
8000,32
8001,34
8002,34
8003,34
8004,33
8005,33
8006,33
8007,33
8008,33
8009,33
8010,32
8011,32
8012,32
8013,32
8014,32
8015,32
8016,32
8017,32
8018,32
8019,32
8020,32
8021,32
8022,32
8023,32
8024,32
8025,33
8026,32
8027,32
8028,32
8029,32
8030,32
8031,32
8032,32
8033,32
8034,32
8035,32
8036,32
8037,32
8038,32
8039,32
8040,32
8041,32
8042,32
8043,32
8044,33
8045,33
8046,33
8047,32
8048,32
8049,32
8050,32
8051,32
8052,32
8053,32
8054,32
8055,32
8056,32
8057,32
8058,32
8059,32
8060,32
8061,32
8062,32
8063,32
8064,32
8065,32
8066,32
8067,32
8068,32
8069,32
8070,32
8071,31
8072,31
8073,32
8074,32
8075,32
8076,32
8077,31
8078,31
8079,31
8080,31
8081,31
8082,31
8083,32
8084,32
8085,33
8086,33
8087,33
8088,33
8089,33
8090,33
8091,33
8092,33
8093,33
8094,33
8095,34
8096,34
8097,33
8098,33
8099,33
8100,33
8101,33
8102,33
8103,33
8104,33
8105,32
8106,32
8107,32
8108,32
8109,32
8110,32
8111,32
8112,32
8113,32
8114,32
8115,32
8116,32
8117,32
8118,32
8119,32
8120,33
8121,32
8122,32
8123,32
8124,32
8125,32
8126,32
8127,32
8128,32
8129,32
8130,32
8131,32
8132,32
8133,32
8134,32
8135,32
8136,32
8137,32
8138,32
8139,32
8140,32
8141,32
8142,32
8143,32
8144,32
8145,32
8146,32
8147,32
8148,32
8149,33
8150,33
8151,33
8152,33
8153,32
8154,33
8155,32
8156,33
8157,32
8158,32
8159,32
8160,32
8161,32
8162,32
8163,32
8164,32
8165,32
8166,32
8167,32
8168,32
8169,32
8170,32
8171,32
8172,32
8173,32
8174,32
8175,32
8176,32
8177,32
8178,32
8179,32
8180,32
8181,32
8182,32
8183,32
8184,32
8185,32
8186,32
8187,32
8188,32
8189,32
8190,32
8191,32
8192,32
8193,32
8194,32
8195,32
8196,32
8197,32
8198,32
8199,32
8200,32
8201,32
8202,32
8203,32
8204,32
8205,32
8206,32
8207,32
8208,32
8209,32
8210,32
8211,32
8212,32
8213,33
8214,33
8215,32
8216,32
8217,32
8218,32
8219,32
8220,32
8221,32
8222,32
8223,32
8224,32
8225,32
8226,33
8227,33
8228,34
8229,33
8230,34
8231,34
8232,34
8233,33
8234,33
8235,32
8236,32
8237,32
8238,32
8239,33
8240,33
8241,33
8242,33
8243,33
8244,33
8245,32
8246,32
8247,32
8248,32
8249,32
8250,32
8251,32
8252,32
8253,32
8254,32
8255,32
8256,33
8257,33
8258,33
8259,33
8260,33
8261,33
8262,33
8263,33
8264,33
8265,33
8266,34
8267,35
8268,35
8269,35
8270,34
8271,34
8272,34
8273,33
8274,33
8275,33
8276,33
8277,33
8278,33
8279,33
8280,33
8281,33
8282,33
8283,33
8284,33
8285,33
8286,33
8287,34
8288,34
8289,33
8290,33
8291,33
8292,34
8293,34
8294,34
8295,34
8296,34
8297,33
8298,33
8299,34
8300,34
8301,33
8302,33
8303,33
8304,33
8305,33
8306,33
8307,33
8308,33
8309,33
8310,33
8311,33
8312,33
8313,33
8314,33
8315,33
8316,33
8317,33
8318,33
8319,33
8320,33
8321,33
8322,33
8323,33
8324,33
8325,33
8326,33
8327,33
8328,34
8329,34
8330,33
8331,33
8332,33
8333,33
8334,33
8335,34
8336,34
8337,33
8338,33
8339,33
8340,33
8341,33
8342,33
8343,33
8344,33
8345,33
8346,33
8347,33
8348,33
8349,33
8350,33
8351,33
8352,33
8353,33
8354,33
8355,33
8356,33
8357,33
8358,33
8359,33
8360,33
8361,33
8362,33
8363,33
8364,33
8365,33
8366,33
8367,33
8368,33
8369,33
8370,34
8371,34
8372,34
8373,34
8374,33
8375,33
8376,33
8377,33
8378,33
8379,33
8380,33
8381,33
8382,33
8383,33
8384,33
8385,33
8386,33
8387,33
8388,33
8389,33
8390,33
8391,33
8392,33
8393,33
8394,33
8395,33
8396,33
8397,33
8398,33
8399,33
8400,33
8401,33
8402,33
8403,33
8404,33
8405,33
8406,33
8407,34
8408,34
8409,34
8410,34
8411,34
8412,34
8413,34
8414,34
8415,33
8416,33
8417,33
8418,33
8419,33
8420,34
8421,33
8422,33
8423,33
8424,33
8425,33
8426,33
8427,33
8428,33
8429,33
8430,33
8431,33
8432,33
8433,33
8434,34
8435,34
8436,34
8437,34
8438,34
8439,34
8440,35
8441,35
8442,35
8443,35
8444,36
8445,35
8446,35
8447,34
8448,34
8449,35
8450,35
8451,35
8452,35
8453,35
8454,36
8455,36
8456,36
8457,36
8458,36
8459,37
8460,37
8461,37
8462,36
8463,36
8464,36
8465,37
8466,37
8467,37
8468,36
8469,35
8470,35
8471,36
8472,36
8473,38
8474,39
8475,39
8476,39
8477,39
8478,39
8479,39
8480,41
8481,41
8482,42
8483,40
8484,40
8485,40
8486,37
8487,36
8488,35
8489,35
8490,35
8491,35
8492,35
8493,35
8494,35
8495,35
8496,35
8497,35
8498,35
8499,35
8500,35
8501,35
8502,35
8503,35
8504,35
8505,35
8506,35
8507,35
8508,35
8509,35
8510,35
8511,35
8512,35
8513,36
8514,36
8515,36
8516,36
8517,37
8518,37
8519,36
8520,35
8521,35
8522,35
8523,35
8524,35
8525,35
8526,35
8527,35
8528,35
8529,35
8530,35
8531,35
8532,35
8533,35
8534,35
8535,35
8536,35
8537,35
8538,35
8539,35
8540,35
8541,35
8542,35
8543,35
8544,36
8545,36
8546,35
8547,35
8548,35
8549,35
8550,35
8551,35
8552,35
8553,35
8554,35
8555,35
8556,35
8557,35
8558,35
8559,35
8560,35
8561,35
8562,35
8563,35
8564,35
8565,35
8566,35
8567,35
8568,35
8569,35
8570,35
8571,35
8572,35
8573,35
8574,35
8575,35
8576,35
8577,35
8578,35
8579,35
8580,35
8581,35
8582,35
8583,35
8584,35
8585,35
8586,35
8587,35
8588,35
8589,35
8590,36
8591,36
8592,36
8593,36
8594,36
8595,36
8596,36
8597,36
8598,36
8599,36
8600,36
8601,36
8602,36
8603,35
8604,35
8605,35
8606,35
8607,35
8608,35
8609,35
8610,35
8611,34
8612,34
8613,34
8614,34
8615,34
8616,34
8617,34
8618,35
8619,35
8620,35
8621,35
8622,35
8623,34
8624,34
8625,34
8626,34
8627,34
8628,34
8629,34
8630,34
8631,34
8632,34
8633,34
8634,35
8635,35
8636,36
8637,35
8638,35
8639,35
8640,35
8641,35
8642,35
8643,35
8644,35
8645,34
8646,34
8647,34
8648,34
8649,34
8650,34
8651,34
8652,34
8653,34
8654,34
8655,34
8656,34
8657,34
8658,34
8659,34
8660,34
8661,34
8662,34
8663,34
8664,34
8665,34
8666,34
8667,34
8668,34
8669,34
8670,34
8671,34
8672,34
8673,34
8674,34
8675,35
8676,34
8677,34
8678,34
8679,34
8680,34
8681,34
8682,34
8683,34
8684,34
8685,34
8686,34
8687,34
8688,34
8689,34
8690,34
8691,34
8692,34
8693,34
8694,34
8695,34
8696,34
8697,34
8698,34
8699,34
8700,35
8701,35
8702,35
8703,35
8704,35
8705,35
8706,35
8707,35
8708,35
8709,36
8710,35
8711,36
8712,36
8713,36
8714,36
8715,36
8716,35
8717,35
8718,35
8719,35
8720,35
8721,35
8722,35
8723,35
8724,35
8725,35
8726,35
8727,34
8728,34
8729,35
8730,35
8731,35
8732,34
8733,34
8734,34
8735,34
8736,34
8737,34
8738,34
8739,34
8740,34
8741,34
8742,33
8743,33
8744,33
8745,33
8746,33
8747,33
8748,33
8749,33
8750,33
8751,34
8752,34
8753,34
8754,34
8755,34
8756,35
8757,33
8758,33
8759,33
8760,34
8761,33
8762,33
8763,33
8764,33
8765,33
8766,33
8767,33
8768,34
8769,33
8770,33
8771,33
8772,33
8773,33
8774,33
8775,33
8776,33
8777,33
8778,33
8779,33
8780,33
8781,33
8782,33
8783,33
8784,33
8785,33
8786,33
8787,33
8788,33
8789,33
8790,33
8791,33
8792,34
8793,33
8794,33
8795,33
8796,33
8797,33
8798,33
8799,34
8800,34
8801,34
8802,34
8803,34
8804,33
8805,33
8806,33
8807,33
8808,32
8809,32
8810,32
8811,32
8812,32
8813,32
8814,32
8815,32
8816,32
8817,32
8818,32
8819,32
8820,32
8821,32
8822,32
8823,32
8824,32
8825,32
8826,32
8827,32
8828,32
8829,32
8830,32
8831,32
8832,32
8833,32
8834,32
8835,32
8836,32
8837,32
8838,32
8839,32
8840,32
8841,32
8842,32
8843,32
8844,32
8845,32
8846,32
8847,32
8848,32
8849,32
8850,32
8851,32
8852,32
8853,32
8854,32
8855,32
8856,32
8857,32
8858,32
8859,32
8860,32
8861,32
8862,32
8863,33
8864,33
8865,33
8866,33
8867,33
8868,33
8869,33
8870,33
8871,34
8872,34
8873,34
8874,34
8875,35
8876,35
8877,34
8878,33
8879,33
8880,33
8881,33
8882,33
8883,33
8884,33
8885,33
8886,33
8887,34
8888,34
8889,34
8890,34
8891,34
8892,35
8893,34
8894,33
8895,33
8896,33
8897,33
8898,33
8899,33
8900,33
8901,33
8902,33
8903,33
8904,33
8905,33
8906,33
8907,33
8908,33
8909,33
8910,33
8911,33
8912,33
8913,33
8914,33
8915,33
8916,33
8917,34
8918,33
8919,33
8920,33
8921,33
8922,33
8923,33
8924,33
8925,33
8926,33
8927,33
8928,33
8929,33
8930,33
8931,33
8932,33
8933,33
8934,33
8935,33
8936,33
8937,34
8938,33
8939,33
8940,33
8941,33
8942,33
8943,33
8944,33
8945,33
8946,33
8947,33
8948,34
8949,33
8950,33
8951,33
8952,33
8953,33
8954,33
8955,33
8956,33
8957,33
8958,33
8959,34
8960,33
8961,33
8962,33
8963,33
8964,33
8965,33
8966,33
8967,33
8968,33
8969,33
8970,33
8971,33
8972,33
8973,33
8974,33
8975,33
8976,33
8977,33
8978,33
8979,33
8980,33
8981,33
8982,33
8983,33
8984,33
8985,33
8986,33
8987,33
8988,33
8989,33
8990,33
8991,33
8992,33
8993,33
8994,33
8995,33
8996,33
8997,33
8998,33
8999,33
9000,33
9001,33
9002,33
9003,33
9004,33
9005,33
9006,33
9007,33
9008,33
9009,33
9010,33
9011,34
9012,33
9013,33
9014,33
9015,33
9016,33
9017,33
9018,33
9019,33
9020,33
9021,33
9022,33
9023,33
9024,33
9025,33
9026,33
9027,33
9028,33
9029,33
9030,33
9031,33
9032,33
9033,33
9034,33
9035,33
9036,33
9037,33
9038,33
9039,33
9040,33
9041,33
9042,33
9043,33
9044,33
9045,33
9046,33
9047,33
9048,33
9049,33
9050,33
9051,33
9052,34
9053,33
9054,33
9055,33
9056,33
9057,33
9058,33
9059,33
9060,33
9061,33
9062,33
9063,33
9064,33
9065,33
9066,33
9067,33
9068,33
9069,33
9070,33
9071,33
9072,33
9073,33
9074,33
9075,33
9076,33
9077,33
9078,33
9079,33
9080,33
9081,33
9082,33
9083,33
9084,33
9085,33
9086,33
9087,34
9088,34
9089,33
9090,33
9091,34
9092,34
9093,34
9094,34
9095,35
9096,35
9097,35
9098,36
9099,35
9100,35
9101,35
9102,35
9103,35
9104,35
9105,35
9106,35
9107,35
9108,35
9109,35
9110,35
9111,35
9112,35
9113,35
9114,35
9115,36
9116,35
9117,35
9118,35
9119,35
9120,35
9121,35
9122,35
9123,35
9124,35
9125,35
9126,35
9127,35
9128,35
9129,35
9130,35
9131,36
9132,35
9133,35
9134,35
9135,35
9136,35
9137,35
9138,35
9139,35
9140,35
9141,35
9142,35
9143,35
9144,36
9145,36
9146,35
9147,35
9148,36
9149,36
9150,36
9151,36
9152,36
9153,36
9154,36
9155,36
9156,36
9157,36
9158,36
9159,36
9160,35
9161,35
9162,35
9163,35
9164,35
9165,35
9166,35
9167,35
9168,35
9169,35
9170,35
9171,35
9172,35
9173,35
9174,35
9175,35
9176,36
9177,35
9178,35
9179,35
9180,35
9181,35
9182,35
9183,35
9184,35
9185,35
9186,35
9187,35
9188,35
9189,35
9190,35
9191,36
9192,36
9193,35
9194,35
9195,35
9196,35
9197,35
9198,36
9199,35
9200,35
9201,35
9202,35
9203,35
9204,36
9205,36
9206,35
9207,35
9208,35
9209,35
9210,35
9211,36
9212,36
9213,36
9214,36
9215,36
9216,36
9217,36
9218,36
9219,36
9220,36
9221,36
9222,36
9223,36
9224,36
9225,36
9226,36
9227,36
9228,36
9229,36
9230,36
9231,37
9232,37
9233,37
9234,37
9235,36
9236,36
9237,36
9238,36
9239,36
9240,36
9241,36
9242,36
9243,36
9244,36
9245,36
9246,36
9247,35
9248,35
9249,35
9250,35
9251,35
9252,35
9253,35
9254,35
9255,35
9256,35
9257,35
9258,36
9259,36
9260,35
9261,35
9262,35
9263,35
9264,35
9265,35
9266,35
9267,35
9268,35
9269,34
9270,34
9271,34
9272,34
9273,34
9274,34
9275,34
9276,34
9277,34
9278,34
9279,34
9280,34
9281,34
9282,34
9283,34
9284,34
9285,34
9286,34
9287,34
9288,34
9289,34
9290,34
9291,34
9292,34
9293,34
9294,34
9295,34
9296,34
9297,34
9298,35
9299,36
9300,35
9301,35
9302,35
9303,34
9304,34
9305,34
9306,34
9307,34
9308,34
9309,34
9310,34
9311,34
9312,34
9313,34
9314,34
9315,34
9316,34
9317,34
9318,34
9319,34
9320,34
9321,34
9322,34
9323,34
9324,34
9325,34
9326,34
9327,34
9328,34
9329,34
9330,34
9331,34
9332,34
9333,34
9334,34
9335,34
9336,34
9337,34
9338,34
9339,34
9340,35
9341,34
9342,34
9343,34
9344,34
9345,34
9346,34
9347,34
9348,35
9349,35
9350,35
9351,35
9352,35
9353,35
9354,35
9355,35
9356,35
9357,35
9358,34
9359,34
9360,34
9361,34
9362,34
9363,34
9364,34
9365,34
9366,34
9367,34
9368,34
9369,34
9370,34
9371,35
9372,35
9373,36
9374,37
9375,36