1,3
2,3
3,3
4,3
5,3
6,3
7,3
8,3
9,4
10,3
11,3
12,3
13,3
14,3
15,3
16,6
17,6
18,6
19,6
20,7
21,7
22,6
23,6
24,6
25,6
26,6
27,6
28,7
29,6
30,6
31,6
32,6
33,6
34,6
35,6
36,6
37,6
38,6
39,6
40,6
41,6
42,6
43,6
44,6
45,6
46,6
47,6
48,6
49,6
50,6
51,6
52,6
53,6
54,6
55,6
56,6
57,6
58,6
59,6
60,6
61,6
62,6
63,6
64,6
65,6
66,6
67,6
68,6
69,6
70,6
71,6
72,6
73,6
74,6
75,6
76,6
77,6
78,6
79,6
80,6
81,6
82,6
83,6
84,7
85,7
86,7
87,7
88,7
89,7
90,7
91,7
92,7
93,7
94,7
95,7
96,7
97,7
98,7
99,7
100,7
101,8
102,8
103,7
104,7
105,7
106,7
107,7
108,7
109,7
110,7
111,7
112,7
113,7
114,9
115,8
116,8
117,7
118,7
119,7
120,7
121,7
122,7
123,7
124,7
125,7
126,7
127,7
128,7
129,7
130,7
131,7
132,7
133,7
134,7
135,7
136,7
137,7
138,7
139,7
140,7
141,7
142,7
143,7
144,7
145,7
146,7
147,7
148,7
149,7
150,8
151,8
152,8
153,8
154,8
155,8
156,8
157,8
158,8
159,8
160,8
161,8
162,8
163,8
164,9
165,8
166,8
167,8
168,8
169,8
170,8
171,8
172,8
173,8
174,8
175,8
176,8
177,8
178,8
179,8
180,8
181,8
182,8
183,8
184,8
185,8
186,8
187,8
188,9
189,8
190,8
191,8
192,8
193,8
194,8
195,8
196,8
197,8
198,8
199,8
200,8
201,8
202,8
203,8
204,8
205,8
206,8
207,8
208,8
209,8
210,8
211,8
212,8
213,8
214,8
215,8
216,8
217,10
218,10
219,10
220,10
221,10
222,10
223,10
224,10
225,10
226,11
227,11
228,11
229,12
230,11
231,11
232,11
233,11
234,11
235,11
236,11
237,10
238,10
239,10
240,10
241,10
242,10
243,10
244,10
245,10
246,10
247,10
248,10
249,10
250,10
251,10
252,10
253,10
254,10
255,10
256,10
257,10
258,11
259,12
260,11
261,10
262,10
263,10
264,10
265,10
266,10
267,10
268,10
269,10
270,10
271,10
272,10
273,10
274,10
275,10
276,10
277,10
278,10
279,10
280,10
281,10
282,10
283,10
284,10
285,10
286,10
287,10
288,10
289,11
290,10
291,11
292,11
293,11
294,10
295,10
296,10
297,10
298,11
299,11
300,11
301,11
302,11
303,11
304,10
305,10
306,10
307,10
308,10
309,10
310,10
311,10
312,10
313,10
314,10
315,11
316,11
317,11
318,11
319,10
320,10
321,10
322,10
323,10
324,10
325,10
326,10
327,10
328,10
329,10
330,10
331,10
332,10
333,10
334,10
335,10
336,10
337,10
338,10
339,10
340,10
341,10
342,10
343,10
344,10
345,10
346,10
347,10
348,10
349,10
350,10
351,10
352,10
353,10
354,10
355,10
356,10
357,11
358,11
359,11
360,11
361,10
362,10
363,10
364,10
365,10
366,10
367,10
368,10
369,10
370,10
371,10
372,10
373,10
374,10
375,10
376,10
377,10
378,10
379,10
380,10
381,10
382,10
383,10
384,10
385,10
386,10
387,10
388,10
389,10
390,10
391,10
392,11
393,10
394,10
395,10
396,10
397,10
398,10
399,10
400,10
401,10
402,10
403,10
404,10
405,11
406,11
407,11
408,11
409,11
410,12
411,11
412,11
413,11
414,11
415,11
416,11
417,11
418,11
419,12
420,11
421,11
422,11
423,11
424,11
425,11
426,11
427,11
428,11
429,11
430,11
431,11
432,11
433,11
434,11
435,11
436,11
437,11
438,11
439,11
440,11
441,11
442,11
443,11
444,11
445,11
446,11
447,11
448,12
449,11
450,12
451,12
452,12
453,12
454,12
455,12
456,12
457,12
458,12
459,12
460,12
461,12
462,12
463,12
464,12
465,12
466,12
467,12
468,12
469,12
470,12
471,12
472,12
473,12
474,12
475,12
476,12
477,12
478,12
479,12
480,12
481,12
482,13
483,13
484,13
485,13
486,13
487,13
488,13
489,13
490,13
491,13
492,13
493,13
494,13
495,13
496,13
497,13
498,14
499,14
500,14
501,14
502,14
503,14
504,14
505,14
506,14
507,14
508,13
509,15
510,15
511,15
512,14
513,14
514,13
515,13
516,13
517,13
518,13
519,13
520,13
521,14
522,14
523,14
524,14
525,14
526,15
527,16
528,16
529,16
530,14
531,14
532,13
533,13
534,13
535,13
536,13
537,13
538,13
539,13
540,13
541,13
542,13
543,13
544,13
545,13
546,13
547,13
548,14
549,14
550,13
551,13
552,13
553,13
554,13
555,13
556,14
557,13
558,13
559,13
560,13
561,13
562,13
563,13
564,13
565,13
566,13
567,13
568,13
569,13
570,13
571,13
572,14
573,14
574,13
575,13
576,13
577,13
578,13
579,13
580,13
581,13
582,14
583,13
584,13
585,13
586,14
587,13
588,13
589,13
590,13
591,13
592,13
593,13
594,13
595,13
596,14
597,14
598,14
599,14
600,14
601,14
602,14
603,14
604,14
605,14
606,14
607,14
608,14
609,14
610,14
611,14
612,14
613,14
614,14
615,14
616,14
617,14
618,14
619,14
620,15
621,14
622,14
623,14
624,14
625,14
626,14
627,14
628,14
629,14
630,14
631,14
632,14
633,14
634,15
635,14
636,14
637,14
638,14
639,14
640,14
641,14
642,14
643,14
644,14
645,14
646,14
647,14
648,14
649,14
650,14
651,14
652,14
653,14
654,14
655,14
656,14
657,14
658,14
659,14
660,14
661,14
662,14
663,14
664,14
665,14
666,14
667,14
668,14
669,14
670,14
671,14
672,14
673,14
674,14
675,14
676,14
677,14
678,14
679,14
680,14
681,14
682,14
683,15
684,14
685,14
686,14
687,14
688,14
689,14
690,14
691,14
692,14
693,14
694,14
695,15
696,14
697,14
698,14
699,14
700,14
701,14
702,14
703,14
704,14
705,14
706,15
707,14
708,14
709,14
710,14
711,14
712,14
713,14
714,14
715,14
716,14
717,14
718,14
719,14
720,15
721,14
722,14
723,15
724,15
725,15
726,15
727,16
728,16
729,14
730,14
731,14
732,14
733,14
734,14
735,14
736,14
737,14
738,14
739,14
740,14
741,15
742,15
743,15
744,15
745,15
746,14
747,15
748,15
749,15
750,15
751,15
752,15
753,15
754,16
755,16
756,16
757,16
758,16
759,16
760,15
761,15
762,15
763,15
764,16
765,16
766,16
767,16
768,16
769,16
770,16
771,15
772,15
773,16
774,16
775,15
776,15
777,15
778,16
779,15
780,15
781,15
782,15
783,15
784,15
785,15
786,15
787,15
788,15
789,15
790,15
791,15
792,16
793,16
794,16
795,16
796,16
797,16
798,16
799,16
800,16
801,16
802,16
803,16
804,17
805,16
806,16
807,16
808,16
809,16
810,16
811,16
812,16
813,16
814,16
815,16
816,16
817,17
818,18
819,18
820,18
821,19
822,19
823,18
824,18
825,19
826,19
827,19
828,19
829,19
830,19
831,20
832,19
833,18
834,18
835,19
836,19
837,19
838,18
839,18
840,18
841,18
842,18
843,18
844,18
845,19
846,19
847,18
848,18
849,18
850,18
851,18
852,18
853,18
854,18
855,18
856,18
857,18
858,18
859,18
860,19
861,19
862,20
863,19
864,18
865,18
866,18
867,18
868,18
869,18
870,18
871,18
872,19
873,18
874,18
875,18
876,18
877,18
878,18
879,18
880,18
881,18
882,18
883,18
884,18
885,18
886,18
887,18
888,18
889,18
890,19
891,20
892,19
893,18
894,18
895,18
896,18
897,18
898,18
899,18
900,18
901,18
902,18
903,18
904,18
905,18
906,18
907,18
908,18
909,18
910,18
911,18
912,18
913,18
914,18
915,18
916,18
917,18
918,18
919,19
920,19
921,19
922,19
923,19
924,19
925,19
926,19
927,19
928,19
929,19
930,19
931,19
932,19
933,19
934,18
935,18
936,18
937,18
938,18
939,18
940,18
941,18
942,18
943,18
944,18
945,18
946,18
947,18
948,18
949,18
950,18
951,18
952,19
953,19
954,19
955,18
956,18
957,18
958,18
959,18
960,18
961,19
962,18
963,18
964,18
965,18
966,18
967,18
968,19
969,19
970,19
971,19
972,18
973,18
974,18
975,18
976,18
977,19
978,19
979,18
980,18
981,18
982,18
983,18
984,18
985,18
986,18
987,18
988,18
989,18
990,18
991,18
992,18
993,18
994,18
995,18
996,18
997,18
998,18
999,18
1000,18
1001,18
1002,18
1003,18
1004,18
1005,18
1006,18
1007,18
1008,18
1009,18
1010,19
1011,18
1012,18
1013,18
1014,18
1015,18
1016,18
1017,18
1018,18
1019,18
1020,18
1021,18
1022,18
1023,18
1024,18
1025,18
1026,18
1027,18
1028,18
1029,18
1030,18
1031,18
1032,18
1033,18
1034,18
1035,18
1036,18
1037,18
1038,18
1039,18
1040,18
1041,18
1042,18
1043,18
1044,18
1045,18
1046,18
1047,18
1048,18
1049,18
1050,18
1051,18
1052,18
1053,18
1054,18
1055,18
1056,18
1057,19
1058,19
1059,18
1060,18
1061,18
1062,18
1063,18
1064,18
1065,18
1066,18
1067,18
1068,18
1069,18
1070,18
1071,18
1072,18
1073,18
1074,18
1075,19
1076,19
1077,18
1078,18
1079,19
1080,19
1081,18
1082,18
1083,18
1084,18
1085,18
1086,18
1087,18
1088,18
1089,18
1090,18
1091,18
1092,18
1093,18
1094,18
1095,18
1096,18
1097,18
1098,18
1099,18
1100,18
1101,18
1102,18
1103,18
1104,18
1105,18
1106,19
1107,19
1108,18
1109,18
1110,19
1111,19
1112,19
1113,19
1114,18
1115,18
1116,18
1117,18
1118,18
1119,18
1120,18
1121,18
1122,18
1123,18
1124,19
1125,20
1126,19
1127,19
1128,19
1129,19
1130,19
1131,19
1132,19
1133,19
1134,19
1135,19
1136,19
1137,19
1138,18
1139,18
1140,18
1141,18
1142,19
1143,18
1144,18
1145,18
1146,18
1147,18
1148,18
1149,18
1150,18
1151,18
1152,19
1153,18
1154,18
1155,18
1156,18
1157,18
1158,18
1159,18
1160,18
1161,18
1162,18
1163,18
1164,19
1165,18
1166,18
1167,19
1168,18
1169,18
1170,18
1171,18
1172,18
1173,18
1174,18
1175,18
1176,18
1177,18
1178,18
1179,18
1180,18
1181,18
1182,18
1183,18
1184,18
1185,18
1186,19
1187,19
1188,18
1189,18
1190,18
1191,18
1192,18
1193,19
1194,18
1195,18
1196,18
1197,18
1198,18
1199,18
1200,18
1201,18
1202,18
1203,18
1204,18
1205,18
1206,18
1207,18
1208,18
1209,18
1210,18
1211,18
1212,18
1213,18
1214,19
1215,19
1216,19
1217,19
1218,19
1219,19
1220,18
1221,18
1222,19
1223,18
1224,18
1225,18
1226,18
1227,18
1228,18
1229,18
1230,18
1231,18
1232,18
1233,18
1234,18
1235,18
1236,18
1237,18
1238,18
1239,18
1240,18
1241,18
1242,18
1243,18
1244,18
1245,18
1246,18
1247,18
1248,19
1249,19
1250,19
1251,19
1252,19
1253,18
1254,18
1255,18
1256,18
1257,18
1258,18
1259,18
1260,18
1261,18
1262,18
1263,18
1264,18
1265,19
1266,19
1267,19
1268,19
1269,19
1270,19
1271,19
1272,19
1273,19
1274,19
1275,19
1276,19
1277,19
1278,19
1279,19
1280,19
1281,19
1282,19
1283,19
1284,19
1285,19
1286,19
1287,19
1288,19
1289,19
1290,19
1291,19
1292,19
1293,19
1294,19
1295,19
1296,19
1297,19
1298,19
1299,19
1300,19
1301,19
1302,19
1303,19
1304,20
1305,19
1306,19
1307,19
1308,19
1309,19
1310,19
1311,19
1312,20
1313,19
1314,19
1315,19
1316,19
1317,19
1318,19
1319,19
1320,19
1321,19
1322,19
1323,19
1324,19
1325,19
1326,19
1327,19
1328,19
1329,19
1330,19
1331,19
1332,19
1333,19
1334,19
1335,19
1336,19
1337,20
1338,19
1339,19
1340,19
1341,19
1342,19
1343,19
1344,19
1345,19
1346,19
1347,19
1348,19
1349,20
1350,20
1351,20
1352,20
1353,19
1354,19
1355,19
1356,19
1357,19
1358,19
1359,20
1360,20
1361,20
1362,20
1363,20
1364,20
1365,20
1366,20
1367,20
1368,20
1369,20
1370,20
1371,19
1372,19
1373,19
1374,20
1375,19
1376,19
1377,19
1378,19
1379,19
1380,19
1381,19
1382,19
1383,19
1384,19
1385,19
1386,19
1387,19
1388,19
1389,19
1390,19
1391,19
1392,19
1393,19
1394,19
1395,19
1396,19
1397,19
1398,19
1399,19
1400,19
1401,19
1402,20
1403,20
1404,19
1405,19
1406,19
1407,19
1408,20
1409,20
1410,21
1411,21
1412,22
1413,22
1414,22
1415,22
1416,22
1417,22
1418,22
1419,21
1420,21
1421,21
1422,21
1423,21
1424,21
1425,21
1426,19
1427,19
1428,19
1429,19
1430,19
1431,19
1432,19
1433,19
1434,19
1435,19
1436,19
1437,19
1438,19
1439,19
1440,19
1441,19
1442,19
1443,19
1444,19
1445,19
1446,19
1447,20
1448,19
1449,19
1450,19
1451,19
1452,19
1453,19
1454,19
1455,19
1456,19
1457,19
1458,19
1459,19
1460,19
1461,19
1462,19
1463,19
1464,19
1465,19
1466,19
1467,19
1468,19
1469,19
1470,19
1471,19
1472,19
1473,19
1474,20
1475,19
1476,19
1477,19
1478,19
1479,19
1480,19
1481,19
1482,19
1483,19
1484,19
1485,20
1486,20
1487,20
1488,20
1489,20
1490,19
1491,19
1492,19
1493,19
1494,19
1495,20
1496,20
1497,20
1498,20
1499,20
1500,19
1501,19
1502,19
1503,20
1504,20
1505,21
1506,21
1507,21
1508,20
1509,19
1510,19
1511,19
1512,19
1513,19
1514,19
1515,19
1516,19
1517,19
1518,19
1519,19
1520,19
1521,19
1522,19
1523,19
1524,19
1525,19
1526,19
1527,19
1528,19
1529,19
1530,19
1531,19
1532,19
1533,19
1534,19
1535,19
1536,19
1537,19
1538,19
1539,19
1540,19
1541,19
1542,19
1543,19
1544,19
1545,20
1546,20
1547,20
1548,20
1549,20
1550,20
1551,21
1552,20
1553,20
1554,20
1555,20
1556,21
1557,21
1558,20
1559,20
1560,20
1561,20
1562,20
1563,20
1564,20
1565,20
1566,20
1567,20
1568,20
1569,20
1570,20
1571,21
1572,20
1573,20
1574,20
1575,20
1576,20
1577,20
1578,20
1579,20
1580,20
1581,21
1582,21
1583,21
1584,21
1585,20
1586,20
1587,20
1588,20
1589,20
1590,20
1591,20
1592,20
1593,20
1594,20
1595,20
1596,20
1597,20
1598,20
1599,20
1600,20
1601,20
1602,20
1603,20
1604,20
1605,20
1606,20
1607,20
1608,20
1609,20
1610,20
1611,20
1612,20
1613,21
1614,22
1615,21
1616,21
1617,21
1618,22
1619,21
1620,21
1621,21
1622,20
1623,20
1624,21
1625,20
1626,20
1627,20
1628,20
1629,20
1630,20
1631,21
1632,21
1633,21
1634,21
1635,20
1636,20
1637,20
1638,20
1639,21
1640,21
1641,21
1642,21
1643,21
1644,21
1645,21
1646,21
1647,21
1648,21
1649,20
1650,20
1651,21
1652,21
1653,21
1654,21
1655,21
1656,21
1657,21
1658,21
1659,21
1660,21
1661,21
1662,21
1663,22
1664,22
1665,22
1666,21
1667,21
1668,20
1669,20
1670,20
1671,20
1672,21
1673,21
1674,20
1675,20
1676,20
1677,20
1678,20
1679,20
1680,21
1681,21
1682,20
1683,20
1684,20
1685,21
1686,20
1687,20
1688,20
1689,20
1690,20
1691,20
1692,21
1693,21
1694,21
1695,20
1696,20
1697,20
1698,20
1699,21
1700,20
1701,20
1702,20
1703,20
1704,20
1705,20
1706,20
1707,20
1708,20
1709,20
1710,20
1711,20
1712,20
1713,20
1714,20
1715,20
1716,20
1717,20
1718,20
1719,20
1720,20
1721,20
1722,21
1723,20
1724,20
1725,20
1726,20
1727,20
1728,20
1729,20
1730,21
1731,21
1732,21
1733,21
1734,21
1735,21
1736,20
1737,20
1738,20
1739,20
1740,20
1741,20
1742,20
1743,20
1744,20
1745,20
1746,20
1747,20
1748,20
1749,20
1750,20
1751,20
1752,20
1753,20
1754,20
1755,20
1756,20
1757,20
1758,20
1759,20
1760,20
1761,20
1762,20
1763,20
1764,20
1765,20
1766,20
1767,21
1768,20
1769,20
1770,20
1771,20
1772,20
1773,21
1774,21
1775,21
1776,21
1777,21
1778,21
1779,21
1780,21
1781,21
1782,21
1783,21
1784,21
1785,21
1786,21
1787,21
1788,21
1789,22
1790,22
1791,21
1792,21
1793,21
1794,21
1795,20
1796,21
1797,20
1798,20
1799,20
1800,20
1801,20
1802,20
1803,20
1804,20
1805,20
1806,20
1807,20
1808,21
1809,20
1810,20
1811,20
1812,20
1813,20
1814,20
1815,20
1816,20
1817,20
1818,20
1819,20
1820,20
1821,20
1822,20
1823,20
1824,20
1825,20
1826,20
1827,20
1828,20
1829,20
1830,21
1831,20
1832,20
1833,20
1834,20
1835,20
1836,20
1837,20
1838,20
1839,20
1840,20
1841,20
1842,20
1843,20
1844,20
1845,20
1846,20
1847,21
1848,20
1849,20
1850,20
1851,20
1852,20
1853,20
1854,20
1855,20
1856,20
1857,20
1858,20
1859,20
1860,20
1861,20
1862,21
1863,21
1864,21
1865,22
1866,22
1867,21
1868,21
1869,21
1870,21
1871,21
1872,21
1873,21
1874,21
1875,21
1876,21
1877,21
1878,21
1879,21
1880,21
1881,21
1882,21
1883,20
1884,20
1885,20
1886,20
1887,20
1888,21
1889,21
1890,21
1891,21
1892,21
1893,21
1894,21
1895,21
1896,21
1897,21
1898,21
1899,21
1900,20
1901,20
1902,20
1903,20
1904,20
1905,20
1906,20
1907,20
1908,20
1909,20
1910,20
1911,20
1912,20
1913,20
1914,21
1915,21
1916,21
1917,20
1918,20
1919,20
1920,21
1921,21
1922,22
1923,21
1924,21
1925,21
1926,21
1927,20
1928,20
1929,20
1930,20
1931,20
1932,20
1933,20
1934,20
1935,20
1936,20
1937,20
1938,20
1939,21
1940,21
1941,21
1942,21
1943,21
1944,20
1945,20
1946,20
1947,20
1948,20
1949,20
1950,20
1951,20
1952,20
1953,20
1954,20
1955,20
1956,20
1957,20
1958,20
1959,20
1960,20
1961,20
1962,21
1963,21
1964,21
1965,22
1966,21
1967,21
1968,21
1969,21
1970,21
1971,21
1972,21
1973,21
1974,21
1975,22
1976,20
1977,20
1978,20
1979,20
1980,20
1981,20
1982,20
1983,20
1984,20
1985,20
1986,20
1987,20
1988,20
1989,20
1990,20
1991,20
1992,20
1993,20
1994,20
1995,20
1996,20
1997,20
1998,20
1999,20
2000,20
2001,20
2002,20
2003,20
2004,20
2005,20
2006,21
2007,21
2008,21
2009,21
2010,21
2011,21
2012,21
2013,21
2014,21
2015,21
2016,21
2017,21
2018,21
2019,21
2020,21
2021,21
2022,21
2023,21
2024,21
2025,21
2026,21
2027,21
2028,21
2029,21
2030,21
2031,21
2032,21
2033,21
2034,21
2035,21
2036,21
2037,21
2038,21
2039,21
2040,21
2041,21
2042,21
2043,21
2044,21
2045,21
2046,21
2047,22
2048,22
2049,22
2050,22
2051,22
2052,22
2053,22
2054,22
2055,22
2056,22
2057,22
2058,22
2059,22
2060,22
2061,22
2062,22
2063,22
2064,22
2065,22
2066,21
2067,21
2068,21
2069,21
2070,21
2071,21
2072,21
2073,21
2074,21
2075,21
2076,21
2077,21
2078,21
2079,21
2080,21
2081,21
2082,21
2083,21
2084,21
2085,21
2086,21
2087,21
2088,21
2089,21
2090,21
2091,21
2092,21
2093,22
2094,22
2095,21
2096,21
2097,21
2098,21
2099,21
2100,21
2101,21
2102,21
2103,22
2104,21
2105,21
2106,21
2107,21
2108,21
2109,22
2110,21
2111,21
2112,22
2113,22
2114,22
2115,22
2116,23
2117,23
2118,21
2119,21
2120,21
2121,21
2122,21
2123,21
2124,21
2125,21
2126,22
2127,22
2128,21
2129,21
2130,21
2131,21
2132,21
2133,21
2134,21
2135,21
2136,21
2137,21
2138,21
2139,21
2140,21
2141,21
2142,21
2143,21
2144,21
2145,21
2146,21
2147,21
2148,21
2149,21
2150,21
2151,21
2152,21
2153,21
2154,21
2155,21
2156,21
2157,21
2158,21
2159,21
2160,21
2161,21
2162,21
2163,21
2164,21
2165,21
2166,21
2167,21
2168,21
2169,21
2170,21
2171,21
2172,21
2173,21
2174,21
2175,21
2176,21
2177,21
2178,21
2179,21
2180,21
2181,21
2182,21
2183,21
2184,21
2185,21
2186,21
2187,21
2188,21
2189,22
2190,21
2191,21
2192,21
2193,21
2194,21
2195,21
2196,21
2197,21
2198,21
2199,21
2200,21
2201,21
2202,21
2203,21
2204,21
2205,21
2206,21
2207,21
2208,21
2209,21
2210,21
2211,21
2212,21
2213,21
2214,21
2215,21
2216,21
2217,21
2218,21
2219,21
2220,21
2221,21
2222,21
2223,21
2224,21
2225,21
2226,21
2227,22
2228,21
2229,21
2230,22
2231,22
2232,22
2233,22
2234,22
2235,22
2236,22
2237,22
2238,22
2239,22
2240,21
2241,21
2242,22
2243,21
2244,21
2245,21
2246,21
2247,21
2248,21
2249,21
2250,21
2251,21
2252,21
2253,21
2254,21
2255,21
2256,21
2257,22
2258,21
2259,21
2260,21
2261,21
2262,21
2263,21
2264,21
2265,21
2266,21
2267,21
2268,21
2269,21
2270,21
2271,21
2272,22
2273,22
2274,21
2275,21
2276,21
2277,21
2278,21
2279,21
2280,21
2281,21
2282,21
2283,21
2284,21
2285,21
2286,21
2287,21
2288,21
2289,21
2290,21
2291,21
2292,21
2293,21
2294,21
2295,21
2296,22
2297,21
2298,21
2299,21
2300,21
2301,21
2302,21
2303,21
2304,21
2305,21
2306,21
2307,21
2308,21
2309,21
2310,21
2311,22
2312,21
2313,21
2314,21
2315,21
2316,21
2317,21
2318,21
2319,21
2320,21
2321,21
2322,21
2323,21
2324,21
2325,21
2326,21
2327,21
2328,21
2329,21
2330,22
2331,21
2332,21
2333,21
2334,21
2335,21
2336,21
2337,21
2338,21
2339,21
2340,21
2341,21
2342,21
2343,21
2344,21
2345,21
2346,21
2347,21
2348,21
2349,22
2350,21
2351,21
2352,21
2353,21
2354,21
2355,21
2356,21
2357,21
2358,21
2359,21
2360,21
2361,21
2362,21
2363,21
2364,21
2365,21
2366,22
2367,21
2368,21
2369,22
2370,22
2371,22
2372,22
2373,22
2374,22
2375,22
2376,22
2377,22
2378,22
2379,22
2380,21
2381,21
2382,21
2383,21
2384,22
2385,22
2386,22
2387,22
2388,22
2389,23
2390,23
2391,23
2392,23
2393,23
2394,23
2395,23
2396,23
2397,22
2398,22
2399,22
2400,22
2401,21
2402,21
2403,21
2404,21
2405,21
2406,21
2407,21
2408,21
2409,21
2410,21
2411,21
2412,21
2413,21
2414,21
2415,21
2416,21
2417,21
2418,21
2419,22
2420,22
2421,22
2422,22
2423,22
2424,22
2425,22
2426,22
2427,22
2428,22
2429,22
2430,22
2431,22
2432,22
2433,22
2434,22
2435,22
2436,22
2437,22
2438,22
2439,22
2440,22
2441,22
2442,22
2443,22
2444,22
2445,22
2446,22
2447,22
2448,22
2449,22
2450,22
2451,22
2452,22
2453,22
2454,23
2455,22
2456,22
2457,22
2458,22
2459,22
2460,22
2461,22
2462,22
2463,22
2464,22
2465,22
2466,22
2467,22
2468,22
2469,22
2470,23
2471,23
2472,22
2473,22
2474,23
2475,22
2476,23
2477,23
2478,23
2479,23
2480,23
2481,23
2482,23
2483,23
2484,23
2485,23
2486,23
2487,23
2488,23
2489,23
2490,23
2491,23
2492,24
2493,23
2494,23
2495,22
2496,22
2497,22
2498,22
2499,22
2500,22
2501,22
2502,22
2503,22
2504,22
2505,22
2506,22
2507,22
2508,22
2509,22
2510,22
2511,22
2512,23
2513,22
2514,22
2515,22
2516,22
2517,22
2518,22
2519,22
2520,22
2521,22
2522,22
2523,22
2524,22
2525,22
2526,22
2527,22
2528,22
2529,22
2530,22
2531,22
2532,22
2533,22
2534,22
2535,22
2536,22
2537,22
2538,22
2539,22
2540,22
2541,22
2542,22
2543,22
2544,22
2545,22
2546,23
2547,22
2548,23
2549,23
2550,23
2551,23
2552,23
2553,23
2554,23
2555,23
2556,23
2557,23
2558,23
2559,22
2560,23
2561,23
2562,23
2563,22
2564,22
2565,22
2566,22
2567,22
2568,22
2569,22
2570,22
2571,22
2572,22
2573,22
2574,22
2575,22
2576,22
2577,22
2578,22
2579,22
2580,22
2581,23
2582,22
2583,22
2584,22
2585,22
2586,22
2587,22
2588,22
2589,22
2590,22
2591,22
2592,22
2593,22
2594,22
2595,22
2596,22
2597,22
2598,22
2599,22
2600,22
2601,22
2602,22
2603,22
2604,22
2605,22
2606,22
2607,22
2608,22
2609,22
2610,22
2611,22
2612,22
2613,22
2614,22
2615,22
2616,22
2617,22
2618,22
2619,22
2620,22
2621,22
2622,23
2623,23
2624,22
2625,22
2626,22
2627,22
2628,22
2629,22
2630,22
2631,22
2632,22
2633,22
2634,22
2635,22
2636,22
2637,22
2638,22
2639,22
2640,22
2641,22
2642,22
2643,22
2644,22
2645,22
2646,22
2647,22
2648,22
2649,22
2650,22
2651,22
2652,22
2653,22
2654,22
2655,22
2656,22
2657,22
2658,22
2659,23
2660,22
2661,22
2662,22
2663,22
2664,22
2665,22
2666,22
2667,22
2668,22
2669,22
2670,22
2671,22
2672,22
2673,22
2674,22
2675,22
2676,22
2677,22
2678,22
2679,22
2680,23
2681,22
2682,22
2683,22
2684,22
2685,22
2686,22
2687,22
2688,22
2689,22
2690,22
2691,22
2692,22
2693,22
2694,22
2695,22
2696,22
2697,22
2698,22
2699,22
2700,23
2701,22
2702,22
2703,22
2704,23
2705,22
2706,22
2707,22
2708,22
2709,22
2710,22
2711,22
2712,22
2713,22
2714,22
2715,22
2716,22
2717,22
2718,22
2719,22
2720,22
2721,22
2722,22
2723,22
2724,22
2725,22
2726,22
2727,22
2728,22
2729,22
2730,22
2731,22
2732,22
2733,22
2734,22
2735,22
2736,22
2737,23
2738,23
2739,22
2740,22
2741,22
2742,22
2743,22
2744,22
2745,22
2746,22
2747,22
2748,22
2749,22
2750,22
2751,22
2752,22
2753,22
2754,22
2755,22
2756,22
2757,22
2758,22
2759,22
2760,22
2761,22
2762,22
2763,22
2764,22
2765,22
2766,22
2767,22
2768,22
2769,22
2770,22
2771,22
2772,22
2773,23
2774,23
2775,22
2776,22
2777,22
2778,22
2779,22
2780,22
2781,22
2782,22
2783,22
2784,22
2785,22
2786,22
2787,22
2788,22
2789,22
2790,22
2791,22
2792,22
2793,22
2794,22
2795,23
2796,23
2797,23
2798,22
2799,22
2800,22
2801,22
2802,22
2803,22
2804,22
2805,22
2806,22
2807,22
2808,22
2809,22
2810,22
2811,22
2812,22
2813,22
2814,22
2815,22
2816,22
2817,22
2818,22
2819,22
2820,22
2821,22
2822,22
2823,22
2824,22
2825,22
2826,22
2827,22
2828,22
2829,22
2830,23
2831,22
2832,22
2833,22
2834,22
2835,22
2836,22
2837,22
2838,22
2839,22
2840,22
2841,23
2842,22
2843,22
2844,22
2845,23
2846,22
2847,22
2848,22
2849,22
2850,22
2851,22
2852,22
2853,22
2854,22
2855,22
2856,22
2857,22
2858,22
2859,22
2860,22
2861,22
2862,22
2863,22
2864,22
2865,22
2866,22
2867,22
2868,22
2869,22
2870,22
2871,22
2872,22
2873,22
2874,22
2875,22
2876,22
2877,22
2878,22
2879,22
2880,22
2881,22
2882,22
2883,22
2884,22
2885,22
2886,22
2887,22
2888,22
2889,22
2890,22
2891,22
2892,22
2893,22
2894,22
2895,23
2896,23
2897,23
2898,23
2899,23
2900,23
2901,23
2902,23
2903,23
2904,23
2905,23
2906,24
2907,24
2908,25
2909,25
2910,24
2911,24
2912,23
2913,23
2914,23
2915,23
2916,23
2917,23
2918,23
2919,23
2920,22
2921,22
2922,22
2923,22
2924,22
2925,22
2926,22
2927,22
2928,22
2929,23
2930,23
2931,23
2932,23
2933,23
2934,23
2935,23
2936,23
2937,23
2938,23
2939,23
2940,23
2941,22
2942,22
2943,22
2944,22
2945,22
2946,22
2947,22
2948,22
2949,22
2950,22
2951,22
2952,22
2953,22
2954,22
2955,22
2956,22
2957,22
2958,22
2959,22
2960,22
2961,22
2962,22
2963,22
2964,22
2965,22
2966,22
2967,22
2968,22
2969,22
2970,22
2971,22
2972,22
2973,22
2974,22
2975,22
2976,22
2977,22
2978,22
2979,22
2980,23
2981,22
2982,22
2983,22
2984,22
2985,22
2986,22
2987,22
2988,22
2989,22
2990,22
2991,22
2992,22
2993,22
2994,22
2995,22
2996,22
2997,22
2998,22
2999,22
3000,22
3001,22
3002,22
3003,22
3004,22
3005,22
3006,22
3007,22
3008,22
3009,22
3010,22
3011,22
3012,22
3013,22
3014,22
3015,22
3016,22
3017,22
3018,22
3019,22
3020,22
3021,22
3022,22
3023,22
3024,23
3025,23
3026,22
3027,22
3028,22
3029,22
3030,22
3031,22
3032,22
3033,22
3034,22
3035,22
3036,22
3037,22
3038,22
3039,22
3040,22
3041,23
3042,23
3043,23
3044,23
3045,23
3046,23
3047,23
3048,23
3049,23
3050,23
3051,23
3052,23
3053,23
3054,23
3055,23
3056,23
3057,23
3058,23
3059,23
3060,23
3061,23
3062,24
3063,22
3064,22
3065,22
3066,22
3067,22
3068,22
3069,22
3070,22
3071,22
3072,22
3073,22
3074,22
3075,22
3076,22
3077,22
3078,22
3079,23
3080,22
3081,22
3082,22
3083,22
3084,22
3085,23
3086,23
3087,23
3088,23
3089,23
3090,23
3091,23
3092,23
3093,23
3094,23
3095,23
3096,23
3097,23
3098,23
3099,23
3100,23
3101,23
3102,23
3103,23
3104,23
3105,23
3106,23
3107,23
3108,23
3109,23
3110,23
3111,23
3112,24
3113,23
3114,23
3115,23
3116,24
3117,24
3118,23
3119,23
3120,23
3121,23
3122,23
3123,23
3124,23
3125,23
3126,23
3127,23
3128,23
3129,23
3130,23
3131,23
3132,23
3133,23
3134,23
3135,23
3136,23
3137,23
3138,23
3139,23
3140,23
3141,24
3142,23
3143,23
3144,23
3145,23
3146,23
3147,23
3148,23
3149,23
3150,23
3151,23
3152,23
3153,23
3154,23
3155,23
3156,23
3157,23
3158,23
3159,23
3160,23
3161,23
3162,23
3163,23
3164,23
3165,23
3166,23
3167,23
3168,24
3169,24
3170,24
3171,23
3172,23
3173,23
3174,23
3175,23
3176,23
3177,23
3178,23
3179,23
3180,23
3181,23
3182,23
3183,23
3184,23
3185,23
3186,23
3187,23
3188,23
3189,23
3190,23
3191,23
3192,23
3193,23
3194,23
3195,23
3196,23
3197,23
3198,23
3199,23
3200,23
3201,23
3202,23
3203,23
3204,23
3205,23
3206,23
3207,23
3208,23
3209,23
3210,23
3211,23
3212,23
3213,23
3214,23
3215,23
3216,23
3217,23
3218,23
3219,23
3220,23
3221,23
3222,23
3223,23
3224,24
3225,24
3226,24
3227,24
3228,24
3229,24
3230,24
3231,24
3232,24
3233,24
3234,24
3235,24
3236,24
3237,23
3238,23
3239,23
3240,24
3241,23
3242,23
3243,23
3244,23
3245,23
3246,23
3247,23
3248,23
3249,23
3250,23
3251,23
3252,23
3253,23
3254,23
3255,23
3256,23
3257,23
3258,23
3259,23
3260,23
3261,23
3262,23
3263,23
3264,23
3265,23
3266,23
3267,23
3268,23
3269,23
3270,23
3271,23
3272,23
3273,23
3274,23
3275,23
3276,23
3277,23
3278,24
3279,24
3280,24
3281,23
3282,23
3283,23
3284,23
3285,23
3286,23
3287,23
3288,23
3289,23
3290,23
3291,23
3292,23
3293,23
3294,23
3295,23
3296,23
3297,23
3298,23
3299,23
3300,23
3301,23
3302,24
3303,23
3304,23
3305,23
3306,23
3307,23
3308,24
3309,24
3310,24
3311,23
3312,23
3313,23
3314,24
3315,24
3316,24
3317,24
3318,24
3319,23
3320,23
3321,23
3322,24
3323,24
3324,24
3325,25
3326,24
3327,23
3328,24
3329,24
3330,24
3331,23
3332,23
3333,23
3334,23
3335,23
3336,23
3337,23
3338,23
3339,23
3340,23
3341,23
3342,24
3343,24
3344,24
3345,23
3346,23
3347,23
3348,23
3349,23
3350,23
3351,23
3352,23
3353,23
3354,23
3355,23
3356,23
3357,23
3358,23
3359,23
3360,23
3361,23
3362,23
3363,23
3364,23
3365,23
3366,23
3367,24
3368,24
3369,24
3370,24
3371,24
3372,24
3373,24
3374,24
3375,24
3376,24
3377,24
3378,24
3379,25
3380,25
3381,24
3382,24
3383,24
3384,24
3385,24
3386,24
3387,24
3388,24
3389,24
3390,24
3391,24
3392,24
3393,24
3394,24
3395,25
3396,25
3397,26
3398,26
3399,25
3400,25
3401,25
3402,25
3403,24
3404,25
3405,25
3406,25
3407,25
3408,25
3409,25
3410,25
3411,25
3412,25
3413,25
3414,25
3415,25
3416,25
3417,25
3418,25
3419,25
3420,25
3421,25
3422,25
3423,25
3424,25
3425,25
3426,26
3427,25
3428,25
3429,25
3430,25
3431,25
3432,25
3433,25
3434,25
3435,25
3436,25
3437,25
3438,25
3439,26
3440,26
3441,26
3442,25
3443,25
3444,24
3445,24
3446,24
3447,24
3448,25
3449,24
3450,24
3451,24
3452,24
3453,24
3454,24
3455,24
3456,24
3457,24
3458,25
3459,24
3460,24
3461,24
3462,24
3463,24
3464,24
3465,25
3466,25
3467,25
3468,24
3469,24
3470,24
3471,24
3472,24
3473,24
3474,24
3475,24
3476,24
3477,24
3478,24
3479,24
3480,24
3481,24
3482,24
3483,24
3484,24
3485,24
3486,24
3487,24
3488,24
3489,24
3490,24
3491,24
3492,24
3493,24
3494,24
3495,24
3496,24
3497,24
3498,24
3499,24
3500,24
3501,24
3502,24
3503,24
3504,24
3505,24
3506,24
3507,24
3508,24
3509,24
3510,24
3511,24
3512,24
3513,24
3514,24
3515,24
3516,24
3517,24
3518,24
3519,24
3520,24
3521,24
3522,24
3523,24
3524,24
3525,24
3526,24
3527,24
3528,24
3529,24
3530,24
3531,24
3532,24
3533,24
3534,24
3535,24
3536,24
3537,24
3538,24
3539,24
3540,24
3541,24
3542,24
3543,26
3544,26
3545,27
3546,26
3547,26
3548,26
3549,25
3550,25
3551,25
3552,25
3553,25
3554,26
3555,26
3556,26
3557,25
3558,25
3559,25
3560,25
3561,25
3562,25
3563,25
3564,25
3565,25
3566,25
3567,25
3568,25
3569,25
3570,25
3571,25
3572,25
3573,25
3574,25
3575,25
3576,25
3577,25
3578,25
3579,25
3580,25
3581,25
3582,25
3583,25
3584,25
3585,25
3586,25
3587,25
3588,25
3589,25
3590,25
3591,25
3592,25
3593,25
3594,25
3595,25
3596,25
3597,25
3598,25
3599,26
3600,25
3601,25
3602,25
3603,25
3604,25
3605,25
3606,25
3607,25
3608,25
3609,25
3610,26
3611,25
3612,26
3613,26
3614,25
3615,25
3616,25
3617,25
3618,25
3619,25
3620,25
3621,25
3622,25
3623,25
3624,25
3625,25
3626,25
3627,25
3628,25
3629,25
3630,25
3631,25
3632,25
3633,26
3634,26
3635,26
3636,26
3637,26
3638,26
3639,27
3640,27
3641,26
3642,26
3643,26
3644,26
3645,26
3646,26
3647,26
3648,27
3649,26
3650,27
3651,27
3652,26
3653,26
3654,26
3655,26
3656,26
3657,26
3658,27
3659,27
3660,27
3661,27
3662,27
3663,27
3664,26
3665,26
3666,26
3667,26
3668,26
3669,26
3670,26
3671,27
3672,27
3673,27
3674,27
3675,26
3676,26
3677,26
3678,26
3679,26
3680,26
3681,26
3682,26
3683,26
3684,27
3685,27
3686,26
3687,26
3688,26
3689,26
3690,26
3691,26
3692,26
3693,26
3694,26
3695,26
3696,26
3697,26
3698,26
3699,26
3700,26
3701,27
3702,26
3703,26
3704,26
3705,26
3706,27
3707,26
3708,26
3709,26
3710,26
3711,26
3712,26
3713,26
3714,26
3715,26
3716,26
3717,26
3718,26
3719,26
3720,26
3721,26
3722,26
3723,26
3724,26
3725,26
3726,26
3727,26
3728,26
3729,27
3730,28
3731,27
3732,26
3733,26
3734,26
3735,26
3736,26
3737,26
3738,26
3739,26
3740,26
3741,26
3742,26
3743,26
3744,27
3745,27
3746,27
3747,27
3748,27
3749,27
3750,27
3751,26
3752,26
3753,26
3754,26
3755,26
3756,26
3757,26
3758,26
3759,26
3760,26
3761,26
3762,26
3763,26
3764,26
3765,26
3766,26
3767,26
3768,26
3769,27
3770,27
3771,26
3772,26
3773,26
3774,26
3775,26
3776,26
3777,26
3778,26
3779,26
3780,26
3781,26
3782,26
3783,26
3784,26
3785,27
3786,27
3787,27
3788,27
3789,27
3790,27
3791,26
3792,26
3793,26
3794,26
3795,27
3796,27
3797,27
3798,27
3799,28
3800,28
3801,27
3802,26
3803,26
3804,26
3805,26
3806,26
3807,26
3808,26
3809,26
3810,26
3811,26
3812,26
3813,26
3814,26
3815,26
3816,26
3817,26
3818,26
3819,26
3820,26
3821,26
3822,26
3823,26
3824,26
3825,26
3826,27
3827,27
3828,26
3829,26
3830,27
3831,26
3832,26
3833,26
3834,27
3835,27
3836,26
3837,26
3838,26
3839,26
3840,27
3841,26
3842,26
3843,26
3844,26
3845,26
3846,26
3847,26
3848,26
3849,26
3850,27
3851,27
3852,27
3853,27
3854,27
3855,26
3856,26
3857,26
3858,26
3859,26
3860,26
3861,26
3862,26
3863,26
3864,27
3865,28
3866,27
3867,26
3868,26
3869,26
3870,26
3871,26
3872,27
3873,27
3874,27
3875,27
3876,26
3877,26
3878,26
3879,26
3880,26
3881,26
3882,26
3883,26
3884,26
3885,26
3886,26
3887,26
3888,26
3889,26
3890,26
3891,26
3892,27
3893,27
3894,28
3895,28
3896,28
3897,28
3898,27
3899,27
3900,27
3901,27
3902,27
3903,27
3904,27
3905,27
3906,27
3907,28
3908,28
3909,28
3910,28
3911,28
3912,28
3913,28
3914,29
3915,29
3916,29
3917,28
3918,28
3919,28
3920,27
3921,27
3922,27
3923,27
3924,27
3925,27
3926,28
3927,28
3928,28
3929,27
3930,27
3931,27
3932,27
3933,27
3934,27
3935,27
3936,27
3937,27
3938,27
3939,27
3940,27
3941,27
3942,28
3943,28
3944,28
3945,28
3946,28
3947,28
3948,28
3949,28
3950,28
3951,28
3952,28
3953,28
3954,27
3955,27
3956,27
3957,27
3958,27
3959,27
3960,27
3961,27
3962,27
3963,27
3964,28
3965,28
3966,28
3967,29
3968,29
3969,28
3970,28
3971,29
3972,29
3973,28
3974,28
3975,28
3976,28
3977,28
3978,28
3979,28
3980,28
3981,28
3982,28
3983,28
3984,28
3985,28
3986,28
3987,28
3988,28
3989,28
3990,28
3991,28
3992,28
3993,28
3994,28
3995,28
3996,28
3997,28
3998,28
3999,28
4000,29
4001,29
4002,29
4003,29
4004,29
4005,29
4006,29
4007,28
4008,28
4009,28
4010,28
4011,28
4012,28
4013,28
4014,28
4015,28
4016,28
4017,28
4018,28
4019,28
4020,28
4021,28
4022,28
4023,28
4024,29
4025,29
4026,29
4027,29
4028,29
4029,29
4030,28
4031,28
4032,28
4033,28
4034,28
4035,28
4036,28
4037,28
4038,28
4039,29
4040,28
4041,28
4042,28
4043,28
4044,28
4045,28
4046,28
4047,28
4048,28
4049,28
4050,28
4051,28
4052,28
4053,29
4054,28
4055,28
4056,28
4057,28
4058,28
4059,28
4060,28
4061,28
4062,28
4063,28
4064,28
4065,28
4066,28
4067,28
4068,29
4069,29
4070,28
4071,28
4072,28
4073,28
4074,28
4075,28
4076,28
4077,28
4078,28
4079,28
4080,28
4081,28
4082,28
4083,28
4084,28
4085,28
4086,28
4087,28
4088,29
4089,29
4090,29
4091,29
4092,29
4093,29
4094,29
4095,29
4096,29
4097,29
4098,29
4099,29
4100,29
4101,29
4102,29
4103,29
4104,29
4105,29
4106,30
4107,30
4108,30
4109,30
4110,30
4111,30
4112,31
4113,31
4114,31
4115,31
4116,31
4117,31
4118,31
4119,31
4120,31
4121,31
4122,31
4123,31
4124,31
4125,30
4126,30
4127,30
4128,30
4129,30
4130,30
4131,30
4132,30
4133,30
4134,30
4135,31
4136,31
4137,31
4138,31
4139,31
4140,31
4141,30
4142,30
4143,30
4144,30
4145,30
4146,31
4147,31
4148,31
4149,31
4150,31
4151,31
4152,31
4153,31
4154,31
4155,31
4156,31
4157,31
4158,31
4159,32
4160,32
4161,32
4162,32
4163,31
4164,31
4165,31
4166,32
4167,33
4168,33
4169,33
4170,33
4171,33
4172,33
4173,33
4174,33
4175,33
4176,32
4177,32
4178,32
4179,32
4180,32
4181,32
4182,32
4183,32
4184,32
4185,32
4186,32
4187,32
4188,32
4189,32
4190,32
4191,32
4192,33
4193,33
4194,33
4195,33
4196,33
4197,33
4198,33
4199,33
4200,33
4201,32
4202,33
4203,33
4204,33
4205,33
4206,34
4207,33
4208,34
4209,34
4210,34
4211,34
4212,34
4213,34
4214,34
4215,34
4216,33
4217,33
4218,33
4219,33
4220,33
4221,34
4222,34
4223,34
4224,34
4225,35
4226,35
4227,35
4228,35
4229,35
4230,34
4231,34
4232,34
4233,34
4234,34
4235,33
4236,33
4237,33
4238,33
4239,33
4240,33
4241,33
4242,33
4243,33
4244,33
4245,33
4246,33
4247,33
4248,33
4249,33
4250,33
4251,33
4252,33
4253,33
4254,33
4255,32
4256,32
4257,33
4258,34
4259,34
4260,34
4261,33
4262,33
4263,32
4264,32
4265,32
4266,32
4267,32
4268,32
4269,32
4270,33
4271,33
4272,33
4273,33
4274,33
4275,33
4276,33
4277,32
4278,32
4279,32
4280,32
4281,32
4282,32
4283,32
4284,32
4285,32
4286,32
4287,32
4288,32
4289,32
4290,32
4291,32
4292,32
4293,34
4294,34
4295,33
4296,32
4297,32
4298,32
4299,32
4300,32
4301,32
4302,32
4303,32
4304,32
4305,32
4306,32
4307,32
4308,32
4309,32
4310,32
4311,32
4312,33
4313,33
4314,32
4315,33
4316,32
4317,32
4318,32
4319,32
4320,32
4321,32
4322,32
4323,32
4324,32
4325,33
4326,32
4327,33
4328,33
4329,32
4330,32
4331,32
4332,33
4333,33
4334,33
4335,33
4336,33
4337,33
4338,33
4339,33
4340,32
4341,32
4342,32
4343,32
4344,32
4345,32
4346,32
4347,32
4348,32
4349,33
4350,32
4351,32
4352,32
4353,32
4354,32
4355,32
4356,32
4357,32
4358,32
4359,32
4360,32
4361,33
4362,32
4363,32
4364,32
4365,32
4366,32
4367,32
4368,32
4369,32
4370,32
4371,32
4372,32
4373,32
4374,32
4375,32
4376,32
4377,32
4378,32
4379,32
4380,32
4381,32
4382,32
4383,32
4384,32
4385,32
4386,34
4387,32
4388,32
4389,32
4390,32
4391,32
4392,32
4393,32
4394,32
4395,32
4396,32
4397,32
4398,32
4399,32
4400,32
4401,32
4402,33
4403,32
4404,32
4405,32
4406,32
4407,32
4408,32
4409,32
4410,32
4411,32
4412,32
4413,32
4414,32
4415,32
4416,32
4417,32
4418,33
4419,33
4420,33
4421,32
4422,32
4423,32
4424,32
4425,32
4426,32
4427,32
4428,32
4429,32
4430,32
4431,32
4432,33
4433,32
4434,32
4435,33
4436,32
4437,32
4438,32
4439,32
4440,32
4441,32
4442,32
4443,32
4444,32
4445,32
4446,32
4447,32
4448,32
4449,32
4450,32
4451,32
4452,32
4453,32
4454,32
4455,32
4456,32
4457,32
4458,32
4459,32
4460,32
4461,32
4462,32
4463,32
4464,32
4465,32
4466,32
4467,32
4468,32
4469,32
4470,32
4471,32
4472,32
4473,32
4474,32
4475,32
4476,32
4477,32
4478,32
4479,32
4480,32
4481,32
4482,32
4483,32
4484,32
4485,33
4486,33
4487,33
4488,33
4489,32
4490,32
4491,32
4492,32
4493,32
4494,32
4495,32
4496,32
4497,32
4498,32
4499,32
4500,32
4501,32
4502,32
4503,32
4504,32
4505,32
4506,32
4507,32
4508,32
4509,32
4510,33
4511,32
4512,32
4513,32
4514,32
4515,32
4516,32
4517,32
4518,32
4519,32
4520,32
4521,32
4522,32
4523,32
4524,32
4525,32
4526,32
4527,32
4528,32
4529,32
4530,32
4531,32
4532,32
4533,32
4534,33
4535,32
4536,32
4537,32
4538,32
4539,32
4540,33
4541,32
4542,32
4543,32
4544,32
4545,32
4546,32
4547,32
4548,32
4549,32
4550,32
4551,32
4552,32
4553,32
4554,32
4555,32
4556,32
4557,32
4558,32
4559,32
4560,32
4561,32
4562,32
4563,32
4564,32
4565,32
4566,33
4567,32
4568,32
4569,32
4570,32
4571,32
4572,32
4573,32
4574,32
4575,32
4576,32
4577,32
4578,32
4579,32
4580,32
4581,32
4582,32
4583,32
4584,32
4585,32
4586,32
4587,32
4588,32
4589,32
4590,32
4591,32
4592,32
4593,32
4594,32
4595,32
4596,32
4597,32
4598,32
4599,33
4600,32
4601,33
4602,32
4603,32
4604,32
4605,32
4606,32
4607,32
4608,32
4609,32
4610,32
4611,32
4612,32
4613,32
4614,32
4615,32
4616,32
4617,32
4618,32
4619,32
4620,32
4621,32
4622,32
4623,32
4624,32
4625,32
4626,32
4627,32
4628,32
4629,32
4630,32
4631,32
4632,32
4633,32
4634,32
4635,32
4636,32
4637,32
4638,32
4639,32
4640,32
4641,32
4642,32
4643,32
4644,32
4645,32
4646,33
4647,33
4648,33
4649,33
4650,33
4651,33
4652,33
4653,33
4654,32
4655,32
4656,32
4657,32
4658,32
4659,32
4660,32
4661,32
4662,33
4663,33
4664,33
4665,33
4666,33
4667,33
4668,33
4669,33
4670,32
4671,33
4672,33
4673,33
4674,33
4675,33
4676,33
4677,33
4678,33
4679,33
4680,33
4681,33
4682,33
4683,33
4684,33
4685,33
4686,33
4687,33
4688,34
4689,34
4690,34
4691,34
4692,34
4693,34
4694,34
4695,34
4696,33
4697,33
4698,33
4699,33
4700,33
4701,33
4702,33
4703,33
4704,33
4705,33
4706,33
4707,33
4708,33
4709,33
4710,33
4711,33
4712,33
4713,33
4714,33
4715,34
4716,33
4717,33
4718,33
4719,33
4720,33
4721,33
4722,33
4723,33
4724,33
4725,33
4726,33
4727,33
4728,33
4729,33
4730,33
4731,33
4732,33
4733,33
4734,33
4735,34
4736,34
4737,34
4738,33
4739,33
4740,33
4741,33
4742,33
4743,33
4744,33
4745,33
4746,33
4747,33
4748,33
4749,33
4750,33
4751,34
4752,34
4753,34
4754,34
4755,34
4756,33
4757,33
4758,33
4759,33
4760,33
4761,33
4762,33
4763,33
4764,33
4765,33
4766,33
4767,33
4768,33
4769,33
4770,33
4771,33
4772,33
4773,33
4774,33
4775,33
4776,33
4777,33
4778,33
4779,33
4780,33
4781,33
4782,33
4783,33
4784,33
4785,33
4786,33
4787,33
4788,33
4789,33
4790,33
4791,33
4792,33
4793,33
4794,33
4795,33
4796,33
4797,33
4798,33
4799,33
4800,33
4801,34
4802,34
4803,33
4804,33
4805,33
4806,34
4807,33
4808,33
4809,33
4810,33
4811,33
4812,33
4813,33
4814,33
4815,33
4816,33
4817,33
4818,33
4819,34
4820,33
4821,33
4822,33
4823,33
4824,34
4825,34
4826,34
4827,34
4828,34
4829,34
4830,34
4831,34
4832,34
4833,33
4834,33
4835,34
4836,33
4837,33
4838,34
4839,33
4840,33
4841,33
4842,33
4843,33
4844,33
4845,33
4846,33
4847,33
4848,33
4849,33
4850,33
4851,33
4852,33
4853,34
4854,34
4855,34
4856,34
4857,34
4858,34
4859,34
4860,34
4861,34
4862,35
4863,34
4864,34
4865,34
4866,34
4867,34
4868,34
4869,34
4870,34
4871,34
4872,34
4873,34
4874,34
4875,35
4876,35
4877,34
4878,34
4879,34
4880,34
4881,34
4882,34
4883,34
4884,35
4885,35
4886,34
4887,34
4888,34
4889,34
4890,34
4891,34
4892,34
4893,34
4894,34
4895,34
4896,34
4897,34
4898,34
4899,34
4900,34
4901,34
4902,34
4903,34
4904,34
4905,34
4906,34
4907,34
4908,34
4909,34
4910,34
4911,34
4912,34
4913,34
4914,34
4915,34
4916,34
4917,34
4918,34
4919,34
4920,36
4921,36
4922,34
4923,34
4924,34
4925,35
4926,35
4927,36
4928,35
4929,34
4930,34
4931,34
4932,34
4933,34
4934,34
4935,34
4936,34
4937,34
4938,34
4939,34
4940,35
4941,36
4942,36
4943,35
4944,35
4945,34
4946,34
4947,34
4948,34
4949,34
4950,34
4951,34
4952,34
4953,34
4954,35
4955,34
4956,34
4957,34
4958,34
4959,34
4960,34
4961,34
4962,34
4963,34
4964,34
4965,35
4966,34
4967,34
4968,34
4969,34
4970,34
4971,34
4972,34
4973,34
4974,35
4975,34
4976,34
4977,34
4978,34
4979,34
4980,34
4981,34
4982,34
4983,34
4984,34
4985,34
4986,34
4987,34
4988,34
4989,34
4990,34
4991,34
4992,34
4993,34
4994,34
4995,35
4996,35
4997,34
4998,34
4999,34
5000,34
5001,34
5002,34
5003,34
5004,34
5005,34
5006,34
5007,34
5008,34
5009,34
5010,34
5011,34
5012,34
5013,34
5014,35
5015,35
5016,34
5017,34
5018,35
5019,35
5020,35
5021,35
5022,35
5023,35
5024,35
5025,35
5026,35
5027,35
5028,36
5029,35
5030,35
5031,35
5032,35
5033,35
5034,35
5035,35
5036,35
5037,35
5038,35
5039,35
5040,35
5041,36
5042,35
5043,35
5044,35
5045,35
5046,35
5047,35
5048,35
5049,35
5050,35
5051,35
5052,35
5053,35
5054,35
5055,35
5056,36
5057,36
5058,36
5059,35
5060,35
5061,35
5062,35
5063,35
5064,35
5065,35
5066,35
5067,35
5068,35
5069,35
5070,35
5071,35
5072,35
5073,35
5074,35
5075,35
5076,35
5077,35
5078,35
5079,35
5080,35
5081,36
5082,35
5083,35
5084,35
5085,35
5086,35
5087,36
5088,36
5089,36
5090,36
5091,35
5092,35
5093,35
5094,34
5095,34
5096,35
5097,34
5098,35
5099,35
5100,34
5101,34
5102,34
5103,34
5104,34
5105,34
5106,34
5107,34
5108,34
5109,34
5110,34
5111,34
5112,34
5113,34
5114,34
5115,34
5116,34
5117,34
5118,34
5119,34
5120,34
5121,34
5122,34
5123,34
5124,34
5125,34
5126,34
5127,34
5128,34
5129,34
5130,34
5131,34
5132,34
5133,34
5134,34
5135,34
5136,34
5137,34
5138,34
5139,34
5140,34
5141,34
5142,34
5143,34
5144,34
5145,34
5146,34
5147,34
5148,34
5149,34
5150,34
5151,34
5152,34
5153,34
5154,34
5155,34
5156,34
5157,34
5158,34
5159,34
5160,34
5161,34
5162,34
5163,34
5164,34
5165,35
5166,34
5167,34
5168,34
5169,34
5170,35
5171,35
5172,35
5173,35
5174,36
5175,36
5176,36
5177,36
5178,36
5179,36
5180,36
5181,36
5182,36
5183,36
5184,37
5185,37
5186,36
5187,37
5188,36
5189,36
5190,35
5191,35
5192,34
5193,34
5194,34
5195,34
5196,34
5197,34
5198,34
5199,35
5200,34
5201,34
5202,34
5203,34
5204,34
5205,33
5206,33
5207,33
5208,33
5209,34
5210,32
5211,32
5212,32
5213,32
5214,32
5215,32
5216,32
5217,32
5218,32
5219,32
5220,32
5221,32
5222,32
5223,32
5224,32
5225,32
5226,32
5227,32
5228,32
5229,32
5230,32
5231,33
5232,33
5233,33
5234,33
5235,33
5236,32
5237,32
5238,32
5239,32
5240,32
5241,32
5242,32
5243,32
5244,32
5245,32
5246,32
5247,32
5248,32
5249,32
5250,32
5251,32
5252,32
5253,32
5254,32
5255,32
5256,32
5257,32
5258,32
5259,32
5260,32
5261,32
5262,32
5263,32
5264,32
5265,32
5266,32
5267,32
5268,32
5269,32
5270,32
5271,32
5272,32
5273,32
5274,32
5275,32
5276,32
5277,32
5278,32
5279,32
5280,32
5281,32
5282,32
5283,32
5284,32
5285,32
5286,32
5287,32
5288,32
5289,32
5290,32
5291,32
5292,32
5293,32
5294,32
5295,32
5296,32
5297,32
5298,32
5299,32
5300,32
5301,32
5302,32
5303,32
5304,32
5305,32
5306,32
5307,32
5308,32
5309,32
5310,32
5311,32
5312,32
5313,32
5314,32
5315,32
5316,32
5317,32
5318,32
5319,32
5320,32
5321,32
5322,32
5323,32
5324,32
5325,32
5326,32
5327,32
5328,32
5329,32
5330,32
5331,32
5332,32
5333,32
5334,33
5335,34
5336,34
5337,32
5338,32
5339,32
5340,32
5341,32
5342,33
5343,33
5344,33
5345,33
5346,33
5347,33
5348,33
5349,33
5350,32
5351,32
5352,33
5353,33
5354,33
5355,33
5356,33
5357,33
5358,33
5359,33
5360,33
5361,33
5362,33
5363,33
5364,33
5365,33
5366,33
5367,34
5368,34
5369,34
5370,33
5371,34
5372,34
5373,34
5374,35
5375,34
5376,34
5377,34
5378,34
5379,34
5380,34
5381,34
5382,34
5383,34
5384,34
5385,34
5386,34
5387,34
5388,34
5389,34
5390,34
5391,34
5392,34
5393,34
5394,34
5395,34
5396,34
5397,34
5398,35
5399,35
5400,35
5401,35
5402,35
5403,35
5404,35
5405,35
5406,35
5407,35
5408,35
5409,35
5410,35
5411,35
5412,34
5413,34
5414,34
5415,34
5416,35
5417,35
5418,36
5419,36
5420,35
5421,35
5422,35
5423,35
5424,35
5425,35
5426,35
5427,35
5428,34
5429,34
5430,34
5431,34
5432,34
5433,34
5434,34
5435,34
5436,34
5437,34
5438,34
5439,35
5440,35
5441,35
5442,35
5443,34
5444,34
5445,34
5446,34
5447,34
5448,34
5449,34
5450,34
5451,34
5452,34
5453,34
5454,34
5455,35
5456,35
5457,35
5458,34
5459,34
5460,34
5461,34
5462,34
5463,34
5464,34
5465,34
5466,34
5467,34
5468,34
5469,34
5470,34
5471,35
5472,34
5473,34
5474,34
5475,34
5476,34
5477,34
5478,34
5479,34
5480,35
5481,35
5482,34
5483,34
5484,34
5485,34
5486,34
5487,34
5488,34
5489,35
5490,35
5491,35
5492,35
5493,35
5494,35
5495,35
5496,35
5497,35
5498,35
5499,35
5500,35
5501,35
5502,35
5503,35
5504,35
5505,35
5506,35
5507,35
5508,35
5509,35
5510,35
5511,35
5512,35
5513,35
5514,35
5515,35
5516,35
5517,35
5518,36
5519,35
5520,35
5521,35
5522,35
5523,35
5524,35
5525,35
5526,35
5527,35
5528,35
5529,35
5530,35
5531,35
5532,35
5533,35
5534,35
5535,36
5536,36
5537,36
5538,36
5539,36
5540,35
5541,35
5542,35
5543,35
5544,35
5545,35
5546,35
5547,35
5548,35
5549,36
5550,35
5551,35
5552,36
5553,36
5554,35
5555,35
5556,35
5557,35
5558,35
5559,35
5560,35
5561,35
5562,35
5563,35
5564,35
5565,35
5566,35
5567,35
5568,35
5569,36
5570,35
5571,35
5572,35
5573,35
5574,35
5575,35
5576,35
5577,35
5578,35
5579,35
5580,35
5581,35
5582,35
5583,35
5584,36
5585,35
5586,35
5587,35
5588,35
5589,35
5590,35
5591,35
5592,35
5593,35
5594,35
5595,35
5596,35
5597,35
5598,35
5599,35
5600,35
5601,35
5602,35
5603,35
5604,35
5605,35
5606,35
5607,35
5608,35
5609,35
5610,35
5611,35
5612,35
5613,35
5614,35
5615,35
5616,35
5617,35
5618,35
5619,35
5620,35
5621,35
5622,35
5623,35
5624,35
5625,36
5626,36
5627,35
5628,35
5629,35
5630,35
5631,35
5632,35
5633,35
5634,35
5635,35
5636,35
5637,35
5638,35
5639,35
5640,36
5641,36
5642,35
5643,36
5644,36
5645,36
5646,36
5647,35
5648,35
5649,35
5650,35
5651,35
5652,35
5653,35
5654,35
5655,35
5656,35
5657,35
5658,35
5659,35
5660,35
5661,35
5662,35
5663,35
5664,35
5665,35
5666,35
5667,35
5668,36
5669,36
5670,35
5671,35
5672,35
5673,35
5674,35
5675,35
5676,35
5677,35
5678,35
5679,35
5680,35
5681,35
5682,35
5683,35
5684,35
5685,35
5686,35
5687,35
5688,35
5689,35
5690,35
5691,35
5692,35
5693,35
5694,35
5695,35
5696,35
5697,35
5698,36
5699,35
5700,37
5701,37
5702,37
5703,37
5704,36
5705,36
5706,36
5707,36
5708,36
5709,36
5710,36
5711,37
5712,37
5713,37
5714,38
5715,38
5716,38
5717,37
5718,37
5719,37
5720,37
5721,37
5722,37
5723,37
5724,37
5725,37
5726,36
5727,36
5728,37
5729,37
5730,36
5731,36
5732,36
5733,36
5734,36
5735,36
5736,36
5737,36
5738,36
5739,36
5740,37
5741,37
5742,36
5743,36
5744,36
5745,36
5746,36
5747,36
5748,36
5749,36
5750,36
5751,36
5752,36
5753,36
5754,37
5755,36
5756,36
5757,36
5758,36
5759,36
5760,37
5761,37
5762,36
5763,36
5764,36
5765,36
5766,37
5767,36
5768,36
5769,35
5770,35
5771,35
5772,35
5773,35
5774,35
5775,35
5776,35
5777,35
5778,35
5779,35
5780,35
5781,35
5782,35
5783,35
5784,35
5785,35
5786,35
5787,35
5788,35
5789,35
5790,35
5791,35
5792,36
5793,36
5794,36
5795,36
5796,36
5797,36
5798,35
5799,35
5800,35
5801,35
5802,35
5803,35
5804,34
5805,34
5806,34
5807,34
5808,34
5809,34
5810,34
5811,34
5812,34
5813,34
5814,34
5815,34
5816,34
5817,34
5818,34
5819,35
5820,34
5821,34
5822,34
5823,34
5824,34
5825,34
5826,34
5827,34
5828,34
5829,34
5830,34
5831,34
5832,34
5833,34
5834,34
5835,34
5836,34
5837,34
5838,34
5839,34
5840,34
5841,34
5842,34
5843,34
5844,35
5845,34
5846,34
5847,34
5848,34
5849,34
5850,34
5851,34
5852,35
5853,35
5854,35
5855,34
5856,34
5857,34
5858,34
5859,34
5860,35
5861,34
5862,35
5863,35
5864,35
5865,35
5866,35
5867,35
5868,35
5869,34
5870,34
5871,34
5872,34
5873,34
5874,34
5875,34
5876,34
5877,34
5878,35
5879,34
5880,34
5881,34
5882,34
5883,34
5884,34
5885,34
5886,34
5887,34
5888,34
5889,34
5890,35
5891,34
5892,34
5893,34
5894,34
5895,34
5896,34
5897,34
5898,35
5899,34
5900,34
5901,34
5902,35
5903,34
5904,34
5905,34
5906,34
5907,34
5908,34
5909,34
5910,34
5911,34
5912,34
5913,34
5914,34
5915,34
5916,34
5917,34
5918,34
5919,34
5920,34
5921,34
5922,34
5923,34
5924,34
5925,34
5926,35
5927,35
5928,35
5929,34
5930,34
5931,34
5932,33
5933,33
5934,34
5935,33
5936,33
5937,33
5938,33
5939,33
5940,33
5941,33
5942,33
5943,33
5944,33
5945,33
5946,33
5947,33
5948,33
5949,33
5950,33
5951,33
5952,33
5953,34
5954,33
5955,33
5956,33
5957,34
5958,33
5959,33
5960,33
5961,33
5962,33
5963,34
5964,34
5965,34
5966,34
5967,34
5968,33
5969,33
5970,33
5971,33
5972,33
5973,33
5974,33
5975,33
5976,33
5977,33
5978,33
5979,33
5980,34
5981,34
5982,34
5983,34
5984,34
5985,34
5986,34
5987,34
5988,34
5989,34
5990,34
5991,34
5992,34
5993,34
5994,33
5995,33
5996,33
5997,33
5998,33
5999,33
6000,33
6001,33
6002,33
6003,33
6004,33
6005,34
6006,34
6007,33
6008,33
6009,33
6010,33
6011,33
6012,33
6013,33
6014,33
6015,33
6016,34
6017,34
6018,34
6019,34
6020,34
6021,33
6022,33
6023,33
6024,33
6025,33
6026,33
6027,33
6028,33
6029,33
6030,33
6031,33
6032,33
6033,33
6034,33
6035,33
6036,33
6037,33
6038,33
6039,33
6040,33
6041,33
6042,33
6043,33
6044,33
6045,33
6046,33
6047,33
6048,33
6049,33
6050,33
6051,33
6052,33
6053,33
6054,33
6055,33
6056,33
6057,33
6058,33
6059,33
6060,33
6061,33
6062,33
6063,33
6064,33
6065,33
6066,33
6067,33
6068,33
6069,33
6070,33
6071,33
6072,33
6073,33
6074,33
6075,33
6076,34
6077,34
6078,34
6079,34
6080,35
6081,35
6082,35
6083,34
6084,33
6085,33
6086,33
6087,33
6088,33
6089,33
6090,33
6091,33
6092,34
6093,33
6094,33
6095,33
6096,33
6097,33
6098,33
6099,33
6100,33
6101,33
6102,33
6103,33
6104,33
6105,33
6106,33
6107,33
6108,33
6109,33
6110,33
6111,34
6112,33
6113,33
6114,33
6115,33
6116,33
6117,33
6118,33
6119,33
6120,33
6121,33
6122,33
6123,34
6124,33
6125,33
6126,33
6127,33
6128,33
6129,33
6130,33
6131,33
6132,33
6133,33
6134,33
6135,33
6136,33
6137,33
6138,33
6139,33
6140,33
6141,33
6142,33
6143,33
6144,33
6145,33
6146,35
6147,35
6148,35
6149,35
6150,35
6151,35
6152,35
6153,35
6154,35
6155,34
6156,34
6157,35
6158,34
6159,34
6160,34
6161,34
6162,34
6163,34
6164,34
6165,35
6166,36
6167,36
6168,35
6169,35
6170,35
6171,35
6172,35
6173,35
6174,35
6175,35
6176,35
6177,34
6178,34
6179,33
6180,34
6181,34
6182,33
6183,33
6184,33
6185,33
6186,33
6187,33
6188,33
6189,33
6190,33
6191,33
6192,33
6193,33
6194,33
6195,33
6196,33
6197,33
6198,33
6199,33
6200,33
6201,33
6202,33
6203,33
6204,33
6205,33
6206,33
6207,33
6208,33
6209,33
6210,33
6211,33
6212,33
6213,33
6214,33
6215,33
6216,33
6217,33
6218,33
6219,33
6220,33
6221,33
6222,33
6223,33
6224,33
6225,33
6226,33
6227,33
6228,33
6229,34
6230,35
6231,35
6232,35
6233,35
6234,35
6235,35
6236,35
6237,35
6238,35
6239,34
6240,34
6241,34
6242,34
6243,34
6244,34
6245,34
6246,34
6247,34
6248,35
6249,35
6250,36
6251,34
6252,34
6253,34
6254,34
6255,34
6256,34
6257,34
6258,34
6259,34
6260,34
6261,35
6262,35
6263,35
6264,35
6265,35
6266,36
6267,35
6268,34
6269,34
6270,34
6271,34
6272,34
6273,34
6274,34
6275,34
6276,34
6277,34
6278,35
6279,35
6280,35
6281,34
6282,34
6283,34
6284,34
6285,35
6286,35
6287,35
6288,35
6289,36
6290,37
6291,35
6292,35
6293,35
6294,35
6295,35
6296,35
6297,34
6298,34
6299,34
6300,34
6301,34
6302,34
6303,34
6304,34
6305,34
6306,34
6307,34
6308,34
6309,34
6310,34
6311,34
6312,34
6313,35
6314,34
6315,34
6316,34
6317,34
6318,34
6319,34
6320,34
6321,35
6322,34
6323,34
6324,34
6325,35
6326,34
6327,34
6328,34
6329,34
6330,34
6331,34
6332,34
6333,34
6334,34
6335,34
6336,34
6337,34
6338,34
6339,34
6340,34
6341,34
6342,34
6343,34
6344,34
6345,34
6346,34
6347,34
6348,35
6349,34
6350,34
6351,34
6352,34
6353,34
6354,34
6355,34
6356,34
6357,34
6358,34
6359,34
6360,34
6361,34
6362,34
6363,34
6364,34
6365,34
6366,34
6367,35
6368,35
6369,35
6370,34
6371,34
6372,34
6373,34
6374,34
6375,34
6376,34
6377,34
6378,34
6379,34
6380,34
6381,34
6382,34
6383,34
6384,34
6385,34
6386,34
6387,35
6388,34
6389,34
6390,34
6391,34
6392,34
6393,35
6394,34
6395,34
6396,34
6397,34
6398,34
6399,35
6400,36
6401,35
6402,35
6403,35
6404,35
6405,35
6406,35
6407,36
6408,35
6409,35
6410,34
6411,34
6412,34
6413,34
6414,34
6415,34
6416,34
6417,34
6418,34
6419,34
6420,34
6421,34
6422,34
6423,34
6424,34
6425,34
6426,34
6427,35
6428,35
6429,35
6430,35
6431,35
6432,35
6433,35
6434,35
6435,35
6436,35
6437,35
6438,35
6439,35
6440,35
6441,34
6442,34
6443,34
6444,34
6445,34
6446,34
6447,34
6448,34
6449,34
6450,34
6451,34
6452,34
6453,34
6454,34
6455,34
6456,35
6457,35
6458,34
6459,34
6460,34
6461,34
6462,34
6463,34
6464,34
6465,34
6466,35
6467,35
6468,35
6469,34
6470,34
6471,34
6472,34
6473,34
6474,34
6475,34
6476,34
6477,34
6478,34
6479,34
6480,34
6481,34
6482,34
6483,34
6484,34
6485,34
6486,34
6487,34
6488,34
6489,34
6490,34
6491,34
6492,35
6493,35
6494,36
6495,35
6496,35
6497,35
6498,35
6499,35
6500,35
6501,35
6502,36
6503,36
6504,36
6505,36
6506,35
6507,35
6508,35
6509,35
6510,35
6511,35
6512,35
6513,35
6514,35
6515,35
6516,35
6517,35
6518,35
6519,35
6520,35
6521,35
6522,35
6523,34
6524,34
6525,34
6526,34
6527,34
6528,34
6529,34
6530,34
6531,34
6532,34
6533,34
6534,34
6535,34
6536,34
6537,34
6538,34
6539,35
6540,34
6541,34
6542,34
6543,34
6544,34
6545,34
6546,34
6547,34
6548,34
6549,34
6550,34
6551,35
6552,35
6553,35
6554,35
6555,35
6556,35
6557,35
6558,35
6559,35
6560,35
6561,35
6562,35
6563,35
6564,35
6565,35
6566,35
6567,35
6568,35
6569,35
6570,35
6571,35
6572,35
6573,35
6574,35
6575,35
6576,35
6577,35
6578,35
6579,35
6580,35
6581,35
6582,35
6583,35
6584,34
6585,34
6586,34
6587,34
6588,34
6589,34
6590,34
6591,34
6592,34
6593,34
6594,34
6595,34
6596,34
6597,34
6598,34
6599,35
6600,35
6601,35
6602,34
6603,34
6604,35
6605,34
6606,34
6607,34
6608,34
6609,34
6610,34
6611,34
6612,34
6613,34
6614,34
6615,34
6616,34
6617,34
6618,34
6619,34
6620,34
6621,34
6622,34
6623,34
6624,34
6625,34
6626,34
6627,34
6628,34
6629,34
6630,34
6631,34
6632,34
6633,34
6634,34
6635,34
6636,34
6637,34
6638,34
6639,34
6640,34
6641,35
6642,36
6643,35
6644,35
6645,35
6646,36
6647,36
6648,36
6649,35
6650,35
6651,35
6652,35
6653,35
6654,34
6655,34
6656,34
6657,34
6658,34
6659,34
6660,34
6661,34
6662,34
6663,34
6664,35
6665,36
6666,35
6667,35
6668,35
6669,35
6670,35
6671,34
6672,34
6673,34
6674,34
6675,34
6676,34
6677,34
6678,34
6679,34
6680,34
6681,34
6682,34
6683,35
6684,34
6685,34
6686,34
6687,34
6688,34
6689,34
6690,34
6691,34
6692,34
6693,34
6694,34
6695,35
6696,35
6697,35
6698,35
6699,36
6700,35
6701,35
6702,35
6703,34
6704,34
6705,34
6706,34
6707,34
6708,34
6709,34
6710,34
6711,35
6712,35
6713,35
6714,35
6715,35
6716,35
6717,34
6718,34
6719,34
6720,34
6721,34
6722,34
6723,34
6724,34
6725,34
6726,34
6727,34
6728,35
6729,34
6730,34
6731,34
6732,34
6733,34
6734,34
6735,34
6736,34
6737,34
6738,34
6739,35
6740,35
6741,34
6742,34
6743,34
6744,34
6745,34
6746,34
6747,34
6748,34
6749,34
6750,34
6751,34
6752,34
6753,34
6754,34
6755,34
6756,34
6757,34
6758,34
6759,34
6760,34
6761,34
6762,34
6763,34
6764,34
6765,34
6766,34
6767,34
6768,34
6769,34
6770,34
6771,34
6772,34
6773,34
6774,34
6775,34
6776,34
6777,34
6778,34
6779,34
6780,34
6781,34
6782,34
6783,34
6784,35
6785,35
6786,35
6787,35
6788,35
6789,35
6790,35
6791,35
6792,36
6793,35
6794,35
6795,35
6796,35
6797,35
6798,35
6799,35
6800,35
6801,35
6802,35
6803,35
6804,35
6805,35
6806,35
6807,36
6808,36
6809,35
6810,35
6811,35
6812,35
6813,34
6814,34
6815,34
6816,34
6817,34
6818,34
6819,34
6820,34
6821,34
6822,34
6823,34
6824,34
6825,34
6826,34
6827,34
6828,34
6829,34
6830,34
6831,34
6832,34
6833,34
6834,34
6835,34
6836,34
6837,34
6838,34
6839,34
6840,34
6841,34
6842,35
6843,34
6844,34
6845,34
6846,34
6847,35
6848,34
6849,34
6850,34
6851,34
6852,34
6853,34
6854,34
6855,35
6856,35
6857,35
6858,35
6859,35
6860,35
6861,35
6862,35
6863,35
6864,35
6865,35
6866,35
6867,35
6868,35
6869,36
6870,36
6871,36
6872,36
6873,35
6874,35
6875,35
6876,35
6877,35
6878,35
6879,35
6880,35
6881,35
6882,35
6883,35
6884,35
6885,35
6886,35
6887,35
6888,35
6889,35
6890,35
6891,35
6892,35
6893,35
6894,35
6895,35
6896,35
6897,35
6898,36
6899,36
6900,36
6901,36
6902,36
6903,36
6904,36
6905,36
6906,36
6907,36
6908,36
6909,37
6910,36
6911,36
6912,37
6913,36
6914,37
6915,36
6916,35
6917,35
6918,35
6919,35
6920,35
6921,35
6922,35
6923,36
6924,36
6925,36
6926,35
6927,35
6928,35
6929,35
6930,35
6931,35
6932,35
6933,36
6934,35
6935,35
6936,35
6937,36
6938,35
6939,35
6940,35
6941,35
6942,35
6943,35
6944,35
6945,35
6946,35
6947,35
6948,35
6949,35
6950,35
6951,35
6952,34
6953,34
6954,35
6955,35
6956,35
6957,35
6958,35
6959,35
6960,35
6961,35
6962,35
6963,35
6964,35
6965,35
6966,35
6967,35
6968,35
6969,35
6970,35
6971,35
6972,35
6973,35
6974,35
6975,35
6976,36
6977,35
6978,35
6979,35
6980,35
6981,35
6982,35
6983,35
6984,35
6985,36
6986,36
6987,36
6988,36
6989,36
6990,36
6991,36
6992,36
6993,36
6994,36
6995,36
6996,36
6997,36
6998,36
6999,36
7000,36
7001,36
7002,36
7003,36
7004,37
7005,37
7006,37
7007,36
7008,36
7009,36
7010,36
7011,36
7012,37
7013,37
7014,37
7015,36
7016,37
7017,37
7018,36
7019,36
7020,36
7021,36
7022,36
7023,36
7024,36
7025,36
7026,36
7027,36
7028,36
7029,36
7030,36
7031,36
7032,36
7033,36
7034,36
7035,36
7036,36
7037,38
7038,37
7039,37
7040,36
7041,36
7042,36
7043,37
7044,37
7045,36
7046,36
7047,36
7048,36
7049,36
7050,36
7051,36
7052,36
7053,36
7054,36
7055,36
7056,36
7057,36
7058,36
7059,36
7060,36
7061,37
7062,38
7063,37
7064,37
7065,36
7066,36
7067,36
7068,36
7069,36
7070,36
7071,36
7072,37
7073,37
7074,37
7075,37
7076,37
7077,36
7078,36
7079,36
7080,36
7081,36
7082,36
7083,36
7084,36
7085,36
7086,36
7087,36
7088,36
7089,36
7090,36
7091,36
7092,36
7093,36
7094,36
7095,37
7096,37
7097,36
7098,36
7099,36
7100,36
7101,36
7102,36
7103,36
7104,37
7105,36
7106,36
7107,36
7108,36
7109,36
7110,36
7111,37
7112,36
7113,36
7114,36
7115,36
7116,36
7117,36
7118,36
7119,36
7120,36
7121,36
7122,36
7123,36
7124,37
7125,37
7126,37
7127,37
7128,37
7129,37
7130,37
7131,37
7132,37
7133,37
7134,37
7135,36
7136,36
7137,36
7138,36
7139,36
7140,36
7141,36
7142,36
7143,36
7144,36
7145,36
7146,37
7147,36
7148,36
7149,36
7150,36
7151,36
7152,36
7153,36
7154,35
7155,35
7156,35
7157,35
7158,35
7159,35
7160,35
7161,35
7162,35
7163,35
7164,35
7165,35
7166,35
7167,35
7168,35
7169,35
7170,35
7171,35
7172,35
7173,35
7174,35
7175,35
7176,35
7177,35
7178,35
7179,36
7180,35
7181,35
7182,36
7183,36
7184,36
7185,36
7186,36
7187,35
7188,35
7189,35
7190,35
7191,35
7192,35
7193,35
7194,35
7195,35
7196,35
7197,35
7198,35
7199,35
7200,36
7201,35
7202,35
7203,35
7204,35
7205,35
7206,35
7207,35
7208,35
7209,35
7210,35
7211,35
7212,35
7213,35
7214,35
7215,36
7216,36
7217,35
7218,35
7219,36
7220,36
7221,35
7222,35
7223,35
7224,35
7225,36
7226,36
7227,35
7228,35
7229,35
7230,35
7231,35
7232,35
7233,35
7234,35
7235,35
7236,35
7237,35
7238,35
7239,35
7240,35
7241,35
7242,35
7243,35
7244,35
7245,35
7246,35
7247,35
7248,35
7249,35
7250,35
7251,35
7252,35
7253,35
7254,35
7255,35
7256,35
7257,35
7258,35
7259,35
7260,35
7261,35
7262,35
7263,35
7264,35
7265,35
7266,35
7267,35
7268,35
7269,35
7270,35
7271,35
7272,36
7273,35
7274,35
7275,35
7276,35
7277,35
7278,35
7279,35
7280,35
7281,35
7282,35
7283,35
7284,35
7285,35
7286,35
7287,35
7288,35
7289,35
7290,35
7291,35
7292,35
7293,35
7294,35
7295,35
7296,35
7297,35
7298,35
7299,35
7300,35
7301,35
7302,35
7303,35
7304,35
7305,35
7306,35
7307,35
7308,35
7309,35
7310,35
7311,35
7312,36
7313,34
7314,34
7315,34
7316,34
7317,35
7318,35
7319,35
7320,35
7321,34
7322,34
7323,34
7324,35
7325,35
7326,35
7327,35
7328,36
7329,36
7330,35
7331,35
7332,35
7333,35
7334,35
7335,34
7336,34
7337,34
7338,34
7339,34
7340,34
7341,34
7342,34
7343,34
7344,35
7345,34
7346,34
7347,34
7348,34
7349,34
7350,34
7351,34
7352,34
7353,34
7354,34
7355,34
7356,34
7357,34
7358,34
7359,34
7360,35
7361,35
7362,34
7363,34
7364,34
7365,34
7366,34
7367,34
7368,34
7369,34
7370,34
7371,34
7372,34
7373,34
7374,34
7375,34
7376,34
7377,34
7378,34
7379,34
7380,34
7381,34
7382,34
7383,34
7384,34
7385,34
7386,34
7387,34
7388,34
7389,34
7390,34
7391,34
7392,34
7393,34
7394,34
7395,34
7396,34
7397,34
7398,34
7399,34
7400,34
7401,34
7402,34
7403,34
7404,34
7405,34
7406,34
7407,34
7408,34
7409,34
7410,34
7411,34
7412,34
7413,34
7414,34
7415,34
7416,34
7417,34
7418,34
7419,34
7420,34
7421,34
7422,34
7423,34
7424,34
7425,34
7426,34
7427,34
7428,34
7429,34
7430,34
7431,34
7432,34
7433,34
7434,34
7435,34
7436,34
7437,34
7438,34
7439,34
7440,34
7441,34
7442,34
7443,34
7444,34
7445,34
7446,34
7447,34
7448,34
7449,34
7450,34
7451,34
7452,34
7453,34
7454,34
7455,34
7456,34
7457,34
7458,34
7459,34
7460,34
7461,34
7462,35
7463,35
7464,35
7465,35
7466,35
7467,36
7468,35
7469,35
7470,35
7471,34
7472,34
7473,34
7474,34
7475,34
7476,34
7477,34
7478,34
7479,35
7480,34
7481,34
7482,34
7483,34
7484,34
7485,34
7486,34
7487,34
7488,34
7489,34
7490,34
7491,34
7492,34
7493,34
7494,35
7495,34
7496,34
7497,34
7498,34
7499,34
7500,34
7501,34
7502,34
7503,34
7504,35
7505,34
7506,34
7507,34
7508,35
7509,36
7510,36
7511,36
7512,35
7513,34
7514,34
7515,34
7516,34
7517,34
7518,34
7519,34
7520,34
7521,34
7522,34
7523,34
7524,34
7525,34
7526,34
7527,34
7528,34
7529,34
7530,34
7531,34
7532,34
7533,34
7534,34
7535,34
7536,34
7537,34
7538,34
7539,34
7540,34
7541,34
7542,34
7543,34
7544,34
7545,35
7546,35
7547,35
7548,35
7549,35
7550,35
7551,35
7552,36
7553,35
7554,35
7555,36
7556,36
7557,35
7558,35
7559,37
7560,36
7561,36
7562,36
7563,36
7564,36
7565,36
7566,36
7567,35
7568,35
7569,35
7570,35
7571,36
7572,35
7573,35
7574,35
7575,35
7576,36
7577,36
7578,36
7579,36
7580,36
7581,36
7582,35
7583,35
7584,35
7585,35
7586,35
7587,35
7588,35
7589,35
7590,35
7591,35
7592,35
7593,35
7594,35
7595,35
7596,35
7597,35
7598,35
7599,35
7600,35
7601,35
7602,35
7603,35
7604,36
7605,36
7606,36
7607,36
7608,36
7609,36
7610,35
7611,35
7612,35
7613,35
7614,35
7615,35
7616,35
7617,35
7618,35
7619,36
7620,36
7621,37
7622,36
7623,36
7624,36
7625,36
7626,36
7627,36
7628,36
7629,36
7630,36
7631,36
7632,36
7633,36
7634,36
7635,36
7636,36
7637,36
7638,37
7639,37
7640,36
7641,36
7642,36
7643,36
7644,36
7645,36
7646,36
7647,36
7648,36
7649,36
7650,36
7651,36
7652,36
7653,36
7654,36
7655,36
7656,36
7657,36
7658,36
7659,36
7660,36
7661,36
7662,36
7663,36
7664,36
7665,36
7666,36
7667,36
7668,36
7669,36
7670,36
7671,36
7672,36
7673,36
7674,36
7675,36
7676,36
7677,36
7678,37
7679,37
7680,37
7681,37
7682,36
7683,36
7684,36
7685,36
7686,36
7687,36
7688,36
7689,36
7690,36
7691,37
7692,36
7693,36
7694,36
7695,37
7696,37
7697,38
7698,37
7699,36
7700,36
7701,36
7702,37
7703,37
7704,36
7705,36
7706,36
7707,36
7708,36
7709,36
7710,36
7711,36
7712,36
7713,36
7714,36
7715,36
7716,36
7717,36
7718,36
7719,36
7720,36
7721,36
7722,36
7723,36
7724,36
7725,37
7726,37
7727,36
7728,36
7729,37
7730,37
7731,36
7732,36
7733,36
7734,36
7735,36
7736,36
7737,36
7738,36
7739,36
7740,36
7741,36
7742,36
7743,36
7744,36
7745,36
7746,36
7747,36
7748,36
7749,36
7750,36
7751,36
7752,36
7753,36
7754,37
7755,36
7756,36
7757,36
7758,36
7759,36
7760,36
7761,36
7762,36
7763,36
7764,36
7765,36
7766,36
7767,36
7768,37
7769,37
7770,37
7771,36
7772,36
7773,36
7774,36
7775,36
7776,36
7777,36
7778,36
7779,36
7780,36
7781,36
7782,36
7783,36
7784,36
7785,36
7786,36
7787,37
7788,37
7789,37
7790,37
7791,37
7792,37
7793,36
7794,36
7795,36
7796,36
7797,36
7798,36
7799,36
7800,36
7801,36
7802,36
7803,36
7804,37
7805,37
7806,37
7807,37
7808,36
7809,36
7810,36
7811,36
7812,36
7813,36
7814,36
7815,36
7816,36
7817,36
7818,36
7819,36
7820,36
7821,36
7822,37
7823,36
7824,36
7825,36
7826,36
7827,36
7828,36
7829,37
7830,36
7831,36
7832,36
7833,36
7834,36
7835,36
7836,36
7837,37
7838,36
7839,36
7840,37
7841,36
7842,36
7843,36
7844,36
7845,36
7846,36
7847,36
7848,36
7849,36
7850,36
7851,36
7852,36
7853,36
7854,36
7855,36
7856,37
7857,37
7858,36
7859,36
7860,37
7861,37
7862,36
7863,37
7864,36
7865,36
7866,36
7867,36
7868,36
7869,36
7870,36
7871,36
7872,36
7873,36
7874,36
7875,36
7876,36
7877,37
7878,38
7879,38
7880,38
7881,36
7882,36
7883,36
7884,36
7885,36
7886,36
7887,36
7888,36
7889,36
7890,37
7891,37
7892,37
7893,37
7894,37
7895,36
7896,36
7897,36
7898,36
7899,36
7900,36
7901,36
7902,36
7903,36
7904,36
7905,36
7906,36
7907,36
7908,37
7909,37
7910,36
7911,36
7912,36
7913,37
7914,38
7915,36
7916,36
7917,36
7918,36
7919,36
7920,36
7921,36
7922,36
7923,36
7924,36
7925,36
7926,36
7927,36
7928,36
7929,36
7930,36
7931,36
7932,36
7933,36
7934,36
7935,36
7936,36
7937,36
7938,36
7939,37
7940,37
7941,36
7942,36
7943,36
7944,36
7945,36
7946,36
7947,36
7948,36
7949,36
7950,36
7951,36
7952,36
7953,36
7954,36
7955,36
7956,36
7957,36
7958,36
7959,36
7960,36
7961,36
7962,36
7963,36
7964,36
7965,36
7966,36
7967,36
7968,36
7969,36
7970,37
7971,37
7972,36
7973,36
7974,36
7975,36
7976,36
7977,36
7978,36
7979,36
7980,36
7981,37
7982,36
7983,36
7984,36
7985,36
7986,36
7987,36
7988,36
7989,36
7990,36
7991,37
7992,37
7993,37
7994,36
7995,36
7996,37
7997,37
7998,37
7999,37
8000,37
8001,38
8002,39
8003,38
8004,38
8005,37
8006,37
8007,37
8008,36
8009,36
8010,36
8011,37
8012,37
8013,37
8014,37
8015,37
8016,37
8017,37
8018,37
8019,37
8020,37
8021,37
8022,37
8023,37
8024,37
8025,36
8026,36
8027,36
8028,36
8029,37
8030,37
8031,38
8032,38
8033,37
8034,37
8035,37
8036,37
8037,37
8038,37
8039,37
8040,37
8041,37
8042,37
8043,37
8044,37
8045,37
8046,37
8047,37
8048,37
8049,37
8050,39
8051,38
8052,38
8053,37
8054,37
8055,36
8056,36
8057,36
8058,36
8059,36
8060,36
8061,36
8062,37
8063,36
8064,36
8065,35
8066,35
8067,35
8068,35
8069,35
8070,35
8071,35
8072,35
8073,36
8074,35
8075,35
8076,35
8077,35
8078,35
8079,35
8080,35
8081,35
8082,35
8083,35
8084,36
8085,36
8086,35
8087,35
8088,35
8089,35
8090,36
8091,36
8092,36
8093,36
8094,36
8095,36
8096,36
8097,36
8098,36
8099,36
8100,36
8101,36
8102,38
8103,36
8104,36
8105,36
8106,37
8107,37
8108,36
8109,36
8110,36
8111,36
8112,36
8113,36
8114,36
8115,36
8116,37
8117,37
8118,37
8119,37
8120,37
8121,37
8122,37
8123,37
8124,36
8125,36
8126,36
8127,36
8128,36
8129,36
8130,36
8131,36
8132,36
8133,36
8134,37
8135,37
8136,37
8137,37
8138,37
8139,37
8140,37
8141,37
8142,37
8143,37
8144,37
8145,37
8146,38
8147,37
8148,37
8149,37
8150,37
8151,37
8152,37
8153,37
8154,37
8155,37
8156,37
8157,37
8158,37
8159,37
8160,37
8161,37
8162,37
8163,37
8164,37
8165,37
8166,37
8167,37
8168,37
8169,37
8170,37
8171,37
8172,37
8173,37
8174,37
8175,36
8176,36
8177,36
8178,36
8179,36
8180,36
8181,36
8182,37
8183,37
8184,38
8185,38
8186,39
8187,39
8188,38
8189,37
8190,37
8191,37
8192,37
8193,37
8194,37
8195,37
8196,37
8197,37
8198,37
8199,37
8200,37
8201,37
8202,37
8203,38
8204,38
8205,38
8206,38
8207,39
8208,37
8209,37
8210,37
8211,37
8212,37
8213,37
8214,37
8215,37
8216,37
8217,37
8218,37
8219,37
8220,37
8221,37
8222,37
8223,37
8224,37
8225,37
8226,37
8227,37
8228,37
8229,37
8230,37
8231,37
8232,37
8233,36
8234,36
8235,36
8236,36
8237,36
8238,37
8239,39
8240,39
8241,39
8242,38
8243,37
8244,37
8245,37
8246,37
8247,37
8248,37
8249,37
8250,37
8251,37
8252,37
8253,37
8254,37
8255,37
8256,37
8257,37
8258,37
8259,37
8260,37
8261,37
8262,37
8263,37
8264,37
8265,37
8266,37
8267,37
8268,38
8269,38
8270,37
8271,37
8272,37
8273,37
8274,37
8275,37
8276,37
8277,37
8278,37
8279,37
8280,37
8281,37
8282,37
8283,37
8284,37
8285,37
8286,37
8287,37
8288,37
8289,37
8290,37
8291,37
8292,37
8293,38
8294,38
8295,38
8296,38
8297,38
8298,38
8299,38
8300,39
8301,38
8302,38
8303,38
8304,38
8305,37
8306,37
8307,37
8308,37
8309,37
8310,37
8311,37
8312,37
8313,37
8314,37
8315,37
8316,37
8317,38
8318,38
8319,38
8320,38
8321,39
8322,38
8323,38
8324,38
8325,38
8326,38
8327,37
8328,37
8329,37
8330,37
8331,37
8332,37
8333,37
8334,38
8335,38
8336,38
8337,38
8338,38
8339,38
8340,38
8341,38
8342,38
8343,38
8344,38
8345,39
8346,39
8347,39
8348,38
8349,38
8350,38
8351,38
8352,38
8353,39
8354,39
8355,39
8356,39
8357,39
8358