1,3
2,3
3,3
4,3
5,3
6,3
7,4
8,4
9,4
10,4
11,4
12,4
13,4
14,4
15,5
16,4
17,4
18,4
19,4
20,4
21,4
22,4
23,4
24,4
25,4
26,4
27,4
28,4
29,4
30,4
31,4
32,4
33,4
34,4
35,4
36,4
37,4
38,5
39,5
40,5
41,5
42,5
43,5
44,5
45,5
46,5
47,5
48,5
49,5
50,5
51,5
52,5
53,5
54,5
55,5
56,5
57,5
58,5
59,5
60,5
61,5
62,5
63,5
64,5
65,5
66,5
67,5
68,5
69,5
70,5
71,5
72,5
73,6
74,5
75,5
76,5
77,5
78,6
79,6
80,6
81,6
82,6
83,6
84,6
85,6
86,6
87,6
88,6
89,6
90,6
91,6
92,6
93,6
94,6
95,6
96,6
97,6
98,6
99,6
100,6
101,6
102,6
103,6
104,6
105,6
106,6
107,6
108,6
109,6
110,6
111,6
112,6
113,6
114,6
115,6
116,6
117,6
118,6
119,6
120,6
121,6
122,6
123,6
124,6
125,6
126,6
127,6
128,6
129,6
130,6
131,6
132,6
133,6
134,6
135,6
136,6
137,6
138,6
139,6
140,6
141,6
142,7
143,7
144,6
145,6
146,6
147,6
148,7
149,7
150,7
151,7
152,7
153,7
154,7
155,7
156,7
157,7
158,7
159,7
160,7
161,7
162,7
163,7
164,7
165,7
166,7
167,8
168,7
169,7
170,7
171,7
172,7
173,8
174,8
175,8
176,8
177,8
178,8
179,8
180,8
181,8
182,8
183,8
184,9
185,9
186,9
187,9
188,9
189,9
190,10
191,11
192,11
193,10
194,9
195,9
196,9
197,9
198,9
199,9
200,9
201,9
202,9
203,9
204,9
205,9
206,9
207,9
208,9
209,9
210,9
211,9
212,10
213,10
214,10
215,10
216,10
217,10
218,10
219,10
220,10
221,10
222,10
223,10
224,10
225,10
226,10
227,10
228,10
229,10
230,10
231,10
232,10
233,10
234,10
235,10
236,10
237,10
238,10
239,10
240,10
241,10
242,10
243,11
244,11
245,10
246,10
247,10
248,10
249,10
250,10
251,10
252,10
253,10
254,10
255,10
256,10
257,10
258,10
259,10
260,10
261,10
262,10
263,10
264,10
265,10
266,11
267,11
268,11
269,10
270,10
271,10
272,10
273,10
274,10
275,10
276,10
277,10
278,10
279,10
280,11
281,11
282,11
283,10
284,10
285,10
286,10
287,10
288,10
289,10
290,10
291,10
292,10
293,11
294,10
295,10
296,10
297,10
298,10
299,10
300,10
301,10
302,10
303,10
304,10
305,10
306,10
307,10
308,10
309,10
310,10
311,10
312,10
313,10
314,10
315,10
316,10
317,11
318,11
319,11
320,11
321,11
322,11
323,11
324,11
325,11
326,11
327,11
328,11
329,11
330,11
331,11
332,11
333,11
334,11
335,11
336,11
337,11
338,11
339,11
340,12
341,12
342,12
343,12
344,12
345,12
346,12
347,12
348,12
349,12
350,12
351,12
352,12
353,12
354,13
355,13
356,13
357,13
358,12
359,12
360,12
361,12
362,12
363,12
364,12
365,13
366,12
367,12
368,12
369,12
370,12
371,12
372,12
373,12
374,12
375,12
376,12
377,12
378,12
379,12
380,12
381,12
382,12
383,12
384,12
385,12
386,12
387,12
388,12
389,12
390,12
391,12
392,12
393,12
394,12
395,12
396,12
397,12
398,13
399,12
400,12
401,12
402,12
403,12
404,12
405,12
406,12
407,12
408,12
409,12
410,12
411,13
412,12
413,12
414,12
415,12
416,13
417,12
418,12
419,13
420,12
421,12
422,12
423,12
424,12
425,12
426,12
427,12
428,12
429,12
430,12
431,12
432,12
433,12
434,12
435,12
436,12
437,12
438,12
439,12
440,13
441,13
442,14
443,12
444,12
445,12
446,12
447,12
448,12
449,12
450,12
451,12
452,12
453,12
454,12
455,12
456,12
457,12
458,13
459,13
460,13
461,13
462,13
463,13
464,12
465,12
466,12
467,12
468,12
469,12
470,12
471,12
472,13
473,13
474,12
475,12
476,12
477,12
478,12
479,12
480,12
481,12
482,12
483,12
484,12
485,12
486,12
487,12
488,12
489,12
490,12
491,12
492,12
493,12
494,12
495,12
496,12
497,12
498,12
499,12
500,12
501,12
502,12
503,12
504,12
505,12
506,12
507,12
508,12
509,13
510,14
511,14
512,14
513,14
514,14
515,14
516,14
517,14
518,15
519,13
520,13
521,14
522,14
523,14
524,14
525,13
526,13
527,13
528,13
529,13
530,13
531,14
532,14
533,13
534,13
535,13
536,13
537,13
538,13
539,13
540,13
541,13
542,13
543,14
544,14
545,13
546,13
547,13
548,14
549,13
550,13
551,13
552,13
553,14
554,13
555,13
556,13
557,13
558,13
559,13
560,13
561,13
562,13
563,13
564,13
565,13
566,13
567,13
568,13
569,13
570,13
571,13
572,14
573,14
574,14
575,14
576,13
577,13
578,14
579,14
580,13
581,13
582,14
583,15
584,14
585,14
586,14
587,14
588,14
589,14
590,14
591,15
592,15
593,15
594,15
595,15
596,15
597,15
598,15
599,15
600,14
601,14
602,14
603,14
604,14
605,14
606,14
607,14
608,15
609,14
610,16
611,15
612,15
613,15
614,14
615,14
616,14
617,14
618,14
619,14
620,14
621,15
622,15
623,15
624,15
625,14
626,15
627,15
628,16
629,16
630,16
631,15
632,15
633,15
634,15
635,15
636,15
637,16
638,15
639,15
640,15
641,15
642,14
643,14
644,14
645,14
646,14
647,14
648,14
649,14
650,14
651,14
652,14
653,14
654,14
655,14
656,14
657,14
658,14
659,14
660,14
661,14
662,14
663,14
664,14
665,14
666,14
667,14
668,14
669,14
670,14
671,14
672,14
673,14
674,14
675,14
676,14
677,14
678,14
679,14
680,14
681,14
682,14
683,14
684,14
685,14
686,14
687,14
688,14
689,14
690,14
691,14
692,14
693,14
694,14
695,14
696,14
697,14
698,14
699,14
700,14
701,14
702,14
703,14
704,14
705,14
706,14
707,15
708,15
709,15
710,15
711,15
712,15
713,15
714,15
715,15
716,15
717,15
718,15
719,15
720,15
721,15
722,15
723,15
724,15
725,15
726,15
727,15
728,15
729,15
730,15
731,15
732,15
733,15
734,15
735,15
736,15
737,15
738,15
739,16
740,15
741,15
742,15
743,15
744,15
745,15
746,15
747,15
748,15
749,15
750,15
751,15
752,15
753,15
754,15
755,15
756,15
757,16
758,15
759,15
760,15
761,15
762,15
763,15
764,15
765,15
766,15
767,15
768,15
769,15
770,15
771,15
772,15
773,15
774,15
775,15
776,15
777,15
778,15
779,15
780,15
781,15
782,15
783,15
784,15
785,16
786,16
787,16
788,15
789,15
790,15
791,15
792,15
793,15
794,15
795,15
796,15
797,15
798,15
799,15
800,15
801,15
802,15
803,15
804,15
805,15
806,15
807,15
808,15
809,15
810,15
811,15
812,15
813,15
814,15
815,15
816,15
817,15
818,16
819,15
820,15
821,15
822,15
823,16
824,16
825,16
826,16
827,16
828,16
829,16
830,16
831,16
832,16
833,16
834,16
835,16
836,16
837,16
838,16
839,16
840,16
841,17
842,17
843,16
844,16
845,16
846,16
847,16
848,16
849,16
850,16
851,16
852,16
853,16
854,16
855,16
856,16
857,16
858,16
859,16
860,16
861,16
862,16
863,16
864,16
865,16
866,16
867,16
868,16
869,16
870,16
871,16
872,16
873,16
874,16
875,16
876,16
877,16
878,16
879,16
880,16
881,16
882,16
883,16
884,16
885,16
886,16
887,16
888,16
889,16
890,17
891,16
892,16
893,16
894,16
895,16
896,16
897,16
898,16
899,16
900,16
901,16
902,16
903,16
904,16
905,17
906,17
907,17
908,16
909,16
910,16
911,16
912,16
913,16
914,16
915,16
916,16
917,16
918,16
919,16
920,16
921,17
922,17
923,17
924,17
925,17
926,17
927,17
928,17
929,17
930,17
931,17
932,17
933,17
934,17
935,17
936,17
937,17
938,17
939,17
940,17
941,17
942,17
943,17
944,17
945,17
946,17
947,19
948,19
949,19
950,19
951,19
952,19
953,19
954,19
955,19
956,19
957,19
958,19
959,18
960,18
961,18
962,18
963,18
964,18
965,18
966,18
967,18
968,18
969,18
970,18
971,18
972,18
973,18
974,18
975,18
976,18
977,18
978,18
979,19
980,20
981,20
982,19
983,19
984,19
985,19
986,18
987,18
988,18
989,18
990,19
991,20
992,20
993,19
994,19
995,19
996,19
997,18
998,18
999,18
1000,18
1001,18
1002,18
1003,18
1004,18
1005,18
1006,18
1007,18
1008,18
1009,19
1010,19
1011,19
1012,19
1013,19
1014,19
1015,19
1016,19
1017,20
1018,19
1019,19
1020,19
1021,19
1022,19
1023,20
1024,20
1025,20
1026,20
1027,19
1028,19
1029,19
1030,19
1031,19
1032,19
1033,19
1034,19
1035,19
1036,19
1037,19
1038,19
1039,20
1040,20
1041,20
1042,20
1043,20
1044,20
1045,19
1046,19
1047,19
1048,19
1049,19
1050,19
1051,19
1052,19
1053,19
1054,19
1055,19
1056,19
1057,19
1058,19
1059,20
1060,20
1061,20
1062,20
1063,20
1064,20
1065,20
1066,20
1067,20
1068,20
1069,20
1070,20
1071,20
1072,20
1073,20
1074,20
1075,20
1076,20
1077,20
1078,20
1079,20
1080,20
1081,20
1082,20
1083,20
1084,20
1085,20
1086,20
1087,21
1088,21
1089,21
1090,21
1091,21
1092,21
1093,21
1094,21
1095,21
1096,21
1097,21
1098,21
1099,21
1100,21
1101,21
1102,21
1103,21
1104,22
1105,21
1106,21
1107,21
1108,21
1109,21
1110,21
1111,21
1112,21
1113,20
1114,20
1115,20
1116,20
1117,21
1118,21
1119,21
1120,21
1121,21
1122,20
1123,20
1124,19
1125,19
1126,19
1127,19
1128,19
1129,19
1130,19
1131,20
1132,20
1133,19
1134,19
1135,19
1136,19
1137,21
1138,22
1139,21
1140,20
1141,20
1142,20
1143,19
1144,19
1145,19
1146,19
1147,19
1148,19
1149,19
1150,19
1151,19
1152,19
1153,19
1154,20
1155,20
1156,19
1157,19
1158,19
1159,19
1160,19
1161,19
1162,19
1163,20
1164,19
1165,19
1166,19
1167,19
1168,19
1169,19
1170,19
1171,19
1172,19
1173,19
1174,19
1175,19
1176,19
1177,19
1178,19
1179,19
1180,19
1181,19
1182,19
1183,20
1184,19
1185,19
1186,19
1187,19
1188,19
1189,19
1190,19
1191,19
1192,19
1193,19
1194,19
1195,19
1196,19
1197,19
1198,19
1199,19
1200,19
1201,19
1202,19
1203,19
1204,19
1205,19
1206,19
1207,19
1208,19
1209,19
1210,19
1211,19
1212,19
1213,20
1214,20
1215,19
1216,19
1217,19
1218,19
1219,19
1220,19
1221,19
1222,19
1223,19
1224,19
1225,19
1226,19
1227,19
1228,19
1229,19
1230,20
1231,19
1232,19
1233,19
1234,19
1235,19
1236,19
1237,19
1238,19
1239,19
1240,19
1241,19
1242,19
1243,19
1244,19
1245,19
1246,19
1247,19
1248,19
1249,19
1250,19
1251,19
1252,19
1253,19
1254,19
1255,19
1256,19
1257,19
1258,19
1259,19
1260,19
1261,19
1262,19
1263,19
1264,19
1265,19
1266,19
1267,19
1268,19
1269,19
1270,19
1271,20
1272,19
1273,19
1274,19
1275,19
1276,20
1277,20
1278,19
1279,19
1280,19
1281,19
1282,19
1283,20
1284,19
1285,20
1286,19
1287,19
1288,19
1289,19
1290,19
1291,19
1292,19
1293,19
1294,19
1295,19
1296,19
1297,19
1298,19
1299,19
1300,19
1301,20
1302,19
1303,19
1304,20
1305,19
1306,19
1307,19
1308,19
1309,19
1310,19
1311,19
1312,19
1313,20
1314,19
1315,19
1316,19
1317,20
1318,19
1319,19
1320,19
1321,19
1322,19
1323,19
1324,19
1325,19
1326,19
1327,19
1328,19
1329,19
1330,19
1331,19
1332,19
1333,19
1334,19
1335,19
1336,19
1337,19
1338,19
1339,19
1340,19
1341,20
1342,20
1343,20
1344,20
1345,20
1346,20
1347,20
1348,20
1349,20
1350,20
1351,20
1352,20
1353,20
1354,20
1355,20
1356,22
1357,22
1358,21
1359,20
1360,20
1361,20
1362,20
1363,20
1364,20
1365,20
1366,20
1367,20
1368,20
1369,20
1370,20
1371,20
1372,20
1373,20
1374,20
1375,20
1376,20
1377,20
1378,20
1379,20
1380,20
1381,20
1382,20
1383,20
1384,20
1385,20
1386,20
1387,20
1388,20
1389,20
1390,20
1391,20
1392,20
1393,20
1394,20
1395,20
1396,20
1397,20
1398,20
1399,20
1400,20
1401,20
1402,20
1403,20
1404,20
1405,20
1406,20
1407,20
1408,20
1409,20
1410,20
1411,20
1412,20
1413,20
1414,20
1415,21
1416,20
1417,20
1418,20
1419,20
1420,20
1421,20
1422,20
1423,20
1424,20
1425,20
1426,20
1427,20
1428,20
1429,20
1430,20
1431,20
1432,20
1433,20
1434,20
1435,20
1436,20
1437,20
1438,20
1439,20
1440,20
1441,20
1442,20
1443,21
1444,21
1445,21
1446,21
1447,21
1448,21
1449,21
1450,21
1451,21
1452,21
1453,21
1454,21
1455,21
1456,21
1457,21
1458,21
1459,21
1460,21
1461,22
1462,22
1463,22
1464,22
1465,21
1466,21
1467,21
1468,21
1469,22
1470,22
1471,22
1472,22
1473,22
1474,21
1475,21
1476,21
1477,21
1478,21
1479,21
1480,21
1481,21
1482,21
1483,21
1484,21
1485,21
1486,21
1487,21
1488,21
1489,21
1490,21
1491,21
1492,21
1493,21
1494,21
1495,21
1496,21
1497,21
1498,21
1499,21
1500,21
1501,21
1502,21
1503,21
1504,21
1505,22
1506,21
1507,21
1508,21
1509,21
1510,21
1511,21
1512,21
1513,20
1514,20
1515,20
1516,20
1517,20
1518,20
1519,20
1520,20
1521,20
1522,20
1523,20
1524,20
1525,20
1526,20
1527,20
1528,20
1529,20
1530,20
1531,20
1532,20
1533,20
1534,20
1535,20
1536,20
1537,20
1538,20
1539,20
1540,20
1541,20
1542,21
1543,21
1544,21
1545,21
1546,21
1547,22
1548,22
1549,21
1550,21
1551,21
1552,21
1553,21
1554,20
1555,20
1556,20
1557,20
1558,20
1559,20
1560,20
1561,20
1562,20
1563,20
1564,20
1565,20
1566,20
1567,20
1568,20
1569,21
1570,21
1571,21
1572,21
1573,21
1574,21
1575,20
1576,20
1577,20
1578,20
1579,20
1580,20
1581,20
1582,21
1583,20
1584,20
1585,20
1586,20
1587,20
1588,20
1589,21
1590,21
1591,21
1592,21
1593,21
1594,21
1595,21
1596,21
1597,21
1598,21
1599,21
1600,20
1601,20
1602,20
1603,20
1604,20
1605,20
1606,21
1607,21
1608,21
1609,20
1610,20
1611,20
1612,20
1613,20
1614,20
1615,20
1616,20
1617,20
1618,20
1619,20
1620,20
1621,20
1622,20
1623,20
1624,20
1625,20
1626,20
1627,20
1628,20
1629,20
1630,20
1631,20
1632,20
1633,20
1634,20
1635,20
1636,20
1637,20
1638,20
1639,20
1640,20
1641,20
1642,20
1643,20
1644,20
1645,20
1646,20
1647,20
1648,20
1649,20
1650,20
1651,20
1652,21
1653,20
1654,20
1655,20
1656,20
1657,20
1658,20
1659,20
1660,20
1661,20
1662,20
1663,20
1664,22
1665,21
1666,21
1667,21
1668,20
1669,20
1670,21
1671,21
1672,21
1673,21
1674,21
1675,21
1676,21
1677,21
1678,21
1679,21
1680,21
1681,21
1682,21
1683,20
1684,20
1685,20
1686,20
1687,20
1688,20
1689,20
1690,20
1691,20
1692,20
1693,20
1694,20
1695,20
1696,20
1697,20
1698,20
1699,20
1700,20
1701,20
1702,20
1703,20
1704,20
1705,20
1706,20
1707,20
1708,20
1709,20
1710,20
1711,20
1712,20
1713,20
1714,20
1715,20
1716,20
1717,20
1718,20
1719,20
1720,20
1721,20
1722,20
1723,20
1724,20
1725,20
1726,20
1727,20
1728,20
1729,21
1730,20
1731,20
1732,20
1733,20
1734,20
1735,20
1736,20
1737,20
1738,20
1739,20
1740,20
1741,20
1742,20
1743,20
1744,20
1745,20
1746,21
1747,20
1748,20
1749,20
1750,20
1751,20
1752,20
1753,20
1754,20
1755,20
1756,20
1757,20
1758,20
1759,20
1760,20
1761,20
1762,20
1763,20
1764,20
1765,20
1766,20
1767,20
1768,20
1769,20
1770,20
1771,20
1772,20
1773,20
1774,20
1775,20
1776,20
1777,20
1778,20
1779,20
1780,20
1781,20
1782,20
1783,20
1784,20
1785,20
1786,20
1787,20
1788,20
1789,20
1790,20
1791,20
1792,20
1793,20
1794,20
1795,20
1796,21
1797,21
1798,20
1799,20
1800,20
1801,20
1802,20
1803,20
1804,20
1805,20
1806,20
1807,20
1808,20
1809,20
1810,20
1811,20
1812,20
1813,20
1814,20
1815,20
1816,20
1817,20
1818,20
1819,20
1820,20
1821,20
1822,20
1823,20
1824,20
1825,20
1826,20
1827,20
1828,20
1829,20
1830,20
1831,20
1832,20
1833,20
1834,20
1835,20
1836,20
1837,20
1838,20
1839,20
1840,20
1841,20
1842,20
1843,20
1844,20
1845,20
1846,20
1847,20
1848,20
1849,20
1850,21
1851,21
1852,22
1853,21
1854,21
1855,21
1856,20
1857,20
1858,20
1859,20
1860,20
1861,20
1862,20
1863,20
1864,20
1865,20
1866,21
1867,20
1868,20
1869,20
1870,20
1871,20
1872,20
1873,20
1874,20
1875,20
1876,20
1877,21
1878,20
1879,20
1880,20
1881,20
1882,20
1883,20
1884,20
1885,20
1886,20
1887,20
1888,20
1889,20
1890,20
1891,20
1892,20
1893,20
1894,20
1895,21
1896,20
1897,20
1898,20
1899,20
1900,20
1901,20
1902,20
1903,20
1904,20
1905,20
1906,20
1907,20
1908,20
1909,20
1910,20
1911,21
1912,20
1913,20
1914,20
1915,20
1916,20
1917,20
1918,20
1919,20
1920,20
1921,20
1922,20
1923,20
1924,20
1925,21
1926,21
1927,21
1928,21
1929,21
1930,21
1931,21
1932,21
1933,21
1934,20
1935,20
1936,20
1937,20
1938,20
1939,20
1940,20
1941,20
1942,21
1943,20
1944,20
1945,20
1946,20
1947,20
1948,20
1949,20
1950,20
1951,20
1952,20
1953,20
1954,20
1955,20
1956,20
1957,20
1958,20
1959,20
1960,20
1961,20
1962,20
1963,21
1964,20
1965,20
1966,20
1967,20
1968,20
1969,20
1970,20
1971,20
1972,22
1973,21
1974,21
1975,20
1976,20
1977,20
1978,20
1979,21
1980,20
1981,20
1982,20
1983,21
1984,21
1985,21
1986,21
1987,21
1988,21
1989,21
1990,21
1991,21
1992,21
1993,20
1994,20
1995,20
1996,20
1997,20
1998,20
1999,20
2000,20
2001,20
2002,20
2003,20
2004,20
2005,20
2006,20
2007,20
2008,21
2009,20
2010,20
2011,20
2012,20
2013,20
2014,20
2015,20
2016,20
2017,20
2018,20
2019,20
2020,20
2021,20
2022,20
2023,20
2024,21
2025,20
2026,20
2027,20
2028,20
2029,20
2030,20
2031,20
2032,20
2033,20
2034,20
2035,20
2036,20
2037,20
2038,20
2039,20
2040,20
2041,20
2042,20
2043,20
2044,20
2045,21
2046,20
2047,20
2048,20
2049,20
2050,20
2051,20
2052,20
2053,20
2054,20
2055,20
2056,21
2057,21
2058,21
2059,21
2060,21
2061,21
2062,21
2063,21
2064,21
2065,21
2066,21
2067,20
2068,20
2069,20
2070,20
2071,20
2072,20
2073,20
2074,20
2075,20
2076,20
2077,20
2078,20
2079,20
2080,20
2081,20
2082,20
2083,20
2084,20
2085,20
2086,20
2087,20
2088,20
2089,20
2090,20
2091,20
2092,20
2093,20
2094,20
2095,20
2096,20
2097,20
2098,20
2099,20
2100,20
2101,20
2102,20
2103,20
2104,20
2105,20
2106,20
2107,20
2108,20
2109,20
2110,20
2111,20
2112,20
2113,20
2114,20
2115,20
2116,20
2117,20
2118,20
2119,20
2120,20
2121,21
2122,21
2123,21
2124,21
2125,20
2126,20
2127,20
2128,20
2129,20
2130,20
2131,20
2132,20
2133,20
2134,20
2135,20
2136,20
2137,20
2138,20
2139,20
2140,20
2141,20
2142,21
2143,20
2144,20
2145,20
2146,20
2147,20
2148,20
2149,20
2150,20
2151,20
2152,20
2153,20
2154,20
2155,20
2156,20
2157,20
2158,20
2159,20
2160,20
2161,20
2162,20
2163,20
2164,20
2165,20
2166,20
2167,20
2168,20
2169,20
2170,20
2171,20
2172,20
2173,20
2174,20
2175,20
2176,20
2177,20
2178,20
2179,20
2180,20
2181,20
2182,20
2183,20
2184,20
2185,20
2186,20
2187,20
2188,20
2189,20
2190,20
2191,20
2192,20
2193,21
2194,20
2195,20
2196,20
2197,20
2198,20
2199,20
2200,20
2201,20
2202,20
2203,20
2204,20
2205,20
2206,20
2207,21
2208,21
2209,22
2210,21
2211,21
2212,21
2213,21
2214,21
2215,21
2216,21
2217,20
2218,20
2219,20
2220,20
2221,21
2222,21
2223,21
2224,20
2225,20
2226,20
2227,20
2228,20
2229,20
2230,20
2231,20
2232,20
2233,21
2234,21
2235,20
2236,20
2237,20
2238,20
2239,20
2240,20
2241,22
2242,21
2243,22
2244,21
2245,21
2246,21
2247,21
2248,21
2249,21
2250,21
2251,21
2252,21
2253,21
2254,21
2255,21
2256,21
2257,21
2258,21
2259,21
2260,21
2261,21
2262,21
2263,21
2264,21
2265,22
2266,21
2267,21
2268,22
2269,22
2270,21
2271,21
2272,21
2273,21
2274,21
2275,21
2276,21
2277,21
2278,21
2279,22
2280,21
2281,21
2282,21
2283,21
2284,21
2285,21
2286,21
2287,21
2288,20
2289,20
2290,20
2291,21
2292,21
2293,21
2294,21
2295,22
2296,22
2297,22
2298,21
2299,21
2300,21
2301,21
2302,21
2303,22
2304,23
2305,22
2306,22
2307,22
2308,21
2309,21
2310,21
2311,22
2312,22
2313,21
2314,22
2315,22
2316,22
2317,22
2318,22
2319,22
2320,22
2321,22
2322,22
2323,22
2324,22
2325,22
2326,22
2327,23
2328,22
2329,22
2330,22
2331,22
2332,23
2333,22
2334,22
2335,22
2336,23
2337,22
2338,22
2339,22
2340,22
2341,22
2342,22
2343,22
2344,22
2345,22
2346,21
2347,21
2348,21
2349,21
2350,21
2351,21
2352,21
2353,21
2354,21
2355,21
2356,21
2357,21
2358,21
2359,21
2360,21
2361,21
2362,21
2363,21
2364,21
2365,21
2366,21
2367,21
2368,21
2369,21
2370,21
2371,21
2372,21
2373,21
2374,21
2375,21
2376,21
2377,21
2378,21
2379,21
2380,21
2381,21
2382,21
2383,21
2384,21
2385,21
2386,21
2387,21
2388,21
2389,21
2390,21
2391,21
2392,21
2393,21
2394,21
2395,21
2396,22
2397,21
2398,21
2399,21
2400,21
2401,21
2402,22
2403,22
2404,22
2405,22
2406,21
2407,21
2408,21
2409,21
2410,21
2411,21
2412,21
2413,21
2414,21
2415,21
2416,22
2417,22
2418,22
2419,22
2420,22
2421,21
2422,21
2423,21
2424,21
2425,21
2426,21
2427,21
2428,21
2429,21
2430,21
2431,21
2432,21
2433,21
2434,21
2435,21
2436,21
2437,21
2438,21
2439,21
2440,21
2441,21
2442,21
2443,21
2444,21
2445,21
2446,22
2447,22
2448,22
2449,21
2450,21
2451,22
2452,21
2453,21
2454,21
2455,21
2456,21
2457,21
2458,21
2459,21
2460,21
2461,21
2462,21
2463,21
2464,21
2465,21
2466,21
2467,21
2468,21
2469,21
2470,21
2471,21
2472,21
2473,21
2474,21
2475,21
2476,22
2477,23
2478,21
2479,21
2480,21
2481,21
2482,21
2483,21
2484,22
2485,21
2486,21
2487,21
2488,21
2489,21
2490,21
2491,21
2492,21
2493,21
2494,21
2495,22
2496,21
2497,21
2498,21
2499,21
2500,21
2501,21
2502,21
2503,21
2504,21
2505,21
2506,21
2507,21
2508,21
2509,21
2510,21
2511,21
2512,21
2513,21
2514,21
2515,22
2516,22
2517,22
2518,22
2519,22
2520,22
2521,22
2522,21
2523,21
2524,21
2525,21
2526,21
2527,21
2528,21
2529,21
2530,21
2531,21
2532,21
2533,21
2534,21
2535,21
2536,21
2537,21
2538,21
2539,21
2540,21
2541,21
2542,21
2543,21
2544,21
2545,21
2546,21
2547,21
2548,21
2549,21
2550,21
2551,21
2552,21
2553,21
2554,21
2555,21
2556,21
2557,21
2558,21
2559,21
2560,21
2561,21
2562,21
2563,21
2564,21
2565,21
2566,21
2567,21
2568,21
2569,21
2570,21
2571,21
2572,21
2573,21
2574,21
2575,21
2576,21
2577,21
2578,21
2579,21
2580,21
2581,21
2582,21
2583,21
2584,21
2585,21
2586,21
2587,21
2588,21
2589,21
2590,21
2591,21
2592,21
2593,21
2594,21
2595,21
2596,21
2597,21
2598,21
2599,21
2600,21
2601,23
2602,22
2603,22
2604,21
2605,21
2606,21
2607,21
2608,21
2609,21
2610,21
2611,21
2612,21
2613,21
2614,21
2615,21
2616,21
2617,21
2618,21
2619,21
2620,21
2621,21
2622,21
2623,21
2624,21
2625,21
2626,21
2627,21
2628,21
2629,21
2630,21
2631,21
2632,21
2633,21
2634,21
2635,21
2636,21
2637,22
2638,22
2639,21
2640,21
2641,21
2642,21
2643,21
2644,21
2645,21
2646,21
2647,21
2648,21
2649,21
2650,21
2651,21
2652,21
2653,21
2654,21
2655,21
2656,21
2657,21
2658,21
2659,21
2660,21
2661,21
2662,21
2663,21
2664,21
2665,21
2666,21
2667,21
2668,21
2669,21
2670,21
2671,21
2672,22
2673,21
2674,21
2675,22
2676,22
2677,22
2678,21
2679,21
2680,21
2681,21
2682,21
2683,22
2684,22
2685,21
2686,21
2687,21
2688,21
2689,21
2690,21
2691,21
2692,21
2693,21
2694,21
2695,21
2696,21
2697,21
2698,21
2699,21
2700,21
2701,21
2702,21
2703,21
2704,21
2705,21
2706,21
2707,21
2708,21
2709,21
2710,21
2711,21
2712,21
2713,22
2714,22
2715,22
2716,22
2717,21
2718,21
2719,21
2720,21
2721,21
2722,21
2723,21
2724,21
2725,21
2726,21
2727,21
2728,21
2729,21
2730,21
2731,21
2732,21
2733,21
2734,21
2735,21
2736,21
2737,21
2738,21
2739,21
2740,21
2741,21
2742,21
2743,21
2744,21
2745,21
2746,21
2747,21
2748,21
2749,21
2750,21
2751,21
2752,21
2753,22
2754,22
2755,22
2756,21
2757,21
2758,21
2759,21
2760,21
2761,21
2762,21
2763,21
2764,21
2765,21
2766,21
2767,21
2768,21
2769,21
2770,21
2771,21
2772,21
2773,22
2774,21
2775,21
2776,21
2777,21
2778,21
2779,21
2780,21
2781,21
2782,22
2783,22
2784,22
2785,22
2786,21
2787,21
2788,21
2789,21
2790,21
2791,21
2792,21
2793,21
2794,22
2795,21
2796,21
2797,21
2798,21
2799,21
2800,21
2801,22
2802,21
2803,21
2804,21
2805,21
2806,21
2807,21
2808,21
2809,22
2810,23
2811,22
2812,22
2813,22
2814,22
2815,21
2816,21
2817,21
2818,21
2819,21
2820,21
2821,21
2822,21
2823,21
2824,21
2825,21
2826,21
2827,21
2828,21
2829,21
2830,22
2831,22
2832,21
2833,21
2834,21
2835,22
2836,22
2837,21
2838,21
2839,21
2840,21
2841,21
2842,21
2843,21
2844,21
2845,21
2846,21
2847,21
2848,21
2849,21
2850,21
2851,21
2852,21
2853,21
2854,21
2855,21
2856,21
2857,21
2858,21
2859,21
2860,21
2861,21
2862,21
2863,22
2864,22
2865,22
2866,22
2867,22
2868,22
2869,21
2870,21
2871,21
2872,21
2873,21
2874,21
2875,21
2876,21
2877,21
2878,21
2879,21
2880,21
2881,21
2882,21
2883,21
2884,21
2885,21
2886,21
2887,21
2888,21
2889,21
2890,21
2891,21
2892,21
2893,21
2894,21
2895,21
2896,21
2897,21
2898,22
2899,21
2900,21
2901,21
2902,21
2903,21
2904,21
2905,21
2906,21
2907,21
2908,21
2909,21
2910,21
2911,21
2912,21
2913,21
2914,21
2915,21
2916,21
2917,21
2918,21
2919,21
2920,21
2921,21
2922,21
2923,22
2924,21
2925,21
2926,22
2927,23
2928,22
2929,22
2930,21
2931,21
2932,21
2933,21
2934,21
2935,21
2936,21
2937,21
2938,21
2939,21
2940,21
2941,21
2942,21
2943,21
2944,21
2945,21
2946,21
2947,21
2948,21
2949,21
2950,21
2951,21
2952,21
2953,21
2954,21
2955,21
2956,21
2957,21
2958,21
2959,21
2960,21
2961,22
2962,21
2963,21
2964,21
2965,21
2966,21
2967,21
2968,21
2969,21
2970,21
2971,21
2972,21
2973,21
2974,21
2975,21
2976,21
2977,21
2978,21
2979,21
2980,21
2981,21
2982,21
2983,21
2984,21
2985,21
2986,21
2987,21
2988,21
2989,21
2990,21
2991,21
2992,21
2993,21
2994,21
2995,21
2996,21
2997,21
2998,21
2999,21
3000,21
3001,21
3002,21
3003,21
3004,21
3005,21
3006,21
3007,21
3008,21
3009,21
3010,21
3011,21
3012,22
3013,22
3014,22
3015,21
3016,21
3017,21
3018,21
3019,21
3020,21
3021,22
3022,22
3023,22
3024,21
3025,21
3026,21
3027,22
3028,21
3029,21
3030,21
3031,21
3032,21
3033,21
3034,21
3035,21
3036,21
3037,21
3038,21
3039,21
3040,21
3041,21
3042,21
3043,21
3044,21
3045,21
3046,21
3047,21
3048,21
3049,21
3050,21
3051,22
3052,22
3053,23
3054,21
3055,21
3056,21
3057,21
3058,21
3059,21
3060,21
3061,21
3062,21
3063,21
3064,21
3065,21
3066,21
3067,21
3068,21
3069,21
3070,21
3071,21
3072,22
3073,22
3074,22
3075,21
3076,21
3077,21
3078,21
3079,21
3080,21
3081,21
3082,21
3083,21
3084,22
3085,22
3086,22
3087,22
3088,22
3089,22
3090,21
3091,21
3092,21
3093,21
3094,21
3095,21
3096,21
3097,21
3098,21
3099,21
3100,21
3101,21
3102,21
3103,21
3104,21
3105,21
3106,21
3107,21
3108,21
3109,21
3110,21
3111,21
3112,21
3113,21
3114,21
3115,21
3116,21
3117,21
3118,21
3119,21
3120,22
3121,22
3122,22
3123,22
3124,22
3125,22
3126,22
3127,22
3128,22
3129,21
3130,21
3131,21
3132,21
3133,21
3134,21
3135,21
3136,21
3137,21
3138,21
3139,21
3140,21
3141,22
3142,21
3143,21
3144,21
3145,21
3146,21
3147,21
3148,21
3149,21
3150,21
3151,21
3152,21
3153,21
3154,21
3155,21
3156,21
3157,21
3158,21
3159,21
3160,21
3161,21
3162,21
3163,21
3164,21
3165,21
3166,21
3167,21
3168,21
3169,21
3170,21
3171,21
3172,21
3173,21
3174,21
3175,21
3176,21
3177,21
3178,21
3179,21
3180,21
3181,21
3182,21
3183,21
3184,22
3185,21
3186,21
3187,21
3188,21
3189,21
3190,21
3191,21
3192,21
3193,21
3194,21
3195,21
3196,21
3197,21
3198,22
3199,22
3200,22
3201,22
3202,22
3203,22
3204,22
3205,22
3206,22
3207,22
3208,22
3209,22
3210,22
3211,22
3212,22
3213,22
3214,22
3215,22
3216,22
3217,22
3218,22
3219,22
3220,22
3221,22
3222,22
3223,22
3224,22
3225,22
3226,22
3227,22
3228,22
3229,22
3230,22
3231,22
3232,22
3233,22
3234,22
3235,22
3236,22
3237,22
3238,22
3239,22
3240,22
3241,22
3242,22
3243,22
3244,22
3245,22
3246,22
3247,22
3248,22
3249,22
3250,22
3251,22
3252,22
3253,22
3254,22
3255,22
3256,22
3257,22
3258,22
3259,22
3260,22
3261,22
3262,22
3263,22
3264,22
3265,22
3266,22
3267,22
3268,22
3269,22
3270,22
3271,22
3272,22
3273,22
3274,22
3275,22
3276,22
3277,22
3278,23
3279,22
3280,22
3281,22
3282,22
3283,22
3284,22
3285,22
3286,22
3287,22
3288,22
3289,22
3290,22
3291,22
3292,22
3293,22
3294,22
3295,22
3296,22
3297,22
3298,22
3299,22
3300,22
3301,22
3302,22
3303,22
3304,22
3305,24
3306,24
3307,24
3308,24
3309,22
3310,22
3311,23
3312,22
3313,22
3314,22
3315,22
3316,22
3317,22
3318,22
3319,22
3320,22
3321,22
3322,22
3323,22
3324,22
3325,22
3326,22
3327,22
3328,22
3329,22
3330,22
3331,22
3332,22
3333,22
3334,22
3335,22
3336,22
3337,22
3338,22
3339,22
3340,22
3341,22
3342,22
3343,22
3344,22
3345,22
3346,22
3347,22
3348,22
3349,22
3350,22
3351,23
3352,23
3353,24
3354,24
3355,24
3356,24
3357,24
3358,24
3359,24
3360,24
3361,24
3362,24
3363,24
3364,24
3365,24
3366,24
3367,24
3368,24
3369,23
3370,23
3371,23
3372,23
3373,23
3374,23
3375,23
3376,24
3377,23
3378,23
3379,23
3380,23
3381,23
3382,23
3383,24
3384,24
3385,24
3386,24
3387,23
3388,23
3389,23
3390,23
3391,23
3392,23
3393,23
3394,23
3395,23
3396,23
3397,23
3398,23
3399,23
3400,23
3401,23
3402,23
3403,23
3404,23
3405,23
3406,23
3407,23
3408,23
3409,24
3410,24
3411,23
3412,24
3413,24
3414,24
3415,24
3416,24
3417,24
3418,24
3419,24
3420,24
3421,25
3422,25
3423,25
3424,25
3425,24
3426,24
3427,24
3428,24
3429,24
3430,24
3431,23
3432,24
3433,23
3434,23
3435,23
3436,23
3437,23
3438,23
3439,23
3440,23
3441,24
3442,24
3443,24
3444,24
3445,24
3446,24
3447,24
3448,24
3449,24
3450,24
3451,24
3452,23
3453,23
3454,23
3455,24
3456,23
3457,23
3458,23
3459,23
3460,23
3461,23
3462,23
3463,23
3464,23
3465,23
3466,23
3467,23
3468,23
3469,23
3470,23
3471,23
3472,23
3473,23
3474,23
3475,24
3476,24
3477,24
3478,23
3479,23
3480,23
3481,23
3482,23
3483,23
3484,23
3485,23
3486,23
3487,23
3488,23
3489,23
3490,23
3491,23
3492,23
3493,23
3494,24
3495,25
3496,24
3497,24
3498,24
3499,24
3500,24
3501,24
3502,24
3503,24
3504,24
3505,24
3506,25
3507,25
3508,25
3509,25
3510,26
3511,26
3512,26
3513,25
3514,25
3515,25
3516,24
3517,24
3518,24
3519,24
3520,24
3521,24
3522,24
3523,25
3524,25
3525,25
3526,25
3527,25
3528,26
3529,25
3530,25
3531,25
3532,25
3533,24
3534,25
3535,25
3536,24
3537,24
3538,24
3539,24
3540,24
3541,24
3542,24
3543,24
3544,24
3545,25
3546,25
3547,25
3548,25
3549,25
3550,25
3551,25
3552,26
3553,26
3554,26
3555,26
3556,26
3557,26
3558,26
3559,25
3560,25
3561,24
3562,24
3563,24
3564,24
3565,25
3566,25
3567,26
3568,26
3569,25
3570,26
3571,26
3572,25
3573,25
3574,25
3575,25
3576,25
3577,25
3578,25
3579,25
3580,25
3581,25
3582,25
3583,25
3584,24
3585,24
3586,24
3587,24
3588,25
3589,25
3590,25
3591,26
3592,26
3593,25
3594,25
3595,25
3596,25
3597,25
3598,25
3599,25
3600,25
3601,25
3602,25
3603,25
3604,25
3605,25
3606,25
3607,25
3608,25
3609,25
3610,25
3611,25
3612,25
3613,25
3614,25
3615,25
3616,25
3617,25
3618,25
3619,25
3620,26
3621,25
3622,25
3623,25
3624,26
3625,25
3626,25
3627,25
3628,25
3629,25
3630,25
3631,25
3632,25
3633,25
3634,25
3635,26
3636,26
3637,26
3638,26
3639,26
3640,26
3641,25
3642,25
3643,25
3644,25
3645,25
3646,26
3647,26
3648,26
3649,26
3650,27
3651,27
3652,26
3653,26
3654,26
3655,25
3656,25
3657,25
3658,25
3659,25
3660,25
3661,25
3662,25
3663,25
3664,25
3665,25
3666,25
3667,25
3668,25
3669,25
3670,25
3671,25
3672,25
3673,26
3674,25
3675,26
3676,26
3677,26
3678,26
3679,26
3680,26
3681,26
3682,26
3683,25
3684,25
3685,25
3686,25
3687,25
3688,25
3689,25
3690,25
3691,25
3692,25
3693,25
3694,25
3695,25
3696,25
3697,25
3698,25
3699,25
3700,25
3701,25
3702,25
3703,25
3704,26
3705,26
3706,26
3707,26
3708,26
3709,26
3710,26
3711,26
3712,26
3713,26
3714,27
3715,27
3716,26
3717,26
3718,26
3719,26
3720,26
3721,26
3722,26
3723,26
3724,26
3725,26
3726,26
3727,26
3728,26
3729,27
3730,27
3731,26
3732,26
3733,26
3734,26
3735,25
3736,25
3737,25
3738,25
3739,25
3740,25
3741,25
3742,25
3743,25
3744,25
3745,25
3746,25
3747,25
3748,25
3749,25
3750,25
3751,25
3752,25
3753,25
3754,26
3755,25
3756,25
3757,25
3758,25
3759,25
3760,25
3761,25
3762,25
3763,25
3764,25
3765,26
3766,26
3767,26
3768,26
3769,26
3770,26
3771,25
3772,25
3773,25
3774,25
3775,25
3776,25
3777,25
3778,25
3779,25
3780,25
3781,25
3782,25
3783,26
3784,26
3785,26
3786,27
3787,26
3788,25
3789,25
3790,25
3791,25
3792,25
3793,25
3794,25
3795,25
3796,25
3797,25
3798,25
3799,25
3800,25
3801,25
3802,25
3803,25
3804,25
3805,25
3806,25
3807,25
3808,25
3809,25
3810,25
3811,25
3812,25
3813,25
3814,25
3815,25
3816,25
3817,25
3818,25
3819,25
3820,25
3821,26
3822,25
3823,25
3824,25
3825,25
3826,25
3827,25
3828,25
3829,25
3830,25
3831,25
3832,25
3833,25
3834,25
3835,25
3836,25
3837,25
3838,25
3839,25
3840,25
3841,25
3842,25
3843,25
3844,25
3845,25
3846,25
3847,25
3848,25
3849,25
3850,25
3851,25
3852,25
3853,25
3854,25
3855,25
3856,25
3857,25
3858,26
3859,26
3860,26
3861,26
3862,26
3863,26
3864,25
3865,25
3866,25
3867,25
3868,26
3869,25
3870,25
3871,25
3872,25
3873,25
3874,25
3875,25
3876,25
3877,25
3878,25
3879,25
3880,25
3881,25
3882,25
3883,25
3884,25
3885,25
3886,25
3887,25
3888,25
3889,25
3890,25
3891,25
3892,26
3893,26
3894,26
3895,25
3896,25
3897,25
3898,26
3899,26
3900,26
3901,25
3902,26
3903,26
3904,26
3905,26
3906,26
3907,27
3908,26
3909,26
3910,26
3911,26
3912,26
3913,26
3914,26
3915,26
3916,26
3917,25
3918,25
3919,25
3920,25
3921,26
3922,25
3923,25
3924,25
3925,25
3926,25
3927,25
3928,25
3929,25
3930,25
3931,25
3932,25
3933,25
3934,25
3935,25
3936,26
3937,26
3938,26
3939,26
3940,26
3941,26
3942,26
3943,25
3944,25
3945,25
3946,25
3947,25
3948,25
3949,25
3950,25
3951,25
3952,25
3953,25
3954,25
3955,25
3956,25
3957,25
3958,25
3959,25
3960,25
3961,25
3962,25
3963,26
3964,25
3965,25
3966,25
3967,25
3968,25
3969,25
3970,25
3971,26
3972,25
3973,25
3974,25
3975,25
3976,25
3977,25
3978,25
3979,25
3980,25
3981,25
3982,25
3983,25
3984,25
3985,25
3986,25
3987,25
3988,25
3989,25
3990,25
3991,25
3992,25
3993,25
3994,25
3995,25
3996,25
3997,25
3998,25
3999,25
4000,25
4001,25
4002,25
4003,25
4004,25
4005,25
4006,25
4007,25
4008,25
4009,26
4010,26
4011,26
4012,26
4013,25
4014,25
4015,25
4016,25
4017,25
4018,25
4019,25
4020,25
4021,25
4022,25
4023,25
4024,25
4025,25
4026,25
4027,25
4028,25
4029,25
4030,25
4031,25
4032,25
4033,25
4034,25
4035,25
4036,25
4037,25
4038,25
4039,25
4040,25
4041,26
4042,25
4043,25
4044,25
4045,25
4046,25
4047,25
4048,26
4049,25
4050,25
4051,26
4052,25
4053,25
4054,25
4055,26
4056,26
4057,26
4058,26
4059,26
4060,26
4061,26
4062,25
4063,25
4064,25
4065,25
4066,25
4067,25
4068,25
4069,25
4070,25
4071,25
4072,25
4073,25
4074,26
4075,26
4076,26
4077,26
4078,26
4079,26
4080,26
4081,26
4082,26
4083,26
4084,26
4085,26
4086,26
4087,26
4088,26
4089,26
4090,26
4091,26
4092,26
4093,26
4094,27
4095,26
4096,26
4097,26
4098,26
4099,26
4100,26
4101,26
4102,26
4103,26
4104,26
4105,27
4106,26
4107,26
4108,26
4109,26
4110,26
4111,26
4112,26
4113,26
4114,26
4115,26
4116,26
4117,26
4118,25
4119,25
4120,25
4121,25
4122,25
4123,25
4124,25
4125,25
4126,25
4127,26
4128,26
4129,25
4130,25
4131,25
4132,25
4133,25
4134,25
4135,25
4136,25
4137,25
4138,25
4139,25
4140,25
4141,25
4142,25
4143,25
4144,25
4145,25
4146,25
4147,25
4148,25
4149,25
4150,25
4151,25
4152,25
4153,25
4154,25
4155,25
4156,25
4157,26
4158,26
4159,25
4160,25
4161,25
4162,25
4163,25
4164,25
4165,25
4166,25
4167,25
4168,25
4169,25
4170,25
4171,25
4172,25
4173,25
4174,25
4175,25
4176,25
4177,25
4178,25
4179,26
4180,25
4181,25
4182,25
4183,25
4184,25
4185,25
4186,25
4187,25
4188,25
4189,26
4190,25
4191,25
4192,25
4193,25
4194,25
4195,25
4196,26
4197,25
4198,25
4199,25
4200,25
4201,25
4202,25
4203,25
4204,25
4205,25
4206,25
4207,25
4208,26
4209,25
4210,25
4211,25
4212,25
4213,25
4214,25
4215,26
4216,26
4217,25
4218,25
4219,25
4220,25
4221,25
4222,25
4223,25
4224,25
4225,25
4226,25
4227,25
4228,25
4229,25
4230,25
4231,25
4232,25
4233,25
4234,25
4235,25
4236,25
4237,25
4238,25
4239,25
4240,25
4241,25
4242,25
4243,25
4244,25
4245,25
4246,26
4247,26
4248,26
4249,26
4250,26
4251,26
4252,26
4253,26
4254,26
4255,26
4256,26
4257,26
4258,25
4259,25
4260,25
4261,25
4262,25
4263,25
4264,25
4265,25
4266,25
4267,25
4268,25
4269,25
4270,25
4271,25
4272,25
4273,25
4274,25
4275,25
4276,25
4277,25
4278,25
4279,26
4280,26
4281,25
4282,25
4283,25
4284,25
4285,25
4286,26
4287,25
4288,25
4289,25
4290,25
4291,25
4292,25
4293,25
4294,25
4295,25
4296,25
4297,25
4298,25
4299,25
4300,25
4301,25
4302,25
4303,25
4304,25
4305,25
4306,25
4307,25
4308,25
4309,25
4310,25
4311,25
4312,25
4313,25
4314,25
4315,25
4316,25
4317,25
4318,25
4319,25
4320,25
4321,25
4322,26
4323,25
4324,25
4325,25
4326,25
4327,25
4328,25
4329,25
4330,25
4331,25
4332,25
4333,25
4334,25
4335,25
4336,25
4337,25
4338,25
4339,25
4340,25
4341,25
4342,25
4343,25
4344,25
4345,25
4346,25
4347,25
4348,25
4349,24
4350,24
4351,24
4352,24
4353,24
4354,24
4355,25
4356,25
4357,24
4358,24
4359,24
4360,24
4361,24
4362,24
4363,24
4364,24
4365,24
4366,24
4367,24
4368,24
4369,24
4370,24
4371,24
4372,24
4373,24
4374,24
4375,24
4376,24
4377,24
4378,25
4379,24
4380,24
4381,24
4382,24
4383,24
4384,24
4385,24
4386,24
4387,24
4388,24
4389,24
4390,24
4391,24
4392,24
4393,24
4394,24
4395,24
4396,25
4397,25
4398,24
4399,24
4400,24
4401,24
4402,24
4403,24
4404,24
4405,24
4406,24
4407,24
4408,24
4409,24
4410,24
4411,25
4412,25
4413,24
4414,24
4415,24
4416,24
4417,24
4418,24
4419,24
4420,24
4421,24
4422,24
4423,24
4424,24
4425,24
4426,24
4427,24
4428,24
4429,24
4430,24
4431,24
4432,24
4433,24
4434,24
4435,24
4436,24
4437,24
4438,24
4439,24
4440,24
4441,24
4442,24
4443,24
4444,24
4445,24
4446,24
4447,24
4448,24
4449,24
4450,24
4451,24
4452,24
4453,24
4454,24
4455,25
4456,25
4457,25
4458,25
4459,25
4460,25
4461,25
4462,25
4463,25
4464,25
4465,25
4466,25
4467,25
4468,25
4469,25
4470,25
4471,25
4472,26
4473,25
4474,25
4475,25
4476,25
4477,25
4478,25
4479,25
4480,25
4481,26
4482,26
4483,26
4484,25
4485,25
4486,25
4487,25
4488,25
4489,25
4490,25
4491,25
4492,25
4493,25
4494,25
4495,25
4496,25
4497,25
4498,26
4499,26
4500,26
4501,27
4502,25
4503,25
4504,25
4505,25
4506,25
4507,25
4508,25
4509,25
4510,25
4511,25
4512,25
4513,25
4514,25
4515,25
4516,25
4517,25
4518,25
4519,25
4520,25
4521,25
4522,25
4523,25
4524,25
4525,25
4526,25
4527,25
4528,25
4529,25
4530,25
4531,25
4532,25
4533,25
4534,25
4535,25
4536,25
4537,25
4538,25
4539,25
4540,25
4541,25
4542,26
4543,25
4544,25
4545,25
4546,25
4547,25
4548,25
4549,25
4550,25
4551,26
4552,26
4553,27
4554,26
4555,26
4556,26
4557,26
4558,26
4559,26
4560,26
4561,25
4562,25
4563,25
4564,25
4565,25
4566,25
4567,25
4568,26
4569,26
4570,26
4571,26
4572,27
4573,26
4574,26
4575,26
4576,26
4577,26
4578,27
4579,27
4580,27
4581,27
4582,27
4583,27
4584,27
4585,27
4586,28
4587,28
4588,28
4589,27
4590,27
4591,27
4592,26
4593,26
4594,26
4595,26
4596,26
4597,26
4598,26
4599,26
4600,26
4601,26
4602,26
4603,26
4604,26
4605,26
4606,26
4607,26
4608,26
4609,26
4610,26
4611,26
4612,26
4613,26
4614,26
4615,26
4616,26
4617,26
4618,26
4619,26
4620,26
4621,26
4622,26
4623,26
4624,26
4625,26
4626,26
4627,26
4628,26
4629,26
4630,26
4631,26
4632,26
4633,26
4634,26
4635,26
4636,26
4637,26
4638,26
4639,26
4640,26
4641,26
4642,26
4643,26
4644,26
4645,26
4646,26
4647,26
4648,26
4649,26
4650,27
4651,26
4652,26
4653,26
4654,26
4655,26
4656,26
4657,26
4658,26
4659,26
4660,26
4661,26
4662,26
4663,26
4664,26
4665,26
4666,26
4667,26
4668,26
4669,26
4670,26
4671,26
4672,26
4673,26
4674,26
4675,26
4676,26
4677,26
4678,26
4679,26
4680,26
4681,26
4682,26
4683,26
4684,27
4685,28
4686,28
4687,28
4688,28
4689,28
4690,28
4691,28
4692,28
4693,27
4694,27
4695,27
4696,27
4697,27
4698,27
4699,27
4700,28
4701,27
4702,27
4703,27
4704,27
4705,27
4706,27
4707,27
4708,27
4709,27
4710,27
4711,27
4712,27
4713,27
4714,27
4715,28
4716,28
4717,28
4718,28
4719,28
4720,27
4721,27
4722,27
4723,27
4724,27
4725,27
4726,27
4727,27
4728,27
4729,27
4730,27
4731,27
4732,27
4733,27
4734,27
4735,27
4736,27
4737,28
4738,28
4739,29
4740,29
4741,28
4742,27
4743,27
4744,27
4745,27
4746,28
4747,27
4748,27
4749,27
4750,27
4751,27
4752,27
4753,27
4754,27
4755,27
4756,27
4757,27
4758,27
4759,27
4760,27
4761,27
4762,27
4763,27
4764,27
4765,28
4766,27
4767,27
4768,27
4769,27
4770,27
4771,27
4772,27
4773,27
4774,27
4775,27
4776,27
4777,27
4778,27
4779,27
4780,27
4781,27
4782,27
4783,27
4784,28
4785,27
4786,27
4787,27
4788,28
4789,27
4790,27
4791,27
4792,27
4793,27
4794,27
4795,27
4796,27
4797,28
4798,27
4799,27
4800,27
4801,27
4802,27
4803,27
4804,27
4805,28
4806,29
4807,28
4808,28
4809,28
4810,27
4811,27
4812,27
4813,27
4814,27
4815,28
4816,27
4817,27
4818,27
4819,27
4820,27
4821,27
4822,27
4823,27
4824,27
4825,27
4826,27
4827,27
4828,27
4829,27
4830,27
4831,28
4832,28
4833,28
4834,27
4835,27
4836,27
4837,28
4838,28
4839,28
4840,27
4841,27
4842,27
4843,27
4844,27
4845,27
4846,27
4847,27
4848,27
4849,27
4850,27
4851,27
4852,27
4853,27
4854,27
4855,27
4856,27
4857,27
4858,27
4859,27
4860,27
4861,27
4862,27
4863,27
4864,27
4865,28
4866,28
4867,28
4868,28
4869,28
4870,28
4871,28
4872,28
4873,28
4874,27
4875,27
4876,27
4877,27
4878,27
4879,27
4880,27
4881,28
4882,27
4883,27
4884,27
4885,28
4886,28
4887,28
4888,28
4889,27
4890,27
4891,27
4892,27
4893,27
4894,27
4895,27
4896,27
4897,27
4898,27
4899,27
4900,27
4901,27
4902,27
4903,27
4904,27
4905,27
4906,28
4907,28
4908,28
4909,28
4910,28
4911,28
4912,28
4913,28
4914,28
4915,28
4916,28
4917,28
4918,28
4919,28
4920,28
4921,28
4922,27
4923,27
4924,27
4925,27
4926,27
4927,27
4928,27
4929,27
4930,27
4931,28
4932,28
4933,28
4934,27
4935,27
4936,27
4937,27
4938,27
4939,27
4940,27
4941,27
4942,27
4943,27
4944,27
4945,27
4946,27
4947,27
4948,27
4949,27
4950,27
4951,27
4952,27
4953,27
4954,28
4955,28
4956,28
4957,28
4958,28
4959,28
4960,27
4961,27
4962,27
4963,27
4964,27
4965,27
4966,27
4967,27
4968,27
4969,27
4970,27
4971,27
4972,27
4973,27
4974,27
4975,27
4976,27
4977,27
4978,27
4979,27
4980,27
4981,27
4982,27
4983,27
4984,28
4985,28
4986,28
4987,27
4988,27
4989,27
4990,27
4991,27
4992,27
4993,27
4994,27
4995,27
4996,27
4997,27
4998,27
4999,27
5000,27
5001,27
5002,27
5003,27
5004,27
5005,27
5006,27
5007,27
5008,27
5009,27
5010,27
5011,27
5012,27
5013,28
5014,27
5015,27
5016,27
5017,27
5018,27
5019,27
5020,27
5021,28
5022,27
5023,28
5024,28
5025,27
5026,27
5027,27
5028,27
5029,27
5030,27
5031,27
5032,27
5033,27
5034,27
5035,27
5036,27
5037,28
5038,28
5039,28
5040,27
5041,27
5042,27
5043,27
5044,27
5045,27
5046,27
5047,27
5048,27
5049,27
5050,27
5051,27
5052,27
5053,27
5054,27
5055,27
5056,27
5057,27
5058,27
5059,27
5060,27
5061,27
5062,28
5063,28
5064,27
5065,28
5066,27
5067,27
5068,27
5069,27
5070,27
5071,27
5072,27
5073,27
5074,27
5075,27
5076,27
5077,27
5078,28
5079,28
5080,28
5081,27
5082,27
5083,27
5084,27
5085,27
5086,27
5087,27
5088,27
5089,27
5090,28
5091,27
5092,27
5093,27
5094,27
5095,27
5096,27
5097,27
5098,27
5099,27
5100,27
5101,27
5102,27
5103,28
5104,28
5105,27
5106,27
5107,27
5108,27
5109,27
5110,27
5111,27
5112,27
5113,27
5114,27
5115,27
5116,27
5117,27
5118,27
5119,27
5120,27
5121,27
5122,27
5123,27
5124,27
5125,27
5126,27
5127,27
5128,27
5129,27
5130,27
5131,27
5132,27
5133,27
5134,27
5135,27
5136,27
5137,27
5138,28
5139,28
5140,27
5141,27
5142,27
5143,28
5144,27
5145,27
5146,28
5147,28
5148,27
5149,27
5150,27
5151,28
5152,28
5153,27
5154,27
5155,27
5156,27
5157,27
5158,27
5159,27
5160,27
5161,27
5162,27
5163,27
5164,27
5165,27
5166,27
5167,27
5168,27
5169,27
5170,27
5171,28
5172,28
5173,28
5174,28
5175,28
5176,27
5177,28
5178,27
5179,27
5180,27
5181,27
5182,27
5183,27
5184,27
5185,28
5186,28
5187,27
5188,27
5189,27
5190,27
5191,27
5192,27
5193,27
5194,27
5195,27
5196,27
5197,27
5198,27
5199,27
5200,27
5201,27
5202,27
5203,27
5204,27
5205,27
5206,27
5207,27
5208,27
5209,27
5210,27
5211,27
5212,27
5213,27
5214,27
5215,27
5216,27
5217,28
5218,29
5219,29
5220,28
5221,28
5222,28
5223,28
5224,28
5225,28
5226,28
5227,28
5228,28
5229,28
5230,29
5231,28
5232,27
5233,27
5234,27
5235,27
5236,27
5237,27
5238,27
5239,27
5240,28
5241,27
5242,27
5243,27
5244,27
5245,27
5246,27
5247,27
5248,27
5249,28
5250,28
5251,28
5252,28
5253,28
5254,28
5255,27
5256,27
5257,27
5258,27
5259,27
5260,27
5261,27
5262,27
5263,27
5264,27
5265,27
5266,27
5267,27
5268,27
5269,27
5270,29
5271,29
5272,29
5273,28
5274,28
5275,28
5276,28
5277,27
5278,27
5279,27
5280,27
5281,27
5282,27
5283,27
5284,27
5285,28
5286,27
5287,27
5288,27
5289,27
5290,27
5291,28
5292,27
5293,27
5294,27
5295,27
5296,27
5297,27
5298,27
5299,27
5300,28
5301,27
5302,27
5303,27
5304,27
5305,27
5306,27
5307,27
5308,27
5309,27
5310,27
5311,27
5312,27
5313,27
5314,27
5315,27
5316,27
5317,27
5318,27
5319,27
5320,27
5321,27
5322,27
5323,27
5324,27
5325,27
5326,27
5327,27
5328,27
5329,27
5330,27
5331,27
5332,27
5333,27
5334,27
5335,27
5336,27
5337,27
5338,27
5339,27
5340,27
5341,28
5342,28
5343,27
5344,27
5345,27
5346,27
5347,27
5348,27
5349,27
5350,28
5351,28
5352,28
5353,28
5354,27
5355,27
5356,27
5357,27
5358,27
5359,27
5360,27
5361,27
5362,27
5363,27
5364,27
5365,27
5366,27
5367,27
5368,27
5369,27
5370,27
5371,28
5372,28
5373,28
5374,27
5375,27
5376,28
5377,28
5378,29
5379,28
5380,27
5381,27
5382,27
5383,28
5384,27
5385,28
5386,28
5387,27
5388,27
5389,27
5390,27
5391,27
5392,27
5393,27
5394,27
5395,27
5396,27
5397,27
5398,27
5399,27
5400,27
5401,27
5402,27
5403,27
5404,27
5405,27
5406,27
5407,27
5408,27
5409,27
5410,27
5411,27
5412,27
5413,27
5414,27
5415,27
5416,27
5417,27
5418,27
5419,27
5420,27
5421,27
5422,27
5423,27
5424,27
5425,27
5426,27
5427,28
5428,27
5429,27
5430,28
5431,27
5432,27
5433,27
5434,27
5435,27
5436,27
5437,27
5438,27
5439,27
5440,27
5441,27
5442,27
5443,27
5444,27
5445,27
5446,27
5447,27
5448,27
5449,27
5450,27
5451,27
5452,27
5453,27
5454,27
5455,27
5456,27
5457,27
5458,27
5459,27
5460,27
5461,27
5462,27
5463,27
5464,27
5465,27
5466,27
5467,27
5468,27
5469,27
5470,27
5471,27
5472,27
5473,27
5474,27
5475,27
5476,27
5477,27
5478,27
5479,27
5480,27
5481,27
5482,27
5483,27
5484,27
5485,27
5486,27
5487,27
5488,27
5489,27
5490,27
5491,27
5492,27
5493,27
5494,27
5495,27
5496,27
5497,27
5498,27
5499,29
5500,29
5501,28
5502,28
5503,28
5504,28
5505,28
5506,28
5507,28
5508,28
5509,28
5510,28
5511,28
5512,28
5513,28
5514,28
5515,28
5516,28
5517,28
5518,28
5519,28
5520,28
5521,28
5522,28
5523,27
5524,28
5525,27
5526,27
5527,27
5528,28
5529,27
5530,27
5531,27
5532,27
5533,27
5534,27
5535,27
5536,27
5537,27
5538,27
5539,27
5540,27
5541,27
5542,27
5543,28
5544,27
5545,27
5546,27
5547,27
5548,27
5549,27
5550,27
5551,27
5552,28
5553,28
5554,29
5555,27
5556,27
5557,27
5558,27
5559,27
5560,27
5561,28
5562,28
5563,28
5564,27
5565,27
5566,27
5567,27
5568,27
5569,27
5570,27
5571,27
5572,27
5573,27
5574,27
5575,27
5576,27
5577,27
5578,27
5579,27
5580,28
5581,27
5582,27
5583,27
5584,27
5585,28
5586,28
5587,28
5588,28
5589,27
5590,27
5591,27
5592,27
5593,27
5594,27
5595,27
5596,27
5597,27
5598,28
5599,27
5600,27
5601,27
5602,27
5603,27
5604,27
5605,27
5606,27
5607,27
5608,27
5609,27
5610,27
5611,28
5612,28
5613,28
5614,27
5615,27
5616,27
5617,27
5618,27
5619,27
5620,27
5621,27
5622,27
5623,27
5624,28
5625,29
5626,28
5627,28
5628,28
5629,28
5630,29
5631,28
5632,28
5633,28
5634,28
5635,28
5636,28
5637,28
5638,28
5639,28
5640,28
5641,28
5642,28
5643,28
5644,28
5645,28
5646,28
5647,28
5648,28
5649,29
5650,28
5651,28
5652,28
5653,28
5654,28
5655,28
5656,28
5657,28
5658,28
5659,28
5660,28
5661,30
5662,30
5663,30
5664,30
5665,30
5666,30
5667,29
5668,29
5669,29
5670,29
5671,29
5672,29
5673,29
5674,28
5675,28
5676,28
5677,28
5678,28
5679,28
5680,28
5681,28
5682,28
5683,28
5684,29
5685,28
5686,28
5687,28
5688,28
5689,28
5690,28
5691,28
5692,28
5693,28
5694,28
5695,28
5696,28
5697,28
5698,28
5699,28
5700,28
5701,28
5702,28
5703,28
5704,29
5705,29
5706,30
5707,30
5708,30
5709,29
5710,29
5711,29
5712,29
5713,29
5714,29
5715,29
5716,29
5717,29
5718,29
5719,29
5720,29
5721,29
5722,29
5723,29
5724,29
5725,29
5726,29
5727,29
5728,29
5729,29
5730,29
5731,29
5732,29
5733,29
5734,29
5735,29
5736,29
5737,30
5738,30
5739,30
5740,29
5741,29
5742,29
5743,30
5744,29
5745,29
5746,30
5747,29
5748,29
5749,29
5750,29
5751,29
5752,30
5753,29
5754,29
5755,29
5756,29
5757,29
5758,29
5759,29
5760,29
5761,29
5762,29
5763,29
5764,29
5765,29
5766,29
5767,30
5768,30
5769,31
5770,30
5771,30
5772,30
5773,29
5774,29
5775,29
5776,29
5777,29
5778,29
5779,29
5780,29
5781,29
5782,29
5783,29
5784,29
5785,29
5786,29
5787,29
5788,29
5789,29
5790,29
5791,30
5792,30
5793,29
5794,29
5795,29
5796,29
5797,29
5798,29
5799,29
5800,29
5801,29
5802,29
5803,29
5804,29
5805,29
5806,29
5807,29
5808,29
5809,29
5810,29
5811,29
5812,29
5813,29
5814,29
5815,29
5816,29
5817,29
5818,29
5819,29
5820,29
5821,29
5822,29
5823,29
5824,29
5825,29
5826,29
5827,29
5828,29
5829,29
5830,29
5831,29
5832,29
5833,29
5834,29
5835,29
5836,29
5837,30
5838,30
5839,29
5840,29
5841,29
5842,29
5843,30
5844,30
5845,29
5846,29
5847,29
5848,30
5849,29
5850,29
5851,29
5852,29
5853,29
5854,29
5855,29
5856,29
5857,29
5858,29
5859,29
5860,29
5861,29
5862,30
5863,29
5864,29
5865,29
5866,29
5867,29
5868,29
5869,29
5870,29
5871,30
5872,30
5873,30
5874,29
5875,29
5876,29
5877,29
5878,29
5879,29
5880,29
5881,29
5882,29
5883,29
5884,29
5885,29
5886,29
5887,29
5888,29
5889,29
5890,29
5891,29
5892,29
5893,29
5894,29
5895,29
5896,29
5897,29
5898,30
5899,30
5900,29
5901,29
5902,29
5903,29
5904,29
5905,29
5906,29
5907,29
5908,29
5909,29
5910,29
5911,29
5912,29
5913,29
5914,29
5915,30
5916,30
5917,29
5918,29
5919,29
5920,29
5921,30
5922,30
5923,30
5924,29
5925,29
5926,30
5927,30
5928,31
5929,31
5930,29
5931,29
5932,29
5933,29
5934,29
5935,29
5936,29
5937,30
5938,30
5939,30
5940,30
5941,29
5942,29
5943,29
5944,30
5945,30
5946,31
5947,31
5948,31
5949,30
5950,30
5951,30
5952,30
5953,30
5954,30
5955,29
5956,29
5957,29
5958,29
5959,29
5960,29
5961,29
5962,29
5963,29
5964,29
5965,29
5966,29
5967,29
5968,29
5969,29
5970,29
5971,29
5972,29
5973,29
5974,29
5975,29
5976,29
5977,29
5978,29
5979,29
5980,29
5981,29
5982,29
5983,29
5984,29
5985,30
5986,30
5987,30
5988,30
5989,30
5990,30
5991,30
5992,30
5993,31
5994,30
5995,30
5996,29
5997,29
5998,29
5999,29
6000,29
6001,30
6002,30
6003,31
6004,31
6005,31
6006,31
6007,32
6008,31
6009,30
6010,30
6011,30
6012,30
6013,30
6014,30
6015,30
6016,30
6017,30
6018,30
6019,30
6020,31
6021,30
6022,30
6023,30
6024,30
6025,30
6026,30
6027,30
6028,30
6029,30
6030,30
6031,31
6032,30
6033,31
6034,32
6035,31
6036,30
6037,30
6038,30
6039,30
6040,30
6041,30
6042,30
6043,30
6044,30
6045,30
6046,30
6047,30
6048,30
6049,30
6050,30
6051,30
6052,30
6053,30
6054,30
6055,30
6056,30
6057,30
6058,30
6059,30
6060,30
6061,30
6062,30
6063,30
6064,30
6065,30
6066,30
6067,30
6068,30
6069,30
6070,30
6071,30
6072,30
6073,30
6074,30
6075,30
6076,30
6077,30
6078,30
6079,30
6080,30
6081,30
6082,30
6083,30
6084,30
6085,30
6086,30
6087,30
6088,30
6089,30
6090,31
6091,31
6092,31
6093,31
6094,31
6095,31
6096,31
6097,31
6098,31
6099,31
6100,31
6101,31
6102,31
6103,32
6104,32
6105,31
6106,31
6107,31
6108,31
6109,32
6110,32
6111,32
6112,32
6113,32
6114,32
6115,32
6116,32
6117,33
6118,33
6119,31
6120,31
6121,31
6122,32
6123,32
6124,32
6125,32
6126,32
6127,32
6128,32
6129,32
6130,31
6131,31
6132,31
6133,31
6134,31
6135,31
6136,31
6137,31
6138,31
6139,31
6140,31
6141,31
6142,31
6143,31
6144,31
6145,31
6146,31
6147,31
6148,31
6149,31
6150,31
6151,31
6152,31
6153,31
6154,31
6155,31
6156,31
6157,31
6158,31
6159,31
6160,31
6161,31
6162,32
6163,32
6164,32
6165,32
6166,33
6167,33
6168,32
6169,32
6170,32
6171,32
6172,33
6173,33
6174,32
6175,32
6176,32
6177,32
6178,32
6179,31
6180,31
6181,32
6182,31
6183,31
6184,31
6185,31
6186,31
6187,31
6188,31
6189,31
6190,31
6191,31
6192,31
6193,31
6194,31
6195,31
6196,31
6197,31
6198,31
6199,31
6200,31
6201,31
6202,31
6203,31
6204,31
6205,32
6206,32
6207,32
6208,32
6209,31
6210,31
6211,31
6212,31
6213,31
6214,31
6215,31
6216,31
6217,31
6218,31
6219,31
6220,31
6221,31
6222,31
6223,31
6224,31
6225,31
6226,31
6227,31
6228,31
6229,31
6230,31
6231,31
6232,31
6233,31
6234,31
6235,31
6236,31
6237,31
6238,31
6239,31
6240,31
6241,31
6242,31
6243,31
6244,31
6245,31
6246,31
6247,31
6248,31
6249,31
6250,31
6251,31
6252,31
6253,31
6254,31
6255,31
6256,31
6257,31
6258,31
6259,31
6260,32
6261,32
6262,32
6263,31
6264,31
6265,31
6266,31
6267,31
6268,31
6269,31
6270,31
6271,31
6272,31
6273,31
6274,32
6275,33
6276,32
6277,32
6278,33
6279,31
6280,31
6281,31
6282,31
6283,31
6284,31
6285,31
6286,31
6287,31
6288,31
6289,31
6290,31
6291,31
6292,31
6293,31
6294,31
6295,31
6296,31
6297,31
6298,31
6299,31
6300,31
6301,31
6302,31
6303,31
6304,31
6305,32
6306,32
6307,31
6308,31
6309,31
6310,31
6311,31
6312,31
6313,31
6314,31
6315,31
6316,31
6317,32
6318,31
6319,31
6320,31
6321,31
6322,31
6323,32
6324,32
6325,33
6326,32
6327,32
6328,32
6329,32
6330,32
6331,32
6332,32
6333,33
6334,33
6335,33
6336,33
6337,33
6338,33
6339,33
6340,33
6341,33
6342,33
6343,33
6344,33
6345,33
6346,33
6347,33
6348,34
6349,33
6350,33
6351,33
6352,33
6353,33
6354,33
6355,33
6356,33
6357,34
6358,34
6359,34
6360,34
6361,34
6362,34
6363,34
6364,33
6365,33
6366,33
6367,33
6368,33
6369,33
6370,33
6371,33
6372,33
6373,33
6374,33
6375,33
6376,33
6377,34
6378,34
6379,34
6380,34
6381,34
6382,34
6383,33
6384,33
6385,33
6386,33
6387,33
6388,33
6389,33
6390,33
6391,33
6392,33
6393,33
6394,33
6395,33
6396,33
6397,33
6398,33
6399,33
6400,33
6401,33
6402,33
6403,33
6404,33
6405,33
6406,33
6407,33
6408,33
6409,33
6410,34
6411,34
6412,34
6413,33
6414,33
6415,33
6416,33
6417,33
6418,33
6419,33
6420,33
6421,33
6422,33
6423,33
6424,33
6425,33
6426,33
6427,33
6428,33
6429,33
6430,33
6431,33
6432,33
6433,33
6434,33
6435,33
6436,33
6437,34
6438,34
6439,34
6440,34
6441,33
6442,33
6443,33
6444,34
6445,34
6446,34
6447,34
6448,34
6449,34
6450,34
6451,34
6452,34
6453,34
6454,34
6455,34
6456,34
6457,34
6458,34
6459,34
6460,34
6461,34
6462,34
6463,34
6464,34
6465,34
6466,34
6467,34
6468,34
6469,34
6470,34
6471,34
6472,34
6473,34
6474,34
6475,34
6476,34
6477,34
6478,34
6479,34
6480,34
6481,34
6482,34
6483,34
6484,34
6485,34
6486,34
6487,34
6488,34
6489,36
6490,37
6491,37
6492,37
6493,37
6494,36
6495,36
6496,36
6497,35
6498,35
6499,35
6500,35
6501,35
6502,35
6503,35
6504,35
6505,35
6506,35
6507,35
6508,35
6509,35
6510,35
6511,35
6512,35
6513,35
6514,35
6515,35
6516,35
6517,35
6518,35
6519,35
6520,35
6521,35
6522,35
6523,35
6524,35
6525,35
6526,35
6527,35
6528,35
6529,35
6530,35
6531,35
6532,35
6533,35
6534,35
6535,35
6536,35
6537,36
6538,36
6539,35
6540,35
6541,35
6542,35
6543,35
6544,35
6545,35
6546,35
6547,35
6548,35
6549,35
6550,35
6551,35
6552,35
6553,35
6554,35
6555,35
6556,35
6557,35
6558,35
6559,35
6560,35
6561,35
6562,35
6563,35
6564,35
6565,35
6566,35
6567,35
6568,35
6569,35
6570,35
6571,35
6572,35
6573,35
6574,35
6575,36
6576,36
6577,35
6578,35
6579,35
6580,35
6581,35
6582,35
6583,35
6584,35
6585,35
6586,35
6587,35
6588,36
6589,35
6590,35
6591,35
6592,35
6593,35
6594,36
6595,36
6596,36
6597,35
6598,35
6599,35
6600,35
6601,35
6602,35
6603,35
6604,35
6605,35
6606,35
6607,35
6608,35
6609,35
6610,35
6611,35
6612,35
6613,35
6614,35
6615,35
6616,35
6617,35
6618,35
6619,36
6620,36
6621,36
6622,36
6623,36
6624,36
6625,36
6626,36
6627,36
6628,36
6629,36
6630,36
6631,36
6632,36
6633,36
6634,36
6635,36
6636,37
6637,36
6638,36
6639,36
6640,37
6641,37
6642,38
6643,37
6644,37
6645,37
6646,36
6647,36
6648,36
6649,36
6650,36
6651,36
6652,36
6653,36
6654,36
6655,36
6656,36
6657,37
6658,36
6659,36
6660,36
6661,37
6662,37
6663,38
6664,38
6665,38
6666,38
6667,37
6668,37
6669,37
6670,37
6671,36
6672,36
6673,36
6674,36
6675,36
6676,36
6677,36
6678,36
6679,36
6680,36
6681,36
6682,36
6683,36
6684,36
6685,36
6686,36
6687,36
6688,36
6689,36
6690,36
6691,36
6692,36
6693,36
6694,36
6695,36
6696,36
6697,36
6698,36
6699,36
6700,36
6701,36
6702,36
6703,36
6704,36
6705,36
6706,36
6707,36
6708,36
6709,36
6710,36
6711,36
6712,36
6713,36
6714,36
6715,36
6716,36
6717,36
6718,36
6719,36
6720,37
6721,36
6722,36
6723,36
6724,36
6725,36
6726,36
6727,36
6728,36
6729,36
6730,36
6731,36
6732,36
6733,36
6734,36
6735,36
6736,36
6737,36
6738,36
6739,36
6740,36
6741,36
6742,36
6743,36
6744,36
6745,36
6746,36
6747,36
6748,36
6749,36
6750,36
6751,36
6752,36
6753,36
6754,36
6755,36
6756,36
6757,36
6758,36
6759,36
6760,36
6761,36
6762,36
6763,36
6764,36
6765,36
6766,36
6767,36
6768,36
6769,36
6770,36
6771,36
6772,36
6773,36
6774,36
6775,36
6776,36
6777,37
6778,37
6779,36
6780,36
6781,36
6782,36
6783,36
6784,36
6785,36
6786,36
6787,36
6788,36
6789,36
6790,36
6791,36
6792,36
6793,36
6794,36
6795,36
6796,36
6797,36
6798,36
6799,36
6800,36
6801,36
6802,36
6803,36
6804,36
6805,36
6806,36
6807,37
6808,36
6809,36
6810,36
6811,36
6812,36
6813,36
6814,36
6815,36
6816,36
6817,36
6818,36
6819,36
6820,36
6821,36
6822,36
6823,36
6824,36
6825,36
6826,36
6827,36
6828,36
6829,36
6830,36
6831,36
6832,36
6833,36
6834,36
6835,36
6836,36
6837,36
6838,36
6839,36
6840,36
6841,36
6842,36
6843,36
6844,36
6845,36
6846,37
6847,37
6848,37
6849,36
6850,36
6851,36
6852,36
6853,36
6854,36
6855,36
6856,36
6857,37
6858,37
6859,36
6860,36
6861,36
6862,36
6863,36
6864,36
6865,36
6866,36
6867,36
6868,36
6869,36
6870,36
6871,36
6872,36
6873,36
6874,36
6875,36
6876,36
6877,36
6878,36
6879,36
6880,36
6881,36
6882,36
6883,36
6884,36
6885,36
6886,36
6887,36
6888,36
6889,36
6890,36
6891,36
6892,36
6893,36
6894,36
6895,36
6896,36
6897,36
6898,36
6899,36
6900,36
6901,37
6902,36
6903,36
6904,36
6905,36
6906,36
6907,37
6908,37
6909,37
6910,37
6911,37
6912,37
6913,37
6914,37
6915,37
6916,37
6917,37
6918,37
6919,37
6920,37
6921,37
6922,37
6923,38
6924,38
6925,37
6926,37
6927,37
6928,37
6929,37
6930,37
6931,37
6932,37
6933,37
6934,37
6935,37
6936,37
6937,37
6938,37
6939,37
6940,36
6941,37
6942,36
6943,36
6944,36
6945,36
6946,36
6947,36
6948,36
6949,36
6950,36
6951,36
6952,36
6953,36
6954,36
6955,37
6956,37
6957,37
6958,37
6959,36
6960,36
6961,36
6962,36
6963,36
6964,36
6965,36
6966,36
6967,36
6968,36
6969,36
6970,36
6971,36
6972,36
6973,36
6974,36
6975,36
6976,36
6977,36
6978,36
6979,36
6980,36
6981,36
6982,36
6983,36
6984,36
6985,36
6986,36
6987,36
6988,36
6989,36
6990,36
6991,36
6992,36
6993,36
6994,36
6995,36
6996,36
6997,36
6998,36
6999,36
7000,36
7001,36
7002,36
7003,36
7004,36
7005,36
7006,36
7007,36
7008,36
7009,36
7010,36
7011,36
7012,36
7013,36
7014,36
7015,36
7016,36
7017,37
7018,36
7019,36
7020,36
7021,36
7022,36
7023,36
7024,36
7025,36
7026,36
7027,38
7028,38
7029,37
7030,37
7031,36
7032,36
7033,36
7034,37
7035,37
7036,37
7037,37
7038,37
7039,37
7040,36
7041,36
7042,35
7043,35
7044,35
7045,35
7046,35
7047,35
7048,35
7049,35
7050,35
7051,35
7052,35
7053,35
7054,35
7055,35
7056,35
7057,35
7058,35
7059,35
7060,35
7061,35
7062,35
7063,35
7064,35
7065,35
7066,35
7067,35
7068,35
7069,35
7070,35
7071,35
7072,35
7073,35
7074,35
7075,36
7076,35
7077,35
7078,35
7079,35
7080,35
7081,36
7082,36
7083,36
7084,36
7085,36
7086,35
7087,35
7088,35
7089,35
7090,35
7091,35
7092,35
7093,35
7094,35
7095,35
7096,35
7097,35
7098,35
7099,35
7100,35
7101,35
7102,36
7103,35
7104,35
7105,35
7106,35
7107,35
7108,35
7109,35
7110,35
7111,35
7112,35
7113,35
7114,35
7115,35
7116,35
7117,35
7118,35
7119,35
7120,35
7121,35
7122,35
7123,35
7124,35
7125,35
7126,35
7127,35
7128,35
7129,35
7130,35
7131,35
7132,35
7133,36
7134,35
7135,35
7136,35
7137,35
7138,35
7139,35
7140,36
7141,36
7142,35
7143,35
7144,35
7145,35
7146,35
7147,35
7148,35
7149,35
7150,35
7151,35
7152,35
7153,35
7154,35
7155,35
7156,35
7157,35
7158,35
7159,35
7160,35
7161,35
7162,35
7163,35
7164,35
7165,35
7166,35
7167,35
7168,35
7169,35
7170,35
7171,35
7172,35
7173,35
7174,35
7175,35
7176,35
7177,35
7178,35
7179,35
7180,35
7181,35
7182,35
7183,35
7184,35
7185,35
7186,35
7187,35
7188,35
7189,35
7190,35
7191,35
7192,35
7193,35
7194,35
7195,35
7196,35
7197,35
7198,36
7199,36
7200,36
7201,36
7202,35
7203,35
7204,35
7205,35
7206,35
7207,35
7208,35
7209,35
7210,35
7211,35
7212,35
7213,35
7214,35
7215,35
7216,35
7217,35
7218,35
7219,36
7220,35
7221,35
7222,35
7223,35
7224,35
7225,35
7226,35
7227,35
7228,35
7229,35
7230,35
7231,35
7232,35
7233,35
7234,35
7235,35
7236,35
7237,35
7238,35
7239,35
7240,35
7241,35
7242,36
7243,36
7244,35
7245,35
7246,35
7247,35
7248,35
7249,35
7250,35
7251,35
7252,35
7253,35
7254,35
7255,35
7256,35
7257,35
7258,35
7259,35
7260,35
7261,35
7262,35
7263,35
7264,35
7265,35
7266,35
7267,35
7268,35
7269,35
7270,35
7271,35
7272,35
7273,35
7274,35
7275,35
7276,35
7277,35
7278,35
7279,35
7280,35
7281,35
7282,35
7283,35
7284,35
7285,35
7286,35
7287,35
7288,35
7289,35
7290,36
7291,35
7292,35
7293,35
7294,35
7295,35
7296,35
7297,35
7298,35
7299,35
7300,35
7301,35
7302,35
7303,35
7304,35
7305,35
7306,35
7307,35
7308,35
7309,35
7310,35
7311,35
7312,35
7313,35
7314,35
7315,35
7316,35
7317,35
7318,35
7319,35
7320,35
7321,35
7322,35
7323,35
7324,35
7325,35
7326,35
7327,35
7328,35
7329,35
7330,36
7331,35
7332,35
7333,35
7334,35
7335,35
7336,35
7337,35
7338,35
7339,35
7340,35
7341,35
7342,35
7343,35
7344,35
7345,35
7346,35
7347,35
7348,35
7349,35
7350,35
7351,35
7352,35
7353,35
7354,35
7355,35
7356,35
7357,35
7358,35
7359,35
7360,35
7361,35
7362,35
7363,35
7364,35
7365,35
7366,35
7367,35
7368,35
7369,35
7370,34
7371,34
7372,34
7373,34
7374,34
7375,34
7376,34
7377,34
7378,34
7379,34
7380,34
7381,34
7382,35
7383,35
7384,35
7385,35
7386,35
7387,35
7388,35
7389,35
7390,35
7391,35
7392,35
7393,35
7394,36
7395,36
7396,36
7397,36
7398,36
7399,36
7400,36
7401,36
7402,36
7403,37
7404,37
7405,36
7406,36
7407,36
7408,36
7409,36
7410,36
7411,36
7412,36
7413,36
7414,36
7415,36
7416,36
7417,36
7418,36
7419,36
7420,36
7421,36
7422,36
7423,36
7424,36
7425,36
7426,36
7427,36
7428,36
7429,36
7430,36
7431,36
7432,36
7433,36
7434,36
7435,37
7436,36
7437,36
7438,36
7439,36
7440,36
7441,36
7442,36
7443,36
7444,36
7445,36
7446,36
7447,36
7448,36
7449,36
7450,36
7451,36
7452,36
7453,36
7454,36
7455,36
7456,36
7457,35
7458,35
7459,35
7460,35
7461,35
7462,35
7463,35
7464,35
7465,35
7466,35
7467,35
7468,35
7469,35
7470,35
7471,35
7472,35
7473,35
7474,35
7475,35
7476,35
7477,35
7478,35
7479,35
7480,35
7481,35
7482,35
7483,35
7484,35
7485,35
7486,35
7487,35
7488,35
7489,35
7490,35
7491,35
7492,35
7493,35
7494,35
7495,36
7496,35
7497,35
7498,35
7499,35
7500,35
7501,35
7502,35
7503,35
7504,35
7505,35
7506,35
7507,35
7508,35
7509,35
7510,36
7511,36
7512,36
7513,36
7514,35
7515,35
7516,35
7517,35
7518,35
7519,35
7520,35
7521,35
7522,35
7523,35
7524,35
7525,35
7526,35
7527,35
7528,36
7529,36
7530,36
7531,36
7532,36
7533,36
7534,36
7535,35
7536,35
7537,35
7538,35
7539,35
7540,35
7541,35
7542,35
7543,35
7544,35
7545,35
7546,35
7547,36
7548,35
7549,35
7550,35
7551,35
7552,35
7553,35
7554,35
7555,35
7556,35
7557,35
7558,35
7559,36
7560,35
7561,35
7562,35
7563,36
7564,36
7565,36
7566,36
7567,36
7568,36
7569,36
7570,36
7571,36
7572,36
7573,36
7574,36
7575,36
7576,36
7577,36
7578,36
7579,37
7580,37
7581,37
7582,36
7583,35
7584,35
7585,35
7586,35
7587,36
7588,35
7589,35
7590,35
7591,35
7592,35
7593,35
7594,35
7595,35
7596,35
7597,35
7598,35
7599,35
7600,36
7601,35
7602,35
7603,35
7604,35
7605,35
7606,35
7607,35
7608,34
7609,34
7610,34
7611,34
7612,35
7613,34
7614,34
7615,34
7616,34
7617,34
7618,34
7619,36
7620,34
7621,34
7622,34
7623,34
7624,34
7625,34
7626,34
7627,34
7628,34
7629,34
7630,34
7631,34
7632,34
7633,34
7634,34
7635,34
7636,35
7637,35
7638,34
7639,34
7640,34
7641,34
7642,35
7643,35
7644,35
7645,34
7646,34
7647,34
7648,34
7649,34
7650,34
7651,34
7652,34
7653,34
7654,34
7655,34
7656,34
7657,34
7658,34
7659,34
7660,34
7661,34
7662,34
7663,34
7664,34
7665,34
7666,34
7667,34
7668,34
7669,34
7670,34
7671,34
7672,34
7673,34
7674,34
7675,34
7676,34
7677,34
7678,34
7679,34
7680,34
7681,34
7682,34
7683,34
7684,34
7685,34
7686,34
7687,34
7688,34
7689,34
7690,34
7691,34
7692,34
7693,34
7694,34
7695,34
7696,34
7697,34
7698,34
7699,34
7700,34
7701,34
7702,34
7703,34
7704,34
7705,34
7706,34
7707,34
7708,34
7709,33
7710,33
7711,33
7712,33
7713,33
7714,33
7715,33
7716,33
7717,33
7718,33
7719,33
7720,33
7721,33
7722,33
7723,33
7724,33
7725,33
7726,33
7727,33
7728,33
7729,33
7730,34
7731,34
7732,36
7733,35
7734,35
7735,35
7736,35
7737,35
7738,34
7739,34
7740,34
7741,34
7742,34
7743,34
7744,34
7745,34
7746,34
7747,34
7748,34
7749,34
7750,34
7751,34
7752,34
7753,35
7754,35
7755,34
7756,34
7757,34
7758,34
7759,33
7760,33
7761,33
7762,33
7763,33
7764,33
7765,33
7766,33
7767,33
7768,34
7769,34
7770,33
7771,33
7772,33
7773,33
7774,34
7775,34
7776,34
7777,34
7778,34
7779,33
7780,33
7781,33
7782,33
7783,33
7784,33
7785,33
7786,33
7787,33
7788,33
7789,33
7790,33
7791,33
7792,33
7793,34
7794,34
7795,33
7796,33
7797,33
7798,33
7799,33
7800,33
7801,33
7802,33
7803,33
7804,33
7805,33
7806,33
7807,34
7808,33
7809,34
7810,33
7811,33
7812,33
7813,34
7814,33
7815,33
7816,33
7817,33
7818,33
7819,33
7820,33
7821,33
7822,33
7823,33
7824,33
7825,33
7826,33
7827,33
7828,33
7829,33
7830,33
7831,33
7832,34
7833,33
7834,33
7835,33
7836,33
7837,33
7838,33
7839,33
7840,33
7841,32
7842,32
7843,32
7844,32
7845,32
7846,32
7847,34
7848,33
7849,33
7850,33
7851,32
7852,32
7853,32
7854,32
7855,32
7856,32
7857,32
7858,32
7859,32
7860,32
7861,32
7862,32
7863,33
7864,33
7865,33
7866,33
7867,32
7868,32
7869,32
7870,32
7871,32
7872,32
7873,32
7874,31
7875,31
7876,31
7877,31
7878,31
7879,31
7880,31
7881,31
7882,31
7883,31
7884,31
7885,31
7886,31
7887,31
7888,31
7889,31
7890,31
7891,31
7892,31
7893,31
7894,31
7895,31
7896,31
7897,31
7898,31
7899,31
7900,31
7901,31
7902,31
7903,31
7904,31
7905,31
7906,31
7907,31
7908,31
7909,31
7910,31
7911,31
7912,31
7913,32
7914,31
7915,31
7916,31
7917,31
7918,31
7919,31
7920,31
7921,31
7922,31
7923,31
7924,31
7925,31
7926,31
7927,31
7928,31
7929,31
7930,31
7931,31
7932,31
7933,31
7934,31
7935,31
7936,31
7937,31
7938,31
7939,31
7940,31
7941,31
7942,31
7943,31
7944,31
7945,31
7946,31
7947,31
7948,32
7949,32
7950,31
7951,31
7952,31
7953,31
7954,31
7955,31
7956,31
7957,32
7958,32
7959,32
7960,32
7961,31
7962,31
7963,31
7964,31
7965,31
7966,31
7967,31
7968,31
7969,31
7970,31
7971,31
7972,31
7973,31
7974,31
7975,31
7976,31
7977,31
7978,31
7979,31
7980,31
7981,31
7982,31
7983,31
7984,31
7985,31
7986,31
7987,31
7988,31
7989,31
7990,31
7991,31
7992,31
7993,31
7994,31
7995,31
7996,31
7997,31
7998,31
7999,31
8000,31
8001,31
8002,31
8003,31
8004,31
8005,31
8006,31
8007,31
8008,31
8009,31
8010,31
8011,31
8012,31
8013,32
8014,32
8015,32
8016,32
8017,32
8018,32
8019,32
8020,32
8021,32
8022,32
8023,32
8024,32
8025,32
8026,32
8027,32
8028,32
8029,32
8030,32
8031,32
8032,32
8033,32
8034,32
8035,32
8036,32
8037,32
8038,32
8039,32
8040,32
8041,32
8042,32
8043,32
8044,32
8045,32
8046,32
8047,32
8048,32
8049,32
8050,32
8051,32
8052,32
8053,32
8054,32
8055,32
8056,32
8057,32
8058,32
8059,32
8060,32
8061,32
8062,32
8063,32
8064,32
8065,32
8066,32
8067,32
8068,32
8069,32
8070,32
8071,31
8072,31
8073,31
8074,31
8075,31
8076,31
8077,31
8078,31
8079,31
8080,31
8081,31
8082,31
8083,31
8084,31
8085,31
8086,31
8087,31
8088,31
8089,31
8090,31
8091,31
8092,31
8093,31
8094,31
8095,31
8096,31
8097,32
8098,32
8099,32
8100,31
8101,31
8102,31
8103,31
8104,31
8105,31
8106,31
8107,31
8108,31
8109,31
8110,32
8111,32
8112,32
8113,32
8114,32
8115,32
8116,32
8117,32
8118,32
8119,33
8120,33
8121,32
8122,32
8123,32
8124,32
8125,32
8126,32
8127,32
8128,31
8129,31
8130,31
8131,31
8132,31
8133,31
8134,31
8135,31
8136,31
8137,31
8138,31
8139,32
8140,32
8141,31
8142,31
8143,32
8144,31
8145,31
8146,31
8147,31
8148,31
8149,31
8150,31
8151,31
8152,31
8153,31
8154,31
8155,31
8156,31
8157,31
8158,31
8159,31
8160,31
8161,31
8162,32
8163,32
8164,32
8165,33
8166,33
8167,32
8168,31
8169,32
8170,31
8171,31
8172,31
8173,31
8174,31
8175,31
8176,31
8177,31
8178,31
8179,31
8180,31
8181,31
8182,31
8183,31
8184,31
8185,31
8186,31
8187,31
8188,31
8189,32
8190,32
8191,32
8192,32
8193,32
8194,32
8195,32
8196,32
8197,32
8198,32
8199,32
8200,32
8201,32
8202,32
8203,32
8204,32
8205,31
8206,31
8207,31
8208,31
8209,32
8210,32
8211,32
8212,32
8213,32
8214,32
8215,32
8216,32
8217,32
8218,32
8219,31
8220,31
8221,31
8222,31
8223,31
8224,31
8225,31
8226,31
8227,31
8228,31
8229,32
8230,31
8231,33
8232,33
8233,32
8234,32
8235,32
8236,32
8237,32
8238,32
8239,32
8240,32
8241,33
8242,32
8243,32
8244,32
8245,32
8246,32
8247,32
8248,32
8249,31
8250,31
8251,31
8252,31
8253,31
8254,31
8255,31
8256,31
8257,31
8258,31
8259,32
8260,31
8261,31
8262,31
8263,31
8264,31
8265,31
8266,31
8267,31
8268,31
8269,31
8270,31
8271,31
8272,31
8273,31
8274,31
8275,31
8276,31
8277,31
8278,31
8279,31
8280,31
8281,32
8282,32
8283,31
8284,31
8285,32
8286,32
8287,32
8288,33
8289,32
8290,32
8291,32
8292,32
8293,32
8294,32
8295,32
8296,32
8297,32
8298,32
8299,32
8300,32
8301,32
8302,32
8303,32
8304,32
8305,32
8306,32
8307,32
8308,32
8309,32
8310,33
8311,33
8312,32
8313,32
8314,32
8315,32
8316,32
8317,32
8318,32
8319,32
8320,32
8321,32
8322,32
8323,32
8324,32
8325,32
8326,32
8327,32
8328,32
8329,32
8330,32
8331,32
8332,33
8333,32
8334,32
8335,32
8336,32
8337,32
8338,32
8339,33
8340,33
8341,34
8342,33
8343,33
8344,33
8345,33
8346,33
8347,32
8348,32
8349,32
8350,32
8351,32
8352,32
8353,32
8354,32
8355,32
8356,32
8357,32
8358,32
8359,32
8360,32
8361,33
8362,33
8363,32
8364,32
8365,32
8366,32
8367,32
8368,32
8369,32
8370,32
8371,32
8372,32
8373,32
8374,32
8375,33
8376,32
8377,32
8378,32
8379,32
8380,32
8381,32
8382,32
8383,32
8384,32
8385,32
8386,33
8387,33
8388,33
8389,33
8390,33
8391,33
8392,33
8393,33
8394,33
8395,33
8396,33
8397,33
8398,33
8399,33
8400,33
8401,33
8402,33
8403,33
8404,33
8405,33
8406,33
8407,33
8408,33
8409,33
8410,33
8411,33
8412,33
8413,33
8414,33
8415,34
8416,34
8417,35
8418,35
8419,35
8420,35
8421,35
8422,35
8423,34
8424,34
8425,34
8426,34
8427,34
8428,34
8429,34
8430,34
8431,33
8432,33
8433,33
8434,33
8435,33
8436,33
8437,33
8438,33
8439,33
8440,33
8441,33
8442,33
8443,33
8444,33
8445,33
8446,33
8447,33
8448,33
8449,33
8450,33
8451,33
8452,33
8453,33
8454,33
8455,33
8456,33
8457,33
8458,33
8459,33
8460,33
8461,33
8462,33
8463,33
8464,33
8465,33
8466,33
8467,33
8468,33
8469,33
8470,34
8471,34
8472,34
8473,34
8474,33
8475,33
8476,33
8477,33
8478,33
8479,32
8480,32
8481,32
8482,32
8483,32
8484,32
8485,32
8486,32
8487,32
8488,32
8489,32
8490,32
8491,32
8492,32
8493,32
8494,32
8495,32
8496,32
8497,32
8498,32
8499,32
8500,32
8501,33
8502,32
8503,32
8504,32
8505,32
8506,32
8507,32
8508,32
8509,32
8510,32
8511,32
8512,32
8513,32
8514,32
8515,32
8516,32
8517,32
8518,32
8519,32
8520,32
8521,32
8522,32
8523,32
8524,32
8525,32
8526,33
8527,33
8528,33
8529,33
8530,33
8531,33
8532,33
8533,33
8534,33
8535,33
8536,33
8537,33
8538,33
8539,34
8540,34
8541,34
8542,34
8543,33
8544,33
8545,33
8546,33
8547,33
8548,33
8549,33
8550,33
8551,33
8552,33
8553,33
8554,34
8555,35
8556,34
8557,33
8558,33
8559,33
8560,33
8561,33
8562,33
8563,33
8564,33
8565,33
8566,33
8567,34
8568,33
8569,33
8570,34
8571,34
8572,33
8573,33
8574,33
8575,33
8576,33
8577,33
8578,33
8579,33
8580,33
8581,33
8582,33
8583,34
8584,33
8585,33
8586,33
8587,33
8588,33
8589,33
8590,33
8591,33
8592,33
8593,33
8594,33
8595,33
8596,33
8597,33
8598,33
8599,33
8600,33
8601,33
8602,33
8603,33
8604,33
8605,33
8606,33
8607,33
8608,33
8609,33
8610,33
8611,34
8612,36
8613,36
8614,36
8615,36
8616,36
8617,36
8618,35
8619,34
8620,34
8621,35
8622,34
8623,34
8624,34
8625,34
8626,34
8627,34
8628,34
8629,34
8630,34
8631,33
8632,33
8633,33
8634,33
8635,33
8636,33
8637,33
8638,33
8639,33
8640,33
8641,33
8642,33
8643,33
8644,33
8645,33
8646,33
8647,33
8648,33
8649,33
8650,33
8651,33
8652,33
8653,33
8654,33
8655,33
8656,33
8657,33
8658,33
8659,33
8660,33
8661,33
8662,33
8663,33
8664,33
8665,33
8666,33
8667,33
8668,34
8669,34
8670,34
8671,34
8672,34
8673,34
8674,33
8675,33
8676,33
8677,33
8678,33
8679,33
8680,33
8681,33
8682,33
8683,33
8684,33
8685,33
8686,33
8687,33
8688,33
8689,33
8690,34
8691,33
8692,33
8693,33
8694,33
8695,33
8696,33
8697,33
8698,33
8699,33
8700,33
8701,33
8702,33
8703,33
8704,33
8705,33
8706,33
8707,33
8708,33
8709,33
8710,33
8711,33
8712,33
8713,33
8714,33
8715,33
8716,33
8717,33
8718,33
8719,33
8720,33
8721,33
8722,33
8723,33
8724,33
8725,34
8726,34
8727,34
8728,34
8729,33
8730,32
8731,32
8732,32
8733,32
8734,32
8735,32
8736,32
8737,32
8738,32
8739,32
8740,32
8741,32
8742,32
8743,32
8744,32
8745,32
8746,32
8747,32
8748,32
8749,32
8750,33
8751,33
8752,33
8753,33
8754,33
8755,33
8756,33
8757,33
8758,33
8759,33
8760,34
8761,34
8762,33
8763,33
8764,33
8765,33
8766,33
8767,33
8768,33
8769,33
8770,33
8771,33
8772,33
8773,33
8774,33
8775,35
8776,35
8777,35
8778,34
8779,35
8780,35
8781,35
8782,34
8783,33
8784,33
8785,33
8786,34
8787,34
8788,34
8789,34
8790,33
8791,33
8792,33
8793,34
8794,34
8795,34
8796,34
8797,34
8798,34
8799,34
8800,34
8801,34
8802,34
8803,35
8804,34
8805,33
8806,34
8807,34
8808,34
8809,33
8810,33
8811,33
8812,33
8813,33
8814,33
8815,33
8816,33
8817,33
8818,33
8819,33
8820,33
8821,33
8822,34
8823,33
8824,33
8825,33
8826,33
8827,33
8828,33
8829,33
8830,33
8831,33
8832,33
8833,33
8834,33
8835,33
8836,33
8837,33
8838,33
8839,33
8840,33
8841,33
8842,33
8843,33
8844,33
8845,33
8846,33
8847,33
8848,33
8849,33
8850,33
8851,33
8852,33
8853,33
8854,33
8855,33
8856,33
8857,33
8858,33
8859,33
8860,33
8861,33
8862,33
8863,33
8864,33
8865,33
8866,33
8867,34
8868,34
8869,33
8870,33
8871,33
8872,33
8873,33
8874,33
8875,33
8876,33
8877,33
8878,33
8879,33
8880,33
8881,33
8882,33
8883,33
8884,33
8885,33
8886,33
8887,33
8888,33
8889,33
8890,33
8891,33
8892,33
8893,33
8894,33
8895,33
8896,33
8897,33
8898,33
8899,33
8900,34
8901,34
8902,33
8903,33
8904,33
8905,32
8906,32
8907,32
8908,32
8909,32
8910,32
8911,32
8912,32
8913,32
8914,32
8915,32
8916,32
8917,33
8918,33
8919,33
8920,34
8921,33
8922,33
8923,33
8924,33
8925,33
8926,34
8927,33
8928,33
8929,32
8930,32
8931,32
8932,32
8933,32
8934,32
8935,32
8936,32
8937,32
8938,32
8939,32
8940,32
8941,32
8942,32
8943,32
8944,32
8945,32
8946,32
8947,32
8948,32
8949,32
8950,32
8951,32
8952,32
8953,32
8954,32
8955,32
8956,32
8957,32
8958,32
8959,32
8960,32
8961,32
8962,33
8963,33
8964,33
8965,33
8966,33
8967,33
8968,33
8969,33
8970,33
8971,33
8972,33
8973,33
8974,33
8975,33
8976,33
8977,33
8978,33
8979,33
8980,33
8981,34
8982,33
8983,33
8984,33
8985,33
8986,33
8987,33
8988,33
8989,34
8990,34
8991,34
8992,32
8993,33
8994,32
8995,32
8996,32
8997,32
8998,32
8999,32
9000,32
9001,32
9002,32
9003,32
9004,32
9005,32
9006,32
9007,32
9008,32
9009,32
9010,32
9011,32
9012,32
9013,32
9014,32
9015,32
9016,32
9017,32
9018,33
9019,33
9020,33
9021,33
9022,32
9023,32
9024,32
9025,32
9026,32
9027,32
9028,32
9029,32
9030,32
9031,32
9032,31
9033,31
9034,31
9035,31
9036,31
9037,31
9038,31
9039,31
9040,31
9041,31
9042,31
9043,31
9044,31
9045,31
9046,31
9047,31
9048,31
9049,31
9050,31
9051,31
9052,31
9053,31
9054,31
9055,31
9056,31
9057,31
9058,31
9059,31
9060,31
9061,31
9062,31
9063,31
9064,31
9065,31
9066,31
9067,31
9068,31
9069,31
9070,31
9071,31
9072,31
9073,31
9074,31
9075,32
9076,32
9077,32
9078,32
9079,32
9080,32
9081,32
9082,32
9083,32
9084,32
9085,32
9086,32
9087,32
9088,32
9089,32
9090,32
9091,32
9092,32
9093,32
9094,33
9095,32
9096,32
9097,32
9098,32
9099,32
9100,32
9101,32
9102,32
9103,32
9104,32
9105,32
9106,32
9107,32
9108,32
9109,32
9110,32
9111,32
9112,32
9113,32
9114,32
9115,32
9116,33
9117,31
9118,31
9119,31
9120,31
9121,31
9122,31
9123,31
9124,31
9125,31
9126,30
9127,30
9128,30
9129,30
9130,30
9131,30
9132,30
9133,30
9134,30
9135,30
9136,30
9137,30
9138,30
9139,30
9140,30
9141,30
9142,30
9143,30
9144,30
9145,30
9146,30
9147,31
9148,30
9149,30
9150,30
9151,30
9152,30
9153,30
9154,30
9155,31
9156,30
9157,30
9158,30
9159,30
9160,30
9161,30
9162,30
9163,30
9164,30
9165,30
9166,30
9167,30
9168,30
9169,30
9170,30
9171,30
9172,30
9173,30
9174,30
9175,30
9176,31
9177,30
9178,30
9179,30
9180,31
9181,32
9182,32
9183,32
9184,31
9185,31
9186,31
9187,31
9188,31
9189,31
9190,32
9191,32
9192,31
9193,31
9194,31
9195,31
9196,31
9197,30
9198,30
9199,30
9200,30
9201,30
9202,30
9203,30
9204,30
9205,30
9206,30
9207,30
9208,30
9209,30
9210,31
9211,31
9212,31
9213,30
9214,30
9215,31
9216,31
9217,30
9218,30
9219,31
9220,30
9221,30
9222,31
9223,30
9224,30
9225,30
9226,30
9227,30
9228,30
9229,30
9230,30
9231,30
9232,30
9233,30
9234,30
9235,30
9236,30
9237,30
9238,30
9239,30
9240,30
9241,30
9242,30
9243,30
9244,30
9245,30
9246,30
9247,30
9248,30
9249,31
9250,30
9251,30
9252,30
9253,30
9254,31
9255,31
9256,31
9257,30
9258,30
9259,30
9260,30
9261,30
9262,30
9263,30
9264,30
9265,31
9266,31
9267,31
9268,31
9269,31
9270,31
9271,31
9272,31
9273,31
9274,30
9275,30
9276,30
9277,30
9278,30
9279,30
9280,30
9281,30
9282,30
9283,30
9284,30
9285,30
9286,30
9287,30
9288,30
9289,30
9290,30
9291,30
9292,30
9293,30
9294,30
9295,30
9296,30
9297,30
9298,30
9299,30
9300,30
9301,31
9302,30
9303,30
9304,30
9305,31
9306,31
9307,31
9308,31
9309,31
9310,30
9311,31
9312,30
9313,30
9314,30
9315,30
9316,30
9317,30
9318,30
9319,30
9320,30
9321,30
9322,30
9323,30
9324,30
9325,30
9326,31
9327,30
9328,30
9329,30
9330,30
9331,30
9332,30
9333,30
9334,30
9335,30
9336,30
9337,30
9338,30
9339,30
9340,30
9341,30
9342,30
9343,31
9344,31
9345,30
9346,31
9347,30
9348,30
9349,30
9350,30
9351,30
9352,30
9353,30
9354,30
9355,30
9356,30
9357,30
9358,30
9359,30
9360,30
9361,30
9362,30
9363,30
9364,30
9365,30
9366,30
9367,30
9368,30
9369,30
9370,30
9371,30
9372,30
9373,30
9374,30
9375,30
9376,30
9377,30
9378,30
9379,30
9380,30
9381,31
9382,31
9383,30
9384,30
9385,30
9386,30
9387,30
9388,30
9389,30
9390,30
9391,30
9392,30
9393,30
9394,31
9395,30
9396,30
9397,30
9398,30
9399,30
9400,30
9401,30
9402,30
9403,30
9404,30
9405,30
9406,30
9407,30
9408,30
9409,30
9410,30
9411,30
9412,30
9413,30
9414,30
9415,30
9416,30
9417,30
9418,30
9419,30
9420,30
9421,30
9422,30
9423,30
9424,31
9425,31
9426,30
9427,30
9428,30
9429,30
9430,30
9431,30
9432,30
9433,30
9434,30
9435,30
9436,30
9437,30
9438,31
9439,31
9440,30
9441,30
9442,30
9443,30
9444,30
9445,30
9446,30
9447,30
9448,30
9449,30
9450,30
9451,30
9452,30
9453,30
9454,30
9455,30
9456,30
9457,30
9458,30
9459,30
9460,30
9461,30
9462,30
9463,30
9464,30
9465,30
9466,30
9467,30
9468,30
9469,30
9470,30
9471,30
9472,30
9473,30
9474,30
9475,30
9476,30
9477,30
9478,30
9479,31
9480,30
9481,30
9482,30
9483,30
9484,30
9485,30
9486,30
9487,30
9488,30
9489,30
9490,30
9491,30
9492,30
9493,30
9494,30
9495,30
9496,30
9497,30
9498,30
9499,30
9500,30
9501,30
9502,30
9503,30
9504,30
9505,30
9506,30
9507,30
9508,30
9509,30
9510,30
9511,30
9512,30
9513,30
9514,30
9515,30
9516,30
9517,30
9518,30
9519,30
9520,30
9521,30
9522,30
9523,30
9524,30
9525,30
9526,30
9527,30
9528,30
9529,30
9530,30
9531,30
9532,30
9533,30
9534,30
9535,30
9536,30
9537,30
9538,30
9539,30
9540,31
9541,31
9542,31
9543,30
9544,30
9545,30
9546,30
9547,30
9548,30
9549,30
9550,30
9551,30
9552,30
9553,30
9554,30
9555,31
9556,31
9557,31
9558,31
9559,31
9560,31
9561,31
9562,31
9563,31
9564,31
9565,31
9566,31
9567,31
9568,31
9569,31
9570,31
9571,31
9572,31
9573,31
9574,31
9575,31
9576,31
9577,31
9578,30
9579,30
9580,30
9581,30
9582,30
9583,30
9584,30
9585,30
9586,30
9587,30
9588,30
9589,30
9590,30
9591,30
9592,30
9593,30
9594,30
9595,30
9596,30
9597,30
9598,30
9599,30
9600,30
9601,30
9602,30
9603,30
9604,30
9605,31
9606,31
9607,30
9608,30
9609,30
9610,31
9611,31
9612,31
9613,31
9614,31
9615,30
9616,30
9617,30
9618,30
9619,30
9620,30
9621,30
9622,30
9623,30
9624,30
9625,30
9626,30
9627,30
9628,30
9629,30
9630,30
9631,30
9632,30
9633,30
9634,30
9635,30
9636,30
9637,30
9638,30
9639,30
9640,30
9641,30
9642,30
9643,30
9644,30
9645,30
9646,30
9647,30
9648,30
9649,30
9650,30
9651,30
9652,30
9653,30
9654,30
9655,30
9656,30
9657,31
9658,32
9659,31
9660,31
9661,30
9662,31
9663,31
9664,30
9665,30
9666,30
9667,30
9668,30
9669,30
9670,30
9671,30
9672,30
9673,30
9674,30
9675,30
9676,30
9677,30
9678,30
9679,30
9680,30
9681,30
9682,30
9683,31
9684,30
9685,30
9686,30
9687,30
9688,30
9689,30
9690,31
9691,31
9692,31
9693,31
9694,31
9695,32
9696,32
9697,32
9698,32
9699,32
9700,32
9701,30
9702,30
9703,30
9704,30
9705,30
9706,30
9707,30
9708,30
9709,30
9710,30
9711,30
9712,30
9713,30
9714,30
9715,30
9716,30
9717,30
9718,30
9719,30
9720,30
9721,30
9722,30
9723,30
9724,30
9725,30
9726,30
9727,30
9728,31
9729,31
9730,31
9731,31
9732,31
9733,32
9734,31
9735,31
9736,31
9737,32
9738,32
9739,31
9740,31
9741,31
9742,31
9743,31
9744,31
9745,31
9746,31
9747,31
9748,31
9749,31
9750,31
9751,31
9752,31
9753,32
9754,32
9755,31
9756,31
9757,31
9758,31
9759,31
9760,31
9761,31
9762,31
9763,31
9764,31
9765,31
9766,31
9767,31
9768,31
9769,31
9770,32
9771,32
9772,32
9773,32
9774,32
9775,32
9776,32
9777,32
9778,32
9779,32
9780,32
9781,32
9782,33
9783,32
9784,33
9785,32
9786,32
9787,32
9788,32
9789,32
9790,32
9791,32
9792,33
9793,33
9794,33
9795,33
9796,33
9797,32
9798,33
9799,33
9800,34
9801,34
9802,34
9803,33
9804,33
9805,33
9806,33
9807,33
9808,33
9809,33
9810,33
9811,33
9812,33
9813,33
9814,33
9815,33
9816,33
9817,33
9818,33
9819,33
9820,32
9821,32
9822,32
9823,32
9824,32
9825,32
9826,32
9827,32
9828,32
9829,32
9830,32
9831,32
9832,32
9833,32
9834,32
9835,32
9836,32
9837,32
9838,32
9839,32
9840,32
9841,32
9842,32
9843,32
9844,32
9845,32
9846,32
9847,32
9848,32
9849,32
9850,32
9851,32
9852,32
9853,32
9854,32
9855,32
9856,32
9857,32
9858,32
9859,32
9860,32
9861,32
9862,32
9863,32
9864,32
9865,32
9866,32
9867,32
9868,32
9869,32
9870,32
9871,32
9872,33
9873,33
9874,33
9875,33
9876,32
9877,32
9878,32
9879,32
9880,32
9881,32
9882,32
9883,32
9884,33
9885,33
9886,32
9887,32
9888,32
9889,32
9890,32
9891,32
9892,32
9893,32
9894,33
9895,33
9896,33
9897,32
9898,32
9899,32
9900,32
9901,32
9902,32
9903,32
9904,32
9905,32
9906,32
9907,32
9908,33
9909,33
9910,33
9911,33
9912,33
9913,33
9914,33
9915,33
9916,33
9917,33
9918,33
9919,33
9920,33
9921,33
9922,33
9923,33
9924,33
9925,32
9926,32
9927,32
9928,32
9929,32
9930,32
9931,32
9932,32
9933,32
9934,32
9935,32
9936,32
9937,32
9938,32
9939,32
9940,32
9941,32
9942,32
9943,33
9944,32
9945,32
9946,32
9947,32
9948,32
9949,32
9950,32
9951,32
9952,32
9953,32
9954,32
9955,32
9956,32
9957,32
9958,33
9959,33
9960,33
9961,33
9962,33
9963,33
9964,33
9965,33
9966,33
9967,33
9968,33
9969,34
9970,33
9971,32
9972,32
9973,32
9974,33
9975,32
9976,33
9977,32
9978,32
9979,32
9980,32
9981,32
9982,32
9983,32
9984,32
9985,32
9986,32
9987,32
9988,32
9989,32
9990,32
9991,32
9992,32
9993,32
9994,32
9995,32
9996,32
9997,32
9998,32
9999,32
10000,32
