1,3
2,3
3,3
4,3
5,3
6,3
7,3
8,3
9,3
10,3
11,3
12,3
13,3
14,3
15,3
16,3
17,3
18,3
19,3
20,3
21,3
22,3
23,4
24,4
25,4
26,4
27,4
28,4
29,4
30,4
31,4
32,4
33,4
34,4
35,4
36,5
37,5
38,5
39,5
40,5
41,5
42,5
43,5
44,5
45,5
46,5
47,5
48,5
49,5
50,5
51,5
52,5
53,5
54,5
55,5
56,5
57,6
58,5
59,5
60,5
61,5
62,5
63,5
64,5
65,5
66,5
67,5
68,5
69,5
70,5
71,5
72,5
73,5
74,5
75,6
76,6
77,6
78,6
79,6
80,6
81,6
82,6
83,6
84,6
85,6
86,6
87,6
88,6
89,6
90,6
91,6
92,6
93,6
94,6
95,6
96,6
97,6
98,6
99,6
100,6
101,6
102,6
103,6
104,6
105,7
106,7
107,7
108,7
109,6
110,6
111,6
112,6
113,6
114,6
115,6
116,6
117,7
118,7
119,7
120,7
121,8
122,7
123,7
124,7
125,7
126,7
127,7
128,7
129,7
130,7
131,7
132,7
133,7
134,7
135,7
136,7
137,7
138,7
139,7
140,7
141,7
142,7
143,7
144,7
145,8
146,8
147,8
148,8
149,7
150,7
151,7
152,7
153,7
154,7
155,7
156,7
157,7
158,7
159,7
160,7
161,8
162,7
163,7
164,7
165,7
166,7
167,7
168,7
169,7
170,7
171,7
172,7
173,7
174,7
175,7
176,8
177,7
178,7
179,7
180,7
181,7
182,7
183,7
184,7
185,7
186,7
187,7
188,7
189,7
190,7
191,7
192,7
193,8
194,7
195,7
196,7
197,7
198,7
199,7
200,7
201,7
202,7
203,7
204,7
205,7
206,7
207,7
208,7
209,8
210,8
211,8
212,7
213,7
214,7
215,7
216,7
217,7
218,7
219,7
220,7
221,7
222,7
223,7
224,7
225,8
226,8
227,8
228,7
229,7
230,7
231,8
232,9
233,10
234,9
235,9
236,9
237,9
238,9
239,9
240,9
241,9
242,10
243,9
244,9
245,9
246,9
247,10
248,11
249,10
250,10
251,10
252,11
253,11
254,11
255,11
256,10
257,10
258,10
259,10
260,10
261,10
262,10
263,10
264,10
265,10
266,10
267,10
268,10
269,10
270,10
271,10
272,10
273,10
274,11
275,10
276,10
277,10
278,10
279,10
280,10
281,11
282,11
283,11
284,10
285,10
286,10
287,10
288,10
289,10
290,10
291,10
292,10
293,10
294,10
295,10
296,11
297,10
298,10
299,10
300,10
301,10
302,11
303,11
304,11
305,11
306,11
307,10
308,10
309,10
310,10
311,10
312,10
313,10
314,10
315,10
316,10
317,10
318,10
319,11
320,10
321,10
322,10
323,10
324,10
325,10
326,10
327,10
328,10
329,10
330,10
331,10
332,10
333,10
334,10
335,10
336,10
337,10
338,10
339,10
340,11
341,11
342,12
343,11
344,11
345,11
346,11
347,11
348,11
349,11
350,10
351,10
352,10
353,10
354,11
355,10
356,10
357,10
358,10
359,10
360,10
361,10
362,10
363,10
364,10
365,10
366,10
367,10
368,10
369,10
370,10
371,10
372,10
373,10
374,10
375,10
376,10
377,10
378,10
379,10
380,10
381,10
382,10
383,10
384,10
385,10
386,10
387,10
388,10
389,10
390,10
391,10
392,10
393,10
394,11
395,10
396,10
397,10
398,10
399,10
400,10
401,10
402,10
403,10
404,11
405,10
406,10
407,10
408,11
409,11
410,10
411,11
412,11
413,11
414,12
415,11
416,11
417,11
418,11
419,10
420,10
421,10
422,10
423,10
424,10
425,10
426,10
427,10
428,11
429,10
430,10
431,10
432,11
433,11
434,11
435,11
436,12
437,11
438,11
439,12
440,10
441,10
442,10
443,10
444,10
445,10
446,10
447,10
448,10
449,10
450,10
451,10
452,10
453,10
454,10
455,10
456,10
457,10
458,10
459,10
460,10
461,10
462,10
463,10
464,10
465,10
466,10
467,10
468,10
469,10
470,10
471,10
472,10
473,10
474,10
475,10
476,10
477,10
478,10
479,10
480,10
481,10
482,10
483,10
484,10
485,10
486,10
487,10
488,10
489,10
490,10
491,10
492,10
493,10
494,11
495,10
496,10
497,10
498,11
499,10
500,10
501,10
502,10
503,10
504,10
505,11
506,11
507,11
508,10
509,10
510,10
511,10
512,10
513,12
514,11
515,11
516,10
517,10
518,10
519,11
520,11
521,10
522,10
523,10
524,10
525,10
526,10
527,10
528,10
529,10
530,10
531,10
532,11
533,11
534,11
535,10
536,10
537,10
538,10
539,10
540,10
541,10
542,10
543,10
544,10
545,10
546,11
547,10
548,10
549,11
550,10
551,10
552,10
553,10
554,10
555,10
556,10
557,10
558,10
559,11
560,11
561,10
562,10
563,10
564,10
565,10
566,10
567,11
568,12
569,11
570,11
571,11
572,11
573,11
574,11
575,11
576,11
577,11
578,12
579,12
580,12
581,12
582,11
583,10
584,10
585,10
586,10
587,10
588,10
589,10
590,10
591,10
592,11
593,10
594,10
595,11
596,11
597,11
598,10
599,10
600,10
601,11
602,10
603,10
604,10
605,10
606,10
607,10
608,10
609,10
610,10
611,10
612,10
613,10
614,10
615,10
616,10
617,10
618,10
619,10
620,10
621,10
622,10
623,10
624,10
625,10
626,11
627,11
628,11
629,11
630,11
631,11
632,11
633,11
634,12
635,11
636,11
637,11
638,11
639,12
640,11
641,11
642,11
643,11
644,11
645,11
646,11
647,11
648,11
649,11
650,11
651,11
652,11
653,11
654,12
655,13
656,12
657,12
658,12
659,12
660,12
661,12
662,12
663,12
664,12
665,12
666,12
667,12
668,12
669,13
670,14
671,14
672,14
673,14
674,13
675,12
676,12
677,12
678,12
679,12
680,12
681,13
682,13
683,13
684,13
685,12
686,12
687,12
688,13
689,12
690,12
691,12
692,12
693,12
694,12
695,12
696,12
697,12
698,12
699,12
700,12
701,12
702,12
703,12
704,13
705,13
706,13
707,14
708,14
709,13
710,13
711,13
712,13
713,13
714,13
715,13
716,13
717,13
718,13
719,13
720,13
721,13
722,13
723,13
724,13
725,13
726,13
727,13
728,13
729,13
730,13
731,13
732,13
733,13
734,13
735,13
736,13
737,13
738,13
739,13
740,13
741,13
742,13
743,13
744,13
745,14
746,13
747,13
748,13
749,13
750,13
751,13
752,13
753,13
754,13
755,13
756,13
757,13
758,13
759,13
760,13
761,13
762,13
763,13
764,13
765,13
766,13
767,13
768,13
769,13
770,13
771,13
772,13
773,13
774,13
775,13
776,13
777,14
778,13
779,13
780,13
781,13
782,13
783,13
784,13
785,13
786,13
787,13
788,13
789,13
790,13
791,13
792,13
793,13
794,13
795,13
796,13
797,13
798,13
799,14
800,13
801,13
802,13
803,13
804,13
805,13
806,13
807,13
808,13
809,13
810,13
811,13
812,13
813,13
814,13
815,13
816,13
817,13
818,13
819,14
820,14
821,13
822,13
823,13
824,14
825,14
826,14
827,14
828,14
829,14
830,14
831,14
832,14
833,14
834,15
835,14
836,14
837,14
838,14
839,14
840,14
841,14
842,14
843,14
844,14
845,14
846,14
847,15
848,14
849,14
850,14
851,14
852,14
853,14
854,14
855,14
856,14
857,14
858,14
859,14
860,14
861,14
862,14
863,14
864,14
865,14
866,14
867,14
868,14
869,14
870,15
871,15
872,15
873,15
874,15
875,15
876,15
877,15
878,15
879,15
880,15
881,15
882,15
883,15
884,15
885,15
886,15
887,15
888,15
889,15
890,15
891,15
892,15
893,15
894,15
895,15
896,15
897,15
898,15
899,15
900,16
901,17
902,16
903,16
904,16
905,16
906,16
907,17
908,17
909,17
910,17
911,17
912,17
913,17
914,17
915,17
916,17
917,17
918,17
919,17
920,17
921,17
922,17
923,17
924,17
925,17
926,17
927,17
928,17
929,17
930,17
931,17
932,17
933,17
934,17
935,17
936,17
937,16
938,16
939,16
940,16
941,16
942,16
943,16
944,16
945,16
946,16
947,16
948,16
949,16
950,16
951,17
952,16
953,16
954,16
955,16
956,16
957,16
958,16
959,16
960,16
961,16
962,16
963,16
964,16
965,16
966,16
967,16
968,16
969,16
970,16
971,17
972,18
973,18
974,18
975,17
976,17
977,17
978,17
979,17
980,17
981,17
982,17
983,17
984,17
985,18
986,18
987,17
988,16
989,16
990,16
991,16
992,16
993,17
994,16
995,16
996,16
997,16
998,16
999,16
1000,16
1001,17
1002,17
1003,17
1004,17
1005,17
1006,17
1007,17
1008,17
1009,17
1010,17
1011,17
1012,17
1013,17
1014,17
1015,18
1016,18
1017,18
1018,18
1019,18
1020,18
1021,17
1022,17
1023,18
1024,18
1025,18
1026,17
1027,17
1028,17
1029,17
1030,17
1031,17
1032,17
1033,17
1034,18
1035,18
1036,18
1037,18
1038,18
1039,18
1040,18
1041,18
1042,18
1043,18
1044,18
1045,18
1046,18
1047,17
1048,17
1049,17
1050,17
1051,17
1052,17
1053,17
1054,17
1055,17
1056,17
1057,17
1058,17
1059,17
1060,17
1061,17
1062,17
1063,17
1064,17
1065,17
1066,17
1067,17
1068,17
1069,17
1070,18
1071,18
1072,17
1073,17
1074,17
1075,17
1076,17
1077,17
1078,17
1079,17
1080,18
1081,18
1082,18
1083,18
1084,18
1085,18
1086,18
1087,18
1088,18
1089,18
1090,18
1091,18
1092,18
1093,18
1094,19
1095,19
1096,19
1097,19
1098,19
1099,18
1100,18
1101,18
1102,18
1103,18
1104,18
1105,18
1106,18
1107,18
1108,18
1109,18
1110,18
1111,18
1112,18
1113,18
1114,18
1115,18
1116,18
1117,19
1118,18
1119,18
1120,18
1121,18
1122,18
1123,18
1124,18
1125,18
1126,18
1127,18
1128,18
1129,18
1130,18
1131,18
1132,18
1133,18
1134,18
1135,18
1136,18
1137,18
1138,18
1139,18
1140,18
1141,18
1142,18
1143,18
1144,18
1145,18
1146,18
1147,18
1148,18
1149,18
1150,19
1151,18
1152,18
1153,18
1154,18
1155,19
1156,18
1157,18
1158,18
1159,18
1160,18
1161,18
1162,18
1163,18
1164,18
1165,18
1166,18
1167,18
1168,18
1169,18
1170,19
1171,19
1172,19
1173,19
1174,19
1175,19
1176,19
1177,19
1178,19
1179,20
1180,20
1181,19
1182,19
1183,19
1184,19
1185,19
1186,19
1187,19
1188,19
1189,20
1190,19
1191,19
1192,19
1193,19
1194,19
1195,19
1196,19
1197,19
1198,19
1199,19
1200,19
1201,19
1202,19
1203,19
1204,19
1205,19
1206,19
1207,19
1208,19
1209,19
1210,19
1211,19
1212,19
1213,19
1214,18
1215,18
1216,19
1217,18
1218,18
1219,18
1220,19
1221,19
1222,18
1223,18
1224,18
1225,18
1226,18
1227,18
1228,19
1229,19
1230,19
1231,19
1232,19
1233,19
1234,19
1235,19
1236,19
1237,19
1238,19
1239,19
1240,19
1241,19
1242,19
1243,19
1244,19
1245,20
1246,20
1247,20
1248,20
1249,20
1250,20
1251,20
1252,20
1253,20
1254,21
1255,19
1256,19
1257,19
1258,19
1259,19
1260,19
1261,19
1262,19
1263,19
1264,19
1265,19
1266,19
1267,19
1268,19
1269,19
1270,20
1271,20
1272,20
1273,20
1274,20
1275,21
1276,22
1277,22
1278,20
1279,19
1280,20
1281,20
1282,19
1283,19
1284,19
1285,19
1286,19
1287,19
1288,19
1289,19
1290,20
1291,20
1292,19
1293,19
1294,19
1295,20
1296,19
1297,19
1298,19
1299,19
1300,19
1301,19
1302,19
1303,19
1304,19
1305,19
1306,19
1307,19
1308,19
1309,19
1310,19
1311,19
1312,19
1313,19
1314,19
1315,19
1316,19
1317,19
1318,19
1319,19
1320,19
1321,20
1322,21
1323,19
1324,19
1325,19
1326,19
1327,19
1328,19
1329,19
1330,19
1331,19
1332,19
1333,19
1334,19
1335,19
1336,19
1337,19
1338,19
1339,19
1340,20
1341,20
1342,19
1343,19
1344,19
1345,19
1346,19
1347,19
1348,19
1349,19
1350,19
1351,19
1352,19
1353,19
1354,19
1355,19
1356,19
1357,19
1358,19
1359,19
1360,20
1361,20
1362,20
1363,19
1364,19
1365,19
1366,19
1367,19
1368,19
1369,19
1370,19
1371,19
1372,19
1373,19
1374,19
1375,19
1376,19
1377,19
1378,19
1379,20
1380,19
1381,19
1382,19
1383,19
1384,19
1385,19
1386,19
1387,19
1388,19
1389,19
1390,19
1391,20
1392,20
1393,20
1394,20
1395,20
1396,20
1397,21
1398,21
1399,21
1400,21
1401,21
1402,21
1403,21
1404,21
1405,21
1406,21
1407,22
1408,22
1409,22
1410,22
1411,22
1412,22
1413,22
1414,21
1415,21
1416,20
1417,20
1418,20
1419,20
1420,20
1421,20
1422,20
1423,20
1424,20
1425,20
1426,20
1427,20
1428,20
1429,20
1430,20
1431,20
1432,20
1433,20
1434,20
1435,20
1436,20
1437,20
1438,20
1439,20
1440,20
1441,20
1442,20
1443,20
1444,20
1445,20
1446,20
1447,21
1448,21
1449,21
1450,21
1451,20
1452,20
1453,20
1454,20
1455,20
1456,20
1457,20
1458,20
1459,20
1460,20
1461,20
1462,20
1463,20
1464,20
1465,20
1466,20
1467,20
1468,20
1469,20
1470,20
1471,20
1472,20
1473,20
1474,20
1475,20
1476,20
1477,20
1478,21
1479,21
1480,21
1481,21
1482,21
1483,21
1484,21
1485,21
1486,21
1487,21
1488,21
1489,21
1490,21
1491,21
1492,21
1493,21
1494,21
1495,21
1496,21
1497,21
1498,22
1499,22
1500,21
1501,21
1502,21
1503,21
1504,21
1505,20
1506,20
1507,20
1508,20
1509,20
1510,20
1511,20
1512,20
1513,20
1514,20
1515,21
1516,20
1517,20
1518,20
1519,20
1520,20
1521,20
1522,20
1523,20
1524,20
1525,20
1526,20
1527,20
1528,20
1529,20
1530,20
1531,20
1532,20
1533,20
1534,20
1535,20
1536,20
1537,20
1538,20
1539,20
1540,20
1541,20
1542,20
1543,20
1544,20
1545,20
1546,20
1547,20
1548,20
1549,20
1550,20
1551,20
1552,20
1553,20
1554,20
1555,20
1556,20
1557,20
1558,21
1559,20
1560,21
1561,21
1562,20
1563,20
1564,20
1565,20
1566,20
1567,20
1568,20
1569,20
1570,20
1571,20
1572,20
1573,20
1574,20
1575,21
1576,21
1577,22
1578,22
1579,21
1580,20
1581,20
1582,20
1583,21
1584,21
1585,21
1586,20
1587,20
1588,20
1589,20
1590,20
1591,20
1592,20
1593,20
1594,20
1595,20
1596,20
1597,20
1598,20
1599,20
1600,21
1601,21
1602,21
1603,21
1604,20
1605,20
1606,20
1607,20
1608,20
1609,20
1610,20
1611,20
1612,20
1613,20
1614,21
1615,21
1616,21
1617,21
1618,21
1619,21
1620,21
1621,21
1622,21
1623,21
1624,21
1625,21
1626,21
1627,21
1628,21
1629,21
1630,21
1631,22
1632,21
1633,21
1634,21
1635,21
1636,21
1637,21
1638,21
1639,21
1640,21
1641,21
1642,21
1643,21
1644,21
1645,21
1646,21
1647,21
1648,21
1649,21
1650,21
1651,21
1652,21
1653,22
1654,21
1655,21
1656,21
1657,21
1658,21
1659,21
1660,21
1661,21
1662,21
1663,21
1664,21
1665,21
1666,21
1667,21
1668,21
1669,21
1670,21
1671,21
1672,21
1673,21
1674,21
1675,21
1676,21
1677,21
1678,21
1679,21
1680,21
1681,21
1682,21
1683,21
1684,21
1685,22
1686,22
1687,22
1688,22
1689,23
1690,22
1691,23
1692,23
1693,23
1694,23
1695,22
1696,22
1697,23
1698,22
1699,22
1700,22
1701,22
1702,22
1703,22
1704,22
1705,22
1706,22
1707,22
1708,22
1709,22
1710,22
1711,22
1712,22
1713,22
1714,22
1715,22
1716,22
1717,22
1718,22
1719,22
1720,23
1721,23
1722,23
1723,22
1724,22
1725,22
1726,22
1727,22
1728,22
1729,22
1730,22
1731,22
1732,21
1733,21
1734,21
1735,21
1736,21
1737,21
1738,21
1739,21
1740,21
1741,21
1742,21
1743,21
1744,21
1745,21
1746,21
1747,21
1748,21
1749,21
1750,21
1751,21
1752,21
1753,21
1754,21
1755,21
1756,21
1757,21
1758,21
1759,21
1760,21
1761,22
1762,23
1763,22
1764,22
1765,22
1766,22
1767,22
1768,22
1769,22
1770,21
1771,21
1772,21
1773,21
1774,22
1775,22
1776,22
1777,22
1778,22
1779,22
1780,22
1781,22
1782,22
1783,22
1784,22
1785,22
1786,22
1787,22
1788,22
1789,22
1790,22
1791,21
1792,21
1793,21
1794,21
1795,21
1796,21
1797,21
1798,21
1799,21
1800,21
1801,21
1802,21
1803,21
1804,21
1805,21
1806,21
1807,21
1808,21
1809,21
1810,21
1811,21
1812,21
1813,21
1814,21
1815,21
1816,21
1817,21
1818,21
1819,21
1820,21
1821,21
1822,21
1823,21
1824,21
1825,21
1826,21
1827,21
1828,21
1829,21
1830,21
1831,21
1832,21
1833,21
1834,21
1835,21
1836,22
1837,22
1838,22
1839,22
1840,22
1841,22
1842,22
1843,22
1844,22
1845,22
1846,22
1847,22
1848,22
1849,23
1850,23
1851,23
1852,22
1853,21
1854,21
1855,21
1856,21
1857,21
1858,21
1859,21
1860,21
1861,21
1862,21
1863,22
1864,22
1865,21
1866,21
1867,21
1868,21
1869,21
1870,21
1871,21
1872,21
1873,21
1874,21
1875,21
1876,21
1877,21
1878,21
1879,21
1880,21
1881,21
1882,21
1883,21
1884,21
1885,21
1886,21
1887,21
1888,21
1889,22
1890,21
1891,21
1892,21
1893,21
1894,21
1895,21
1896,21
1897,21
1898,21
1899,21
1900,21
1901,21
1902,21
1903,21
1904,21
1905,21
1906,21
1907,22
1908,22
1909,21
1910,21
1911,21
1912,21
1913,21
1914,21
1915,21
1916,22
1917,22
1918,21
1919,21
1920,21
1921,22
1922,22
1923,21
1924,21
1925,21
1926,21
1927,21
1928,21
1929,21
1930,21
1931,21
1932,21
1933,21
1934,21
1935,21
1936,21
1937,21
1938,21
1939,21
1940,21
1941,21
1942,21
1943,21
1944,21
1945,21
1946,21
1947,21
1948,21
1949,21
1950,21
1951,21
1952,21
1953,21
1954,21
1955,22
1956,22
1957,22
1958,21
1959,21
1960,21
1961,21
1962,21
1963,21
1964,21
1965,21
1966,21
1967,21
1968,21
1969,21
1970,21
1971,21
1972,21
1973,21
1974,21
1975,21
1976,21
1977,21
1978,21
1979,21
1980,21
1981,21
1982,21
1983,21
1984,21
1985,21
1986,21
1987,21
1988,21
1989,21
1990,21
1991,21
1992,21
1993,21
1994,21
1995,21
1996,21
1997,21
1998,21
1999,21
2000,21
2001,21
2002,21
2003,21
2004,21
2005,21
2006,21
2007,21
2008,21
2009,21
2010,21
2011,21
2012,21
2013,21
2014,22
2015,22
2016,22
2017,22
2018,22
2019,21
2020,21
2021,21
2022,21
2023,21
2024,21
2025,21
2026,21
2027,21
2028,21
2029,21
2030,21
2031,21
2032,21
2033,21
2034,21
2035,21
2036,21
2037,21
2038,21
2039,21
2040,21
2041,21
2042,21
2043,21
2044,21
2045,21
2046,21
2047,21
2048,21
2049,21
2050,21
2051,21
2052,21
2053,21
2054,22
2055,21
2056,21
2057,21
2058,21
2059,21
2060,21
2061,21
2062,21
2063,21
2064,21
2065,21
2066,21
2067,21
2068,21
2069,21
2070,22
2071,22
2072,22
2073,22
2074,22
2075,22
2076,22
2077,22
2078,22
2079,22
2080,22
2081,22
2082,22
2083,23
2084,22
2085,21
2086,21
2087,21
2088,21
2089,21
2090,22
2091,22
2092,22
2093,22
2094,22
2095,22
2096,22
2097,22
2098,22
2099,22
2100,22
2101,22
2102,22
2103,22
2104,22
2105,22
2106,22
2107,22
2108,22
2109,22
2110,22
2111,22
2112,22
2113,23
2114,23
2115,23
2116,23
2117,23
2118,23
2119,22
2120,22
2121,22
2122,22
2123,22
2124,22
2125,22
2126,22
2127,22
2128,22
2129,22
2130,22
2131,22
2132,22
2133,22
2134,22
2135,22
2136,22
2137,22
2138,22
2139,22
2140,22
2141,23
2142,23
2143,23
2144,23
2145,23
2146,23
2147,23
2148,23
2149,23
2150,23
2151,23
2152,23
2153,23
2154,23
2155,23
2156,23
2157,23
2158,23
2159,23
2160,23
2161,23
2162,23
2163,23
2164,24
2165,23
2166,23
2167,23
2168,23
2169,24
2170,24
2171,24
2172,24
2173,24
2174,24
2175,24
2176,24
2177,24
2178,25
2179,25
2180,25
2181,25
2182,25
2183,26
2184,25
2185,25
2186,26
2187,25
2188,25
2189,25
2190,25
2191,25
2192,25
2193,25
2194,25
2195,25
2196,25
2197,25
2198,26
2199,25
2200,25
2201,25
2202,26
2203,26
2204,26
2205,25
2206,25
2207,25
2208,26
2209,26
2210,27
2211,26
2212,27
2213,26
2214,26
2215,27
2216,27
2217,27
2218,27
2219,27
2220,26
2221,26
2222,26
2223,26
2224,26
2225,26
2226,26
2227,26
2228,26
2229,26
2230,26
2231,26
2232,26
2233,26
2234,26
2235,26
2236,26
2237,26
2238,26
2239,26
2240,26
2241,26
2242,26
2243,26
2244,26
2245,26
2246,26
2247,27
2248,27
2249,26
2250,26
2251,26
2252,26
2253,26
2254,27
2255,27
2256,27
2257,27
2258,27
2259,27
2260,28
2261,27
2262,28
2263,27
2264,26
2265,26
2266,27
2267,27
2268,27
2269,28
2270,27
2271,28
2272,27
2273,27
2274,27
2275,27
2276,27
2277,27
2278,27
2279,26
2280,26
2281,26
2282,26
2283,26
2284,26
2285,26
2286,26
2287,26
2288,26
2289,26
2290,26
2291,26
2292,26
2293,26
2294,26
2295,26
2296,26
2297,26
2298,26
2299,26
2300,26
2301,26
2302,26
2303,26
2304,26
2305,27
2306,27
2307,27
2308,27
2309,27
2310,27
2311,27
2312,27
2313,28
2314,27
2315,29
2316,28
2317,27
2318,28
2319,28
2320,27
2321,27
2322,27
2323,28
2324,27
2325,27
2326,27
2327,27
2328,27
2329,27
2330,27
2331,27
2332,27
2333,27
2334,27
2335,27
2336,27
2337,27
2338,27
2339,27
2340,27
2341,27
2342,28
2343,27
2344,27
2345,27
2346,27
2347,27
2348,27
2349,27
2350,27
2351,28
2352,28
2353,27
2354,27
2355,27
2356,27
2357,27
2358,27
2359,27
2360,27
2361,27
2362,28
2363,27
2364,27
2365,27
2366,28
2367,27
2368,27
2369,27
2370,27
2371,27
2372,27
2373,27
2374,27
2375,27
2376,27
2377,27
2378,27
2379,27
2380,27
2381,27
2382,27
2383,27
2384,27
2385,27
2386,27
2387,27
2388,27
2389,27
2390,27
2391,27
2392,27
2393,27
2394,27
2395,27
2396,27
2397,27
2398,27
2399,27
2400,27
2401,27
2402,28
2403,27
2404,27
2405,27
2406,27
2407,28
2408,28
2409,28
2410,27
2411,27
2412,27
2413,27
2414,27
2415,27
2416,27
2417,27
2418,27
2419,27
2420,27
2421,27
2422,27
2423,27
2424,27
2425,27
2426,27
2427,27
2428,27
2429,27
2430,27
2431,27
2432,27
2433,27
2434,27
2435,27
2436,27
2437,27
2438,27
2439,27
2440,27
2441,27
2442,27
2443,27
2444,27
2445,28
2446,28
2447,29
2448,29
2449,28
2450,28
2451,28
2452,27
2453,27
2454,27
2455,27
2456,28
2457,27
2458,27
2459,27
2460,27
2461,27
2462,28
2463,28
2464,28
2465,27
2466,27
2467,27
2468,27
2469,27
2470,27
2471,27
2472,27
2473,27
2474,27
2475,28
2476,27
2477,27
2478,27
2479,27
2480,27
2481,27
2482,27
2483,27
2484,27
2485,27
2486,27
2487,27
2488,27
2489,27
2490,27
2491,27
2492,27
2493,27
2494,27
2495,27
2496,27
2497,27
2498,27
2499,27
2500,27
2501,27
2502,27
2503,27
2504,27
2505,27
2506,27
2507,27
2508,27
2509,27
2510,27
2511,27
2512,27
2513,27
2514,27
2515,27
2516,27
2517,27
2518,27
2519,27
2520,27
2521,27
2522,27
2523,27
2524,28
2525,27
2526,27
2527,27
2528,27
2529,27
2530,27
2531,27
2532,27
2533,27
2534,27
2535,27
2536,27
2537,27
2538,27
2539,27
2540,27
2541,27
2542,27
2543,27
2544,27
2545,27
2546,27
2547,27
2548,27
2549,27
2550,27
2551,27
2552,27
2553,27
2554,27
2555,28
2556,28
2557,28
2558,28
2559,28
2560,28
2561,28
2562,28
2563,28
2564,28
2565,28
2566,28
2567,28
2568,28
2569,28
2570,28
2571,28
2572,28
2573,28
2574,28
2575,28
2576,28
2577,28
2578,28
2579,28
2580,28
2581,28
2582,28
2583,28
2584,28
2585,28
2586,28
2587,28
2588,28
2589,28
2590,28
2591,28
2592,28
2593,28
2594,28
2595,28
2596,28
2597,28
2598,28
2599,28
2600,28
2601,28
2602,29
2603,29
2604,28
2605,28
2606,28
2607,28
2608,28
2609,28
2610,28
2611,28
2612,28
2613,28
2614,28
2615,28
2616,29
2617,29
2618,29
2619,29
2620,28
2621,28
2622,28
2623,28
2624,28
2625,28
2626,28
2627,28
2628,28
2629,28
2630,28
2631,28
2632,28
2633,28
2634,28
2635,29
2636,28
2637,28
2638,28
2639,28
2640,28
2641,28
2642,28
2643,28
2644,28
2645,29
2646,29
2647,29
2648,29
2649,29
2650,29
2651,29
2652,29
2653,30
2654,30
2655,30
2656,30
2657,29
2658,29
2659,30
2660,29
2661,30
2662,29
2663,29
2664,29
2665,29
2666,30
2667,31
2668,30
2669,30
2670,30
2671,29
2672,29
2673,29
2674,29
2675,29
2676,29
2677,29
2678,29
2679,29
2680,29
2681,29
2682,29
2683,29
2684,29
2685,29
2686,29
2687,29
2688,30
2689,30
2690,30
2691,30
2692,30
2693,29
2694,29
2695,29
2696,29
2697,29
2698,29
2699,29
2700,29
2701,29
2702,29
2703,29
2704,29
2705,29
2706,29
2707,29
2708,29
2709,29
2710,29
2711,29
2712,29
2713,29
2714,29
2715,29
2716,29
2717,30
2718,29
2719,29
2720,29
2721,29
2722,30
2723,29
2724,29
2725,29
2726,29
2727,29
2728,29
2729,29
2730,29
2731,30
2732,30
2733,29
2734,29
2735,29
2736,30
2737,30
2738,31
2739,30
2740,30
2741,30
2742,30
2743,30
2744,30
2745,29
2746,29
2747,29
2748,29
2749,29
2750,29
2751,29
2752,29
2753,29
2754,29
2755,29
2756,29
2757,29
2758,29
2759,29
2760,29
2761,29
2762,29
2763,29
2764,29
2765,29
2766,30
2767,30
2768,29
2769,29
2770,29
2771,29
2772,29
2773,29
2774,29
2775,30
2776,29
2777,29
2778,29
2779,29
2780,30
2781,30
2782,29
2783,29
2784,29
2785,29
2786,29
2787,29
2788,30
2789,30
2790,30
2791,30
2792,30
2793,31
2794,31
2795,31
2796,30
2797,29
2798,29
2799,29
2800,29
2801,29
2802,29
2803,29
2804,30
2805,30
2806,30
2807,30
2808,30
2809,30
2810,30
2811,30
2812,30
2813,30
2814,30
2815,30
2816,31
2817,31
2818,30
2819,30
2820,30
2821,30
2822,30
2823,30
2824,31
2825,31
2826,32
2827,30
2828,30
2829,30
2830,30
2831,31
2832,31
2833,30
2834,29
2835,29
2836,29
2837,29
2838,29
2839,29
2840,29
2841,29
2842,29
2843,29
2844,29
2845,29
2846,29
2847,29
2848,29
2849,29
2850,29
2851,29
2852,29
2853,29
2854,29
2855,29
2856,29
2857,29
2858,29
2859,29
2860,29
2861,29
2862,29
2863,29
2864,29
2865,29
2866,29
2867,29
2868,29
2869,29
2870,29
2871,29
2872,29
2873,29
2874,29
2875,29
2876,29
2877,29
2878,29
2879,29
2880,29
2881,29
2882,29
2883,29
2884,29
2885,29
2886,29
2887,29
2888,29
2889,29
2890,29
2891,29
2892,29
2893,29
2894,29
2895,29
2896,29
2897,29
2898,29
2899,29
2900,29
2901,29
2902,29
2903,29
2904,29
2905,29
2906,29
2907,29
2908,29
2909,29
2910,29
2911,29
2912,29
2913,29
2914,29
2915,29
2916,29
2917,29
2918,29
2919,29
2920,29
2921,29
2922,29
2923,29
2924,29
2925,29
2926,29
2927,29
2928,29
2929,29
2930,29
2931,29
2932,29
2933,29
2934,29
2935,29
2936,29
2937,29
2938,29
2939,29
2940,29
2941,29
2942,29
2943,29
2944,29
2945,29
2946,29
2947,29
2948,29
2949,29
2950,29
2951,30
2952,30
2953,29
2954,29
2955,31
2956,31
2957,30
2958,30
2959,30
2960,30
2961,30
2962,29
2963,29
2964,31
2965,31
2966,31
2967,29
2968,29
2969,29
2970,29
2971,29
2972,29
2973,29
2974,29
2975,29
2976,29
2977,29
2978,29
2979,29
2980,29
2981,29
2982,29
2983,29
2984,29
2985,29
2986,29
2987,29
2988,29
2989,29
2990,29
2991,29
2992,29
2993,29
2994,29
2995,29
2996,29
2997,29
2998,29
2999,29
3000,29
3001,29
3002,29
3003,29
3004,29
3005,29
3006,29
3007,29
3008,29
3009,29
3010,29
3011,29
3012,29
3013,29
3014,29
3015,29
3016,29
3017,29
3018,29
3019,29
3020,29
3021,29
3022,29
3023,29
3024,29
3025,29
3026,29
3027,29
3028,29
3029,29
3030,29
3031,29
3032,29
3033,30
3034,29
3035,29
3036,29
3037,29
3038,29
3039,29
3040,29
3041,30
3042,30
3043,30
3044,30
3045,30
3046,30
3047,30
3048,30
3049,30
3050,30
3051,31
3052,30
3053,30
3054,30
3055,30
3056,30
3057,30
3058,30
3059,30
3060,30
3061,30
3062,30
3063,30
3064,30
3065,30
3066,30
3067,30
3068,30
3069,30
3070,30
3071,30
3072,30
3073,30
3074,30
3075,29
3076,30
3077,30
3078,30
3079,30
3080,30
3081,30
3082,30
3083,30
3084,30
3085,30
3086,30
3087,30
3088,30
3089,30
3090,30
3091,30
3092,30
3093,30
3094,30
3095,30
3096,30
3097,30
3098,30
3099,30
3100,30
3101,31
3102,31
3103,31
3104,31
3105,30
3106,31
3107,31
3108,31
3109,33
3110,32
3111,32
3112,32
3113,32
3114,32
3115,32
3116,32
3117,32
3118,32
3119,32
3120,32
3121,32
3122,32
3123,32
3124,32
3125,32
3126,33
3127,32
3128,32
3129,34
3130,33
3131,32
3132,32
3133,31
3134,31
3135,30
3136,30
3137,30
3138,30
3139,30
3140,30
3141,30
3142,30
3143,30
3144,30
3145,30
3146,30
3147,30
3148,31
3149,31
3150,31
3151,32
3152,31
3153,31
3154,31
3155,31
3156,31
3157,31
3158,31
3159,31
3160,31
3161,31
3162,31
3163,32
3164,31
3165,31
3166,31
3167,31
3168,31
3169,31
3170,31
3171,31
3172,31
3173,31
3174,31
3175,31
3176,31
3177,32
3178,31
3179,31
3180,31
3181,31
3182,32
3183,31
3184,31
3185,31
3186,31
3187,31
3188,31
3189,31
3190,31
3191,31
3192,31
3193,31
3194,31
3195,31
3196,31
3197,31
3198,31
3199,31
3200,31
3201,31
3202,31
3203,31
3204,31
3205,31
3206,31
3207,31
3208,31
3209,31
3210,31
3211,31
3212,31
3213,32
3214,31
3215,31
3216,31
3217,31
3218,31
3219,31
3220,31
3221,31
3222,31
3223,32
3224,31
3225,32
3226,32
3227,32
3228,32
3229,32
3230,32
3231,32
3232,32
3233,32
3234,32
3235,32
3236,32
3237,32
3238,32
3239,33
3240,33
3241,32
3242,32
3243,33
3244,33
3245,34
3246,33
3247,33
3248,33
3249,33
3250,33
3251,33
3252,33
3253,33
3254,33
3255,33
3256,33
3257,32
3258,32
3259,32
3260,32
3261,32
3262,32
3263,32
3264,32
3265,32
3266,32
3267,32
3268,32
3269,32
3270,32
3271,32
3272,33
3273,33
3274,32
3275,32
3276,32
3277,32
3278,32
3279,32
3280,32
3281,32
3282,33
3283,33
3284,33
3285,34
3286,32
3287,32
3288,32
3289,32
3290,32
3291,33
3292,33
3293,33
3294,33
3295,33
3296,33
3297,32
3298,32
3299,32
3300,32
3301,32
3302,34
3303,33
3304,33
3305,33
3306,33
3307,33
3308,33
3309,33
3310,33
3311,33
3312,33
3313,33
3314,33
3315,32
3316,32
3317,32
3318,32
3319,32
3320,32
3321,32
3322,32
3323,32
3324,32
3325,32
3326,32
3327,32
3328,32
3329,32
3330,32
3331,32
3332,32
3333,32
3334,32
3335,32
3336,32
3337,32
3338,32
3339,33
3340,32
3341,32
3342,32
3343,32
3344,32
3345,32
3346,32
3347,32
3348,32
3349,32
3350,34
3351,34
3352,33
3353,33
3354,33
3355,33
3356,33
3357,33
3358,33
3359,33
3360,33
3361,34
3362,33
3363,33
3364,33
3365,33
3366,33
3367,33
3368,33
3369,33
3370,33
3371,33
3372,33
3373,33
3374,33
3375,33
3376,34
3377,33
3378,34
3379,34
3380,35
3381,33
3382,34
3383,34
3384,34
3385,34
3386,33
3387,33
3388,33
3389,33
3390,34
3391,33
3392,33
3393,33
3394,32
3395,32
3396,32
3397,33
3398,32
3399,32
3400,32
3401,32
3402,32
3403,32
3404,32
3405,32
3406,32
3407,32
3408,32
3409,32
3410,32
3411,32
3412,32
3413,32
3414,32
3415,32
3416,32
3417,32
3418,32
3419,33
3420,33
3421,33
3422,33
3423,33
3424,34
3425,33
3426,33
3427,33
3428,33
3429,32
3430,32
3431,32
3432,32
3433,32
3434,32
3435,32
3436,32
3437,32
3438,33
3439,33
3440,33
3441,33
3442,33
3443,33
3444,33
3445,33
3446,33
3447,33
3448,33
3449,33
3450,33
3451,33
3452,33
3453,33
3454,33
3455,33
3456,33
3457,33
3458,33
3459,33
3460,33
3461,33
3462,33
3463,33
3464,33
3465,33
3466,33
3467,33
3468,33
3469,33
3470,33
3471,33
3472,33
3473,33
3474,33
3475,33
3476,33
3477,33
3478,33
3479,33
3480,33
3481,33
3482,33
3483,33
3484,33
3485,34
3486,34
3487,34
3488,33
3489,33
3490,33
3491,34
3492,34
3493,34
3494,34
3495,34
3496,34
3497,35
3498,35
3499,34
3500,34
3501,34
3502,33
3503,33
3504,33
3505,33
3506,32
3507,32
3508,32
3509,32
3510,33
3511,33
3512,32
3513,32
3514,32
3515,32
3516,33
3517,33
3518,33
3519,33
3520,33
3521,33
3522,33
3523,33
3524,33
3525,33
3526,33
3527,33
3528,33
3529,33
3530,33
3531,33
3532,33
3533,33
3534,33
3535,33
3536,33
3537,33
3538,33
3539,33
3540,33
3541,33
3542,33
3543,33
3544,33
3545,33
3546,33
3547,33
3548,33
3549,33
3550,34
3551,34
3552,34
3553,33
3554,33
3555,33
3556,33
3557,33
3558,33
3559,33
3560,32
3561,32
3562,32
3563,32
3564,32
3565,32
3566,32
3567,32
3568,32
3569,32
3570,32
3571,32
3572,32
3573,32
3574,32
3575,32
3576,32
3577,32
3578,32
3579,32
3580,32
3581,33
3582,33
3583,33
3584,33
3585,33
3586,33
3587,34
3588,33
3589,32
3590,32
3591,32
3592,32
3593,32
3594,32
3595,32
3596,32
3597,32
3598,32
3599,32
3600,32
3601,32
3602,32
3603,32
3604,32
3605,32
3606,32
3607,32
3608,32
3609,32
3610,32
3611,32
3612,32
3613,32
3614,32
3615,32
3616,32
3617,32
3618,32
3619,32
3620,32
3621,32
3622,32
3623,32
3624,32
3625,32
3626,32
3627,32
3628,32
3629,32
3630,32
3631,32
3632,32
3633,32
3634,32
3635,32
3636,32
3637,32
3638,32
3639,32
3640,32
3641,32
3642,32
3643,32
3644,32
3645,32
3646,32
3647,32
3648,32
3649,32
3650,32
3651,32
3652,32
3653,32
3654,32
3655,32
3656,32
3657,32
3658,32
3659,32
3660,32
3661,32
3662,32
3663,32
3664,32
3665,32
3666,32
3667,33
3668,33
3669,33
3670,33
3671,33
3672,33
3673,34
3674,33
3675,33
3676,33
3677,32
3678,32
3679,32
3680,32
3681,32
3682,32
3683,32
3684,32
3685,32
3686,32
3687,32
3688,32
3689,32
3690,32
3691,32
3692,32
3693,32
3694,32
3695,32
3696,32
3697,32
3698,32
3699,32
3700,32
3701,32
3702,32
3703,32
3704,32
3705,32
3706,32
3707,32
3708,32
3709,32
3710,32
3711,32
3712,32
3713,32
3714,32
3715,32
3716,33
3717,32
3718,32
3719,32
3720,32
3721,32
3722,32
3723,32
3724,32
3725,32
3726,32
3727,32
3728,32
3729,32
3730,33
3731,33
3732,33
3733,34
3734,33
3735,32
3736,32
3737,32
3738,32
3739,32
3740,32
3741,32
3742,32
3743,32
3744,32
3745,33
3746,32
3747,32
3748,32
3749,32
3750,32
3751,32
3752,32
3753,32
3754,32
3755,32
3756,32
3757,32
3758,32
3759,32
3760,32
3761,32
3762,32
3763,32
3764,32
3765,32
3766,32
3767,32
3768,33
3769,33
3770,33
3771,33
3772,33
3773,32
3774,32
3775,32
3776,32
3777,32
3778,32
3779,32
3780,32
3781,32
3782,32
3783,32
3784,32
3785,32
3786,32
3787,32
3788,32
3789,32
3790,32
3791,32
3792,32
3793,32
3794,32
3795,33
3796,32
3797,32
3798,32
3799,32
3800,32
3801,32
3802,32
3803,32
3804,32
3805,32
3806,32
3807,32
3808,32
3809,32
3810,32
3811,32
3812,32
3813,32
3814,32
3815,32
3816,32
3817,33
3818,33
3819,33
3820,33
3821,33
3822,32
3823,32
3824,32
3825,32
3826,32
3827,32
3828,32
3829,32
3830,32
3831,32
3832,32
3833,32
3834,32
3835,32
3836,32
3837,32
3838,32
3839,32
3840,32
3841,32
3842,32
3843,32
3844,32
3845,32
3846,32
3847,32
3848,32
3849,32
3850,32
3851,32
3852,33
3853,33
3854,33
3855,33
3856,33
3857,32
3858,33
3859,33
3860,33
3861,32
3862,32
3863,32
3864,32
3865,32
3866,32
3867,32
3868,32
3869,33
3870,33
3871,32
3872,32
3873,32
3874,32
3875,32
3876,32
3877,33
3878,33
3879,33
3880,33
3881,33
3882,32
3883,32
3884,32
3885,32
3886,32
3887,32
3888,32
3889,32
3890,32
3891,32
3892,33
3893,33
3894,32
3895,32
3896,32
3897,33
3898,33
3899,32
3900,32
3901,32
3902,32
3903,32
3904,32
3905,32
3906,32
3907,32
3908,32
3909,32
3910,32
3911,32
3912,32
3913,32
3914,32
3915,33
3916,33
3917,33
3918,34
3919,34
3920,33
3921,33
3922,34
3923,34
3924,32
3925,32
3926,32
3927,32
3928,32
3929,32
3930,32
3931,32
3932,32
3933,32
3934,32
3935,32
3936,32
3937,32
3938,32
3939,32
3940,32
3941,32
3942,32
3943,32
3944,32
3945,32
3946,32
3947,32
3948,32
3949,32
3950,32
3951,32
3952,33
3953,32
3954,32
3955,32
3956,32
3957,32
3958,32
3959,33
3960,33
3961,32
3962,32
3963,32
3964,32
3965,32
3966,32
3967,32
3968,32
3969,32
3970,32
3971,32
3972,32
3973,32
3974,32
3975,32
3976,32
3977,32
3978,32
3979,33
3980,32
3981,32
3982,32
3983,33
3984,33
3985,32
3986,32
3987,32
3988,32
3989,32
3990,32
3991,32
3992,32
3993,32
3994,32
3995,32
3996,32
3997,32
3998,32
3999,32
4000,32
4001,32
4002,32
4003,32
4004,32
4005,32
4006,32
4007,32
4008,32
4009,32
4010,32
4011,32
4012,32
4013,32
4014,32
4015,32
4016,32
4017,32
4018,32
4019,32
4020,32
4021,32
4022,32
4023,32
4024,32
4025,32
4026,32
4027,33
4028,32
4029,32
4030,33
4031,32
4032,32
4033,32
4034,32
4035,32
4036,32
4037,33
4038,33
4039,33
4040,34
4041,33
4042,32
4043,32
4044,32
4045,32
4046,32
4047,32
4048,32
4049,32
4050,32
4051,32
4052,32
4053,32
4054,32
4055,32
4056,32
4057,32
4058,32
4059,32
4060,32
4061,32
4062,32
4063,34
4064,33
4065,33
4066,33
4067,33
4068,33
4069,33
4070,34
4071,34
4072,35
4073,35
4074,34
4075,35
4076,34
4077,34
4078,34
4079,36
4080,36
4081,35
4082,34
4083,34
4084,34
4085,34
4086,34
4087,34
4088,34
4089,34
4090,34
4091,35
4092,34
4093,35
4094,35
4095,34
4096,34
4097,34
4098,34
4099,34
4100,33
4101,33
4102,33
4103,33
4104,33
4105,33
4106,34
4107,33
4108,33
4109,33
4110,33
4111,33
4112,33
4113,33
4114,33
4115,33
4116,33
4117,33
4118,32
4119,32
4120,32
4121,32
4122,32
4123,32
4124,34
4125,33
4126,33
4127,33
4128,33
4129,32
4130,32
4131,32
4132,32
4133,32
4134,32
4135,32
4136,32
4137,32
4138,32
4139,33
4140,33
4141,32
4142,32
4143,32
4144,32
4145,32
4146,32
4147,32
4148,32
4149,32
4150,32
4151,32
4152,32
4153,32
4154,32
4155,32
4156,32
4157,33
4158,33
4159,33
4160,32
4161,32
4162,32
4163,32
4164,32
4165,32
4166,32
4167,32
4168,32
4169,32
4170,32
4171,32
4172,32
4173,33
4174,32
4175,32
4176,32
4177,32
4178,32
4179,32
4180,32
4181,32
4182,32
4183,32
4184,32
4185,32
4186,32
4187,32
4188,32
4189,32
4190,32
4191,32
4192,32
4193,32
4194,32
4195,32
4196,32
4197,32
4198,32
4199,32
4200,32
4201,32
4202,32
4203,32
4204,32
4205,32
4206,32
4207,32
4208,32
4209,32
4210,33
4211,32
4212,32
4213,32
4214,32
4215,32
4216,32
4217,32
4218,32
4219,32
4220,32
4221,33
4222,33
4223,33
4224,33
4225,33
4226,32
4227,32
4228,32
4229,32
4230,32
4231,32
4232,32
4233,32
4234,32
4235,32
4236,32
4237,32
4238,32
4239,32
4240,32
4241,32
4242,32
4243,32
4244,32
4245,33
4246,32
4247,33
4248,33
4249,32
4250,32
4251,32
4252,32
4253,32
4254,32
4255,32
4256,32
4257,32
4258,32
4259,32
4260,32
4261,32
4262,32
4263,32
4264,32
4265,32
4266,32
4267,32
4268,32
4269,32
4270,32
4271,32
4272,32
4273,33
4274,33
4275,33
4276,33
4277,33
4278,32
4279,32
4280,32
4281,32
4282,32
4283,32
4284,32
4285,32
4286,32
4287,32
4288,32
4289,32
4290,32
4291,32
4292,32
4293,32
4294,32
4295,32
4296,32
4297,32
4298,32
4299,32
4300,32
4301,32
4302,32
4303,33
4304,33
4305,32
4306,32
4307,32
4308,32
4309,32
4310,32
4311,32
4312,32
4313,32
4314,32
4315,32
4316,32
4317,32
4318,32
4319,32
4320,32
4321,32
4322,32
4323,32
4324,32
4325,32
4326,32
4327,33
4328,33
4329,33
4330,33
4331,33
4332,33
4333,33
4334,33
4335,33
4336,33
4337,33
4338,33
4339,33
4340,33
4341,33
4342,32
4343,32
4344,32
4345,32
4346,32
4347,32
4348,32
4349,32
4350,32
4351,32
4352,32
4353,32
4354,32
4355,32
4356,32
4357,32
4358,32
4359,33
4360,33
4361,32
4362,32
4363,32
4364,32
4365,32
4366,32
4367,32
4368,33
4369,33
4370,33
4371,33
4372,32
4373,32
4374,32
4375,33
4376,33
4377,34
4378,34
4379,34
4380,33
4381,33
4382,33
4383,33
4384,33
4385,33
4386,32
4387,32
4388,32
4389,32
4390,32
4391,32
4392,32
4393,32
4394,32
4395,32
4396,32
4397,32
4398,32
4399,32
4400,32
4401,32
4402,32
4403,33
4404,33
4405,33
4406,33
4407,33
4408,33
4409,33
4410,33
4411,33
4412,33
4413,32
4414,32
4415,32
4416,32
4417,32
4418,32
4419,32
4420,32
4421,32
4422,33
4423,33
4424,33
4425,33
4426,33
4427,32
4428,32
4429,32
4430,32
4431,32
4432,32
4433,32
4434,32
4435,32
4436,32
4437,32
4438,32
4439,32
4440,32
4441,32
4442,32
4443,32
4444,32
4445,32
4446,32
4447,32
4448,32
4449,33
4450,32
4451,32
4452,33
4453,33
4454,33
4455,33
4456,34
4457,34
4458,33
4459,34
4460,34
4461,34
4462,34
4463,34
4464,33
4465,33
4466,33
4467,33
4468,33
4469,33
4470,34
4471,34
4472,34
4473,35
4474,35
4475,35
4476,35
4477,34
4478,34
4479,34
4480,34
4481,34
4482,34
4483,33
4484,32
4485,32
4486,32
4487,33
4488,33
4489,33
4490,33
4491,33
4492,33
4493,33
4494,33
4495,33
4496,34
4497,34
4498,34
4499,34
4500,34
4501,34
4502,34
4503,34
4504,34
4505,34
4506,34
4507,34
4508,34
4509,34
4510,34
4511,34
4512,34
4513,34
4514,34
4515,34
4516,34
4517,34
4518,34
4519,34
4520,34
4521,34
4522,35
4523,34
4524,34
4525,34
4526,34
4527,34
4528,34
4529,34
4530,34
4531,34
4532,34
4533,34
4534,34
4535,34
4536,35
4537,35
4538,35
4539,34
4540,34
4541,34
4542,34
4543,34
4544,34
4545,34
4546,34
4547,34
4548,34
4549,34
4550,34
4551,34
4552,34
4553,34
4554,34
4555,34
4556,34
4557,34
4558,34
4559,34
4560,34
4561,34
4562,34
4563,34
4564,34
4565,34
4566,34
4567,34
4568,34
4569,34
4570,34
4571,34
4572,34
4573,34
4574,34
4575,34
4576,34
4577,34
4578,34
4579,34
4580,34
4581,34
4582,34
4583,34
4584,34
4585,34
4586,34
4587,35
4588,35
4589,35
4590,35
4591,35
4592,35
4593,35
4594,34
4595,34
4596,34
4597,34
4598,34
4599,34
4600,34
4601,34
4602,34
4603,34
4604,34
4605,36
4606,36
4607,36
4608,36
4609,36
4610,36
4611,35
4612,35
4613,35
4614,35
4615,35
4616,36
4617,36
4618,36
4619,36
4620,36
4621,36
4622,36
4623,36
4624,35
4625,35
4626,35
4627,36
4628,35
4629,35
4630,35
4631,35
4632,35
4633,35
4634,35
4635,35
4636,35
4637,35
4638,35
4639,35
4640,35
4641,35
4642,35
4643,35
4644,35
4645,35
4646,35
4647,35
4648,35
4649,35
4650,35
4651,35
4652,35
4653,35
4654,35
4655,35
4656,35
4657,35
4658,35
4659,35
4660,35
4661,35
4662,35
4663,35
4664,35
4665,34
4666,34
4667,34
4668,34
4669,34
4670,34
4671,34
4672,34
4673,34
4674,34
4675,34
4676,34
4677,34
4678,34
4679,34
4680,34
4681,35
4682,35
4683,35
4684,34
4685,34
4686,34
4687,34
4688,34
4689,34
4690,34
4691,34
4692,34
4693,34
4694,34
4695,34
4696,34
4697,34
4698,34
4699,35
4700,34
4701,35
4702,35
4703,34
4704,34
4705,34
4706,34
4707,34
4708,34
4709,34
4710,34
4711,34
4712,34
4713,34
4714,34
4715,34
4716,34
4717,35
4718,35
4719,34
4720,34
4721,34
4722,34
4723,34
4724,34
4725,36
4726,34
4727,34
4728,34
4729,34
4730,34
4731,34
4732,34
4733,34
4734,34
4735,34
4736,34
4737,34
4738,34
4739,35
4740,34
4741,34
4742,34
4743,34
4744,34
4745,34
4746,34
4747,34
4748,34
4749,35
4750,35
4751,34
4752,34
4753,34
4754,34
4755,34
4756,34
4757,34
4758,34
4759,34
4760,34
4761,34
4762,34
4763,34
4764,35
4765,35
4766,35
4767,35
4768,35
4769,34
4770,34
4771,34
4772,34
4773,34
4774,34
4775,34
4776,34
4777,34
4778,34
4779,34
4780,34
4781,34
4782,34
4783,34
4784,34
4785,34
4786,34
4787,34
4788,34
4789,34
4790,34
4791,34
4792,34
4793,34
4794,34
4795,34
4796,34
4797,34
4798,34
4799,34
4800,34
4801,34
4802,34
4803,34
4804,34
4805,34
4806,34
4807,34
4808,34
4809,34
4810,34
4811,34
4812,34
4813,34
4814,34
4815,34
4816,34
4817,34
4818,34
4819,34
4820,34
4821,34
4822,35
4823,35
4824,35
4825,35
4826,35
4827,34
4828,34
4829,34
4830,34
4831,34
4832,34
4833,34
4834,34
4835,34
4836,34
4837,34
4838,34
4839,34
4840,34
4841,34
4842,34
4843,34
4844,34
4845,34
4846,34
4847,34
4848,34
4849,34
4850,34
4851,34
4852,35
4853,35
4854,35
4855,35
4856,34
4857,34
4858,34
4859,34
4860,34
4861,34
4862,34
4863,34
4864,34
4865,34
4866,34
4867,34
4868,34
4869,34
4870,34
4871,34
4872,34
4873,34
4874,34
4875,34
4876,34
4877,34
4878,35
4879,34
4880,34
4881,34
4882,34
4883,34
4884,34
4885,34
4886,35
4887,35
4888,35
4889,34
4890,34
4891,34
4892,34
4893,35
4894,35
4895,34
4896,34
4897,34
4898,34
4899,34
4900,34
4901,34
4902,35
4903,34
4904,34
4905,34
4906,34
4907,34
4908,34
4909,34
4910,34
4911,34
4912,34
4913,34
4914,34
4915,34
4916,34
4917,35
4918,35
4919,35
4920,36
4921,36
4922,36
4923,36
4924,36
4925,36
4926,36
4927,36
4928,36
4929,36
4930,36
4931,35
4932,36
4933,36
4934,35
4935,35
4936,35
4937,35
4938,35
4939,35
4940,35
4941,34
4942,34
4943,34
4944,34
4945,34
4946,34
4947,34
4948,34
4949,34
4950,34
4951,34
4952,33
4953,33
4954,33
4955,33
4956,33
4957,33
4958,33
4959,33
4960,33
4961,33
4962,33
4963,33
4964,34
4965,34
4966,34
4967,34
4968,33
4969,33
4970,33
4971,33
4972,33
4973,33
4974,33
4975,33
4976,33
4977,33
4978,33
4979,34
4980,33
4981,33
4982,33
4983,33
4984,33
4985,33
4986,33
4987,33
4988,33
4989,33
4990,33
4991,34
4992,33
4993,33
4994,33
4995,33
4996,33
4997,33
4998,33
4999,33
5000,34
5001,34
5002,34
5003,34
5004,35
5005,35
5006,36
5007,35
5008,35
5009,35
5010,35
5011,34
5012,34
5013,34
5014,35
5015,35
5016,35
5017,35
5018,34
5019,34
5020,34
5021,33
5022,33
5023,33
5024,34
5025,34
5026,34
5027,33
5028,33
5029,33
5030,33
5031,33
5032,33
5033,33
5034,33
5035,33
5036,33
5037,33
5038,33
5039,33
5040,33
5041,33
5042,33
5043,33
5044,33
5045,33
5046,33
5047,33
5048,33
5049,33
5050,33
5051,33
5052,33
5053,33
5054,33
5055,33
5056,34
5057,34
5058,35
5059,34
5060,34
5061,34
5062,34
5063,34
5064,34
5065,34
5066,34
5067,34
5068,34
5069,34
5070,34
5071,34
5072,34
5073,34
5074,34
5075,34
5076,34
5077,34
5078,34
5079,34
5080,34
5081,35
5082,35
5083,34
5084,34
5085,34
5086,34
5087,34
5088,34
5089,34
5090,34
5091,34
5092,34
5093,34
5094,34
5095,34
5096,35
5097,35
5098,35
5099,35
5100,35
5101,35
5102,35
5103,34
5104,34
5105,34
5106,34
5107,34
5108,34
5109,34
5110,34
5111,34
5112,34
5113,34
5114,34
5115,34
5116,34
5117,34
5118,33
5119,33
5120,33
5121,33
5122,33
5123,35
5124,34
5125,35
5126,35
5127,35
5128,35
5129,34
5130,34
5131,34
5132,34
5133,34
5134,34
5135,34
5136,34
5137,34
5138,34
5139,34
5140,34
5141,34
5142,34
5143,34
5144,34
5145,34
5146,34
5147,34
5148,34
5149,34
5150,34
5151,34
5152,33
5153,33
5154,33
5155,33
5156,33
5157,33
5158,33
5159,33
5160,33
5161,33
5162,33
5163,33
5164,33
5165,33
5166,33
5167,34
5168,33
5169,33
5170,33
5171,34
5172,34
5173,33
5174,33
5175,33
5176,33
5177,33
5178,33
5179,34
5180,34
5181,33
5182,33
5183,33
5184,33
5185,33
5186,33
5187,33
5188,33
5189,33
5190,33
5191,33
5192,33
5193,34
5194,34
5195,33
5196,33
5197,33
5198,33
5199,33
5200,33
5201,33
5202,33
5203,33
5204,33
5205,33
5206,33
5207,33
5208,33
5209,33
5210,33
5211,33
5212,33
5213,33
5214,33
5215,33
5216,34
5217,33
5218,33
5219,33
5220,34
5221,33
5222,33
5223,33
5224,33
5225,33
5226,33
5227,33
5228,33
5229,33
5230,33
5231,34
5232,35
5233,34
5234,34
5235,34
5236,34
5237,33
5238,33
5239,33
5240,33
5241,33
5242,33
5243,33
5244,33
5245,33
5246,33
5247,33
5248,33
5249,33
5250,33
5251,33
5252,33
5253,33
5254,33
5255,33
5256,33
5257,33
5258,33
5259,33
5260,33
5261,34
5262,33
5263,33
5264,35
5265,35
5266,34
5267,34
5268,34
5269,34
5270,34
5271,34
5272,34
5273,34
5274,34
5275,33
5276,33
5277,33
5278,33
5279,33
5280,33
5281,33
5282,33
5283,33
5284,33
5285,33
5286,33
5287,33
5288,34
5289,33
5290,33
5291,33
5292,33
5293,33
5294,33
5295,33
5296,33
5297,33
5298,33
5299,33
5300,33
5301,33
5302,33
5303,33
5304,33
5305,33
5306,33
5307,33
5308,33
5309,33
5310,33
5311,33
5312,33
5313,33
5314,33
5315,33
5316,33
5317,33
5318,33
5319,33
5320,33
5321,33
5322,33
5323,33
5324,33
5325,33
5326,33
5327,33
5328,33
5329,33
5330,33
5331,32
5332,32
5333,32
5334,32
5335,32
5336,32
5337,32
5338,32
5339,32
5340,32
5341,32
5342,32
5343,32
5344,33
5345,32
5346,32
5347,32
5348,32
5349,32
5350,33
5351,33
5352,33
5353,32
5354,32
5355,32
5356,32
5357,32
5358,32
5359,32
5360,32
5361,32
5362,32
5363,32
5364,33
5365,32
5366,32
5367,32
5368,32
5369,34
5370,33
5371,32
5372,32
5373,32
5374,32
5375,32
5376,32
5377,32
5378,32
5379,32
5380,32
5381,32
5382,32
5383,32
5384,32
5385,33
5386,33
5387,32
5388,32
5389,32
5390,32
5391,32
5392,32
5393,32
5394,32
5395,32
5396,32
5397,32
5398,32
5399,32
5400,32
5401,32
5402,32
5403,33
5404,32
5405,32
5406,33
5407,33
5408,32
5409,33
5410,33
5411,33
5412,33
5413,33
5414,34
5415,35
5416,34
5417,34
5418,34
5419,34
5420,34
5421,34
5422,34
5423,34
5424,34
5425,34
5426,34
5427,34
5428,33
5429,33
5430,33
5431,33
5432,33
5433,33
5434,33
5435,33
5436,33
5437,33
5438,33
5439,33
5440,33
5441,33
5442,33
5443,33
5444,33
5445,33
5446,33
5447,33
5448,33
5449,33
5450,33
5451,33
5452,33
5453,33
5454,33
5455,33
5456,33
5457,33
5458,33
5459,33
5460,33
5461,33
5462,33
5463,33
5464,34
5465,32
5466,32
5467,32
5468,32
5469,32
5470,33
5471,32
5472,32
5473,33
5474,34
5475,33
5476,32
5477,32
5478,32
5479,32
5480,32
5481,32
5482,32
5483,32
5484,32
5485,32
5486,32
5487,32
5488,32
5489,32
5490,33
5491,33
5492,32
5493,32
5494,32
5495,32
5496,32
5497,32
5498,32
5499,32
5500,32
5501,32
5502,32
5503,32
5504,32
5505,32
5506,33
5507,33
5508,32
5509,32
5510,32
5511,32
5512,32
5513,32
5514,32
5515,32
5516,33
5517,33
5518,32
5519,32
5520,32
5521,32
5522,32
5523,32
5524,32
5525,32
5526,32
5527,32
5528,32
5529,32
5530,32
5531,32
5532,32
5533,32
5534,32
5535,32
5536,32
5537,32
5538,32
5539,32
5540,32
5541,32
5542,32
5543,32
5544,32
5545,32
5546,32
5547,32
5548,32
5549,33
5550,33
5551,33
5552,33
5553,33
5554,33
5555,33
5556,33
5557,33
5558,33
5559,33
5560,35
5561,36
5562,35
5563,34
5564,33
5565,33
5566,33
5567,33
5568,33
5569,33
5570,33
5571,33
5572,33
5573,33
5574,33
5575,33
5576,33
5577,33
5578,33
5579,33
5580,33
5581,33
5582,33
5583,33
5584,34
5585,33
5586,33
5587,33
5588,33
5589,33
5590,33
5591,33
5592,33
5593,33
5594,33
5595,33
5596,34
5597,33
5598,33
5599,33
5600,33
5601,33
5602,33
5603,33
5604,33
5605,33
5606,33
5607,34
5608,34
5609,34
5610,34
5611,34
5612,34
5613,34
5614,34
5615,34
5616,34
5617,34
5618,33
5619,33
5620,33
5621,33
5622,33
5623,33
5624,33
5625,33
5626,33
5627,33
5628,33
5629,33
5630,33
5631,33
5632,33
5633,33
5634,33
5635,33
5636,33
5637,35
5638,35
5639,34
5640,34
5641,34
5642,34
5643,33
5644,33
5645,33
5646,33
5647,33
5648,33
5649,33
5650,33
5651,33
5652,33
5653,33
5654,33
5655,33
5656,33
5657,33
5658,33
5659,33
5660,33
5661,33
5662,33
5663,33
5664,33
5665,33
5666,33
5667,33
5668,33
5669,33
5670,33
5671,33
5672,33
5673,33
5674,33
5675,33
5676,33
5677,33
5678,33
5679,33
5680,33
5681,33
5682,33
5683,33
5684,33
5685,33
5686,33
5687,33
5688,33
5689,33
5690,33
5691,33
5692,33
5693,33
5694,33
5695,33
5696,33
5697,33
5698,33
5699,33
5700,33
5701,33
5702,33
5703,33
5704,33
5705,33
5706,33
5707,33
5708,33
5709,33
5710,33
5711,33
5712,33
5713,33
5714,33
5715,33
5716,33
5717,33
5718,34
5719,34
5720,34
5721,34
5722,33
5723,34
5724,33
5725,33
5726,34
5727,34
5728,34
5729,34
5730,34
5731,34
5732,34
5733,34
5734,34
5735,34
5736,34
5737,33
5738,33
5739,34
5740,34
5741,34
5742,35
5743,33
5744,33
5745,33
5746,33
5747,33
5748,33
5749,33
5750,33
5751,33
5752,33
5753,33
5754,33
5755,33
5756,33
5757,34
5758,34
5759,34
5760,34
5761,35
5762,35
5763,35
5764,35
5765,35
5766,34
5767,34
5768,34
5769,34
5770,34
5771,35
5772,35
5773,35
5774,34
5775,34
5776,34
5777,34
5778,34
5779,34
5780,34
5781,34
5782,35
5783,35
5784,34
5785,34
5786,34
5787,34
5788,34
5789,34
5790,35
5791,35
5792,35
5793,35
5794,35
5795,35
5796,35
5797,35
5798,35
5799,35
5800,35
5801,35
5802,35
5803,35
5804,35
5805,35
5806,36
5807,37
5808,36
5809,36
5810,36
5811,36
5812,35
5813,35
5814,35
5815,35
5816,35
5817,35
5818,35
5819,35
5820,34
5821,35
5822,35
5823,35
5824,35
5825,36
5826,36
5827,35
5828,35
5829,35
5830,35
5831,36
5832,36
5833,35
5834,35
5835,35
5836,35
5837,35
5838,35
5839,35
5840,35
5841,35
5842,36
5843,35
5844,35
5845,36
5846,36
5847,35
5848,35
5849,36
5850,35
5851,35
5852,35
5853,35
5854,35
5855,34
5856,34
5857,34
5858,34
5859,34
5860,34
5861,34
5862,34
5863,35
5864,36
5865,35
5866,35
5867,35
5868,35
5869,35
5870,35
5871,35
5872,35
5873,35
5874,35
5875,34
5876,34
5877,34
5878,34
5879,35
5880,34
5881,34
5882,34
5883,34
5884,34
5885,34
5886,34
5887,34
5888,34
5889,34
5890,34
5891,34
5892,34
5893,34
5894,34
5895,34
5896,34
5897,34
5898,34
5899,34
5900,34
5901,34
5902,34
5903,34
5904,34
5905,34
5906,34
5907,34
5908,34
5909,34
5910,34
5911,34
5912,34
5913,34
5914,34
5915,34
5916,34
5917,34
5918,34
5919,34
5920,35
5921,34
5922,34
5923,34
5924,34
5925,34
5926,34
5927,34
5928,34
5929,34
5930,34
5931,34
5932,34
5933,34
5934,34
5935,34
5936,34
5937,34
5938,34
5939,34
5940,34
5941,34
5942,34
5943,34
5944,34
5945,34
5946,34
5947,34
5948,34
5949,34
5950,34
5951,34
5952,34
5953,34
5954,34
5955,34
5956,35
5957,35
5958,34
5959,34
5960,34
5961,34
5962,34
5963,34
5964,34
5965,34
5966,34
5967,34
5968,34
5969,34
5970,34
5971,34
5972,34
5973,34
5974,34
5975,34
5976,34
5977,34
5978,34
5979,34
5980,34
5981,34
5982,34
5983,34
5984,34
5985,34
5986,34
5987,34
5988,34
5989,34
5990,34
5991,34
5992,34
5993,34
5994,34
5995,34
5996,34
5997,34
5998,34
5999,34
6000,34
6001,34
6002,34
6003,34
6004,34
6005,34
6006,34
6007,34
6008,34
6009,34
6010,34
6011,34
6012,34
6013,34
6014,34
6015,34
6016,34
6017,34
6018,34
6019,34
6020,36
6021,34
6022,34
6023,34
6024,34
6025,34
6026,34
6027,34
6028,34
6029,34
6030,34
6031,34
6032,34
6033,34
6034,35
6035,35
6036,35
6037,34
6038,34
6039,34
6040,34
6041,34
6042,34
6043,34
6044,34
6045,34
6046,34
6047,34
6048,34
6049,34
6050,34
6051,34
6052,34
6053,35
6054,34
6055,34
6056,34
6057,34
6058,34
6059,34
6060,34
6061,34
6062,34
6063,34
6064,34
6065,34
6066,34
6067,34
6068,34
6069,34
6070,34
6071,34
6072,34
6073,34
6074,34
6075,35
6076,34
6077,34
6078,34
6079,34
6080,34
6081,34
6082,34
6083,34
6084,34
6085,34
6086,34
6087,34
6088,34
6089,34
6090,34
6091,34
6092,35
6093,35
6094,35
6095,35
6096,35
6097,34
6098,34
6099,34
6100,34
6101,34
6102,34
6103,34
6104,34
6105,34
6106,34
6107,34
6108,34
6109,34
6110,34
6111,34
6112,34
6113,36
6114,36
6115,35
6116,34
6117,34
6118,34
6119,34
6120,34
6121,34
6122,34
6123,34
6124,34
6125,34
6126,34
6127,34
6128,34
6129,35
6130,35
6131,34
6132,34
6133,34
6134,34
6135,34
6136,34
6137,34
6138,34
6139,34
6140,34
6141,34
6142,34
6143,34
6144,34
6145,34
6146,34
6147,34
6148,34
6149,34
6150,34
6151,34
6152,34
6153,34
6154,34
6155,34
6156,34
6157,34
6158,34
6159,34
6160,34
6161,34
6162,34
6163,34
6164,34
6165,34
6166,34
6167,34
6168,34
6169,34
6170,34
6171,34
6172,34
6173,34
6174,34
6175,34
6176,34
6177,34
6178,34
6179,34
6180,34
6181,34
6182,34
6183,34
6184,34
6185,34
6186,34
6187,34
6188,34
6189,34
6190,35
6191,35
6192,34
6193,34
6194,34
6195,34
6196,34
6197,34
6198,34
6199,34
6200,34
6201,34
6202,34
6203,34
6204,34
6205,34
6206,34
6207,34
6208,34
6209,34
6210,34
6211,34
6212,34
6213,34
6214,34
6215,33
6216,33
6217,33
6218,33
6219,33
6220,33
6221,33
6222,33
6223,33
6224,33
6225,33
6226,33
6227,33
6228,33
6229,33
6230,33
6231,33
6232,33
6233,33
6234,33
6235,33
6236,33
6237,34
6238,34
6239,34
6240,33
6241,33
6242,33
6243,33
6244,33
6245,34
6246,33
6247,33
6248,33
6249,33
6250,33
6251,33
6252,33
6253,33
6254,33
6255,33
6256,33
6257,33
6258,33
6259,33
6260,33
6261,33
6262,33
6263,33
6264,33
6265,33
6266,33
6267,33
6268,33
6269,33
6270,33
6271,33
6272,33
6273,33
6274,34
6275,34
6276,33
6277,33
6278,33
6279,33
6280,33
6281,34
6282,34
6283,34
6284,34
6285,34
6286,34
6287,34
6288,34
6289,34
6290,34
6291,34
6292,34
6293,34
6294,34
6295,34
6296,34
6297,34
6298,34
6299,34
6300,34
6301,34
6302,34
6303,34
6304,34
6305,34
6306,34
6307,34
6308,34
6309,35
6310,34
6311,34
6312,34
6313,34
6314,34
6315,34
6316,34
6317,34
6318,34
6319,34
6320,34
6321,34
6322,34
6323,34
6324,34
6325,34
6326,34
6327,34
6328,34
6329,34
6330,34
6331,34
6332,34
6333,34
6334,34
6335,34
6336,34
6337,34
6338,35
6339,34
6340,34
6341,34
6342,34
6343,34
6344,34
6345,34
6346,34
6347,34
6348,34
6349,34
6350,34
6351,35
6352,34
6353,34
6354,34
6355,34
6356,34
6357,35
6358,35
6359,34
6360,34
6361,34
6362,34
6363,34
6364,34
6365,34
6366,34
6367,34
6368,34
6369,34
6370,34
6371,34
6372,34
6373,35
6374,34
6375,34
6376,34
6377,35
6378,34
6379,34
6380,34
6381,34
6382,34
6383,34
6384,34
6385,34
6386,34
6387,34
6388,35
6389,35
6390,34
6391,34
6392,35
6393,34
6394,34
6395,34
6396,34
6397,34
6398,34
6399,34
6400,34
6401,34
6402,33
6403,33
6404,33
6405,33
6406,33
6407,33
6408,33
6409,33
6410,33
6411,33
6412,33
6413,33
6414,33
6415,33
6416,33
6417,33
6418,33
6419,33
6420,33
6421,33
6422,33
6423,33
6424,33
6425,33
6426,33
6427,33
6428,33
6429,33
6430,33
6431,33
6432,33
6433,33
6434,33
6435,33
6436,33
6437,33
6438,33
6439,33
6440,33
6441,33
6442,33
6443,34
6444,34
6445,34
6446,34
6447,34
6448,34
6449,34
6450,33
6451,33
6452,33
6453,33
6454,34
6455,33
6456,33
6457,33
6458,33
6459,33
6460,33
6461,33
6462,33
6463,33
6464,33
6465,33
6466,33
6467,33
6468,34
6469,33
6470,33
6471,33
6472,33
6473,33
6474,33
6475,33
6476,33
6477,33
6478,33
6479,33
6480,33
6481,33
6482,33
6483,33
6484,33
6485,33
6486,33
6487,33
6488,33
6489,33
6490,34
6491,34
6492,34
6493,34
6494,34
6495,34
6496,34
6497,34
6498,34
6499,34
6500,34
6501,34
6502,34
6503,34
6504,34
6505,34
6506,35
6507,34
6508,34
6509,34
6510,34
6511,33
6512,33
6513,33
6514,33
6515,33
6516,33
6517,33
6518,33
6519,33
6520,33
6521,33
6522,33
6523,33
6524,33
6525,33
6526,33
6527,33
6528,33
6529,33
6530,33
6531,33
6532,33
6533,33
6534,33
6535,33
6536,33
6537,33
6538,34
6539,34
6540,33
6541,33
6542,33
6543,33
6544,33
6545,33
6546,33
6547,33
6548,34
6549,34
6550,33
6551,33
6552,33
6553,33
6554,33
6555,33
6556,33
6557,33
6558,33
6559,33
6560,33
6561,33
6562,33
6563,33
6564,33
6565,33
6566,33
6567,33
6568,33
6569,33
6570,33
6571,33
6572,33
6573,33
6574,33
6575,33
6576,33
6577,34
6578,33
6579,33
6580,33
6581,33
6582,33
6583,33
6584,33
6585,33
6586,33
6587,33
6588,33
6589,33
6590,34
6591,34
6592,35
6593,35
6594,34
6595,34
6596,34
6597,34
6598,33
6599,33
6600,33
6601,33
6602,33
6603,33
6604,33
6605,33
6606,33
6607,33
6608,33
6609,33
6610,33
6611,33
6612,33
6613,33
6614,33
6615,33
6616,33
6617,33
6618,33
6619,33
6620,33
6621,33
6622,33
6623,33
6624,33
6625,33
6626,34
6627,34
6628,33
6629,33
6630,33
6631,33
6632,33
6633,33
6634,33
6635,33
6636,33
6637,33
6638,33
6639,33
6640,33
6641,33
6642,33
6643,33
6644,33
6645,33
6646,33
6647,33
6648,33
6649,33
6650,33
6651,33
6652,33
6653,33
6654,33
6655,33
6656,33
6657,33
6658,33
6659,33
6660,33
6661,33
6662,33
6663,34
6664,34
6665,34
6666,34
6667,34
6668,34
6669,33
6670,33
6671,33
6672,33
6673,34
6674,33
6675,33
6676,33
6677,33
6678,33
6679,33
6680,33
6681,33
6682,33
6683,33
6684,33
6685,33
6686,33
6687,33
6688,33
6689,33
6690,33
6691,33
6692,33
6693,33
6694,33
6695,33
6696,33
6697,33
6698,33
6699,33
6700,33
6701,34
6702,34
6703,34
6704,34
6705,33
6706,33
6707,33
6708,33
6709,33
6710,33
6711,33
6712,33
6713,33
6714,33
6715,33
6716,33
6717,33
6718,33
6719,33
6720,33
6721,33
6722,33
6723,33
6724,33
6725,33
6726,34
6727,34
6728,34
6729,34
6730,34
6731,34
6732,34
6733,34
6734,34
6735,34
6736,34
6737,34
6738,34
6739,34
6740,34
6741,35
6742,35
6743,35
6744,35
6745,35
6746,35
6747,34
6748,34
6749,35
6750,35
6751,35
6752,35
6753,35
6754,34
6755,34
6756,34
6757,34
6758,34
6759,34
6760,34
6761,34
6762,34
6763,34
6764,34
6765,34
6766,34
6767,34
6768,34
6769,34
6770,34
6771,34
6772,34
6773,34
6774,34
6775,34
6776,34
6777,34
6778,33
6779,33
6780,34
6781,34
6782,34
6783,34
6784,34
6785,34
6786,34
6787,34
6788,34
6789,34
6790,34
6791,34
6792,34
6793,34
6794,34
6795,35
6796,35
6797,34
6798,35
6799,35
6800,35
6801,35
6802,35
6803,35
6804,35
6805,35
6806,35
6807,35
6808,35
6809,35
6810,35
6811,35
6812,35
6813,35
6814,36
6815,36
6816,35
6817,35
6818,35
6819,35
6820,35
6821,35
6822,35
6823,35
6824,35
6825,35
6826,35
6827,35
6828,35
6829,34
6830,34
6831,33
6832,33
6833,33
6834,33
6835,33
6836,33
6837,33
6838,33
6839,33
6840,33
6841,33
6842,33
6843,33
6844,33
6845,33
6846,33
6847,33
6848,33
6849,33
6850,33
6851,33
6852,33
6853,33
6854,33
6855,33
6856,33
6857,33
6858,33
6859,33
6860,33
6861,33
6862,33
6863,33
6864,33
6865,33
6866,33
6867,33
6868,33
6869,34
6870,34
6871,34
6872,34
6873,33
6874,33
6875,33
6876,33
6877,33
6878,33
6879,33
6880,33
6881,33
6882,33
6883,33
6884,34
6885,34
6886,34
6887,34
6888,34
6889,33
6890,33
6891,33
6892,33
6893,33
6894,33
6895,33
6896,34
6897,33
6898,33
6899,33
6900,33
6901,33
6902,33
6903,33
6904,33
6905,33
6906,33
6907,33
6908,33
6909,33
6910,33
6911,33
6912,33
6913,33
6914,33
6915,33
6916,33
6917,33
6918,33
6919,33
6920,33
6921,34
6922,33
6923,33
6924,33
6925,33
6926,33
6927,33
6928,33
6929,33
6930,33
6931,33
6932,34
6933,33
6934,33
6935,33
6936,33
6937,33
6938,33
6939,33
6940,33
6941,33
6942,33
6943,33
6944,33
6945,33
6946,33
6947,34
6948,34
6949,34
6950,34
6951,34
6952,34
6953,34
6954,34
6955,34
6956,34
6957,34
6958,34
6959,34
6960,34
6961,34
6962,34
6963,34
6964,33
6965,33
6966,33
6967,33
6968,33
6969,33
6970,33
6971,33
6972,33
6973,33
6974,33
6975,33
6976,33
6977,33
6978,33
6979,33
6980,33
6981,33
6982,34
6983,34
6984,33
6985,33
6986,33
6987,33
6988,33
6989,33
6990,33
6991,33
6992,34
6993,35
6994,34
6995,34
6996,33
6997,33
6998,33
6999,33
7000,33
7001,33
7002,34
7003,34
7004,33
7005,33
7006,33
7007,33
7008,33
7009,33
7010,33
7011,33
7012,33
7013,33
7014,33
7015,33
7016,33
7017,33
7018,33
7019,33
7020,33
7021,34
7022,33
7023,33
7024,33
7025,33
7026,33
7027,33
7028,33
7029,34
7030,33
7031,33
7032,33
7033,34
7034,34
7035,34
7036,34
7037,34
7038,34
7039,34
7040,34
7041,34
7042,34
7043,34
7044,34
7045,35
7046,36
7047,35
7048,35
7049,36
7050,36
7051,36
7052,36
7053,35
7054,35
7055,34
7056,34
7057,35
7058,35
7059,35
7060,34
7061,34
7062,34
7063,35
7064,35
7065,35
7066,35
7067,35
7068,35
7069,36
7070,36
7071,36
7072,36
7073,36
7074,36
7075,36
7076,37
7077,37
7078,37
7079,37
7080,38
7081,37
7082,37
7083,37
7084,37
7085,37
7086,37
7087,37
7088,37
7089,37
7090,37
7091,37
7092,37
7093,37
7094,37
7095,37
7096,37
7097,37
7098,37
7099,37
7100,38
7101,38
7102,38
7103,38
7104,38
7105,38
7106,38
7107,38
7108,37
7109,38
7110,37
7111,37
7112,38
7113,38
7114,38
7115,38
7116,38
7117,38
7118,38
7119,38
7120,38
7121,38
7122,38
7123,38
7124,40
7125,40
7126,40
7127,40
7128,40
7129,40
7130,40
7131,41
7132,40
7133,40
7134,40
7135,40
7136,40
7137,40
7138,42
7139,40
7140,40
7141,41
7142,41
7143,41
7144,41
7145,40
7146,40
7147,40
7148,40
7149,40
7150,40
7151,39
7152,39
7153,39
7154,39
7155,39
7156,39
7157,39
7158,39
7159,39
7160,39
7161,39
7162,39
7163,39
7164,39
7165,39
7166,39
7167,39
7168,39
7169,39
7170,39
7171,39
7172,40
7173,39
7174,39
7175,39
7176,39
7177,39
7178,39
7179,39
7180,39
7181,39
7182,39
7183,39
7184,39
7185,39
7186,39
7187,39
7188,39
7189,38
7190,38
7191,38
7192,38
7193,38
7194,39
7195,38
7196,38
7197,38
7198,38
7199,39
7200,37
7201,37
7202,37
7203,37
7204,37
7205,37
7206,37
7207,37
7208,37
7209,37
7210,37
7211,38
7212,38
7213,38
7214,38
7215,38
7216,39
7217,39
7218,39
7219,40
7220,39
7221,39
7222,39
7223,38
7224,38
7225,38
7226,38
7227,38
7228,38
7229,38
7230,38
7231,38
7232,38
7233,38
7234,38
7235,37
7236,37
7237,37
7238,37
7239,37
7240,37
7241,37
7242,37
7243,37
7244,37
7245,37
7246,37
7247,37
7248,37
7249,37
7250,37
7251,37
7252,37
7253,38
7254,38
7255,38
7256,38
7257,37
7258,37
7259,37
7260,37
7261,37
7262,37
7263,37
7264,37
7265,37
7266,37
7267,37
7268,37
7269,37
7270,37
7271,37
7272,37
7273,37
7274,37
7275,38
7276,37
7277,37
7278,37
7279,37
7280,37
7281,38
7282,38
7283,38
7284,38
7285,38
7286,38
7287,37
7288,37
7289,37
7290,37
7291,37
7292,37
7293,37
7294,37
7295,37
7296,37
7297,37
7298,37
7299,37
7300,37
7301,37
7302,37
7303,37
7304,37
7305,37
7306,37
7307,37
7308,37
7309,37
7310,37
7311,37
7312,37
7313,37
7314,37
7315,37
7316,37
7317,37
7318,37
7319,37
7320,37
7321,37
7322,38
7323,38
7324,38
7325,38
7326,37
7327,37
7328,37
7329,37
7330,37
7331,37
7332,37
7333,37
7334,37
7335,37
7336,37
7337,38
7338,38
7339,38
7340,38
7341,37
7342,37
7343,37
7344,37
7345,37
7346,37
7347,37
7348,37
7349,37
7350,37
7351,37
7352,37
7353,37
7354,37
7355,37
7356,37
7357,37
7358,37
7359,37
7360,37
7361,37
7362,37
7363,37
7364,37
7365,37
7366,37
7367,37
7368,37
7369,37
7370,37
7371,37
7372,37
7373,37
7374,37
7375,37
7376,37
7377,37
7378,37
7379,37
7380,37
7381,37
7382,38
7383,39
7384,40
7385,39
7386,39
7387,39
7388,39
7389,39
7390,39
7391,39
7392,39
7393,39
7394,39
7395,39
7396,39
7397,39
7398,39
7399,39
7400,39
7401,40
7402,40
7403,39
7404,39
7405,39
7406,39
7407,39
7408,39
7409,39
7410,39
7411,39
7412,39
7413,38
7414,38
7415,37
7416,37
7417,37
7418,37
7419,38
7420,39
7421,38
7422,38
7423,38
7424,38
7425,38
7426,37
7427,37
7428,37
7429,37
7430,38
7431,37
7432,37
7433,37
7434,38
7435,38
7436,38
7437,38
7438,37
7439,37
7440,37
7441,37
7442,37
7443,37
7444,37
7445,37
7446,37
7447,37
7448,37
7449,37
7450,37
7451,37
7452,38
7453,38
7454,38
7455,38
7456,38
7457,38
7458,38
7459,38
7460,38
7461,38
7462,39
7463,38
7464,39
7465,38
7466,38
7467,38
7468,37
7469,37
7470,37
7471,37
7472,37
7473,37
7474,37
7475,37
7476,37
7477,37
7478,37
7479,37
7480,37
7481,38
7482,38
7483,37
7484,37
7485,37
7486,37
7487,37
7488,37
7489,36
7490,36
7491,36
7492,36
7493,36
7494,36
7495,37
7496,36
7497,36
7498,36
7499,36
7500,36
7501,36
7502,36
7503,36
7504,36
7505,36
7506,36
7507,36
7508,36
7509,36
7510,36
7511,36
7512,37
7513,37
7514,36
7515,36
7516,36
7517,35
7518,35
7519,35
7520,35
7521,35
7522,35
7523,35
7524,35
7525,35
7526,35
7527,36
7528,36
7529,36
7530,36
7531,36
7532,35
7533,35
7534,35
7535,35
7536,35
7537,35
7538,35
7539,35
7540,35
7541,35
7542,35
7543,35
7544,35
7545,35
7546,35
7547,37
7548,37
7549,37
7550,36
7551,36
7552,36
7553,36
7554,36
7555,36
7556,36
7557,36
7558,36
7559,36
7560,36
7561,36
7562,36
7563,36
7564,36
7565,36
7566,36
7567,37
7568,36
7569,36
7570,36
7571,36
7572,36
7573,36
7574,36
7575,36
7576,36
7577,35
7578,35
7579,35
7580,35
7581,35
7582,35
7583,35
7584,35
7585,35
7586,35
7587,35
7588,35
7589,35
7590,35
7591,35
7592,35
7593,35
7594,35
7595,35
7596,35
7597,35
7598,35
7599,35
7600,35
7601,35
7602,35
7603,35
7604,36
7605,35
7606,35
7607,35
7608,35
7609,35
7610,35
7611,35
7612,36
7613,35
7614,35
7615,35
7616,35
7617,35
7618,35
7619,35
7620,35
7621,35
7622,35
7623,35
7624,35
7625,35
7626,35
7627,35
7628,35
7629,35
7630,35
7631,35
7632,35
7633,35
7634,35
7635,35
7636,35
7637,35
7638,35
7639,35
7640,35
7641,35
7642,35
7643,35
7644,35
7645,35
7646,36
7647,35
7648,36
7649,36
7650,36
7651,36
7652,36
7653,35
7654,36
7655,36
7656,35
7657,35
7658,35
7659,35
7660,35
7661,35
7662,36
7663,36
7664,36
7665,36
7666,36
7667,36
7668,36
7669,36
7670,36
7671,36
7672,36
7673,36
7674,36
7675,36
7676,36
7677,36
7678,36
7679,36
7680,36
7681,36
7682,36
7683,36
7684,36
7685,36
7686,36
7687,37
7688,36
7689,36
7690,36
7691,36
7692,36
7693,36
7694,37
7695,38
7696,38
7697,38
7698,38
7699,38
7700,38
7701,37
7702,37
7703,37
7704,37
7705,36
7706,37
7707,37
7708,37
7709,37
7710,37
7711,37
7712,37
7713,37
7714,37
7715,37
7716,37
7717,37
7718,37
7719,37
7720,37
7721,37
7722,37
7723,37
7724,37
7725,37
7726,37
7727,37
7728,36
7729,36
7730,36
7731,36
7732,36
7733,36
7734,36
7735,36
7736,36
7737,36
7738,36
7739,37
7740,37
7741,36
7742,36
7743,36
7744,36
7745,37
7746,37
7747,37
7748,37
7749,37
7750,37
7751,37
7752,37
7753,37
7754,37
7755,37
7756,37
7757,37
7758,37
7759,36
7760,36
7761,36
7762,36
7763,36
7764,36
7765,36
7766,36
7767,36
7768,36
7769,36
7770,36
7771,36
7772,36
7773,36
7774,36
7775,36
7776,36
7777,36
7778,37
7779,37
7780,37
7781,37
7782,37
7783,37
7784,37
7785,37
7786,37
7787,37
7788,37
7789,37
7790,37
7791,37
7792,37
7793,37
7794,37
7795,37
7796,37
7797,37
7798,37
7799,37
7800,37
7801,37
7802,37
7803,37
7804,37
7805,37
7806,37
7807,37
7808,37
7809,37
7810,37
7811,37
7812,38
7813,38
7814,38
7815,38
7816,38
7817,38
7818,38
7819,38
7820,38
7821,38
7822,38
7823,38
7824,39
7825,39
7826,39
7827,39
7828,39
7829,39
7830,38
7831,39
7832,38
7833,37
7834,37
7835,37
7836,37
7837,37
7838,37
7839,37
7840,37
7841,37
7842,37
7843,37
7844,37
7845,36
7846,36
7847,36
7848,37
7849,37
7850,37
7851,37
7852,37
7853,37
7854,37
7855,37
7856,38
7857,38
7858,38
7859,38
7860,38
7861,38
7862,38
7863,38
7864,38
7865,38
7866,37
7867,37
7868,37
7869,37
7870,37
7871,37
7872,37
7873,38
7874,37
7875,37
7876,37
7877,37
7878,37
7879,37
7880,37
7881,37
7882,37
7883,37
7884,36
7885,36
7886,36
7887,36
7888,36
7889,36
7890,36
7891,36
7892,36
7893,36
7894,36
7895,36
7896,36
7897,36
7898,36
7899,36
7900,36
7901,36
7902,35
7903,35
7904,35
7905,35
7906,35
7907,35
7908,35
7909,35
7910,35
7911,36
7912,36
7913,36
7914,35
7915,35
7916,35
7917,35
7918,35
7919,35
7920,35
7921,34
7922,34
7923,34
7924,34
7925,35
7926,34
7927,34
7928,34
7929,34
7930,34
7931,34
7932,34
7933,34
7934,34
7935,34
7936,34
7937,34
7938,34
7939,34
7940,34
7941,34
7942,34
7943,34
7944,34
7945,34
7946,34
7947,34
7948,34
7949,34
7950,34
7951,35
7952,35
7953,35
7954,35
7955,34
7956,34
7957,34
7958,34
7959,34
7960,34
7961,34
7962,34
7963,34
7964,34
7965,34
7966,34
7967,34
7968,34
7969,34
7970,34
7971,34
7972,34
7973,34
7974,34
7975,34
7976,35
7977,35
7978,35
7979,35
7980,34
7981,34
7982,34
7983,34
7984,34
7985,34
7986,34
7987,34
7988,34
7989,34
7990,34
7991,34
7992,34
7993,34
7994,34
7995,34
7996,34
7997,34
7998,34
7999,34
8000,34
8001,34
8002,34
8003,34
8004,34
8005,34
8006,34
8007,34
8008,34
8009,34
8010,35
8011,35
8012,34
8013,34
8014,35
8015,34
8016,34
8017,34
8018,34
8019,34
8020,34
8021,34
8022,34
8023,34
8024,34
8025,34
8026,34
8027,34
8028,34
8029,34
8030,34
8031,34
8032,34
8033,35
8034,35
8035,35
8036,35
8037,35
8038,35
8039,35
8040,35
8041,35
8042,35
8043,35
8044,35
8045,35
8046,35
8047,35
8048,35
8049,35
8050,35
8051,35
8052,35
8053,35
8054,35
8055,35
8056,35
8057,35
8058,35
8059,35
8060,35
8061,35
8062,35
8063,35
8064,35
8065,35
8066,35
8067,35
8068,35
8069,35
8070,35
8071,35
8072,35
8073,35
8074,35
8075,35
8076,35
8077,36
8078,36
8079,36
8080,36
8081,36
8082,36
8083,36
8084,36
8085,36
8086,36
8087,37
8088,36
8089,36
8090,37
8091,37
8092,36
8093,36
8094,35
8095,35
8096,35
8097,35
8098,35
8099,35
8100,35
8101,36
8102,36
8103,36
8104,37
8105,37
8106,37
8107,37
8108,37
8109,37
8110,37
8111,37
8112,37
8113,37
8114,37
8115,37
8116,37
8117,37
8118,37
8119,37
8120,37
8121,37
8122,37
8123,37
8124,37
8125,37
8126,37
8127,36
8128,36
8129,36
8130,36
8131,36
8132,36
8133,36
8134,36
8135,36
8136,36
8137,36
8138,36
8139,36
8140,36
8141,36
8142,35
8143,35
8144,35
8145,35
8146,35
8147,35
8148,35
8149,35
8150,35
8151,35
8152,35
8153,35
8154,35
8155,35
8156,35
8157,35
8158,35
8159,35
8160,35
8161,36
8162,36
8163,36
8164,36
8165,36
8166,35
8167,35
8168,35
8169,35
8170,35
8171,35
8172,35
8173,35
8174,35
8175,35
8176,36
8177,36
8178,35
8179,35
8180,35
8181,35
8182,35
8183,35
8184,35
8185,35
8186,35
8187,35
8188,34
8189,34
8190,34
8191,34
8192,34
8193,34
8194,34
8195,34
8196,34
8197,34
8198,34
8199,34
8200,34
8201,34
8202,34
8203,35
8204,35
8205,35
8206,35
8207,35
8208,35
8209,35
8210,35
8211,35
8212,35
8213,36
8214,36
8215,36
8216,34
8217,34
8218,34
8219,34
8220,34
8221,34
8222,34
8223,34
8224,34
8225,34
8226,34
8227,34
8228,34
8229,34
8230,34
8231,34
8232,34
8233,34
8234,34
8235,34
8236,34
8237,34
8238,34
8239,34
8240,34
8241,34
8242,34
8243,34
8244,34
8245,34
8246,34
8247,35
8248,34
8249,34
8250,34
8251,34
8252,34
8253,34
8254,34
8255,34
8256,34
8257,34
8258,34
8259,34
8260,34
8261,34
8262,34
8263,34
8264,34
8265,34
8266,34
8267,34
8268,34
8269,34
8270,34
8271,35
8272,35
8273,34
8274,34
8275,34
8276,34
8277,34
8278,34
8279,34
8280,34
8281,34
8282,34
8283,34
8284,34
8285,34
8286,34
8287,34
8288,34
8289,35
8290,34
8291,34
8292,34
8293,34
8294,34
8295,34
8296,34
8297,34
8298,34
8299,34
8300,34
8301,34
8302,34
8303,34
8304,34
8305,34
8306,34
8307,34
8308,34
8309,34
8310,34
8311,34
8312,34
8313,34
8314,34
8315,34
8316,34
8317,34
8318,34
8319,34
8320,36
8321,35
8322,34
8323,35
8324,36
8325,36
8326,36
8327,36
8328,35
8329,35
8330,35
8331,35
8332,35
8333,35
8334,35
8335,35
8336,35
8337,35
8338,35
8339,36
8340,36
8341,35
8342,37
8343,35
8344,35
8345,35
8346,35
8347,35
8348,35
8349,35
8350,35
8351,35
8352,35
8353,35
8354,35
8355,35
8356,35
8357,35
8358,35
8359,35
8360,35
8361,35