1,3
2,3
3,3
4,3
5,3
6,3
7,3
8,3
9,3
10,3
11,3
12,3
13,3
14,3
15,3
16,3
17,3
18,3
19,3
20,3
21,3
22,3
23,3
24,3
25,3
26,3
27,4
28,5
29,4
30,4
31,4
32,4
33,4
34,4
35,4
36,4
37,4
38,4
39,4
40,4
41,4
42,4
43,4
44,4
45,4
46,4
47,4
48,4
49,4
50,4
51,4
52,4
53,4
54,4
55,5
56,5
57,5
58,5
59,5
60,5
61,5
62,5
63,5
64,5
65,5
66,5
67,5
68,5
69,5
70,6
71,5
72,5
73,5
74,5
75,5
76,5
77,5
78,5
79,5
80,6
81,6
82,6
83,5
84,5
85,5
86,5
87,5
88,5
89,5
90,6
91,6
92,6
93,6
94,6
95,6
96,6
97,6
98,6
99,6
100,6
101,6
102,6
103,6
104,6
105,6
106,6
107,6
108,6
109,6
110,6
111,6
112,6
113,6
114,6
115,6
116,6
117,6
118,6
119,6
120,6
121,6
122,6
123,6
124,6
125,6
126,6
127,6
128,6
129,6
130,6
131,6
132,6
133,6
134,6
135,6
136,6
137,6
138,6
139,6
140,6
141,6
142,6
143,6
144,6
145,6
146,6
147,6
148,6
149,6
150,7
151,8
152,7
153,7
154,7
155,7
156,7
157,7
158,7
159,7
160,7
161,7
162,7
163,8
164,7
165,7
166,7
167,7
168,7
169,7
170,7
171,7
172,8
173,8
174,7
175,7
176,7
177,7
178,7
179,7
180,7
181,7
182,7
183,7
184,7
185,7
186,7
187,7
188,8
189,8
190,7
191,7
192,7
193,7
194,7
195,7
196,7
197,7
198,7
199,7
200,7
201,7
202,7
203,7
204,7
205,7
206,7
207,7
208,7
209,7
210,7
211,7
212,7
213,7
214,8
215,7
216,7
217,7
218,7
219,7
220,7
221,7
222,7
223,7
224,8
225,7
226,7
227,7
228,7
229,7
230,7
231,7
232,7
233,8
234,8
235,8
236,8
237,8
238,8
239,8
240,8
241,8
242,8
243,9
244,9
245,8
246,8
247,8
248,8
249,8
250,8
251,8
252,8
253,8
254,8
255,8
256,8
257,8
258,8
259,8
260,8
261,8
262,8
263,8
264,8
265,8
266,8
267,8
268,8
269,8
270,8
271,8
272,8
273,8
274,8
275,8
276,9
277,8
278,8
279,8
280,8
281,8
282,8
283,8
284,8
285,9
286,11
287,10
288,10
289,10
290,9
291,9
292,9
293,9
294,9
295,10
296,10
297,10
298,10
299,10
300,10
301,10
302,10
303,10
304,10
305,10
306,10
307,10
308,10
309,10
310,10
311,10
312,10
313,10
314,10
315,10
316,10
317,10
318,10
319,10
320,10
321,10
322,10
323,10
324,10
325,10
326,10
327,10
328,10
329,10
330,10
331,10
332,10
333,10
334,11
335,11
336,11
337,11
338,11
339,11
340,10
341,10
342,10
343,10
344,10
345,10
346,10
347,10
348,10
349,10
350,10
351,10
352,10
353,10
354,10
355,10
356,10
357,10
358,10
359,10
360,10
361,10
362,10
363,10
364,10
365,10
366,11
367,11
368,11
369,10
370,10
371,10
372,10
373,10
374,11
375,11
376,11
377,10
378,10
379,10
380,10
381,10
382,10
383,10
384,10
385,10
386,10
387,10
388,10
389,10
390,10
391,10
392,10
393,10
394,11
395,11
396,11
397,11
398,11
399,10
400,10
401,10
402,10
403,10
404,10
405,10
406,11
407,10
408,11
409,10
410,10
411,10
412,10
413,11
414,11
415,11
416,11
417,11
418,11
419,11
420,11
421,11
422,11
423,11
424,12
425,12
426,12
427,13
428,12
429,12
430,10
431,11
432,11
433,11
434,11
435,11
436,11
437,12
438,11
439,11
440,11
441,11
442,11
443,11
444,11
445,11
446,12
447,11
448,11
449,12
450,11
451,11
452,11
453,11
454,11
455,11
456,11
457,11
458,11
459,11
460,11
461,11
462,11
463,11
464,11
465,12
466,11
467,12
468,12
469,12
470,12
471,12
472,12
473,12
474,12
475,12
476,12
477,13
478,12
479,12
480,12
481,13
482,12
483,12
484,12
485,12
486,12
487,12
488,12
489,12
490,12
491,12
492,12
493,12
494,13
495,13
496,12
497,12
498,12
499,12
500,12
501,12
502,12
503,12
504,12
505,12
506,12
507,12
508,12
509,13
510,13
511,13
512,13
513,12
514,12
515,12
516,13
517,13
518,13
519,13
520,13
521,14
522,13
523,14
524,13
525,13
526,13
527,13
528,13
529,14
530,13
531,13
532,13
533,13
534,13
535,13
536,13
537,12
538,12
539,12
540,12
541,12
542,12
543,12
544,12
545,12
546,12
547,12
548,12
549,12
550,12
551,12
552,12
553,12
554,12
555,12
556,12
557,12
558,12
559,12
560,12
561,12
562,12
563,12
564,12
565,12
566,12
567,12
568,12
569,12
570,12
571,12
572,12
573,12
574,12
575,13
576,14
577,13
578,13
579,13
580,13
581,13
582,13
583,13
584,13
585,13
586,13
587,13
588,13
589,13
590,13
591,13
592,13
593,13
594,13
595,13
596,13
597,13
598,13
599,13
600,13
601,13
602,13
603,13
604,13
605,14
606,14
607,14
608,14
609,14
610,14
611,14
612,14
613,14
614,14
615,14
616,14
617,14
618,14
619,14
620,14
621,14
622,14
623,15
624,15
625,15
626,15
627,15
628,15
629,14
630,14
631,14
632,14
633,14
634,14
635,14
636,14
637,14
638,14
639,14
640,14
641,15
642,14
643,14
644,14
645,14
646,14
647,14
648,14
649,14
650,14
651,14
652,14
653,14
654,14
655,14
656,14
657,14
658,14
659,14
660,14
661,14
662,14
663,14
664,16
665,15
666,14
667,14
668,14
669,14
670,14
671,14
672,14
673,15
674,14
675,14
676,14
677,14
678,14
679,14
680,14
681,14
682,14
683,14
684,14
685,14
686,14
687,14
688,14
689,14
690,14
691,14
692,14
693,14
694,14
695,14
696,14
697,14
698,14
699,14
700,14
701,14
702,14
703,14
704,14
705,15
706,15
707,15
708,14
709,14
710,14
711,14
712,14
713,14
714,14
715,14
716,14
717,14
718,14
719,14
720,14
721,14
722,14
723,14
724,14
725,14
726,14
727,14
728,15
729,14
730,15
731,14
732,14
733,14
734,14
735,14
736,14
737,14
738,14
739,14
740,15
741,15
742,15
743,15
744,15
745,15
746,15
747,15
748,15
749,14
750,14
751,14
752,14
753,14
754,14
755,14
756,14
757,14
758,14
759,14
760,14
761,14
762,14
763,14
764,14
765,14
766,14
767,15
768,15
769,15
770,15
771,15
772,15
773,16
774,16
775,16
776,16
777,16
778,16
779,16
780,16
781,16
782,17
783,16
784,16
785,16
786,16
787,16
788,17
789,17
790,17
791,16
792,16
793,16
794,16
795,16
796,16
797,17
798,17
799,17
800,17
801,17
802,17
803,17
804,17
805,17
806,17
807,17
808,17
809,17
810,17
811,17
812,17
813,17
814,18
815,18
816,17
817,17
818,17
819,18
820,18
821,17
822,17
823,17
824,17
825,17
826,17
827,17
828,17
829,17
830,17
831,17
832,17
833,17
834,17
835,17
836,17
837,17
838,17
839,17
840,17
841,17
842,17
843,17
844,18
845,18
846,18
847,17
848,17
849,17
850,17
851,17
852,17
853,17
854,17
855,17
856,17
857,17
858,17
859,17
860,17
861,17
862,17
863,17
864,17
865,17
866,17
867,17
868,17
869,17
870,17
871,17
872,17
873,17
874,17
875,17
876,17
877,17
878,17
879,17
880,17
881,17
882,17
883,17
884,17
885,17
886,17
887,17
888,18
889,18
890,18
891,18
892,18
893,18
894,18
895,18
896,18
897,18
898,18
899,18
900,18
901,18
902,18
903,18
904,18
905,18
906,18
907,18
908,18
909,18
910,18
911,18
912,18
913,18
914,18
915,18
916,18
917,18
918,18
919,18
920,18
921,18
922,18
923,18
924,18
925,18
926,18
927,18
928,18
929,18
930,18
931,18
932,18
933,18
934,18
935,18
936,18
937,18
938,18
939,18
940,18
941,18
942,18
943,18
944,18
945,18
946,18
947,18
948,18
949,19
950,18
951,19
952,19
953,19
954,20
955,20
956,20
957,20
958,20
959,20
960,20
961,20
962,20
963,20
964,20
965,19
966,19
967,19
968,19
969,19
970,19
971,19
972,19
973,19
974,19
975,19
976,19
977,19
978,19
979,19
980,19
981,19
982,19
983,19
984,19
985,19
986,20
987,19
988,19
989,19
990,19
991,19
992,20
993,20
994,20
995,20
996,21
997,21
998,20
999,19
1000,19
1001,19
1002,19
1003,19
1004,19
1005,19
1006,19
1007,19
1008,19
1009,19
1010,19
1011,19
1012,19
1013,19
1014,19
1015,20
1016,20
1017,19
1018,19
1019,19
1020,19
1021,19
1022,19
1023,19
1024,19
1025,19
1026,19
1027,19
1028,20
1029,20
1030,20
1031,20
1032,20
1033,20
1034,20
1035,19
1036,19
1037,19
1038,19
1039,19
1040,19
1041,19
1042,19
1043,19
1044,19
1045,19
1046,19
1047,19
1048,19
1049,19
1050,19
1051,19
1052,19
1053,19
1054,19
1055,19
1056,20
1057,20
1058,20
1059,19
1060,19
1061,19
1062,20
1063,19
1064,20
1065,19
1066,19
1067,19
1068,19
1069,19
1070,19
1071,19
1072,20
1073,19
1074,19
1075,19
1076,19
1077,19
1078,19
1079,19
1080,20
1081,20
1082,20
1083,20
1084,19
1085,19
1086,19
1087,19
1088,19
1089,19
1090,19
1091,19
1092,20
1093,20
1094,20
1095,20
1096,20
1097,20
1098,20
1099,20
1100,20
1101,20
1102,20
1103,20
1104,20
1105,20
1106,20
1107,21
1108,20
1109,20
1110,20
1111,20
1112,20
1113,20
1114,20
1115,20
1116,20
1117,21
1118,20
1119,20
1120,20
1121,21
1122,21
1123,20
1124,21
1125,21
1126,21
1127,21
1128,21
1129,21
1130,21
1131,21
1132,21
1133,21
1134,21
1135,21
1136,21
1137,21
1138,21
1139,21
1140,21
1141,21
1142,21
1143,21
1144,21
1145,21
1146,21
1147,21
1148,21
1149,21
1150,21
1151,21
1152,21
1153,21
1154,21
1155,21
1156,21
1157,21
1158,21
1159,21
1160,21
1161,21
1162,21
1163,21
1164,21
1165,21
1166,21
1167,21
1168,21
1169,21
1170,21
1171,21
1172,21
1173,21
1174,21
1175,22
1176,21
1177,21
1178,21
1179,21
1180,22
1181,21
1182,21
1183,21
1184,21
1185,21
1186,21
1187,21
1188,21
1189,21
1190,21
1191,21
1192,21
1193,21
1194,21
1195,21
1196,21
1197,21
1198,21
1199,21
1200,21
1201,22
1202,21
1203,21
1204,21
1205,22
1206,21
1207,21
1208,21
1209,21
1210,21
1211,21
1212,21
1213,21
1214,21
1215,22
1216,21
1217,21
1218,21
1219,21
1220,21
1221,21
1222,21
1223,21
1224,21
1225,21
1226,21
1227,21
1228,21
1229,21
1230,21
1231,21
1232,21
1233,21
1234,21
1235,21
1236,21
1237,21
1238,21
1239,21
1240,21
1241,21
1242,21
1243,21
1244,21
1245,21
1246,21
1247,21
1248,21
1249,21
1250,21
1251,22
1252,22
1253,22
1254,21
1255,21
1256,21
1257,21
1258,21
1259,21
1260,21
1261,22
1262,22
1263,22
1264,22
1265,22
1266,22
1267,22
1268,22
1269,22
1270,22
1271,22
1272,22
1273,22
1274,22
1275,22
1276,22
1277,22
1278,22
1279,22
1280,23
1281,23
1282,23
1283,23
1284,23
1285,23
1286,23
1287,23
1288,22
1289,22
1290,22
1291,22
1292,22
1293,22
1294,22
1295,22
1296,22
1297,22
1298,22
1299,22
1300,22
1301,22
1302,22
1303,22
1304,22
1305,22
1306,22
1307,22
1308,22
1309,22
1310,22
1311,22
1312,22
1313,22
1314,22
1315,22
1316,22
1317,22
1318,22
1319,22
1320,22
1321,22
1322,22
1323,22
1324,22
1325,22
1326,22
1327,22
1328,22
1329,22
1330,22
1331,22
1332,22
1333,22
1334,22
1335,22
1336,22
1337,22
1338,22
1339,22
1340,22
1341,22
1342,22
1343,22
1344,22
1345,22
1346,23
1347,23
1348,23
1349,22
1350,22
1351,22
1352,22
1353,22
1354,22
1355,22
1356,22
1357,22
1358,22
1359,22
1360,23
1361,22
1362,22
1363,22
1364,22
1365,22
1366,23
1367,22
1368,22
1369,22
1370,22
1371,22
1372,22
1373,22
1374,22
1375,22
1376,22
1377,22
1378,22
1379,22
1380,22
1381,22
1382,22
1383,22
1384,22
1385,22
1386,22
1387,22
1388,22
1389,22
1390,22
1391,22
1392,22
1393,22
1394,22
1395,22
1396,22
1397,22
1398,22
1399,22
1400,22
1401,22
1402,22
1403,22
1404,22
1405,22
1406,23
1407,23
1408,23
1409,23
1410,22
1411,22
1412,22
1413,22
1414,22
1415,22
1416,22
1417,22
1418,22
1419,22
1420,22
1421,23
1422,22
1423,22
1424,22
1425,22
1426,22
1427,22
1428,22
1429,22
1430,22
1431,22
1432,22
1433,22
1434,22
1435,22
1436,22
1437,22
1438,22
1439,22
1440,23
1441,23
1442,22
1443,22
1444,22
1445,22
1446,22
1447,22
1448,22
1449,23
1450,23
1451,23
1452,23
1453,23
1454,24
1455,24
1456,24
1457,24
1458,24
1459,23
1460,23
1461,23
1462,23
1463,23
1464,23
1465,23
1466,23
1467,23
1468,23
1469,23
1470,23
1471,23
1472,22
1473,22
1474,22
1475,22
1476,22
1477,22
1478,22
1479,22
1480,22
1481,22
1482,22
1483,22
1484,22
1485,22
1486,22
1487,22
1488,22
1489,22
1490,22
1491,22
1492,22
1493,22
1494,22
1495,22
1496,22
1497,22
1498,22
1499,22
1500,22
1501,22
1502,22
1503,22
1504,22
1505,22
1506,22
1507,22
1508,22
1509,22
1510,22
1511,22
1512,22
1513,22
1514,22
1515,23
1516,23
1517,23
1518,23
1519,23
1520,24
1521,24
1522,24
1523,24
1524,23
1525,23
1526,23
1527,23
1528,23
1529,23
1530,23
1531,23
1532,23
1533,24
1534,24
1535,24
1536,24
1537,23
1538,23
1539,25
1540,23
1541,23
1542,23
1543,24
1544,24
1545,24
1546,24
1547,24
1548,24
1549,24
1550,25
1551,24
1552,24
1553,25
1554,25
1555,25
1556,25
1557,25
1558,25
1559,25
1560,24
1561,24
1562,24
1563,24
1564,24
1565,24
1566,24
1567,24
1568,24
1569,25
1570,24
1571,24
1572,24
1573,24
1574,24
1575,24
1576,23
1577,23
1578,23
1579,23
1580,23
1581,23
1582,23
1583,23
1584,23
1585,23
1586,23
1587,23
1588,23
1589,23
1590,23
1591,23
1592,23
1593,24
1594,26
1595,25
1596,25
1597,24
1598,24
1599,24
1600,24
1601,24
1602,24
1603,24
1604,24
1605,24
1606,25
1607,25
1608,24
1609,24
1610,24
1611,24
1612,24
1613,24
1614,24
1615,24
1616,24
1617,24
1618,24
1619,24
1620,24
1621,24
1622,24
1623,24
1624,24
1625,24
1626,24
1627,24
1628,24
1629,24
1630,24
1631,24
1632,24
1633,24
1634,23
1635,23
1636,23
1637,23
1638,23
1639,23
1640,23
1641,23
1642,23
1643,23
1644,23
1645,23
1646,23
1647,23
1648,23
1649,23
1650,23
1651,23
1652,23
1653,24
1654,24
1655,24
1656,24
1657,24
1658,24
1659,24
1660,24
1661,24
1662,24
1663,24
1664,24
1665,24
1666,24
1667,23
1668,23
1669,23
1670,24
1671,23
1672,23
1673,23
1674,23
1675,24
1676,24
1677,24
1678,24
1679,25
1680,25
1681,25
1682,25
1683,25
1684,25
1685,25
1686,24
1687,24
1688,24
1689,24
1690,24
1691,24
1692,24
1693,24
1694,24
1695,24
1696,24
1697,24
1698,24
1699,24
1700,24
1701,24
1702,24
1703,24
1704,24
1705,24
1706,24
1707,24
1708,24
1709,24
1710,24
1711,24
1712,24
1713,24
1714,24
1715,24
1716,24
1717,24
1718,25
1719,25
1720,24
1721,24
1722,24
1723,24
1724,24
1725,24
1726,24
1727,24
1728,24
1729,24
1730,24
1731,24
1732,24
1733,24
1734,24
1735,24
1736,24
1737,24
1738,24
1739,25
1740,25
1741,25
1742,25
1743,25
1744,25
1745,25
1746,25
1747,25
1748,25
1749,24
1750,24
1751,24
1752,24
1753,24
1754,24
1755,24
1756,25
1757,26
1758,25
1759,24
1760,24
1761,24
1762,24
1763,24
1764,24
1765,24
1766,24
1767,24
1768,24
1769,25
1770,24
1771,24
1772,24
1773,24
1774,24
1775,24
1776,24
1777,24
1778,24
1779,24
1780,24
1781,24
1782,24
1783,24
1784,24
1785,24
1786,24
1787,24
1788,24
1789,24
1790,24
1791,24
1792,24
1793,24
1794,24
1795,24
1796,24
1797,24
1798,24
1799,24
1800,24
1801,24
1802,25
1803,25
1804,25
1805,25
1806,25
1807,25
1808,25
1809,25
1810,25
1811,25
1812,25
1813,25
1814,25
1815,25
1816,25
1817,25
1818,25
1819,25
1820,25
1821,25
1822,25
1823,25
1824,25
1825,25
1826,25
1827,25
1828,25
1829,25
1830,24
1831,24
1832,24
1833,24
1834,25
1835,25
1836,25
1837,25
1838,25
1839,25
1840,25
1841,25
1842,25
1843,25
1844,25
1845,25
1846,25
1847,25
1848,25
1849,26
1850,25
1851,25
1852,25
1853,25
1854,25
1855,25
1856,26
1857,25
1858,25
1859,25
1860,25
1861,25
1862,25
1863,25
1864,25
1865,25
1866,25
1867,25
1868,25
1869,25
1870,25
1871,25
1872,25
1873,25
1874,25
1875,25
1876,25
1877,25
1878,25
1879,25
1880,25
1881,25
1882,25
1883,25
1884,25
1885,25
1886,25
1887,25
1888,25
1889,25
1890,25
1891,25
1892,25
1893,25
1894,25
1895,25
1896,25
1897,26
1898,25
1899,26
1900,25
1901,25
1902,25
1903,25
1904,27
1905,26
1906,26
1907,26
1908,25
1909,25
1910,25
1911,25
1912,25
1913,25
1914,25
1915,25
1916,25
1917,25
1918,25
1919,25
1920,25
1921,25
1922,25
1923,26
1924,26
1925,26
1926,26
1927,26
1928,26
1929,26
1930,26
1931,26
1932,26
1933,25
1934,25
1935,25
1936,25
1937,25
1938,25
1939,25
1940,25
1941,26
1942,26
1943,25
1944,25
1945,25
1946,25
1947,25
1948,25
1949,25
1950,25
1951,25
1952,25
1953,25
1954,25
1955,25
1956,25
1957,25
1958,25
1959,25
1960,25
1961,25
1962,25
1963,27
1964,27
1965,26
1966,25
1967,25
1968,26
1969,25
1970,25
1971,25
1972,25
1973,25
1974,25
1975,25
1976,25
1977,25
1978,25
1979,25
1980,25
1981,25
1982,25
1983,25
1984,25
1985,25
1986,25
1987,25
1988,25
1989,25
1990,25
1991,25
1992,25
1993,25
1994,25
1995,25
1996,25
1997,25
1998,25
1999,25
2000,25
2001,25
2002,25
2003,25
2004,25
2005,25
2006,25
2007,25
2008,25
2009,25
2010,25
2011,26
2012,28
2013,28
2014,27
2015,27
2016,26
2017,26
2018,26
2019,26
2020,26
2021,26
2022,26
2023,26
2024,26
2025,26
2026,26
2027,27
2028,27
2029,27
2030,27
2031,27
2032,27
2033,27
2034,26
2035,26
2036,26
2037,25
2038,25
2039,25
2040,25
2041,25
2042,25
2043,25
2044,25
2045,25
2046,25
2047,25
2048,25
2049,25
2050,25
2051,25
2052,25
2053,25
2054,25
2055,25
2056,25
2057,25
2058,25
2059,25
2060,25
2061,25
2062,25
2063,25
2064,25
2065,25
2066,25
2067,25
2068,25
2069,25
2070,25
2071,25
2072,25
2073,25
2074,25
2075,25
2076,25
2077,25
2078,25
2079,25
2080,25
2081,25
2082,25
2083,25
2084,25
2085,25
2086,25
2087,25
2088,25
2089,25
2090,25
2091,26
2092,25
2093,25
2094,25
2095,25
2096,25
2097,25
2098,25
2099,25
2100,25
2101,25
2102,25
2103,25
2104,25
2105,25
2106,25
2107,25
2108,25
2109,25
2110,25
2111,25
2112,26
2113,25
2114,25
2115,25
2116,25
2117,25
2118,25
2119,25
2120,25
2121,25
2122,25
2123,25
2124,25
2125,25
2126,25
2127,26
2128,25
2129,25
2130,25
2131,25
2132,25
2133,25
2134,25
2135,25
2136,25
2137,25
2138,25
2139,25
2140,25
2141,25
2142,25
2143,25
2144,25
2145,26
2146,25
2147,25
2148,26
2149,26
2150,26
2151,26
2152,26
2153,25
2154,25
2155,25
2156,25
2157,25
2158,26
2159,25
2160,25
2161,25
2162,25
2163,25
2164,25
2165,25
2166,25
2167,25
2168,25
2169,26
2170,26
2171,27
2172,26
2173,26
2174,26
2175,26
2176,26
2177,26
2178,26
2179,26
2180,26
2181,26
2182,26
2183,26
2184,26
2185,26
2186,26
2187,25
2188,25
2189,25
2190,25
2191,25
2192,25
2193,25
2194,25
2195,25
2196,25
2197,25
2198,25
2199,25
2200,25
2201,25
2202,25
2203,25
2204,25
2205,25
2206,25
2207,25
2208,25
2209,25
2210,25
2211,25
2212,25
2213,25
2214,25
2215,25
2216,25
2217,25
2218,25
2219,25
2220,25
2221,25
2222,25
2223,25
2224,25
2225,25
2226,25
2227,25
2228,25
2229,25
2230,25
2231,25
2232,25
2233,25
2234,25
2235,25
2236,25
2237,25
2238,26
2239,26
2240,26
2241,25
2242,25
2243,25
2244,25
2245,25
2246,25
2247,25
2248,25
2249,25
2250,25
2251,25
2252,25
2253,25
2254,25
2255,25
2256,25
2257,25
2258,25
2259,25
2260,25
2261,25
2262,26
2263,27
2264,27
2265,27
2266,27
2267,28
2268,28
2269,27
2270,27
2271,27
2272,27
2273,27
2274,27
2275,27
2276,27
2277,27
2278,27
2279,27
2280,27
2281,27
2282,27
2283,27
2284,27
2285,27
2286,27
2287,27
2288,27
2289,27
2290,27
2291,27
2292,27
2293,27
2294,27
2295,27
2296,27
2297,27
2298,27
2299,27
2300,27
2301,27
2302,27
2303,27
2304,27
2305,27
2306,27
2307,27
2308,27
2309,27
2310,27
2311,27
2312,27
2313,27
2314,28
2315,28
2316,27
2317,27
2318,27
2319,27
2320,27
2321,27
2322,27
2323,27
2324,27
2325,27
2326,27
2327,27
2328,28
2329,27
2330,27
2331,28
2332,27
2333,27
2334,27
2335,27
2336,27
2337,27
2338,27
2339,27
2340,27
2341,27
2342,27
2343,27
2344,27
2345,27
2346,27
2347,27
2348,27
2349,27
2350,27
2351,27
2352,27
2353,27
2354,27
2355,27
2356,27
2357,27
2358,27
2359,27
2360,27
2361,28
2362,27
2363,27
2364,28
2365,27
2366,27
2367,28
2368,28
2369,28
2370,28
2371,28
2372,28
2373,27
2374,27
2375,27
2376,27
2377,27
2378,27
2379,27
2380,28
2381,27
2382,27
2383,27
2384,27
2385,27
2386,27
2387,28
2388,27
2389,28
2390,29
2391,29
2392,29
2393,29
2394,29
2395,29
2396,30
2397,29
2398,29
2399,29
2400,29
2401,28
2402,28
2403,28
2404,28
2405,28
2406,28
2407,28
2408,28
2409,28
2410,28
2411,28
2412,28
2413,28
2414,28
2415,28
2416,28
2417,28
2418,28
2419,28
2420,28
2421,28
2422,28
2423,28
2424,28
2425,28
2426,28
2427,28
2428,28
2429,28
2430,28
2431,28
2432,28
2433,28
2434,28
2435,28
2436,28
2437,28
2438,28
2439,28
2440,29
2441,28
2442,28
2443,28
2444,28
2445,28
2446,28
2447,28
2448,28
2449,28
2450,28
2451,28
2452,28
2453,28
2454,28
2455,28
2456,28
2457,28
2458,28
2459,28
2460,28
2461,28
2462,28
2463,28
2464,28
2465,28
2466,28
2467,28
2468,29
2469,28
2470,28
2471,28
2472,28
2473,28
2474,28
2475,28
2476,28
2477,29
2478,29
2479,29
2480,29
2481,29
2482,29
2483,29
2484,29
2485,29
2486,29
2487,29
2488,29
2489,29
2490,29
2491,29
2492,29
2493,29
2494,28
2495,28
2496,28
2497,28
2498,29
2499,29
2500,28
2501,28
2502,28
2503,28
2504,28
2505,29
2506,28
2507,28
2508,28
2509,28
2510,28
2511,28
2512,28
2513,28
2514,28
2515,28
2516,28
2517,28
2518,28
2519,28
2520,29
2521,29
2522,29
2523,28
2524,28
2525,28
2526,28
2527,28
2528,28
2529,28
2530,28
2531,28
2532,28
2533,28
2534,28
2535,28
2536,28
2537,28
2538,28
2539,28
2540,28
2541,29
2542,28
2543,28
2544,29
2545,28
2546,28
2547,28
2548,28
2549,28
2550,28
2551,28
2552,28
2553,28
2554,28
2555,28
2556,28
2557,28
2558,28
2559,28
2560,28
2561,28
2562,28
2563,28
2564,28
2565,28
2566,28
2567,28
2568,28
2569,28
2570,28
2571,28
2572,29
2573,28
2574,28
2575,28
2576,28
2577,28
2578,28
2579,28
2580,28
2581,28
2582,28
2583,28
2584,28
2585,28
2586,28
2587,28
2588,29
2589,29
2590,29
2591,29
2592,29
2593,29
2594,30
2595,29
2596,29
2597,29
2598,29
2599,29
2600,29
2601,29
2602,29
2603,28
2604,28
2605,28
2606,28
2607,28
2608,28
2609,28
2610,28
2611,28
2612,28
2613,28
2614,28
2615,28
2616,28
2617,28
2618,28
2619,28
2620,28
2621,28
2622,28
2623,28
2624,28
2625,28
2626,28
2627,28
2628,28
2629,28
2630,28
2631,28
2632,28
2633,28
2634,28
2635,28
2636,28
2637,28
2638,28
2639,28
2640,29
2641,29
2642,29
2643,29
2644,29
2645,29
2646,29
2647,29
2648,29
2649,29
2650,29
2651,29
2652,29
2653,29
2654,29
2655,29
2656,28
2657,28
2658,28
2659,28
2660,28
2661,28
2662,28
2663,28
2664,28
2665,28
2666,28
2667,28
2668,28
2669,28
2670,28
2671,28
2672,28
2673,28
2674,28
2675,28
2676,28
2677,28
2678,28
2679,28
2680,28
2681,28
2682,28
2683,28
2684,28
2685,28
2686,28
2687,28
2688,28
2689,28
2690,28
2691,28
2692,28
2693,28
2694,28
2695,28
2696,28
2697,28
2698,28
2699,28
2700,28
2701,28
2702,28
2703,28
2704,28
2705,28
2706,28
2707,28
2708,28
2709,28
2710,28
2711,28
2712,28
2713,28
2714,28
2715,28
2716,28
2717,29
2718,28
2719,28
2720,28
2721,28
2722,28
2723,28
2724,28
2725,28
2726,28
2727,28
2728,28
2729,28
2730,28
2731,29
2732,28
2733,28
2734,28
2735,28
2736,28
2737,28
2738,28
2739,28
2740,28
2741,28
2742,28
2743,28
2744,28
2745,28
2746,28
2747,28
2748,28
2749,28
2750,28
2751,28
2752,28
2753,28
2754,28
2755,28
2756,28
2757,28
2758,28
2759,28
2760,28
2761,28
2762,28
2763,28
2764,28
2765,28
2766,28
2767,28
2768,28
2769,28
2770,28
2771,29
2772,29
2773,28
2774,28
2775,28
2776,28
2777,28
2778,28
2779,28
2780,29
2781,29
2782,29
2783,29
2784,29
2785,29
2786,29
2787,29
2788,29
2789,29
2790,29
2791,29
2792,29
2793,29
2794,29
2795,29
2796,29
2797,29
2798,29
2799,29
2800,29
2801,29
2802,29
2803,29
2804,29
2805,29
2806,30
2807,30
2808,30
2809,30
2810,30
2811,30
2812,30
2813,30
2814,30
2815,30
2816,30
2817,30
2818,30
2819,30
2820,30
2821,31
2822,30
2823,30
2824,30
2825,30
2826,30
2827,30
2828,30
2829,29
2830,29
2831,29
2832,29
2833,29
2834,29
2835,29
2836,29
2837,29
2838,29
2839,29
2840,30
2841,30
2842,30
2843,30
2844,30
2845,30
2846,30
2847,30
2848,30
2849,30
2850,30
2851,30
2852,30
2853,30
2854,31
2855,30
2856,30
2857,30
2858,30
2859,30
2860,30
2861,30
2862,30
2863,30
2864,30
2865,30
2866,30
2867,30
2868,30
2869,30
2870,30
2871,30
2872,31
2873,31
2874,31
2875,31
2876,31
2877,31
2878,31
2879,31
2880,31
2881,31
2882,31
2883,31
2884,32
2885,31
2886,32
2887,32
2888,32
2889,32
2890,33
2891,33
2892,33
2893,33
2894,33
2895,32
2896,32
2897,32
2898,32
2899,32
2900,32
2901,32
2902,32
2903,32
2904,32
2905,32
2906,32
2907,32
2908,32
2909,32
2910,32
2911,32
2912,32
2913,32
2914,32
2915,32
2916,32
2917,32
2918,32
2919,32
2920,32
2921,32
2922,32
2923,32
2924,32
2925,32
2926,32
2927,32
2928,32
2929,32
2930,32
2931,32
2932,32
2933,32
2934,32
2935,32
2936,32
2937,32
2938,33
2939,33
2940,33
2941,32
2942,32
2943,32
2944,32
2945,32
2946,32
2947,32
2948,32
2949,32
2950,32
2951,32
2952,32
2953,32
2954,32
2955,32
2956,32
2957,32
2958,32
2959,32
2960,33
2961,33
2962,33
2963,33
2964,33
2965,32
2966,32
2967,32
2968,32
2969,33
2970,32
2971,32
2972,32
2973,32
2974,32
2975,32
2976,32
2977,32
2978,32
2979,32
2980,32
2981,32
2982,32
2983,32
2984,32
2985,32
2986,32
2987,32
2988,32
2989,32
2990,32
2991,32
2992,32
2993,32
2994,32
2995,32
2996,32
2997,32
2998,32
2999,32
3000,32
3001,33
3002,33
3003,33
3004,33
3005,33
3006,33
3007,33
3008,32
3009,32
3010,34
3011,34
3012,34
3013,33
3014,32
3015,32
3016,32
3017,32
3018,32
3019,32
3020,32
3021,32
3022,32
3023,32
3024,32
3025,32
3026,32
3027,32
3028,32
3029,32
3030,32
3031,32
3032,32
3033,32
3034,32
3035,32
3036,32
3037,32
3038,32
3039,32
3040,32
3041,32
3042,32
3043,32
3044,32
3045,32
3046,32
3047,32
3048,32
3049,32
3050,32
3051,33
3052,33
3053,33
3054,33
3055,33
3056,33
3057,33
3058,33
3059,33
3060,33
3061,33
3062,34
3063,34
3064,33
3065,33
3066,33
3067,33
3068,33
3069,33
3070,33
3071,33
3072,32
3073,32
3074,32
3075,32
3076,32
3077,32
3078,32
3079,33
3080,33
3081,33
3082,33
3083,32
3084,32
3085,32
3086,32
3087,32
3088,32
3089,33
3090,34
3091,34
3092,33
3093,33
3094,33
3095,33
3096,32
3097,32
3098,32
3099,32
3100,32
3101,32
3102,32
3103,32
3104,32
3105,32
3106,32
3107,32
3108,32
3109,32
3110,32
3111,32
3112,32
3113,32
3114,32
3115,32
3116,32
3117,32
3118,32
3119,32
3120,32
3121,32
3122,32
3123,32
3124,32
3125,32
3126,32
3127,32
3128,32
3129,32
3130,32
3131,32
3132,32
3133,32
3134,32
3135,32
3136,32
3137,32
3138,32
3139,32
3140,32
3141,32
3142,33
3143,33
3144,33
3145,32
3146,32
3147,32
3148,32
3149,32
3150,32
3151,32
3152,32
3153,33
3154,33
3155,32
3156,32
3157,32
3158,32
3159,32
3160,32
3161,32
3162,33
3163,32
3164,32
3165,32
3166,32
3167,32
3168,32
3169,32
3170,32
3171,32
3172,32
3173,32
3174,32
3175,32
3176,32
3177,32
3178,32
3179,32
3180,32
3181,32
3182,32
3183,33
3184,32
3185,32
3186,32
3187,32
3188,32
3189,32
3190,32
3191,32
3192,33
3193,33
3194,33
3195,33
3196,32
3197,32
3198,32
3199,32
3200,32
3201,32
3202,32
3203,32
3204,32
3205,32
3206,32
3207,32
3208,32
3209,32
3210,32
3211,32
3212,32
3213,32
3214,32
3215,32
3216,32
3217,32
3218,32
3219,32
3220,32
3221,32
3222,32
3223,32
3224,33
3225,33
3226,33
3227,33
3228,33
3229,33
3230,33
3231,33
3232,33
3233,33
3234,33
3235,33
3236,33
3237,33
3238,33
3239,33
3240,32
3241,32
3242,32
3243,32
3244,32
3245,32
3246,32
3247,32
3248,32
3249,32
3250,33
3251,33
3252,33
3253,33
3254,33
3255,33
3256,33
3257,33
3258,33
3259,33
3260,33
3261,33
3262,33
3263,33
3264,33
3265,33
3266,33
3267,33
3268,34
3269,34
3270,34
3271,33
3272,33
3273,33
3274,33
3275,33
3276,33
3277,33
3278,33
3279,33
3280,33
3281,33
3282,33
3283,34
3284,33
3285,33
3286,33
3287,34
3288,34
3289,34
3290,34
3291,34
3292,34
3293,34
3294,35
3295,34
3296,34
3297,34
3298,35
3299,34
3300,34
3301,33
3302,33
3303,33
3304,33
3305,33
3306,33
3307,33
3308,33
3309,33
3310,33
3311,33
3312,33
3313,33
3314,33
3315,33
3316,33
3317,33
3318,33
3319,33
3320,33
3321,33
3322,33
3323,33
3324,34
3325,34
3326,33
3327,33
3328,33
3329,33
3330,33
3331,33
3332,33
3333,33
3334,33
3335,33
3336,33
3337,33
3338,33
3339,33
3340,33
3341,33
3342,33
3343,33
3344,33
3345,33
3346,34
3347,34
3348,34
3349,34
3350,34
3351,34
3352,33
3353,33
3354,33
3355,33
3356,33
3357,33
3358,33
3359,33
3360,33
3361,33
3362,33
3363,33
3364,33
3365,33
3366,33
3367,33
3368,34
3369,33
3370,33
3371,33
3372,33
3373,33
3374,33
3375,33
3376,33
3377,33
3378,33
3379,33
3380,33
3381,33
3382,33
3383,33
3384,33
3385,33
3386,33
3387,33
3388,33
3389,33
3390,34
3391,34
3392,33
3393,33
3394,33
3395,33
3396,33
3397,33
3398,34
3399,33
3400,33
3401,33
3402,33
3403,34
3404,34
3405,34
3406,33
3407,33
3408,33
3409,33
3410,33
3411,33
3412,33
3413,33
3414,33
3415,33
3416,33
3417,33
3418,33
3419,33
3420,33
3421,33
3422,33
3423,33
3424,33
3425,34
3426,34
3427,34
3428,35
3429,34
3430,34
3431,34
3432,34
3433,34
3434,34
3435,34
3436,34
3437,35
3438,35
3439,35
3440,34
3441,34
3442,34
3443,34
3444,34
3445,34
3446,34
3447,34
3448,34
3449,35
3450,35
3451,35
3452,35
3453,35
3454,34
3455,34
3456,34
3457,34
3458,34
3459,34
3460,34
3461,34
3462,34
3463,34
3464,34
3465,34
3466,34
3467,34
3468,34
3469,34
3470,34
3471,34
3472,34
3473,34
3474,34
3475,34
3476,34
3477,34
3478,34
3479,34
3480,34
3481,34
3482,34
3483,34
3484,33
3485,33
3486,33
3487,33
3488,33
3489,33
3490,33
3491,33
3492,33
3493,33
3494,33
3495,33
3496,33
3497,32
3498,32
3499,32
3500,32
3501,32
3502,33
3503,33
3504,33
3505,33
3506,32
3507,32
3508,32
3509,32
3510,32
3511,32
3512,32
3513,32
3514,32
3515,32
3516,32
3517,32
3518,32
3519,32
3520,32
3521,32
3522,33
3523,32
3524,32
3525,32
3526,32
3527,32
3528,32
3529,32
3530,32
3531,32
3532,32
3533,32
3534,32
3535,32
3536,32
3537,32
3538,32
3539,32
3540,32
3541,32
3542,32
3543,32
3544,32
3545,32
3546,32
3547,32
3548,32
3549,32
3550,32
3551,32
3552,32
3553,32
3554,32
3555,32
3556,32
3557,32
3558,32
3559,32
3560,32
3561,32
3562,32
3563,33
3564,32
3565,32
3566,32
3567,32
3568,32
3569,32
3570,32
3571,32
3572,32
3573,32
3574,32
3575,32
3576,32
3577,32
3578,32
3579,32
3580,32
3581,32
3582,32
3583,32
3584,32
3585,32
3586,32
3587,32
3588,32
3589,32
3590,32
3591,32
3592,32
3593,32
3594,32
3595,32
3596,32
3597,32
3598,32
3599,32
3600,32
3601,32
3602,33
3603,32
3604,32
3605,32
3606,32
3607,32
3608,32
3609,34
3610,34
3611,34
3612,34
3613,33
3614,33
3615,33
3616,33
3617,33
3618,33
3619,33
3620,33
3621,33
3622,33
3623,33
3624,33
3625,33
3626,33
3627,33
3628,33
3629,33
3630,33
3631,33
3632,33
3633,33
3634,33
3635,34
3636,34
3637,34
3638,34
3639,34
3640,33
3641,33
3642,33
3643,33
3644,33
3645,33
3646,33
3647,33
3648,33
3649,33
3650,33
3651,32
3652,32
3653,32
3654,32
3655,32
3656,32
3657,32
3658,32
3659,32
3660,32
3661,32
3662,32
3663,32
3664,32
3665,32
3666,33
3667,33
3668,32
3669,32
3670,32
3671,32
3672,32
3673,32
3674,32
3675,32
3676,32
3677,32
3678,32
3679,32
3680,32
3681,32
3682,32
3683,32
3684,32
3685,33
3686,33
3687,32
3688,32
3689,32
3690,32
3691,32
3692,32
3693,32
3694,32
3695,32
3696,32
3697,32
3698,32
3699,32
3700,32
3701,32
3702,32
3703,32
3704,32
3705,32
3706,32
3707,33
3708,32
3709,32
3710,32
3711,32
3712,32
3713,32
3714,32
3715,32
3716,32
3717,32
3718,32
3719,32
3720,32
3721,32
3722,32
3723,32
3724,32
3725,32
3726,32
3727,32
3728,32
3729,32
3730,32
3731,32
3732,32
3733,32
3734,32
3735,32
3736,32
3737,32
3738,32
3739,32
3740,32
3741,32
3742,33
3743,33
3744,33
3745,32
3746,32
3747,32
3748,32
3749,32
3750,32
3751,32
3752,32
3753,32
3754,32
3755,33
3756,33
3757,33
3758,33
3759,33
3760,33
3761,34
3762,34
3763,34
3764,34
3765,33
3766,33
3767,33
3768,33
3769,33
3770,33
3771,33
3772,32
3773,32
3774,32
3775,32
3776,32
3777,32
3778,32
3779,32
3780,32
3781,32
3782,32
3783,32
3784,33
3785,33
3786,33
3787,32
3788,32
3789,32
3790,32
3791,32
3792,32
3793,32
3794,32
3795,32
3796,32
3797,32
3798,32
3799,32
3800,32
3801,32
3802,32
3803,32
3804,32
3805,32
3806,32
3807,32
3808,32
3809,32
3810,32
3811,33
3812,33
3813,33
3814,33
3815,34
3816,34
3817,34
3818,34
3819,33
3820,33
3821,34
3822,33
3823,33
3824,33
3825,33
3826,33
3827,33
3828,33
3829,33
3830,33
3831,33
3832,33
3833,33
3834,34
3835,33
3836,33
3837,33
3838,33
3839,32
3840,32
3841,33
3842,33
3843,33
3844,33
3845,33
3846,33
3847,33
3848,33
3849,33
3850,33
3851,33
3852,33
3853,33
3854,33
3855,33
3856,33
3857,33
3858,33
3859,33
3860,34
3861,33
3862,33
3863,33
3864,34
3865,34
3866,34
3867,34
3868,34
3869,34
3870,34
3871,34
3872,34
3873,34
3874,34
3875,34
3876,34
3877,34
3878,34
3879,34
3880,34
3881,34
3882,34
3883,34
3884,34
3885,34
3886,34
3887,34
3888,34
3889,34
3890,33
3891,33
3892,34
3893,34
3894,34
3895,33
3896,33
3897,33
3898,33
3899,33
3900,33
3901,33
3902,33
3903,33
3904,33
3905,33
3906,34
3907,34
3908,34
3909,35
3910,35
3911,33
3912,33
3913,33
3914,33
3915,33
3916,33
3917,34
3918,34
3919,34
3920,34
3921,34
3922,34
3923,34
3924,34
3925,34
3926,34
3927,34
3928,34
3929,34
3930,34
3931,34
3932,34
3933,34
3934,34
3935,34
3936,34
3937,34
3938,34
3939,34
3940,34
3941,34
3942,34
3943,34
3944,34
3945,34
3946,34
3947,34
3948,34
3949,34
3950,35
3951,35
3952,35
3953,35
3954,36
3955,35
3956,34
3957,34
3958,34
3959,34
3960,34
3961,34
3962,34
3963,34
3964,34
3965,34
3966,34
3967,34
3968,34
3969,34
3970,35
3971,34
3972,34
3973,36
3974,35
3975,35
3976,35
3977,35
3978,36
3979,36
3980,36
3981,37
3982,37
3983,38
3984,36
3985,36
3986,37
3987,37
3988,35
3989,35
3990,35
3991,35
3992,35
3993,35
3994,35
3995,35
3996,35
3997,35
3998,34
3999,34
4000,34
4001,34
4002,34
4003,34
4004,34
4005,34
4006,34
4007,34
4008,34
4009,34
4010,34
4011,34
4012,34
4013,34
4014,34
4015,34
4016,35
4017,35
4018,35
4019,35
4020,35
4021,35
4022,35
4023,35
4024,35
4025,36
4026,36
4027,36
4028,36
4029,36
4030,36
4031,36
4032,36
4033,36
4034,35
4035,35
4036,35
4037,35
4038,35
4039,35
4040,35
4041,35
4042,35
4043,35
4044,35
4045,35
4046,35
4047,35
4048,36
4049,36
4050,36
4051,35
4052,35
4053,35
4054,35
4055,35
4056,35
4057,35
4058,35
4059,35
4060,34
4061,34
4062,34
4063,34
4064,34
4065,34
4066,34
4067,34
4068,34
4069,34
4070,34
4071,34
4072,34
4073,34
4074,34
4075,34
4076,34
4077,34
4078,34
4079,34
4080,34
4081,34
4082,34
4083,34
4084,34
4085,35
4086,34
4087,36
4088,36
4089,34
4090,34
4091,34
4092,35
4093,35
4094,34
4095,34
4096,34
4097,34
4098,34
4099,34
4100,34
4101,34
4102,34
4103,34
4104,34
4105,34
4106,34
4107,34
4108,34
4109,34
4110,34
4111,35
4112,35
4113,37
4114,34
4115,34
4116,34
4117,35
4118,35
4119,35
4120,35
4121,34
4122,34
4123,34
4124,34
4125,35
4126,35
4127,35
4128,35
4129,35
4130,35
4131,35
4132,36
4133,36
4134,36
4135,36
4136,34
4137,34
4138,34
4139,34
4140,34
4141,34
4142,34
4143,34
4144,34
4145,34
4146,34
4147,34
4148,34
4149,34
4150,34
4151,34
4152,34
4153,34
4154,34
4155,34
4156,34
4157,34
4158,34
4159,34
4160,34
4161,34
4162,34
4163,34
4164,34
4165,34
4166,34
4167,34
4168,34
4169,34
4170,34
4171,34
4172,34
4173,34
4174,34
4175,34
4176,35
4177,35
4178,35
4179,35
4180,35
4181,35
4182,35
4183,35
4184,35
4185,35
4186,35
4187,35
4188,35
4189,35
4190,35
4191,35
4192,35
4193,35
4194,35
4195,35
4196,36
4197,37
4198,37
4199,36
4200,36
4201,36
4202,36
4203,36
4204,36
4205,36
4206,35
4207,35
4208,34
4209,34
4210,34
4211,35
4212,35
4213,35
4214,35
4215,35
4216,35
4217,35
4218,35
4219,35
4220,35
4221,35
4222,35
4223,35
4224,35
4225,35
4226,35
4227,35
4228,35
4229,35
4230,35
4231,35
4232,36
4233,35
4234,35
4235,35
4236,35
4237,35
4238,35
4239,35
4240,34
4241,34
4242,34
4243,34
4244,34
4245,34
4246,34
4247,34
4248,34
4249,35
4250,34
4251,34
4252,34
4253,34
4254,34
4255,34
4256,34
4257,34
4258,34
4259,34
4260,34
4261,34
4262,34
4263,34
4264,34
4265,34
4266,34
4267,34
4268,34
4269,34
4270,34
4271,34
4272,34
4273,34
4274,34
4275,34
4276,35
4277,34
4278,34
4279,34
4280,34
4281,34
4282,34
4283,34
4284,34
4285,34
4286,34
4287,34
4288,34
4289,34
4290,35
4291,35
4292,35
4293,35
4294,35
4295,34
4296,34
4297,34
4298,34
4299,34
4300,35
4301,34
4302,34
4303,34
4304,34
4305,34
4306,34
4307,34
4308,34
4309,34
4310,34
4311,34
4312,34
4313,34
4314,34
4315,34
4316,35
4317,36
4318,34
4319,35
4320,35
4321,35
4322,34
4323,34
4324,34
4325,34
4326,34
4327,34
4328,34
4329,34
4330,35
4331,35
4332,35
4333,35
4334,35
4335,35
4336,35
4337,36
4338,35
4339,35
4340,35
4341,35
4342,35
4343,35
4344,35
4345,35
4346,35
4347,35
4348,35
4349,35
4350,35
4351,35
4352,35
4353,35
4354,35
4355,35
4356,35
4357,35
4358,35
4359,35
4360,35
4361,35
4362,35
4363,35
4364,35
4365,35
4366,35
4367,35
4368,35
4369,35
4370,35
4371,35
4372,35
4373,35
4374,35
4375,35
4376,35
4377,35
4378,35
4379,35
4380,35
4381,35
4382,35
4383,35
4384,35
4385,35
4386,36
4387,35
4388,35
4389,35
4390,35
4391,35
4392,35
4393,35
4394,35
4395,36
4396,36
4397,35
4398,35
4399,35
4400,35
4401,35
4402,35
4403,35
4404,35
4405,35
4406,35
4407,35
4408,35
4409,35
4410,35
4411,36
4412,35
4413,35
4414,35
4415,35
4416,35
4417,36
4418,35
4419,35
4420,35
4421,35
4422,35
4423,35
4424,35
4425,35
4426,35
4427,35
4428,35
4429,35
4430,35
4431,35
4432,35
4433,35
4434,35
4435,35
4436,35
4437,35
4438,35
4439,35
4440,35
4441,35
4442,35
4443,35
4444,36
4445,36
4446,36
4447,36
4448,36
4449,36
4450,35
4451,35
4452,35
4453,35
4454,35
4455,35
4456,35
4457,35
4458,35
4459,35
4460,35
4461,35
4462,35
4463,35
4464,35
4465,35
4466,35
4467,35
4468,35
4469,35
4470,35
4471,35
4472,35
4473,35
4474,35
4475,35
4476,35
4477,35
4478,35
4479,35
4480,35
4481,35
4482,35
4483,35
4484,35
4485,35
4486,35
4487,35
4488,35
4489,35
4490,35
4491,35
4492,35
4493,35
4494,35
4495,35
4496,35
4497,35
4498,35
4499,35
4500,35
4501,35
4502,35
4503,35
4504,35
4505,35
4506,35
4507,35
4508,35
4509,35
4510,35
4511,35
4512,36
4513,35
4514,35
4515,35
4516,35
4517,35
4518,35
4519,35
4520,35
4521,35
4522,35
4523,35
4524,35
4525,35
4526,35
4527,35
4528,35
4529,35
4530,35
4531,35
4532,35
4533,35
4534,35
4535,35
4536,35
4537,35
4538,35
4539,35
4540,35
4541,35
4542,35
4543,35
4544,35
4545,36
4546,36
4547,36
4548,36
4549,36
4550,36
4551,36
4552,36
4553,35
4554,35
4555,36
4556,36
4557,37
4558,36
4559,36
4560,36
4561,36
4562,36
4563,36
4564,36
4565,36
4566,36
4567,36
4568,36
4569,36
4570,36
4571,36
4572,35
4573,35
4574,35
4575,36
4576,35
4577,35
4578,35
4579,35
4580,35
4581,35
4582,35
4583,35
4584,36
4585,36
4586,35
4587,36
4588,36
4589,35
4590,34
4591,34
4592,34
4593,35
4594,35
4595,35
4596,35
4597,35
4598,35
4599,35
4600,35
4601,35
4602,35
4603,34
4604,34
4605,34
4606,34
4607,34
4608,34
4609,35
4610,35
4611,35
4612,35
4613,35
4614,35
4615,35
4616,36
4617,35
4618,34
4619,34
4620,34
4621,34
4622,34
4623,34
4624,34
4625,34
4626,34
4627,34
4628,34
4629,34
4630,33
4631,33
4632,33
4633,33
4634,34
4635,34
4636,34
4637,35
4638,36
4639,35
4640,35
4641,35
4642,34
4643,34
4644,34
4645,34
4646,33
4647,33
4648,33
4649,33
4650,33
4651,33
4652,33
4653,33
4654,33
4655,33
4656,33
4657,33
4658,33
4659,33
4660,33
4661,33
4662,33
4663,33
4664,33
4665,33
4666,33
4667,32
4668,32
4669,32
4670,33
4671,33
4672,33
4673,33
4674,32
4675,32
4676,32
4677,32
4678,32
4679,32
4680,32
4681,32
4682,32
4683,32
4684,32
4685,32
4686,32
4687,32
4688,32
4689,32
4690,32
4691,33
4692,32
4693,32
4694,32
4695,32
4696,32
4697,32
4698,32
4699,32
4700,32
4701,32
4702,32
4703,32
4704,32
4705,32
4706,32
4707,32
4708,32
4709,32
4710,32
4711,32
4712,32
4713,33
4714,33
4715,33
4716,32
4717,32
4718,32
4719,32
4720,32
4721,32
4722,32
4723,32
4724,32
4725,32
4726,32
4727,32
4728,32
4729,32
4730,32
4731,32
4732,32
4733,32
4734,32
4735,32
4736,32
4737,32
4738,32
4739,32
4740,32
4741,32
4742,32
4743,33
4744,33
4745,33
4746,33
4747,32
4748,32
4749,32
4750,32
4751,32
4752,32
4753,33
4754,33
4755,32
4756,32
4757,32
4758,32
4759,32
4760,32
4761,32
4762,32
4763,32
4764,32
4765,32
4766,33
4767,32
4768,32
4769,32
4770,32
4771,32
4772,32
4773,32
4774,32
4775,33
4776,33
4777,33
4778,33
4779,32
4780,32
4781,32
4782,32
4783,32
4784,32
4785,32
4786,32
4787,32
4788,32
4789,32
4790,33
4791,32
4792,32
4793,32
4794,32
4795,33
4796,34
4797,33
4798,33
4799,33
4800,33
4801,33
4802,33
4803,33
4804,32
4805,33
4806,32
4807,32
4808,32
4809,32
4810,32
4811,32
4812,32
4813,32
4814,32
4815,32
4816,32
4817,32
4818,32
4819,32
4820,32
4821,32
4822,32
4823,32
4824,32
4825,32
4826,32
4827,32
4828,32
4829,32
4830,33
4831,33
4832,33
4833,33
4834,32
4835,32
4836,32
4837,32
4838,32
4839,32
4840,32
4841,33
4842,32
4843,32
4844,32
4845,32
4846,32
4847,32
4848,32
4849,32
4850,32
4851,32
4852,32
4853,32
4854,32
4855,32
4856,32
4857,32
4858,32
4859,32
4860,32
4861,32
4862,32
4863,32
4864,32
4865,32
4866,32
4867,32
4868,32
4869,32
4870,32
4871,32
4872,33
4873,33
4874,34
4875,34
4876,33
4877,33
4878,33
4879,33
4880,33
4881,33
4882,33
4883,33
4884,33
4885,33
4886,33
4887,32
4888,32
4889,32
4890,32
4891,33
4892,33
4893,33
4894,33
4895,33
4896,33
4897,33
4898,33
4899,32
4900,32
4901,32
4902,32
4903,32
4904,32
4905,32
4906,32
4907,32
4908,32
4909,32
4910,32
4911,32
4912,33
4913,32
4914,32
4915,32
4916,32
4917,32
4918,32
4919,32
4920,32
4921,32
4922,33
4923,33
4924,33
4925,33
4926,33
4927,32
4928,32
4929,32
4930,32
4931,32
4932,32
4933,32
4934,32
4935,32
4936,32
4937,32
4938,32
4939,32
4940,32
4941,32
4942,33
4943,33
4944,33
4945,33
4946,33
4947,33
4948,33
4949,33
4950,33
4951,33
4952,33
4953,33
4954,33
4955,33
4956,33
4957,33
4958,33
4959,33
4960,33
4961,33
4962,33
4963,33
4964,33
4965,33
4966,33
4967,33
4968,33
4969,33
4970,33
4971,33
4972,33
4973,33
4974,33
4975,34
4976,34
4977,34
4978,34
4979,34
4980,34
4981,34
4982,34
4983,34
4984,34
4985,34
4986,34
4987,35
4988,35
4989,35
4990,33
4991,33
4992,33
4993,33
4994,34
4995,34
4996,33
4997,33
4998,33
4999,33
5000,33
5001,33
5002,33
5003,33
5004,33
5005,33
5006,34
5007,33
5008,33
5009,33
5010,33
5011,33
5012,33
5013,33
5014,33
5015,33
5016,33
5017,33
5018,33
5019,33
5020,33
5021,33
5022,33
5023,33
5024,33
5025,33
5026,33
5027,33
5028,33
5029,33
5030,33
5031,33
5032,33
5033,33
5034,33
5035,33
5036,33
5037,33
5038,33
5039,34
5040,33
5041,33
5042,33
5043,33
5044,33
5045,33
5046,33
5047,33
5048,33
5049,33
5050,33
5051,34
5052,33
5053,33
5054,33
5055,33
5056,33
5057,33
5058,33
5059,35
5060,35
5061,35
5062,35
5063,36
5064,35
5065,34
5066,34
5067,34
5068,34
5069,34
5070,33
5071,33
5072,33
5073,33
5074,33
5075,34
5076,33
5077,33
5078,33
5079,33
5080,33
5081,34
5082,33
5083,33
5084,33
5085,33
5086,33
5087,33
5088,33
5089,33
5090,33
5091,33
5092,33
5093,33
5094,33
5095,33
5096,33
5097,33
5098,33
5099,33
5100,33
5101,33
5102,33
5103,34
5104,34
5105,34
5106,35
5107,34
5108,34
5109,34
5110,34
5111,35
5112,35
5113,35
5114,36
5115,37
5116,36
5117,36
5118,36
5119,36
5120,36
5121,36
5122,36
5123,35
5124,35
5125,34
5126,34
5127,33
5128,33
5129,33
5130,33
5131,33
5132,33
5133,33
5134,33
5135,33
5136,33
5137,33
5138,33
5139,33
5140,33
5141,33
5142,33
5143,33
5144,33
5145,33
5146,33
5147,33
5148,33
5149,33
5150,33
5151,33
5152,33
5153,33
5154,33
5155,33
5156,33
5157,33
5158,33
5159,33
5160,33
5161,33
5162,33
5163,33
5164,33
5165,33
5166,34
5167,33
5168,33
5169,33
5170,33
5171,33
5172,34
5173,34
5174,34
5175,33
5176,33
5177,33
5178,33
5179,33
5180,33
5181,33
5182,33
5183,34
5184,33
5185,33
5186,33
5187,34
5188,33
5189,33
5190,33
5191,34
5192,33
5193,33
5194,33
5195,33
5196,33
5197,33
5198,33
5199,33
5200,33
5201,34
5202,34
5203,33
5204,33
5205,33
5206,33
5207,33
5208,33
5209,33
5210,33
5211,33
5212,33
5213,33
5214,33
5215,33
5216,33
5217,33
5218,33
5219,33
5220,33
5221,33
5222,33
5223,33
5224,33
5225,33
5226,33
5227,33
5228,33
5229,33
5230,33
5231,33
5232,33
5233,33
5234,33
5235,33
5236,33
5237,33
5238,33
5239,33
5240,33
5241,33
5242,33
5243,33
5244,33
5245,33
5246,33
5247,33
5248,33
5249,33
5250,33
5251,33
5252,33
5253,33
5254,33
5255,33
5256,33
5257,33
5258,33
5259,33
5260,33
5261,33
5262,34
5263,34
5264,34
5265,34
5266,34
5267,34
5268,34
5269,33
5270,33
5271,33
5272,34
5273,34
5274,34
5275,33
5276,33
5277,33
5278,33
5279,33
5280,33
5281,33
5282,32
5283,32
5284,32
5285,32
5286,32
5287,32
5288,32
5289,32
5290,32
5291,32
5292,32
5293,32
5294,32
5295,32
5296,32
5297,33
5298,33
5299,33
5300,32
5301,32
5302,32
5303,32
5304,32
5305,32
5306,32
5307,32
5308,32
5309,32
5310,33
5311,34
5312,33
5313,33
5314,33
5315,33
5316,33
5317,33
5318,33
5319,33
5320,33
5321,33
5322,33
5323,33
5324,33
5325,33
5326,33
5327,33
5328,33
5329,33
5330,33
5331,33
5332,33
5333,34
5334,34
5335,34
5336,34
5337,34
5338,34
5339,34
5340,34
5341,34
5342,33
5343,33
5344,33
5345,33
5346,33
5347,33
5348,33
5349,33
5350,33
5351,33
5352,33
5353,33
5354,33
5355,33
5356,33
5357,33
5358,33
5359,33
5360,33
5361,33
5362,33
5363,33
5364,33
5365,33
5366,33
5367,33
5368,33
5369,33
5370,33
5371,33
5372,33
5373,33
5374,33
5375,33
5376,33
5377,33
5378,33
5379,33
5380,34
5381,33
5382,33
5383,33
5384,33
5385,33
5386,33
5387,33
5388,33
5389,33
5390,33
5391,33
5392,33
5393,33
5394,33
5395,33
5396,33
5397,33
5398,33
5399,33
5400,33
5401,33
5402,33
5403,33
5404,33
5405,33
5406,34
5407,34
5408,34
5409,34
5410,34
5411,34
5412,34
5413,34
5414,34
5415,34
5416,34
5417,34
5418,34
5419,34
5420,34
5421,34
5422,34
5423,34
5424,34
5425,34
5426,34
5427,34
5428,34
5429,34
5430,34
5431,34
5432,34
5433,34
5434,34
5435,34
5436,34
5437,34
5438,34
5439,34
5440,34
5441,35
5442,34
5443,34
5444,34
5445,34
5446,34
5447,34
5448,34
5449,34
5450,34
5451,34
5452,34
5453,34
5454,34
5455,34
5456,34
5457,34
5458,34
5459,34
5460,34
5461,34
5462,34
5463,34
5464,34
5465,34
5466,34
5467,34
5468,34
5469,34
5470,34
5471,35
5472,35
5473,35
5474,36
5475,34
5476,34
5477,35
5478,35
5479,35
5480,35
5481,34
5482,34
5483,34
5484,34
5485,34
5486,34
5487,34
5488,34
5489,34
5490,34
5491,34
5492,34
5493,35
5494,35
5495,35
5496,34
5497,34
5498,34
5499,34
5500,34
5501,34
5502,34
5503,34
5504,34
5505,34
5506,34
5507,34
5508,35
5509,34
5510,34
5511,34
5512,34
5513,34
5514,34
5515,34
5516,34
5517,34
5518,35
5519,35
5520,34
5521,34
5522,34
5523,35
5524,35
5525,35
5526,35
5527,35
5528,34
5529,34
5530,34
5531,34
5532,34
5533,34
5534,34
5535,34
5536,34
5537,34
5538,35
5539,35
5540,35
5541,36
5542,37
5543,36
5544,35
5545,34
5546,34
5547,34
5548,34
5549,34
5550,34
5551,34
5552,34
5553,34
5554,34
5555,34
5556,34
5557,34
5558,35
5559,36
5560,36
5561,35
5562,35
5563,35
5564,35
5565,35
5566,34
5567,34
5568,34
5569,34
5570,34
5571,34
5572,34
5573,34
5574,34
5575,35
5576,35
5577,35
5578,35
5579,34
5580,34
5581,34
5582,34
5583,34
5584,34
5585,34
5586,34
5587,34
5588,34
5589,34
5590,34
5591,34
5592,34
5593,34
5594,34
5595,34
5596,34
5597,34
5598,34
5599,34
5600,34
5601,34
5602,34
5603,34
5604,34
5605,34
5606,34
5607,34
5608,34
5609,34
5610,35
5611,34
5612,34
5613,34
5614,34
5615,34
5616,34
5617,34
5618,34
5619,34
5620,34
5621,34
5622,34
5623,34
5624,34
5625,34
5626,34
5627,34
5628,34
5629,34
5630,34
5631,34
5632,34
5633,34
5634,34
5635,34
5636,34
5637,35
5638,35
5639,35
5640,34
5641,34
5642,34
5643,34
5644,34
5645,34
5646,34
5647,34
5648,34
5649,34
5650,34
5651,35
5652,34
5653,34
5654,34
5655,34
5656,34
5657,34
5658,34
5659,34
5660,34
5661,34
5662,34
5663,34
5664,34
5665,34
5666,34
5667,35
5668,35
5669,35
5670,35
5671,35
5672,35
5673,35
5674,35
5675,36
5676,36
5677,36
5678,36
5679,36
5680,36
5681,37
5682,36
5683,36
5684,36
5685,36
5686,36
5687,36
5688,36
5689,36
5690,36
5691,36
5692,36
5693,36
5694,35
5695,35
5696,35
5697,35
5698,36
5699,36
5700,36
5701,35
5702,35
5703,35
5704,35
5705,35
5706,35
5707,35
5708,35
5709,35
5710,35
5711,35
5712,35
5713,35
5714,35
5715,35
5716,35
5717,35
5718,35
5719,35
5720,35
5721,35
5722,35
5723,35
5724,35
5725,35
5726,35
5727,35
5728,35
5729,35
5730,35
5731,35
5732,35
5733,36
5734,36
5735,36
5736,36
5737,36
5738,36
5739,36
5740,36
5741,36
5742,36
5743,36
5744,36
5745,36
5746,36
5747,37
5748,36
5749,36
5750,36
5751,36
5752,36
5753,36
5754,36
5755,36
5756,36
5757,36
5758,36
5759,36
5760,36
5761,36
5762,36
5763,36
5764,36
5765,36
5766,36
5767,36
5768,36
5769,36
5770,36
5771,36
5772,36
5773,36
5774,36
5775,35
5776,35
5777,35
5778,35
5779,35
5780,35
5781,35
5782,35
5783,35
5784,35
5785,35
5786,35
5787,35
5788,35
5789,35
5790,35
5791,35
5792,35
5793,35
5794,35
5795,35
5796,35
5797,35
5798,35
5799,35
5800,35
5801,35
5802,35
5803,35
5804,35
5805,35
5806,35
5807,36
5808,36
5809,35
5810,35
5811,35
5812,35
5813,35
5814,35
5815,35
5816,35
5817,35
5818,35
5819,35
5820,35
5821,35
5822,35
5823,34
5824,34
5825,34
5826,34
5827,35
5828,34
5829,34
5830,35
5831,34
5832,34
5833,34
5834,34
5835,34
5836,34
5837,35
5838,34
5839,35
5840,35
5841,35
5842,36
5843,35
5844,35
5845,35
5846,35
5847,34
5848,34
5849,34
5850,34
5851,34
5852,34
5853,34
5854,35
5855,34
5856,34
5857,34
5858,34
5859,34
5860,34
5861,34
5862,34
5863,34
5864,34
5865,35
5866,34
5867,34
5868,34
5869,35
5870,34
5871,34
5872,34
5873,34
5874,34
5875,34
5876,34
5877,34
5878,34
5879,34
5880,34
5881,34
5882,34
5883,34
5884,34
5885,34
5886,34
5887,34
5888,34
5889,34
5890,34
5891,34
5892,36
5893,34
5894,34
5895,34
5896,34
5897,34
5898,34
5899,34
5900,34
5901,34
5902,34
5903,34
5904,34
5905,34
5906,34
5907,34
5908,34
5909,34
5910,34
5911,34
5912,34
5913,34
5914,34
5915,34
5916,34
5917,34
5918,34
5919,34
5920,34
5921,35
5922,35
5923,34
5924,34
5925,34
5926,34
5927,34
5928,34
5929,34
5930,34
5931,34
5932,34
5933,35
5934,35
5935,35
5936,35
5937,35
5938,35
5939,34
5940,34
5941,34
5942,34
5943,34
5944,34
5945,34
5946,34
5947,34
5948,34
5949,34
5950,34
5951,34
5952,34
5953,34
5954,34
5955,34
5956,34
5957,34
5958,34
5959,34
5960,34
5961,34
5962,34
5963,34
5964,34
5965,34
5966,35
5967,34
5968,34
5969,34
5970,34
5971,34
5972,34
5973,34
5974,35
5975,35
5976,35
5977,35
5978,35
5979,35
5980,35
5981,36
5982,35
5983,35
5984,35
5985,34
5986,34
5987,34
5988,34
5989,34
5990,34
5991,34
5992,34
5993,34
5994,34
5995,34
5996,34
5997,34
5998,34
5999,34
6000,34
6001,34
6002,34
6003,34
6004,34
6005,34
6006,34
6007,34
6008,34
6009,34
6010,34
6011,34
6012,34
6013,34
6014,35
6015,34
6016,34
6017,34
6018,34
6019,34
6020,34
6021,34
6022,35
6023,34
6024,34
6025,34
6026,34
6027,34
6028,34
6029,34
6030,34
6031,34
6032,34
6033,34
6034,34
6035,34
6036,34
6037,34
6038,34
6039,34
6040,34
6041,34
6042,34
6043,34
6044,34
6045,34
6046,34
6047,34
6048,34
6049,34
6050,34
6051,34
6052,35
6053,34
6054,35
6055,34
6056,34
6057,34
6058,34
6059,34
6060,34
6061,34
6062,34
6063,34
6064,34
6065,34
6066,34
6067,34
6068,34
6069,34
6070,34
6071,34
6072,34
6073,35
6074,35
6075,36
6076,36
6077,37
6078,37
6079,37
6080,37
6081,37
6082,37
6083,37
6084,36
6085,36
6086,36
6087,36
6088,36
6089,36
6090,36
6091,36
6092,35
6093,35
6094,35
6095,35
6096,35
6097,35
6098,36
6099,35
6100,35
6101,36
6102,35
6103,35
6104,36
6105,35
6106,35
6107,35
6108,35
6109,35
6110,35
6111,35
6112,35
6113,35
6114,35
6115,35
6116,35
6117,36
6118,36
6119,36
6120,36
6121,36
6122,36
6123,37
6124,37
6125,37
6126,37
6127,36
6128,36
6129,36
6130,36
6131,36
6132,36
6133,36
6134,36
6135,36
6136,36
6137,36
6138,36
6139,36
6140,36
6141,36
6142,36
6143,36
6144,37
6145,37
6146,37
6147,37
6148,36
6149,36
6150,36
6151,36
6152,36
6153,36
6154,36
6155,36
6156,36
6157,36
6158,36
6159,36
6160,36
6161,36
6162,36
6163,36
6164,36
6165,36
6166,36
6167,36
6168,37
6169,37
6170,36
6171,36
6172,36
6173,36
6174,36
6175,36
6176,36
6177,36
6178,36
6179,36
6180,36
6181,36
6182,36
6183,36
6184,36
6185,36
6186,36
6187,36
6188,36
6189,36
6190,36
6191,36
6192,36
6193,36
6194,36
6195,36
6196,36
6197,36
6198,36
6199,36
6200,36
6201,36
6202,36
6203,36
6204,36
6205,36
6206,36
6207,36
6208,36
6209,36
6210,36
6211,36
6212,36
6213,36
6214,36
6215,36
6216,36
6217,36
6218,36
6219,36
6220,36
6221,36
6222,36
6223,36
6224,37
6225,36
6226,36
6227,36
6228,35
6229,35
6230,35
6231,35
6232,35
6233,35
6234,35
6235,35
6236,35
6237,35
6238,35
6239,35
6240,35
6241,35
6242,36
6243,35
6244,35
6245,35
6246,35
6247,35
6248,35
6249,35
6250,36
6251,36
6252,36
6253,36
6254,36
6255,36
6256,36
6257,36
6258,36
6259,36
6260,36
6261,36
6262,36
6263,36
6264,36
6265,36
6266,36
6267,36
6268,36
6269,36
6270,36
6271,36
6272,36
6273,35
6274,35
6275,35
6276,35
6277,35
6278,35
6279,35
6280,34
6281,34
6282,35
6283,35
6284,35
6285,35
6286,35
6287,35
6288,35
6289,35
6290,36
6291,35
6292,35
6293,35
6294,35
6295,36
6296,36
6297,36
6298,36
6299,36
6300,35
6301,35
6302,35
6303,35
6304,34
6305,34
6306,34
6307,34
6308,34
6309,34
6310,34
6311,34
6312,35
6313,34
6314,34
6315,34
6316,34
6317,34
6318,34
6319,34
6320,34
6321,34
6322,34
6323,34
6324,34
6325,34
6326,34
6327,34
6328,34
6329,34
6330,34
6331,34
6332,34
6333,34
6334,34
6335,34
6336,34
6337,34
6338,34
6339,34
6340,34
6341,34
6342,34
6343,34
6344,34
6345,34
6346,34
6347,34
6348,34
6349,34
6350,34
6351,34
6352,34
6353,34
6354,34
6355,34
6356,34
6357,34
6358,34
6359,34
6360,34
6361,34
6362,34
6363,34
6364,34
6365,34
6366,34
6367,34
6368,34
6369,34
6370,34
6371,34
6372,34
6373,34
6374,34
6375,34
6376,34
6377,34
6378,34
6379,34
6380,34
6381,35
6382,34
6383,34
6384,34
6385,34
6386,34
6387,35
6388,34
6389,34
6390,34
6391,35
6392,34
6393,34
6394,34
6395,34
6396,35
6397,34
6398,34
6399,34
6400,34
6401,34
6402,34
6403,34
6404,34
6405,34
6406,34
6407,34
6408,34
6409,34
6410,34
6411,34
6412,34
6413,34
6414,34
6415,34
6416,34
6417,34
6418,34
6419,34
6420,34
6421,34
6422,34
6423,34
6424,34
6425,33
6426,33
6427,33
6428,33
6429,33
6430,33
6431,33
6432,33
6433,33
6434,33
6435,33
6436,33
6437,33
6438,34
6439,34
6440,34
6441,34
6442,34
6443,34
6444,34
6445,34
6446,34
6447,34
6448,34
6449,34
6450,34
6451,34
6452,34
6453,34
6454,33
6455,33
6456,33
6457,33
6458,33
6459,33
6460,33
6461,33
6462,33
6463,33
6464,33
6465,33
6466,33
6467,34
6468,33
6469,33
6470,33
6471,33
6472,33
6473,33
6474,34
6475,34
6476,34
6477,34
6478,34
6479,33
6480,33
6481,33
6482,33
6483,33
6484,33
6485,33
6486,33
6487,33
6488,33
6489,34
6490,34
6491,34
6492,33
6493,33
6494,33
6495,33
6496,33
6497,33
6498,33
6499,33
6500,33
6501,34
6502,33
6503,33
6504,33
6505,33
6506,33
6507,33
6508,33
6509,33
6510,33
6511,33
6512,33
6513,33
6514,33
6515,33
6516,33
6517,33
6518,33
6519,33
6520,33
6521,33
6522,33
6523,33
6524,33
6525,33
6526,33
6527,33
6528,33
6529,33
6530,33
6531,33
6532,33
6533,33
6534,33
6535,33
6536,33
6537,33
6538,33
6539,33
6540,33
6541,33
6542,33
6543,33
6544,33
6545,33
6546,33
6547,33
6548,33
6549,33
6550,33
6551,33
6552,33
6553,33
6554,33
6555,33
6556,33
6557,33
6558,34
6559,33
6560,33
6561,33
6562,33
6563,33
6564,33
6565,33
6566,33
6567,33
6568,33
6569,34
6570,34
6571,33
6572,33
6573,33
6574,33
6575,33
6576,33
6577,33
6578,33
6579,33
6580,33
6581,33
6582,33
6583,33
6584,33
6585,33
6586,32
6587,32
6588,32
6589,33
6590,32
6591,32
6592,32
6593,32
6594,32
6595,32
6596,32
6597,32
6598,32
6599,32
6600,32
6601,32
6602,32
6603,32
6604,32
6605,32
6606,33
6607,32
6608,32
6609,32
6610,32
6611,32
6612,32
6613,32
6614,32
6615,32
6616,32
6617,32
6618,32
6619,32
6620,32
6621,32
6622,32
6623,32
6624,32
6625,32
6626,32
6627,32
6628,32
6629,32
6630,32
6631,32
6632,32
6633,32
6634,32
6635,32
6636,32
6637,32
6638,32
6639,32
6640,32
6641,32
6642,32
6643,32
6644,32
6645,32
6646,32
6647,32
6648,32
6649,32
6650,32
6651,32
6652,32
6653,32
6654,32
6655,32
6656,32
6657,32
6658,32
6659,32
6660,32
6661,33
6662,33
6663,33
6664,32
6665,32
6666,32
6667,33
6668,32
6669,32
6670,32
6671,32
6672,32
6673,32
6674,32
6675,32
6676,32
6677,32
6678,32
6679,32
6680,32
6681,32
6682,32
6683,32
6684,32
6685,32
6686,32
6687,32
6688,32
6689,32
6690,32
6691,32
6692,32
6693,32
6694,32
6695,32
6696,32
6697,32
6698,32
6699,32
6700,32
6701,32
6702,32
6703,32
6704,32
6705,33
6706,32
6707,32
6708,32
6709,32
6710,32
6711,32
6712,32
6713,32
6714,32
6715,32
6716,32
6717,32
6718,32
6719,32
6720,32
6721,32
6722,32
6723,32
6724,32
6725,32
6726,32
6727,32
6728,32
6729,33
6730,33
6731,32
6732,32
6733,32
6734,32
6735,32
6736,32
6737,32
6738,33
6739,32
6740,33
6741,32
6742,32
6743,32
6744,32
6745,32
6746,32
6747,32
6748,32
6749,32
6750,32
6751,32
6752,32
6753,32
6754,32
6755,32
6756,32
6757,32
6758,32
6759,32
6760,32
6761,32
6762,32
6763,32
6764,32
6765,32
6766,33
6767,32
6768,32
6769,32
6770,32
6771,32
6772,32
6773,32
6774,32
6775,32
6776,32
6777,32
6778,32
6779,32
6780,32
6781,32
6782,32
6783,32
6784,32
6785,32
6786,32
6787,32
6788,32
6789,32
6790,32
6791,32
6792,32
6793,32
6794,32
6795,32
6796,32
6797,33
6798,32
6799,32
6800,32
6801,32
6802,32
6803,32
6804,32
6805,32
6806,32
6807,32
6808,32
6809,32
6810,33
6811,33
6812,33
6813,32
6814,32
6815,32
6816,32
6817,32
6818,32
6819,32
6820,32
6821,32
6822,32
6823,32
6824,32
6825,32
6826,32
6827,32
6828,33
6829,34
6830,33
6831,33
6832,33
6833,33
6834,33
6835,34
6836,34
6837,33
6838,33
6839,34
6840,33
6841,32
6842,32
6843,32
6844,32
6845,32
6846,32
6847,32
6848,32
6849,32
6850,32
6851,32
6852,32
6853,32
6854,32
6855,32
6856,32
6857,32
6858,33
6859,32
6860,32
6861,32
6862,32
6863,32
6864,32
6865,32
6866,32
6867,32
6868,32
6869,32
6870,32
6871,32
6872,32
6873,32
6874,32
6875,32
6876,32
6877,32
6878,32
6879,32
6880,32
6881,32
6882,32
6883,32
6884,32
6885,32
6886,32
6887,32
6888,32
6889,32
6890,32
6891,32
6892,32
6893,32
6894,32
6895,34
6896,33
6897,33
6898,33
6899,32
6900,32
6901,33
6902,32
6903,32
6904,32
6905,32
6906,32
6907,32
6908,32
6909,32
6910,33
6911,33
6912,32
6913,32
6914,32
6915,32
6916,32
6917,32
6918,32
6919,33
6920,32
6921,32
6922,32
6923,32
6924,32
6925,32
6926,32
6927,33
6928,32
6929,32
6930,32
6931,32
6932,32
6933,32
6934,32
6935,32
6936,32
6937,32
6938,32
6939,32
6940,32
6941,32
6942,32
6943,32
6944,32
6945,32
6946,32
6947,33
6948,33
6949,35
6950,34
6951,34
6952,34
6953,34
6954,34
6955,34
6956,34
6957,34
6958,34
6959,34
6960,34
6961,34
6962,34
6963,34
6964,34
6965,33
6966,33
6967,33
6968,32
6969,32
6970,32
6971,32
6972,32
6973,32
6974,32
6975,32
6976,32
6977,32
6978,32
6979,32
6980,32
6981,32
6982,32
6983,32
6984,32
6985,33
6986,33
6987,32
6988,32
6989,32
6990,33
6991,32
6992,32
6993,32
6994,32
6995,32
6996,32
6997,32
6998,32
6999,32
7000,32
7001,32
7002,32
7003,32
7004,32
7005,32
7006,32
7007,32
7008,32
7009,32
7010,32
7011,32
7012,32
7013,32
7014,32
7015,32
7016,32
7017,32
7018,33
7019,33
7020,33
7021,33
7022,32
7023,32
7024,32
7025,33
7026,33
7027,33
7028,33
7029,33
7030,33
7031,33
7032,33
7033,33
7034,33
7035,33
7036,33
7037,33
7038,34
7039,34
7040,34
7041,34
7042,34
7043,33
7044,33
7045,33
7046,33
7047,34
7048,34
7049,34
7050,34
7051,34
7052,34
7053,34
7054,34
7055,34
7056,34
7057,34
7058,34
7059,34
7060,33
7061,33
7062,33
7063,33
7064,33
7065,33
7066,33
7067,33
7068,33
7069,33
7070,33
7071,32
7072,32
7073,32
7074,32
7075,32
7076,32
7077,32
7078,32
7079,32
7080,33
7081,33
7082,33
7083,33
7084,33
7085,33
7086,33
7087,33
7088,33
7089,32
7090,32
7091,32
7092,32
7093,32
7094,32
7095,32
7096,32
7097,32
7098,32
7099,32
7100,32
7101,32
7102,33
7103,33
7104,33
7105,33
7106,32
7107,33
7108,33
7109,33
7110,32
7111,32
7112,32
7113,32
7114,32
7115,32
7116,33
7117,32
7118,32
7119,32
7120,32
7121,32
7122,32
7123,32
7124,32
7125,32
7126,32
7127,32
7128,32
7129,32
7130,32
7131,32
7132,32
7133,32
7134,32
7135,32
7136,32
7137,32
7138,32
7139,32
7140,32
7141,32
7142,32
7143,32
7144,32
7145,32
7146,32
7147,32
7148,32
7149,32
7150,32
7151,32
7152,32
7153,32
7154,32
7155,32
7156,32
7157,32
7158,32
7159,32
7160,32
7161,32
7162,32
7163,32
7164,33
7165,33
7166,33
7167,33
7168,33
7169,32
7170,32
7171,32
7172,32
7173,32
7174,32
7175,32
7176,32
7177,32
7178,32
7179,32
7180,32
7181,32
7182,32
7183,32
7184,32
7185,32
7186,32
7187,32
7188,32
7189,32
7190,32
7191,32
7192,32
7193,32
7194,32
7195,32
7196,33
7197,33
7198,33
7199,34
7200,33
7201,33
7202,33
7203,34
7204,34
7205,34
7206,34
7207,34
7208,34
7209,34
7210,34
7211,33
7212,32
7213,32
7214,32
7215,32
7216,32
7217,32
7218,32
7219,32
7220,32
7221,32
7222,32
7223,32
7224,32
7225,32
7226,33
7227,34
7228,34
7229,35
7230,33
7231,33
7232,33
7233,33
7234,33
7235,33
7236,33
7237,33
7238,33
7239,33
7240,33
7241,33
7242,33
7243,33
7244,33
7245,33
7246,33
7247,33
7248,33
7249,33
7250,33
7251,33
7252,34
7253,33
7254,34
7255,33
7256,33
7257,33
7258,33
7259,33
7260,33
7261,33
7262,33
7263,33
7264,33
7265,33
7266,33
7267,33
7268,33
7269,33
7270,33
7271,33
7272,33
7273,33
7274,33
7275,33
7276,33
7277,33
7278,33
7279,32
7280,32
7281,32
7282,32
7283,32
7284,32
7285,32
7286,32
7287,32
7288,32
7289,32
7290,32
7291,32
7292,32
7293,32
7294,32
7295,32
7296,32
7297,32
7298,32
7299,32
7300,32
7301,32
7302,32
7303,32
7304,32
7305,32
7306,32
7307,32
7308,32
7309,32
7310,32
7311,32
7312,32
7313,32
7314,32
7315,32
7316,32
7317,32
7318,32
7319,32
7320,32
7321,32
7322,32
7323,32
7324,32
7325,32
7326,32
7327,32
7328,32
7329,32
7330,32
7331,32
7332,32
7333,33
7334,33
7335,33
7336,33
7337,33
7338,33
7339,33
7340,33
7341,33
7342,33
7343,33
7344,33
7345,33
7346,33
7347,34
7348,33
7349,33
7350,33
7351,33
7352,33
7353,33
7354,33
7355,33
7356,33
7357,33
7358,33
7359,33
7360,34
7361,33
7362,33
7363,33
7364,33
7365,33
7366,33
7367,33
7368,33
7369,33
7370,33
7371,33
7372,33
7373,33
7374,33
7375,33
7376,33
7377,33
7378,33
7379,33
7380,33
7381,33
7382,35
7383,33
7384,33
7385,33
7386,33
7387,33
7388,33
7389,33
7390,33
7391,33
7392,34
7393,33
7394,33
7395,32
7396,32
7397,32
7398,32
7399,32
7400,32
7401,32
7402,32
7403,32
7404,32
7405,32
7406,32
7407,32
7408,33
7409,32
7410,32
7411,32
7412,32
7413,32
7414,32
7415,32
7416,32
7417,32
7418,32
7419,32
7420,33
7421,33
7422,33
7423,33
7424,33
7425,33
7426,33
7427,33
7428,33
7429,33
7430,33
7431,33
7432,33
7433,33
7434,33
7435,33
7436,33
7437,33
7438,33
7439,34
7440,34
7441,33
7442,33
7443,33
7444,34
7445,33
7446,33
7447,33
7448,33
7449,34
7450,34
7451,34
7452,33
7453,33
7454,33
7455,33
7456,33
7457,33
7458,33
7459,33
7460,33
7461,33
7462,33
7463,34
7464,34
7465,33
7466,33
7467,33
7468,33
7469,33
7470,33
7471,33
7472,33
7473,33
7474,33
7475,33
7476,33
7477,33
7478,33
7479,33
7480,33
7481,33
7482,33
7483,33
7484,33
7485,33
7486,33
7487,33
7488,33
7489,33
7490,33
7491,33
7492,33
7493,33
7494,33
7495,33
7496,33
7497,33
7498,33
7499,33
7500,33
7501,33
7502,33
7503,33
7504,33
7505,33
7506,33
7507,33
7508,33
7509,33
7510,34
7511,34
7512,34
7513,34
7514,34
7515,34
7516,34
7517,33
7518,33
7519,33
7520,33
7521,33
7522,34
7523,34
7524,33
7525,33
7526,33
7527,33
7528,34
7529,33
7530,33
7531,34
7532,34
7533,35
7534,35
7535,36
7536,35
7537,35
7538,35
7539,35
7540,35
7541,35
7542,35
7543,35
7544,35
7545,34
7546,34
7547,34
7548,34
7549,34
7550,34
7551,34
7552,34
7553,34
7554,34
7555,34
7556,34
7557,35
7558,35
7559,34
7560,34
7561,34
7562,34
7563,35
7564,35
7565,35
7566,35
7567,34
7568,35
7569,34
7570,34
7571,34
7572,34
7573,34
7574,35
7575,35
7576,34
7577,34
7578,34
7579,34
7580,34
7581,34
7582,34
7583,34
7584,34
7585,34
7586,34
7587,34
7588,34
7589,34
7590,34
7591,34
7592,34
7593,35
7594,34
7595,34
7596,34
7597,34
7598,34
7599,34
7600,34
7601,34
7602,34
7603,34
7604,34
7605,34
7606,34
7607,34
7608,34
7609,34
7610,34
7611,34
7612,34
7613,35
7614,34
7615,34
7616,34
7617,34
7618,34
7619,34
7620,34
7621,34
7622,34
7623,35
7624,35
7625,35
7626,35
7627,35
7628,35
7629,35
7630,35
7631,35
7632,35
7633,35
7634,34
7635,34
7636,34
7637,34
7638,34
7639,34
7640,34
7641,35
7642,34
7643,34
7644,35
7645,35
7646,34
7647,35
7648,35
7649,35
7650,36
7651,37
7652,35
7653,35
7654,35
7655,35
7656,35
7657,35
7658,35
7659,35
7660,35
7661,35
7662,35
7663,35
7664,35
7665,35
7666,35
7667,35
7668,35
7669,35
7670,36
7671,36
7672,36
7673,36
7674,36
7675,35
7676,36
7677,36
7678,36
7679,36
7680,36
7681,36
7682,36
7683,36
7684,36
7685,37
7686,36
7687,36
7688,36
7689,36
7690,36
7691,36
7692,35
7693,35
7694,35
7695,35
7696,35
7697,36
7698,35
7699,35
7700,35
7701,35
7702,35
7703,35
7704,35
7705,36
7706,36
7707,36
7708,36
7709,36
7710,36
7711,36
7712,36
7713,35
7714,35
7715,35
7716,35
7717,36
7718,36
7719,37
7720,36
7721,36
7722,36
7723,36
7724,36
7725,36
7726,36
7727,36
7728,36
7729,36
7730,36
7731,36
7732,36
7733,36
7734,36
7735,36
7736,36
7737,36
7738,36
7739,36
7740,36
7741,36
7742,36
7743,36
7744,36
7745,36
7746,36
7747,36
7748,36
7749,36
7750,36
7751,36
7752,36
7753,36
7754,36
7755,36
7756,36
7757,36
7758,36
7759,36
7760,36
7761,36
7762,36
7763,36
7764,36
7765,36
7766,36
7767,36
7768,36
7769,36
7770,36
7771,36
7772,36
7773,37
7774,37
7775,36
7776,36
7777,36
7778,36
7779,36
7780,36
7781,36
7782,36
7783,36
7784,36
7785,36
7786,36
7787,36
7788,36
7789,36
7790,36
7791,36
7792,36
7793,36
7794,36
7795,36
7796,36
7797,36
7798,36
7799,36
7800,36
7801,36
7802,36
7803,36
7804,36
7805,36
7806,36
7807,36
7808,36
7809,36
7810,36
7811,36
7812,36
7813,36
7814,36
7815,36
7816,36
7817,36
7818,35
7819,35
7820,35
7821,35
7822,35
7823,35
7824,35
7825,35
7826,35
7827,35
7828,35
7829,35
7830,35
7831,35
7832,35
7833,35
7834,35
7835,35
7836,35
7837,35
7838,35
7839,35
7840,35
7841,35
7842,35
7843,35
7844,35
7845,35
7846,35
7847,35
7848,35
7849,36
7850,36
7851,35
7852,35
7853,35
7854,35
7855,35
7856,35
7857,35
7858,35
7859,35
7860,35
7861,35
7862,35
7863,35
7864,35
7865,35
7866,35
7867,35
7868,35
7869,36
7870,36
7871,35
7872,35
7873,35
7874,35
7875,35
7876,35
7877,35
7878,35
7879,35
7880,35
7881,35
7882,35
7883,35
7884,35
7885,35
7886,35
7887,35
7888,35
7889,35
7890,35
7891,35
7892,35
7893,35
7894,35
7895,35
7896,35
7897,35
7898,35
7899,35
7900,35
7901,35
7902,35
7903,35
7904,35
7905,35
7906,36
7907,35
7908,36
7909,35
7910,35
7911,35
7912,35
7913,35
7914,35
7915,36
7916,35
7917,35
7918,35
7919,35
7920,35
7921,35
7922,35
7923,35
7924,35
7925,36
7926,36
7927,36
7928,36
7929,36
7930,37
7931,37
7932,37
7933,37
7934,35
7935,35
7936,35
7937,35
7938,35
7939,35
7940,35
7941,35
7942,35
7943,35
7944,35
7945,35
7946,35
7947,35
7948,35
7949,35
7950,35
7951,35
7952,35
7953,35
7954,35
7955,35
7956,35
7957,35
7958,35
7959,35
7960,35
7961,35
7962,35
7963,35
7964,35
7965,35
7966,35
7967,36
7968,36
7969,35
7970,35
7971,35
7972,35
7973,35
7974,35
7975,35
7976,35
7977,35
7978,35
7979,35
7980,35
7981,35
7982,35
7983,35
7984,35
7985,35
7986,35
7987,35
7988,35
7989,35
7990,35
7991,35
7992,35
7993,35
7994,35
7995,35
7996,35
7997,35
7998,35
7999,35
8000,35
8001,35
8002,35
8003,36
8004,36
8005,36
8006,36
8007,36
8008,36
8009,36
8010,36
8011,36
8012,36
8013,36
8014,36
8015,36
8016,36
8017,36
8018,36
8019,35
8020,35
8021,35
8022,35
8023,35
8024,35
8025,35
8026,35
8027,35
8028,35
8029,36
8030,35
8031,35
8032,35
8033,35
8034,36
8035,35
8036,35
8037,35
8038,35
8039,35
8040,35
8041,35
8042,35
8043,35
8044,35
8045,35
8046,35
8047,35
8048,35
8049,34
8050,34
8051,34
8052,34
8053,34
8054,34
8055,34
8056,34
8057,34
8058,34
8059,34
8060,34
8061,34
8062,34
8063,34
8064,34
8065,34
8066,34
8067,34
8068,34
8069,34
8070,34
8071,35
8072,34
8073,34
8074,34
8075,34
8076,34
8077,34
8078,35
8079,34
8080,34
8081,34
8082,34
8083,34
8084,34
8085,34
8086,34
8087,34
8088,34
8089,34
8090,34
8091,34
8092,35
8093,34
8094,34
8095,34
8096,34
8097,34
8098,34
8099,34
8100,34
8101,34
8102,34
8103,34
8104,34
8105,34
8106,34
8107,34
8108,34
8109,34
8110,34
8111,34
8112,34
8113,34
8114,34
8115,34
8116,34
8117,34
8118,34
8119,34
8120,34
8121,34
8122,35
8123,34
8124,34
8125,34
8126,34
8127,34
8128,34
8129,34
8130,34
8131,34
8132,34
8133,34
8134,34
8135,34
8136,35
8137,35
8138,35
8139,34
8140,34
8141,34
8142,34
8143,34
8144,34
8145,34
8146,34
8147,34
8148,34
8149,34
8150,34
8151,34
8152,34
8153,34
8154,34
8155,34
8156,34
8157,34
8158,34
8159,34
8160,34
8161,34
8162,34
8163,34
8164,34
8165,34
8166,34
8167,34
8168,34
8169,34
8170,34
8171,34
8172,34
8173,34
8174,34
8175,34
8176,34
8177,34
8178,34
8179,34
8180,34
8181,34
8182,35
8183,35
8184,35
8185,34
8186,34
8187,34
8188,34
8189,34
8190,34
8191,34
8192,34
8193,34
8194,34
8195,34
8196,34
8197,34
8198,34
8199,34
8200,34
8201,34
8202,34
8203,34
8204,34
8205,34
8206,34
8207,34
8208,34
8209,34
8210,35
8211,35
8212,35
8213,34
8214,34
8215,34
8216,34
8217,35
8218,35
8219,35
8220,35
8221,35
8222,35
8223,35
8224,35
8225,35
8226,35
8227,35
8228,34
8229,34
8230,34
8231,34
8232,34
8233,34
8234,34
8235,34
8236,34
8237,34
8238,34
8239,34
8240,34
8241,34
8242,34
8243,34
8244,34
8245,34
8246,35
8247,35
8248,35
8249,35
8250,35
8251,35
8252,35
8253,35
8254,35
8255,35
8256,35
8257,35
8258,35
8259,35
8260,35
8261,35
8262,35
8263,35
8264,35
8265,35
8266,35
8267,35
8268,35
8269,35
8270,35
8271,35
8272,35
8273,35
8274,35
8275,35
8276,35
8277,35
8278,35
8279,35
8280,35
8281,35
8282,35
8283,35
8284,35
8285,35
8286,35
8287,35
8288,35
8289,35
8290,35
8291,35
8292,35
8293,35
8294,35
8295,35
8296,35
8297,35
8298,35
8299,35
8300,34
8301,34
8302,34
8303,34
8304,34
8305,34
8306,34
8307,34
8308,34
8309,34
8310,34
8311,34
8312,35
8313,34
8314,34
8315,34
8316,34
8317,34
8318,34
8319,34
8320,34
8321,34
8322,34
8323,34
8324,34
8325,34
8326,34
8327,34
8328,34
8329,34
8330,34
8331,34
8332,34
8333,34
8334,34
8335,34
8336,34
8337,34
8338,34
8339,34
8340,34
8341,34
8342,34
8343,34
8344,34
8345,34
8346,34
8347,34
8348,34
8349,34
8350,34
8351,34
8352,34
8353,34
8354,34
8355,34
8356,35
8357,35
8358,34
8359,34
8360,34
8361,34
8362,34
8363,34
8364,34
8365,34
8366,34
8367,34
8368,34
8369,34
8370,34
8371,34
8372,34
8373,34
8374,34
8375,34
8376,34
8377,34
8378,34
8379,34
8380,34
8381,34
8382,34
8383,34
8384,34
8385,34
8386,34
8387,34
8388,34
8389,34
8390,34
8391,34
8392,34
8393,34
8394,34
8395,34
8396,34
8397,34
8398,34
8399,34
8400,34
8401,34
8402,34
8403,35
8404,34
8405,34
8406,34
8407,34
8408,35
8409,36
8410,35
8411,35
8412,35
8413,35
8414,34
8415,34
8416,34
8417,34
8418,34
8419,34
8420,34
8421,34
8422,34
8423,34
8424,35
8425,35
8426,35
8427,35
8428,35
8429,35
8430,35
8431,35
8432,35
8433,35
8434,36
8435,35
8436,35
8437,35
8438,35
8439,35
8440,35
8441,36
8442,35
8443,35
8444,35
8445,35
8446,35
8447,35
8448,35
8449,35
8450,35
8451,35
8452,35
8453,36
8454,36
8455,36
8456,35
8457,35
8458,35
8459,35
8460,35
8461,35
8462,35
8463,35
8464,35
8465,35
8466,35
8467,35
8468,35
8469,35
8470,35
8471,35
8472,35
8473,35
8474,35
8475,35
8476,35
8477,35
8478,35
8479,35
8480,35
8481,35
8482,36
8483,36
8484,36
8485,36
8486,36
8487,36
8488,36
8489,36
8490,35
8491,35
8492,35
8493,35
8494,35
8495,35
8496,35
8497,35
8498,35
8499,35
8500,35
8501,35
8502,35
8503,35
8504,35
8505,35
8506,35
8507,35
8508,35
8509,34
8510,34
8511,34
8512,34
8513,34
8514,35
8515,35
8516,35
8517,35
8518,35
8519,34
8520,34
8521,34
8522,34
8523,34
8524,34
8525,34
8526,34
8527,34
8528,34
8529,34
8530,35
8531,35
8532,35
8533,36
8534,36
8535,36
8536,36
8537,36
8538,36
8539,36
8540,36
8541,36
8542,35
8543,35
8544,35
8545,35
8546,35
8547,34
8548,34
8549,34
8550,35
8551,34
8552,34
8553,34
8554,34
8555,34
8556,35
8557,34
8558,34
8559,34
8560,34
8561,34
8562,35
8563,36
8564,36
8565,36
8566,34
8567,34
8568,34
8569,34
8570,34
8571,34
8572,34
8573,34
8574,34
8575,34
8576,34
8577,34
8578,34
8579,34
8580,34
8581,34
8582,34
8583,34
8584,34
8585,34
8586,34
8587,34
8588,34
8589,34
8590,34
8591,34
8592,34
8593,34
8594,34
8595,34
8596,34
8597,34
8598,35
8599,35
8600,35
8601,35
8602,35
8603,35
8604,35
8605,34
8606,34
8607,34
8608,34
8609,34
8610,34
8611,34
8612,34
8613,34
8614,34
8615,34
8616,35
8617,34
8618,34
8619,34
8620,34
8621,34
8622,34
8623,34
8624,34
8625,34
8626,34
8627,35
8628,34
8629,34
8630,34
8631,34
8632,34
8633,34
8634,34
8635,34
8636,34
8637,34
8638,34
8639,34
8640,34
8641,35
8642,35
8643,35
8644,34
8645,34
8646,34
8647,34
8648,34
8649,34
8650,34
8651,34
8652,34
8653,34
8654,34
8655,34
8656,34
8657,34
8658,34
8659,35
8660,35
8661,35
8662,35
8663,35
8664,35
8665,35
8666,35
8667,35
8668,35
8669,35
8670,35
8671,35
8672,35
8673,35
8674,35
8675,35
8676,35
8677,35
8678,35
8679,34
8680,34
8681,34
8682,34
8683,34
8684,34
8685,34
8686,34
8687,34
8688,34
8689,34
8690,34
8691,34
8692,34
8693,34
8694,34
8695,34
8696,34
8697,34
8698,34
8699,34
8700,34
8701,34
8702,34
8703,34
8704,34
8705,34
8706,34
8707,35
8708,35
8709,34
8710,34
8711,34
8712,34
8713,34
8714,34
8715,34
8716,34
8717,34
8718,34
8719,35
8720,35
8721,35
8722,35
8723,35
8724,35
8725,35
8726,35
8727,35
8728,34
8729,34
8730,34
8731,34
8732,34
8733,35
8734,34
8735,34
8736,35
8737,35
8738,35
8739,35
8740,34
8741,35
8742,34
8743,34
8744,37
8745,36
8746,35
8747,34
8748,35
8749,34
8750,34
8751,34
8752,34
8753,34
8754,34
8755,34
8756,34
8757,34
8758,34
8759,34
8760,34
8761,34
8762,34
8763,34
8764,34
8765,34
8766,34
8767,34
8768,34
8769,34
8770,34
8771,35
8772,35
8773,35
8774,35
8775,35
8776,35
8777,36
8778,35
8779,35
8780,35
8781,35
8782,35
8783,35
8784,35
8785,35
8786,36
8787,36
8788,35
8789,35
8790,35
8791,35
8792,35
8793,35
8794,35
8795,35
8796,35
8797,34
8798,34
8799,34
8800,34
8801,34
8802,34
8803,34
8804,35
8805,35
8806,34
8807,34
8808,34
8809,34
8810,34
8811,34
8812,34
8813,34
8814,34
8815,34
8816,34
8817,34
8818,34
8819,34
8820,34
8821,34
8822,34
8823,34
8824,34
8825,34
8826,34
8827,34
8828,34
8829,34
8830,35
8831,35
8832,34
8833,34
8834,34
8835,35
8836,34
8837,34
8838,34
8839,34
8840,35
8841,35
8842,35
8843,34
8844,34
8845,34
8846,34
8847,34
8848,34
8849,34
8850,34
8851,34
8852,34
8853,34
8854,34
8855,34
8856,34
8857,34
8858,34
8859,34
8860,34
8861,34
8862,34
8863,34
8864,34
8865,35
8866,35
8867,34
8868,34
8869,34
8870,34
8871,34
8872,34
8873,34
8874,34
8875,34
8876,34
8877,34
8878,34
8879,34
8880,34
8881,34
8882,34
8883,34
8884,35
8885,34
8886,34
8887,34
8888,34
8889,34
8890,34
8891,34
8892,34
8893,34
8894,34
8895,34
8896,34
8897,34
8898,35
8899,34
8900,34
8901,34
8902,34
8903,34
8904,34
8905,34
8906,34
8907,34
8908,34
8909,34
8910,34
8911,34
8912,34
8913,34
8914,34
8915,34
8916,34
8917,34
8918,34
8919,34
8920,34
8921,34
8922,34
8923,34
8924,34
8925,34
8926,34
8927,34
8928,34
8929,34
8930,34
8931,35
8932,34
8933,34
8934,34
8935,34
8936,34
8937,34
8938,34
8939,34
8940,34
8941,34
8942,34
8943,34
8944,34
8945,34
8946,34
8947,34
8948,34
8949,34
8950,34
8951,34
8952,35
8953,35
8954,35
8955,34
8956,34
8957,34
8958,34
8959,34
8960,35
8961,35
8962,35
8963,34
8964,34
8965,34
8966,34
8967,34
8968,33
8969,33
8970,33
8971,33
8972,33
8973,33
8974,33
8975,33
8976,34
8977,34
8978,34
8979,34
8980,34
8981,34
8982,34
8983,34
8984,34
8985,34
8986,34
8987,34
8988,34
8989,33
8990,33
8991,33
8992,32
8993,32
8994,32
8995,33
8996,33
8997,33
8998,33
8999,33
9000,33
9001,33
9002,33
9003,33
9004,33
9005,33
9006,33
9007,33
9008,33
9009,33
9010,33
9011,33
9012,33
9013,34
9014,33
9015,33
9016,33
9017,33
9018,33
9019,33
9020,33
9021,33
9022,33
9023,34
9024,35
9025,35
9026,34
9027,34
9028,34
9029,34
9030,34
9031,34
9032,34
9033,34
9034,34
9035,34
9036,33
9037,34
9038,33
9039,33
9040,33
9041,33
9042,33
9043,33
9044,33
9045,33
9046,33
9047,33
9048,33
9049,33
9050,33
9051,34
9052,33
9053,33
9054,34
9055,34
9056,34
9057,34
9058,34
9059,33
9060,33
9061,33
9062,33
9063,33
9064,33
9065,33
9066,33
9067,33
9068,33
9069,33
9070,33
9071,33
9072,33
9073,33
9074,33
9075,33
9076,33
9077,33
9078,33
9079,33
9080,33
9081,33
9082,33
9083,33
9084,33
9085,33
9086,33
9087,33
9088,33
9089,33
9090,33
9091,33
9092,33
9093,33
9094,33
9095,33
9096,33
9097,34
9098,33
9099,33
9100,33
9101,33
9102,33
9103,33
9104,34
9105,33
9106,33
9107,33
9108,33
9109,33
9110,33
9111,33
9112,33
9113,33
9114,33
9115,33
9116,33
9117,33
9118,33
9119,33
9120,33
9121,33
9122,34
9123,33
9124,33
9125,33
9126,33
9127,33
9128,33
9129,33
9130,33
9131,33
9132,33
9133,33
9134,33
9135,33
9136,33
9137,33
9138,33
9139,33
9140,33
9141,33
9142,33
9143,33
9144,33
9145,33
9146,33
9147,33
9148,33
9149,33
9150,33
9151,33
9152,33
9153,33
9154,33
9155,33
9156,34
9157,33
9158,33
9159,33
9160,33
9161,33
9162,33
9163,34
9164,33
9165,33
9166,33
9167,33
9168,33
9169,33
9170,33
9171,33
9172,33
9173,34
9174,34
9175,34
9176,34
9177,34
9178,34
9179,34
9180,34
9181,34
9182,35
9183,35
9184,34
9185,34
9186,34
9187,34
9188,33
9189,33
9190,33
9191,34
9192,34
9193,33
9194,33
9195,33
9196,33
9197,33
9198,33
9199,33
9200,33
9201,33
9202,33
9203,33
9204,33
9205,33
9206,33
9207,34
9208,34
9209,34
9210,34
9211,34
9212,34
9213,34
9214,34
9215,34
9216,34
9217,34
9218,34
9219,34
9220,34
9221,34
9222,35
9223,35
9224,35
9225,35
9226,34
9227,33
9228,33
9229,33
9230,33
9231,34
9232,35
9233,35
9234,34
9235,34
9236,34
9237,33
9238,33
9239,33
9240,33
9241,33
9242,33
9243,33
9244,34
9245,35
9246,35
9247,34
9248,34
9249,34
9250,34
9251,34
9252,34
9253,34
9254,34
9255,34
9256,34
9257,35
9258,35
9259,35
9260,35
9261,35
9262,35
9263,35
9264,35
9265,35
9266,35
9267,35
9268,35
9269,35
9270,35
9271,35
9272,35
9273,35
9274,35
9275,35
9276,35
9277,35
9278,35
9279,36
9280,36
9281,36
9282,36
9283,36
9284,36
9285,36
9286,36
9287,36
9288,37
9289,38
9290,38
9291,38
9292,36
9293,35
9294,35
9295,35
9296,35
9297,35
9298,35
9299,35
9300,34
9301,33
9302,34
9303,33
9304,34
9305,33
9306,33
9307,33
9308,33
9309,33
9310,33
9311,33
9312,33
9313,35
9314,35
9315,35
9316,34
9317,35
9318,34
9319,34
9320,34
9321,34
9322,34
9323,34
9324,34
9325,34
9326,34
9327,33
9328,33
9329,33
9330,33
9331,33
9332,33
9333,34
9334,33
9335,33
9336,33
9337,33
9338,33
9339,33
9340,33
9341,33
9342,33
9343,33
9344,33
9345,33
9346,33
9347,33
9348,33
9349,33
9350,34
9351,34
9352,34
9353,33
9354,33
9355,33
9356,33
9357,33
9358,33
9359,33
9360,33
9361,33
9362,33
9363,33
9364,33
9365,33
9366,33
9367,33
9368,33
9369,33
9370,33
9371,34
9372,34
9373,35
9374,35
9375,35
9376,34
9377,34
9378,34
9379,34
9380,34
9381,34
9382,34
9383,34
9384,34
9385,35
9386,34
9387,34
9388,33
9389,33
9390,33
9391,33
9392,33
9393,33
9394,34
9395,34
9396,35
9397,35
9398,35
9399,34
9400,33
9401,33
9402,33
9403,33
9404,33
9405,33
9406,33
9407,33
9408,33
9409,33
9410,33
9411,33
9412,33
9413,33
9414,33
9415,33
9416,33
9417,34
9418,33
9419,33
9420,33
9421,33
9422,34
9423,33
9424,33
9425,33
9426,34
9427,34
9428,34
9429,34
9430,33
9431,33
9432,33
9433,34
9434,34
9435,34
9436,34
9437,34
9438,34
9439,34
9440,33
9441,33
9442,33
9443,33
9444,33
9445,33
9446,33
9447,33
9448,33
9449,33
9450,34
9451,34
9452,34
9453,34
9454,34
9455,34
9456,34
9457,34
9458,34
9459,34
9460,34
9461,34
9462,34
9463,34
9464,34
9465,34
9466,34
9467,34
9468,34
9469,33
9470,33
9471,33
9472,33
9473,33
9474,33
9475,33
9476,33
9477,33
9478,33
9479,33
9480,33
9481,33
9482,33
9483,33
9484,33
9485,33
9486,33
9487,33
9488,33
9489,33
9490,33
9491,34
9492,34
9493,34
9494,34
9495,34
9496,34
9497,34
9498,33
9499,33
9500,33
9501,33
9502,33
9503,33
9504,34
9505,33
9506,33
9507,33
9508,33
9509,33
9510,33
9511,34
9512,33
9513,33
9514,33
9515,33
9516,33
9517,33
9518,33
9519,33
9520,34
9521,34
9522,34
9523,34
9524,34
9525,34
9526,34
9527,34
9528,34
9529,34
9530,34
9531,34
9532,34
9533,34
9534,33
9535,33
9536,33
9537,33
9538,33
9539,33
9540,34
9541,34
9542,34
9543,34
9544,34
9545,33
9546,33
9547,33
9548,34
9549,33
9550,33
9551,33
9552,33
9553,33
9554,33
9555,33
9556,33
9557,33
9558,33
9559,33
9560,33
9561,33
9562,33
9563,33
9564,33
9565,33
9566,33
9567,33
9568,34
9569,34
9570,33
9571,33
9572,33
9573,33
9574,33
9575,33
9576,33
9577,33
9578,33
9579,34
9580,33
9581,33
9582,33
9583,33
9584,33
9585,33
9586,33
9587,33
9588,33
9589,33
9590,33
9591,33
9592,33
9593,33
9594,33
9595,33
9596,33
9597,33
9598,33
9599,33
9600,33
9601,33
9602,33
9603,33
9604,33
9605,33
9606,33
9607,33
9608,33
9609,33
9610,33
9611,33
9612,34
9613,34
9614,33
9615,33
9616,33
9617,33
9618,33
9619,33
9620,33
9621,33
9622,33
9623,33
9624,33
9625,33
9626,33
9627,33
9628,33
9629,33
9630,33
9631,33
9632,33
9633,33
9634,33
9635,33
9636,33
9637,34
9638,33
9639,33
9640,33
9641,33
9642,33
9643,33
9644,33
9645,33
9646,33
9647,33
9648,33
9649,33
9650,33
9651,33
9652,33
9653,33
9654,33
9655,33
9656,33
9657,33
9658,33
9659,33
9660,33
9661,33
9662,33
9663,33
9664,33
9665,33
9666,32
9667,32
9668,32
9669,32
9670,32
9671,32
9672,32
9673,32
9674,33
9675,32
9676,32
9677,32
9678,33
9679,32
9680,32
9681,32
9682,32
9683,33
9684,33
9685,33
9686,33
9687,32
9688,32
9689,32
9690,32
9691,32
9692,32
9693,32
9694,32
9695,32
9696,32
9697,32
9698,32
9699,32
9700,32
9701,32
9702,33
9703,33
9704,32
9705,32
9706,32
9707,32
9708,33
9709,34
9710,33
9711,32
9712,32
9713,32
9714,32
9715,32
9716,32
9717,32
9718,32
9719,32
9720,32
9721,32
9722,32
9723,32
9724,32
9725,32
9726,32
9727,32
9728,32
9729,32
9730,32
9731,32
9732,32
9733,32
9734,32
9735,32
9736,32
9737,33
9738,33
9739,32
9740,32
9741,32
9742,32
9743,32
9744,32
9745,32
9746,32
9747,32
9748,32
9749,32
9750,32
9751,32
9752,32
9753,32
9754,32
9755,32
9756,32
9757,32
9758,32
9759,32
9760,32
9761,32
9762,32
9763,34
9764,33
9765,33
9766,33
9767,33
9768,33
9769,33
9770,33
9771,33
9772,33
9773,34
9774,33
9775,34
9776,34
9777,33
9778,32
9779,32
9780,32
9781,33
9782,33
9783,33
9784,33
9785,32
9786,32
9787,32
9788,32
9789,32
9790,32
9791,32
9792,33
9793,32
9794,32
9795,32
9796,32
9797,32
9798,32
9799,32
9800,32
9801,32
9802,33
9803,33
9804,32
9805,32
9806,32
9807,32
9808,32
9809,32
9810,32
9811,32
9812,32
9813,32
9814,33
9815,33
9816,33
9817,33
9818,33
9819,33
9820,33
9821,33
9822,33
9823,33
9824,32
9825,32
9826,32
9827,32
9828,32
9829,32
9830,32
9831,32
9832,32
9833,32
9834,32
9835,32
9836,32
9837,33
9838,33
9839,32
9840,32
9841,32
9842,32
9843,32
9844,32
9845,32
9846,32
9847,32
9848,32
9849,32
9850,32
9851,32
9852,32
9853,32
9854,32
9855,32
9856,32
9857,32
9858,32
9859,32
9860,32
9861,32
9862,32
9863,33
9864,33
9865,33
9866,33
9867,33
9868,32
9869,32
9870,32
9871,32
9872,32
9873,32
9874,32
9875,32
9876,33
9877,32
9878,32
9879,32
9880,32
9881,32
9882,33
9883,32
9884,32
9885,32
9886,32
9887,32
9888,33
9889,33
9890,33
9891,33
9892,33
9893,33
9894,33
9895,33
9896,34
9897,33
9898,33
9899,33
9900,33
9901,33
9902,34
9903,34
9904,32
9905,32
9906,32
9907,32
9908,32
9909,32
9910,32
9911,32
9912,32
9913,32
9914,32
9915,32
9916,32
9917,32
9918,32
9919,32
9920,32
9921,32
9922,32
9923,32
9924,32
9925,33
9926,33
9927,33
9928,33
9929,33
9930,32
9931,32
9932,32
9933,32
9934,32
9935,32
9936,32
9937,32
9938,32
9939,32
9940,32
9941,32
9942,32
9943,32
9944,32
9945,32
9946,32
9947,32
9948,32
9949,32
9950,32
9951,32
9952,32
9953,32
9954,32
9955,32
9956,32
9957,32
9958,32
9959,32
9960,32
9961,32
9962,32
9963,32
9964,32
9965,32
9966,32
9967,32
9968,32
9969,32
9970,32
9971,32
9972,32
9973,32
9974,32
9975,32
9976,32
9977,32
9978,32
9979,32
9980,32
9981,32
9982,32
9983,32
9984,33
9985,33
9986,33
9987,33
9988,33
9989,33
9990,33
9991,33
9992,33
9993,33
9994,33
9995,33
9996,33
9997,34
9998,33
9999,33
10000,33
