1,3
2,3
3,3
4,3
5,3
6,3
7,3
8,3
9,3
10,3
11,3
12,3
13,4
14,4
15,4
16,5
17,5
18,4
19,4
20,4
21,5
22,5
23,6
24,6
25,6
26,6
27,6
28,6
29,6
30,6
31,7
32,7
33,7
34,7
35,6
36,6
37,6
38,7
39,6
40,6
41,6
42,6
43,6
44,6
45,6
46,6
47,6
48,7
49,7
50,7
51,7
52,8
53,8
54,8
55,6
56,6
57,6
58,6
59,6
60,6
61,7
62,7
63,8
64,8
65,8
66,8
67,7
68,7
69,7
70,7
71,7
72,7
73,8
74,8
75,7
76,7
77,7
78,7
79,7
80,7
81,7
82,7
83,7
84,7
85,7
86,8
87,7
88,7
89,7
90,7
91,7
92,7
93,7
94,7
95,7
96,7
97,7
98,7
99,7
100,7
101,7
102,7
103,7
104,7
105,7
106,7
107,7
108,7
109,7
110,7
111,7
112,7
113,8
114,7
115,7
116,7
117,7
118,7
119,7
120,7
121,7
122,7
123,7
124,7
125,7
126,7
127,7
128,7
129,7
130,7
131,7
132,7
133,7
134,7
135,7
136,7
137,7
138,7
139,8
140,8
141,8
142,8
143,8
144,8
145,9
146,9
147,9
148,9
149,9
150,9
151,9
152,9
153,9
154,9
155,9
156,9
157,9
158,9
159,9
160,10
161,10
162,10
163,9
164,9
165,9
166,9
167,9
168,10
169,9
170,9
171,9
172,9
173,9
174,9
175,9
176,9
177,9
178,9
179,9
180,9
181,9
182,10
183,10
184,9
185,9
186,9
187,9
188,9
189,9
190,9
191,9
192,9
193,9
194,9
195,10
196,9
197,9
198,9
199,9
200,9
201,9
202,10
203,10
204,10
205,11
206,11
207,11
208,10
209,10
210,10
211,10
212,10
213,10
214,10
215,10
216,10
217,10
218,10
219,10
220,10
221,10
222,11
223,11
224,12
225,12
226,11
227,11
228,11
229,11
230,11
231,11
232,11
233,11
234,11
235,11
236,11
237,11
238,11
239,11
240,11
241,11
242,11
243,11
244,11
245,12
246,12
247,12
248,12
249,12
250,12
251,12
252,12
253,12
254,12
255,12
256,12
257,12
258,12
259,12
260,13
261,13
262,13
263,13
264,13
265,13
266,13
267,13
268,13
269,13
270,13
271,13
272,13
273,13
274,13
275,14
276,13
277,13
278,13
279,13
280,14
281,13
282,13
283,13
284,13
285,13
286,13
287,13
288,13
289,13
290,13
291,13
292,13
293,12
294,12
295,12
296,12
297,12
298,12
299,12
300,12
301,12
302,12
303,12
304,12
305,12
306,12
307,12
308,12
309,12
310,12
311,12
312,12
313,12
314,12
315,12
316,12
317,12
318,12
319,12
320,12
321,12
322,12
323,12
324,12
325,12
326,12
327,12
328,12
329,12
330,12
331,12
332,12
333,12
334,12
335,12
336,12
337,12
338,12
339,12
340,12
341,13
342,12
343,12
344,13
345,12
346,12
347,12
348,12
349,12
350,12
351,12
352,12
353,12
354,12
355,12
356,12
357,12
358,12
359,12
360,12
361,12
362,12
363,12
364,12
365,12
366,12
367,12
368,12
369,12
370,12
371,12
372,12
373,12
374,12
375,12
376,12
377,12
378,12
379,12
380,12
381,12
382,12
383,12
384,12
385,12
386,12
387,12
388,12
389,12
390,12
391,12
392,12
393,12
394,12
395,12
396,12
397,12
398,12
399,13
400,13
401,13
402,13
403,13
404,13
405,13
406,13
407,12
408,12
409,12
410,12
411,12
412,12
413,12
414,12
415,13
416,13
417,12
418,12
419,12
420,12
421,12
422,12
423,12
424,12
425,12
426,12
427,12
428,12
429,12
430,12
431,12
432,12
433,12
434,12
435,12
436,12
437,12
438,12
439,12
440,12
441,12
442,12
443,12
444,12
445,12
446,12
447,12
448,12
449,12
450,12
451,12
452,12
453,12
454,12
455,13
456,13
457,13
458,13
459,13
460,13
461,13
462,13
463,13
464,13
465,13
466,13
467,13
468,13
469,13
470,13
471,13
472,13
473,13
474,13
475,13
476,13
477,13
478,13
479,13
480,13
481,13
482,13
483,14
484,14
485,14
486,13
487,13
488,13
489,14
490,14
491,14
492,14
493,14
494,15
495,15
496,14
497,14
498,14
499,14
500,15
501,15
502,16
503,16
504,16
505,16
506,15
507,16
508,16
509,15
510,15
511,15
512,15
513,15
514,15
515,15
516,15
517,15
518,15
519,15
520,15
521,15
522,15
523,15
524,15
525,15
526,16
527,16
528,16
529,16
530,16
531,16
532,16
533,16
534,16
535,16
536,15
537,15
538,15
539,15
540,15
541,15
542,15
543,15
544,15
545,15
546,15
547,15
548,15
549,15
550,15
551,15
552,15
553,15
554,15
555,15
556,15
557,15
558,15
559,15
560,15
561,15
562,15
563,16
564,16
565,16
566,16
567,17
568,16
569,16
570,16
571,16
572,16
573,16
574,16
575,16
576,16
577,16
578,16
579,16
580,16
581,16
582,17
583,15
584,15
585,15
586,15
587,15
588,15
589,15
590,15
591,15
592,16
593,15
594,15
595,15
596,15
597,15
598,15
599,15
600,15
601,15
602,16
603,16
604,16
605,15
606,15
607,15
608,15
609,15
610,15
611,18
612,15
613,15
614,15
615,15
616,15
617,15
618,16
619,15
620,15
621,15
622,15
623,16
624,16
625,15
626,15
627,15
628,15
629,15
630,15
631,15
632,15
633,15
634,16
635,17
636,16
637,16
638,15
639,15
640,15
641,15
642,15
643,15
644,15
645,15
646,15
647,16
648,16
649,16
650,16
651,16
652,16
653,16
654,15
655,15
656,15
657,15
658,15
659,15
660,15
661,15
662,15
663,15
664,15
665,15
666,15
667,15
668,15
669,15
670,15
671,15
672,15
673,15
674,15
675,15
676,15
677,15
678,15
679,15
680,15
681,15
682,15
683,15
684,15
685,15
686,15
687,15
688,15
689,15
690,15
691,15
692,15
693,15
694,15
695,15
696,15
697,15
698,15
699,15
700,15
701,15
702,15
703,15
704,15
705,15
706,15
707,15
708,15
709,15
710,15
711,15
712,15
713,15
714,15
715,15
716,15
717,15
718,15
719,15
720,15
721,15
722,15
723,15
724,15
725,15
726,15
727,15
728,15
729,15
730,15
731,16
732,16
733,17
734,17
735,17
736,18
737,17
738,17
739,17
740,17
741,16
742,16
743,16
744,16
745,16
746,16
747,16
748,16
749,16
750,17
751,17
752,16
753,16
754,16
755,16
756,16
757,16
758,16
759,16
760,16
761,16
762,17
763,16
764,16
765,17
766,17
767,16
768,16
769,16
770,16
771,16
772,16
773,16
774,16
775,16
776,16
777,16
778,16
779,16
780,16
781,16
782,16
783,16
784,16
785,16
786,16
787,16
788,16
789,16
790,16
791,16
792,16
793,16
794,16
795,17
796,16
797,16
798,16
799,16
800,16
801,16
802,16
803,16
804,16
805,16
806,16
807,16
808,16
809,16
810,16
811,16
812,16
813,16
814,16
815,16
816,16
817,16
818,16
819,16
820,16
821,16
822,16
823,16
824,16
825,16
826,16
827,16
828,16
829,16
830,16
831,16
832,16
833,16
834,16
835,16
836,16
837,16
838,16
839,16
840,16
841,16
842,16
843,16
844,16
845,16
846,16
847,16
848,16
849,16
850,16
851,16
852,16
853,16
854,16
855,16
856,16
857,16
858,17
859,18
860,18
861,17
862,17
863,17
864,17
865,17
866,17
867,17
868,17
869,17
870,16
871,16
872,16
873,16
874,16
875,16
876,16
877,16
878,16
879,16
880,16
881,16
882,16
883,16
884,16
885,16
886,16
887,16
888,17
889,16
890,16
891,16
892,16
893,16
894,16
895,16
896,16
897,16
898,16
899,16
900,16
901,16
902,16
903,16
904,16
905,16
906,16
907,16
908,16
909,16
910,16
911,16
912,17
913,16
914,16
915,16
916,16
917,16
918,16
919,16
920,16
921,16
922,16
923,16
924,17
925,17
926,17
927,16
928,16
929,16
930,16
931,17
932,16
933,16
934,16
935,17
936,16
937,16
938,16
939,16
940,16
941,16
942,16
943,16
944,16
945,16
946,17
947,16
948,16
949,16
950,16
951,16
952,16
953,16
954,16
955,16
956,16
957,16
958,16
959,16
960,16
961,16
962,16
963,16
964,16
965,16
966,16
967,16
968,16
969,17
970,17
971,17
972,17
973,17
974,17
975,17
976,17
977,17
978,17
979,17
980,17
981,17
982,18
983,18
984,17
985,17
986,16
987,17
988,17
989,17
990,17
991,16
992,17
993,16
994,16
995,16
996,16
997,16
998,16
999,16
1000,16
1001,16
1002,16
1003,16
1004,16
1005,16
1006,16
1007,16
1008,16
1009,16
1010,16
1011,16
1012,16
1013,16
1014,16
1015,16
1016,16
1017,16
1018,16
1019,16
1020,16
1021,16
1022,16
1023,16
1024,16
1025,16
1026,16
1027,16
1028,16
1029,16
1030,16
1031,17
1032,17
1033,16
1034,16
1035,16
1036,16
1037,16
1038,16
1039,16
1040,16
1041,17
1042,17
1043,17
1044,17
1045,17
1046,17
1047,17
1048,17
1049,17
1050,17
1051,17
1052,17
1053,17
1054,17
1055,17
1056,18
1057,17
1058,17
1059,17
1060,17
1061,17
1062,17
1063,18
1064,18
1065,18
1066,18
1067,18
1068,18
1069,17
1070,17
1071,17
1072,17
1073,17
1074,17
1075,17
1076,17
1077,17
1078,17
1079,17
1080,17
1081,17
1082,17
1083,17
1084,17
1085,17
1086,17
1087,17
1088,17
1089,17
1090,17
1091,17
1092,18
1093,17
1094,17
1095,17
1096,17
1097,17
1098,17
1099,17
1100,17
1101,17
1102,18
1103,18
1104,18
1105,18
1106,19
1107,19
1108,19
1109,19
1110,19
1111,19
1112,19
1113,19
1114,19
1115,18
1116,18
1117,18
1118,18
1119,19
1120,20
1121,20
1122,19
1123,19
1124,19
1125,19
1126,18
1127,18
1128,18
1129,18
1130,18
1131,18
1132,18
1133,18
1134,18
1135,18
1136,18
1137,18
1138,18
1139,18
1140,18
1141,18
1142,18
1143,18
1144,18
1145,18
1146,18
1147,18
1148,18
1149,18
1150,18
1151,18
1152,18
1153,18
1154,18
1155,18
1156,19
1157,18
1158,18
1159,18
1160,18
1161,18
1162,18
1163,18
1164,18
1165,18
1166,18
1167,18
1168,18
1169,18
1170,18
1171,18
1172,19
1173,18
1174,18
1175,18
1176,18
1177,18
1178,18
1179,18
1180,18
1181,18
1182,18
1183,18
1184,18
1185,18
1186,18
1187,18
1188,18
1189,18
1190,18
1191,18
1192,18
1193,18
1194,18
1195,18
1196,19
1197,18
1198,19
1199,19
1200,19
1201,19
1202,19
1203,18
1204,18
1205,18
1206,18
1207,18
1208,18
1209,18
1210,18
1211,18
1212,18
1213,18
1214,18
1215,18
1216,18
1217,18
1218,18
1219,18
1220,18
1221,18
1222,18
1223,18
1224,18
1225,18
1226,18
1227,18
1228,18
1229,18
1230,18
1231,18
1232,18
1233,18
1234,19
1235,19
1236,19
1237,20
1238,20
1239,19
1240,20
1241,20
1242,19
1243,19
1244,19
1245,19
1246,20
1247,20
1248,19
1249,19
1250,19
1251,19
1252,19
1253,19
1254,19
1255,19
1256,19
1257,19
1258,19
1259,19
1260,19
1261,19
1262,19
1263,19
1264,20
1265,20
1266,20
1267,20
1268,20
1269,20
1270,21
1271,21
1272,21
1273,20
1274,19
1275,19
1276,19
1277,19
1278,19
1279,19
1280,19
1281,20
1282,20
1283,19
1284,19
1285,19
1286,19
1287,19
1288,19
1289,19
1290,20
1291,20
1292,20
1293,20
1294,19
1295,19
1296,19
1297,19
1298,19
1299,19
1300,19
1301,19
1302,19
1303,19
1304,19
1305,19
1306,20
1307,19
1308,19
1309,19
1310,19
1311,20
1312,20
1313,20
1314,19
1315,19
1316,19
1317,19
1318,19
1319,19
1320,19
1321,19
1322,19
1323,20
1324,20
1325,20
1326,20
1327,19
1328,19
1329,19
1330,19
1331,19
1332,20
1333,20
1334,20
1335,19
1336,19
1337,19
1338,19
1339,19
1340,19
1341,19
1342,19
1343,19
1344,19
1345,19
1346,19
1347,19
1348,19
1349,19
1350,19
1351,19
1352,20
1353,21
1354,21
1355,20
1356,20
1357,20
1358,20
1359,20
1360,20
1361,20
1362,20
1363,20
1364,21
1365,20
1366,20
1367,20
1368,20
1369,20
1370,20
1371,20
1372,20
1373,20
1374,20
1375,20
1376,20
1377,20
1378,20
1379,20
1380,20
1381,20
1382,20
1383,20
1384,20
1385,20
1386,20
1387,20
1388,20
1389,20
1390,20
1391,21
1392,20
1393,20
1394,20
1395,20
1396,20
1397,20
1398,20
1399,20
1400,20
1401,20
1402,20
1403,20
1404,20
1405,21
1406,20
1407,20
1408,20
1409,20
1410,20
1411,20
1412,20
1413,20
1414,20
1415,21
1416,21
1417,20
1418,20
1419,20
1420,20
1421,20
1422,20
1423,20
1424,20
1425,20
1426,20
1427,21
1428,21
1429,21
1430,21
1431,20
1432,20
1433,20
1434,20
1435,20
1436,20
1437,20
1438,20
1439,20
1440,20
1441,20
1442,20
1443,20
1444,20
1445,20
1446,20
1447,20
1448,20
1449,20
1450,20
1451,20
1452,20
1453,20
1454,20
1455,20
1456,20
1457,20
1458,20
1459,20
1460,20
1461,20
1462,20
1463,20
1464,20
1465,21
1466,21
1467,21
1468,20
1469,20
1470,20
1471,20
1472,20
1473,20
1474,20
1475,20
1476,20
1477,20
1478,20
1479,20
1480,20
1481,20
1482,20
1483,20
1484,21
1485,21
1486,21
1487,21
1488,21
1489,21
1490,20
1491,20
1492,20
1493,20
1494,20
1495,20
1496,20
1497,20
1498,20
1499,20
1500,20
1501,20
1502,21
1503,20
1504,20
1505,20
1506,20
1507,20
1508,20
1509,20
1510,20
1511,20
1512,21
1513,21
1514,20
1515,20
1516,20
1517,20
1518,20
1519,20
1520,22
1521,20
1522,20
1523,20
1524,20
1525,20
1526,20
1527,20
1528,20
1529,20
1530,20
1531,21
1532,20
1533,20
1534,20
1535,20
1536,20
1537,20
1538,20
1539,20
1540,21
1541,20
1542,20
1543,20
1544,20
1545,20
1546,20
1547,20
1548,20
1549,20
1550,20
1551,20
1552,20
1553,20
1554,20
1555,20
1556,20
1557,20
1558,20
1559,20
1560,20
1561,20
1562,20
1563,20
1564,20
1565,20
1566,20
1567,20
1568,20
1569,20
1570,20
1571,21
1572,20
1573,20
1574,20
1575,20
1576,21
1577,21
1578,21
1579,21
1580,21
1581,20
1582,20
1583,20
1584,20
1585,20
1586,20
1587,20
1588,20
1589,20
1590,20
1591,20
1592,20
1593,20
1594,20
1595,20
1596,20
1597,20
1598,20
1599,20
1600,20
1601,20
1602,21
1603,21
1604,22
1605,22
1606,21
1607,20
1608,20
1609,20
1610,20
1611,20
1612,20
1613,20
1614,20
1615,20
1616,20
1617,20
1618,20
1619,20
1620,20
1621,20
1622,20
1623,20
1624,21
1625,21
1626,21
1627,20
1628,21
1629,21
1630,21
1631,21
1632,21
1633,21
1634,21
1635,21
1636,22
1637,21
1638,21
1639,21
1640,21
1641,21
1642,21
1643,21
1644,21
1645,21
1646,21
1647,21
1648,21
1649,21
1650,21
1651,21
1652,21
1653,21
1654,21
1655,21
1656,21
1657,21
1658,21
1659,21
1660,21
1661,21
1662,21
1663,21
1664,22
1665,22
1666,22
1667,22
1668,22
1669,22
1670,22
1671,21
1672,21
1673,21
1674,21
1675,22
1676,21
1677,21
1678,22
1679,22
1680,22
1681,21
1682,21
1683,21
1684,21
1685,21
1686,21
1687,21
1688,21
1689,21
1690,21
1691,21
1692,21
1693,21
1694,21
1695,21
1696,21
1697,21
1698,21
1699,22
1700,22
1701,22
1702,23
1703,22
1704,22
1705,22
1706,22
1707,22
1708,22
1709,22
1710,22
1711,22
1712,22
1713,22
1714,22
1715,22
1716,22
1717,22
1718,21
1719,22
1720,21
1721,21
1722,22
1723,21
1724,21
1725,21
1726,21
1727,21
1728,21
1729,21
1730,21
1731,21
1732,21
1733,21
1734,21
1735,21
1736,22
1737,21
1738,21
1739,21
1740,21
1741,21
1742,21
1743,21
1744,21
1745,21
1746,21
1747,21
1748,21
1749,22
1750,22
1751,22
1752,21
1753,21
1754,21
1755,21
1756,21
1757,21
1758,21
1759,21
1760,22
1761,23
1762,23
1763,23
1764,23
1765,23
1766,23
1767,23
1768,22
1769,22
1770,22
1771,22
1772,22
1773,23
1774,23
1775,22
1776,22
1777,22
1778,22
1779,21
1780,21
1781,21
1782,21
1783,21
1784,21
1785,21
1786,21
1787,21
1788,21
1789,21
1790,21
1791,21
1792,21
1793,21
1794,22
1795,22
1796,22
1797,22
1798,23
1799,22
1800,22
1801,22
1802,22
1803,22
1804,23
1805,22
1806,22
1807,22
1808,22
1809,22
1810,22
1811,22
1812,23
1813,22
1814,22
1815,22
1816,22
1817,22
1818,22
1819,22
1820,22
1821,22
1822,22
1823,22
1824,23
1825,23
1826,23
1827,22
1828,22
1829,22
1830,22
1831,22
1832,22
1833,22
1834,22
1835,23
1836,23
1837,23
1838,23
1839,25
1840,24
1841,24
1842,24
1843,23
1844,23
1845,23
1846,23
1847,23
1848,23
1849,23
1850,23
1851,23
1852,23
1853,23
1854,23
1855,23
1856,23
1857,23
1858,23
1859,23
1860,24
1861,23
1862,23
1863,23
1864,23
1865,23
1866,23
1867,24
1868,23
1869,23
1870,23
1871,23
1872,23
1873,23
1874,23
1875,23
1876,24
1877,23
1878,23
1879,23
1880,23
1881,24
1882,24
1883,24
1884,24
1885,24
1886,24
1887,24
1888,24
1889,24
1890,24
1891,24
1892,24
1893,24
1894,24
1895,24
1896,24
1897,24
1898,24
1899,24
1900,24
1901,24
1902,24
1903,24
1904,24
1905,24
1906,24
1907,24
1908,24
1909,24
1910,24
1911,24
1912,25
1913,25
1914,25
1915,24
1916,24
1917,24
1918,24
1919,25
1920,24
1921,25
1922,25
1923,24
1924,24
1925,24
1926,24
1927,24
1928,24
1929,24
1930,24
1931,24
1932,24
1933,24
1934,24
1935,24
1936,24
1937,24
1938,24
1939,24
1940,24
1941,24
1942,24
1943,24
1944,24
1945,25
1946,24
1947,24
1948,24
1949,24
1950,24
1951,24
1952,24
1953,24
1954,24
1955,24
1956,24
1957,24
1958,24
1959,24
1960,24
1961,24
1962,24
1963,24
1964,24
1965,24
1966,24
1967,24
1968,24
1969,24
1970,24
1971,25
1972,24
1973,24
1974,24
1975,24
1976,24
1977,24
1978,24
1979,24
1980,24
1981,24
1982,24
1983,24
1984,24
1985,24
1986,24
1987,24
1988,24
1989,25
1990,25
1991,25
1992,25
1993,25
1994,25
1995,25
1996,25
1997,25
1998,25
1999,25
2000,25
2001,25
2002,25
2003,24
2004,24
2005,24
2006,24
2007,24
2008,24
2009,24
2010,24
2011,24
2012,24
2013,25
2014,24
2015,24
2016,24
2017,25
2018,25
2019,25
2020,25
2021,25
2022,25
2023,24
2024,24
2025,24
2026,24
2027,24
2028,25
2029,25
2030,24
2031,24
2032,24
2033,24
2034,24
2035,24
2036,24
2037,24
2038,24
2039,24
2040,24
2041,24
2042,24
2043,24
2044,24
2045,24
2046,24
2047,24
2048,24
2049,24
2050,24
2051,24
2052,24
2053,24
2054,24
2055,24
2056,24
2057,24
2058,25
2059,24
2060,24
2061,24
2062,24
2063,24
2064,24
2065,24
2066,24
2067,24
2068,25
2069,25
2070,25
2071,24
2072,24
2073,24
2074,25
2075,25
2076,25
2077,25
2078,25
2079,25
2080,25
2081,24
2082,24
2083,24
2084,24
2085,24
2086,24
2087,24
2088,24
2089,24
2090,24
2091,24
2092,24
2093,24
2094,24
2095,24
2096,24
2097,24
2098,24
2099,24
2100,24
2101,24
2102,24
2103,24
2104,24
2105,24
2106,25
2107,25
2108,24
2109,24
2110,24
2111,24
2112,24
2113,25
2114,25
2115,25
2116,24
2117,24
2118,24
2119,24
2120,25
2121,25
2122,25
2123,26
2124,24
2125,24
2126,24
2127,24
2128,25
2129,24
2130,24
2131,24
2132,24
2133,24
2134,24
2135,24
2136,24
2137,24
2138,24
2139,24
2140,24
2141,24
2142,24
2143,24
2144,24
2145,25
2146,25
2147,25
2148,25
2149,27
2150,27
2151,25
2152,24
2153,24
2154,24
2155,24
2156,24
2157,24
2158,24
2159,24
2160,24
2161,24
2162,24
2163,24
2164,24
2165,24
2166,24
2167,24
2168,24
2169,24
2170,24
2171,24
2172,24
2173,24
2174,24
2175,24
2176,24
2177,24
2178,24
2179,24
2180,24
2181,24
2182,24
2183,24
2184,24
2185,24
2186,24
2187,24
2188,24
2189,24
2190,24
2191,24
2192,24
2193,24
2194,24
2195,24
2196,24
2197,24
2198,24
2199,24
2200,24
2201,24
2202,24
2203,24
2204,24
2205,24
2206,24
2207,24
2208,24
2209,24
2210,24
2211,24
2212,24
2213,24
2214,24
2215,24
2216,24
2217,24
2218,24
2219,24
2220,24
2221,24
2222,24
2223,24
2224,24
2225,24
2226,24
2227,24
2228,25
2229,25
2230,25
2231,25
2232,25
2233,26
2234,26
2235,26
2236,26
2237,26
2238,26
2239,26
2240,26
2241,27
2242,27
2243,26
2244,26
2245,26
2246,25
2247,25
2248,24
2249,24
2250,24
2251,24
2252,24
2253,24
2254,24
2255,24
2256,24
2257,24
2258,24
2259,24
2260,24
2261,24
2262,24
2263,24
2264,24
2265,24
2266,24
2267,24
2268,24
2269,24
2270,24
2271,24
2272,24
2273,24
2274,24
2275,24
2276,24
2277,24
2278,24
2279,24
2280,24
2281,24
2282,24
2283,24
2284,24
2285,24
2286,24
2287,24
2288,24
2289,24
2290,24
2291,24
2292,24
2293,24
2294,24
2295,24
2296,24
2297,24
2298,24
2299,24
2300,24
2301,25
2302,25
2303,25
2304,25
2305,25
2306,24
2307,24
2308,25
2309,24
2310,24
2311,24
2312,24
2313,24
2314,24
2315,24
2316,25
2317,24
2318,24
2319,24
2320,24
2321,24
2322,24
2323,24
2324,24
2325,24
2326,24
2327,24
2328,24
2329,24
2330,25
2331,25
2332,24
2333,24
2334,24
2335,25
2336,25
2337,25
2338,25
2339,24
2340,25
2341,24
2342,25
2343,24
2344,24
2345,24
2346,24
2347,24
2348,26
2349,25
2350,25
2351,24
2352,24
2353,24
2354,24
2355,24
2356,24
2357,24
2358,24
2359,24
2360,24
2361,24
2362,24
2363,24
2364,24
2365,24
2366,24
2367,24
2368,24
2369,24
2370,24
2371,24
2372,24
2373,24
2374,24
2375,24
2376,24
2377,24
2378,24
2379,24
2380,24
2381,24
2382,24
2383,24
2384,24
2385,24
2386,24
2387,24
2388,24
2389,24
2390,24
2391,24
2392,24
2393,24
2394,24
2395,24
2396,24
2397,24
2398,24
2399,24
2400,24
2401,24
2402,24
2403,24
2404,24
2405,24
2406,24
2407,24
2408,24
2409,24
2410,24
2411,24
2412,24
2413,24
2414,24
2415,24
2416,24
2417,24
2418,24
2419,24
2420,24
2421,24
2422,24
2423,24
2424,24
2425,24
2426,24
2427,24
2428,24
2429,25
2430,24
2431,24
2432,24
2433,24
2434,24
2435,24
2436,24
2437,24
2438,24
2439,24
2440,24
2441,24
2442,24
2443,24
2444,24
2445,24
2446,24
2447,24
2448,24
2449,24
2450,25
2451,25
2452,25
2453,24
2454,24
2455,24
2456,24
2457,24
2458,24
2459,24
2460,24
2461,24
2462,24
2463,24
2464,24
2465,24
2466,24
2467,24
2468,24
2469,24
2470,24
2471,24
2472,24
2473,24
2474,24
2475,24
2476,24
2477,24
2478,24
2479,24
2480,24
2481,24
2482,24
2483,24
2484,25
2485,24
2486,24
2487,24
2488,24
2489,24
2490,24
2491,24
2492,24
2493,24
2494,24
2495,24
2496,24
2497,24
2498,24
2499,24
2500,24
2501,24
2502,24
2503,24
2504,25
2505,25
2506,25
2507,25
2508,25
2509,25
2510,25
2511,25
2512,25
2513,25
2514,25
2515,25
2516,25
2517,25
2518,24
2519,24
2520,24
2521,24
2522,24
2523,24
2524,24
2525,24
2526,24
2527,25
2528,25
2529,25
2530,25
2531,25
2532,25
2533,25
2534,25
2535,25
2536,25
2537,26
2538,26
2539,25
2540,25
2541,25
2542,25
2543,25
2544,25
2545,25
2546,25
2547,25
2548,25
2549,25
2550,25
2551,25
2552,25
2553,25
2554,25
2555,25
2556,25
2557,26
2558,26
2559,25
2560,25
2561,25
2562,25
2563,25
2564,25
2565,25
2566,25
2567,25
2568,25
2569,25
2570,25
2571,25
2572,25
2573,25
2574,25
2575,25
2576,26
2577,26
2578,26
2579,25
2580,25
2581,26
2582,26
2583,26
2584,25
2585,25
2586,25
2587,25
2588,25
2589,25
2590,25
2591,25
2592,25
2593,25
2594,25
2595,25
2596,25
2597,26
2598,25
2599,25
2600,25
2601,25
2602,25
2603,25
2604,25
2605,25
2606,25
2607,25
2608,25
2609,25
2610,25
2611,25
2612,25
2613,25
2614,25
2615,25
2616,25
2617,25
2618,25
2619,25
2620,25
2621,25
2622,25
2623,25
2624,25
2625,25
2626,25
2627,25
2628,25
2629,25
2630,25
2631,26
2632,26
2633,25
2634,25
2635,25
2636,25
2637,25
2638,25
2639,25
2640,25
2641,25
2642,25
2643,25
2644,25
2645,25
2646,25
2647,25
2648,25
2649,25
2650,25
2651,25
2652,25
2653,25
2654,25
2655,25
2656,25
2657,25
2658,25
2659,25
2660,25
2661,25
2662,26
2663,25
2664,25
2665,25
2666,25
2667,25
2668,25
2669,25
2670,25
2671,25
2672,25
2673,25
2674,25
2675,25
2676,25
2677,25
2678,25
2679,25
2680,25
2681,27
2682,26
2683,26
2684,25
2685,25
2686,25
2687,25
2688,25
2689,25
2690,25
2691,25
2692,25
2693,25
2694,25
2695,25
2696,25
2697,26
2698,26
2699,26
2700,26
2701,26
2702,26
2703,27
2704,27
2705,26
2706,26
2707,26
2708,26
2709,26
2710,26
2711,26
2712,26
2713,26
2714,26
2715,26
2716,26
2717,27
2718,27
2719,28
2720,28
2721,27
2722,27
2723,27
2724,27
2725,27
2726,27
2727,27
2728,27
2729,26
2730,26
2731,26
2732,26
2733,26
2734,26
2735,26
2736,26
2737,26
2738,26
2739,26
2740,26
2741,26
2742,26
2743,26
2744,26
2745,26
2746,26
2747,26
2748,26
2749,26
2750,26
2751,26
2752,26
2753,26
2754,26
2755,26
2756,26
2757,26
2758,26
2759,26
2760,26
2761,26
2762,26
2763,26
2764,26
2765,26
2766,26
2767,26
2768,27
2769,27
2770,27
2771,27
2772,26
2773,26
2774,26
2775,27
2776,27
2777,27
2778,27
2779,28
2780,28
2781,28
2782,28
2783,28
2784,28
2785,27
2786,27
2787,27
2788,27
2789,27
2790,26
2791,26
2792,26
2793,26
2794,26
2795,26
2796,26
2797,26
2798,26
2799,26
2800,26
2801,26
2802,26
2803,26
2804,27
2805,27
2806,27
2807,26
2808,26
2809,26
2810,26
2811,26
2812,26
2813,26
2814,26
2815,26
2816,26
2817,26
2818,26
2819,26
2820,26
2821,26
2822,26
2823,26
2824,26
2825,26
2826,26
2827,26
2828,26
2829,26
2830,26
2831,27
2832,26
2833,26
2834,26
2835,26
2836,26
2837,26
2838,27
2839,27
2840,27
2841,27
2842,27
2843,27
2844,27
2845,27
2846,27
2847,27
2848,27
2849,27
2850,27
2851,27
2852,27
2853,27
2854,26
2855,26
2856,26
2857,26
2858,26
2859,26
2860,26
2861,26
2862,26
2863,26
2864,26
2865,26
2866,26
2867,26
2868,26
2869,26
2870,26
2871,26
2872,26
2873,26
2874,26
2875,27
2876,26
2877,26
2878,26
2879,26
2880,26
2881,26
2882,26
2883,26
2884,26
2885,26
2886,26
2887,26
2888,26
2889,26
2890,26
2891,26
2892,26
2893,26
2894,26
2895,26
2896,26
2897,26
2898,26
2899,26
2900,26
2901,26
2902,26
2903,27
2904,27
2905,27
2906,27
2907,27
2908,27
2909,27
2910,27
2911,28
2912,27
2913,27
2914,27
2915,28
2916,28
2917,27
2918,28
2919,27
2920,27
2921,27
2922,27
2923,27
2924,27
2925,27
2926,27
2927,27
2928,27
2929,27
2930,27
2931,27
2932,27
2933,27
2934,26
2935,26
2936,26
2937,26
2938,26
2939,26
2940,26
2941,28
2942,28
2943,27
2944,27
2945,27
2946,28
2947,27
2948,27
2949,26
2950,26
2951,26
2952,27
2953,27
2954,26
2955,26
2956,26
2957,26
2958,26
2959,26
2960,26
2961,26
2962,26
2963,26
2964,26
2965,26
2966,26
2967,26
2968,26
2969,26
2970,26
2971,26
2972,26
2973,26
2974,26
2975,26
2976,26
2977,26
2978,26
2979,26
2980,26
2981,26
2982,26
2983,26
2984,26
2985,26
2986,26
2987,26
2988,26
2989,26
2990,26
2991,26
2992,26
2993,26
2994,26
2995,26
2996,26
2997,26
2998,26
2999,26
3000,26
3001,26
3002,26
3003,26
3004,26
3005,26
3006,26
3007,26
3008,26
3009,26
3010,26
3011,26
3012,26
3013,26
3014,26
3015,26
3016,26
3017,26
3018,26
3019,26
3020,26
3021,26
3022,26
3023,26
3024,26
3025,26
3026,26
3027,26
3028,26
3029,26
3030,26
3031,26
3032,26
3033,26
3034,26
3035,26
3036,26
3037,26
3038,26
3039,26
3040,26
3041,26
3042,26
3043,26
3044,26
3045,26
3046,26
3047,26
3048,26
3049,26
3050,26
3051,26
3052,26
3053,26
3054,26
3055,26
3056,26
3057,26
3058,26
3059,26
3060,26
3061,26
3062,26
3063,26
3064,26
3065,26
3066,26
3067,26
3068,26
3069,26
3070,26
3071,26
3072,26
3073,26
3074,26
3075,26
3076,26
3077,26
3078,26
3079,26
3080,26
3081,26
3082,26
3083,26
3084,26
3085,26
3086,26
3087,26
3088,26
3089,26
3090,26
3091,26
3092,27
3093,28
3094,28
3095,27
3096,26
3097,26
3098,26
3099,27
3100,26
3101,26
3102,26
3103,26
3104,26
3105,26
3106,26
3107,26
3108,27
3109,27
3110,27
3111,26
3112,26
3113,26
3114,26
3115,26
3116,26
3117,26
3118,26
3119,26
3120,26
3121,26
3122,26
3123,26
3124,26
3125,26
3126,26
3127,26
3128,26
3129,26
3130,26
3131,26
3132,26
3133,26
3134,26
3135,26
3136,26
3137,26
3138,26
3139,26
3140,26
3141,27
3142,27
3143,27
3144,27
3145,27
3146,27
3147,27
3148,27
3149,26
3150,26
3151,26
3152,26
3153,26
3154,26
3155,26
3156,26
3157,26
3158,27
3159,27
3160,27
3161,26
3162,26
3163,26
3164,26
3165,26
3166,26
3167,26
3168,27
3169,27
3170,26
3171,26
3172,26
3173,26
3174,26
3175,26
3176,26
3177,26
3178,26
3179,26
3180,26
3181,27
3182,26
3183,26
3184,26
3185,26
3186,26
3187,26
3188,26
3189,27
3190,27
3191,26
3192,26
3193,26
3194,26
3195,26
3196,27
3197,27
3198,27
3199,28
3200,26
3201,26
3202,27
3203,26
3204,26
3205,26
3206,26
3207,26
3208,26
3209,26
3210,26
3211,26
3212,26
3213,26
3214,26
3215,26
3216,27
3217,26
3218,26
3219,26
3220,26
3221,26
3222,26
3223,26
3224,26
3225,26
3226,26
3227,27
3228,27
3229,27
3230,27
3231,27
3232,27
3233,27
3234,27
3235,26
3236,26
3237,27
3238,27
3239,27
3240,27
3241,28
3242,26
3243,26
3244,26
3245,26
3246,26
3247,27
3248,26
3249,26
3250,26
3251,26
3252,26
3253,26
3254,26
3255,26
3256,27
3257,27
3258,28
3259,29
3260,29
3261,29
3262,27
3263,27
3264,26
3265,26
3266,26
3267,26
3268,26
3269,26
3270,26
3271,27
3272,26
3273,26
3274,26
3275,26
3276,26
3277,26
3278,26
3279,26
3280,26
3281,26
3282,26
3283,26
3284,26
3285,26
3286,26
3287,26
3288,26
3289,26
3290,26
3291,26
3292,26
3293,26
3294,26
3295,26
3296,27
3297,27
3298,27
3299,26
3300,26
3301,26
3302,26
3303,26
3304,26
3305,26
3306,26
3307,27
3308,28
3309,26
3310,26
3311,26
3312,26
3313,26
3314,26
3315,26
3316,26
3317,26
3318,26
3319,26
3320,26
3321,26
3322,26
3323,26
3324,27
3325,26
3326,26
3327,26
3328,26
3329,26
3330,26
3331,26
3332,26
3333,26
3334,26
3335,26
3336,26
3337,26
3338,26
3339,26
3340,26
3341,26
3342,26
3343,26
3344,26
3345,26
3346,26
3347,26
3348,26
3349,26
3350,26
3351,26
3352,26
3353,26
3354,26
3355,26
3356,26
3357,26
3358,27
3359,27
3360,27
3361,27
3362,26
3363,26
3364,26
3365,26
3366,26
3367,27
3368,27
3369,27
3370,27
3371,27
3372,27
3373,27
3374,27
3375,27
3376,27
3377,27
3378,27
3379,27
3380,27
3381,27
3382,27
3383,27
3384,27
3385,27
3386,27
3387,26
3388,26
3389,26
3390,26
3391,26
3392,26
3393,26
3394,26
3395,26
3396,27
3397,26
3398,26
3399,26
3400,26
3401,26
3402,26
3403,26
3404,26
3405,26
3406,26
3407,26
3408,26
3409,26
3410,26
3411,26
3412,26
3413,26
3414,26
3415,26
3416,26
3417,26
3418,27
3419,27
3420,26
3421,26
3422,26
3423,26
3424,26
3425,26
3426,26
3427,26
3428,26
3429,26
3430,26
3431,26
3432,26
3433,26
3434,26
3435,26
3436,26
3437,26
3438,26
3439,26
3440,26
3441,26
3442,26
3443,26
3444,26
3445,26
3446,27
3447,27
3448,27
3449,28
3450,28
3451,28
3452,28
3453,28
3454,28
3455,28
3456,29
3457,28
3458,28
3459,28
3460,28
3461,28
3462,28
3463,28
3464,28
3465,28
3466,28
3467,27
3468,27
3469,27
3470,27
3471,27
3472,27
3473,27
3474,27
3475,27
3476,27
3477,28
3478,28
3479,28
3480,28
3481,28
3482,28
3483,28
3484,28
3485,27
3486,27
3487,27
3488,27
3489,27
3490,27
3491,27
3492,27
3493,27
3494,27
3495,27
3496,27
3497,27
3498,27
3499,27
3500,27
3501,27
3502,27
3503,27
3504,27
3505,27
3506,27
3507,27
3508,27
3509,27
3510,27
3511,27
3512,27
3513,27
3514,27
3515,27
3516,27
3517,27
3518,27
3519,28
3520,27
3521,27
3522,27
3523,27
3524,27
3525,27
3526,28
3527,28
3528,27
3529,27
3530,27
3531,27
3532,27
3533,27
3534,27
3535,27
3536,27
3537,27
3538,27
3539,27
3540,27
3541,27
3542,27
3543,27
3544,27
3545,27
3546,27
3547,27
3548,27
3549,27
3550,27
3551,27
3552,27
3553,27
3554,27
3555,27
3556,27
3557,27
3558,27
3559,27
3560,27
3561,27
3562,27
3563,27
3564,27
3565,27
3566,27
3567,27
3568,27
3569,27
3570,27
3571,27
3572,27
3573,28
3574,28
3575,27
3576,27
3577,27
3578,27
3579,27
3580,27
3581,27
3582,27
3583,27
3584,27
3585,27
3586,27
3587,27
3588,27
3589,27
3590,27
3591,27
3592,27
3593,27
3594,27
3595,27
3596,27
3597,27
3598,27
3599,27
3600,27
3601,27
3602,27
3603,27
3604,27
3605,27
3606,27
3607,27
3608,27
3609,27
3610,28
3611,27
3612,28
3613,28
3614,28
3615,27
3616,27
3617,27
3618,27
3619,27
3620,27
3621,27
3622,27
3623,27
3624,27
3625,27
3626,27
3627,27
3628,27
3629,28
3630,27
3631,27
3632,27
3633,27
3634,27
3635,27
3636,27
3637,27
3638,27
3639,27
3640,27
3641,27
3642,27
3643,27
3644,27
3645,27
3646,27
3647,27
3648,27
3649,27
3650,27
3651,27
3652,27
3653,27
3654,27
3655,27
3656,27
3657,27
3658,27
3659,27
3660,27
3661,27
3662,27
3663,27
3664,27
3665,27
3666,27
3667,27
3668,27
3669,27
3670,27
3671,27
3672,27
3673,27
3674,27
3675,27
3676,27
3677,27
3678,27
3679,27
3680,27
3681,27
3682,27
3683,27
3684,27
3685,27
3686,27
3687,27
3688,27
3689,27
3690,27
3691,27
3692,27
3693,27
3694,27
3695,27
3696,27
3697,27
3698,28
3699,28
3700,28
3701,27
3702,27
3703,27
3704,27
3705,27
3706,27
3707,27
3708,27
3709,27
3710,28
3711,27
3712,27
3713,27
3714,27
3715,27
3716,27
3717,27
3718,27
3719,27
3720,27
3721,27
3722,27
3723,27
3724,27
3725,27
3726,27
3727,27
3728,27
3729,28
3730,28
3731,28
3732,28
3733,28
3734,27
3735,27
3736,27
3737,27
3738,27
3739,27
3740,27
3741,28
3742,27
3743,27
3744,27
3745,27
3746,27
3747,28
3748,28
3749,27
3750,27
3751,27
3752,27
3753,27
3754,27
3755,27
3756,27
3757,27
3758,27
3759,27
3760,27
3761,27
3762,27
3763,28
3764,28
3765,28
3766,28
3767,28
3768,28
3769,28
3770,28
3771,28
3772,28
3773,29
3774,28
3775,28
3776,28
3777,28
3778,28
3779,27
3780,27
3781,27
3782,27
3783,27
3784,27
3785,27
3786,27
3787,27
3788,27
3789,28
3790,27
3791,27
3792,27
3793,27
3794,27
3795,27
3796,27
3797,27
3798,27
3799,27
3800,27
3801,27
3802,27
3803,27
3804,27
3805,27
3806,27
3807,27
3808,27
3809,27
3810,27
3811,27
3812,27
3813,28
3814,29
3815,28
3816,28
3817,28
3818,28
3819,27
3820,27
3821,28
3822,28
3823,27
3824,27
3825,27
3826,27
3827,27
3828,27
3829,27
3830,27
3831,27
3832,27
3833,27
3834,27
3835,27
3836,27
3837,27
3838,27
3839,27
3840,28
3841,28
3842,27
3843,27
3844,27
3845,27
3846,27
3847,27
3848,27
3849,28
3850,27
3851,27
3852,27
3853,29
3854,28
3855,28
3856,28
3857,28
3858,28
3859,27
3860,27
3861,27
3862,27
3863,27
3864,27
3865,27
3866,27
3867,27
3868,27
3869,27
3870,27
3871,27
3872,27
3873,28
3874,28
3875,28
3876,29
3877,29
3878,29
3879,28
3880,28
3881,28
3882,28
3883,28
3884,28
3885,28
3886,28
3887,28
3888,28
3889,28
3890,28
3891,28
3892,28
3893,28
3894,28
3895,28
3896,28
3897,28
3898,28
3899,28
3900,28
3901,28
3902,28
3903,28
3904,28
3905,28
3906,29
3907,28
3908,28
3909,28
3910,28
3911,28
3912,28
3913,28
3914,28
3915,28
3916,28
3917,28
3918,28
3919,28
3920,29
3921,28
3922,28
3923,28
3924,28
3925,28
3926,28
3927,28
3928,29
3929,29
3930,29
3931,29
3932,29
3933,29
3934,29
3935,29
3936,29
3937,29
3938,29
3939,29
3940,29
3941,29
3942,29
3943,29
3944,29
3945,29
3946,29
3947,29
3948,29
3949,29
3950,29
3951,29
3952,29
3953,29
3954,29
3955,29
3956,29
3957,29
3958,29
3959,29
3960,29
3961,29
3962,29
3963,29
3964,29
3965,29
3966,29
3967,29
3968,29
3969,29
3970,29
3971,29
3972,29
3973,29
3974,29
3975,29
3976,29
3977,29
3978,29
3979,29
3980,29
3981,29
3982,29
3983,29
3984,29
3985,29
3986,29
3987,29
3988,29
3989,29
3990,29
3991,30
3992,30
3993,30
3994,31
3995,30
3996,29
3997,29
3998,29
3999,29
4000,29
4001,29
4002,29
4003,29
4004,29
4005,29
4006,29
4007,29
4008,29
4009,29
4010,29
4011,29
4012,29
4013,29
4014,29
4015,29
4016,29
4017,29
4018,29
4019,29
4020,29
4021,29
4022,29
4023,29
4024,29
4025,29
4026,29
4027,29
4028,29
4029,29
4030,29
4031,29
4032,29
4033,29
4034,29
4035,29
4036,29
4037,29
4038,29
4039,29
4040,30
4041,29
4042,30
4043,30
4044,29
4045,29
4046,29
4047,29
4048,29
4049,29
4050,29
4051,29
4052,29
4053,29
4054,29
4055,29
4056,29
4057,30
4058,29
4059,29
4060,29
4061,29
4062,30
4063,30
4064,30
4065,30
4066,30
4067,30
4068,30
4069,30
4070,30
4071,30
4072,31
4073,31
4074,31
4075,30
4076,32
4077,31
4078,32
4079,31
4080,31
4081,30
4082,30
4083,30
4084,30
4085,30
4086,30
4087,31
4088,31
4089,30
4090,30
4091,30
4092,30
4093,30
4094,30
4095,30
4096,30
4097,30
4098,30
4099,30
4100,30
4101,30
4102,30
4103,30
4104,30
4105,30
4106,30
4107,30
4108,30
4109,30
4110,30
4111,30
4112,30
4113,30
4114,30
4115,30
4116,30
4117,30
4118,30
4119,30
4120,30
4121,30
4122,30
4123,30
4124,30
4125,30
4126,30
4127,30
4128,30
4129,30
4130,30
4131,30
4132,30
4133,30
4134,31
4135,31
4136,30
4137,30
4138,30
4139,30
4140,30
4141,30
4142,30
4143,30
4144,30
4145,30
4146,30
4147,31
4148,30
4149,30
4150,30
4151,30
4152,30
4153,30
4154,30
4155,30
4156,30
4157,30
4158,30
4159,30
4160,30
4161,30
4162,30
4163,30
4164,30
4165,30
4166,30
4167,30
4168,30
4169,30
4170,30
4171,30
4172,31
4173,31
4174,30
4175,30
4176,30
4177,30
4178,30
4179,30
4180,31
4181,30
4182,30
4183,30
4184,30
4185,30
4186,30
4187,30
4188,30
4189,30
4190,30
4191,30
4192,30
4193,30
4194,30
4195,31
4196,31
4197,30
4198,30
4199,30
4200,30
4201,30
4202,30
4203,30
4204,30
4205,30
4206,30
4207,30
4208,30
4209,30
4210,30
4211,30
4212,30
4213,30
4214,30
4215,30
4216,30
4217,30
4218,31
4219,31
4220,31
4221,31
4222,31
4223,31
4224,32
4225,31
4226,31
4227,31
4228,31
4229,31
4230,31
4231,31
4232,31
4233,31
4234,31
4235,31
4236,31
4237,32
4238,31
4239,31
4240,31
4241,31
4242,31
4243,31
4244,31
4245,31
4246,31
4247,31
4248,31
4249,31
4250,31
4251,31
4252,31
4253,31
4254,31
4255,31
4256,31
4257,31
4258,31
4259,31
4260,31
4261,31
4262,32
4263,32
4264,32
4265,32
4266,32
4267,32
4268,32
4269,32
4270,32
4271,32
4272,32
4273,32
4274,32
4275,32
4276,33
4277,32
4278,31
4279,31
4280,31
4281,31
4282,31
4283,31
4284,31
4285,31
4286,31
4287,31
4288,31
4289,31
4290,31
4291,31
4292,31
4293,31
4294,31
4295,31
4296,31
4297,31
4298,31
4299,31
4300,31
4301,31
4302,31
4303,31
4304,32
4305,32
4306,32
4307,31
4308,31
4309,31
4310,31
4311,31
4312,31
4313,31
4314,31
4315,31
4316,31
4317,31
4318,31
4319,31
4320,31
4321,31
4322,31
4323,31
4324,31
4325,31
4326,31
4327,31
4328,31
4329,31
4330,31
4331,31
4332,31
4333,31
4334,31
4335,31
4336,31
4337,31
4338,31
4339,31
4340,31
4341,31
4342,31
4343,31
4344,31
4345,31
4346,31
4347,31
4348,31
4349,31
4350,31
4351,31
4352,31
4353,31
4354,31
4355,31
4356,31
4357,31
4358,31
4359,31
4360,31
4361,31
4362,31
4363,32
4364,31
4365,31
4366,31
4367,31
4368,31
4369,31
4370,31
4371,31
4372,31
4373,31
4374,31
4375,31
4376,31
4377,31
4378,31
4379,31
4380,31
4381,31
4382,31
4383,31
4384,31
4385,31
4386,31
4387,31
4388,31
4389,31
4390,31
4391,31
4392,31
4393,31
4394,31
4395,31
4396,31
4397,31
4398,31
4399,31
4400,31
4401,31
4402,31
4403,31
4404,31
4405,31
4406,31
4407,31
4408,31
4409,31
4410,31
4411,31
4412,31
4413,31
4414,31
4415,31
4416,31
4417,31
4418,31
4419,31
4420,31
4421,31
4422,32
4423,31
4424,31
4425,31
4426,31
4427,31
4428,31
4429,31
4430,31
4431,31
4432,31
4433,31
4434,31
4435,31
4436,31
4437,31
4438,31
4439,31
4440,31
4441,31
4442,31
4443,31
4444,31
4445,31
4446,32
4447,32
4448,31
4449,31
4450,31
4451,31
4452,31
4453,31
4454,31
4455,31
4456,31
4457,31
4458,31
4459,31
4460,32
4461,31
4462,31
4463,31
4464,31
4465,31
4466,31
4467,31
4468,32
4469,32
4470,31
4471,31
4472,31
4473,31
4474,31
4475,31
4476,31
4477,31
4478,31
4479,31
4480,31
4481,31
4482,31
4483,31
4484,31
4485,31
4486,31
4487,31
4488,31
4489,31
4490,31
4491,32
4492,33
4493,33
4494,33
4495,33
4496,32
4497,32
4498,32
4499,32
4500,32
4501,32
4502,32
4503,32
4504,32
4505,32
4506,32
4507,32
4508,31
4509,32
4510,32
4511,32
4512,31
4513,31
4514,30
4515,30
4516,30
4517,30
4518,30
4519,30
4520,30
4521,30
4522,30
4523,30
4524,30
4525,30
4526,30
4527,30
4528,30
4529,30
4530,30
4531,30
4532,30
4533,30
4534,30
4535,30
4536,31
4537,31
4538,31
4539,31
4540,31
4541,31
4542,31
4543,31
4544,31
4545,31
4546,30
4547,30
4548,30
4549,30
4550,30
4551,30
4552,30
4553,30
4554,30
4555,30
4556,30
4557,30
4558,30
4559,30
4560,30
4561,30
4562,30
4563,30
4564,30
4565,30
4566,30
4567,30
4568,30
4569,30
4570,30
4571,30
4572,30
4573,30
4574,30
4575,30
4576,31
4577,30
4578,30
4579,30
4580,30
4581,30
4582,30
4583,30
4584,30
4585,30
4586,30
4587,30
4588,30
4589,30
4590,30
4591,30
4592,30
4593,31
4594,31
4595,31
4596,31
4597,31
4598,31
4599,31
4600,31
4601,31
4602,31
4603,31
4604,31
4605,31
4606,31
4607,31
4608,31
4609,31
4610,31
4611,31
4612,31
4613,31
4614,31
4615,31
4616,31
4617,31
4618,31
4619,31
4620,31
4621,31
4622,31
4623,31
4624,31
4625,31
4626,31
4627,31
4628,31
4629,31
4630,31
4631,31
4632,31
4633,31
4634,31
4635,31
4636,31
4637,31
4638,31
4639,32
4640,32
4641,31
4642,31
4643,31
4644,31
4645,31
4646,31
4647,31
4648,31
4649,31
4650,31
4651,31
4652,31
4653,31
4654,31
4655,31
4656,31
4657,31
4658,31
4659,32
4660,31
4661,31
4662,31
4663,31
4664,32
4665,31
4666,31
4667,31
4668,31
4669,31
4670,31
4671,31
4672,31
4673,31
4674,31
4675,31
4676,31
4677,32
4678,31
4679,31
4680,31
4681,31
4682,31
4683,31
4684,31
4685,31
4686,31
4687,31
4688,32
4689,32
4690,31
4691,31
4692,31
4693,31
4694,31
4695,31
4696,31
4697,31
4698,31
4699,31
4700,31
4701,31
4702,31
4703,32
4704,31
4705,31
4706,31
4707,31
4708,31
4709,31
4710,31
4711,31
4712,31
4713,31
4714,31
4715,31
4716,31
4717,31
4718,31
4719,31
4720,31
4721,31
4722,31
4723,31
4724,31
4725,31
4726,32
4727,32
4728,32
4729,31
4730,31
4731,31
4732,31
4733,32
4734,32
4735,31
4736,31
4737,32
4738,32
4739,31
4740,31
4741,31
4742,31
4743,31
4744,31
4745,31
4746,31
4747,31
4748,31
4749,31
4750,31
4751,31
4752,31
4753,31
4754,31
4755,31
4756,31
4757,31
4758,32
4759,33
4760,33
4761,32
4762,32
4763,32
4764,32
4765,31
4766,31
4767,31
4768,31
4769,31
4770,31
4771,31
4772,31
4773,31
4774,31
4775,31
4776,31
4777,32
4778,32
4779,32
4780,32
4781,32
4782,33
4783,33
4784,32
4785,32
4786,32
4787,32
4788,32
4789,32
4790,32
4791,32
4792,32
4793,32
4794,32
4795,32
4796,32
4797,32
4798,32
4799,32
4800,32
4801,32
4802,32
4803,32
4804,32
4805,32
4806,32
4807,32
4808,32
4809,32
4810,32
4811,31
4812,31
4813,31
4814,31
4815,31
4816,31
4817,31
4818,31
4819,31
4820,31
4821,31
4822,31
4823,31
4824,31
4825,31
4826,31
4827,31
4828,31
4829,31
4830,32
4831,32
4832,32
4833,32
4834,32
4835,31
4836,31
4837,31
4838,31
4839,31
4840,31
4841,31
4842,31
4843,31
4844,31
4845,31
4846,31
4847,31
4848,31
4849,31
4850,32
4851,31
4852,31
4853,32
4854,32
4855,32
4856,32
4857,32
4858,32
4859,32
4860,32
4861,32
4862,32
4863,32
4864,33
4865,32
4866,32
4867,32
4868,32
4869,32
4870,32
4871,32
4872,32
4873,32
4874,32
4875,32
4876,32
4877,31
4878,32
4879,31
4880,31
4881,31
4882,31
4883,31
4884,31
4885,31
4886,31
4887,31
4888,31
4889,31
4890,32
4891,32
4892,32
4893,32
4894,32
4895,32
4896,32
4897,32
4898,32
4899,32
4900,32
4901,32
4902,32
4903,32
4904,32
4905,32
4906,32
4907,32
4908,32
4909,32
4910,32
4911,32
4912,32
4913,32
4914,32
4915,32
4916,32
4917,32
4918,32
4919,32
4920,32
4921,32
4922,33
4923,33
4924,33
4925,33
4926,33
4927,33
4928,32
4929,32
4930,32
4931,32
4932,32
4933,32
4934,32
4935,32
4936,32
4937,32
4938,32
4939,33
4940,32
4941,32
4942,32
4943,32
4944,32
4945,32
4946,32
4947,32
4948,32
4949,32
4950,32
4951,32
4952,32
4953,32
4954,32
4955,32
4956,32
4957,32
4958,32
4959,32
4960,32
4961,32
4962,32
4963,32
4964,32
4965,32
4966,32
4967,32
4968,32
4969,32
4970,32
4971,32
4972,32
4973,32
4974,32
4975,33
4976,33
4977,34
4978,35
4979,33
4980,33
4981,33
4982,33
4983,33
4984,33
4985,33
4986,33
4987,33
4988,33
4989,33
4990,33
4991,33
4992,33
4993,33
4994,34
4995,33
4996,33
4997,33
4998,33
4999,33
5000,33
5001,33
5002,33
5003,33
5004,33
5005,35
5006,34
5007,34
5008,34
5009,34
5010,34
5011,34
5012,34
5013,34
5014,34
5015,35
5016,34
5017,34
5018,34
5019,34
5020,34
5021,34
5022,34
5023,34
5024,34
5025,34
5026,34
5027,34
5028,34
5029,34
5030,34
5031,35
5032,34
5033,34
5034,34
5035,34
5036,34
5037,34
5038,34
5039,34
5040,34
5041,34
5042,35
5043,35
5044,34
5045,34
5046,34
5047,34
5048,33
5049,33
5050,33
5051,33
5052,33
5053,33
5054,33
5055,33
5056,33
5057,33
5058,33
5059,33
5060,33
5061,33
5062,33
5063,33
5064,33
5065,33
5066,33
5067,33
5068,33
5069,33
5070,33
5071,33
5072,33
5073,33
5074,33
5075,33
5076,33
5077,33
5078,33
5079,33
5080,33
5081,33
5082,33
5083,33
5084,33
5085,33
5086,33
5087,33
5088,33
5089,33
5090,33
5091,33
5092,33
5093,33
5094,33
5095,33
5096,32
5097,33
5098,33
5099,33
5100,33
5101,33
5102,32
5103,33
5104,33
5105,33
5106,33
5107,33
5108,32
5109,32
5110,32
5111,32
5112,32
5113,32
5114,32
5115,32
5116,32
5117,32
5118,32
5119,32
5120,32
5121,32
5122,32
5123,32
5124,32
5125,32
5126,32
5127,32
5128,32
5129,32
5130,32
5131,32
5132,32
5133,32
5134,32
5135,32
5136,32
5137,32
5138,32
5139,32
5140,32
5141,33
5142,33
5143,34
5144,33
5145,33
5146,33
5147,34
5148,35
5149,33
5150,33
5151,34
5152,34
5153,34
5154,34
5155,34
5156,34
5157,34
5158,34
5159,33
5160,33
5161,33
5162,33
5163,33
5164,33
5165,33
5166,33
5167,32
5168,33
5169,33
5170,33
5171,33
5172,33
5173,33
5174,33
5175,33
5176,34
5177,34
5178,34
5179,34
5180,33
5181,33
5182,33
5183,33
5184,33
5185,33
5186,34
5187,34
5188,34
5189,33
5190,33
5191,33
5192,33
5193,33
5194,33
5195,33
5196,33
5197,33
5198,33
5199,33
5200,33
5201,33
5202,33
5203,33
5204,33
5205,33
5206,33
5207,33
5208,33
5209,33
5210,33
5211,33
5212,34
5213,34
5214,35
5215,35
5216,35
5217,34
5218,33
5219,33
5220,33
5221,33
5222,33
5223,33
5224,33
5225,33
5226,33
5227,33
5228,33
5229,32
5230,32
5231,33
5232,33
5233,33
5234,33
5235,33
5236,33
5237,33
5238,33
5239,33
5240,32
5241,32
5242,32
5243,32
5244,32
5245,32
5246,32
5247,32
5248,32
5249,33
5250,32
5251,32
5252,32
5253,32
5254,32
5255,32
5256,32
5257,32
5258,32
5259,32
5260,32
5261,33
5262,33
5263,33
5264,32
5265,32
5266,32
5267,32
5268,32
5269,32
5270,32
5271,32
5272,32
5273,32
5274,32
5275,32
5276,32
5277,32
5278,32
5279,32
5280,32
5281,32
5282,32
5283,32
5284,32
5285,32
5286,32
5287,32
5288,32
5289,32
5290,32
5291,32
5292,32
5293,32
5294,32
5295,32
5296,32
5297,32
5298,32
5299,32
5300,32
5301,32
5302,32
5303,32
5304,32
5305,32
5306,32
5307,32
5308,32
5309,32
5310,32
5311,32
5312,32
5313,33
5314,32
5315,32
5316,32
5317,33
5318,32
5319,32
5320,32
5321,32
5322,32
5323,32
5324,32
5325,33
5326,33
5327,33
5328,33
5329,33
5330,33
5331,34
5332,34
5333,34
5334,33
5335,32
5336,32
5337,32
5338,32
5339,32
5340,32
5341,32
5342,32
5343,32
5344,32
5345,32
5346,32
5347,32
5348,32
5349,32
5350,32
5351,32
5352,32
5353,32
5354,33
5355,33
5356,32
5357,32
5358,32
5359,32
5360,32
5361,32
5362,32
5363,33
5364,32
5365,32
5366,32
5367,32
5368,32
5369,32
5370,32
5371,32
5372,32
5373,32
5374,33
5375,33
5376,33
5377,34
5378,34
5379,33
5380,33
5381,33
5382,33
5383,33
5384,33
5385,34
5386,34
5387,35
5388,34
5389,34
5390,34
5391,34
5392,34
5393,34
5394,34
5395,34
5396,34
5397,34
5398,34
5399,33
5400,33
5401,33
5402,33
5403,33
5404,33
5405,33
5406,33
5407,33
5408,33
5409,33
5410,35
5411,34
5412,34
5413,34
5414,34
5415,34
5416,34
5417,34
5418,33
5419,33
5420,33
5421,33
5422,33
5423,33
5424,33
5425,33
5426,33
5427,33
5428,33
5429,34
5430,33
5431,33
5432,33
5433,33
5434,33
5435,33
5436,33
5437,33
5438,33
5439,33
5440,33
5441,33
5442,34
5443,33
5444,33
5445,33
5446,33
5447,34
5448,34
5449,35
5450,35
5451,34
5452,34
5453,34
5454,34
5455,34
5456,34
5457,34
5458,34
5459,34
5460,34
5461,34
5462,34
5463,34
5464,34
5465,35
5466,35
5467,34
5468,34
5469,34
5470,34
5471,35
5472,34
5473,34
5474,34
5475,34
5476,34
5477,34
5478,34
5479,34
5480,34
5481,34
5482,34
5483,34
5484,35
5485,35
5486,34
5487,34
5488,34
5489,34
5490,34
5491,35
5492,35
5493,34
5494,34
5495,34
5496,34
5497,34
5498,34
5499,34
5500,34
5501,34
5502,34
5503,34
5504,34
5505,34
5506,33
5507,33
5508,33
5509,34
5510,34
5511,34
5512,34
5513,33
5514,33
5515,33
5516,33
5517,33
5518,33
5519,33
5520,33
5521,33
5522,33
5523,33
5524,33
5525,33
5526,34
5527,34
5528,34
5529,34
5530,33
5531,33
5532,33
5533,33
5534,34
5535,34
5536,33
5537,34
5538,34
5539,33
5540,33
5541,33
5542,33
5543,33
5544,33
5545,33
5546,33
5547,33
5548,33
5549,33
5550,33
5551,33
5552,33
5553,33
5554,33
5555,33
5556,33
5557,33
5558,33
5559,33
5560,33
5561,33
5562,33
5563,33
5564,33
5565,33
5566,33
5567,33
5568,33
5569,33
5570,33
5571,34
5572,34
5573,34
5574,34
5575,35
5576,34
5577,33
5578,33
5579,33
5580,33
5581,33
5582,33
5583,33
5584,33
5585,33
5586,33
5587,32
5588,32
5589,32
5590,32
5591,32
5592,32
5593,32
5594,32
5595,32
5596,32
5597,32
5598,32
5599,32
5600,32
5601,32
5602,32
5603,32
5604,32
5605,32
5606,33
5607,33
5608,33
5609,33
5610,32
5611,32
5612,32
5613,32
5614,32
5615,32
5616,32
5617,32
5618,32
5619,32
5620,32
5621,32
5622,32
5623,32
5624,32
5625,32
5626,32
5627,32
5628,32
5629,32
5630,32
5631,32
5632,32
5633,32
5634,32
5635,32
5636,32
5637,32
5638,33
5639,32
5640,32
5641,32
5642,32
5643,32
5644,32
5645,32
5646,32
5647,32
5648,32
5649,32
5650,32
5651,32
5652,32
5653,32
5654,32
5655,32
5656,32
5657,32
5658,32
5659,32
5660,32
5661,32
5662,32
5663,32
5664,32
5665,32
5666,33
5667,32
5668,32
5669,32
5670,32
5671,32
5672,32
5673,32
5674,32
5675,32
5676,32
5677,32
5678,33
5679,33
5680,33
5681,33
5682,33
5683,33
5684,33
5685,33
5686,33
5687,33
5688,33
5689,33
5690,33
5691,33
5692,32
5693,32
5694,32
5695,32
5696,32
5697,32
5698,32
5699,32
5700,32
5701,32
5702,32
5703,32
5704,32
5705,32
5706,32
5707,32
5708,32
5709,32
5710,32
5711,32
5712,32
5713,33
5714,33
5715,33
5716,33
5717,33
5718,33
5719,33
5720,33
5721,33
5722,33
5723,33
5724,33
5725,33
5726,33
5727,33
5728,33
5729,33
5730,33
5731,33
5732,33
5733,33
5734,33
5735,33
5736,33
5737,33
5738,33
5739,33
5740,33
5741,33
5742,33
5743,33
5744,33
5745,33
5746,33
5747,33
5748,33
5749,33
5750,33
5751,33
5752,33
5753,33
5754,33
5755,33
5756,33
5757,33
5758,33
5759,33
5760,33
5761,33
5762,33
5763,33
5764,33
5765,33
5766,33
5767,33
5768,33
5769,33
5770,33
5771,33
5772,33
5773,33
5774,33
5775,33
5776,33
5777,33
5778,33
5779,33
5780,33
5781,33
5782,33
5783,33
5784,33
5785,33
5786,33
5787,33
5788,33
5789,33
5790,33
5791,33
5792,33
5793,33
5794,33
5795,35
5796,33
5797,33
5798,34
5799,34
5800,34
5801,34
5802,33
5803,33
5804,33
5805,33
5806,33
5807,33
5808,33
5809,33
5810,33
5811,33
5812,33
5813,33
5814,33
5815,33
5816,33
5817,33
5818,33
5819,33
5820,33
5821,33
5822,33
5823,33
5824,33
5825,33
5826,33
5827,34
5828,33
5829,33
5830,33
5831,33
5832,33
5833,33
5834,34
5835,33
5836,33
5837,33
5838,34
5839,34
5840,34
5841,34
5842,34
5843,33
5844,34
5845,34
5846,34
5847,33
5848,33
5849,33
5850,33
5851,33
5852,33
5853,33
5854,33
5855,33
5856,33
5857,33
5858,33
5859,33
5860,33
5861,33
5862,33
5863,33
5864,33
5865,34
5866,33
5867,33
5868,33
5869,33
5870,33
5871,34
5872,33
5873,33
5874,33
5875,33
5876,33
5877,33
5878,33
5879,33
5880,33
5881,33
5882,33
5883,33
5884,33
5885,33
5886,33
5887,33
5888,33
5889,33
5890,33
5891,33
5892,33
5893,33
5894,33
5895,33
5896,33
5897,33
5898,33
5899,33
5900,33
5901,33
5902,33
5903,33
5904,33
5905,33
5906,33
5907,33
5908,33
5909,33
5910,33
5911,34
5912,34
5913,34
5914,34
5915,34
5916,34
5917,34
5918,34
5919,34
5920,34
5921,34
5922,34
5923,34
5924,35
5925,35
5926,35
5927,35
5928,35
5929,35
5930,35
5931,35
5932,35
5933,35
5934,35
5935,34
5936,35
5937,34
5938,34
5939,33
5940,33
5941,34
5942,34
5943,33
5944,33
5945,33
5946,33
5947,33
5948,33
5949,33
5950,33
5951,33
5952,33
5953,33
5954,33
5955,33
5956,33
5957,33
5958,33
5959,33
5960,33
5961,33
5962,33
5963,33
5964,33
5965,33
5966,33
5967,33
5968,33
5969,33
5970,34
5971,33
5972,33
5973,33
5974,33
5975,33
5976,33
5977,33
5978,33
5979,33
5980,33
5981,33
5982,33
5983,33
5984,33
5985,34
5986,34
5987,34
5988,33
5989,33
5990,33
5991,33
5992,33
5993,33
5994,33
5995,33
5996,33
5997,33
5998,33
5999,33
6000,33
6001,33
6002,33
6003,33
6004,33
6005,33
6006,33
6007,33
6008,33
6009,33
6010,33
6011,33
6012,33
6013,33
6014,33
6015,33
6016,33
6017,34
6018,34
6019,33
6020,33
6021,33
6022,33
6023,33
6024,33
6025,33
6026,33
6027,33
6028,33
6029,33
6030,33
6031,33
6032,33
6033,33
6034,34
6035,34
6036,33
6037,33
6038,33
6039,33
6040,33
6041,33
6042,33
6043,33
6044,33
6045,34
6046,34
6047,34
6048,34
6049,34
6050,34
6051,34
6052,34
6053,34
6054,34
6055,34
6056,35
6057,33
6058,33
6059,33
6060,33
6061,33
6062,33
6063,33
6064,33
6065,33
6066,33
6067,33
6068,33
6069,33
6070,33
6071,33
6072,33
6073,33
6074,33
6075,33
6076,33
6077,33
6078,34
6079,33
6080,33
6081,33
6082,33
6083,33
6084,33
6085,33
6086,33
6087,34
6088,34
6089,34
6090,34
6091,34
6092,33
6093,33
6094,33
6095,33
6096,33
6097,33
6098,33
6099,33
6100,33
6101,33
6102,33
6103,33
6104,33
6105,33
6106,33
6107,33
6108,33
6109,33
6110,34
6111,34
6112,33
6113,33
6114,33
6115,33
6116,33
6117,33
6118,34
6119,34
6120,34
6121,34
6122,34
6123,34
6124,34
6125,34
6126,34
6127,34
6128,34
6129,34
6130,34
6131,34
6132,34
6133,34
6134,34
6135,34
6136,34
6137,34
6138,34
6139,34
6140,34
6141,34
6142,34
6143,34
6144,34
6145,34
6146,34
6147,34
6148,34
6149,34
6150,34
6151,34
6152,34
6153,34
6154,34
6155,34
6156,34
6157,34
6158,34
6159,34
6160,34
6161,34
6162,34
6163,34
6164,34
6165,34
6166,34
6167,34
6168,34
6169,34
6170,34
6171,34
6172,34
6173,34
6174,34
6175,34
6176,34
6177,34
6178,34
6179,34
6180,34
6181,34
6182,34
6183,34
6184,34
6185,34
6186,34
6187,34
6188,34
6189,34
6190,34
6191,34
6192,34
6193,34
6194,34
6195,34
6196,34
6197,34
6198,34
6199,34
6200,34
6201,34
6202,34
6203,34
6204,34
6205,34
6206,34
6207,34
6208,34
6209,34
6210,34
6211,34
6212,34
6213,35
6214,34
6215,34
6216,34
6217,34
6218,34
6219,34
6220,34
6221,34
6222,34
6223,34
6224,34
6225,34
6226,34
6227,34
6228,34
6229,34
6230,34
6231,34
6232,34
6233,34
6234,34
6235,35
6236,34
6237,35
6238,35
6239,35
6240,34
6241,34
6242,34
6243,34
6244,34
6245,34
6246,34
6247,34
6248,34
6249,34
6250,34
6251,34
6252,34
6253,34
6254,35
6255,34
6256,34
6257,34
6258,34
6259,34
6260,34
6261,34
6262,34
6263,34
6264,34
6265,34
6266,34
6267,34
6268,34
6269,35
6270,34
6271,34
6272,34
6273,34
6274,34
6275,34
6276,34
6277,34
6278,34
6279,34
6280,34
6281,35
6282,34
6283,34
6284,34
6285,34
6286,34
6287,34
6288,34
6289,34
6290,35
6291,35
6292,35
6293,36
6294,36
6295,36
6296,35
6297,35
6298,35
6299,35
6300,34
6301,35
6302,35
6303,36
6304,36
6305,36
6306,35
6307,36
6308,36
6309,36
6310,35
6311,35
6312,34
6313,34
6314,34
6315,34
6316,34
6317,34
6318,35
6319,35
6320,35
6321,37
6322,36
6323,36
6324,36
6325,35
6326,34
6327,34
6328,34
6329,34
6330,34
6331,34
6332,34
6333,34
6334,34
6335,34
6336,34
6337,34
6338,34
6339,34
6340,34
6341,34
6342,34
6343,34
6344,34
6345,34
6346,34
6347,34
6348,34
6349,34
6350,34
6351,34
6352,34
6353,34
6354,34
6355,34
6356,34
6357,34
6358,34
6359,34
6360,34
6361,34
6362,34
6363,34
6364,34
6365,34
6366,34
6367,34
6368,34
6369,34
6370,34
6371,34
6372,34
6373,34
6374,34
6375,35
6376,34
6377,34
6378,34
6379,34
6380,34
6381,34
6382,34
6383,34
6384,34
6385,35
6386,35
6387,35
6388,34
6389,34
6390,34
6391,34
6392,34
6393,34
6394,34
6395,34
6396,34
6397,34
6398,34
6399,34
6400,34
6401,34
6402,34
6403,36
6404,36
6405,35
6406,35
6407,35
6408,35
6409,35
6410,35
6411,35
6412,34
6413,34
6414,35
6415,35
6416,34
6417,34
6418,34
6419,34
6420,34
6421,34
6422,34
6423,34
6424,34
6425,34
6426,34
6427,34
6428,34
6429,34
6430,34
6431,34
6432,34
6433,34
6434,34
6435,34
6436,35
6437,34
6438,34
6439,34
6440,34
6441,34
6442,34
6443,34
6444,34
6445,34
6446,34
6447,34
6448,34
6449,34
6450,34
6451,34
6452,34
6453,34
6454,34
6455,34
6456,34
6457,34
6458,34
6459,35
6460,34
6461,35
6462,35
6463,35
6464,35
6465,35
6466,35
6467,35
6468,35
6469,34
6470,34
6471,34
6472,33
6473,33
6474,33
6475,33
6476,33
6477,33
6478,33
6479,33
6480,33
6481,33
6482,33
6483,33
6484,33
6485,33
6486,33
6487,33
6488,33
6489,34
6490,34
6491,34
6492,34
6493,34
6494,34
6495,34
6496,34
6497,34
6498,34
6499,34
6500,34
6501,33
6502,33
6503,33
6504,33
6505,33
6506,34
6507,33
6508,33
6509,33
6510,33
6511,33
6512,33
6513,33
6514,33
6515,33
6516,33
6517,33
6518,34
6519,34
6520,33
6521,33
6522,33
6523,33
6524,33
6525,33
6526,33
6527,33
6528,33
6529,33
6530,33
6531,33
6532,33
6533,33
6534,33
6535,33
6536,33
6537,33
6538,34
6539,33
6540,33
6541,33
6542,33
6543,33
6544,33
6545,33
6546,33
6547,33
6548,33
6549,33
6550,33
6551,33
6552,33
6553,33
6554,33
6555,33
6556,33
6557,33
6558,33
6559,33
6560,33
6561,33
6562,33
6563,33
6564,33
6565,33
6566,33
6567,33
6568,33
6569,33
6570,33
6571,33
6572,33
6573,33
6574,33
6575,33
6576,33
6577,33
6578,33
6579,33
6580,33
6581,33
6582,33
6583,33
6584,33
6585,33
6586,33
6587,33
6588,33
6589,33
6590,34
6591,34
6592,34
6593,34
6594,34
6595,34
6596,34
6597,34
6598,34
6599,34
6600,34
6601,34
6602,34
6603,34
6604,34
6605,35
6606,35
6607,35
6608,35
6609,35
6610,34
6611,34
6612,34
6613,34
6614,34
6615,34
6616,33
6617,33
6618,33
6619,33
6620,33
6621,33
6622,33
6623,33
6624,33
6625,33
6626,33
6627,33
6628,33
6629,33
6630,33
6631,33
6632,34
6633,33
6634,33
6635,33
6636,33
6637,33
6638,33
6639,33
6640,33
6641,33
6642,33
6643,33
6644,33
6645,33
6646,33
6647,33
6648,33
6649,33
6650,33
6651,33
6652,33
6653,33
6654,33
6655,33
6656,33
6657,33
6658,33
6659,33
6660,33
6661,33
6662,33
6663,33
6664,33
6665,33
6666,33
6667,33
6668,33
6669,33
6670,33
6671,33
6672,33
6673,33
6674,33
6675,33
6676,34
6677,34
6678,33
6679,33
6680,33
6681,33
6682,33
6683,33
6684,33
6685,33
6686,33
6687,33
6688,33
6689,33
6690,33
6691,33
6692,33
6693,33
6694,33
6695,34
6696,33
6697,33
6698,33
6699,33
6700,33
6701,33
6702,33
6703,34
6704,33
6705,33
6706,33
6707,33
6708,33
6709,33
6710,33
6711,34
6712,34
6713,34
6714,34
6715,34
6716,34
6717,34
6718,34
6719,34
6720,34
6721,34
6722,34
6723,34
6724,34
6725,34
6726,34
6727,34
6728,34
6729,33
6730,33
6731,33
6732,33
6733,33
6734,33
6735,33
6736,33
6737,33
6738,33
6739,33
6740,33
6741,33
6742,34
6743,34
6744,34
6745,33
6746,33
6747,33
6748,33
6749,33
6750,33
6751,33
6752,34
6753,34
6754,33
6755,33
6756,33
6757,33
6758,33
6759,34
6760,34
6761,33
6762,34
6763,33
6764,33
6765,33
6766,33
6767,33
6768,33
6769,33
6770,33
6771,33
6772,33
6773,33
6774,33
6775,34
6776,34
6777,34
6778,33
6779,33
6780,33
6781,33
6782,33
6783,33
6784,33
6785,33
6786,33
6787,33
6788,33
6789,33
6790,34
6791,34
6792,34
6793,33
6794,33
6795,34
6796,33
6797,32
6798,32
6799,32
6800,32
6801,32
6802,32
6803,32
6804,32
6805,32
6806,32
6807,32
6808,32
6809,33
6810,33
6811,33
6812,33
6813,33
6814,33
6815,33
6816,33
6817,33
6818,33
6819,34
6820,34
6821,33
6822,33
6823,33
6824,33
6825,33
6826,33
6827,33
6828,33
6829,33
6830,33
6831,33
6832,33
6833,33
6834,33
6835,33
6836,33
6837,33
6838,33
6839,33
6840,33
6841,33
6842,33
6843,33
6844,33
6845,33
6846,33
6847,33
6848,33
6849,33
6850,34
6851,34
6852,34
6853,33
6854,33
6855,33
6856,33
6857,33
6858,33
6859,33
6860,33
6861,33
6862,33
6863,33
6864,33
6865,33
6866,33
6867,33
6868,33
6869,33
6870,33
6871,33
6872,33
6873,32
6874,32
6875,32
6876,32
6877,32
6878,32
6879,32
6880,32
6881,32
6882,32
6883,32
6884,32
6885,33
6886,32
6887,32
6888,32
6889,32
6890,32
6891,33
6892,33
6893,33
6894,33
6895,33
6896,33
6897,33
6898,33
6899,33
6900,33
6901,33
6902,33
6903,33
6904,33
6905,33
6906,33
6907,33
6908,33
6909,33
6910,33
6911,33
6912,32
6913,32
6914,32
6915,32
6916,32
6917,32
6918,32
6919,32
6920,32
6921,32
6922,32
6923,32
6924,32
6925,32
6926,32
6927,32
6928,32
6929,32
6930,32
6931,32
6932,32
6933,32
6934,32
6935,32
6936,32
6937,33
6938,32
6939,32
6940,32
6941,32
6942,32
6943,32
6944,33
6945,33
6946,32
6947,32
6948,32
6949,32
6950,32
6951,32
6952,32
6953,32
6954,32
6955,32
6956,32
6957,32
6958,32
6959,32
6960,32
6961,32
6962,32
6963,32
6964,32
6965,32
6966,32
6967,32
6968,32
6969,31
6970,31
6971,31
6972,31
6973,31
6974,31
6975,31
6976,31
6977,31
6978,31
6979,31
6980,31
6981,31
6982,31
6983,31
6984,31
6985,31
6986,31
6987,31
6988,31
6989,31
6990,31
6991,31
6992,31
6993,31
6994,31
6995,31
6996,31
6997,31
6998,31
6999,31
7000,31
7001,31
7002,31
7003,31
7004,31
7005,31
7006,31
7007,31
7008,31
7009,31
7010,31
7011,31
7012,31
7013,31
7014,31
7015,31
7016,31
7017,31
7018,31
7019,31
7020,31
7021,31
7022,31
7023,31
7024,31
7025,31
7026,31
7027,31
7028,31
7029,31
7030,31
7031,31
7032,31
7033,31
7034,32
7035,32
7036,31
7037,31
7038,31
7039,31
7040,31
7041,31
7042,32
7043,31
7044,31
7045,31
7046,31
7047,31
7048,31
7049,31
7050,31
7051,31
7052,31
7053,31
7054,31
7055,31
7056,32
7057,31
7058,31
7059,31
7060,31
7061,31
7062,31
7063,31
7064,31
7065,31
7066,32
7067,32
7068,32
7069,32
7070,32
7071,32
7072,32
7073,31
7074,31
7075,31
7076,31
7077,31
7078,31
7079,31
7080,31
7081,31
7082,31
7083,31
7084,31
7085,31
7086,31
7087,31
7088,31
7089,31
7090,31
7091,31
7092,31
7093,31
7094,31
7095,31
7096,32
7097,31
7098,31
7099,31
7100,31
7101,32
7102,31
7103,31
7104,31
7105,31
7106,31
7107,31
7108,33
7109,32
7110,32
7111,31
7112,31
7113,31
7114,31
7115,31
7116,31
7117,31
7118,31
7119,31
7120,32
7121,31
7122,31
7123,31
7124,31
7125,31
7126,31
7127,31
7128,31
7129,31
7130,31
7131,31
7132,32
7133,32
7134,32
7135,32
7136,32
7137,32
7138,32
7139,32
7140,33
7141,33
7142,33
7143,33
7144,32
7145,32
7146,32
7147,32
7148,31
7149,32
7150,32
7151,32
7152,32
7153,32
7154,32
7155,32
7156,32
7157,32
7158,32
7159,32
7160,31
7161,31
7162,31
7163,31
7164,31
7165,31
7166,31
7167,31
7168,31
7169,31
7170,31
7171,31
7172,31
7173,31
7174,31
7175,31
7176,31
7177,31
7178,31
7179,31
7180,31
7181,31
7182,31
7183,31
7184,31
7185,31
7186,31
7187,31
7188,31
7189,31
7190,31
7191,31
7192,31
7193,31
7194,31
7195,31
7196,31
7197,31
7198,31
7199,31
7200,31
7201,31
7202,31
7203,31
7204,31
7205,31
7206,31
7207,31
7208,31
7209,31
7210,31
7211,31
7212,31
7213,31
7214,31
7215,31
7216,31
7217,31
7218,31
7219,31
7220,31
7221,31
7222,31
7223,31
7224,31
7225,32
7226,32
7227,31
7228,32
7229,31
7230,31
7231,31
7232,31
7233,31
7234,31
7235,31
7236,31
7237,31
7238,31
7239,31
7240,31
7241,31
7242,31
7243,31
7244,31
7245,31
7246,31
7247,31
7248,31
7249,31
7250,31
7251,31
7252,31
7253,31
7254,31
7255,31
7256,32
7257,32
7258,34
7259,31
7260,31
7261,31
7262,31
7263,31
7264,31
7265,31
7266,31
7267,31
7268,31
7269,31
7270,31
7271,31
7272,31
7273,31
7274,31
7275,31
7276,31
7277,31
7278,31
7279,31
7280,31
7281,31
7282,31
7283,31
7284,31
7285,31
7286,32
7287,31
7288,31
7289,31
7290,31
7291,31
7292,31
7293,31
7294,31
7295,31
7296,32
7297,32
7298,32
7299,32
7300,32
7301,32
7302,32
7303,32
7304,32
7305,32
7306,32
7307,32
7308,32
7309,32
7310,32
7311,32
7312,32
7313,32
7314,32
7315,32
7316,32
7317,32
7318,32
7319,32
7320,32
7321,32
7322,32
7323,32
7324,32
7325,32
7326,32
7327,32
7328,32
7329,32
7330,32
7331,32
7332,32
7333,32
7334,32
7335,32
7336,32
7337,31
7338,31
7339,31
7340,31
7341,31
7342,31
7343,31
7344,31
7345,31
7346,31
7347,31
7348,31
7349,31
7350,31
7351,31
7352,31
7353,31
7354,31
7355,31
7356,31
7357,31
7358,31
7359,31
7360,31
7361,31
7362,31
7363,31
7364,31
7365,31
7366,31
7367,32
7368,31
7369,31
7370,31
7371,31
7372,32
7373,32
7374,32
7375,32
7376,31
7377,31
7378,31
7379,31
7380,31
7381,31
7382,31
7383,31
7384,31
7385,31
7386,31
7387,31
7388,31
7389,31
7390,31
7391,33
7392,32
7393,32
7394,32
7395,31
7396,31
7397,31
7398,31
7399,31
7400,31
7401,31
7402,31
7403,31
7404,31
7405,31
7406,31
7407,31
7408,31
7409,31
7410,31
7411,31
7412,31
7413,31
7414,31
7415,31
7416,31
7417,31
7418,31
7419,31
7420,31
7421,31
7422,31
7423,31
7424,31
7425,31
7426,31
7427,31
7428,31
7429,31
7430,31
7431,31
7432,31
7433,31
7434,31
7435,31
7436,31
7437,31
7438,31
7439,31
7440,31
7441,31
7442,31
7443,31
7444,31
7445,31
7446,31
7447,32
7448,32
7449,33
7450,32
7451,33
7452,32
7453,32
7454,32
7455,32
7456,32
7457,32
7458,32
7459,32
7460,32
7461,32
7462,32
7463,32
7464,33
7465,32
7466,32
7467,32
7468,32
7469,32
7470,32
7471,32
7472,32
7473,32
7474,32
7475,32
7476,32
7477,32
7478,32
7479,32
7480,32
7481,32
7482,32
7483,32
7484,32
7485,32
7486,32
7487,32
7488,32
7489,32
7490,32
7491,32
7492,32
7493,32
7494,32
7495,32
7496,32
7497,32
7498,33
7499,33
7500,33
7501,33
7502,33
7503,33
7504,32
7505,32
7506,32
7507,32
7508,32
7509,32
7510,33
7511,33
7512,33
7513,32
7514,32
7515,32
7516,32
7517,32
7518,32
7519,34
7520,33
7521,33
7522,33
7523,33
7524,33
7525,33
7526,33
7527,33
7528,33
7529,32
7530,32
7531,32
7532,32
7533,32
7534,32
7535,32
7536,32
7537,32
7538,32
7539,32
7540,32
7541,32
7542,33
7543,33
7544,33
7545,33
7546,32
7547,32
7548,32
7549,32
7550,32
7551,32
7552,32
7553,32
7554,32
7555,32
7556,32
7557,32
7558,32
7559,32
7560,32
7561,32
7562,31
7563,31
7564,31
7565,31
7566,31
7567,31
7568,31
7569,31
7570,31
7571,31
7572,31
7573,31
7574,32
7575,33
7576,32
7577,31
7578,31
7579,31
7580,32
7581,31
7582,32
7583,31
7584,31
7585,31
7586,31
7587,31
7588,31
7589,31
7590,31
7591,33
7592,33
7593,33
7594,32
7595,31
7596,31
7597,31
7598,31
7599,31
7600,31
7601,31
7602,31
7603,31
7604,31
7605,31
7606,32
7607,31
7608,31
7609,31
7610,31
7611,31
7612,31
7613,31
7614,31
7615,31
7616,31
7617,32
7618,31
7619,31
7620,31
7621,31
7622,31
7623,31
7624,31
7625,31
7626,31
7627,31
7628,31
7629,31
7630,31
7631,31
7632,31
7633,31
7634,31
7635,31
7636,31
7637,31
7638,31
7639,31
7640,32
7641,32
7642,32
7643,32
7644,32
7645,32
7646,32
7647,32
7648,32
7649,32
7650,32
7651,32
7652,32
7653,31
7654,31
7655,31
7656,31
7657,31
7658,31
7659,31
7660,31
7661,31
7662,31
7663,32
7664,32
7665,31
7666,31
7667,31
7668,31
7669,31
7670,31
7671,31
7672,31
7673,31
7674,31
7675,31
7676,31
7677,31
7678,31
7679,31
7680,31
7681,31
7682,31
7683,31
7684,31
7685,31
7686,31
7687,31
7688,31
7689,31
7690,31
7691,31
7692,31
7693,31
7694,31
7695,31
7696,31
7697,31
7698,31
7699,31
7700,31
7701,31
7702,31
7703,31
7704,31
7705,31
7706,31
7707,31
7708,31
7709,31
7710,31
7711,31
7712,31
7713,31
7714,31
7715,31
7716,31
7717,31
7718,31
7719,32
7720,31
7721,31
7722,32
7723,32
7724,32
7725,32
7726,32
7727,32
7728,32
7729,32
7730,32
7731,33
7732,33
7733,32
7734,32
7735,32
7736,32
7737,32
7738,32
7739,32
7740,32
7741,32
7742,32
7743,32
7744,32
7745,32
7746,33
7747,33
7748,32
7749,31
7750,31
7751,31
7752,31
7753,31
7754,31
7755,31
7756,31
7757,32
7758,32
7759,32
7760,31
7761,31
7762,32
7763,32
7764,32
7765,31
7766,31
7767,31
7768,31
7769,31
7770,31
7771,31
7772,31
7773,31
7774,31
7775,31
7776,31
7777,31
7778,31
7779,31
7780,31
7781,32
7782,32
7783,33
7784,32
7785,31
7786,31
7787,31
7788,31
7789,31
7790,31
7791,31
7792,31
7793,31
7794,31
7795,32
7796,32
7797,32
7798,32
7799,32
7800,32
7801,32
7802,32
7803,32
7804,32
7805,32
7806,33
7807,32
7808,32
7809,31
7810,32
7811,31
7812,31
7813,31
7814,31
7815,31
7816,31
7817,31
7818,31
7819,32
7820,31
7821,31
7822,31
7823,31
7824,31
7825,31
7826,31
7827,31
7828,31
7829,32
7830,31
7831,32
7832,31
7833,31
7834,31
7835,31
7836,31
7837,31
7838,31
7839,31
7840,31
7841,31
7842,31
7843,31
7844,31
7845,31
7846,31
7847,31
7848,31
7849,31
7850,31
7851,31
7852,31
7853,31
7854,31
7855,31
7856,31
7857,31
7858,31
7859,31
7860,31
7861,31
7862,31
7863,31
7864,31
7865,31
7866,31
7867,31
7868,31
7869,31
7870,32
7871,31
7872,31
7873,31
7874,31
7875,31
7876,31
7877,31
7878,31
7879,31
7880,31
7881,31
7882,31
7883,31
7884,31
7885,31
7886,31
7887,31
7888,31
7889,31
7890,31
7891,31
7892,31
7893,32
7894,32
7895,32
7896,32
7897,32
7898,32
7899,32
7900,32
7901,32
7902,33
7903,33
7904,32
7905,32
7906,32
7907,32
7908,32
7909,32
7910,33
7911,33
7912,33
7913,33
7914,33
7915,33
7916,33
7917,32
7918,32
7919,32
7920,32
7921,32
7922,32
7923,32
7924,32
7925,32
7926,32
7927,32
7928,32
7929,33
7930,33
7931,32
7932,32
7933,33
7934,33
7935,32
7936,32
7937,32
7938,32
7939,32
7940,32
7941,32
7942,33
7943,33
7944,33
7945,33
7946,33
7947,33
7948,33
7949,32
7950,32
7951,32
7952,32
7953,34
7954,34
7955,32
7956,32
7957,32
7958,32
7959,33
7960,33
7961,33
7962,33
7963,32
7964,32
7965,32
7966,32
7967,32
7968,32
7969,32
7970,33
7971,33
7972,33
7973,33
7974,32
7975,32
7976,32
7977,32
7978,32
7979,33
7980,32
7981,32
7982,33
7983,33
7984,34
7985,32
7986,32
7987,32
7988,32
7989,33
7990,32
7991,32
7992,32
7993,32
7994,32
7995,32
7996,33
7997,33
7998,32
7999,32
8000,32
8001,32
8002,32
8003,32
8004,32
8005,32
8006,32
8007,32
8008,33
8009,33
8010,34
8011,34
8012,34
8013,34
8014,34
8015,33
8016,33
8017,33
8018,33
8019,34
8020,33
8021,33
8022,33
8023,32
8024,32
8025,32
8026,32
8027,32
8028,32
8029,32
8030,33
8031,33
8032,33
8033,33
8034,33
8035,33
8036,33
8037,33
8038,33
8039,33
8040,34
8041,33
8042,33
8043,33
8044,33
8045,33
8046,33
8047,33
8048,33
8049,33
8050,33
8051,33
8052,33
8053,33
8054,33
8055,33
8056,33
8057,33
8058,33
8059,33
8060,33
8061,33
8062,33
8063,32
8064,32
8065,33
8066,32
8067,32
8068,32
8069,32
8070,32
8071,32
8072,32
8073,32
8074,32
8075,32
8076,32
8077,32
8078,32
8079,32
8080,32
8081,32
8082,32
8083,32
8084,32
8085,32
8086,32
8087,31
8088,31
8089,31
8090,31
8091,33
8092,31
8093,31
8094,32
8095,32
8096,32
8097,32
8098,33
8099,31
8100,31
8101,31
8102,31
8103,31
8104,31
8105,31
8106,31
8107,31
8108,31
8109,31
8110,31
8111,31
8112,31
8113,31
8114,31
8115,31
8116,31
8117,31
8118,31
8119,31
8120,31
8121,31
8122,31
8123,31
8124,31
8125,31
8126,31
8127,31
8128,31
8129,31
8130,31
8131,31
8132,31
8133,31
8134,31
8135,31
8136,31
8137,31
8138,31
8139,31
8140,31
8141,32
8142,32
8143,32
8144,32
8145,32
8146,32
8147,32
8148,32
8149,32
8150,32
8151,32
8152,32
8153,33
8154,33
8155,32
8156,32
8157,32
8158,31
8159,31
8160,31
8161,31
8162,31
8163,31
8164,31
8165,31
8166,31
8167,31
8168,31
8169,32
8170,32
8171,33
8172,32
8173,32
8174,32
8175,31
8176,31
8177,31
8178,31
8179,31
8180,31
8181,31
8182,31
8183,31
8184,31
8185,31
8186,31
8187,31
8188,31
8189,31
8190,31
8191,31
8192,31
8193,31
8194,31
8195,31
8196,31
8197,31
8198,31
8199,31
8200,31
8201,31
8202,31
8203,31
8204,31
8205,32
8206,31
8207,31
8208,31
8209,31
8210,31
8211,31
8212,31
8213,32
8214,33
8215,31
8216,31
8217,31
8218,32
8219,32
8220,31
8221,31
8222,31
8223,31
8224,31
8225,31
8226,32
8227,32
8228,32
8229,32
8230,32
8231,32
8232,32
8233,32
8234,32
8235,31
8236,31
8237,31
8238,31
8239,31
8240,31
8241,31
8242,31
8243,31
8244,31
8245,32
8246,32
8247,31
8248,31
8249,31
8250,31
8251,31
8252,31
8253,31
8254,31
8255,32
8256,32
8257,31
8258,31
8259,31
8260,31
8261,31
8262,32
8263,32
8264,32
8265,32
8266,32
8267,32
8268,32
8269,32
8270,32
8271,32
8272,32
8273,32
8274,32
8275,31
8276,31
8277,31
8278,32
8279,32
8280,32
8281,32
8282,32
8283,32
8284,32
8285,32
8286,33
8287,33
8288,33
8289,32
8290,31
8291,31
8292,31
8293,31
8294,31
8295,31
8296,31
8297,31
8298,31
8299,31
8300,31
8301,31
8302,31
8303,31
8304,31
8305,31
8306,31
8307,31
8308,31
8309,31
8310,31
8311,31
8312,31
8313,31
8314,31
8315,31
8316,31
8317,31
8318,31
8319,31
8320,31
8321,31
8322,31
8323,31
8324,31
8325,31
8326,31
8327,31
8328,31
8329,31
8330,31
8331,31
8332,31
8333,32
8334,32
8335,32
8336,32
8337,32
8338,32
8339,32
8340,31
8341,31
8342,31
8343,31
8344,31
8345,31
8346,31
8347,31
8348,31
8349,32
8350,32
8351,31
8352,31
8353,32
8354,31
8355,31
8356,31
8357,32
8358,32
8359,32
8360,31
8361,31
8362,31
8363,31
8364,31
8365,31
8366,32
8367,32
8368,31
8369,31
8370,31
8371,31
8372,31
8373,31
8374,31
8375,31
8376,31
8377,31
8378,31
8379,31
8380,31
8381,31
8382,31
8383,31
8384,31
8385,31
8386,31
8387,31
8388,31
8389,32
8390,31
8391,31
8392,31
8393,31
8394,31
8395,31
8396,31
8397,31
8398,32
8399,32
8400,32
8401,31
8402,31
8403,31
8404,32
8405,31
8406,31
8407,31
8408,31
8409,31
8410,31
8411,31
8412,31
8413,31
8414,31
8415,31
8416,31
8417,31
8418,31
8419,31
8420,31
8421,31
8422,31
8423,31
8424,31
8425,31
8426,31
8427,31
8428,31
8429,31
8430,31
8431,31
8432,31
8433,31
8434,31
8435,31
8436,31
8437,31
8438,31
8439,31
8440,31
8441,31
8442,31
8443,31
8444,32
8445,32
8446,32
8447,32
8448,32
8449,32
8450,32
8451,32
8452,32
8453,32
8454,32
8455,32
8456,32
8457,32
8458,33
8459,32
8460,31
8461,31
8462,31
8463,31
8464,31
8465,31
8466,31
8467,31
8468,32
8469,31
8470,32
8471,31
8472,31
8473,31
8474,31
8475,31
8476,31
8477,31
8478,31
8479,31
8480,31
8481,31
8482,31
8483,31
8484,31
8485,31
8486,31
8487,31
8488,31
8489,31
8490,31
8491,32
8492,31
8493,31
8494,31
8495,31
8496,31
8497,31
8498,31
8499,31
8500,31
8501,31
8502,31
8503,31
8504,31
8505,31
8506,31
8507,31
8508,31
8509,31
8510,31
8511,31
8512,31
8513,32
8514,31
8515,31
8516,31
8517,32
8518,31
8519,31
8520,31
8521,31
8522,31
8523,31
8524,31
8525,31
8526,31
8527,31
8528,31
8529,31
8530,32
8531,32
8532,32
8533,32
8534,32
8535,32
8536,32
8537,32
8538,32
8539,32
8540,32
8541,32
8542,32
8543,32
8544,32
8545,32
8546,32
8547,32
8548,33
8549,32
8550,32
8551,32
8552,32
8553,32
8554,32
8555,33
8556,32
8557,32
8558,32
8559,32
8560,32
8561,32
8562,32
8563,32
8564,32
8565,32
8566,32
8567,32
8568,32
8569,33
8570,32
8571,32
8572,32
8573,32
8574,32
8575,32
8576,32
8577,32
8578,33
8579,32
8580,32
8581,33
8582,33
8583,33
8584,32
8585,32
8586,32
8587,32
8588,32
8589,32
8590,32
8591,32
8592,32
8593,32
8594,32
8595,32
8596,32
8597,33
8598,33
8599,33
8600,33
8601,33
8602,33
8603,33
8604,33
8605,33
8606,33
8607,33
8608,33
8609,33
8610,33
8611,33
8612,33
8613,33
8614,32
8615,32
8616,32
8617,33
8618,32
8619,33
8620,32
8621,32
8622,31
8623,31
8624,31
8625,31
8626,31
8627,31
8628,31
8629,31
8630,31
8631,31
8632,31
8633,31
8634,31
8635,31
8636,31
8637,31
8638,31
8639,31
8640,31
8641,31
8642,31
8643,31
8644,31
8645,32
8646,32
8647,31
8648,31
8649,31
8650,31
8651,31
8652,31
8653,31
8654,31
8655,31
8656,31
8657,31
8658,31
8659,31
8660,31
8661,31
8662,31
8663,31
8664,31
8665,31
8666,31
8667,31
8668,31
8669,31
8670,31
8671,32
8672,31
8673,31
8674,31
8675,31
8676,31
8677,31
8678,31
8679,31
8680,31
8681,31
8682,31
8683,31
8684,31
8685,31
8686,31
8687,31
8688,31
8689,31
8690,31
8691,31
8692,32
8693,32
8694,32
8695,32
8696,32
8697,32
8698,32
8699,32
8700,32
8701,33
8702,33
8703,33
8704,33
8705,33
8706,33
8707,33
8708,32
8709,31
8710,31
8711,31
8712,31
8713,31
8714,31
8715,31
8716,31
8717,31
8718,31
8719,31
8720,31
8721,31
8722,31
8723,31
8724,31
8725,31
8726,31
8727,31
8728,31
8729,31
8730,31
8731,31
8732,31
8733,31
8734,31
8735,31
8736,31
8737,31
8738,31
8739,32
8740,31
8741,31
8742,31
8743,31
8744,31
8745,31
8746,31
8747,31
8748,31
8749,31
8750,31
8751,32
8752,33
8753,32
8754,32
8755,32
8756,32
8757,32
8758,32
8759,31
8760,31
8761,31
8762,32
8763,32
8764,32
8765,32
8766,32
8767,32
8768,33
8769,33
8770,32
8771,32
8772,32
8773,32
8774,32
8775,32
8776,32
8777,32
8778,32
8779,32
8780,32
8781,32
8782,32
8783,32
8784,33
8785,33
8786,33
8787,32
8788,32
8789,32
8790,32
8791,32
8792,32
8793,32
8794,32
8795,32
8796,32
8797,32
8798,32
8799,32
8800,32
8801,32
8802,32
8803,32
8804,32
8805,32
8806,32
8807,32
8808,32
8809,33
8810,33
8811,33
8812,32
8813,32
8814,32
8815,32
8816,32
8817,32
8818,32
8819,32
8820,32
8821,32
8822,32
8823,32
8824,32
8825,32
8826,32
8827,32
8828,32
8829,32
8830,32
8831,32
8832,32
8833,33
8834,32
8835,32
8836,32
8837,32
8838,32
8839,32
8840,32
8841,32
8842,32
8843,32
8844,32
8845,32
8846,32
8847,33
8848,32
8849,32
8850,32
8851,32
8852,32
8853,32
8854,32
8855,32
8856,32
8857,32
8858,32
8859,32
8860,32
8861,32
8862,32
8863,32
8864,32
8865,32
8866,32
8867,32
8868,32
8869,32
8870,32
8871,32
8872,32
8873,32
8874,32
8875,32
8876,32
8877,32
8878,33
8879,33
8880,33
8881,34
8882,33
8883,33
8884,32
8885,32
8886,32
8887,32
8888,32
8889,32
8890,32
8891,32
8892,32
8893,33
8894,34
8895,34
8896,33
8897,32
8898,32
8899,32
8900,32
8901,32
8902,32
8903,32
8904,32
8905,32
8906,32
8907,32
8908,32
8909,32
8910,32
8911,33
8912,32
8913,32
8914,32
8915,32
8916,32
8917,32
8918,32
8919,32
8920,32
8921,32
8922,32
8923,32
8924,32
8925,32
8926,32
8927,32
8928,32
8929,32
8930,32
8931,32
8932,32
8933,32
8934,33
8935,32
8936,32
8937,32
8938,32
8939,32
8940,32
8941,32
8942,32
8943,32
8944,32
8945,32
8946,32
8947,33
8948,33
8949,32
8950,32
8951,32
8952,32
8953,32
8954,32
8955,32
8956,32
8957,32
8958,32
8959,32
8960,32
8961,32
8962,32
8963,33
8964,32
8965,32
8966,32
8967,32
8968,32
8969,32
8970,32
8971,32
8972,33
8973,32
8974,32
8975,33
8976,33
8977,34
8978,32
8979,32
8980,32
8981,32
8982,32
8983,32
8984,32
8985,32
8986,32
8987,32
8988,32
8989,32
8990,32
8991,32
8992,32
8993,32
8994,32
8995,32
8996,32
8997,32
8998,32
8999,33
9000,32
9001,32
9002,32
9003,32
9004,32
9005,32
9006,32
9007,32
9008,32
9009,32
9010,32
9011,32
9012,32
9013,32
9014,32
9015,32
9016,33
9017,34
9018,34
9019,33
9020,33
9021,32
9022,32
9023,32
9024,32
9025,32
9026,32
9027,32
9028,32
9029,32
9030,32
9031,32
9032,33
9033,33
9034,32
9035,32
9036,33
9037,32
9038,32
9039,32
9040,32
9041,32
9042,32
9043,32
9044,32
9045,32
9046,32
9047,32
9048,32
9049,32
9050,33
9051,34
9052,32
9053,32
9054,32
9055,32
9056,32
9057,32
9058,32
9059,32
9060,33
9061,33
9062,33
9063,32
9064,32
9065,33
9066,33
9067,33
9068,33
9069,33
9070,33
9071,33
9072,33
9073,33
9074,33
9075,32
9076,32
9077,32
9078,32
9079,33
9080,33
9081,33
9082,33
9083,33
9084,33
9085,34
9086,34
9087,33
9088,32
9089,34
9090,33
9091,32
9092,32
9093,32
9094,32
9095,32
9096,32
9097,32
9098,32
9099,32
9100,32
9101,32
9102,32
9103,31
9104,32
9105,32
9106,31
9107,31
9108,31
9109,31
9110,31
9111,31
9112,31
9113,31
9114,31
9115,31
9116,31
9117,31
9118,31
9119,31
9120,31
9121,31
9122,31
9123,31
9124,32
9125,32
9126,31
9127,31
9128,31
9129,31
9130,31
9131,31
9132,31
9133,31
9134,31
9135,31
9136,31
9137,31
9138,31
9139,31
9140,31
9141,31
9142,31
9143,31
9144,31
9145,31
9146,31
9147,31
9148,31
9149,31
9150,31
9151,31
9152,31
9153,31
9154,31
9155,31
9156,31
9157,31
9158,31
9159,31
9160,31
9161,31
9162,32
9163,32
9164,32
9165,31
9166,31
9167,31
9168,31
9169,31
9170,31
9171,31
9172,31
9173,31
9174,31
9175,31
9176,31
9177,32
9178,32
9179,33
9180,33
9181,33
9182,33
9183,33
9184,34
9185,33
9186,33
9187,32
9188,32
9189,32
9190,32
9191,32
9192,32
9193,32
9194,32
9195,32
9196,32
9197,33
9198,32
9199,32
9200,32
9201,32
9202,32
9203,32
9204,32
9205,32
9206,32
9207,32
9208,32
9209,32
9210,33
9211,33
9212,33
9213,33
9214,33
9215,33
9216,33
9217,32
9218,32
9219,32
9220,32
9221,32
9222,32
9223,32
9224,32
9225,32
9226,32
9227,32
9228,32
9229,32
9230,32
9231,33
9232,33
9233,34
9234,33
9235,33
9236,33
9237,33
9238,33
9239,34
9240,33
9241,32
9242,32
9243,32
9244,32
9245,33
9246,32
9247,32
9248,32
9249,32
9250,32
9251,32
9252,32
9253,32
9254,32
9255,32
9256,32
9257,32
9258,32
9259,32
9260,32
9261,32
9262,32
9263,32
9264,32
9265,32
9266,32
9267,32
9268,32
9269,32
9270,32
9271,32
9272,32
9273,32
9274,33
9275,33
9276,33
9277,32
9278,32
9279,32
9280,32
9281,32
9282,32
9283,32
9284,32
9285,32
9286,32
9287,32
9288,33
9289,33
9290,33
9291,33
9292,33
9293,33
9294,33
9295,33
9296,33
9297,33
9298,33
9299,33
9300,33
9301,33
9302,33
9303,33
9304,33
9305,33
9306,33
9307,33
9308,33
9309,33
9310,33
9311,33
9312,33
9313,33
9314,33
9315,33
9316,34
9317,35
9318,34
9319,34
9320,33
9321,33
9322,33
9323,33
9324,33
9325,33
9326,33
9327,33
9328,33
9329,33
9330,33
9331,33
9332,33
9333,33
9334,33
9335,33
9336,33
9337,33
9338,33
9339,33
9340,34
9341,34
9342,34
9343,35
9344,33
9345,33
9346,33
9347,33
9348,34
9349,33
9350,33
9351,33
9352,33
9353,33
9354,33
9355,33
9356,33
9357,34
9358,34
9359,34
9360,33
9361,33
9362,33
9363,34
9364,34
9365,33
9366,33
9367,33
9368,33
9369,33
9370,33
9371,33
9372,33
9373,34
9374,34
9375,34
9376,34
9377,33
9378,33
9379,34
9380,34
9381,34
9382,34
9383,34
9384,33
9385,34
9386,34
9387,34
9388,34
9389,34
9390,34
9391,33
9392,33
9393,34
9394,34
9395,34
9396,34
9397,34
9398,34
9399,34
9400,33
9401,33
9402,33
9403,33
9404,33
9405,33
9406,33
9407,34
9408,35
9409,33
9410,33
9411,33
9412,33
9413,33
9414,33
9415,33
9416,33
9417,33
9418,33
9419,33
9420,33
9421,33
9422,33
9423,33
9424,33
9425,33
9426,33
9427,33
9428,33
9429,33
9430,33
9431,33
9432,33
9433,33
9434,33
9435,33
9436,33
9437,33
9438,33
9439,33
9440,33
9441,33
9442,33
9443,33
9444,33
9445,33
9446,33
9447,33
9448,33
9449,33
9450,33
9451,33
9452,33
9453,33
9454,33
9455,33
9456,33
9457,33
9458,33
9459,33
9460,33
9461,33
9462,33
9463,33
9464,33
9465,33
9466,33
9467,33
9468,33
9469,33
9470,33
9471,33
9472,33
9473,33
9474,33
9475,33
9476,33
9477,33
9478,33
9479,33
9480,33
9481,33
9482,33
9483,33
9484,33
9485,33
9486,33
9487,33
9488,33
9489,33
9490,33
9491,33
9492,33
9493,33
9494,33
9495,33
9496,33
9497,33
9498,33
9499,33
9500,33
9501,33
9502,33
9503,33
9504,34
9505,34
9506,34
9507,33
9508,33
9509,33
9510,33
9511,33
9512,33
9513,33
9514,33
9515,33
9516,33
9517,33
9518,33
9519,33
9520,33
9521,33
9522,33
9523,33
9524,34
9525,33
9526,33
9527,34
9528,33
9529,33
9530,33
9531,33
9532,33
9533,33
9534,33
9535,34
9536,34
9537,34
9538,34
9539,33
9540,33
9541,33
9542,34
9543,34
9544,34
9545,33
9546,33
9547,33
9548,33
9549,33
9550,33
9551,33
9552,33
9553,33
9554,33
9555,33
9556,33
9557,33
9558,33
9559,33
9560,33
9561,33
9562,33
9563,33
9564,33
9565,33
9566,33
9567,33
9568,33
9569,33
9570,33
9571,33
9572,33
9573,33
9574,33
9575,33
9576,33
9577,33
9578,33
9579,33
9580,33
9581,33
9582,33
9583,33
9584,33
9585,33
9586,33
9587,33
9588,33
9589,33
9590,33
9591,33
9592,33
9593,33
9594,33
9595,33
9596,33
9597,33
9598,33
9599,33
9600,33
9601,33
9602,33
9603,33
9604,33
9605,33
9606,33
9607,33
9608,33
9609,33
9610,33
9611,33
9612,33
9613,33
9614,33
9615,33
9616,33
9617,33
9618,33
9619,33
9620,33
9621,33
9622,33
9623,33
9624,33
9625,33
9626,34
9627,34
9628,33
9629,33
9630,33
9631,33
9632,33
9633,33
9634,33
9635,33
9636,33
9637,33
9638,33
9639,33
9640,33
9641,33
9642,34
9643,35
9644,35
9645,34
9646,34
9647,34
9648,34
9649,34
9650,35
9651,34
9652,34
9653,33
9654,33
9655,33
9656,33
9657,33
9658,34
9659,33
9660,33
9661,33
9662,33
9663,33
9664,33
9665,33
9666,35
9667,35
9668,35
9669,36
9670,35
9671,35
9672,35
9673,34
9674,33
9675,33
9676,33
9677,33
9678,33
9679,33
9680,33
9681,33
9682,33
9683,33
9684,33
9685,33
9686,33
9687,33
9688,33
9689,33
9690,33
9691,33
9692,33
9693,33
9694,33
9695,33
9696,34
9697,34
9698,34
9699,34
9700,34
9701,34
9702,33
9703,33
9704,33
9705,33
9706,33
9707,33
9708,33
9709,33
9710,33
9711,33
9712,33
9713,33
9714,33
9715,33
9716,33
9717,33
9718,33
9719,33
9720,33
9721,33
9722,33
9723,33
9724,33
9725,33
9726,33
9727,33
9728,33
9729,34
9730,33
9731,33
9732,33
9733,33
9734,33
9735,33
9736,33
9737,33
9738,33
9739,33
9740,33
9741,33
9742,33
9743,33
9744,34
9745,33
9746,33
9747,33
9748,33
9749,33
9750,33
9751,33
9752,33
9753,33
9754,33
9755,33
9756,33
9757,33
9758,33
9759,33
9760,33
9761,33
9762,33
9763,33
9764,33
9765,33
9766,33
9767,33
9768,33
9769,33
9770,33
9771,33
9772,33
9773,33
9774,33
9775,33
9776,33
9777,34
9778,33
9779,33
9780,33
9781,33
9782,33
9783,33
9784,33
9785,33
9786,33
9787,34
9788,34
9789,34
9790,34
9791,33
9792,33
9793,33
9794,33
9795,33
9796,33
9797,33
9798,33
9799,33
9800,33
9801,33
9802,33
9803,33
9804,33
9805,33
9806,33
9807,33
9808,33
9809,33
9810,33
9811,33
9812,33
9813,34
9814,34
9815,34
9816,34
9817,34
9818,34
9819,34
9820,35
9821,34
9822,34
9823,34
9824,34
9825,34
9826,34
9827,34
9828,33
9829,33
9830,33
9831,33
9832,33
9833,33
9834,33
9835,33
9836,33
9837,33
9838,33
9839,33
9840,33
9841,33
9842,33
9843,33
9844,33
9845,33
9846,33
9847,33
9848,33
9849,33
9850,34
9851,34
9852,33
9853,33
9854,33
9855,33
9856,33
9857,33
9858,33
9859,33
9860,33
9861,33
9862,34
9863,34
9864,33
9865,33
9866,33
9867,34
9868,33
9869,33
9870,33
9871,33
9872,33
9873,33
9874,33
9875,33
9876,33
9877,33
9878,33
9879,33
9880,33
9881,33
9882,33
9883,33
9884,33
9885,33
9886,33
9887,33
9888,33
9889,33
9890,33
9891,33
9892,33
9893,33
9894,33
9895,33
9896,33
9897,33
9898,33
9899,33
9900,33
9901,33
9902,33
9903,33
9904,33
9905,33
9906,33
9907,33
9908,33
9909,33
9910,33
9911,33
9912,33
9913,33
9914,33
9915,33
9916,33
9917,33
9918,33
9919,33
9920,33
9921,33
9922,33
9923,33
9924,33
9925,33
9926,33
9927,34
9928,33
9929,33
9930,33
9931,33
9932,33
9933,33
9934,34
9935,33
9936,33
9937,33
9938,33
9939,33
9940,33
9941,34
9942,34
9943,35
9944,34
9945,34
9946,34
9947,33
9948,33
9949,33
9950,33
9951,33
9952,33
9953,33
9954,33
9955,34
9956,34
9957,34
9958,34
9959,34
9960,34
9961,34
9962,34
9963,34
9964,34
9965,34
9966,34
9967,33
9968,33
9969,33
9970,33
9971,33
9972,34
9973,34
9974,34
9975,34
9976,34
9977,34
9978,34
9979,34
9980,34
9981,34
9982,34
9983,34
9984,34
9985,34
9986,34
9987,34
9988,34
9989,34
9990,34
9991,34
9992,34
9993,34
9994,34
9995,34
9996,34
9997,34
9998,34
9999,34
10000,34
