1,3
2,3
3,3
4,3
5,3
6,3
7,3
8,3
9,3
10,3
11,3
12,3
13,3
14,3
15,3
16,3
17,3
18,3
19,3
20,3
21,3
22,3
23,3
24,3
25,3
26,3
27,3
28,3
29,3
30,3
31,3
32,3
33,3
34,3
35,3
36,3
37,3
38,3
39,3
40,3
41,3
42,3
43,3
44,3
45,3
46,3
47,3
48,3
49,3
50,3
51,3
52,3
53,3
54,3
55,3
56,3
57,3
58,3
59,3
60,3
61,3
62,3
63,3
64,3
65,3
66,3
67,3
68,3
69,3
70,3
71,3
72,3
73,3
74,3
75,3
76,3
77,3
78,3
79,3
80,3
81,3
82,3
83,3
84,3
85,3
86,3
87,3
88,3
89,3
90,3
91,3
92,3
93,4
94,4
95,4
96,4
97,5
98,5
99,5
100,5
101,5
102,5
103,5
104,5
105,5
106,5
107,5
108,5
109,6
110,5
111,5
112,5
113,5
114,5
115,5
116,5
117,5
118,6
119,5
120,5
121,5
122,5
123,5
124,5
125,5
126,6
127,6
128,7
129,6
130,6
131,7
132,6
133,6
134,7
135,7
136,7
137,7
138,7
139,7
140,7
141,7
142,7
143,7
144,7
145,7
146,7
147,7
148,7
149,7
150,7
151,8
152,7
153,7
154,7
155,7
156,7
157,7
158,7
159,7
160,7
161,7
162,8
163,8
164,8
165,8
166,8
167,8
168,8
169,8
170,8
171,8
172,8
173,8
174,8
175,8
176,8
177,9
178,8
179,8
180,8
181,8
182,8
183,8
184,8
185,8
186,8
187,8
188,8
189,8
190,8
191,8
192,8
193,8
194,8
195,9
196,9
197,8
198,8
199,8
200,8
201,8
202,8
203,8
204,8
205,8
206,8
207,8
208,8
209,9
210,8
211,8
212,8
213,8
214,8
215,8
216,8
217,8
218,8
219,8
220,8
221,8
222,8
223,8
224,9
225,8
226,8
227,9
228,8
229,8
230,8
231,8
232,8
233,8
234,8
235,8
236,8
237,8
238,8
239,8
240,8
241,8
242,8
243,8
244,8
245,8
246,8
247,8
248,8
249,8
250,8
251,9
252,8
253,8
254,8
255,8
256,8
257,8
258,9
259,8
260,8
261,8
262,8
263,8
264,8
265,8
266,9
267,9
268,9
269,9
270,9
271,8
272,8
273,8
274,8
275,8
276,8
277,8
278,8
279,8
280,8
281,8
282,8
283,9
284,9
285,9
286,9
287,9
288,9
289,9
290,9
291,8
292,8
293,8
294,8
295,8
296,8
297,8
298,8
299,8
300,9
301,8
302,8
303,9
304,9
305,8
306,8
307,8
308,8
309,8
310,8
311,8
312,8
313,8
314,8
315,8
316,8
317,8
318,8
319,8
320,8
321,8
322,8
323,8
324,8
325,8
326,8
327,8
328,8
329,8
330,9
331,8
332,8
333,8
334,8
335,8
336,9
337,9
338,9
339,9
340,9
341,9
342,9
343,9
344,9
345,9
346,9
347,9
348,9
349,9
350,9
351,9
352,9
353,9
354,9
355,8
356,8
357,8
358,8
359,8
360,8
361,8
362,8
363,8
364,8
365,8
366,8
367,8
368,8
369,8
370,8
371,8
372,8
373,8
374,8
375,8
376,8
377,9
378,9
379,9
380,10
381,9
382,9
383,9
384,9
385,9
386,9
387,9
388,9
389,9
390,9
391,9
392,9
393,9
394,8
395,8
396,8
397,8
398,8
399,8
400,8
401,8
402,8
403,8
404,8
405,8
406,8
407,8
408,8
409,8
410,8
411,8
412,8
413,8
414,8
415,8
416,8
417,8
418,8
419,8
420,8
421,8
422,9
423,8
424,9
425,8
426,8
427,8
428,8
429,8
430,8
431,8
432,8
433,8
434,9
435,9
436,9
437,9
438,9
439,9
440,9
441,9
442,9
443,10
444,10
445,10
446,10
447,10
448,10
449,10
450,10
451,10
452,10
453,10
454,10
455,10
456,10
457,10
458,10
459,10
460,10
461,10
462,10
463,10
464,10
465,10
466,10
467,10
468,10
469,10
470,10
471,10
472,10
473,10
474,10
475,10
476,10
477,10
478,10
479,10
480,10
481,10
482,10
483,10
484,11
485,11
486,11
487,11
488,11
489,11
490,11
491,11
492,11
493,11
494,11
495,11
496,11
497,11
498,11
499,11
500,11
501,11
502,11
503,11
504,11
505,11
506,11
507,11
508,11
509,11
510,11
511,11
512,11
513,12
514,13
515,13
516,13
517,13
518,13
519,14
520,13
521,13
522,13
523,13
524,13
525,13
526,13
527,13
528,13
529,13
530,13
531,13
532,13
533,13
534,13
535,13
536,13
537,13
538,13
539,13
540,13
541,13
542,13
543,13
544,13
545,13
546,13
547,13
548,13
549,13
550,13
551,13
552,14
553,13
554,13
555,13
556,13
557,13
558,13
559,13
560,13
561,13
562,13
563,13
564,14
565,13
566,13
567,13
568,13
569,13
570,13
571,14
572,14
573,13
574,13
575,13
576,14
577,13
578,13
579,14
580,13
581,13
582,13
583,13
584,13
585,13
586,13
587,14
588,14
589,14
590,13
591,13
592,13
593,13
594,13
595,13
596,13
597,13
598,13
599,13
600,14
601,14
602,14
603,14
604,14
605,14
606,14
607,15
608,14
609,14
610,14
611,14
612,13
613,13
614,13
615,13
616,13
617,13
618,13
619,13
620,13
621,13
622,13
623,13
624,13
625,13
626,13
627,13
628,13
629,13
630,13
631,14
632,14
633,13
634,13
635,13
636,13
637,13
638,13
639,13
640,13
641,13
642,13
643,13
644,14
645,13
646,13
647,13
648,13
649,13
650,13
651,13
652,13
653,13
654,13
655,13
656,13
657,13
658,13
659,13
660,13
661,14
662,13
663,13
664,13
665,13
666,13
667,13
668,13
669,13
670,13
671,13
672,13
673,13
674,14
675,14
676,14
677,14
678,14
679,14
680,14
681,14
682,14
683,14
684,14
685,15
686,14
687,14
688,14
689,14
690,14
691,14
692,14
693,14
694,14
695,14
696,14
697,14
698,14
699,14
700,14
701,14
702,14
703,14
704,14
705,14
706,14
707,14
708,14
709,14
710,14
711,14
712,14
713,14
714,14
715,14
716,14
717,14
718,14
719,14
720,14
721,14
722,14
723,14
724,14
725,14
726,14
727,14
728,14
729,14
730,14
731,14
732,15
733,14
734,14
735,14
736,15
737,14
738,14
739,14
740,14
741,14
742,14
743,14
744,14
745,14
746,14
747,14
748,14
749,14
750,14
751,14
752,15
753,15
754,16
755,16
756,16
757,15
758,15
759,15
760,15
761,15
762,15
763,15
764,15
765,15
766,15
767,15
768,15
769,15
770,15
771,15
772,15
773,15
774,15
775,15
776,15
777,15
778,15
779,15
780,15
781,15
782,15
783,15
784,15
785,15
786,15
787,15
788,15
789,15
790,15
791,15
792,15
793,15
794,15
795,16
796,15
797,16
798,16
799,15
800,15
801,15
802,15
803,15
804,15
805,15
806,15
807,15
808,15
809,15
810,15
811,15
812,15
813,15
814,15
815,15
816,15
817,15
818,15
819,15
820,15
821,15
822,15
823,15
824,15
825,15
826,15
827,15
828,15
829,15
830,15
831,15
832,15
833,15
834,15
835,15
836,15
837,15
838,15
839,15
840,15
841,15
842,15
843,15
844,15
845,15
846,15
847,15
848,15
849,15
850,15
851,15
852,15
853,15
854,15
855,15
856,15
857,15
858,15
859,15
860,15
861,15
862,15
863,15
864,15
865,16
866,16
867,15
868,15
869,15
870,15
871,15
872,15
873,15
874,15
875,15
876,15
877,15
878,15
879,15
880,15
881,15
882,15
883,15
884,15
885,15
886,15
887,16
888,15
889,15
890,15
891,15
892,15
893,15
894,15
895,15
896,15
897,15
898,15
899,16
900,16
901,16
902,16
903,16
904,16
905,16
906,17
907,17
908,16
909,16
910,16
911,16
912,16
913,16
914,16
915,17
916,16
917,16
918,16
919,16
920,16
921,16
922,16
923,16
924,16
925,17
926,17
927,17
928,18
929,18
930,17
931,17
932,16
933,16
934,16
935,16
936,16
937,16
938,16
939,16
940,16
941,16
942,16
943,16
944,16
945,16
946,16
947,16
948,16
949,16
950,16
951,16
952,16
953,16
954,16
955,16
956,16
957,16
958,16
959,16
960,16
961,16
962,16
963,16
964,17
965,17
966,17
967,17
968,17
969,17
970,17
971,17
972,17
973,17
974,18
975,17
976,18
977,18
978,17
979,17
980,17
981,17
982,17
983,17
984,17
985,17
986,17
987,17
988,17
989,17
990,17
991,17
992,17
993,17
994,17
995,17
996,18
997,18
998,18
999,18
1000,18
1001,18
1002,17
1003,17
1004,17
1005,17
1006,17
1007,17
1008,17
1009,17
1010,17
1011,18
1012,18
1013,18
1014,18
1015,18
1016,18
1017,18
1018,18
1019,20
1020,19
1021,18
1022,18
1023,18
1024,17
1025,17
1026,17
1027,17
1028,17
1029,17
1030,17
1031,17
1032,17
1033,17
1034,17
1035,17
1036,17
1037,17
1038,17
1039,17
1040,18
1041,17
1042,17
1043,17
1044,17
1045,17
1046,17
1047,17
1048,17
1049,17
1050,17
1051,17
1052,17
1053,17
1054,17
1055,17
1056,17
1057,17
1058,17
1059,17
1060,17
1061,17
1062,17
1063,17
1064,17
1065,17
1066,17
1067,17
1068,17
1069,17
1070,17
1071,17
1072,17
1073,17
1074,17
1075,17
1076,17
1077,17
1078,17
1079,17
1080,17
1081,17
1082,17
1083,17
1084,17
1085,17
1086,17
1087,18
1088,18
1089,17
1090,17
1091,17
1092,17
1093,17
1094,17
1095,17
1096,17
1097,18
1098,18
1099,18
1100,19
1101,20
1102,19
1103,19
1104,19
1105,18
1106,19
1107,19
1108,19
1109,19
1110,19
1111,18
1112,18
1113,18
1114,18
1115,18
1116,18
1117,18
1118,18
1119,18
1120,18
1121,18
1122,18
1123,18
1124,18
1125,18
1126,18
1127,18
1128,18
1129,18
1130,18
1131,18
1132,18
1133,18
1134,18
1135,18
1136,18
1137,18
1138,18
1139,18
1140,18
1141,18
1142,18
1143,18
1144,18
1145,18
1146,18
1147,18
1148,18
1149,18
1150,18
1151,18
1152,18
1153,18
1154,18
1155,18
1156,18
1157,19
1158,18
1159,18
1160,18
1161,18
1162,18
1163,18
1164,18
1165,18
1166,18
1167,18
1168,18
1169,18
1170,18
1171,18
1172,18
1173,19
1174,18
1175,18
1176,18
1177,18
1178,18
1179,18
1180,18
1181,18
1182,18
1183,18
1184,19
1185,19
1186,18
1187,18
1188,18
1189,18
1190,18
1191,18
1192,18
1193,18
1194,18
1195,18
1196,18
1197,18
1198,18
1199,18
1200,18
1201,18
1202,18
1203,18
1204,18
1205,18
1206,18
1207,18
1208,18
1209,18
1210,19
1211,19
1212,19
1213,19
1214,18
1215,18
1216,18
1217,18
1218,18
1219,18
1220,18
1221,18
1222,18
1223,18
1224,18
1225,18
1226,18
1227,18
1228,18
1229,18
1230,18
1231,18
1232,18
1233,18
1234,18
1235,18
1236,18
1237,19
1238,18
1239,18
1240,18
1241,18
1242,18
1243,18
1244,18
1245,18
1246,18
1247,18
1248,18
1249,18
1250,18
1251,18
1252,18
1253,19
1254,19
1255,19
1256,19
1257,19
1258,18
1259,18
1260,18
1261,19
1262,19
1263,19
1264,19
1265,20
1266,19
1267,18
1268,18
1269,18
1270,18
1271,18
1272,18
1273,18
1274,18
1275,19
1276,18
1277,18
1278,18
1279,18
1280,18
1281,18
1282,18
1283,19
1284,19
1285,19
1286,19
1287,19
1288,19
1289,19
1290,19
1291,19
1292,19
1293,20
1294,20
1295,19
1296,19
1297,19
1298,19
1299,19
1300,19
1301,19
1302,19
1303,19
1304,19
1305,19
1306,19
1307,19
1308,19
1309,19
1310,19
1311,19
1312,19
1313,19
1314,19
1315,19
1316,19
1317,19
1318,19
1319,19
1320,19
1321,19
1322,19
1323,19
1324,19
1325,19
1326,19
1327,20
1328,19
1329,19
1330,19
1331,19
1332,19
1333,19
1334,19
1335,19
1336,19
1337,19
1338,19
1339,19
1340,19
1341,19
1342,19
1343,19
1344,19
1345,19
1346,19
1347,19
1348,19
1349,19
1350,19
1351,19
1352,19
1353,19
1354,19
1355,19
1356,19
1357,19
1358,19
1359,19
1360,19
1361,19
1362,19
1363,19
1364,19
1365,19
1366,19
1367,19
1368,19
1369,19
1370,19
1371,19
1372,19
1373,19
1374,19
1375,20
1376,19
1377,19
1378,19
1379,20
1380,20
1381,20
1382,21
1383,20
1384,20
1385,20
1386,20
1387,20
1388,20
1389,20
1390,19
1391,19
1392,19
1393,19
1394,19
1395,19
1396,19
1397,19
1398,19
1399,19
1400,19
1401,19
1402,19
1403,19
1404,19
1405,20
1406,20
1407,19
1408,19
1409,19
1410,19
1411,19
1412,19
1413,19
1414,19
1415,19
1416,19
1417,19
1418,19
1419,19
1420,19
1421,19
1422,19
1423,19
1424,19
1425,19
1426,19
1427,19
1428,19
1429,19
1430,19
1431,19
1432,19
1433,19
1434,19
1435,19
1436,20
1437,20
1438,21
1439,22
1440,22
1441,21
1442,21
1443,20
1444,20
1445,21
1446,21
1447,20
1448,20
1449,20
1450,20
1451,20
1452,20
1453,20
1454,20
1455,21
1456,20
1457,20
1458,20
1459,21
1460,20
1461,20
1462,20
1463,20
1464,20
1465,20
1466,20
1467,21
1468,21
1469,21
1470,21
1471,21
1472,21
1473,21
1474,20
1475,20
1476,20
1477,20
1478,20
1479,20
1480,20
1481,20
1482,20
1483,20
1484,20
1485,20
1486,20
1487,20
1488,20
1489,20
1490,21
1491,21
1492,21
1493,21
1494,22
1495,22
1496,22
1497,22
1498,21
1499,21
1500,21
1501,21
1502,21
1503,21
1504,21
1505,21
1506,21
1507,21
1508,21
1509,21
1510,21
1511,21
1512,21
1513,21
1514,21
1515,21
1516,21
1517,22
1518,22
1519,22
1520,22
1521,21
1522,21
1523,21
1524,21
1525,21
1526,22
1527,21
1528,21
1529,21
1530,21
1531,21
1532,22
1533,22
1534,22
1535,22
1536,22
1537,23
1538,23
1539,23
1540,23
1541,23
1542,23
1543,23
1544,23
1545,23
1546,23
1547,22
1548,22
1549,22
1550,22
1551,22
1552,22
1553,22
1554,22
1555,22
1556,24
1557,23
1558,23
1559,23
1560,23
1561,23
1562,22
1563,22
1564,22
1565,22
1566,22
1567,23
1568,24
1569,23
1570,22
1571,22
1572,22
1573,22
1574,22
1575,22
1576,22
1577,22
1578,22
1579,22
1580,22
1581,22
1582,22
1583,22
1584,22
1585,22
1586,22
1587,22
1588,22
1589,22
1590,22
1591,22
1592,22
1593,22
1594,22
1595,22
1596,22
1597,22
1598,22
1599,22
1600,22
1601,22
1602,22
1603,22
1604,22
1605,22
1606,22
1607,22
1608,22
1609,22
1610,22
1611,22
1612,22
1613,22
1614,22
1615,22
1616,22
1617,22
1618,22
1619,22
1620,22
1621,22
1622,22
1623,22
1624,22
1625,22
1626,22
1627,22
1628,22
1629,22
1630,22
1631,22
1632,22
1633,22
1634,22
1635,22
1636,22
1637,22
1638,22
1639,22
1640,22
1641,22
1642,22
1643,22
1644,22
1645,22
1646,22
1647,22
1648,22
1649,22
1650,22
1651,22
1652,22
1653,22
1654,22
1655,22
1656,22
1657,22
1658,22
1659,23
1660,22
1661,22
1662,22
1663,22
1664,22
1665,22
1666,22
1667,23
1668,23
1669,22
1670,22
1671,22
1672,22
1673,22
1674,23
1675,23
1676,23
1677,23
1678,24
1679,23
1680,23
1681,23
1682,23
1683,23
1684,23
1685,23
1686,23
1687,23
1688,24
1689,24
1690,24
1691,24
1692,24
1693,24
1694,24
1695,25
1696,26
1697,26
1698,25
1699,25
1700,24
1701,24
1702,24
1703,24
1704,24
1705,24
1706,24
1707,24
1708,24
1709,24
1710,24
1711,24
1712,24
1713,24
1714,24
1715,24
1716,24
1717,24
1718,24
1719,24
1720,24
1721,24
1722,24
1723,24
1724,24
1725,24
1726,24
1727,24
1728,24
1729,24
1730,24
1731,25
1732,24
1733,24
1734,24
1735,24
1736,24
1737,24
1738,24
1739,24
1740,24
1741,24
1742,24
1743,24
1744,24
1745,24
1746,24
1747,24
1748,26
1749,25
1750,25
1751,25
1752,25
1753,25
1754,25
1755,24
1756,24
1757,24
1758,24
1759,24
1760,24
1761,24
1762,24
1763,25
1764,25
1765,25
1766,25
1767,25
1768,25
1769,25
1770,25
1771,25
1772,25
1773,25
1774,25
1775,25
1776,25
1777,25
1778,25
1779,26
1780,25
1781,25
1782,25
1783,26
1784,25
1785,25
1786,25
1787,25
1788,25
1789,25
1790,25
1791,25
1792,25
1793,25
1794,25
1795,25
1796,25
1797,25
1798,25
1799,25
1800,25
1801,25
1802,25
1803,25
1804,25
1805,25
1806,25
1807,25
1808,25
1809,25
1810,25
1811,25
1812,25
1813,25
1814,26
1815,26
1816,26
1817,26
1818,26
1819,26
1820,26
1821,27
1822,26
1823,26
1824,26
1825,26
1826,26
1827,26
1828,26
1829,26
1830,26
1831,26
1832,26
1833,26
1834,26
1835,26
1836,26
1837,26
1838,26
1839,26
1840,26
1841,25
1842,25
1843,26
1844,26
1845,26
1846,26
1847,26
1848,26
1849,26
1850,26
1851,26
1852,26
1853,26
1854,26
1855,26
1856,26
1857,26
1858,26
1859,26
1860,26
1861,26
1862,26
1863,26
1864,27
1865,26
1866,26
1867,26
1868,26
1869,26
1870,26
1871,26
1872,26
1873,26
1874,26
1875,26
1876,26
1877,26
1878,26
1879,26
1880,26
1881,26
1882,26
1883,26
1884,26
1885,26
1886,26
1887,26
1888,27
1889,27
1890,27
1891,27
1892,27
1893,27
1894,27
1895,26
1896,26
1897,26
1898,26
1899,26
1900,26
1901,26
1902,26
1903,26
1904,26
1905,26
1906,26
1907,26
1908,26
1909,27
1910,26
1911,26
1912,26
1913,26
1914,26
1915,26
1916,26
1917,26
1918,26
1919,26
1920,26
1921,26
1922,27
1923,26
1924,26
1925,26
1926,26
1927,26
1928,26
1929,26
1930,26
1931,26
1932,26
1933,26
1934,27
1935,27
1936,27
1937,26
1938,27
1939,27
1940,27
1941,27
1942,26
1943,26
1944,26
1945,26
1946,26
1947,26
1948,26
1949,26
1950,26
1951,26
1952,26
1953,26
1954,27
1955,26
1956,26
1957,26
1958,26
1959,26
1960,27
1961,27
1962,28
1963,28
1964,28
1965,28
1966,28
1967,28
1968,28
1969,28
1970,27
1971,27
1972,27
1973,27
1974,27
1975,27
1976,27
1977,27
1978,27
1979,28
1980,27
1981,27
1982,27
1983,28
1984,28
1985,30
1986,30
1987,30
1988,29
1989,29
1990,29
1991,28
1992,28
1993,28
1994,28
1995,28
1996,28
1997,28
1998,28
1999,28
2000,28
2001,28
2002,28
2003,28
2004,28
2005,28
2006,28
2007,27
2008,27
2009,27
2010,27
2011,27
2012,27
2013,27
2014,27
2015,27
2016,27
2017,27
2018,27
2019,27
2020,27
2021,27
2022,27
2023,27
2024,27
2025,27
2026,27
2027,27
2028,27
2029,27
2030,27
2031,27
2032,27
2033,27
2034,27
2035,27
2036,28
2037,29
2038,28
2039,28
2040,28
2041,27
2042,27
2043,27
2044,27
2045,27
2046,27
2047,27
2048,28
2049,27
2050,27
2051,27
2052,27
2053,27
2054,28
2055,28
2056,28
2057,28
2058,27
2059,27
2060,27
2061,27
2062,27
2063,27
2064,27
2065,27
2066,27
2067,27
2068,27
2069,28
2070,27
2071,27
2072,27
2073,27
2074,27
2075,27
2076,27
2077,27
2078,27
2079,27
2080,27
2081,27
2082,27
2083,27
2084,27
2085,27
2086,27
2087,27
2088,27
2089,27
2090,28
2091,27
2092,27
2093,27
2094,28
2095,27
2096,27
2097,28
2098,27
2099,27
2100,27
2101,27
2102,27
2103,27
2104,27
2105,27
2106,27
2107,27
2108,27
2109,27
2110,27
2111,27
2112,27
2113,27
2114,27
2115,27
2116,27
2117,28
2118,27
2119,27
2120,27
2121,27
2122,27
2123,27
2124,27
2125,27
2126,27
2127,27
2128,27
2129,27
2130,27
2131,27
2132,27
2133,27
2134,27
2135,27
2136,27
2137,27
2138,27
2139,27
2140,27
2141,27
2142,27
2143,27
2144,27
2145,27
2146,29
2147,29
2148,28
2149,28
2150,27
2151,27
2152,27
2153,27
2154,27
2155,27
2156,27
2157,27
2158,27
2159,27
2160,27
2161,27
2162,27
2163,27
2164,27
2165,27
2166,27
2167,27
2168,27
2169,27
2170,27
2171,27
2172,27
2173,28
2174,27
2175,27
2176,27
2177,27
2178,27
2179,27
2180,28
2181,28
2182,28
2183,28
2184,27
2185,27
2186,27
2187,27
2188,27
2189,27
2190,27
2191,27
2192,27
2193,27
2194,27
2195,27
2196,27
2197,27
2198,27
2199,27
2200,27
2201,27
2202,27
2203,27
2204,27
2205,27
2206,27
2207,27
2208,27
2209,27
2210,27
2211,27
2212,27
2213,27
2214,27
2215,27
2216,28
2217,27
2218,27
2219,27
2220,27
2221,27
2222,27
2223,27
2224,27
2225,27
2226,27
2227,27
2228,27
2229,27
2230,27
2231,27
2232,27
2233,27
2234,27
2235,28
2236,28
2237,27
2238,27
2239,27
2240,27
2241,27
2242,27
2243,27
2244,27
2245,27
2246,28
2247,28
2248,27
2249,27
2250,28
2251,28
2252,27
2253,28
2254,28
2255,28
2256,28
2257,28
2258,28
2259,28
2260,28
2261,28
2262,28
2263,29
2264,28
2265,28
2266,28
2267,28
2268,29
2269,28
2270,28
2271,28
2272,29
2273,29
2274,28
2275,28
2276,28
2277,27
2278,27
2279,27
2280,27
2281,27
2282,27
2283,27
2284,27
2285,27
2286,27
2287,28
2288,27
2289,27
2290,27
2291,28
2292,28
2293,27
2294,27
2295,27
2296,27
2297,27
2298,27
2299,27
2300,27
2301,27
2302,27
2303,27
2304,27
2305,27
2306,27
2307,27
2308,27
2309,27
2310,28
2311,28
2312,28
2313,30
2314,30
2315,29
2316,28
2317,28
2318,28
2319,28
2320,28
2321,28
2322,28
2323,27
2324,27
2325,27
2326,27
2327,27
2328,27
2329,27
2330,27
2331,27
2332,27
2333,27
2334,28
2335,27
2336,27
2337,27
2338,27
2339,27
2340,27
2341,27
2342,27
2343,27
2344,27
2345,27
2346,27
2347,27
2348,28
2349,27
2350,27
2351,27
2352,27
2353,27
2354,27
2355,27
2356,27
2357,27
2358,27
2359,27
2360,27
2361,27
2362,27
2363,27
2364,27
2365,27
2366,27
2367,27
2368,27
2369,27
2370,27
2371,27
2372,27
2373,27
2374,28
2375,28
2376,27
2377,28
2378,28
2379,27
2380,27
2381,28
2382,28
2383,28
2384,28
2385,27
2386,27
2387,27
2388,27
2389,27
2390,27
2391,27
2392,27
2393,27
2394,27
2395,27
2396,27
2397,27
2398,27
2399,27
2400,27
2401,27
2402,28
2403,27
2404,27
2405,27
2406,27
2407,27
2408,27
2409,27
2410,27
2411,27
2412,27
2413,27
2414,27
2415,27
2416,27
2417,27
2418,27
2419,27
2420,27
2421,27
2422,27
2423,27
2424,27
2425,27
2426,27
2427,27
2428,27
2429,27
2430,27
2431,27
2432,27
2433,27
2434,27
2435,27
2436,27
2437,27
2438,27
2439,27
2440,27
2441,27
2442,28
2443,27
2444,27
2445,27
2446,27
2447,27
2448,27
2449,27
2450,27
2451,27
2452,27
2453,27
2454,27
2455,27
2456,27
2457,27
2458,27
2459,27
2460,27
2461,27
2462,27
2463,27
2464,27
2465,27
2466,27
2467,27
2468,27
2469,27
2470,27
2471,27
2472,27
2473,27
2474,27
2475,27
2476,27
2477,28
2478,28
2479,28
2480,27
2481,27
2482,27
2483,27
2484,27
2485,27
2486,28
2487,28
2488,28
2489,28
2490,28
2491,28
2492,28
2493,28
2494,28
2495,28
2496,28
2497,28
2498,28
2499,28
2500,28
2501,28
2502,28
2503,28
2504,29
2505,29
2506,27
2507,27
2508,27
2509,27
2510,27
2511,27
2512,27
2513,27
2514,27
2515,27
2516,27
2517,27
2518,27
2519,27
2520,27
2521,27
2522,27
2523,27
2524,27
2525,27
2526,27
2527,27
2528,27
2529,27
2530,27
2531,27
2532,28
2533,28
2534,28
2535,27
2536,28
2537,28
2538,28
2539,28
2540,28
2541,28
2542,28
2543,28
2544,28
2545,28
2546,27
2547,27
2548,27
2549,27
2550,27
2551,27
2552,27
2553,27
2554,27
2555,27
2556,27
2557,27
2558,27
2559,27
2560,27
2561,27
2562,27
2563,27
2564,27
2565,27
2566,27
2567,28
2568,27
2569,28
2570,27
2571,27
2572,27
2573,27
2574,27
2575,27
2576,27
2577,27
2578,27
2579,27
2580,27
2581,28
2582,28
2583,28
2584,28
2585,28
2586,28
2587,28
2588,29
2589,29
2590,29
2591,29
2592,29
2593,29
2594,29
2595,29
2596,29
2597,29
2598,29
2599,29
2600,29
2601,29
2602,30
2603,30
2604,30
2605,29
2606,29
2607,29
2608,29
2609,29
2610,29
2611,29
2612,29
2613,29
2614,29
2615,29
2616,29
2617,29
2618,29
2619,29
2620,30
2621,30
2622,30
2623,30
2624,30
2625,31
2626,30
2627,30
2628,30
2629,30
2630,30
2631,31
2632,31
2633,32
2634,31
2635,30
2636,30
2637,30
2638,30
2639,30
2640,30
2641,30
2642,30
2643,30
2644,30
2645,30
2646,30
2647,31
2648,30
2649,30
2650,30
2651,30
2652,30
2653,30
2654,30
2655,30
2656,30
2657,30
2658,30
2659,30
2660,30
2661,30
2662,30
2663,30
2664,30
2665,30
2666,30
2667,30
2668,30
2669,30
2670,30
2671,30
2672,30
2673,30
2674,30
2675,30
2676,30
2677,30
2678,30
2679,30
2680,30
2681,30
2682,30
2683,31
2684,31
2685,31
2686,31
2687,31
2688,30
2689,30
2690,30
2691,30
2692,30
2693,30
2694,31
2695,31
2696,31
2697,30
2698,30
2699,30
2700,30
2701,32
2702,30
2703,30
2704,30
2705,30
2706,30
2707,30
2708,30
2709,30
2710,30
2711,30
2712,30
2713,30
2714,30
2715,30
2716,30
2717,30
2718,30
2719,30
2720,31
2721,30
2722,30
2723,30
2724,30
2725,30
2726,30
2727,30
2728,30
2729,30
2730,30
2731,30
2732,30
2733,30
2734,30
2735,30
2736,30
2737,30
2738,30
2739,30
2740,30
2741,30
2742,30
2743,30
2744,30
2745,30
2746,30
2747,31
2748,30
2749,30
2750,31
2751,30
2752,30
2753,30
2754,30
2755,30
2756,30
2757,30
2758,30
2759,30
2760,30
2761,30
2762,30
2763,30
2764,30
2765,31
2766,30
2767,30
2768,30
2769,30
2770,31
2771,30
2772,30
2773,30
2774,30
2775,30
2776,30
2777,30
2778,30
2779,31
2780,30
2781,31
2782,31
2783,32
2784,31
2785,31
2786,31
2787,31
2788,31
2789,31
2790,31
2791,30
2792,30
2793,30
2794,30
2795,30
2796,30
2797,30
2798,30
2799,31
2800,31
2801,30
2802,30
2803,30
2804,30
2805,30
2806,30
2807,30
2808,30
2809,30
2810,30
2811,30
2812,30
2813,31
2814,31
2815,31
2816,31
2817,30
2818,30
2819,30
2820,30
2821,30
2822,30
2823,30
2824,30
2825,30
2826,30
2827,30
2828,30
2829,30
2830,30
2831,30
2832,31
2833,30
2834,30
2835,30
2836,30
2837,31
2838,31
2839,31
2840,32
2841,30
2842,30
2843,30
2844,30
2845,30
2846,30
2847,30
2848,30
2849,30
2850,30
2851,30
2852,30
2853,31
2854,31
2855,31
2856,31
2857,31
2858,31
2859,31
2860,31
2861,31
2862,31
2863,30
2864,30
2865,31
2866,30
2867,30
2868,30
2869,30
2870,30
2871,30
2872,31
2873,30
2874,30
2875,30
2876,30
2877,30
2878,31
2879,31
2880,31
2881,31
2882,31
2883,31
2884,31
2885,31
2886,31
2887,31
2888,31
2889,31
2890,31
2891,31
2892,31
2893,31
2894,31
2895,31
2896,31
2897,31
2898,31
2899,31
2900,31
2901,31
2902,31
2903,31
2904,31
2905,31
2906,31
2907,31
2908,31
2909,31
2910,31
2911,32
2912,32
2913,32
2914,32
2915,31
2916,31
2917,31
2918,31
2919,31
2920,31
2921,31
2922,32
2923,31
2924,31
2925,31
2926,31
2927,31
2928,31
2929,31
2930,31
2931,31
2932,31
2933,31
2934,31
2935,31
2936,31
2937,31
2938,31
2939,31
2940,31
2941,31
2942,31
2943,31
2944,31
2945,31
2946,31
2947,31
2948,31
2949,31
2950,32
2951,32
2952,32
2953,32
2954,32
2955,31
2956,31
2957,31
2958,31
2959,31
2960,31
2961,31
2962,31
2963,31
2964,31
2965,31
2966,31
2967,31
2968,32
2969,32
2970,32
2971,32
2972,32
2973,32
2974,32
2975,31
2976,31
2977,31
2978,31
2979,31
2980,32
2981,32
2982,32
2983,32
2984,32
2985,32
2986,32
2987,32
2988,33
2989,32
2990,32
2991,32
2992,32
2993,32
2994,32
2995,32
2996,32
2997,32
2998,32
2999,32
3000,32
3001,32
3002,31
3003,31
3004,31
3005,31
3006,31
3007,31
3008,31
3009,31
3010,31
3011,31
3012,32
3013,32
3014,32
3015,31
3016,31
3017,32
3018,32
3019,32
3020,33
3021,33
3022,31
3023,31
3024,32
3025,32
3026,32
3027,32
3028,32
3029,31
3030,31
3031,31
3032,31
3033,31
3034,31
3035,31
3036,31
3037,31
3038,31
3039,31
3040,31
3041,31
3042,31
3043,31
3044,31
3045,31
3046,31
3047,32
3048,31
3049,31
3050,31
3051,31
3052,31
3053,31
3054,31
3055,31
3056,31
3057,31
3058,31
3059,31
3060,31
3061,31
3062,31
3063,31
3064,31
3065,32
3066,31
3067,31
3068,31
3069,31
3070,31
3071,31
3072,31
3073,31
3074,32
3075,32
3076,32
3077,32
3078,32
3079,32
3080,32
3081,32
3082,33
3083,32
3084,32
3085,32
3086,32
3087,32
3088,32
3089,32
3090,32
3091,32
3092,31
3093,31
3094,31
3095,31
3096,31
3097,31
3098,31
3099,31
3100,31
3101,32
3102,31
3103,31
3104,31
3105,31
3106,31
3107,31
3108,31
3109,31
3110,31
3111,31
3112,31
3113,31
3114,31
3115,31
3116,32
3117,32
3118,32
3119,32
3120,32
3121,32
3122,32
3123,32
3124,32
3125,32
3126,32
3127,32
3128,32
3129,32
3130,32
3131,32
3132,32
3133,32
3134,31
3135,31
3136,32
3137,32
3138,31
3139,31
3140,31
3141,31
3142,31
3143,31
3144,31
3145,31
3146,31
3147,31
3148,31
3149,31
3150,31
3151,31
3152,31
3153,31
3154,31
3155,31
3156,31
3157,31
3158,31
3159,31
3160,32
3161,31
3162,31
3163,31
3164,31
3165,31
3166,31
3167,31
3168,31
3169,31
3170,31
3171,31
3172,31
3173,31
3174,31
3175,31
3176,31
3177,31
3178,31
3179,31
3180,31
3181,31
3182,31
3183,31
3184,31
3185,31
3186,31
3187,31
3188,31
3189,31
3190,31
3191,31
3192,31
3193,31
3194,31
3195,31
3196,31
3197,31
3198,31
3199,31
3200,31
3201,31
3202,31
3203,31
3204,31
3205,31
3206,31
3207,31
3208,31
3209,31
3210,31
3211,31
3212,31
3213,31
3214,31
3215,31
3216,31
3217,32
3218,32
3219,32
3220,32
3221,32
3222,31
3223,31
3224,31
3225,31
3226,31
3227,31
3228,31
3229,31
3230,31
3231,31
3232,31
3233,31
3234,31
3235,32
3236,32
3237,32
3238,32
3239,32
3240,32
3241,32
3242,32
3243,32
3244,31
3245,31
3246,31
3247,31
3248,31
3249,31
3250,31
3251,31
3252,31
3253,31
3254,31
3255,31
3256,31
3257,32
3258,32
3259,32
3260,32
3261,32
3262,32
3263,32
3264,32
3265,32
3266,31
3267,31
3268,31
3269,31
3270,31
3271,31
3272,31
3273,31
3274,31
3275,31
3276,32
3277,32
3278,32
3279,31
3280,31
3281,31
3282,31
3283,31
3284,31
3285,31
3286,31
3287,31
3288,31
3289,31
3290,31
3291,31
3292,31
3293,31
3294,31
3295,31
3296,31
3297,31
3298,31
3299,31
3300,31
3301,31
3302,32
3303,31
3304,31
3305,31
3306,31
3307,31
3308,31
3309,31
3310,31
3311,31
3312,31
3313,31
3314,31
3315,31
3316,31
3317,32
3318,32
3319,32
3320,31
3321,31
3322,31
3323,31
3324,31
3325,31
3326,31
3327,31
3328,31
3329,31
3330,31
3331,31
3332,31
3333,31
3334,31
3335,31
3336,31
3337,31
3338,31
3339,31
3340,31
3341,31
3342,31
3343,31
3344,31
3345,31
3346,31
3347,31
3348,31
3349,31
3350,31
3351,31
3352,31
3353,31
3354,31
3355,31
3356,31
3357,31
3358,31
3359,31
3360,31
3361,31
3362,31
3363,31
3364,31
3365,31
3366,31
3367,31
3368,31
3369,32
3370,32
3371,32
3372,33
3373,32
3374,32
3375,32
3376,32
3377,31
3378,31
3379,32
3380,32
3381,32
3382,32
3383,32
3384,32
3385,32
3386,32
3387,32
3388,32
3389,32
3390,32
3391,32
3392,32
3393,32
3394,32
3395,32
3396,33
3397,32
3398,32
3399,32
3400,32
3401,32
3402,32
3403,32
3404,32
3405,32
3406,32
3407,32
3408,32
3409,32
3410,32
3411,33
3412,33
3413,33
3414,33
3415,33
3416,32
3417,32
3418,32
3419,32
3420,32
3421,32
3422,32
3423,32
3424,32
3425,32
3426,32
3427,32
3428,32
3429,32
3430,32
3431,32
3432,32
3433,32
3434,32
3435,32
3436,32
3437,32
3438,32
3439,32
3440,32
3441,33
3442,32
3443,32
3444,32
3445,32
3446,32
3447,32
3448,32
3449,32
3450,32
3451,32
3452,32
3453,32
3454,32
3455,32
3456,32
3457,32
3458,32
3459,32
3460,32
3461,33
3462,33
3463,33
3464,33
3465,33
3466,32
3467,32
3468,32
3469,32
3470,32
3471,32
3472,32
3473,32
3474,33
3475,33
3476,34
3477,35
3478,33
3479,33
3480,34
3481,34
3482,34
3483,34
3484,34
3485,34
3486,33
3487,32
3488,32
3489,32
3490,32
3491,32
3492,32
3493,32
3494,32
3495,32
3496,32
3497,32
3498,32
3499,32
3500,32
3501,32
3502,32
3503,32
3504,32
3505,32
3506,32
3507,32
3508,32
3509,31
3510,31
3511,31
3512,31
3513,31
3514,31
3515,31
3516,31
3517,31
3518,31
3519,31
3520,31
3521,31
3522,31
3523,31
3524,31
3525,31
3526,31
3527,31
3528,31
3529,31
3530,31
3531,31
3532,31
3533,31
3534,31
3535,31
3536,31
3537,31
3538,31
3539,31
3540,31
3541,31
3542,31
3543,31
3544,31
3545,31
3546,32
3547,32
3548,32
3549,32
3550,32
3551,32
3552,32
3553,32
3554,32
3555,33
3556,34
3557,33
3558,32
3559,33
3560,33
3561,33
3562,33
3563,33
3564,32
3565,32
3566,32
3567,32
3568,32
3569,32
3570,32
3571,32
3572,32
3573,32
3574,31
3575,31
3576,31
3577,31
3578,31
3579,31
3580,31
3581,32
3582,32
3583,31
3584,31
3585,31
3586,31
3587,32
3588,32
3589,31
3590,31
3591,31
3592,32
3593,32
3594,32
3595,32
3596,31
3597,31
3598,31
3599,31
3600,31
3601,31
3602,31
3603,32
3604,32
3605,31
3606,31
3607,31
3608,31
3609,31
3610,31
3611,31
3612,31
3613,31
3614,31
3615,31
3616,31
3617,31
3618,31
3619,31
3620,31
3621,31
3622,31
3623,31
3624,31
3625,31
3626,31
3627,31
3628,32
3629,31
3630,31
3631,31
3632,31
3633,31
3634,31
3635,31
3636,32
3637,32
3638,32
3639,31
3640,31
3641,31
3642,31
3643,31
3644,31
3645,31
3646,31
3647,31
3648,32
3649,32
3650,32
3651,31
3652,31
3653,31
3654,31
3655,31
3656,31
3657,31
3658,31
3659,31
3660,31
3661,31
3662,31
3663,31
3664,31
3665,31
3666,31
3667,31
3668,31
3669,31
3670,31
3671,31
3672,31
3673,31
3674,31
3675,31
3676,31
3677,31
3678,32
3679,32
3680,31
3681,31
3682,31
3683,31
3684,31
3685,31
3686,31
3687,31
3688,31
3689,31
3690,31
3691,31
3692,31
3693,31
3694,31
3695,31
3696,31
3697,31
3698,31
3699,31
3700,31
3701,31
3702,31
3703,31
3704,31
3705,31
3706,31
3707,31
3708,31
3709,31
3710,31
3711,31
3712,31
3713,31
3714,31
3715,31
3716,31
3717,31
3718,31
3719,31
3720,31
3721,31
3722,31
3723,31
3724,31
3725,31
3726,31
3727,31
3728,31
3729,31
3730,31
3731,31
3732,31
3733,31
3734,32
3735,31
3736,31
3737,31
3738,31
3739,31
3740,31
3741,31
3742,31
3743,31
3744,31
3745,31
3746,31
3747,31
3748,31
3749,31
3750,31
3751,31
3752,31
3753,31
3754,32
3755,32
3756,31
3757,31
3758,31
3759,31
3760,32
3761,31
3762,31
3763,31
3764,31
3765,31
3766,31
3767,31
3768,31
3769,31
3770,31
3771,31
3772,31
3773,31
3774,31
3775,31
3776,31
3777,31
3778,32
3779,31
3780,31
3781,31
3782,31
3783,31
3784,31
3785,32
3786,31
3787,31
3788,31
3789,31
3790,31
3791,31
3792,31
3793,31
3794,31
3795,31
3796,31
3797,31
3798,30
3799,29
3800,29
3801,29
3802,29
3803,29
3804,29
3805,29
3806,29
3807,29
3808,29
3809,29
3810,29
3811,30
3812,29
3813,29
3814,29
3815,29
3816,29
3817,29
3818,29
3819,30
3820,29
3821,29
3822,29
3823,29
3824,28
3825,28
3826,29
3827,28
3828,28
3829,28
3830,28
3831,28
3832,28
3833,28
3834,28
3835,28
3836,28
3837,29
3838,29
3839,29
3840,28
3841,28
3842,28
3843,28
3844,28
3845,28
3846,28
3847,28
3848,28
3849,28
3850,28
3851,28
3852,28
3853,28
3854,28
3855,28
3856,28
3857,28
3858,28
3859,28
3860,28
3861,28
3862,28
3863,28
3864,28
3865,28
3866,28
3867,28
3868,28
3869,28
3870,28
3871,29
3872,28
3873,28
3874,28
3875,28
3876,28
3877,28
3878,28
3879,28
3880,28
3881,28
3882,28
3883,28
3884,28
3885,28
3886,28
3887,28
3888,28
3889,29
3890,29
3891,29
3892,28
3893,28
3894,28
3895,28
3896,28
3897,28
3898,28
3899,28
3900,28
3901,28
3902,28
3903,28
3904,28
3905,29
3906,29
3907,30
3908,30
3909,30
3910,30
3911,29
3912,29
3913,29
3914,29
3915,29
3916,29
3917,29
3918,29
3919,29
3920,29
3921,29
3922,29
3923,29
3924,29
3925,30
3926,30
3927,30
3928,30
3929,30
3930,30
3931,30
3932,30
3933,30
3934,30
3935,29
3936,29
3937,29
3938,29
3939,29
3940,29
3941,29
3942,30
3943,30
3944,30
3945,30
3946,29
3947,29
3948,29
3949,29
3950,29
3951,29
3952,29
3953,29
3954,29
3955,30
3956,30
3957,30
3958,30
3959,30
3960,30
3961,30
3962,30
3963,30
3964,30
3965,30
3966,30
3967,30
3968,30
3969,30
3970,30
3971,30
3972,30
3973,30
3974,30
3975,29
3976,29
3977,29
3978,29
3979,29
3980,29
3981,29
3982,29
3983,29
3984,29
3985,29
3986,29
3987,29
3988,29
3989,29
3990,29
3991,29
3992,29
3993,29
3994,29
3995,29
3996,29
3997,29
3998,29
3999,29
4000,29
4001,29
4002,29
4003,29
4004,30
4005,29
4006,29
4007,29
4008,29
4009,29
4010,29
4011,29
4012,29
4013,29
4014,29
4015,29
4016,29
4017,29
4018,29
4019,29
4020,30
4021,30
4022,30
4023,30
4024,30
4025,30
4026,30
4027,30
4028,30
4029,32
4030,32
4031,30
4032,30
4033,30
4034,30
4035,30
4036,30
4037,30
4038,30
4039,30
4040,30
4041,30
4042,30
4043,31
4044,30
4045,30
4046,30
4047,30
4048,30
4049,30
4050,30
4051,30
4052,30
4053,30
4054,30
4055,30
4056,31
4057,30
4058,30
4059,30
4060,30
4061,30
4062,30
4063,30
4064,30
4065,30
4066,30
4067,30
4068,30
4069,30
4070,30
4071,30
4072,30
4073,30
4074,30
4075,30
4076,30
4077,30
4078,30
4079,30
4080,30
4081,30
4082,30
4083,30
4084,30
4085,30
4086,30
4087,30
4088,30
4089,30
4090,30
4091,30
4092,31
4093,30
4094,30
4095,30
4096,30
4097,30
4098,30
4099,30
4100,30
4101,30
4102,30
4103,30
4104,30
4105,30
4106,30
4107,30
4108,30
4109,30
4110,30
4111,30
4112,30
4113,31
4114,30
4115,30
4116,30
4117,30
4118,30
4119,31
4120,30
4121,30
4122,30
4123,30
4124,30
4125,30
4126,30
4127,30
4128,30
4129,30
4130,30
4131,30
4132,30
4133,30
4134,30
4135,30
4136,30
4137,30
4138,30
4139,30
4140,30
4141,30
4142,30
4143,30
4144,30
4145,30
4146,30
4147,30
4148,30
4149,31
4150,30
4151,30
4152,30
4153,30
4154,30
4155,30
4156,30
4157,30
4158,30
4159,30
4160,30
4161,30
4162,30
4163,30
4164,30
4165,30
4166,30
4167,30
4168,30
4169,30
4170,30
4171,30
4172,30
4173,30
4174,30
4175,30
4176,30
4177,30
4178,30
4179,30
4180,30
4181,30
4182,30
4183,30
4184,30
4185,30
4186,30
4187,30
4188,30
4189,30
4190,30
4191,30
4192,30
4193,30
4194,30
4195,30
4196,30
4197,30
4198,30
4199,30
4200,31
4201,30
4202,30
4203,30
4204,30
4205,30
4206,30
4207,30
4208,30
4209,30
4210,30
4211,30
4212,30
4213,30
4214,30
4215,30
4216,30
4217,30
4218,30
4219,30
4220,30
4221,31
4222,31
4223,30
4224,30
4225,30
4226,30
4227,30
4228,30
4229,30
4230,30
4231,30
4232,31
4233,31
4234,31
4235,30
4236,30
4237,30
4238,30
4239,30
4240,30
4241,30
4242,30
4243,30
4244,30
4245,30
4246,30
4247,30
4248,30
4249,30
4250,30
4251,31
4252,31
4253,30
4254,30
4255,30
4256,30
4257,30
4258,30
4259,30
4260,30
4261,30
4262,31
4263,32
4264,32
4265,32
4266,32
4267,32
4268,32
4269,32
4270,32
4271,31
4272,31
4273,30
4274,30
4275,30
4276,31
4277,31
4278,31
4279,31
4280,31
4281,30
4282,30
4283,30
4284,31
4285,30
4286,30
4287,30
4288,30
4289,30
4290,30
4291,30
4292,30
4293,30
4294,30
4295,30
4296,30
4297,30
4298,30
4299,31
4300,30
4301,30
4302,30
4303,30
4304,30
4305,30
4306,30
4307,30
4308,30
4309,30
4310,30
4311,30
4312,30
4313,30
4314,30
4315,30
4316,30
4317,30
4318,30
4319,30
4320,30
4321,30
4322,30
4323,30
4324,30
4325,30
4326,30
4327,30
4328,30
4329,30
4330,30
4331,30
4332,30
4333,30
4334,30
4335,30
4336,30
4337,30
4338,30
4339,30
4340,30
4341,30
4342,30
4343,30
4344,30
4345,30
4346,30
4347,30
4348,30
4349,31
4350,32
4351,32
4352,30
4353,30
4354,30
4355,31
4356,30
4357,30
4358,31
4359,31
4360,31
4361,31
4362,31
4363,31
4364,31
4365,31
4366,31
4367,31
4368,31
4369,31
4370,31
4371,31
4372,30
4373,30
4374,30
4375,30
4376,30
4377,30
4378,30
4379,30
4380,30
4381,30
4382,30
4383,30
4384,30
4385,30
4386,30
4387,30
4388,30
4389,31
4390,31
4391,31
4392,31
4393,30
4394,31
4395,31
4396,30
4397,30
4398,30
4399,30
4400,30
4401,30
4402,30
4403,30
4404,30
4405,30
4406,30
4407,30
4408,31
4409,31
4410,31
4411,31
4412,31
4413,31
4414,31
4415,31
4416,31
4417,31
4418,31
4419,31
4420,31
4421,31
4422,31
4423,31
4424,31
4425,31
4426,31
4427,31
4428,31
4429,31
4430,31
4431,31
4432,31
4433,31
4434,31
4435,31
4436,32
4437,32
4438,32
4439,32
4440,32
4441,32
4442,32
4443,33
4444,33
4445,33
4446,33
4447,33
4448,33
4449,32
4450,31
4451,31
4452,31
4453,31
4454,31
4455,31
4456,31
4457,31
4458,31
4459,31
4460,31
4461,31
4462,32
4463,31
4464,31
4465,31
4466,32
4467,31
4468,31
4469,31
4470,31
4471,31
4472,31
4473,31
4474,31
4475,31
4476,32
4477,32
4478,32
4479,31
4480,31
4481,31
4482,31
4483,31
4484,31
4485,31
4486,31
4487,31
4488,31
4489,31
4490,31
4491,31
4492,32
4493,32
4494,32
4495,32
4496,32
4497,33
4498,33
4499,33
4500,32
4501,32
4502,32
4503,32
4504,31
4505,31
4506,31
4507,31
4508,31
4509,31
4510,31
4511,31
4512,31
4513,31
4514,31
4515,31
4516,31
4517,31
4518,31
4519,31
4520,31
4521,31
4522,31
4523,32
4524,32
4525,31
4526,31
4527,31
4528,31
4529,31
4530,31
4531,31
4532,31
4533,31
4534,31
4535,31
4536,31
4537,31
4538,31
4539,31
4540,31
4541,31
4542,31
4543,31
4544,31
4545,31
4546,31
4547,31
4548,31
4549,31
4550,31
4551,31
4552,31
4553,31
4554,31
4555,31
4556,31
4557,31
4558,31
4559,31
4560,31
4561,31
4562,32
4563,32
4564,32
4565,32
4566,32
4567,32
4568,32
4569,32
4570,32
4571,32
4572,32
4573,32
4574,32
4575,32
4576,32
4577,32
4578,32
4579,32
4580,32
4581,33
4582,33
4583,33
4584,33
4585,33
4586,33
4587,33
4588,33
4589,32
4590,32
4591,32
4592,32
4593,32
4594,32
4595,32
4596,32
4597,32
4598,32
4599,33
4600,33
4601,32
4602,32
4603,32
4604,32
4605,32
4606,32
4607,33
4608,33
4609,32
4610,32
4611,32
4612,32
4613,32
4614,32
4615,33
4616,33
4617,32
4618,32
4619,32
4620,32
4621,32
4622,32
4623,32
4624,32
4625,32
4626,32
4627,32
4628,32
4629,32
4630,32
4631,32
4632,32
4633,32
4634,32
4635,32
4636,32
4637,32
4638,32
4639,32
4640,32
4641,32
4642,32
4643,32
4644,32
4645,32
4646,32
4647,32
4648,32
4649,32
4650,32
4651,32
4652,32
4653,32
4654,32
4655,32
4656,32
4657,32
4658,32
4659,32
4660,32
4661,32
4662,32
4663,32
4664,32
4665,32
4666,32
4667,32
4668,32
4669,32
4670,32
4671,32
4672,32
4673,32
4674,32
4675,32
4676,32
4677,32
4678,32
4679,33
4680,34
4681,33
4682,33
4683,32
4684,32
4685,32
4686,32
4687,32
4688,32
4689,32
4690,32
4691,32
4692,32
4693,32
4694,32
4695,32
4696,32
4697,32
4698,32
4699,32
4700,32
4701,32
4702,32
4703,32
4704,33
4705,33
4706,32
4707,32
4708,32
4709,32
4710,32
4711,32
4712,32
4713,32
4714,32
4715,32
4716,32
4717,33
4718,33
4719,33
4720,33
4721,32
4722,32
4723,32
4724,32
4725,32
4726,32
4727,32
4728,32
4729,32
4730,32
4731,32
4732,32
4733,32
4734,32
4735,32
4736,33
4737,32
4738,32
4739,33
4740,33
4741,32
4742,32
4743,32
4744,32
4745,32
4746,32
4747,32
4748,32
4749,32
4750,32
4751,32
4752,32
4753,32
4754,32
4755,32
4756,33
4757,32
4758,32
4759,32
4760,32
4761,32
4762,32
4763,33
4764,33
4765,33
4766,33
4767,33
4768,33
4769,33
4770,33
4771,32
4772,32
4773,32
4774,32
4775,32
4776,32
4777,32
4778,32
4779,32
4780,32
4781,32
4782,32
4783,32
4784,32
4785,32
4786,32
4787,32
4788,32
4789,32
4790,32
4791,32
4792,32
4793,32
4794,32
4795,32
4796,32
4797,32
4798,32
4799,32
4800,32
4801,32
4802,32
4803,32
4804,33
4805,32
4806,32
4807,32
4808,32
4809,32
4810,32
4811,33
4812,32
4813,32
4814,32
4815,32
4816,32
4817,32
4818,32
4819,32
4820,32
4821,32
4822,32
4823,32
4824,32
4825,33
4826,32
4827,32
4828,32
4829,32
4830,32
4831,32
4832,32
4833,32
4834,32
4835,32
4836,32
4837,32
4838,33
4839,32
4840,32
4841,32
4842,32
4843,32
4844,32
4845,32
4846,32
4847,32
4848,32
4849,32
4850,32
4851,32
4852,32
4853,33
4854,32
4855,32
4856,32
4857,32
4858,32
4859,32
4860,32
4861,32
4862,32
4863,33
4864,33
4865,33
4866,33
4867,33
4868,33
4869,33
4870,33
4871,33
4872,33
4873,33
4874,32
4875,32
4876,32
4877,32
4878,32
4879,33
4880,32
4881,32
4882,32
4883,32
4884,32
4885,32
4886,33
4887,33
4888,33
4889,33
4890,32
4891,32
4892,32
4893,33
4894,32
4895,32
4896,32
4897,32
4898,32
4899,32
4900,33
4901,33
4902,32
4903,32
4904,33
4905,32
4906,32
4907,32
4908,32
4909,32
4910,32
4911,32
4912,32
4913,33
4914,33
4915,33
4916,33
4917,32
4918,32
4919,32
4920,32
4921,32
4922,32
4923,32
4924,32
4925,32
4926,32
4927,32
4928,32
4929,32
4930,32
4931,32
4932,32
4933,32
4934,32
4935,32
4936,32
4937,32
4938,32
4939,32
4940,33
4941,34
4942,33
4943,33
4944,33
4945,33
4946,33
4947,33
4948,32
4949,32
4950,32
4951,33
4952,32
4953,32
4954,32
4955,32
4956,32
4957,32
4958,32
4959,32
4960,32
4961,32
4962,33
4963,33
4964,33
4965,33
4966,33
4967,32
4968,32
4969,32
4970,32
4971,32
4972,32
4973,32
4974,32
4975,32
4976,32
4977,32
4978,32
4979,32
4980,32
4981,32
4982,32
4983,32
4984,32
4985,32
4986,32
4987,32
4988,32
4989,32
4990,32
4991,32
4992,32
4993,32
4994,32
4995,32
4996,32
4997,32
4998,32
4999,32
5000,32
5001,32
5002,32
5003,32
5004,32
5005,32
5006,32
5007,32
5008,32
5009,32
5010,32
5011,32
5012,32
5013,32
5014,32
5015,32
5016,32
5017,32
5018,32
5019,32
5020,32
5021,32
5022,32
5023,32
5024,32
5025,32
5026,32
5027,32
5028,32
5029,32
5030,32
5031,32
5032,32
5033,32
5034,32
5035,32
5036,32
5037,32
5038,32
5039,32
5040,32
5041,32
5042,32
5043,32
5044,32
5045,32
5046,32
5047,32
5048,32
5049,32
5050,32
5051,32
5052,32
5053,32
5054,32
5055,32
5056,32
5057,32
5058,32
5059,33
5060,33
5061,33
5062,33
5063,33
5064,32
5065,32
5066,32
5067,32
5068,32
5069,32
5070,32
5071,32
5072,34
5073,33
5074,33
5075,33
5076,33
5077,34
5078,33
5079,34
5080,33
5081,33
5082,33
5083,33
5084,33
5085,33
5086,33
5087,33
5088,33
5089,34
5090,34
5091,34
5092,34
5093,34
5094,34
5095,34
5096,34
5097,34
5098,34
5099,34
5100,34
5101,34
5102,34
5103,34
5104,34
5105,33
5106,33
5107,33
5108,33
5109,33
5110,33
5111,33
5112,33
5113,33
5114,33
5115,33
5116,33
5117,33
5118,33
5119,33
5120,33
5121,33
5122,33
5123,33
5124,33
5125,33
5126,33
5127,33
5128,33
5129,34
5130,34
5131,33
5132,33
5133,33
5134,33
5135,33
5136,33
5137,34
5138,34
5139,34
5140,34
5141,33
5142,33
5143,33
5144,34
5145,33
5146,33
5147,33
5148,33
5149,33
5150,33
5151,33
5152,33
5153,33
5154,33
5155,33
5156,33
5157,33
5158,33
5159,34
5160,33
5161,33
5162,33
5163,33
5164,33
5165,33
5166,33
5167,33
5168,33
5169,33
5170,33
5171,33
5172,33
5173,33
5174,33
5175,33
5176,33
5177,33
5178,33
5179,33
5180,33
5181,33
5182,33
5183,33
5184,33
5185,34
5186,34
5187,34
5188,34
5189,34
5190,34
5191,34
5192,34
5193,34
5194,34
5195,34
5196,35
5197,34
5198,34
5199,34
5200,34
5201,35
5202,35
5203,34
5204,34
5205,34
5206,34
5207,34
5208,34
5209,34
5210,34
5211,34
5212,34
5213,35
5214,34
5215,34
5216,34
5217,34
5218,34
5219,34
5220,34
5221,34
5222,34
5223,34
5224,34
5225,34
5226,34
5227,34
5228,34
5229,34
5230,34
5231,34
5232,34
5233,35
5234,36
5235,34
5236,34
5237,34
5238,34
5239,34
5240,34
5241,34
5242,34
5243,34
5244,34
5245,34
5246,34
5247,35
5248,34
5249,34
5250,34
5251,34
5252,34
5253,34
5254,34
5255,34
5256,34
5257,34
5258,34
5259,34
5260,34
5261,34
5262,34
5263,34
5264,34
5265,34
5266,34
5267,34
5268,34
5269,35
5270,35
5271,35
5272,35
5273,35
5274,35
5275,35
5276,35
5277,35
5278,35
5279,35
5280,35
5281,35
5282,35
5283,35
5284,35
5285,36
5286,36
5287,36
5288,36
5289,35
5290,35
5291,35
5292,35
5293,35
5294,35
5295,35
5296,35
5297,35
5298,35
5299,36
5300,36
5301,36
5302,36
5303,36
5304,36
5305,36
5306,36
5307,36
5308,36
5309,36
5310,36
5311,36
5312,36
5313,36
5314,36
5315,36
5316,36
5317,36
5318,36
5319,36
5320,36
5321,36
5322,36
5323,36
5324,35
5325,35
5326,35
5327,35
5328,35
5329,35
5330,35
5331,36
5332,36
5333,36
5334,36
5335,36
5336,36
5337,36
5338,36
5339,36
5340,36
5341,36
5342,36
5343,36
5344,36
5345,36
5346,37
5347,37
5348,36
5349,36
5350,36
5351,36
5352,36
5353,36
5354,36
5355,35
5356,35
5357,35
5358,35
5359,35
5360,35
5361,35
5362,35
5363,35
5364,35
5365,35
5366,34
5367,34
5368,34
5369,34
5370,34
5371,34
5372,34
5373,34
5374,34
5375,34
5376,34
5377,35
5378,35
5379,34
5380,34
5381,34
5382,34
5383,34
5384,34
5385,34
5386,34
5387,34
5388,34
5389,34
5390,34
5391,34
5392,34
5393,34
5394,34
5395,34
5396,35
5397,34
5398,34
5399,34
5400,34
5401,34
5402,34
5403,34
5404,34
5405,34
5406,34
5407,34
5408,34
5409,34
5410,34
5411,35
5412,35
5413,35
5414,34
5415,34
5416,34
5417,34
5418,34
5419,34
5420,34
5421,34
5422,34
5423,34
5424,34
5425,34
5426,35
5427,34
5428,34
5429,34
5430,34
5431,34
5432,34
5433,35
5434,34
5435,34
5436,34
5437,34
5438,34
5439,34
5440,34
5441,34
5442,34
5443,34
5444,34
5445,34
5446,34
5447,34
5448,34
5449,34
5450,34
5451,34
5452,34
5453,34
5454,34
5455,34
5456,35
5457,34
5458,34
5459,34
5460,34
5461,34
5462,34
5463,34
5464,34
5465,35
5466,35
5467,35
5468,34
5469,34
5470,34
5471,34
5472,34
5473,34
5474,34
5475,34
5476,34
5477,34
5478,34
5479,34
5480,34
5481,34
5482,34
5483,34
5484,34
5485,34
5486,34
5487,34
5488,34
5489,34
5490,34
5491,34
5492,34
5493,34
5494,35
5495,35
5496,34
5497,34
5498,34
5499,34
5500,34
5501,34
5502,34
5503,34
5504,34
5505,34
5506,34
5507,34
5508,34
5509,34
5510,34
5511,34
5512,34
5513,34
5514,34
5515,34
5516,34
5517,34
5518,34
5519,34
5520,34
5521,34
5522,34
5523,34
5524,34
5525,34
5526,34
5527,34
5528,34
5529,34
5530,34
5531,34
5532,34
5533,34
5534,34
5535,34
5536,34
5537,34
5538,34
5539,34
5540,34
5541,34
5542,34
5543,34
5544,34
5545,34
5546,34
5547,34
5548,34
5549,34
5550,34
5551,34
5552,34
5553,34
5554,34
5555,34
5556,34
5557,34
5558,34
5559,34
5560,34
5561,34
5562,34
5563,34
5564,34
5565,34
5566,34
5567,34
5568,34
5569,35
5570,34
5571,34
5572,34
5573,34
5574,34
5575,35
5576,35
5577,34
5578,34
5579,34
5580,34
5581,34
5582,34
5583,34
5584,34
5585,34
5586,34
5587,34
5588,34
5589,34
5590,35
5591,35
5592,34
5593,34
5594,34
5595,34
5596,34
5597,34
5598,34
5599,34
5600,34
5601,34
5602,34
5603,34
5604,34
5605,34
5606,34
5607,34
5608,34
5609,34
5610,34
5611,34
5612,34
5613,34
5614,34
5615,34
5616,34
5617,34
5618,34
5619,34
5620,34
5621,34
5622,34
5623,35
5624,35
5625,35
5626,35
5627,35
5628,35
5629,35
5630,35
5631,35
5632,34
5633,34
5634,34
5635,35
5636,35
5637,35
5638,34
5639,34
5640,35
5641,35
5642,35
5643,34
5644,34
5645,34
5646,34
5647,34
5648,35
5649,35
5650,35
5651,35
5652,36
5653,35
5654,35
5655,35
5656,35
5657,35
5658,35
5659,35
5660,35
5661,35
5662,35
5663,35
5664,35
5665,35
5666,35
5667,35
5668,35
5669,35
5670,35
5671,35
5672,35
5673,35
5674,35
5675,35
5676,35
5677,35
5678,35
5679,35
5680,35
5681,36
5682,35
5683,35
5684,35
5685,35
5686,35
5687,35
5688,35
5689,35
5690,35
5691,34
5692,34
5693,34
5694,35
5695,34
5696,34
5697,34
5698,34
5699,34
5700,34
5701,34
5702,34
5703,34
5704,34
5705,34
5706,34
5707,34
5708,34
5709,34
5710,34
5711,34
5712,34
5713,34
5714,34
5715,34
5716,34
5717,34
5718,34
5719,34
5720,34
5721,34
5722,34
5723,34
5724,35
5725,34
5726,35
5727,34
5728,34
5729,34
5730,34
5731,34
5732,34
5733,34
5734,34
5735,35
5736,35
5737,35
5738,35
5739,35
5740,35
5741,35
5742,35
5743,35
5744,35
5745,34
5746,34
5747,34
5748,34
5749,34
5750,34
5751,34
5752,34
5753,34
5754,34
5755,34
5756,34
5757,34
5758,34
5759,34
5760,34
5761,34
5762,34
5763,34
5764,34
5765,34
5766,34
5767,34
5768,34
5769,34
5770,34
5771,34
5772,34
5773,34
5774,34
5775,34
5776,34
5777,34
5778,34
5779,34
5780,34
5781,34
5782,34
5783,34
5784,34
5785,34
5786,34
5787,34
5788,34
5789,34
5790,34
5791,34
5792,34
5793,34
5794,34
5795,34
5796,34
5797,34
5798,34
5799,34
5800,34
5801,34
5802,34
5803,34
5804,34
5805,34
5806,34
5807,35
5808,34
5809,34
5810,34
5811,34
5812,34
5813,34
5814,34
5815,34
5816,34
5817,34
5818,34
5819,34
5820,34
5821,34
5822,34
5823,34
5824,34
5825,34
5826,34
5827,34
5828,34
5829,34
5830,34
5831,34
5832,34
5833,34
5834,34
5835,34
5836,34
5837,34
5838,34
5839,34
5840,34
5841,35
5842,34
5843,34
5844,34
5845,34
5846,34
5847,34
5848,34
5849,34
5850,34
5851,34
5852,34
5853,34
5854,34
5855,34
5856,34
5857,34
5858,34
5859,34
5860,34
5861,34
5862,35
5863,35
5864,35
5865,35
5866,35
5867,34
5868,34
5869,34
5870,34
5871,34
5872,34
5873,33
5874,34
5875,34
5876,35
5877,34
5878,34
5879,34
5880,33
5881,33
5882,33
5883,33
5884,33
5885,33
5886,33
5887,34
5888,34
5889,34
5890,33
5891,33
5892,33
5893,33
5894,33
5895,33
5896,33
5897,33
5898,33
5899,33
5900,33
5901,33
5902,34
5903,33
5904,33
5905,33
5906,33
5907,34
5908,34
5909,33
5910,33
5911,33
5912,33
5913,33
5914,33
5915,33
5916,33
5917,33
5918,33
5919,33
5920,33
5921,33
5922,33
5923,33
5924,33
5925,33
5926,33
5927,33
5928,33
5929,33
5930,33
5931,33
5932,33
5933,33
5934,33
5935,33
5936,33
5937,33
5938,33
5939,33
5940,33
5941,33
5942,34
5943,33
5944,33
5945,33
5946,33
5947,33
5948,33
5949,33
5950,33
5951,33
5952,33
5953,33
5954,33
5955,33
5956,33
5957,33
5958,33
5959,33
5960,33
5961,33
5962,33
5963,33
5964,35
5965,33
5966,33
5967,33
5968,33
5969,33
5970,33
5971,33
5972,33
5973,33
5974,33
5975,33
5976,33
5977,33
5978,33
5979,33
5980,33
5981,33
5982,33
5983,33
5984,33
5985,34
5986,33
5987,33
5988,33
5989,33
5990,33
5991,33
5992,33
5993,33
5994,33
5995,33
5996,34
5997,33
5998,33
5999,33
6000,33
6001,33
6002,33
6003,33
6004,33
6005,33
6006,34
6007,33
6008,33
6009,33
6010,33
6011,33
6012,33
6013,33
6014,33
6015,33
6016,33
6017,33
6018,33
6019,33
6020,33
6021,33
6022,33
6023,33
6024,33
6025,33
6026,33
6027,33
6028,33
6029,33
6030,33
6031,33
6032,33
6033,33
6034,33
6035,33
6036,33
6037,33
6038,33
6039,33
6040,33
6041,33
6042,33
6043,34
6044,33
6045,33
6046,33
6047,33
6048,33
6049,33
6050,33
6051,35
6052,34
6053,34
6054,34
6055,34
6056,34
6057,34
6058,34
6059,34
6060,34
6061,33
6062,33
6063,33
6064,34
6065,34
6066,34
6067,34
6068,34
6069,34
6070,34
6071,34
6072,34
6073,34
6074,34
6075,34
6076,34
6077,34
6078,34
6079,34
6080,34
6081,35
6082,35
6083,34
6084,36
6085,35
6086,36
6087,37
6088,36
6089,36
6090,37
6091,37
6092,37
6093,35
6094,35
6095,35
6096,35
6097,35
6098,36
6099,36
6100,35
6101,35
6102,34
6103,34
6104,34
6105,34
6106,34
6107,35
6108,35
6109,35
6110,34
6111,34
6112,34
6113,34
6114,34
6115,34
6116,34
6117,34
6118,34
6119,34
6120,34
6121,34
6122,34
6123,34
6124,34
6125,34
6126,34
6127,34
6128,34
6129,34
6130,34
6131,34
6132,34
6133,34
6134,34
6135,34
6136,34
6137,34
6138,34
6139,34
6140,34
6141,34
6142,34
6143,34
6144,34
6145,34
6146,34
6147,34
6148,34
6149,34
6150,34
6151,34
6152,34
6153,34
6154,34
6155,34
6156,34
6157,34
6158,34
6159,34
6160,34
6161,34
6162,35
6163,35
6164,35
6165,34
6166,34
6167,34
6168,34
6169,34
6170,34
6171,34
6172,34
6173,34
6174,34
6175,34
6176,34
6177,35
6178,35
6179,35
6180,34
6181,34
6182,35
6183,35
6184,34
6185,34
6186,34
6187,34
6188,34
6189,34
6190,34
6191,34
6192,34
6193,34
6194,34
6195,34
6196,34
6197,34
6198,34
6199,34
6200,34
6201,34
6202,34
6203,34
6204,34
6205,34
6206,34
6207,34
6208,34
6209,34
6210,34
6211,34
6212,34
6213,34
6214,34
6215,35
6216,34
6217,34
6218,34
6219,34
6220,34
6221,34
6222,34
6223,34
6224,34
6225,34
6226,34
6227,34
6228,34
6229,34
6230,34
6231,34
6232,34
6233,34
6234,34
6235,34
6236,34
6237,34
6238,34
6239,35
6240,34
6241,34
6242,34
6243,34
6244,34
6245,34
6246,34
6247,34
6248,34
6249,34
6250,34
6251,34
6252,34
6253,34
6254,34
6255,33
6256,33
6257,33
6258,33
6259,33
6260,33
6261,33
6262,33
6263,33
6264,33
6265,33
6266,33
6267,34
6268,34
6269,34
6270,34
6271,34
6272,34
6273,34
6274,34
6275,34
6276,35
6277,35
6278,35
6279,35
6280,35
6281,35
6282,35
6283,35
6284,35
6285,35
6286,35
6287,35
6288,34
6289,34
6290,34
6291,34
6292,35
6293,34
6294,34
6295,34
6296,34
6297,34
6298,34
6299,34
6300,34
6301,34
6302,34
6303,34
6304,34
6305,34
6306,34
6307,34
6308,34
6309,34
6310,34
6311,34
6312,34
6313,34
6314,34
6315,34
6316,34
6317,34
6318,34
6319,34
6320,34
6321,34
6322,34
6323,34
6324,34
6325,34
6326,34
6327,34
6328,34
6329,34
6330,34
6331,34
6332,34
6333,34
6334,34
6335,35
6336,36
6337,36
6338,34
6339,34
6340,34
6341,34
6342,35
6343,35
6344,34
6345,34
6346,34
6347,34
6348,34
6349,35
6350,34
6351,34
6352,34
6353,34
6354,34
6355,34
6356,34
6357,34
6358,34
6359,34
6360,34
6361,34
6362,34
6363,35
6364,35
6365,35
6366,35
6367,35
6368,35
6369,35
6370,35
6371,34
6372,34
6373,34
6374,34
6375,34
6376,34
6377,34
6378,34
6379,34
6380,34
6381,34
6382,34
6383,35
6384,35
6385,35
6386,35
6387,34
6388,34
6389,35
6390,34
6391,34
6392,34
6393,34
6394,34
6395,34
6396,34
6397,34
6398,34
6399,34
6400,34
6401,34
6402,35
6403,35
6404,35
6405,35
6406,35
6407,35
6408,34
6409,34
6410,34
6411,34
6412,34
6413,34
6414,34
6415,34
6416,34
6417,34
6418,35
6419,34
6420,34
6421,34
6422,34
6423,34
6424,34
6425,34
6426,34
6427,34
6428,34
6429,34
6430,34
6431,34
6432,34
6433,34
6434,34
6435,34
6436,34
6437,34
6438,34
6439,34
6440,34
6441,34
6442,34
6443,34
6444,34
6445,34
6446,34
6447,34
6448,34
6449,35
6450,35
6451,35
6452,35
6453,35
6454,35
6455,34
6456,34
6457,34
6458,34
6459,34
6460,35
6461,34
6462,35
6463,35
6464,34
6465,34
6466,34
6467,34
6468,34
6469,34
6470,35
6471,35
6472,35
6473,35
6474,36
6475,36
6476,34
6477,34
6478,34
6479,34
6480,34
6481,34
6482,34
6483,34
6484,34
6485,35
6486,34
6487,34
6488,35
6489,34
6490,34
6491,34
6492,34
6493,34
6494,34
6495,34
6496,34
6497,34
6498,34
6499,34
6500,34
6501,34
6502,34
6503,34
6504,34
6505,34
6506,36
6507,35
6508,35
6509,34
6510,34
6511,35
6512,35
6513,35
6514,34
6515,34
6516,34
6517,34
6518,34
6519,34
6520,34
6521,34
6522,34
6523,34
6524,35
6525,34
6526,34
6527,34
6528,34
6529,34
6530,34
6531,34
6532,34
6533,35
6534,35
6535,34
6536,34
6537,34
6538,34
6539,34
6540,34
6541,34
6542,34
6543,34
6544,34
6545,34
6546,34
6547,34
6548,34
6549,34
6550,34
6551,34
6552,34
6553,34
6554,34
6555,34
6556,34
6557,34
6558,34
6559,34
6560,34
6561,35
6562,35
6563,35
6564,34
6565,34
6566,34
6567,34
6568,34
6569,34
6570,34
6571,34
6572,34
6573,34
6574,34
6575,34
6576,34
6577,35
6578,35
6579,35
6580,35
6581,35
6582,35
6583,35
6584,35
6585,35
6586,35
6587,35
6588,35
6589,35
6590,35
6591,36
6592,35
6593,35
6594,35
6595,35
6596,35
6597,35
6598,35
6599,35
6600,35
6601,35
6602,35
6603,35
6604,35
6605,35
6606,35
6607,35
6608,35
6609,35
6610,36
6611,36
6612,36
6613,36
6614,36
6615,36
6616,36
6617,36
6618,36
6619,36
6620,36
6621,36
6622,36
6623,36
6624,36
6625,36
6626,36
6627,36
6628,36
6629,36
6630,36
6631,36
6632,36
6633,36
6634,36
6635,36
6636,36
6637,36
6638,37
6639,37
6640,37
6641,37
6642,37
6643,37
6644,37
6645,36
6646,36
6647,35
6648,35
6649,35
6650,35
6651,35
6652,35
6653,35
6654,35
6655,35
6656,35
6657,35
6658,36
6659,35
6660,35
6661,35
6662,36
6663,36
6664,35
6665,35
6666,35
6667,35
6668,35
6669,35
6670,35
6671,35
6672,35
6673,35
6674,35
6675,35
6676,35
6677,35
6678,35
6679,35
6680,35
6681,35
6682,35
6683,35
6684,35
6685,35
6686,34
6687,34
6688,34
6689,34
6690,34
6691,34
6692,34
6693,34
6694,34
6695,34
6696,34
6697,34
6698,34
6699,34
6700,34
6701,34
6702,34
6703,34
6704,34
6705,34
6706,34
6707,34
6708,34
6709,34
6710,35
6711,35
6712,35
6713,35
6714,36
6715,35
6716,35
6717,35
6718,35
6719,35
6720,35
6721,35
6722,35
6723,35
6724,35
6725,35
6726,35
6727,35
6728,35
6729,35
6730,35
6731,35
6732,36
6733,36
6734,37
6735,35
6736,35
6737,35
6738,35
6739,35
6740,35
6741,35
6742,35
6743,35
6744,35
6745,35
6746,35
6747,35
6748,35
6749,35
6750,35
6751,35
6752,35
6753,35
6754,35
6755,35
6756,35
6757,35
6758,35
6759,35
6760,35
6761,35
6762,35
6763,35
6764,35
6765,35
6766,35
6767,35
6768,35
6769,35
6770,35
6771,35
6772,35
6773,35
6774,35
6775,35
6776,35
6777,35
6778,35
6779,35
6780,35
6781,35
6782,35
6783,35
6784,35
6785,35
6786,35
6787,35
6788,35
6789,35
6790,35
6791,35
6792,35
6793,35
6794,35
6795,35
6796,35
6797,35
6798,35
6799,35
6800,35
6801,35
6802,35
6803,35
6804,35
6805,35
6806,35
6807,36
6808,36
6809,36
6810,36
6811,35
6812,36
6813,36
6814,37
6815,36
6816,37
6817,37
6818,37
6819,37
6820,38
6821,38
6822,38
6823,37
6824,37
6825,36
6826,36
6827,37
6828,36
6829,36
6830,36
6831,36
6832,36
6833,36
6834,36
6835,36
6836,36
6837,36
6838,36
6839,36
6840,36
6841,36
6842,36
6843,36
6844,36
6845,37
6846,37
6847,36
6848,36
6849,36
6850,37
6851,37
6852,36
6853,36
6854,36
6855,36
6856,36
6857,36
6858,36
6859,36
6860,36
6861,37
6862,37
6863,37
6864,37
6865,37
6866,37
6867,37
6868,37
6869,37
6870,37
6871,36
6872,36
6873,35
6874,35
6875,35
6876,35
6877,35
6878,35
6879,36
6880,35
6881,35
6882,35
6883,35
6884,35
6885,35
6886,35
6887,35
6888,36
6889,36
6890,36
6891,37
6892,36
6893,36
6894,35
6895,35
6896,35
6897,35
6898,35
6899,35
6900,35
6901,36
6902,36
6903,36
6904,36
6905,36
6906,36
6907,36
6908,36
6909,36
6910,36
6911,36
6912,36
6913,36
6914,36
6915,36
6916,36
6917,36
6918,36
6919,37
6920,36
6921,36
6922,36
6923,36
6924,36
6925,36
6926,36
6927,36
6928,36
6929,36
6930,37
6931,37
6932,37
6933,37
6934,37
6935,37
6936,37
6937,37
6938,36
6939,36
6940,37
6941,37
6942,37
6943,37
6944,37
6945,37
6946,37
6947,37
6948,37
6949,37
6950,37
6951,37
6952,37
6953,37
6954,37
6955,37
6956,37
6957,37
6958,38
6959,37
6960,37
6961,36
6962,37
6963,36
6964,36
6965,36
6966,36
6967,36
6968,36
6969,36
6970,36
6971,36
6972,36
6973,36
6974,36
6975,36
6976,36
6977,37
6978,38
6979,37
6980,37
6981,38
6982,38
6983,37
6984,37
6985,36
6986,36
6987,36
6988,36
6989,36
6990,36
6991,36
6992,36
6993,36
6994,36
6995,36
6996,36
6997,37
6998,37
6999,37
7000,37
7001,37
7002,37
7003,37
7004,37
7005,37
7006,37
7007,37
7008,37
7009,37
7010,37
7011,37
7012,37
7013,38
7014,37
7015,37
7016,37
7017,37
7018,37
7019,36
7020,36
7021,36
7022,36
7023,36
7024,36
7025,36
7026,36
7027,36
7028,36
7029,36
7030,36
7031,36
7032,36
7033,36
7034,36
7035,36
7036,36
7037,36
7038,36
7039,36
7040,36
7041,36
7042,36
7043,36
7044,36
7045,36
7046,36
7047,36
7048,36
7049,36
7050,36
7051,36
7052,36
7053,37
7054,37
7055,36
7056,36
7057,36
7058,36
7059,36
7060,36
7061,37
7062,37
7063,37
7064,37
7065,37
7066,37
7067,37
7068,37
7069,38
7070,37
7071,37
7072,37
7073,37
7074,37
7075,37
7076,37
7077,37
7078,37
7079,38
7080,38
7081,38
7082,38
7083,38
7084,38
7085,38
7086,38
7087,38
7088,38
7089,38
7090,37
7091,38
7092,38
7093,37
7094,37
7095,36
7096,36
7097,36
7098,36
7099,36
7100,37
7101,36
7102,36
7103,36
7104,36
7105,37
7106,37
7107,36
7108,36
7109,36
7110,36
7111,36
7112,37
7113,37
7114,37
7115,37
7116,37
7117,37
7118,36
7119,36
7120,36
7121,36
7122,36
7123,36
7124,36
7125,36
7126,36
7127,36
7128,36
7129,36
7130,36
7131,36
7132,36
7133,36
7134,36
7135,36
7136,36
7137,36
7138,36
7139,36
7140,36
7141,36
7142,36
7143,36
7144,36
7145,36
7146,36
7147,36
7148,36
7149,36
7150,36
7151,36
7152,36
7153,37
7154,36
7155,36
7156,36
7157,36
7158,36
7159,36
7160,36
7161,36
7162,36
7163,36
7164,37
7165,37
7166,37
7167,37
7168,37
7169,37
7170,36
7171,36
7172,36
7173,36
7174,36
7175,36
7176,36
7177,36
7178,36
7179,36
7180,36
7181,36
7182,36
7183,36
7184,36
7185,36
7186,36
7187,36
7188,36
7189,36
7190,36
7191,36
7192,36
7193,36
7194,36
7195,36
7196,36
7197,36
7198,36
7199,36
7200,36
7201,36
7202,36
7203,36
7204,36
7205,36
7206,36
7207,36
7208,36
7209,36
7210,36
7211,36
7212,36
7213,36
7214,36
7215,36
7216,36
7217,36
7218,37
7219,36
7220,37
7221,36
7222,36
7223,36
7224,36
7225,35
7226,35
7227,35
7228,35
7229,35
7230,35
7231,35
7232,35
7233,36
7234,35
7235,35
7236,35
7237,35
7238,35
7239,35
7240,35
7241,35
7242,35
7243,35
7244,35
7245,35
7246,35
7247,35
7248,35
7249,35
7250,35
7251,35
7252,35
7253,36
7254,36
7255,36
7256,36
7257,36
7258,36
7259,36
7260,36
7261,36
7262,36
7263,36
7264,36
7265,36
7266,36
7267,36
7268,36
7269,36
7270,36
7271,36
7272,35
7273,35
7274,35
7275,35
7276,35
7277,36
7278,36
7279,36
7280,36
7281,36
7282,36
7283,36
7284,35
7285,35
7286,35
7287,35
7288,35
7289,35
7290,35
7291,35
7292,35
7293,35
7294,35
7295,35
7296,35
7297,35
7298,35
7299,36
7300,37
7301,36
7302,35
7303,35
7304,35
7305,35
7306,34
7307,34
7308,34
7309,34
7310,34
7311,34
7312,34
7313,34
7314,34
7315,34
7316,34
7317,34
7318,34
7319,34
7320,34
7321,34
7322,34
7323,34
7324,35
7325,35
7326,35
7327,35
7328,35
7329,35
7330,35
7331,35
7332,35
7333,35
7334,35
7335,34
7336,34
7337,34
7338,34
7339,34
7340,35
7341,34
7342,34
7343,34
7344,34
7345,34
7346,35
7347,34
7348,34
7349,34
7350,35
7351,35
7352,34
7353,34
7354,34
7355,34
7356,34
7357,34
7358,34
7359,34
7360,34
7361,34
7362,34
7363,34
7364,34
7365,34
7366,34
7367,34
7368,34
7369,34
7370,34
7371,34
7372,34
7373,34
7374,34
7375,34
7376,33
7377,33
7378,33
7379,34
7380,33
7381,33
7382,33
7383,33
7384,34
7385,33
7386,33
7387,33
7388,33
7389,33
7390,33
7391,33
7392,33
7393,34
7394,34
7395,33
7396,33
7397,33
7398,33
7399,33
7400,33
7401,33
7402,33
7403,33
7404,33
7405,33
7406,33
7407,33
7408,33
7409,33
7410,33
7411,33
7412,33
7413,33
7414,33
7415,33
7416,33
7417,33
7418,33
7419,33
7420,33
7421,33
7422,33
7423,33
7424,33
7425,33
7426,33
7427,33
7428,33
7429,33
7430,33
7431,33
7432,33
7433,33
7434,33
7435,34
7436,35
7437,34
7438,34
7439,34
7440,34
7441,34
7442,34
7443,34
7444,34
7445,34
7446,34
7447,35
7448,35
7449,35
7450,36
7451,36
7452,36
7453,36
7454,37
7455,36
7456,35
7457,36
7458,36
7459,36
7460,36
7461,35
7462,34
7463,34
7464,34
7465,34
7466,34
7467,34
7468,34
7469,34
7470,34
7471,34
7472,34
7473,34
7474,34
7475,34
7476,34
7477,34
7478,34
7479,34
7480,34
7481,34
7482,34
7483,34
7484,34
7485,34
7486,34
7487,34
7488,34
7489,34
7490,34
7491,34
7492,34
7493,34
7494,34
7495,34
7496,34
7497,34
7498,34
7499,34
7500,34
7501,35
7502,34
7503,34
7504,34
7505,34
7506,34
7507,34
7508,34
7509,34
7510,34
7511,34
7512,34
7513,34
7514,34
7515,36
7516,35
7517,34
7518,35
7519,35
7520,34
7521,34
7522,34
7523,34
7524,34
7525,34
7526,34
7527,34
7528,34
7529,34
7530,34
7531,34
7532,34
7533,34
7534,34
7535,34
7536,34
7537,34
7538,34
7539,34
7540,35
7541,34
7542,34
7543,34
7544,34
7545,34
7546,34
7547,34
7548,34
7549,34
7550,35
7551,34
7552,34
7553,34
7554,34
7555,34
7556,34
7557,34
7558,34
7559,35
7560,34
7561,34
7562,34
7563,34
7564,34
7565,34
7566,34
7567,34
7568,34
7569,33
7570,33
7571,33
7572,33
7573,33
7574,33
7575,33
7576,33
7577,33
7578,33
7579,33
7580,32
7581,32
7582,32
7583,32
7584,32
7585,32
7586,32
7587,32
7588,32
7589,32
7590,32
7591,32
7592,32
7593,32
7594,32
7595,32
7596,32
7597,32
7598,32
7599,32
7600,32
7601,32
7602,33
7603,32
7604,32
7605,32
7606,32
7607,32
7608,33
7609,33
7610,33
7611,32
7612,32
7613,33
7614,32
7615,32
7616,32
7617,32
7618,32
7619,32
7620,32
7621,32
7622,32
7623,32
7624,32
7625,32
7626,32
7627,32
7628,32
7629,32
7630,32
7631,32
7632,32
7633,32
7634,33
7635,32
7636,32
7637,32
7638,32
7639,32
7640,32
7641,32
7642,32
7643,33
7644,33
7645,33
7646,32
7647,32
7648,32
7649,32
7650,32
7651,32
7652,32
7653,32
7654,32
7655,32
7656,32
7657,32
7658,32
7659,32
7660,32
7661,33
7662,33
7663,33
7664,33
7665,34
7666,32
7667,32
7668,32
7669,32
7670,32
7671,32
7672,32
7673,32
7674,32
7675,32
7676,32
7677,32
7678,32
7679,32
7680,32
7681,32
7682,32
7683,32
7684,32
7685,32
7686,32
7687,32
7688,32
7689,33
7690,32
7691,32
7692,32
7693,32
7694,32
7695,32
7696,32
7697,32
7698,32
7699,32
7700,32
7701,32
7702,32
7703,32
7704,32
7705,32
7706,32
7707,33
7708,32
7709,32
7710,32
7711,32
7712,32
7713,32
7714,32
7715,32
7716,33
7717,32
7718,32
7719,32
7720,32
7721,33
7722,33
7723,33
7724,33
7725,33
7726,33
7727,33
7728,33
7729,32
7730,32
7731,32
7732,32
7733,31
7734,31
7735,31
7736,31
7737,31
7738,31
7739,31
7740,31
7741,31
7742,31
7743,31
7744,31
7745,31
7746,31
7747,31
7748,31
7749,31
7750,31
7751,31
7752,31
7753,31
7754,31
7755,31
7756,32
7757,32
7758,33
7759,32
7760,32
7761,32
7762,32
7763,32
7764,32
7765,32
7766,32
7767,32
7768,32
7769,32
7770,32
7771,32
7772,32
7773,32
7774,32
7775,32
7776,32
7777,32
7778,32
7779,32
7780,32
7781,32
7782,32
7783,32
7784,32
7785,32
7786,32
7787,32
7788,32
7789,32
7790,33
7791,32
7792,32
7793,32
7794,32
7795,32
7796,32
7797,32
7798,32
7799,32
7800,32
7801,32
7802,32
7803,32
7804,32
7805,32
7806,32
7807,32
7808,32
7809,32
7810,32
7811,33
7812,32
7813,32
7814,32
7815,32
7816,32
7817,32
7818,32
7819,32
7820,32
7821,32
7822,32
7823,33
7824,32
7825,33
7826,33
7827,33
7828,33
7829,33
7830,33
7831,33
7832,32
7833,32
7834,32
7835,32
7836,32
7837,32
7838,32
7839,32
7840,32
7841,32
7842,32
7843,32
7844,32
7845,32
7846,32
7847,32
7848,32
7849,32
7850,32
7851,32
7852,33
7853,33
7854,33
7855,33
7856,33
7857,33
7858,33
7859,33
7860,33
7861,33
7862,33
7863,33
7864,33
7865,33
7866,33
7867,33
7868,33
7869,34
7870,34
7871,34
7872,34
7873,34
7874,34
7875,33
7876,34
7877,34
7878,34
7879,34
7880,34
7881,34
7882,34
7883,34
7884,35
7885,33
7886,33
7887,34
7888,34
7889,33
7890,33
7891,33
7892,33
7893,33
7894,33
7895,33
7896,33
7897,33
7898,33
7899,33
7900,33
7901,33
7902,33
7903,33
7904,33
7905,34
7906,34
7907,34
7908,34
7909,34
7910,34
7911,35
7912,35
7913,35
7914,35
7915,35
7916,34
7917,35
7918,35
7919,34
7920,34
7921,34
7922,34
7923,34
7924,34
7925,34
7926,34
7927,34
7928,34
7929,35
7930,34
7931,34
7932,34
7933,35
7934,35
7935,35
7936,34
7937,34
7938,34
7939,34
7940,34
7941,34
7942,34
7943,33
7944,33
7945,33
7946,33
7947,33
7948,33
7949,33
7950,33
7951,33
7952,33
7953,33
7954,33
7955,33
7956,33
7957,33
7958,33
7959,33
7960,33
7961,33
7962,33
7963,33
7964,33
7965,33
7966,33
7967,33
7968,33
7969,33
7970,33
7971,33
7972,33
7973,33
7974,33
7975,33
7976,33
7977,33
7978,33
7979,33
7980,33
7981,33
7982,33
7983,33
7984,33
7985,33
7986,33
7987,33
7988,33
7989,33
7990,33
7991,33
7992,33
7993,33
7994,33
7995,34
7996,34
7997,33
7998,33
7999,33
8000,33
8001,33
8002,33
8003,33
8004,33
8005,33
8006,33
8007,33
8008,33
8009,33
8010,33
8011,33
8012,33
8013,33
8014,33
8015,33
8016,33
8017,33
8018,33
8019,33
8020,34
8021,33
8022,33
8023,33
8024,33
8025,33
8026,33
8027,33
8028,33
8029,33
8030,33
8031,33
8032,33
8033,33
8034,34
8035,34
8036,34
8037,34
8038,34
8039,34
8040,34
8041,33
8042,33
8043,33
8044,33
8045,33
8046,33
8047,33
8048,33
8049,33
8050,33
8051,33
8052,33
8053,33
8054,33
8055,33
8056,33
8057,33
8058,33
8059,33
8060,33
8061,33
8062,33
8063,33
8064,33
8065,33
8066,33
8067,33
8068,33
8069,33
8070,33
8071,33
8072,33
8073,33
8074,33
8075,33
8076,33
8077,33
8078,33
8079,33
8080,33
8081,33
8082,33
8083,33
8084,33
8085,33
8086,34
8087,33
8088,33
8089,33
8090,34
8091,33
8092,33
8093,33
8094,33
8095,33
8096,33
8097,33
8098,33
8099,33
8100,33
8101,33
8102,33
8103,33
8104,33
8105,33
8106,34
8107,34
8108,34
8109,34
8110,34
8111,34
8112,34
8113,35
8114,35
8115,34
8116,34
8117,34
8118,34
8119,34
8120,34
8121,34
8122,34
8123,34
8124,33
8125,33
8126,33
8127,33
8128,33
8129,33
8130,33
8131,34
8132,34
8133,33
8134,33
8135,33
8136,33
8137,33
8138,33
8139,33
8140,33
8141,33
8142,33
8143,33
8144,33
8145,34
8146,34
8147,34
8148,34
8149,34
8150,34
8151,33
8152,34
8153,34
8154,33
8155,33
8156,33
8157,33
8158,33
8159,33
8160,33
8161,33
8162,33
8163,33
8164,33
8165,33
8166,33
8167,33
8168,33
8169,33
8170,33
8171,33
8172,34
8173,34
8174,34
8175,34
8176,34
8177,34
8178,34
8179,34
8180,34
8181,34
8182,34
8183,34
8184,35
8185,35
8186,35
8187,35
8188,35
8189,36
8190,36
8191,35
8192,35
8193,35
8194,35
8195,35
8196,35
8197,35
8198,35
8199,35
8200,35
8201,35
8202,35
8203,35
8204,35
8205,35
8206,35
8207,35
8208,35
8209,36
8210,36
8211,36
8212,36
8213,35
8214,35
8215,35
8216,35
8217,35
8218,35
8219,35
8220,35
8221,35
8222,35
8223,35
8224,35
8225,35
8226,35
8227,35
8228,35
8229,35
8230,36
8231,35
8232,35
8233,35
8234,35
8235,35
8236,35
8237,35
8238,35
8239,35
8240,35
8241,35
8242,35
8243,35
8244,36
8245,36
8246,36
8247,36
8248,36
8249,36
8250,36
8251,35
8252,35
8253,35
8254,36
8255,36
8256,36
8257,36
8258,36
8259,35
8260,35
8261,35
8262,35
8263,35
8264,35
8265,35
8266,34
8267,34
8268,34
8269,34
8270,34
8271,34
8272,35
8273,35
8274,34
8275,34
8276,34
8277,34
8278,34
8279,34
8280,34
8281,34
8282,34
8283,34
8284,34
8285,34
8286,34
8287,34
8288,34
8289,34
8290,34
8291,34
8292,34
8293,34
8294,34
8295,34
8296,34
8297,34
8298,34
8299,34
8300,34
8301,34
8302,34
8303,35
8304,34
8305,34
8306,34
8307,34
8308,34
8309,35
8310,35
8311,35
8312,35
8313,35
8314,35
8315,35
8316,35
8317,35
8318,35
8319,35
8320,35
8321,35
8322,35
8323,35
8324,35
8325,35
8326,35
8327,35
8328,34
8329,34
8330,34
8331,34
8332,35
8333,34
8334,34
8335,35
8336,34
8337,34
8338,34
8339,34
8340,34
8341,34
8342,34
8343,34
8344,34
8345,34
8346,34
8347,34
8348,34
8349,34
8350,34
8351,34
8352,34
8353,34
8354,34
8355,34
8356,34
8357,34
8358,34
8359,34
8360,34
8361,34
8362,34
8363,35
8364,34
8365,34
8366,34
8367,34
8368,34
8369,34
8370,34
8371,34
8372,34
8373,34
8374,34
8375,34
8376,34
8377,34
8378,34
8379,34
8380,34
8381,34
8382,35
8383,35
8384,34
8385,34
8386,34
8387,34
8388,34
8389,34
8390,35
8391,35
8392,35
8393,35
8394,35
8395,35
8396,35
8397,35
8398,35
8399,35
8400,35
8401,35
8402,35
8403,35
8404,36
8405,36
8406,35
8407,35
8408,35
8409,35
8410,35
8411,35
8412,35
8413,35
8414,35
8415,35
8416,34
8417,34
8418,34
8419,34
8420,34
8421,34
8422,34
8423,34
8424,34
8425,34
8426,34
8427,34
8428,34
8429,34
8430,35
8431,35
8432,35
8433,35
8434,35
8435,35
8436,36
8437,35
8438,34
8439,34
8440,34
8441,34
8442,34
8443,34
8444,34
8445,34
8446,34
8447,34
8448,34
8449,35
8450,34
8451,34
8452,34
8453,34
8454,34
8455,34
8456,34
8457,34
8458,34
8459,34
8460,34
8461,34
8462,34
8463,34
8464,35
8465,34
8466,34
8467,34
8468,34
8469,34
8470,35
8471,35
8472,35
8473,35
8474,35
8475,35
8476,35
8477,35
8478,35
8479,34
8480,34
8481,34
8482,34
8483,34
8484,34
8485,34
8486,34
8487,34
8488,34
8489,35
8490,35
8491,35
8492,35
8493,35
8494,35
8495,35
8496,35
8497,35
8498,35
8499,34
8500,34
8501,34
8502,34
8503,34
8504,34
8505,34
8506,34
8507,34
8508,34
8509,34
8510,34
8511,35
8512,35
8513,35
8514,35
8515,35
8516,35
8517,35
8518,35
8519,35
8520,35
8521,35
8522,35
8523,35
8524,35
8525,34
8526,34
8527,34
8528,34
8529,34
8530,34
8531,34
8532,34
8533,35
8534,34
8535,34
8536,34
8537,34
8538,34
8539,34
8540,34
8541,35
8542,34
8543,34
8544,34
8545,35
8546,34
8547,34
8548,34
8549,35
8550,35
8551,35
8552,35
8553,35
8554,35
8555,35
8556,35
8557,35
8558,35
8559,35
8560,35
8561,35
8562,35
8563,35
8564,35
8565,35
8566,35
8567,35
8568,35
8569,35
8570,35
8571,35
8572,35
8573,35
8574,35
8575,35
8576,35
8577,35
8578,35
8579,35
8580,35
8581,35
8582,35
8583,35
8584,35
8585,35
8586,35
8587,35
8588,35
8589,36
8590,36
8591,35
8592,35
8593,35
8594,35
8595,35
8596,35
8597,35
8598,35
8599,35
8600,35
8601,35
8602,35
8603,35
8604,35
8605,35
8606,35
8607,35
8608,35
8609,35
8610,36
8611,36
8612,36
8613,36
8614,35
8615,35
8616,35
8617,35
8618,35
8619,35
8620,35
8621,35
8622,35
8623,35
8624,35
8625,35
8626,35
8627,35
8628,35
8629,35
8630,35
8631,35
8632,35
8633,35
8634,35
8635,35
8636,35
8637,35
8638,35
8639,35
8640,35
8641,35
8642,35
8643,35
8644,35
8645,35
8646,35
8647,35
8648,35
8649,35
8650,36
8651,36
8652,36
8653,36
8654,35
8655,35
8656,35
8657,35
8658,35
8659,35
8660,35
8661,36
8662,36
8663,36
8664,36
8665,35
8666,35
8667,35
8668,35
8669,35
8670,35
8671,35
8672,35
8673,35
8674,35
8675,35
8676,35
8677,35
8678,35
8679,35
8680,35
8681,35
8682,35
8683,35
8684,35
8685,35
8686,35
8687,35
8688,35
8689,35
8690,35
8691,35
8692,35
8693,35
8694,35
8695,35
8696,35
8697,36
8698,36
8699,36
8700,36
8701,36
8702,36
8703,36
8704,36
8705,36
8706,36
8707,36
8708,36
8709,36
8710,36
8711,37
8712,37
8713,36
8714,36
8715,36
8716,36
8717,36
8718,36
8719,36
8720,36
8721,36
8722,36
8723,36
8724,36
8725,36
8726,36
8727,36
8728,36
8729,37
8730,36
8731,36
8732,36
8733,36
8734,36
8735,36
8736,36
8737,36
8738,36
8739,36
8740,36
8741,37
8742,36
8743,36
8744,36
8745,36
8746,36
8747,36
8748,36
8749,36
8750,36
8751,36
8752,36
8753,36
8754,36
8755,36
8756,36
8757,36
8758,36
8759,36
8760,36
8761,36
8762,36
8763,36
8764,37
8765,36
8766,37
8767,37
8768,37
8769,37
8770,37
8771,37
8772,36
8773,36
8774,36
8775,36
8776,36
8777,36
8778,36
8779,36
8780,36
8781,36
8782,37
8783,37
8784,37
8785,37
8786,36
8787,36
8788,36
8789,36
8790,36
8791,36
8792,36
8793,36
8794,36
8795,36
8796,36
8797,36
8798,36
8799,36
8800,36
8801,36
8802,36
8803,36
8804,36
8805,36
8806,36
8807,36
8808,36
8809,36
8810,36
8811,36
8812,36
8813,36
8814,36
8815,36
8816,36
8817,36
8818,36
8819,36
8820,36
8821,36
8822,36
8823,36
8824,36
8825,36
8826,36
8827,36
8828,36
8829,36
8830,36
8831,36
8832,36
8833,36
8834,36
8835,37
8836,37
8837,37
8838,37
8839,37
8840,37
8841,37
8842,37
8843,37
8844,37
8845,37
8846,36
8847,36
8848,36
8849,36
8850,36
8851,37
8852,37
8853,37
8854,37
8855,38
8856,37
8857,37
8858,37
8859,36
8860,36
8861,36
8862,36
8863,36
8864,36
8865,36
8866,36
8867,36
8868,36
8869,36
8870,36
8871,36
8872,36
8873,36
8874,36
8875,36
8876,36
8877,36
8878,36
8879,36
8880,36
8881,37
8882,36
8883,36
8884,36
8885,36
8886,36
8887,36
8888,36
8889,36
8890,36
8891,36
8892,36
8893,36
8894,36
8895,36
8896,36
8897,35
8898,35
8899,35
8900,35
8901,35
8902,35
8903,35
8904,35
8905,35
8906,35
8907,35
8908,35
8909,35
8910,35
8911,35
8912,35
8913,35
8914,35
8915,36
8916,36
8917,36
8918,36
8919,36
8920,36
8921,36
8922,36
8923,36
8924,36
8925,36
8926,36
8927,36
8928,36
8929,35
8930,35
8931,35
8932,35
8933,35
8934,35
8935,35
8936,35
8937,35
8938,35
8939,35
8940,35
8941,35
8942,35
8943,35
8944,35
8945,35
8946,35
8947,35
8948,35
8949,35
8950,35
8951,35
8952,35
8953,35
8954,35
8955,35
8956,35
8957,35
8958,36
8959,35
8960,35
8961,35
8962,35
8963,35
8964,35
8965,35
8966,35
8967,35
8968,35
8969,36
8970,36
8971,36
8972,36
8973,36
8974,36
8975,35
8976,35
8977,35
8978,35
8979,35
8980,36
8981,36
8982,36
8983,36
8984,35
8985,35
8986,35
8987,35
8988,35
8989,35
8990,35
8991,35
8992,35
8993,35
8994,35
8995,35
8996,35
8997,35
8998,35
8999,35
9000,35
9001,35
9002,35
9003,35
9004,35
9005,35
9006,35
9007,35
9008,35
9009,35
9010,35
9011,35
9012,35
9013,35
9014,35
9015,35
9016,35
9017,35
9018,35
9019,36
9020,36
9021,36
9022,37
9023,36
9024,35
9025,35
9026,35
9027,35
9028,35
9029,35
9030,35
9031,35
9032,35
9033,36
9034,35
9035,35
9036,36
9037,36
9038,36
9039,36
9040,36
9041,36
9042,36
9043,36
9044,36
9045,36
9046,36
9047,36
9048,36
9049,36
9050,36
9051,36
9052,36
9053,36
9054,36
9055,35
9056,35
9057,35
9058,35
9059,35
9060,35
9061,36
9062,36
9063,36
9064,36
9065,36
9066,37
9067,37
9068,37
9069,37
9070,37
9071,36
9072,35
9073,35
9074,35
9075,35
9076,35
9077,35
9078,35
9079,35
9080,35
9081,35
9082,35
9083,35
9084,35
9085,35
9086,35
9087,35
9088,35
9089,35
9090,35
9091,35
9092,35
9093,35
9094,35
9095,35
9096,36
9097,35
9098,35
9099,35
9100,35
9101,35
9102,35
9103,35
9104,35
9105,35
9106,35
9107,35
9108,35
9109,35
9110,35
9111,35
9112,35
9113,35
9114,35
9115,35
9116,35
9117,35
9118,35
9119,35
9120,35
9121,35
9122,35
9123,35
9124,35
9125,35
9126,35
9127,35
9128,35
9129,35
9130,35
9131,35
9132,35
9133,35
9134,35
9135,35
9136,35
9137,35
9138,35
9139,35
9140,35
9141,35
9142,35
9143,35
9144,35
9145,35
9146,35
9147,35
9148,35
9149,36
9150,36
9151,36
9152,35
9153,34
9154,34
9155,34
9156,34
9157,34
9158,35
9159,34
9160,34
9161,34
9162,34
9163,34
9164,35
9165,34
9166,34
9167,34
9168,34
9169,34
9170,34
9171,34
9172,34
9173,34
9174,34
9175,34
9176,34
9177,34
9178,34
9179,34
9180,34
9181,34
9182,34
9183,34
9184,34
9185,34
9186,34
9187,35
9188,36
9189,35
9190,35
9191,35
9192,35
9193,35
9194,35
9195,35
9196,35
9197,35
9198,35
9199,35
9200,35
9201,34
9202,34
9203,34
9204,34
9205,34
9206,34
9207,34
9208,34
9209,34
9210,34
9211,34
9212,35
9213,35
9214,35
9215,35
9216,35
9217,35
9218,34
9219,34
9220,34
9221,34
9222,34
9223,34
9224,33
9225,33
9226,33
9227,33
9228,33
9229,33
9230,33
9231,33
9232,33
9233,33
9234,33
9235,33
9236,33
9237,33
9238,33
9239,33
9240,33
9241,33
9242,33
9243,33
9244,33
9245,33
9246,33
9247,33
9248,33
9249,34
9250,34
9251,34
9252,34
9253,34
9254,34
9255,35
9256,35
9257,36
9258,36
9259,36
9260,35
9261,35
9262,35
9263,34
9264,34
9265,34
9266,34
9267,34
9268,34
9269,34
9270,34
9271,34
9272,34
9273,34
9274,34
9275,34
9276,34
9277,34
9278,34
9279,34
9280,34
9281,34
9282,34
9283,34
9284,34
9285,34
9286,35
9287,34
9288,34
9289,34
9290,34
9291,34
9292,34
9293,34
9294,34
9295,34
9296,34
9297,34
9298,34
9299,34
9300,34
9301,35
9302,34
9303,34
9304,35
9305,34
9306,34
9307,34
9308,34
9309,34
9310,34
9311,34
9312,34
9313,34
9314,34
9315,34
9316,34
9317,34
9318,34
9319,34
9320,34
9321,34
9322,34
9323,35
9324,35
9325,35
9326,35
9327,35
9328,34
9329,34
9330,34
9331,34
9332,34
9333,34
9334,34
9335,34
9336,34
9337,34
9338,34
9339,35
9340,35
9341,34
9342,34
9343,34
9344,35
9345,35
9346,35
9347,35
9348,36
9349,36
9350,36
9351,36
9352,36
9353,36
9354,36
9355,36
9356,36
9357,36
9358,36
9359,37
9360,37
9361,37
9362,37
9363,37
9364,37
9365,36
9366,36
9367,36
9368,36
9369,36
9370,36
9371,35
9372,35
9373,35
9374,35
9375,35
9376,35
9377,35
9378,35
9379,35
9380,35
9381,35
9382,35
9383,35
9384,35
9385,35
9386,36
9387,36
9388,36
9389,36
9390,36
9391,36
9392,36
9393,36
9394,36
9395,36
9396,36
9397,35
9398,35
9399,34
9400,34
9401,34
9402,35
9403,34
9404,34
9405,34
9406,34
9407,34
9408,34
9409,34
9410,34
9411,34
9412,34
9413,34
9414,35
9415,35
9416,35
9417,34
9418,34
9419,34
9420,34
9421,34
9422,34
9423,34
9424,34
9425,34
9426,34
9427,34
9428,35
9429,34
9430,34
9431,34
9432,34
9433,34
9434,34
9435,34
9436,34
9437,35
9438,35
9439,35
9440,34
9441,34
9442,34
9443,34
9444,34
9445,35
9446,35
9447,35
9448,34
9449,34
9450,34
9451,34
9452,35
9453,34
9454,34
9455,34
9456,34
9457,34
9458,34
9459,34
9460,34
9461,35
9462,34
9463,35
9464,34
9465,34
9466,34
9467,35
9468,34
9469,34
9470,35
9471,35
9472,35
9473,34
9474,34
9475,34
9476,34
9477,34
9478,35
9479,35
9480,35
9481,35
9482,35
9483,35
9484,36
9485,36
9486,36
9487,35
9488,35
9489,35
9490,36
9491,35
9492,35
9493,35
9494,35
9495,35
9496,35
9497,35
9498,35
9499,35
9500,35
9501,35
9502,35
9503,35
9504,35
9505,35
9506,36
9507,36
9508,36
9509,36
9510,36
9511,36
9512,36
9513,36
9514,36
9515,35
9516,34
9517,34
9518,34
9519,34
9520,34
9521,34
9522,34
9523,34
9524,34
9525,34
9526,34
9527,34
9528,34
9529,34
9530,34
9531,34
9532,34
9533,34
9534,34
9535,34
9536,34
9537,34
9538,34
9539,34
9540,34
9541,34
9542,34
9543,34
9544,34
9545,34
9546,34
9547,34
9548,34
9549,34
9550,34
9551,34
9552,34
9553,34
9554,34
9555,34
9556,34
9557,34
9558,34
9559,34
9560,34
9561,34
9562,34
9563,34
9564,35
9565,35
9566,35
9567,35
9568,35
9569,35
9570,35
9571,35
9572,35
9573,35
9574,35
9575,35
9576,35
9577,35
9578,35
9579,35
9580,35
9581,35
9582,35
9583,36
9584,35
9585,35
9586,35
9587,37
9588,35
9589,35
9590,35
9591,35
9592,35
9593,34
9594,34
9595,34
9596,34
9597,34
9598,34
9599,34
9600,34
9601,34
9602,34
9603,35
9604,35
9605,35
9606,35
9607,35
9608,35
9609,35
9610,34
9611,34
9612,34
9613,34
9614,34
9615,34
9616,34
9617,34
9618,34
9619,34
9620,34
9621,34
9622,34
9623,34
9624,34
9625,34
9626,35
9627,34
9628,34
9629,34
9630,34
9631,34
9632,35
9633,34
9634,34
9635,34
9636,34
9637,34
9638,34
9639,34
9640,34
9641,34
9642,34
9643,34
9644,34
9645,34
9646,34
9647,34
9648,34
9649,34
9650,34
9651,34
9652,34
9653,34
9654,34
9655,34
9656,34
9657,34
9658,34
9659,34
9660,34
9661,34
9662,34
9663,34
9664,34
9665,34
9666,34
9667,34
9668,34
9669,34
9670,34
9671,34
9672,34
9673,34
9674,34
9675,34
9676,34
9677,34
9678,34
9679,34
9680,34
9681,34
9682,34
9683,34
9684,34
9685,34
9686,34
9687,35
9688,35
9689,35
9690,35
9691,35
9692,35
9693,35
9694,35
9695,35
9696,35
9697,35
9698,35
9699,35
9700,35
9701,35
9702,35
9703,35
9704,36
9705,34
9706,34
9707,34
9708,34
9709,34
9710,34
9711,34
9712,34
9713,34
9714,34
9715,34
9716,34
9717,34
9718,34
9719,34
9720,34
9721,34
9722,34
9723,34
9724,34
9725,34
9726,34
9727,34
9728,35
9729,34
9730,34
9731,34
9732,34
9733,34
9734,34
9735,34
9736,34
9737,34
9738,34
9739,34
9740,34
9741,34
9742,34
9743,34
9744,34
9745,34
9746,34
9747,34
9748,34
9749,34
9750,34
9751,34
9752,34
9753,34
9754,35
9755,35
9756,35
9757,34
9758,34
9759,34
9760,34
9761,34
9762,34
9763,34
9764,34
9765,34
9766,34
9767,34
9768,34
9769,34
9770,34
9771,35
9772,34
9773,34
9774,34
9775,34
9776,34
9777,34
9778,34
9779,34
9780,34
9781,33
9782,33
9783,33
9784,33
9785,33
9786,33
9787,33
9788,34
9789,34
9790,34
9791,33
9792,33
9793,33
9794,33
9795,33
9796,34
9797,34
9798,34
9799,35
9800,33
9801,33
9802,33
9803,33
9804,33
9805,33
9806,33
9807,33
9808,33
9809,33
9810,33
9811,33
9812,33
9813,33
9814,33
9815,33
9816,33
9817,34
9818,34
9819,34
9820,34
9821,33
9822,33
9823,33
9824,33
9825,33
9826,33
9827,33
9828,33
9829,33
9830,33
9831,33
9832,33
9833,33
9834,33
9835,33
9836,33
9837,33
9838,34
9839,34
9840,34
9841,34
9842,35
9843,35
9844,35
9845,36
9846,36
9847,36
9848,36
9849,36
9850,36
9851,36
9852,35
9853,35
9854,35
9855,35
9856,35
9857,35
9858,35
9859,35
9860,35
9861,34
9862,34
9863,34
9864,34
9865,34
9866,34
9867,35
9868,34
9869,34
9870,34
9871,34
9872,34
9873,34
9874,34
9875,34
9876,34
9877,34
9878,34
9879,34
9880,34
9881,34
9882,34
9883,34
9884,34
9885,34
9886,34
9887,34
9888,34
9889,34
9890,34
9891,34
9892,34
9893,34
9894,34
9895,34
9896,34
9897,34
9898,33
9899,33
9900,33
9901,33
9902,33
9903,34
9904,34
9905,34
9906,34
9907,33
9908,33
9909,33
9910,33
9911,33
9912,33
9913,33
9914,33
9915,33
9916,33
9917,33
9918,33
9919,33
9920,33
9921,33
9922,33
9923,33
9924,33
9925,33
9926,33
9927,33
9928,33
9929,33
9930,33
9931,34
9932,35
9933,34
9934,34
9935,34
9936,34
9937,34
9938,34
9939,34
9940,33
9941,33
9942,34
9943,34
9944,34
9945,34
9946,34
9947,34
9948,34
9949,35
9950,35
9951,35
9952,34
9953,34
9954,34
9955,34
9956,34
9957,35
9958,35
9959,34
9960,35
9961,35
9962,35
9963,35
9964,36
9965,36
9966,35
9967,35
9968,35
9969,35
9970,35
9971,35
9972,35
9973,35
9974,35
9975,34
9976,34
9977,34
9978,34
9979,34
9980,34
9981,34
9982,34
9983,35
9984,35
9985,35
9986,35
9987,35
9988,35
9989,35
9990,35
9991,35
9992,35
9993,35
9994,34
9995,34
9996,34
9997,34
9998,34
9999,34
10000,34
