1,3
2,3
3,3
4,3
5,3
6,3
7,3
8,3
9,3
10,3
11,3
12,3
13,3
14,3
15,3
16,3
17,3
18,3
19,3
20,3
21,3
22,3
23,3
24,3
25,3
26,3
27,3
28,3
29,3
30,3
31,3
32,3
33,4
34,4
35,4
36,4
37,4
38,4
39,4
40,4
41,4
42,4
43,4
44,4
45,4
46,4
47,4
48,5
49,5
50,5
51,5
52,5
53,5
54,5
55,5
56,5
57,5
58,5
59,5
60,5
61,5
62,6
63,6
64,6
65,5
66,5
67,5
68,5
69,5
70,5
71,5
72,5
73,5
74,5
75,5
76,5
77,5
78,6
79,6
80,6
81,6
82,6
83,6
84,6
85,6
86,7
87,6
88,6
89,6
90,6
91,6
92,6
93,6
94,6
95,6
96,6
97,6
98,6
99,6
100,6
101,6
102,6
103,6
104,6
105,6
106,6
107,6
108,6
109,6
110,6
111,6
112,7
113,6
114,7
115,8
116,8
117,8
118,8
119,8
120,7
121,7
122,7
123,7
124,7
125,8
126,8
127,9
128,9
129,8
130,8
131,8
132,8
133,9
134,8
135,8
136,8
137,8
138,8
139,8
140,8
141,8
142,8
143,8
144,8
145,8
146,8
147,8
148,8
149,8
150,8
151,8
152,8
153,8
154,8
155,8
156,8
157,8
158,8
159,8
160,8
161,8
162,8
163,8
164,8
165,8
166,9
167,8
168,8
169,8
170,8
171,8
172,8
173,8
174,8
175,8
176,8
177,8
178,8
179,8
180,9
181,8
182,8
183,8
184,8
185,8
186,8
187,8
188,8
189,8
190,8
191,8
192,8
193,8
194,8
195,8
196,9
197,9
198,8
199,8
200,8
201,9
202,9
203,9
204,9
205,9
206,9
207,9
208,9
209,8
210,8
211,8
212,8
213,8
214,8
215,8
216,8
217,8
218,8
219,8
220,8
221,8
222,8
223,8
224,8
225,8
226,8
227,8
228,8
229,8
230,9
231,10
232,9
233,9
234,9
235,9
236,9
237,9
238,10
239,10
240,10
241,10
242,10
243,10
244,10
245,10
246,9
247,9
248,9
249,9
250,9
251,9
252,9
253,9
254,9
255,9
256,9
257,9
258,9
259,9
260,9
261,9
262,9
263,9
264,9
265,9
266,9
267,9
268,10
269,9
270,9
271,9
272,9
273,9
274,9
275,9
276,9
277,9
278,10
279,9
280,9
281,9
282,9
283,9
284,9
285,9
286,9
287,9
288,11
289,10
290,10
291,10
292,10
293,10
294,10
295,10
296,10
297,10
298,10
299,10
300,10
301,10
302,10
303,10
304,10
305,10
306,10
307,10
308,10
309,10
310,10
311,10
312,10
313,10
314,10
315,10
316,10
317,10
318,10
319,10
320,10
321,10
322,10
323,10
324,10
325,10
326,10
327,10
328,10
329,10
330,10
331,10
332,10
333,10
334,10
335,10
336,10
337,11
338,10
339,10
340,10
341,10
342,10
343,10
344,10
345,11
346,11
347,10
348,10
349,10
350,10
351,10
352,10
353,10
354,10
355,10
356,10
357,10
358,10
359,10
360,10
361,10
362,10
363,10
364,10
365,10
366,10
367,10
368,10
369,10
370,10
371,11
372,11
373,10
374,10
375,11
376,11
377,10
378,10
379,10
380,10
381,10
382,11
383,10
384,10
385,10
386,10
387,10
388,10
389,10
390,10
391,10
392,10
393,10
394,10
395,10
396,10
397,10
398,11
399,10
400,10
401,10
402,10
403,10
404,10
405,10
406,10
407,10
408,10
409,10
410,10
411,10
412,10
413,10
414,10
415,10
416,10
417,10
418,10
419,10
420,10
421,10
422,10
423,10
424,11
425,11
426,11
427,11
428,10
429,10
430,11
431,11
432,11
433,11
434,11
435,11
436,11
437,11
438,11
439,11
440,11
441,11
442,11
443,11
444,11
445,11
446,11
447,11
448,11
449,11
450,11
451,11
452,11
453,11
454,11
455,11
456,12
457,12
458,12
459,12
460,12
461,12
462,12
463,12
464,12
465,11
466,11
467,11
468,11
469,11
470,11
471,11
472,11
473,11
474,11
475,11
476,11
477,11
478,11
479,11
480,11
481,11
482,11
483,11
484,11
485,11
486,11
487,11
488,11
489,11
490,11
491,11
492,11
493,11
494,11
495,11
496,11
497,11
498,11
499,11
500,11
501,11
502,11
503,11
504,11
505,11
506,11
507,11
508,11
509,11
510,11
511,11
512,11
513,11
514,11
515,11
516,11
517,11
518,11
519,11
520,11
521,11
522,11
523,11
524,12
525,11
526,11
527,11
528,11
529,11
530,11
531,11
532,12
533,12
534,12
535,12
536,12
537,12
538,12
539,13
540,12
541,12
542,12
543,13
544,13
545,13
546,13
547,13
548,12
549,12
550,12
551,13
552,12
553,12
554,12
555,12
556,12
557,12
558,12
559,12
560,12
561,12
562,13
563,12
564,12
565,12
566,12
567,12
568,12
569,12
570,12
571,12
572,12
573,12
574,12
575,12
576,12
577,12
578,12
579,12
580,12
581,12
582,12
583,12
584,13
585,12
586,12
587,12
588,12
589,12
590,13
591,13
592,13
593,13
594,13
595,13
596,13
597,13
598,13
599,13
600,13
601,13
602,13
603,13
604,13
605,13
606,13
607,13
608,13
609,13
610,13
611,14
612,14
613,14
614,14
615,13
616,13
617,14
618,14
619,14
620,13
621,13
622,13
623,13
624,13
625,13
626,13
627,13
628,13
629,13
630,13
631,13
632,13
633,14
634,14
635,14
636,15
637,14
638,14
639,14
640,14
641,15
642,14
643,14
644,14
645,14
646,14
647,14
648,14
649,14
650,14
651,14
652,14
653,14
654,14
655,14
656,14
657,14
658,14
659,14
660,14
661,14
662,14
663,14
664,14
665,14
666,14
667,14
668,14
669,14
670,14
671,14
672,14
673,14
674,14
675,14
676,14
677,14
678,14
679,14
680,14
681,14
682,14
683,14
684,14
685,14
686,14
687,14
688,14
689,15
690,15
691,14
692,14
693,14
694,14
695,15
696,15
697,15
698,15
699,15
700,15
701,15
702,15
703,15
704,15
705,16
706,16
707,16
708,16
709,16
710,16
711,16
712,16
713,16
714,16
715,16
716,16
717,16
718,16
719,16
720,16
721,16
722,16
723,16
724,16
725,16
726,16
727,16
728,16
729,16
730,16
731,16
732,16
733,16
734,16
735,16
736,17
737,17
738,17
739,16
740,16
741,16
742,16
743,16
744,16
745,16
746,16
747,16
748,16
749,16
750,16
751,16
752,16
753,17
754,16
755,16
756,16
757,16
758,16
759,16
760,16
761,17
762,17
763,17
764,17
765,17
766,17
767,17
768,17
769,17
770,17
771,17
772,17
773,17
774,17
775,17
776,17
777,17
778,17
779,17
780,17
781,17
782,17
783,18
784,18
785,17
786,17
787,17
788,17
789,17
790,17
791,17
792,17
793,18
794,18
795,18
796,18
797,18
798,18
799,18
800,18
801,18
802,18
803,18
804,17
805,17
806,18
807,17
808,17
809,17
810,17
811,17
812,17
813,17
814,17
815,17
816,17
817,17
818,17
819,17
820,17
821,17
822,17
823,17
824,17
825,17
826,17
827,17
828,17
829,17
830,17
831,17
832,17
833,18
834,18
835,17
836,17
837,17
838,17
839,17
840,17
841,17
842,17
843,17
844,17
845,17
846,17
847,17
848,17
849,17
850,17
851,17
852,17
853,17
854,17
855,17
856,18
857,17
858,17
859,17
860,18
861,18
862,19
863,18
864,18
865,18
866,17
867,17
868,17
869,17
870,17
871,17
872,17
873,17
874,17
875,17
876,17
877,17
878,17
879,17
880,17
881,17
882,17
883,17
884,17
885,17
886,17
887,17
888,17
889,17
890,17
891,18
892,18
893,17
894,17
895,18
896,17
897,17
898,17
899,18
900,18
901,18
902,18
903,18
904,18
905,18
906,18
907,18
908,18
909,18
910,18
911,18
912,18
913,17
914,17
915,17
916,17
917,17
918,17
919,17
920,17
921,17
922,17
923,17
924,17
925,17
926,17
927,17
928,17
929,17
930,17
931,17
932,17
933,17
934,17
935,17
936,17
937,17
938,17
939,17
940,17
941,17
942,17
943,17
944,17
945,17
946,17
947,17
948,17
949,18
950,17
951,17
952,19
953,19
954,20
955,18
956,17
957,17
958,17
959,17
960,18
961,17
962,17
963,17
964,17
965,17
966,17
967,17
968,18
969,18
970,18
971,19
972,19
973,18
974,17
975,17
976,17
977,17
978,17
979,18
980,18
981,18
982,18
983,18
984,18
985,18
986,18
987,18
988,18
989,18
990,18
991,18
992,18
993,19
994,19
995,20
996,20
997,20
998,19
999,19
1000,19
1001,19
1002,19
1003,19
1004,20
1005,19
1006,19
1007,19
1008,19
1009,19
1010,19
1011,19
1012,19
1013,19
1014,19
1015,19
1016,19
1017,19
1018,19
1019,19
1020,19
1021,19
1022,19
1023,19
1024,20
1025,19
1026,19
1027,19
1028,19
1029,19
1030,19
1031,19
1032,19
1033,19
1034,19
1035,19
1036,19
1037,19
1038,19
1039,19
1040,19
1041,19
1042,19
1043,19
1044,19
1045,19
1046,19
1047,19
1048,19
1049,19
1050,19
1051,19
1052,19
1053,19
1054,19
1055,19
1056,19
1057,19
1058,19
1059,19
1060,19
1061,19
1062,20
1063,20
1064,19
1065,19
1066,19
1067,19
1068,19
1069,19
1070,20
1071,20
1072,20
1073,20
1074,20
1075,20
1076,20
1077,20
1078,20
1079,20
1080,21
1081,21
1082,21
1083,21
1084,21
1085,20
1086,20
1087,20
1088,20
1089,20
1090,20
1091,20
1092,20
1093,20
1094,20
1095,20
1096,20
1097,21
1098,20
1099,20
1100,20
1101,20
1102,20
1103,20
1104,20
1105,20
1106,20
1107,20
1108,20
1109,20
1110,20
1111,21
1112,20
1113,20
1114,20
1115,20
1116,20
1117,20
1118,20
1119,20
1120,20
1121,20
1122,20
1123,20
1124,20
1125,20
1126,20
1127,20
1128,20
1129,20
1130,20
1131,20
1132,20
1133,20
1134,20
1135,20
1136,20
1137,20
1138,20
1139,20
1140,20
1141,20
1142,20
1143,20
1144,20
1145,20
1146,20
1147,20
1148,20
1149,20
1150,20
1151,21
1152,21
1153,21
1154,21
1155,21
1156,21
1157,21
1158,20
1159,20
1160,20
1161,20
1162,21
1163,21
1164,21
1165,20
1166,20
1167,20
1168,20
1169,20
1170,20
1171,20
1172,21
1173,21
1174,21
1175,21
1176,21
1177,21
1178,21
1179,21
1180,21
1181,21
1182,21
1183,20
1184,20
1185,20
1186,20
1187,20
1188,20
1189,20
1190,21
1191,21
1192,20
1193,20
1194,20
1195,20
1196,21
1197,20
1198,20
1199,20
1200,20
1201,20
1202,20
1203,20
1204,20
1205,20
1206,20
1207,20
1208,21
1209,21
1210,22
1211,22
1212,22
1213,22
1214,22
1215,21
1216,21
1217,21
1218,21
1219,21
1220,21
1221,21
1222,21
1223,21
1224,21
1225,21
1226,21
1227,21
1228,21
1229,21
1230,21
1231,21
1232,21
1233,21
1234,21
1235,21
1236,21
1237,21
1238,21
1239,21
1240,21
1241,21
1242,21
1243,21
1244,21
1245,21
1246,21
1247,21
1248,22
1249,22
1250,22
1251,22
1252,22
1253,22
1254,22
1255,22
1256,22
1257,21
1258,21
1259,21
1260,21
1261,21
1262,21
1263,21
1264,21
1265,21
1266,21
1267,21
1268,21
1269,21
1270,21
1271,22
1272,22
1273,22
1274,22
1275,21
1276,22
1277,22
1278,22
1279,22
1280,22
1281,21
1282,21
1283,21
1284,21
1285,21
1286,21
1287,21
1288,21
1289,21
1290,21
1291,21
1292,21
1293,21
1294,21
1295,21
1296,21
1297,21
1298,21
1299,21
1300,21
1301,21
1302,21
1303,21
1304,21
1305,21
1306,21
1307,21
1308,21
1309,21
1310,21
1311,21
1312,21
1313,21
1314,21
1315,21
1316,21
1317,21
1318,21
1319,21
1320,21
1321,21
1322,21
1323,21
1324,21
1325,21
1326,22
1327,21
1328,21
1329,21
1330,21
1331,22
1332,21
1333,21
1334,21
1335,21
1336,21
1337,21
1338,21
1339,21
1340,21
1341,21
1342,21
1343,21
1344,21
1345,21
1346,21
1347,21
1348,21
1349,21
1350,21
1351,21
1352,21
1353,21
1354,21
1355,21
1356,22
1357,21
1358,21
1359,21
1360,21
1361,21
1362,21
1363,22
1364,22
1365,21
1366,21
1367,21
1368,21
1369,21
1370,22
1371,22
1372,21
1373,21
1374,22
1375,21
1376,21
1377,21
1378,21
1379,21
1380,21
1381,21
1382,21
1383,21
1384,21
1385,21
1386,21
1387,22
1388,22
1389,22
1390,22
1391,22
1392,22
1393,22
1394,23
1395,23
1396,24
1397,22
1398,22
1399,22
1400,22
1401,22
1402,22
1403,22
1404,22
1405,22
1406,22
1407,22
1408,22
1409,21
1410,21
1411,21
1412,21
1413,21
1414,21
1415,21
1416,21
1417,22
1418,22
1419,22
1420,22
1421,22
1422,22
1423,22
1424,22
1425,22
1426,22
1427,22
1428,21
1429,21
1430,21
1431,22
1432,21
1433,21
1434,22
1435,21
1436,21
1437,21
1438,21
1439,21
1440,21
1441,21
1442,21
1443,21
1444,22
1445,21
1446,21
1447,21
1448,21
1449,22
1450,21
1451,21
1452,21
1453,21
1454,21
1455,21
1456,21
1457,21
1458,21
1459,21
1460,21
1461,21
1462,21
1463,21
1464,21
1465,21
1466,21
1467,21
1468,21
1469,22
1470,22
1471,21
1472,21
1473,22
1474,23
1475,23
1476,23
1477,23
1478,24
1479,22
1480,21
1481,21
1482,21
1483,21
1484,21
1485,22
1486,21
1487,22
1488,21
1489,21
1490,21
1491,21
1492,21
1493,21
1494,21
1495,21
1496,21
1497,21
1498,22
1499,23
1500,23
1501,23
1502,21
1503,21
1504,21
1505,21
1506,21
1507,21
1508,21
1509,21
1510,21
1511,21
1512,21
1513,21
1514,21
1515,21
1516,21
1517,21
1518,21
1519,21
1520,21
1521,21
1522,21
1523,21
1524,21
1525,21
1526,21
1527,21
1528,21
1529,21
1530,21
1531,21
1532,21
1533,21
1534,21
1535,21
1536,21
1537,21
1538,21
1539,21
1540,22
1541,22
1542,22
1543,21
1544,21
1545,21
1546,22
1547,21
1548,21
1549,21
1550,21
1551,22
1552,22
1553,22
1554,22
1555,22
1556,22
1557,22
1558,22
1559,22
1560,22
1561,22
1562,22
1563,22
1564,22
1565,22
1566,22
1567,22
1568,22
1569,21
1570,21
1571,21
1572,21
1573,22
1574,22
1575,22
1576,21
1577,21
1578,21
1579,21
1580,21
1581,21
1582,21
1583,21
1584,21
1585,21
1586,21
1587,21
1588,21
1589,21
1590,21
1591,21
1592,21
1593,21
1594,21
1595,22
1596,21
1597,21
1598,21
1599,21
1600,21
1601,21
1602,21
1603,21
1604,21
1605,21
1606,21
1607,21
1608,21
1609,21
1610,21
1611,21
1612,21
1613,21
1614,21
1615,21
1616,21
1617,21
1618,21
1619,21
1620,21
1621,21
1622,21
1623,22
1624,22
1625,22
1626,21
1627,21
1628,22
1629,22
1630,22
1631,22
1632,22
1633,22
1634,22
1635,22
1636,22
1637,22
1638,23
1639,23
1640,23
1641,23
1642,23
1643,23
1644,22
1645,22
1646,22
1647,22
1648,22
1649,22
1650,23
1651,23
1652,22
1653,22
1654,21
1655,21
1656,22
1657,21
1658,21
1659,21
1660,22
1661,22
1662,21
1663,21
1664,21
1665,21
1666,21
1667,21
1668,21
1669,21
1670,21
1671,21
1672,21
1673,21
1674,21
1675,21
1676,21
1677,21
1678,21
1679,21
1680,21
1681,21
1682,21
1683,21
1684,21
1685,21
1686,21
1687,21
1688,21
1689,21
1690,21
1691,21
1692,21
1693,21
1694,21
1695,21
1696,21
1697,21
1698,21
1699,21
1700,21
1701,22
1702,21
1703,21
1704,21
1705,21
1706,21
1707,21
1708,21
1709,22
1710,21
1711,21
1712,21
1713,21
1714,21
1715,21
1716,21
1717,21
1718,21
1719,21
1720,21
1721,21
1722,22
1723,21
1724,22
1725,22
1726,22
1727,22
1728,22
1729,22
1730,22
1731,22
1732,22
1733,22
1734,22
1735,22
1736,22
1737,22
1738,22
1739,22
1740,22
1741,22
1742,22
1743,22
1744,22
1745,22
1746,22
1747,22
1748,22
1749,22
1750,22
1751,22
1752,22
1753,22
1754,22
1755,22
1756,22
1757,22
1758,22
1759,22
1760,22
1761,23
1762,23
1763,23
1764,23
1765,23
1766,22
1767,22
1768,22
1769,22
1770,22
1771,22
1772,22
1773,22
1774,23
1775,22
1776,22
1777,22
1778,22
1779,22
1780,22
1781,22
1782,22
1783,22
1784,22
1785,22
1786,22
1787,22
1788,23
1789,23
1790,23
1791,24
1792,24
1793,24
1794,24
1795,24
1796,23
1797,24
1798,24
1799,23
1800,23
1801,23
1802,23
1803,23
1804,23
1805,23
1806,23
1807,23
1808,23
1809,23
1810,23
1811,23
1812,22
1813,22
1814,22
1815,23
1816,23
1817,23
1818,23
1819,23
1820,23
1821,23
1822,23
1823,23
1824,23
1825,24
1826,24
1827,24
1828,25
1829,25
1830,26
1831,24
1832,24
1833,24
1834,24
1835,24
1836,24
1837,24
1838,24
1839,24
1840,24
1841,24
1842,24
1843,24
1844,24
1845,24
1846,24
1847,24
1848,24
1849,24
1850,24
1851,24
1852,24
1853,24
1854,24
1855,24
1856,24
1857,24
1858,24
1859,24
1860,24
1861,24
1862,25
1863,25
1864,24
1865,24
1866,24
1867,24
1868,24
1869,24
1870,24
1871,24
1872,24
1873,24
1874,24
1875,24
1876,24
1877,24
1878,24
1879,24
1880,24
1881,24
1882,25
1883,25
1884,24
1885,24
1886,24
1887,24
1888,24
1889,24
1890,24
1891,24
1892,24
1893,24
1894,24
1895,24
1896,24
1897,24
1898,24
1899,24
1900,24
1901,24
1902,24
1903,24
1904,24
1905,24
1906,24
1907,24
1908,24
1909,24
1910,24
1911,25
1912,25
1913,25
1914,25
1915,25
1916,25
1917,25
1918,25
1919,25
1920,25
1921,26
1922,26
1923,26
1924,27
1925,27
1926,26
1927,26
1928,26
1929,26
1930,26
1931,26
1932,26
1933,26
1934,26
1935,26
1936,26
1937,26
1938,27
1939,27
1940,27
1941,27
1942,27
1943,27
1944,26
1945,26
1946,26
1947,26
1948,26
1949,26
1950,26
1951,26
1952,26
1953,26
1954,26
1955,26
1956,26
1957,26
1958,26
1959,26
1960,26
1961,26
1962,26
1963,26
1964,26
1965,26
1966,26
1967,26
1968,26
1969,26
1970,26
1971,26
1972,26
1973,26
1974,26
1975,26
1976,26
1977,26
1978,26
1979,26
1980,26
1981,26
1982,26
1983,26
1984,26
1985,26
1986,26
1987,26
1988,26
1989,26
1990,26
1991,26
1992,26
1993,26
1994,27
1995,27
1996,27
1997,27
1998,27
1999,27
2000,27
2001,27
2002,27
2003,27
2004,27
2005,27
2006,27
2007,27
2008,27
2009,27
2010,27
2011,27
2012,27
2013,27
2014,27
2015,27
2016,27
2017,27
2018,27
2019,27
2020,27
2021,27
2022,27
2023,27
2024,27
2025,27
2026,27
2027,27
2028,27
2029,26
2030,26
2031,26
2032,26
2033,26
2034,26
2035,26
2036,26
2037,26
2038,26
2039,26
2040,27
2041,26
2042,26
2043,27
2044,26
2045,26
2046,26
2047,26
2048,26
2049,26
2050,26
2051,26
2052,26
2053,26
2054,26
2055,26
2056,26
2057,26
2058,26
2059,26
2060,26
2061,26
2062,26
2063,26
2064,26
2065,26
2066,26
2067,26
2068,26
2069,26
2070,26
2071,26
2072,26
2073,26
2074,26
2075,26
2076,26
2077,26
2078,26
2079,26
2080,26
2081,26
2082,26
2083,26
2084,26
2085,26
2086,26
2087,26
2088,26
2089,26
2090,26
2091,27
2092,27
2093,27
2094,27
2095,27
2096,28
2097,28
2098,28
2099,27
2100,27
2101,27
2102,27
2103,27
2104,27
2105,27
2106,27
2107,27
2108,27
2109,27
2110,27
2111,26
2112,26
2113,26
2114,26
2115,26
2116,26
2117,26
2118,26
2119,26
2120,26
2121,26
2122,26
2123,26
2124,26
2125,26
2126,26
2127,26
2128,26
2129,26
2130,26
2131,26
2132,26
2133,26
2134,27
2135,27
2136,28
2137,28
2138,27
2139,28
2140,28
2141,28
2142,28
2143,28
2144,28
2145,28
2146,28
2147,28
2148,28
2149,28
2150,28
2151,28
2152,28
2153,27
2154,27
2155,27
2156,26
2157,26
2158,26
2159,26
2160,26
2161,26
2162,26
2163,26
2164,26
2165,26
2166,26
2167,27
2168,26
2169,26
2170,26
2171,26
2172,26
2173,26
2174,26
2175,26
2176,26
2177,26
2178,26
2179,26
2180,26
2181,26
2182,26
2183,26
2184,26
2185,26
2186,26
2187,26
2188,26
2189,26
2190,27
2191,27
2192,27
2193,28
2194,28
2195,28
2196,28
2197,27
2198,27
2199,27
2200,27
2201,27
2202,27
2203,27
2204,27
2205,27
2206,27
2207,27
2208,27
2209,27
2210,27
2211,27
2212,27
2213,27
2214,27
2215,27
2216,27
2217,27
2218,27
2219,27
2220,27
2221,27
2222,27
2223,27
2224,27
2225,27
2226,27
2227,27
2228,27
2229,27
2230,28
2231,27
2232,27
2233,27
2234,27
2235,27
2236,27
2237,27
2238,27
2239,27
2240,27
2241,27
2242,27
2243,27
2244,27
2245,27
2246,27
2247,27
2248,27
2249,27
2250,27
2251,27
2252,27
2253,27
2254,27
2255,27
2256,27
2257,27
2258,27
2259,27
2260,27
2261,27
2262,27
2263,27
2264,27
2265,27
2266,27
2267,27
2268,27
2269,27
2270,27
2271,27
2272,27
2273,27
2274,27
2275,27
2276,27
2277,27
2278,27
2279,27
2280,27
2281,27
2282,27
2283,27
2284,27
2285,27
2286,27
2287,27
2288,27
2289,27
2290,27
2291,27
2292,27
2293,27
2294,27
2295,27
2296,27
2297,28
2298,27
2299,28
2300,28
2301,28
2302,27
2303,27
2304,27
2305,27
2306,27
2307,27
2308,27
2309,27
2310,27
2311,27
2312,27
2313,27
2314,27
2315,27
2316,27
2317,27
2318,27
2319,27
2320,27
2321,27
2322,27
2323,27
2324,27
2325,27
2326,27
2327,27
2328,27
2329,27
2330,27
2331,27
2332,27
2333,27
2334,27
2335,27
2336,27
2337,27
2338,27
2339,27
2340,27
2341,27
2342,27
2343,27
2344,27
2345,28
2346,27
2347,27
2348,27
2349,27
2350,27
2351,27
2352,27
2353,27
2354,27
2355,27
2356,27
2357,27
2358,27
2359,27
2360,27
2361,27
2362,27
2363,27
2364,27
2365,27
2366,27
2367,28
2368,28
2369,28
2370,28
2371,27
2372,27
2373,27
2374,27
2375,27
2376,27
2377,27
2378,27
2379,27
2380,27
2381,28
2382,28
2383,28
2384,28
2385,28
2386,27
2387,27
2388,27
2389,27
2390,27
2391,27
2392,27
2393,27
2394,27
2395,27
2396,27
2397,27
2398,27
2399,28
2400,28
2401,27
2402,27
2403,27
2404,27
2405,27
2406,27
2407,27
2408,27
2409,27
2410,27
2411,27
2412,27
2413,27
2414,27
2415,27
2416,27
2417,27
2418,27
2419,27
2420,27
2421,27
2422,27
2423,27
2424,27
2425,27
2426,27
2427,27
2428,27
2429,27
2430,27
2431,27
2432,28
2433,28
2434,27
2435,27
2436,27
2437,27
2438,27
2439,27
2440,27
2441,27
2442,27
2443,27
2444,27
2445,27
2446,27
2447,27
2448,27
2449,27
2450,27
2451,27
2452,27
2453,27
2454,27
2455,27
2456,27
2457,27
2458,27
2459,27
2460,27
2461,27
2462,27
2463,28
2464,29
2465,27
2466,27
2467,27
2468,27
2469,28
2470,27
2471,27
2472,27
2473,27
2474,27
2475,27
2476,27
2477,27
2478,28
2479,27
2480,27
2481,27
2482,27
2483,28
2484,27
2485,27
2486,27
2487,27
2488,27
2489,28
2490,27
2491,28
2492,27
2493,27
2494,27
2495,27
2496,27
2497,27
2498,27
2499,27
2500,27
2501,27
2502,27
2503,27
2504,27
2505,27
2506,27
2507,27
2508,27
2509,27
2510,27
2511,27
2512,27
2513,27
2514,27
2515,27
2516,27
2517,27
2518,27
2519,28
2520,27
2521,27
2522,27
2523,27
2524,27
2525,27
2526,27
2527,27
2528,27
2529,27
2530,27
2531,27
2532,27
2533,27
2534,27
2535,27
2536,27
2537,27
2538,27
2539,27
2540,27
2541,27
2542,27
2543,27
2544,27
2545,27
2546,27
2547,27
2548,27
2549,27
2550,27
2551,27
2552,27
2553,27
2554,27
2555,28
2556,27
2557,27
2558,27
2559,27
2560,27
2561,27
2562,28
2563,27
2564,27
2565,27
2566,27
2567,27
2568,27
2569,27
2570,27
2571,27
2572,27
2573,27
2574,27
2575,27
2576,28
2577,28
2578,28
2579,28
2580,28
2581,28
2582,28
2583,28
2584,27
2585,27
2586,28
2587,28
2588,27
2589,27
2590,27
2591,27
2592,27
2593,27
2594,27
2595,27
2596,28
2597,29
2598,29
2599,28
2600,28
2601,28
2602,27
2603,27
2604,28
2605,28
2606,27
2607,27
2608,27
2609,28
2610,27
2611,27
2612,27
2613,27
2614,27
2615,27
2616,27
2617,28
2618,28
2619,28
2620,28
2621,28
2622,28
2623,28
2624,28
2625,27
2626,27
2627,27
2628,27
2629,27
2630,27
2631,27
2632,27
2633,27
2634,27
2635,27
2636,27
2637,27
2638,27
2639,27
2640,27
2641,27
2642,28
2643,27
2644,27
2645,27
2646,27
2647,27
2648,27
2649,27
2650,27
2651,27
2652,27
2653,27
2654,27
2655,27
2656,27
2657,27
2658,27
2659,27
2660,27
2661,27
2662,27
2663,28
2664,28
2665,28
2666,28
2667,28
2668,28
2669,28
2670,28
2671,28
2672,28
2673,28
2674,27
2675,27
2676,27
2677,27
2678,27
2679,28
2680,28
2681,27
2682,27
2683,27
2684,28
2685,27
2686,27
2687,27
2688,27
2689,27
2690,27
2691,27
2692,27
2693,27
2694,28
2695,28
2696,27
2697,27
2698,28
2699,28
2700,28
2701,28
2702,27
2703,27
2704,27
2705,27
2706,27
2707,27
2708,27
2709,27
2710,28
2711,28
2712,28
2713,28
2714,28
2715,28
2716,28
2717,28
2718,28
2719,28
2720,28
2721,28
2722,28
2723,27
2724,28
2725,28
2726,27
2727,27
2728,27
2729,27
2730,27
2731,27
2732,27
2733,27
2734,27
2735,27
2736,27
2737,27
2738,27
2739,27
2740,27
2741,27
2742,27
2743,27
2744,27
2745,27
2746,27
2747,28
2748,28
2749,27
2750,27
2751,27
2752,27
2753,27
2754,27
2755,27
2756,27
2757,28
2758,28
2759,28
2760,28
2761,28
2762,28
2763,28
2764,28
2765,29
2766,29
2767,29
2768,28
2769,28
2770,28
2771,28
2772,28
2773,28
2774,28
2775,28
2776,28
2777,28
2778,28
2779,28
2780,28
2781,28
2782,28
2783,28
2784,28
2785,29
2786,29
2787,29
2788,28
2789,28
2790,28
2791,28
2792,28
2793,28
2794,28
2795,28
2796,28
2797,28
2798,28
2799,28
2800,28
2801,28
2802,28
2803,28
2804,28
2805,28
2806,28
2807,28
2808,28
2809,28
2810,28
2811,28
2812,28
2813,28
2814,28
2815,28
2816,28
2817,28
2818,28
2819,28
2820,28
2821,28
2822,28
2823,28
2824,28
2825,28
2826,28
2827,28
2828,28
2829,28
2830,28
2831,28
2832,28
2833,28
2834,28
2835,28
2836,28
2837,28
2838,28
2839,28
2840,28
2841,28
2842,28
2843,28
2844,28
2845,28
2846,28
2847,28
2848,28
2849,28
2850,28
2851,28
2852,28
2853,28
2854,28
2855,28
2856,28
2857,28
2858,28
2859,28
2860,28
2861,28
2862,28
2863,28
2864,28
2865,28
2866,28
2867,28
2868,28
2869,28
2870,28
2871,28
2872,28
2873,28
2874,28
2875,28
2876,28
2877,28
2878,28
2879,28
2880,28
2881,28
2882,28
2883,28
2884,28
2885,28
2886,28
2887,28
2888,28
2889,28
2890,28
2891,28
2892,28
2893,28
2894,29
2895,29
2896,28
2897,28
2898,28
2899,28
2900,28
2901,28
2902,28
2903,28
2904,28
2905,28
2906,28
2907,28
2908,28
2909,28
2910,28
2911,28
2912,28
2913,28
2914,28
2915,28
2916,28
2917,28
2918,28
2919,28
2920,28
2921,28
2922,28
2923,28
2924,28
2925,28
2926,28
2927,28
2928,28
2929,28
2930,28
2931,28
2932,28
2933,28
2934,28
2935,29
2936,28
2937,28
2938,28
2939,28
2940,28
2941,28
2942,28
2943,28
2944,28
2945,28
2946,28
2947,28
2948,28
2949,28
2950,29
2951,28
2952,28
2953,28
2954,28
2955,28
2956,28
2957,28
2958,28
2959,28
2960,29
2961,29
2962,29
2963,29
2964,29
2965,29
2966,29
2967,29
2968,29
2969,29
2970,29
2971,29
2972,30
2973,29
2974,29
2975,29
2976,29
2977,29
2978,29
2979,29
2980,29
2981,29
2982,29
2983,29
2984,29
2985,29
2986,29
2987,29
2988,29
2989,29
2990,30
2991,30
2992,30
2993,30
2994,29
2995,30
2996,29
2997,29
2998,29
2999,29
3000,29
3001,29
3002,29
3003,30
3004,30
3005,30
3006,29
3007,29
3008,29
3009,29
3010,29
3011,29
3012,29
3013,29
3014,29
3015,29
3016,29
3017,29
3018,29
3019,29
3020,29
3021,29
3022,29
3023,29
3024,29
3025,29
3026,29
3027,29
3028,29
3029,29
3030,30
3031,30
3032,30
3033,29
3034,29
3035,29
3036,29
3037,29
3038,29
3039,29
3040,29
3041,29
3042,29
3043,29
3044,29
3045,29
3046,29
3047,29
3048,29
3049,29
3050,29
3051,29
3052,29
3053,29
3054,29
3055,29
3056,29
3057,29
3058,29
3059,30
3060,30
3061,30
3062,30
3063,30
3064,30
3065,30
3066,29
3067,29
3068,29
3069,29
3070,29
3071,29
3072,29
3073,29
3074,29
3075,29
3076,29
3077,29
3078,29
3079,30
3080,30
3081,30
3082,30
3083,30
3084,30
3085,30
3086,30
3087,30
3088,30
3089,30
3090,30
3091,30
3092,30
3093,30
3094,30
3095,30
3096,33
3097,31
3098,31
3099,31
3100,31
3101,32
3102,32
3103,32
3104,33
3105,32
3106,32
3107,32
3108,31
3109,31
3110,31
3111,31
3112,31
3113,30
3114,30
3115,31
3116,30
3117,30
3118,30
3119,30
3120,30
3121,30
3122,30
3123,30
3124,30
3125,30
3126,30
3127,30
3128,30
3129,30
3130,30
3131,30
3132,30
3133,30
3134,30
3135,30
3136,30
3137,30
3138,30
3139,30
3140,30
3141,30
3142,30
3143,30
3144,30
3145,30
3146,30
3147,30
3148,30
3149,30
3150,30
3151,30
3152,30
3153,30
3154,30
3155,30
3156,30
3157,30
3158,30
3159,30
3160,30
3161,30
3162,30
3163,30
3164,30
3165,30
3166,30
3167,30
3168,30
3169,30
3170,30
3171,30
3172,30
3173,30
3174,30
3175,30
3176,30
3177,31
3178,30
3179,30
3180,30
3181,30
3182,30
3183,30
3184,30
3185,30
3186,30
3187,30
3188,30
3189,31
3190,31
3191,31
3192,31
3193,31
3194,31
3195,31
3196,31
3197,31
3198,31
3199,32
3200,31
3201,31
3202,31
3203,31
3204,31
3205,31
3206,31
3207,31
3208,32
3209,31
3210,31
3211,31
3212,31
3213,32
3214,32
3215,32
3216,32
3217,32
3218,32
3219,32
3220,32
3221,32
3222,32
3223,32
3224,31
3225,31
3226,31
3227,31
3228,31
3229,31
3230,31
3231,31
3232,31
3233,31
3234,31
3235,31
3236,32
3237,32
3238,31
3239,31
3240,32
3241,32
3242,32
3243,31
3244,31
3245,31
3246,31
3247,31
3248,31
3249,31
3250,31
3251,31
3252,31
3253,31
3254,31
3255,31
3256,31
3257,31
3258,31
3259,31
3260,31
3261,31
3262,30
3263,30
3264,30
3265,30
3266,30
3267,30
3268,30
3269,30
3270,30
3271,30
3272,30
3273,30
3274,30
3275,30
3276,30
3277,30
3278,30
3279,30
3280,30
3281,30
3282,30
3283,30
3284,30
3285,31
3286,30
3287,30
3288,30
3289,30
3290,30
3291,30
3292,30
3293,30
3294,31
3295,30
3296,30
3297,30
3298,30
3299,30
3300,30
3301,30
3302,30
3303,30
3304,30
3305,30
3306,30
3307,30
3308,30
3309,30
3310,30
3311,30
3312,31
3313,31
3314,31
3315,31
3316,31
3317,31
3318,31
3319,31
3320,31
3321,31
3322,31
3323,31
3324,31
3325,32
3326,32
3327,31
3328,31
3329,30
3330,30
3331,30
3332,30
3333,30
3334,30
3335,30
3336,30
3337,30
3338,30
3339,30
3340,30
3341,30
3342,30
3343,30
3344,30
3345,30
3346,30
3347,30
3348,30
3349,30
3350,30
3351,30
3352,30
3353,30
3354,30
3355,30
3356,30
3357,30
3358,30
3359,30
3360,30
3361,30
3362,30
3363,30
3364,30
3365,30
3366,30
3367,30
3368,30
3369,30
3370,30
3371,30
3372,30
3373,30
3374,30
3375,30
3376,30
3377,30
3378,30
3379,31
3380,31
3381,31
3382,31
3383,31
3384,31
3385,31
3386,31
3387,31
3388,31
3389,32
3390,31
3391,31
3392,31
3393,31
3394,31
3395,32
3396,32
3397,32
3398,32
3399,32
3400,32
3401,32
3402,32
3403,33
3404,32
3405,32
3406,32
3407,32
3408,32
3409,32
3410,32
3411,32
3412,32
3413,32
3414,32
3415,32
3416,32
3417,32
3418,33
3419,33
3420,33
3421,33
3422,32
3423,32
3424,32
3425,32
3426,32
3427,32
3428,32
3429,32
3430,32
3431,32
3432,32
3433,32
3434,32
3435,32
3436,32
3437,32
3438,32
3439,32
3440,32
3441,32
3442,32
3443,32
3444,32
3445,32
3446,32
3447,32
3448,32
3449,32
3450,33
3451,33
3452,33
3453,33
3454,32
3455,32
3456,32
3457,32
3458,32
3459,32
3460,32
3461,33
3462,32
3463,32
3464,32
3465,33
3466,33
3467,33
3468,33
3469,33
3470,33
3471,33
3472,33
3473,33
3474,32
3475,32
3476,32
3477,32
3478,32
3479,32
3480,32
3481,32
3482,32
3483,32
3484,32
3485,32
3486,32
3487,32
3488,32
3489,32
3490,32
3491,32
3492,33
3493,33
3494,32
3495,32
3496,32
3497,32
3498,32
3499,32
3500,32
3501,32
3502,32
3503,32
3504,34
3505,33
3506,33
3507,32
3508,32
3509,32
3510,33
3511,33
3512,33
3513,33
3514,33
3515,33
3516,33
3517,33
3518,33
3519,33
3520,33
3521,32
3522,32
3523,32
3524,33
3525,32
3526,32
3527,32
3528,32
3529,32
3530,33
3531,32
3532,32
3533,33
3534,33
3535,33
3536,33
3537,33
3538,33
3539,33
3540,33
3541,33
3542,34
3543,34
3544,33
3545,33
3546,33
3547,33
3548,33
3549,33
3550,33
3551,34
3552,34
3553,33
3554,33
3555,33
3556,32
3557,32
3558,32
3559,32
3560,32
3561,32
3562,32
3563,32
3564,32
3565,32
3566,32
3567,32
3568,32
3569,32
3570,32
3571,32
3572,32
3573,32
3574,32
3575,33
3576,33
3577,33
3578,33
3579,32
3580,32
3581,32
3582,32
3583,32
3584,32
3585,33
3586,32
3587,32
3588,32
3589,32
3590,32
3591,32
3592,32
3593,32
3594,33
3595,33
3596,33
3597,33
3598,33
3599,33
3600,33
3601,33
3602,33
3603,33
3604,33
3605,32
3606,32
3607,32
3608,32
3609,32
3610,32
3611,32
3612,32
3613,32
3614,32
3615,32
3616,32
3617,32
3618,32
3619,32
3620,32
3621,32
3622,32
3623,32
3624,32
3625,32
3626,32
3627,32
3628,32
3629,32
3630,32
3631,34
3632,34
3633,34
3634,34
3635,32
3636,32
3637,32
3638,32
3639,33
3640,33
3641,33
3642,33
3643,33
3644,32
3645,32
3646,32
3647,32
3648,32
3649,32
3650,32
3651,32
3652,32
3653,32
3654,32
3655,33
3656,33
3657,33
3658,34
3659,34
3660,34
3661,34
3662,33
3663,33
3664,33
3665,33
3666,33
3667,33
3668,33
3669,33
3670,33
3671,33
3672,33
3673,33
3674,33
3675,33
3676,33
3677,33
3678,33
3679,33
3680,33
3681,33
3682,33
3683,33
3684,33
3685,33
3686,33
3687,33
3688,33
3689,33
3690,33
3691,33
3692,33
3693,33
3694,33
3695,33
3696,33
3697,33
3698,33
3699,33
3700,33
3701,33
3702,33
3703,33
3704,33
3705,33
3706,33
3707,34
3708,33
3709,33
3710,33
3711,33
3712,33
3713,33
3714,33
3715,33
3716,33
3717,34
3718,33
3719,33
3720,33
3721,33
3722,34
3723,34
3724,34
3725,34
3726,33
3727,33
3728,33
3729,33
3730,33
3731,33
3732,33
3733,33
3734,33
3735,33
3736,33
3737,33
3738,33
3739,33
3740,33
3741,33
3742,33
3743,33
3744,33
3745,33
3746,33
3747,33
3748,33
3749,33
3750,33
3751,33
3752,33
3753,33
3754,33
3755,33
3756,33
3757,33
3758,33
3759,33
3760,33
3761,33
3762,33
3763,33
3764,33
3765,33
3766,33
3767,33
3768,33
3769,33
3770,33
3771,33
3772,33
3773,33
3774,33
3775,33
3776,33
3777,33
3778,33
3779,33
3780,33
3781,33
3782,33
3783,33
3784,33
3785,33
3786,33
3787,33
3788,33
3789,33
3790,33
3791,33
3792,33
3793,33
3794,33
3795,33
3796,33
3797,33
3798,33
3799,33
3800,33
3801,33
3802,33
3803,33
3804,33
3805,33
3806,33
3807,33
3808,33
3809,33
3810,33
3811,33
3812,33
3813,33
3814,33
3815,33
3816,33
3817,33
3818,33
3819,34
3820,34
3821,34
3822,34
3823,34
3824,34
3825,33
3826,33
3827,33
3828,33
3829,33
3830,33
3831,33
3832,33
3833,33
3834,33
3835,33
3836,33
3837,33
3838,33
3839,33
3840,33
3841,33
3842,33
3843,33
3844,33
3845,33
3846,33
3847,33
3848,33
3849,33
3850,33
3851,33
3852,33
3853,34
3854,34
3855,35
3856,34
3857,33
3858,33
3859,33
3860,33
3861,33
3862,33
3863,32
3864,32
3865,32
3866,32
3867,32
3868,32
3869,32
3870,32
3871,32
3872,32
3873,32
3874,32
3875,33
3876,32
3877,32
3878,32
3879,32
3880,32
3881,32
3882,32
3883,32
3884,32
3885,32
3886,32
3887,32
3888,32
3889,32
3890,32
3891,32
3892,32
3893,32
3894,32
3895,32
3896,32
3897,34
3898,33
3899,33
3900,33
3901,34
3902,34
3903,34
3904,34
3905,34
3906,34
3907,34
3908,33
3909,33
3910,33
3911,33
3912,33
3913,33
3914,33
3915,33
3916,33
3917,32
3918,32
3919,32
3920,32
3921,32
3922,32
3923,32
3924,32
3925,32
3926,32
3927,32
3928,32
3929,32
3930,33
3931,33
3932,33
3933,33
3934,33
3935,33
3936,33
3937,33
3938,33
3939,33
3940,33
3941,34
3942,33
3943,33
3944,33
3945,33
3946,33
3947,33
3948,34
3949,33
3950,33
3951,34
3952,35
3953,35
3954,35
3955,35
3956,35
3957,35
3958,35
3959,35
3960,35
3961,35
3962,34
3963,34
3964,34
3965,34
3966,34
3967,34
3968,35
3969,34
3970,33
3971,33
3972,33
3973,33
3974,33
3975,32
3976,32
3977,32
3978,32
3979,32
3980,32
3981,32
3982,32
3983,32
3984,32
3985,32
3986,32
3987,32
3988,32
3989,32
3990,33
3991,33
3992,32
3993,32
3994,32
3995,32
3996,32
3997,32
3998,32
3999,32
4000,32
4001,32
4002,32
4003,32
4004,33
4005,32
4006,32
4007,33
4008,33
4009,32
4010,32
4011,32
4012,32
4013,32
4014,32
4015,32
4016,32
4017,32
4018,32
4019,32
4020,32
4021,32
4022,33
4023,33
4024,33
4025,34
4026,32
4027,32
4028,32
4029,32
4030,33
4031,32
4032,32
4033,32
4034,32
4035,32
4036,32
4037,32
4038,32
4039,32
4040,32
4041,32
4042,32
4043,32
4044,33
4045,32
4046,34
4047,34
4048,33
4049,33
4050,33
4051,33
4052,33
4053,33
4054,33
4055,33
4056,33
4057,33
4058,33
4059,33
4060,33
4061,33
4062,33
4063,33
4064,33
4065,33
4066,33
4067,33
4068,33
4069,33
4070,33
4071,34
4072,34
4073,33
4074,33
4075,33
4076,33
4077,33
4078,33
4079,33
4080,33
4081,34
4082,34
4083,34
4084,34
4085,34
4086,34
4087,34
4088,34
4089,34
4090,34
4091,35
4092,35
4093,35
4094,35
4095,34
4096,34
4097,34
4098,34
4099,34
4100,34
4101,34
4102,34
4103,34
4104,34
4105,35
4106,35
4107,35
4108,35
4109,35
4110,34
4111,35
4112,35
4113,34
4114,34
4115,34
4116,33
4117,33
4118,33
4119,33
4120,33
4121,33
4122,33
4123,33
4124,33
4125,33
4126,33
4127,33
4128,33
4129,33
4130,33
4131,33
4132,33
4133,33
4134,33
4135,33
4136,33
4137,33
4138,33
4139,33
4140,33
4141,33
4142,33
4143,33
4144,33
4145,33
4146,33
4147,33
4148,33
4149,33
4150,33
4151,33
4152,33
4153,33
4154,34
4155,34
4156,33
4157,33
4158,33
4159,33
4160,33
4161,33
4162,33
4163,33
4164,33
4165,33
4166,34
4167,35
4168,34
4169,34
4170,34
4171,34
4172,34
4173,34
4174,34
4175,34
4176,35
4177,34
4178,34
4179,34
4180,34
4181,34
4182,34
4183,34
4184,34
4185,34
4186,34
4187,34
4188,34
4189,34
4190,34
4191,34
4192,34
4193,33
4194,33
4195,33
4196,33
4197,34
4198,33
4199,33
4200,33
4201,33
4202,33
4203,33
4204,33
4205,33
4206,33
4207,33
4208,33
4209,33
4210,33
4211,33
4212,33
4213,33
4214,33
4215,33
4216,33
4217,33
4218,33
4219,33
4220,33
4221,33
4222,34
4223,33
4224,33
4225,33
4226,33
4227,33
4228,33
4229,33
4230,33
4231,33
4232,33
4233,33
4234,34
4235,34
4236,34
4237,34
4238,33
4239,33
4240,33
4241,33
4242,33
4243,33
4244,33
4245,33
4246,33
4247,33
4248,33
4249,33
4250,33
4251,33
4252,33
4253,33
4254,33
4255,33
4256,33
4257,33
4258,33
4259,33
4260,33
4261,33
4262,33
4263,33
4264,33
4265,33
4266,33
4267,33
4268,33
4269,33
4270,33
4271,33
4272,33
4273,33
4274,33
4275,33
4276,33
4277,33
4278,33
4279,33
4280,33
4281,33
4282,34
4283,34
4284,34
4285,34
4286,34
4287,34
4288,33
4289,33
4290,33
4291,33
4292,33
4293,33
4294,33
4295,33
4296,33
4297,33
4298,33
4299,33
4300,33
4301,33
4302,33
4303,34
4304,34
4305,33
4306,33
4307,33
4308,33
4309,33
4310,33
4311,33
4312,33
4313,33
4314,33
4315,33
4316,33
4317,33
4318,33
4319,33
4320,33
4321,33
4322,33
4323,33
4324,33
4325,33
4326,33
4327,34
4328,34
4329,34
4330,33
4331,33
4332,33
4333,33
4334,33
4335,33
4336,33
4337,33
4338,33
4339,33
4340,33
4341,33
4342,33
4343,33
4344,33
4345,33
4346,33
4347,33
4348,33
4349,33
4350,33
4351,35
4352,34
4353,33
4354,33
4355,33
4356,33
4357,33
4358,33
4359,33
4360,33
4361,33
4362,33
4363,33
4364,33
4365,33
4366,33
4367,33
4368,33
4369,33
4370,33
4371,33
4372,33
4373,33
4374,33
4375,33
4376,33
4377,33
4378,33
4379,33
4380,33
4381,34
4382,34
4383,33
4384,33
4385,33
4386,33
4387,33
4388,33
4389,33
4390,33
4391,33
4392,33
4393,33
4394,33
4395,33
4396,33
4397,33
4398,33
4399,33
4400,33
4401,33
4402,33
4403,33
4404,33
4405,33
4406,33
4407,33
4408,34
4409,35
4410,36
4411,36
4412,35
4413,35
4414,35
4415,35
4416,35
4417,35
4418,35
4419,34
4420,34
4421,34
4422,34
4423,34
4424,34
4425,34
4426,34
4427,34
4428,34
4429,34
4430,34
4431,34
4432,34
4433,34
4434,35
4435,34
4436,34
4437,34
4438,34
4439,34
4440,34
4441,35
4442,34
4443,35
4444,34
4445,34
4446,34
4447,35
4448,35
4449,35
4450,35
4451,34
4452,34
4453,34
4454,34
4455,34
4456,34
4457,34
4458,34
4459,34
4460,34
4461,34
4462,34
4463,34
4464,34
4465,35
4466,35
4467,35
4468,35
4469,34
4470,34
4471,34
4472,34
4473,35
4474,34
4475,35
4476,35
4477,35
4478,35
4479,35
4480,35
4481,34
4482,34
4483,34
4484,34
4485,34
4486,34
4487,35
4488,35
4489,35
4490,35
4491,35
4492,34
4493,33
4494,33
4495,33
4496,33
4497,33
4498,33
4499,33
4500,33
4501,33
4502,33
4503,33
4504,33
4505,34
4506,34
4507,35
4508,34
4509,34
4510,34
4511,34
4512,34
4513,34
4514,34
4515,34
4516,34
4517,34
4518,34
4519,34
4520,34
4521,34
4522,34
4523,34
4524,34
4525,34
4526,34
4527,34
4528,34
4529,34
4530,34
4531,34
4532,34
4533,34
4534,34
4535,34
4536,35
4537,34
4538,34
4539,34
4540,34
4541,34
4542,34
4543,34
4544,34
4545,34
4546,34
4547,34
4548,34
4549,34
4550,34
4551,34
4552,34
4553,34
4554,34
4555,34
4556,34
4557,34
4558,34
4559,34
4560,34
4561,34
4562,34
4563,34
4564,34
4565,34
4566,34
4567,34
4568,34
4569,34
4570,34
4571,34
4572,34
4573,34
4574,34
4575,34
4576,34
4577,34
4578,34
4579,34
4580,34
4581,34
4582,34
4583,34
4584,34
4585,34
4586,33
4587,33
4588,33
4589,33
4590,33
4591,33
4592,33
4593,33
4594,33
4595,33
4596,33
4597,34
4598,33
4599,33
4600,33
4601,33
4602,33
4603,33
4604,34
4605,34
4606,34
4607,34
4608,34
4609,34
4610,34
4611,34
4612,34
4613,34
4614,34
4615,34
4616,34
4617,34
4618,34
4619,34
4620,34
4621,34
4622,34
4623,34
4624,34
4625,34
4626,34
4627,34
4628,34
4629,34
4630,34
4631,35
4632,36
4633,35
4634,35
4635,35
4636,35
4637,35
4638,36
4639,36
4640,36
4641,35
4642,35
4643,34
4644,34
4645,34
4646,34
4647,34
4648,35
4649,34
4650,34
4651,34
4652,34
4653,33
4654,33
4655,33
4656,33
4657,33
4658,33
4659,33
4660,33
4661,33
4662,33
4663,33
4664,33
4665,33
4666,33
4667,33
4668,33
4669,33
4670,34
4671,34
4672,34
4673,34
4674,34
4675,34
4676,35
4677,36
4678,36
4679,35
4680,35
4681,35
4682,35
4683,35
4684,35
4685,35
4686,35
4687,35
4688,35
4689,35
4690,35
4691,35
4692,35
4693,35
4694,35
4695,35
4696,36
4697,36
4698,35
4699,35
4700,34
4701,34
4702,34
4703,34
4704,34
4705,34
4706,34
4707,34
4708,34
4709,34
4710,35
4711,35
4712,34
4713,34
4714,34
4715,34
4716,34
4717,34
4718,34
4719,34
4720,34
4721,34
4722,34
4723,34
4724,34
4725,34
4726,34
4727,34
4728,35
4729,34
4730,34
4731,34
4732,34
4733,34
4734,34
4735,34
4736,34
4737,34
4738,34
4739,34
4740,34
4741,34
4742,34
4743,34
4744,34
4745,34
4746,34
4747,34
4748,34
4749,34
4750,34
4751,34
4752,34
4753,34
4754,34
4755,34
4756,34
4757,34
4758,34
4759,35
4760,35
4761,35
4762,35
4763,35
4764,35
4765,35
4766,35
4767,35
4768,35
4769,35
4770,35
4771,35
4772,35
4773,35
4774,35
4775,35
4776,35
4777,35
4778,35
4779,35
4780,35
4781,35
4782,35
4783,35
4784,35
4785,35
4786,35
4787,35
4788,35
4789,35
4790,35
4791,35
4792,35
4793,35
4794,35
4795,35
4796,35
4797,35
4798,35
4799,35
4800,35
4801,35
4802,35
4803,35
4804,35
4805,35
4806,35
4807,35
4808,35
4809,35
4810,35
4811,35
4812,35
4813,35
4814,35
4815,35
4816,35
4817,35
4818,35
4819,35
4820,35
4821,35
4822,36
4823,36
4824,36
4825,36
4826,36
4827,36
4828,36
4829,36
4830,36
4831,36
4832,36
4833,36
4834,36
4835,36
4836,36
4837,36
4838,36
4839,36
4840,36
4841,36
4842,36
4843,37
4844,37
4845,37
4846,37
4847,36
4848,36
4849,36
4850,36
4851,37
4852,36
4853,36
4854,36
4855,36
4856,36
4857,36
4858,36
4859,37
4860,36
4861,36
4862,36
4863,36
4864,36
4865,36
4866,36
4867,36
4868,36
4869,36
4870,36
4871,36
4872,36
4873,36
4874,36
4875,36
4876,36
4877,36
4878,36
4879,36
4880,36
4881,36
4882,36
4883,37
4884,37
4885,37
4886,36
4887,36
4888,36
4889,36
4890,36
4891,36
4892,36
4893,36
4894,36
4895,36
4896,36
4897,37
4898,37
4899,36
4900,36
4901,36
4902,36
4903,37
4904,37
4905,37
4906,37
4907,37
4908,37
4909,36
4910,36
4911,38
4912,36
4913,36
4914,36
4915,36
4916,36
4917,36
4918,36
4919,37
4920,36
4921,36
4922,36
4923,36
4924,36
4925,36
4926,36
4927,36
4928,36
4929,36
4930,36
4931,37
4932,37
4933,37
4934,37
4935,37
4936,37
4937,37
4938,37
4939,37
4940,37
4941,37
4942,37
4943,37
4944,37
4945,37
4946,37
4947,37
4948,38
4949,38
4950,38
4951,38
4952,39
4953,37
4954,37
4955,37
4956,37
4957,37
4958,37
4959,37
4960,37
4961,37
4962,37
4963,37
4964,37
4965,37
4966,37
4967,37
4968,37
4969,37
4970,37
4971,37
4972,37
4973,37
4974,37
4975,37
4976,37
4977,37
4978,37
4979,37
4980,37
4981,37
4982,37
4983,37
4984,37
4985,37
4986,37
4987,37
4988,37
4989,36
4990,36
4991,36
4992,36
4993,36
4994,36
4995,36
4996,36
4997,36
4998,36
4999,36
5000,36
5001,36
5002,37
5003,36
5004,36
5005,36
5006,36
5007,36
5008,36
5009,36
5010,36
5011,36
5012,36
5013,36
5014,36
5015,36
5016,36
5017,36
5018,36
5019,36
5020,36
5021,36
5022,37
5023,36
5024,37
5025,37
5026,36
5027,36
5028,36
5029,36
5030,36
5031,36
5032,36
5033,36
5034,36
5035,36
5036,36
5037,36
5038,36
5039,36
5040,36
5041,37
5042,37
5043,37
5044,37
5045,37
5046,37
5047,37
5048,37
5049,37
5050,37
5051,36
5052,36
5053,36
5054,36
5055,36
5056,37
5057,37
5058,37
5059,37
5060,36
5061,36
5062,36
5063,36
5064,36
5065,36
5066,36
5067,36
5068,36
5069,36
5070,36
5071,36
5072,36
5073,36
5074,36
5075,36
5076,37
5077,36
5078,36
5079,36
5080,36
5081,36
5082,36
5083,36
5084,36
5085,36
5086,36
5087,36
5088,36
5089,36
5090,36
5091,36
5092,36
5093,36
5094,36
5095,36
5096,36
5097,36
5098,36
5099,36
5100,36
5101,36
5102,36
5103,36
5104,36
5105,36
5106,36
5107,36
5108,36
5109,36
5110,36
5111,36
5112,36
5113,36
5114,36
5115,36
5116,37
5117,36
5118,36
5119,36
5120,36
5121,36
5122,36
5123,36
5124,36
5125,36
5126,36
5127,36
5128,36
5129,36
5130,36
5131,36
5132,36
5133,36
5134,36
5135,36
5136,36
5137,37
5138,37
5139,37
5140,37
5141,36
5142,36
5143,36
5144,36
5145,36
5146,36
5147,36
5148,36
5149,36
5150,36
5151,36
5152,36
5153,36
5154,36
5155,36
5156,36
5157,36
5158,36
5159,36
5160,36
5161,37
5162,37
5163,37
5164,36
5165,36
5166,36
5167,36
5168,36
5169,36
5170,36
5171,37
5172,37
5173,37
5174,37
5175,37
5176,37
5177,37
5178,36
5179,35
5180,35
5181,35
5182,35
5183,35
5184,35
5185,35
5186,35
5187,36
5188,35
5189,35
5190,35
5191,35
5192,35
5193,35
5194,35
5195,35
5196,35
5197,35
5198,35
5199,35
5200,36
5201,35
5202,35
5203,35
5204,35
5205,35
5206,35
5207,35
5208,35
5209,35
5210,35
5211,35
5212,35
5213,35
5214,35
5215,35
5216,35
5217,35
5218,35
5219,35
5220,35
5221,35
5222,35
5223,35
5224,35
5225,35
5226,35
5227,35
5228,36
5229,36
5230,35
5231,35
5232,35
5233,36
5234,36
5235,36
5236,37
5237,36
5238,36
5239,36
5240,36
5241,36
5242,36
5243,36
5244,36
5245,36
5246,36
5247,36
5248,35
5249,35
5250,35
5251,35
5252,35
5253,35
5254,35
5255,36
5256,36
5257,35
5258,35
5259,35
5260,35
5261,35
5262,35
5263,35
5264,35
5265,35
5266,35
5267,35
5268,35
5269,35
5270,35
5271,35
5272,35
5273,35
5274,35
5275,35
5276,35
5277,35
5278,35
5279,35
5280,35
5281,36
5282,36
5283,36
5284,36
5285,36
5286,36
5287,36
5288,36
5289,36
5290,36
5291,36
5292,36
5293,36
5294,36
5295,36
5296,36
5297,36
5298,36
5299,36
5300,36
5301,36
5302,36
5303,36
5304,36
5305,36
5306,36
5307,36
5308,37
5309,36
5310,36
5311,36
5312,36
5313,37
5314,37
5315,36
5316,36
5317,36
5318,36
5319,36
5320,36
5321,36
5322,36
5323,36
5324,36
5325,36
5326,36
5327,36
5328,36
5329,36
5330,36
5331,36
5332,36
5333,36
5334,36
5335,36
5336,35
5337,35
5338,35
5339,35
5340,35
5341,35
5342,36
5343,36
5344,36
5345,36
5346,36
5347,36
5348,36
5349,36
5350,36
5351,36
5352,35
5353,35
5354,34
5355,34
5356,34
5357,34
5358,34
5359,34
5360,34
5361,34
5362,34
5363,34
5364,34
5365,34
5366,34
5367,34
5368,34
5369,34
5370,34
5371,34
5372,34
5373,34
5374,34
5375,34
5376,34
5377,34
5378,34
5379,34
5380,34
5381,34
5382,34
5383,34
5384,34
5385,34
5386,34
5387,34
5388,34
5389,35
5390,35
5391,35
5392,34
5393,34
5394,34
5395,34
5396,34
5397,34
5398,34
5399,34
5400,34
5401,34
5402,34
5403,34
5404,34
5405,34
5406,34
5407,34
5408,35
5409,35
5410,35
5411,35
5412,35
5413,35
5414,35
5415,35
5416,35
5417,35
5418,35
5419,36
5420,36
5421,36
5422,36
5423,35
5424,35
5425,35
5426,35
5427,35
5428,35
5429,34
5430,34
5431,34
5432,34
5433,34
5434,34
5435,34
5436,34
5437,34
5438,34
5439,34
5440,34
5441,34
5442,34
5443,34
5444,34
5445,34
5446,34
5447,34
5448,34
5449,34
5450,34
5451,34
5452,34
5453,34
5454,34
5455,34
5456,34
5457,34
5458,34
5459,34
5460,34
5461,34
5462,34
5463,34
5464,34
5465,35
5466,35
5467,35
5468,35
5469,35
5470,35
5471,35
5472,35
5473,35
5474,35
5475,35
5476,35
5477,36
5478,36
5479,36
5480,35
5481,35
5482,35
5483,35
5484,35
5485,35
5486,35
5487,35
5488,35
5489,35
5490,35
5491,35
5492,35
5493,35
5494,35
5495,35
5496,35
5497,35
5498,35
5499,35
5500,35
5501,35
5502,35
5503,36
5504,36
5505,35
5506,35
5507,35
5508,35
5509,35
5510,35
5511,35
5512,35
5513,35
5514,35
5515,36
5516,35
5517,35
5518,35
5519,35
5520,35
5521,35
5522,35
5523,35
5524,35
5525,35
5526,35
5527,35
5528,35
5529,35
5530,35
5531,35
5532,35
5533,35
5534,35
5535,35
5536,35
5537,35
5538,35
5539,35
5540,35
5541,35
5542,35
5543,35
5544,35
5545,35
5546,35
5547,35
5548,35
5549,35
5550,35
5551,35
5552,35
5553,35
5554,35
5555,35
5556,35
5557,35
5558,35
5559,36
5560,36
5561,35
5562,35
5563,36
5564,35
5565,35
5566,35
5567,35
5568,35
5569,35
5570,35
5571,35
5572,35
5573,35
5574,35
5575,35
5576,35
5577,35
5578,35
5579,35
5580,35
5581,35
5582,35
5583,35
5584,36
5585,35
5586,35
5587,35
5588,35
5589,35
5590,35
5591,35
5592,35
5593,35
5594,35
5595,35
5596,35
5597,35
5598,35
5599,35
5600,35
5601,35
5602,35
5603,35
5604,35
5605,35
5606,35
5607,35
5608,36
5609,36
5610,35
5611,35
5612,35
5613,35
5614,35
5615,35
5616,35
5617,35
5618,35
5619,35
5620,35
5621,35
5622,35
5623,36
5624,35
5625,35
5626,35
5627,35
5628,35
5629,35
5630,35
5631,35
5632,35
5633,35
5634,35
5635,35
5636,35
5637,35
5638,36
5639,35
5640,35
5641,35
5642,35
5643,35
5644,35
5645,35
5646,35
5647,35
5648,35
5649,35
5650,35
5651,35
5652,35
5653,35
5654,35
5655,35
5656,35
5657,36
5658,36
5659,35
5660,35
5661,35
5662,35
5663,35
5664,35
5665,35
5666,35
5667,35
5668,35
5669,35
5670,35
5671,35
5672,35
5673,35
5674,35
5675,35
5676,35
5677,35
5678,35
5679,36
5680,36
5681,35
5682,35
5683,35
5684,35
5685,35
5686,35
5687,35
5688,35
5689,35
5690,35
5691,35
5692,35
5693,35
5694,35
5695,35
5696,35
5697,35
5698,35
5699,35
5700,35
5701,35
5702,35
5703,35
5704,35
5705,35
5706,35
5707,35
5708,35
5709,35
5710,34
5711,34
5712,34
5713,34
5714,34
5715,34
5716,34
5717,34
5718,34
5719,34
5720,34
5721,34
5722,34
5723,34
5724,34
5725,34
5726,34
5727,34
5728,35
5729,35
5730,35
5731,34
5732,34
5733,34
5734,34
5735,34
5736,34
5737,34
5738,34
5739,34
5740,34
5741,34
5742,34
5743,34
5744,34
5745,34
5746,34
5747,34
5748,34
5749,34
5750,34
5751,34
5752,34
5753,34
5754,34
5755,34
5756,34
5757,34
5758,34
5759,34
5760,34
5761,34
5762,34
5763,34
5764,34
5765,34
5766,34
5767,34
5768,34
5769,34
5770,34
5771,34
5772,34
5773,34
5774,34
5775,34
5776,34
5777,34
5778,34
5779,34
5780,34
5781,34
5782,34
5783,35
5784,35
5785,36
5786,36
5787,35
5788,35
5789,35
5790,35
5791,35
5792,35
5793,35
5794,35
5795,35
5796,35
5797,35
5798,35
5799,36
5800,35
5801,35
5802,35
5803,35
5804,35
5805,35
5806,35
5807,35
5808,35
5809,36
5810,36
5811,35
5812,35
5813,35
5814,35
5815,35
5816,35
5817,35
5818,35
5819,35
5820,35
5821,35
5822,35
5823,35
5824,35
5825,35
5826,35
5827,35
5828,35
5829,35
5830,35
5831,35
5832,36
5833,36
5834,36
5835,35
5836,35
5837,35
5838,35
5839,35
5840,36
5841,36
5842,35
5843,36
5844,36
5845,35
5846,35
5847,35
5848,35
5849,35
5850,35
5851,35
5852,36
5853,36
5854,36
5855,36
5856,35
5857,35
5858,35
5859,35
5860,35
5861,35
5862,35
5863,35
5864,36
5865,36
5866,36
5867,36
5868,36
5869,36
5870,36
5871,36
5872,36
5873,36
5874,35
5875,35
5876,35
5877,35
5878,35
5879,35
5880,35
5881,35
5882,35
5883,35
5884,35
5885,35
5886,35
5887,35
5888,35
5889,35
5890,35
5891,35
5892,35
5893,36
5894,36
5895,36
5896,36
5897,35
5898,35
5899,35
5900,35
5901,35
5902,35
5903,35
5904,35
5905,35
5906,35
5907,35
5908,35
5909,35
5910,35
5911,35
5912,35
5913,35
5914,35
5915,35
5916,35
5917,35
5918,35
5919,35
5920,35
5921,35
5922,35
5923,35
5924,35
5925,35
5926,35
5927,35
5928,35
5929,35
5930,35
5931,35
5932,35
5933,35
5934,36
5935,36
5936,35
5937,35
5938,36
5939,36
5940,36
5941,36
5942,36
5943,36
5944,36
5945,36
5946,36
5947,36
5948,36
5949,36
5950,36
5951,36
5952,36
5953,36
5954,36
5955,36
5956,36
5957,36
5958,36
5959,36
5960,36
5961,36
5962,36
5963,36
5964,36
5965,36
5966,36
5967,36
5968,36
5969,36
5970,36
5971,36
5972,36
5973,36
5974,36
5975,36
5976,36
5977,36
5978,36
5979,36
5980,36
5981,36
5982,36
5983,36
5984,36
5985,37
5986,37
5987,36
5988,36
5989,36
5990,36
5991,36
5992,36
5993,36
5994,36
5995,36
5996,36
5997,36
5998,36
5999,36
6000,36
6001,36
6002,36
6003,36
6004,36
6005,36
6006,36
6007,36
6008,36
6009,36
6010,37
6011,37
6012,37
6013,37
6014,37
6015,37
6016,37
6017,37
6018,37
6019,37
6020,37
6021,37
6022,36
6023,36
6024,36
6025,37
6026,36
6027,36
6028,36
6029,36
6030,36
6031,36
6032,36
6033,36
6034,36
6035,36
6036,36
6037,36
6038,36
6039,36
6040,36
6041,36
6042,36
6043,36
6044,36
6045,36
6046,36
6047,36
6048,36
6049,36
6050,36
6051,36
6052,36
6053,36
6054,36
6055,36
6056,36
6057,36
6058,36
6059,36
6060,36
6061,37
6062,37
6063,37
6064,36
6065,36
6066,36
6067,36
6068,36
6069,36
6070,36
6071,36
6072,36
6073,36
6074,36
6075,36
6076,36
6077,36
6078,36
6079,36
6080,36
6081,36
6082,36
6083,36
6084,36
6085,36
6086,36
6087,36
6088,36
6089,36
6090,36
6091,36
6092,36
6093,36
6094,36
6095,36
6096,36
6097,36
6098,36
6099,36
6100,36
6101,36
6102,36
6103,36
6104,36
6105,36
6106,37
6107,36
6108,36
6109,36
6110,36
6111,36
6112,36
6113,36
6114,36
6115,36
6116,36
6117,36
6118,36
6119,37
6120,37
6121,37
6122,38
6123,37
6124,36
6125,36
6126,36
6127,36
6128,36
6129,36
6130,36
6131,36
6132,36
6133,36
6134,36
6135,36
6136,36
6137,36
6138,36
6139,36
6140,37
6141,37
6142,37
6143,36
6144,36
6145,36
6146,37
6147,35
6148,35
6149,35
6150,35
6151,35
6152,35
6153,35
6154,35
6155,35
6156,35
6157,35
6158,35
6159,35
6160,35
6161,35
6162,35
6163,35
6164,36
6165,36
6166,36
6167,36
6168,36
6169,36
6170,36
6171,36
6172,36
6173,36
6174,36
6175,37
6176,37
6177,37
6178,37
6179,37
6180,36
6181,37
6182,37
6183,37
6184,37
6185,36
6186,36
6187,36
6188,36
6189,36
6190,36
6191,36
6192,36
6193,36
6194,36
6195,36
6196,36
6197,36
6198,36
6199,36
6200,36
6201,36
6202,36
6203,36
6204,36
6205,36
6206,36
6207,36
6208,36
6209,36
6210,36
6211,36
6212,36
6213,36
6214,36
6215,36
6216,36
6217,36
6218,36
6219,36
6220,36
6221,35
6222,35
6223,35
6224,35
6225,35
6226,35
6227,35
6228,35
6229,35
6230,35
6231,35
6232,35
6233,35
6234,35
6235,35
6236,36
6237,37
6238,36
6239,36
6240,36
6241,36
6242,36
6243,36
6244,36
6245,36
6246,36
6247,36
6248,36
6249,36
6250,36
6251,35
6252,35
6253,35
6254,35
6255,35
6256,35
6257,35
6258,36
6259,35
6260,35
6261,35
6262,35
6263,35
6264,35
6265,35
6266,35
6267,35
6268,35
6269,35
6270,35
6271,35
6272,35
6273,35
6274,35
6275,35
6276,35
6277,35
6278,35
6279,35
6280,35
6281,35
6282,35
6283,35
6284,35
6285,36
6286,35
6287,35
6288,35
6289,36
6290,36
6291,36
6292,36
6293,36
6294,36
6295,36
6296,35
6297,35
6298,35
6299,35
6300,35
6301,35
6302,35
6303,35
6304,36
6305,35
6306,35
6307,36
6308,36
6309,36
6310,35
6311,35
6312,35
6313,35
6314,35
6315,35
6316,35
6317,36
6318,36
6319,36
6320,36
6321,37
6322,36
6323,36
6324,36
6325,36
6326,36
6327,36
6328,36
6329,35
6330,35
6331,35
6332,35
6333,35
6334,35
6335,35
6336,35
6337,35
6338,35
6339,35
6340,35
6341,35
6342,35
6343,35
6344,35
6345,35
6346,35
6347,35
6348,35
6349,35
6350,35
6351,35
6352,35
6353,35
6354,35
6355,35
6356,35
6357,35
6358,35
6359,35
6360,35
6361,35
6362,35
6363,35
6364,35
6365,35
6366,35
6367,35
6368,35
6369,35
6370,35
6371,35
6372,35
6373,35
6374,35
6375,35
6376,35
6377,35
6378,35
6379,35
6380,35
6381,35
6382,35
6383,35
6384,35
6385,35
6386,36
6387,36
6388,35
6389,35
6390,35
6391,35
6392,35
6393,35
6394,35
6395,35
6396,35
6397,35
6398,35
6399,35
6400,36
6401,35
6402,35
6403,35
6404,35
6405,35
6406,35
6407,35
6408,35
6409,35
6410,35
6411,35
6412,35
6413,36
6414,36
6415,36
6416,36
6417,36
6418,36
6419,36
6420,36
6421,36
6422,36
6423,36
6424,36
6425,36
6426,36
6427,36
6428,36
6429,36
6430,36
6431,36
6432,36
6433,37
6434,37
6435,36
6436,36
6437,36
6438,36
6439,35
6440,35
6441,35
6442,35
6443,35
6444,35
6445,35
6446,35
6447,35
6448,35
6449,35
6450,35
6451,35
6452,35
6453,35
6454,35
6455,36
6456,35
6457,35
6458,35
6459,35
6460,35
6461,35
6462,35
6463,36
6464,36
6465,35
6466,35
6467,36
6468,36
6469,35
6470,35
6471,35
6472,35
6473,35
6474,35
6475,35
6476,35
6477,35
6478,35
6479,35
6480,35
6481,35
6482,35
6483,35
6484,35
6485,35
6486,35
6487,35
6488,35
6489,35
6490,35
6491,35
6492,35
6493,35
6494,34
6495,35
6496,34
6497,34
6498,34
6499,34
6500,34
6501,34
6502,34
6503,34
6504,34
6505,34
6506,34
6507,34
6508,34
6509,34
6510,35
6511,35
6512,35
6513,35
6514,35
6515,35
6516,35
6517,35
6518,35
6519,34
6520,34
6521,34
6522,34
6523,34
6524,34
6525,34
6526,35
6527,35
6528,35
6529,35
6530,35
6531,35
6532,35
6533,35
6534,36
6535,36
6536,37
6537,35
6538,35
6539,35
6540,35
6541,35
6542,35
6543,35
6544,35
6545,35
6546,35
6547,35
6548,35
6549,35
6550,35
6551,35
6552,35
6553,35
6554,35
6555,35
6556,35
6557,35
6558,35
6559,35
6560,35
6561,35
6562,35
6563,35
6564,35
6565,35
6566,35
6567,35
6568,35
6569,35
6570,35
6571,35
6572,35
6573,35
6574,35
6575,35
6576,35
6577,34
6578,34
6579,34
6580,34
6581,34
6582,34
6583,34
6584,34
6585,34
6586,34
6587,34
6588,34
6589,35
6590,35
6591,35
6592,36
6593,35
6594,35
6595,35
6596,35
6597,35
6598,35
6599,35
6600,35
6601,35
6602,35
6603,35
6604,35
6605,35
6606,35
6607,35
6608,35
6609,35
6610,35
6611,35
6612,35
6613,35
6614,35
6615,35
6616,35
6617,35
6618,35
6619,35
6620,35
6621,35
6622,35
6623,35
6624,35
6625,35
6626,35
6627,35
6628,35
6629,35
6630,36
6631,35
6632,35
6633,35
6634,35
6635,35
6636,36
6637,36
6638,36
6639,36
6640,35
6641,35
6642,35
6643,36
6644,36
6645,36
6646,36
6647,36
6648,36
6649,36
6650,36
6651,36
6652,36
6653,36
6654,36
6655,36
6656,36
6657,36
6658,37
6659,37
6660,36
6661,36
6662,36
6663,36
6664,36
6665,36
6666,36
6667,36
6668,36
6669,36
6670,36
6671,36
6672,36
6673,36
6674,36
6675,36
6676,36
6677,36
6678,36
6679,36
6680,36
6681,36
6682,36
6683,36
6684,36
6685,36
6686,36
6687,36
6688,36
6689,36
6690,36
6691,36
6692,36
6693,36
6694,36
6695,35
6696,35
6697,35
6698,35
6699,35
6700,35
6701,35
6702,35
6703,35
6704,35
6705,36
6706,35
6707,35
6708,35
6709,35
6710,35
6711,35
6712,35
6713,35
6714,35
6715,35
6716,35
6717,35
6718,35
6719,35
6720,35
6721,35
6722,35
6723,36
6724,35
6725,35
6726,35
6727,35
6728,35
6729,37
6730,35
6731,35
6732,35
6733,35
6734,35
6735,35
6736,35
6737,35
6738,36
6739,35
6740,35
6741,35
6742,35
6743,35
6744,35
6745,35
6746,35
6747,36
6748,37
6749,36
6750,35
6751,35
6752,35
6753,35
6754,35
6755,35
6756,35
6757,35
6758,35
6759,35
6760,35
6761,35
6762,35
6763,35
6764,36
6765,35
6766,35
6767,35
6768,35
6769,36
6770,37
6771,37
6772,37
6773,36
6774,36
6775,36
6776,36
6777,36
6778,35
6779,35
6780,36
6781,36
6782,36
6783,35
6784,35
6785,35
6786,35
6787,35
6788,35
6789,35
6790,35
6791,36
6792,36
6793,36
6794,36
6795,35
6796,35
6797,35
6798,35
6799,35
6800,35
6801,35
6802,35
6803,35
6804,35
6805,35
6806,35
6807,35
6808,35
6809,35
6810,35
6811,36
6812,36
6813,36
6814,36
6815,36
6816,36
6817,36
6818,37
6819,37
6820,37
6821,36
6822,36
6823,36
6824,36
6825,36
6826,36
6827,36
6828,37
6829,37
6830,37
6831,36
6832,35
6833,35
6834,35
6835,35
6836,35
6837,35
6838,36
6839,36
6840,36
6841,35
6842,35
6843,35
6844,35
6845,35
6846,35
6847,36
6848,36
6849,36
6850,36
6851,36
6852,36
6853,35
6854,35
6855,35
6856,35
6857,35
6858,35
6859,35
6860,35
6861,35
6862,36
6863,35
6864,35
6865,35
6866,35
6867,35
6868,35
6869,35
6870,36
6871,36
6872,37
6873,38
6874,36
6875,35
6876,35
6877,35
6878,35
6879,35
6880,35
6881,35
6882,36
6883,36
6884,36
6885,36
6886,36
6887,36
6888,35
6889,35
6890,36
6891,36
6892,36
6893,36
6894,36
6895,36
6896,36
6897,36
6898,36
6899,36
6900,36
6901,36
6902,36
6903,36
6904,35
6905,35
6906,35
6907,35
6908,35
6909,35
6910,35
6911,35
6912,35
6913,35
6914,35
6915,35
6916,35
6917,35
6918,35
6919,35
6920,35
6921,35
6922,35
6923,36
6924,36
6925,36
6926,36
6927,36
6928,36
6929,37
6930,36
6931,37
6932,37
6933,36
6934,36
6935,36
6936,37
6937,37
6938,36
6939,36
6940,36
6941,36
6942,36
6943,36
6944,36
6945,36
6946,36
6947,36
6948,36
6949,37
6950,38
6951,38
6952,38
6953,37
6954,37
6955,37
6956,37
6957,37
6958,37
6959,37
6960,37
6961,37
6962,37
6963,37
6964,37
6965,37
6966,37
6967,37
6968,37
6969,38
6970,37
6971,37
6972,37
6973,38
6974,38
6975,37
6976,37
6977,37
6978,38
6979,38
6980,38
6981,38
6982,38
6983,38
6984,38
6985,38
6986,38
6987,38
6988,38
6989,38
6990,38
6991,38
6992,38
6993,37
6994,37
6995,37
6996,37
6997,37
6998,37
6999,37
7000,37
7001,37
7002,37
7003,37
7004,37
7005,37
7006,37
7007,37
7008,37
7009,37
7010,37
7011,37
7012,37
7013,37
7014,37
7015,36
7016,36
7017,36
7018,36
7019,36
7020,36
7021,36
7022,36
7023,36
7024,36
7025,36
7026,36
7027,36
7028,36
7029,36
7030,36
7031,36
7032,36
7033,36
7034,36
7035,36
7036,36
7037,36
7038,36
7039,36
7040,36
7041,36
7042,36
7043,36
7044,36
7045,36
7046,36
7047,36
7048,36
7049,36
7050,36
7051,36
7052,36
7053,36
7054,36
7055,37
7056,38
7057,37
7058,36
7059,36
7060,36
7061,36
7062,36
7063,36
7064,36
7065,36
7066,36
7067,37
7068,37
7069,37
7070,37
7071,36
7072,36
7073,36
7074,36
7075,36
7076,36
7077,36
7078,36
7079,36
7080,36
7081,36
7082,36
7083,36
7084,36
7085,36
7086,36
7087,36
7088,36
7089,36
7090,36
7091,36
7092,36
7093,36
7094,36
7095,36
7096,36
7097,36
7098,36
7099,36
7100,36
7101,37
7102,37
7103,38
7104,37
7105,37
7106,37
7107,37
7108,37
7109,37
7110,37
7111,37
7112,37
7113,37
7114,37
7115,38
7116,38
7117,38
7118,38
7119,38
7120,38
7121,38
7122,38
7123,39
7124,39
7125,39
7126,39
7127,39
7128,38
7129,38
7130,37
7131,37
7132,37
7133,36
7134,36
7135,36
7136,37
7137,37
7138,36
7139,35
7140,35
7141,35
7142,35
7143,35
7144,35
7145,35
7146,35
7147,35
7148,35
7149,35
7150,35
7151,35
7152,35
7153,35
7154,35
7155,35
7156,36
7157,35
7158,35
7159,35
7160,35
7161,35
7162,35
7163,35
7164,35
7165,35
7166,35
7167,35
7168,35
7169,35
7170,35
7171,35
7172,35
7173,35
7174,35
7175,35
7176,35
7177,35
7178,34
7179,34
7180,34
7181,35
7182,36
7183,35
7184,34
7185,34
7186,34
7187,34
7188,34
7189,34
7190,34
7191,34
7192,34
7193,35
7194,35
7195,35
7196,34
7197,34
7198,34
7199,34
7200,34
7201,34
7202,34
7203,34
7204,34
7205,34
7206,34
7207,34
7208,34
7209,34
7210,34
7211,34
7212,35
7213,35
7214,35
7215,35
7216,35
7217,36
7218,35
7219,35
7220,35
7221,35
7222,35
7223,35
7224,35
7225,34
7226,34
7227,34
7228,34
7229,34
7230,34
7231,34
7232,34
7233,34
7234,34
7235,34
7236,34
7237,34
7238,34
7239,34
7240,34
7241,34
7242,34
7243,34
7244,34
7245,34
7246,34
7247,34
7248,34
7249,34
7250,34
7251,34
7252,34
7253,34
7254,34
7255,34
7256,34
7257,35
7258,34
7259,34
7260,34
7261,34
7262,34
7263,34
7264,34
7265,34
7266,34
7267,34
7268,34
7269,34
7270,34
7271,34
7272,35
7273,34
7274,34
7275,34
7276,34
7277,34
7278,34
7279,34
7280,34
7281,34
7282,36
7283,35
7284,35
7285,35
7286,35
7287,35
7288,35
7289,35
7290,35
7291,36
7292,36
7293,36
7294,35
7295,35
7296,35
7297,35
7298,35
7299,35
7300,35
7301,35
7302,35
7303,35
7304,35
7305,35
7306,35
7307,35
7308,35
7309,35
7310,35
7311,35
7312,35
7313,35
7314,35
7315,34
7316,34
7317,34
7318,34
7319,34
7320,34
7321,34
7322,34
7323,34
7324,34
7325,34
7326,34
7327,34
7328,34
7329,34
7330,34
7331,34
7332,34
7333,34
7334,34
7335,34
7336,34
7337,34
7338,34
7339,35
7340,35
7341,35
7342,35
7343,35
7344,35
7345,35
7346,35
7347,35
7348,34
7349,34
7350,34
7351,34
7352,34
7353,34
7354,34
7355,34
7356,34
7357,34
7358,34
7359,34
7360,34
7361,34
7362,34
7363,34
7364,34
7365,34
7366,35
7367,35
7368,34
7369,34
7370,34
7371,34
7372,34
7373,34
7374,34
7375,34
7376,34
7377,34
7378,34
7379,35
7380,35
7381,34
7382,34
7383,35
7384,35
7385,34
7386,34
7387,34
7388,35
7389,34
7390,34
7391,34
7392,34
7393,34
7394,34
7395,34
7396,34
7397,34
7398,34
7399,34
7400,34
7401,34
7402,34
7403,34
7404,34
7405,34
7406,34
7407,34
7408,34
7409,34
7410,35
7411,34
7412,34
7413,34
7414,34
7415,34
7416,34
7417,34
7418,34
7419,34
7420,34
7421,34
7422,35
7423,36
7424,35
7425,34
7426,34
7427,34
7428,34
7429,34
7430,34
7431,34
7432,34
7433,35
7434,35
7435,35
7436,35
7437,35
7438,35
7439,35
7440,35
7441,35
7442,35
7443,35
7444,35
7445,34
7446,34
7447,34
7448,34
7449,34
7450,35
7451,35
7452,35
7453,34
7454,34
7455,34
7456,34
7457,35
7458,35
7459,34
7460,34
7461,34
7462,34
7463,34
7464,34
7465,34
7466,35
7467,35
7468,35
7469,35
7470,35
7471,35
7472,35
7473,35
7474,35
7475,35
7476,35
7477,35
7478,35
7479,35
7480,35
7481,35
7482,35
7483,35
7484,35
7485,35
7486,34
7487,35
7488,35
7489,34
7490,34
7491,34
7492,34
7493,34
7494,34
7495,34
7496,33
7497,33
7498,33
7499,34
7500,33
7501,33
7502,33
7503,33
7504,33
7505,33
7506,33
7507,33
7508,33
7509,33
7510,33
7511,33
7512,33
7513,33
7514,33
7515,33
7516,33
7517,33
7518,33
7519,33
7520,33
7521,33
7522,33
7523,33
7524,33
7525,33
7526,33
7527,33
7528,33
7529,33
7530,33
7531,33
7532,33
7533,33
7534,33
7535,33
7536,33
7537,33
7538,33
7539,33
7540,33
7541,33
7542,33
7543,33
7544,33
7545,33
7546,33
7547,33
7548,33
7549,33
7550,33
7551,33
7552,33
7553,34
7554,34
7555,33
7556,33
7557,33
7558,33
7559,33
7560,33
7561,33
7562,33
7563,33
7564,33
7565,33
7566,33
7567,33
7568,33
7569,33
7570,33
7571,33
7572,33
7573,33
7574,33
7575,33
7576,33
7577,33
7578,33
7579,34
7580,34
7581,34
7582,34
7583,34
7584,34
7585,34
7586,34
7587,34
7588,34
7589,34
7590,34
7591,34
7592,34
7593,33
7594,33
7595,34
7596,33
7597,33
7598,33
7599,33
7600,33
7601,33
7602,33
7603,33
7604,33
7605,34
7606,34
7607,34
7608,34
7609,35
7610,34
7611,34
7612,34
7613,34
7614,34
7615,34
7616,34
7617,34
7618,34
7619,34
7620,34
7621,34
7622,34
7623,35
7624,35
7625,35
7626,34
7627,34
7628,34
7629,34
7630,34
7631,34
7632,34
7633,34
7634,34
7635,34
7636,34
7637,33
7638,33
7639,33
7640,33
7641,33
7642,33
7643,33
7644,33
7645,33
7646,34
7647,34
7648,34
7649,34
7650,34
7651,34
7652,33
7653,33
7654,33
7655,33
7656,33
7657,33
7658,33
7659,33
7660,33
7661,33
7662,34
7663,34
7664,33
7665,34
7666,34
7667,34
7668,34
7669,33
7670,33
7671,33
7672,33
7673,33
7674,33
7675,33
7676,33
7677,33
7678,33
7679,33
7680,33
7681,34
7682,34
7683,34
7684,34
7685,33
7686,33
7687,33
7688,33
7689,33
7690,33
7691,33
7692,33
7693,33
7694,33
7695,33
7696,33
7697,33
7698,33
7699,33
7700,33
7701,33
7702,33
7703,33
7704,33
7705,33
7706,33
7707,33
7708,33
7709,33
7710,33
7711,33
7712,33
7713,33
7714,33
7715,33
7716,33
7717,33
7718,33
7719,33
7720,33
7721,33
7722,34
7723,34
7724,34
7725,34
7726,34
7727,34
7728,34
7729,34
7730,34
7731,35
7732,35
7733,34
7734,34
7735,35
7736,34
7737,34
7738,34
7739,34
7740,35
7741,35
7742,34
7743,34
7744,34
7745,33
7746,33
7747,33
7748,34
7749,33
7750,34
7751,34
7752,34
7753,35
7754,34
7755,34
7756,34
7757,34
7758,34
7759,35
7760,35
7761,33
7762,33
7763,33
7764,33
7765,33
7766,33
7767,33
7768,33
7769,33
7770,33
7771,33
7772,34
7773,34
7774,34
7775,34
7776,34
7777,33
7778,33
7779,33
7780,33
7781,33
7782,34
7783,34
7784,35
7785,35
7786,34
7787,34
7788,35
7789,34
7790,34
7791,33
7792,33
7793,33
7794,33
7795,33
7796,33
7797,33
7798,33
7799,33
7800,33
7801,33
7802,33
7803,33
7804,33
7805,33
7806,33
7807,33
7808,34
7809,33
7810,33
7811,33
7812,33
7813,33
7814,33
7815,33
7816,33
7817,33
7818,33
7819,33
7820,33
7821,33
7822,33
7823,34
7824,34
7825,33
7826,33
7827,33
7828,33
7829,33
7830,33
7831,33
7832,33
7833,33
7834,33
7835,33
7836,33
7837,33
7838,33
7839,33
7840,33
7841,33
7842,33
7843,33
7844,33
7845,33
7846,34
7847,34
7848,33
7849,33
7850,33
7851,33
7852,33
7853,33
7854,33
7855,33
7856,33
7857,33
7858,33
7859,33
7860,33
7861,33
7862,34
7863,34
7864,34
7865,33
7866,33
7867,33
7868,33
7869,33
7870,33
7871,33
7872,33
7873,33
7874,33
7875,33
7876,33
7877,33
7878,33
7879,33
7880,33
7881,33
7882,33
7883,33
7884,33
7885,33
7886,33
7887,33
7888,33
7889,33
7890,34
7891,33
7892,33
7893,33
7894,33
7895,33
7896,34
7897,33
7898,33
7899,33
7900,32
7901,32
7902,32
7903,32
7904,32
7905,32
7906,32
7907,33
7908,33
7909,32
7910,32
7911,32
7912,32
7913,32
7914,32
7915,33
7916,32
7917,32
7918,32
7919,32
7920,32
7921,32
7922,32
7923,32
7924,32
7925,33
7926,32
7927,32
7928,32
7929,32
7930,32
7931,32
7932,32
7933,32
7934,32
7935,32
7936,32
7937,32
7938,32
7939,32
7940,32
7941,32
7942,32
7943,32
7944,32
7945,32
7946,32
7947,32
7948,32
7949,32
7950,33
7951,33
7952,32
7953,32
7954,32
7955,32
7956,32
7957,32
7958,33
7959,33
7960,32
7961,33
7962,32
7963,32
7964,32
7965,32
7966,32
7967,32
7968,32
7969,32
7970,32
7971,32
7972,33
7973,33
7974,33
7975,33
7976,34
7977,34
7978,34
7979,34
7980,32
7981,32
7982,32
7983,32
7984,32
7985,32
7986,32
7987,32
7988,32
7989,32
7990,32
7991,32
7992,32
7993,32
7994,32
7995,32
7996,32
7997,32
7998,32
7999,32
8000,32
8001,32
8002,32
8003,32
8004,32
8005,32
8006,32
8007,32
8008,32
8009,32
8010,32
8011,32
8012,32
8013,33
8014,33
8015,33
8016,33
8017,32
8018,32
8019,32
8020,32
8021,32
8022,32
8023,32
8024,32
8025,32
8026,32
8027,32
8028,32
8029,32
8030,32
8031,32
8032,32
8033,32
8034,32
8035,32
8036,32
8037,32
8038,32
8039,32
8040,32
8041,32
8042,32
8043,32
8044,32
8045,32
8046,32
8047,32
8048,32
8049,32
8050,32
8051,32
8052,32
8053,32
8054,32
8055,32
8056,32
8057,32
8058,32
8059,32
8060,32
8061,32
8062,32
8063,32
8064,32
8065,32
8066,32
8067,32
8068,32
8069,32
8070,32
8071,32
8072,32
8073,32
8074,32
8075,33
8076,33
8077,33
8078,32
8079,32
8080,32
8081,32
8082,32
8083,32
8084,32
8085,33
8086,32
8087,32
8088,32
8089,32
8090,32
8091,32
8092,32
8093,32
8094,32
8095,32
8096,32
8097,32
8098,32
8099,33
8100,32
8101,32
8102,33
8103,32
8104,32
8105,32
8106,32
8107,33
8108,34
8109,35
8110,34
8111,33
8112,33
8113,32
8114,32
8115,32
8116,33
8117,32
8118,32
8119,33
8120,32
8121,32
8122,32
8123,32
8124,32
8125,33
8126,32
8127,32
8128,32
8129,32
8130,32
8131,32
8132,32
8133,32
8134,32
8135,32
8136,33
8137,32
8138,31
8139,31
8140,31
8141,31
8142,31
8143,31
8144,31
8145,31
8146,31
8147,31
8148,33
8149,32
8150,32
8151,31
8152,31
8153,31
8154,31
8155,31
8156,31
8157,31
8158,31
8159,31
8160,31
8161,31
8162,31
8163,31
8164,31
8165,31
8166,32
8167,31
8168,31
8169,31
8170,31
8171,31
8172,32
8173,32
8174,31
8175,31
8176,31
8177,31
8178,31
8179,31
8180,31
8181,31
8182,31
8183,31
8184,31
8185,31
8186,31
8187,31
8188,31
8189,31
8190,32
8191,31
8192,31
8193,31
8194,31
8195,31
8196,31
8197,31
8198,31
8199,31
8200,31
8201,32
8202,31
8203,31
8204,31
8205,31
8206,31
8207,31
8208,31
8209,31
8210,31
8211,31
8212,32
8213,32
8214,31
8215,31
8216,31
8217,31
8218,31
8219,31
8220,31
8221,31
8222,31
8223,31
8224,31
8225,31
8226,31
8227,31
8228,31
8229,31
8230,31
8231,31
8232,31
8233,31
8234,31
8235,31
8236,31
8237,31
8238,31
8239,31
8240,31
8241,31
8242,31
8243,31
8244,31
8245,31
8246,31
8247,31
8248,31
8249,31
8250,31
8251,31
8252,31
8253,31
8254,31
8255,31
8256,31
8257,31
8258,31
8259,31
8260,31
8261,31
8262,31
8263,31
8264,31
8265,31
8266,31
8267,31
8268,31
8269,32
8270,32
8271,32
8272,31
8273,31
8274,31
8275,31
8276,31
8277,31
8278,31
8279,31
8280,31
8281,31
8282,31
8283,31
8284,31
8285,31
8286,31
8287,31
8288,32
8289,32
8290,32
8291,32
8292,32
8293,32
8294,33
8295,33
8296,32
8297,31
8298,31
8299,31
8300,31
8301,31
8302,31
8303,31
8304,31
8305,32
8306,31
8307,31
8308,31
8309,31
8310,31
8311,31
8312,31
8313,31
8314,31
8315,31
8316,31
8317,31
8318,32
8319,32
8320,32
8321,32
8322,32
8323,32
8324,31
8325,31
8326,31
8327,31
8328,31
8329,31
8330,31
8331,31
8332,31
8333,31
8334,31
8335,31
8336,31
8337,31
8338,31
8339,31
8340,31
8341,31
8342,31
8343,31
8344,31
8345,31
8346,31
8347,31
8348,31
8349,31
8350,31
8351,31
8352,31
8353,31
8354,31
8355,31
8356,31
8357,31
8358,31
8359,31
8360,31
8361,31
8362,32
8363,32
8364,32
8365,32
8366,32
8367,31
8368,31
8369,31
8370,31
8371,31
8372,31
8373,31
8374,31
8375,31
8376,31
8377,31
8378,31
8379,31
8380,31
8381,31
8382,31
8383,31
8384,31
8385,31
8386,31
8387,31
8388,31
8389,31
8390,31
8391,31
8392,31
8393,31
8394,31
8395,31
8396,31
8397,31
8398,31
8399,31
8400,31
8401,31
8402,31
8403,31
8404,31
8405,32
8406,31
8407,31
8408,31
8409,31
8410,31
8411,31
8412,31
8413,31
8414,31
8415,31
8416,31
8417,31
8418,31
8419,32
8420,31
8421,31
8422,31
8423,31
8424,31
8425,31
8426,31
8427,31
8428,32
8429,32
8430,32
8431,32
8432,33
8433,32
8434,32
8435,33
8436,32
8437,32
8438,32
8439,31
8440,31
8441,31
8442,31
8443,31
8444,31
8445,31
8446,31
8447,31
8448,31
8449,31
8450,31
8451,31
8452,31
8453,31
8454,31
8455,31
8456,32
8457,31
8458,31
8459,31
8460,31
8461,31
8462,31
8463,31
8464,31
8465,31
8466,31
8467,31
8468,31
8469,31
8470,31
8471,31
8472,31
8473,31
8474,31
8475,31
8476,31
8477,31
8478,31
8479,31
8480,32
8481,32
8482,32
8483,32
8484,32
8485,32
8486,32
8487,32
8488,32
8489,32
8490,32
8491,31
8492,31
8493,31
8494,31
8495,31
8496,31
8497,31
8498,31
8499,31
8500,31
8501,31
8502,31
8503,31
8504,31
8505,31
8506,31
8507,31
8508,31
8509,31
8510,31
8511,31
8512,31
8513,31
8514,31
8515,31
8516,32
8517,31
8518,32
8519,31
8520,31
8521,31
8522,31
8523,31
8524,31
8525,31
8526,31
8527,31
8528,31
8529,31
8530,31
8531,31
8532,31
8533,31
8534,31
8535,31
8536,31
8537,31
8538,31
8539,31
8540,31
8541,31
8542,31
8543,31
8544,31
8545,31
8546,31
8547,31
8548,31
8549,31
8550,31
8551,31
8552,32
8553,31
8554,31
8555,31
8556,31
8557,31
8558,31
8559,31
8560,31
8561,31
8562,31
8563,31
8564,31
8565,31
8566,31
8567,31
8568,31
8569,31
8570,31
8571,32
8572,33
8573,32
8574,32
8575,33
8576,32
8577,32
8578,32
8579,32
8580,32
8581,32
8582,32
8583,32
8584,32
8585,32
8586,32
8587,32
8588,33
8589,33
8590,32
8591,33
8592,33
8593,33
8594,33
8595,33
8596,33
8597,33
8598,32
8599,32
8600,32
8601,32
8602,32
8603,32
8604,32
8605,32
8606,32
8607,32
8608,33
8609,32
8610,32
8611,32
8612,32
8613,32
8614,32
8615,32
8616,32
8617,32
8618,32
8619,32
8620,32
8621,33
8622,32
8623,32
8624,32
8625,32
8626,32
8627,32
8628,32
8629,32
8630,32
8631,32
8632,32
8633,32
8634,32
8635,32
8636,32
8637,32
8638,32
8639,32
8640,32
8641,32
8642,32
8643,32
8644,32
8645,32
8646,32
8647,34
8648,34
8649,33
8650,32
8651,32
8652,32
8653,32
8654,32
8655,32
8656,32
8657,32
8658,32
8659,31
8660,31
8661,31
8662,31
8663,32
8664,32
8665,32
8666,31
8667,31
8668,31
8669,31
8670,31
8671,31
8672,31
8673,31
8674,31
8675,31
8676,31
8677,31
8678,31
8679,31
8680,31
8681,31
8682,31
8683,31
8684,31
8685,31
8686,31
8687,31
8688,31
8689,31
8690,31
8691,31
8692,31
8693,31
8694,31
8695,31
8696,31
8697,32
8698,31
8699,31
8700,31
8701,31
8702,32
8703,31
8704,31
8705,31
8706,31
8707,31
8708,31
8709,31
8710,31
8711,31
8712,31
8713,31
8714,31
8715,31
8716,31
8717,31
8718,31
8719,31
8720,31
8721,31
8722,32
8723,32
8724,32
8725,31
8726,31
8727,31
8728,31
8729,31
8730,31
8731,31
8732,31
8733,32
8734,31
8735,31
8736,31
8737,31
8738,31
8739,32
8740,31
8741,31
8742,31
8743,31
8744,31
8745,31
8746,31
8747,31
8748,31
8749,31
8750,31
8751,31
8752,31
8753,31
8754,31
8755,31
8756,31
8757,31
8758,31
8759,31
8760,31
8761,33
8762,33
8763,33
8764,33
8765,33
8766,32
8767,32
8768,32
8769,32
8770,32
8771,32
8772,32
8773,33
8774,33
8775,33
8776,33
8777,33
8778,33
8779,33
8780,33
8781,33
8782,33
8783,33
8784,32
8785,32
8786,32
8787,32
8788,32
8789,33
8790,33
8791,33
8792,33
8793,33
8794,33
8795,33
8796,33
8797,33
8798,33
8799,33
8800,34
8801,35
8802,36
8803,34
8804,34
8805,34
8806,34
8807,34
8808,35
8809,35
8810,35
8811,34
8812,34
8813,34
8814,34
8815,34
8816,34
8817,34
8818,34
8819,34
8820,34
8821,34
8822,34
8823,34
8824,34
8825,34
8826,34
8827,34
8828,34
8829,34
8830,34
8831,34
8832,34
8833,34
8834,34
8835,34
8836,34
8837,34
8838,34
8839,34
8840,34
8841,35
8842,35
8843,35
8844,35
8845,35
8846,34
8847,34
8848,34
8849,34
8850,34
8851,34
8852,34
8853,34
8854,34
8855,34
8856,34
8857,34
8858,34
8859,34
8860,34
8861,34
8862,34
8863,34
8864,34
8865,34
8866,34
8867,34
8868,34
8869,34
8870,34
8871,34
8872,34
8873,34
8874,34
8875,34
8876,34
8877,34
8878,34
8879,33
8880,32
8881,32
8882,32
8883,32
8884,32
8885,32
8886,32
8887,33
8888,32
8889,32
8890,32
8891,32
8892,33
8893,32
8894,32
8895,32
8896,32
8897,32
8898,32
8899,32
8900,32
8901,32
8902,32
8903,32
8904,32
8905,32
8906,32
8907,32
8908,32
8909,32
8910,32
8911,32
8912,32
8913,32
8914,32
8915,32
8916,32
8917,32
8918,32
8919,32
8920,32
8921,32
8922,32
8923,32
8924,32
8925,33
8926,32
8927,32
8928,32
8929,33
8930,32
8931,32
8932,32
8933,32
8934,32
8935,33
8936,33
8937,32
8938,32
8939,32
8940,32
8941,33
8942,32
8943,32
8944,32
8945,32
8946,33
8947,33
8948,33
8949,34
8950,33
8951,32
8952,32
8953,32
8954,32
8955,32
8956,32
8957,32
8958,32
8959,32
8960,32
8961,32
8962,32
8963,32
8964,32
8965,32
8966,32
8967,32
8968,32
8969,32
8970,32
8971,32
8972,32
8973,32
8974,32
8975,32
8976,32
8977,32
8978,32
8979,32
8980,32
8981,33
8982,33
8983,33
8984,33
8985,33
8986,33
8987,34
8988,33
8989,33
8990,33
8991,33
8992,33
8993,32
8994,32
8995,32
8996,32
8997,33
8998,33
8999,32
9000,32
9001,32
9002,32
9003,33
9004,33
9005,33
9006,33
9007,33
9008,34
9009,33
9010,32
9011,32
9012,32
9013,32
9014,32
9015,32
9016,32
9017,32
9018,32
9019,32
9020,32
9021,32
9022,32
9023,32
9024,32
9025,32
9026,32
9027,32
9028,32
9029,32
9030,32
9031,32
9032,33
9033,33
9034,33
9035,33
9036,32
9037,32
9038,32
9039,32
9040,32
9041,32
9042,32
9043,32
9044,32
9045,32
9046,32
9047,32
9048,33
9049,32
9050,32
9051,32
9052,32
9053,32
9054,32
9055,32
9056,32
9057,32
9058,33
9059,32
9060,32
9061,32
9062,32
9063,33
9064,32
9065,32
9066,32
9067,32
9068,32
9069,32
9070,32
9071,32
9072,32
9073,32
9074,32
9075,32
9076,32
9077,33
9078,33
9079,32
9080,33
9081,33
9082,34
9083,33
9084,33
9085,32
9086,32
9087,32
9088,32
9089,32
9090,32
9091,32
9092,32
9093,32
9094,32
9095,32
9096,32
9097,32
9098,32
9099,32
9100,32
9101,32
9102,32
9103,32
9104,32
9105,32
9106,33
9107,33
9108,32
9109,33
9110,33
9111,33
9112,33
9113,32
9114,32
9115,32
9116,33
9117,33
9118,33
9119,33
9120,33
9121,34
9122,33
9123,33
9124,33
9125,33
9126,33
9127,33
9128,33
9129,33
9130,33
9131,33
9132,33
9133,33
9134,33
9135,33
9136,33
9137,33
9138,33
9139,33
9140,33
9141,33
9142,33
9143,33
9144,33
9145,33
9146,33
9147,33
9148,33
9149,33
9150,33
9151,32
9152,32
9153,32
9154,32
9155,32
9156,32
9157,32
9158,32
9159,32
9160,32
9161,32
9162,32
9163,32
9164,32
9165,32
9166,32
9167,32
9168,32
9169,32
9170,32
9171,32
9172,32
9173,32
9174,32
9175,32
9176,32
9177,32
9178,32
9179,32
9180,32
9181,32
9182,32
9183,32
9184,32
9185,32
9186,32
9187,32
9188,32
9189,32
9190,32
9191,32
9192,32
9193,32
9194,32
9195,33
9196,33
9197,33
9198,33
9199,32
9200,32
9201,32
9202,32
9203,32
9204,32
9205,32
9206,32
9207,32
9208,32
9209,33
9210,33
9211,32
9212,32
9213,33
9214,33
9215,33
9216,33
9217,34
9218,33
9219,33
9220,33
9221,32
9222,32
9223,33
9224,32
9225,32
9226,32
9227,32
9228,32
9229,32
9230,32
9231,33
9232,32
9233,32
9234,32
9235,32
9236,32
9237,32
9238,32
9239,32
9240,32
9241,32
9242,32
9243,32
9244,32
9245,32
9246,32
9247,32
9248,33
9249,32
9250,32
9251,32
9252,32
9253,32
9254,32
9255,32
9256,32
9257,32
9258,32
9259,32
9260,32
9261,32
9262,32
9263,32
9264,32
9265,32
9266,32
9267,32
9268,32
9269,33
9270,33
9271,32
9272,32
9273,32
9274,33
9275,33
9276,33
9277,32
9278,32
9279,32
9280,32
9281,32
9282,32
9283,32
9284,32
9285,32
9286,32
9287,32
9288,32
9289,32
9290,32
9291,32
9292,32
9293,32
9294,32
9295,32
9296,32
9297,32
9298,32
9299,32
9300,32
9301,32
9302,32
9303,32
9304,32
9305,32
9306,32
9307,32
9308,32
9309,32
9310,32
9311,32
9312,33
9313,32
9314,32
9315,32
9316,32
9317,32
9318,32
9319,32
9320,32
9321,32
9322,32
9323,32
9324,32
9325,32
9326,32
9327,32
9328,32
9329,32
9330,32
9331,32
9332,32
9333,32
9334,32
9335,32
9336,32
9337,32
9338,32
9339,32
9340,32
9341,32
9342,32
9343,32
9344,32
9345,32
9346,32
9347,32
9348,32
9349,33
9350,33
9351,33
9352,33
9353,33
9354,33
9355,33
9356,33
9357,33
9358,33
9359,33
9360,33
9361,33
9362,33
9363,33
9364,33
9365,33
9366,32
9367,32
9368,32
9369,32
9370,33
9371,32
9372,32
9373,32
9374,32
9375,34
9376,34
9377,34
9378,34
9379,34
9380,34
9381,34
9382,34
9383,34
9384,34
9385,34
9386,34
9387,35
9388,34
9389,34