1,3
2,3
3,3
4,3
5,3
6,3
7,3
8,3
9,3
10,4
11,4
12,4
13,4
14,4
15,4
16,4
17,4
18,4
19,4
20,4
21,4
22,4
23,4
24,4
25,4
26,4
27,5
28,5
29,5
30,5
31,5
32,5
33,5
34,5
35,5
36,5
37,5
38,5
39,5
40,5
41,5
42,5
43,5
44,5
45,5
46,5
47,6
48,5
49,5
50,5
51,5
52,5
53,5
54,5
55,5
56,5
57,6
58,6
59,6
60,6
61,6
62,6
63,6
64,6
65,7
66,7
67,7
68,7
69,7
70,6
71,6
72,6
73,6
74,6
75,6
76,6
77,6
78,6
79,6
80,6
81,6
82,6
83,6
84,6
85,6
86,6
87,6
88,6
89,6
90,6
91,6
92,6
93,6
94,6
95,6
96,6
97,6
98,6
99,6
100,6
101,6
102,6
103,6
104,6
105,6
106,6
107,6
108,6
109,6
110,6
111,6
112,6
113,6
114,6
115,6
116,6
117,6
118,6
119,6
120,6
121,6
122,6
123,6
124,6
125,6
126,6
127,6
128,6
129,6
130,6
131,6
132,6
133,6
134,6
135,6
136,6
137,6
138,6
139,7
140,7
141,6
142,6
143,6
144,6
145,6
146,6
147,6
148,6
149,6
150,6
151,6
152,6
153,6
154,6
155,6
156,6
157,6
158,6
159,6
160,6
161,6
162,6
163,6
164,6
165,6
166,6
167,6
168,6
169,6
170,6
171,7
172,7
173,7
174,7
175,7
176,6
177,6
178,6
179,6
180,6
181,6
182,6
183,6
184,6
185,6
186,6
187,6
188,6
189,6
190,6
191,6
192,6
193,6
194,6
195,6
196,6
197,6
198,6
199,6
200,6
201,6
202,6
203,6
204,6
205,6
206,6
207,6
208,6
209,6
210,7
211,6
212,6
213,6
214,7
215,7
216,7
217,6
218,6
219,6
220,6
221,6
222,6
223,6
224,6
225,6
226,6
227,6
228,6
229,6
230,6
231,7
232,7
233,7
234,7
235,7
236,6
237,6
238,6
239,6
240,6
241,6
242,6
243,6
244,6
245,6
246,6
247,6
248,6
249,6
250,6
251,6
252,7
253,7
254,8
255,6
256,6
257,6
258,6
259,6
260,6
261,6
262,7
263,7
264,7
265,7
266,7
267,7
268,7
269,7
270,7
271,7
272,7
273,8
274,8
275,8
276,8
277,8
278,8
279,8
280,8
281,8
282,8
283,8
284,8
285,8
286,8
287,8
288,8
289,8
290,8
291,8
292,8
293,8
294,8
295,8
296,8
297,8
298,8
299,8
300,8
301,8
302,8
303,8
304,8
305,8
306,8
307,8
308,8
309,10
310,10
311,9
312,9
313,9
314,9
315,9
316,9
317,9
318,9
319,9
320,9
321,9
322,9
323,9
324,9
325,9
326,9
327,9
328,9
329,9
330,9
331,9
332,10
333,9
334,9
335,9
336,9
337,9
338,9
339,9
340,9
341,9
342,9
343,9
344,9
345,9
346,9
347,9
348,9
349,9
350,9
351,9
352,10
353,10
354,10
355,10
356,10
357,10
358,10
359,10
360,10
361,10
362,10
363,10
364,10
365,12
366,11
367,11
368,11
369,10
370,10
371,10
372,10
373,10
374,10
375,10
376,10
377,10
378,10
379,10
380,10
381,10
382,11
383,11
384,11
385,11
386,11
387,11
388,10
389,10
390,10
391,10
392,10
393,10
394,10
395,10
396,10
397,10
398,10
399,11
400,10
401,10
402,10
403,10
404,10
405,10
406,10
407,10
408,10
409,10
410,10
411,10
412,10
413,10
414,10
415,10
416,10
417,10
418,10
419,10
420,11
421,11
422,11
423,10
424,10
425,10
426,10
427,10
428,10
429,10
430,10
431,10
432,10
433,10
434,10
435,10
436,10
437,10
438,10
439,10
440,10
441,10
442,10
443,10
444,10
445,10
446,10
447,10
448,10
449,10
450,10
451,10
452,10
453,10
454,10
455,10
456,10
457,10
458,10
459,10
460,10
461,10
462,10
463,10
464,10
465,10
466,10
467,10
468,10
469,10
470,10
471,10
472,10
473,10
474,10
475,10
476,10
477,10
478,10
479,10
480,10
481,10
482,10
483,11
484,12
485,11
486,10
487,10
488,10
489,11
490,10
491,10
492,10
493,10
494,10
495,10
496,10
497,12
498,12
499,12
500,12
501,10
502,10
503,10
504,10
505,10
506,10
507,10
508,11
509,11
510,11
511,11
512,10
513,10
514,11
515,11
516,11
517,11
518,11
519,11
520,11
521,11
522,11
523,11
524,11
525,11
526,11
527,11
528,11
529,11
530,11
531,11
532,11
533,11
534,11
535,11
536,11
537,11
538,11
539,11
540,11
541,11
542,11
543,11
544,11
545,11
546,11
547,11
548,11
549,11
550,11
551,11
552,11
553,11
554,11
555,11
556,11
557,11
558,11
559,12
560,12
561,12
562,12
563,12
564,12
565,13
566,12
567,12
568,12
569,12
570,12
571,12
572,12
573,12
574,12
575,12
576,12
577,12
578,12
579,12
580,12
581,12
582,12
583,12
584,12
585,12
586,12
587,12
588,12
589,12
590,12
591,12
592,12
593,12
594,12
595,12
596,12
597,12
598,12
599,12
600,12
601,12
602,12
603,12
604,12
605,12
606,12
607,12
608,12
609,12
610,12
611,12
612,12
613,12
614,12
615,12
616,13
617,12
618,12
619,12
620,12
621,12
622,12
623,12
624,12
625,14
626,12
627,12
628,12
629,12
630,12
631,12
632,12
633,12
634,13
635,12
636,12
637,12
638,12
639,12
640,12
641,12
642,12
643,12
644,12
645,12
646,12
647,13
648,12
649,12
650,12
651,12
652,12
653,12
654,12
655,12
656,12
657,12
658,12
659,12
660,12
661,12
662,12
663,12
664,12
665,12
666,12
667,12
668,12
669,12
670,12
671,12
672,12
673,12
674,12
675,12
676,12
677,12
678,12
679,12
680,12
681,12
682,12
683,12
684,12
685,13
686,12
687,12
688,12
689,12
690,12
691,12
692,12
693,12
694,12
695,12
696,12
697,12
698,12
699,12
700,12
701,12
702,12
703,12
704,12
705,12
706,12
707,12
708,12
709,12
710,12
711,12
712,12
713,12
714,13
715,13
716,13
717,13
718,12
719,12
720,12
721,12
722,12
723,12
724,12
725,12
726,12
727,12
728,12
729,12
730,12
731,12
732,12
733,12
734,12
735,12
736,12
737,12
738,12
739,12
740,12
741,12
742,12
743,12
744,12
745,12
746,12
747,12
748,12
749,12
750,12
751,12
752,12
753,12
754,12
755,12
756,12
757,12
758,12
759,12
760,12
761,12
762,12
763,12
764,12
765,12
766,12
767,12
768,12
769,12
770,12
771,12
772,12
773,12
774,12
775,12
776,12
777,12
778,12
779,12
780,12
781,12
782,12
783,12
784,12
785,12
786,12
787,12
788,12
789,12
790,12
791,12
792,12
793,12
794,12
795,12
796,12
797,12
798,12
799,13
800,13
801,13
802,13
803,13
804,13
805,13
806,13
807,13
808,13
809,12
810,12
811,13
812,13
813,13
814,12
815,12
816,12
817,12
818,12
819,13
820,12
821,12
822,12
823,12
824,12
825,12
826,13
827,12
828,12
829,12
830,13
831,13
832,13
833,13
834,13
835,13
836,13
837,13
838,13
839,13
840,13
841,13
842,13
843,13
844,13
845,13
846,13
847,13
848,13
849,13
850,13
851,13
852,13
853,13
854,13
855,13
856,13
857,13
858,13
859,13
860,13
861,13
862,14
863,14
864,14
865,14
866,14
867,14
868,14
869,14
870,14
871,15
872,14
873,15
874,14
875,14
876,14
877,14
878,15
879,14
880,14
881,14
882,14
883,14
884,14
885,14
886,14
887,16
888,14
889,13
890,13
891,13
892,13
893,13
894,14
895,14
896,14
897,14
898,14
899,14
900,14
901,14
902,14
903,14
904,15
905,14
906,14
907,14
908,15
909,14
910,14
911,14
912,14
913,14
914,14
915,14
916,14
917,14
918,14
919,14
920,14
921,15
922,15
923,14
924,14
925,14
926,14
927,14
928,14
929,14
930,14
931,14
932,15
933,15
934,15
935,15
936,15
937,15
938,15
939,15
940,15
941,15
942,15
943,15
944,15
945,15
946,15
947,15
948,15
949,16
950,16
951,16
952,17
953,17
954,17
955,16
956,16
957,16
958,16
959,16
960,16
961,16
962,16
963,16
964,16
965,16
966,16
967,16
968,16
969,16
970,16
971,16
972,16
973,16
974,16
975,16
976,16
977,16
978,16
979,16
980,16
981,16
982,16
983,16
984,16
985,17
986,17
987,18
988,18
989,20
990,18
991,18
992,17
993,17
994,17
995,17
996,17
997,17
998,16
999,16
1000,16
1001,17
1002,16
1003,16
1004,16
1005,16
1006,16
1007,16
1008,16
1009,16
1010,16
1011,16
1012,16
1013,16
1014,16
1015,16
1016,16
1017,16
1018,16
1019,16
1020,16
1021,16
1022,16
1023,16
1024,16
1025,16
1026,16
1027,17
1028,16
1029,16
1030,16
1031,16
1032,16
1033,16
1034,16
1035,16
1036,16
1037,17
1038,17
1039,16
1040,16
1041,16
1042,16
1043,16
1044,16
1045,17
1046,17
1047,17
1048,17
1049,17
1050,17
1051,17
1052,17
1053,17
1054,17
1055,17
1056,17
1057,17
1058,17
1059,16
1060,16
1061,16
1062,16
1063,16
1064,16
1065,16
1066,16
1067,16
1068,16
1069,16
1070,16
1071,16
1072,16
1073,16
1074,16
1075,16
1076,16
1077,16
1078,16
1079,16
1080,16
1081,16
1082,16
1083,16
1084,16
1085,16
1086,16
1087,16
1088,16
1089,16
1090,16
1091,16
1092,16
1093,16
1094,17
1095,17
1096,16
1097,16
1098,16
1099,16
1100,16
1101,16
1102,16
1103,16
1104,16
1105,16
1106,16
1107,16
1108,16
1109,16
1110,16
1111,16
1112,16
1113,16
1114,16
1115,16
1116,16
1117,16
1118,16
1119,16
1120,16
1121,16
1122,16
1123,16
1124,16
1125,16
1126,16
1127,16
1128,16
1129,16
1130,16
1131,16
1132,16
1133,16
1134,16
1135,16
1136,16
1137,16
1138,16
1139,16
1140,16
1141,16
1142,16
1143,17
1144,17
1145,17
1146,17
1147,17
1148,17
1149,17
1150,17
1151,17
1152,17
1153,17
1154,17
1155,17
1156,17
1157,17
1158,17
1159,18
1160,18
1161,17
1162,17
1163,17
1164,17
1165,17
1166,17
1167,17
1168,18
1169,18
1170,18
1171,17
1172,17
1173,17
1174,17
1175,17
1176,17
1177,17
1178,17
1179,17
1180,17
1181,17
1182,17
1183,17
1184,17
1185,17
1186,17
1187,17
1188,17
1189,17
1190,17
1191,18
1192,18
1193,18
1194,17
1195,17
1196,17
1197,17
1198,17
1199,17
1200,17
1201,17
1202,17
1203,17
1204,17
1205,17
1206,17
1207,17
1208,17
1209,17
1210,17
1211,17
1212,17
1213,17
1214,17
1215,17
1216,17
1217,17
1218,17
1219,17
1220,17
1221,17
1222,17
1223,17
1224,17
1225,17
1226,17
1227,17
1228,17
1229,17
1230,17
1231,17
1232,17
1233,17
1234,17
1235,17
1236,17
1237,17
1238,18
1239,18
1240,18
1241,18
1242,18
1243,18
1244,18
1245,18
1246,18
1247,19
1248,20
1249,18
1250,18
1251,18
1252,18
1253,18
1254,18
1255,19
1256,19
1257,19
1258,19
1259,18
1260,17
1261,18
1262,17
1263,17
1264,17
1265,17
1266,18
1267,17
1268,17
1269,17
1270,18
1271,18
1272,18
1273,18
1274,18
1275,18
1276,19
1277,19
1278,19
1279,18
1280,18
1281,18
1282,18
1283,18
1284,18
1285,17
1286,17
1287,17
1288,17
1289,17
1290,17
1291,17
1292,17
1293,17
1294,17
1295,17
1296,17
1297,17
1298,17
1299,17
1300,17
1301,17
1302,17
1303,17
1304,17
1305,17
1306,17
1307,17
1308,17
1309,17
1310,17
1311,17
1312,18
1313,18
1314,18
1315,17
1316,17
1317,17
1318,17
1319,17
1320,17
1321,17
1322,18
1323,18
1324,18
1325,17
1326,17
1327,17
1328,17
1329,17
1330,17
1331,17
1332,17
1333,18
1334,18
1335,19
1336,19
1337,18
1338,17
1339,17
1340,17
1341,17
1342,18
1343,18
1344,18
1345,18
1346,19
1347,19
1348,18
1349,18
1350,19
1351,18
1352,18
1353,17
1354,17
1355,17
1356,17
1357,17
1358,17
1359,18
1360,18
1361,18
1362,18
1363,18
1364,17
1365,17
1366,17
1367,17
1368,17
1369,17
1370,17
1371,17
1372,18
1373,18
1374,17
1375,17
1376,17
1377,17
1378,17
1379,17
1380,17
1381,18
1382,18
1383,17
1384,17
1385,17
1386,17
1387,17
1388,17
1389,17
1390,17
1391,17
1392,17
1393,17
1394,17
1395,17
1396,17
1397,17
1398,17
1399,17
1400,17
1401,18
1402,17
1403,17
1404,17
1405,17
1406,17
1407,17
1408,17
1409,18
1410,17
1411,17
1412,17
1413,17
1414,17
1415,17
1416,17
1417,17
1418,18
1419,18
1420,17
1421,17
1422,17
1423,17
1424,17
1425,17
1426,17
1427,17
1428,17
1429,17
1430,17
1431,17
1432,17
1433,17
1434,17
1435,17
1436,17
1437,17
1438,17
1439,17
1440,17
1441,17
1442,18
1443,18
1444,18
1445,19
1446,18
1447,18
1448,18
1449,18
1450,18
1451,17
1452,17
1453,17
1454,17
1455,17
1456,17
1457,17
1458,17
1459,17
1460,17
1461,17
1462,17
1463,17
1464,17
1465,17
1466,17
1467,17
1468,17
1469,17
1470,17
1471,17
1472,17
1473,17
1474,17
1475,17
1476,17
1477,17
1478,17
1479,17
1480,17
1481,17
1482,17
1483,17
1484,17
1485,17
1486,17
1487,17
1488,17
1489,17
1490,17
1491,17
1492,18
1493,17
1494,17
1495,17
1496,17
1497,17
1498,17
1499,17
1500,17
1501,17
1502,17
1503,17
1504,17
1505,17
1506,17
1507,17
1508,17
1509,17
1510,17
1511,17
1512,17
1513,17
1514,17
1515,17
1516,17
1517,17
1518,17
1519,17
1520,17
1521,17
1522,17
1523,17
1524,18
1525,19
1526,19
1527,18
1528,18
1529,18
1530,17
1531,17
1532,17
1533,17
1534,18
1535,18
1536,17
1537,17
1538,17
1539,17
1540,17
1541,17
1542,17
1543,17
1544,17
1545,17
1546,17
1547,17
1548,17
1549,17
1550,17
1551,17
1552,17
1553,17
1554,17
1555,17
1556,17
1557,17
1558,18
1559,18
1560,17
1561,17
1562,17
1563,17
1564,18
1565,18
1566,18
1567,18
1568,18
1569,18
1570,18
1571,18
1572,18
1573,18
1574,18
1575,18
1576,18
1577,18
1578,19
1579,19
1580,18
1581,18
1582,18
1583,18
1584,18
1585,18
1586,19
1587,18
1588,18
1589,18
1590,18
1591,20
1592,18
1593,18
1594,18
1595,18
1596,18
1597,18
1598,18
1599,18
1600,18
1601,18
1602,18
1603,18
1604,18
1605,18
1606,18
1607,18
1608,18
1609,18
1610,18
1611,18
1612,18
1613,18
1614,18
1615,18
1616,18
1617,18
1618,18
1619,18
1620,18
1621,18
1622,18
1623,18
1624,18
1625,18
1626,18
1627,19
1628,18
1629,18
1630,18
1631,18
1632,18
1633,18
1634,18
1635,18
1636,18
1637,18
1638,19
1639,18
1640,18
1641,18
1642,18
1643,18
1644,18
1645,18
1646,18
1647,18
1648,18
1649,18
1650,19
1651,19
1652,19
1653,19
1654,19
1655,19
1656,20
1657,19
1658,19
1659,20
1660,19
1661,19
1662,20
1663,20
1664,20
1665,20
1666,19
1667,19
1668,19
1669,18
1670,18
1671,18
1672,18
1673,18
1674,18
1675,18
1676,18
1677,18
1678,18
1679,18
1680,18
1681,18
1682,18
1683,18
1684,18
1685,18
1686,18
1687,18
1688,19
1689,19
1690,18
1691,18
1692,18
1693,18
1694,18
1695,18
1696,18
1697,18
1698,18
1699,18
1700,18
1701,19
1702,18
1703,19
1704,19
1705,19
1706,19
1707,19
1708,19
1709,18
1710,18
1711,19
1712,19
1713,19
1714,19
1715,19
1716,19
1717,19
1718,19
1719,19
1720,20
1721,20
1722,19
1723,19
1724,19
1725,19
1726,19
1727,19
1728,19
1729,19
1730,19
1731,19
1732,19
1733,20
1734,20
1735,20
1736,20
1737,20
1738,21
1739,21
1740,20
1741,20
1742,20
1743,20
1744,20
1745,20
1746,20
1747,21
1748,20
1749,21
1750,21
1751,21
1752,21
1753,21
1754,21
1755,21
1756,20
1757,20
1758,20
1759,20
1760,20
1761,20
1762,20
1763,20
1764,20
1765,20
1766,20
1767,21
1768,20
1769,20
1770,20
1771,19
1772,19
1773,19
1774,19
1775,19
1776,19
1777,20
1778,19
1779,19
1780,19
1781,19
1782,19
1783,20
1784,20
1785,20
1786,20
1787,19
1788,19
1789,19
1790,19
1791,19
1792,19
1793,19
1794,19
1795,19
1796,19
1797,19
1798,19
1799,19
1800,19
1801,19
1802,19
1803,19
1804,20
1805,20
1806,19
1807,19
1808,19
1809,19
1810,19
1811,20
1812,20
1813,20
1814,20
1815,19
1816,19
1817,19
1818,19
1819,19
1820,19
1821,19
1822,19
1823,19
1824,19
1825,19
1826,19
1827,19
1828,19
1829,19
1830,20
1831,19
1832,19
1833,19
1834,19
1835,19
1836,19
1837,19
1838,19
1839,19
1840,19
1841,20
1842,20
1843,20
1844,20
1845,20
1846,20
1847,20
1848,20
1849,20
1850,20
1851,20
1852,20
1853,20
1854,20
1855,20
1856,20
1857,20
1858,20
1859,20
1860,20
1861,21
1862,20
1863,20
1864,20
1865,20
1866,20
1867,20
1868,20
1869,20
1870,20
1871,20
1872,20
1873,20
1874,21
1875,20
1876,20
1877,21
1878,21
1879,21
1880,21
1881,21
1882,21
1883,21
1884,21
1885,21
1886,21
1887,21
1888,21
1889,21
1890,21
1891,21
1892,21
1893,21
1894,21
1895,21
1896,21
1897,21
1898,21
1899,21
1900,21
1901,21
1902,21
1903,21
1904,21
1905,21
1906,21
1907,21
1908,21
1909,21
1910,21
1911,21
1912,21
1913,21
1914,21
1915,21
1916,21
1917,21
1918,21
1919,21
1920,21
1921,21
1922,21
1923,21
1924,21
1925,21
1926,21
1927,21
1928,21
1929,21
1930,21
1931,21
1932,21
1933,21
1934,21
1935,21
1936,21
1937,21
1938,21
1939,21
1940,21
1941,21
1942,21
1943,21
1944,21
1945,23
1946,22
1947,22
1948,21
1949,21
1950,21
1951,21
1952,21
1953,21
1954,21
1955,21
1956,21
1957,21
1958,21
1959,21
1960,21
1961,21
1962,21
1963,21
1964,21
1965,21
1966,21
1967,21
1968,21
1969,21
1970,21
1971,21
1972,22
1973,22
1974,22
1975,22
1976,23
1977,22
1978,22
1979,22
1980,21
1981,22
1982,21
1983,21
1984,21
1985,21
1986,21
1987,21
1988,21
1989,21
1990,21
1991,21
1992,21
1993,21
1994,21
1995,21
1996,21
1997,21
1998,21
1999,21
2000,21
2001,21
2002,21
2003,21
2004,21
2005,21
2006,21
2007,21
2008,21
2009,21
2010,21
2011,21
2012,21
2013,21
2014,21
2015,21
2016,21
2017,21
2018,21
2019,21
2020,21
2021,21
2022,21
2023,21
2024,21
2025,21
2026,21
2027,21
2028,21
2029,21
2030,21
2031,21
2032,21
2033,21
2034,21
2035,21
2036,21
2037,21
2038,21
2039,21
2040,21
2041,21
2042,21
2043,21
2044,21
2045,21
2046,21
2047,21
2048,21
2049,21
2050,21
2051,21
2052,21
2053,21
2054,21
2055,21
2056,21
2057,21
2058,21
2059,21
2060,21
2061,21
2062,21
2063,21
2064,21
2065,21
2066,21
2067,21
2068,22
2069,21
2070,21
2071,21
2072,21
2073,21
2074,21
2075,22
2076,21
2077,21
2078,21
2079,21
2080,21
2081,21
2082,21
2083,21
2084,21
2085,21
2086,21
2087,21
2088,21
2089,21
2090,21
2091,21
2092,21
2093,21
2094,21
2095,21
2096,21
2097,21
2098,21
2099,21
2100,21
2101,21
2102,21
2103,21
2104,21
2105,21
2106,21
2107,21
2108,21
2109,21
2110,21
2111,21
2112,21
2113,21
2114,21
2115,21
2116,21
2117,21
2118,21
2119,21
2120,22
2121,22
2122,22
2123,22
2124,22
2125,22
2126,22
2127,22
2128,22
2129,22
2130,22
2131,22
2132,22
2133,22
2134,22
2135,22
2136,22
2137,22
2138,22
2139,22
2140,22
2141,22
2142,22
2143,22
2144,22
2145,22
2146,22
2147,22
2148,22
2149,22
2150,23
2151,23
2152,23
2153,23
2154,23
2155,22
2156,23
2157,22
2158,22
2159,22
2160,22
2161,22
2162,22
2163,22
2164,22
2165,22
2166,22
2167,22
2168,22
2169,22
2170,22
2171,22
2172,22
2173,22
2174,22
2175,22
2176,22
2177,22
2178,22
2179,22
2180,22
2181,22
2182,22
2183,22
2184,22
2185,22
2186,22
2187,23
2188,23
2189,23
2190,23
2191,23
2192,23
2193,23
2194,23
2195,23
2196,23
2197,23
2198,23
2199,22
2200,22
2201,22
2202,22
2203,22
2204,22
2205,23
2206,22
2207,22
2208,22
2209,22
2210,22
2211,22
2212,22
2213,22
2214,22
2215,22
2216,22
2217,22
2218,22
2219,22
2220,22
2221,22
2222,22
2223,22
2224,22
2225,22
2226,22
2227,22
2228,22
2229,22
2230,22
2231,22
2232,22
2233,22
2234,22
2235,22
2236,22
2237,22
2238,22
2239,22
2240,22
2241,23
2242,22
2243,22
2244,22
2245,23
2246,23
2247,23
2248,23
2249,23
2250,22
2251,22
2252,22
2253,22
2254,22
2255,22
2256,22
2257,22
2258,22
2259,23
2260,23
2261,22
2262,22
2263,22
2264,23
2265,23
2266,23
2267,23
2268,23
2269,23
2270,23
2271,26
2272,24
2273,24
2274,24
2275,24
2276,24
2277,24
2278,23
2279,23
2280,24
2281,24
2282,24
2283,24
2284,24
2285,24
2286,24
2287,23
2288,23
2289,23
2290,23
2291,23
2292,23
2293,23
2294,23
2295,23
2296,23
2297,23
2298,23
2299,23
2300,23
2301,23
2302,23
2303,23
2304,23
2305,23
2306,23
2307,23
2308,22
2309,22
2310,22
2311,22
2312,22
2313,22
2314,22
2315,22
2316,22
2317,22
2318,22
2319,22
2320,22
2321,22
2322,22
2323,22
2324,23
2325,23
2326,23
2327,23
2328,23
2329,23
2330,23
2331,23
2332,23
2333,23
2334,23
2335,23
2336,23
2337,23
2338,23
2339,23
2340,23
2341,23
2342,23
2343,23
2344,23
2345,22
2346,22
2347,22
2348,22
2349,22
2350,22
2351,22
2352,22
2353,22
2354,22
2355,22
2356,22
2357,22
2358,22
2359,22
2360,22
2361,22
2362,22
2363,22
2364,22
2365,22
2366,22
2367,22
2368,22
2369,22
2370,22
2371,22
2372,22
2373,22
2374,22
2375,22
2376,22
2377,22
2378,22
2379,23
2380,22
2381,22
2382,23
2383,22
2384,22
2385,22
2386,23
2387,22
2388,22
2389,23
2390,24
2391,23
2392,22
2393,22
2394,22
2395,22
2396,22
2397,22
2398,22
2399,22
2400,22
2401,23
2402,23
2403,23
2404,23
2405,23
2406,23
2407,23
2408,23
2409,23
2410,24
2411,22
2412,22
2413,22
2414,23
2415,23
2416,23
2417,23
2418,23
2419,23
2420,23
2421,23
2422,22
2423,22
2424,22
2425,22
2426,22
2427,22
2428,22
2429,22
2430,22
2431,22
2432,22
2433,22
2434,22
2435,22
2436,22
2437,22
2438,22
2439,22
2440,23
2441,24
2442,24
2443,24
2444,24
2445,23
2446,23
2447,23
2448,23
2449,23
2450,23
2451,23
2452,23
2453,23
2454,23
2455,23
2456,23
2457,23
2458,23
2459,23
2460,23
2461,23
2462,23
2463,23
2464,23
2465,23
2466,23
2467,23
2468,23
2469,23
2470,23
2471,23
2472,23
2473,23
2474,23
2475,23
2476,23
2477,23
2478,23
2479,23
2480,23
2481,23
2482,23
2483,23
2484,23
2485,23
2486,23
2487,23
2488,23
2489,23
2490,23
2491,23
2492,23
2493,23
2494,24
2495,24
2496,24
2497,24
2498,24
2499,24
2500,24
2501,25
2502,25
2503,24
2504,24
2505,24
2506,24
2507,24
2508,24
2509,24
2510,24
2511,24
2512,24
2513,24
2514,24
2515,24
2516,23
2517,23
2518,23
2519,23
2520,23
2521,23
2522,23
2523,23
2524,23
2525,23
2526,23
2527,23
2528,25
2529,23
2530,23
2531,23
2532,23
2533,23
2534,23
2535,23
2536,23
2537,23
2538,23
2539,23
2540,23
2541,23
2542,23
2543,23
2544,23
2545,24
2546,24
2547,24
2548,24
2549,24
2550,24
2551,24
2552,24
2553,23
2554,23
2555,23
2556,23
2557,23
2558,23
2559,23
2560,23
2561,23
2562,23
2563,23
2564,23
2565,23
2566,23
2567,23
2568,23
2569,23
2570,23
2571,23
2572,23
2573,23
2574,24
2575,24
2576,23
2577,23
2578,23
2579,23
2580,24
2581,24
2582,24
2583,24
2584,25
2585,23
2586,23
2587,23
2588,23
2589,23
2590,23
2591,23
2592,23
2593,24
2594,24
2595,24
2596,24
2597,24
2598,24
2599,24
2600,24
2601,24
2602,23
2603,23
2604,23
2605,23
2606,24
2607,24
2608,24
2609,24
2610,24
2611,23
2612,23
2613,23
2614,23
2615,23
2616,23
2617,23
2618,23
2619,23
2620,23
2621,23
2622,23
2623,23
2624,23
2625,23
2626,23
2627,23
2628,23
2629,23
2630,23
2631,23
2632,23
2633,23
2634,23
2635,23
2636,23
2637,23
2638,23
2639,23
2640,23
2641,23
2642,23
2643,23
2644,23
2645,23
2646,23
2647,23
2648,23
2649,23
2650,23
2651,23
2652,23
2653,23
2654,23
2655,23
2656,23
2657,23
2658,23
2659,24
2660,24
2661,24
2662,23
2663,23
2664,23
2665,23
2666,23
2667,23
2668,23
2669,23
2670,23
2671,23
2672,23
2673,23
2674,23
2675,23
2676,23
2677,23
2678,24
2679,24
2680,24
2681,25
2682,26
2683,24
2684,24
2685,24
2686,24
2687,24
2688,24
2689,24
2690,24
2691,24
2692,24
2693,24
2694,24
2695,24
2696,24
2697,25
2698,24
2699,25
2700,24
2701,24
2702,24
2703,24
2704,24
2705,24
2706,24
2707,24
2708,24
2709,24
2710,24
2711,24
2712,24
2713,24
2714,24
2715,24
2716,24
2717,24
2718,24
2719,24
2720,24
2721,24
2722,24
2723,25
2724,25
2725,25
2726,26
2727,26
2728,26
2729,26
2730,26
2731,26
2732,25
2733,25
2734,25
2735,25
2736,25
2737,25
2738,25
2739,25
2740,25
2741,25
2742,25
2743,25
2744,25
2745,26
2746,25
2747,25
2748,25
2749,25
2750,25
2751,25
2752,25
2753,25
2754,25
2755,25
2756,25
2757,25
2758,26
2759,26
2760,26
2761,26
2762,26
2763,25
2764,25
2765,25
2766,25
2767,25
2768,25
2769,25
2770,25
2771,25
2772,26
2773,26
2774,26
2775,25
2776,25
2777,25
2778,25
2779,25
2780,26
2781,25
2782,25
2783,26
2784,25
2785,25
2786,25
2787,25
2788,25
2789,25
2790,25
2791,25
2792,25
2793,25
2794,25
2795,25
2796,25
2797,25
2798,25
2799,25
2800,25
2801,25
2802,25
2803,25
2804,25
2805,25
2806,25
2807,25
2808,25
2809,25
2810,26
2811,26
2812,26
2813,26
2814,26
2815,27
2816,27
2817,26
2818,26
2819,26
2820,26
2821,26
2822,26
2823,26
2824,26
2825,26
2826,26
2827,26
2828,26
2829,26
2830,26
2831,26
2832,26
2833,26
2834,27
2835,27
2836,27
2837,27
2838,27
2839,27
2840,27
2841,27
2842,27
2843,27
2844,27
2845,27
2846,28
2847,28
2848,28
2849,28
2850,28
2851,29
2852,29
2853,29
2854,29
2855,29
2856,29
2857,29
2858,28
2859,28
2860,28
2861,29
2862,27
2863,28
2864,27
2865,27
2866,27
2867,27
2868,27
2869,27
2870,27
2871,26
2872,26
2873,26
2874,26
2875,26
2876,26
2877,26
2878,26
2879,27
2880,27
2881,27
2882,27
2883,27
2884,26
2885,26
2886,26
2887,26
2888,26
2889,26
2890,26
2891,26
2892,27
2893,26
2894,27
2895,26
2896,26
2897,26
2898,26
2899,26
2900,26
2901,26
2902,26
2903,26
2904,26
2905,26
2906,26
2907,27
2908,27
2909,27
2910,27
2911,27
2912,27
2913,28
2914,28
2915,27
2916,28
2917,28
2918,28
2919,28
2920,27
2921,27
2922,27
2923,27
2924,27
2925,28
2926,26
2927,26
2928,28
2929,28
2930,27
2931,27
2932,27
2933,26
2934,26
2935,26
2936,26
2937,27
2938,27
2939,28
2940,27
2941,27
2942,27
2943,26
2944,26
2945,26
2946,26
2947,26
2948,26
2949,26
2950,26
2951,26
2952,26
2953,26
2954,26
2955,26
2956,26
2957,27
2958,26
2959,26
2960,26
2961,26
2962,26
2963,26
2964,26
2965,26
2966,26
2967,26
2968,26
2969,26
2970,26
2971,26
2972,26
2973,27
2974,27
2975,27
2976,26
2977,26
2978,26
2979,26
2980,26
2981,26
2982,26
2983,27
2984,27
2985,27
2986,27
2987,27
2988,27
2989,27
2990,27
2991,26
2992,26
2993,26
2994,26
2995,26
2996,26
2997,26
2998,26
2999,26
3000,26
3001,26
3002,26
3003,26
3004,26
3005,26
3006,26
3007,26
3008,26
3009,26
3010,26
3011,26
3012,26
3013,27
3014,26
3015,26
3016,26
3017,26
3018,26
3019,26
3020,26
3021,26
3022,26
3023,26
3024,27
3025,26
3026,26
3027,26
3028,27
3029,27
3030,27
3031,26
3032,26
3033,27
3034,27
3035,27
3036,26
3037,26
3038,27
3039,28
3040,28
3041,28
3042,26
3043,27
3044,26
3045,26
3046,26
3047,26
3048,26
3049,26
3050,26
3051,26
3052,26
3053,26
3054,27
3055,27
3056,27
3057,27
3058,27
3059,26
3060,26
3061,26
3062,26
3063,26
3064,26
3065,26
3066,26
3067,26
3068,26
3069,26
3070,26
3071,26
3072,26
3073,26
3074,26
3075,26
3076,26
3077,26
3078,27
3079,27
3080,27
3081,27
3082,27
3083,27
3084,27
3085,27
3086,26
3087,26
3088,26
3089,26
3090,26
3091,26
3092,26
3093,26
3094,26
3095,26
3096,26
3097,26
3098,26
3099,26
3100,26
3101,26
3102,26
3103,26
3104,26
3105,27
3106,26
3107,26
3108,26
3109,26
3110,26
3111,26
3112,26
3113,26
3114,26
3115,26
3116,26
3117,27
3118,27
3119,27
3120,26
3121,26
3122,26
3123,26
3124,26
3125,26
3126,26
3127,26
3128,27
3129,26
3130,26
3131,26
3132,26
3133,27
3134,26
3135,27
3136,26
3137,27
3138,26
3139,27
3140,28
3141,28
3142,28
3143,27
3144,26
3145,26
3146,26
3147,26
3148,26
3149,26
3150,26
3151,27
3152,27
3153,27
3154,27
3155,27
3156,27
3157,27
3158,27
3159,26
3160,27
3161,27
3162,27
3163,27
3164,27
3165,26
3166,26
3167,26
3168,26
3169,26
3170,26
3171,26
3172,26
3173,26
3174,26
3175,26
3176,27
3177,26
3178,26
3179,26
3180,26
3181,26
3182,26
3183,27
3184,26
3185,26
3186,26
3187,26
3188,26
3189,26
3190,26
3191,26
3192,26
3193,26
3194,26
3195,26
3196,26
3197,26
3198,26
3199,26
3200,26
3201,26
3202,26
3203,26
3204,26
3205,26
3206,27
3207,27
3208,27
3209,27
3210,27
3211,27
3212,26
3213,26
3214,26
3215,26
3216,27
3217,28
3218,28
3219,27
3220,28
3221,28
3222,27
3223,27
3224,27
3225,27
3226,27
3227,27
3228,27
3229,27
3230,27
3231,27
3232,27
3233,27
3234,27
3235,27
3236,27
3237,27
3238,27
3239,27
3240,27
3241,27
3242,27
3243,27
3244,28
3245,28
3246,28
3247,27
3248,27
3249,27
3250,27
3251,27
3252,27
3253,27
3254,27
3255,27
3256,27
3257,27
3258,27
3259,27
3260,27
3261,27
3262,28
3263,28
3264,28
3265,28
3266,28
3267,28
3268,28
3269,28
3270,29
3271,29
3272,29
3273,29
3274,29
3275,28
3276,28
3277,28
3278,28
3279,28
3280,29
3281,30
3282,29
3283,27
3284,27
3285,27
3286,27
3287,27
3288,27
3289,27
3290,27
3291,27
3292,27
3293,27
3294,27
3295,27
3296,27
3297,27
3298,27
3299,27
3300,27
3301,27
3302,28
3303,27
3304,27
3305,27
3306,27
3307,27
3308,27
3309,27
3310,27
3311,27
3312,27
3313,27
3314,27
3315,27
3316,27
3317,27
3318,28
3319,28
3320,28
3321,28
3322,27
3323,27
3324,27
3325,27
3326,27
3327,27
3328,27
3329,27
3330,27
3331,27
3332,27
3333,27
3334,27
3335,27
3336,27
3337,27
3338,27
3339,27
3340,27
3341,27
3342,27
3343,27
3344,27
3345,27
3346,28
3347,28
3348,28
3349,29
3350,29
3351,29
3352,29
3353,29
3354,31
3355,29
3356,29
3357,29
3358,29
3359,29
3360,29
3361,28
3362,28
3363,28
3364,28
3365,28
3366,28
3367,28
3368,28
3369,28
3370,28
3371,27
3372,27
3373,27
3374,27
3375,27
3376,27
3377,27
3378,28
3379,28
3380,28
3381,27
3382,27
3383,27
3384,27
3385,27
3386,27
3387,27
3388,28
3389,28
3390,28
3391,27
3392,27
3393,29
3394,28
3395,27
3396,27
3397,27
3398,27
3399,27
3400,27
3401,27
3402,27
3403,27
3404,27
3405,27
3406,28
3407,28
3408,27
3409,27
3410,27
3411,27
3412,27
3413,27
3414,27
3415,27
3416,27
3417,28
3418,28
3419,27
3420,27
3421,27
3422,27
3423,27
3424,27
3425,27
3426,27
3427,27
3428,27
3429,27
3430,27
3431,27
3432,28
3433,27
3434,27
3435,27
3436,27
3437,27
3438,27
3439,27
3440,27
3441,27
3442,27
3443,27
3444,27
3445,27
3446,27
3447,27
3448,27
3449,27
3450,27
3451,27
3452,27
3453,27
3454,27
3455,27
3456,27
3457,27
3458,28
3459,28
3460,28
3461,28
3462,28
3463,28
3464,29
3465,29
3466,29
3467,29
3468,29
3469,29
3470,28
3471,28
3472,28
3473,27
3474,27
3475,27
3476,27
3477,27
3478,27
3479,28
3480,27
3481,27
3482,27
3483,27
3484,27
3485,27
3486,27
3487,27
3488,27
3489,27
3490,27
3491,27
3492,27
3493,27
3494,27
3495,27
3496,27
3497,27
3498,27
3499,27
3500,27
3501,27
3502,27
3503,27
3504,27
3505,27
3506,27
3507,27
3508,27
3509,27
3510,27
3511,27
3512,27
3513,27
3514,27
3515,27
3516,27
3517,27
3518,27
3519,27
3520,27
3521,27
3522,27
3523,27
3524,27
3525,27
3526,27
3527,27
3528,27
3529,27
3530,27
3531,27
3532,27
3533,27
3534,27
3535,27
3536,27
3537,27
3538,27
3539,27
3540,27
3541,27
3542,27
3543,27
3544,27
3545,27
3546,27
3547,27
3548,28
3549,28
3550,28
3551,28
3552,29
3553,28
3554,28
3555,28
3556,28
3557,28
3558,28
3559,28
3560,28
3561,30
3562,30
3563,28
3564,28
3565,28
3566,28
3567,28
3568,28
3569,29
3570,29
3571,29
3572,29
3573,29
3574,29
3575,29
3576,29
3577,29
3578,28
3579,28
3580,28
3581,28
3582,27
3583,27
3584,27
3585,27
3586,27
3587,27
3588,27
3589,27
3590,27
3591,27
3592,27
3593,27
3594,27
3595,27
3596,27
3597,27
3598,27
3599,27
3600,27
3601,27
3602,27
3603,27
3604,27
3605,27
3606,27
3607,27
3608,28
3609,28
3610,27
3611,28
3612,27
3613,27
3614,28
3615,28
3616,28
3617,28
3618,28
3619,28
3620,28
3621,28
3622,28
3623,28
3624,28
3625,28
3626,27
3627,27
3628,27
3629,27
3630,27
3631,27
3632,27
3633,27
3634,27
3635,27
3636,27
3637,27
3638,27
3639,27
3640,27
3641,27
3642,27
3643,28
3644,27
3645,27
3646,27
3647,27
3648,27
3649,28
3650,28
3651,27
3652,27
3653,27
3654,27
3655,27
3656,27
3657,27
3658,27
3659,27
3660,27
3661,27
3662,27
3663,27
3664,27
3665,27
3666,28
3667,28
3668,28
3669,27
3670,27
3671,27
3672,27
3673,27
3674,27
3675,27
3676,27
3677,27
3678,27
3679,27
3680,27
3681,27
3682,28
3683,27
3684,27
3685,28
3686,27
3687,27
3688,27
3689,27
3690,27
3691,27
3692,27
3693,27
3694,27
3695,27
3696,27
3697,27
3698,27
3699,27
3700,27
3701,27
3702,27
3703,27
3704,27
3705,27
3706,27
3707,27
3708,27
3709,27
3710,27
3711,27
3712,27
3713,27
3714,27
3715,27
3716,28
3717,28
3718,27
3719,27
3720,27
3721,27
3722,27
3723,27
3724,27
3725,27
3726,27
3727,27
3728,27
3729,27
3730,27
3731,27
3732,27
3733,27
3734,27
3735,27
3736,27
3737,27
3738,27
3739,27
3740,28
3741,28
3742,28
3743,27
3744,27
3745,27
3746,27
3747,28
3748,27
3749,27
3750,27
3751,28
3752,28
3753,28
3754,28
3755,28
3756,28
3757,28
3758,28
3759,28
3760,27
3761,27
3762,27
3763,27
3764,27
3765,27
3766,27
3767,27
3768,27
3769,27
3770,27
3771,28
3772,28
3773,29
3774,29
3775,29
3776,28
3777,28
3778,29
3779,29
3780,29
3781,29
3782,29
3783,29
3784,29
3785,29
3786,29
3787,28
3788,28
3789,28
3790,28
3791,28
3792,28
3793,28
3794,28
3795,29
3796,28
3797,28
3798,28
3799,29
3800,28
3801,29
3802,29
3803,29
3804,29
3805,28
3806,28
3807,28
3808,28
3809,28
3810,28
3811,28
3812,28
3813,28
3814,28
3815,28
3816,28
3817,28
3818,28
3819,29
3820,29
3821,28
3822,28
3823,28
3824,28
3825,28
3826,28
3827,28
3828,28
3829,28
3830,28
3831,28
3832,28
3833,28
3834,28
3835,29
3836,29
3837,29
3838,29
3839,30
3840,29
3841,29
3842,29
3843,29
3844,29
3845,29
3846,29
3847,29
3848,29
3849,29
3850,29
3851,29
3852,29
3853,29
3854,29
3855,29
3856,29
3857,29
3858,29
3859,29
3860,29
3861,29
3862,29
3863,29
3864,29
3865,29
3866,29
3867,29
3868,29
3869,30
3870,30
3871,30
3872,30
3873,30
3874,30
3875,30
3876,30
3877,30
3878,30
3879,29
3880,29
3881,29
3882,29
3883,29
3884,30
3885,29
3886,29
3887,30
3888,30
3889,29
3890,29
3891,30
3892,30
3893,30
3894,29
3895,29
3896,29
3897,29
3898,29
3899,29
3900,29
3901,29
3902,29
3903,29
3904,29
3905,29
3906,29
3907,29
3908,29
3909,28
3910,28
3911,28
3912,28
3913,28
3914,28
3915,28
3916,28
3917,28
3918,28
3919,28
3920,28
3921,28
3922,28
3923,28
3924,28
3925,28
3926,28
3927,28
3928,28
3929,28
3930,28
3931,29
3932,29
3933,28
3934,28
3935,28
3936,28
3937,28
3938,28
3939,28
3940,28
3941,28
3942,28
3943,28
3944,28
3945,28
3946,28
3947,28
3948,28
3949,28
3950,28
3951,28
3952,28
3953,28
3954,28
3955,28
3956,28
3957,28
3958,28
3959,28
3960,28
3961,28
3962,28
3963,28
3964,29
3965,28
3966,28
3967,28
3968,28
3969,28
3970,28
3971,28
3972,29
3973,30
3974,29
3975,29
3976,29
3977,29
3978,28
3979,28
3980,28
3981,28
3982,28
3983,28
3984,28
3985,28
3986,28
3987,28
3988,28
3989,28
3990,28
3991,28
3992,28
3993,28
3994,28
3995,29
3996,28
3997,28
3998,28
3999,28
4000,28
4001,28
4002,28
4003,28
4004,28
4005,28
4006,28
4007,28
4008,28
4009,28
4010,28
4011,28
4012,28
4013,28
4014,28
4015,28
4016,28
4017,28
4018,28
4019,28
4020,28
4021,28
4022,28
4023,28
4024,28
4025,29
4026,29
4027,29
4028,29
4029,29
4030,28
4031,28
4032,28
4033,28
4034,28
4035,28
4036,28
4037,28
4038,28
4039,28
4040,28
4041,28
4042,28
4043,28
4044,28
4045,28
4046,28
4047,28
4048,28
4049,28
4050,28
4051,28
4052,28
4053,28
4054,28
4055,28
4056,28
4057,28
4058,28
4059,28
4060,29
4061,30
4062,29
4063,29
4064,29
4065,29
4066,29
4067,30
4068,30
4069,30
4070,30
4071,30
4072,30
4073,30
4074,31
4075,31
4076,32
4077,31
4078,31
4079,31
4080,31
4081,31
4082,31
4083,31
4084,31
4085,31
4086,31
4087,31
4088,31
4089,31
4090,32
4091,32
4092,32
4093,32
4094,31
4095,31
4096,31
4097,31
4098,31
4099,31
4100,31
4101,31
4102,31
4103,31
4104,31
4105,31
4106,31
4107,31
4108,31
4109,32
4110,32
4111,32
4112,32
4113,32
4114,31
4115,31
4116,31
4117,31
4118,32
4119,32
4120,31
4121,31
4122,31
4123,31
4124,31
4125,31
4126,31
4127,31
4128,31
4129,31
4130,31
4131,31
4132,31
4133,31
4134,31
4135,31
4136,31
4137,31
4138,31
4139,31
4140,31
4141,31
4142,31
4143,31
4144,31
4145,31
4146,31
4147,32
4148,31
4149,31
4150,31
4151,31
4152,31
4153,31
4154,31
4155,31
4156,31
4157,31
4158,31
4159,31
4160,31
4161,31
4162,31
4163,31
4164,32
4165,32
4166,32
4167,31
4168,31
4169,31
4170,31
4171,31
4172,31
4173,31
4174,31
4175,32
4176,32
4177,31
4178,31
4179,31
4180,31
4181,31
4182,31
4183,31
4184,31
4185,31
4186,31
4187,31
4188,31
4189,31
4190,31
4191,31
4192,31
4193,31
4194,31
4195,31
4196,31
4197,31
4198,31
4199,31
4200,31
4201,31
4202,31
4203,31
4204,31
4205,31
4206,31
4207,32
4208,31
4209,31
4210,32
4211,32
4212,31
4213,31
4214,31
4215,31
4216,31
4217,31
4218,32
4219,33
4220,33
4221,32
4222,32
4223,32
4224,32
4225,32
4226,32
4227,32
4228,33
4229,32
4230,32
4231,32
4232,32
4233,32
4234,32
4235,32
4236,32
4237,32
4238,32
4239,32
4240,32
4241,32
4242,32
4243,32
4244,32
4245,32
4246,32
4247,32
4248,32
4249,32
4250,32
4251,32
4252,31
4253,31
4254,31
4255,31
4256,32
4257,31
4258,31
4259,31
4260,31
4261,31
4262,31
4263,31
4264,31
4265,31
4266,32
4267,32
4268,32
4269,32
4270,32
4271,32
4272,32
4273,32
4274,32
4275,31
4276,31
4277,31
4278,31
4279,31
4280,31
4281,31
4282,31
4283,31
4284,31
4285,31
4286,31
4287,31
4288,31
4289,31
4290,31
4291,31
4292,32
4293,32
4294,32
4295,32
4296,31
4297,31
4298,31
4299,31
4300,31
4301,31
4302,31
4303,31
4304,31
4305,31
4306,31
4307,31
4308,31
4309,31
4310,31
4311,31
4312,31
4313,31
4314,31
4315,32
4316,31
4317,31
4318,31
4319,31
4320,31
4321,31
4322,31
4323,31
4324,32
4325,31
4326,31
4327,32
4328,32
4329,31
4330,31
4331,31
4332,31
4333,31
4334,32
4335,31
4336,31
4337,31
4338,31
4339,31
4340,31
4341,31
4342,31
4343,31
4344,31
4345,31
4346,31
4347,31
4348,31
4349,31
4350,31
4351,31
4352,31
4353,31
4354,31
4355,31
4356,31
4357,31
4358,31
4359,31
4360,31
4361,31
4362,31
4363,31
4364,31
4365,31
4366,31
4367,31
4368,31
4369,31
4370,31
4371,31
4372,31
4373,31
4374,33
4375,33
4376,32
4377,32
4378,31
4379,31
4380,31
4381,31
4382,31
4383,31
4384,31
4385,31
4386,31
4387,31
4388,31
4389,31
4390,31
4391,31
4392,31
4393,31
4394,31
4395,31
4396,31
4397,31
4398,31
4399,31
4400,31
4401,31
4402,31
4403,31
4404,31
4405,31
4406,31
4407,31
4408,31
4409,31
4410,31
4411,31
4412,31
4413,31
4414,31
4415,31
4416,31
4417,31
4418,31
4419,31
4420,31
4421,31
4422,31
4423,31
4424,31
4425,31
4426,31
4427,31
4428,31
4429,32
4430,31
4431,31
4432,31
4433,31
4434,31
4435,31
4436,31
4437,31
4438,31
4439,31
4440,31
4441,31
4442,31
4443,31
4444,31
4445,31
4446,31
4447,31
4448,31
4449,31
4450,31
4451,31
4452,31
4453,31
4454,31
4455,31
4456,31
4457,31
4458,31
4459,31
4460,33
4461,33
4462,34
4463,34
4464,34
4465,34
4466,33
4467,32
4468,32
4469,32
4470,31
4471,31
4472,31
4473,31
4474,31
4475,31
4476,31
4477,31
4478,31
4479,31
4480,31
4481,31
4482,31
4483,31
4484,31
4485,31
4486,31
4487,31
4488,31
4489,32
4490,32
4491,31
4492,31
4493,31
4494,31
4495,33
4496,31
4497,31
4498,31
4499,31
4500,32
4501,31
4502,31
4503,31
4504,31
4505,31
4506,31
4507,31
4508,31
4509,31
4510,31
4511,31
4512,31
4513,31
4514,32
4515,32
4516,31
4517,31
4518,32
4519,32
4520,32
4521,32
4522,32
4523,32
4524,32
4525,32
4526,32
4527,32
4528,32
4529,32
4530,32
4531,32
4532,32
4533,32
4534,32
4535,32
4536,32
4537,32
4538,32
4539,32
4540,32
4541,32
4542,32
4543,32
4544,32
4545,31
4546,31
4547,31
4548,31
4549,31
4550,31
4551,31
4552,31
4553,31
4554,31
4555,31
4556,31
4557,31
4558,31
4559,31
4560,31
4561,31
4562,31
4563,31
4564,31
4565,31
4566,31
4567,31
4568,31
4569,31
4570,31
4571,31
4572,31
4573,31
4574,31
4575,31
4576,31
4577,31
4578,31
4579,31
4580,32
4581,32
4582,32
4583,32
4584,31
4585,31
4586,31
4587,31
4588,32
4589,31
4590,31
4591,31
4592,31
4593,31
4594,31
4595,31
4596,31
4597,31
4598,32
4599,32
4600,32
4601,31
4602,31
4603,31
4604,31
4605,31
4606,31
4607,32
4608,31
4609,31
4610,31
4611,31
4612,31
4613,31
4614,31
4615,31
4616,31
4617,31
4618,31
4619,31
4620,31
4621,31
4622,31
4623,31
4624,33
4625,33
4626,32
4627,32
4628,32
4629,31
4630,31
4631,31
4632,31
4633,31
4634,31
4635,31
4636,31
4637,31
4638,31
4639,33
4640,32
4641,32
4642,32
4643,32
4644,32
4645,32
4646,31
4647,32
4648,31
4649,31
4650,31
4651,32
4652,31
4653,31
4654,31
4655,31
4656,32
4657,31
4658,31
4659,31
4660,31
4661,31
4662,31
4663,31
4664,31
4665,31
4666,31
4667,31
4668,31
4669,31
4670,31
4671,31
4672,31
4673,31
4674,31
4675,31
4676,31
4677,31
4678,31
4679,31
4680,31
4681,31
4682,31
4683,31
4684,31
4685,31
4686,32
4687,31
4688,31
4689,31
4690,31
4691,31
4692,31
4693,31
4694,31
4695,31
4696,31
4697,31
4698,31
4699,31
4700,31
4701,31
4702,31
4703,31
4704,32
4705,32
4706,32
4707,32
4708,32
4709,32
4710,32
4711,33
4712,33
4713,33
4714,33
4715,33
4716,33
4717,32
4718,32
4719,32
4720,32
4721,32
4722,32
4723,32
4724,32
4725,32
4726,32
4727,32
4728,32
4729,33
4730,32
4731,32
4732,32
4733,32
4734,32
4735,32
4736,32
4737,32
4738,32
4739,32
4740,32
4741,32
4742,32
4743,32
4744,32
4745,32
4746,32
4747,32
4748,32
4749,32
4750,33
4751,33
4752,33
4753,32
4754,33
4755,33
4756,32
4757,32
4758,32
4759,32
4760,32
4761,32
4762,31
4763,31
4764,31
4765,31
4766,31
4767,31
4768,32
4769,33
4770,33
4771,33
4772,33
4773,33
4774,33
4775,32
4776,33
4777,33
4778,33
4779,33
4780,33
4781,32
4782,31
4783,31
4784,31
4785,31
4786,31
4787,31
4788,31
4789,31
4790,31
4791,31
4792,31
4793,31
4794,31
4795,31
4796,31
4797,31
4798,31
4799,31
4800,31
4801,31
4802,31
4803,31
4804,31
4805,31
4806,32
4807,32
4808,32
4809,32
4810,32
4811,32
4812,33
4813,33
4814,34
4815,34
4816,33
4817,33
4818,33
4819,33
4820,33
4821,33
4822,34
4823,34
4824,34
4825,34
4826,34
4827,33
4828,33
4829,33
4830,33
4831,33
4832,33
4833,33
4834,33
4835,33
4836,33
4837,33
4838,33
4839,33
4840,33
4841,33
4842,33
4843,33
4844,33
4845,32
4846,32
4847,32
4848,32
4849,32
4850,32
4851,32
4852,32
4853,32
4854,32
4855,32
4856,32
4857,33
4858,32
4859,32
4860,32
4861,32
4862,32
4863,32
4864,32
4865,32
4866,32
4867,32
4868,32
4869,32
4870,32
4871,32
4872,32
4873,32
4874,32
4875,32
4876,32
4877,32
4878,32
4879,32
4880,32
4881,32
4882,32
4883,32
4884,32
4885,32
4886,32
4887,32
4888,32
4889,32
4890,32
4891,32
4892,32
4893,32
4894,32
4895,32
4896,32
4897,32
4898,32
4899,32
4900,32
4901,32
4902,32
4903,33
4904,32
4905,32
4906,32
4907,32
4908,33
4909,32
4910,32
4911,32
4912,32
4913,32
4914,32
4915,32
4916,32
4917,32
4918,32
4919,32
4920,32
4921,32
4922,32
4923,32
4924,32
4925,32
4926,32
4927,32
4928,32
4929,32
4930,32
4931,32
4932,32
4933,32
4934,32
4935,32
4936,32
4937,32
4938,32
4939,32
4940,32
4941,33
4942,33
4943,32
4944,32
4945,32
4946,32
4947,32
4948,32
4949,32
4950,32
4951,32
4952,32
4953,32
4954,32
4955,32
4956,32
4957,32
4958,32
4959,32
4960,32
4961,32
4962,32
4963,32
4964,32
4965,32
4966,32
4967,32
4968,32
4969,32
4970,32
4971,32
4972,34
4973,34
4974,33
4975,32
4976,32
4977,32
4978,32
4979,32
4980,32
4981,32
4982,32
4983,32
4984,32
4985,32
4986,32
4987,32
4988,32
4989,32
4990,32
4991,32
4992,32
4993,32
4994,32
4995,32
4996,32
4997,32
4998,32
4999,32
5000,32
5001,32
5002,32
5003,32
5004,32
5005,32
5006,32
5007,32
5008,32
5009,32
5010,32
5011,32
5012,32
5013,32
5014,32
5015,32
5016,32
5017,32
5018,32
5019,32
5020,33
5021,32
5022,32
5023,32
5024,32
5025,32
5026,32
5027,32
5028,32
5029,32
5030,32
5031,32
5032,32
5033,32
5034,32
5035,32
5036,32
5037,32
5038,32
5039,32
5040,32
5041,32
5042,32
5043,32
5044,32
5045,32
5046,32
5047,32
5048,32
5049,32
5050,32
5051,32
5052,32
5053,32
5054,33
5055,33
5056,32
5057,33
5058,33
5059,33
5060,32
5061,32
5062,32
5063,32
5064,32
5065,32
5066,32
5067,32
5068,32
5069,32
5070,32
5071,32
5072,32
5073,32
5074,32
5075,32
5076,32
5077,32
5078,32
5079,32
5080,32
5081,32
5082,32
5083,32
5084,32
5085,33
5086,33
5087,34
5088,34
5089,33
5090,32
5091,33
5092,33
5093,33
5094,33
5095,33
5096,33
5097,33
5098,33
5099,33
5100,34
5101,34
5102,33
5103,33
5104,33
5105,33
5106,33
5107,33
5108,33
5109,33
5110,33
5111,33
5112,33
5113,33
5114,33
5115,34
5116,33
5117,33
5118,33
5119,33
5120,33
5121,33
5122,33
5123,33
5124,33
5125,33
5126,32
5127,32
5128,31
5129,31
5130,32
5131,32
5132,32
5133,32
5134,32
5135,32
5136,32
5137,32
5138,32
5139,32
5140,32
5141,33
5142,33
5143,33
5144,33
5145,33
5146,32
5147,32
5148,32
5149,33
5150,32
5151,32
5152,32
5153,32
5154,32
5155,33
5156,32
5157,32
5158,32
5159,32
5160,32
5161,33
5162,32
5163,32
5164,32
5165,32
5166,32
5167,32
5168,32
5169,32
5170,32
5171,32
5172,32
5173,32
5174,33
5175,33
5176,32
5177,31
5178,31
5179,31
5180,31
5181,31
5182,31
5183,32
5184,31
5185,31
5186,31
5187,31
5188,31
5189,31
5190,31
5191,31
5192,31
5193,31
5194,31
5195,31
5196,31
5197,32
5198,32
5199,32
5200,32
5201,32
5202,32
5203,32
5204,32
5205,32
5206,31
5207,31
5208,31
5209,31
5210,31
5211,31
5212,31
5213,31
5214,31
5215,31
5216,31
5217,31
5218,31
5219,31
5220,31
5221,31
5222,31
5223,32
5224,32
5225,32
5226,31
5227,31
5228,31
5229,31
5230,31
5231,31
5232,31
5233,31
5234,31
5235,31
5236,31
5237,31
5238,31
5239,31
5240,31
5241,31
5242,32
5243,32
5244,32
5245,31
5246,31
5247,31
5248,31
5249,31
5250,32
5251,32
5252,32
5253,32
5254,32
5255,31
5256,31
5257,31
5258,31
5259,31
5260,31
5261,31
5262,31
5263,31
5264,31
5265,31
5266,31
5267,31
5268,31
5269,31
5270,31
5271,31
5272,31
5273,31
5274,31
5275,31
5276,31
5277,31
5278,31
5279,31
5280,31
5281,31
5282,31
5283,31
5284,31
5285,31
5286,31
5287,31
5288,31
5289,31
5290,31
5291,31
5292,31
5293,31
5294,31
5295,31
5296,31
5297,31
5298,31
5299,31
5300,31
5301,32
5302,32
5303,32
5304,32
5305,33
5306,33
5307,33
5308,33
5309,33
5310,34
5311,34
5312,33
5313,33
5314,33
5315,32
5316,32
5317,32
5318,32
5319,32
5320,32
5321,33
5322,32
5323,32
5324,32
5325,32
5326,32
5327,33
5328,33
5329,33
5330,32
5331,32
5332,32
5333,32
5334,32
5335,32
5336,32
5337,32
5338,32
5339,32
5340,32
5341,32
5342,32
5343,32
5344,33
5345,32
5346,32
5347,32
5348,32
5349,32
5350,33
5351,33
5352,33
5353,32
5354,32
5355,32
5356,32
5357,32
5358,32
5359,33
5360,32
5361,32
5362,32
5363,32
5364,32
5365,32
5366,32
5367,32
5368,32
5369,32
5370,32
5371,32
5372,32
5373,32
5374,32
5375,32
5376,32
5377,32
5378,32
5379,32
5380,32
5381,32
5382,33
5383,33
5384,32
5385,32
5386,32
5387,33
5388,33
5389,33
5390,33
5391,33
5392,33
5393,33
5394,33
5395,33
5396,33
5397,33
5398,33
5399,33
5400,33
5401,33
5402,35
5403,35
5404,34
5405,34
5406,33
5407,33
5408,33
5409,33
5410,33
5411,33
5412,33
5413,33
5414,33
5415,33
5416,34
5417,33
5418,34
5419,33
5420,33
5421,33
5422,33
5423,33
5424,33
5425,33
5426,33
5427,33
5428,33
5429,33
5430,33
5431,33
5432,33
5433,34
5434,33
5435,33
5436,33
5437,33
5438,33
5439,33
5440,33
5441,34
5442,34
5443,34
5444,34
5445,34
5446,34
5447,34
5448,34
5449,34
5450,34
5451,34
5452,34
5453,34
5454,35
5455,35
5456,35
5457,35
5458,35
5459,35
5460,35
5461,36
5462,36
5463,35
5464,35
5465,35
5466,35
5467,35
5468,35
5469,35
5470,35
5471,35
5472,35
5473,35
5474,35
5475,35
5476,35
5477,35
5478,35
5479,35
5480,35
5481,34
5482,34
5483,34
5484,34
5485,34
5486,34
5487,34
5488,34
5489,34
5490,34
5491,34
5492,34
5493,34
5494,34
5495,34
5496,34
5497,34
5498,34
5499,34
5500,34
5501,34
5502,34
5503,34
5504,34
5505,34
5506,34
5507,34
5508,34
5509,33
5510,33
5511,32
5512,32
5513,32
5514,32
5515,32
5516,32
5517,33
5518,33
5519,33
5520,33
5521,33
5522,33
5523,33
5524,33
5525,34
5526,34
5527,33
5528,33
5529,33
5530,33
5531,33
5532,33
5533,33
5534,33
5535,33
5536,33
5537,33
5538,33
5539,33
5540,33
5541,33
5542,33
5543,33
5544,33
5545,33
5546,33
5547,33
5548,33
5549,33
5550,33
5551,33
5552,33
5553,33
5554,33
5555,33
5556,34
5557,33
5558,33
5559,33
5560,34
5561,33
5562,33
5563,33
5564,33
5565,33
5566,33
5567,33
5568,33
5569,33
5570,33
5571,33
5572,33
5573,33
5574,33
5575,33
5576,33
5577,33
5578,33
5579,33
5580,33
5581,33
5582,33
5583,33
5584,33
5585,33
5586,33
5587,33
5588,33
5589,33
5590,33
5591,33
5592,34
5593,34
5594,33
5595,33
5596,33
5597,33
5598,34
5599,33
5600,33
5601,33
5602,33
5603,33
5604,33
5605,34
5606,34
5607,35
5608,35
5609,35
5610,34
5611,34
5612,34
5613,34
5614,34
5615,34
5616,34
5617,34
5618,34
5619,34
5620,34
5621,34
5622,34
5623,34
5624,34
5625,34
5626,34
5627,34
5628,34
5629,34
5630,33
5631,33
5632,33
5633,33
5634,33
5635,33
5636,33
5637,33
5638,33
5639,33
5640,33
5641,33
5642,33
5643,33
5644,33
5645,33
5646,33
5647,33
5648,33
5649,33
5650,33
5651,33
5652,33
5653,33
5654,33
5655,34
5656,34
5657,33
5658,33
5659,33
5660,33
5661,33
5662,33
5663,33
5664,33
5665,33
5666,33
5667,33
5668,33
5669,33
5670,33
5671,33
5672,33
5673,33
5674,33
5675,33
5676,33
5677,35
5678,35
5679,35
5680,35
5681,35
5682,35
5683,35
5684,35
5685,34
5686,34
5687,34
5688,34
5689,34
5690,34
5691,34
5692,34
5693,34
5694,34
5695,34
5696,34
5697,34
5698,34
5699,34
5700,34
5701,34
5702,34
5703,34
5704,34
5705,35
5706,36
5707,36
5708,35
5709,35
5710,35
5711,35
5712,35
5713,35
5714,34
5715,34
5716,34
5717,34
5718,34
5719,34
5720,34
5721,35
5722,35
5723,35
5724,34
5725,35
5726,34
5727,34
5728,34
5729,37
5730,36
5731,36
5732,36
5733,36
5734,36
5735,36
5736,36
5737,36
5738,37
5739,37
5740,37
5741,37
5742,37
5743,36
5744,36
5745,36
5746,36
5747,36
5748,36
5749,36
5750,36
5751,36
5752,36
5753,36
5754,36
5755,36
5756,36
5757,36
5758,36
5759,36
5760,36
5761,36
5762,36
5763,36
5764,36
5765,36
5766,36
5767,36
5768,36
5769,36
5770,36
5771,36
5772,36
5773,36
5774,36
5775,36
5776,36
5777,36
5778,36
5779,36
5780,36
5781,36
5782,36
5783,36
5784,36
5785,36
5786,37
5787,37
5788,37
5789,36
5790,36
5791,36
5792,36
5793,36
5794,36
5795,36
5796,36
5797,36
5798,36
5799,36
5800,36
5801,36
5802,36
5803,36
5804,36
5805,36
5806,36
5807,36
5808,36
5809,36
5810,36
5811,36
5812,36
5813,36
5814,36
5815,36
5816,36
5817,36
5818,36
5819,36
5820,36
5821,36
5822,36
5823,36
5824,36
5825,36
5826,36
5827,36
5828,36
5829,36
5830,36
5831,36
5832,36
5833,37
5834,37
5835,36
5836,37
5837,36
5838,36
5839,36
5840,36
5841,36
5842,37
5843,37
5844,37
5845,37
5846,37
5847,37
5848,37
5849,37
5850,36
5851,36
5852,36
5853,36
5854,36
5855,36
5856,36
5857,36
5858,36
5859,36
5860,36
5861,36
5862,36
5863,36
5864,36
5865,36
5866,36
5867,36
5868,36
5869,36
5870,36
5871,36
5872,36
5873,36
5874,36
5875,36
5876,36
5877,36
5878,36
5879,36
5880,36
5881,36
5882,36
5883,36
5884,36
5885,36
5886,36
5887,36
5888,36
5889,36
5890,37
5891,37
5892,37
5893,37
5894,37
5895,37
5896,37
5897,37
5898,36
5899,36
5900,36
5901,37
5902,36
5903,36
5904,36
5905,36
5906,36
5907,36
5908,36
5909,37
5910,37
5911,36
5912,37
5913,37
5914,37
5915,37
5916,36
5917,36
5918,36
5919,36
5920,36
5921,36
5922,36
5923,37
5924,37
5925,37
5926,37
5927,37
5928,37
5929,37
5930,37
5931,37
5932,37
5933,37
5934,37
5935,37
5936,37
5937,37
5938,37
5939,37
5940,37
5941,37
5942,37
5943,37
5944,36
5945,36
5946,36
5947,36
5948,36
5949,36
5950,36
5951,36
5952,36
5953,36
5954,36
5955,36
5956,36
5957,36
5958,36
5959,36
5960,36
5961,37
5962,37
5963,37
5964,37
5965,37
5966,37
5967,36
5968,36
5969,37
5970,36
5971,36
5972,36
5973,37
5974,37
5975,36
5976,36
5977,36
5978,36
5979,36
5980,36
5981,36
5982,36
5983,36
5984,36
5985,36
5986,36
5987,36
5988,35
5989,36
5990,36
5991,36
5992,35
5993,35
5994,35
5995,35
5996,35
5997,35
5998,35
5999,35
6000,35
6001,35
6002,35
6003,35
6004,35
6005,35
6006,36
6007,36
6008,36
6009,35
6010,35
6011,35
6012,35
6013,35
6014,35
6015,35
6016,35
6017,35
6018,35
6019,35
6020,35
6021,35
6022,35
6023,35
6024,35
6025,35
6026,35
6027,35
6028,35
6029,35
6030,35
6031,35
6032,35
6033,35
6034,35
6035,35
6036,35
6037,35
6038,35
6039,35
6040,35
6041,35
6042,35
6043,35
6044,35
6045,35
6046,35
6047,35
6048,35
6049,35
6050,35
6051,35
6052,35
6053,35
6054,36
6055,36
6056,36
6057,36
6058,35
6059,35
6060,35
6061,35
6062,35
6063,35
6064,35
6065,34
6066,34
6067,34
6068,34
6069,34
6070,34
6071,34
6072,34
6073,34
6074,34
6075,34
6076,34
6077,34
6078,34
6079,34
6080,34
6081,35
6082,35
6083,34
6084,34
6085,34
6086,34
6087,34
6088,34
6089,34
6090,34
6091,34
6092,34
6093,34
6094,34
6095,34
6096,34
6097,34
6098,34
6099,34
6100,35
6101,35
6102,34
6103,35
6104,35
6105,35
6106,37
6107,37
6108,37
6109,37
6110,37
6111,37
6112,37
6113,36
6114,36
6115,36
6116,36
6117,35
6118,35
6119,35
6120,35
6121,35
6122,35
6123,35
6124,35
6125,35
6126,35
6127,35
6128,36
6129,35
6130,35
6131,35
6132,35
6133,35
6134,35
6135,35
6136,35
6137,36
6138,35
6139,35
6140,35
6141,35
6142,35
6143,35
6144,35
6145,36
6146,35
6147,35
6148,35
6149,35
6150,35
6151,35
6152,35
6153,35
6154,35
6155,35
6156,35
6157,34
6158,34
6159,34
6160,34
6161,34
6162,34
6163,34
6164,34
6165,34
6166,34
6167,34
6168,34
6169,34
6170,34
6171,34
6172,34
6173,34
6174,34
6175,34
6176,34
6177,35
6178,36
6179,36
6180,35
6181,35
6182,34
6183,34
6184,34
6185,34
6186,34
6187,34
6188,34
6189,34
6190,34
6191,34
6192,34
6193,34
6194,34
6195,34
6196,34
6197,34
6198,34
6199,34
6200,34
6201,34
6202,34
6203,34
6204,33
6205,33
6206,33
6207,33
6208,33
6209,33
6210,33
6211,33
6212,33
6213,33
6214,33
6215,34
6216,34
6217,34
6218,34
6219,34
6220,33
6221,33
6222,33
6223,33
6224,33
6225,34
6226,34
6227,33
6228,33
6229,34
6230,34
6231,34
6232,33
6233,33
6234,33
6235,33
6236,33
6237,33
6238,33
6239,33
6240,33
6241,33
6242,33
6243,34
6244,34
6245,33
6246,33
6247,33
6248,33
6249,33
6250,33
6251,33
6252,33
6253,33
6254,33
6255,33
6256,33
6257,33
6258,33
6259,33
6260,33
6261,33
6262,33
6263,34
6264,34
6265,33
6266,33
6267,33
6268,33
6269,33
6270,33
6271,34
6272,34
6273,34
6274,34
6275,34
6276,34
6277,34
6278,35
6279,35
6280,35
6281,35
6282,35
6283,34
6284,34
6285,34
6286,34
6287,34
6288,34
6289,34
6290,34
6291,34
6292,34
6293,34
6294,34
6295,34
6296,34
6297,34
6298,34
6299,34
6300,34
6301,34
6302,34
6303,34
6304,34
6305,35
6306,34
6307,34
6308,34
6309,34
6310,34
6311,34
6312,34
6313,34
6314,34
6315,34
6316,34
6317,34
6318,34
6319,34
6320,34
6321,34
6322,34
6323,34
6324,35
6325,35
6326,35
6327,34
6328,34
6329,34
6330,34
6331,34
6332,34
6333,34
6334,34
6335,34
6336,34
6337,34
6338,34
6339,34
6340,34
6341,34
6342,34
6343,34
6344,34
6345,34
6346,34
6347,34
6348,34
6349,34
6350,34
6351,34
6352,34
6353,34
6354,34
6355,34
6356,34
6357,34
6358,34
6359,34
6360,34
6361,34
6362,34
6363,35
6364,35
6365,34
6366,34
6367,34
6368,34
6369,34
6370,34
6371,34
6372,34
6373,34
6374,35
6375,35
6376,35
6377,35
6378,35
6379,35
6380,35
6381,35
6382,35
6383,35
6384,35
6385,35
6386,35
6387,35
6388,34
6389,35
6390,34
6391,34
6392,34
6393,34
6394,34
6395,34
6396,34
6397,35
6398,35
6399,35
6400,35
6401,35
6402,35
6403,34
6404,34
6405,34
6406,34
6407,34
6408,34
6409,35
6410,35
6411,36
6412,35
6413,35
6414,35
6415,35
6416,36
6417,35
6418,35
6419,35
6420,35
6421,35
6422,35
6423,35
6424,35
6425,35
6426,36
6427,36
6428,36
6429,36
6430,36
6431,36
6432,36
6433,36
6434,36
6435,36
6436,36
6437,36
6438,36
6439,35
6440,35
6441,35
6442,35
6443,35
6444,35
6445,35
6446,35
6447,35
6448,35
6449,35
6450,35
6451,35
6452,35
6453,35
6454,35
6455,35
6456,35
6457,35
6458,35
6459,36
6460,36
6461,36
6462,36
6463,36
6464,36
6465,36
6466,38
6467,38
6468,37
6469,37
6470,37
6471,37
6472,36
6473,36
6474,36
6475,36
6476,36
6477,36
6478,36
6479,36
6480,36
6481,36
6482,36
6483,36
6484,36
6485,36
6486,36
6487,36
6488,36
6489,36
6490,36
6491,36
6492,36
6493,36
6494,36
6495,36
6496,36
6497,36
6498,36
6499,36
6500,36
6501,36
6502,36
6503,36
6504,36
6505,36
6506,36
6507,36
6508,36
6509,36
6510,36
6511,36
6512,36
6513,36
6514,36
6515,36
6516,36
6517,36
6518,36
6519,36
6520,36
6521,36
6522,36
6523,36
6524,36
6525,36
6526,36
6527,36
6528,36
6529,36
6530,36
6531,36
6532,36
6533,36
6534,36
6535,36
6536,36
6537,36
6538,36
6539,36
6540,36
6541,36
6542,36
6543,36
6544,37
6545,37
6546,37
6547,37
6548,37
6549,37
6550,37
6551,38
6552,37
6553,38
6554,38
6555,38
6556,39
6557,39
6558,39
6559,39
6560,39
6561,38
6562,38
6563,38
6564,38
6565,38
6566,38
6567,38
6568,38
6569,38
6570,38
6571,38
6572,38
6573,38
6574,38
6575,38
6576,38
6577,38
6578,38
6579,38
6580,38
6581,38
6582,38
6583,38
6584,38
6585,38
6586,38
6587,38
6588,38
6589,38
6590,38
6591,38
6592,38
6593,38
6594,39
6595,39
6596,39
6597,39
6598,39
6599,39
6600,39
6601,39
6602,38
6603,38
6604,38
6605,38
6606,38
6607,38
6608,38
6609,38
6610,38
6611,38
6612,38
6613,38
6614,38
6615,38
6616,38
6617,38
6618,38
6619,38
6620,38
6621,38
6622,38
6623,38
6624,38
6625,38
6626,38
6627,38
6628,38
6629,38
6630,38
6631,38
6632,38
6633,38
6634,39
6635,38
6636,38
6637,38
6638,38
6639,37
6640,37
6641,38
6642,37
6643,37
6644,37
6645,37
6646,37
6647,38
6648,37
6649,37
6650,37
6651,37
6652,37
6653,37
6654,37
6655,37
6656,37
6657,37
6658,37
6659,37
6660,38
6661,38
6662,38
6663,38
6664,37
6665,37
6666,37
6667,37
6668,37
6669,37
6670,37
6671,38
6672,38
6673,37
6674,37
6675,37
6676,38
6677,37
6678,38
6679,38
6680,38
6681,37
6682,37
6683,37
6684,37
6685,37
6686,37
6687,37
6688,38
6689,38
6690,38
6691,38
6692,38
6693,38
6694,38
6695,38
6696,38
6697,38
6698,38
6699,38
6700,37
6701,37
6702,37
6703,37
6704,37
6705,37
6706,37
6707,37
6708,37
6709,37
6710,37
6711,37
6712,37
6713,37
6714,37
6715,37
6716,37
6717,37
6718,37
6719,37
6720,38
6721,38
6722,38
6723,38
6724,38
6725,38
6726,38
6727,38
6728,38
6729,38
6730,38
6731,38
6732,38
6733,38
6734,37
6735,37
6736,37
6737,37
6738,37
6739,38
6740,37
6741,38
6742,37
6743,37
6744,37
6745,37
6746,37
6747,37
6748,37
6749,37
6750,37
6751,38
6752,37
6753,37
6754,37
6755,37
6756,37
6757,37
6758,37
6759,37
6760,37
6761,37
6762,38
6763,37
6764,37
6765,37
6766,37
6767,37
6768,37
6769,37
6770,37
6771,37
6772,37
6773,37
6774,37
6775,37
6776,37
6777,37
6778,37
6779,37
6780,37
6781,37
6782,37
6783,37
6784,37
6785,37
6786,37
6787,37
6788,37
6789,37
6790,37
6791,38
6792,38
6793,37
6794,37
6795,37
6796,37
6797,37
6798,37
6799,37
6800,37
6801,37
6802,37
6803,38
6804,38
6805,38
6806,38
6807,38
6808,38
6809,38
6810,38
6811,38
6812,38
6813,37
6814,37
6815,37
6816,37
6817,37
6818,37
6819,38
6820,38
6821,38
6822,37
6823,37
6824,37
6825,37
6826,37
6827,37
6828,37
6829,37
6830,37
6831,38
6832,37
6833,37
6834,38
6835,38
6836,38
6837,37
6838,37
6839,38
6840,38
6841,38
6842,38
6843,39
6844,39
6845,39
6846,39
6847,38
6848,38
6849,38
6850,38
6851,38
6852,38
6853,38
6854,38
6855,38
6856,38
6857,38
6858,38
6859,38
6860,38
6861,38
6862,38
6863,38
6864,38
6865,38
6866,38
6867,38
6868,38
6869,38
6870,38
6871,38
6872,38
6873,38
6874,38
6875,37
6876,37
6877,37
6878,37
6879,37
6880,37
6881,37
6882,37
6883,37
6884,37
6885,37
6886,37
6887,37
6888,37
6889,37
6890,37
6891,37
6892,37
6893,37
6894,37
6895,37
6896,37
6897,37
6898,37
6899,37
6900,37
6901,38
6902,38
6903,38
6904,37
6905,37
6906,38
6907,38
6908,38
6909,38
6910,38
6911,38
6912,38
6913,38
6914,37
6915,37
6916,37
6917,38
6918,38
6919,37
6920,37
6921,37
6922,37
6923,36
6924,36
6925,36
6926,36
6927,36
6928,36
6929,36
6930,36
6931,36
6932,36
6933,36
6934,36
6935,36
6936,36
6937,37
6938,36
6939,36
6940,36
6941,36
6942,36
6943,35
6944,35
6945,35
6946,35
6947,35
6948,35
6949,35
6950,35
6951,35
6952,35
6953,35
6954,35
6955,35
6956,35
6957,35
6958,35
6959,35
6960,36
6961,36
6962,36
6963,36
6964,37
6965,37
6966,37
6967,38
6968,37
6969,37
6970,37
6971,37
6972,36
6973,36
6974,36
6975,36
6976,36
6977,36
6978,36
6979,36
6980,36
6981,38
6982,36
6983,36
6984,36
6985,36
6986,36
6987,36
6988,36
6989,36
6990,36
6991,36
6992,36
6993,36
6994,36
6995,36
6996,36
6997,36
6998,36
6999,36
7000,36
7001,36
7002,36
7003,36
7004,36
7005,37
7006,37
7007,37
7008,37
7009,37
7010,37
7011,37
7012,37
7013,37
7014,37
7015,37
7016,37
7017,37
7018,37
7019,37
7020,37
7021,37
7022,37
7023,37
7024,37
7025,37
7026,37
7027,37
7028,37
7029,37
7030,37
7031,37
7032,37
7033,37
7034,37
7035,37
7036,36
7037,36
7038,36
7039,36
7040,36
7041,36
7042,37
7043,37
7044,38
7045,38
7046,38
7047,38
7048,37
7049,37
7050,37
7051,36
7052,36
7053,37
7054,36
7055,36
7056,36
7057,36
7058,36
7059,36
7060,36
7061,36
7062,36
7063,36
7064,36
7065,36
7066,36
7067,36
7068,36
7069,36
7070,36
7071,36
7072,36
7073,36
7074,36
7075,36
7076,36
7077,36
7078,36
7079,36
7080,37
7081,37
7082,36
7083,36
7084,36
7085,36
7086,35
7087,35
7088,35
7089,35
7090,35
7091,35
7092,35
7093,35
7094,35
7095,35
7096,35
7097,35
7098,35
7099,35
7100,35
7101,35
7102,35
7103,35
7104,35
7105,35
7106,35
7107,35
7108,35
7109,35
7110,35
7111,35
7112,36
7113,35
7114,34
7115,34
7116,34
7117,34
7118,34
7119,34
7120,34
7121,34
7122,35
7123,35
7124,35
7125,35
7126,35
7127,35
7128,35
7129,35
7130,35
7131,35
7132,35
7133,36
7134,35
7135,35
7136,35
7137,35
7138,35
7139,35
7140,35
7141,35
7142,35
7143,35
7144,35
7145,35
7146,35
7147,35
7148,35
7149,35
7150,35
7151,35
7152,35
7153,35
7154,35
7155,35
7156,36
7157,35
7158,35
7159,35
7160,35
7161,35
7162,35
7163,35
7164,35
7165,35
7166,35
7167,36
7168,36
7169,35
7170,36
7171,36
7172,36
7173,36
7174,36
7175,37
7176,38
7177,38
7178,38
7179,38
7180,38
7181,38
7182,38
7183,38
7184,38
7185,38
7186,38
7187,38
7188,38
7189,38
7190,37
7191,37
7192,37
7193,37
7194,37
7195,36
7196,35
7197,35
7198,35
7199,35
7200,35
7201,35
7202,36
7203,36
7204,36
7205,35
7206,35
7207,35
7208,35
7209,35
7210,35
7211,35
7212,35
7213,35
7214,35
7215,35
7216,35
7217,35
7218,35
7219,35
7220,35
7221,35
7222,35
7223,35
7224,35
7225,35
7226,35
7227,36
7228,35
7229,35
7230,35
7231,35
7232,35
7233,35
7234,35
7235,35
7236,35
7237,35
7238,35
7239,35
7240,35
7241,35
7242,35
7243,35
7244,35
7245,35
7246,35
7247,35
7248,36
7249,36
7250,36
7251,36
7252,36
7253,36
7254,36
7255,37
7256,36
7257,36
7258,36
7259,36
7260,36
7261,36
7262,36
7263,36
7264,36
7265,36
7266,36
7267,36
7268,37
7269,37
7270,37
7271,37
7272,37
7273,36
7274,36
7275,36
7276,36
7277,36
7278,36
7279,36
7280,36
7281,36
7282,36
7283,36
7284,36
7285,36
7286,36
7287,37
7288,37
7289,37
7290,36
7291,36
7292,36
7293,36
7294,36
7295,36
7296,36
7297,36
7298,36
7299,36
7300,37
7301,37
7302,36
7303,36
7304,36
7305,35
7306,35
7307,35
7308,35
7309,35
7310,36
7311,35
7312,35
7313,35
7314,35
7315,36
7316,35
7317,35
7318,35
7319,35
7320,35
7321,35
7322,35
7323,36
7324,35
7325,35
7326,35
7327,35
7328,35
7329,35
7330,35
7331,37
7332,37
7333,36
7334,36
7335,36
7336,36
7337,36
7338,36
7339,36
7340,36
7341,36
7342,36
7343,37
7344,37
7345,36
7346,36
7347,36
7348,35
7349,35
7350,35
7351,35
7352,35
7353,35
7354,35
7355,35
7356,35
7357,35
7358,35
7359,35
7360,35
7361,35
7362,35
7363,35
7364,35
7365,35
7366,35
7367,35
7368,35
7369,35
7370,35
7371,35
7372,35
7373,35
7374,35
7375,35
7376,35
7377,35
7378,35
7379,35
7380,35
7381,36
7382,35
7383,36
7384,36
7385,36
7386,36
7387,36
7388,36
7389,36
7390,36
7391,37
7392,36
7393,36
7394,36
7395,36
7396,36
7397,36
7398,36
7399,36
7400,36
7401,36
7402,36
7403,36
7404,36
7405,36
7406,36
7407,36
7408,36
7409,36
7410,36
7411,36
7412,36
7413,36
7414,36
7415,36
7416,37
7417,37
7418,37
7419,37
7420,37
7421,37
7422,36
7423,35
7424,35
7425,35
7426,35
7427,35
7428,35
7429,35
7430,36
7431,36
7432,36
7433,36
7434,36
7435,36
7436,36
7437,36
7438,36
7439,36
7440,36
7441,36
7442,36
7443,36
7444,35
7445,35
7446,35
7447,35
7448,35
7449,35
7450,35
7451,35
7452,35
7453,35
7454,35
7455,35
7456,35
7457,35
7458,35
7459,35
7460,35
7461,35
7462,35
7463,35
7464,35
7465,36
7466,36
7467,36
7468,36
7469,36
7470,36
7471,36
7472,35
7473,35
7474,35
7475,35
7476,35
7477,35
7478,35
7479,35
7480,35
7481,35
7482,35
7483,35
7484,35
7485,37
7486,37
7487,37
7488,36
7489,35
7490,35
7491,35
7492,35
7493,35
7494,35
7495,35
7496,34
7497,34
7498,35
7499,35
7500,35
7501,34
7502,34
7503,34
7504,34
7505,34
7506,34
7507,34
7508,34
7509,34
7510,34
7511,34
7512,34
7513,34
7514,34
7515,34
7516,34
7517,34
7518,34
7519,34
7520,34
7521,34
7522,34
7523,34
7524,34
7525,34
7526,34
7527,34
7528,34
7529,34
7530,34
7531,34
7532,34
7533,34
7534,34
7535,34
7536,34
7537,34
7538,34
7539,34
7540,34
7541,34
7542,34
7543,34
7544,34
7545,34
7546,34
7547,34
7548,34
7549,34
7550,34
7551,34
7552,34
7553,34
7554,34
7555,34
7556,34
7557,34
7558,34
7559,35
7560,35
7561,35
7562,35
7563,35
7564,35
7565,36
7566,35
7567,35
7568,35
7569,35
7570,35
7571,35
7572,35
7573,36
7574,36
7575,35
7576,35
7577,35
7578,35
7579,35
7580,35
7581,35
7582,35
7583,35
7584,36
7585,36
7586,35
7587,34
7588,34
7589,34
7590,34
7591,34
7592,34
7593,34
7594,34
7595,34
7596,34
7597,34
7598,34
7599,34
7600,34
7601,34
7602,35
7603,36
7604,36
7605,36
7606,35
7607,35
7608,35
7609,35
7610,35
7611,35
7612,35
7613,35
7614,35
7615,35
7616,35
7617,35
7618,35
7619,35
7620,35
7621,35
7622,35
7623,35
7624,35
7625,35
7626,35
7627,35
7628,36
7629,36
7630,36
7631,36
7632,36
7633,35
7634,35
7635,35
7636,35
7637,35
7638,35
7639,36
7640,37
7641,36
7642,36
7643,36
7644,36
7645,36
7646,36
7647,36
7648,36
7649,35
7650,35
7651,35
7652,35
7653,35
7654,35
7655,35
7656,35
7657,35
7658,35
7659,35
7660,35
7661,35
7662,35
7663,35
7664,35
7665,36
7666,35
7667,35
7668,35
7669,35
7670,35
7671,35
7672,35
7673,35
7674,35
7675,35
7676,35
7677,35
7678,35
7679,36
7680,36
7681,36
7682,36
7683,36
7684,36
7685,36
7686,36
7687,36
7688,36
7689,37
7690,37
7691,37
7692,37
7693,37
7694,36
7695,36
7696,36
7697,36
7698,36
7699,36
7700,36
7701,36
7702,36
7703,36
7704,36
7705,36
7706,36
7707,36
7708,36
7709,36
7710,36
7711,36
7712,36
7713,37
7714,37
7715,37
7716,37
7717,36
7718,36
7719,36
7720,36
7721,36
7722,36
7723,36
7724,36
7725,36
7726,36
7727,38
7728,38
7729,37
7730,36
7731,37
7732,37
7733,37
7734,36
7735,36
7736,36
7737,36
7738,36
7739,36
7740,36
7741,36
7742,36
7743,36
7744,37
7745,37
7746,37
7747,37
7748,37
7749,37
7750,37
7751,38
7752,38
7753,38
7754,38
7755,38
7756,38
7757,38
7758,39
7759,39
7760,40
7761,40
7762,38
7763,36
7764,36
7765,36
7766,36
7767,36
7768,36
7769,36
7770,36
7771,36
7772,36
7773,36
7774,36
7775,36
7776,36
7777,36
7778,36
7779,36
7780,36
7781,36
7782,36
7783,36
7784,36
7785,36
7786,36
7787,36
7788,36
7789,36
7790,36
7791,36
7792,36
7793,36
7794,36
7795,36
7796,36
7797,36
7798,36
7799,36
7800,36
7801,36
7802,36
7803,36
7804,36
7805,36
7806,36
7807,36
7808,36
7809,36
7810,36
7811,36
7812,36
7813,36
7814,36
7815,36
7816,36
7817,36
7818,36
7819,36
7820,36
7821,36
7822,36
7823,36
7824,36
7825,36
7826,36
7827,36
7828,37
7829,37
7830,37
7831,36
7832,36
7833,36
7834,36
7835,36
7836,36
7837,36
7838,36
7839,36
7840,36
7841,36
7842,36
7843,37
7844,37
7845,37
7846,37
7847,37
7848,37
7849,38
7850,38
7851,38
7852,38
7853,38
7854,38
7855,37
7856,38
7857,37
7858,37
7859,37
7860,37
7861,37
7862,37
7863,37
7864,37
7865,37
7866,37
7867,37
7868,37
7869,37
7870,37
7871,36
7872,36
7873,36
7874,36
7875,36
7876,37
7877,37
7878,37
7879,37
7880,37
7881,37
7882,37
7883,37
7884,38
7885,37
7886,37
7887,37
7888,37
7889,36
7890,36
7891,36
7892,36
7893,36
7894,36
7895,36
7896,36
7897,36
7898,36
7899,36
7900,36
7901,36
7902,36
7903,36
7904,36
7905,36
7906,37
7907,36
7908,36
7909,36
7910,36
7911,36
7912,36
7913,36
7914,36
7915,36
7916,36
7917,36
7918,36
7919,36
7920,36
7921,36
7922,37
7923,36
7924,36
7925,36
7926,36
7927,36
7928,36
7929,36
7930,36
7931,36
7932,36
7933,36
7934,36
7935,36
7936,36
7937,36
7938,36
7939,36
7940,36
7941,36
7942,36
7943,37
7944,36
7945,36
7946,36
7947,36
7948,36
7949,36
7950,36
7951,36
7952,36
7953,36
7954,36
7955,36
7956,36
7957,36
7958,36
7959,36
7960,36
7961,36
7962,36
7963,36
7964,36
7965,36
7966,36
7967,36
7968,36
7969,36
7970,36
7971,37
7972,36
7973,36
7974,36
7975,36
7976,36
7977,36
7978,36
7979,36
7980,36
7981,36
7982,36
7983,36
7984,36
7985,36
7986,36
7987,36
7988,36
7989,36
7990,36
7991,36
7992,36
7993,36
7994,36
7995,36
7996,36
7997,36
7998,36
7999,36
8000,36
8001,36
8002,36
8003,36
8004,36
8005,36
8006,36
8007,36
8008,36
8009,36
8010,36
8011,36
8012,36
8013,36
8014,36
8015,36
8016,36
8017,36
8018,36
8019,36
8020,36
8021,36
8022,36
8023,36
8024,36
8025,36
8026,36
8027,36
8028,36
8029,36
8030,36
8031,36
8032,36
8033,36
8034,36
8035,36
8036,36
8037,36
8038,36
8039,36
8040,36
8041,36
8042,36
8043,36
8044,36
8045,36
8046,36
8047,36
8048,36
8049,36
8050,36
8051,36
8052,36
8053,37
8054,37
8055,38
8056,38
8057,38
8058,38
8059,38
8060,38
8061,38
8062,38
8063,38
8064,38
8065,38
8066,38
8067,38
8068,38
8069,38
8070,38
8071,38
8072,38
8073,38
8074,38
8075,38
8076,38
8077,38
8078,39
8079,38
8080,38
8081,37
8082,37
8083,37
8084,37
8085,37
8086,38
8087,38
8088,38
8089,38
8090,37
8091,37
8092,37
8093,37
8094,37
8095,37
8096,37
8097,37
8098,37
8099,37
8100,37
8101,37
8102,38
8103,38
8104,38
8105,38
8106,38
8107,39
8108,38
8109,38
8110,38
8111,38
8112,38
8113,38
8114,38
8115,38
8116,38
8117,38
8118,37
8119,37
8120,37
8121,37
8122,37
8123,37
8124,37
8125,37
8126,36
8127,36
8128,36
8129,36
8130,36
8131,36
8132,36
8133,36
8134,36
8135,36
8136,36
8137,36
8138,36
8139,36
8140,36
8141,36
8142,36
8143,36
8144,36
8145,35
8146,35
8147,35
8148,35
8149,35
8150,35
8151,35
8152,35
8153,35
8154,35
8155,36
8156,36
8157,35
8158,35
8159,35
8160,35
8161,35
8162,35
8163,35
8164,35
8165,35
8166,35
8167,35
8168,35
8169,36
8170,36
8171,36
8172,36
8173,36
8174,36
8175,37
8176,37
8177,37
8178,37
8179,37
8180,36
8181,36
8182,35
8183,35
8184,35
8185,35
8186,35
8187,35
8188,35
8189,35
8190,35
8191,35
8192,35
8193,35
8194,35
8195,35
8196,35
8197,35
8198,35
8199,35
8200,35
8201,35
8202,35
8203,35
8204,35
8205,35
8206,35
8207,36
8208,36
8209,36
8210,36
8211,36
8212,36
8213,36
8214,36
8215,36
8216,36
8217,36
8218,36
8219,37
8220,37
8221,37
8222,37
8223,36
8224,36
8225,36
8226,36
8227,36
8228,36
8229,36
8230,36
8231,36
8232,36
8233,36
8234,36
8235,36
8236,36
8237,36
8238,36
8239,36
8240,36
8241,36
8242,36
8243,36
8244,36
8245,36
8246,36
8247,35
8248,35
8249,35
8250,35
8251,35
8252,34
8253,34
8254,35
8255,35
8256,35
8257,35
8258,35
8259,35
8260,35
8261,35
8262,35
8263,35
8264,35
8265,35
8266,35
8267,35
8268,36
8269,36
8270,36
8271,36
8272,36
8273,36
8274,36
8275,35
8276,35
8277,35
8278,35
8279,35
8280,35
8281,35
8282,36
8283,35
8284,35
8285,35
8286,35
8287,35
8288,35
8289,35
8290,35
8291,35
8292,35
8293,35
8294,36
8295,37
8296,37
8297,37
8298,36
8299,36
8300,36
8301,36
8302,35
8303,35
8304,35
8305,35
8306,35
8307,35
8308,35
8309,35
8310,35
8311,35
8312,35
8313,35
8314,35
8315,35
8316,35
8317,35
8318,35
8319,35
8320,36
8321,37
8322,37
8323,36
8324,36
8325,36
8326,36
8327,36
8328,36
8329,36
8330,36
8331,36
8332,35
8333,35
8334,35
8335,35
8336,35
8337,35
8338,35
8339,35
8340,35
8341,35
8342,35
8343,35
8344,35
8345,35
8346,35
8347,35
8348,35
8349,36
8350,36
8351,36
8352,37
8353,36
8354,36
8355,36
8356,35
8357,35
8358,35
8359,35
8360,34
8361,34
8362,34
8363,34
8364,35
8365,34
8366,34
8367,34
8368,34
8369,34
8370,35
8371,35
8372,35
8373,34
8374,34