1,3
2,3
3,3
4,3
5,3
6,3
7,3
8,3
9,3
10,3
11,3
12,3
13,3
14,3
15,3
16,3
17,3
18,3
19,3
20,3
21,3
22,3
23,3
24,3
25,3
26,3
27,4
28,3
29,3
30,3
31,3
32,3
33,3
34,3
35,3
36,3
37,3
38,3
39,3
40,3
41,3
42,3
43,3
44,4
45,4
46,4
47,4
48,4
49,4
50,4
51,4
52,4
53,4
54,4
55,4
56,4
57,4
58,4
59,4
60,4
61,4
62,4
63,4
64,4
65,4
66,4
67,4
68,4
69,4
70,4
71,5
72,5
73,5
74,5
75,5
76,5
77,5
78,5
79,6
80,6
81,5
82,5
83,5
84,5
85,5
86,5
87,5
88,5
89,5
90,5
91,5
92,5
93,5
94,5
95,5
96,5
97,5
98,5
99,5
100,5
101,5
102,5
103,5
104,5
105,6
106,6
107,6
108,6
109,5
110,5
111,5
112,5
113,5
114,6
115,6
116,5
117,6
118,6
119,5
120,5
121,5
122,5
123,5
124,5
125,5
126,5
127,5
128,6
129,5
130,5
131,5
132,5
133,5
134,5
135,6
136,6
137,6
138,6
139,6
140,6
141,6
142,6
143,6
144,6
145,6
146,6
147,6
148,6
149,6
150,6
151,7
152,6
153,6
154,6
155,6
156,6
157,6
158,6
159,6
160,6
161,6
162,6
163,6
164,6
165,6
166,6
167,7
168,7
169,7
170,7
171,7
172,7
173,7
174,7
175,7
176,7
177,7
178,7
179,7
180,7
181,7
182,7
183,7
184,8
185,7
186,7
187,7
188,7
189,7
190,7
191,7
192,7
193,7
194,7
195,8
196,8
197,8
198,8
199,8
200,8
201,8
202,8
203,8
204,8
205,8
206,8
207,9
208,9
209,9
210,9
211,10
212,8
213,8
214,8
215,8
216,8
217,8
218,8
219,8
220,8
221,8
222,8
223,8
224,8
225,8
226,8
227,8
228,8
229,8
230,8
231,8
232,8
233,8
234,8
235,8
236,8
237,8
238,8
239,8
240,8
241,8
242,8
243,8
244,8
245,8
246,8
247,8
248,8
249,8
250,8
251,8
252,8
253,8
254,8
255,8
256,8
257,8
258,8
259,8
260,8
261,8
262,8
263,8
264,8
265,8
266,8
267,8
268,8
269,8
270,8
271,8
272,8
273,9
274,8
275,8
276,8
277,8
278,8
279,8
280,8
281,8
282,8
283,8
284,8
285,8
286,8
287,8
288,9
289,9
290,10
291,9
292,9
293,9
294,9
295,9
296,9
297,9
298,9
299,9
300,9
301,9
302,9
303,9
304,9
305,9
306,9
307,9
308,9
309,9
310,10
311,10
312,9
313,9
314,10
315,9
316,9
317,10
318,11
319,11
320,9
321,9
322,9
323,9
324,9
325,10
326,10
327,9
328,10
329,10
330,10
331,10
332,11
333,11
334,10
335,10
336,10
337,10
338,10
339,11
340,11
341,10
342,10
343,10
344,10
345,9
346,9
347,9
348,9
349,9
350,9
351,9
352,9
353,9
354,10
355,10
356,10
357,10
358,10
359,10
360,10
361,10
362,10
363,10
364,10
365,10
366,10
367,10
368,10
369,10
370,10
371,10
372,10
373,10
374,11
375,10
376,10
377,10
378,10
379,10
380,10
381,10
382,10
383,10
384,10
385,10
386,10
387,10
388,10
389,10
390,10
391,10
392,10
393,10
394,10
395,10
396,10
397,10
398,10
399,10
400,10
401,10
402,10
403,10
404,10
405,10
406,10
407,10
408,10
409,10
410,10
411,10
412,10
413,10
414,10
415,10
416,10
417,10
418,10
419,10
420,10
421,10
422,10
423,10
424,10
425,10
426,10
427,10
428,10
429,10
430,10
431,11
432,11
433,10
434,10
435,10
436,10
437,10
438,10
439,11
440,12
441,12
442,12
443,11
444,10
445,10
446,10
447,10
448,10
449,10
450,10
451,10
452,10
453,10
454,10
455,10
456,10
457,10
458,10
459,10
460,10
461,10
462,10
463,10
464,10
465,10
466,10
467,10
468,10
469,10
470,10
471,10
472,10
473,10
474,10
475,10
476,10
477,10
478,10
479,10
480,10
481,10
482,10
483,11
484,11
485,11
486,11
487,10
488,10
489,10
490,10
491,10
492,10
493,10
494,10
495,10
496,10
497,11
498,10
499,10
500,10
501,10
502,10
503,10
504,10
505,10
506,10
507,10
508,10
509,10
510,10
511,10
512,10
513,10
514,10
515,10
516,10
517,11
518,10
519,10
520,10
521,10
522,10
523,10
524,10
525,10
526,10
527,10
528,10
529,10
530,10
531,10
532,10
533,10
534,10
535,10
536,10
537,10
538,10
539,10
540,10
541,10
542,10
543,10
544,10
545,11
546,11
547,11
548,10
549,10
550,10
551,10
552,10
553,10
554,10
555,10
556,10
557,10
558,10
559,10
560,10
561,10
562,10
563,10
564,11
565,10
566,10
567,10
568,11
569,11
570,11
571,11
572,11
573,11
574,11
575,11
576,11
577,12
578,12
579,11
580,11
581,11
582,11
583,11
584,11
585,11
586,11
587,12
588,12
589,12
590,12
591,12
592,11
593,11
594,11
595,12
596,12
597,12
598,12
599,13
600,12
601,12
602,12
603,11
604,11
605,11
606,11
607,11
608,11
609,11
610,11
611,11
612,11
613,11
614,11
615,11
616,11
617,11
618,11
619,11
620,11
621,11
622,11
623,11
624,11
625,11
626,11
627,11
628,11
629,11
630,11
631,11
632,11
633,12
634,11
635,11
636,11
637,11
638,11
639,11
640,11
641,11
642,11
643,11
644,11
645,11
646,11
647,11
648,11
649,11
650,11
651,11
652,11
653,11
654,11
655,12
656,12
657,11
658,11
659,11
660,11
661,11
662,11
663,11
664,11
665,11
666,11
667,12
668,12
669,12
670,12
671,12
672,12
673,12
674,13
675,13
676,13
677,13
678,13
679,14
680,14
681,14
682,14
683,14
684,14
685,14
686,14
687,14
688,14
689,14
690,14
691,14
692,14
693,14
694,14
695,14
696,14
697,14
698,14
699,14
700,14
701,14
702,14
703,14
704,14
705,14
706,14
707,14
708,14
709,14
710,14
711,15
712,14
713,14
714,14
715,13
716,13
717,13
718,13
719,13
720,13
721,13
722,13
723,13
724,13
725,13
726,13
727,13
728,13
729,13
730,13
731,13
732,13
733,13
734,13
735,13
736,13
737,13
738,13
739,13
740,13
741,13
742,13
743,13
744,13
745,13
746,13
747,13
748,13
749,13
750,13
751,13
752,13
753,13
754,13
755,13
756,14
757,14
758,14
759,14
760,14
761,14
762,14
763,14
764,14
765,14
766,14
767,14
768,14
769,14
770,14
771,15
772,14
773,14
774,14
775,14
776,14
777,14
778,14
779,14
780,14
781,14
782,14
783,14
784,14
785,14
786,15
787,14
788,14
789,14
790,14
791,14
792,14
793,14
794,14
795,14
796,14
797,14
798,14
799,14
800,14
801,14
802,14
803,14
804,14
805,14
806,14
807,14
808,15
809,15
810,15
811,15
812,15
813,16
814,15
815,14
816,14
817,14
818,15
819,14
820,14
821,14
822,14
823,14
824,14
825,14
826,14
827,14
828,14
829,14
830,14
831,14
832,14
833,14
834,14
835,14
836,14
837,14
838,14
839,14
840,14
841,14
842,14
843,14
844,14
845,14
846,14
847,14
848,14
849,14
850,14
851,14
852,14
853,14
854,15
855,15
856,15
857,15
858,15
859,15
860,14
861,14
862,14
863,14
864,14
865,14
866,14
867,14
868,14
869,14
870,14
871,14
872,14
873,14
874,14
875,14
876,14
877,14
878,14
879,14
880,14
881,14
882,14
883,14
884,14
885,14
886,14
887,14
888,14
889,14
890,14
891,14
892,14
893,14
894,14
895,14
896,14
897,14
898,14
899,14
900,14
901,14
902,14
903,14
904,14
905,14
906,14
907,14
908,14
909,14
910,14
911,14
912,14
913,15
914,15
915,14
916,14
917,14
918,14
919,14
920,14
921,14
922,15
923,14
924,14
925,14
926,14
927,15
928,15
929,15
930,15
931,16
932,15
933,15
934,15
935,15
936,15
937,15
938,16
939,15
940,17
941,16
942,15
943,14
944,14
945,14
946,14
947,14
948,14
949,14
950,14
951,14
952,14
953,14
954,14
955,14
956,14
957,14
958,15
959,15
960,15
961,15
962,15
963,15
964,15
965,15
966,15
967,15
968,15
969,15
970,15
971,15
972,15
973,15
974,15
975,15
976,15
977,15
978,15
979,15
980,15
981,15
982,15
983,15
984,15
985,15
986,15
987,15
988,15
989,15
990,15
991,15
992,17
993,17
994,15
995,15
996,15
997,15
998,15
999,15
1000,15
1001,15
1002,16
1003,15
1004,15
1005,15
1006,15
1007,15
1008,15
1009,15
1010,15
1011,16
1012,15
1013,15
1014,15
1015,15
1016,15
1017,15
1018,15
1019,15
1020,15
1021,15
1022,15
1023,15
1024,15
1025,15
1026,15
1027,15
1028,15
1029,15
1030,15
1031,15
1032,15
1033,15
1034,15
1035,15
1036,15
1037,15
1038,15
1039,15
1040,15
1041,15
1042,15
1043,15
1044,15
1045,15
1046,15
1047,15
1048,15
1049,16
1050,16
1051,16
1052,16
1053,16
1054,16
1055,16
1056,16
1057,16
1058,16
1059,16
1060,16
1061,16
1062,16
1063,16
1064,17
1065,16
1066,16
1067,16
1068,16
1069,16
1070,16
1071,16
1072,16
1073,17
1074,16
1075,16
1076,16
1077,16
1078,16
1079,16
1080,16
1081,16
1082,17
1083,16
1084,16
1085,16
1086,16
1087,16
1088,16
1089,16
1090,16
1091,16
1092,16
1093,16
1094,16
1095,16
1096,16
1097,16
1098,16
1099,16
1100,16
1101,16
1102,16
1103,16
1104,16
1105,16
1106,16
1107,16
1108,16
1109,16
1110,16
1111,16
1112,16
1113,16
1114,17
1115,17
1116,16
1117,16
1118,16
1119,17
1120,16
1121,16
1122,17
1123,17
1124,17
1125,18
1126,18
1127,18
1128,18
1129,18
1130,18
1131,18
1132,18
1133,18
1134,18
1135,18
1136,18
1137,18
1138,18
1139,18
1140,18
1141,18
1142,18
1143,18
1144,18
1145,18
1146,18
1147,18
1148,18
1149,18
1150,18
1151,18
1152,18
1153,18
1154,18
1155,18
1156,18
1157,18
1158,18
1159,18
1160,18
1161,18
1162,18
1163,18
1164,19
1165,19
1166,19
1167,18
1168,18
1169,18
1170,18
1171,18
1172,19
1173,18
1174,18
1175,18
1176,18
1177,18
1178,18
1179,18
1180,18
1181,18
1182,18
1183,18
1184,18
1185,18
1186,18
1187,18
1188,18
1189,18
1190,18
1191,18
1192,18
1193,18
1194,18
1195,20
1196,18
1197,18
1198,18
1199,18
1200,18
1201,18
1202,18
1203,18
1204,18
1205,18
1206,18
1207,18
1208,18
1209,18
1210,18
1211,18
1212,18
1213,19
1214,20
1215,19
1216,19
1217,19
1218,20
1219,19
1220,19
1221,19
1222,19
1223,19
1224,19
1225,19
1226,19
1227,19
1228,19
1229,19
1230,20
1231,18
1232,18
1233,18
1234,18
1235,19
1236,18
1237,19
1238,18
1239,18
1240,18
1241,18
1242,18
1243,18
1244,18
1245,18
1246,18
1247,18
1248,18
1249,18
1250,18
1251,19
1252,19
1253,19
1254,19
1255,19
1256,19
1257,19
1258,19
1259,19
1260,19
1261,19
1262,19
1263,20
1264,19
1265,19
1266,20
1267,20
1268,18
1269,18
1270,18
1271,18
1272,18
1273,18
1274,18
1275,18
1276,18
1277,18
1278,18
1279,18
1280,19
1281,19
1282,18
1283,18
1284,18
1285,18
1286,18
1287,18
1288,18
1289,18
1290,18
1291,18
1292,18
1293,18
1294,18
1295,18
1296,18
1297,19
1298,18
1299,18
1300,18
1301,18
1302,19
1303,18
1304,18
1305,18
1306,19
1307,18
1308,18
1309,18
1310,18
1311,18
1312,18
1313,18
1314,18
1315,18
1316,18
1317,18
1318,18
1319,18
1320,18
1321,18
1322,18
1323,18
1324,18
1325,18
1326,18
1327,18
1328,18
1329,18
1330,18
1331,18
1332,18
1333,18
1334,19
1335,19
1336,19
1337,19
1338,18
1339,18
1340,18
1341,18
1342,18
1343,18
1344,18
1345,18
1346,18
1347,18
1348,18
1349,19
1350,18
1351,18
1352,18
1353,18
1354,19
1355,19
1356,19
1357,19
1358,19
1359,19
1360,19
1361,19
1362,19
1363,19
1364,20
1365,19
1366,19
1367,19
1368,19
1369,19
1370,19
1371,20
1372,19
1373,19
1374,19
1375,19
1376,19
1377,19
1378,19
1379,19
1380,19
1381,19
1382,19
1383,19
1384,19
1385,19
1386,19
1387,19
1388,20
1389,20
1390,19
1391,19
1392,19
1393,19
1394,19
1395,19
1396,19
1397,19
1398,19
1399,19
1400,19
1401,19
1402,19
1403,19
1404,19
1405,19
1406,19
1407,19
1408,19
1409,19
1410,19
1411,19
1412,19
1413,19
1414,19
1415,19
1416,19
1417,19
1418,19
1419,19
1420,19
1421,20
1422,19
1423,19
1424,19
1425,19
1426,20
1427,19
1428,19
1429,19
1430,19
1431,19
1432,19
1433,19
1434,19
1435,19
1436,19
1437,19
1438,19
1439,19
1440,19
1441,19
1442,19
1443,19
1444,19
1445,19
1446,19
1447,19
1448,19
1449,19
1450,19
1451,19
1452,20
1453,20
1454,19
1455,19
1456,19
1457,19
1458,19
1459,19
1460,19
1461,19
1462,19
1463,19
1464,19
1465,19
1466,19
1467,20
1468,20
1469,19
1470,19
1471,19
1472,19
1473,19
1474,19
1475,19
1476,19
1477,19
1478,19
1479,19
1480,19
1481,19
1482,20
1483,19
1484,19
1485,19
1486,19
1487,19
1488,19
1489,20
1490,19
1491,19
1492,19
1493,19
1494,19
1495,19
1496,19
1497,19
1498,19
1499,19
1500,19
1501,19
1502,19
1503,19
1504,19
1505,19
1506,19
1507,19
1508,19
1509,19
1510,19
1511,20
1512,21
1513,20
1514,20
1515,20
1516,20
1517,20
1518,20
1519,20
1520,20
1521,20
1522,21
1523,20
1524,20
1525,20
1526,20
1527,20
1528,20
1529,20
1530,21
1531,20
1532,20
1533,20
1534,21
1535,20
1536,20
1537,20
1538,21
1539,20
1540,20
1541,20
1542,21
1543,21
1544,21
1545,21
1546,21
1547,21
1548,21
1549,21
1550,21
1551,21
1552,21
1553,21
1554,21
1555,22
1556,21
1557,21
1558,21
1559,21
1560,21
1561,21
1562,21
1563,21
1564,21
1565,21
1566,21
1567,21
1568,21
1569,21
1570,21
1571,21
1572,21
1573,21
1574,21
1575,21
1576,21
1577,21
1578,21
1579,21
1580,21
1581,22
1582,21
1583,21
1584,22
1585,21
1586,21
1587,21
1588,22
1589,21
1590,21
1591,21
1592,21
1593,21
1594,21
1595,21
1596,21
1597,21
1598,21
1599,21
1600,21
1601,21
1602,21
1603,21
1604,21
1605,21
1606,21
1607,21
1608,21
1609,21
1610,21
1611,21
1612,21
1613,22
1614,21
1615,21
1616,21
1617,21
1618,21
1619,21
1620,21
1621,21
1622,21
1623,21
1624,21
1625,21
1626,21
1627,21
1628,21
1629,21
1630,21
1631,21
1632,21
1633,21
1634,21
1635,21
1636,21
1637,21
1638,21
1639,21
1640,21
1641,21
1642,21
1643,21
1644,21
1645,21
1646,22
1647,21
1648,22
1649,22
1650,22
1651,22
1652,23
1653,23
1654,22
1655,22
1656,22
1657,22
1658,22
1659,22
1660,21
1661,21
1662,21
1663,21
1664,21
1665,21
1666,21
1667,21
1668,21
1669,21
1670,21
1671,21
1672,21
1673,21
1674,21
1675,21
1676,21
1677,22
1678,21
1679,21
1680,21
1681,21
1682,21
1683,21
1684,21
1685,21
1686,21
1687,21
1688,21
1689,21
1690,21
1691,21
1692,21
1693,21
1694,21
1695,21
1696,21
1697,21
1698,21
1699,21
1700,21
1701,22
1702,22
1703,23
1704,22
1705,22
1706,22
1707,22
1708,21
1709,21
1710,21
1711,21
1712,21
1713,21
1714,22
1715,21
1716,21
1717,21
1718,21
1719,21
1720,22
1721,21
1722,21
1723,21
1724,21
1725,21
1726,21
1727,21
1728,22
1729,22
1730,22
1731,22
1732,22
1733,22
1734,23
1735,23
1736,23
1737,23
1738,23
1739,23
1740,22
1741,22
1742,22
1743,22
1744,22
1745,22
1746,23
1747,22
1748,22
1749,22
1750,22
1751,22
1752,22
1753,22
1754,22
1755,23
1756,22
1757,22
1758,22
1759,22
1760,22
1761,22
1762,22
1763,22
1764,22
1765,22
1766,22
1767,24
1768,23
1769,23
1770,23
1771,23
1772,23
1773,23
1774,23
1775,22
1776,22
1777,22
1778,22
1779,22
1780,22
1781,22
1782,22
1783,22
1784,22
1785,22
1786,22
1787,23
1788,23
1789,22
1790,22
1791,22
1792,22
1793,22
1794,22
1795,22
1796,22
1797,22
1798,23
1799,22
1800,22
1801,22
1802,22
1803,22
1804,22
1805,22
1806,22
1807,22
1808,22
1809,22
1810,23
1811,22
1812,22
1813,22
1814,22
1815,22
1816,22
1817,22
1818,22
1819,22
1820,22
1821,22
1822,22
1823,22
1824,22
1825,22
1826,22
1827,22
1828,22
1829,22
1830,22
1831,22
1832,22
1833,22
1834,22
1835,22
1836,22
1837,22
1838,22
1839,22
1840,22
1841,22
1842,22
1843,22
1844,22
1845,22
1846,22
1847,22
1848,22
1849,22
1850,22
1851,22
1852,22
1853,22
1854,22
1855,22
1856,22
1857,22
1858,22
1859,22
1860,22
1861,22
1862,22
1863,22
1864,22
1865,22
1866,22
1867,22
1868,22
1869,22
1870,22
1871,22
1872,22
1873,22
1874,22
1875,22
1876,22
1877,22
1878,22
1879,22
1880,23
1881,23
1882,23
1883,23
1884,23
1885,23
1886,23
1887,23
1888,23
1889,23
1890,23
1891,23
1892,23
1893,23
1894,23
1895,23
1896,23
1897,23
1898,23
1899,23
1900,23
1901,23
1902,23
1903,23
1904,23
1905,23
1906,23
1907,23
1908,23
1909,24
1910,23
1911,23
1912,24
1913,24
1914,23
1915,23
1916,23
1917,23
1918,23
1919,23
1920,23
1921,24
1922,23
1923,23
1924,23
1925,23
1926,23
1927,23
1928,23
1929,23
1930,23
1931,23
1932,23
1933,23
1934,23
1935,23
1936,23
1937,23
1938,23
1939,23
1940,23
1941,23
1942,23
1943,23
1944,23
1945,23
1946,24
1947,24
1948,24
1949,24
1950,23
1951,23
1952,23
1953,23
1954,23
1955,23
1956,23
1957,23
1958,23
1959,23
1960,23
1961,23
1962,23
1963,23
1964,23
1965,23
1966,24
1967,24
1968,25
1969,23
1970,24
1971,24
1972,24
1973,24
1974,24
1975,24
1976,24
1977,24
1978,24
1979,24
1980,24
1981,24
1982,24
1983,24
1984,24
1985,24
1986,24
1987,24
1988,24
1989,25
1990,25
1991,24
1992,24
1993,25
1994,25
1995,25
1996,25
1997,25
1998,25
1999,25
2000,25
2001,25
2002,25
2003,25
2004,25
2005,25
2006,25
2007,25
2008,25
2009,25
2010,25
2011,25
2012,25
2013,26
2014,26
2015,26
2016,26
2017,26
2018,26
2019,26
2020,26
2021,26
2022,26
2023,26
2024,26
2025,26
2026,26
2027,26
2028,26
2029,26
2030,25
2031,25
2032,25
2033,25
2034,25
2035,25
2036,25
2037,25
2038,25
2039,25
2040,25
2041,25
2042,25
2043,25
2044,25
2045,25
2046,26
2047,26
2048,25
2049,26
2050,25
2051,25
2052,25
2053,25
2054,25
2055,25
2056,26
2057,26
2058,26
2059,25
2060,27
2061,26
2062,26
2063,26
2064,26
2065,26
2066,26
2067,26
2068,26
2069,26
2070,26
2071,26
2072,26
2073,26
2074,26
2075,26
2076,26
2077,26
2078,27
2079,27
2080,27
2081,28
2082,27
2083,27
2084,27
2085,26
2086,26
2087,26
2088,26
2089,26
2090,26
2091,26
2092,26
2093,26
2094,26
2095,27
2096,28
2097,27
2098,26
2099,26
2100,26
2101,26
2102,26
2103,26
2104,26
2105,28
2106,28
2107,28
2108,27
2109,27
2110,28
2111,28
2112,28
2113,27
2114,27
2115,27
2116,27
2117,27
2118,27
2119,27
2120,27
2121,26
2122,26
2123,27
2124,27
2125,27
2126,27
2127,27
2128,27
2129,27
2130,27
2131,27
2132,27
2133,28
2134,27
2135,27
2136,27
2137,27
2138,27
2139,27
2140,27
2141,27
2142,27
2143,27
2144,27
2145,27
2146,27
2147,27
2148,27
2149,27
2150,27
2151,27
2152,27
2153,27
2154,27
2155,28
2156,27
2157,27
2158,27
2159,27
2160,27
2161,27
2162,27
2163,27
2164,27
2165,26
2166,26
2167,26
2168,26
2169,26
2170,26
2171,26
2172,26
2173,26
2174,26
2175,26
2176,26
2177,26
2178,26
2179,27
2180,27
2181,27
2182,26
2183,26
2184,27
2185,28
2186,29
2187,26
2188,26
2189,26
2190,27
2191,26
2192,26
2193,26
2194,26
2195,26
2196,26
2197,26
2198,26
2199,26
2200,26
2201,26
2202,26
2203,26
2204,26
2205,26
2206,26
2207,26
2208,26
2209,26
2210,26
2211,26
2212,26
2213,26
2214,26
2215,26
2216,26
2217,26
2218,26
2219,26
2220,26
2221,26
2222,26
2223,26
2224,26
2225,26
2226,26
2227,26
2228,26
2229,26
2230,26
2231,26
2232,26
2233,26
2234,26
2235,27
2236,27
2237,28
2238,28
2239,27
2240,27
2241,27
2242,27
2243,27
2244,27
2245,27
2246,27
2247,27
2248,27
2249,27
2250,28
2251,27
2252,27
2253,27
2254,27
2255,27
2256,27
2257,27
2258,27
2259,28
2260,28
2261,28
2262,28
2263,27
2264,27
2265,26
2266,26
2267,26
2268,26
2269,26
2270,26
2271,26
2272,26
2273,26
2274,26
2275,26
2276,26
2277,26
2278,26
2279,26
2280,27
2281,26
2282,26
2283,26
2284,26
2285,26
2286,26
2287,26
2288,26
2289,26
2290,26
2291,26
2292,26
2293,26
2294,26
2295,27
2296,26
2297,26
2298,26
2299,26
2300,26
2301,26
2302,26
2303,26
2304,26
2305,26
2306,26
2307,26
2308,26
2309,26
2310,26
2311,26
2312,26
2313,26
2314,26
2315,26
2316,26
2317,26
2318,26
2319,26
2320,26
2321,26
2322,26
2323,26
2324,26
2325,26
2326,26
2327,26
2328,26
2329,26
2330,26
2331,26
2332,26
2333,26
2334,26
2335,26
2336,26
2337,26
2338,26
2339,26
2340,26
2341,26
2342,26
2343,26
2344,26
2345,26
2346,26
2347,26
2348,26
2349,26
2350,26
2351,26
2352,26
2353,26
2354,27
2355,26
2356,26
2357,26
2358,26
2359,26
2360,26
2361,26
2362,26
2363,26
2364,26
2365,26
2366,26
2367,26
2368,26
2369,26
2370,26
2371,26
2372,27
2373,27
2374,27
2375,27
2376,27
2377,27
2378,27
2379,27
2380,28
2381,28
2382,28
2383,28
2384,28
2385,28
2386,28
2387,28
2388,28
2389,28
2390,28
2391,28
2392,28
2393,28
2394,28
2395,28
2396,28
2397,28
2398,28
2399,28
2400,28
2401,28
2402,28
2403,28
2404,28
2405,28
2406,29
2407,28
2408,28
2409,28
2410,28
2411,28
2412,29
2413,28
2414,28
2415,29
2416,28
2417,29
2418,29
2419,28
2420,28
2421,28
2422,28
2423,28
2424,28
2425,29
2426,28
2427,28
2428,28
2429,28
2430,28
2431,28
2432,29
2433,29
2434,29
2435,29
2436,29
2437,30
2438,30
2439,30
2440,29
2441,29
2442,29
2443,29
2444,29
2445,30
2446,29
2447,29
2448,29
2449,28
2450,28
2451,28
2452,28
2453,28
2454,28
2455,27
2456,27
2457,27
2458,27
2459,27
2460,27
2461,27
2462,27
2463,27
2464,27
2465,27
2466,28
2467,27
2468,27
2469,27
2470,27
2471,27
2472,27
2473,27
2474,27
2475,27
2476,27
2477,27
2478,27
2479,27
2480,27
2481,27
2482,27
2483,27
2484,27
2485,27
2486,27
2487,27
2488,27
2489,27
2490,27
2491,27
2492,27
2493,28
2494,27
2495,27
2496,27
2497,28
2498,27
2499,27
2500,27
2501,27
2502,27
2503,27
2504,27
2505,27
2506,28
2507,27
2508,27
2509,28
2510,28
2511,27
2512,27
2513,27
2514,27
2515,27
2516,27
2517,27
2518,27
2519,27
2520,27
2521,27
2522,27
2523,27
2524,27
2525,27
2526,27
2527,27
2528,27
2529,27
2530,27
2531,27
2532,27
2533,27
2534,27
2535,27
2536,28
2537,27
2538,27
2539,27
2540,27
2541,28
2542,28
2543,28
2544,28
2545,28
2546,28
2547,27
2548,27
2549,27
2550,27
2551,27
2552,27
2553,27
2554,27
2555,27
2556,27
2557,27
2558,27
2559,27
2560,27
2561,27
2562,27
2563,27
2564,27
2565,27
2566,27
2567,27
2568,29
2569,29
2570,29
2571,28
2572,29
2573,27
2574,28
2575,27
2576,27
2577,27
2578,27
2579,27
2580,27
2581,27
2582,27
2583,27
2584,28
2585,27
2586,27
2587,27
2588,27
2589,27
2590,27
2591,27
2592,28
2593,27
2594,28
2595,27
2596,27
2597,27
2598,27
2599,27
2600,27
2601,27
2602,27
2603,27
2604,27
2605,27
2606,27
2607,27
2608,27
2609,27
2610,28
2611,27
2612,27
2613,27
2614,27
2615,27
2616,27
2617,27
2618,27
2619,27
2620,27
2621,27
2622,27
2623,27
2624,27
2625,27
2626,27
2627,27
2628,27
2629,27
2630,27
2631,27
2632,27
2633,27
2634,27
2635,27
2636,27
2637,27
2638,27
2639,27
2640,27
2641,27
2642,27
2643,27
2644,27
2645,27
2646,27
2647,27
2648,28
2649,27
2650,27
2651,27
2652,28
2653,27
2654,27
2655,27
2656,27
2657,27
2658,27
2659,27
2660,27
2661,27
2662,27
2663,27
2664,27
2665,27
2666,27
2667,27
2668,27
2669,27
2670,27
2671,27
2672,28
2673,27
2674,27
2675,27
2676,27
2677,27
2678,27
2679,27
2680,27
2681,27
2682,27
2683,27
2684,27
2685,27
2686,27
2687,27
2688,27
2689,27
2690,27
2691,28
2692,28
2693,29
2694,29
2695,28
2696,28
2697,29
2698,29
2699,29
2700,29
2701,29
2702,29
2703,29
2704,29
2705,27
2706,27
2707,27
2708,27
2709,28
2710,28
2711,29
2712,27
2713,27
2714,27
2715,27
2716,27
2717,27
2718,27
2719,27
2720,27
2721,27
2722,28
2723,28
2724,28
2725,27
2726,27
2727,27
2728,27
2729,27
2730,27
2731,27
2732,27
2733,27
2734,27
2735,27
2736,27
2737,27
2738,27
2739,27
2740,27
2741,27
2742,27
2743,27
2744,27
2745,27
2746,27
2747,27
2748,27
2749,27
2750,27
2751,27
2752,28
2753,27
2754,27
2755,27
2756,27
2757,27
2758,27
2759,27
2760,28
2761,28
2762,27
2763,27
2764,27
2765,27
2766,27
2767,27
2768,28
2769,27
2770,27
2771,27
2772,27
2773,27
2774,27
2775,27
2776,27
2777,27
2778,27
2779,27
2780,27
2781,27
2782,27
2783,27
2784,27
2785,27
2786,27
2787,27
2788,27
2789,27
2790,27
2791,27
2792,27
2793,27
2794,27
2795,28
2796,27
2797,27
2798,27
2799,27
2800,27
2801,27
2802,27
2803,28
2804,27
2805,27
2806,27
2807,27
2808,27
2809,27
2810,27
2811,27
2812,27
2813,27
2814,27
2815,27
2816,27
2817,27
2818,27
2819,27
2820,27
2821,27
2822,27
2823,27
2824,27
2825,27
2826,27
2827,27
2828,27
2829,27
2830,27
2831,27
2832,27
2833,27
2834,27
2835,27
2836,27
2837,27
2838,27
2839,27
2840,27
2841,28
2842,28
2843,27
2844,27
2845,27
2846,28
2847,28
2848,28
2849,27
2850,27
2851,27
2852,27
2853,27
2854,27
2855,27
2856,27
2857,27
2858,27
2859,27
2860,27
2861,27
2862,27
2863,27
2864,27
2865,27
2866,27
2867,27
2868,27
2869,27
2870,27
2871,27
2872,28
2873,28
2874,28
2875,28
2876,28
2877,28
2878,28
2879,28
2880,28
2881,28
2882,28
2883,28
2884,28
2885,28
2886,28
2887,28
2888,28
2889,28
2890,28
2891,29
2892,28
2893,28
2894,28
2895,28
2896,29
2897,29
2898,29
2899,29
2900,29
2901,29
2902,29
2903,29
2904,29
2905,30
2906,30
2907,29
2908,29
2909,29
2910,29
2911,29
2912,29
2913,29
2914,29
2915,28
2916,28
2917,27
2918,27
2919,27
2920,27
2921,27
2922,27
2923,27
2924,28
2925,28
2926,28
2927,28
2928,28
2929,28
2930,28
2931,28
2932,28
2933,28
2934,28
2935,28
2936,28
2937,28
2938,28
2939,28
2940,28
2941,28
2942,28
2943,28
2944,28
2945,28
2946,28
2947,29
2948,30
2949,29
2950,29
2951,29
2952,29
2953,29
2954,30
2955,30
2956,29
2957,30
2958,29
2959,28
2960,28
2961,28
2962,28
2963,28
2964,28
2965,28
2966,28
2967,28
2968,28
2969,28
2970,28
2971,28
2972,28
2973,28
2974,28
2975,28
2976,28
2977,28
2978,28
2979,28
2980,28
2981,29
2982,29
2983,29
2984,28
2985,28
2986,28
2987,28
2988,29
2989,28
2990,28
2991,28
2992,28
2993,28
2994,28
2995,28
2996,28
2997,28
2998,28
2999,28
3000,28
3001,28
3002,28
3003,28
3004,28
3005,28
3006,28
3007,28
3008,28
3009,28
3010,28
3011,29
3012,29
3013,29
3014,30
3015,29
3016,29
3017,30
3018,29
3019,29
3020,29
3021,29
3022,28
3023,28
3024,28
3025,28
3026,28
3027,28
3028,28
3029,28
3030,29
3031,29
3032,29
3033,28
3034,29
3035,29
3036,29
3037,29
3038,29
3039,29
3040,29
3041,29
3042,29
3043,29
3044,29
3045,29
3046,28
3047,28
3048,28
3049,28
3050,28
3051,28
3052,28
3053,28
3054,28
3055,28
3056,28
3057,28
3058,28
3059,28
3060,28
3061,28
3062,28
3063,28
3064,28
3065,28
3066,28
3067,28
3068,28
3069,28
3070,28
3071,28
3072,28
3073,28
3074,28
3075,28
3076,28
3077,28
3078,28
3079,28
3080,29
3081,29
3082,28
3083,28
3084,28
3085,28
3086,28
3087,28
3088,28
3089,28
3090,28
3091,28
3092,28
3093,28
3094,28
3095,28
3096,29
3097,29
3098,29
3099,28
3100,28
3101,28
3102,28
3103,28
3104,28
3105,28
3106,29
3107,29
3108,29
3109,29
3110,29
3111,29
3112,29
3113,29
3114,29
3115,30
3116,29
3117,29
3118,29
3119,29
3120,29
3121,29
3122,28
3123,28
3124,28
3125,28
3126,28
3127,28
3128,28
3129,28
3130,28
3131,28
3132,28
3133,28
3134,28
3135,28
3136,28
3137,28
3138,28
3139,28
3140,28
3141,28
3142,28
3143,28
3144,28
3145,28
3146,28
3147,28
3148,28
3149,28
3150,28
3151,28
3152,28
3153,28
3154,28
3155,28
3156,28
3157,28
3158,28
3159,28
3160,28
3161,28
3162,28
3163,28
3164,28
3165,28
3166,28
3167,28
3168,28
3169,28
3170,28
3171,28
3172,28
3173,28
3174,28
3175,28
3176,28
3177,28
3178,28
3179,28
3180,28
3181,28
3182,28
3183,28
3184,28
3185,28
3186,28
3187,28
3188,28
3189,28
3190,28
3191,28
3192,28
3193,28
3194,28
3195,29
3196,29
3197,29
3198,29
3199,29
3200,29
3201,29
3202,29
3203,29
3204,29
3205,29
3206,29
3207,29
3208,29
3209,28
3210,28
3211,28
3212,28
3213,28
3214,28
3215,28
3216,28
3217,28
3218,28
3219,28
3220,28
3221,28
3222,28
3223,28
3224,28
3225,28
3226,28
3227,28
3228,28
3229,28
3230,28
3231,28
3232,28
3233,28
3234,28
3235,28
3236,28
3237,28
3238,28
3239,28
3240,28
3241,28
3242,28
3243,28
3244,28
3245,28
3246,28
3247,28
3248,28
3249,28
3250,28
3251,28
3252,28
3253,28
3254,28
3255,28
3256,29
3257,29
3258,29
3259,28
3260,28
3261,28
3262,28
3263,28
3264,28
3265,28
3266,28
3267,28
3268,28
3269,28
3270,28
3271,28
3272,29
3273,28
3274,28
3275,28
3276,28
3277,28
3278,28
3279,28
3280,28
3281,28
3282,28
3283,28
3284,28
3285,28
3286,28
3287,28
3288,28
3289,28
3290,28
3291,28
3292,28
3293,28
3294,28
3295,28
3296,28
3297,28
3298,28
3299,28
3300,28
3301,28
3302,28
3303,28
3304,28
3305,28
3306,28
3307,28
3308,28
3309,28
3310,28
3311,28
3312,28
3313,28
3314,28
3315,28
3316,28
3317,28
3318,28
3319,28
3320,28
3321,28
3322,28
3323,28
3324,28
3325,28
3326,28
3327,28
3328,28
3329,28
3330,28
3331,28
3332,28
3333,28
3334,28
3335,28
3336,28
3337,28
3338,28
3339,28
3340,28
3341,28
3342,28
3343,28
3344,28
3345,28
3346,28
3347,28
3348,28
3349,28
3350,28
3351,28
3352,29
3353,30
3354,31
3355,30
3356,30
3357,30
3358,30
3359,30
3360,30
3361,30
3362,30
3363,30
3364,30
3365,30
3366,30
3367,30
3368,30
3369,30
3370,30
3371,30
3372,30
3373,30
3374,30
3375,30
3376,30
3377,31
3378,31
3379,31
3380,30
3381,30
3382,30
3383,30
3384,31
3385,30
3386,30
3387,30
3388,30
3389,30
3390,30
3391,30
3392,30
3393,30
3394,30
3395,30
3396,30
3397,30
3398,30
3399,30
3400,30
3401,30
3402,30
3403,30
3404,30
3405,30
3406,30
3407,30
3408,30
3409,30
3410,30
3411,30
3412,30
3413,30
3414,30
3415,30
3416,30
3417,31
3418,30
3419,31
3420,30
3421,31
3422,30
3423,30
3424,30
3425,30
3426,30
3427,30
3428,30
3429,30
3430,30
3431,30
3432,30
3433,30
3434,30
3435,30
3436,30
3437,30
3438,30
3439,30
3440,30
3441,31
3442,31
3443,31
3444,31
3445,31
3446,31
3447,31
3448,31
3449,31
3450,31
3451,31
3452,31
3453,31
3454,31
3455,31
3456,31
3457,31
3458,31
3459,31
3460,31
3461,31
3462,31
3463,31
3464,31
3465,31
3466,31
3467,32
3468,32
3469,32
3470,32
3471,32
3472,32
3473,32
3474,32
3475,32
3476,33
3477,32
3478,32
3479,32
3480,32
3481,32
3482,32
3483,32
3484,32
3485,32
3486,32
3487,32
3488,32
3489,32
3490,32
3491,32
3492,32
3493,32
3494,32
3495,32
3496,32
3497,32
3498,32
3499,31
3500,31
3501,31
3502,31
3503,31
3504,31
3505,31
3506,31
3507,31
3508,31
3509,31
3510,31
3511,31
3512,31
3513,31
3514,31
3515,31
3516,31
3517,31
3518,31
3519,31
3520,31
3521,31
3522,31
3523,31
3524,31
3525,31
3526,31
3527,31
3528,31
3529,31
3530,32
3531,31
3532,31
3533,31
3534,31
3535,31
3536,31
3537,31
3538,31
3539,31
3540,31
3541,31
3542,32
3543,31
3544,31
3545,31
3546,31
3547,31
3548,31
3549,32
3550,32
3551,32
3552,32
3553,32
3554,32
3555,32
3556,32
3557,32
3558,32
3559,32
3560,32
3561,32
3562,32
3563,32
3564,32
3565,32
3566,32
3567,32
3568,32
3569,32
3570,32
3571,32
3572,32
3573,32
3574,32
3575,32
3576,32
3577,32
3578,32
3579,32
3580,32
3581,32
3582,32
3583,32
3584,32
3585,32
3586,32
3587,32
3588,32
3589,32
3590,32
3591,32
3592,32
3593,32
3594,32
3595,32
3596,32
3597,32
3598,32
3599,32
3600,32
3601,32
3602,32
3603,32
3604,32
3605,32
3606,32
3607,32
3608,32
3609,32
3610,32
3611,32
3612,32
3613,32
3614,32
3615,32
3616,32
3617,32
3618,32
3619,32
3620,32
3621,32
3622,32
3623,32
3624,32
3625,32
3626,32
3627,32
3628,32
3629,32
3630,32
3631,32
3632,32
3633,32
3634,32
3635,31
3636,31
3637,31
3638,31
3639,31
3640,31
3641,31
3642,31
3643,31
3644,31
3645,31
3646,31
3647,31
3648,31
3649,31
3650,31
3651,31
3652,31
3653,31
3654,31
3655,31
3656,31
3657,31
3658,31
3659,31
3660,31
3661,31
3662,32
3663,31
3664,31
3665,32
3666,31
3667,31
3668,31
3669,31
3670,31
3671,31
3672,31
3673,31
3674,31
3675,31
3676,31
3677,31
3678,31
3679,31
3680,31
3681,31
3682,31
3683,31
3684,31
3685,32
3686,32
3687,32
3688,32
3689,31
3690,31
3691,31
3692,31
3693,31
3694,31
3695,31
3696,32
3697,31
3698,31
3699,31
3700,31
3701,31
3702,31
3703,31
3704,31
3705,31
3706,31
3707,32
3708,32
3709,32
3710,32
3711,32
3712,33
3713,33
3714,33
3715,33
3716,32
3717,32
3718,32
3719,32
3720,32
3721,32
3722,32
3723,32
3724,32
3725,31
3726,31
3727,31
3728,31
3729,31
3730,31
3731,31
3732,31
3733,31
3734,31
3735,31
3736,31
3737,31
3738,32
3739,32
3740,31
3741,31
3742,31
3743,31
3744,31
3745,31
3746,31
3747,31
3748,31
3749,31
3750,31
3751,31
3752,31
3753,31
3754,31
3755,31
3756,31
3757,31
3758,31
3759,31
3760,31
3761,31
3762,31
3763,31
3764,31
3765,31
3766,31
3767,31
3768,31
3769,31
3770,31
3771,31
3772,31
3773,31
3774,31
3775,32
3776,32
3777,32
3778,32
3779,32
3780,31
3781,31
3782,31
3783,31
3784,31
3785,31
3786,32
3787,31
3788,31
3789,31
3790,31
3791,31
3792,31
3793,31
3794,31
3795,31
3796,32
3797,32
3798,32
3799,32
3800,32
3801,31
3802,31
3803,31
3804,31
3805,31
3806,31
3807,31
3808,31
3809,31
3810,31
3811,31
3812,31
3813,31
3814,31
3815,32
3816,32
3817,33
3818,31
3819,31
3820,31
3821,31
3822,31
3823,31
3824,31
3825,31
3826,31
3827,31
3828,31
3829,31
3830,31
3831,31
3832,31
3833,31
3834,31
3835,32
3836,32
3837,32
3838,31
3839,31
3840,31
3841,31
3842,31
3843,31
3844,31
3845,31
3846,31
3847,31
3848,31
3849,31
3850,31
3851,31
3852,31
3853,31
3854,31
3855,31
3856,31
3857,31
3858,31
3859,31
3860,31
3861,31
3862,31
3863,31
3864,31
3865,31
3866,31
3867,31
3868,32
3869,32
3870,32
3871,33
3872,33
3873,32
3874,31
3875,31
3876,31
3877,31
3878,31
3879,31
3880,31
3881,31
3882,31
3883,31
3884,31
3885,31
3886,31
3887,31
3888,31
3889,31
3890,31
3891,31
3892,31
3893,31
3894,31
3895,31
3896,31
3897,31
3898,31
3899,31
3900,31
3901,31
3902,31
3903,31
3904,31
3905,31
3906,31
3907,32
3908,32
3909,32
3910,31
3911,31
3912,31
3913,31
3914,31
3915,31
3916,31
3917,31
3918,31
3919,31
3920,31
3921,31
3922,31
3923,31
3924,31
3925,31
3926,31
3927,31
3928,31
3929,31
3930,32
3931,32
3932,32
3933,32
3934,32
3935,32
3936,32
3937,32
3938,33
3939,33
3940,33
3941,33
3942,32
3943,32
3944,32
3945,32
3946,32
3947,32
3948,32
3949,32
3950,32
3951,32
3952,32
3953,32
3954,32
3955,32
3956,32
3957,32
3958,32
3959,32
3960,32
3961,32
3962,32
3963,32
3964,32
3965,32
3966,32
3967,32
3968,32
3969,32
3970,32
3971,31
3972,31
3973,31
3974,31
3975,31
3976,31
3977,31
3978,31
3979,32
3980,32
3981,32
3982,31
3983,31
3984,31
3985,31
3986,31
3987,31
3988,31
3989,31
3990,31
3991,31
3992,31
3993,31
3994,31
3995,31
3996,31
3997,31
3998,31
3999,31
4000,31
4001,31
4002,31
4003,31
4004,31
4005,31
4006,31
4007,31
4008,31
4009,31
4010,31
4011,31
4012,31
4013,31
4014,31
4015,31
4016,31
4017,31
4018,31
4019,31
4020,31
4021,31
4022,32
4023,32
4024,31
4025,31
4026,31
4027,31
4028,31
4029,31
4030,31
4031,31
4032,31
4033,31
4034,31
4035,31
4036,31
4037,31
4038,31
4039,31
4040,31
4041,31
4042,31
4043,31
4044,31
4045,31
4046,31
4047,31
4048,31
4049,31
4050,31
4051,31
4052,31
4053,32
4054,31
4055,31
4056,31
4057,31
4058,31
4059,31
4060,31
4061,31
4062,31
4063,31
4064,31
4065,31
4066,31
4067,31
4068,31
4069,31
4070,31
4071,31
4072,31
4073,31
4074,31
4075,31
4076,31
4077,31
4078,31
4079,31
4080,31
4081,32
4082,32
4083,32
4084,32
4085,31
4086,31
4087,31
4088,31
4089,31
4090,31
4091,31
4092,31
4093,31
4094,31
4095,31
4096,31
4097,31
4098,31
4099,31
4100,31
4101,31
4102,31
4103,31
4104,31
4105,32
4106,31
4107,31
4108,31
4109,31
4110,32
4111,32
4112,31
4113,31
4114,31
4115,31
4116,31
4117,31
4118,31
4119,31
4120,31
4121,32
4122,32
4123,32
4124,32
4125,32
4126,32
4127,32
4128,33
4129,32
4130,32
4131,31
4132,31
4133,31
4134,31
4135,31
4136,31
4137,31
4138,31
4139,31
4140,31
4141,31
4142,31
4143,31
4144,31
4145,31
4146,31
4147,31
4148,31
4149,31
4150,31
4151,31
4152,31
4153,31
4154,31
4155,31
4156,31
4157,31
4158,31
4159,32
4160,31
4161,32
4162,32
4163,32
4164,32
4165,32
4166,33
4167,33
4168,33
4169,33
4170,35
4171,34
4172,34
4173,34
4174,33
4175,32
4176,32
4177,32
4178,32
4179,32
4180,32
4181,33
4182,32
4183,32
4184,32
4185,32
4186,32
4187,32
4188,32
4189,32
4190,32
4191,32
4192,32
4193,32
4194,32
4195,32
4196,33
4197,33
4198,33
4199,33
4200,32
4201,32
4202,32
4203,32
4204,32
4205,32
4206,32
4207,33
4208,33
4209,33
4210,32
4211,32
4212,32
4213,32
4214,32
4215,32
4216,32
4217,32
4218,32
4219,32
4220,32
4221,32
4222,32
4223,32
4224,32
4225,32
4226,32
4227,32
4228,32
4229,32
4230,32
4231,32
4232,33
4233,33
4234,32
4235,32
4236,32
4237,32
4238,32
4239,32
4240,32
4241,32
4242,32
4243,32
4244,32
4245,32
4246,32
4247,32
4248,32
4249,32
4250,32
4251,32
4252,32
4253,32
4254,32
4255,32
4256,32
4257,32
4258,33
4259,33
4260,33
4261,33
4262,33
4263,33
4264,33
4265,33
4266,33
4267,34
4268,33
4269,33
4270,33
4271,33
4272,33
4273,33
4274,33
4275,33
4276,33
4277,33
4278,33
4279,33
4280,33
4281,33
4282,33
4283,33
4284,32
4285,32
4286,32
4287,32
4288,32
4289,32
4290,32
4291,32
4292,32
4293,32
4294,32
4295,32
4296,32
4297,32
4298,32
4299,32
4300,32
4301,32
4302,32
4303,32
4304,32
4305,32
4306,33
4307,32
4308,32
4309,32
4310,32
4311,32
4312,32
4313,32
4314,33
4315,32
4316,33
4317,33
4318,32
4319,32
4320,32
4321,32
4322,33
4323,32
4324,32
4325,32
4326,32
4327,33
4328,33
4329,33
4330,33
4331,32
4332,32
4333,32
4334,32
4335,32
4336,32
4337,32
4338,32
4339,32
4340,32
4341,33
4342,32
4343,32
4344,32
4345,32
4346,32
4347,32
4348,32
4349,32
4350,32
4351,32
4352,32
4353,32
4354,32
4355,32
4356,32
4357,32
4358,32
4359,33
4360,33
4361,33
4362,33
4363,32
4364,32
4365,32
4366,32
4367,32
4368,32
4369,33
4370,32
4371,32
4372,32
4373,32
4374,32
4375,32
4376,32
4377,32
4378,32
4379,32
4380,32
4381,32
4382,32
4383,32
4384,32
4385,32
4386,32
4387,32
4388,32
4389,32
4390,32
4391,32
4392,32
4393,32
4394,32
4395,32
4396,32
4397,32
4398,32
4399,32
4400,32
4401,32
4402,32
4403,32
4404,32
4405,32
4406,32
4407,32
4408,33
4409,33
4410,33
4411,32
4412,32
4413,32
4414,32
4415,32
4416,32
4417,32
4418,32
4419,32
4420,32
4421,32
4422,32
4423,32
4424,32
4425,32
4426,32
4427,32
4428,32
4429,32
4430,32
4431,32
4432,32
4433,32
4434,32
4435,32
4436,32
4437,32
4438,32
4439,32
4440,32
4441,32
4442,32
4443,32
4444,32
4445,32
4446,32
4447,32
4448,32
4449,32
4450,32
4451,32
4452,32
4453,32
4454,32
4455,32
4456,32
4457,32
4458,32
4459,32
4460,32
4461,32
4462,32
4463,32
4464,33
4465,33
4466,33
4467,33
4468,33
4469,33
4470,32
4471,33
4472,33
4473,32
4474,32
4475,32
4476,32
4477,32
4478,32
4479,32
4480,32
4481,32
4482,32
4483,33
4484,32
4485,32
4486,32
4487,33
4488,33
4489,34
4490,34
4491,34
4492,34
4493,34
4494,34
4495,34
4496,34
4497,33
4498,33
4499,33
4500,33
4501,33
4502,33
4503,33
4504,33
4505,33
4506,33
4507,33
4508,33
4509,34
4510,33
4511,33
4512,33
4513,34
4514,34
4515,35
4516,35
4517,35
4518,35
4519,35
4520,35
4521,35
4522,34
4523,34
4524,34
4525,34
4526,34
4527,34
4528,34
4529,34
4530,34
4531,34
4532,34
4533,34
4534,34
4535,34
4536,34
4537,33
4538,33
4539,33
4540,33
4541,34
4542,34
4543,33
4544,33
4545,33
4546,33
4547,33
4548,33
4549,33
4550,34
4551,34
4552,33
4553,33
4554,33
4555,33
4556,33
4557,33
4558,33
4559,33
4560,33
4561,33
4562,33
4563,33
4564,33
4565,33
4566,33
4567,33
4568,33
4569,33
4570,34
4571,34
4572,34
4573,34
4574,34
4575,35
4576,34
4577,34
4578,34
4579,34
4580,33
4581,33
4582,33
4583,33
4584,33
4585,33
4586,33
4587,33
4588,33
4589,33
4590,33
4591,33
4592,33
4593,33
4594,33
4595,33
4596,33
4597,33
4598,33
4599,33
4600,33
4601,33
4602,33
4603,33
4604,33
4605,33
4606,33
4607,33
4608,33
4609,33
4610,33
4611,33
4612,33
4613,33
4614,33
4615,33
4616,33
4617,33
4618,33
4619,33
4620,33
4621,33
4622,33
4623,33
4624,33
4625,33
4626,33
4627,33
4628,33
4629,33
4630,33
4631,33
4632,33
4633,33
4634,33
4635,33
4636,33
4637,33
4638,33
4639,33
4640,33
4641,33
4642,33
4643,33
4644,33
4645,33
4646,33
4647,33
4648,33
4649,33
4650,33
4651,33
4652,33
4653,33
4654,33
4655,33
4656,33
4657,33
4658,33
4659,33
4660,33
4661,33
4662,33
4663,33
4664,34
4665,33
4666,33
4667,33
4668,33
4669,33
4670,33
4671,33
4672,33
4673,33
4674,33
4675,33
4676,34
4677,34
4678,33
4679,33
4680,33
4681,33
4682,33
4683,33
4684,33
4685,33
4686,33
4687,33
4688,33
4689,33
4690,33
4691,34
4692,34
4693,34
4694,34
4695,35
4696,35
4697,35
4698,35
4699,34
4700,34
4701,34
4702,34
4703,34
4704,34
4705,34
4706,34
4707,34
4708,34
4709,34
4710,34
4711,34
4712,34
4713,34
4714,34
4715,34
4716,34
4717,34
4718,34
4719,34
4720,34
4721,34
4722,34
4723,34
4724,34
4725,34
4726,34
4727,34
4728,34
4729,34
4730,34
4731,34
4732,34
4733,34
4734,34
4735,34
4736,34
4737,34
4738,34
4739,34
4740,34
4741,34
4742,34
4743,34
4744,34
4745,34
4746,34
4747,34
4748,34
4749,34
4750,34
4751,34
4752,34
4753,34
4754,34
4755,33
4756,33
4757,33
4758,33
4759,33
4760,33
4761,33
4762,33
4763,33
4764,33
4765,33
4766,33
4767,33
4768,33
4769,33
4770,33
4771,33
4772,33
4773,33
4774,33
4775,34
4776,33
4777,34
4778,34
4779,34
4780,34
4781,34
4782,34
4783,34
4784,34
4785,34
4786,34
4787,34
4788,33
4789,34
4790,33
4791,33
4792,33
4793,33
4794,33
4795,33
4796,33
4797,33
4798,33
4799,33
4800,34
4801,34
4802,33
4803,34
4804,34
4805,34
4806,33
4807,33
4808,33
4809,33
4810,33
4811,33
4812,34
4813,34
4814,33
4815,33
4816,33
4817,33
4818,33
4819,33
4820,33
4821,34
4822,33
4823,33
4824,33
4825,33
4826,33
4827,33
4828,33
4829,33
4830,33
4831,33
4832,33
4833,33
4834,33
4835,33
4836,33
4837,33
4838,33
4839,33
4840,33
4841,33
4842,33
4843,33
4844,34
4845,34
4846,34
4847,34
4848,34
4849,34
4850,35
4851,34
4852,34
4853,34
4854,34
4855,34
4856,34
4857,34
4858,34
4859,34
4860,34
4861,34
4862,34
4863,34
4864,34
4865,34
4866,35
4867,34
4868,34
4869,34
4870,34
4871,34
4872,34
4873,34
4874,34
4875,34
4876,34
4877,34
4878,34
4879,34
4880,34
4881,34
4882,34
4883,34
4884,34
4885,34
4886,34
4887,34
4888,34
4889,34
4890,34
4891,35
4892,35
4893,35
4894,34
4895,34
4896,34
4897,34
4898,34
4899,34
4900,34
4901,34
4902,34
4903,34
4904,34
4905,34
4906,34
4907,34
4908,34
4909,34
4910,34
4911,34
4912,34
4913,34
4914,35
4915,35
4916,34
4917,34
4918,35
4919,35
4920,35
4921,35
4922,35
4923,34
4924,34
4925,35
4926,34
4927,34
4928,35
4929,36
4930,35
4931,35
4932,35
4933,35
4934,34
4935,34
4936,34
4937,34
4938,34
4939,34
4940,34
4941,34
4942,34
4943,34
4944,34
4945,34
4946,34
4947,34
4948,34
4949,34
4950,35
4951,34
4952,34
4953,35
4954,34
4955,34
4956,34
4957,34
4958,35
4959,35
4960,35
4961,35
4962,35
4963,35
4964,35
4965,35
4966,35
4967,35
4968,34
4969,34
4970,34
4971,34
4972,34
4973,34
4974,34
4975,34
4976,34
4977,34
4978,34
4979,34
4980,34
4981,34
4982,34
4983,34
4984,34
4985,35
4986,34
4987,34
4988,34
4989,34
4990,34
4991,34
4992,34
4993,34
4994,34
4995,35
4996,35
4997,35
4998,35
4999,35
5000,35
5001,35
5002,35
5003,35
5004,35
5005,34
5006,34
5007,34
5008,34
5009,34
5010,34
5011,34
5012,34
5013,34
5014,34
5015,34
5016,34
5017,34
5018,34
5019,34
5020,34
5021,34
5022,34
5023,34
5024,34
5025,34
5026,34
5027,34
5028,34
5029,34
5030,34
5031,34
5032,34
5033,34
5034,34
5035,34
5036,34
5037,34
5038,34
5039,34
5040,34
5041,35
5042,35
5043,34
5044,34
5045,34
5046,34
5047,34
5048,34
5049,34
5050,34
5051,34
5052,34
5053,35
5054,35
5055,35
5056,35
5057,34
5058,35
5059,35
5060,35
5061,35
5062,35
5063,35
5064,35
5065,35
5066,35
5067,35
5068,35
5069,35
5070,35
5071,35
5072,35
5073,35
5074,36
5075,35
5076,35
5077,35
5078,35
5079,35
5080,35
5081,34
5082,34
5083,34
5084,34
5085,34
5086,34
5087,34
5088,34
5089,34
5090,34
5091,34
5092,34
5093,34
5094,34
5095,34
5096,34
5097,34
5098,34
5099,34
5100,34
5101,34
5102,34
5103,34
5104,34
5105,34
5106,34
5107,34
5108,35
5109,35
5110,35
5111,35
5112,35
5113,34
5114,34
5115,34
5116,34
5117,34
5118,34
5119,34
5120,34
5121,34
5122,34
5123,35
5124,34
5125,34
5126,34
5127,34
5128,34
5129,34
5130,34
5131,34
5132,34
5133,34
5134,34
5135,34
5136,34
5137,34
5138,34
5139,34
5140,34
5141,34
5142,34
5143,34
5144,35
5145,35
5146,35
5147,35
5148,35
5149,35
5150,36
5151,37
5152,37
5153,37
5154,37
5155,37
5156,37
5157,37
5158,36
5159,36
5160,37
5161,36
5162,36
5163,36
5164,35
5165,35
5166,35
5167,35
5168,35
5169,35
5170,35
5171,35
5172,35
5173,35
5174,35
5175,35
5176,35
5177,35
5178,35
5179,35
5180,35
5181,35
5182,35
5183,35
5184,35
5185,35
5186,35
5187,35
5188,35
5189,35
5190,35
5191,35
5192,35
5193,35
5194,35
5195,35
5196,36
5197,35
5198,35
5199,35
5200,35
5201,35
5202,35
5203,36
5204,36
5205,36
5206,35
5207,35
5208,35
5209,35
5210,35
5211,36
5212,36
5213,36
5214,36
5215,36
5216,36
5217,36
5218,35
5219,35
5220,35
5221,36
5222,37
5223,36
5224,36
5225,36
5226,36
5227,35
5228,35
5229,36
5230,36
5231,36
5232,36
5233,36
5234,36
5235,36
5236,36
5237,36
5238,36
5239,36
5240,36
5241,36
5242,37
5243,37
5244,37
5245,37
5246,37
5247,37
5248,37
5249,37
5250,37
5251,37
5252,37
5253,37
5254,37
5255,37
5256,37
5257,37
5258,37
5259,37
5260,37
5261,37
5262,37
5263,37
5264,37
5265,37
5266,37
5267,37
5268,37
5269,37
5270,37
5271,37
5272,37
5273,37
5274,37
5275,37
5276,37
5277,37
5278,37
5279,37
5280,37
5281,37
5282,37
5283,37
5284,37
5285,37
5286,37
5287,37
5288,37
5289,37
5290,37
5291,37
5292,37
5293,37
5294,37
5295,37
5296,37
5297,37
5298,37
5299,37
5300,37
5301,37
5302,37
5303,37
5304,37
5305,37
5306,37
5307,37
5308,37
5309,37
5310,37
5311,37
5312,37
5313,36
5314,35
5315,35
5316,35
5317,35
5318,35
5319,35
5320,35
5321,35
5322,35
5323,35
5324,36
5325,36
5326,35
5327,35
5328,35
5329,35
5330,35
5331,35
5332,35
5333,35
5334,35
5335,35
5336,35
5337,35
5338,35
5339,35
5340,36
5341,36
5342,36
5343,36
5344,35
5345,35
5346,35
5347,35
5348,35
5349,35
5350,35
5351,35
5352,35
5353,35
5354,36
5355,35
5356,35
5357,35
5358,35
5359,35
5360,36
5361,36
5362,36
5363,36
5364,36
5365,36
5366,36
5367,36
5368,36
5369,36
5370,36
5371,36
5372,36
5373,37
5374,36
5375,36
5376,35
5377,35
5378,35
5379,35
5380,36
5381,36
5382,35
5383,35
5384,35
5385,35
5386,35
5387,35
5388,35
5389,35
5390,35
5391,35
5392,35
5393,35
5394,35
5395,35
5396,35
5397,36
5398,35
5399,35
5400,35
5401,35
5402,35
5403,35
5404,35
5405,35
5406,35
5407,35
5408,35
5409,35
5410,35
5411,35
5412,35
5413,35
5414,35
5415,35
5416,35
5417,35
5418,35
5419,35
5420,35
5421,35
5422,35
5423,35
5424,35
5425,35
5426,35
5427,35
5428,35
5429,35
5430,35
5431,35
5432,35
5433,37
5434,38
5435,37
5436,37
5437,37
5438,37
5439,37
5440,37
5441,37
5442,37
5443,36
5444,36
5445,36
5446,36
5447,36
5448,36
5449,36
5450,36
5451,36
5452,37
5453,37
5454,36
5455,36
5456,36
5457,37
5458,37
5459,37
5460,37
5461,37
5462,37
5463,37
5464,37
5465,37
5466,37
5467,37
5468,37
5469,37
5470,37
5471,37
5472,37
5473,37
5474,37
5475,37
5476,37
5477,37
5478,37
5479,37
5480,37
5481,37
5482,37
5483,37
5484,37
5485,37
5486,37
5487,37
5488,38
5489,38
5490,38
5491,38
5492,38
5493,38
5494,39
5495,39
5496,38
5497,38
5498,38
5499,37
5500,38
5501,38
5502,38
5503,38
5504,38
5505,38
5506,38
5507,38
5508,38
5509,38
5510,38
5511,38
5512,38
5513,38
5514,38
5515,38
5516,38
5517,38
5518,37
5519,38
5520,38
5521,38
5522,38
5523,38
5524,39
5525,38
5526,38
5527,38
5528,39
5529,40
5530,40
5531,40
5532,40
5533,40
5534,39
5535,39
5536,39
5537,38
5538,38
5539,38
5540,38
5541,38
5542,39
5543,38
5544,38
5545,38
5546,38
5547,38
5548,38
5549,38
5550,38
5551,38
5552,38
5553,38
5554,38
5555,38
5556,38
5557,38
5558,38
5559,38
5560,38
5561,38
5562,38
5563,38
5564,39
5565,40
5566,39
5567,38
5568,38
5569,38
5570,38
5571,38
5572,38
5573,39
5574,38
5575,38
5576,38
5577,38
5578,38
5579,38
5580,38
5581,38
5582,38
5583,38
5584,38
5585,38
5586,38
5587,38
5588,38
5589,38
5590,38
5591,39
5592,39
5593,39
5594,38
5595,38
5596,38
5597,38
5598,38
5599,38
5600,38
5601,38
5602,38
5603,38
5604,38
5605,38
5606,38
5607,38
5608,39
5609,38
5610,38
5611,38
5612,38
5613,38
5614,38
5615,38
5616,38
5617,38
5618,39
5619,39
5620,39
5621,39
5622,39
5623,39
5624,39
5625,39
5626,39
5627,39
5628,39
5629,39
5630,39
5631,39
5632,39
5633,39
5634,39
5635,39
5636,39
5637,39
5638,39
5639,39
5640,39
5641,39
5642,40
5643,39
5644,39
5645,39
5646,40
5647,40
5648,39
5649,39
5650,39
5651,39
5652,39
5653,39
5654,39
5655,39
5656,39
5657,39
5658,39
5659,40
5660,39
5661,38
5662,38
5663,38
5664,38
5665,38
5666,38
5667,38
5668,38
5669,38
5670,38
5671,39
5672,39
5673,39
5674,39
5675,38
5676,38
5677,38
5678,38
5679,38
5680,39
5681,38
5682,38
5683,38
5684,38
5685,38
5686,38
5687,38
5688,38
5689,38
5690,38
5691,38
5692,38
5693,38
5694,38
5695,38
5696,38
5697,38
5698,38
5699,38
5700,38
5701,38
5702,38
5703,38
5704,38
5705,38
5706,38
5707,38
5708,38
5709,38
5710,38
5711,38
5712,38
5713,38
5714,38
5715,38
5716,38
5717,38
5718,38
5719,38
5720,38
5721,38
5722,38
5723,38
5724,38
5725,38
5726,38
5727,38
5728,38
5729,38
5730,38
5731,38
5732,38
5733,38
5734,38
5735,39
5736,38
5737,38
5738,38
5739,38
5740,38
5741,38
5742,39
5743,39
5744,39
5745,39
5746,39
5747,39
5748,39
5749,39
5750,37
5751,37
5752,38
5753,38
5754,37
5755,37
5756,37
5757,38
5758,37
5759,36
5760,36
5761,36
5762,36
5763,36
5764,36
5765,36
5766,36
5767,36
5768,36
5769,36
5770,36
5771,37
5772,37
5773,37
5774,37
5775,37
5776,37
5777,37
5778,37
5779,37
5780,37
5781,37
5782,38
5783,38
5784,37
5785,37
5786,37
5787,36
5788,36
5789,36
5790,36
5791,37
5792,36
5793,36
5794,36
5795,36
5796,36
5797,36
5798,36
5799,36
5800,36
5801,36
5802,37
5803,36
5804,36
5805,36
5806,36
5807,36
5808,36
5809,36
5810,36
5811,36
5812,36
5813,36
5814,36
5815,36
5816,36
5817,36
5818,36
5819,36
5820,36
5821,36
5822,36
5823,36
5824,36
5825,36
5826,37
5827,37
5828,37
5829,37
5830,37
5831,37
5832,37
5833,37
5834,36
5835,36
5836,36
5837,36
5838,36
5839,36
5840,36
5841,36
5842,36
5843,36
5844,36
5845,36
5846,36
5847,36
5848,36
5849,36
5850,36
5851,36
5852,36
5853,37
5854,36
5855,36
5856,36
5857,36
5858,36
5859,36
5860,36
5861,36
5862,36
5863,36
5864,36
5865,36
5866,36
5867,36
5868,36
5869,36
5870,36
5871,36
5872,36
5873,36
5874,36
5875,36
5876,36
5877,36
5878,36
5879,36
5880,36
5881,36
5882,36
5883,36
5884,36
5885,36
5886,36
5887,37
5888,37
5889,37
5890,36
5891,36
5892,36
5893,36
5894,36
5895,37
5896,37
5897,37
5898,37
5899,38
5900,38
5901,38
5902,38
5903,37
5904,37
5905,37
5906,37
5907,37
5908,37
5909,37
5910,36
5911,36
5912,36
5913,36
5914,36
5915,36
5916,36
5917,36
5918,36
5919,36
5920,36
5921,36
5922,36
5923,36
5924,36
5925,36
5926,36
5927,37
5928,36
5929,36
5930,36
5931,36
5932,36
5933,36
5934,36
5935,36
5936,36
5937,36
5938,36
5939,36
5940,36
5941,36
5942,36
5943,36
5944,36
5945,36
5946,36
5947,37
5948,36
5949,36
5950,36
5951,36
5952,36
5953,36
5954,37
5955,37
5956,36
5957,36
5958,36
5959,36
5960,36
5961,36
5962,36
5963,37
5964,37
5965,37
5966,37
5967,37
5968,37
5969,37
5970,37
5971,36
5972,36
5973,36
5974,36
5975,36
5976,36
5977,36
5978,36
5979,36
5980,36
5981,37
5982,37
5983,36
5984,36
5985,36
5986,36
5987,36
5988,36
5989,36
5990,36
5991,36
5992,36
5993,36
5994,36
5995,36
5996,36
5997,36
5998,36
5999,36
6000,36
6001,36
6002,36
6003,36
6004,36
6005,37
6006,37
6007,37
6008,36
6009,36
6010,36
6011,36
6012,36
6013,36
6014,36
6015,36
6016,36
6017,36
6018,36
6019,36
6020,36
6021,36
6022,36
6023,36
6024,36
6025,36
6026,36
6027,36
6028,36
6029,36
6030,36
6031,36
6032,36
6033,36
6034,36
6035,36
6036,36
6037,36
6038,36
6039,37
6040,37
6041,37
6042,37
6043,37
6044,38
6045,38
6046,38
6047,38
6048,36
6049,36
6050,36
6051,37
6052,36
6053,36
6054,37
6055,37
6056,36
6057,36
6058,36
6059,36
6060,36
6061,36
6062,36
6063,36
6064,36
6065,36
6066,36
6067,37
6068,37
6069,38
6070,37
6071,37
6072,37
6073,37
6074,37
6075,37
6076,37
6077,37
6078,37
6079,37
6080,37
6081,37
6082,38
6083,38
6084,38
6085,37
6086,37
6087,38
6088,38
6089,38
6090,38
6091,38
6092,38
6093,39
6094,38
6095,38
6096,38
6097,38
6098,38
6099,38
6100,37
6101,37
6102,37
6103,38
6104,38
6105,38
6106,38
6107,38
6108,37
6109,37
6110,37
6111,37
6112,37
6113,37
6114,37
6115,37
6116,37
6117,37
6118,37
6119,37
6120,37
6121,37
6122,38
6123,38
6124,38
6125,38
6126,38
6127,38
6128,38
6129,38
6130,37
6131,37
6132,37
6133,37
6134,38
6135,37
6136,37
6137,37
6138,37
6139,37
6140,38
6141,38
6142,38
6143,38
6144,37
6145,37
6146,37
6147,37
6148,37
6149,37
6150,37
6151,37
6152,37
6153,37
6154,37
6155,37
6156,37
6157,37
6158,37
6159,37
6160,37
6161,37
6162,37
6163,37
6164,37
6165,37
6166,37
6167,37
6168,37
6169,37
6170,37
6171,37
6172,37
6173,37
6174,37
6175,37
6176,37
6177,37
6178,37
6179,37
6180,38
6181,38
6182,38
6183,36
6184,36
6185,36
6186,36
6187,36
6188,36
6189,36
6190,36
6191,36
6192,36
6193,36
6194,36
6195,36
6196,36
6197,36
6198,36
6199,36
6200,36
6201,36
6202,36
6203,36
6204,36
6205,36
6206,36
6207,36
6208,36
6209,36
6210,37
6211,36
6212,36
6213,36
6214,36
6215,36
6216,36
6217,37
6218,37
6219,36
6220,36
6221,36
6222,36
6223,36
6224,36
6225,36
6226,36
6227,36
6228,36
6229,36
6230,36
6231,37
6232,37
6233,36
6234,36
6235,36
6236,36
6237,36
6238,36
6239,36
6240,36
6241,36
6242,36
6243,36
6244,36
6245,36
6246,36
6247,36
6248,36
6249,36
6250,36
6251,36
6252,36
6253,36
6254,36
6255,36
6256,36
6257,36
6258,36
6259,36
6260,36
6261,36
6262,36
6263,36
6264,36
6265,36
6266,36
6267,36
6268,36
6269,36
6270,36
6271,36
6272,36
6273,36
6274,36
6275,36
6276,36
6277,36
6278,36
6279,36
6280,36
6281,36
6282,36
6283,36
6284,36
6285,36
6286,36
6287,36
6288,36
6289,36
6290,36
6291,36
6292,36
6293,36
6294,36
6295,36
6296,36
6297,36
6298,36
6299,36
6300,36
6301,36
6302,36
6303,36
6304,36
6305,36
6306,36
6307,36
6308,36
6309,36
6310,36
6311,36
6312,36
6313,36
6314,36
6315,36
6316,36
6317,36
6318,36
6319,37
6320,37
6321,37
6322,36
6323,36
6324,36
6325,36
6326,36
6327,36
6328,37
6329,36
6330,36
6331,36
6332,36
6333,36
6334,36
6335,36
6336,36
6337,36
6338,36
6339,36
6340,37
6341,38
6342,38
6343,39
6344,39
6345,39
6346,39
6347,39
6348,39
6349,39
6350,39
6351,39
6352,38
6353,37
6354,37
6355,38
6356,38
6357,38
6358,38
6359,38
6360,37
6361,37
6362,37
6363,38
6364,38
6365,36
6366,36
6367,36
6368,36
6369,36
6370,36
6371,36
6372,36
6373,35
6374,35
6375,35
6376,35
6377,35
6378,36
6379,36
6380,36
6381,35
6382,36
6383,36
6384,36
6385,36
6386,36
6387,36
6388,36
6389,36
6390,36
6391,36
6392,36
6393,36
6394,36
6395,36
6396,36
6397,36
6398,36
6399,37
6400,37
6401,36
6402,36
6403,36
6404,36
6405,36
6406,36
6407,36
6408,36
6409,36
6410,36
6411,36
6412,36
6413,36
6414,36
6415,36
6416,36
6417,36
6418,36
6419,36
6420,36
6421,36
6422,36
6423,36
6424,36
6425,36
6426,36
6427,36
6428,36
6429,36
6430,36
6431,36
6432,37
6433,36
6434,35
6435,35
6436,35
6437,35
6438,36
6439,36
6440,36
6441,36
6442,36
6443,36
6444,36
6445,36
6446,36
6447,36
6448,36
6449,36
6450,36
6451,36
6452,36
6453,36
6454,36
6455,36
6456,36
6457,36
6458,36
6459,36
6460,36
6461,37
6462,37
6463,37
6464,38
6465,38
6466,38
6467,38
6468,37
6469,37
6470,37
6471,37
6472,37
6473,37
6474,37
6475,37
6476,37
6477,37
6478,37
6479,37
6480,37
6481,37
6482,37
6483,37
6484,37
6485,37
6486,37
6487,37
6488,37
6489,37
6490,37
6491,37
6492,37
6493,37
6494,37
6495,37
6496,37
6497,37
6498,37
6499,37
6500,38
6501,38
6502,38
6503,38
6504,37
6505,37
6506,37
6507,37
6508,37
6509,37
6510,37
6511,37
6512,37
6513,37
6514,37
6515,37
6516,37
6517,37
6518,37
6519,37
6520,37
6521,37
6522,37
6523,37
6524,37
6525,37
6526,37
6527,37
6528,37
6529,38
6530,38
6531,37
6532,38
6533,38
6534,37
6535,37
6536,37
6537,38
6538,39
6539,38
6540,38
6541,38
6542,37
6543,37
6544,37
6545,37
6546,37
6547,37
6548,37
6549,37
6550,37
6551,37
6552,37
6553,37
6554,37
6555,37
6556,37
6557,37
6558,37
6559,37
6560,37
6561,37
6562,37
6563,37
6564,37
6565,37
6566,37
6567,38
6568,38
6569,38
6570,37
6571,37
6572,37
6573,37
6574,37
6575,37
6576,37
6577,37
6578,37
6579,37
6580,37
6581,37
6582,37
6583,37
6584,37
6585,37
6586,37
6587,37
6588,37
6589,37
6590,37
6591,37
6592,37
6593,37
6594,37
6595,37
6596,37
6597,37
6598,37
6599,37
6600,37
6601,37
6602,37
6603,37
6604,37
6605,37
6606,37
6607,37
6608,37
6609,37
6610,37
6611,37
6612,37
6613,37
6614,37
6615,37
6616,37
6617,37
6618,37
6619,37
6620,37
6621,37
6622,37
6623,37
6624,37
6625,37
6626,37
6627,37
6628,37
6629,37
6630,37
6631,37
6632,37
6633,37
6634,38
6635,37
6636,37
6637,37
6638,37
6639,37
6640,37
6641,37
6642,37
6643,37
6644,37
6645,37
6646,37
6647,37
6648,37
6649,37
6650,37
6651,37
6652,37
6653,38
6654,37
6655,37
6656,37
6657,37
6658,37
6659,37
6660,37
6661,37
6662,37
6663,37
6664,37
6665,37
6666,37
6667,37
6668,37
6669,37
6670,38
6671,37
6672,37
6673,37
6674,37
6675,37
6676,37
6677,37
6678,37
6679,37
6680,37
6681,37
6682,37
6683,37
6684,37
6685,37
6686,37
6687,37
6688,37
6689,37
6690,37
6691,37
6692,37
6693,37
6694,37
6695,37
6696,37
6697,37
6698,37
6699,37
6700,37
6701,37
6702,37
6703,37
6704,37
6705,37
6706,37
6707,37
6708,37
6709,37
6710,37
6711,37
6712,37
6713,37
6714,37
6715,37
6716,37
6717,37
6718,37
6719,37
6720,37
6721,37
6722,37
6723,37
6724,37
6725,37
6726,37
6727,37
6728,37
6729,37
6730,37
6731,37
6732,37
6733,37
6734,37
6735,37
6736,37
6737,37
6738,39
6739,38
6740,38
6741,38
6742,38
6743,38
6744,38
6745,38
6746,38
6747,38
6748,38
6749,38
6750,38
6751,38
6752,38
6753,38
6754,38
6755,38
6756,38
6757,38
6758,38
6759,38
6760,38
6761,38
6762,38
6763,38
6764,38
6765,39
6766,39
6767,39
6768,39
6769,39
6770,39
6771,38
6772,38
6773,38
6774,38
6775,38
6776,38
6777,38
6778,38
6779,38
6780,38
6781,38
6782,38
6783,39
6784,38
6785,38
6786,38
6787,38
6788,38
6789,38
6790,38
6791,38
6792,38
6793,38
6794,38
6795,38
6796,38
6797,37
6798,37
6799,37
6800,37
6801,37
6802,37
6803,37
6804,37
6805,37
6806,37
6807,37
6808,37
6809,37
6810,37
6811,37
6812,37
6813,37
6814,37
6815,37
6816,37
6817,37
6818,37
6819,37
6820,37
6821,37
6822,37
6823,37
6824,37
6825,37
6826,37
6827,37
6828,37
6829,38
6830,38
6831,38
6832,38
6833,38
6834,38
6835,38
6836,38
6837,38
6838,38
6839,38
6840,40
6841,38
6842,38
6843,38
6844,38
6845,38
6846,37
6847,37
6848,37
6849,37
6850,38
6851,37
6852,37
6853,37
6854,37
6855,37
6856,38
6857,38
6858,38
6859,38
6860,39
6861,39
6862,40
6863,40
6864,39
6865,39
6866,39
6867,38
6868,38
6869,38
6870,38
6871,38
6872,38
6873,38
6874,38
6875,38
6876,38
6877,38
6878,38
6879,38
6880,38
6881,38
6882,38
6883,38
6884,38
6885,38
6886,37
6887,37
6888,37
6889,37
6890,37
6891,37
6892,37
6893,37
6894,37
6895,37
6896,37
6897,37
6898,37
6899,37
6900,37
6901,37
6902,37
6903,37
6904,37
6905,38
6906,37
6907,37
6908,37
6909,37
6910,37
6911,37
6912,37
6913,37
6914,37
6915,38
6916,38
6917,37
6918,37
6919,37
6920,37
6921,37
6922,37
6923,37
6924,37
6925,37
6926,37
6927,37
6928,37
6929,37
6930,37
6931,37
6932,38
6933,38
6934,38
6935,38
6936,38
6937,39
6938,39
6939,38
6940,38
6941,38
6942,38
6943,38
6944,38
6945,38
6946,38
6947,38
6948,38
6949,38
6950,38
6951,38
6952,38
6953,38
6954,38
6955,38
6956,38
6957,38
6958,38
6959,38
6960,38
6961,38
6962,38
6963,38
6964,38
6965,38
6966,38
6967,38
6968,38
6969,38
6970,38
6971,38
6972,38
6973,38
6974,38
6975,38
6976,38
6977,38
6978,38
6979,38
6980,38
6981,38
6982,38
6983,38
6984,38
6985,38
6986,38
6987,39
6988,39
6989,39
6990,38
6991,38
6992,38
6993,38
6994,38
6995,38
6996,38
6997,38
6998,39
6999,38
7000,38
7001,38
7002,38
7003,38
7004,38
7005,38
7006,38
7007,38
7008,38
7009,38
7010,38
7011,38
7012,38
7013,38
7014,38
7015,38
7016,38
7017,38
7018,39
7019,39
7020,38
7021,38
7022,38
7023,38
7024,39
7025,39
7026,39
7027,39
7028,39
7029,39
7030,39
7031,39
7032,39
7033,39
7034,39
7035,39
7036,39
7037,39
7038,39
7039,40
7040,41
7041,41
7042,41
7043,41
7044,41
7045,40
7046,39
7047,39
7048,39
7049,39
7050,39
7051,40
7052,40
7053,40
7054,40
7055,40
7056,40
7057,40
7058,40
7059,40
7060,40
7061,40
7062,40
7063,40
7064,39
7065,39
7066,39
7067,39
7068,39
7069,39
7070,39
7071,39
7072,39
7073,39
7074,39
7075,39
7076,39
7077,40
7078,40
7079,39
7080,39
7081,39
7082,39
7083,39
7084,39
7085,39
7086,39
7087,40
7088,40
7089,40
7090,40
7091,40
7092,40
7093,40
7094,40
7095,40
7096,40
7097,40
7098,40
7099,40
7100,39
7101,39
7102,39
7103,39
7104,39
7105,39
7106,39
7107,39
7108,39
7109,39
7110,41
7111,40
7112,39
7113,39
7114,39
7115,39
7116,39
7117,39
7118,38
7119,38
7120,38
7121,38
7122,38
7123,38
7124,38
7125,38
7126,38
7127,39
7128,39
7129,38
7130,38
7131,38
7132,38
7133,38
7134,38
7135,38
7136,38
7137,38
7138,38
7139,38
7140,38
7141,39
7142,38
7143,38
7144,38
7145,38
7146,38
7147,38
7148,38
7149,38
7150,38
7151,38
7152,38
7153,38
7154,38
7155,38
7156,38
7157,38
7158,38
7159,38
7160,38
7161,38
7162,38
7163,39
7164,39
7165,39
7166,39
7167,39
7168,39
7169,39
7170,39
7171,38
7172,38
7173,38
7174,38
7175,38
7176,38
7177,38
7178,38
7179,39
7180,39
7181,38
7182,38
7183,38
7184,38
7185,38
7186,38
7187,38
7188,38
7189,38
7190,38
7191,38
7192,38
7193,38
7194,38
7195,38
7196,38
7197,38
7198,38
7199,38
7200,38
7201,38
7202,38
7203,38
7204,38
7205,39
7206,39
7207,39
7208,39
7209,40
7210,40
7211,40
7212,40
7213,40
7214,40
7215,39
7216,39
7217,39
7218,39
7219,38
7220,38
7221,38
7222,38
7223,38
7224,38
7225,38
7226,38
7227,38
7228,38
7229,38
7230,38
7231,38
7232,38
7233,38
7234,38
7235,38
7236,38
7237,38
7238,38
7239,38
7240,38
7241,38
7242,38
7243,38
7244,38
7245,38
7246,38
7247,38
7248,38
7249,38
7250,38
7251,38
7252,38
7253,38
7254,38
7255,38
7256,38
7257,38
7258,38
7259,38
7260,38
7261,38
7262,38
7263,38
7264,38
7265,38
7266,38
7267,38
7268,38
7269,38
7270,38
7271,38
7272,38
7273,38
7274,38
7275,38
7276,38
7277,38
7278,38
7279,38
7280,38
7281,38
7282,38
7283,39
7284,39
7285,39
7286,39
7287,39
7288,39
7289,39
7290,39
7291,40
7292,39
7293,40
7294,39
7295,39
7296,39
7297,39
7298,39
7299,39
7300,39
7301,39
7302,39
7303,39
7304,39
7305,39
7306,39
7307,39
7308,39
7309,40
7310,40
7311,39
7312,38
7313,38
7314,38
7315,38
7316,38
7317,38
7318,38
7319,38
7320,38
7321,38
7322,38
7323,38
7324,38
7325,38
7326,39
7327,39
7328,39
7329,38
7330,38
7331,38
7332,38
7333,38
7334,38
7335,38
7336,38
7337,39
7338,39
7339,38
7340,38
7341,39
7342,38
7343,38
7344,38
7345,38
7346,38
7347,38
7348,39
7349,38
7350,38
7351,38
7352,39
7353,39
7354,39
7355,39
7356,39
7357,39
7358,39
7359,40
7360,40
7361,40
7362,39
7363,39
7364,39
7365,39
7366,39
7367,39
7368,39
7369,39
7370,39
7371,39
7372,39
7373,39
7374,39
7375,39
7376,39
7377,39
7378,39
7379,39
7380,39
7381,39
7382,38
7383,38
7384,38
7385,38
7386,38
7387,38
7388,38
7389,38
7390,38
7391,38
7392,38
7393,37
7394,37
7395,37
7396,37
7397,37
7398,37
7399,37
7400,37
7401,37
7402,38
7403,37
7404,38
7405,38
7406,37
7407,37
7408,37
7409,37
7410,37
7411,37
7412,37
7413,37
7414,37
7415,37
7416,37
7417,37
7418,37
7419,37
7420,37
7421,37
7422,37
7423,37
7424,37
7425,37
7426,37
7427,37
7428,37
7429,38
7430,37
7431,37
7432,37
7433,37
7434,37
7435,37
7436,37
7437,37
7438,37
7439,37
7440,37
7441,37
7442,37
7443,37
7444,37
7445,37
7446,37
7447,37
7448,37
7449,37
7450,37
7451,37
7452,37
7453,37
7454,37
7455,38
7456,38
7457,38
7458,37
7459,37
7460,37
7461,37
7462,37
7463,37
7464,37
7465,37
7466,37
7467,37
7468,37
7469,37
7470,37
7471,37
7472,37
7473,37
7474,37
7475,37
7476,37
7477,38
7478,37
7479,37
7480,37
7481,37
7482,37
7483,38
7484,37
7485,37
7486,37
7487,37
7488,37
7489,37
7490,37
7491,37
7492,37
7493,37
7494,38
7495,37
7496,37
7497,37
7498,37
7499,37
7500,37
7501,37
7502,36
7503,36
7504,36
7505,36
7506,36
7507,36
7508,37
7509,37
7510,37
7511,36
7512,36
7513,36
7514,36
7515,36
7516,36
7517,36
7518,36
7519,36
7520,36
7521,36
7522,36
7523,36
7524,36
7525,36
7526,36
7527,36
7528,36
7529,36
7530,36
7531,36
7532,36
7533,36
7534,36
7535,36
7536,36
7537,36
7538,36
7539,36
7540,36
7541,36
7542,36
7543,37
7544,36
7545,36
7546,36
7547,36
7548,36
7549,36
7550,36
7551,36
7552,36
7553,36
7554,36
7555,36
7556,36
7557,36
7558,36
7559,37
7560,37
7561,37
7562,36
7563,36
7564,36
7565,36
7566,36
7567,36
7568,36
7569,36
7570,37
7571,37
7572,37
7573,37
7574,37
7575,37
7576,37
7577,37
7578,37
7579,37
7580,37
7581,37
7582,37
7583,36
7584,36
7585,36
7586,37
7587,37
7588,36
7589,37
7590,37
7591,37
7592,36
7593,36
7594,36
7595,36
7596,36
7597,36
7598,36
7599,36
7600,36
7601,36
7602,36
7603,36
7604,36
7605,36
7606,36
7607,36
7608,36
7609,36
7610,36
7611,36
7612,36
7613,36
7614,37
7615,38
7616,38
7617,38
7618,38
7619,38
7620,37
7621,37
7622,37
7623,37
7624,37
7625,37
7626,37
7627,36
7628,36
7629,36
7630,36
7631,36
7632,36
7633,37
7634,37
7635,36
7636,36
7637,36
7638,36
7639,36
7640,36
7641,36
7642,37
7643,36
7644,36
7645,37
7646,38
7647,38
7648,38
7649,38
7650,36
7651,36
7652,36
7653,36
7654,36
7655,36
7656,36
7657,36
7658,37
7659,37
7660,37
7661,36
7662,36
7663,36
7664,36
7665,36
7666,36
7667,36
7668,36
7669,36
7670,36
7671,36
7672,36
7673,36
7674,36
7675,36
7676,36
7677,36
7678,36
7679,36
7680,36
7681,36
7682,36
7683,36
7684,36
7685,36
7686,36
7687,36
7688,36
7689,36
7690,36
7691,36
7692,36
7693,36
7694,36
7695,36
7696,36
7697,36
7698,36
7699,36
7700,36
7701,36
7702,36
7703,36
7704,36
7705,36
7706,36
7707,36
7708,36
7709,36
7710,36
7711,36
7712,36
7713,36
7714,36
7715,36
7716,36
7717,36
7718,36
7719,36
7720,36
7721,36
7722,36
7723,36
7724,36
7725,36
7726,36
7727,36
7728,36
7729,36
7730,36
7731,36
7732,36
7733,36
7734,36
7735,36
7736,36
7737,36
7738,36
7739,36
7740,36
7741,36
7742,36
7743,36
7744,36
7745,36
7746,36
7747,36
7748,36
7749,36
7750,36
7751,36
7752,36
7753,36
7754,36
7755,36
7756,36
7757,36
7758,36
7759,36
7760,37
7761,36
7762,36
7763,36
7764,37
7765,37
7766,36
7767,36
7768,36
7769,36
7770,36
7771,37
7772,37
7773,37
7774,36
7775,37
7776,38
7777,37
7778,37
7779,37
7780,38
7781,38
7782,39
7783,37
7784,37
7785,37
7786,37
7787,37
7788,37
7789,37
7790,37
7791,37
7792,37
7793,37
7794,38
7795,37
7796,37
7797,37
7798,37
7799,37
7800,36
7801,36
7802,36
7803,36
7804,36
7805,36
7806,36
7807,36
7808,36
7809,36
7810,36
7811,36
7812,37
7813,37
7814,37
7815,36
7816,37
7817,36
7818,36
7819,36
7820,36
7821,36
7822,36
7823,36
7824,36
7825,36
7826,36
7827,36
7828,36
7829,36
7830,36
7831,37
7832,37
7833,37
7834,38
7835,39
7836,39
7837,38
7838,38
7839,37
7840,36
7841,36
7842,36
7843,36
7844,36
7845,36
7846,36
7847,36
7848,36
7849,36
7850,36
7851,36
7852,36
7853,36
7854,36
7855,36
7856,36
7857,36
7858,36
7859,36
7860,36
7861,36
7862,36
7863,36
7864,36
7865,36
7866,36
7867,36
7868,36
7869,36
7870,36
7871,36
7872,36
7873,36
7874,36
7875,36
7876,36
7877,36
7878,36
7879,36
7880,36
7881,36
7882,36
7883,36
7884,36
7885,36
7886,36
7887,37
7888,36
7889,36
7890,36
7891,36
7892,36
7893,36
7894,36
7895,36
7896,36
7897,36
7898,36
7899,37
7900,37
7901,37
7902,37
7903,39
7904,37
7905,37
7906,36
7907,37
7908,37
7909,37
7910,37
7911,37
7912,37
7913,37
7914,36
7915,36
7916,37
7917,38
7918,38
7919,36
7920,36
7921,36
7922,36
7923,36
7924,36
7925,36
7926,36
7927,36
7928,36
7929,36
7930,36
7931,36
7932,37
7933,36
7934,36
7935,36
7936,36
7937,36
7938,36
7939,36
7940,36
7941,36
7942,36
7943,36
7944,36
7945,36
7946,36
7947,36
7948,36
7949,36
7950,36
7951,36
7952,36
7953,36
7954,36
7955,36
7956,36
7957,36
7958,36
7959,36
7960,36
7961,36
7962,36
7963,37
7964,37
7965,37
7966,36
7967,36
7968,36
7969,36
7970,36
7971,36
7972,36
7973,36
7974,36
7975,36
7976,36
7977,36
7978,36
7979,36
7980,36
7981,37
7982,36
7983,36
7984,36
7985,36
7986,36
7987,36
7988,36
7989,36
7990,36
7991,36
7992,36
7993,36
7994,36
7995,36
7996,36
7997,36
7998,36
7999,36
8000,36
8001,36
8002,36
8003,36
8004,36
8005,36
8006,36
8007,36
8008,36
8009,36
8010,36
8011,36
8012,36
8013,36
8014,36
8015,36
8016,36
8017,36
8018,36
8019,37
8020,38
8021,37
8022,37
8023,38
8024,37
8025,37
8026,37
8027,38
8028,36
8029,36
8030,36
8031,36
8032,36
8033,36
8034,36
8035,36
8036,36
8037,36
8038,36
8039,36
8040,36
8041,36
8042,36
8043,36
8044,36
8045,36
8046,37
8047,37
8048,37
8049,37
8050,37
8051,37
8052,36
8053,36
8054,36
8055,36
8056,36
8057,36
8058,36
8059,36
8060,36
8061,36
8062,36
8063,36
8064,36
8065,36
8066,36
8067,36
8068,36
8069,36
8070,36
8071,36
8072,36
8073,36
8074,36
8075,36
8076,37
8077,36
8078,36
8079,36
8080,36
8081,36
8082,36
8083,36
8084,36
8085,36
8086,36
8087,36
8088,36
8089,36
8090,37
8091,37
8092,36
8093,36
8094,37
8095,37
8096,37
8097,37
8098,37
8099,37
8100,37
8101,37
8102,37
8103,36
8104,36
8105,36
8106,37
8107,37
8108,37
8109,37
8110,37
8111,37
8112,36
8113,37
8114,37
8115,37
8116,37
8117,37
8118,37
8119,37
8120,37
8121,37
8122,37
8123,37
8124,37
8125,37
8126,37
8127,36
8128,37
8129,37
8130,37
8131,37
8132,37
8133,37
8134,37
8135,37
8136,37
8137,37
8138,37
8139,37
8140,37
8141,37
8142,37
8143,37
8144,37
8145,37
8146,37
8147,37
8148,37
8149,37
8150,37
8151,36
8152,36
8153,37
8154,37
8155,37
8156,36
8157,36
8158,36
8159,36
8160,36
8161,36
8162,36
8163,36
8164,36
8165,36
8166,36
8167,36
8168,37
8169,36
8170,36
8171,36
8172,37
8173,38
8174,38
8175,37
8176,36
8177,35
8178,35
8179,35
8180,35
8181,35
8182,35
8183,35
8184,35
8185,35
8186,35
8187,35
8188,35
8189,35
8190,35
8191,35
8192,35
8193,35
8194,35
8195,35
8196,35
8197,35
8198,35
8199,36
8200,35
8201,35
8202,35
8203,35
8204,35
8205,35
8206,35
8207,35
8208,35
8209,35
8210,35
8211,35
8212,35
8213,35
8214,35
8215,35
8216,35
8217,35
8218,35
8219,35
8220,35
8221,35
8222,35
8223,35
8224,35
8225,35
8226,35
8227,35
8228,35
8229,35
8230,35
8231,35
8232,35
8233,35
8234,36
8235,36
8236,35
8237,35
8238,35
8239,35
8240,35
8241,35
8242,35
8243,35
8244,35
8245,35
8246,35
8247,36
8248,36
8249,36
8250,35
8251,35
8252,35
8253,35
8254,35
8255,35
8256,35
8257,35
8258,35
8259,35
8260,35
8261,35
8262,35
8263,36
8264,36
8265,36
8266,36
8267,36
8268,36
8269,36
8270,36
8271,36
8272,36
8273,36
8274,36
8275,36
8276,36
8277,36
8278,36
8279,36
8280,36
8281,35
8282,35
8283,35
8284,35
8285,35
8286,35
8287,35
8288,36
8289,36
8290,35
8291,35
8292,35
8293,35
8294,35
8295,35
8296,35
8297,35
8298,35
8299,35
8300,35
8301,35
8302,35
8303,35
8304,35
8305,35
8306,35
8307,35
8308,35
8309,35
8310,35
8311,35
8312,35
8313,35
8314,35
8315,35
8316,35
8317,35
8318,36
8319,35
8320,35
8321,35
8322,35
8323,35
8324,35
8325,36
8326,36
8327,35
8328,35
8329,35
8330,36
8331,36
8332,36
8333,36
8334,36
8335,36
8336,36
8337,36
8338,36
8339,36
8340,36
8341,36
8342,37
8343,36
8344,36
8345,36
8346,36
8347,36
8348,36
8349,37
8350,37
8351,37
8352,36
8353,36
8354,36
8355,36
8356,36
8357,36
8358,36
8359,36
8360,36
8361,36
8362,36
8363,36
8364,36
8365,36
8366,36
8367,36
8368,36
8369,36
8370,36
8371,36
8372,36
8373,36
8374,36
8375,36
8376,36
8377,36
8378,36
8379,36
8380,36
8381,36
8382,36
8383,37
8384,37
8385,37
8386,36
8387,36
8388,36
8389,36
8390,36
8391,36
8392,36
8393,36
8394,36
8395,36
8396,36
8397,36
8398,36
8399,36
8400,36
8401,36
8402,36
8403,36
8404,36
8405,36
8406,36
8407,36
8408,36
8409,37
8410,37
8411,37
8412,37
8413,36
8414,36
8415,36
8416,36
8417,36
8418,36
8419,36
8420,36
8421,36
8422,36
8423,36
8424,36
8425,36
8426,36
8427,36
8428,36
8429,36
8430,36
8431,36
8432,36
8433,36
8434,36
8435,36
8436,36
8437,36
8438,36
8439,36
8440,36
8441,36
8442,36
8443,36
8444,36
8445,36
8446,36
8447,36
8448,36
8449,36
8450,36
8451,36
8452,36
8453,36
8454,36
8455,36
8456,36
8457,37
8458,37
8459,38
8460,38
8461,38
8462,36
8463,36
8464,36
8465,36
8466,36
8467,36
8468,36
8469,36
8470,36
8471,36
8472,36
8473,36
8474,36
8475,36
8476,36
8477,36
8478,36
8479,36
8480,36
8481,36
8482,36
8483,36
8484,36
8485,36
8486,36
8487,36
8488,36
8489,37
8490,37
8491,37
8492,37
8493,37
8494,37
8495,37
8496,37
8497,37
8498,37
8499,37
8500,38
8501,38
8502,37
8503,37
8504,37
8505,37
8506,37
8507,37
8508,37
8509,37
8510,37
8511,37
8512,37
8513,37
8514,37
8515,36
8516,37
8517,36
8518,37
8519,37
8520,37
8521,38
8522,38
8523,38
8524,38
8525,38
8526,38
8527,38
8528,38
8529,38
8530,38
8531,38
8532,39
8533,39
8534,39
8535,39
8536,39
8537,39
8538,39
8539,39
8540,39
8541,39
8542,39
8543,39
8544,39
8545,39
8546,39
8547,38
8548,38
8549,38
8550,38
8551,38
8552,39
8553,38
8554,38
8555,38
8556,38
8557,38
8558,38
8559,38
8560,39
8561,39
8562,39
8563,39
8564,39
8565,39
8566,39
8567,38
8568,38
8569,38
8570,38
8571,38
8572,38
8573,38
8574,38
8575,38
8576,38
8577,38
8578,37
8579,37
8580,38
8581,38
8582,38
8583,38
8584,39
8585,39
8586,39
8587,39
8588,39
8589,39
8590,38
8591,38
8592,38
8593,38
8594,38
8595,38
8596,38
8597,38
8598,38
8599,38
8600,38
8601,38
8602,38
8603,39
8604,39
8605,38
8606,38
8607,37
8608,37
8609,37
8610,37
8611,37
8612,37
8613,37
8614,37
8615,37
8616,38
8617,37
8618,37
8619,38
8620,38
8621,38
8622,38
8623,38
8624,38
8625,38
8626,38
8627,37
8628,37
8629,37
8630,37
8631,37
8632,37
8633,37
8634,38
8635,38
8636,38
8637,38
8638,37
8639,37
8640,37
8641,37
8642,37
8643,37
8644,37
8645,37
8646,37
8647,37
8648,37
8649,37
8650,37
8651,37
8652,37
8653,37
8654,37
8655,37
8656,37
8657,37
8658,38
8659,37
8660,37
8661,38
8662,38
8663,38
8664,38
8665,38
8666,38
8667,37
8668,37
8669,37
8670,37
8671,37
8672,37
8673,37
8674,37
8675,37
8676,37
8677,37
8678,37
8679,37
8680,37
8681,37
8682,37
8683,37
8684,37
8685,37
8686,37
8687,37
8688,37
8689,37
8690,39
8691,39
8692,38
8693,39
8694,38
8695,37
8696,37
8697,37
8698,37
8699,37
8700,37
8701,37
8702,37
8703,37
8704,37
8705,37
8706,37
8707,37
8708,37
8709,37
8710,37
8711,37
8712,38
8713,37
8714,38
8715,38
8716,37
8717,37
8718,37
8719,37
8720,37
8721,37
8722,37
8723,37
8724,37
8725,37
8726,37
8727,37
8728,37
8729,38
8730,38
8731,38
8732,38
8733,38
8734,38
8735,39
8736,40
8737,40
8738,39
8739,39
8740,39
8741,39
8742,39
8743,38
8744,39
8745,39
8746,38
8747,38
8748,38
8749,38
8750,38
8751,38
8752,38
8753,38
8754,38
8755,38
8756,37
8757,37
8758,37
8759,37
8760,37
8761,37
8762,37
8763,37
8764,37
8765,37
8766,37
8767,37
8768,37
8769,37
8770,37
8771,37
8772,37
8773,37
8774,37
8775,37
8776,37
8777,37
8778,37
8779,37
8780,37
8781,37
8782,37
8783,37
8784,37
8785,37
8786,37
8787,37
8788,37
8789,37
8790,37
8791,37
8792,37
8793,37
8794,37
8795,37
8796,37
8797,37
8798,37
8799,37
8800,37
8801,37
8802,37
8803,37
8804,37
8805,37
8806,37
8807,37
8808,37
8809,37
8810,37
8811,37
8812,37
8813,37
8814,37
8815,37
8816,37
8817,37
8818,37
8819,37
8820,37
8821,37
8822,37
8823,38
8824,38
8825,38
8826,37
8827,37
8828,37
8829,37
8830,37
8831,37
8832,37
8833,37
8834,37
8835,37
8836,37
8837,37
8838,37
8839,37
8840,37
8841,37
8842,37
8843,37
8844,37
8845,37
8846,37
8847,37
8848,37
8849,37
8850,37
8851,37
8852,37
8853,37
8854,37
8855,37
8856,37
8857,37
8858,37
8859,37
8860,37
8861,37
8862,37
8863,37
8864,37
8865,37
8866,37
8867,37
8868,37
8869,37
8870,37
8871,37
8872,37
8873,37
8874,37
8875,37
8876,37
8877,37
8878,37
8879,37
8880,38
8881,37
8882,37
8883,37
8884,37
8885,37
8886,37
8887,37
8888,37
8889,37
8890,37
8891,37
8892,37
8893,37
8894,37
8895,37
8896,37
8897,37
8898,37
8899,37
8900,37
8901,37
8902,37
8903,37
8904,37
8905,37
8906,37
8907,37
8908,37
8909,37
8910,37
8911,37
8912,37
8913,37
8914,37
8915,37
8916,37
8917,39
8918,38
8919,38
8920,38
8921,38
8922,38
8923,38
8924,37
8925,37
8926,38
8927,38
8928,38
8929,38
8930,38
8931,37
8932,37
8933,37
8934,37
8935,37
8936,37
8937,37
8938,38
8939,38
8940,38
8941,38
8942,37
8943,37
8944,37
8945,37
8946,37
8947,37
8948,37
8949,37
8950,37
8951,37
8952,37
8953,37
8954,37
8955,37
8956,37
8957,37
8958,37
8959,37
8960,37
8961,37
8962,37
8963,37
8964,37
8965,37
8966,37
8967,37
8968,37
8969,37
8970,37
8971,37
8972,38
8973,38
8974,37
8975,37
8976,37
8977,37
8978,37
8979,37
8980,37
8981,37
8982,37
8983,37
8984,37
8985,37
8986,37
8987,37
8988,38
8989,37
8990,37
8991,37
8992,37
8993,37
8994,37
8995,37
8996,37
8997,37
8998,37
8999,37
9000,37
9001,37
9002,37
9003,38
9004,38
9005,38
9006,38
9007,38
9008,38
9009,38
9010,38
9011,38
9012,37
9013,37
9014,37
9015,37
9016,38
9017,37
9018,37
9019,37
9020,37
9021,37
9022,37
9023,37
9024,37
9025,37
9026,37
9027,37
9028,37
9029,37
9030,37
9031,37
9032,37
9033,37
9034,37
9035,38
9036,38
9037,37
9038,37
9039,37
9040,37
9041,38
9042,37
9043,37
9044,37
9045,37
9046,37
9047,37
9048,37
9049,37
9050,37
9051,37
9052,37
9053,37
9054,37
9055,37
9056,37
9057,37
9058,37
9059,37
9060,37
9061,37
9062,37
9063,37
9064,37
9065,37
9066,37
9067,37
9068,38
9069,38
9070,38
9071,38
9072,38
9073,38
9074,38
9075,38
9076,37
9077,37
9078,38
9079,37
9080,37
9081,37
9082,37
9083,37
9084,37
9085,37
9086,37
9087,37
9088,37
9089,37
9090,37
9091,37
9092,37
9093,37
9094,37
9095,37
9096,37
9097,37
9098,37
9099,37
9100,37
9101,37
9102,37
9103,37
9104,37
9105,37
9106,37
9107,37
9108,37
9109,38
9110,37
9111,37
9112,37
9113,37
9114,37
9115,37
9116,37
9117,37
9118,37
9119,37
9120,37
9121,37
9122,37
9123,38
9124,37
9125,37
9126,37
9127,37
9128,37
9129,37
9130,37
9131,37
9132,37
9133,38
9134,37
9135,38
9136,38
9137,37
9138,37
9139,37
9140,37
9141,37
9142,37
9143,37
9144,37
9145,37
9146,37
9147,37
9148,37
9149,37
9150,37
9151,37
9152,37
9153,37
9154,38
9155,36
9156,36
9157,37
9158,37
9159,36
9160,36
9161,36
9162,36
9163,36
9164,36
9165,36
9166,36
9167,36
9168,36
9169,36
9170,36
9171,36
9172,37
9173,36
9174,36
9175,36
9176,36
9177,36
9178,36
9179,36
9180,36
9181,36
9182,36
9183,36
9184,36
9185,36
9186,36
9187,36
9188,36
9189,36
9190,36
9191,37
9192,36
9193,36
9194,36
9195,36
9196,36
9197,36
9198,36
9199,36
9200,36
9201,36
9202,36
9203,36
9204,36
9205,36
9206,36
9207,36
9208,36
9209,36
9210,36
9211,36
9212,37
9213,37
9214,37
9215,38
9216,38
9217,38
9218,38
9219,38
9220,38
9221,38
9222,38
9223,38
9224,38
9225,38
9226,38
9227,39
9228,38
9229,38
9230,38
9231,38
9232,38
9233,38
9234,37
9235,37
9236,37
9237,37
9238,37
9239,37
9240,37
9241,37
9242,39
9243,39
9244,38
9245,38
9246,38
9247,38
9248,38
9249,37
9250,37
9251,37
9252,37
9253,37
9254,37
9255,37
9256,37
9257,37
9258,37
9259,37
9260,37
9261,37
9262,37
9263,38
9264,38
9265,38
9266,38
9267,38
9268,38
9269,38
9270,39
9271,39
9272,38
9273,38
9274,38
9275,38
9276,39
9277,38
9278,39
9279,37
9280,37
9281,37
9282,38
9283,38
9284,38
9285,37
9286,37
9287,37
9288,37
9289,37
9290,37
9291,37
9292,37
9293,37
9294,37
9295,37
9296,37
9297,37
9298,37
9299,37
9300,38
9301,38
9302,37
9303,37
9304,37
9305,37
9306,37
9307,37
9308,37
9309,37
9310,37
9311,37
9312,37
9313,37
9314,37
9315,37
9316,37
9317,37
9318,37
9319,37
9320,37
9321,38
9322,37
9323,37
9324,37
9325,37
9326,37
9327,38
9328,37
9329,37
9330,37
9331,37
9332,37
9333,37
9334,37
9335,37
9336,37
9337,37
9338,37
9339,37
9340,38
9341,37
9342,37
9343,37
9344,37
9345,37
9346,37
9347,37
9348,38
9349,37
9350,37
9351,37
9352,37
9353,37
9354,38
9355,38
9356,37
9357,37
9358,38
9359,38
9360,38
9361,38
9362,37
9363,37
9364,37
9365,37
9366,37
9367,37
9368,37
9369,37
9370,37
9371,37
9372,37
9373,37
9374,37
9375,37
9376,37
9377,37
9378,37
9379,37
9380,37
9381,37
9382,37
9383,37
9384,37
9385,37
9386,37
9387,38
9388,37
9389,37
9390,37
9391,37
9392,37
9393,37
9394,37
9395,37