1,3
2,3
3,3
4,3
5,3
6,3
7,3
8,3
9,3
10,3
11,3
12,3
13,3
14,3
15,3
16,3
17,3
18,3
19,3
20,3
21,4
22,4
23,4
24,4
25,5
26,5
27,6
28,5
29,5
30,5
31,5
32,5
33,5
34,5
35,5
36,5
37,5
38,5
39,5
40,5
41,5
42,6
43,6
44,6
45,6
46,6
47,7
48,6
49,6
50,6
51,6
52,6
53,6
54,6
55,6
56,6
57,6
58,6
59,6
60,7
61,7
62,7
63,7
64,7
65,7
66,7
67,8
68,8
69,8
70,8
71,8
72,8
73,8
74,8
75,9
76,8
77,8
78,8
79,8
80,8
81,8
82,8
83,8
84,8
85,8
86,8
87,8
88,9
89,8
90,9
91,8
92,8
93,8
94,8
95,8
96,8
97,8
98,8
99,8
100,8
101,8
102,8
103,8
104,8
105,8
106,8
107,8
108,8
109,8
110,8
111,8
112,9
113,9
114,9
115,9
116,9
117,9
118,9
119,8
120,8
121,8
122,8
123,8
124,8
125,8
126,8
127,8
128,8
129,8
130,8
131,8
132,8
133,8
134,8
135,8
136,8
137,8
138,8
139,9
140,9
141,8
142,8
143,8
144,8
145,8
146,8
147,9
148,8
149,8
150,8
151,8
152,8
153,8
154,8
155,8
156,8
157,8
158,8
159,8
160,8
161,9
162,9
163,9
164,10
165,10
166,9
167,8
168,8
169,8
170,8
171,8
172,8
173,8
174,8
175,8
176,8
177,8
178,8
179,9
180,9
181,8
182,9
183,9
184,9
185,9
186,9
187,9
188,8
189,8
190,8
191,8
192,8
193,8
194,9
195,10
196,8
197,8
198,8
199,8
200,8
201,8
202,8
203,8
204,8
205,8
206,8
207,8
208,8
209,8
210,8
211,8
212,8
213,8
214,8
215,9
216,9
217,9
218,9
219,9
220,9
221,9
222,9
223,9
224,9
225,9
226,9
227,9
228,9
229,9
230,9
231,9
232,9
233,9
234,9
235,9
236,9
237,9
238,9
239,10
240,11
241,9
242,9
243,9
244,9
245,9
246,9
247,9
248,10
249,9
250,9
251,9
252,9
253,9
254,9
255,9
256,9
257,9
258,9
259,9
260,9
261,9
262,9
263,10
264,9
265,9
266,9
267,9
268,9
269,9
270,9
271,9
272,10
273,11
274,10
275,10
276,10
277,10
278,9
279,9
280,9
281,9
282,10
283,10
284,10
285,10
286,10
287,10
288,10
289,10
290,10
291,10
292,10
293,10
294,10
295,10
296,10
297,10
298,10
299,10
300,10
301,10
302,10
303,10
304,10
305,10
306,10
307,10
308,10
309,10
310,10
311,10
312,10
313,10
314,10
315,10
316,10
317,10
318,11
319,10
320,10
321,10
322,10
323,11
324,12
325,10
326,10
327,10
328,10
329,10
330,10
331,10
332,10
333,10
334,10
335,10
336,10
337,10
338,10
339,10
340,10
341,10
342,10
343,10
344,11
345,11
346,11
347,11
348,11
349,11
350,10
351,11
352,11
353,11
354,12
355,11
356,10
357,10
358,10
359,10
360,10
361,10
362,10
363,10
364,10
365,10
366,10
367,10
368,10
369,11
370,11
371,11
372,11
373,11
374,11
375,11
376,11
377,11
378,11
379,11
380,10
381,10
382,10
383,10
384,10
385,10
386,10
387,10
388,10
389,11
390,11
391,11
392,11
393,12
394,12
395,11
396,11
397,11
398,11
399,11
400,11
401,11
402,11
403,11
404,11
405,11
406,11
407,11
408,11
409,11
410,11
411,11
412,11
413,11
414,11
415,11
416,11
417,11
418,11
419,11
420,11
421,11
422,11
423,11
424,11
425,11
426,11
427,11
428,12
429,11
430,11
431,11
432,11
433,11
434,11
435,12
436,11
437,11
438,11
439,11
440,11
441,11
442,11
443,11
444,11
445,11
446,11
447,11
448,11
449,11
450,11
451,11
452,11
453,11
454,11
455,11
456,11
457,11
458,11
459,11
460,11
461,11
462,11
463,11
464,11
465,11
466,11
467,11
468,11
469,11
470,11
471,11
472,11
473,11
474,11
475,11
476,11
477,11
478,11
479,12
480,12
481,11
482,11
483,11
484,11
485,11
486,11
487,11
488,11
489,11
490,11
491,11
492,12
493,12
494,11
495,11
496,12
497,11
498,11
499,11
500,11
501,11
502,11
503,11
504,12
505,12
506,12
507,12
508,12
509,12
510,12
511,12
512,12
513,12
514,12
515,12
516,13
517,13
518,13
519,13
520,13
521,13
522,13
523,13
524,13
525,13
526,13
527,13
528,13
529,13
530,13
531,13
532,13
533,13
534,13
535,13
536,13
537,13
538,13
539,13
540,13
541,13
542,13
543,13
544,13
545,13
546,13
547,13
548,13
549,13
550,13
551,13
552,13
553,13
554,13
555,13
556,13
557,13
558,13
559,13
560,13
561,14
562,13
563,13
564,13
565,13
566,14
567,14
568,14
569,14
570,14
571,14
572,14
573,14
574,14
575,14
576,14
577,14
578,14
579,13
580,13
581,13
582,13
583,13
584,13
585,13
586,13
587,13
588,13
589,13
590,13
591,13
592,13
593,13
594,13
595,13
596,13
597,13
598,13
599,13
600,13
601,13
602,14
603,14
604,14
605,14
606,14
607,14
608,14
609,15
610,15
611,14
612,14
613,14
614,14
615,14
616,14
617,14
618,15
619,15
620,15
621,15
622,17
623,17
624,18
625,18
626,18
627,18
628,18
629,16
630,16
631,16
632,16
633,16
634,16
635,15
636,15
637,15
638,15
639,15
640,15
641,15
642,15
643,15
644,15
645,15
646,15
647,15
648,16
649,16
650,16
651,16
652,16
653,16
654,16
655,16
656,16
657,16
658,16
659,16
660,15
661,15
662,15
663,15
664,15
665,15
666,15
667,15
668,15
669,15
670,15
671,15
672,15
673,15
674,15
675,15
676,15
677,15
678,16
679,16
680,16
681,16
682,16
683,15
684,15
685,15
686,16
687,16
688,17
689,16
690,16
691,16
692,16
693,16
694,16
695,16
696,16
697,16
698,16
699,16
700,16
701,15
702,15
703,15
704,15
705,15
706,15
707,15
708,15
709,15
710,15
711,15
712,15
713,15
714,15
715,15
716,15
717,15
718,15
719,16
720,16
721,16
722,15
723,15
724,15
725,15
726,15
727,15
728,15
729,15
730,15
731,15
732,15
733,15
734,15
735,15
736,15
737,15
738,15
739,15
740,15
741,15
742,15
743,15
744,15
745,15
746,15
747,15
748,15
749,15
750,15
751,15
752,15
753,15
754,15
755,15
756,15
757,15
758,15
759,15
760,15
761,15
762,15
763,15
764,15
765,15
766,15
767,15
768,15
769,15
770,15
771,15
772,15
773,15
774,15
775,15
776,15
777,15
778,15
779,16
780,16
781,15
782,15
783,15
784,15
785,15
786,15
787,15
788,15
789,15
790,15
791,15
792,15
793,15
794,15
795,15
796,15
797,15
798,15
799,15
800,15
801,15
802,15
803,15
804,15
805,15
806,15
807,16
808,15
809,15
810,15
811,15
812,15
813,15
814,16
815,16
816,15
817,15
818,15
819,15
820,15
821,15
822,15
823,15
824,15
825,15
826,15
827,15
828,15
829,15
830,15
831,15
832,15
833,15
834,15
835,15
836,15
837,15
838,15
839,15
840,15
841,15
842,15
843,15
844,15
845,15
846,16
847,16
848,15
849,15
850,15
851,15
852,15
853,16
854,16
855,17
856,16
857,16
858,16
859,17
860,16
861,15
862,15
863,15
864,15
865,15
866,15
867,15
868,15
869,15
870,15
871,15
872,15
873,15
874,15
875,15
876,15
877,15
878,15
879,15
880,15
881,15
882,15
883,15
884,15
885,15
886,15
887,15
888,15
889,15
890,15
891,15
892,15
893,15
894,15
895,15
896,15
897,15
898,15
899,15
900,15
901,15
902,15
903,15
904,15
905,15
906,15
907,15
908,15
909,15
910,15
911,15
912,15
913,15
914,15
915,15
916,15
917,15
918,15
919,15
920,15
921,15
922,15
923,15
924,15
925,15
926,15
927,15
928,15
929,16
930,16
931,16
932,16
933,16
934,15
935,15
936,15
937,15
938,15
939,15
940,15
941,15
942,15
943,15
944,15
945,15
946,15
947,15
948,15
949,15
950,15
951,15
952,15
953,15
954,15
955,15
956,15
957,15
958,16
959,15
960,15
961,15
962,15
963,15
964,15
965,15
966,15
967,15
968,15
969,15
970,15
971,15
972,15
973,15
974,15
975,16
976,15
977,15
978,15
979,16
980,15
981,15
982,15
983,15
984,15
985,15
986,15
987,15
988,15
989,15
990,15
991,15
992,16
993,15
994,15
995,15
996,15
997,15
998,15
999,15
1000,15
1001,15
1002,15
1003,15
1004,15
1005,15
1006,15
1007,15
1008,15
1009,16
1010,16
1011,16
1012,16
1013,16
1014,17
1015,17
1016,17
1017,17
1018,16
1019,16
1020,16
1021,16
1022,16
1023,16
1024,16
1025,16
1026,16
1027,16
1028,16
1029,16
1030,16
1031,16
1032,16
1033,16
1034,17
1035,16
1036,16
1037,16
1038,16
1039,16
1040,16
1041,16
1042,16
1043,16
1044,16
1045,16
1046,17
1047,17
1048,16
1049,16
1050,16
1051,17
1052,16
1053,16
1054,16
1055,16
1056,16
1057,16
1058,16
1059,16
1060,16
1061,16
1062,16
1063,16
1064,16
1065,16
1066,16
1067,16
1068,16
1069,16
1070,16
1071,16
1072,16
1073,16
1074,16
1075,16
1076,16
1077,16
1078,16
1079,16
1080,16
1081,16
1082,16
1083,16
1084,16
1085,16
1086,16
1087,16
1088,16
1089,16
1090,16
1091,16
1092,16
1093,16
1094,16
1095,16
1096,16
1097,16
1098,16
1099,16
1100,16
1101,16
1102,16
1103,16
1104,16
1105,16
1106,16
1107,16
1108,16
1109,16
1110,16
1111,16
1112,16
1113,16
1114,16
1115,16
1116,16
1117,16
1118,16
1119,16
1120,16
1121,16
1122,16
1123,16
1124,16
1125,16
1126,16
1127,16
1128,16
1129,16
1130,16
1131,16
1132,17
1133,18
1134,18
1135,18
1136,17
1137,17
1138,17
1139,17
1140,18
1141,17
1142,17
1143,17
1144,17
1145,17
1146,17
1147,17
1148,17
1149,17
1150,17
1151,17
1152,17
1153,18
1154,17
1155,17
1156,17
1157,17
1158,18
1159,17
1160,17
1161,17
1162,18
1163,18
1164,17
1165,17
1166,17
1167,17
1168,17
1169,17
1170,17
1171,17
1172,17
1173,18
1174,17
1175,17
1176,19
1177,19
1178,19
1179,19
1180,18
1181,19
1182,18
1183,18
1184,18
1185,18
1186,19
1187,18
1188,18
1189,18
1190,18
1191,18
1192,17
1193,17
1194,17
1195,17
1196,17
1197,17
1198,17
1199,17
1200,17
1201,17
1202,17
1203,17
1204,17
1205,17
1206,17
1207,17
1208,17
1209,17
1210,17
1211,17
1212,17
1213,17
1214,17
1215,17
1216,18
1217,17
1218,17
1219,17
1220,17
1221,17
1222,17
1223,17
1224,17
1225,17
1226,18
1227,17
1228,17
1229,17
1230,17
1231,17
1232,17
1233,17
1234,17
1235,17
1236,17
1237,17
1238,17
1239,17
1240,17
1241,17
1242,17
1243,17
1244,17
1245,17
1246,17
1247,17
1248,17
1249,17
1250,17
1251,17
1252,17
1253,17
1254,17
1255,17
1256,17
1257,17
1258,17
1259,17
1260,17
1261,17
1262,17
1263,17
1264,17
1265,17
1266,17
1267,17
1268,17
1269,17
1270,17
1271,17
1272,18
1273,18
1274,17
1275,17
1276,17
1277,18
1278,18
1279,18
1280,17
1281,17
1282,17
1283,17
1284,17
1285,17
1286,17
1287,17
1288,17
1289,17
1290,17
1291,18
1292,18
1293,18
1294,18
1295,18
1296,18
1297,18
1298,17
1299,17
1300,17
1301,17
1302,17
1303,17
1304,17
1305,17
1306,18
1307,18
1308,19
1309,18
1310,18
1311,17
1312,17
1313,17
1314,17
1315,17
1316,17
1317,18
1318,17
1319,17
1320,17
1321,17
1322,17
1323,17
1324,17
1325,17
1326,17
1327,17
1328,17
1329,18
1330,18
1331,18
1332,18
1333,18
1334,18
1335,18
1336,19
1337,18
1338,18
1339,17
1340,17
1341,17
1342,17
1343,17
1344,17
1345,17
1346,17
1347,17
1348,17
1349,17
1350,17
1351,17
1352,17
1353,17
1354,17
1355,17
1356,17
1357,17
1358,17
1359,17
1360,17
1361,17
1362,17
1363,17
1364,17
1365,17
1366,17
1367,17
1368,18
1369,17
1370,18
1371,18
1372,18
1373,19
1374,19
1375,20
1376,19
1377,20
1378,20
1379,19
1380,18
1381,17
1382,17
1383,17
1384,17
1385,17
1386,17
1387,17
1388,17
1389,17
1390,17
1391,17
1392,17
1393,17
1394,17
1395,17
1396,17
1397,17
1398,17
1399,17
1400,17
1401,17
1402,17
1403,17
1404,17
1405,17
1406,17
1407,17
1408,17
1409,17
1410,17
1411,17
1412,17
1413,17
1414,17
1415,17
1416,17
1417,17
1418,17
1419,17
1420,17
1421,17
1422,17
1423,17
1424,17
1425,17
1426,17
1427,17
1428,17
1429,17
1430,18
1431,18
1432,17
1433,17
1434,17
1435,17
1436,17
1437,17
1438,17
1439,17
1440,17
1441,17
1442,17
1443,17
1444,17
1445,17
1446,17
1447,17
1448,17
1449,17
1450,17
1451,17
1452,17
1453,17
1454,17
1455,17
1456,17
1457,17
1458,17
1459,17
1460,17
1461,17
1462,17
1463,17
1464,17
1465,17
1466,17
1467,17
1468,17
1469,17
1470,17
1471,17
1472,17
1473,17
1474,17
1475,17
1476,17
1477,17
1478,17
1479,17
1480,17
1481,17
1482,17
1483,17
1484,17
1485,17
1486,17
1487,17
1488,17
1489,17
1490,17
1491,17
1492,17
1493,17
1494,17
1495,18
1496,18
1497,18
1498,18
1499,18
1500,18
1501,18
1502,18
1503,18
1504,18
1505,17
1506,17
1507,17
1508,17
1509,17
1510,17
1511,17
1512,17
1513,17
1514,17
1515,17
1516,17
1517,17
1518,17
1519,17
1520,17
1521,17
1522,17
1523,17
1524,17
1525,17
1526,17
1527,17
1528,17
1529,17
1530,17
1531,17
1532,17
1533,17
1534,17
1535,17
1536,17
1537,17
1538,17
1539,17
1540,17
1541,17
1542,17
1543,17
1544,17
1545,17
1546,17
1547,17
1548,17
1549,17
1550,17
1551,17
1552,17
1553,17
1554,17
1555,17
1556,17
1557,17
1558,17
1559,17
1560,17
1561,17
1562,17
1563,17
1564,17
1565,17
1566,17
1567,17
1568,17
1569,17
1570,17
1571,17
1572,17
1573,18
1574,18
1575,17
1576,17
1577,17
1578,18
1579,18
1580,18
1581,18
1582,18
1583,18
1584,18
1585,18
1586,18
1587,18
1588,18
1589,18
1590,18
1591,18
1592,18
1593,18
1594,18
1595,18
1596,18
1597,18
1598,18
1599,18
1600,18
1601,18
1602,18
1603,18
1604,18
1605,18
1606,18
1607,18
1608,18
1609,18
1610,18
1611,18
1612,18
1613,18
1614,18
1615,18
1616,18
1617,19
1618,19
1619,19
1620,18
1621,18
1622,18
1623,18
1624,18
1625,18
1626,18
1627,18
1628,18
1629,18
1630,18
1631,18
1632,18
1633,18
1634,18
1635,18
1636,18
1637,18
1638,18
1639,18
1640,18
1641,18
1642,18
1643,18
1644,18
1645,19
1646,19
1647,19
1648,19
1649,19
1650,19
1651,19
1652,20
1653,19
1654,19
1655,19
1656,19
1657,19
1658,18
1659,18
1660,18
1661,18
1662,18
1663,18
1664,18
1665,19
1666,18
1667,18
1668,18
1669,19
1670,19
1671,19
1672,19
1673,19
1674,18
1675,19
1676,18
1677,18
1678,18
1679,18
1680,18
1681,18
1682,18
1683,18
1684,18
1685,18
1686,18
1687,18
1688,18
1689,18
1690,18
1691,18
1692,18
1693,18
1694,18
1695,18
1696,18
1697,18
1698,18
1699,19
1700,19
1701,18
1702,18
1703,18
1704,18
1705,18
1706,18
1707,18
1708,18
1709,18
1710,18
1711,18
1712,18
1713,18
1714,18
1715,18
1716,18
1717,18
1718,18
1719,19
1720,18
1721,18
1722,18
1723,18
1724,18
1725,18
1726,18
1727,18
1728,18
1729,18
1730,18
1731,18
1732,18
1733,18
1734,18
1735,18
1736,18
1737,18
1738,18
1739,18
1740,18
1741,18
1742,18
1743,18
1744,18
1745,18
1746,18
1747,18
1748,18
1749,18
1750,18
1751,18
1752,20
1753,18
1754,18
1755,18
1756,18
1757,18
1758,18
1759,18
1760,18
1761,18
1762,18
1763,18
1764,18
1765,18
1766,18
1767,18
1768,18
1769,18
1770,18
1771,18
1772,18
1773,18
1774,18
1775,18
1776,18
1777,18
1778,18
1779,18
1780,18
1781,18
1782,18
1783,18
1784,18
1785,18
1786,18
1787,18
1788,18
1789,18
1790,18
1791,18
1792,18
1793,18
1794,18
1795,18
1796,18
1797,18
1798,18
1799,18
1800,18
1801,18
1802,18
1803,18
1804,18
1805,18
1806,18
1807,18
1808,18
1809,18
1810,18
1811,18
1812,18
1813,18
1814,18
1815,18
1816,18
1817,18
1818,18
1819,18
1820,18
1821,18
1822,18
1823,18
1824,18
1825,18
1826,18
1827,18
1828,18
1829,18
1830,18
1831,18
1832,18
1833,20
1834,20
1835,20
1836,20
1837,19
1838,19
1839,19
1840,19
1841,19
1842,19
1843,19
1844,19
1845,19
1846,19
1847,20
1848,20
1849,20
1850,20
1851,20
1852,20
1853,20
1854,20
1855,20
1856,20
1857,20
1858,20
1859,20
1860,20
1861,21
1862,20
1863,20
1864,20
1865,20
1866,20
1867,20
1868,20
1869,20
1870,20
1871,20
1872,20
1873,20
1874,20
1875,20
1876,20
1877,20
1878,20
1879,20
1880,20
1881,20
1882,21
1883,21
1884,21
1885,21
1886,21
1887,22
1888,21
1889,21
1890,21
1891,21
1892,21
1893,21
1894,21
1895,21
1896,21
1897,21
1898,21
1899,21
1900,21
1901,21
1902,21
1903,21
1904,21
1905,21
1906,21
1907,22
1908,22
1909,22
1910,23
1911,23
1912,22
1913,22
1914,22
1915,21
1916,21
1917,22
1918,21
1919,21
1920,21
1921,21
1922,21
1923,21
1924,22
1925,21
1926,21
1927,21
1928,21
1929,21
1930,21
1931,21
1932,21
1933,21
1934,21
1935,21
1936,21
1937,21
1938,21
1939,21
1940,21
1941,21
1942,21
1943,21
1944,21
1945,21
1946,21
1947,21
1948,21
1949,21
1950,21
1951,21
1952,21
1953,21
1954,21
1955,21
1956,21
1957,21
1958,21
1959,21
1960,21
1961,21
1962,21
1963,21
1964,21
1965,21
1966,21
1967,21
1968,21
1969,21
1970,21
1971,21
1972,21
1973,21
1974,21
1975,21
1976,21
1977,21
1978,21
1979,21
1980,21
1981,21
1982,21
1983,22
1984,21
1985,21
1986,21
1987,21
1988,21
1989,21
1990,21
1991,21
1992,21
1993,21
1994,21
1995,21
1996,21
1997,21
1998,21
1999,21
2000,21
2001,21
2002,21
2003,21
2004,21
2005,21
2006,21
2007,21
2008,21
2009,21
2010,21
2011,21
2012,21
2013,21
2014,21
2015,21
2016,21
2017,21
2018,21
2019,21
2020,21
2021,21
2022,22
2023,21
2024,21
2025,21
2026,21
2027,21
2028,21
2029,21
2030,21
2031,21
2032,21
2033,21
2034,21
2035,21
2036,21
2037,21
2038,21
2039,21
2040,21
2041,21
2042,21
2043,21
2044,21
2045,22
2046,22
2047,21
2048,21
2049,21
2050,21
2051,21
2052,21
2053,21
2054,21
2055,22
2056,22
2057,22
2058,22
2059,22
2060,22
2061,22
2062,22
2063,22
2064,22
2065,22
2066,22
2067,22
2068,22
2069,22
2070,22
2071,22
2072,22
2073,22
2074,22
2075,22
2076,22
2077,22
2078,22
2079,22
2080,22
2081,22
2082,22
2083,22
2084,22
2085,22
2086,22
2087,22
2088,22
2089,22
2090,22
2091,22
2092,23
2093,23
2094,23
2095,23
2096,23
2097,23
2098,23
2099,23
2100,22
2101,23
2102,23
2103,23
2104,23
2105,23
2106,23
2107,23
2108,23
2109,23
2110,23
2111,23
2112,23
2113,23
2114,23
2115,23
2116,23
2117,22
2118,22
2119,22
2120,22
2121,22
2122,22
2123,22
2124,22
2125,22
2126,22
2127,23
2128,23
2129,22
2130,22
2131,22
2132,22
2133,22
2134,22
2135,22
2136,22
2137,22
2138,22
2139,22
2140,22
2141,22
2142,22
2143,22
2144,22
2145,23
2146,22
2147,22
2148,22
2149,22
2150,22
2151,22
2152,22
2153,22
2154,22
2155,22
2156,22
2157,22
2158,22
2159,22
2160,22
2161,22
2162,22
2163,22
2164,22
2165,23
2166,22
2167,22
2168,22
2169,22
2170,22
2171,22
2172,22
2173,22
2174,22
2175,23
2176,23
2177,23
2178,24
2179,23
2180,23
2181,23
2182,23
2183,23
2184,23
2185,23
2186,23
2187,23
2188,23
2189,23
2190,23
2191,23
2192,23
2193,23
2194,23
2195,23
2196,23
2197,23
2198,24
2199,23
2200,23
2201,23
2202,23
2203,23
2204,23
2205,23
2206,23
2207,23
2208,23
2209,23
2210,23
2211,23
2212,23
2213,23
2214,23
2215,23
2216,23
2217,23
2218,23
2219,23
2220,23
2221,23
2222,23
2223,23
2224,23
2225,23
2226,23
2227,23
2228,23
2229,23
2230,23
2231,23
2232,23
2233,23
2234,23
2235,23
2236,23
2237,23
2238,23
2239,23
2240,24
2241,23
2242,23
2243,24
2244,23
2245,23
2246,23
2247,23
2248,23
2249,23
2250,23
2251,23
2252,23
2253,23
2254,23
2255,23
2256,23
2257,24
2258,23
2259,23
2260,23
2261,23
2262,23
2263,23
2264,23
2265,23
2266,23
2267,23
2268,23
2269,23
2270,23
2271,23
2272,23
2273,23
2274,23
2275,23
2276,23
2277,23
2278,23
2279,24
2280,24
2281,23
2282,23
2283,23
2284,23
2285,23
2286,23
2287,23
2288,23
2289,23
2290,23
2291,23
2292,23
2293,23
2294,23
2295,23
2296,23
2297,23
2298,23
2299,23
2300,23
2301,23
2302,23
2303,23
2304,23
2305,24
2306,24
2307,24
2308,24
2309,24
2310,24
2311,24
2312,24
2313,24
2314,24
2315,25
2316,25
2317,25
2318,25
2319,26
2320,26
2321,25
2322,25
2323,25
2324,24
2325,24
2326,25
2327,24
2328,24
2329,24
2330,24
2331,24
2332,24
2333,24
2334,24
2335,24
2336,24
2337,24
2338,24
2339,24
2340,24
2341,24
2342,24
2343,24
2344,24
2345,24
2346,24
2347,24
2348,25
2349,25
2350,25
2351,26
2352,26
2353,25
2354,25
2355,25
2356,25
2357,25
2358,25
2359,25
2360,25
2361,25
2362,25
2363,25
2364,25
2365,25
2366,25
2367,25
2368,25
2369,25
2370,25
2371,26
2372,26
2373,26
2374,26
2375,26
2376,26
2377,26
2378,26
2379,26
2380,26
2381,26
2382,26
2383,26
2384,26
2385,26
2386,26
2387,26
2388,26
2389,26
2390,25
2391,25
2392,25
2393,25
2394,25
2395,25
2396,25
2397,25
2398,25
2399,25
2400,25
2401,26
2402,26
2403,26
2404,26
2405,26
2406,25
2407,25
2408,25
2409,25
2410,25
2411,25
2412,25
2413,25
2414,25
2415,25
2416,25
2417,26
2418,26
2419,26
2420,26
2421,26
2422,26
2423,26
2424,26
2425,26
2426,26
2427,26
2428,26
2429,26
2430,26
2431,26
2432,26
2433,26
2434,26
2435,26
2436,26
2437,26
2438,26
2439,26
2440,26
2441,26
2442,26
2443,26
2444,26
2445,26
2446,26
2447,26
2448,26
2449,26
2450,26
2451,26
2452,26
2453,26
2454,26
2455,27
2456,28
2457,28
2458,28
2459,27
2460,27
2461,27
2462,27
2463,27
2464,27
2465,28
2466,27
2467,27
2468,27
2469,27
2470,27
2471,27
2472,27
2473,27
2474,27
2475,27
2476,27
2477,27
2478,27
2479,27
2480,27
2481,27
2482,27
2483,27
2484,27
2485,28
2486,27
2487,27
2488,26
2489,26
2490,26
2491,26
2492,26
2493,26
2494,26
2495,26
2496,26
2497,26
2498,26
2499,26
2500,26
2501,26
2502,26
2503,26
2504,26
2505,26
2506,27
2507,27
2508,27
2509,27
2510,27
2511,27
2512,27
2513,27
2514,27
2515,26
2516,26
2517,27
2518,26
2519,26
2520,26
2521,26
2522,26
2523,26
2524,26
2525,26
2526,26
2527,26
2528,26
2529,26
2530,26
2531,26
2532,26
2533,26
2534,26
2535,26
2536,26
2537,26
2538,26
2539,26
2540,26
2541,26
2542,26
2543,26
2544,26
2545,26
2546,26
2547,26
2548,26
2549,27
2550,27
2551,27
2552,27
2553,26
2554,26
2555,26
2556,26
2557,26
2558,26
2559,26
2560,26
2561,26
2562,26
2563,26
2564,26
2565,26
2566,26
2567,26
2568,26
2569,26
2570,26
2571,27
2572,26
2573,26
2574,26
2575,27
2576,28
2577,27
2578,26
2579,26
2580,26
2581,26
2582,26
2583,26
2584,26
2585,26
2586,26
2587,26
2588,26
2589,26
2590,26
2591,26
2592,26
2593,26
2594,26
2595,26
2596,26
2597,26
2598,26
2599,26
2600,26
2601,26
2602,26
2603,26
2604,26
2605,26
2606,26
2607,26
2608,26
2609,26
2610,26
2611,26
2612,26
2613,27
2614,27
2615,28
2616,29
2617,28
2618,28
2619,26
2620,26
2621,26
2622,26
2623,26
2624,26
2625,26
2626,26
2627,26
2628,26
2629,26
2630,26
2631,26
2632,26
2633,26
2634,26
2635,26
2636,26
2637,26
2638,26
2639,26
2640,26
2641,26
2642,26
2643,26
2644,26
2645,26
2646,26
2647,26
2648,26
2649,26
2650,26
2651,26
2652,26
2653,26
2654,26
2655,26
2656,26
2657,26
2658,26
2659,26
2660,26
2661,26
2662,26
2663,26
2664,26
2665,26
2666,26
2667,26
2668,26
2669,26
2670,26
2671,26
2672,26
2673,26
2674,26
2675,26
2676,26
2677,26
2678,26
2679,26
2680,27
2681,26
2682,26
2683,26
2684,26
2685,26
2686,26
2687,26
2688,26
2689,26
2690,26
2691,26
2692,26
2693,26
2694,26
2695,26
2696,26
2697,26
2698,26
2699,26
2700,26
2701,26
2702,26
2703,27
2704,27
2705,27
2706,27
2707,27
2708,27
2709,27
2710,27
2711,27
2712,28
2713,27
2714,27
2715,27
2716,27
2717,27
2718,27
2719,27
2720,27
2721,27
2722,26
2723,26
2724,26
2725,26
2726,27
2727,27
2728,26
2729,26
2730,26
2731,26
2732,26
2733,26
2734,26
2735,26
2736,26
2737,26
2738,26
2739,26
2740,26
2741,26
2742,26
2743,26
2744,26
2745,26
2746,26
2747,26
2748,26
2749,26
2750,26
2751,26
2752,26
2753,26
2754,26
2755,26
2756,26
2757,26
2758,26
2759,26
2760,26
2761,27
2762,27
2763,27
2764,28
2765,27
2766,27
2767,27
2768,27
2769,27
2770,27
2771,27
2772,27
2773,27
2774,26
2775,26
2776,26
2777,26
2778,26
2779,26
2780,26
2781,26
2782,26
2783,26
2784,26
2785,26
2786,26
2787,26
2788,26
2789,26
2790,26
2791,26
2792,26
2793,26
2794,26
2795,26
2796,26
2797,26
2798,26
2799,27
2800,27
2801,27
2802,27
2803,26
2804,26
2805,26
2806,26
2807,26
2808,26
2809,26
2810,26
2811,26
2812,26
2813,26
2814,26
2815,26
2816,26
2817,26
2818,26
2819,26
2820,26
2821,26
2822,26
2823,27
2824,26
2825,27
2826,27
2827,26
2828,26
2829,27
2830,26
2831,26
2832,26
2833,26
2834,26
2835,26
2836,26
2837,26
2838,26
2839,26
2840,26
2841,26
2842,26
2843,26
2844,26
2845,26
2846,26
2847,26
2848,26
2849,26
2850,26
2851,26
2852,26
2853,26
2854,26
2855,26
2856,26
2857,26
2858,26
2859,26
2860,27
2861,26
2862,26
2863,26
2864,26
2865,26
2866,26
2867,26
2868,26
2869,26
2870,26
2871,26
2872,26
2873,26
2874,26
2875,26
2876,26
2877,26
2878,26
2879,26
2880,26
2881,26
2882,26
2883,26
2884,26
2885,26
2886,26
2887,26
2888,26
2889,26
2890,26
2891,26
2892,26
2893,26
2894,26
2895,26
2896,26
2897,26
2898,26
2899,26
2900,26
2901,26
2902,26
2903,26
2904,26
2905,26
2906,26
2907,26
2908,26
2909,26
2910,26
2911,27
2912,27
2913,26
2914,26
2915,26
2916,26
2917,26
2918,26
2919,26
2920,26
2921,26
2922,27
2923,26
2924,26
2925,26
2926,26
2927,26
2928,26
2929,27
2930,26
2931,26
2932,26
2933,26
2934,26
2935,26
2936,26
2937,26
2938,26
2939,26
2940,26
2941,26
2942,26
2943,26
2944,26
2945,26
2946,26
2947,26
2948,26
2949,26
2950,26
2951,26
2952,26
2953,26
2954,26
2955,26
2956,26
2957,26
2958,26
2959,26
2960,26
2961,26
2962,26
2963,26
2964,26
2965,26
2966,26
2967,26
2968,26
2969,26
2970,26
2971,26
2972,26
2973,26
2974,26
2975,26
2976,26
2977,26
2978,26
2979,26
2980,26
2981,26
2982,26
2983,26
2984,26
2985,26
2986,26
2987,26
2988,26
2989,26
2990,26
2991,26
2992,26
2993,26
2994,26
2995,26
2996,26
2997,26
2998,26
2999,26
3000,26
3001,26
3002,27
3003,27
3004,27
3005,27
3006,27
3007,27
3008,27
3009,27
3010,28
3011,28
3012,28
3013,28
3014,28
3015,28
3016,28
3017,27
3018,27
3019,27
3020,27
3021,27
3022,27
3023,27
3024,27
3025,27
3026,27
3027,27
3028,27
3029,27
3030,27
3031,27
3032,27
3033,27
3034,27
3035,27
3036,27
3037,27
3038,27
3039,27
3040,27
3041,27
3042,27
3043,27
3044,27
3045,27
3046,27
3047,27
3048,27
3049,27
3050,27
3051,27
3052,27
3053,27
3054,27
3055,27
3056,27
3057,27
3058,27
3059,27
3060,27
3061,27
3062,27
3063,27
3064,27
3065,27
3066,27
3067,27
3068,27
3069,27
3070,27
3071,27
3072,27
3073,27
3074,27
3075,27
3076,27
3077,27
3078,27
3079,27
3080,27
3081,27
3082,27
3083,27
3084,27
3085,27
3086,27
3087,27
3088,27
3089,27
3090,27
3091,27
3092,27
3093,27
3094,27
3095,27
3096,27
3097,28
3098,28
3099,28
3100,28
3101,28
3102,28
3103,27
3104,27
3105,28
3106,28
3107,28
3108,28
3109,29
3110,30
3111,30
3112,30
3113,29
3114,29
3115,28
3116,28
3117,28
3118,28
3119,29
3120,29
3121,28
3122,28
3123,28
3124,28
3125,28
3126,28
3127,28
3128,28
3129,28
3130,29
3131,29
3132,29
3133,28
3134,28
3135,29
3136,29
3137,29
3138,28
3139,28
3140,28
3141,28
3142,28
3143,28
3144,28
3145,28
3146,28
3147,28
3148,29
3149,29
3150,28
3151,28
3152,28
3153,28
3154,29
3155,29
3156,29
3157,29
3158,29
3159,29
3160,28
3161,28
3162,28
3163,27
3164,27
3165,27
3166,27
3167,27
3168,27
3169,27
3170,27
3171,27
3172,27
3173,27
3174,27
3175,27
3176,27
3177,27
3178,27
3179,27
3180,27
3181,27
3182,27
3183,28
3184,27
3185,27
3186,27
3187,27
3188,27
3189,27
3190,28
3191,28
3192,28
3193,28
3194,28
3195,28
3196,28
3197,28
3198,28
3199,28
3200,28
3201,28
3202,28
3203,28
3204,28
3205,28
3206,29
3207,28
3208,28
3209,27
3210,27
3211,27
3212,27
3213,27
3214,27
3215,27
3216,27
3217,27
3218,27
3219,27
3220,27
3221,27
3222,27
3223,28
3224,28
3225,29
3226,29
3227,26
3228,26
3229,26
3230,26
3231,26
3232,26
3233,26
3234,26
3235,26
3236,26
3237,26
3238,26
3239,26
3240,26
3241,26
3242,26
3243,26
3244,26
3245,26
3246,26
3247,26
3248,26
3249,27
3250,27
3251,27
3252,27
3253,27
3254,27
3255,26
3256,26
3257,26
3258,26
3259,26
3260,26
3261,26
3262,26
3263,26
3264,26
3265,26
3266,26
3267,26
3268,26
3269,26
3270,26
3271,26
3272,26
3273,26
3274,26
3275,26
3276,26
3277,26
3278,26
3279,26
3280,26
3281,26
3282,26
3283,26
3284,26
3285,26
3286,26
3287,26
3288,27
3289,26
3290,26
3291,26
3292,26
3293,26
3294,26
3295,26
3296,26
3297,26
3298,26
3299,26
3300,26
3301,26
3302,26
3303,26
3304,26
3305,26
3306,26
3307,26
3308,26
3309,26
3310,26
3311,26
3312,26
3313,26
3314,27
3315,27
3316,26
3317,26
3318,26
3319,26
3320,26
3321,26
3322,26
3323,26
3324,26
3325,26
3326,26
3327,26
3328,26
3329,26
3330,26
3331,26
3332,26
3333,26
3334,27
3335,26
3336,26
3337,26
3338,26
3339,26
3340,26
3341,26
3342,26
3343,26
3344,26
3345,26
3346,26
3347,26
3348,26
3349,26
3350,26
3351,26
3352,26
3353,26
3354,26
3355,26
3356,26
3357,26
3358,26
3359,26
3360,27
3361,27
3362,27
3363,28
3364,27
3365,27
3366,27
3367,26
3368,26
3369,26
3370,26
3371,26
3372,27
3373,27
3374,26
3375,26
3376,26
3377,26
3378,26
3379,26
3380,26
3381,26
3382,26
3383,27
3384,27
3385,27
3386,27
3387,27
3388,26
3389,26
3390,26
3391,26
3392,26
3393,26
3394,26
3395,26
3396,26
3397,27
3398,26
3399,26
3400,26
3401,26
3402,26
3403,26
3404,26
3405,26
3406,26
3407,26
3408,27
3409,26
3410,26
3411,26
3412,26
3413,26
3414,26
3415,26
3416,26
3417,26
3418,26
3419,26
3420,27
3421,26
3422,26
3423,26
3424,26
3425,26
3426,26
3427,26
3428,26
3429,26
3430,26
3431,27
3432,26
3433,26
3434,26
3435,26
3436,26
3437,26
3438,26
3439,26
3440,26
3441,26
3442,27
3443,26
3444,26
3445,26
3446,26
3447,26
3448,26
3449,26
3450,26
3451,26
3452,26
3453,26
3454,26
3455,26
3456,26
3457,26
3458,26
3459,26
3460,26
3461,26
3462,26
3463,26
3464,26
3465,26
3466,26
3467,26
3468,26
3469,26
3470,26
3471,26
3472,26
3473,26
3474,26
3475,26
3476,26
3477,26
3478,26
3479,26
3480,26
3481,26
3482,26
3483,26
3484,26
3485,26
3486,26
3487,26
3488,26
3489,26
3490,26
3491,26
3492,26
3493,26
3494,26
3495,26
3496,26
3497,26
3498,26
3499,26
3500,26
3501,26
3502,26
3503,26
3504,26
3505,26
3506,26
3507,27
3508,27
3509,27
3510,27
3511,27
3512,27
3513,27
3514,27
3515,27
3516,28
3517,27
3518,27
3519,27
3520,27
3521,27
3522,27
3523,27
3524,26
3525,26
3526,26
3527,26
3528,26
3529,26
3530,26
3531,26
3532,26
3533,26
3534,26
3535,26
3536,26
3537,26
3538,26
3539,26
3540,27
3541,27
3542,27
3543,27
3544,27
3545,27
3546,27
3547,27
3548,27
3549,28
3550,28
3551,29
3552,29
3553,28
3554,28
3555,27
3556,27
3557,27
3558,27
3559,27
3560,27
3561,27
3562,27
3563,27
3564,27
3565,27
3566,27
3567,27
3568,27
3569,27
3570,27
3571,27
3572,27
3573,28
3574,28
3575,27
3576,27
3577,27
3578,27
3579,27
3580,27
3581,27
3582,27
3583,28
3584,28
3585,28
3586,27
3587,26
3588,26
3589,26
3590,26
3591,26
3592,26
3593,26
3594,26
3595,26
3596,26
3597,26
3598,26
3599,26
3600,27
3601,27
3602,27
3603,27
3604,27
3605,27
3606,27
3607,27
3608,27
3609,26
3610,26
3611,27
3612,26
3613,26
3614,26
3615,26
3616,27
3617,26
3618,26
3619,26
3620,26
3621,26
3622,26
3623,26
3624,26
3625,26
3626,26
3627,27
3628,28
3629,27
3630,26
3631,26
3632,26
3633,27
3634,27
3635,27
3636,28
3637,28
3638,27
3639,27
3640,27
3641,28
3642,27
3643,28
3644,29
3645,29
3646,28
3647,28
3648,28
3649,27
3650,27
3651,27
3652,27
3653,27
3654,27
3655,27
3656,27
3657,27
3658,27
3659,27
3660,27
3661,27
3662,27
3663,27
3664,27
3665,27
3666,27
3667,27
3668,27
3669,27
3670,27
3671,27
3672,27
3673,27
3674,27
3675,27
3676,27
3677,28
3678,27
3679,28
3680,27
3681,27
3682,27
3683,27
3684,27
3685,27
3686,27
3687,27
3688,27
3689,27
3690,27
3691,27
3692,27
3693,27
3694,27
3695,27
3696,27
3697,28
3698,28
3699,28
3700,28
3701,28
3702,28
3703,28
3704,28
3705,28
3706,28
3707,27
3708,27
3709,27
3710,28
3711,28
3712,28
3713,28
3714,28
3715,28
3716,27
3717,27
3718,27
3719,27
3720,28
3721,28
3722,27
3723,27
3724,27
3725,27
3726,27
3727,27
3728,27
3729,27
3730,27
3731,27
3732,27
3733,27
3734,27
3735,27
3736,28
3737,27
3738,27
3739,28
3740,28
3741,28
3742,28
3743,28
3744,28
3745,29
3746,28
3747,28
3748,27
3749,27
3750,27
3751,28
3752,27
3753,28
3754,27
3755,27
3756,27
3757,27
3758,27
3759,27
3760,27
3761,27
3762,27
3763,27
3764,27
3765,27
3766,27
3767,27
3768,27
3769,27
3770,27
3771,27
3772,27
3773,27
3774,27
3775,27
3776,27
3777,27
3778,27
3779,27
3780,27
3781,27
3782,27
3783,28
3784,27
3785,27
3786,27
3787,27
3788,27
3789,27
3790,27
3791,27
3792,27
3793,27
3794,27
3795,27
3796,27
3797,27
3798,27
3799,27
3800,27
3801,27
3802,27
3803,27
3804,27
3805,27
3806,27
3807,27
3808,28
3809,28
3810,27
3811,27
3812,27
3813,27
3814,28
3815,27
3816,27
3817,27
3818,27
3819,27
3820,27
3821,27
3822,28
3823,28
3824,29
3825,28
3826,28
3827,28
3828,29
3829,29
3830,28
3831,28
3832,27
3833,27
3834,27
3835,27
3836,27
3837,27
3838,27
3839,27
3840,28
3841,28
3842,28
3843,28
3844,27
3845,27
3846,27
3847,28
3848,27
3849,27
3850,27
3851,27
3852,27
3853,27
3854,27
3855,27
3856,27
3857,27
3858,28
3859,29
3860,28
3861,28
3862,28
3863,28
3864,28
3865,28
3866,28
3867,27
3868,27
3869,27
3870,27
3871,27
3872,27
3873,27
3874,27
3875,27
3876,27
3877,28
3878,27
3879,27
3880,27
3881,27
3882,27
3883,27
3884,27
3885,27
3886,27
3887,27
3888,27
3889,27
3890,27
3891,27
3892,27
3893,27
3894,27
3895,27
3896,27
3897,27
3898,27
3899,27
3900,27
3901,27
3902,27
3903,27
3904,27
3905,27
3906,27
3907,27
3908,27
3909,27
3910,27
3911,27
3912,27
3913,27
3914,27
3915,27
3916,27
3917,27
3918,27
3919,27
3920,27
3921,27
3922,27
3923,27
3924,27
3925,27
3926,27
3927,27
3928,27
3929,27
3930,27
3931,27
3932,27
3933,27
3934,27
3935,27
3936,27
3937,27
3938,27
3939,27
3940,27
3941,27
3942,27
3943,27
3944,27
3945,27
3946,27
3947,27
3948,27
3949,27
3950,27
3951,27
3952,27
3953,27
3954,27
3955,27
3956,27
3957,27
3958,27
3959,27
3960,27
3961,27
3962,27
3963,27
3964,27
3965,28
3966,28
3967,27
3968,27
3969,27
3970,27
3971,27
3972,27
3973,27
3974,27
3975,27
3976,27
3977,27
3978,28
3979,28
3980,29
3981,28
3982,28
3983,28
3984,28
3985,28
3986,28
3987,28
3988,28
3989,28
3990,28
3991,28
3992,28
3993,29
3994,28
3995,28
3996,28
3997,28
3998,28
3999,28
4000,28
4001,28
4002,28
4003,29
4004,29
4005,29
4006,29
4007,29
4008,28
4009,28
4010,29
4011,28
4012,28
4013,28
4014,28
4015,28
4016,28
4017,28
4018,28
4019,28
4020,28
4021,28
4022,28
4023,28
4024,28
4025,28
4026,28
4027,28
4028,28
4029,28
4030,28
4031,28
4032,28
4033,28
4034,28
4035,28
4036,28
4037,28
4038,28
4039,28
4040,28
4041,29
4042,29
4043,29
4044,29
4045,29
4046,29
4047,29
4048,28
4049,28
4050,28
4051,28
4052,28
4053,28
4054,28
4055,28
4056,28
4057,28
4058,28
4059,28
4060,29
4061,29
4062,29
4063,29
4064,29
4065,29
4066,29
4067,29
4068,29
4069,29
4070,29
4071,29
4072,29
4073,30
4074,29
4075,29
4076,29
4077,29
4078,29
4079,30
4080,30
4081,31
4082,31
4083,30
4084,30
4085,30
4086,31
4087,30
4088,30
4089,30
4090,30
4091,30
4092,30
4093,30
4094,30
4095,30
4096,30
4097,30
4098,29
4099,29
4100,29
4101,29
4102,29
4103,29
4104,29
4105,29
4106,29
4107,29
4108,29
4109,29
4110,29
4111,29
4112,29
4113,29
4114,29
4115,29
4116,29
4117,29
4118,29
4119,29
4120,29
4121,29
4122,29
4123,29
4124,29
4125,30
4126,30
4127,29
4128,29
4129,29
4130,29
4131,29
4132,29
4133,29
4134,29
4135,29
4136,29
4137,29
4138,29
4139,30
4140,30
4141,29
4142,29
4143,29
4144,29
4145,29
4146,29
4147,29
4148,29
4149,29
4150,29
4151,29
4152,29
4153,29
4154,29
4155,29
4156,29
4157,29
4158,29
4159,29
4160,29
4161,29
4162,29
4163,29
4164,29
4165,29
4166,29
4167,29
4168,29
4169,29
4170,29
4171,29
4172,29
4173,29
4174,29
4175,29
4176,29
4177,29
4178,29
4179,29
4180,29
4181,29
4182,29
4183,29
4184,29
4185,29
4186,29
4187,29
4188,29
4189,29
4190,29
4191,29
4192,29
4193,30
4194,30
4195,30
4196,30
4197,30
4198,30
4199,30
4200,31
4201,30
4202,30
4203,30
4204,30
4205,30
4206,29
4207,29
4208,29
4209,29
4210,29
4211,29
4212,30
4213,30
4214,30
4215,30
4216,30
4217,30
4218,30
4219,30
4220,29
4221,29
4222,29
4223,30
4224,30
4225,29
4226,29
4227,29
4228,29
4229,29
4230,29
4231,29
4232,29
4233,29
4234,29
4235,29
4236,29
4237,29
4238,29
4239,29
4240,29
4241,29
4242,29
4243,29
4244,29
4245,29
4246,29
4247,29
4248,29
4249,29
4250,30
4251,29
4252,29
4253,29
4254,29
4255,29
4256,29
4257,29
4258,29
4259,29
4260,29
4261,29
4262,29
4263,29
4264,30
4265,30
4266,30
4267,30
4268,29
4269,29
4270,29
4271,29
4272,29
4273,29
4274,29
4275,29
4276,29
4277,29
4278,29
4279,29
4280,29
4281,29
4282,29
4283,29
4284,29
4285,29
4286,29
4287,29
4288,29
4289,30
4290,30
4291,30
4292,29
4293,30
4294,30
4295,30
4296,30
4297,30
4298,30
4299,30
4300,30
4301,30
4302,30
4303,30
4304,30
4305,30
4306,30
4307,30
4308,30
4309,30
4310,30
4311,30
4312,30
4313,30
4314,30
4315,30
4316,30
4317,30
4318,30
4319,30
4320,30
4321,30
4322,31
4323,31
4324,31
4325,31
4326,30
4327,30
4328,30
4329,31
4330,31
4331,30
4332,30
4333,30
4334,30
4335,30
4336,30
4337,31
4338,30
4339,30
4340,30
4341,30
4342,30
4343,30
4344,30
4345,30
4346,30
4347,30
4348,30
4349,30
4350,30
4351,30
4352,30
4353,30
4354,30
4355,30
4356,30
4357,30
4358,30
4359,30
4360,30
4361,30
4362,30
4363,30
4364,30
4365,30
4366,30
4367,30
4368,30
4369,30
4370,30
4371,30
4372,30
4373,30
4374,30
4375,30
4376,30
4377,30
4378,30
4379,30
4380,30
4381,31
4382,30
4383,30
4384,30
4385,30
4386,30
4387,30
4388,30
4389,30
4390,30
4391,30
4392,30
4393,32
4394,30
4395,30
4396,30
4397,30
4398,30
4399,30
4400,30
4401,31
4402,30
4403,30
4404,30
4405,30
4406,30
4407,30
4408,30
4409,30
4410,30
4411,30
4412,30
4413,30
4414,30
4415,30
4416,31
4417,30
4418,30
4419,30
4420,30
4421,30
4422,30
4423,30
4424,30
4425,30
4426,30
4427,30
4428,30
4429,30
4430,30
4431,30
4432,30
4433,31
4434,31
4435,31
4436,30
4437,30
4438,30
4439,30
4440,30
4441,30
4442,30
4443,30
4444,30
4445,31
4446,31
4447,31
4448,30
4449,30
4450,31
4451,31
4452,30
4453,30
4454,30
4455,30
4456,30
4457,30
4458,30
4459,30
4460,30
4461,30
4462,31
4463,31
4464,31
4465,30
4466,30
4467,30
4468,30
4469,30
4470,30
4471,30
4472,30
4473,30
4474,30
4475,30
4476,30
4477,30
4478,30
4479,30
4480,30
4481,30
4482,30
4483,30
4484,30
4485,30
4486,30
4487,30
4488,30
4489,30
4490,30
4491,30
4492,30
4493,30
4494,30
4495,31
4496,30
4497,30
4498,30
4499,30
4500,30
4501,30
4502,30
4503,30
4504,30
4505,30
4506,30
4507,30
4508,31
4509,31
4510,31
4511,31
4512,30
4513,30
4514,30
4515,30
4516,30
4517,31
4518,30
4519,30
4520,30
4521,30
4522,30
4523,30
4524,30
4525,30
4526,30
4527,30
4528,30
4529,30
4530,30
4531,30
4532,30
4533,30
4534,30
4535,30
4536,31
4537,31
4538,30
4539,30
4540,30
4541,30
4542,30
4543,30
4544,30
4545,30
4546,30
4547,30
4548,31
4549,31
4550,31
4551,31
4552,31
4553,31
4554,31
4555,30
4556,30
4557,30
4558,30
4559,30
4560,30
4561,30
4562,30
4563,30
4564,30
4565,30
4566,30
4567,30
4568,30
4569,30
4570,30
4571,30
4572,30
4573,31
4574,31
4575,31
4576,31
4577,31
4578,31
4579,32
4580,32
4581,31
4582,31
4583,31
4584,31
4585,30
4586,30
4587,31
4588,30
4589,30
4590,30
4591,30
4592,30
4593,30
4594,30
4595,30
4596,30
4597,30
4598,31
4599,30
4600,30
4601,30
4602,30
4603,30
4604,30
4605,31
4606,30
4607,30
4608,30
4609,30
4610,31
4611,30
4612,30
4613,30
4614,31
4615,30
4616,30
4617,30
4618,30
4619,30
4620,30
4621,30
4622,30
4623,30
4624,30
4625,30
4626,30
4627,30
4628,30
4629,30
4630,30
4631,30
4632,31
4633,31
4634,30
4635,30
4636,30
4637,30
4638,30
4639,30
4640,30
4641,30
4642,30
4643,30
4644,30
4645,30
4646,30
4647,30
4648,30
4649,30
4650,30
4651,30
4652,30
4653,30
4654,30
4655,31
4656,30
4657,30
4658,30
4659,30
4660,30
4661,30
4662,30
4663,30
4664,30
4665,30
4666,30
4667,30
4668,30
4669,31
4670,31
4671,31
4672,30
4673,31
4674,31
4675,31
4676,31
4677,30
4678,30
4679,30
4680,30
4681,30
4682,30
4683,30
4684,30
4685,30
4686,30
4687,30
4688,30
4689,30
4690,30
4691,30
4692,31
4693,31
4694,31
4695,31
4696,31
4697,31
4698,31
4699,31
4700,31
4701,31
4702,31
4703,30
4704,30
4705,30
4706,30
4707,30
4708,30
4709,30
4710,30
4711,30
4712,30
4713,30
4714,30
4715,30
4716,30
4717,30
4718,30
4719,30
4720,30
4721,30
4722,30
4723,31
4724,30
4725,30
4726,30
4727,30
4728,30
4729,30
4730,30
4731,30
4732,30
4733,30
4734,30
4735,30
4736,30
4737,30
4738,30
4739,30
4740,30
4741,30
4742,30
4743,30
4744,30
4745,30
4746,30
4747,30
4748,30
4749,30
4750,30
4751,30
4752,30
4753,30
4754,30
4755,30
4756,30
4757,30
4758,31
4759,31
4760,30
4761,30
4762,30
4763,30
4764,31
4765,31
4766,30
4767,30
4768,30
4769,30
4770,30
4771,30
4772,30
4773,30
4774,30
4775,30
4776,30
4777,30
4778,30
4779,30
4780,30
4781,31
4782,31
4783,30
4784,30
4785,30
4786,30
4787,30
4788,30
4789,30
4790,30
4791,30
4792,30
4793,30
4794,30
4795,30
4796,30
4797,30
4798,30
4799,30
4800,30
4801,30
4802,30
4803,31
4804,30
4805,30
4806,30
4807,30
4808,30
4809,30
4810,31
4811,30
4812,30
4813,30
4814,30
4815,30
4816,30
4817,30
4818,31
4819,31
4820,30
4821,30
4822,30
4823,30
4824,30
4825,30
4826,30
4827,30
4828,30
4829,30
4830,30
4831,31
4832,31
4833,31
4834,31
4835,31
4836,31
4837,31
4838,31
4839,31
4840,31
4841,31
4842,31
4843,31
4844,31
4845,31
4846,30
4847,30
4848,30
4849,30
4850,30
4851,30
4852,30
4853,30
4854,30
4855,31
4856,31
4857,31
4858,30
4859,30
4860,30
4861,30
4862,30
4863,30
4864,30
4865,30
4866,30
4867,30
4868,30
4869,30
4870,31
4871,30
4872,30
4873,30
4874,30
4875,30
4876,30
4877,30
4878,30
4879,30
4880,30
4881,30
4882,30
4883,31
4884,31
4885,31
4886,31
4887,31
4888,31
4889,30
4890,32
4891,33
4892,32
4893,30
4894,30
4895,30
4896,30
4897,30
4898,30
4899,30
4900,30
4901,30
4902,30
4903,30
4904,30
4905,30
4906,30
4907,30
4908,30
4909,31
4910,31
4911,31
4912,30
4913,30
4914,30
4915,30
4916,30
4917,30
4918,30
4919,30
4920,30
4921,30
4922,30
4923,30
4924,31
4925,31
4926,32
4927,32
4928,31
4929,30
4930,30
4931,30
4932,30
4933,31
4934,31
4935,31
4936,31
4937,31
4938,31
4939,31
4940,31
4941,31
4942,31
4943,31
4944,31
4945,31
4946,31
4947,31
4948,31
4949,31
4950,31
4951,31
4952,31
4953,31
4954,31
4955,31
4956,31
4957,31
4958,31
4959,31
4960,31
4961,31
4962,31
4963,31
4964,31
4965,31
4966,31
4967,31
4968,31
4969,31
4970,31
4971,31
4972,31
4973,32
4974,32
4975,31
4976,31
4977,31
4978,31
4979,31
4980,31
4981,32
4982,32
4983,32
4984,32
4985,32
4986,32
4987,31
4988,31
4989,32
4990,31
4991,31
4992,31
4993,32
4994,31
4995,31
4996,32
4997,32
4998,32
4999,32
5000,32
5001,31
5002,31
5003,31
5004,31
5005,31
5006,31
5007,31
5008,31
5009,31
5010,31
5011,31
5012,31
5013,31
5014,31
5015,31
5016,31
5017,31
5018,31
5019,31
5020,30
5021,30
5022,30
5023,30
5024,30
5025,30
5026,30
5027,30
5028,30
5029,30
5030,31
5031,30
5032,30
5033,30
5034,30
5035,30
5036,30
5037,30
5038,30
5039,30
5040,30
5041,30
5042,30
5043,30
5044,30
5045,30
5046,30
5047,30
5048,30
5049,30
5050,31
5051,31
5052,31
5053,30
5054,30
5055,30
5056,30
5057,30
5058,30
5059,30
5060,30
5061,30
5062,30
5063,30
5064,30
5065,30
5066,30
5067,30
5068,30
5069,30
5070,30
5071,30
5072,30
5073,31
5074,31
5075,31
5076,32
5077,31
5078,32
5079,32
5080,32
5081,31
5082,31
5083,31
5084,31
5085,31
5086,31
5087,31
5088,31
5089,31
5090,31
5091,31
5092,30
5093,30
5094,30
5095,30
5096,30
5097,30
5098,30
5099,30
5100,30
5101,30
5102,30
5103,30
5104,30
5105,30
5106,30
5107,30
5108,30
5109,30
5110,30
5111,30
5112,30
5113,30
5114,30
5115,30
5116,30
5117,30
5118,30
5119,31
5120,30
5121,30
5122,30
5123,30
5124,30
5125,30
5126,30
5127,30
5128,30
5129,31
5130,31
5131,31
5132,31
5133,31
5134,31
5135,31
5136,31
5137,31
5138,31
5139,32
5140,32
5141,32
5142,32
5143,31
5144,31
5145,31
5146,31
5147,31
5148,32
5149,31
5150,31
5151,31
5152,31
5153,31
5154,31
5155,31
5156,31
5157,31
5158,31
5159,31
5160,31
5161,32
5162,31
5163,31
5164,31
5165,31
5166,31
5167,31
5168,32
5169,31
5170,31
5171,31
5172,31
5173,31
5174,31
5175,31
5176,32
5177,31
5178,31
5179,31
5180,31
5181,31
5182,31
5183,31
5184,31
5185,31
5186,31
5187,31
5188,31
5189,31
5190,31
5191,31
5192,31
5193,31
5194,31
5195,31
5196,31
5197,31
5198,31
5199,31
5200,31
5201,31
5202,31
5203,31
5204,31
5205,32
5206,32
5207,32
5208,32
5209,32
5210,32
5211,32
5212,32
5213,31
5214,31
5215,31
5216,31
5217,31
5218,31
5219,31
5220,31
5221,31
5222,31
5223,31
5224,31
5225,31
5226,31
5227,31
5228,31
5229,31
5230,31
5231,31
5232,31
5233,31
5234,31
5235,31
5236,31
5237,31
5238,31
5239,31
5240,31
5241,31
5242,31
5243,31
5244,31
5245,31
5246,31
5247,31
5248,32
5249,31
5250,31
5251,31
5252,31
5253,31
5254,32
5255,32
5256,32
5257,32
5258,32
5259,33
5260,33
5261,33
5262,32
5263,31
5264,31
5265,31
5266,31
5267,31
5268,31
5269,31
5270,31
5271,31
5272,31
5273,31
5274,31
5275,31
5276,31
5277,31
5278,31
5279,31
5280,31
5281,31
5282,31
5283,31
5284,31
5285,31
5286,31
5287,31
5288,31
5289,31
5290,31
5291,31
5292,31
5293,31
5294,31
5295,31
5296,31
5297,31
5298,31
5299,32
5300,32
5301,31
5302,31
5303,31
5304,31
5305,31
5306,31
5307,31
5308,31
5309,31
5310,31
5311,31
5312,31
5313,31
5314,31
5315,31
5316,32
5317,31
5318,31
5319,31
5320,31
5321,31
5322,31
5323,31
5324,31
5325,31
5326,31
5327,31
5328,31
5329,31
5330,31
5331,31
5332,31
5333,31
5334,31
5335,31
5336,31
5337,31
5338,31
5339,31
5340,31
5341,31
5342,31
5343,31
5344,31
5345,31
5346,31
5347,31
5348,31
5349,31
5350,31
5351,31
5352,31
5353,31
5354,31
5355,31
5356,31
5357,31
5358,31
5359,31
5360,31
5361,31
5362,32
5363,32
5364,32
5365,32
5366,32
5367,32
5368,31
5369,31
5370,31
5371,31
5372,31
5373,31
5374,31
5375,31
5376,31
5377,31
5378,31
5379,31
5380,31
5381,31
5382,32
5383,32
5384,31
5385,31
5386,31
5387,31
5388,31
5389,31
5390,31
5391,31
5392,31
5393,31
5394,31
5395,31
5396,31
5397,31
5398,31
5399,31
5400,31
5401,31
5402,31
5403,31
5404,31
5405,31
5406,31
5407,31
5408,31
5409,31
5410,31
5411,31
5412,31
5413,32
5414,32
5415,31
5416,31
5417,31
5418,31
5419,31
5420,31
5421,32
5422,31
5423,31
5424,31
5425,32
5426,31
5427,31
5428,31
5429,31
5430,31
5431,31
5432,31
5433,31
5434,31
5435,31
5436,31
5437,31
5438,31
5439,31
5440,31
5441,31
5442,31
5443,31
5444,31
5445,31
5446,31
5447,32
5448,32
5449,32
5450,32
5451,32
5452,32
5453,32
5454,32
5455,32
5456,31
5457,32
5458,31
5459,31
5460,31
5461,31
5462,31
5463,31
5464,31
5465,31
5466,31
5467,31
5468,31
5469,31
5470,31
5471,31
5472,31
5473,31
5474,31
5475,31
5476,31
5477,31
5478,31
5479,31
5480,31
5481,32
5482,31
5483,31
5484,31
5485,31
5486,31
5487,31
5488,31
5489,31
5490,31
5491,31
5492,31
5493,31
5494,31
5495,31
5496,31
5497,31
5498,32
5499,32
5500,32
5501,32
5502,32
5503,32
5504,32
5505,32
5506,32
5507,32
5508,32
5509,32
5510,32
5511,32
5512,32
5513,32
5514,32
5515,32
5516,32
5517,32
5518,32
5519,31
5520,31
5521,31
5522,31
5523,32
5524,31
5525,31
5526,31
5527,31
5528,31
5529,31
5530,31
5531,31
5532,31
5533,31
5534,31
5535,31
5536,31
5537,31
5538,31
5539,31
5540,31
5541,32
5542,33
5543,32
5544,32
5545,32
5546,32
5547,32
5548,32
5549,32
5550,32
5551,32
5552,32
5553,32
5554,32
5555,32
5556,32
5557,32
5558,32
5559,32
5560,32
5561,32
5562,32
5563,32
5564,32
5565,32
5566,32
5567,32
5568,32
5569,32
5570,32
5571,32
5572,32
5573,32
5574,33
5575,32
5576,32
5577,32
5578,32
5579,32
5580,32
5581,32
5582,33
5583,33
5584,33
5585,32
5586,32
5587,32
5588,33
5589,33
5590,32
5591,32
5592,31
5593,31
5594,31
5595,31
5596,32
5597,32
5598,32
5599,31
5600,31
5601,31
5602,31
5603,31
5604,31
5605,31
5606,31
5607,31
5608,31
5609,31
5610,31
5611,31
5612,31
5613,31
5614,31
5615,31
5616,31
5617,31
5618,32
5619,31
5620,31
5621,31
5622,31
5623,31
5624,31
5625,31
5626,31
5627,31
5628,31
5629,31
5630,31
5631,31
5632,31
5633,32
5634,31
5635,31
5636,31
5637,31
5638,31
5639,32
5640,32
5641,32
5642,32
5643,32
5644,32
5645,32
5646,33
5647,32
5648,32
5649,32
5650,31
5651,31
5652,31
5653,31
5654,31
5655,31
5656,31
5657,31
5658,31
5659,32
5660,31
5661,32
5662,32
5663,32
5664,32
5665,32
5666,32
5667,32
5668,32
5669,32
5670,32
5671,32
5672,32
5673,32
5674,32
5675,31
5676,31
5677,31
5678,31
5679,31
5680,31
5681,31
5682,31
5683,31
5684,31
5685,31
5686,31
5687,31
5688,31
5689,31
5690,31
5691,31
5692,31
5693,31
5694,31
5695,31
5696,31
5697,31
5698,31
5699,31
5700,31
5701,31
5702,31
5703,31
5704,31
5705,31
5706,31
5707,31
5708,32
5709,31
5710,31
5711,31
5712,31
5713,31
5714,31
5715,32
5716,31
5717,31
5718,31
5719,31
5720,31
5721,31
5722,31
5723,31
5724,31
5725,31
5726,31
5727,31
5728,31
5729,31
5730,31
5731,31
5732,31
5733,31
5734,31
5735,31
5736,31
5737,31
5738,31
5739,32
5740,31
5741,31
5742,31
5743,32
5744,31
5745,32
5746,32
5747,32
5748,32
5749,32
5750,32
5751,31
5752,31
5753,31
5754,31
5755,31
5756,31
5757,31
5758,31
5759,31
5760,31
5761,31
5762,31
5763,31
5764,31
5765,31
5766,31
5767,31
5768,31
5769,31
5770,31
5771,31
5772,31
5773,31
5774,31
5775,31
5776,31
5777,31
5778,31
5779,31
5780,31
5781,31
5782,31
5783,31
5784,31
5785,31
5786,31
5787,31
5788,31
5789,31
5790,31
5791,31
5792,32
5793,31
5794,31
5795,31
5796,31
5797,31
5798,31
5799,32
5800,32
5801,32
5802,32
5803,32
5804,31
5805,31
5806,31
5807,31
5808,31
5809,31
5810,31
5811,31
5812,31
5813,31
5814,31
5815,31
5816,31
5817,31
5818,31
5819,31
5820,31
5821,31
5822,31
5823,31
5824,31
5825,31
5826,31
5827,31
5828,31
5829,31
5830,31
5831,31
5832,31
5833,31
5834,31
5835,31
5836,31
5837,31
5838,31
5839,31
5840,31
5841,31
5842,31
5843,31
5844,31
5845,31
5846,31
5847,31
5848,31
5849,31
5850,32
5851,32
5852,32
5853,32
5854,32
5855,32
5856,32
5857,32
5858,32
5859,32
5860,32
5861,32
5862,32
5863,32
5864,32
5865,32
5866,32
5867,32
5868,32
5869,32
5870,32
5871,32
5872,32
5873,32
5874,32
5875,32
5876,32
5877,32
5878,32
5879,32
5880,32
5881,32
5882,32
5883,33
5884,32
5885,32
5886,32
5887,32
5888,32
5889,32
5890,32
5891,31
5892,31
5893,31
5894,31
5895,31
5896,31
5897,31
5898,31
5899,31
5900,32
5901,32
5902,32
5903,33
5904,33
5905,33
5906,33
5907,32
5908,32
5909,32
5910,32
5911,32
5912,32
5913,33
5914,33
5915,32
5916,32
5917,32
5918,32
5919,32
5920,32
5921,32
5922,32
5923,32
5924,31
5925,31
5926,31
5927,32
5928,31
5929,31
5930,33
5931,32
5932,32
5933,32
5934,32
5935,32
5936,32
5937,32
5938,32
5939,32
5940,32
5941,32
5942,32
5943,32
5944,32
5945,31
5946,31
5947,31
5948,31
5949,31
5950,31
5951,32
5952,31
5953,31
5954,31
5955,32
5956,32
5957,32
5958,32
5959,32
5960,32
5961,32
5962,32
5963,32
5964,32
5965,32
5966,32
5967,32
5968,32
5969,32
5970,32
5971,32
5972,32
5973,32
5974,32
5975,32
5976,32
5977,32
5978,32
5979,33
5980,32
5981,33
5982,33
5983,33
5984,33
5985,33
5986,33
5987,33
5988,33
5989,33
5990,33
5991,33
5992,33
5993,33
5994,33
5995,33
5996,33
5997,33
5998,32
5999,32
6000,32
6001,32
6002,32
6003,32
6004,32
6005,32
6006,32
6007,32
6008,32
6009,32
6010,32
6011,32
6012,32
6013,32
6014,32
6015,33
6016,33
6017,33
6018,33
6019,33
6020,33
6021,33
6022,33
6023,33
6024,33
6025,33
6026,33
6027,33
6028,33
6029,33
6030,33
6031,33
6032,33
6033,33
6034,33
6035,33
6036,34
6037,33
6038,32
6039,32
6040,32
6041,32
6042,32
6043,32
6044,32
6045,32
6046,32
6047,32
6048,32
6049,32
6050,32
6051,32
6052,32
6053,32
6054,32
6055,32
6056,32
6057,32
6058,32
6059,32
6060,32
6061,32
6062,32
6063,32
6064,32
6065,33
6066,33
6067,33
6068,32
6069,32
6070,32
6071,33
6072,32
6073,32
6074,32
6075,32
6076,32
6077,32
6078,32
6079,32
6080,32
6081,32
6082,32
6083,32
6084,32
6085,32
6086,32
6087,32
6088,32
6089,32
6090,32
6091,33
6092,33
6093,32
6094,32
6095,32
6096,32
6097,32
6098,32
6099,32
6100,32
6101,32
6102,32
6103,32
6104,32
6105,32
6106,32
6107,32
6108,32
6109,32
6110,32
6111,32
6112,32
6113,32
6114,32
6115,32
6116,33
6117,33
6118,33
6119,33
6120,33
6121,33
6122,33
6123,33
6124,33
6125,33
6126,33
6127,33
6128,32
6129,32
6130,32
6131,32
6132,32
6133,32
6134,32
6135,32
6136,32
6137,32
6138,32
6139,32
6140,32
6141,32
6142,32
6143,32
6144,32
6145,32
6146,33
6147,32
6148,32
6149,32
6150,32
6151,32
6152,32
6153,32
6154,32
6155,32
6156,32
6157,32
6158,32
6159,32
6160,32
6161,32
6162,32
6163,32
6164,32
6165,32
6166,32
6167,32
6168,32
6169,32
6170,32
6171,33
6172,33
6173,33
6174,33
6175,33
6176,33
6177,33
6178,33
6179,34
6180,33
6181,33
6182,33
6183,33
6184,33
6185,33
6186,33
6187,33
6188,33
6189,34
6190,34
6191,34
6192,34
6193,34
6194,34
6195,34
6196,34
6197,34
6198,34
6199,34
6200,34
6201,34
6202,34
6203,34
6204,34
6205,35
6206,33
6207,33
6208,33
6209,34
6210,33
6211,33
6212,33
6213,33
6214,34
6215,34
6216,34
6217,35
6218,36
6219,36
6220,34
6221,33
6222,34
6223,34
6224,34
6225,32
6226,32
6227,32
6228,32
6229,32
6230,32
6231,32
6232,32
6233,32
6234,32
6235,32
6236,32
6237,32
6238,32
6239,32
6240,32
6241,31
6242,32
6243,32
6244,32
6245,31
6246,31
6247,31
6248,31
6249,31
6250,31
6251,31
6252,31
6253,31
6254,32
6255,32
6256,32
6257,32
6258,32
6259,32
6260,31
6261,31
6262,31
6263,31
6264,31
6265,31
6266,31
6267,31
6268,33
6269,31
6270,31
6271,31
6272,31
6273,31
6274,31
6275,31
6276,31
6277,31
6278,31
6279,31
6280,31
6281,31
6282,31
6283,31
6284,31
6285,31
6286,31
6287,31
6288,31
6289,31
6290,31
6291,31
6292,31
6293,31
6294,31
6295,31
6296,31
6297,31
6298,31
6299,31
6300,31
6301,31
6302,31
6303,31
6304,32
6305,32
6306,31
6307,31
6308,31
6309,31
6310,31
6311,31
6312,31
6313,31
6314,31
6315,31
6316,31
6317,31
6318,31
6319,31
6320,31
6321,31
6322,31
6323,31
6324,31
6325,31
6326,31
6327,31
6328,31
6329,31
6330,31
6331,31
6332,31
6333,31
6334,31
6335,31
6336,31
6337,31
6338,31
6339,31
6340,31
6341,31
6342,31
6343,31
6344,31
6345,31
6346,32
6347,32
6348,33
6349,32
6350,32
6351,32
6352,32
6353,32
6354,32
6355,31
6356,31
6357,31
6358,31
6359,31
6360,31
6361,31
6362,31
6363,31
6364,31
6365,31
6366,31
6367,31
6368,31
6369,31
6370,31
6371,31
6372,31
6373,31
6374,31
6375,31
6376,31
6377,31
6378,31
6379,31
6380,31
6381,31
6382,31
6383,31
6384,31
6385,31
6386,32
6387,32
6388,32
6389,32
6390,32
6391,32
6392,32
6393,32
6394,32
6395,32
6396,32
6397,32
6398,32
6399,33
6400,33
6401,33
6402,33
6403,33
6404,33
6405,33
6406,33
6407,32
6408,32
6409,32
6410,32
6411,32
6412,32
6413,32
6414,32
6415,32
6416,32
6417,32
6418,32
6419,32
6420,32
6421,32
6422,33
6423,33
6424,32
6425,32
6426,34
6427,34
6428,33
6429,33
6430,33
6431,33
6432,33
6433,33
6434,33
6435,32
6436,32
6437,32
6438,32
6439,32
6440,32
6441,32
6442,32
6443,32
6444,33
6445,33
6446,33
6447,33
6448,33
6449,33
6450,33
6451,33
6452,32
6453,33
6454,33
6455,33
6456,33
6457,33
6458,33
6459,33
6460,33
6461,33
6462,33
6463,33
6464,33
6465,33
6466,34
6467,34
6468,35
6469,35
6470,34
6471,34
6472,33
6473,33
6474,33
6475,33
6476,33
6477,33
6478,33
6479,33
6480,33
6481,33
6482,33
6483,33
6484,33
6485,33
6486,33
6487,33
6488,33
6489,33
6490,33
6491,33
6492,33
6493,33
6494,33
6495,33
6496,33
6497,33
6498,33
6499,33
6500,33
6501,33
6502,34
6503,34
6504,34
6505,34
6506,34
6507,34
6508,34
6509,34
6510,34
6511,33
6512,33
6513,33
6514,33
6515,33
6516,33
6517,33
6518,33
6519,33
6520,33
6521,33
6522,33
6523,33
6524,33
6525,33
6526,33
6527,33
6528,33
6529,33
6530,33
6531,33
6532,33
6533,33
6534,33
6535,33
6536,33
6537,33
6538,33
6539,33
6540,33
6541,33
6542,33
6543,33
6544,33
6545,33
6546,33
6547,33
6548,33
6549,33
6550,33
6551,33
6552,33
6553,33
6554,33
6555,33
6556,33
6557,33
6558,33
6559,33
6560,33
6561,33
6562,33
6563,33
6564,33
6565,33
6566,33
6567,33
6568,33
6569,33
6570,33
6571,33
6572,33
6573,32
6574,32
6575,32
6576,32
6577,32
6578,32
6579,32
6580,32
6581,32
6582,32
6583,32
6584,32
6585,32
6586,32
6587,32
6588,32
6589,32
6590,32
6591,32
6592,32
6593,32
6594,32
6595,33
6596,32
6597,32
6598,32
6599,32
6600,32
6601,32
6602,32
6603,32
6604,32
6605,32
6606,32
6607,32
6608,32
6609,32
6610,32
6611,32
6612,32
6613,32
6614,32
6615,32
6616,32
6617,32
6618,32
6619,32
6620,32
6621,33
6622,33
6623,33
6624,33
6625,33
6626,33
6627,33
6628,33
6629,33
6630,33
6631,33
6632,33
6633,33
6634,33
6635,33
6636,33
6637,33
6638,33
6639,33
6640,33
6641,33
6642,34
6643,34
6644,34
6645,34
6646,34
6647,34
6648,34
6649,34
6650,34
6651,34
6652,34
6653,34
6654,34
6655,34
6656,34
6657,34
6658,34
6659,34
6660,34
6661,34
6662,34
6663,34
6664,34
6665,34
6666,34
6667,34
6668,34
6669,34
6670,34
6671,34
6672,34
6673,34
6674,34
6675,33
6676,33
6677,33
6678,33
6679,33
6680,33
6681,33
6682,33
6683,33
6684,33
6685,33
6686,33
6687,33
6688,33
6689,33
6690,33
6691,34
6692,34
6693,33
6694,33
6695,33
6696,33
6697,33
6698,33
6699,33
6700,33
6701,33
6702,33
6703,33
6704,33
6705,33
6706,33
6707,33
6708,33
6709,33
6710,33
6711,33
6712,34
6713,34
6714,34
6715,33
6716,33
6717,33
6718,33
6719,33
6720,33
6721,33
6722,34
6723,33
6724,33
6725,33
6726,33
6727,33
6728,33
6729,33
6730,33
6731,33
6732,33
6733,33
6734,34
6735,34
6736,34
6737,33
6738,33
6739,33
6740,33
6741,33
6742,33
6743,33
6744,33
6745,34
6746,34
6747,34
6748,34
6749,33
6750,33
6751,33
6752,33
6753,34
6754,33
6755,33
6756,33
6757,33
6758,33
6759,33
6760,33
6761,33
6762,34
6763,34
6764,34
6765,34
6766,34
6767,34
6768,34
6769,34
6770,34
6771,34
6772,33
6773,33
6774,33
6775,33
6776,33
6777,33
6778,33
6779,33
6780,33
6781,33
6782,33
6783,33
6784,33
6785,33
6786,33
6787,33
6788,33
6789,33
6790,33
6791,33
6792,33
6793,33
6794,33
6795,33
6796,33
6797,33
6798,33
6799,33
6800,33
6801,33
6802,33
6803,33
6804,33
6805,33
6806,33
6807,33
6808,33
6809,33
6810,33
6811,33
6812,33
6813,33
6814,33
6815,33
6816,34
6817,34
6818,34
6819,34
6820,34
6821,35
6822,35
6823,35
6824,35
6825,35
6826,35
6827,34
6828,34
6829,34
6830,34
6831,34
6832,34
6833,34
6834,34
6835,34
6836,34
6837,34
6838,34
6839,34
6840,34
6841,34
6842,34
6843,34
6844,34
6845,34
6846,34
6847,34
6848,34
6849,34
6850,34
6851,34
6852,34
6853,34
6854,35
6855,34
6856,35
6857,35
6858,35
6859,35
6860,34
6861,35
6862,34
6863,34
6864,34
6865,34
6866,34
6867,34
6868,35
6869,36
6870,35
6871,35
6872,35
6873,35
6874,35
6875,35
6876,35
6877,35
6878,35
6879,35
6880,35
6881,35
6882,35
6883,35
6884,35
6885,35
6886,35
6887,34
6888,34
6889,34
6890,34
6891,34
6892,34
6893,34
6894,34
6895,34
6896,35
6897,35
6898,35
6899,35
6900,35
6901,34
6902,34
6903,34
6904,34
6905,34
6906,34
6907,34
6908,34
6909,34
6910,34
6911,34
6912,34
6913,34
6914,34
6915,34
6916,34
6917,34
6918,34
6919,34
6920,34
6921,34
6922,34
6923,34
6924,34
6925,34
6926,34
6927,34
6928,34
6929,34
6930,35
6931,34
6932,34
6933,34
6934,34
6935,34
6936,34
6937,34
6938,34
6939,34
6940,34
6941,34
6942,34
6943,34
6944,34
6945,34
6946,34
6947,34
6948,34
6949,34
6950,34
6951,35
6952,35
6953,35
6954,35
6955,35
6956,35
6957,35
6958,36
6959,36
6960,34
6961,34
6962,34
6963,34
6964,34
6965,34
6966,34
6967,34
6968,34
6969,34
6970,35
6971,34
6972,34
6973,34
6974,34
6975,34
6976,34
6977,34
6978,34
6979,34
6980,34
6981,34
6982,34
6983,34
6984,34
6985,34
6986,34
6987,34
6988,35
6989,34
6990,34
6991,34
6992,34
6993,34
6994,34
6995,34
6996,34
6997,38
6998,35
6999,34
7000,34
7001,34
7002,34
7003,34
7004,34
7005,34
7006,34
7007,34
7008,34
7009,34
7010,34
7011,34
7012,34
7013,34
7014,34
7015,35
7016,35
7017,34
7018,34
7019,34
7020,34
7021,35
7022,35
7023,35
7024,35
7025,35
7026,35
7027,34
7028,34
7029,35
7030,34
7031,34
7032,34
7033,34
7034,34
7035,34
7036,34
7037,34
7038,34
7039,34
7040,34
7041,35
7042,35
7043,35
7044,34
7045,34
7046,34
7047,34
7048,34
7049,34
7050,34
7051,34
7052,34
7053,34
7054,34
7055,34
7056,34
7057,34
7058,34
7059,34
7060,34
7061,34
7062,34
7063,34
7064,34
7065,34
7066,34
7067,34
7068,34
7069,34
7070,35
7071,34
7072,34
7073,34
7074,34
7075,34
7076,35
7077,34
7078,34
7079,34
7080,34
7081,34
7082,34
7083,34
7084,34
7085,34
7086,34
7087,34
7088,34
7089,34
7090,34
7091,34
7092,34
7093,34
7094,34
7095,34
7096,34
7097,34
7098,34
7099,34
7100,34
7101,34
7102,34
7103,35
7104,35
7105,35
7106,35
7107,35
7108,35
7109,35
7110,35
7111,35
7112,35
7113,35
7114,35
7115,35
7116,35
7117,35
7118,35
7119,35
7120,35
7121,35
7122,35
7123,35
7124,35
7125,35
7126,35
7127,35
7128,35
7129,35
7130,35
7131,35
7132,35
7133,35
7134,34
7135,34
7136,34
7137,34
7138,34
7139,34
7140,35
7141,34
7142,34
7143,35
7144,34
7145,34
7146,34
7147,34
7148,34
7149,34
7150,34
7151,34
7152,34
7153,34
7154,34
7155,34
7156,34
7157,34
7158,34
7159,34
7160,34
7161,34
7162,34
7163,34
7164,34
7165,34
7166,34
7167,35
7168,35
7169,35
7170,36
7171,36
7172,35
7173,35
7174,35
7175,35
7176,35
7177,35
7178,34
7179,34
7180,34
7181,34
7182,34
7183,35
7184,35
7185,34
7186,34
7187,35
7188,34
7189,34
7190,34
7191,34
7192,34
7193,34
7194,34
7195,34
7196,34
7197,34
7198,34
7199,34
7200,34
7201,34
7202,34
7203,34
7204,34
7205,34
7206,34
7207,34
7208,34
7209,34
7210,34
7211,34
7212,34
7213,34
7214,35
7215,35
7216,35
7217,35
7218,35
7219,35
7220,34
7221,34
7222,34
7223,34
7224,34
7225,34
7226,34
7227,34
7228,35
7229,35
7230,34
7231,34
7232,34
7233,34
7234,34
7235,34
7236,35
7237,35
7238,35
7239,34
7240,34
7241,34
7242,34
7243,34
7244,34
7245,34
7246,34
7247,34
7248,34
7249,34
7250,34
7251,34
7252,35
7253,35
7254,35
7255,35
7256,35
7257,35
7258,35
7259,35
7260,35
7261,35
7262,35
7263,35
7264,35
7265,35
7266,36
7267,36
7268,36
7269,38
7270,37
7271,36
7272,36
7273,35
7274,35
7275,35
7276,35
7277,35
7278,35
7279,35
7280,35
7281,35
7282,35
7283,35
7284,35
7285,35
7286,35
7287,35
7288,35
7289,35
7290,35
7291,35
7292,35
7293,36
7294,35
7295,35
7296,35
7297,35
7298,35
7299,35
7300,35
7301,35
7302,35
7303,35
7304,35
7305,35
7306,35
7307,35
7308,35
7309,35
7310,35
7311,35
7312,35
7313,35
7314,35
7315,35
7316,35
7317,35
7318,35
7319,35
7320,35
7321,35
7322,35
7323,35
7324,35
7325,35
7326,36
7327,35
7328,35
7329,35
7330,35
7331,35
7332,35
7333,35
7334,35
7335,35
7336,35
7337,35
7338,35
7339,35
7340,35
7341,35
7342,35
7343,35
7344,35
7345,35
7346,35
7347,35
7348,35
7349,35
7350,35
7351,35
7352,35
7353,35
7354,35
7355,36
7356,35
7357,35
7358,35
7359,35
7360,35
7361,35
7362,35
7363,35
7364,35
7365,35
7366,35
7367,36
7368,35
7369,35
7370,35
7371,35
7372,35
7373,35
7374,35
7375,35
7376,35
7377,35
7378,35
7379,35
7380,35
7381,35
7382,35
7383,35
7384,35
7385,35
7386,35
7387,35
7388,35
7389,35
7390,35
7391,35
7392,35
7393,36
7394,36
7395,35
7396,35
7397,35
7398,35
7399,35
7400,35
7401,35
7402,35
7403,35
7404,35
7405,36
7406,36
7407,36
7408,36
7409,36
7410,36
7411,36
7412,35
7413,35
7414,34
7415,34
7416,34
7417,34
7418,34
7419,35
7420,34
7421,34
7422,34
7423,34
7424,34
7425,34
7426,34
7427,34
7428,34
7429,34
7430,34
7431,34
7432,34
7433,34
7434,34
7435,34
7436,34
7437,34
7438,34
7439,34
7440,34
7441,34
7442,34
7443,34
7444,34
7445,34
7446,34
7447,34
7448,34
7449,34
7450,34
7451,34
7452,34
7453,34
7454,34
7455,34
7456,34
7457,34
7458,34
7459,34
7460,34
7461,34
7462,34
7463,34
7464,34
7465,34
7466,34
7467,35
7468,36
7469,36
7470,35
7471,36
7472,35
7473,35
7474,34
7475,34
7476,34
7477,34
7478,34
7479,34
7480,34
7481,34
7482,34
7483,34
7484,34
7485,34
7486,35
7487,35
7488,35
7489,35
7490,35
7491,35
7492,35
7493,36
7494,36
7495,36
7496,36
7497,35
7498,36
7499,36
7500,35
7501,35
7502,35
7503,35
7504,35
7505,36
7506,36
7507,36
7508,35
7509,35
7510,35
7511,35
7512,36
7513,36
7514,35
7515,35
7516,35
7517,35
7518,35
7519,35
7520,35
7521,35
7522,35
7523,35
7524,35
7525,35
7526,35
7527,35
7528,35
7529,35
7530,35
7531,35
7532,35
7533,35
7534,35
7535,35
7536,35
7537,35
7538,35
7539,35
7540,35
7541,35
7542,35
7543,35
7544,35
7545,35
7546,35
7547,35
7548,35
7549,35
7550,35
7551,35
7552,35
7553,35
7554,35
7555,35
7556,35
7557,35
7558,36
7559,35
7560,35
7561,36
7562,35
7563,35
7564,35
7565,35
7566,35
7567,35
7568,35
7569,35
7570,35
7571,35
7572,36
7573,36
7574,37
7575,35
7576,35
7577,35
7578,36
7579,35
7580,35
7581,35
7582,35
7583,36
7584,36
7585,36
7586,36
7587,36
7588,36
7589,36
7590,36
7591,36
7592,36
7593,36
7594,36
7595,36
7596,36
7597,36
7598,36
7599,35
7600,35
7601,35
7602,35
7603,35
7604,36
7605,36
7606,36
7607,35
7608,35
7609,35
7610,35
7611,35
7612,35
7613,35
7614,35
7615,35
7616,35
7617,35
7618,35
7619,35
7620,35
7621,35
7622,36
7623,35
7624,35
7625,35
7626,35
7627,35
7628,35
7629,35
7630,35
7631,35
7632,35
7633,35
7634,35
7635,35
7636,35
7637,36
7638,35
7639,35
7640,35
7641,35
7642,35
7643,35
7644,35
7645,36
7646,35
7647,35
7648,35
7649,35
7650,35
7651,35
7652,36
7653,35
7654,35
7655,35
7656,35
7657,35
7658,35
7659,35
7660,35
7661,35
7662,35
7663,35
7664,35
7665,35
7666,35
7667,35
7668,35
7669,35
7670,35
7671,35
7672,35
7673,35
7674,35
7675,35
7676,35
7677,35
7678,35
7679,35
7680,35
7681,35
7682,35
7683,35
7684,35
7685,35
7686,35
7687,35
7688,35
7689,35
7690,35
7691,35
7692,35
7693,35
7694,35
7695,35
7696,35
7697,35
7698,36
7699,35
7700,35
7701,35
7702,35
7703,35
7704,35
7705,35
7706,35
7707,35
7708,35
7709,35
7710,35
7711,35
7712,35
7713,35
7714,35
7715,35
7716,35
7717,35
7718,35
7719,35
7720,35
7721,35
7722,35
7723,35
7724,35
7725,35
7726,35
7727,35
7728,35
7729,35
7730,35
7731,35
7732,35
7733,35
7734,35
7735,36
7736,36
7737,36
7738,36
7739,36
7740,36
7741,36
7742,36
7743,36
7744,36
7745,36
7746,36
7747,36
7748,36
7749,36
7750,36
7751,36
7752,36
7753,36
7754,36
7755,36
7756,36
7757,36
7758,36
7759,36
7760,36
7761,36
7762,36
7763,36
7764,36
7765,36
7766,36
7767,36
7768,36
7769,36
7770,36
7771,36
7772,36
7773,36
7774,36
7775,37
7776,37
7777,37
7778,37
7779,37
7780,37
7781,37
7782,37
7783,37
7784,37
7785,37
7786,37
7787,38
7788,38
7789,38
7790,38
7791,37
7792,37
7793,37
7794,37
7795,37
7796,37
7797,37
7798,37
7799,37
7800,37
7801,37
7802,37
7803,38
7804,38
7805,38
7806,38
7807,37
7808,37
7809,37
7810,37
7811,37
7812,37
7813,37
7814,37
7815,37
7816,38
7817,38
7818,38
7819,38
7820,38
7821,38
7822,38
7823,37
7824,37
7825,37
7826,37
7827,37
7828,37
7829,37
7830,37
7831,37
7832,37
7833,37
7834,37
7835,37
7836,37
7837,37
7838,37
7839,37
7840,37
7841,37
7842,37
7843,37
7844,37
7845,37
7846,37
7847,37
7848,37
7849,37
7850,37
7851,37
7852,37
7853,38
7854,37
7855,37
7856,37
7857,37
7858,37
7859,37
7860,37
7861,37
7862,38
7863,37
7864,37
7865,37
7866,37
7867,37
7868,37
7869,37
7870,38
7871,37
7872,37
7873,37
7874,37
7875,37
7876,37
7877,37
7878,37
7879,37
7880,37
7881,37
7882,37
7883,37
7884,37
7885,37
7886,37
7887,37
7888,37
7889,37
7890,37
7891,37
7892,37
7893,37
7894,37
7895,37
7896,37
7897,37
7898,37
7899,37
7900,37
7901,37
7902,37
7903,37
7904,37
7905,37
7906,37
7907,37
7908,37
7909,37
7910,37
7911,37
7912,37
7913,37
7914,37
7915,37
7916,37
7917,37
7918,37
7919,37
7920,37
7921,37
7922,37
7923,37
7924,37
7925,37
7926,37
7927,37
7928,37
7929,37
7930,37
7931,37
7932,37
7933,37
7934,37
7935,37
7936,37
7937,38
7938,37
7939,38
7940,37
7941,37
7942,37
7943,37
7944,37
7945,37
7946,37
7947,37
7948,37
7949,37
7950,37
7951,37
7952,37
7953,37
7954,37
7955,37
7956,37
7957,37
7958,37
7959,37
7960,37
7961,37
7962,37
7963,37
7964,37
7965,37
7966,37
7967,37
7968,37
7969,37
7970,38
7971,38
7972,38
7973,38
7974,38
7975,38
7976,38
7977,37
7978,37
7979,37
7980,37
7981,38
7982,37
7983,37
7984,37
7985,36
7986,36
7987,36
7988,36
7989,37
7990,37
7991,37
7992,37
7993,37
7994,37
7995,37
7996,37
7997,37
7998,37
7999,37
8000,37
8001,37
8002,37
8003,37
8004,37
8005,38
8006,38
8007,38
8008,38
8009,37
8010,37
8011,37
8012,37
8013,37
8014,37
8015,37
8016,37
8017,37
8018,37
8019,37
8020,37
8021,37
8022,37
8023,37
8024,37
8025,37
8026,37
8027,37
8028,37
8029,37
8030,38
8031,40
8032,38
8033,38
8034,38
8035,38
8036,38
8037,38
8038,38
8039,38
8040,38
8041,38
8042,38
8043,38
8044,39
8045,38
8046,38
8047,38
8048,38
8049,38
8050,38
8051,38
8052,38
8053,38
8054,38
8055,38
8056,39
8057,39
8058,39
8059,39
8060,39
8061,39
8062,39
8063,39
8064,39
8065,39
8066,39
8067,39
8068,39
8069,39
8070,39
8071,39
8072,39
8073,39
8074,39
8075,39
8076,39
8077,39
8078,39
8079,39
8080,39
8081,39
8082,39
8083,39
8084,39
8085,39
8086,39
8087,39
8088,39
8089,39
8090,39
8091,39
8092,39
8093,40
8094,41
8095,41
8096,40
8097,39
8098,39
8099,39
8100,39
8101,39
8102,39
8103,39
8104,39
8105,39
8106,39
8107,39
8108,39
8109,39
8110,39
8111,39
8112,39
8113,39
8114,39
8115,39
8116,39
8117,39
8118,39
8119,39
8120,39
8121,39
8122,39
8123,39
8124,39
8125,39
8126,39
8127,39
8128,39
8129,40
8130,39
8131,39
8132,39
8133,39
8134,39
8135,39
8136,39
8137,39
8138,39
8139,39
8140,39
8141,39
8142,40
8143,40
8144,39
8145,39
8146,39
8147,39
8148,39
8149,39
8150,39
8151,39
8152,39
8153,39
8154,39
8155,39
8156,40
8157,40
8158,40
8159,40
8160,40
8161,40
8162,40
8163,40
8164,40
8165,39
8166,39
8167,39
8168,39
8169,39
8170,39
8171,39
8172,39
8173,39
8174,39
8175,39
8176,39
8177,39
8178,39
8179,39
8180,39
8181,39
8182,39
8183,39
8184,39
8185,39
8186,39
8187,39
8188,39
8189,39
8190,39
8191,39
8192,39
8193,40
8194,41
8195,39
8196,39
8197,39
8198,39
8199,39
8200,39
8201,39
8202,39
8203,39
8204,39
8205,39
8206,39
8207,39
8208,39
8209,39
8210,39
8211,39
8212,39
8213,39
8214,39
8215,40
8216,40
8217,40
8218,40
8219,40
8220,40
8221,40
8222,40
8223,40
8224,40
8225,40
8226,40
8227,40
8228,40
8229,40
8230,40
8231,40
8232,40
8233,40
8234,40
8235,40
8236,40
8237,39
8238,38
8239,38
8240,38
8241,38
8242,38
8243,38
8244,38
8245,38
8246,38
8247,38
8248,38
8249,38
8250,38
8251,38
8252,38
8253,38
8254,39
8255,38
8256,38
8257,38
8258,38
8259,38
8260,38
8261,38
8262,38
8263,38
8264,38
8265,38
8266,38
8267,38
8268,39
8269,40
8270,39
8271,39
8272,39
8273,39
8274,39
8275,39
8276,39
8277,39
8278,39
8279,39
8280,39
8281,39
8282,39
8283,39
8284,39
8285,39
8286,39
8287,39
8288,39
8289,39
8290,39
8291,39
8292,38
8293,38
8294,38
8295,38
8296,38
8297,38
8298,38
8299,38
8300,38
8301,38
8302,38
8303,38
8304,38
8305,38
8306,38
8307,38
8308,38
8309,38
8310,38
8311,38
8312,38
8313,38
8314,38
8315,38
8316,38
8317,38
8318,38
8319,38
8320,38
8321,38
8322,38
8323,38
8324,38
8325,38
8326,38
8327,38
8328,38
8329,38
8330,38
8331,38
8332,38
8333,38
8334,38
8335,38
8336,38
8337,38
8338,38
8339,38
8340,38
8341,38
8342,38
8343,39
8344,38
8345,38
8346,38
8347,38
8348,38
8349,38
8350,38
8351,38
8352,38
8353,38
8354,38
8355,38
8356,38
8357,38
8358,38
8359,38
8360,38
8361,39
8362,39
8363,39
8364,39
8365,39
8366,38
8367,38
8368,38
8369,38
8370,38
8371,38
8372,38
8373,38
8374,38
8375,38
8376,38
8377,37
8378,37
8379,37
8380,37
8381,37
8382,37
8383,37
8384,36
8385,36
8386,36
8387,37
8388,37
8389,37
8390,37
8391,37
8392,37
8393,37
8394,37
8395,36
8396,36
8397,36
8398,36
8399,36
8400,36
8401,36
8402,36
8403,36
8404,36
8405,36
8406,36
8407,36
8408,36
8409,36
8410,36
8411,36
8412,36
8413,37
8414,37
8415,36
8416,36
8417,36
8418,36
8419,36
8420,36
8421,36
8422,36
8423,36
8424,36
8425,36
8426,36
8427,36
8428,36
8429,36
8430,36
8431,36
8432,36
8433,36
8434,36
8435,36
8436,37
8437,36
8438,36
8439,36
8440,36
8441,36
8442,36
8443,36
8444,36
8445,36
8446,37
8447,36
8448,36
8449,36
8450,36
8451,36
8452,36
8453,36
8454,37
8455,37
8456,36
8457,36
8458,36
8459,36
8460,36
8461,36
8462,36
8463,36
8464,36
8465,36
8466,36
8467,36
8468,36
8469,36
8470,37
8471,37
8472,37
8473,37
8474,37
8475,37
8476,37
8477,37
8478,37
8479,37
8480,37
8481,37
8482,37
8483,37
8484,38
8485,38
8486,38
8487,38
8488,38
8489,39
8490,38
8491,38
8492,37
8493,37
8494,37
8495,37
8496,37
8497,37
8498,37
8499,37
8500,37
8501,37
8502,37
8503,38
8504,37
8505,37
8506,37
8507,37
8508,37
8509,36
8510,36
8511,36
8512,36
8513,36
8514,36
8515,36
8516,36
8517,36
8518,36
8519,36
8520,36
8521,36
8522,37
8523,38
8524,38
8525,38
8526,38
8527,38
8528,38
8529,38
8530,38
8531,37
8532,38
8533,37
8534,36
8535,36
8536,37
8537,36
8538,36
8539,36
8540,36
8541,36
8542,36
8543,35
8544,35
8545,35
8546,35
8547,36
8548,36
8549,35
8550,35
8551,35
8552,35
8553,35
8554,35
8555,35
8556,35
8557,35
8558,35
8559,35
8560,35
8561,35
8562,35
8563,35
8564,35
8565,35
8566,35
8567,36
8568,35
8569,35
8570,35
8571,35
8572,35
8573,35
8574,35
8575,35
8576,36
8577,35
8578,35
8579,35
8580,35
8581,35
8582,35
8583,35
8584,35
8585,35
8586,35
8587,35
8588,35
8589,35
8590,35
8591,35
8592,35
8593,35
8594,35
8595,35
8596,35
8597,35
8598,35
8599,35
8600,35
8601,36
8602,35
8603,35
8604,35
8605,35
8606,35
8607,35
8608,35
8609,35
8610,35
8611,35
8612,35
8613,35
8614,35
8615,36
8616,35
8617,35
8618,34
8619,34
8620,34
8621,34
8622,34
8623,34
8624,34
8625,34
8626,34
8627,34
8628,34
8629,34
8630,34
8631,34
8632,34
8633,34
8634,34
8635,34
8636,34
8637,34
8638,34
8639,34
8640,34
8641,34
8642,34
8643,34
8644,35
8645,34
8646,34
8647,34
8648,34
8649,34
8650,34
8651,35
8652,35
8653,35
8654,35
8655,35
8656,35
8657,35
8658,35
8659,35
8660,35
8661,35
8662,34
8663,35
8664,34
8665,34
8666,34
8667,34
8668,34
8669,35
8670,35
8671,35
8672,35
8673,35
8674,35
8675,35
8676,35
8677,35
8678,35
8679,35
8680,34
8681,34
8682,35
8683,35
8684,35
8685,35
8686,35
8687,35
8688,35
8689,35
8690,35
8691,34
8692,34
8693,34
8694,34
8695,34
8696,34
8697,34
8698,34
8699,34
8700,34
8701,34
8702,34
8703,34
8704,34
8705,34
8706,34
8707,34
8708,34
8709,34
8710,35
8711,35
8712,35
8713,34
8714,34
8715,34
8716,35
8717,35
8718,35
8719,35
8720,35
8721,35
8722,35
8723,35
8724,35
8725,35
8726,35
8727,35
8728,35
8729,36
8730,36
8731,36
8732,36
8733,35
8734,35
8735,35
8736,35
8737,35
8738,35
8739,35
8740,35
8741,35
8742,35
8743,36
8744,35
8745,35
8746,35
8747,36
8748,36
8749,35
8750,35
8751,35
8752,35
8753,35
8754,35
8755,35
8756,35
8757,35
8758,35
8759,35
8760,35
8761,35
8762,35
8763,35
8764,36
8765,36
8766,36
8767,36
8768,36
8769,36
8770,36
8771,36
8772,36
8773,36
8774,36
8775,36
8776,36
8777,36
8778,36
8779,36
8780,36
8781,36
8782,36
8783,36
8784,36
8785,36
8786,36
8787,36
8788,36
8789,36
8790,36
8791,36
8792,35
8793,35
8794,35
8795,35
8796,35
8797,35
8798,35
8799,36
8800,36
8801,36
8802,35
8803,35
8804,35
8805,35
8806,35
8807,35
8808,35
8809,35
8810,35
8811,35
8812,35
8813,35
8814,35
8815,35
8816,35
8817,35
8818,36
8819,36
8820,36
8821,36
8822,36
8823,36
8824,36
8825,36
8826,36
8827,37
8828,37
8829,38
8830,36
8831,36
8832,35
8833,34
8834,34
8835,34
8836,34
8837,34
8838,34
8839,34
8840,34
8841,34
8842,34
8843,34
8844,34
8845,34
8846,34
8847,34
8848,34
8849,34
8850,34
8851,34
8852,34
8853,34
8854,34
8855,34
8856,34
8857,34
8858,34
8859,34
8860,34
8861,34
8862,34
8863,34
8864,34
8865,34
8866,34
8867,34
8868,34
8869,34
8870,34
8871,34
8872,34
8873,34
8874,34
8875,34
8876,34
8877,34
8878,35
8879,34
8880,34
8881,34
8882,34
8883,34
8884,34
8885,35
8886,34
8887,34
8888,34
8889,34
8890,34
8891,34
8892,34
8893,34
8894,34
8895,34
8896,34
8897,34
8898,34
8899,34
8900,34
8901,34
8902,34
8903,34
8904,34
8905,34
8906,34
8907,34
8908,33
8909,33
8910,33
8911,33
8912,34
8913,33
8914,33
8915,33
8916,33
8917,33
8918,33
8919,33
8920,33
8921,33
8922,33
8923,33
8924,33
8925,33
8926,33
8927,33
8928,33
8929,33
8930,33
8931,33
8932,33
8933,33
8934,33
8935,33
8936,33
8937,33
8938,33
8939,33
8940,33
8941,33
8942,33
8943,33
8944,33
8945,33
8946,33
8947,33
8948,34
8949,34
8950,34
8951,33
8952,33
8953,33
8954,33
8955,33
8956,33
8957,33
8958,33
8959,33
8960,33
8961,33
8962,33
8963,33
8964,33
8965,33
8966,33
8967,33
8968,33
8969,33
8970,33
8971,33
8972,33
8973,33
8974,33
8975,33
8976,33
8977,34
8978,34
8979,34
8980,35
8981,35
8982,35
8983,35
8984,34
8985,34
8986,34
8987,34
8988,34
8989,34
8990,34
8991,34
8992,35
8993,33
8994,33
8995,33
8996,33
8997,33
8998,33
8999,33
9000,33
9001,33
9002,33
9003,33
9004,34
9005,34
9006,34
9007,34
9008,34
9009,33
9010,33
9011,33
9012,33
9013,33
9014,33
9015,33
9016,33
9017,33
9018,33
9019,33
9020,33
9021,33
9022,33
9023,33
9024,33
9025,33
9026,33
9027,33
9028,33
9029,33
9030,33
9031,33
9032,33
9033,33
9034,34
9035,34
9036,34
9037,33
9038,33
9039,33
9040,33
9041,33
9042,33
9043,33
9044,33
9045,33
9046,33
9047,33
9048,33
9049,33
9050,34
9051,33
9052,33
9053,33
9054,33
9055,33
9056,33
9057,33
9058,33
9059,33
9060,33
9061,33
9062,33
9063,33
9064,33
9065,33
9066,33
9067,33
9068,33
9069,33
9070,34
9071,33
9072,33
9073,33
9074,33
9075,33
9076,33
9077,33
9078,33
9079,33
9080,33
9081,33
9082,33
9083,33
9084,33
9085,33
9086,33
9087,33
9088,33
9089,33
9090,33
9091,33
9092,33
9093,33
9094,33
9095,34
9096,33
9097,33
9098,33
9099,33
9100,33
9101,33
9102,33
9103,33
9104,33
9105,33
9106,33
9107,33
9108,33
9109,33
9110,33
9111,33
9112,33
9113,34
9114,35
9115,34
9116,33
9117,33
9118,33
9119,33
9120,33
9121,33
9122,33
9123,33
9124,33
9125,33
9126,33
9127,33
9128,33
9129,33
9130,34
9131,33
9132,33
9133,33
9134,33
9135,33
9136,33
9137,33
9138,33
9139,33
9140,34
9141,33
9142,34
9143,33
9144,33
9145,33
9146,33
9147,33
9148,33
9149,33
9150,34
9151,33
9152,33
9153,33
9154,33
9155,34
9156,33
9157,33
9158,33
9159,33
9160,33
9161,33
9162,33
9163,33
9164,33
9165,33
9166,33
9167,34
9168,33
9169,33
9170,33
9171,33
9172,33
9173,33
9174,33
9175,33
9176,33
9177,33
9178,33
9179,33
9180,33
9181,33
9182,33
9183,33
9184,33
9185,33
9186,33
9187,33
9188,33
9189,33
9190,34
9191,34
9192,33
9193,33
9194,33
9195,33
9196,33
9197,33
9198,33
9199,33
9200,34
9201,33
9202,33
9203,33
9204,33
9205,33
9206,33
9207,33
9208,33
9209,33
9210,34
9211,33
9212,33
9213,33
9214,34
9215,34
9216,34
9217,34
9218,34
9219,34
9220,34
9221,34
9222,35
9223,35
9224,34
9225,33
9226,33
9227,33
9228,33
9229,34
9230,33
9231,33
9232,33
9233,33
9234,33
9235,33
9236,33
9237,33
9238,33
9239,33
9240,33
9241,33
9242,33
9243,34
9244,33
9245,33
9246,33
9247,33
9248,33
9249,33
9250,33
9251,33
9252,33
9253,33
9254,33
9255,33
9256,33
9257,33
9258,33
9259,33
9260,33
9261,33
9262,33
9263,33
9264,33
9265,33
9266,33
9267,33
9268,33
9269,33
9270,33
9271,33
9272,33
9273,33
9274,33
9275,33
9276,33
9277,33
9278,33
9279,33
9280,33
9281,33
9282,33
9283,34
9284,33
9285,33
9286,33
9287,33
9288,33
9289,33
9290,33
9291,33
9292,33
9293,33
9294,33
9295,33
9296,33
9297,33
9298,33
9299,33
9300,33
9301,33
9302,33
9303,33
9304,33
9305,33
9306,33
9307,33
9308,33
9309,33
9310,33
9311,33
9312,33
9313,33
9314,33
9315,33
9316,33
9317,33
9318,33
9319,33
9320,33
9321,33
9322,33
9323,33
9324,33
9325,33
9326,33
9327,33
9328,33
9329,33
9330,33
9331,33
9332,33
9333,33
9334,33
9335,33
9336,33
9337,33
9338,33
9339,33
9340,33
9341,33
9342,33
9343,33
9344,33
9345,33
9346,33
9347,33
9348,33
9349,33
9350,33
9351,33
9352,33
9353,33
9354,33
9355,33
9356,33
9357,33
9358,33
9359,33
9360,33
9361,33
9362,33
9363,33
9364,33
9365,34
9366,33
9367,32
9368,32
9369,32
9370,32
9371,32
9372,32
9373,32
9374,32
9375,32
9376,32
9377,32
9378,32
9379,32
9380,32
9381,32
9382,32
9383,32
9384,32
9385,32
9386,32
9387,32
9388,32
9389,32
9390,32
9391,32
9392,32
9393,32
9394,32
9395,32
9396,32
9397,32
9398,32
9399,32
9400,32
9401,32
9402,32
9403,32
9404,32
9405,32
9406,32
9407,32
9408,32
9409,32
9410,32
9411,32
9412,32
9413,32
9414,32
9415,32
9416,32
9417,32
9418,32
9419,32
9420,32
9421,32
9422,32
9423,32
9424,32
9425,32
9426,32
9427,32
9428,32
9429,32
9430,32
9431,32
9432,32
9433,32
9434,32
9435,32
9436,32
9437,32
9438,32
9439,32
9440,32
9441,32
9442,32
9443,32
9444,32
9445,32
9446,32
9447,32
9448,33
9449,32
9450,32
9451,32
9452,32
9453,32
9454,32
9455,32
9456,32
9457,32
9458,32
9459,32
9460,32
9461,32
9462,32
9463,32
9464,32
9465,32
9466,32
9467,31
9468,31
9469,32
9470,31
9471,31
9472,31
9473,31
9474,31
9475,31
9476,31
9477,31
9478,31
9479,31
9480,31
9481,31
9482,31
9483,31
9484,31
9485,31
9486,31
9487,31
9488,31
9489,31
9490,31
9491,31
9492,31
9493,31
9494,32
9495,32
9496,32
9497,32
9498,32
9499,32
9500,32
9501,33
9502,32
9503,32
9504,32
9505,32
9506,32
9507,32
9508,32
9509,32
9510,32
9511,32
9512,32
9513,32
9514,32
9515,32
9516,32
9517,32
9518,32
9519,32
9520,32
9521,32
9522,32
9523,32
9524,32
9525,32
9526,33
9527,32
9528,32
9529,32
9530,32
9531,32
9532,32
9533,32
9534,32
9535,32
9536,32
9537,32
9538,32
9539,32
9540,32
9541,32
9542,32
9543,32
9544,32
9545,32
9546,32
9547,32
9548,32
9549,32
9550,32
9551,32
9552,32
9553,32
9554,32
9555,32
9556,32
9557,32
9558,32
9559,32
9560,32
9561,32
9562,32
9563,32
9564,32
9565,32
9566,32
9567,32
9568,32
9569,32
9570,32
9571,32
9572,32
9573,32
9574,32
9575,32
9576,32
9577,32
9578,32
9579,32
9580,32
9581,32
9582,32
9583,32
9584,33
9585,32
9586,32
9587,32
9588,32
9589,32
9590,32
9591,32
9592,32
9593,32
9594,32
9595,32
9596,32
9597,32
9598,32
9599,32
9600,32
9601,32
9602,32
9603,32
9604,32
9605,32
9606,32
9607,32
9608,32
9609,32
9610,32
9611,32
9612,32
9613,32
9614,32
9615,32
9616,32
9617,32
9618,32
9619,33
9620,32
9621,32
9622,32
9623,32
9624,32
9625,32
9626,33
9627,33
9628,33
9629,33
9630,33
9631,33
9632,33
9633,33
9634,33
9635,32
9636,32
9637,32
9638,34
9639,33
9640,32
9641,32
9642,32
9643,33
9644,32
9645,32
9646,32
9647,32
9648,32
9649,32
9650,32
9651,32
9652,32
9653,32
9654,32
9655,32
9656,32
9657,33
9658,33
9659,33
9660,33
9661,32
9662,32
9663,33
9664,33
9665,33
9666,33
9667,33
9668,33
9669,33
9670,33
9671,33
9672,33
9673,33
9674,33
9675,32
9676,32
9677,32
9678,32
9679,32
9680,32
9681,32
9682,32
9683,32
9684,32
9685,32
9686,32
9687,32
9688,32
9689,32
9690,32
9691,32
9692,32
9693,32
9694,32
9695,32
9696,32
9697,32
9698,32
9699,32
9700,32
9701,32
9702,32
9703,33
9704,33
9705,32
9706,32
9707,32
9708,32
9709,32
9710,32
9711,32
9712,32
9713,32
9714,33
9715,33
9716,33
9717,33
9718,33
9719,33
9720,33
9721,33
9722,33
9723,33
9724,33
9725,33
9726,33
9727,32
9728,32
9729,32
9730,32
9731,32
9732,32
9733,32
9734,32
9735,32
9736,32
9737,33
9738,32
9739,32
9740,32
9741,32
9742,32
9743,32
9744,32
9745,32
9746,32
9747,32
9748,32
9749,32
9750,32
9751,32
9752,32
9753,32
9754,32
9755,32
9756,32
9757,32
9758,32
9759,32
9760,32
9761,32
9762,32
9763,32
9764,33
9765,33
9766,33
9767,33
9768,33
9769,33
9770,32
9771,32
9772,32
9773,32
9774,33
9775,33
9776,33
9777,33
9778,32
9779,32
9780,32
9781,32
9782,32
9783,32
9784,33
9785,33
9786,33
9787,33
9788,33
9789,33
9790,33
9791,33
9792,33
9793,33
9794,33
9795,32
9796,32
9797,32
9798,32
9799,32
9800,32
9801,32
9802,32
9803,32
9804,32
9805,32
9806,33
9807,32
9808,32
9809,32
9810,32
9811,32
9812,32
9813,32
9814,33
9815,33
9816,33
9817,33
9818,33
9819,33
9820,33
9821,33
9822,33
9823,33
9824,32
9825,32
9826,32
9827,32
9828,32
9829,32
9830,32
9831,32
9832,32
9833,32
9834,32
9835,32
9836,32
9837,32
9838,32
9839,32
9840,32
9841,32
9842,32
9843,32
9844,32
9845,32
9846,32
9847,34
9848,33
9849,32
9850,32
9851,32
9852,32
9853,32
9854,32
9855,32
9856,32
9857,32
9858,32
9859,32
9860,32
9861,32
9862,32
9863,32
9864,32
9865,32
9866,32
9867,32
9868,32
9869,32
9870,32
9871,33
9872,33
9873,33
9874,33
9875,32
9876,32
9877,32
9878,32
9879,32
9880,32
9881,32
9882,32
9883,32
9884,32
9885,33
9886,33
9887,32
9888,33
9889,32
9890,32
9891,32
9892,32
9893,32
9894,32
9895,32
9896,32
9897,32
9898,32
9899,32
9900,32
9901,32
9902,32
9903,32
9904,32
9905,32
9906,32
9907,32
9908,34
9909,32
9910,32
9911,32
9912,32
9913,32
9914,32
9915,32
9916,32
9917,32
9918,32
9919,32
9920,32
9921,33
9922,33
9923,33
9924,32
9925,32
9926,32
9927,32
9928,32
9929,32
9930,32
9931,32
9932,33
9933,32
9934,32
9935,32
9936,32
9937,32
9938,32
9939,32
9940,32
9941,32
9942,32
9943,32
9944,32
9945,32
9946,32
9947,32
9948,33
9949,33
9950,33
9951,33
9952,33
9953,33
9954,33
9955,33
9956,33
9957,33
9958,33
9959,33
9960,33
9961,33
9962,33
9963,33
9964,33
9965,32
9966,32
9967,32
9968,32
9969,32
9970,32
9971,32
9972,32
9973,32
9974,32
9975,32
9976,32
9977,32
9978,32
9979,32
9980,32
9981,32
9982,32
9983,32
9984,32
9985,32
9986,33
9987,33
9988,34
9989,32
9990,32
9991,32
9992,32
9993,32
9994,32
9995,32
9996,32
9997,32
9998,32
9999,32
10000,32
