1,4
2,3
3,3
4,3
5,3
6,3
7,3
8,3
9,3
10,3
11,3
12,3
13,3
14,3
15,3
16,3
17,3
18,3
19,3
20,3
21,3
22,3
23,3
24,3
25,3
26,3
27,4
28,5
29,6
30,6
31,6
32,6
33,6
34,6
35,6
36,6
37,6
38,6
39,6
40,7
41,7
42,8
43,7
44,7
45,7
46,7
47,7
48,8
49,8
50,10
51,8
52,8
53,8
54,8
55,8
56,8
57,8
58,8
59,8
60,8
61,8
62,8
63,8
64,8
65,8
66,8
67,8
68,8
69,8
70,8
71,8
72,9
73,9
74,8
75,8
76,8
77,8
78,8
79,8
80,8
81,8
82,8
83,8
84,8
85,8
86,8
87,8
88,8
89,8
90,8
91,8
92,8
93,8
94,8
95,8
96,8
97,8
98,8
99,8
100,8
101,8
102,8
103,8
104,9
105,8
106,8
107,8
108,8
109,9
110,8
111,8
112,8
113,8
114,8
115,8
116,8
117,8
118,8
119,8
120,10
121,10
122,10
123,10
124,9
125,9
126,9
127,9
128,9
129,9
130,9
131,9
132,9
133,9
134,9
135,9
136,10
137,10
138,10
139,10
140,10
141,11
142,12
143,10
144,10
145,10
146,10
147,10
148,10
149,10
150,10
151,10
152,10
153,10
154,10
155,10
156,10
157,10
158,10
159,10
160,10
161,11
162,10
163,10
164,10
165,10
166,10
167,10
168,10
169,10
170,10
171,10
172,10
173,10
174,10
175,10
176,10
177,10
178,10
179,10
180,10
181,10
182,10
183,10
184,10
185,10
186,11
187,11
188,12
189,12
190,12
191,13
192,12
193,11
194,11
195,11
196,11
197,11
198,11
199,12
200,12
201,11
202,11
203,11
204,11
205,11
206,11
207,12
208,12
209,12
210,12
211,12
212,12
213,12
214,12
215,12
216,12
217,12
218,12
219,13
220,13
221,13
222,12
223,12
224,12
225,12
226,12
227,12
228,12
229,12
230,12
231,12
232,12
233,12
234,12
235,12
236,12
237,12
238,12
239,12
240,14
241,13
242,13
243,13
244,13
245,13
246,13
247,13
248,13
249,13
250,13
251,13
252,13
253,13
254,13
255,13
256,13
257,13
258,13
259,14
260,13
261,13
262,13
263,13
264,13
265,13
266,13
267,13
268,14
269,13
270,13
271,13
272,13
273,13
274,13
275,13
276,13
277,13
278,13
279,13
280,13
281,13
282,13
283,13
284,13
285,13
286,13
287,13
288,13
289,13
290,13
291,13
292,13
293,13
294,13
295,13
296,13
297,13
298,13
299,13
300,13
301,13
302,13
303,13
304,13
305,14
306,14
307,14
308,14
309,13
310,13
311,13
312,13
313,13
314,13
315,13
316,13
317,13
318,13
319,13
320,13
321,13
322,13
323,13
324,13
325,13
326,13
327,13
328,13
329,13
330,14
331,14
332,15
333,15
334,14
335,14
336,14
337,15
338,15
339,14
340,13
341,13
342,13
343,13
344,13
345,14
346,14
347,14
348,13
349,13
350,13
351,13
352,13
353,13
354,13
355,13
356,13
357,13
358,13
359,13
360,13
361,13
362,13
363,13
364,13
365,13
366,13
367,14
368,14
369,13
370,13
371,13
372,13
373,13
374,13
375,13
376,13
377,13
378,14
379,14
380,14
381,14
382,14
383,14
384,13
385,13
386,13
387,13
388,13
389,13
390,13
391,13
392,13
393,13
394,13
395,13
396,13
397,13
398,13
399,13
400,13
401,13
402,13
403,13
404,13
405,13
406,15
407,13
408,13
409,13
410,13
411,13
412,13
413,13
414,13
415,13
416,13
417,13
418,13
419,13
420,13
421,13
422,13
423,13
424,13
425,13
426,13
427,13
428,13
429,13
430,13
431,13
432,13
433,13
434,13
435,13
436,13
437,13
438,13
439,13
440,13
441,13
442,13
443,13
444,13
445,13
446,13
447,13
448,13
449,13
450,13
451,13
452,13
453,13
454,13
455,13
456,13
457,13
458,13
459,14
460,14
461,14
462,13
463,13
464,13
465,13
466,13
467,13
468,13
469,13
470,13
471,13
472,13
473,13
474,13
475,13
476,14
477,14
478,14
479,14
480,14
481,14
482,14
483,13
484,13
485,13
486,13
487,13
488,13
489,13
490,13
491,13
492,14
493,14
494,14
495,15
496,15
497,14
498,14
499,14
500,14
501,14
502,13
503,13
504,13
505,13
506,13
507,14
508,14
509,13
510,13
511,13
512,13
513,13
514,13
515,13
516,13
517,13
518,13
519,14
520,14
521,14
522,14
523,14
524,14
525,15
526,15
527,15
528,14
529,14
530,14
531,14
532,14
533,14
534,14
535,13
536,13
537,13
538,13
539,13
540,13
541,13
542,13
543,13
544,14
545,13
546,13
547,13
548,13
549,13
550,13
551,13
552,13
553,13
554,13
555,13
556,13
557,13
558,13
559,13
560,13
561,13
562,13
563,13
564,13
565,13
566,13
567,13
568,13
569,13
570,13
571,13
572,13
573,13
574,13
575,13
576,13
577,13
578,13
579,13
580,13
581,13
582,13
583,13
584,13
585,13
586,13
587,13
588,13
589,13
590,13
591,13
592,13
593,13
594,13
595,13
596,13
597,13
598,13
599,13
600,13
601,13
602,13
603,13
604,13
605,13
606,13
607,13
608,13
609,13
610,13
611,13
612,13
613,13
614,13
615,13
616,13
617,13
618,13
619,13
620,13
621,13
622,13
623,13
624,13
625,13
626,13
627,13
628,13
629,13
630,13
631,13
632,13
633,13
634,13
635,14
636,13
637,15
638,14
639,13
640,13
641,13
642,13
643,13
644,13
645,13
646,13
647,13
648,13
649,13
650,13
651,14
652,13
653,13
654,14
655,14
656,14
657,14
658,14
659,14
660,14
661,14
662,14
663,14
664,14
665,15
666,15
667,15
668,15
669,15
670,14
671,13
672,13
673,13
674,13
675,13
676,14
677,14
678,14
679,14
680,13
681,13
682,14
683,14
684,14
685,14
686,14
687,14
688,13
689,13
690,13
691,13
692,13
693,13
694,13
695,13
696,13
697,13
698,13
699,13
700,13
701,14
702,13
703,13
704,13
705,13
706,13
707,13
708,13
709,14
710,14
711,14
712,14
713,14
714,13
715,13
716,13
717,13
718,14
719,14
720,14
721,13
722,13
723,14
724,14
725,14
726,14
727,14
728,14
729,14
730,13
731,13
732,13
733,13
734,13
735,13
736,13
737,13
738,13
739,14
740,14
741,14
742,14
743,14
744,14
745,14
746,14
747,14
748,14
749,14
750,14
751,14
752,14
753,14
754,14
755,14
756,14
757,14
758,14
759,14
760,14
761,14
762,14
763,14
764,14
765,14
766,14
767,14
768,14
769,14
770,14
771,14
772,14
773,14
774,14
775,15
776,15
777,15
778,15
779,15
780,15
781,15
782,15
783,15
784,15
785,15
786,15
787,15
788,15
789,15
790,15
791,15
792,15
793,15
794,15
795,15
796,15
797,15
798,15
799,15
800,15
801,15
802,15
803,15
804,15
805,15
806,15
807,15
808,15
809,15
810,15
811,15
812,16
813,15
814,15
815,15
816,15
817,15
818,15
819,16
820,15
821,16
822,15
823,15
824,15
825,15
826,15
827,15
828,15
829,15
830,16
831,17
832,16
833,16
834,16
835,16
836,16
837,16
838,16
839,16
840,16
841,16
842,17
843,16
844,16
845,17
846,16
847,16
848,16
849,16
850,16
851,15
852,15
853,15
854,15
855,15
856,16
857,15
858,15
859,15
860,15
861,15
862,15
863,15
864,15
865,15
866,15
867,15
868,15
869,16
870,16
871,16
872,15
873,15
874,15
875,15
876,15
877,15
878,15
879,16
880,16
881,17
882,16
883,16
884,17
885,17
886,17
887,17
888,16
889,16
890,16
891,16
892,16
893,16
894,16
895,16
896,16
897,16
898,16
899,16
900,17
901,17
902,17
903,17
904,17
905,17
906,17
907,17
908,17
909,17
910,17
911,17
912,17
913,17
914,18
915,17
916,17
917,16
918,16
919,16
920,16
921,16
922,16
923,16
924,16
925,16
926,17
927,17
928,17
929,16
930,16
931,16
932,16
933,16
934,16
935,16
936,16
937,16
938,16
939,16
940,16
941,16
942,16
943,16
944,16
945,16
946,16
947,16
948,16
949,16
950,16
951,17
952,16
953,16
954,16
955,17
956,17
957,16
958,16
959,16
960,16
961,16
962,16
963,16
964,16
965,16
966,16
967,16
968,16
969,16
970,16
971,16
972,16
973,16
974,16
975,16
976,16
977,16
978,16
979,16
980,16
981,16
982,16
983,16
984,16
985,16
986,16
987,16
988,16
989,16
990,16
991,18
992,18
993,17
994,17
995,18
996,17
997,17
998,17
999,17
1000,17
1001,17
1002,17
1003,17
1004,17
1005,17
1006,17
1007,17
1008,17
1009,16
1010,16
1011,16
1012,16
1013,16
1014,16
1015,16
1016,16
1017,17
1018,16
1019,16
1020,16
1021,16
1022,16
1023,16
1024,16
1025,16
1026,16
1027,16
1028,16
1029,16
1030,16
1031,16
1032,16
1033,16
1034,16
1035,16
1036,16
1037,16
1038,16
1039,16
1040,16
1041,16
1042,16
1043,16
1044,16
1045,16
1046,16
1047,16
1048,17
1049,16
1050,16
1051,16
1052,16
1053,16
1054,16
1055,16
1056,16
1057,16
1058,16
1059,16
1060,16
1061,16
1062,16
1063,16
1064,16
1065,16
1066,16
1067,16
1068,16
1069,16
1070,16
1071,16
1072,16
1073,16
1074,16
1075,16
1076,16
1077,16
1078,16
1079,16
1080,16
1081,16
1082,16
1083,16
1084,16
1085,16
1086,16
1087,16
1088,16
1089,16
1090,16
1091,16
1092,16
1093,16
1094,16
1095,16
1096,16
1097,16
1098,16
1099,16
1100,16
1101,16
1102,16
1103,16
1104,16
1105,16
1106,16
1107,16
1108,16
1109,16
1110,16
1111,16
1112,16
1113,16
1114,16
1115,16
1116,16
1117,16
1118,16
1119,16
1120,16
1121,16
1122,16
1123,16
1124,16
1125,16
1126,16
1127,16
1128,16
1129,16
1130,16
1131,17
1132,16
1133,16
1134,16
1135,16
1136,16
1137,16
1138,16
1139,16
1140,17
1141,17
1142,16
1143,16
1144,16
1145,16
1146,16
1147,16
1148,16
1149,16
1150,16
1151,16
1152,16
1153,17
1154,16
1155,16
1156,16
1157,16
1158,16
1159,16
1160,16
1161,16
1162,16
1163,16
1164,16
1165,16
1166,16
1167,16
1168,16
1169,16
1170,16
1171,16
1172,16
1173,16
1174,16
1175,16
1176,16
1177,16
1178,16
1179,16
1180,16
1181,16
1182,16
1183,16
1184,16
1185,16
1186,16
1187,16
1188,16
1189,16
1190,16
1191,16
1192,16
1193,16
1194,16
1195,17
1196,18
1197,16
1198,16
1199,16
1200,16
1201,16
1202,16
1203,16
1204,16
1205,16
1206,16
1207,16
1208,16
1209,16
1210,16
1211,16
1212,16
1213,17
1214,16
1215,16
1216,16
1217,16
1218,16
1219,16
1220,16
1221,16
1222,16
1223,16
1224,16
1225,16
1226,16
1227,16
1228,16
1229,16
1230,16
1231,16
1232,16
1233,16
1234,16
1235,16
1236,16
1237,16
1238,16
1239,17
1240,16
1241,16
1242,16
1243,16
1244,16
1245,16
1246,17
1247,17
1248,16
1249,16
1250,16
1251,16
1252,16
1253,16
1254,16
1255,16
1256,16
1257,16
1258,16
1259,16
1260,16
1261,16
1262,16
1263,16
1264,16
1265,16
1266,16
1267,16
1268,16
1269,16
1270,16
1271,16
1272,16
1273,16
1274,16
1275,16
1276,16
1277,16
1278,16
1279,16
1280,16
1281,16
1282,16
1283,16
1284,16
1285,17
1286,16
1287,16
1288,16
1289,16
1290,16
1291,16
1292,17
1293,17
1294,16
1295,16
1296,16
1297,16
1298,16
1299,16
1300,16
1301,16
1302,19
1303,17
1304,18
1305,18
1306,18
1307,18
1308,18
1309,18
1310,18
1311,17
1312,17
1313,17
1314,16
1315,16
1316,16
1317,16
1318,16
1319,16
1320,16
1321,17
1322,17
1323,16
1324,16
1325,16
1326,16
1327,16
1328,16
1329,16
1330,16
1331,16
1332,16
1333,16
1334,17
1335,17
1336,17
1337,17
1338,16
1339,16
1340,16
1341,16
1342,16
1343,16
1344,16
1345,16
1346,16
1347,16
1348,16
1349,16
1350,16
1351,16
1352,16
1353,16
1354,16
1355,16
1356,16
1357,16
1358,16
1359,16
1360,16
1361,16
1362,16
1363,17
1364,17
1365,16
1366,16
1367,16
1368,16
1369,16
1370,16
1371,16
1372,16
1373,16
1374,16
1375,16
1376,16
1377,16
1378,16
1379,16
1380,16
1381,16
1382,16
1383,16
1384,16
1385,16
1386,16
1387,16
1388,16
1389,16
1390,16
1391,16
1392,16
1393,16
1394,16
1395,16
1396,16
1397,17
1398,18
1399,16
1400,16
1401,16
1402,16
1403,16
1404,16
1405,16
1406,16
1407,16
1408,16
1409,16
1410,16
1411,16
1412,16
1413,16
1414,17
1415,18
1416,18
1417,18
1418,18
1419,18
1420,18
1421,17
1422,17
1423,17
1424,17
1425,17
1426,17
1427,17
1428,17
1429,17
1430,17
1431,16
1432,16
1433,16
1434,16
1435,16
1436,16
1437,16
1438,16
1439,16
1440,17
1441,16
1442,16
1443,16
1444,16
1445,16
1446,16
1447,16
1448,16
1449,16
1450,16
1451,16
1452,16
1453,16
1454,16
1455,16
1456,16
1457,16
1458,16
1459,16
1460,16
1461,16
1462,16
1463,16
1464,16
1465,16
1466,16
1467,16
1468,16
1469,16
1470,16
1471,16
1472,16
1473,16
1474,16
1475,16
1476,16
1477,16
1478,17
1479,17
1480,17
1481,17
1482,17
1483,17
1484,17
1485,17
1486,18
1487,18
1488,18
1489,18
1490,18
1491,18
1492,18
1493,18
1494,18
1495,18
1496,18
1497,18
1498,18
1499,18
1500,18
1501,18
1502,18
1503,18
1504,18
1505,18
1506,18
1507,18
1508,18
1509,18
1510,18
1511,20
1512,20
1513,20
1514,19
1515,19
1516,19
1517,19
1518,19
1519,18
1520,18
1521,18
1522,18
1523,18
1524,18
1525,18
1526,18
1527,18
1528,18
1529,18
1530,18
1531,18
1532,18
1533,18
1534,18
1535,18
1536,18
1537,18
1538,18
1539,18
1540,18
1541,18
1542,18
1543,18
1544,18
1545,18
1546,18
1547,18
1548,18
1549,18
1550,18
1551,18
1552,18
1553,18
1554,18
1555,18
1556,18
1557,18
1558,18
1559,18
1560,18
1561,18
1562,18
1563,18
1564,18
1565,18
1566,19
1567,18
1568,18
1569,18
1570,18
1571,18
1572,19
1573,19
1574,19
1575,20
1576,19
1577,19
1578,19
1579,19
1580,20
1581,19
1582,19
1583,19
1584,19
1585,19
1586,19
1587,19
1588,19
1589,19
1590,19
1591,19
1592,19
1593,18
1594,19
1595,18
1596,18
1597,18
1598,18
1599,19
1600,20
1601,20
1602,19
1603,19
1604,18
1605,18
1606,18
1607,18
1608,18
1609,18
1610,18
1611,18
1612,18
1613,18
1614,18
1615,18
1616,18
1617,20
1618,18
1619,18
1620,18
1621,18
1622,18
1623,18
1624,18
1625,18
1626,18
1627,18
1628,18
1629,20
1630,21
1631,20
1632,20
1633,20
1634,20
1635,19
1636,19
1637,19
1638,19
1639,19
1640,19
1641,19
1642,19
1643,20
1644,20
1645,20
1646,20
1647,20
1648,19
1649,19
1650,19
1651,19
1652,18
1653,18
1654,18
1655,18
1656,18
1657,18
1658,18
1659,18
1660,18
1661,18
1662,18
1663,18
1664,18
1665,18
1666,18
1667,18
1668,18
1669,18
1670,18
1671,18
1672,19
1673,18
1674,18
1675,18
1676,18
1677,18
1678,18
1679,18
1680,18
1681,18
1682,18
1683,18
1684,18
1685,18
1686,18
1687,18
1688,18
1689,18
1690,18
1691,18
1692,18
1693,18
1694,18
1695,18
1696,18
1697,18
1698,18
1699,18
1700,18
1701,18
1702,18
1703,18
1704,18
1705,18
1706,18
1707,18
1708,18
1709,18
1710,18
1711,18
1712,18
1713,18
1714,18
1715,18
1716,18
1717,18
1718,18
1719,18
1720,18
1721,18
1722,18
1723,18
1724,18
1725,18
1726,18
1727,18
1728,18
1729,18
1730,18
1731,18
1732,18
1733,18
1734,18
1735,18
1736,18
1737,18
1738,18
1739,18
1740,18
1741,18
1742,18
1743,18
1744,18
1745,18
1746,18
1747,19
1748,19
1749,19
1750,20
1751,19
1752,19
1753,19
1754,18
1755,18
1756,19
1757,19
1758,19
1759,19
1760,19
1761,19
1762,19
1763,20
1764,20
1765,18
1766,18
1767,18
1768,18
1769,18
1770,19
1771,18
1772,18
1773,18
1774,18
1775,18
1776,18
1777,19
1778,19
1779,19
1780,19
1781,19
1782,19
1783,18
1784,18
1785,18
1786,18
1787,18
1788,18
1789,18
1790,18
1791,18
1792,18
1793,18
1794,18
1795,18
1796,18
1797,18
1798,18
1799,18
1800,18
1801,18
1802,18
1803,18
1804,18
1805,19
1806,19
1807,18
1808,19
1809,18
1810,18
1811,18
1812,18
1813,18
1814,18
1815,18
1816,18
1817,18
1818,18
1819,18
1820,18
1821,18
1822,18
1823,18
1824,18
1825,18
1826,18
1827,18
1828,18
1829,18
1830,18
1831,18
1832,18
1833,18
1834,18
1835,18
1836,18
1837,18
1838,18
1839,18
1840,18
1841,18
1842,18
1843,18
1844,18
1845,19
1846,20
1847,18
1848,18
1849,18
1850,18
1851,18
1852,18
1853,18
1854,18
1855,18
1856,18
1857,18
1858,18
1859,18
1860,18
1861,18
1862,19
1863,19
1864,18
1865,18
1866,18
1867,18
1868,18
1869,18
1870,18
1871,18
1872,18
1873,18
1874,18
1875,18
1876,18
1877,18
1878,18
1879,18
1880,18
1881,18
1882,18
1883,18
1884,18
1885,18
1886,18
1887,18
1888,18
1889,18
1890,18
1891,18
1892,18
1893,18
1894,18
1895,18
1896,18
1897,18
1898,18
1899,18
1900,18
1901,18
1902,18
1903,18
1904,18
1905,18
1906,18
1907,18
1908,18
1909,18
1910,18
1911,18
1912,18
1913,18
1914,18
1915,19
1916,18
1917,18
1918,19
1919,18
1920,18
1921,18
1922,18
1923,18
1924,20
1925,20
1926,19
1927,18
1928,18
1929,18
1930,18
1931,18
1932,18
1933,18
1934,18
1935,18
1936,18
1937,18
1938,18
1939,18
1940,18
1941,18
1942,18
1943,18
1944,18
1945,18
1946,18
1947,18
1948,18
1949,18
1950,18
1951,18
1952,18
1953,18
1954,18
1955,19
1956,18
1957,18
1958,18
1959,18
1960,18
1961,18
1962,18
1963,18
1964,18
1965,18
1966,18
1967,18
1968,18
1969,18
1970,18
1971,18
1972,18
1973,18
1974,18
1975,18
1976,18
1977,18
1978,18
1979,18
1980,18
1981,18
1982,18
1983,18
1984,18
1985,18
1986,18
1987,18
1988,18
1989,18
1990,18
1991,18
1992,18
1993,18
1994,18
1995,18
1996,18
1997,18
1998,18
1999,18
2000,18
2001,18
2002,18
2003,18
2004,18
2005,18
2006,18
2007,18
2008,19
2009,19
2010,19
2011,19
2012,19
2013,19
2014,19
2015,19
2016,19
2017,19
2018,19
2019,19
2020,19
2021,19
2022,19
2023,19
2024,19
2025,19
2026,19
2027,19
2028,19
2029,19
2030,19
2031,19
2032,19
2033,19
2034,19
2035,19
2036,19
2037,19
2038,19
2039,19
2040,20
2041,19
2042,19
2043,19
2044,19
2045,19
2046,19
2047,19
2048,19
2049,19
2050,19
2051,19
2052,19
2053,18
2054,18
2055,18
2056,18
2057,18
2058,18
2059,18
2060,18
2061,18
2062,18
2063,18
2064,18
2065,19
2066,19
2067,18
2068,18
2069,18
2070,18
2071,18
2072,18
2073,18
2074,18
2075,18
2076,19
2077,20
2078,20
2079,19
2080,19
2081,19
2082,18
2083,18
2084,18
2085,18
2086,18
2087,18
2088,18
2089,18
2090,19
2091,19
2092,19
2093,19
2094,19
2095,19
2096,19
2097,18
2098,18
2099,18
2100,18
2101,18
2102,18
2103,18
2104,18
2105,18
2106,18
2107,18
2108,18
2109,18
2110,18
2111,18
2112,18
2113,18
2114,18
2115,18
2116,18
2117,18
2118,18
2119,18
2120,18
2121,18
2122,18
2123,19
2124,18
2125,18
2126,18
2127,18
2128,18
2129,19
2130,18
2131,18
2132,18
2133,18
2134,18
2135,18
2136,18
2137,18
2138,19
2139,19
2140,18
2141,18
2142,18
2143,18
2144,18
2145,18
2146,18
2147,18
2148,18
2149,18
2150,18
2151,18
2152,18
2153,18
2154,19
2155,18
2156,18
2157,18
2158,18
2159,18
2160,18
2161,18
2162,18
2163,18
2164,18
2165,18
2166,18
2167,18
2168,18
2169,18
2170,18
2171,18
2172,18
2173,19
2174,18
2175,18
2176,18
2177,19
2178,18
2179,18
2180,18
2181,18
2182,18
2183,18
2184,18
2185,18
2186,18
2187,18
2188,18
2189,18
2190,18
2191,18
2192,18
2193,18
2194,18
2195,18
2196,18
2197,18
2198,18
2199,19
2200,18
2201,18
2202,18
2203,18
2204,18
2205,18
2206,18
2207,18
2208,18
2209,19
2210,18
2211,18
2212,18
2213,18
2214,18
2215,18
2216,18
2217,18
2218,18
2219,18
2220,18
2221,18
2222,18
2223,18
2224,18
2225,18
2226,18
2227,18
2228,18
2229,18
2230,18
2231,18
2232,19
2233,18
2234,18
2235,18
2236,18
2237,18
2238,18
2239,18
2240,20
2241,19
2242,19
2243,19
2244,19
2245,18
2246,18
2247,18
2248,18
2249,18
2250,18
2251,18
2252,18
2253,19
2254,18
2255,18
2256,18
2257,18
2258,18
2259,18
2260,18
2261,18
2262,18
2263,18
2264,18
2265,18
2266,18
2267,18
2268,18
2269,18
2270,18
2271,18
2272,18
2273,18
2274,18
2275,18
2276,18
2277,18
2278,18
2279,18
2280,18
2281,19
2282,19
2283,18
2284,18
2285,18
2286,18
2287,18
2288,18
2289,18
2290,18
2291,18
2292,18
2293,18
2294,18
2295,18
2296,18
2297,18
2298,18
2299,18
2300,18
2301,18
2302,18
2303,18
2304,18
2305,18
2306,18
2307,18
2308,18
2309,18
2310,19
2311,19
2312,18
2313,18
2314,18
2315,18
2316,18
2317,18
2318,18
2319,18
2320,18
2321,18
2322,18
2323,18
2324,18
2325,19
2326,19
2327,19
2328,19
2329,19
2330,19
2331,19
2332,18
2333,18
2334,18
2335,18
2336,18
2337,18
2338,18
2339,18
2340,18
2341,18
2342,18
2343,18
2344,18
2345,18
2346,18
2347,18
2348,18
2349,18
2350,18
2351,18
2352,18
2353,18
2354,19
2355,19
2356,19
2357,19
2358,19
2359,18
2360,18
2361,18
2362,18
2363,18
2364,18
2365,18
2366,18
2367,18
2368,18
2369,18
2370,18
2371,18
2372,18
2373,18
2374,18
2375,18
2376,18
2377,18
2378,18
2379,18
2380,18
2381,18
2382,18
2383,18
2384,18
2385,18
2386,18
2387,18
2388,18
2389,18
2390,18
2391,18
2392,18
2393,18
2394,18
2395,18
2396,18
2397,18
2398,18
2399,18
2400,18
2401,18
2402,18
2403,18
2404,18
2405,18
2406,18
2407,18
2408,18
2409,18
2410,18
2411,18
2412,18
2413,18
2414,18
2415,18
2416,18
2417,18
2418,18
2419,18
2420,18
2421,18
2422,19
2423,18
2424,18
2425,19
2426,19
2427,19
2428,19
2429,19
2430,18
2431,18
2432,18
2433,18
2434,18
2435,18
2436,18
2437,18
2438,18
2439,19
2440,19
2441,18
2442,18
2443,18
2444,18
2445,18
2446,18
2447,18
2448,18
2449,18
2450,18
2451,18
2452,18
2453,19
2454,19
2455,19
2456,19
2457,18
2458,18
2459,18
2460,18
2461,18
2462,18
2463,19
2464,18
2465,18
2466,18
2467,18
2468,18
2469,18
2470,18
2471,18
2472,18
2473,18
2474,18
2475,18
2476,18
2477,18
2478,18
2479,18
2480,18
2481,18
2482,18
2483,18
2484,18
2485,18
2486,18
2487,18
2488,18
2489,18
2490,18
2491,18
2492,19
2493,19
2494,20
2495,19
2496,19
2497,19
2498,19
2499,19
2500,19
2501,19
2502,19
2503,19
2504,19
2505,19
2506,19
2507,19
2508,19
2509,19
2510,19
2511,19
2512,19
2513,20
2514,20
2515,20
2516,20
2517,20
2518,20
2519,20
2520,20
2521,20
2522,20
2523,20
2524,20
2525,19
2526,19
2527,19
2528,19
2529,19
2530,19
2531,19
2532,19
2533,19
2534,19
2535,19
2536,19
2537,19
2538,19
2539,19
2540,19
2541,19
2542,19
2543,18
2544,18
2545,18
2546,18
2547,18
2548,18
2549,19
2550,19
2551,19
2552,19
2553,19
2554,19
2555,20
2556,20
2557,20
2558,20
2559,20
2560,20
2561,20
2562,20
2563,20
2564,20
2565,20
2566,20
2567,20
2568,20
2569,20
2570,20
2571,20
2572,20
2573,20
2574,20
2575,20
2576,20
2577,20
2578,20
2579,20
2580,20
2581,21
2582,21
2583,21
2584,21
2585,21
2586,21
2587,21
2588,21
2589,21
2590,21
2591,21
2592,21
2593,21
2594,21
2595,21
2596,21
2597,21
2598,21
2599,21
2600,21
2601,21
2602,21
2603,21
2604,21
2605,21
2606,21
2607,21
2608,21
2609,21
2610,21
2611,21
2612,21
2613,22
2614,21
2615,21
2616,21
2617,21
2618,21
2619,21
2620,21
2621,21
2622,21
2623,21
2624,21
2625,21
2626,21
2627,21
2628,21
2629,22
2630,21
2631,21
2632,20
2633,20
2634,20
2635,20
2636,20
2637,20
2638,20
2639,20
2640,20
2641,20
2642,20
2643,20
2644,20
2645,20
2646,20
2647,20
2648,20
2649,20
2650,20
2651,20
2652,20
2653,20
2654,20
2655,20
2656,20
2657,20
2658,20
2659,20
2660,20
2661,20
2662,20
2663,20
2664,21
2665,21
2666,21
2667,21
2668,21
2669,21
2670,21
2671,21
2672,20
2673,20
2674,20
2675,20
2676,20
2677,20
2678,20
2679,20
2680,20
2681,20
2682,20
2683,20
2684,20
2685,20
2686,20
2687,20
2688,20
2689,20
2690,20
2691,20
2692,20
2693,20
2694,21
2695,21
2696,21
2697,21
2698,21
2699,21
2700,20
2701,20
2702,20
2703,20
2704,20
2705,20
2706,20
2707,20
2708,20
2709,20
2710,20
2711,21
2712,21
2713,21
2714,22
2715,20
2716,20
2717,20
2718,20
2719,20
2720,20
2721,20
2722,20
2723,20
2724,22
2725,21
2726,20
2727,20
2728,21
2729,20
2730,20
2731,20
2732,20
2733,20
2734,20
2735,20
2736,20
2737,20
2738,20
2739,20
2740,22
2741,20
2742,20
2743,20
2744,20
2745,20
2746,20
2747,20
2748,20
2749,20
2750,20
2751,20
2752,20
2753,20
2754,20
2755,20
2756,20
2757,20
2758,20
2759,20
2760,20
2761,20
2762,20
2763,20
2764,20
2765,20
2766,21
2767,21
2768,21
2769,21
2770,21
2771,20
2772,20
2773,20
2774,20
2775,20
2776,20
2777,20
2778,20
2779,20
2780,21
2781,20
2782,20
2783,20
2784,20
2785,20
2786,20
2787,20
2788,20
2789,20
2790,20
2791,20
2792,20
2793,20
2794,20
2795,20
2796,20
2797,20
2798,20
2799,20
2800,20
2801,20
2802,20
2803,20
2804,21
2805,21
2806,21
2807,21
2808,21
2809,21
2810,21
2811,22
2812,21
2813,21
2814,21
2815,21
2816,21
2817,21
2818,20
2819,20
2820,20
2821,20
2822,20
2823,20
2824,20
2825,20
2826,20
2827,20
2828,20
2829,20
2830,20
2831,20
2832,20
2833,20
2834,20
2835,20
2836,20
2837,20
2838,20
2839,21
2840,20
2841,20
2842,20
2843,20
2844,20
2845,20
2846,20
2847,20
2848,20
2849,20
2850,20
2851,20
2852,20
2853,20
2854,20
2855,20
2856,20
2857,20
2858,20
2859,20
2860,20
2861,20
2862,20
2863,20
2864,20
2865,20
2866,20
2867,20
2868,20
2869,20
2870,20
2871,20
2872,20
2873,20
2874,20
2875,20
2876,20
2877,20
2878,20
2879,20
2880,20
2881,20
2882,20
2883,20
2884,21
2885,21
2886,21
2887,20
2888,20
2889,20
2890,20
2891,20
2892,20
2893,20
2894,20
2895,20
2896,20
2897,20
2898,20
2899,20
2900,20
2901,20
2902,20
2903,20
2904,20
2905,20
2906,20
2907,20
2908,21
2909,22
2910,22
2911,21
2912,21
2913,21
2914,21
2915,20
2916,20
2917,20
2918,20
2919,20
2920,20
2921,20
2922,20
2923,20
2924,20
2925,20
2926,20
2927,20
2928,20
2929,20
2930,20
2931,20
2932,20
2933,20
2934,20
2935,20
2936,20
2937,20
2938,20
2939,20
2940,20
2941,21
2942,20
2943,20
2944,20
2945,20
2946,20
2947,20
2948,20
2949,20
2950,20
2951,20
2952,21
2953,20
2954,20
2955,20
2956,20
2957,20
2958,20
2959,20
2960,20
2961,20
2962,20
2963,20
2964,20
2965,20
2966,20
2967,20
2968,21
2969,21
2970,21
2971,21
2972,20
2973,20
2974,20
2975,20
2976,20
2977,20
2978,20
2979,20
2980,20
2981,20
2982,21
2983,20
2984,21
2985,20
2986,20
2987,20
2988,20
2989,20
2990,20
2991,20
2992,20
2993,20
2994,20
2995,20
2996,20
2997,20
2998,20
2999,20
3000,21
3001,21
3002,22
3003,22
3004,21
3005,22
3006,21
3007,21
3008,21
3009,21
3010,21
3011,21
3012,21
3013,21
3014,21
3015,21
3016,21
3017,21
3018,21
3019,21
3020,20
3021,20
3022,20
3023,20
3024,20
3025,22
3026,21
3027,20
3028,20
3029,20
3030,20
3031,20
3032,20
3033,20
3034,20
3035,20
3036,20
3037,20
3038,20
3039,20
3040,20
3041,20
3042,21
3043,20
3044,20
3045,20
3046,20
3047,20
3048,20
3049,20
3050,20
3051,20
3052,21
3053,20
3054,20
3055,20
3056,20
3057,20
3058,20
3059,20
3060,20
3061,20
3062,20
3063,20
3064,20
3065,20
3066,20
3067,20
3068,20
3069,20
3070,20
3071,21
3072,20
3073,20
3074,20
3075,20
3076,20
3077,20
3078,20
3079,20
3080,20
3081,20
3082,20
3083,20
3084,20
3085,20
3086,20
3087,20
3088,20
3089,20
3090,20
3091,20
3092,20
3093,20
3094,20
3095,20
3096,20
3097,20
3098,20
3099,20
3100,21
3101,21
3102,20
3103,20
3104,20
3105,20
3106,20
3107,20
3108,20
3109,20
3110,20
3111,20
3112,20
3113,20
3114,20
3115,20
3116,20
3117,20
3118,20
3119,20
3120,20
3121,20
3122,20
3123,20
3124,20
3125,20
3126,20
3127,20
3128,20
3129,20
3130,20
3131,20
3132,20
3133,20
3134,20
3135,21
3136,21
3137,20
3138,20
3139,20
3140,20
3141,20
3142,20
3143,20
3144,20
3145,20
3146,21
3147,21
3148,21
3149,21
3150,21
3151,21
3152,20
3153,20
3154,20
3155,20
3156,20
3157,20
3158,20
3159,20
3160,20
3161,20
3162,20
3163,20
3164,20
3165,20
3166,20
3167,20
3168,20
3169,20
3170,20
3171,20
3172,20
3173,21
3174,21
3175,20
3176,20
3177,20
3178,20
3179,20
3180,20
3181,20
3182,20
3183,21
3184,22
3185,22
3186,22
3187,22
3188,22
3189,22
3190,22
3191,22
3192,22
3193,21
3194,21
3195,21
3196,21
3197,21
3198,22
3199,22
3200,21
3201,21
3202,22
3203,22
3204,22
3205,22
3206,21
3207,22
3208,21
3209,21
3210,21
3211,21
3212,20
3213,20
3214,20
3215,20
3216,20
3217,20
3218,20
3219,20
3220,20
3221,20
3222,21
3223,21
3224,21
3225,21
3226,21
3227,21
3228,21
3229,21
3230,21
3231,21
3232,21
3233,20
3234,20
3235,20
3236,21
3237,20
3238,20
3239,20
3240,20
3241,20
3242,20
3243,21
3244,21
3245,20
3246,20
3247,20
3248,20
3249,20
3250,20
3251,20
3252,20
3253,20
3254,20
3255,20
3256,20
3257,20
3258,20
3259,20
3260,20
3261,20
3262,20
3263,20
3264,20
3265,20
3266,20
3267,20
3268,20
3269,20
3270,20
3271,20
3272,20
3273,20
3274,20
3275,20
3276,20
3277,20
3278,20
3279,20
3280,20
3281,20
3282,21
3283,21
3284,21
3285,21
3286,21
3287,21
3288,21
3289,21
3290,21
3291,21
3292,21
3293,21
3294,21
3295,21
3296,21
3297,21
3298,21
3299,22
3300,22
3301,22
3302,22
3303,22
3304,22
3305,22
3306,22
3307,22
3308,22
3309,22
3310,22
3311,22
3312,22
3313,22
3314,23
3315,21
3316,21
3317,21
3318,20
3319,20
3320,20
3321,20
3322,20
3323,20
3324,20
3325,20
3326,20
3327,20
3328,20
3329,20
3330,20
3331,20
3332,20
3333,20
3334,20
3335,20
3336,20
3337,20
3338,20
3339,20
3340,20
3341,20
3342,20
3343,20
3344,20
3345,20
3346,20
3347,20
3348,20
3349,20
3350,20
3351,20
3352,21
3353,20
3354,20
3355,20
3356,20
3357,20
3358,21
3359,21
3360,21
3361,21
3362,21
3363,21
3364,21
3365,21
3366,21
3367,21
3368,21
3369,21
3370,22
3371,22
3372,22
3373,22
3374,22
3375,22
3376,22
3377,23
3378,22
3379,21
3380,20
3381,20
3382,20
3383,20
3384,20
3385,20
3386,20
3387,20
3388,21
3389,21
3390,20
3391,20
3392,20
3393,20
3394,20
3395,20
3396,20
3397,20
3398,20
3399,20
3400,20
3401,20
3402,20
3403,21
3404,21
3405,21
3406,22
3407,22
3408,21
3409,21
3410,21
3411,21
3412,21
3413,20
3414,20
3415,20
3416,21
3417,21
3418,21
3419,21
3420,22
3421,22
3422,22
3423,21
3424,20
3425,20
3426,20
3427,20
3428,20
3429,20
3430,20
3431,20
3432,20
3433,20
3434,20
3435,20
3436,20
3437,20
3438,20
3439,20
3440,20
3441,20
3442,20
3443,21
3444,21
3445,20
3446,20
3447,20
3448,20
3449,22
3450,21
3451,21
3452,21
3453,20
3454,20
3455,20
3456,20
3457,20
3458,20
3459,20
3460,20
3461,20
3462,20
3463,20
3464,20
3465,20
3466,20
3467,21
3468,20
3469,20
3470,20
3471,20
3472,20
3473,20
3474,20
3475,20
3476,21
3477,21
3478,21
3479,21
3480,20
3481,20
3482,20
3483,20
3484,20
3485,20
3486,20
3487,20
3488,20
3489,20
3490,20
3491,20
3492,20
3493,20
3494,20
3495,20
3496,20
3497,20
3498,20
3499,20
3500,20
3501,20
3502,20
3503,20
3504,20
3505,20
3506,20
3507,20
3508,20
3509,20
3510,21
3511,21
3512,21
3513,21
3514,21
3515,21
3516,21
3517,21
3518,20
3519,20
3520,20
3521,20
3522,20
3523,21
3524,20
3525,20
3526,20
3527,20
3528,20
3529,20
3530,20
3531,20
3532,21
3533,21
3534,21
3535,21
3536,21
3537,21
3538,21
3539,21
3540,22
3541,22
3542,22
3543,22
3544,21
3545,21
3546,21
3547,21
3548,21
3549,21
3550,21
3551,21
3552,21
3553,21
3554,22
3555,21
3556,23
3557,22
3558,21
3559,21
3560,21
3561,21
3562,21
3563,21
3564,21
3565,21
3566,21
3567,21
3568,21
3569,21
3570,21
3571,21
3572,21
3573,21
3574,21
3575,21
3576,21
3577,21
3578,21
3579,21
3580,21
3581,21
3582,21
3583,21
3584,21
3585,21
3586,21
3587,21
3588,21
3589,21
3590,21
3591,21
3592,21
3593,22
3594,22
3595,22
3596,21
3597,21
3598,21
3599,21
3600,21
3601,21
3602,21
3603,21
3604,21
3605,21
3606,21
3607,21
3608,21
3609,21
3610,21
3611,21
3612,21
3613,21
3614,21
3615,21
3616,21
3617,21
3618,21
3619,21
3620,21
3621,21
3622,21
3623,21
3624,21
3625,21
3626,21
3627,21
3628,21
3629,21
3630,21
3631,21
3632,21
3633,21
3634,21
3635,21
3636,21
3637,21
3638,21
3639,21
3640,21
3641,21
3642,21
3643,21
3644,21
3645,21
3646,21
3647,21
3648,21
3649,21
3650,21
3651,21
3652,21
3653,22
3654,22
3655,22
3656,22
3657,22
3658,22
3659,22
3660,21
3661,21
3662,21
3663,21
3664,21
3665,21
3666,21
3667,21
3668,21
3669,21
3670,21
3671,21
3672,21
3673,21
3674,21
3675,21
3676,22
3677,22
3678,21
3679,21
3680,21
3681,21
3682,21
3683,21
3684,21
3685,21
3686,21
3687,21
3688,21
3689,21
3690,21
3691,21
3692,21
3693,21
3694,22
3695,21
3696,21
3697,21
3698,21
3699,21
3700,21
3701,21
3702,21
3703,21
3704,21
3705,21
3706,21
3707,21
3708,21
3709,21
3710,22
3711,21
3712,21
3713,21
3714,21
3715,22
3716,22
3717,22
3718,22
3719,21
3720,21
3721,22
3722,22
3723,22
3724,22
3725,22
3726,22
3727,22
3728,22
3729,22
3730,21
3731,21
3732,21
3733,21
3734,21
3735,21
3736,21
3737,21
3738,21
3739,21
3740,21
3741,21
3742,21
3743,21
3744,21
3745,21
3746,21
3747,21
3748,21
3749,21
3750,21
3751,21
3752,21
3753,21
3754,21
3755,21
3756,22
3757,21
3758,21
3759,21
3760,21
3761,21
3762,21
3763,21
3764,21
3765,21
3766,21
3767,21
3768,21
3769,21
3770,21
3771,22
3772,21
3773,21
3774,21
3775,21
3776,21
3777,21
3778,21
3779,21
3780,21
3781,21
3782,21
3783,21
3784,22
3785,21
3786,21
3787,21
3788,21
3789,21
3790,21
3791,21
3792,21
3793,21
3794,21
3795,21
3796,21
3797,21
3798,21
3799,21
3800,21
3801,21
3802,21
3803,21
3804,21
3805,21
3806,21
3807,21
3808,21
3809,21
3810,21
3811,21
3812,21
3813,21
3814,21
3815,21
3816,21
3817,21
3818,21
3819,22
3820,22
3821,22
3822,21
3823,22
3824,21
3825,21
3826,21
3827,22
3828,23
3829,23
3830,23
3831,22
3832,22
3833,22
3834,21
3835,21
3836,21
3837,21
3838,21
3839,21
3840,21
3841,22
3842,22
3843,21
3844,21
3845,21
3846,21
3847,21
3848,21
3849,21
3850,22
3851,22
3852,22
3853,22
3854,22
3855,22
3856,22
3857,22
3858,22
3859,22
3860,22
3861,22
3862,22
3863,22
3864,22
3865,23
3866,23
3867,23
3868,22
3869,22
3870,22
3871,23
3872,22
3873,22
3874,22
3875,22
3876,22
3877,21
3878,21
3879,21
3880,21
3881,21
3882,21
3883,21
3884,21
3885,21
3886,21
3887,21
3888,21
3889,21
3890,21
3891,21
3892,21
3893,21
3894,21
3895,21
3896,21
3897,21
3898,21
3899,21
3900,21
3901,21
3902,21
3903,21
3904,21
3905,21
3906,21
3907,21
3908,21
3909,21
3910,22
3911,22
3912,21
3913,22
3914,22
3915,22
3916,22
3917,23
3918,23
3919,23
3920,23
3921,22
3922,22
3923,22
3924,22
3925,22
3926,22
3927,22
3928,22
3929,22
3930,22
3931,22
3932,22
3933,22
3934,22
3935,22
3936,22
3937,22
3938,22
3939,22
3940,22
3941,22
3942,22
3943,22
3944,22
3945,22
3946,22
3947,23
3948,23
3949,22
3950,22
3951,22
3952,22
3953,23
3954,24
3955,23
3956,23
3957,23
3958,23
3959,23
3960,22
3961,22
3962,22
3963,22
3964,22
3965,22
3966,22
3967,22
3968,22
3969,22
3970,22
3971,22
3972,22
3973,22
3974,22
3975,22
3976,22
3977,22
3978,22
3979,22
3980,22
3981,22
3982,22
3983,23
3984,23
3985,23
3986,23
3987,22
3988,22
3989,22
3990,22
3991,22
3992,22
3993,22
3994,22
3995,22
3996,22
3997,22
3998,22
3999,22
4000,22
4001,22
4002,22
4003,22
4004,22
4005,22
4006,22
4007,22
4008,22
4009,23
4010,22
4011,23
4012,22
4013,22
4014,22
4015,22
4016,22
4017,22
4018,22
4019,22
4020,22
4021,22
4022,22
4023,22
4024,22
4025,22
4026,22
4027,22
4028,22
4029,22
4030,22
4031,22
4032,22
4033,22
4034,22
4035,22
4036,22
4037,22
4038,22
4039,22
4040,22
4041,22
4042,22
4043,22
4044,22
4045,22
4046,22
4047,22
4048,22
4049,22
4050,22
4051,22
4052,22
4053,22
4054,22
4055,22
4056,22
4057,22
4058,22
4059,22
4060,22
4061,22
4062,22
4063,22
4064,22
4065,22
4066,22
4067,23
4068,22
4069,22
4070,22
4071,22
4072,22
4073,22
4074,22
4075,22
4076,22
4077,22
4078,22
4079,22
4080,22
4081,22
4082,22
4083,22
4084,22
4085,22
4086,22
4087,22
4088,22
4089,22
4090,22
4091,22
4092,22
4093,22
4094,22
4095,22
4096,22
4097,22
4098,22
4099,22
4100,22
4101,22
4102,22
4103,22
4104,22
4105,22
4106,22
4107,22
4108,22
4109,22
4110,22
4111,22
4112,23
4113,22
4114,22
4115,22
4116,22
4117,22
4118,22
4119,22
4120,22
4121,22
4122,22
4123,23
4124,22
4125,22
4126,22
4127,22
4128,22
4129,22
4130,22
4131,22
4132,22
4133,22
4134,22
4135,22
4136,22
4137,22
4138,22
4139,22
4140,22
4141,22
4142,22
4143,22
4144,22
4145,23
4146,24
4147,23
4148,23
4149,23
4150,23
4151,23
4152,23
4153,22
4154,22
4155,22
4156,22
4157,22
4158,22
4159,22
4160,22
4161,22
4162,22
4163,22
4164,22
4165,22
4166,22
4167,22
4168,22
4169,22
4170,22
4171,22
4172,22
4173,22
4174,22
4175,22
4176,22
4177,23
4178,22
4179,22
4180,22
4181,22
4182,22
4183,22
4184,22
4185,22
4186,22
4187,22
4188,23
4189,23
4190,23
4191,23
4192,23
4193,22
4194,22
4195,22
4196,22
4197,22
4198,23
4199,23
4200,23
4201,23
4202,23
4203,23
4204,23
4205,24
4206,24
4207,23
4208,23
4209,23
4210,24
4211,23
4212,23
4213,23
4214,24
4215,24
4216,24
4217,23
4218,23
4219,23
4220,23
4221,23
4222,23
4223,23
4224,23
4225,23
4226,23
4227,23
4228,23
4229,23
4230,23
4231,24
4232,24
4233,24
4234,24
4235,24
4236,24
4237,24
4238,23
4239,23
4240,23
4241,23
4242,23
4243,23
4244,23
4245,23
4246,23
4247,23
4248,23
4249,23
4250,24
4251,23
4252,23
4253,23
4254,23
4255,23
4256,23
4257,23
4258,23
4259,23
4260,23
4261,23
4262,23
4263,23
4264,23
4265,23
4266,23
4267,23
4268,23
4269,23
4270,23
4271,23
4272,23
4273,23
4274,23
4275,23
4276,23
4277,23
4278,23
4279,23
4280,23
4281,23
4282,23
4283,23
4284,23
4285,23
4286,23
4287,23
4288,23
4289,23
4290,23
4291,23
4292,23
4293,23
4294,23
4295,23
4296,23
4297,23
4298,23
4299,23
4300,23
4301,23
4302,23
4303,24
4304,24
4305,24
4306,24
4307,24
4308,24
4309,24
4310,24
4311,24
4312,24
4313,23
4314,23
4315,23
4316,23
4317,24
4318,24
4319,24
4320,24
4321,25
4322,25
4323,25
4324,25
4325,25
4326,25
4327,25
4328,25
4329,25
4330,25
4331,25
4332,25
4333,24
4334,24
4335,23
4336,23
4337,23
4338,23
4339,23
4340,23
4341,23
4342,23
4343,23
4344,23
4345,23
4346,23
4347,23
4348,23
4349,23
4350,23
4351,23
4352,23
4353,23
4354,23
4355,23
4356,23
4357,23
4358,23
4359,23
4360,23
4361,23
4362,23
4363,23
4364,23
4365,23
4366,23
4367,23
4368,23
4369,23
4370,23
4371,23
4372,23
4373,23
4374,23
4375,23
4376,23
4377,23
4378,23
4379,23
4380,23
4381,23
4382,23
4383,23
4384,23
4385,23
4386,23
4387,23
4388,23
4389,23
4390,23
4391,23
4392,23
4393,23
4394,23
4395,23
4396,23
4397,23
4398,23
4399,23
4400,23
4401,23
4402,24
4403,24
4404,24
4405,24
4406,24
4407,24
4408,24
4409,24
4410,24
4411,24
4412,24
4413,23
4414,23
4415,23
4416,23
4417,23
4418,23
4419,23
4420,23
4421,23
4422,23
4423,23
4424,23
4425,23
4426,23
4427,23
4428,23
4429,23
4430,23
4431,23
4432,23
4433,23
4434,23
4435,23
4436,23
4437,23
4438,23
4439,23
4440,23
4441,24
4442,23
4443,23
4444,23
4445,23
4446,23
4447,23
4448,23
4449,23
4450,23
4451,23
4452,23
4453,23
4454,23
4455,23
4456,23
4457,23
4458,23
4459,23
4460,23
4461,23
4462,23
4463,23
4464,25
4465,25
4466,25
4467,25
4468,25
4469,25
4470,25
4471,26
4472,25
4473,25
4474,25
4475,25
4476,25
4477,26
4478,25
4479,24
4480,24
4481,24
4482,24
4483,24
4484,24
4485,24
4486,24
4487,24
4488,24
4489,24
4490,24
4491,24
4492,24
4493,24
4494,24
4495,24
4496,24
4497,24
4498,24
4499,24
4500,24
4501,24
4502,24
4503,24
4504,24
4505,24
4506,24
4507,24
4508,24
4509,24
4510,24
4511,25
4512,25
4513,25
4514,26
4515,27
4516,27
4517,27
4518,27
4519,26
4520,27
4521,27
4522,27
4523,27
4524,27
4525,26
4526,26
4527,26
4528,26
4529,25
4530,25
4531,25
4532,25
4533,25
4534,26
4535,25
4536,25
4537,24
4538,24
4539,24
4540,24
4541,24
4542,25
4543,24
4544,24
4545,24
4546,24
4547,24
4548,24
4549,24
4550,24
4551,24
4552,24
4553,24
4554,24
4555,24
4556,24
4557,24
4558,24
4559,25
4560,24
4561,24
4562,24
4563,24
4564,24
4565,24
4566,24
4567,24
4568,24
4569,24
4570,24
4571,24
4572,24
4573,24
4574,24
4575,24
4576,24
4577,24
4578,24
4579,24
4580,24
4581,24
4582,24
4583,24
4584,24
4585,24
4586,24
4587,24
4588,24
4589,24
4590,24
4591,24
4592,24
4593,24
4594,24
4595,24
4596,24
4597,24
4598,24
4599,24
4600,25
4601,25
4602,24
4603,24
4604,24
4605,25
4606,24
4607,24
4608,24
4609,24
4610,24
4611,24
4612,24
4613,25
4614,24
4615,24
4616,24
4617,24
4618,24
4619,24
4620,24
4621,24
4622,24
4623,24
4624,24
4625,24
4626,24
4627,24
4628,24
4629,24
4630,24
4631,24
4632,24
4633,24
4634,24
4635,25
4636,24
4637,25
4638,25
4639,25
4640,26
4641,25
4642,25
4643,25
4644,24
4645,24
4646,24
4647,24
4648,24
4649,24
4650,24
4651,24
4652,24
4653,24
4654,24
4655,24
4656,25
4657,25
4658,24
4659,24
4660,24
4661,24
4662,24
4663,24
4664,24
4665,24
4666,24
4667,24
4668,24
4669,24
4670,24
4671,24
4672,24
4673,24
4674,24
4675,24
4676,24
4677,25
4678,24
4679,24
4680,24
4681,24
4682,24
4683,24
4684,24
4685,24
4686,24
4687,24
4688,24
4689,24
4690,24
4691,24
4692,24
4693,24
4694,24
4695,24
4696,24
4697,24
4698,24
4699,24
4700,24
4701,24
4702,24
4703,24
4704,24
4705,24
4706,24
4707,24
4708,24
4709,24
4710,24
4711,24
4712,24
4713,24
4714,24
4715,24
4716,24
4717,24
4718,24
4719,24
4720,24
4721,24
4722,24
4723,24
4724,24
4725,24
4726,24
4727,24
4728,24
4729,24
4730,24
4731,24
4732,24
4733,25
4734,25
4735,25
4736,25
4737,25
4738,25
4739,26
4740,26
4741,25
4742,25
4743,24
4744,24
4745,25
4746,25
4747,25
4748,24
4749,25
4750,25
4751,24
4752,24
4753,25
4754,25
4755,25
4756,25
4757,24
4758,24
4759,25
4760,25
4761,24
4762,24
4763,24
4764,24
4765,24
4766,24
4767,24
4768,24
4769,24
4770,24
4771,25
4772,25
4773,25
4774,25
4775,25
4776,25
4777,25
4778,25
4779,25
4780,26
4781,26
4782,26
4783,25
4784,25
4785,25
4786,25
4787,25
4788,25
4789,25
4790,25
4791,25
4792,25
4793,25
4794,25
4795,25
4796,25
4797,25
4798,25
4799,25
4800,25
4801,26
4802,26
4803,26
4804,26
4805,26
4806,26
4807,25
4808,25
4809,25
4810,25
4811,25
4812,25
4813,25
4814,27
4815,26
4816,26
4817,26
4818,26
4819,26
4820,26
4821,26
4822,26
4823,26
4824,27
4825,27
4826,27
4827,28
4828,28
4829,28
4830,27
4831,27
4832,28
4833,28
4834,27
4835,27
4836,27
4837,28
4838,28
4839,27
4840,27
4841,27
4842,27
4843,27
4844,27
4845,26
4846,26
4847,26
4848,26
4849,26
4850,27
4851,27
4852,26
4853,26
4854,26
4855,27
4856,26
4857,26
4858,26
4859,26
4860,26
4861,26
4862,26
4863,26
4864,26
4865,26
4866,25
4867,25
4868,25
4869,25
4870,25
4871,25
4872,25
4873,25
4874,25
4875,25
4876,25
4877,25
4878,25
4879,25
4880,25
4881,25
4882,25
4883,25
4884,25
4885,25
4886,25
4887,25
4888,25
4889,25
4890,25
4891,25
4892,25
4893,25
4894,26
4895,26
4896,25
4897,25
4898,25
4899,25
4900,25
4901,26
4902,25
4903,25
4904,25
4905,25
4906,25
4907,25
4908,25
4909,25
4910,25
4911,25
4912,25
4913,25
4914,25
4915,25
4916,25
4917,25
4918,25
4919,25
4920,25
4921,25
4922,25
4923,25
4924,25
4925,25
4926,25
4927,25
4928,26
4929,25
4930,25
4931,25
4932,25
4933,25
4934,25
4935,25
4936,25
4937,25
4938,25
4939,25
4940,25
4941,25
4942,25
4943,25
4944,25
4945,25
4946,25
4947,25
4948,25
4949,25
4950,25
4951,25
4952,25
4953,26
4954,26
4955,26
4956,26
4957,26
4958,26
4959,26
4960,26
4961,26
4962,26
4963,25
4964,25
4965,25
4966,25
4967,25
4968,25
4969,25
4970,26
4971,26
4972,26
4973,26
4974,26
4975,26
4976,26
4977,26
4978,26
4979,26
4980,26
4981,26
4982,26
4983,25
4984,25
4985,25
4986,25
4987,25
4988,25
4989,26
4990,26
4991,26
4992,26
4993,26
4994,26
4995,26
4996,26
4997,27
4998,26
4999,26
5000,26
5001,26
5002,26
5003,26
5004,26
5005,27
5006,25
5007,25
5008,25
5009,25
5010,25
5011,25
5012,25
5013,25
5014,25
5015,25
5016,25
5017,25
5018,25
5019,25
5020,25
5021,25
5022,25
5023,25
5024,27
5025,27
5026,25
5027,25
5028,25
5029,25
5030,25
5031,25
5032,25
5033,25
5034,25
5035,25
5036,25
5037,25
5038,25
5039,25
5040,25
5041,25
5042,25
5043,25
5044,25
5045,25
5046,25
5047,25
5048,25
5049,25
5050,25
5051,25
5052,25
5053,26
5054,25
5055,25
5056,25
5057,25
5058,25
5059,25
5060,25
5061,25
5062,25
5063,25
5064,25
5065,25
5066,25
5067,25
5068,25
5069,25
5070,26
5071,26
5072,26
5073,25
5074,25
5075,25
5076,26
5077,26
5078,26
5079,26
5080,25
5081,25
5082,25
5083,25
5084,25
5085,25
5086,25
5087,26
5088,26
5089,26
5090,26
5091,26
5092,27
5093,27
5094,27
5095,27
5096,27
5097,27
5098,27
5099,27
5100,27
5101,27
5102,27
5103,27
5104,27
5105,27
5106,26
5107,26
5108,26
5109,26
5110,26
5111,26
5112,26
5113,26
5114,26
5115,27
5116,26
5117,26
5118,26
5119,26
5120,26
5121,26
5122,26
5123,26
5124,27
5125,27
5126,26
5127,26
5128,26
5129,26
5130,26
5131,26
5132,26
5133,26
5134,26
5135,26
5136,27
5137,27
5138,27
5139,27
5140,27
5141,27
5142,27
5143,27
5144,27
5145,27
5146,27
5147,27
5148,27
5149,27
5150,27
5151,27
5152,27
5153,27
5154,27
5155,27
5156,27
5157,27
5158,28
5159,28
5160,28
5161,28
5162,28
5163,28
5164,28
5165,28
5166,28
5167,28
5168,28
5169,28
5170,27
5171,26
5172,26
5173,26
5174,26
5175,26
5176,26
5177,26
5178,26
5179,26
5180,26
5181,26
5182,26
5183,26
5184,26
5185,26
5186,26
5187,26
5188,26
5189,26
5190,26
5191,26
5192,26
5193,26
5194,26
5195,26
5196,26
5197,26
5198,26
5199,26
5200,26
5201,26
5202,26
5203,26
5204,26
5205,26
5206,26
5207,26
5208,26
5209,26
5210,26
5211,26
5212,26
5213,26
5214,26
5215,26
5216,26
5217,27
5218,26
5219,26
5220,26
5221,26
5222,26
5223,26
5224,26
5225,26
5226,27
5227,27
5228,26
5229,26
5230,26
5231,27
5232,26
5233,26
5234,26
5235,26
5236,26
5237,26
5238,26
5239,26
5240,26
5241,26
5242,26
5243,26
5244,26
5245,27
5246,26
5247,26
5248,26
5249,26
5250,27
5251,27
5252,27
5253,27
5254,27
5255,27
5256,27
5257,27
5258,27
5259,27
5260,27
5261,27
5262,28
5263,27
5264,27
5265,27
5266,27
5267,27
5268,27
5269,27
5270,27
5271,27
5272,27
5273,27
5274,27
5275,27
5276,28
5277,27
5278,27
5279,27
5280,27
5281,27
5282,27
5283,27
5284,27
5285,27
5286,27
5287,27
5288,27
5289,27
5290,27
5291,27
5292,27
5293,27
5294,27
5295,27
5296,27
5297,27
5298,27
5299,27
5300,27
5301,27
5302,27
5303,27
5304,27
5305,27
5306,27
5307,27
5308,27
5309,27
5310,27
5311,27
5312,27
5313,27
5314,27
5315,27
5316,27
5317,27
5318,27
5319,27
5320,27
5321,27
5322,27
5323,27
5324,27
5325,27
5326,27
5327,27
5328,28
5329,28
5330,27
5331,27
5332,27
5333,27
5334,27
5335,27
5336,27
5337,27
5338,27
5339,27
5340,27
5341,27
5342,27
5343,27
5344,27
5345,27
5346,27
5347,27
5348,27
5349,27
5350,28
5351,27
5352,27
5353,27
5354,27
5355,27
5356,27
5357,27
5358,27
5359,27
5360,27
5361,27
5362,27
5363,27
5364,27
5365,27
5366,27
5367,27
5368,27
5369,27
5370,27
5371,27
5372,27
5373,27
5374,27
5375,27
5376,27
5377,27
5378,27
5379,27
5380,27
5381,27
5382,27
5383,27
5384,27
5385,27
5386,27
5387,27
5388,27
5389,27
5390,28
5391,27
5392,27
5393,27
5394,27
5395,27
5396,27
5397,27
5398,27
5399,27
5400,27
5401,27
5402,27
5403,27
5404,27
5405,27
5406,27
5407,27
5408,27
5409,27
5410,27
5411,27
5412,27
5413,27
5414,27
5415,27
5416,27
5417,27
5418,27
5419,27
5420,27
5421,27
5422,27
5423,27
5424,27
5425,27
5426,27
5427,27
5428,27
5429,27
5430,27
5431,27
5432,27
5433,27
5434,27
5435,27
5436,27
5437,27
5438,27
5439,27
5440,27
5441,27
5442,27
5443,28
5444,27
5445,27
5446,27
5447,27
5448,27
5449,27
5450,27
5451,27
5452,27
5453,27
5454,27
5455,27
5456,27
5457,27
5458,28
5459,28
5460,27
5461,27
5462,27
5463,27
5464,27
5465,27
5466,27
5467,27
5468,27
5469,28
5470,27
5471,27
5472,27
5473,27
5474,27
5475,27
5476,27
5477,27
5478,28
5479,27
5480,27
5481,28
5482,28
5483,28
5484,28
5485,28
5486,28
5487,28
5488,29
5489,28
5490,28
5491,28
5492,28
5493,28
5494,28
5495,28
5496,28
5497,28
5498,28
5499,28
5500,28
5501,28
5502,28
5503,28
5504,28
5505,28
5506,28
5507,28
5508,28
5509,28
5510,28
5511,28
5512,28
5513,28
5514,28
5515,28
5516,28
5517,28
5518,28
5519,28
5520,28
5521,28
5522,28
5523,28
5524,28
5525,28
5526,28
5527,28
5528,29
5529,28
5530,28
5531,28
5532,28
5533,28
5534,28
5535,28
5536,28
5537,28
5538,28
5539,28
5540,28
5541,28
5542,28
5543,28
5544,28
5545,28
5546,28
5547,28
5548,28
5549,28
5550,28
5551,28
5552,28
5553,28
5554,28
5555,28
5556,28
5557,28
5558,28
5559,28
5560,28
5561,28
5562,28
5563,28
5564,28
5565,28
5566,28
5567,28
5568,28
5569,28
5570,28
5571,28
5572,29
5573,29
5574,29
5575,29
5576,30
5577,28
5578,28
5579,28
5580,28
5581,28
5582,28
5583,28
5584,28
5585,28
5586,28
5587,28
5588,28
5589,28
5590,28
5591,28
5592,28
5593,28
5594,29
5595,29
5596,29
5597,29
5598,29
5599,29
5600,29
5601,30
5602,30
5603,30
5604,30
5605,30
5606,30
5607,29
5608,30
5609,29
5610,29
5611,28
5612,28
5613,28
5614,28
5615,28
5616,28
5617,28
5618,28
5619,28
5620,28
5621,28
5622,28
5623,28
5624,28
5625,28
5626,28
5627,28
5628,28
5629,28
5630,28
5631,28
5632,28
5633,28
5634,28
5635,28
5636,28
5637,28
5638,28
5639,28
5640,28
5641,28
5642,28
5643,28
5644,28
5645,28
5646,28
5647,28
5648,28
5649,29
5650,29
5651,29
5652,29
5653,29
5654,29
5655,29
5656,29
5657,29
5658,30
5659,30
5660,29
5661,29
5662,29
5663,29
5664,29
5665,29
5666,29
5667,29
5668,30
5669,29
5670,28
5671,28
5672,28
5673,28
5674,28
5675,28
5676,28
5677,28
5678,29
5679,29
5680,29
5681,29
5682,29
5683,29
5684,29
5685,29
5686,29
5687,29
5688,29
5689,29
5690,30
5691,29
5692,29
5693,29
5694,29
5695,29
5696,29
5697,29
5698,29
5699,29
5700,29
5701,29
5702,30
5703,30
5704,29
5705,29
5706,29
5707,29
5708,29
5709,29
5710,29
5711,30
5712,30
5713,29
5714,29
5715,29
5716,29
5717,29
5718,29
5719,29
5720,29
5721,29
5722,29
5723,29
5724,29
5725,29
5726,29
5727,29
5728,29
5729,29
5730,29
5731,30
5732,29
5733,29
5734,29
5735,29
5736,29
5737,29
5738,29
5739,29
5740,29
5741,29
5742,30
5743,30
5744,29
5745,29
5746,29
5747,29
5748,29
5749,29
5750,29
5751,29
5752,29
5753,29
5754,29
5755,29
5756,29
5757,29
5758,29
5759,30
5760,29
5761,29
5762,29
5763,29
5764,29
5765,29
5766,29
5767,29
5768,29
5769,29
5770,29
5771,29
5772,29
5773,29
5774,29
5775,29
5776,29
5777,29
5778,29
5779,29
5780,29
5781,29
5782,29
5783,29
5784,29
5785,29
5786,29
5787,29
5788,29
5789,29
5790,29
5791,29
5792,29
5793,29
5794,29
5795,29
5796,29
5797,29
5798,29
5799,29
5800,29
5801,29
5802,29
5803,29
5804,29
5805,29
5806,29
5807,29
5808,29
5809,29
5810,29
5811,29
5812,29
5813,29
5814,29
5815,29
5816,29
5817,29
5818,29
5819,29
5820,29
5821,30
5822,29
5823,29
5824,29
5825,29
5826,29
5827,29
5828,29
5829,29
5830,29
5831,29
5832,29
5833,29
5834,29
5835,29
5836,29
5837,29
5838,29
5839,29
5840,29
5841,29
5842,29
5843,29
5844,30
5845,30
5846,30
5847,30
5848,30
5849,31
5850,31
5851,30
5852,30
5853,30
5854,30
5855,30
5856,30
5857,30
5858,30
5859,29
5860,29
5861,29
5862,29
5863,29
5864,29
5865,29
5866,29
5867,29
5868,30
5869,29
5870,29
5871,29
5872,29
5873,29
5874,29
5875,29
5876,30
5877,30
5878,30
5879,30
5880,30
5881,30
5882,30
5883,30
5884,30
5885,30
5886,30
5887,30
5888,30
5889,30
5890,30
5891,30
5892,30
5893,30
5894,30
5895,30
5896,31
5897,30
5898,30
5899,30
5900,30
5901,30
5902,30
5903,30
5904,30
5905,30
5906,31
5907,31
5908,31
5909,30
5910,30
5911,30
5912,30
5913,31
5914,31
5915,30
5916,30
5917,30
5918,30
5919,30
5920,30
5921,30
5922,30
5923,30
5924,30
5925,30
5926,31
5927,30
5928,30
5929,30
5930,30
5931,30
5932,30
5933,30
5934,30
5935,31
5936,30
5937,30
5938,30
5939,30
5940,30
5941,30
5942,30
5943,30
5944,30
5945,30
5946,30
5947,31
5948,31
5949,31
5950,31
5951,30
5952,30
5953,30
5954,30
5955,30
5956,30
5957,30
5958,30
5959,30
5960,30
5961,30
5962,30
5963,30
5964,30
5965,30
5966,30
5967,30
5968,30
5969,30
5970,30
5971,30
5972,30
5973,30
5974,30
5975,30
5976,30
5977,31
5978,30
5979,30
5980,30
5981,30
5982,30
5983,30
5984,30
5985,30
5986,30
5987,30
5988,30
5989,30
5990,30
5991,31
5992,31
5993,32
5994,31
5995,31
5996,31
5997,31
5998,31
5999,30
6000,30
6001,30
6002,30
6003,30
6004,30
6005,30
6006,30
6007,29
6008,29
6009,29
6010,29
6011,29
6012,29
6013,29
6014,29
6015,29
6016,29
6017,29
6018,30
6019,30
6020,30
6021,30
6022,30
6023,30
6024,30
6025,30
6026,31
6027,30
6028,30
6029,30
6030,30
6031,30
6032,30
6033,30
6034,30
6035,30
6036,30
6037,30
6038,30
6039,30
6040,30
6041,30
6042,30
6043,30
6044,30
6045,30
6046,30
6047,30
6048,30
6049,30
6050,30
6051,30
6052,31
6053,31
6054,30
6055,30
6056,30
6057,31
6058,31
6059,31
6060,32
6061,30
6062,30
6063,30
6064,30
6065,30
6066,30
6067,30
6068,31
6069,30
6070,30
6071,30
6072,31
6073,30
6074,30
6075,30
6076,30
6077,30
6078,31
6079,31
6080,31
6081,31
6082,30
6083,30
6084,30
6085,30
6086,30
6087,30
6088,30
6089,30
6090,30
6091,30
6092,30
6093,30
6094,30
6095,30
6096,30
6097,30
6098,30
6099,30
6100,30
6101,30
6102,30
6103,30
6104,30
6105,30
6106,30
6107,30
6108,30
6109,30
6110,30
6111,30
6112,31
6113,30
6114,30
6115,30
6116,30
6117,30
6118,30
6119,30
6120,30
6121,30
6122,30
6123,30
6124,30
6125,30
6126,31
6127,30
6128,30
6129,30
6130,30
6131,30
6132,30
6133,30
6134,30
6135,31
6136,31
6137,31
6138,31
6139,30
6140,30
6141,30
6142,30
6143,30
6144,30
6145,30
6146,30
6147,30
6148,30
6149,30
6150,30
6151,30
6152,30
6153,30
6154,30
6155,30
6156,30
6157,30
6158,30
6159,30
6160,30
6161,30
6162,30
6163,30
6164,30
6165,30
6166,30
6167,30
6168,30
6169,30
6170,30
6171,31
6172,31
6173,31
6174,31
6175,30
6176,30
6177,30
6178,30
6179,30
6180,30
6181,30
6182,30
6183,30
6184,30
6185,30
6186,30
6187,30
6188,30
6189,30
6190,30
6191,30
6192,30
6193,30
6194,30
6195,31
6196,30
6197,30
6198,30
6199,30
6200,30
6201,30
6202,30
6203,30
6204,30
6205,30
6206,30
6207,30
6208,30
6209,30
6210,30
6211,30
6212,30
6213,30
6214,30
6215,30
6216,30
6217,30
6218,30
6219,30
6220,31
6221,31
6222,31
6223,30
6224,30
6225,30
6226,30
6227,31
6228,31
6229,30
6230,30
6231,30
6232,30
6233,30
6234,30
6235,30
6236,30
6237,30
6238,30
6239,30
6240,30
6241,30
6242,30
6243,30
6244,30
6245,30
6246,30
6247,30
6248,30
6249,30
6250,30
6251,30
6252,31
6253,31
6254,31
6255,31
6256,31
6257,31
6258,31
6259,31
6260,31
6261,31
6262,31
6263,30
6264,31
6265,31
6266,31
6267,31
6268,31
6269,31
6270,31
6271,31
6272,31
6273,31
6274,31
6275,31
6276,30
6277,30
6278,30
6279,30
6280,30
6281,30
6282,30
6283,30
6284,30
6285,30
6286,30
6287,30
6288,30
6289,31
6290,31
6291,30
6292,30
6293,30
6294,30
6295,30
6296,30
6297,30
6298,30
6299,30
6300,30
6301,30
6302,30
6303,30
6304,30
6305,30
6306,30
6307,30
6308,30
6309,30
6310,30
6311,30
6312,30
6313,31
6314,30
6315,30
6316,30
6317,30
6318,30
6319,30
6320,30
6321,30
6322,30
6323,30
6324,30
6325,30
6326,30
6327,30
6328,30
6329,30
6330,30
6331,30
6332,30
6333,30
6334,30
6335,30
6336,30
6337,30
6338,31
6339,31
6340,31
6341,30
6342,30
6343,30
6344,30
6345,30
6346,30
6347,30
6348,30
6349,30
6350,30
6351,31
6352,30
6353,30
6354,30
6355,30
6356,30
6357,30
6358,30
6359,30
6360,30
6361,30
6362,30
6363,30
6364,31
6365,31
6366,31
6367,31
6368,31
6369,31
6370,31
6371,31
6372,31
6373,31
6374,31
6375,31
6376,31
6377,32
6378,31
6379,31
6380,31
6381,31
6382,31
6383,31
6384,31
6385,31
6386,31
6387,32
6388,31
6389,31
6390,31
6391,31
6392,31
6393,31
6394,31
6395,31
6396,31
6397,31
6398,31
6399,31
6400,31
6401,31
6402,31
6403,32
6404,32
6405,32
6406,32
6407,32
6408,32
6409,32
6410,32
6411,32
6412,32
6413,32
6414,33
6415,32
6416,32
6417,32
6418,32
6419,33
6420,33
6421,33
6422,33
6423,32
6424,32
6425,33
6426,33
6427,32
6428,31
6429,30
6430,30
6431,31
6432,31
6433,31
6434,31
6435,30
6436,30
6437,30
6438,30
6439,30
6440,30
6441,30
6442,30
6443,30
6444,30
6445,30
6446,30
6447,30
6448,30
6449,30
6450,30
6451,30
6452,30
6453,30
6454,30
6455,30
6456,30
6457,30
6458,30
6459,31
6460,31
6461,30
6462,30
6463,30
6464,30
6465,30
6466,30
6467,30
6468,30
6469,31
6470,31
6471,31
6472,30
6473,30
6474,30
6475,30
6476,30
6477,30
6478,30
6479,30
6480,30
6481,30
6482,30
6483,30
6484,30
6485,30
6486,30
6487,30
6488,30
6489,30
6490,30
6491,30
6492,30
6493,31
6494,30
6495,30
6496,30
6497,30
6498,31
6499,33
6500,32
6501,32
6502,32
6503,33
6504,32
6505,32
6506,32
6507,32
6508,32
6509,31
6510,32
6511,31
6512,31
6513,31
6514,31
6515,31
6516,31
6517,31
6518,31
6519,31
6520,31
6521,31
6522,31
6523,31
6524,31
6525,31
6526,31
6527,31
6528,31
6529,31
6530,31
6531,31
6532,31
6533,31
6534,31
6535,31
6536,31
6537,31
6538,31
6539,31
6540,31
6541,31
6542,31
6543,31
6544,31
6545,31
6546,31
6547,31
6548,31
6549,31
6550,31
6551,31
6552,32
6553,32
6554,32
6555,32
6556,32
6557,31
6558,31
6559,31
6560,31
6561,31
6562,31
6563,31
6564,31
6565,31
6566,31
6567,31
6568,31
6569,31
6570,32
6571,32
6572,32
6573,32
6574,32
6575,32
6576,32
6577,32
6578,32
6579,32
6580,32
6581,32
6582,32
6583,32
6584,32
6585,32
6586,32
6587,32
6588,33
6589,33
6590,33
6591,33
6592,32
6593,32
6594,32
6595,32
6596,32
6597,32
6598,32
6599,32
6600,32
6601,32
6602,32
6603,32
6604,32
6605,32
6606,32
6607,32
6608,32
6609,32
6610,32
6611,32
6612,32
6613,32
6614,32
6615,32
6616,32
6617,32
6618,32
6619,32
6620,32
6621,32
6622,32
6623,32
6624,32
6625,32
6626,32
6627,32
6628,32
6629,32
6630,32
6631,32
6632,32
6633,32
6634,32
6635,32
6636,32
6637,32
6638,32
6639,32
6640,33
6641,33
6642,33
6643,33
6644,32
6645,32
6646,32
6647,32
6648,32
6649,33
6650,33
6651,33
6652,33
6653,34
6654,33
6655,33
6656,33
6657,33
6658,33
6659,33
6660,34
6661,33
6662,34
6663,33
6664,33
6665,33
6666,33
6667,33
6668,33
6669,33
6670,33
6671,33
6672,33
6673,33
6674,33
6675,33
6676,33
6677,33
6678,33
6679,33
6680,33
6681,33
6682,33
6683,33
6684,33
6685,33
6686,33
6687,33
6688,34
6689,34
6690,35
6691,35
6692,35
6693,35
6694,35
6695,34
6696,34
6697,34
6698,34
6699,34
6700,34
6701,34
6702,34
6703,34
6704,34
6705,36
6706,34
6707,34
6708,34
6709,34
6710,34
6711,34
6712,34
6713,34
6714,34
6715,34
6716,34
6717,34
6718,34
6719,34
6720,34
6721,34
6722,34
6723,34
6724,34
6725,34
6726,34
6727,34
6728,34
6729,34
6730,34
6731,34
6732,34
6733,35
6734,34
6735,34
6736,34
6737,34
6738,34
6739,34
6740,34
6741,34
6742,34
6743,35
6744,35
6745,35
6746,35
6747,35
6748,35
6749,35
6750,35
6751,35
6752,36
6753,35
6754,34
6755,34
6756,34
6757,34
6758,34
6759,34
6760,35
6761,35
6762,34
6763,34
6764,34
6765,34
6766,34
6767,34
6768,34
6769,35
6770,35
6771,35
6772,35
6773,35
6774,35
6775,35
6776,35
6777,35
6778,35
6779,34
6780,34
6781,34
6782,34
6783,34
6784,34
6785,34
6786,34
6787,34
6788,34
6789,34
6790,35
6791,35
6792,35
6793,34
6794,34
6795,34
6796,34
6797,34
6798,34
6799,34
6800,34
6801,34
6802,34
6803,34
6804,34
6805,34
6806,34
6807,34
6808,34
6809,34
6810,34
6811,34
6812,34
6813,35
6814,34
6815,34
6816,34
6817,34
6818,34
6819,34
6820,34
6821,34
6822,34
6823,34
6824,34
6825,34
6826,34
6827,34
6828,34
6829,35
6830,34
6831,34
6832,34
6833,34
6834,34
6835,34
6836,34
6837,34
6838,34
6839,34
6840,34
6841,34
6842,34
6843,34
6844,34
6845,36
6846,36
6847,35
6848,35
6849,36
6850,35
6851,35
6852,35
6853,35
6854,34
6855,34
6856,34
6857,35
6858,35
6859,35
6860,35
6861,35
6862,35
6863,34
6864,34
6865,34
6866,34
6867,34
6868,34
6869,34
6870,34
6871,34
6872,34
6873,34
6874,34
6875,34
6876,34
6877,34
6878,34
6879,34
6880,34
6881,34
6882,34
6883,34
6884,34
6885,34
6886,34
6887,34
6888,34
6889,35
6890,35
6891,34
6892,34
6893,34
6894,34
6895,34
6896,34
6897,34
6898,34
6899,34
6900,34
6901,34
6902,34
6903,34
6904,34
6905,34
6906,34
6907,35
6908,35
6909,35
6910,35
6911,36
6912,37
6913,37
6914,37
6915,37
6916,36
6917,36
6918,36
6919,36
6920,36
6921,36
6922,36
6923,36
6924,36
6925,36
6926,36
6927,37
6928,36
6929,36
6930,35
6931,35
6932,35
6933,35
6934,35
6935,35
6936,35
6937,36
6938,36
6939,35
6940,35
6941,36
6942,36
6943,36
6944,36
6945,36
6946,35
6947,35
6948,35
6949,35
6950,35
6951,35
6952,35
6953,35
6954,35
6955,35
6956,35
6957,36
6958,35
6959,35
6960,35
6961,35
6962,35
6963,35
6964,34
6965,34
6966,34
6967,34
6968,34
6969,34
6970,34
6971,34
6972,34
6973,34
6974,34
6975,34
6976,34
6977,34
6978,33
6979,33
6980,33
6981,33
6982,34
6983,34
6984,34
6985,33
6986,33
6987,33
6988,33
6989,34
6990,34
6991,34
6992,34
6993,34
6994,35
6995,34
6996,34
6997,33
6998,33
6999,33
7000,33
7001,33
7002,33
7003,33
7004,33
7005,33
7006,33
7007,33
7008,33
7009,33
7010,33
7011,33
7012,33
7013,33
7014,33
7015,33
7016,33
7017,33
7018,33
7019,34
7020,33
7021,33
7022,33
7023,33
7024,33
7025,33
7026,33
7027,33
7028,33
7029,33
7030,33
7031,33
7032,33
7033,33
7034,33
7035,33
7036,33
7037,33
7038,33
7039,33
7040,33
7041,33
7042,33
7043,33
7044,33
7045,33
7046,33
7047,33
7048,33
7049,33
7050,33
7051,33
7052,33
7053,33
7054,33
7055,33
7056,34
7057,33
7058,33
7059,33
7060,33
7061,33
7062,33
7063,33
7064,33
7065,33
7066,33
7067,33
7068,33
7069,33
7070,33
7071,33
7072,33
7073,34
7074,34
7075,34
7076,34
7077,34
7078,34
7079,34
7080,34
7081,34
7082,34
7083,35
7084,33
7085,33
7086,33
7087,33
7088,33
7089,34
7090,33
7091,33
7092,33
7093,33
7094,33
7095,33
7096,33
7097,34
7098,34
7099,34
7100,34
7101,34
7102,34
7103,34
7104,35
7105,35
7106,34
7107,34
7108,34
7109,34
7110,33
7111,33
7112,34
7113,34
7114,34
7115,34
7116,34
7117,34
7118,34
7119,34
7120,34
7121,34
7122,34
7123,34
7124,34
7125,34
7126,34
7127,34
7128,33
7129,33
7130,33
7131,33
7132,33
7133,33
7134,33
7135,33
7136,33
7137,33
7138,33
7139,33
7140,34
7141,35
7142,33
7143,33
7144,33
7145,33
7146,35
7147,33
7148,33
7149,33
7150,33
7151,33
7152,33
7153,33
7154,33
7155,33
7156,33
7157,33
7158,33
7159,33
7160,33
7161,33
7162,33
7163,34
7164,33
7165,33
7166,33
7167,33
7168,33
7169,33
7170,33
7171,33
7172,33
7173,33
7174,34
7175,34
7176,34
7177,34
7178,35
7179,35
7180,34
7181,34
7182,34
7183,34
7184,34
7185,34
7186,34
7187,34
7188,34
7189,34
7190,34
7191,34
7192,34
7193,34
7194,34
7195,34
7196,34
7197,34
7198,35
7199,34
7200,34
7201,34
7202,34
7203,34
7204,34
7205,34
7206,34
7207,34
7208,34
7209,34
7210,34
7211,34
7212,34
7213,34
7214,34
7215,34
7216,34
7217,34
7218,34
7219,34
7220,34
7221,34
7222,34
7223,34
7224,35
7225,35
7226,35
7227,35
7228,35
7229,34
7230,34
7231,34
7232,34
7233,34
7234,34
7235,34
7236,34
7237,34
7238,34
7239,34
7240,34
7241,34
7242,34
7243,34
7244,34
7245,34
7246,34
7247,34
7248,34
7249,34
7250,34
7251,34
7252,34
7253,35
7254,35
7255,35
7256,35
7257,35
7258,34
7259,34
7260,34
7261,34
7262,34
7263,34
7264,34
7265,34
7266,34
7267,34
7268,34
7269,34
7270,34
7271,34
7272,34
7273,34
7274,34
7275,34
7276,34
7277,34
7278,34
7279,34
7280,34
7281,34
7282,34
7283,34
7284,34
7285,34
7286,34
7287,35
7288,35
7289,35
7290,35
7291,35
7292,34
7293,34
7294,34
7295,34
7296,34
7297,34
7298,34
7299,34
7300,34
7301,34
7302,34
7303,34
7304,34
7305,34
7306,34
7307,34
7308,34
7309,34
7310,34
7311,34
7312,35
7313,35
7314,35
7315,35
7316,34
7317,34
7318,34
7319,34
7320,34
7321,34
7322,34
7323,34
7324,34
7325,34
7326,34
7327,34
7328,34
7329,34
7330,34
7331,34
7332,34
7333,34
7334,34
7335,34
7336,34
7337,34
7338,34
7339,34
7340,34
7341,34
7342,34
7343,34
7344,34
7345,34
7346,34
7347,34
7348,34
7349,34
7350,34
7351,34
7352,34
7353,34
7354,34
7355,34
7356,34
7357,34
7358,34
7359,34
7360,34
7361,34
7362,34
7363,34
7364,34
7365,34
7366,36
7367,34
7368,34
7369,34
7370,34
7371,34
7372,34
7373,35
7374,36
7375,34
7376,34
7377,34
7378,34
7379,34
7380,34
7381,34
7382,34
7383,34
7384,34
7385,34
7386,34
7387,34
7388,34
7389,34
7390,34
7391,34
7392,34
7393,34
7394,34
7395,34
7396,35
7397,35
7398,35
7399,34
7400,34
7401,34
7402,34
7403,34
7404,34
7405,34
7406,34
7407,34
7408,34
7409,34
7410,34
7411,34
7412,34
7413,34
7414,34
7415,34
7416,34
7417,34
7418,34
7419,34
7420,34
7421,34
7422,34
7423,34
7424,34
7425,34
7426,34
7427,34
7428,34
7429,34
7430,34
7431,35
7432,34
7433,34
7434,34
7435,34
7436,34
7437,34
7438,35
7439,34
7440,34
7441,34
7442,34
7443,34
7444,34
7445,34
7446,34
7447,34
7448,34
7449,34
7450,34
7451,34
7452,34
7453,34
7454,34
7455,34
7456,34
7457,34
7458,34
7459,34
7460,33
7461,33
7462,33
7463,33
7464,33
7465,33
7466,33
7467,33
7468,33
7469,33
7470,34
7471,34
7472,34
7473,34
7474,34
7475,34
7476,34
7477,34
7478,34
7479,34
7480,34
7481,34
7482,34
7483,34
7484,34
7485,34
7486,34
7487,34
7488,34
7489,34
7490,34
7491,34
7492,34
7493,34
7494,34
7495,34
7496,34
7497,33
7498,33
7499,33
7500,33
7501,33
7502,33
7503,33
7504,33
7505,33
7506,33
7507,33
7508,33
7509,33
7510,33
7511,33
7512,33
7513,33
7514,33
7515,33
7516,33
7517,33
7518,33
7519,33
7520,33
7521,33
7522,33
7523,33
7524,33
7525,33
7526,33
7527,33
7528,33
7529,33
7530,33
7531,33
7532,33
7533,33
7534,33
7535,33
7536,33
7537,33
7538,33
7539,33
7540,33
7541,33
7542,34
7543,33
7544,33
7545,33
7546,34
7547,34
7548,33
7549,33
7550,33
7551,33
7552,33
7553,33
7554,33
7555,33
7556,34
7557,33
7558,33
7559,33
7560,33
7561,33
7562,33
7563,33
7564,33
7565,33
7566,33
7567,33
7568,33
7569,33
7570,33
7571,34
7572,33
7573,33
7574,33
7575,33
7576,33
7577,33
7578,33
7579,33
7580,33
7581,33
7582,33
7583,34
7584,33
7585,33
7586,33
7587,33
7588,33
7589,34
7590,34
7591,35
7592,34
7593,35
7594,33
7595,33
7596,33
7597,34
7598,34
7599,34
7600,33
7601,33
7602,33
7603,33
7604,33
7605,33
7606,33
7607,33
7608,33
7609,33
7610,33
7611,34
7612,34
7613,33
7614,33
7615,33
7616,34
7617,33
7618,33
7619,33
7620,33
7621,33
7622,33
7623,33
7624,33
7625,33
7626,33
7627,33
7628,33
7629,33
7630,33
7631,33
7632,33
7633,33
7634,33
7635,33
7636,33
7637,33
7638,33
7639,33
7640,33
7641,33
7642,33
7643,33
7644,33
7645,33
7646,33
7647,33
7648,33
7649,33
7650,33
7651,33
7652,33
7653,33
7654,33
7655,33
7656,33
7657,33
7658,33
7659,33
7660,33
7661,33
7662,33
7663,33
7664,33
7665,33
7666,33
7667,34
7668,33
7669,34
7670,34
7671,34
7672,33
7673,33
7674,34
7675,34
7676,35
7677,34
7678,34
7679,33
7680,34
7681,33
7682,33
7683,33
7684,33
7685,33
7686,33
7687,33
7688,33
7689,34
7690,34
7691,34
7692,34
7693,34
7694,34
7695,34
7696,34
7697,33
7698,34
7699,34
7700,35
7701,33
7702,33
7703,33
7704,33
7705,33
7706,33
7707,33
7708,33
7709,34
7710,34
7711,33
7712,33
7713,33
7714,34
7715,33
7716,33
7717,33
7718,33
7719,33
7720,34
7721,34
7722,34
7723,33
7724,33
7725,33
7726,33
7727,33
7728,34
7729,33
7730,33
7731,33
7732,33
7733,33
7734,33
7735,33
7736,33
7737,33
7738,33
7739,33
7740,33
7741,33
7742,33
7743,33
7744,33
7745,33
7746,33
7747,33
7748,33
7749,33
7750,33
7751,33
7752,33
7753,33
7754,34
7755,34
7756,34
7757,34
7758,34
7759,34
7760,34
7761,33
7762,33
7763,33
7764,33
7765,33
7766,33
7767,33
7768,33
7769,34
7770,34
7771,34
7772,34
7773,34
7774,34
7775,33
7776,33
7777,33
7778,33
7779,33
7780,33
7781,34
7782,34
7783,34
7784,34
7785,34
7786,34
7787,34
7788,34
7789,34
7790,34
7791,34
7792,34
7793,34
7794,35
7795,35
7796,35
7797,35
7798,35
7799,34
7800,34
7801,34
7802,34
7803,34
7804,34
7805,34
7806,34
7807,34
7808,34
7809,34
7810,34
7811,34
7812,34
7813,35
7814,34
7815,34
7816,34
7817,33
7818,33
7819,33
7820,33
7821,33
7822,33
7823,33
7824,33
7825,33
7826,33
7827,33
7828,33
7829,33
7830,33
7831,33
7832,33
7833,33
7834,33
7835,33
7836,33
7837,33
7838,33
7839,33
7840,33
7841,33
7842,33
7843,33
7844,32
7845,32
7846,32
7847,32
7848,32
7849,32
7850,32
7851,32
7852,32
7853,32
7854,33
7855,33
7856,33
7857,34
7858,33
7859,33
7860,32
7861,32
7862,32
7863,32
7864,32
7865,32
7866,32
7867,32
7868,32
7869,32
7870,32
7871,32
7872,32
7873,32
7874,32
7875,32
7876,32
7877,32
7878,32
7879,32
7880,32
7881,32
7882,32
7883,32
7884,32
7885,32
7886,32
7887,32
7888,33
7889,32
7890,32
7891,32
7892,32
7893,32
7894,32
7895,32
7896,32
7897,32
7898,32
7899,32
7900,32
7901,32
7902,32
7903,32
7904,32
7905,32
7906,32
7907,32
7908,32
7909,32
7910,33
7911,33
7912,33
7913,33
7914,33
7915,33
7916,33
7917,32
7918,32
7919,32
7920,32
7921,32
7922,32
7923,32
7924,32
7925,32
7926,32
7927,32
7928,32
7929,32
7930,32
7931,32
7932,32
7933,32
7934,32
7935,32
7936,32
7937,32
7938,32
7939,32
7940,32
7941,33
7942,33
7943,33
7944,32
7945,32
7946,32
7947,32
7948,32
7949,32
7950,32
7951,32
7952,32
7953,32
7954,32
7955,32
7956,32
7957,32
7958,33
7959,33
7960,33
7961,33
7962,32
7963,33
7964,33
7965,33
7966,33
7967,33
7968,32
7969,32
7970,32
7971,32
7972,32
7973,32
7974,32
7975,32
7976,32
7977,32
7978,32
7979,33
7980,33
7981,33
7982,33
7983,32
7984,32
7985,32
7986,32
7987,32
7988,32
7989,32
7990,32
7991,32
7992,32
7993,32
7994,32
7995,32
7996,32
7997,32
7998,32
7999,32
8000,34
8001,33
8002,33
8003,33
8004,34
8005,33
8006,33
8007,32
8008,32
8009,32
8010,32
8011,33
8012,33
8013,33
8014,33
8015,33
8016,33
8017,32
8018,33
8019,32
8020,32
8021,32
8022,32
8023,33
8024,32
8025,32
8026,32
8027,32
8028,32
8029,32
8030,32
8031,32
8032,32
8033,32
8034,32
8035,32
8036,33
8037,32
8038,32
8039,32
8040,32
8041,32
8042,32
8043,32
8044,32
8045,32
8046,32
8047,32
8048,32
8049,32
8050,32
8051,32
8052,32
8053,32
8054,32
8055,32
8056,32
8057,32
8058,32
8059,32
8060,32
8061,32
8062,32
8063,32
8064,32
8065,32
8066,32
8067,32
8068,33
8069,33
8070,33
8071,33
8072,32
8073,32
8074,32
8075,33
8076,33
8077,33
8078,33
8079,33
8080,33
8081,33
8082,33
8083,33
8084,33
8085,33
8086,33
8087,34
8088,32
8089,32
8090,33
8091,33
8092,32
8093,32
8094,32
8095,32
8096,32
8097,32
8098,32
8099,32
8100,32
8101,32
8102,32
8103,32
8104,32
8105,32
8106,32
8107,32
8108,32
8109,32
8110,32
8111,32
8112,32
8113,32
8114,33
8115,33
8116,33
8117,33
8118,32
8119,32
8120,32
8121,32
8122,32
8123,32
8124,32
8125,32
8126,32
8127,32
8128,32
8129,32
8130,32
8131,32
8132,32
8133,32
8134,32
8135,32
8136,32
8137,32
8138,32
8139,33
8140,32
8141,32
8142,32
8143,32
8144,32
8145,33
8146,33
8147,33
8148,33
8149,33
8150,32
8151,32
8152,32
8153,32
8154,32
8155,32
8156,32
8157,32
8158,32
8159,32
8160,32
8161,32
8162,32
8163,33
8164,33
8165,32
8166,33
8167,32
8168,33
8169,33
8170,33
8171,33
8172,33
8173,33
8174,32
8175,34
8176,33
8177,33
8178,33
8179,33
8180,34
8181,34
8182,34
8183,34
8184,33
8185,33
8186,33
8187,33
8188,33
8189,33
8190,33
8191,33
8192,34
8193,33
8194,33
8195,33
8196,33
8197,33
8198,33
8199,33
8200,33
8201,34
8202,34
8203,33
8204,33
8205,33
8206,33
8207,33
8208,33
8209,33
8210,33
8211,33
8212,33
8213,33
8214,33
8215,33
8216,33
8217,33
8218,33
8219,33
8220,33
8221,33
8222,33
8223,33
8224,33
8225,33
8226,33
8227,33
8228,33
8229,33
8230,33
8231,33
8232,34
8233,34
8234,34
8235,34
8236,34
8237,34
8238,34
8239,34
8240,34
8241,34
8242,34
8243,34
8244,34
8245,34
8246,33
8247,33
8248,33
8249,33
8250,33
8251,33
8252,33
8253,33
8254,33
8255,33
8256,34
8257,34
8258,34
8259,34
8260,34
8261,34
8262,34
8263,35
8264,36
8265,35
8266,34
8267,34
8268,34
8269,34
8270,34
8271,34
8272,34
8273,34
8274,34
8275,34
8276,34
8277,33
8278,33
8279,33
8280,33
8281,33
8282,33
8283,33
8284,33
8285,33
8286,33
8287,34
8288,34
8289,34
8290,34
8291,33
8292,33
8293,33
8294,33
8295,33
8296,34
8297,34
8298,34
8299,34
8300,34
8301,34
8302,34
8303,34
8304,34
8305,34
8306,34
8307,34
8308,34
8309,34
8310,35
8311,35
8312,34
8313,34
8314,34
8315,34
8316,34
8317,34
8318,33
8319,33
8320,33
8321,33
8322,33
8323,33
8324,33
8325,33
8326,33
8327,33
8328,34
8329,34
8330,33
8331,33
8332,33
8333,33
8334,33
8335,33
8336,33
8337,33
8338,33
8339,33
8340,33
8341,33
8342,33
8343,33
8344,34
8345,34
8346,33
8347