1,3
2,4
3,4
4,4
5,4
6,4
7,4
8,4
9,4
10,4
11,5
12,5
13,5
14,4
15,4
16,4
17,4
18,4
19,4
20,5
21,5
22,5
23,5
24,5
25,5
26,5
27,5
28,5
29,5
30,5
31,5
32,5
33,5
34,5
35,5
36,5
37,5
38,5
39,5
40,5
41,5
42,5
43,5
44,5
45,5
46,5
47,5
48,5
49,5
50,6
51,6
52,6
53,6
54,6
55,6
56,6
57,6
58,6
59,6
60,6
61,7
62,7
63,7
64,8
65,7
66,6
67,6
68,6
69,6
70,6
71,6
72,6
73,6
74,6
75,6
76,6
77,6
78,6
79,6
80,6
81,6
82,6
83,6
84,6
85,6
86,6
87,6
88,6
89,6
90,6
91,6
92,6
93,7
94,7
95,7
96,7
97,6
98,6
99,6
100,6
101,6
102,6
103,6
104,8
105,7
106,7
107,7
108,7
109,7
110,7
111,7
112,7
113,7
114,7
115,7
116,8
117,8
118,8
119,8
120,8
121,8
122,8
123,8
124,8
125,8
126,8
127,8
128,8
129,8
130,8
131,8
132,8
133,8
134,8
135,8
136,8
137,8
138,8
139,8
140,9
141,9
142,9
143,9
144,9
145,8
146,8
147,8
148,8
149,8
150,8
151,8
152,8
153,8
154,8
155,8
156,8
157,8
158,8
159,8
160,8
161,8
162,8
163,8
164,8
165,8
166,8
167,8
168,8
169,8
170,8
171,8
172,8
173,8
174,8
175,8
176,8
177,9
178,9
179,9
180,10
181,11
182,11
183,10
184,10
185,10
186,10
187,10
188,10
189,10
190,10
191,10
192,10
193,10
194,10
195,11
196,11
197,11
198,11
199,11
200,11
201,11
202,11
203,11
204,11
205,11
206,11
207,11
208,11
209,11
210,11
211,11
212,11
213,11
214,11
215,11
216,11
217,11
218,12
219,12
220,13
221,12
222,12
223,11
224,11
225,11
226,11
227,11
228,12
229,11
230,11
231,11
232,11
233,11
234,12
235,12
236,12
237,12
238,12
239,11
240,11
241,12
242,12
243,12
244,12
245,12
246,13
247,14
248,12
249,12
250,12
251,12
252,12
253,12
254,12
255,12
256,12
257,13
258,13
259,13
260,13
261,13
262,13
263,13
264,13
265,13
266,13
267,13
268,13
269,13
270,13
271,13
272,13
273,13
274,13
275,13
276,13
277,13
278,13
279,14
280,14
281,14
282,14
283,14
284,14
285,13
286,13
287,13
288,14
289,14
290,15
291,14
292,14
293,14
294,14
295,14
296,14
297,14
298,14
299,14
300,14
301,14
302,16
303,16
304,15
305,14
306,14
307,14
308,14
309,14
310,14
311,14
312,14
313,14
314,14
315,14
316,14
317,14
318,14
319,14
320,14
321,14
322,14
323,14
324,14
325,14
326,15
327,14
328,14
329,14
330,15
331,15
332,14
333,14
334,14
335,14
336,14
337,14
338,14
339,14
340,14
341,14
342,14
343,14
344,14
345,14
346,14
347,14
348,15
349,15
350,14
351,14
352,14
353,14
354,14
355,14
356,14
357,14
358,14
359,14
360,14
361,14
362,14
363,14
364,14
365,14
366,14
367,14
368,14
369,14
370,14
371,14
372,14
373,14
374,14
375,14
376,14
377,14
378,14
379,14
380,16
381,14
382,14
383,14
384,14
385,14
386,14
387,14
388,14
389,14
390,14
391,14
392,14
393,14
394,14
395,15
396,15
397,14
398,14
399,14
400,14
401,14
402,14
403,14
404,14
405,14
406,14
407,14
408,14
409,14
410,14
411,14
412,14
413,14
414,14
415,14
416,14
417,14
418,14
419,14
420,14
421,14
422,14
423,14
424,14
425,14
426,14
427,14
428,14
429,14
430,14
431,14
432,14
433,14
434,14
435,14
436,14
437,14
438,14
439,14
440,14
441,15
442,15
443,15
444,15
445,15
446,15
447,15
448,15
449,15
450,15
451,14
452,14
453,14
454,14
455,14
456,14
457,14
458,14
459,14
460,14
461,15
462,14
463,14
464,14
465,14
466,14
467,14
468,14
469,14
470,14
471,14
472,14
473,14
474,14
475,14
476,14
477,14
478,14
479,14
480,14
481,14
482,14
483,14
484,14
485,14
486,14
487,14
488,14
489,14
490,14
491,14
492,14
493,14
494,14
495,14
496,14
497,14
498,14
499,14
500,14
501,14
502,14
503,14
504,14
505,14
506,14
507,14
508,14
509,14
510,14
511,14
512,14
513,14
514,14
515,14
516,14
517,14
518,15
519,15
520,15
521,14
522,15
523,15
524,15
525,15
526,15
527,15
528,15
529,15
530,15
531,15
532,15
533,15
534,16
535,16
536,17
537,17
538,17
539,17
540,17
541,18
542,18
543,18
544,18
545,17
546,17
547,17
548,17
549,17
550,16
551,16
552,16
553,16
554,15
555,15
556,15
557,15
558,15
559,15
560,15
561,15
562,15
563,15
564,15
565,15
566,15
567,15
568,16
569,15
570,16
571,15
572,15
573,15
574,15
575,15
576,15
577,15
578,15
579,16
580,15
581,15
582,15
583,15
584,15
585,15
586,15
587,15
588,15
589,15
590,15
591,15
592,15
593,15
594,15
595,15
596,15
597,15
598,15
599,15
600,15
601,15
602,15
603,15
604,15
605,15
606,15
607,15
608,15
609,15
610,15
611,15
612,15
613,16
614,16
615,16
616,16
617,15
618,15
619,15
620,15
621,16
622,16
623,16
624,16
625,16
626,17
627,17
628,17
629,16
630,16
631,16
632,16
633,16
634,16
635,16
636,16
637,16
638,16
639,16
640,17
641,17
642,18
643,16
644,16
645,16
646,16
647,16
648,16
649,16
650,16
651,16
652,16
653,16
654,16
655,16
656,16
657,16
658,16
659,17
660,16
661,16
662,16
663,16
664,16
665,16
666,16
667,16
668,16
669,16
670,16
671,16
672,16
673,16
674,16
675,16
676,16
677,16
678,16
679,16
680,16
681,16
682,16
683,16
684,16
685,16
686,16
687,16
688,16
689,16
690,16
691,16
692,16
693,16
694,16
695,16
696,16
697,16
698,16
699,16
700,16
701,16
702,16
703,16
704,16
705,16
706,16
707,16
708,16
709,16
710,16
711,16
712,16
713,16
714,16
715,16
716,16
717,16
718,16
719,16
720,16
721,16
722,16
723,16
724,16
725,16
726,16
727,16
728,16
729,16
730,16
731,16
732,16
733,16
734,16
735,16
736,16
737,16
738,16
739,16
740,16
741,16
742,16
743,16
744,16
745,16
746,16
747,16
748,16
749,16
750,16
751,16
752,16
753,16
754,18
755,17
756,17
757,17
758,17
759,18
760,16
761,16
762,16
763,17
764,16
765,17
766,16
767,16
768,16
769,16
770,16
771,16
772,16
773,16
774,16
775,16
776,16
777,16
778,16
779,16
780,16
781,16
782,17
783,17
784,17
785,17
786,17
787,17
788,17
789,17
790,17
791,17
792,17
793,17
794,17
795,17
796,17
797,17
798,17
799,17
800,17
801,17
802,16
803,16
804,16
805,16
806,16
807,16
808,16
809,16
810,16
811,16
812,16
813,16
814,16
815,16
816,17
817,16
818,16
819,16
820,16
821,16
822,16
823,16
824,16
825,17
826,17
827,16
828,16
829,17
830,17
831,16
832,16
833,16
834,16
835,16
836,16
837,16
838,16
839,16
840,16
841,16
842,16
843,16
844,16
845,16
846,16
847,16
848,16
849,16
850,16
851,16
852,16
853,16
854,16
855,16
856,16
857,16
858,16
859,16
860,16
861,16
862,16
863,16
864,16
865,16
866,16
867,16
868,17
869,17
870,16
871,16
872,16
873,16
874,16
875,16
876,16
877,16
878,16
879,16
880,16
881,16
882,16
883,16
884,16
885,16
886,16
887,16
888,16
889,16
890,16
891,16
892,16
893,16
894,16
895,16
896,16
897,16
898,16
899,16
900,16
901,16
902,16
903,16
904,16
905,16
906,16
907,16
908,16
909,16
910,16
911,17
912,17
913,16
914,16
915,16
916,16
917,16
918,16
919,16
920,16
921,16
922,16
923,16
924,16
925,16
926,16
927,16
928,16
929,16
930,16
931,16
932,16
933,16
934,16
935,16
936,17
937,16
938,16
939,16
940,16
941,16
942,16
943,16
944,16
945,16
946,16
947,16
948,16
949,16
950,16
951,16
952,16
953,16
954,17
955,17
956,17
957,17
958,17
959,17
960,17
961,16
962,17
963,17
964,17
965,17
966,17
967,17
968,17
969,17
970,17
971,17
972,17
973,17
974,17
975,17
976,17
977,17
978,17
979,17
980,17
981,17
982,18
983,17
984,17
985,17
986,17
987,17
988,17
989,17
990,17
991,17
992,17
993,17
994,17
995,17
996,17
997,18
998,17
999,17
1000,17
1001,17
1002,17
1003,17
1004,17
1005,17
1006,17
1007,17
1008,17
1009,17
1010,17
1011,17
1012,17
1013,17
1014,17
1015,18
1016,17
1017,17
1018,17
1019,17
1020,18
1021,18
1022,17
1023,17
1024,17
1025,17
1026,17
1027,17
1028,17
1029,18
1030,19
1031,19
1032,18
1033,18
1034,18
1035,18
1036,19
1037,19
1038,19
1039,18
1040,18
1041,18
1042,18
1043,18
1044,18
1045,18
1046,18
1047,18
1048,18
1049,18
1050,17
1051,17
1052,18
1053,18
1054,18
1055,18
1056,18
1057,18
1058,18
1059,18
1060,18
1061,18
1062,18
1063,18
1064,18
1065,18
1066,19
1067,20
1068,20
1069,20
1070,20
1071,19
1072,19
1073,19
1074,18
1075,19
1076,18
1077,18
1078,18
1079,18
1080,18
1081,18
1082,18
1083,18
1084,18
1085,18
1086,18
1087,18
1088,18
1089,18
1090,18
1091,18
1092,18
1093,18
1094,18
1095,18
1096,18
1097,18
1098,18
1099,18
1100,19
1101,18
1102,18
1103,18
1104,18
1105,18
1106,18
1107,18
1108,18
1109,18
1110,18
1111,18
1112,18
1113,18
1114,18
1115,18
1116,18
1117,18
1118,18
1119,18
1120,19
1121,18
1122,18
1123,18
1124,18
1125,18
1126,18
1127,18
1128,18
1129,18
1130,18
1131,19
1132,19
1133,19
1134,19
1135,19
1136,18
1137,18
1138,18
1139,18
1140,19
1141,19
1142,19
1143,19
1144,19
1145,19
1146,19
1147,19
1148,18
1149,18
1150,18
1151,18
1152,18
1153,18
1154,18
1155,19
1156,19
1157,18
1158,18
1159,18
1160,18
1161,18
1162,18
1163,18
1164,18
1165,18
1166,18
1167,18
1168,18
1169,18
1170,18
1171,18
1172,18
1173,18
1174,18
1175,18
1176,18
1177,18
1178,18
1179,18
1180,18
1181,18
1182,18
1183,18
1184,18
1185,18
1186,18
1187,18
1188,18
1189,18
1190,18
1191,18
1192,18
1193,19
1194,19
1195,18
1196,18
1197,18
1198,18
1199,18
1200,18
1201,18
1202,18
1203,18
1204,18
1205,18
1206,18
1207,18
1208,19
1209,18
1210,18
1211,18
1212,18
1213,18
1214,18
1215,18
1216,18
1217,18
1218,18
1219,18
1220,18
1221,18
1222,18
1223,18
1224,18
1225,18
1226,18
1227,18
1228,19
1229,19
1230,18
1231,18
1232,18
1233,18
1234,18
1235,18
1236,18
1237,19
1238,18
1239,18
1240,20
1241,19
1242,19
1243,18
1244,18
1245,18
1246,18
1247,18
1248,18
1249,18
1250,18
1251,18
1252,18
1253,19
1254,19
1255,18
1256,18
1257,18
1258,18
1259,18
1260,19
1261,19
1262,18
1263,18
1264,18
1265,18
1266,18
1267,18
1268,18
1269,18
1270,18
1271,18
1272,18
1273,18
1274,18
1275,18
1276,18
1277,18
1278,18
1279,18
1280,18
1281,18
1282,18
1283,18
1284,18
1285,18
1286,18
1287,18
1288,18
1289,18
1290,18
1291,18
1292,18
1293,18
1294,18
1295,18
1296,18
1297,18
1298,18
1299,18
1300,18
1301,18
1302,19
1303,19
1304,18
1305,18
1306,18
1307,18
1308,18
1309,18
1310,18
1311,18
1312,18
1313,18
1314,18
1315,18
1316,18
1317,18
1318,18
1319,18
1320,18
1321,18
1322,18
1323,18
1324,19
1325,20
1326,19
1327,18
1328,18
1329,18
1330,18
1331,18
1332,18
1333,18
1334,18
1335,18
1336,19
1337,18
1338,18
1339,18
1340,18
1341,18
1342,18
1343,18
1344,18
1345,18
1346,18
1347,18
1348,18
1349,18
1350,18
1351,18
1352,18
1353,18
1354,18
1355,18
1356,18
1357,18
1358,18
1359,18
1360,18
1361,18
1362,18
1363,18
1364,18
1365,18
1366,18
1367,18
1368,18
1369,18
1370,18
1371,18
1372,18
1373,18
1374,18
1375,18
1376,18
1377,18
1378,18
1379,18
1380,18
1381,18
1382,18
1383,18
1384,18
1385,18
1386,18
1387,18
1388,18
1389,18
1390,20
1391,19
1392,19
1393,18
1394,18
1395,18
1396,18
1397,18
1398,18
1399,18
1400,18
1401,18
1402,18
1403,18
1404,19
1405,19
1406,19
1407,18
1408,18
1409,18
1410,18
1411,18
1412,18
1413,18
1414,18
1415,18
1416,18
1417,19
1418,19
1419,19
1420,19
1421,19
1422,19
1423,19
1424,19
1425,19
1426,21
1427,21
1428,21
1429,21
1430,20
1431,20
1432,19
1433,19
1434,19
1435,19
1436,19
1437,19
1438,19
1439,19
1440,19
1441,19
1442,19
1443,19
1444,19
1445,19
1446,19
1447,19
1448,19
1449,20
1450,19
1451,19
1452,19
1453,19
1454,19
1455,19
1456,19
1457,19
1458,19
1459,19
1460,19
1461,19
1462,19
1463,19
1464,19
1465,19
1466,19
1467,19
1468,19
1469,19
1470,19
1471,19
1472,19
1473,19
1474,19
1475,19
1476,19
1477,19
1478,19
1479,19
1480,19
1481,19
1482,19
1483,20
1484,20
1485,19
1486,19
1487,19
1488,19
1489,19
1490,19
1491,20
1492,20
1493,19
1494,19
1495,19
1496,19
1497,19
1498,19
1499,19
1500,19
1501,19
1502,19
1503,19
1504,19
1505,19
1506,20
1507,20
1508,20
1509,19
1510,19
1511,19
1512,19
1513,19
1514,19
1515,19
1516,19
1517,19
1518,19
1519,19
1520,19
1521,19
1522,19
1523,19
1524,19
1525,19
1526,19
1527,19
1528,19
1529,19
1530,19
1531,19
1532,19
1533,19
1534,19
1535,19
1536,19
1537,19
1538,19
1539,19
1540,20
1541,19
1542,19
1543,19
1544,19
1545,19
1546,19
1547,19
1548,19
1549,19
1550,20
1551,20
1552,20
1553,20
1554,20
1555,20
1556,20
1557,20
1558,20
1559,20
1560,20
1561,20
1562,20
1563,20
1564,20
1565,21
1566,21
1567,21
1568,20
1569,21
1570,21
1571,21
1572,22
1573,21
1574,21
1575,21
1576,21
1577,21
1578,21
1579,21
1580,21
1581,21
1582,21
1583,21
1584,22
1585,21
1586,21
1587,21
1588,21
1589,21
1590,21
1591,21
1592,21
1593,21
1594,21
1595,21
1596,21
1597,22
1598,22
1599,21
1600,21
1601,21
1602,21
1603,21
1604,21
1605,21
1606,21
1607,21
1608,21
1609,21
1610,21
1611,21
1612,21
1613,21
1614,21
1615,21
1616,22
1617,21
1618,21
1619,21
1620,21
1621,21
1622,21
1623,21
1624,21
1625,21
1626,21
1627,21
1628,21
1629,21
1630,21
1631,21
1632,21
1633,21
1634,21
1635,21
1636,21
1637,21
1638,21
1639,21
1640,21
1641,21
1642,21
1643,21
1644,21
1645,21
1646,21
1647,21
1648,22
1649,22
1650,22
1651,22
1652,22
1653,23
1654,24
1655,23
1656,24
1657,24
1658,24
1659,24
1660,22
1661,22
1662,22
1663,22
1664,22
1665,22
1666,22
1667,22
1668,22
1669,22
1670,22
1671,22
1672,22
1673,22
1674,22
1675,22
1676,22
1677,22
1678,22
1679,22
1680,22
1681,22
1682,22
1683,21
1684,21
1685,21
1686,21
1687,21
1688,21
1689,21
1690,21
1691,21
1692,21
1693,21
1694,21
1695,21
1696,21
1697,21
1698,21
1699,21
1700,21
1701,21
1702,21
1703,21
1704,21
1705,21
1706,21
1707,21
1708,21
1709,21
1710,21
1711,21
1712,21
1713,21
1714,22
1715,21
1716,21
1717,21
1718,21
1719,21
1720,21
1721,21
1722,21
1723,21
1724,21
1725,21
1726,21
1727,22
1728,22
1729,21
1730,21
1731,22
1732,22
1733,21
1734,21
1735,21
1736,22
1737,21
1738,21
1739,21
1740,21
1741,21
1742,21
1743,21
1744,21
1745,21
1746,21
1747,21
1748,21
1749,21
1750,21
1751,21
1752,21
1753,21
1754,21
1755,21
1756,21
1757,21
1758,21
1759,21
1760,21
1761,21
1762,21
1763,21
1764,21
1765,21
1766,22
1767,21
1768,21
1769,21
1770,21
1771,22
1772,21
1773,21
1774,21
1775,21
1776,21
1777,21
1778,21
1779,21
1780,21
1781,21
1782,21
1783,21
1784,21
1785,21
1786,21
1787,21
1788,21
1789,21
1790,21
1791,21
1792,21
1793,21
1794,21
1795,21
1796,21
1797,21
1798,21
1799,22
1800,21
1801,21
1802,21
1803,21
1804,21
1805,22
1806,22
1807,22
1808,22
1809,22
1810,21
1811,21
1812,21
1813,21
1814,21
1815,21
1816,21
1817,21
1818,21
1819,21
1820,21
1821,21
1822,21
1823,21
1824,22
1825,22
1826,22
1827,21
1828,21
1829,21
1830,21
1831,21
1832,21
1833,21
1834,21
1835,21
1836,21
1837,21
1838,21
1839,21
1840,21
1841,21
1842,21
1843,21
1844,21
1845,21
1846,22
1847,21
1848,21
1849,21
1850,21
1851,21
1852,21
1853,21
1854,22
1855,22
1856,22
1857,22
1858,21
1859,21
1860,21
1861,21
1862,21
1863,21
1864,21
1865,21
1866,21
1867,21
1868,21
1869,21
1870,21
1871,22
1872,22
1873,21
1874,21
1875,21
1876,21
1877,21
1878,21
1879,21
1880,22
1881,22
1882,22
1883,21
1884,21
1885,21
1886,21
1887,21
1888,23
1889,23
1890,21
1891,21
1892,21
1893,21
1894,21
1895,21
1896,21
1897,21
1898,21
1899,21
1900,21
1901,21
1902,21
1903,21
1904,21
1905,21
1906,21
1907,21
1908,21
1909,21
1910,21
1911,21
1912,21
1913,21
1914,21
1915,21
1916,21
1917,21
1918,21
1919,21
1920,21
1921,21
1922,21
1923,21
1924,21
1925,21
1926,21
1927,21
1928,21
1929,21
1930,21
1931,21
1932,21
1933,21
1934,21
1935,21
1936,21
1937,21
1938,21
1939,21
1940,21
1941,21
1942,21
1943,21
1944,21
1945,21
1946,21
1947,21
1948,21
1949,21
1950,21
1951,21
1952,21
1953,21
1954,21
1955,21
1956,21
1957,21
1958,21
1959,21
1960,21
1961,21
1962,21
1963,21
1964,22
1965,21
1966,21
1967,21
1968,21
1969,22
1970,22
1971,22
1972,22
1973,22
1974,22
1975,21
1976,21
1977,21
1978,21
1979,21
1980,21
1981,21
1982,21
1983,21
1984,21
1985,21
1986,21
1987,21
1988,21
1989,21
1990,21
1991,21
1992,21
1993,21
1994,21
1995,21
1996,21
1997,21
1998,21
1999,21
2000,21
2001,21
2002,21
2003,21
2004,21
2005,21
2006,21
2007,21
2008,21
2009,21
2010,21
2011,21
2012,21
2013,21
2014,21
2015,22
2016,22
2017,21
2018,21
2019,21
2020,21
2021,21
2022,21
2023,21
2024,21
2025,21
2026,21
2027,21
2028,21
2029,21
2030,21
2031,21
2032,22
2033,21
2034,21
2035,21
2036,21
2037,21
2038,21
2039,21
2040,21
2041,21
2042,21
2043,21
2044,21
2045,21
2046,21
2047,21
2048,21
2049,21
2050,21
2051,21
2052,21
2053,21
2054,21
2055,21
2056,21
2057,21
2058,21
2059,21
2060,21
2061,21
2062,21
2063,21
2064,21
2065,21
2066,21
2067,21
2068,21
2069,21
2070,21
2071,21
2072,21
2073,21
2074,21
2075,21
2076,21
2077,21
2078,21
2079,21
2080,21
2081,22
2082,22
2083,22
2084,22
2085,22
2086,22
2087,22
2088,22
2089,23
2090,22
2091,22
2092,22
2093,22
2094,22
2095,22
2096,22
2097,22
2098,22
2099,22
2100,23
2101,22
2102,22
2103,22
2104,22
2105,22
2106,23
2107,23
2108,23
2109,23
2110,22
2111,22
2112,22
2113,22
2114,22
2115,22
2116,22
2117,22
2118,22
2119,23
2120,22
2121,22
2122,22
2123,22
2124,23
2125,22
2126,22
2127,22
2128,22
2129,22
2130,22
2131,22
2132,22
2133,22
2134,22
2135,22
2136,22
2137,22
2138,22
2139,22
2140,22
2141,22
2142,22
2143,22
2144,22
2145,22
2146,22
2147,23
2148,22
2149,22
2150,22
2151,23
2152,24
2153,24
2154,24
2155,24
2156,24
2157,23
2158,23
2159,23
2160,23
2161,23
2162,24
2163,24
2164,23
2165,23
2166,23
2167,23
2168,23
2169,23
2170,23
2171,23
2172,23
2173,23
2174,24
2175,24
2176,25
2177,25
2178,24
2179,24
2180,24
2181,24
2182,24
2183,23
2184,23
2185,23
2186,23
2187,23
2188,23
2189,24
2190,24
2191,24
2192,24
2193,24
2194,24
2195,24
2196,24
2197,24
2198,24
2199,24
2200,24
2201,24
2202,24
2203,24
2204,24
2205,24
2206,24
2207,24
2208,24
2209,24
2210,24
2211,24
2212,24
2213,25
2214,26
2215,25
2216,25
2217,25
2218,25
2219,25
2220,27
2221,26
2222,26
2223,26
2224,26
2225,26
2226,26
2227,26
2228,26
2229,26
2230,26
2231,26
2232,26
2233,26
2234,26
2235,26
2236,26
2237,26
2238,26
2239,25
2240,24
2241,24
2242,24
2243,24
2244,24
2245,24
2246,25
2247,25
2248,25
2249,25
2250,24
2251,24
2252,24
2253,24
2254,24
2255,24
2256,24
2257,24
2258,24
2259,24
2260,24
2261,24
2262,24
2263,24
2264,24
2265,24
2266,24
2267,24
2268,24
2269,24
2270,24
2271,25
2272,24
2273,25
2274,25
2275,27
2276,27
2277,27
2278,25
2279,24
2280,24
2281,24
2282,24
2283,24
2284,24
2285,24
2286,24
2287,24
2288,24
2289,24
2290,24
2291,24
2292,24
2293,24
2294,24
2295,24
2296,24
2297,24
2298,24
2299,24
2300,24
2301,24
2302,24
2303,24
2304,24
2305,24
2306,24
2307,24
2308,24
2309,24
2310,24
2311,24
2312,24
2313,24
2314,24
2315,24
2316,24
2317,24
2318,25
2319,25
2320,25
2321,25
2322,25
2323,25
2324,25
2325,25
2326,25
2327,25
2328,25
2329,25
2330,25
2331,25
2332,25
2333,25
2334,25
2335,25
2336,25
2337,25
2338,25
2339,25
2340,25
2341,25
2342,25
2343,25
2344,25
2345,25
2346,25
2347,25
2348,25
2349,25
2350,25
2351,25
2352,25
2353,25
2354,25
2355,25
2356,25
2357,25
2358,25
2359,25
2360,25
2361,25
2362,25
2363,25
2364,25
2365,25
2366,25
2367,25
2368,25
2369,25
2370,25
2371,25
2372,25
2373,25
2374,25
2375,25
2376,25
2377,25
2378,25
2379,25
2380,25
2381,25
2382,25
2383,25
2384,25
2385,25
2386,25
2387,25
2388,25
2389,25
2390,26
2391,25
2392,25
2393,26
2394,26
2395,26
2396,25
2397,25
2398,25
2399,25
2400,25
2401,26
2402,26
2403,25
2404,25
2405,25
2406,25
2407,25
2408,25
2409,25
2410,25
2411,26
2412,26
2413,26
2414,26
2415,26
2416,25
2417,25
2418,25
2419,25
2420,25
2421,25
2422,25
2423,25
2424,25
2425,25
2426,25
2427,25
2428,25
2429,25
2430,25
2431,25
2432,25
2433,25
2434,25
2435,25
2436,25
2437,25
2438,25
2439,25
2440,27
2441,26
2442,27
2443,25
2444,25
2445,25
2446,25
2447,25
2448,26
2449,26
2450,25
2451,25
2452,25
2453,25
2454,25
2455,25
2456,25
2457,25
2458,25
2459,25
2460,25
2461,25
2462,25
2463,25
2464,25
2465,25
2466,25
2467,25
2468,25
2469,25
2470,25
2471,25
2472,25
2473,25
2474,25
2475,25
2476,25
2477,25
2478,25
2479,25
2480,25
2481,25
2482,25
2483,25
2484,25
2485,25
2486,25
2487,25
2488,25
2489,25
2490,25
2491,25
2492,25
2493,25
2494,25
2495,25
2496,25
2497,25
2498,25
2499,25
2500,25
2501,25
2502,25
2503,25
2504,25
2505,25
2506,25
2507,25
2508,25
2509,25
2510,25
2511,25
2512,25
2513,25
2514,25
2515,25
2516,25
2517,25
2518,25
2519,25
2520,25
2521,25
2522,25
2523,25
2524,25
2525,25
2526,25
2527,25
2528,25
2529,26
2530,25
2531,25
2532,25
2533,25
2534,25
2535,25
2536,25
2537,25
2538,25
2539,25
2540,26
2541,25
2542,25
2543,25
2544,25
2545,25
2546,25
2547,25
2548,25
2549,25
2550,25
2551,25
2552,25
2553,25
2554,25
2555,25
2556,25
2557,25
2558,25
2559,25
2560,25
2561,25
2562,25
2563,25
2564,25
2565,25
2566,25
2567,25
2568,25
2569,25
2570,26
2571,26
2572,27
2573,27
2574,27
2575,28
2576,27
2577,27
2578,27
2579,27
2580,27
2581,27
2582,27
2583,27
2584,27
2585,28
2586,27
2587,27
2588,27
2589,27
2590,27
2591,27
2592,27
2593,27
2594,27
2595,27
2596,27
2597,26
2598,26
2599,26
2600,26
2601,26
2602,26
2603,26
2604,26
2605,26
2606,26
2607,27
2608,27
2609,27
2610,27
2611,27
2612,27
2613,27
2614,27
2615,27
2616,27
2617,27
2618,27
2619,27
2620,26
2621,26
2622,26
2623,26
2624,26
2625,26
2626,26
2627,26
2628,26
2629,26
2630,26
2631,26
2632,26
2633,26
2634,26
2635,26
2636,26
2637,27
2638,27
2639,26
2640,26
2641,26
2642,26
2643,26
2644,26
2645,27
2646,26
2647,26
2648,26
2649,26
2650,26
2651,26
2652,26
2653,26
2654,27
2655,27
2656,27
2657,27
2658,26
2659,27
2660,27
2661,27
2662,26
2663,26
2664,26
2665,26
2666,27
2667,27
2668,27
2669,26
2670,26
2671,26
2672,26
2673,26
2674,26
2675,26
2676,26
2677,27
2678,26
2679,26
2680,26
2681,27
2682,27
2683,27
2684,26
2685,26
2686,26
2687,26
2688,26
2689,26
2690,26
2691,26
2692,26
2693,26
2694,26
2695,26
2696,26
2697,26
2698,26
2699,26
2700,26
2701,26
2702,26
2703,26
2704,26
2705,26
2706,26
2707,27
2708,26
2709,26
2710,26
2711,26
2712,26
2713,26
2714,26
2715,26
2716,26
2717,26
2718,26
2719,26
2720,26
2721,27
2722,27
2723,27
2724,27
2725,26
2726,26
2727,26
2728,26
2729,26
2730,26
2731,26
2732,26
2733,26
2734,26
2735,26
2736,26
2737,26
2738,26
2739,26
2740,26
2741,26
2742,26
2743,26
2744,26
2745,26
2746,26
2747,26
2748,26
2749,26
2750,26
2751,26
2752,26
2753,26
2754,26
2755,26
2756,26
2757,26
2758,26
2759,26
2760,26
2761,26
2762,26
2763,26
2764,26
2765,26
2766,26
2767,26
2768,26
2769,26
2770,26
2771,26
2772,26
2773,26
2774,26
2775,26
2776,26
2777,26
2778,27
2779,26
2780,26
2781,26
2782,26
2783,26
2784,26
2785,26
2786,26
2787,26
2788,26
2789,26
2790,26
2791,26
2792,26
2793,26
2794,26
2795,26
2796,26
2797,26
2798,26
2799,26
2800,26
2801,26
2802,26
2803,26
2804,26
2805,26
2806,26
2807,26
2808,26
2809,26
2810,26
2811,26
2812,26
2813,26
2814,26
2815,26
2816,26
2817,26
2818,26
2819,26
2820,26
2821,26
2822,26
2823,26
2824,26
2825,26
2826,26
2827,26
2828,27
2829,26
2830,26
2831,26
2832,26
2833,26
2834,26
2835,26
2836,26
2837,26
2838,26
2839,26
2840,26
2841,26
2842,26
2843,26
2844,26
2845,26
2846,26
2847,26
2848,26
2849,26
2850,26
2851,26
2852,26
2853,27
2854,26
2855,26
2856,26
2857,26
2858,26
2859,26
2860,26
2861,26
2862,26
2863,26
2864,26
2865,26
2866,26
2867,26
2868,26
2869,26
2870,26
2871,26
2872,26
2873,26
2874,26
2875,26
2876,26
2877,26
2878,26
2879,26
2880,26
2881,26
2882,26
2883,26
2884,26
2885,26
2886,26
2887,26
2888,26
2889,26
2890,26
2891,26
2892,26
2893,26
2894,26
2895,26
2896,26
2897,26
2898,26
2899,26
2900,26
2901,26
2902,27
2903,26
2904,26
2905,26
2906,26
2907,26
2908,26
2909,26
2910,26
2911,26
2912,26
2913,26
2914,26
2915,26
2916,26
2917,26
2918,26
2919,26
2920,26
2921,26
2922,26
2923,26
2924,26
2925,26
2926,26
2927,26
2928,26
2929,26
2930,26
2931,26
2932,27
2933,26
2934,26
2935,26
2936,26
2937,26
2938,26
2939,26
2940,26
2941,26
2942,26
2943,26
2944,26
2945,26
2946,26
2947,26
2948,26
2949,27
2950,26
2951,26
2952,26
2953,26
2954,26
2955,26
2956,26
2957,26
2958,26
2959,26
2960,26
2961,26
2962,26
2963,26
2964,26
2965,26
2966,26
2967,26
2968,26
2969,26
2970,26
2971,26
2972,26
2973,26
2974,26
2975,27
2976,27
2977,27
2978,27
2979,27
2980,27
2981,28
2982,27
2983,27
2984,28
2985,27
2986,27
2987,27
2988,27
2989,27
2990,27
2991,27
2992,27
2993,27
2994,27
2995,27
2996,27
2997,28
2998,27
2999,27
3000,27
3001,28
3002,27
3003,27
3004,27
3005,27
3006,27
3007,27
3008,27
3009,27
3010,27
3011,27
3012,28
3013,27
3014,27
3015,27
3016,27
3017,27
3018,27
3019,27
3020,27
3021,27
3022,27
3023,28
3024,28
3025,28
3026,28
3027,27
3028,26
3029,26
3030,26
3031,26
3032,27
3033,26
3034,27
3035,27
3036,27
3037,27
3038,27
3039,27
3040,27
3041,27
3042,27
3043,28
3044,27
3045,27
3046,27
3047,27
3048,27
3049,27
3050,27
3051,27
3052,27
3053,28
3054,28
3055,28
3056,28
3057,28
3058,28
3059,28
3060,28
3061,28
3062,28
3063,28
3064,28
3065,28
3066,28
3067,28
3068,29
3069,29
3070,28
3071,28
3072,28
3073,28
3074,28
3075,28
3076,28
3077,29
3078,28
3079,28
3080,28
3081,28
3082,28
3083,28
3084,28
3085,28
3086,28
3087,28
3088,28
3089,28
3090,28
3091,27
3092,27
3093,27
3094,27
3095,27
3096,27
3097,27
3098,27
3099,27
3100,27
3101,27
3102,27
3103,27
3104,27
3105,27
3106,27
3107,27
3108,27
3109,27
3110,27
3111,27
3112,27
3113,27
3114,27
3115,27
3116,27
3117,27
3118,28
3119,28
3120,28
3121,28
3122,27
3123,27
3124,27
3125,29
3126,29
3127,29
3128,30
3129,30
3130,28
3131,28
3132,27
3133,27
3134,27
3135,27
3136,27
3137,27
3138,27
3139,27
3140,27
3141,27
3142,27
3143,27
3144,27
3145,27
3146,27
3147,27
3148,27
3149,27
3150,27
3151,27
3152,27
3153,27
3154,27
3155,27
3156,27
3157,28
3158,28
3159,27
3160,27
3161,27
3162,27
3163,27
3164,27
3165,27
3166,27
3167,28
3168,28
3169,28
3170,28
3171,27
3172,27
3173,27
3174,27
3175,27
3176,27
3177,27
3178,27
3179,27
3180,27
3181,27
3182,27
3183,27
3184,27
3185,27
3186,27
3187,27
3188,27
3189,27
3190,27
3191,27
3192,28
3193,27
3194,27
3195,27
3196,27
3197,27
3198,27
3199,27
3200,27
3201,27
3202,27
3203,27
3204,27
3205,27
3206,27
3207,27
3208,27
3209,27
3210,27
3211,27
3212,27
3213,27
3214,27
3215,27
3216,27
3217,27
3218,27
3219,27
3220,27
3221,28
3222,28
3223,27
3224,27
3225,27
3226,27
3227,27
3228,27
3229,27
3230,27
3231,27
3232,27
3233,27
3234,27
3235,27
3236,28
3237,28
3238,28
3239,28
3240,28
3241,28
3242,29
3243,29
3244,29
3245,29
3246,29
3247,29
3248,29
3249,29
3250,29
3251,29
3252,29
3253,29
3254,29
3255,29
3256,29
3257,29
3258,30
3259,30
3260,30
3261,29
3262,29
3263,30
3264,29
3265,29
3266,29
3267,29
3268,29
3269,29
3270,29
3271,30
3272,29
3273,29
3274,29
3275,29
3276,29
3277,29
3278,30
3279,29
3280,29
3281,29
3282,29
3283,29
3284,29
3285,29
3286,29
3287,29
3288,29
3289,29
3290,29
3291,29
3292,29
3293,29
3294,29
3295,29
3296,29
3297,29
3298,29
3299,29
3300,29
3301,29
3302,28
3303,28
3304,28
3305,28
3306,28
3307,28
3308,28
3309,28
3310,28
3311,28
3312,28
3313,28
3314,28
3315,28
3316,29
3317,28
3318,28
3319,28
3320,28
3321,28
3322,28
3323,28
3324,28
3325,28
3326,28
3327,28
3328,28
3329,28
3330,28
3331,28
3332,28
3333,28
3334,28
3335,28
3336,28
3337,28
3338,28
3339,28
3340,28
3341,28
3342,28
3343,28
3344,28
3345,28
3346,28
3347,28
3348,28
3349,28
3350,28
3351,28
3352,28
3353,28
3354,28
3355,28
3356,28
3357,28
3358,29
3359,29
3360,29
3361,29
3362,28
3363,28
3364,28
3365,28
3366,28
3367,28
3368,28
3369,28
3370,28
3371,28
3372,28
3373,28
3374,28
3375,28
3376,28
3377,28
3378,28
3379,28
3380,28
3381,28
3382,28
3383,28
3384,28
3385,28
3386,28
3387,28
3388,28
3389,28
3390,28
3391,28
3392,28
3393,28
3394,28
3395,28
3396,28
3397,28
3398,28
3399,28
3400,28
3401,28
3402,28
3403,28
3404,28
3405,29
3406,28
3407,28
3408,28
3409,28
3410,28
3411,28
3412,28
3413,28
3414,28
3415,28
3416,29
3417,28
3418,28
3419,28
3420,28
3421,28
3422,28
3423,29
3424,29
3425,29
3426,30
3427,29
3428,29
3429,29
3430,29
3431,29
3432,29
3433,29
3434,29
3435,29
3436,29
3437,29
3438,29
3439,29
3440,29
3441,29
3442,29
3443,29
3444,29
3445,29
3446,29
3447,29
3448,29
3449,29
3450,29
3451,29
3452,29
3453,29
3454,29
3455,29
3456,29
3457,29
3458,29
3459,30
3460,29
3461,29
3462,29
3463,29
3464,29
3465,29
3466,29
3467,30
3468,29
3469,29
3470,29
3471,29
3472,29
3473,29
3474,29
3475,29
3476,29
3477,29
3478,29
3479,29
3480,29
3481,29
3482,29
3483,29
3484,30
3485,30
3486,29
3487,29
3488,29
3489,29
3490,29
3491,29
3492,29
3493,29
3494,29
3495,29
3496,29
3497,29
3498,29
3499,29
3500,29
3501,29
3502,30
3503,30
3504,30
3505,30
3506,30
3507,30
3508,29
3509,29
3510,29
3511,30
3512,30
3513,30
3514,30
3515,30
3516,30
3517,30
3518,30
3519,30
3520,30
3521,30
3522,30
3523,30
3524,29
3525,29
3526,29
3527,29
3528,29
3529,29
3530,29
3531,29
3532,29
3533,29
3534,29
3535,29
3536,29
3537,29
3538,29
3539,29
3540,29
3541,29
3542,29
3543,30
3544,30
3545,30
3546,30
3547,30
3548,30
3549,30
3550,30
3551,30
3552,31
3553,31
3554,31
3555,30
3556,30
3557,30
3558,30
3559,30
3560,30
3561,30
3562,30
3563,30
3564,30
3565,30
3566,30
3567,30
3568,30
3569,30
3570,30
3571,30
3572,30
3573,30
3574,30
3575,30
3576,30
3577,30
3578,30
3579,30
3580,30
3581,30
3582,30
3583,30
3584,30
3585,30
3586,30
3587,30
3588,30
3589,30
3590,30
3591,30
3592,30
3593,31
3594,31
3595,30
3596,30
3597,30
3598,30
3599,30
3600,30
3601,30
3602,30
3603,30
3604,30
3605,30
3606,30
3607,30
3608,30
3609,30
3610,31
3611,30
3612,30
3613,30
3614,30
3615,31
3616,30
3617,30
3618,30
3619,30
3620,30
3621,30
3622,30
3623,30
3624,30
3625,31
3626,30
3627,30
3628,30
3629,30
3630,30
3631,30
3632,30
3633,30
3634,30
3635,30
3636,31
3637,30
3638,30
3639,30
3640,30
3641,30
3642,30
3643,30
3644,30
3645,30
3646,30
3647,30
3648,30
3649,30
3650,30
3651,30
3652,30
3653,30
3654,30
3655,30
3656,31
3657,30
3658,30
3659,30
3660,30
3661,30
3662,30
3663,30
3664,30
3665,30
3666,30
3667,30
3668,30
3669,30
3670,30
3671,30
3672,30
3673,30
3674,30
3675,30
3676,30
3677,30
3678,30
3679,30
3680,30
3681,31
3682,30
3683,30
3684,30
3685,30
3686,30
3687,30
3688,30
3689,30
3690,30
3691,30
3692,30
3693,30
3694,30
3695,30
3696,30
3697,30
3698,30
3699,30
3700,30
3701,30
3702,30
3703,30
3704,32
3705,32
3706,32
3707,31
3708,31
3709,31
3710,31
3711,32
3712,32
3713,32
3714,31
3715,31
3716,31
3717,30
3718,30
3719,30
3720,30
3721,30
3722,30
3723,30
3724,30
3725,30
3726,30
3727,30
3728,30
3729,30
3730,30
3731,30
3732,30
3733,30
3734,31
3735,30
3736,30
3737,30
3738,30
3739,30
3740,30
3741,30
3742,30
3743,30
3744,30
3745,32
3746,32
3747,31
3748,31
3749,31
3750,31
3751,31
3752,31
3753,31
3754,32
3755,32
3756,30
3757,30
3758,30
3759,30
3760,30
3761,30
3762,30
3763,30
3764,30
3765,31
3766,31
3767,31
3768,31
3769,31
3770,31
3771,31
3772,32
3773,32
3774,32
3775,32
3776,32
3777,32
3778,32
3779,32
3780,32
3781,31
3782,31
3783,31
3784,31
3785,31
3786,31
3787,31
3788,31
3789,31
3790,32
3791,31
3792,31
3793,31
3794,31
3795,31
3796,32
3797,32
3798,31
3799,31
3800,31
3801,32
3802,32
3803,33
3804,33
3805,32
3806,31
3807,31
3808,31
3809,31
3810,31
3811,31
3812,31
3813,31
3814,31
3815,31
3816,31
3817,32
3818,31
3819,31
3820,31
3821,31
3822,31
3823,32
3824,32
3825,32
3826,31
3827,31
3828,31
3829,31
3830,31
3831,32
3832,32
3833,32
3834,31
3835,32
3836,32
3837,31
3838,31
3839,31
3840,31
3841,31
3842,31
3843,31
3844,31
3845,31
3846,31
3847,31
3848,32
3849,32
3850,31
3851,31
3852,31
3853,31
3854,31
3855,31
3856,31
3857,31
3858,31
3859,31
3860,31
3861,31
3862,31
3863,31
3864,31
3865,31
3866,32
3867,31
3868,31
3869,31
3870,31
3871,31
3872,31
3873,31
3874,31
3875,31
3876,31
3877,31
3878,31
3879,31
3880,31
3881,31
3882,31
3883,31
3884,32
3885,31
3886,31
3887,31
3888,31
3889,31
3890,31
3891,31
3892,31
3893,31
3894,31
3895,31
3896,31
3897,31
3898,31
3899,31
3900,31
3901,31
3902,32
3903,32
3904,32
3905,31
3906,31
3907,31
3908,31
3909,31
3910,32
3911,31
3912,31
3913,31
3914,31
3915,31
3916,31
3917,31
3918,31
3919,31
3920,31
3921,31
3922,31
3923,31
3924,31
3925,31
3926,31
3927,31
3928,31
3929,31
3930,31
3931,31
3932,31
3933,31
3934,31
3935,31
3936,31
3937,31
3938,31
3939,31
3940,31
3941,31
3942,32
3943,31
3944,31
3945,31
3946,31
3947,31
3948,31
3949,31
3950,31
3951,31
3952,31
3953,31
3954,32
3955,32
3956,32
3957,33
3958,33
3959,32
3960,32
3961,33
3962,33
3963,33
3964,32
3965,32
3966,32
3967,32
3968,32
3969,32
3970,32
3971,32
3972,32
3973,32
3974,32
3975,32
3976,32
3977,32
3978,32
3979,32
3980,33
3981,33
3982,32
3983,32
3984,32
3985,32
3986,33
3987,32
3988,32
3989,32
3990,32
3991,32
3992,32
3993,32
3994,32
3995,32
3996,32
3997,32
3998,32
3999,32
4000,32
4001,32
4002,32
4003,32
4004,32
4005,32
4006,32
4007,32
4008,32
4009,32
4010,32
4011,32
4012,32
4013,32
4014,32
4015,33
4016,33
4017,33
4018,33
4019,33
4020,33
4021,33
4022,33
4023,33
4024,33
4025,33
4026,32
4027,32
4028,32
4029,32
4030,31
4031,31
4032,31
4033,31
4034,31
4035,31
4036,31
4037,32
4038,31
4039,31
4040,31
4041,31
4042,31
4043,33
4044,33
4045,33
4046,33
4047,32
4048,32
4049,31
4050,31
4051,31
4052,31
4053,32
4054,31
4055,31
4056,31
4057,31
4058,31
4059,31
4060,31
4061,31
4062,31
4063,31
4064,31
4065,31
4066,31
4067,31
4068,31
4069,31
4070,31
4071,31
4072,31
4073,31
4074,31
4075,32
4076,33
4077,31
4078,31
4079,31
4080,31
4081,31
4082,31
4083,31
4084,31
4085,31
4086,31
4087,31
4088,31
4089,31
4090,31
4091,31
4092,31
4093,31
4094,31
4095,31
4096,31
4097,32
4098,31
4099,31
4100,31
4101,31
4102,31
4103,31
4104,31
4105,31
4106,32
4107,32
4108,32
4109,33
4110,31
4111,31
4112,31
4113,31
4114,31
4115,31
4116,31
4117,31
4118,31
4119,32
4120,32
4121,31
4122,31
4123,31
4124,31
4125,31
4126,31
4127,31
4128,31
4129,31
4130,31
4131,31
4132,31
4133,31
4134,31
4135,31
4136,31
4137,31
4138,31
4139,31
4140,31
4141,31
4142,31
4143,31
4144,31
4145,31
4146,31
4147,31
4148,32
4149,32
4150,32
4151,32
4152,31
4153,32
4154,32
4155,31
4156,31
4157,31
4158,31
4159,31
4160,31
4161,31
4162,31
4163,31
4164,31
4165,32
4166,31
4167,31
4168,31
4169,31
4170,31
4171,31
4172,31
4173,31
4174,31
4175,31
4176,31
4177,31
4178,31
4179,31
4180,31
4181,31
4182,31
4183,31
4184,31
4185,31
4186,31
4187,32
4188,32
4189,32
4190,31
4191,31
4192,31
4193,31
4194,31
4195,31
4196,31
4197,31
4198,31
4199,31
4200,31
4201,31
4202,31
4203,31
4204,31
4205,31
4206,31
4207,31
4208,31
4209,31
4210,31
4211,31
4212,31
4213,31
4214,31
4215,31
4216,31
4217,31
4218,31
4219,31
4220,31
4221,32
4222,31
4223,31
4224,31
4225,31
4226,31
4227,31
4228,31
4229,31
4230,31
4231,31
4232,31
4233,31
4234,31
4235,31
4236,31
4237,31
4238,31
4239,31
4240,31
4241,31
4242,31
4243,32
4244,31
4245,31
4246,32
4247,31
4248,31
4249,31
4250,31
4251,31
4252,31
4253,31
4254,31
4255,32
4256,31
4257,32
4258,32
4259,31
4260,31
4261,31
4262,31
4263,31
4264,31
4265,32
4266,32
4267,31
4268,31
4269,31
4270,31
4271,31
4272,31
4273,31
4274,31
4275,31
4276,31
4277,31
4278,31
4279,31
4280,31
4281,31
4282,31
4283,31
4284,31
4285,32
4286,32
4287,31
4288,31
4289,31
4290,31
4291,31
4292,31
4293,31
4294,31
4295,31
4296,31
4297,32
4298,32
4299,32
4300,31
4301,31
4302,31
4303,31
4304,31
4305,31
4306,31
4307,31
4308,31
4309,31
4310,32
4311,31
4312,31
4313,31
4314,31
4315,31
4316,31
4317,31
4318,31
4319,31
4320,31
4321,32
4322,31
4323,31
4324,31
4325,31
4326,31
4327,31
4328,31
4329,31
4330,31
4331,31
4332,31
4333,31
4334,31
4335,31
4336,32
4337,31
4338,31
4339,31
4340,31
4341,31
4342,31
4343,31
4344,31
4345,31
4346,31
4347,31
4348,32
4349,32
4350,32
4351,32
4352,31
4353,32
4354,31
4355,31
4356,31
4357,31
4358,31
4359,31
4360,31
4361,31
4362,31
4363,31
4364,31
4365,31
4366,32
4367,32
4368,32
4369,32
4370,32
4371,32
4372,32
4373,32
4374,33
4375,33
4376,33
4377,32
4378,32
4379,32
4380,33
4381,32
4382,32
4383,32
4384,32
4385,32
4386,32
4387,32
4388,32
4389,32
4390,32
4391,32
4392,32
4393,32
4394,32
4395,31
4396,31
4397,32
4398,32
4399,31
4400,31
4401,31
4402,31
4403,32
4404,31
4405,31
4406,31
4407,31
4408,31
4409,31
4410,31
4411,31
4412,31
4413,31
4414,31
4415,31
4416,31
4417,31
4418,31
4419,31
4420,31
4421,31
4422,32
4423,32
4424,31
4425,31
4426,32
4427,32
4428,31
4429,31
4430,31
4431,31
4432,31
4433,31
4434,31
4435,31
4436,32
4437,32
4438,32
4439,32
4440,33
4441,33
4442,33
4443,33
4444,32
4445,33
4446,32
4447,32
4448,32
4449,32
4450,32
4451,32
4452,32
4453,32
4454,32
4455,32
4456,32
4457,32
4458,32
4459,32
4460,31
4461,31
4462,31
4463,31
4464,31
4465,31
4466,31
4467,31
4468,31
4469,31
4470,32
4471,31
4472,31
4473,31
4474,31
4475,31
4476,31
4477,31
4478,31
4479,31
4480,31
4481,31
4482,31
4483,31
4484,31
4485,31
4486,31
4487,31
4488,32
4489,32
4490,32
4491,31
4492,31
4493,31
4494,31
4495,31
4496,31
4497,31
4498,32
4499,32
4500,31
4501,31
4502,31
4503,31
4504,31
4505,31
4506,31
4507,31
4508,31
4509,31
4510,31
4511,31
4512,31
4513,31
4514,31
4515,31
4516,31
4517,31
4518,31
4519,31
4520,31
4521,31
4522,31
4523,31
4524,31
4525,31
4526,31
4527,31
4528,31
4529,31
4530,31
4531,31
4532,31
4533,31
4534,31
4535,31
4536,32
4537,32
4538,32
4539,31
4540,31
4541,31
4542,31
4543,31
4544,31
4545,31
4546,31
4547,31
4548,31
4549,31
4550,31
4551,32
4552,32
4553,32
4554,31
4555,31
4556,32
4557,31
4558,31
4559,31
4560,31
4561,31
4562,31
4563,31
4564,31
4565,31
4566,31
4567,32
4568,32
4569,32
4570,32
4571,32
4572,31
4573,31
4574,31
4575,31
4576,31
4577,32
4578,32
4579,31
4580,31
4581,31
4582,31
4583,31
4584,31
4585,31
4586,31
4587,31
4588,31
4589,31
4590,31
4591,31
4592,31
4593,31
4594,31
4595,31
4596,31
4597,31
4598,31
4599,31
4600,31
4601,31
4602,31
4603,31
4604,31
4605,31
4606,31
4607,31
4608,31
4609,31
4610,31
4611,31
4612,31
4613,31
4614,31
4615,31
4616,32
4617,32
4618,32
4619,32
4620,32
4621,32
4622,32
4623,32
4624,31
4625,31
4626,31
4627,31
4628,31
4629,31
4630,31
4631,31
4632,31
4633,32
4634,32
4635,32
4636,32
4637,31
4638,31
4639,31
4640,31
4641,31
4642,31
4643,31
4644,31
4645,31
4646,31
4647,31
4648,31
4649,31
4650,31
4651,31
4652,31
4653,31
4654,31
4655,31
4656,31
4657,31
4658,31
4659,31
4660,32
4661,31
4662,31
4663,31
4664,31
4665,31
4666,31
4667,31
4668,31
4669,31
4670,31
4671,31
4672,31
4673,31
4674,31
4675,31
4676,31
4677,32
4678,33
4679,33
4680,33
4681,32
4682,32
4683,31
4684,31
4685,31
4686,31
4687,32
4688,32
4689,33
4690,32
4691,32
4692,32
4693,32
4694,32
4695,32
4696,32
4697,32
4698,32
4699,32
4700,32
4701,32
4702,32
4703,32
4704,32
4705,32
4706,32
4707,32
4708,32
4709,33
4710,32
4711,32
4712,32
4713,32
4714,32
4715,32
4716,32
4717,33
4718,32
4719,32
4720,32
4721,32
4722,32
4723,32
4724,32
4725,32
4726,32
4727,32
4728,32
4729,32
4730,32
4731,32
4732,32
4733,32
4734,32
4735,32
4736,32
4737,32
4738,32
4739,33
4740,32
4741,32
4742,33
4743,33
4744,32
4745,32
4746,32
4747,32
4748,32
4749,32
4750,32
4751,32
4752,32
4753,32
4754,32
4755,32
4756,32
4757,32
4758,32
4759,32
4760,32
4761,32
4762,32
4763,32
4764,32
4765,32
4766,32
4767,32
4768,32
4769,33
4770,34
4771,34
4772,33
4773,32
4774,32
4775,32
4776,32
4777,32
4778,32
4779,32
4780,32
4781,32
4782,32
4783,32
4784,32
4785,32
4786,32
4787,32
4788,32
4789,32
4790,32
4791,32
4792,32
4793,33
4794,32
4795,32
4796,32
4797,32
4798,32
4799,34
4800,32
4801,32
4802,32
4803,32
4804,32
4805,32
4806,32
4807,32
4808,32
4809,32
4810,32
4811,32
4812,32
4813,32
4814,32
4815,32
4816,32
4817,32
4818,33
4819,33
4820,32
4821,32
4822,32
4823,32
4824,32
4825,32
4826,32
4827,32
4828,32
4829,32
4830,32
4831,32
4832,32
4833,32
4834,32
4835,32
4836,32
4837,32
4838,32
4839,32
4840,33
4841,32
4842,32
4843,32
4844,32
4845,32
4846,32
4847,32
4848,32
4849,32
4850,32
4851,32
4852,32
4853,32
4854,32
4855,32
4856,32
4857,33
4858,32
4859,32
4860,32
4861,32
4862,32
4863,33
4864,32
4865,32
4866,32
4867,32
4868,32
4869,32
4870,32
4871,32
4872,32
4873,32
4874,32
4875,32
4876,33
4877,33
4878,33
4879,32
4880,32
4881,32
4882,32
4883,32
4884,32
4885,32
4886,32
4887,32
4888,32
4889,32
4890,32
4891,33
4892,33
4893,32
4894,32
4895,32
4896,32
4897,33
4898,33
4899,33
4900,33
4901,33
4902,33
4903,33
4904,33
4905,33
4906,33
4907,33
4908,33
4909,33
4910,33
4911,32
4912,32
4913,32
4914,32
4915,32
4916,32
4917,32
4918,32
4919,32
4920,32
4921,32
4922,32
4923,32
4924,32
4925,32
4926,32
4927,32
4928,32
4929,32
4930,32
4931,32
4932,33
4933,32
4934,32
4935,32
4936,32
4937,32
4938,32
4939,32
4940,32
4941,32
4942,32
4943,32
4944,32
4945,32
4946,32
4947,32
4948,33
4949,32
4950,32
4951,32
4952,32
4953,32
4954,32
4955,32
4956,32
4957,32
4958,32
4959,33
4960,32
4961,32
4962,32
4963,32
4964,32
4965,32
4966,32
4967,32
4968,32
4969,32
4970,33
4971,33
4972,33
4973,33
4974,33
4975,33
4976,33
4977,33
4978,33
4979,33
4980,33
4981,32
4982,32
4983,32
4984,32
4985,32
4986,32
4987,32
4988,32
4989,33
4990,33
4991,33
4992,33
4993,32
4994,32
4995,32
4996,32
4997,32
4998,33
4999,33
5000,33
5001,33
5002,33
5003,33
5004,33
5005,33
5006,33
5007,33
5008,33
5009,33
5010,33
5011,33
5012,33
5013,33
5014,33
5015,33
5016,33
5017,34
5018,34
5019,33
5020,33
5021,33
5022,33
5023,33
5024,33
5025,33
5026,33
5027,33
5028,33
5029,33
5030,33
5031,33
5032,33
5033,33
5034,33
5035,33
5036,33
5037,33
5038,33
5039,33
5040,33
5041,33
5042,33
5043,33
5044,33
5045,33
5046,33
5047,32
5048,32
5049,32
5050,32
5051,32
5052,32
5053,33
5054,33
5055,32
5056,32
5057,32
5058,32
5059,32
5060,32
5061,32
5062,32
5063,32
5064,32
5065,32
5066,33
5067,33
5068,33
5069,33
5070,33
5071,33
5072,33
5073,33
5074,33
5075,33
5076,33
5077,33
5078,33
5079,33
5080,33
5081,33
5082,33
5083,34
5084,33
5085,33
5086,33
5087,33
5088,33
5089,33
5090,33
5091,33
5092,33
5093,33
5094,33
5095,33
5096,33
5097,33
5098,33
5099,34
5100,33
5101,33
5102,34
5103,34
5104,33
5105,33
5106,33
5107,35
5108,34
5109,34
5110,34
5111,34
5112,34
5113,34
5114,34
5115,34
5116,33
5117,33
5118,34
5119,34
5120,34
5121,34
5122,34
5123,33
5124,33
5125,33
5126,33
5127,33
5128,34
5129,34
5130,34
5131,35
5132,34
5133,33
5134,33
5135,33
5136,33
5137,33
5138,33
5139,33
5140,33
5141,33
5142,33
5143,33
5144,33
5145,33
5146,33
5147,33
5148,34
5149,33
5150,33
5151,33
5152,33
5153,33
5154,33
5155,33
5156,33
5157,33
5158,33
5159,33
5160,33
5161,33
5162,33
5163,33
5164,33
5165,33
5166,33
5167,33
5168,33
5169,33
5170,33
5171,34
5172,34
5173,34
5174,34
5175,34
5176,33
5177,33
5178,33
5179,33
5180,33
5181,33
5182,33
5183,33
5184,33
5185,33
5186,33
5187,33
5188,33
5189,33
5190,34
5191,34
5192,34
5193,35
5194,34
5195,34
5196,34
5197,33
5198,33
5199,33
5200,33
5201,33
5202,33
5203,33
5204,33
5205,33
5206,33
5207,33
5208,33
5209,33
5210,33
5211,33
5212,33
5213,33
5214,33
5215,33
5216,33
5217,33
5218,33
5219,33
5220,33
5221,33
5222,33
5223,33
5224,34
5225,34
5226,34
5227,34
5228,34
5229,34
5230,34
5231,34
5232,34
5233,33
5234,33
5235,33
5236,33
5237,33
5238,34
5239,34
5240,34
5241,34
5242,33
5243,33
5244,33
5245,33
5246,33
5247,34
5248,33
5249,33
5250,33
5251,33
5252,33
5253,33
5254,33
5255,33
5256,33
5257,33
5258,34
5259,33
5260,33
5261,33
5262,33
5263,33
5264,33
5265,33
5266,33
5267,33
5268,33
5269,33
5270,33
5271,34
5272,34
5273,34
5274,33
5275,33
5276,33
5277,33
5278,33
5279,33
5280,33
5281,33
5282,33
5283,33
5284,33
5285,33
5286,33
5287,34
5288,34
5289,34
5290,34
5291,34
5292,34
5293,34
5294,34
5295,34
5296,34
5297,33
5298,33
5299,33
5300,33
5301,33
5302,33
5303,33
5304,33
5305,33
5306,33
5307,33
5308,33
5309,33
5310,33
5311,34
5312,33
5313,33
5314,33
5315,33
5316,33
5317,33
5318,34
5319,34
5320,35
5321,33
5322,33
5323,33
5324,33
5325,33
5326,33
5327,33
5328,33
5329,33
5330,34
5331,34
5332,34
5333,34
5334,33
5335,33
5336,33
5337,33
5338,33
5339,33
5340,33
5341,33
5342,34
5343,34
5344,34
5345,34
5346,35
5347,33
5348,33
5349,33
5350,33
5351,33
5352,33
5353,33
5354,33
5355,33
5356,33
5357,33
5358,33
5359,33
5360,33
5361,33
5362,33
5363,33
5364,33
5365,33
5366,33
5367,33
5368,33
5369,33
5370,33
5371,33
5372,33
5373,33
5374,33
5375,33
5376,33
5377,33
5378,33
5379,33
5380,33
5381,33
5382,33
5383,33
5384,33
5385,33
5386,33
5387,33
5388,33
5389,33
5390,34
5391,33
5392,33
5393,33
5394,33
5395,34
5396,34
5397,34
5398,34
5399,33
5400,33
5401,33
5402,34
5403,33
5404,33
5405,33
5406,33
5407,33
5408,33
5409,33
5410,33
5411,34
5412,33
5413,33
5414,34
5415,33
5416,33
5417,33
5418,33
5419,33
5420,33
5421,33
5422,33
5423,33
5424,33
5425,33
5426,33
5427,33
5428,33
5429,33
5430,33
5431,33
5432,33
5433,33
5434,33
5435,33
5436,33
5437,33
5438,33
5439,33
5440,33
5441,33
5442,33
5443,33
5444,33
5445,33
5446,33
5447,33
5448,33
5449,33
5450,33
5451,33
5452,33
5453,33
5454,33
5455,33
5456,33
5457,33
5458,33
5459,33
5460,33
5461,33
5462,33
5463,33
5464,33
5465,33
5466,33
5467,33
5468,34
5469,34
5470,33
5471,33
5472,33
5473,33
5474,33
5475,33
5476,33
5477,33
5478,33
5479,33
5480,33
5481,33
5482,33
5483,33
5484,33
5485,33
5486,33
5487,33
5488,33
5489,33
5490,33
5491,33
5492,33
5493,33
5494,33
5495,33
5496,33
5497,33
5498,33
5499,33
5500,33
5501,33
5502,33
5503,33
5504,33
5505,33
5506,33
5507,33
5508,33
5509,33
5510,33
5511,34
5512,34
5513,34
5514,34
5515,34
5516,34
5517,33
5518,33
5519,33
5520,33
5521,33
5522,33
5523,33
5524,33
5525,33
5526,33
5527,33
5528,33
5529,33
5530,33
5531,34
5532,34
5533,34
5534,34
5535,34
5536,34
5537,34
5538,34
5539,34
5540,34
5541,34
5542,34
5543,34
5544,34
5545,34
5546,34
5547,34
5548,34
5549,34
5550,34
5551,34
5552,34
5553,34
5554,34
5555,34
5556,34
5557,34
5558,34
5559,34
5560,34
5561,34
5562,34
5563,34
5564,34
5565,34
5566,34
5567,34
5568,34
5569,34
5570,34
5571,33
5572,33
5573,33
5574,33
5575,34
5576,34
5577,34
5578,34
5579,33
5580,33
5581,33
5582,33
5583,33
5584,34
5585,34
5586,33
5587,33
5588,33
5589,33
5590,33
5591,33
5592,33
5593,34
5594,34
5595,34
5596,34
5597,34
5598,34
5599,34
5600,34
5601,34
5602,34
5603,34
5604,34
5605,34
5606,34
5607,34
5608,34
5609,34
5610,34
5611,34
5612,34
5613,34
5614,36
5615,34
5616,34
5617,34
5618,34
5619,34
5620,34
5621,34
5622,34
5623,34
5624,34
5625,34
5626,34
5627,34
5628,34
5629,34
5630,34
5631,34
5632,35
5633,35
5634,35
5635,35
5636,35
5637,35
5638,35
5639,35
5640,35
5641,35
5642,35
5643,35
5644,35
5645,35
5646,35
5647,35
5648,35
5649,35
5650,35
5651,35
5652,35
5653,35
5654,35
5655,35
5656,37
5657,37
5658,37
5659,37
5660,36
5661,36
5662,36
5663,36
5664,36
5665,36
5666,36
5667,37
5668,37
5669,35
5670,35
5671,34
5672,34
5673,34
5674,34
5675,34
5676,34
5677,35
5678,35
5679,35
5680,35
5681,34
5682,34
5683,34
5684,35
5685,34
5686,35
5687,34
5688,34
5689,34
5690,34
5691,35
5692,34
5693,34
5694,34
5695,34
5696,34
5697,34
5698,34
5699,34
5700,34
5701,34
5702,34
5703,34
5704,34
5705,35
5706,34
5707,34
5708,34
5709,34
5710,34
5711,34
5712,34
5713,34
5714,35
5715,35
5716,34
5717,34
5718,34
5719,34
5720,34
5721,34
5722,34
5723,34
5724,34
5725,34
5726,35
5727,35
5728,34
5729,34
5730,34
5731,34
5732,34
5733,34
5734,34
5735,34
5736,35
5737,34
5738,34
5739,34
5740,34
5741,34
5742,34
5743,34
5744,34
5745,34
5746,34
5747,34
5748,34
5749,34
5750,34
5751,34
5752,34
5753,34
5754,34
5755,34
5756,34
5757,34
5758,34
5759,34
5760,34
5761,34
5762,34
5763,34
5764,34
5765,34
5766,34
5767,34
5768,34
5769,34
5770,34
5771,34
5772,34
5773,34
5774,34
5775,34
5776,34
5777,34
5778,34
5779,34
5780,34
5781,34
5782,34
5783,34
5784,34
5785,35
5786,35
5787,34
5788,34
5789,34
5790,34
5791,34
5792,34
5793,34
5794,34
5795,34
5796,35
5797,34
5798,34
5799,34
5800,33
5801,33
5802,33
5803,33
5804,33
5805,33
5806,33
5807,33
5808,33
5809,33
5810,33
5811,33
5812,33
5813,33
5814,33
5815,33
5816,33
5817,33
5818,34
5819,33
5820,33
5821,33
5822,33
5823,33
5824,33
5825,34
5826,34
5827,33
5828,33
5829,33
5830,33
5831,33
5832,33
5833,34
5834,34
5835,33
5836,33
5837,34
5838,33
5839,33
5840,33
5841,33
5842,33
5843,33
5844,33
5845,33
5846,33
5847,33
5848,33
5849,33
5850,33
5851,33
5852,33
5853,33
5854,33
5855,33
5856,33
5857,33
5858,33
5859,33
5860,33
5861,33
5862,33
5863,33
5864,34
5865,33
5866,33
5867,33
5868,34
5869,35
5870,34
5871,34
5872,34
5873,34
5874,34
5875,34
5876,34
5877,34
5878,34
5879,34
5880,34
5881,34
5882,34
5883,34
5884,34
5885,34
5886,34
5887,34
5888,34
5889,34
5890,34
5891,34
5892,34
5893,34
5894,34
5895,34
5896,34
5897,35
5898,34
5899,33
5900,34
5901,34
5902,33
5903,33
5904,33
5905,33
5906,33
5907,34
5908,34
5909,33
5910,33
5911,33
5912,33
5913,33
5914,33
5915,33
5916,33
5917,34
5918,34
5919,34
5920,34
5921,35
5922,35
5923,35
5924,35
5925,34
5926,34
5927,34
5928,34
5929,34
5930,34
5931,34
5932,34
5933,34
5934,34
5935,34
5936,34
5937,34
5938,34
5939,34
5940,33
5941,33
5942,33
5943,33
5944,33
5945,33
5946,33
5947,33
5948,33
5949,33
5950,33
5951,33
5952,33
5953,33
5954,33
5955,33
5956,33
5957,33
5958,33
5959,33
5960,33
5961,33
5962,33
5963,33
5964,33
5965,34
5966,33
5967,33
5968,33
5969,33
5970,34
5971,34
5972,34
5973,34
5974,34
5975,34
5976,34
5977,34
5978,33
5979,33
5980,33
5981,33
5982,33
5983,33
5984,33
5985,33
5986,33
5987,33
5988,33
5989,33
5990,33
5991,33
5992,34
5993,33
5994,33
5995,33
5996,33
5997,33
5998,33
5999,33
6000,33
6001,33
6002,33
6003,33
6004,34
6005,34
6006,34
6007,33
6008,33
6009,33
6010,33
6011,33
6012,33
6013,33
6014,33
6015,33
6016,33
6017,33
6018,33
6019,33
6020,33
6021,33
6022,33
6023,33
6024,33
6025,34
6026,33
6027,33
6028,33
6029,33
6030,33
6031,33
6032,33
6033,33
6034,33
6035,33
6036,33
6037,33
6038,33
6039,33
6040,33
6041,33
6042,33
6043,33
6044,33
6045,33
6046,33
6047,33
6048,34
6049,33
6050,33
6051,33
6052,33
6053,33
6054,33
6055,33
6056,33
6057,33
6058,33
6059,33
6060,33
6061,33
6062,33
6063,33
6064,33
6065,33
6066,33
6067,33
6068,34
6069,33
6070,33
6071,33
6072,33
6073,33
6074,33
6075,33
6076,33
6077,33
6078,33
6079,33
6080,33
6081,33
6082,33
6083,33
6084,33
6085,33
6086,33
6087,33
6088,33
6089,33
6090,33
6091,33
6092,33
6093,33
6094,33
6095,33
6096,33
6097,33
6098,33
6099,33
6100,33
6101,33
6102,34
6103,34
6104,34
6105,34
6106,35
6107,35
6108,34
6109,34
6110,34
6111,34
6112,34
6113,34
6114,34
6115,34
6116,34
6117,34
6118,34
6119,34
6120,34
6121,34
6122,34
6123,34
6124,34
6125,34
6126,34
6127,34
6128,34
6129,34
6130,34
6131,34
6132,34
6133,34
6134,34
6135,34
6136,34
6137,34
6138,34
6139,34
6140,34
6141,34
6142,34
6143,34
6144,34
6145,35
6146,35
6147,35
6148,34
6149,34
6150,34
6151,34
6152,34
6153,34
6154,35
6155,34
6156,34
6157,34
6158,34
6159,34
6160,34
6161,34
6162,34
6163,34
6164,34
6165,34
6166,34
6167,34
6168,34
6169,34
6170,34
6171,35
6172,34
6173,34
6174,34
6175,34
6176,34
6177,34
6178,34
6179,34
6180,34
6181,34
6182,34
6183,34
6184,35
6185,36
6186,36
6187,36
6188,36
6189,37
6190,36
6191,36
6192,36
6193,36
6194,36
6195,35
6196,35
6197,36
6198,36
6199,35
6200,35
6201,35
6202,35
6203,36
6204,36
6205,36
6206,36
6207,36
6208,36
6209,36
6210,36
6211,36
6212,36
6213,36
6214,36
6215,36
6216,36
6217,36
6218,36
6219,36
6220,36
6221,36
6222,36
6223,35
6224,35
6225,35
6226,35
6227,36
6228,36
6229,36
6230,35
6231,35
6232,35
6233,35
6234,36
6235,37
6236,36
6237,36
6238,36
6239,36
6240,36
6241,36
6242,37
6243,37
6244,36
6245,36
6246,36
6247,36
6248,36
6249,36
6250,36
6251,36
6252,36
6253,36
6254,36
6255,37
6256,37
6257,37
6258,37
6259,37
6260,37
6261,36
6262,36
6263,36
6264,36
6265,36
6266,36
6267,36
6268,35
6269,35
6270,35
6271,35
6272,35
6273,35
6274,35
6275,35
6276,35
6277,35
6278,36
6279,36
6280,37
6281,36
6282,36
6283,36
6284,36
6285,35
6286,36
6287,35
6288,38
6289,36
6290,35
6291,35
6292,35
6293,35
6294,35
6295,35
6296,35
6297,35
6298,35
6299,35
6300,35
6301,35
6302,35
6303,35
6304,35
6305,35
6306,35
6307,35
6308,35
6309,35
6310,35
6311,35
6312,35
6313,36
6314,36
6315,36
6316,36
6317,36
6318,36
6319,36
6320,36
6321,36
6322,36
6323,36
6324,36
6325,36
6326,37
6327,36
6328,36
6329,36
6330,36
6331,36
6332,36
6333,36
6334,37
6335,37
6336,37
6337,37
6338,37
6339,36
6340,36
6341,36
6342,36
6343,37
6344,37
6345,37
6346,38
6347,36
6348,36
6349,36
6350,36
6351,36
6352,36
6353,36
6354,36
6355,35
6356,35
6357,35
6358,35
6359,35
6360,35
6361,35
6362,35
6363,35
6364,35
6365,35
6366,36
6367,36
6368,36
6369,35
6370,35
6371,35
6372,35
6373,35
6374,35
6375,36
6376,35
6377,35
6378,35
6379,35
6380,35
6381,35
6382,35
6383,35
6384,35
6385,35
6386,35
6387,35
6388,35
6389,35
6390,35
6391,35
6392,35
6393,35
6394,35
6395,35
6396,35
6397,35
6398,35
6399,35
6400,35
6401,34
6402,34
6403,35
6404,35
6405,35
6406,35
6407,35
6408,35
6409,35
6410,34
6411,34
6412,34
6413,34
6414,34
6415,34
6416,34
6417,34
6418,34
6419,34
6420,35
6421,34
6422,34
6423,34
6424,34
6425,34
6426,34
6427,34
6428,34
6429,34
6430,34
6431,34
6432,34
6433,34
6434,34
6435,34
6436,35
6437,35
6438,34
6439,34
6440,34
6441,34
6442,34
6443,34
6444,34
6445,34
6446,34
6447,34
6448,34
6449,34
6450,34
6451,34
6452,34
6453,34
6454,34
6455,34
6456,34
6457,34
6458,34
6459,34
6460,34
6461,34
6462,34
6463,34
6464,34
6465,34
6466,34
6467,34
6468,34
6469,34
6470,34
6471,35
6472,34
6473,35
6474,35
6475,35
6476,35
6477,35
6478,35
6479,35
6480,35
6481,35
6482,35
6483,34
6484,34
6485,34
6486,35
6487,35
6488,34
6489,34
6490,34
6491,34
6492,34
6493,34
6494,34
6495,34
6496,34
6497,34
6498,34
6499,35
6500,35
6501,34
6502,34
6503,34
6504,34
6505,34
6506,34
6507,34
6508,34
6509,34
6510,34
6511,34
6512,34
6513,34
6514,34
6515,34
6516,34
6517,34
6518,34
6519,34
6520,34
6521,34
6522,34
6523,34
6524,34
6525,34
6526,34
6527,34
6528,34
6529,35
6530,35
6531,35
6532,37
6533,37
6534,37
6535,35
6536,35
6537,36
6538,35
6539,35
6540,35
6541,35
6542,35
6543,36
6544,35
6545,35
6546,35
6547,35
6548,35
6549,36
6550,36
6551,36
6552,36
6553,36
6554,36
6555,36
6556,36
6557,36
6558,36
6559,36
6560,37
6561,37
6562,38
6563,38
6564,38
6565,38
6566,37
6567,37
6568,37
6569,37
6570,37
6571,37
6572,37
6573,37
6574,37
6575,38
6576,37
6577,37
6578,37
6579,37
6580,37
6581,37
6582,37
6583,37
6584,37
6585,37
6586,37
6587,37
6588,37
6589,37
6590,37
6591,38
6592,38
6593,38
6594,38
6595,38
6596,38
6597,38
6598,38
6599,38
6600,38
6601,37
6602,37
6603,37
6604,37
6605,37
6606,37
6607,37
6608,37
6609,37
6610,37
6611,37
6612,37
6613,37
6614,37
6615,37
6616,37
6617,38
6618,38
6619,38
6620,38
6621,38
6622,38
6623,38
6624,38
6625,38
6626,38
6627,38
6628,38
6629,38
6630,38
6631,38
6632,38
6633,37
6634,37
6635,37
6636,37
6637,38
6638,37
6639,37
6640,37
6641,37
6642,37
6643,37
6644,37
6645,37
6646,36
6647,36
6648,36
6649,36
6650,36
6651,36
6652,36
6653,36
6654,36
6655,36
6656,36
6657,36
6658,36
6659,36
6660,36
6661,36
6662,36
6663,36
6664,36
6665,36
6666,36
6667,36
6668,37
6669,37
6670,37
6671,37
6672,37
6673,37
6674,37
6675,37
6676,37
6677,37
6678,38
6679,38
6680,38
6681,38
6682,38
6683,38
6684,38
6685,38
6686,38
6687,38
6688,38
6689,37
6690,37
6691,37
6692,37
6693,37
6694,37
6695,37
6696,37
6697,37
6698,37
6699,37
6700,37
6701,36
6702,36
6703,36
6704,36
6705,36
6706,36
6707,36
6708,36
6709,36
6710,36
6711,36
6712,36
6713,36
6714,36
6715,37
6716,36
6717,36
6718,36
6719,36
6720,36
6721,36
6722,36
6723,36
6724,37
6725,37
6726,37
6727,37
6728,36
6729,36
6730,36
6731,37
6732,36
6733,36
6734,36
6735,36
6736,36
6737,37
6738,36
6739,36
6740,36
6741,36
6742,36
6743,36
6744,36
6745,36
6746,36
6747,36
6748,36
6749,36
6750,36
6751,37
6752,37
6753,37
6754,37
6755,37
6756,37
6757,37
6758,37
6759,37
6760,37
6761,37
6762,38
6763,38
6764,37
6765,37
6766,37
6767,36
6768,36
6769,36
6770,36
6771,36
6772,36
6773,37
6774,36
6775,36
6776,36
6777,36
6778,36
6779,36
6780,36
6781,36
6782,36
6783,36
6784,36
6785,36
6786,36
6787,36
6788,36
6789,36
6790,36
6791,36
6792,36
6793,37
6794,37
6795,36
6796,36
6797,36
6798,36
6799,36
6800,36
6801,36
6802,36
6803,36
6804,36
6805,37
6806,36
6807,36
6808,36
6809,36
6810,36
6811,36
6812,36
6813,36
6814,36
6815,35
6816,35
6817,35
6818,35
6819,35
6820,35
6821,35
6822,35
6823,35
6824,35
6825,35
6826,35
6827,35
6828,35
6829,35
6830,35
6831,35
6832,35
6833,35
6834,35
6835,35
6836,35
6837,35
6838,35
6839,35
6840,35
6841,35
6842,35
6843,35
6844,35
6845,35
6846,35
6847,35
6848,35
6849,35
6850,35
6851,35
6852,35
6853,35
6854,35
6855,35
6856,35
6857,35
6858,35
6859,36
6860,35
6861,35
6862,35
6863,35
6864,35
6865,35
6866,35
6867,35
6868,35
6869,35
6870,35
6871,35
6872,35
6873,36
6874,35
6875,35
6876,35
6877,36
6878,36
6879,36
6880,37
6881,36
6882,36
6883,36
6884,36
6885,36
6886,36
6887,36
6888,36
6889,36
6890,36
6891,36
6892,36
6893,36
6894,36
6895,36
6896,36
6897,36
6898,36
6899,36
6900,35
6901,35
6902,35
6903,35
6904,35
6905,35
6906,35
6907,35
6908,35
6909,35
6910,35
6911,35
6912,35
6913,35
6914,35
6915,35
6916,35
6917,35
6918,35
6919,35
6920,35
6921,36
6922,35
6923,35
6924,35
6925,35
6926,35
6927,35
6928,35
6929,35
6930,35
6931,35
6932,35
6933,34
6934,34
6935,34
6936,34
6937,34
6938,34
6939,34
6940,34
6941,34
6942,34
6943,34
6944,34
6945,34
6946,34
6947,34
6948,36
6949,35
6950,35
6951,35
6952,35
6953,35
6954,35
6955,35
6956,35
6957,35
6958,35
6959,35
6960,35
6961,34
6962,34
6963,35
6964,34
6965,34
6966,34
6967,34
6968,34
6969,34
6970,34
6971,34
6972,34
6973,34
6974,34
6975,34
6976,34
6977,34
6978,34
6979,34
6980,34
6981,34
6982,34
6983,34
6984,34
6985,34
6986,34
6987,34
6988,34
6989,35
6990,35
6991,35
6992,35
6993,35
6994,35
6995,35
6996,35
6997,35
6998,35
6999,35
7000,35
7001,34
7002,34
7003,34
7004,34
7005,34
7006,34
7007,35
7008,34
7009,34
7010,34
7011,34
7012,34
7013,34
7014,34
7015,34
7016,34
7017,34
7018,34
7019,34
7020,34
7021,34
7022,33
7023,33
7024,33
7025,33
7026,33
7027,33
7028,33
7029,33
7030,33
7031,33
7032,33
7033,33
7034,34
7035,34
7036,33
7037,33
7038,33
7039,33
7040,33
7041,33
7042,33
7043,33
7044,33
7045,33
7046,33
7047,33
7048,33
7049,34
7050,34
7051,34
7052,33
7053,34
7054,34
7055,34
7056,34
7057,34
7058,33
7059,33
7060,33
7061,33
7062,33
7063,33
7064,33
7065,34
7066,34
7067,33
7068,33
7069,33
7070,33
7071,33
7072,33
7073,33
7074,33
7075,33
7076,33
7077,33
7078,33
7079,33
7080,33
7081,33
7082,33
7083,33
7084,33
7085,34
7086,34
7087,34
7088,34
7089,34
7090,34
7091,34
7092,34
7093,34
7094,34
7095,34
7096,34
7097,34
7098,34
7099,34
7100,34
7101,34
7102,34
7103,34
7104,33
7105,33
7106,33
7107,33
7108,33
7109,34
7110,34
7111,33
7112,33
7113,33
7114,33
7115,33
7116,33
7117,33
7118,33
7119,33
7120,34
7121,34
7122,34
7123,34
7124,34
7125,34
7126,34
7127,34
7128,34
7129,34
7130,33
7131,33
7132,33
7133,33
7134,33
7135,33
7136,33
7137,33
7138,33
7139,34
7140,33
7141,34
7142,34
7143,34
7144,33
7145,33
7146,33
7147,33
7148,33
7149,33
7150,33
7151,33
7152,33
7153,33
7154,33
7155,33
7156,33
7157,34
7158,34
7159,34
7160,33
7161,33
7162,33
7163,34
7164,34
7165,34
7166,34
7167,34
7168,34
7169,33
7170,33
7171,33
7172,33
7173,33
7174,33
7175,33
7176,33
7177,33
7178,33
7179,34
7180,34
7181,34
7182,34
7183,34
7184,33
7185,33
7186,33
7187,33
7188,33
7189,34
7190,34
7191,34
7192,33
7193,33
7194,33
7195,33
7196,33
7197,34
7198,34
7199,33
7200,33
7201,33
7202,34
7203,33
7204,33
7205,33
7206,33
7207,33
7208,34
7209,34
7210,34
7211,33
7212,33
7213,33
7214,33
7215,33
7216,33
7217,33
7218,33
7219,33
7220,33
7221,33
7222,33
7223,33
7224,33
7225,33
7226,33
7227,33
7228,33
7229,33
7230,33
7231,33
7232,33
7233,33
7234,33
7235,33
7236,33
7237,34
7238,34
7239,34
7240,34
7241,34
7242,33
7243,33
7244,33
7245,33
7246,33
7247,33
7248,33
7249,33
7250,33
7251,33
7252,33
7253,34
7254,33
7255,33
7256,33
7257,33
7258,33
7259,33
7260,33
7261,33
7262,33
7263,33
7264,33
7265,33
7266,33
7267,33
7268,33
7269,33
7270,33
7271,33
7272,33
7273,33
7274,33
7275,33
7276,33
7277,33
7278,33
7279,33
7280,33
7281,34
7282,34
7283,34
7284,34
7285,35
7286,34
7287,33
7288,33
7289,34
7290,33
7291,33
7292,33
7293,33
7294,33
7295,33
7296,33
7297,33
7298,33
7299,34
7300,34
7301,34
7302,33
7303,33
7304,33
7305,33
7306,33
7307,33
7308,33
7309,33
7310,33
7311,33
7312,33
7313,33
7314,33
7315,33
7316,33
7317,33
7318,33
7319,33
7320,33
7321,34
7322,34
7323,34
7324,34
7325,34
7326,34
7327,34
7328,33
7329,33
7330,34
7331,33
7332,33
7333,33
7334,33
7335,33
7336,33
7337,33
7338,33
7339,33
7340,33
7341,33
7342,34
7343,34
7344,34
7345,33
7346,33
7347,33
7348,33
7349,34
7350,33
7351,33
7352,33
7353,33
7354,33
7355,33
7356,33
7357,33
7358,33
7359,33
7360,33
7361,33
7362,33
7363,33
7364,33
7365,33
7366,33
7367,33
7368,33
7369,34
7370,33
7371,33
7372,34
7373,34
7374,33
7375,33
7376,33
7377,33
7378,33
7379,33
7380,33
7381,33
7382,33
7383,33
7384,33
7385,33
7386,33
7387,33
7388,33
7389,33
7390,33
7391,33
7392,33
7393,33
7394,33
7395,33
7396,34
7397,34
7398,34
7399,33
7400,33
7401,33
7402,33
7403,33
7404,33
7405,33
7406,33
7407,33
7408,33
7409,33
7410,33
7411,33
7412,33
7413,33
7414,33
7415,33
7416,33
7417,33
7418,33
7419,33
7420,33
7421,33
7422,33
7423,33
7424,33
7425,33
7426,33
7427,33
7428,33
7429,33
7430,33
7431,33
7432,33
7433,33
7434,33
7435,33
7436,33
7437,33
7438,33
7439,33
7440,33
7441,33
7442,33
7443,33
7444,33
7445,33
7446,33
7447,33
7448,33
7449,33
7450,33
7451,33
7452,33
7453,33
7454,33
7455,34
7456,33
7457,33
7458,33
7459,33
7460,33
7461,33
7462,34
7463,34
7464,34
7465,34
7466,34
7467,35
7468,35
7469,35
7470,34
7471,33
7472,33
7473,33
7474,33
7475,33
7476,33
7477,33
7478,33
7479,33
7480,32
7481,32
7482,32
7483,32
7484,32
7485,32
7486,32
7487,32
7488,32
7489,32
7490,32
7491,32
7492,32
7493,32
7494,32
7495,32
7496,32
7497,32
7498,32
7499,32
7500,32
7501,32
7502,32
7503,32
7504,32
7505,32
7506,32
7507,32
7508,32
7509,32
7510,32
7511,32
7512,32
7513,32
7514,32
7515,32
7516,32
7517,32
7518,32
7519,32
7520,32
7521,32
7522,32
7523,32
7524,32
7525,32
7526,32
7527,32
7528,32
7529,32
7530,32
7531,32
7532,32
7533,33
7534,32
7535,33
7536,33
7537,33
7538,34
7539,33
7540,33
7541,33
7542,33
7543,32
7544,32
7545,32
7546,33
7547,33
7548,32
7549,32
7550,32
7551,32
7552,32
7553,32
7554,32
7555,32
7556,32
7557,32
7558,32
7559,32
7560,32
7561,32
7562,32
7563,32
7564,32
7565,32
7566,32
7567,32
7568,32
7569,32
7570,32
7571,32
7572,32
7573,32
7574,32
7575,32
7576,32
7577,32
7578,32
7579,32
7580,32
7581,32
7582,32
7583,32
7584,32
7585,32
7586,32
7587,32
7588,33
7589,32
7590,32
7591,32
7592,32
7593,32
7594,32
7595,32
7596,32
7597,32
7598,32
7599,32
7600,32
7601,32
7602,32
7603,32
7604,32
7605,32
7606,32
7607,32
7608,32
7609,32
7610,32
7611,32
7612,32
7613,32
7614,32
7615,32
7616,32
7617,32
7618,32
7619,32
7620,33
7621,32
7622,32
7623,32
7624,32
7625,32
7626,32
7627,32
7628,32
7629,32
7630,32
7631,32
7632,32
7633,32
7634,32
7635,32
7636,32
7637,32
7638,32
7639,32
7640,32
7641,32
7642,32
7643,33
7644,33
7645,33
7646,33
7647,33
7648,33
7649,33
7650,32
7651,32
7652,32
7653,32
7654,32
7655,32
7656,32
7657,32
7658,32
7659,32
7660,32
7661,32
7662,32
7663,32
7664,32
7665,32
7666,32
7667,32
7668,32
7669,32
7670,32
7671,32
7672,32
7673,32
7674,32
7675,32
7676,32
7677,32
7678,32
7679,32
7680,32
7681,32
7682,32
7683,32
7684,32
7685,32
7686,32
7687,32
7688,32
7689,32
7690,32
7691,32
7692,32
7693,32
7694,32
7695,32
7696,32
7697,32
7698,33
7699,32
7700,32
7701,32
7702,32
7703,32
7704,32
7705,32
7706,32
7707,32
7708,32
7709,32
7710,32
7711,32
7712,32
7713,32
7714,32
7715,32
7716,32
7717,32
7718,32
7719,32
7720,32
7721,32
7722,32
7723,32
7724,32
7725,32
7726,32
7727,32
7728,32
7729,32
7730,32
7731,32
7732,32
7733,32
7734,32
7735,32
7736,32
7737,33
7738,33
7739,32
7740,32
7741,32
7742,33
7743,32
7744,32
7745,32
7746,32
7747,32
7748,32
7749,32
7750,32
7751,32
7752,32
7753,32
7754,32
7755,32
7756,32
7757,32
7758,33
7759,33
7760,33
7761,33
7762,33
7763,33
7764,33
7765,33
7766,33
7767,33
7768,33
7769,33
7770,33
7771,33
7772,33
7773,33
7774,34
7775,33
7776,33
7777,33
7778,33
7779,33
7780,33
7781,33
7782,33
7783,33
7784,33
7785,33
7786,33
7787,33
7788,33
7789,34
7790,33
7791,33
7792,33
7793,33
7794,33
7795,33
7796,33
7797,33
7798,33
7799,34
7800,33
7801,33
7802,33
7803,33
7804,33
7805,33
7806,33
7807,33
7808,33
7809,33
7810,33
7811,33
7812,33
7813,33
7814,33
7815,33
7816,33
7817,33
7818,33
7819,33
7820,33
7821,33
7822,33
7823,33
7824,33
7825,33
7826,33
7827,33
7828,33
7829,33
7830,33
7831,33
7832,33
7833,33
7834,33
7835,33
7836,33
7837,33
7838,33
7839,33
7840,33
7841,33
7842,33
7843,33
7844,33
7845,33
7846,33
7847,33
7848,33
7849,33
7850,33
7851,33
7852,33
7853,33
7854,33
7855,33
7856,33
7857,33
7858,33
7859,33
7860,33
7861,34
7862,34
7863,34
7864,34
7865,34
7866,34
7867,34
7868,34
7869,34
7870,34
7871,34
7872,34
7873,34
7874,34
7875,34
7876,34
7877,34
7878,34
7879,34
7880,34
7881,34
7882,34
7883,34
7884,34
7885,34
7886,34
7887,34
7888,34
7889,34
7890,36
7891,34
7892,34
7893,34
7894,34
7895,34
7896,34
7897,34
7898,34
7899,34
7900,34
7901,34
7902,34
7903,34
7904,34
7905,34
7906,34
7907,34
7908,34
7909,35
7910,34
7911,34
7912,34
7913,34
7914,35
7915,35
7916,35
7917,35
7918,35
7919,35
7920,35
7921,35
7922,35
7923,35
7924,35
7925,36
7926,36
7927,36
7928,36
7929,36
7930,36
7931,36
7932,36
7933,36
7934,36
7935,36
7936,36
7937,36
7938,35
7939,35
7940,34
7941,34
7942,34
7943,34
7944,34
7945,34
7946,34
7947,34
7948,34
7949,35
7950,34
7951,34
7952,34
7953,34
7954,35
7955,34
7956,34
7957,34
7958,34
7959,34
7960,34
7961,34
7962,34
7963,34
7964,34
7965,34
7966,34
7967,35
7968,35
7969,35
7970,35
7971,34
7972,34
7973,34
7974,34
7975,34
7976,34
7977,34
7978,34
7979,34
7980,34
7981,34
7982,34
7983,34
7984,34
7985,34
7986,34
7987,34
7988,34
7989,34
7990,34
7991,34
7992,34
7993,34
7994,34
7995,34
7996,34
7997,34
7998,34
7999,34
8000,34
8001,34
8002,34
8003,34
8004,34
8005,34
8006,34
8007,34
8008,34
8009,34
8010,34
8011,34
8012,34
8013,34
8014,34
8015,34
8016,34
8017,35
8018,35
8019,34
8020,34
8021,34
8022,34
8023,34
8024,35
8025,35
8026,35
8027,35
8028,35
8029,34
8030,34
8031,34
8032,34
8033,34
8034,34
8035,34
8036,34
8037,34
8038,34
8039,34
8040,34
8041,34
8042,35
8043,34
8044,34
8045,34
8046,34
8047,34
8048,34
8049,34
8050,34
8051,34
8052,34
8053,34
8054,34
8055,34
8056,34
8057,34
8058,34
8059,34
8060,34
8061,34
8062,34
8063,34
8064,34
8065,34
8066,34
8067,34
8068,34
8069,34
8070,34
8071,34
8072,34
8073,34
8074,34
8075,34
8076,34
8077,34
8078,34
8079,34
8080,35
8081,34
8082,34
8083,34
8084,34
8085,35
8086,35
8087,35
8088,35
8089,35
8090,35
8091,35
8092,34
8093,34
8094,34
8095,34
8096,34
8097,34
8098,34
8099,34
8100,34
8101,34
8102,34
8103,34
8104,34
8105,34
8106,34
8107,34
8108,34
8109,34
8110,34
8111,34
8112,34
8113,34
8114,34
8115,35
8116,34
8117,34
8118,34
8119,34
8120,34
8121,34
8122,34
8123,34
8124,34
8125,34
8126,34
8127,34
8128,34
8129,34
8130,34
8131,34
8132,34
8133,34
8134,34
8135,35
8136,36
8137,36
8138,36
8139,36
8140,36
8141,36
8142,36
8143,36
8144,36
8145,36
8146,36
8147,35
8148,35
8149,35
8150,35
8151,35
8152,35
8153,35
8154,35
8155,35
8156,35
8157,34
8158,34
8159,34
8160,36
8161,35
8162,35
8163,35
8164,34
8165,34
8166,34
8167,34
8168,34
8169,34
8170,34
8171,34
8172,34
8173,34
8174,34
8175,34
8176,34
8177,34
8178,34
8179,34
8180,34
8181,34
8182,34
8183,34
8184,34
8185,34
8186,34
8187,34
8188,34
8189,34
8190,34
8191,34
8192,34
8193,34
8194,34
8195,34
8196,34
8197,34
8198,34
8199,34
8200,34
8201,34
8202,34
8203,34
8204,34
8205,34
8206,34
8207,34
8208,34
8209,34
8210,34
8211,34
8212,34
8213,34
8214,34
8215,34
8216,34
8217,34
8218,34
8219,34
8220,34
8221,34
8222,34
8223,34
8224,34
8225,34
8226,34
8227,34
8228,34
8229,35
8230,34
8231,34
8232,34
8233,34
8234,34
8235,34
8236,34
8237,34
8238,34
8239,34
8240,34
8241,35
8242,34
8243,34
8244,34
8245,34
8246,34
8247,34
8248,34
8249,34
8250,35
8251,34
8252,34
8253,34
8254,34
8255,34
8256,34
8257,34
8258,34
8259,34
8260,34
8261,34
8262,34
8263,34
8264,34
8265,34
8266,34
8267,34
8268,34
8269,34
8270,34
8271,34
8272,34
8273,35
8274,35
8275,35
8276,35
8277,35
8278,36
8279,36
8280,36
8281,36
8282,36
8283,36
8284,36
8285,35
8286,35
8287,35
8288,35
8289,35
8290,35
8291,35
8292,35
8293,35
8294,35
8295,36
8296,35
8297,35
8298,35
8299,35
8300,35
8301,35
8302,35
8303,35
8304,35
8305,35
8306,35
8307,35
8308,35
8309,35
8310,35
8311,35
8312,35
8313,35
8314,35
8315,35
8316,35
8317,35
8318,35
8319,35
8320,35
8321,35
8322,35
8323,35
8324,35
8325,35
8326,34
8327,34
8328,34
8329,34
8330,34
8331,34
8332,34
8333,34
8334,34
8335,34
8336,34
8337,34
8338,34
8339,34
8340,34
8341,34
8342,34
8343,34
8344,34
8345,34
8346,34
8347,34
8348,34
8349,34
8350,34
8351,34
8352,34
8353,34
8354,34
8355,34
8356,34
8357,34
8358,34
8359,35
8360,35
8361,35
8362,35
8363,36
8364,36
8365,36
8366,36
8367,36
8368,35
8369,35
8370,35
8371,36
8372,35
8373,35
8374,35
8375,35
8376,35
8377,35
8378,35
8379,35
8380,35
8381,35
8382,35
8383,35
8384,35
8385,35
8386,35
8387,34
8388,34
8389,34
8390,34
8391,34
8392,34
8393,34
8394,34
8395,34
8396,34
8397,34
8398,34
8399,34
8400,34
8401,34
8402,34
8403,34
8404,34
8405,34
8406,34
8407,34
8408,34
8409,34
8410,34
8411,35
8412,34
8413,35
8414,35
8415,35
8416,35
8417,34
8418,34
8419,34
8420,34
8421,34
8422,34
8423,34
8424,34
8425,34
8426,34
8427,34
8428,34
8429,34
8430,34
8431,34
8432,34
8433,34
8434,34
8435,34
8436,34
8437,34
8438,34
8439,35
8440,35
8441,36
8442,36
8443,35
8444,35
8445,35
8446,36
8447,35
8448,35
8449,35
8450,35
8451,35
8452,35
8453,34
8454,34
8455,34
8456,34
8457,34
8458,34
8459,34
8460,34
8461,34
8462,34
8463,34
8464,34
8465,34
8466,34
8467,34
8468,34
8469,35
8470,34
8471,34
8472,34
8473,34
8474,34
8475,34
8476,34
8477,34
8478,34
8479,34
8480,34
8481,34
8482,34
8483,34
8484,34
8485,34
8486,34
8487,34
8488,34
8489,34
8490,34
8491,34
8492,34
8493,34
8494,34
8495,34
8496,34
8497,34
8498,34
8499,34
8500,34
8501,34
8502,34
8503,34
8504,34
8505,35
8506,34
8507,34
8508,34
8509,34
8510,34
8511,34
8512,34
8513,34
8514,34
8515,34
8516,34
8517,34
8518,35
8519,34
8520,34
8521,34
8522,34
8523,34
8524,35
8525,35
8526,35
8527,35
8528,36
8529,35
8530,35
8531,36
8532,35
8533,35
8534,35
8535,35
8536,35
8537,35
8538,35
8539,35
8540,35
8541,35
8542,35
8543,35
8544,35
8545,35
8546,35
8547,35
8548,35
8549,35
8550,35
8551,35
8552,35
8553,35
8554,35
8555,35
8556,35
8557,35
8558,36
8559,35
8560,35
8561,35
8562,35
8563,35
8564,35
8565,35
8566,35
8567,35
8568,36
8569,35
8570,35
8571,35
8572,35
8573,35
8574,36
8575,36
8576,36
8577,36
8578,36
8579,36
8580,36
8581,37
8582,37
8583,37
8584,37
8585,37
8586,37
8587,37
8588,37
8589,37
8590,36
8591,36
8592,36
8593,36
8594,36
8595,36
8596,36
8597,36
8598,36
8599,36
8600,36
8601,36
8602,36
8603,36
8604,36
8605,37
8606,36
8607,37
8608,37
8609,36
8610,36
8611,36
8612,36
8613,37
8614,36
8615,36
8616,36
8617,36
8618,36
8619,36
8620,36
8621,36
8622,37
8623,37
8624,37
8625,38
8626,38
8627,38
8628,38
8629,38
8630,37
8631,37
8632,37
8633,37
8634,37
8635,37
8636,37
8637,37
8638,37
8639,37
8640,37
8641,37
8642,37
8643,37
8644,37
8645,37
8646,37
8647,37
8648,37
8649,37
8650,37
8651,37
8652,37
8653,37
8654,37
8655,37
8656,37
8657,37
8658,37
8659,37
8660,37
8661,37
8662,37
8663,38
8664,38
8665,38
8666,38
8667,38
8668,36
8669,36
8670,36
8671,36
8672,36
8673,36
8674,36
8675,36
8676,36
8677,37
8678,36
8679,36
8680,36
8681,36
8682,36
8683,36
8684,36
8685,36
8686,36
8687,36
8688,36
8689,36
8690,36
8691,36
8692,36
8693,36
8694,36
8695,36
8696,36
8697,36
8698,36
8699,36
8700,37
8701,36
8702,37
8703,36
8704,36
8705,36
8706,36
8707,36
8708,37
8709,36
8710,36
8711,36
8712,36
8713,36
8714,36
8715,36
8716,36
8717,36
8718,36
8719,36
8720,36
8721,37
8722,36
8723,36
8724,36
8725,36
8726,36
8727,36
8728,36
8729,36
8730,36
8731,36
8732,36
8733,36
8734,37
8735,36
8736,36
8737,36
8738,36
8739,36
8740,36
8741,36
8742,36
8743,36
8744,36
8745,36
8746,36
8747,36
8748,36
8749,36
8750,36
8751,36
8752,36
8753,36
8754,36
8755,36
8756,36
8757,36
8758,36
8759,36
8760,36
8761,36
8762,36
8763,36
8764,36
8765,36
8766,36
8767,36
8768,36
8769,36
8770,36
8771,36
8772,37
8773,37
8774,36
8775,36
8776,36
8777,36
8778,36
8779,36
8780,36
8781,36
8782,36
8783,36
8784,37
8785,36
8786,36
8787,36
8788,36
8789,36
8790,36
8791,36
8792,36
8793,36
8794,36
8795,36
8796,36
8797,36
8798,36
8799,37
8800,36
8801,36
8802,36
8803,37
8804,37
8805,36
8806,36
8807,36
8808,36
8809,36
8810,36
8811,36
8812,36
8813,36
8814,36
8815,36
8816,36
8817,36
8818,36
8819,36
8820,37
8821,37
8822,37
8823,38
8824,37
8825,37
8826,38
8827,37
8828,37
8829,37
8830,36
8831,36
8832,36
8833,36
8834,36
8835,37
8836,37
8837,37
8838,37
8839,37
8840,37
8841,38
8842,37
8843,37
8844,37
8845,37
8846,37
8847,36
8848,36
8849,36
8850,36
8851,36
8852,36
8853,36
8854,36
8855,36
8856,36
8857,36
8858,36
8859,36
8860,36
8861,36
8862,36
8863,36
8864,36
8865,36
8866,36
8867,37
8868,37
8869,37
8870,36
8871,36
8872,36
8873,36
8874,36
8875,36
8876,36
8877,36
8878,36
8879,36
8880,36
8881,36
8882,36
8883,37
8884,37
8885,37
8886,37
8887,37
8888,36
8889,37
8890,37
8891,37
8892,37
8893,36
8894,36
8895,36
8896,36
8897,37
8898,36
8899,36
8900,36
8901,36
8902,36
8903,36
8904,36
8905,36
8906,36
8907,36
8908,36
8909,36
8910,37
8911,37
8912,37
8913,37
8914,36
8915,36
8916,36
8917,36
8918,36
8919,36
8920,36
8921,37
8922,37
8923,37
8924,37
8925,37
8926,37
8927,38
8928,37
8929,36
8930,37
8931,37
8932,37
8933,37
8934,37
8935,37
8936,38
8937,38
8938,37
8939,37
8940,37
8941,37
8942,37
8943,37
8944,37
8945,37
8946,37
8947,37
8948,37
8949,37
8950,37
8951,36
8952,36
8953,36
8954,36
8955,36
8956,36
8957,36
8958,36
8959,36
8960,36
8961,36
8962,36
8963,36
8964,36
8965,36
8966,36
8967,36
8968,36
8969,36
8970,36
8971,36
8972,36
8973,36
8974,36
8975,36
8976,36
8977,36
8978,36
8979,36
8980,36
8981,36
8982,36
8983,36
8984,36
8985,36
8986,36
8987,36
8988,37
8989,36
8990,36
8991,36
8992,36
8993,36
8994,36
8995,36
8996,36
8997,37
8998,37
8999,37
9000,36
9001,36
9002,36
9003,36
9004,36
9005,36
9006,36
9007,36
9008,36
9009,36
9010,36
9011,36
9012,36
9013,37
9014,37
9015,37
9016,37
9017,37
9018,37
9019,37
9020,37
9021,37
9022,37
9023,37
9024,38
9025,38
9026,38
9027,37
9028,37
9029,37
9030,37
9031,37
9032,37
9033,37
9034,37
9035,37
9036,38
9037,37
9038,37
9039,37
9040,37
9041,38
9042,38
9043,38
9044,38
9045,38
9046,38
9047,38
9048,38
9049,38
9050,38
9051,38
9052,38
9053,38
9054,39
9055,38
9056,38
9057,38
9058,38
9059,38
9060,38
9061,38
9062,38
9063,38
9064,38
9065,38
9066,38
9067,38
9068,38
9069,38
9070,38
9071,38
9072,38
9073,38
9074,38
9075,39
9076,39
9077,39
9078,39
9079,38
9080,38
9081,38
9082,38
9083,38
9084,38
9085,38
9086,38
9087,38
9088,38
9089,38
9090,38
9091,38
9092,38
9093,38
9094,38
9095,38
9096,38
9097,38
9098,38
9099,38
9100,38
9101,38
9102,38
9103,38
9104,39
9105,38
9106,38
9107,39
9108,38
9109,38
9110,38
9111,38
9112,38
9113,38
9114,38
9115,38
9116,38
9117,38
9118,38
9119,38
9120,38
9121,38
9122,38
9123,38
9124,38
9125,38
9126,38
9127,38
9128,38
9129,38
9130,38
9131,38
9132,38
9133,38
9134,38
9135,38
9136,38
9137,38
9138,38
9139,38
9140,38
9141,38
9142,38
9143,38
9144,39
9145,39
9146,39
9147,39
9148,39
9149,39
9150,39
9151,39
9152,39
9153,39
9154,39
9155,39
9156,39
9157,40
9158,39
9159,39
9160,39
9161,40
9162,40
9163,40
9164,40
9165,40
9166,39
9167,39
9168,39
9169,39
9170,39
9171,39
9172,40
9173,39
9174,39
9175,39
9176,39
9177,39
9178,39
9179,39
9180,39
9181,39
9182,39
9183,39
9184,39
9185,39
9186,39
9187,39
9188,39
9189,39
9190,39
9191,39
9192,39
9193,39
9194,39
9195,39
9196,39
9197,39
9198,39
9199,39
9200,39
9201,39
9202,39
9203,39
9204,39
9205,39
9206,39
9207,39
9208,39
9209,39
9210,40
9211,40
9212,39
9213,39
9214,39
9215,40
9216,39
9217,39
9218,39
9219,39
9220,39
9221,39
9222,39
9223,39
9224,40
9225,39
9226,38
9227,38
9228,38
9229,38
9230,38
9231,38
9232,38
9233,38
9234,37
9235,37
9236,37
9237,38
9238,37
9239,38
9240,37
9241,37
9242,37
9243,37
9244,37
9245,37
9246,38
9247,37
9248,38
9249,37
9250,37
9251,37
9252,37
9253,37
9254,37
9255,37
9256,37
9257,37
9258,37
9259,37
9260,37
9261,37
9262,37
9263,37
9264,37
9265,38
9266,38
9267,37
9268,37
9269,37
9270,38
9271,37
9272,37
9273,37
9274,38
9275,37
9276,37
9277,37
9278,37
9279,37
9280,37
9281,38
9282,38
9283,37
9284,37
9285,37
9286,37
9287,37
9288,37
9289,37
9290,37
9291,37
9292,37
9293,37
9294,37
9295,37
9296,37
9297,37
9298,38
9299,38
9300,38
9301,37
9302,37
9303,37
9304,38
9305,38
9306,39
9307,39
9308,39
9309,38
9310,38
9311,38
9312,37
9313,37
9314,37
9315,37
9316,37
9317,37
9318,37
9319,38
9320,37
9321,37
9322,37
9323,37
9324,37
9325,37
9326,37
9327,37
9328,37
9329,37
9330,37
9331,37
9332,37
9333,37
9334,37
9335,37
9336,37
9337,37
9338,37
9339,37
9340,37
9341,37
9342,37
9343,38
9344,38
9345,37
9346,37
9347,37
9348,37
9349,37
9350,37
9351,37
9352,37
9353,37
9354,37
9355,37
9356,37
9357,37
9358,37
9359,37
9360,37
9361,37
9362,37
9363,37
9364,37
9365,37
9366,37
9367,37
9368,38
9369,37
9370,37
9371,37
9372,38
9373,37
9374,37
9375,37
9376,37
9377,37
9378,37
9379,37
9380,37
9381,37
9382,37
9383,37
9384,37
9385,37
9386,37
9387,37
9388,37
9389,37
9390,37
9391,37
9392,37
9393,37
9394,37
9395,37
9396,37
9397,37
9398,37
9399,37
9400,37
9401,37
9402,37
9403,37
9404,37
9405,37
9406,37
9407,38
9408,37
9409,37
9410,37
9411,37
9412,37
9413,37
9414,37
9415,37
9416,37
9417,37
9418,37
9419,37
9420,37
9421,37
9422,37
9423,37
9424,37
9425,37
9426,37
9427,37
9428,37
9429,38
9430,38
9431,38
9432,38
9433,37
9434,37
9435,37
9436,38
9437,37
9438,37
9439,37
9440,38
9441,38
9442,37
9443,37
9444,37
9445,37
9446,37
9447,37
9448,37
9449,37
9450,37
9451,36
9452,37
9453,37
9454,37
9455,37
9456,37
9457,37
9458,37
9459,37
9460,36
9461,36
9462,36
9463,36
9464,36
9465,36
9466,36
9467,36
9468,36
9469,36
9470,36
9471,36
9472,36
9473,36
9474,36
9475,36
9476,36
9477,37
9478,38
9479,37
9480,37
9481,37
9482,39
9483,39
9484,39
9485,39
9486,39
9487,39
9488,38
9489,38
9490,38
9491,38
9492,38
9493,38
9494,37
9495,37
9496,37
9497,37
9498,37
9499,37
9500,37
9501,37
9502,37
9503,37
9504,37
9505,37
9506,37
9507,37
9508,37
9509,37
9510,37
9511,37
9512,37
9513,37
9514,37
9515,37
9516,37
9517,37
9518,37
9519,37
9520,37
9521,37
9522,37
9523,37
9524,37
9525,37
9526,37
9527,37
9528,37
9529,37
9530,37
9531,37
9532,37
9533,37
9534,37
9535,38
9536,39
9537,39
9538,38
9539,38
9540,38
9541,38
9542,38
9543,38
9544,38
9545,38
9546,38
9547,38
9548,38
9549,38
9550,38
9551,38
9552,38
9553,38
9554,38
9555,38
9556,38
9557,38
9558,38
9559,39
9560,39
9561,38
9562,38
9563,38
9564,38
9565,38
9566,38
9567,38
9568,38
9569,38
9570,38
9571,38
9572,38
9573,38
9574,38
9575,38
9576,38
9577,38
9578,38
9579,38
9580,38
9581,38
9582,38
9583,38
9584,38
9585,38
9586,38
9587,38
9588,38
9589,38
9590,38
9591,38
9592,38
9593,38
9594,38
9595,38
9596,38
9597,38
9598,38
9599,38
9600,38
9601,38
9602,38
9603,38
9604,39
9605,39
9606,38
9607,38
9608,38
9609,38
9610,38
9611,38
9612,38
9613,38
9614,38
9615,38
9616,38
9617,38
9618,38
9619,38
9620,38
9621,38
9622,38
9623,38
9624,38
9625,39
9626,38
9627,38
9628,38
9629,38
9630,38
9631,38
9632,38
9633,38
9634,38
9635,38
9636,38
9637,38
9638,38
9639,38
9640,38
9641,38
9642,38
9643,38
9644,38
9645,38
9646,38
9647,38
9648,38
9649,39
9650,38
9651,38
9652,38
9653,38
9654,38
9655,38
9656,38
9657,38
9658,38
9659,38
9660,38
9661,38
9662,38
9663,39
9664,39
9665,38
9666,38
9667,38
9668,38
9669,37
9670,37
9671,37
9672,37
9673,37
9674,38
9675,38
9676,37
9677,37
9678,37
9679,37
9680,37
9681,37
9682,37
9683,36
9684,36
9685,36
9686,36
9687,36
9688,36
9689,36
9690,36
9691,36
9692,36
9693,36
9694,36
9695,36
9696,36
9697,36
9698,36
9699,36
9700,36
9701,36
9702,36
9703,36
9704,36
9705,36
9706,36
9707,36
9708,36
9709,36
9710,36
9711,37
9712,37
9713,37
9714,37
9715,37
9716,37
9717,37
9718,37
9719,37
9720,37
9721,37
9722,38
9723,38
9724,38
9725,38
9726,37
9727,37
9728,36
9729,36
9730,36
9731,36
9732,36
9733,36
9734,36
9735,36
9736,36
9737,36
9738,36
9739,36
9740,36
9741,36
9742,36
9743,36
9744,36
9745,36
9746,36
9747,36
9748,36
9749,36
9750,36
9751,36
9752,36
9753,36
9754,36
9755,36
9756,36
9757,36
9758,36
9759,36
9760,36
9761,36
9762,36
9763,36
9764,36
9765,36
9766,36
9767,37
9768,37
9769,37
9770,37
9771,37
9772,37
9773,37
9774,37
9775,37
9776,36
9777,36
9778,36
9779,36
9780,36
9781,36
9782,36
9783,36
9784,36
9785,36
9786,36
9787,36
9788,36
9789,36
9790,37
9791,37
9792,37
9793,36
9794,36
9795,36
9796,36
9797,36
9798,36
9799,36
9800,36
9801,36
9802,36
9803,36
9804,36
9805,36
9806,36
9807,36
9808,36
9809,36
9810,37
9811,36
9812,36
9813,36
9814,36
9815,36
9816,36
9817,36
9818,36
9819,36
9820,36
9821,36
9822,36
9823,36
9824,36
9825,36
9826,36
9827,36
9828,36
9829,36
9830,36
9831,36
9832,36
9833,36
9834,36
9835,36
9836,36
9837,36
9838,36
9839,36
9840,36
9841,36
9842,36
9843,36
9844,36
9845,36
9846,36
9847,36
9848,36
9849,36
9850,36
9851,36
9852,36
9853,36
9854,36
9855,36
9856,37
9857,36
9858,36
9859,36
9860,36
9861,36
9862,36
9863,37
9864,36
9865,37
9866,38
9867,37
9868,36
9869,36
9870,36
9871,36
9872,36
9873,36
9874,36
9875,36
9876,36
9877,37
9878,36
9879,36
9880,36
9881,37
9882,36
9883,36
9884,36
9885,37
9886,37
9887,37
9888,37
9889,37
9890,37
9891,37
9892,38
9893,37
9894,38
9895,37
9896,37
9897,37
9898,37
9899,39
9900,39
9901,39
9902,38
9903,38
9904,38
9905,37
9906,37
9907,37
9908,37
9909,37
9910,37
9911,37
9912,37
9913,37
9914,37
9915,37
9916,37
9917,37
9918,37
9919,37
9920,37
9921,37
9922,37
9923,37
9924,37
9925,37
9926,37
9927,37
9928,37
9929,37
9930,37
9931,37
9932,37
9933,36
9934,36
9935,36
9936,36
9937,36
9938,36
9939,36
9940,36
9941,36
9942,36
9943,36
9944,36
9945,36
9946,36
9947,36
9948,36
9949,36
9950,36
9951,36
9952,36
9953,36
9954,36
9955,36
9956,36
9957,36
9958,36
9959,36
9960,36
9961,36
9962,36
9963,36
9964,36
9965,36
9966,36
9967,36
9968,37
9969,37
9970,37
9971,37
9972,37
9973,37
9974,36
9975,36
9976,35
9977,35
9978,35
9979,36
9980,35
9981,35
9982,35
9983,35
9984,35
9985,35
9986,35
9987,35
9988,35
9989,35
9990,35
9991,35
9992,35
9993,35
9994,35
9995,35
9996,35
9997,35
9998,35
9999,35
10000,35
