1,3
2,3
3,3
4,3
5,3
6,3
7,3
8,4
9,4
10,4
11,4
12,4
13,5
14,5
15,5
16,5
17,5
18,5
19,5
20,5
21,5
22,5
23,5
24,5
25,6
26,6
27,6
28,6
29,6
30,6
31,6
32,6
33,6
34,6
35,6
36,6
37,6
38,6
39,6
40,6
41,6
42,7
43,7
44,7
45,7
46,7
47,8
48,7
49,7
50,8
51,7
52,7
53,7
54,7
55,7
56,7
57,7
58,7
59,7
60,7
61,7
62,7
63,7
64,7
65,7
66,7
67,7
68,7
69,7
70,9
71,9
72,8
73,8
74,8
75,8
76,8
77,8
78,8
79,8
80,8
81,8
82,10
83,10
84,10
85,10
86,10
87,10
88,10
89,10
90,10
91,10
92,10
93,10
94,10
95,10
96,10
97,10
98,10
99,10
100,11
101,11
102,11
103,11
104,11
105,11
106,11
107,12
108,12
109,12
110,12
111,12
112,12
113,12
114,12
115,12
116,12
117,12
118,12
119,12
120,12
121,12
122,12
123,12
124,12
125,12
126,12
127,14
128,14
129,13
130,12
131,12
132,12
133,12
134,12
135,12
136,12
137,12
138,12
139,12
140,12
141,12
142,12
143,12
144,12
145,12
146,12
147,12
148,12
149,12
150,13
151,14
152,12
153,12
154,12
155,12
156,12
157,13
158,13
159,13
160,12
161,12
162,12
163,12
164,12
165,12
166,12
167,12
168,12
169,12
170,12
171,12
172,12
173,12
174,13
175,13
176,13
177,12
178,12
179,12
180,12
181,12
182,12
183,12
184,13
185,12
186,12
187,12
188,12
189,12
190,12
191,12
192,12
193,12
194,12
195,12
196,12
197,12
198,12
199,12
200,13
201,13
202,13
203,12
204,12
205,13
206,13
207,12
208,12
209,12
210,12
211,12
212,12
213,12
214,12
215,12
216,12
217,12
218,12
219,12
220,12
221,12
222,12
223,12
224,13
225,12
226,12
227,12
228,12
229,12
230,12
231,12
232,12
233,13
234,13
235,13
236,13
237,12
238,12
239,12
240,12
241,12
242,12
243,12
244,12
245,12
246,12
247,12
248,12
249,12
250,12
251,12
252,12
253,12
254,12
255,12
256,12
257,12
258,12
259,12
260,12
261,12
262,12
263,12
264,12
265,13
266,13
267,13
268,12
269,12
270,12
271,12
272,12
273,12
274,12
275,12
276,12
277,12
278,12
279,12
280,12
281,12
282,12
283,13
284,12
285,12
286,12
287,12
288,12
289,12
290,12
291,13
292,13
293,13
294,13
295,13
296,13
297,13
298,13
299,13
300,13
301,13
302,13
303,13
304,13
305,13
306,13
307,13
308,13
309,13
310,13
311,14
312,13
313,13
314,13
315,12
316,12
317,12
318,12
319,12
320,12
321,12
322,12
323,12
324,12
325,12
326,13
327,12
328,12
329,13
330,13
331,13
332,13
333,13
334,13
335,13
336,13
337,13
338,13
339,13
340,13
341,13
342,13
343,13
344,13
345,13
346,12
347,12
348,14
349,13
350,13
351,13
352,13
353,13
354,13
355,15
356,14
357,13
358,12
359,12
360,12
361,12
362,12
363,12
364,12
365,12
366,12
367,13
368,13
369,13
370,13
371,13
372,12
373,12
374,12
375,12
376,12
377,12
378,13
379,12
380,12
381,13
382,13
383,13
384,13
385,13
386,13
387,13
388,13
389,13
390,13
391,13
392,14
393,13
394,13
395,13
396,14
397,14
398,13
399,13
400,13
401,13
402,13
403,13
404,13
405,13
406,13
407,13
408,13
409,13
410,13
411,13
412,13
413,13
414,13
415,13
416,13
417,13
418,13
419,13
420,13
421,13
422,13
423,13
424,13
425,13
426,13
427,13
428,13
429,13
430,13
431,13
432,13
433,13
434,13
435,13
436,13
437,13
438,13
439,13
440,13
441,13
442,13
443,13
444,13
445,14
446,13
447,13
448,13
449,13
450,13
451,13
452,13
453,13
454,13
455,13
456,13
457,13
458,13
459,13
460,13
461,13
462,13
463,13
464,13
465,13
466,13
467,13
468,13
469,13
470,13
471,13
472,13
473,13
474,13
475,13
476,13
477,13
478,13
479,13
480,13
481,14
482,13
483,13
484,14
485,13
486,13
487,14
488,13
489,14
490,13
491,13
492,13
493,13
494,13
495,14
496,14
497,13
498,13
499,13
500,13
501,13
502,13
503,13
504,13
505,13
506,13
507,13
508,13
509,13
510,13
511,13
512,13
513,13
514,13
515,13
516,13
517,13
518,13
519,13
520,13
521,13
522,13
523,13
524,13
525,13
526,13
527,13
528,13
529,13
530,13
531,13
532,13
533,13
534,13
535,13
536,13
537,13
538,13
539,13
540,13
541,13
542,13
543,13
544,13
545,14
546,14
547,14
548,14
549,14
550,15
551,14
552,14
553,14
554,14
555,14
556,14
557,14
558,14
559,14
560,14
561,14
562,14
563,14
564,14
565,14
566,14
567,14
568,14
569,14
570,14
571,14
572,14
573,14
574,14
575,14
576,14
577,14
578,14
579,14
580,14
581,14
582,14
583,14
584,14
585,14
586,14
587,15
588,15
589,15
590,15
591,15
592,15
593,15
594,14
595,14
596,14
597,14
598,14
599,14
600,14
601,14
602,14
603,14
604,14
605,14
606,14
607,14
608,14
609,14
610,14
611,14
612,14
613,14
614,14
615,15
616,15
617,15
618,15
619,15
620,15
621,14
622,14
623,14
624,14
625,14
626,14
627,14
628,14
629,14
630,14
631,14
632,14
633,14
634,14
635,16
636,16
637,16
638,15
639,15
640,16
641,15
642,14
643,14
644,14
645,14
646,14
647,14
648,15
649,14
650,14
651,14
652,14
653,14
654,14
655,14
656,14
657,14
658,14
659,14
660,14
661,14
662,14
663,14
664,14
665,14
666,14
667,14
668,14
669,14
670,15
671,15
672,15
673,15
674,15
675,15
676,14
677,14
678,15
679,15
680,14
681,14
682,14
683,14
684,14
685,14
686,14
687,14
688,14
689,14
690,14
691,14
692,14
693,14
694,14
695,14
696,14
697,14
698,14
699,14
700,14
701,14
702,14
703,15
704,15
705,14
706,14
707,14
708,14
709,14
710,14
711,14
712,14
713,14
714,14
715,14
716,14
717,14
718,14
719,14
720,14
721,14
722,14
723,14
724,14
725,15
726,15
727,15
728,15
729,15
730,15
731,15
732,15
733,15
734,14
735,14
736,14
737,14
738,14
739,14
740,14
741,15
742,15
743,16
744,15
745,15
746,14
747,14
748,14
749,15
750,15
751,14
752,14
753,14
754,14
755,14
756,14
757,14
758,14
759,14
760,15
761,15
762,15
763,15
764,16
765,15
766,15
767,15
768,15
769,15
770,15
771,15
772,15
773,15
774,15
775,15
776,15
777,15
778,15
779,15
780,15
781,15
782,15
783,15
784,15
785,15
786,15
787,15
788,15
789,15
790,15
791,15
792,15
793,15
794,15
795,15
796,15
797,16
798,15
799,15
800,15
801,15
802,15
803,15
804,15
805,15
806,15
807,15
808,15
809,15
810,15
811,15
812,15
813,15
814,15
815,15
816,15
817,16
818,16
819,16
820,16
821,16
822,16
823,16
824,16
825,16
826,16
827,16
828,16
829,16
830,17
831,17
832,17
833,17
834,16
835,16
836,16
837,16
838,16
839,16
840,16
841,16
842,16
843,16
844,16
845,16
846,16
847,16
848,16
849,16
850,16
851,16
852,16
853,17
854,16
855,16
856,17
857,17
858,16
859,16
860,16
861,16
862,16
863,16
864,16
865,16
866,16
867,16
868,16
869,17
870,16
871,16
872,16
873,16
874,16
875,16
876,16
877,16
878,16
879,16
880,16
881,16
882,16
883,16
884,16
885,16
886,16
887,16
888,16
889,16
890,16
891,16
892,16
893,16
894,16
895,18
896,18
897,18
898,18
899,18
900,18
901,18
902,17
903,17
904,17
905,18
906,17
907,17
908,17
909,17
910,17
911,17
912,17
913,17
914,17
915,17
916,17
917,17
918,17
919,17
920,17
921,17
922,17
923,17
924,17
925,17
926,17
927,17
928,17
929,17
930,17
931,17
932,17
933,18
934,17
935,18
936,18
937,18
938,17
939,17
940,17
941,17
942,17
943,17
944,17
945,17
946,18
947,19
948,18
949,18
950,18
951,18
952,18
953,18
954,18
955,18
956,18
957,18
958,18
959,18
960,18
961,18
962,18
963,18
964,19
965,18
966,18
967,18
968,18
969,18
970,18
971,18
972,18
973,18
974,18
975,18
976,18
977,18
978,18
979,18
980,18
981,18
982,18
983,18
984,18
985,18
986,18
987,17
988,17
989,17
990,17
991,17
992,17
993,17
994,17
995,17
996,17
997,17
998,17
999,17
1000,17
1001,17
1002,17
1003,17
1004,17
1005,17
1006,17
1007,17
1008,17
1009,17
1010,17
1011,17
1012,17
1013,17
1014,17
1015,17
1016,17
1017,17
1018,17
1019,17
1020,17
1021,17
1022,17
1023,17
1024,17
1025,17
1026,17
1027,17
1028,17
1029,17
1030,17
1031,17
1032,17
1033,17
1034,17
1035,17
1036,17
1037,17
1038,17
1039,17
1040,17
1041,17
1042,17
1043,17
1044,17
1045,18
1046,17
1047,17
1048,17
1049,17
1050,17
1051,17
1052,17
1053,17
1054,17
1055,17
1056,17
1057,19
1058,18
1059,18
1060,18
1061,17
1062,18
1063,17
1064,17
1065,17
1066,17
1067,18
1068,17
1069,17
1070,17
1071,18
1072,17
1073,17
1074,17
1075,17
1076,17
1077,17
1078,17
1079,17
1080,17
1081,17
1082,18
1083,18
1084,18
1085,18
1086,18
1087,17
1088,17
1089,17
1090,17
1091,17
1092,17
1093,17
1094,17
1095,17
1096,17
1097,17
1098,17
1099,17
1100,17
1101,17
1102,17
1103,17
1104,17
1105,17
1106,17
1107,17
1108,17
1109,17
1110,17
1111,17
1112,17
1113,17
1114,17
1115,17
1116,17
1117,17
1118,17
1119,17
1120,17
1121,17
1122,17
1123,17
1124,17
1125,18
1126,18
1127,18
1128,18
1129,18
1130,19
1131,19
1132,19
1133,19
1134,19
1135,20
1136,20
1137,19
1138,19
1139,19
1140,18
1141,18
1142,18
1143,18
1144,17
1145,17
1146,17
1147,17
1148,17
1149,17
1150,17
1151,18
1152,18
1153,18
1154,18
1155,18
1156,18
1157,18
1158,18
1159,18
1160,18
1161,18
1162,18
1163,18
1164,18
1165,18
1166,18
1167,18
1168,18
1169,17
1170,17
1171,17
1172,17
1173,17
1174,17
1175,17
1176,17
1177,17
1178,17
1179,17
1180,17
1181,17
1182,17
1183,17
1184,17
1185,17
1186,17
1187,17
1188,17
1189,17
1190,17
1191,17
1192,17
1193,17
1194,17
1195,17
1196,17
1197,17
1198,18
1199,17
1200,17
1201,17
1202,17
1203,17
1204,17
1205,17
1206,17
1207,17
1208,17
1209,17
1210,17
1211,17
1212,17
1213,17
1214,17
1215,17
1216,17
1217,17
1218,17
1219,17
1220,17
1221,17
1222,17
1223,17
1224,17
1225,17
1226,17
1227,17
1228,17
1229,17
1230,17
1231,18
1232,17
1233,17
1234,17
1235,17
1236,17
1237,17
1238,17
1239,17
1240,17
1241,17
1242,17
1243,17
1244,17
1245,17
1246,17
1247,17
1248,17
1249,17
1250,17
1251,17
1252,17
1253,17
1254,17
1255,18
1256,17
1257,17
1258,18
1259,17
1260,17
1261,17
1262,17
1263,17
1264,17
1265,17
1266,17
1267,17
1268,17
1269,17
1270,17
1271,17
1272,17
1273,17
1274,17
1275,17
1276,17
1277,17
1278,17
1279,17
1280,17
1281,17
1282,17
1283,17
1284,17
1285,17
1286,17
1287,17
1288,17
1289,17
1290,17
1291,17
1292,17
1293,17
1294,17
1295,17
1296,17
1297,17
1298,17
1299,17
1300,17
1301,17
1302,17
1303,17
1304,17
1305,17
1306,18
1307,17
1308,17
1309,17
1310,17
1311,17
1312,17
1313,17
1314,17
1315,17
1316,17
1317,17
1318,17
1319,17
1320,17
1321,17
1322,17
1323,17
1324,17
1325,17
1326,17
1327,17
1328,17
1329,17
1330,17
1331,17
1332,17
1333,17
1334,17
1335,17
1336,17
1337,17
1338,17
1339,17
1340,17
1341,17
1342,17
1343,17
1344,17
1345,17
1346,17
1347,17
1348,17
1349,18
1350,18
1351,18
1352,18
1353,17
1354,17
1355,18
1356,18
1357,18
1358,18
1359,18
1360,18
1361,18
1362,18
1363,18
1364,19
1365,19
1366,18
1367,18
1368,18
1369,18
1370,18
1371,18
1372,18
1373,18
1374,18
1375,18
1376,18
1377,18
1378,18
1379,18
1380,18
1381,18
1382,19
1383,19
1384,18
1385,19
1386,19
1387,18
1388,18
1389,18
1390,18
1391,18
1392,18
1393,18
1394,18
1395,18
1396,18
1397,18
1398,18
1399,19
1400,20
1401,20
1402,19
1403,19
1404,19
1405,19
1406,19
1407,19
1408,19
1409,19
1410,19
1411,19
1412,19
1413,19
1414,19
1415,19
1416,19
1417,19
1418,19
1419,19
1420,19
1421,19
1422,19
1423,19
1424,19
1425,19
1426,19
1427,19
1428,19
1429,19
1430,19
1431,19
1432,20
1433,19
1434,19
1435,19
1436,19
1437,19
1438,20
1439,19
1440,19
1441,19
1442,19
1443,20
1444,19
1445,19
1446,19
1447,19
1448,19
1449,19
1450,19
1451,19
1452,19
1453,19
1454,19
1455,20
1456,19
1457,19
1458,19
1459,19
1460,20
1461,20
1462,20
1463,20
1464,19
1465,19
1466,19
1467,19
1468,19
1469,19
1470,19
1471,19
1472,19
1473,19
1474,19
1475,19
1476,19
1477,19
1478,19
1479,19
1480,19
1481,19
1482,19
1483,19
1484,19
1485,19
1486,19
1487,19
1488,19
1489,19
1490,19
1491,20
1492,20
1493,19
1494,19
1495,19
1496,19
1497,19
1498,19
1499,19
1500,19
1501,19
1502,19
1503,19
1504,19
1505,19
1506,19
1507,19
1508,20
1509,20
1510,21
1511,21
1512,20
1513,19
1514,20
1515,19
1516,19
1517,19
1518,19
1519,19
1520,19
1521,19
1522,19
1523,19
1524,19
1525,19
1526,19
1527,19
1528,19
1529,19
1530,19
1531,19
1532,19
1533,19
1534,19
1535,19
1536,19
1537,20
1538,20
1539,20
1540,20
1541,20
1542,20
1543,20
1544,19
1545,19
1546,19
1547,19
1548,19
1549,19
1550,19
1551,19
1552,19
1553,19
1554,19
1555,19
1556,19
1557,19
1558,19
1559,19
1560,19
1561,19
1562,19
1563,19
1564,19
1565,19
1566,19
1567,19
1568,20
1569,20
1570,20
1571,20
1572,20
1573,20
1574,20
1575,20
1576,20
1577,21
1578,20
1579,20
1580,20
1581,20
1582,20
1583,20
1584,20
1585,20
1586,20
1587,20
1588,20
1589,20
1590,20
1591,20
1592,20
1593,20
1594,20
1595,20
1596,20
1597,20
1598,20
1599,21
1600,22
1601,21
1602,21
1603,21
1604,20
1605,20
1606,20
1607,20
1608,20
1609,20
1610,21
1611,21
1612,21
1613,21
1614,21
1615,21
1616,21
1617,22
1618,21
1619,21
1620,20
1621,20
1622,20
1623,20
1624,20
1625,20
1626,21
1627,21
1628,20
1629,20
1630,20
1631,20
1632,20
1633,20
1634,20
1635,20
1636,20
1637,20
1638,20
1639,20
1640,20
1641,20
1642,20
1643,20
1644,20
1645,20
1646,20
1647,20
1648,20
1649,20
1650,20
1651,20
1652,20
1653,20
1654,20
1655,20
1656,20
1657,20
1658,20
1659,20
1660,20
1661,20
1662,20
1663,20
1664,20
1665,20
1666,20
1667,20
1668,20
1669,20
1670,20
1671,20
1672,20
1673,20
1674,20
1675,20
1676,20
1677,20
1678,20
1679,20
1680,20
1681,20
1682,20
1683,20
1684,20
1685,20
1686,20
1687,20
1688,20
1689,20
1690,20
1691,20
1692,20
1693,20
1694,20
1695,20
1696,20
1697,20
1698,20
1699,20
1700,20
1701,20
1702,20
1703,20
1704,20
1705,20
1706,20
1707,20
1708,20
1709,20
1710,20
1711,20
1712,20
1713,20
1714,20
1715,20
1716,20
1717,21
1718,21
1719,21
1720,21
1721,21
1722,21
1723,21
1724,21
1725,21
1726,21
1727,21
1728,21
1729,21
1730,21
1731,20
1732,20
1733,20
1734,20
1735,20
1736,20
1737,20
1738,20
1739,20
1740,20
1741,20
1742,20
1743,20
1744,20
1745,20
1746,20
1747,20
1748,20
1749,20
1750,20
1751,20
1752,20
1753,20
1754,21
1755,21
1756,21
1757,21
1758,21
1759,21
1760,21
1761,21
1762,21
1763,21
1764,21
1765,21
1766,21
1767,21
1768,21
1769,20
1770,20
1771,20
1772,20
1773,20
1774,20
1775,20
1776,20
1777,20
1778,20
1779,20
1780,20
1781,21
1782,20
1783,20
1784,20
1785,20
1786,20
1787,20
1788,20
1789,20
1790,20
1791,20
1792,20
1793,20
1794,20
1795,20
1796,20
1797,20
1798,20
1799,20
1800,21
1801,20
1802,20
1803,20
1804,20
1805,20
1806,20
1807,20
1808,20
1809,20
1810,20
1811,20
1812,20
1813,20
1814,20
1815,21
1816,21
1817,21
1818,21
1819,21
1820,21
1821,21
1822,21
1823,21
1824,21
1825,22
1826,21
1827,21
1828,21
1829,21
1830,21
1831,21
1832,21
1833,21
1834,21
1835,21
1836,21
1837,21
1838,21
1839,21
1840,21
1841,21
1842,21
1843,21
1844,21
1845,21
1846,21
1847,21
1848,21
1849,22
1850,22
1851,22
1852,21
1853,21
1854,21
1855,21
1856,21
1857,21
1858,21
1859,21
1860,22
1861,22
1862,21
1863,21
1864,21
1865,21
1866,21
1867,21
1868,21
1869,21
1870,21
1871,21
1872,21
1873,21
1874,21
1875,21
1876,21
1877,21
1878,21
1879,21
1880,22
1881,22
1882,22
1883,22
1884,22
1885,22
1886,22
1887,23
1888,22
1889,22
1890,21
1891,21
1892,21
1893,21
1894,21
1895,21
1896,21
1897,21
1898,21
1899,21
1900,21
1901,21
1902,21
1903,21
1904,21
1905,21
1906,21
1907,21
1908,21
1909,21
1910,21
1911,21
1912,21
1913,21
1914,21
1915,22
1916,21
1917,21
1918,21
1919,21
1920,21
1921,21
1922,21
1923,21
1924,21
1925,21
1926,21
1927,21
1928,21
1929,21
1930,21
1931,21
1932,23
1933,23
1934,23
1935,25
1936,23
1937,23
1938,23
1939,23
1940,23
1941,23
1942,23
1943,23
1944,23
1945,24
1946,23
1947,23
1948,24
1949,23
1950,23
1951,23
1952,24
1953,24
1954,23
1955,23
1956,23
1957,23
1958,23
1959,23
1960,23
1961,23
1962,23
1963,23
1964,23
1965,23
1966,23
1967,23
1968,23
1969,23
1970,23
1971,23
1972,23
1973,23
1974,23
1975,23
1976,23
1977,23
1978,23
1979,23
1980,23
1981,23
1982,24
1983,23
1984,23
1985,23
1986,23
1987,23
1988,24
1989,23
1990,23
1991,23
1992,23
1993,23
1994,24
1995,24
1996,24
1997,24
1998,24
1999,24
2000,24
2001,24
2002,24
2003,24
2004,24
2005,24
2006,24
2007,25
2008,24
2009,24
2010,23
2011,23
2012,23
2013,23
2014,23
2015,23
2016,23
2017,23
2018,23
2019,23
2020,23
2021,23
2022,23
2023,23
2024,23
2025,23
2026,23
2027,23
2028,23
2029,23
2030,23
2031,23
2032,23
2033,23
2034,23
2035,23
2036,23
2037,23
2038,23
2039,23
2040,23
2041,23
2042,23
2043,23
2044,23
2045,23
2046,23
2047,23
2048,23
2049,23
2050,23
2051,23
2052,23
2053,23
2054,23
2055,23
2056,24
2057,24
2058,24
2059,24
2060,23
2061,23
2062,23
2063,23
2064,23
2065,23
2066,23
2067,23
2068,23
2069,23
2070,23
2071,23
2072,24
2073,24
2074,23
2075,24
2076,24
2077,24
2078,24
2079,23
2080,23
2081,23
2082,23
2083,23
2084,23
2085,23
2086,24
2087,24
2088,24
2089,23
2090,23
2091,23
2092,23
2093,23
2094,23
2095,23
2096,23
2097,23
2098,23
2099,23
2100,23
2101,23
2102,23
2103,23
2104,23
2105,23
2106,23
2107,23
2108,23
2109,23
2110,23
2111,23
2112,23
2113,23
2114,23
2115,23
2116,23
2117,23
2118,23
2119,23
2120,23
2121,23
2122,23
2123,23
2124,23
2125,23
2126,24
2127,23
2128,23
2129,23
2130,23
2131,23
2132,23
2133,23
2134,23
2135,23
2136,23
2137,23
2138,23
2139,23
2140,23
2141,23
2142,23
2143,23
2144,23
2145,24
2146,24
2147,24
2148,24
2149,24
2150,24
2151,23
2152,23
2153,23
2154,23
2155,23
2156,23
2157,23
2158,23
2159,23
2160,23
2161,23
2162,23
2163,23
2164,23
2165,23
2166,23
2167,23
2168,23
2169,23
2170,23
2171,23
2172,23
2173,24
2174,23
2175,23
2176,23
2177,23
2178,23
2179,23
2180,23
2181,23
2182,23
2183,23
2184,23
2185,23
2186,23
2187,24
2188,24
2189,24
2190,24
2191,23
2192,23
2193,23
2194,23
2195,23
2196,23
2197,24
2198,24
2199,23
2200,23
2201,23
2202,23
2203,23
2204,23
2205,23
2206,23
2207,23
2208,25
2209,25
2210,24
2211,24
2212,24
2213,24
2214,23
2215,23
2216,23
2217,23
2218,23
2219,23
2220,24
2221,24
2222,24
2223,23
2224,23
2225,23
2226,23
2227,23
2228,23
2229,23
2230,23
2231,24
2232,24
2233,24
2234,24
2235,24
2236,24
2237,24
2238,24
2239,24
2240,24
2241,24
2242,24
2243,24
2244,24
2245,24
2246,24
2247,24
2248,24
2249,25
2250,25
2251,25
2252,25
2253,26
2254,25
2255,25
2256,25
2257,25
2258,25
2259,24
2260,24
2261,24
2262,24
2263,24
2264,24
2265,24
2266,24
2267,24
2268,23
2269,23
2270,23
2271,23
2272,23
2273,23
2274,23
2275,23
2276,23
2277,23
2278,24
2279,23
2280,23
2281,23
2282,23
2283,23
2284,23
2285,23
2286,23
2287,23
2288,23
2289,23
2290,23
2291,23
2292,23
2293,23
2294,23
2295,23
2296,23
2297,23
2298,23
2299,23
2300,23
2301,23
2302,23
2303,23
2304,24
2305,24
2306,24
2307,24
2308,24
2309,23
2310,23
2311,23
2312,23
2313,23
2314,23
2315,23
2316,23
2317,23
2318,23
2319,23
2320,23
2321,23
2322,23
2323,23
2324,23
2325,23
2326,23
2327,23
2328,24
2329,23
2330,24
2331,24
2332,24
2333,24
2334,24
2335,24
2336,24
2337,24
2338,24
2339,23
2340,23
2341,23
2342,23
2343,23
2344,23
2345,23
2346,23
2347,24
2348,24
2349,23
2350,23
2351,23
2352,23
2353,23
2354,23
2355,23
2356,24
2357,23
2358,23
2359,24
2360,24
2361,24
2362,23
2363,23
2364,23
2365,23
2366,23
2367,23
2368,23
2369,23
2370,23
2371,23
2372,23
2373,23
2374,23
2375,24
2376,24
2377,24
2378,24
2379,24
2380,23
2381,24
2382,23
2383,23
2384,23
2385,23
2386,23
2387,23
2388,23
2389,23
2390,23
2391,23
2392,23
2393,23
2394,23
2395,23
2396,23
2397,23
2398,23
2399,23
2400,23
2401,23
2402,23
2403,23
2404,23
2405,23
2406,23
2407,23
2408,23
2409,23
2410,23
2411,23
2412,24
2413,23
2414,23
2415,24
2416,23
2417,23
2418,23
2419,24
2420,24
2421,24
2422,25
2423,24
2424,24
2425,24
2426,24
2427,24
2428,24
2429,24
2430,24
2431,24
2432,24
2433,24
2434,24
2435,24
2436,24
2437,24
2438,25
2439,24
2440,24
2441,24
2442,24
2443,24
2444,24
2445,24
2446,24
2447,24
2448,24
2449,24
2450,24
2451,24
2452,24
2453,24
2454,24
2455,24
2456,24
2457,24
2458,24
2459,24
2460,24
2461,24
2462,23
2463,23
2464,23
2465,23
2466,23
2467,23
2468,23
2469,23
2470,24
2471,23
2472,23
2473,23
2474,24
2475,24
2476,24
2477,24
2478,24
2479,24
2480,24
2481,24
2482,24
2483,24
2484,24
2485,24
2486,24
2487,24
2488,24
2489,24
2490,24
2491,24
2492,23
2493,23
2494,23
2495,24
2496,24
2497,23
2498,23
2499,23
2500,23
2501,23
2502,23
2503,23
2504,23
2505,23
2506,23
2507,23
2508,23
2509,23
2510,23
2511,23
2512,23
2513,23
2514,24
2515,25
2516,25
2517,24
2518,24
2519,24
2520,24
2521,24
2522,24
2523,24
2524,24
2525,24
2526,23
2527,23
2528,23
2529,23
2530,23
2531,23
2532,23
2533,23
2534,24
2535,23
2536,23
2537,23
2538,23
2539,23
2540,23
2541,23
2542,23
2543,23
2544,23
2545,23
2546,23
2547,23
2548,23
2549,23
2550,23
2551,23
2552,23
2553,24
2554,24
2555,24
2556,24
2557,24
2558,24
2559,24
2560,24
2561,24
2562,24
2563,25
2564,24
2565,24
2566,25
2567,25
2568,24
2569,24
2570,24
2571,24
2572,24
2573,24
2574,24
2575,24
2576,24
2577,24
2578,24
2579,24
2580,24
2581,24
2582,24
2583,24
2584,24
2585,24
2586,24
2587,24
2588,24
2589,24
2590,24
2591,24
2592,24
2593,24
2594,24
2595,24
2596,24
2597,24
2598,24
2599,24
2600,24
2601,24
2602,24
2603,24
2604,25
2605,25
2606,24
2607,24
2608,24
2609,24
2610,24
2611,24
2612,24
2613,24
2614,24
2615,24
2616,24
2617,24
2618,24
2619,24
2620,24
2621,24
2622,24
2623,24
2624,24
2625,24
2626,24
2627,24
2628,24
2629,24
2630,24
2631,24
2632,24
2633,24
2634,24
2635,24
2636,24
2637,24
2638,24
2639,25
2640,25
2641,24
2642,24
2643,24
2644,24
2645,24
2646,24
2647,24
2648,24
2649,24
2650,24
2651,24
2652,24
2653,24
2654,24
2655,24
2656,24
2657,25
2658,24
2659,24
2660,24
2661,24
2662,24
2663,24
2664,24
2665,24
2666,24
2667,25
2668,25
2669,25
2670,26
2671,25
2672,25
2673,25
2674,25
2675,25
2676,25
2677,25
2678,25
2679,25
2680,25
2681,25
2682,25
2683,26
2684,26
2685,25
2686,25
2687,25
2688,26
2689,26
2690,26
2691,26
2692,26
2693,26
2694,26
2695,27
2696,26
2697,27
2698,27
2699,27
2700,26
2701,26
2702,26
2703,26
2704,26
2705,26
2706,26
2707,26
2708,26
2709,26
2710,26
2711,27
2712,27
2713,27
2714,26
2715,26
2716,26
2717,26
2718,26
2719,26
2720,26
2721,26
2722,26
2723,26
2724,26
2725,26
2726,26
2727,26
2728,26
2729,26
2730,26
2731,26
2732,27
2733,27
2734,26
2735,26
2736,26
2737,26
2738,26
2739,26
2740,26
2741,26
2742,26
2743,26
2744,26
2745,26
2746,26
2747,26
2748,26
2749,26
2750,26
2751,26
2752,26
2753,26
2754,26
2755,26
2756,26
2757,26
2758,26
2759,26
2760,26
2761,26
2762,26
2763,26
2764,26
2765,26
2766,26
2767,26
2768,26
2769,26
2770,26
2771,26
2772,26
2773,27
2774,27
2775,27
2776,27
2777,27
2778,27
2779,26
2780,26
2781,26
2782,26
2783,26
2784,26
2785,26
2786,26
2787,26
2788,26
2789,26
2790,26
2791,26
2792,26
2793,26
2794,26
2795,26
2796,26
2797,26
2798,26
2799,26
2800,26
2801,26
2802,26
2803,26
2804,26
2805,26
2806,26
2807,26
2808,26
2809,26
2810,26
2811,26
2812,26
2813,26
2814,26
2815,26
2816,26
2817,26
2818,26
2819,26
2820,26
2821,27
2822,27
2823,27
2824,27
2825,27
2826,27
2827,27
2828,27
2829,27
2830,27
2831,27
2832,27
2833,27
2834,27
2835,27
2836,27
2837,27
2838,27
2839,27
2840,27
2841,27
2842,27
2843,27
2844,27
2845,27
2846,27
2847,28
2848,28
2849,28
2850,28
2851,27
2852,27
2853,27
2854,27
2855,27
2856,27
2857,27
2858,28
2859,28
2860,28
2861,27
2862,27
2863,27
2864,27
2865,27
2866,27
2867,27
2868,28
2869,28
2870,29
2871,27
2872,27
2873,27
2874,28
2875,27
2876,27
2877,28
2878,28
2879,28
2880,28
2881,28
2882,28
2883,28
2884,28
2885,28
2886,28
2887,28
2888,28
2889,28
2890,28
2891,28
2892,29
2893,29
2894,29
2895,29
2896,29
2897,29
2898,28
2899,28
2900,29
2901,28
2902,28
2903,28
2904,28
2905,28
2906,28
2907,28
2908,28
2909,28
2910,28
2911,28
2912,28
2913,28
2914,28
2915,28
2916,28
2917,28
2918,28
2919,28
2920,28
2921,28
2922,28
2923,28
2924,28
2925,28
2926,28
2927,28
2928,29
2929,29
2930,29
2931,29
2932,29
2933,29
2934,29
2935,29
2936,29
2937,29
2938,30
2939,30
2940,29
2941,29
2942,29
2943,29
2944,29
2945,28
2946,28
2947,28
2948,28
2949,29
2950,28
2951,28
2952,28
2953,28
2954,28
2955,28
2956,28
2957,28
2958,28
2959,28
2960,28
2961,28
2962,28
2963,28
2964,29
2965,29
2966,28
2967,28
2968,28
2969,28
2970,28
2971,29
2972,29
2973,29
2974,29
2975,29
2976,29
2977,29
2978,29
2979,29
2980,29
2981,30
2982,30
2983,30
2984,29
2985,29
2986,29
2987,29
2988,29
2989,29
2990,29
2991,29
2992,29
2993,29
2994,30
2995,29
2996,29
2997,29
2998,29
2999,29
3000,29
3001,29
3002,29
3003,29
3004,29
3005,29
3006,29
3007,29
3008,29
3009,29
3010,29
3011,29
3012,29
3013,29
3014,29
3015,30
3016,30
3017,30
3018,30
3019,30
3020,30
3021,30
3022,30
3023,30
3024,29
3025,29
3026,30
3027,30
3028,29
3029,29
3030,29
3031,29
3032,29
3033,30
3034,30
3035,30
3036,29
3037,29
3038,29
3039,29
3040,29
3041,29
3042,29
3043,29
3044,29
3045,29
3046,29
3047,29
3048,30
3049,30
3050,29
3051,29
3052,29
3053,30
3054,29
3055,29
3056,29
3057,29
3058,29
3059,29
3060,29
3061,29
3062,29
3063,29
3064,29
3065,29
3066,29
3067,29
3068,29
3069,29
3070,29
3071,29
3072,30
3073,30
3074,30
3075,30
3076,30
3077,30
3078,30
3079,30
3080,30
3081,30
3082,29
3083,29
3084,29
3085,31
3086,30
3087,30
3088,29
3089,29
3090,29
3091,29
3092,29
3093,29
3094,30
3095,29
3096,29
3097,29
3098,29
3099,29
3100,29
3101,29
3102,29
3103,29
3104,29
3105,29
3106,29
3107,29
3108,30
3109,30
3110,30
3111,29
3112,29
3113,29
3114,29
3115,30
3116,30
3117,29
3118,29
3119,29
3120,29
3121,30
3122,29
3123,29
3124,29
3125,29
3126,29
3127,29
3128,29
3129,29
3130,29
3131,29
3132,30
3133,30
3134,30
3135,30
3136,30
3137,30
3138,30
3139,29
3140,29
3141,29
3142,29
3143,29
3144,29
3145,29
3146,29
3147,29
3148,29
3149,29
3150,29
3151,30
3152,29
3153,29
3154,29
3155,29
3156,29
3157,29
3158,29
3159,29
3160,29
3161,30
3162,30
3163,30
3164,30
3165,30
3166,30
3167,30
3168,30
3169,29
3170,30
3171,29
3172,30
3173,30
3174,30
3175,30
3176,29
3177,29
3178,29
3179,29
3180,29
3181,29
3182,29
3183,29
3184,29
3185,29
3186,29
3187,29
3188,30
3189,30
3190,30
3191,30
3192,30
3193,30
3194,30
3195,30
3196,30
3197,30
3198,30
3199,30
3200,30
3201,30
3202,30
3203,30
3204,29
3205,29
3206,29
3207,29
3208,29
3209,29
3210,29
3211,29
3212,29
3213,29
3214,29
3215,28
3216,28
3217,28
3218,29
3219,29
3220,28
3221,28
3222,28
3223,28
3224,28
3225,28
3226,28
3227,28
3228,28
3229,28
3230,28
3231,28
3232,28
3233,28
3234,28
3235,28
3236,28
3237,28
3238,28
3239,28
3240,28
3241,28
3242,28
3243,28
3244,28
3245,28
3246,28
3247,28
3248,28
3249,28
3250,28
3251,28
3252,28
3253,28
3254,28
3255,28
3256,28
3257,28
3258,28
3259,28
3260,28
3261,28
3262,28
3263,28
3264,28
3265,28
3266,28
3267,29
3268,29
3269,29
3270,29
3271,29
3272,29
3273,29
3274,28
3275,28
3276,28
3277,28
3278,28
3279,28
3280,29
3281,29
3282,28
3283,28
3284,28
3285,28
3286,29
3287,29
3288,29
3289,29
3290,30
3291,30
3292,30
3293,30
3294,31
3295,30
3296,30
3297,30
3298,30
3299,29
3300,29
3301,29
3302,29
3303,29
3304,29
3305,29
3306,30
3307,30
3308,30
3309,30
3310,30
3311,30
3312,30
3313,30
3314,30
3315,29
3316,29
3317,29
3318,29
3319,29
3320,29
3321,29
3322,29
3323,29
3324,30
3325,30
3326,29
3327,29
3328,29
3329,29
3330,29
3331,29
3332,30
3333,29
3334,29
3335,29
3336,29
3337,29
3338,29
3339,30
3340,30
3341,30
3342,30
3343,30
3344,31
3345,31
3346,31
3347,31
3348,30
3349,30
3350,30
3351,30
3352,30
3353,30
3354,30
3355,30
3356,30
3357,30
3358,31
3359,31
3360,32
3361,31
3362,30
3363,31
3364,30
3365,30
3366,30
3367,30
3368,29
3369,30
3370,30
3371,30
3372,29
3373,29
3374,29
3375,29
3376,29
3377,29
3378,29
3379,29
3380,29
3381,30
3382,29
3383,29
3384,29
3385,29
3386,29
3387,29
3388,29
3389,30
3390,29
3391,30
3392,30
3393,29
3394,29
3395,29
3396,29
3397,29
3398,29
3399,30
3400,29
3401,30
3402,29
3403,29
3404,29
3405,29
3406,29
3407,29
3408,29
3409,29
3410,29
3411,29
3412,29
3413,29
3414,29
3415,29
3416,29
3417,29
3418,29
3419,29
3420,29
3421,29
3422,29
3423,29
3424,29
3425,29
3426,29
3427,29
3428,29
3429,29
3430,29
3431,29
3432,29
3433,29
3434,30
3435,29
3436,29
3437,29
3438,29
3439,29
3440,29
3441,29
3442,29
3443,29
3444,29
3445,29
3446,29
3447,29
3448,29
3449,29
3450,29
3451,29
3452,29
3453,29
3454,29
3455,29
3456,29
3457,29
3458,29
3459,29
3460,30
3461,29
3462,29
3463,29
3464,29
3465,29
3466,29
3467,29
3468,29
3469,29
3470,29
3471,29
3472,29
3473,29
3474,29
3475,29
3476,29
3477,29
3478,29
3479,29
3480,29
3481,29
3482,29
3483,29
3484,29
3485,29
3486,29
3487,29
3488,29
3489,29
3490,29
3491,29
3492,30
3493,30
3494,30
3495,30
3496,29
3497,29
3498,29
3499,29
3500,29
3501,29
3502,29
3503,29
3504,29
3505,29
3506,29
3507,29
3508,30
3509,29
3510,29
3511,29
3512,29
3513,29
3514,29
3515,29
3516,29
3517,29
3518,30
3519,29
3520,29
3521,29
3522,29
3523,29
3524,29
3525,29
3526,29
3527,29
3528,29
3529,29
3530,29
3531,29
3532,29
3533,29
3534,29
3535,29
3536,29
3537,29
3538,29
3539,29
3540,29
3541,29
3542,29
3543,29
3544,29
3545,29
3546,29
3547,29
3548,29
3549,29
3550,29
3551,30
3552,30
3553,30
3554,30
3555,30
3556,30
3557,30
3558,30
3559,30
3560,30
3561,30
3562,30
3563,30
3564,30
3565,30
3566,30
3567,30
3568,30
3569,30
3570,30
3571,30
3572,30
3573,30
3574,30
3575,30
3576,30
3577,31
3578,31
3579,31
3580,31
3581,31
3582,31
3583,31
3584,31
3585,31
3586,31
3587,31
3588,31
3589,31
3590,31
3591,31
3592,31
3593,31
3594,31
3595,30
3596,30
3597,30
3598,30
3599,31
3600,31
3601,31
3602,31
3603,31
3604,31
3605,30
3606,30
3607,30
3608,30
3609,30
3610,30
3611,30
3612,30
3613,31
3614,31
3615,32
3616,32
3617,31
3618,31
3619,31
3620,31
3621,31
3622,30
3623,30
3624,30
3625,30
3626,30
3627,30
3628,30
3629,30
3630,30
3631,30
3632,30
3633,30
3634,30
3635,30
3636,30
3637,30
3638,30
3639,30
3640,30
3641,30
3642,30
3643,30
3644,30
3645,30
3646,30
3647,30
3648,30
3649,30
3650,30
3651,30
3652,30
3653,30
3654,30
3655,30
3656,30
3657,30
3658,30
3659,30
3660,30
3661,30
3662,30
3663,30
3664,30
3665,30
3666,30
3667,30
3668,30
3669,30
3670,30
3671,30
3672,30
3673,30
3674,30
3675,30
3676,30
3677,30
3678,30
3679,30
3680,30
3681,30
3682,30
3683,30
3684,30
3685,30
3686,30
3687,30
3688,30
3689,30
3690,30
3691,30
3692,30
3693,31
3694,31
3695,31
3696,31
3697,31
3698,31
3699,30
3700,30
3701,30
3702,30
3703,30
3704,30
3705,30
3706,30
3707,30
3708,30
3709,30
3710,30
3711,30
3712,30
3713,30
3714,30
3715,30
3716,30
3717,30
3718,30
3719,30
3720,30
3721,30
3722,30
3723,30
3724,30
3725,30
3726,30
3727,30
3728,30
3729,31
3730,31
3731,31
3732,31
3733,31
3734,30
3735,31
3736,31
3737,31
3738,31
3739,30
3740,30
3741,30
3742,30
3743,30
3744,30
3745,30
3746,30
3747,30
3748,30
3749,30
3750,30
3751,31
3752,31
3753,30
3754,30
3755,30
3756,30
3757,30
3758,30
3759,30
3760,30
3761,30
3762,30
3763,30
3764,31
3765,31
3766,30
3767,31
3768,31
3769,30
3770,30
3771,30
3772,30
3773,30
3774,30
3775,30
3776,30
3777,30
3778,30
3779,30
3780,30
3781,30
3782,30
3783,30
3784,30
3785,30
3786,30
3787,30
3788,30
3789,30
3790,30
3791,30
3792,30
3793,30
3794,30
3795,31
3796,30
3797,30
3798,30
3799,30
3800,30
3801,30
3802,30
3803,30
3804,30
3805,32
3806,32
3807,32
3808,32
3809,32
3810,32
3811,32
3812,32
3813,32
3814,32
3815,31
3816,31
3817,31
3818,32
3819,31
3820,31
3821,31
3822,31
3823,31
3824,31
3825,31
3826,31
3827,31
3828,31
3829,32
3830,32
3831,32
3832,32
3833,32
3834,31
3835,31
3836,32
3837,32
3838,32
3839,32
3840,32
3841,32
3842,32
3843,32
3844,32
3845,32
3846,32
3847,32
3848,32
3849,32
3850,32
3851,32
3852,33
3853,33
3854,32
3855,31
3856,31
3857,31
3858,31
3859,31
3860,31
3861,31
3862,31
3863,31
3864,31
3865,31
3866,32
3867,31
3868,31
3869,31
3870,32
3871,32
3872,31
3873,31
3874,31
3875,31
3876,31
3877,31
3878,31
3879,31
3880,31
3881,31
3882,31
3883,31
3884,31
3885,31
3886,31
3887,31
3888,31
3889,31
3890,31
3891,31
3892,31
3893,31
3894,32
3895,32
3896,31
3897,31
3898,31
3899,31
3900,31
3901,31
3902,31
3903,31
3904,31
3905,31
3906,31
3907,31
3908,31
3909,31
3910,31
3911,32
3912,31
3913,31
3914,31
3915,31
3916,31
3917,31
3918,31
3919,31
3920,31
3921,31
3922,31
3923,31
3924,31
3925,31
3926,31
3927,31
3928,31
3929,31
3930,31
3931,31
3932,31
3933,31
3934,31
3935,31
3936,31
3937,31
3938,31
3939,31
3940,31
3941,31
3942,31
3943,31
3944,32
3945,32
3946,32
3947,32
3948,31
3949,31
3950,31
3951,31
3952,31
3953,31
3954,31
3955,31
3956,31
3957,30
3958,30
3959,30
3960,31
3961,31
3962,30
3963,30
3964,30
3965,30
3966,30
3967,30
3968,30
3969,31
3970,30
3971,30
3972,30
3973,30
3974,30
3975,30
3976,30
3977,30
3978,30
3979,30
3980,30
3981,30
3982,30
3983,30
3984,30
3985,30
3986,30
3987,30
3988,30
3989,30
3990,30
3991,30
3992,30
3993,30
3994,30
3995,30
3996,30
3997,30
3998,30
3999,30
4000,30
4001,30
4002,30
4003,30
4004,30
4005,30
4006,31
4007,30
4008,30
4009,30
4010,30
4011,30
4012,30
4013,32
4014,32
4015,32
4016,32
4017,31
4018,31
4019,31
4020,31
4021,31
4022,31
4023,30
4024,30
4025,30
4026,30
4027,30
4028,30
4029,30
4030,30
4031,31
4032,31
4033,31
4034,30
4035,30
4036,30
4037,30
4038,30
4039,30
4040,30
4041,30
4042,31
4043,31
4044,31
4045,31
4046,32
4047,30
4048,30
4049,30
4050,30
4051,30
4052,30
4053,30
4054,30
4055,30
4056,30
4057,30
4058,30
4059,30
4060,30
4061,30
4062,30
4063,30
4064,30
4065,30
4066,30
4067,30
4068,30
4069,30
4070,30
4071,30
4072,30
4073,30
4074,30
4075,30
4076,30
4077,30
4078,30
4079,30
4080,30
4081,30
4082,30
4083,30
4084,31
4085,30
4086,30
4087,30
4088,30
4089,30
4090,30
4091,30
4092,30
4093,30
4094,30
4095,30
4096,30
4097,30
4098,30
4099,30
4100,30
4101,30
4102,30
4103,30
4104,31
4105,31
4106,31
4107,31
4108,31
4109,31
4110,31
4111,32
4112,32
4113,32
4114,32
4115,32
4116,32
4117,32
4118,32
4119,32
4120,32
4121,31
4122,30
4123,30
4124,31
4125,30
4126,30
4127,30
4128,30
4129,30
4130,30
4131,30
4132,30
4133,30
4134,30
4135,30
4136,30
4137,30
4138,30
4139,30
4140,30
4141,30
4142,30
4143,31
4144,30
4145,30
4146,30
4147,30
4148,31
4149,31
4150,31
4151,31
4152,31
4153,32
4154,31
4155,31
4156,31
4157,32
4158,32
4159,33
4160,33
4161,33
4162,33
4163,32
4164,32
4165,32
4166,32
4167,32
4168,32
4169,32
4170,32
4171,32
4172,33
4173,33
4174,34
4175,33
4176,33
4177,33
4178,32
4179,32
4180,32
4181,32
4182,31
4183,31
4184,31
4185,31
4186,31
4187,31
4188,31
4189,31
4190,31
4191,32
4192,32
4193,32
4194,32
4195,33
4196,33
4197,33
4198,33
4199,33
4200,33
4201,32
4202,32
4203,32
4204,34
4205,33
4206,33
4207,33
4208,32
4209,32
4210,31
4211,32
4212,31
4213,31
4214,30
4215,30
4216,30
4217,30
4218,30
4219,30
4220,30
4221,30
4222,30
4223,30
4224,30
4225,30
4226,30
4227,30
4228,30
4229,30
4230,30
4231,30
4232,30
4233,30
4234,31
4235,30
4236,31
4237,31
4238,31
4239,31
4240,31
4241,31
4242,31
4243,30
4244,30
4245,30
4246,30
4247,30
4248,30
4249,30
4250,30
4251,30
4252,30
4253,30
4254,30
4255,30
4256,30
4257,30
4258,30
4259,30
4260,30
4261,30
4262,30
4263,30
4264,30
4265,30
4266,30
4267,30
4268,30
4269,30
4270,30
4271,30
4272,30
4273,30
4274,30
4275,30
4276,30
4277,30
4278,30
4279,30
4280,30
4281,30
4282,30
4283,30
4284,30
4285,29
4286,29
4287,29
4288,29
4289,29
4290,29
4291,30
4292,30
4293,30
4294,30
4295,30
4296,30
4297,30
4298,30
4299,30
4300,31
4301,30
4302,30
4303,30
4304,29
4305,29
4306,29
4307,29
4308,29
4309,30
4310,29
4311,29
4312,29
4313,29
4314,29
4315,29
4316,29
4317,29
4318,30
4319,29
4320,29
4321,29
4322,29
4323,29
4324,29
4325,29
4326,29
4327,29
4328,29
4329,29
4330,29
4331,29
4332,29
4333,29
4334,29
4335,29
4336,29
4337,30
4338,29
4339,29
4340,29
4341,29
4342,29
4343,29
4344,30
4345,30
4346,30
4347,30
4348,30
4349,30
4350,30
4351,31
4352,30
4353,30
4354,30
4355,30
4356,30
4357,30
4358,30
4359,30
4360,30
4361,30
4362,30
4363,30
4364,30
4365,30
4366,30
4367,32
4368,31
4369,31
4370,30
4371,31
4372,31
4373,30
4374,30
4375,30
4376,30
4377,30
4378,30
4379,30
4380,30
4381,30
4382,30
4383,30
4384,30
4385,30
4386,30
4387,30
4388,30
4389,31
4390,31
4391,31
4392,31
4393,31
4394,31
4395,31
4396,31
4397,32
4398,32
4399,31
4400,31
4401,31
4402,31
4403,31
4404,31
4405,31
4406,31
4407,31
4408,32
4409,31
4410,31
4411,31
4412,31
4413,31
4414,31
4415,31
4416,31
4417,31
4418,31
4419,31
4420,31
4421,31
4422,31
4423,31
4424,31
4425,31
4426,31
4427,31
4428,31
4429,31
4430,30
4431,30
4432,30
4433,30
4434,31
4435,30
4436,32
4437,32
4438,30
4439,30
4440,30
4441,30
4442,30
4443,30
4444,30
4445,30
4446,30
4447,30
4448,30
4449,30
4450,30
4451,30
4452,30
4453,30
4454,30
4455,30
4456,30
4457,30
4458,31
4459,31
4460,31
4461,31
4462,31
4463,30
4464,30
4465,31
4466,31
4467,30
4468,30
4469,30
4470,30
4471,30
4472,30
4473,30
4474,30
4475,30
4476,30
4477,30
4478,30
4479,30
4480,30
4481,30
4482,30
4483,31
4484,31
4485,30
4486,30
4487,30
4488,30
4489,30
4490,30
4491,30
4492,30
4493,30
4494,30
4495,30
4496,31
4497,31
4498,31
4499,30
4500,30
4501,30
4502,30
4503,30
4504,30
4505,30
4506,30
4507,30
4508,30
4509,30
4510,30
4511,30
4512,30
4513,30
4514,30
4515,30
4516,30
4517,30
4518,30
4519,30
4520,30
4521,31
4522,30
4523,30
4524,30
4525,30
4526,30
4527,30
4528,30
4529,30
4530,30
4531,30
4532,30
4533,30
4534,30
4535,30
4536,30
4537,31
4538,30
4539,30
4540,30
4541,30
4542,30
4543,30
4544,30
4545,30
4546,30
4547,30
4548,30
4549,30
4550,30
4551,30
4552,29
4553,29
4554,29
4555,29
4556,29
4557,29
4558,29
4559,30
4560,30
4561,30
4562,29
4563,29
4564,29
4565,29
4566,29
4567,29
4568,29
4569,29
4570,29
4571,29
4572,29
4573,29
4574,30
4575,30
4576,29
4577,29
4578,29
4579,29
4580,29
4581,29
4582,29
4583,29
4584,29
4585,29
4586,29
4587,29
4588,29
4589,30
4590,29
4591,29
4592,29
4593,29
4594,29
4595,29
4596,29
4597,29
4598,29
4599,30
4600,29
4601,30
4602,29
4603,29
4604,29
4605,29
4606,29
4607,29
4608,29
4609,29
4610,29
4611,29
4612,30
4613,29
4614,29
4615,29
4616,29
4617,30
4618,29
4619,29
4620,29
4621,29
4622,29
4623,29
4624,29
4625,29
4626,29
4627,29
4628,29
4629,29
4630,29
4631,29
4632,29
4633,29
4634,29
4635,29
4636,29
4637,29
4638,31
4639,32
4640,31
4641,31
4642,31
4643,30
4644,30
4645,30
4646,30
4647,31
4648,31
4649,30
4650,30
4651,30
4652,30
4653,30
4654,30
4655,30
4656,30
4657,30
4658,30
4659,30
4660,30
4661,30
4662,30
4663,30
4664,30
4665,30
4666,30
4667,30
4668,30
4669,30
4670,30
4671,30
4672,30
4673,30
4674,30
4675,30
4676,30
4677,31
4678,30
4679,30
4680,30
4681,29
4682,29
4683,29
4684,29
4685,29
4686,29
4687,29
4688,29
4689,29
4690,29
4691,29
4692,29
4693,29
4694,29
4695,29
4696,29
4697,29
4698,29
4699,29
4700,29
4701,29
4702,29
4703,29
4704,30
4705,30
4706,30
4707,30
4708,30
4709,30
4710,30
4711,30
4712,30
4713,30
4714,30
4715,30
4716,30
4717,30
4718,30
4719,30
4720,30
4721,30
4722,31
4723,30
4724,30
4725,30
4726,30
4727,30
4728,30
4729,30
4730,30
4731,30
4732,31
4733,30
4734,30
4735,30
4736,30
4737,30
4738,30
4739,30
4740,30
4741,30
4742,30
4743,30
4744,30
4745,30
4746,30
4747,30
4748,30
4749,30
4750,30
4751,30
4752,30
4753,31
4754,31
4755,31
4756,30
4757,30
4758,30
4759,30
4760,30
4761,30
4762,30
4763,30
4764,30
4765,30
4766,30
4767,30
4768,30
4769,30
4770,30
4771,30
4772,30
4773,30
4774,30
4775,30
4776,30
4777,30
4778,30
4779,30
4780,30
4781,30
4782,30
4783,30
4784,30
4785,30
4786,30
4787,30
4788,30
4789,30
4790,30
4791,30
4792,30
4793,30
4794,30
4795,30
4796,30
4797,30
4798,30
4799,30
4800,30
4801,30
4802,30
4803,30
4804,30
4805,30
4806,30
4807,30
4808,30
4809,30
4810,30
4811,30
4812,30
4813,31
4814,30
4815,30
4816,30
4817,30
4818,30
4819,30
4820,30
4821,30
4822,30
4823,30
4824,30
4825,30
4826,30
4827,30
4828,30
4829,30
4830,31
4831,30
4832,30
4833,30
4834,30
4835,30
4836,30
4837,30
4838,30
4839,30
4840,30
4841,30
4842,30
4843,30
4844,30
4845,30
4846,30
4847,30
4848,30
4849,30
4850,30
4851,30
4852,30
4853,30
4854,30
4855,30
4856,30
4857,30
4858,30
4859,30
4860,30
4861,30
4862,30
4863,30
4864,30
4865,30
4866,30
4867,31
4868,30
4869,30
4870,30
4871,30
4872,30
4873,30
4874,30
4875,30
4876,30
4877,30
4878,30
4879,30
4880,30
4881,30
4882,30
4883,30
4884,30
4885,30
4886,30
4887,30
4888,30
4889,30
4890,30
4891,30
4892,30
4893,30
4894,31
4895,31
4896,31
4897,31
4898,31
4899,31
4900,31
4901,31
4902,31
4903,31
4904,31
4905,31
4906,31
4907,31
4908,31
4909,31
4910,31
4911,31
4912,31
4913,31
4914,31
4915,31
4916,31
4917,31
4918,31
4919,31
4920,31
4921,31
4922,31
4923,31
4924,31
4925,31
4926,31
4927,32
4928,31
4929,31
4930,31
4931,31
4932,31
4933,31
4934,31
4935,31
4936,31
4937,33
4938,32
4939,32
4940,32
4941,32
4942,32
4943,32
4944,32
4945,32
4946,32
4947,33
4948,33
4949,32
4950,32
4951,32
4952,32
4953,32
4954,32
4955,32
4956,32
4957,32
4958,32
4959,32
4960,32
4961,32
4962,32
4963,31
4964,31
4965,31
4966,31
4967,31
4968,31
4969,31
4970,31
4971,31
4972,31
4973,31
4974,31
4975,31
4976,31
4977,31
4978,31
4979,31
4980,31
4981,31
4982,31
4983,32
4984,31
4985,31
4986,31
4987,31
4988,31
4989,31
4990,31
4991,31
4992,31
4993,31
4994,31
4995,31
4996,31
4997,31
4998,31
4999,31
5000,31
5001,31
5002,31
5003,31
5004,32
5005,32
5006,32
5007,32
5008,31
5009,31
5010,31
5011,31
5012,31
5013,31
5014,31
5015,31
5016,31
5017,31
5018,31
5019,31
5020,31
5021,31
5022,31
5023,32
5024,32
5025,32
5026,32
5027,32
5028,32
5029,32
5030,32
5031,32
5032,32
5033,32
5034,32
5035,32
5036,32
5037,32
5038,33
5039,33
5040,33
5041,33
5042,33
5043,33
5044,33
5045,33
5046,33
5047,33
5048,33
5049,32
5050,32
5051,32
5052,32
5053,32
5054,32
5055,32
5056,32
5057,32
5058,32
5059,32
5060,32
5061,32
5062,32
5063,32
5064,32
5065,32
5066,31
5067,31
5068,32
5069,32
5070,32
5071,31
5072,31
5073,31
5074,31
5075,31
5076,31
5077,32
5078,32
5079,31
5080,31
5081,31
5082,31
5083,31
5084,31
5085,31
5086,31
5087,31
5088,31
5089,32
5090,33
5091,32
5092,31
5093,32
5094,32
5095,31
5096,31
5097,31
5098,31
5099,31
5100,31
5101,31
5102,31
5103,31
5104,31
5105,31
5106,31
5107,32
5108,32
5109,32
5110,32
5111,31
5112,31
5113,31
5114,31
5115,31
5116,31
5117,31
5118,31
5119,31
5120,31
5121,31
5122,31
5123,31
5124,32
5125,31
5126,31
5127,31
5128,31
5129,31
5130,31
5131,31
5132,31
5133,31
5134,31
5135,32
5136,32
5137,32
5138,32
5139,32
5140,32
5141,31
5142,31
5143,31
5144,31
5145,31
5146,31
5147,31
5148,31
5149,32
5150,32
5151,32
5152,32
5153,32
5154,31
5155,31
5156,31
5157,31
5158,31
5159,31
5160,31
5161,31
5162,32
5163,32
5164,32
5165,31
5166,31
5167,31
5168,31
5169,31
5170,31
5171,31
5172,31
5173,31
5174,31
5175,31
5176,31
5177,31
5178,31
5179,32
5180,32
5181,32
5182,32
5183,32
5184,31
5185,31
5186,31
5187,31
5188,31
5189,31
5190,31
5191,33
5192,31
5193,31
5194,31
5195,31
5196,31
5197,31
5198,31
5199,31
5200,31
5201,32
5202,32
5203,32
5204,32
5205,32
5206,32
5207,32
5208,32
5209,32
5210,32
5211,32
5212,32
5213,32
5214,32
5215,31
5216,31
5217,31
5218,31
5219,31
5220,31
5221,31
5222,31
5223,32
5224,32
5225,31
5226,31
5227,31
5228,31
5229,31
5230,31
5231,31
5232,31
5233,31
5234,31
5235,31
5236,31
5237,31
5238,31
5239,31
5240,31
5241,31
5242,31
5243,31
5244,31
5245,31
5246,31
5247,31
5248,31
5249,31
5250,31
5251,31
5252,31
5253,31
5254,31
5255,31
5256,31
5257,31
5258,31
5259,31
5260,31
5261,31
5262,31
5263,31
5264,31
5265,31
5266,31
5267,32
5268,32
5269,32
5270,32
5271,32
5272,32
5273,31
5274,31
5275,31
5276,31
5277,31
5278,31
5279,31
5280,32
5281,32
5282,31
5283,31
5284,31
5285,31
5286,31
5287,31
5288,31
5289,32
5290,31
5291,31
5292,31
5293,31
5294,31
5295,31
5296,31
5297,31
5298,31
5299,31
5300,31
5301,31
5302,31
5303,31
5304,31
5305,31
5306,31
5307,31
5308,31
5309,31
5310,31
5311,31
5312,31
5313,31
5314,31
5315,32
5316,33
5317,33
5318,33
5319,32
5320,31
5321,31
5322,31
5323,31
5324,31
5325,31
5326,31
5327,31
5328,31
5329,31
5330,31
5331,31
5332,31
5333,31
5334,31
5335,31
5336,31
5337,31
5338,31
5339,31
5340,31
5341,31
5342,31
5343,31
5344,32
5345,32
5346,32
5347,32
5348,31
5349,31
5350,31
5351,31
5352,31
5353,31
5354,31
5355,31
5356,31
5357,31
5358,31
5359,32
5360,32
5361,31
5362,31
5363,31
5364,32
5365,33
5366,32
5367,32
5368,32
5369,32
5370,31
5371,31
5372,31
5373,31
5374,32
5375,32
5376,32
5377,31
5378,31
5379,31
5380,32
5381,32
5382,32
5383,32
5384,33
5385,32
5386,32
5387,32
5388,32
5389,32
5390,32
5391,32
5392,32
5393,32
5394,32
5395,32
5396,32
5397,32
5398,32
5399,32
5400,32
5401,32
5402,32
5403,32
5404,32
5405,32
5406,32
5407,32
5408,32
5409,32
5410,32
5411,32
5412,32
5413,32
5414,32
5415,32
5416,32
5417,32
5418,31
5419,31
5420,31
5421,31
5422,31
5423,31
5424,31
5425,31
5426,31
5427,31
5428,31
5429,31
5430,31
5431,31
5432,31
5433,31
5434,31
5435,31
5436,31
5437,31
5438,31
5439,31
5440,31
5441,31
5442,31
5443,31
5444,31
5445,31
5446,31
5447,31
5448,31
5449,31
5450,31
5451,31
5452,31
5453,31
5454,31
5455,31
5456,31
5457,31
5458,31
5459,31
5460,31
5461,31
5462,31
5463,31
5464,31
5465,31
5466,31
5467,31
5468,31
5469,31
5470,31
5471,31
5472,32
5473,31
5474,31
5475,31
5476,31
5477,31
5478,31
5479,31
5480,31
5481,31
5482,31
5483,31
5484,31
5485,32
5486,31
5487,32
5488,32
5489,31
5490,31
5491,31
5492,31
5493,31
5494,31
5495,31
5496,31
5497,31
5498,31
5499,31
5500,31
5501,31
5502,31
5503,31
5504,31
5505,31
5506,31
5507,31
5508,31
5509,31
5510,31
5511,31
5512,31
5513,31
5514,31
5515,31
5516,31
5517,31
5518,31
5519,31
5520,31
5521,31
5522,31
5523,31
5524,31
5525,31
5526,31
5527,31
5528,31
5529,31
5530,31
5531,31
5532,31
5533,31
5534,31
5535,31
5536,32
5537,31
5538,31
5539,31
5540,31
5541,31
5542,31
5543,31
5544,31
5545,32
5546,32
5547,31
5548,31
5549,31
5550,31
5551,31
5552,31
5553,31
5554,31
5555,31
5556,31
5557,32
5558,32
5559,32
5560,31
5561,31
5562,31
5563,31
5564,31
5565,31
5566,31
5567,31
5568,31
5569,31
5570,31
5571,31
5572,31
5573,31
5574,31
5575,31
5576,31
5577,31
5578,31
5579,31
5580,31
5581,31
5582,32
5583,32
5584,32
5585,32
5586,32
5587,32
5588,32
5589,32
5590,32
5591,32
5592,32
5593,32
5594,33
5595,31
5596,31
5597,31
5598,31
5599,31
5600,31
5601,31
5602,31
5603,31
5604,31
5605,31
5606,31
5607,31
5608,31
5609,31
5610,31
5611,31
5612,31
5613,31
5614,31
5615,31
5616,31
5617,31
5618,31
5619,31
5620,31
5621,31
5622,31
5623,31
5624,31
5625,31
5626,32
5627,31
5628,31
5629,31
5630,31
5631,31
5632,32
5633,31
5634,31
5635,31
5636,31
5637,31
5638,31
5639,31
5640,31
5641,31
5642,31
5643,31
5644,31
5645,31
5646,31
5647,31
5648,31
5649,31
5650,31
5651,31
5652,31
5653,31
5654,31
5655,31
5656,31
5657,31
5658,31
5659,31
5660,31
5661,31
5662,31
5663,32
5664,31
5665,31
5666,31
5667,31
5668,31
5669,31
5670,31
5671,31
5672,31
5673,31
5674,31
5675,31
5676,31
5677,31
5678,31
5679,31
5680,31
5681,31
5682,31
5683,31
5684,31
5685,31
5686,32
5687,32
5688,32
5689,32
5690,31
5691,31
5692,31
5693,31
5694,31
5695,31
5696,31
5697,31
5698,31
5699,31
5700,31
5701,31
5702,31
5703,31
5704,31
5705,31
5706,31
5707,31
5708,32
5709,31
5710,31
5711,31
5712,31
5713,31
5714,31
5715,31
5716,31
5717,31
5718,31
5719,32
5720,31
5721,31
5722,31
5723,32
5724,32
5725,32
5726,32
5727,32
5728,32
5729,32
5730,32
5731,32
5732,32
5733,32
5734,32
5735,32
5736,32
5737,32
5738,31
5739,31
5740,31
5741,31
5742,32
5743,32
5744,32
5745,32
5746,32
5747,32
5748,33
5749,31
5750,31
5751,31
5752,31
5753,31
5754,31
5755,31
5756,31
5757,32
5758,31
5759,31
5760,31
5761,31
5762,31
5763,31
5764,31
5765,31
5766,31
5767,31
5768,31
5769,31
5770,31
5771,31
5772,31
5773,31
5774,31
5775,31
5776,31
5777,31
5778,31
5779,31
5780,31
5781,31
5782,31
5783,31
5784,31
5785,31
5786,31
5787,31
5788,31
5789,31
5790,31
5791,31
5792,31
5793,31
5794,31
5795,31
5796,31
5797,31
5798,31
5799,31
5800,31
5801,31
5802,31
5803,31
5804,31
5805,31
5806,32
5807,32
5808,33
5809,33
5810,32
5811,32
5812,32
5813,32
5814,32
5815,32
5816,32
5817,33
5818,32
5819,32
5820,32
5821,32
5822,32
5823,32
5824,32
5825,32
5826,32
5827,32
5828,32
5829,32
5830,31
5831,31
5832,31
5833,31
5834,31
5835,31
5836,31
5837,31
5838,32
5839,31
5840,31
5841,31
5842,31
5843,31
5844,31
5845,31
5846,31
5847,31
5848,31
5849,31
5850,31
5851,31
5852,31
5853,31
5854,31
5855,31
5856,31
5857,31
5858,31
5859,31
5860,31
5861,31
5862,31
5863,31
5864,31
5865,31
5866,31
5867,31
5868,31
5869,32
5870,32
5871,32
5872,32
5873,32
5874,31
5875,31
5876,31
5877,31
5878,31
5879,31
5880,31
5881,31
5882,31
5883,31
5884,31
5885,31
5886,31
5887,31
5888,32
5889,32
5890,32
5891,31
5892,31
5893,31
5894,31
5895,31
5896,31
5897,31
5898,31
5899,31
5900,31
5901,31
5902,31
5903,31
5904,31
5905,31
5906,32
5907,32
5908,33
5909,32
5910,32
5911,32
5912,32
5913,32
5914,32
5915,32
5916,32
5917,32
5918,32
5919,32
5920,32
5921,32
5922,32
5923,32
5924,32
5925,32
5926,32
5927,32
5928,32
5929,32
5930,32
5931,32
5932,32
5933,32
5934,32
5935,32
5936,32
5937,32
5938,32
5939,32
5940,32
5941,32
5942,32
5943,32
5944,32
5945,32
5946,32
5947,32
5948,32
5949,32
5950,32
5951,32
5952,32
5953,32
5954,31
5955,31
5956,31
5957,31
5958,31
5959,31
5960,31
5961,31
5962,31
5963,31
5964,31
5965,31
5966,31
5967,32
5968,31
5969,31
5970,31
5971,31
5972,32
5973,32
5974,32
5975,32
5976,32
5977,32
5978,32
5979,31
5980,31
5981,31
5982,31
5983,31
5984,32
5985,32
5986,31
5987,32
5988,31
5989,31
5990,31
5991,31
5992,31
5993,31
5994,31
5995,31
5996,32
5997,32
5998,32
5999,33
6000,33
6001,33
6002,33
6003,32
6004,32
6005,32
6006,32
6007,32
6008,31
6009,31
6010,31
6011,31
6012,31
6013,31
6014,31
6015,31
6016,31
6017,31
6018,31
6019,31
6020,31
6021,31
6022,31
6023,31
6024,31
6025,32
6026,32
6027,32
6028,32
6029,31
6030,31
6031,31
6032,31
6033,31
6034,31
6035,31
6036,31
6037,31
6038,31
6039,31
6040,31
6041,31
6042,31
6043,31
6044,31
6045,31
6046,31
6047,31
6048,31
6049,31
6050,31
6051,31
6052,31
6053,31
6054,31
6055,31
6056,31
6057,31
6058,32
6059,32
6060,32
6061,32
6062,32
6063,32
6064,32
6065,32
6066,32
6067,32
6068,32
6069,32
6070,32
6071,32
6072,32
6073,32
6074,32
6075,32
6076,32
6077,32
6078,32
6079,32
6080,32
6081,32
6082,33
6083,33
6084,33
6085,33
6086,33
6087,34
6088,34
6089,34
6090,34
6091,34
6092,34
6093,33
6094,33
6095,33
6096,33
6097,33
6098,33
6099,33
6100,33
6101,33
6102,33
6103,33
6104,33
6105,33
6106,32
6107,32
6108,32
6109,32
6110,32
6111,32
6112,32
6113,32
6114,32
6115,32
6116,32
6117,32
6118,32
6119,32
6120,32
6121,32
6122,32
6123,32
6124,33
6125,33
6126,32
6127,32
6128,32
6129,33
6130,33
6131,33
6132,33
6133,33
6134,33
6135,33
6136,33
6137,33
6138,33
6139,33
6140,32
6141,32
6142,32
6143,32
6144,32
6145,32
6146,32
6147,32
6148,32
6149,32
6150,32
6151,32
6152,32
6153,32
6154,32
6155,32
6156,32
6157,32
6158,32
6159,32
6160,32
6161,32
6162,32
6163,32
6164,32
6165,32
6166,32
6167,32
6168,32
6169,32
6170,32
6171,32
6172,32
6173,32
6174,32
6175,32
6176,32
6177,32
6178,32
6179,32
6180,32
6181,32
6182,32
6183,32
6184,33
6185,33
6186,33
6187,33
6188,33
6189,33
6190,33
6191,33
6192,32
6193,32
6194,32
6195,32
6196,32
6197,32
6198,33
6199,32
6200,32
6201,33
6202,33
6203,33
6204,33
6205,33
6206,33
6207,33
6208,33
6209,33
6210,34
6211,34
6212,35
6213,35
6214,35
6215,34
6216,33
6217,33
6218,33
6219,33
6220,33
6221,33
6222,33
6223,33
6224,33
6225,33
6226,33
6227,34
6228,34
6229,33
6230,33
6231,33
6232,33
6233,33
6234,33
6235,33
6236,33
6237,33
6238,33
6239,33
6240,33
6241,33
6242,33
6243,33
6244,33
6245,33
6246,33
6247,34
6248,33
6249,34
6250,34
6251,34
6252,35
6253,34
6254,34
6255,34
6256,34
6257,34
6258,34
6259,34
6260,34
6261,34
6262,34
6263,34
6264,34
6265,34
6266,34
6267,34
6268,34
6269,34
6270,34
6271,34
6272,34
6273,34
6274,34
6275,34
6276,34
6277,34
6278,34
6279,34
6280,34
6281,34
6282,34
6283,34
6284,34
6285,34
6286,34
6287,34
6288,34
6289,34
6290,34
6291,35
6292,34
6293,35
6294,34
6295,34
6296,34
6297,34
6298,34
6299,34
6300,34
6301,34
6302,34
6303,34
6304,34
6305,34
6306,34
6307,35
6308,35
6309,35
6310,35
6311,35
6312,35
6313,35
6314,36
6315,35
6316,35
6317,35
6318,35
6319,34
6320,36
6321,34
6322,34
6323,34
6324,34
6325,34
6326,34
6327,33
6328,33
6329,34
6330,35
6331,34
6332,34
6333,33
6334,33
6335,33
6336,33
6337,33
6338,33
6339,33
6340,33
6341,33
6342,33
6343,33
6344,33
6345,33
6346,33
6347,33
6348,33
6349,33
6350,33
6351,33
6352,33
6353,33
6354,33
6355,33
6356,33
6357,33
6358,33
6359,33
6360,33
6361,33
6362,33
6363,33
6364,33
6365,33
6366,33
6367,33
6368,33
6369,33
6370,33
6371,33
6372,33
6373,33
6374,33
6375,33
6376,33
6377,34
6378,33
6379,33
6380,34
6381,33
6382,33
6383,34
6384,34
6385,33
6386,33
6387,33
6388,34
6389,35
6390,33
6391,33
6392,33
6393,33
6394,33
6395,33
6396,33
6397,33
6398,34
6399,33
6400,33
6401,33
6402,33
6403,33
6404,33
6405,33
6406,33
6407,33
6408,33
6409,33
6410,33
6411,33
6412,33
6413,33
6414,33
6415,33
6416,33
6417,33
6418,33
6419,33
6420,33
6421,33
6422,33
6423,33
6424,33
6425,33
6426,33
6427,33
6428,33
6429,33
6430,33
6431,33
6432,33
6433,33
6434,33
6435,33
6436,34
6437,33
6438,33
6439,33
6440,33
6441,33
6442,33
6443,33
6444,33
6445,33
6446,33
6447,33
6448,33
6449,33
6450,33
6451,33
6452,34
6453,34
6454,34
6455,34
6456,33
6457,33
6458,33
6459,33
6460,33
6461,33
6462,33
6463,33
6464,33
6465,33
6466,33
6467,33
6468,33
6469,33
6470,33
6471,33
6472,33
6473,33
6474,33
6475,33
6476,33
6477,33
6478,33
6479,34
6480,34
6481,35
6482,36
6483,36
6484,34
6485,34
6486,34
6487,34
6488,34
6489,34
6490,35
6491,36
6492,36
6493,37
6494,35
6495,34
6496,34
6497,34
6498,34
6499,34
6500,34
6501,34
6502,34
6503,35
6504,35
6505,36
6506,36
6507,35
6508,35
6509,35
6510,34
6511,34
6512,34
6513,34
6514,34
6515,34
6516,34
6517,34
6518,34
6519,34
6520,34
6521,35
6522,36
6523,35
6524,35
6525,35
6526,34
6527,34
6528,34
6529,34
6530,34
6531,34
6532,34
6533,34
6534,34
6535,34
6536,34
6537,34
6538,34
6539,34
6540,34
6541,34
6542,34
6543,34
6544,34
6545,34
6546,34
6547,34
6548,34
6549,34
6550,34
6551,34
6552,34
6553,34
6554,34
6555,34
6556,34
6557,34
6558,34
6559,34
6560,34
6561,34
6562,34
6563,34
6564,34
6565,34
6566,34
6567,34
6568,34
6569,34
6570,34
6571,34
6572,34
6573,34
6574,34
6575,34
6576,34
6577,34
6578,34
6579,35
6580,35
6581,35
6582,35
6583,35
6584,35
6585,35
6586,34
6587,34
6588,34
6589,34
6590,34
6591,34
6592,34
6593,34
6594,34
6595,34
6596,34
6597,34
6598,34
6599,34
6600,34
6601,35
6602,34
6603,34
6604,34
6605,34
6606,34
6607,34
6608,34
6609,34
6610,34
6611,34
6612,34
6613,34
6614,34
6615,34
6616,34
6617,34
6618,34
6619,34
6620,34
6621,34
6622,34
6623,34
6624,34
6625,34
6626,34
6627,34
6628,34
6629,34
6630,34
6631,34
6632,34
6633,34
6634,34
6635,34
6636,34
6637,34
6638,34
6639,34
6640,34
6641,34
6642,34
6643,34
6644,34
6645,34
6646,34
6647,34
6648,34
6649,34
6650,34
6651,34
6652,34
6653,35
6654,35
6655,35
6656,35
6657,36
6658,37
6659,36
6660,35
6661,35
6662,35
6663,35
6664,35
6665,34
6666,34
6667,34
6668,34
6669,34
6670,34
6671,34
6672,34
6673,34
6674,34
6675,34
6676,34
6677,34
6678,35
6679,35
6680,35
6681,35
6682,34
6683,35
6684,35
6685,35
6686,34
6687,34
6688,34
6689,34
6690,34
6691,34
6692,34
6693,34
6694,34
6695,34
6696,34
6697,34
6698,34
6699,34
6700,34
6701,34
6702,34
6703,34
6704,35
6705,35
6706,35
6707,35
6708,34
6709,34
6710,34
6711,35
6712,35
6713,35
6714,34
6715,34
6716,34
6717,34
6718,34
6719,34
6720,34
6721,34
6722,34
6723,34
6724,34
6725,34
6726,34
6727,34
6728,34
6729,34
6730,34
6731,34
6732,34
6733,34
6734,34
6735,34
6736,34
6737,34
6738,34
6739,34
6740,34
6741,34
6742,34
6743,34
6744,34
6745,34
6746,34
6747,34
6748,34
6749,34
6750,34
6751,34
6752,34
6753,34
6754,34
6755,34
6756,34
6757,34
6758,34
6759,34
6760,34
6761,34
6762,34
6763,34
6764,34
6765,34
6766,34
6767,34
6768,34
6769,34
6770,34
6771,34
6772,35
6773,34
6774,34
6775,34
6776,34
6777,34
6778,34
6779,34
6780,34
6781,34
6782,34
6783,34
6784,34
6785,34
6786,34
6787,34
6788,35
6789,34
6790,34
6791,34
6792,34
6793,34
6794,34
6795,35
6796,34
6797,34
6798,34
6799,35
6800,34
6801,34
6802,34
6803,34
6804,34
6805,34
6806,34
6807,34
6808,34
6809,34
6810,34
6811,34
6812,34
6813,34
6814,34
6815,34
6816,34
6817,34
6818,34
6819,34
6820,34
6821,34
6822,34
6823,34
6824,34
6825,34
6826,34
6827,34
6828,34
6829,34
6830,34
6831,34
6832,34
6833,34
6834,34
6835,34
6836,34
6837,35
6838,35
6839,34
6840,34
6841,34
6842,34
6843,34
6844,34
6845,34
6846,34
6847,34
6848,35
6849,34
6850,34
6851,34
6852,34
6853,34
6854,34
6855,34
6856,34
6857,34
6858,34
6859,34
6860,34
6861,34
6862,34
6863,34
6864,34
6865,34
6866,34
6867,34
6868,34
6869,34
6870,34
6871,35
6872,35
6873,35
6874,36
6875,36
6876,36
6877,36
6878,35
6879,34
6880,34
6881,34
6882,34
6883,34
6884,34
6885,34
6886,34
6887,35
6888,35
6889,35
6890,35
6891,35
6892,35
6893,34
6894,34
6895,34
6896,34
6897,34
6898,34
6899,34
6900,34
6901,34
6902,34
6903,34
6904,34
6905,34
6906,34
6907,34
6908,34
6909,34
6910,34
6911,34
6912,34
6913,34
6914,34
6915,34
6916,34
6917,34
6918,34
6919,34
6920,34
6921,34
6922,34
6923,34
6924,35
6925,35
6926,36
6927,34
6928,34
6929,34
6930,34
6931,34
6932,34
6933,34
6934,34
6935,34
6936,34
6937,34
6938,34
6939,34
6940,35
6941,34
6942,34
6943,34
6944,34
6945,34
6946,34
6947,34
6948,34
6949,35
6950,34
6951,34
6952,34
6953,35
6954,35
6955,35
6956,35
6957,35
6958,35
6959,35
6960,34
6961,34
6962,34
6963,34
6964,34
6965,34
6966,34
6967,34
6968,34
6969,34
6970,34
6971,34
6972,34
6973,34
6974,34
6975,34
6976,35
6977,35
6978,35
6979,35
6980,35
6981,36
6982,36
6983,36
6984,36
6985,36
6986,36
6987,36
6988,36
6989,37
6990,37
6991,37
6992,37
6993,36
6994,36
6995,36
6996,36
6997,36
6998,36
6999,36
7000,36
7001,36
7002,36
7003,36
7004,36
7005,36
7006,36
7007,36
7008,36
7009,36
7010,36
7011,36
7012,36
7013,36
7014,36
7015,36
7016,36
7017,36
7018,36
7019,36
7020,36
7021,36
7022,36
7023,36
7024,36
7025,36
7026,36
7027,36
7028,36
7029,36
7030,36
7031,36
7032,36
7033,36
7034,36
7035,36
7036,36
7037,36
7038,36
7039,36
7040,36
7041,36
7042,36
7043,36
7044,36
7045,36
7046,36
7047,36
7048,36
7049,36
7050,36
7051,36
7052,36
7053,36
7054,36
7055,36
7056,36
7057,36
7058,36
7059,37
7060,37
7061,37
7062,36
7063,36
7064,36
7065,36
7066,36
7067,36
7068,36
7069,36
7070,36
7071,36
7072,36
7073,36
7074,36
7075,36
7076,36
7077,36
7078,36
7079,36
7080,36
7081,36
7082,36
7083,36
7084,36
7085,36
7086,36
7087,36
7088,36
7089,36
7090,36
7091,36
7092,36
7093,35
7094,35
7095,35
7096,35
7097,35
7098,35
7099,35
7100,35
7101,35
7102,36
7103,35
7104,35
7105,35
7106,35
7107,35
7108,35
7109,36
7110,36
7111,36
7112,36
7113,35
7114,35
7115,35
7116,35
7117,36
7118,35
7119,35
7120,35
7121,35
7122,35
7123,34
7124,34
7125,34
7126,35
7127,35
7128,35
7129,35
7130,35
7131,35
7132,34
7133,34
7134,34
7135,34
7136,34
7137,34
7138,34
7139,34
7140,34
7141,34
7142,34
7143,34
7144,34
7145,34
7146,34
7147,34
7148,34
7149,34
7150,34
7151,34
7152,34
7153,34
7154,34
7155,34
7156,34
7157,34
7158,34
7159,34
7160,35
7161,34
7162,34
7163,34
7164,34
7165,34
7166,34
7167,34
7168,35
7169,34
7170,34
7171,34
7172,35
7173,34
7174,34
7175,34
7176,34
7177,34
7178,34
7179,34
7180,34
7181,34
7182,34
7183,34
7184,34
7185,34
7186,34
7187,34
7188,34
7189,34
7190,34
7191,35
7192,34
7193,34
7194,34
7195,34
7196,35
7197,34
7198,34
7199,34
7200,34
7201,34
7202,34
7203,34
7204,34
7205,34
7206,34
7207,35
7208,34
7209,34
7210,34
7211,34
7212,34
7213,35
7214,34
7215,35
7216,34
7217,34
7218,34
7219,34
7220,34
7221,34
7222,34
7223,34
7224,34
7225,34
7226,34
7227,34
7228,34
7229,34
7230,34
7231,34
7232,34
7233,34
7234,34
7235,34
7236,35
7237,35
7238,34
7239,34
7240,34
7241,34
7242,34
7243,34
7244,34
7245,35
7246,35
7247,35
7248,34
7249,34
7250,34
7251,34
7252,34
7253,34
7254,35
7255,34
7256,34
7257,35
7258,34
7259,34
7260,34
7261,34
7262,34
7263,35
7264,34
7265,34
7266,34
7267,34
7268,34
7269,34
7270,34
7271,34
7272,34
7273,34
7274,34
7275,34
7276,34
7277,35
7278,34
7279,35
7280,34
7281,34
7282,34
7283,34
7284,34
7285,34
7286,34
7287,34
7288,34
7289,34
7290,34
7291,34
7292,34
7293,34
7294,34
7295,34
7296,34
7297,34
7298,34
7299,34
7300,34
7301,34
7302,34
7303,34
7304,34
7305,34
7306,34
7307,34
7308,34
7309,34
7310,34
7311,35
7312,35
7313,34
7314,34
7315,34
7316,34
7317,34
7318,34
7319,35
7320,34
7321,34
7322,34
7323,34
7324,34
7325,34
7326,34
7327,34
7328,34
7329,34
7330,34
7331,34
7332,34
7333,34
7334,35
7335,34
7336,34
7337,34
7338,34
7339,34
7340,34
7341,34
7342,34
7343,35
7344,35
7345,35
7346,35
7347,34
7348,34
7349,34
7350,34
7351,34
7352,34
7353,34
7354,34
7355,34
7356,34
7357,35
7358,35
7359,34
7360,34
7361,34
7362,34
7363,34
7364,34
7365,34
7366,34
7367,35
7368,35
7369,34
7370,34
7371,34
7372,34
7373,34
7374,34
7375,34
7376,34
7377,34
7378,35
7379,35
7380,35
7381,35
7382,35
7383,35
7384,35
7385,35
7386,35
7387,34
7388,34
7389,34
7390,34
7391,34
7392,34
7393,34
7394,34
7395,34
7396,34
7397,34
7398,34
7399,35
7400,35
7401,35
7402,35
7403,35
7404,35
7405,35
7406,35
7407,35
7408,35
7409,36
7410,36
7411,36
7412,35
7413,35
7414,35
7415,34
7416,34
7417,35
7418,34
7419,34
7420,35
7421,35
7422,35
7423,34
7424,34
7425,34
7426,34
7427,34
7428,34
7429,34
7430,34
7431,34
7432,34
7433,34
7434,34
7435,34
7436,34
7437,34
7438,34
7439,33
7440,33
7441,33
7442,33
7443,33
7444,33
7445,33
7446,33
7447,34
7448,33
7449,33
7450,33
7451,34
7452,33
7453,33
7454,33
7455,33
7456,33
7457,33
7458,33
7459,33
7460,33
7461,33
7462,33
7463,34
7464,33
7465,33
7466,33
7467,33
7468,33
7469,33
7470,33
7471,33
7472,33
7473,33
7474,33
7475,33
7476,33
7477,33
7478,33
7479,33
7480,33
7481,33
7482,33
7483,33
7484,33
7485,34
7486,34
7487,33
7488,34
7489,35
7490,35
7491,35
7492,35
7493,35
7494,34
7495,34
7496,34
7497,34
7498,34
7499,35
7500,34
7501,34
7502,34
7503,34
7504,34
7505,34
7506,35
7507,34
7508,34
7509,34
7510,34
7511,34
7512,33
7513,33
7514,33
7515,33
7516,33
7517,33
7518,33
7519,33
7520,33
7521,33
7522,33
7523,33
7524,33
7525,33
7526,33
7527,33
7528,33
7529,33
7530,33
7531,33
7532,33
7533,33
7534,33
7535,33
7536,33
7537,33
7538,33
7539,33
7540,33
7541,33
7542,33
7543,34
7544,34
7545,33
7546,33
7547,33
7548,33
7549,33
7550,33
7551,33
7552,34
7553,33
7554,34
7555,34
7556,34
7557,34
7558,34
7559,33
7560,33
7561,33
7562,33
7563,33
7564,33
7565,33
7566,33
7567,33
7568,33
7569,33
7570,33
7571,33
7572,33
7573,33
7574,33
7575,33
7576,33
7577,33
7578,33
7579,33
7580,33
7581,33
7582,33
7583,33
7584,33
7585,33
7586,33
7587,33
7588,33
7589,33
7590,33
7591,33
7592,33
7593,33
7594,33
7595,33
7596,33
7597,33
7598,33
7599,34
7600,34
7601,33
7602,33
7603,33
7604,33
7605,33
7606,33
7607,33
7608,32
7609,32
7610,32
7611,32
7612,32
7613,33
7614,33
7615,33
7616,34
7617,34
7618,34
7619,34
7620,34
7621,34
7622,33
7623,32
7624,32
7625,32
7626,31
7627,31
7628,31
7629,31
7630,31
7631,31
7632,31
7633,31
7634,31
7635,31
7636,31
7637,31
7638,31
7639,31
7640,31
7641,31
7642,31
7643,31
7644,31
7645,31
7646,31
7647,31
7648,31
7649,31
7650,32
7651,32
7652,32
7653,32
7654,31
7655,31
7656,31
7657,31
7658,31
7659,31
7660,31
7661,32
7662,31
7663,31
7664,31
7665,31
7666,32
7667,31
7668,31
7669,31
7670,31
7671,31
7672,31
7673,31
7674,31
7675,31
7676,31
7677,31
7678,31
7679,31
7680,31
7681,31
7682,31
7683,31
7684,31
7685,31
7686,31
7687,31
7688,31
7689,32
7690,31
7691,31
7692,31
7693,32
7694,32
7695,32
7696,32
7697,32
7698,32
7699,32
7700,32
7701,31
7702,31
7703,31
7704,31
7705,31
7706,31
7707,31
7708,31
7709,31
7710,31
7711,31
7712,31
7713,31
7714,31
7715,31
7716,31
7717,31
7718,32
7719,32
7720,32
7721,32
7722,31
7723,31
7724,31
7725,31
7726,31
7727,31
7728,31
7729,31
7730,31
7731,31
7732,31
7733,31
7734,31
7735,31
7736,31
7737,31
7738,31
7739,31
7740,31
7741,31
7742,32
7743,32
7744,32
7745,32
7746,32
7747,32
7748,32
7749,32
7750,32
7751,31
7752,31
7753,31
7754,31
7755,31
7756,31
7757,31
7758,31
7759,31
7760,31
7761,31
7762,31
7763,31
7764,31
7765,31
7766,31
7767,31
7768,31
7769,31
7770,31
7771,31
7772,31
7773,31
7774,31
7775,31
7776,31
7777,31
7778,31
7779,31
7780,31
7781,31
7782,32
7783,32
7784,32
7785,32
7786,32
7787,32
7788,32
7789,32
7790,32
7791,32
7792,32
7793,32
7794,32
7795,32
7796,32
7797,32
7798,33
7799,32
7800,32
7801,33
7802,32
7803,31
7804,31
7805,31
7806,31
7807,31
7808,31
7809,31
7810,31
7811,31
7812,31
7813,31
7814,32
7815,32
7816,32
7817,32
7818,33
7819,34
7820,34
7821,33
7822,33
7823,33
7824,32
7825,31
7826,31
7827,31
7828,31
7829,31
7830,31
7831,32
7832,31
7833,31
7834,31
7835,31
7836,31
7837,31
7838,31
7839,31
7840,31
7841,31
7842,31
7843,31
7844,31
7845,31
7846,31
7847,31
7848,31
7849,31
7850,31
7851,31
7852,31
7853,31
7854,31
7855,31
7856,31
7857,31
7858,31
7859,31
7860,31
7861,31
7862,31
7863,31
7864,31
7865,31
7866,31
7867,31
7868,31
7869,32
7870,32
7871,32
7872,31
7873,32
7874,31
7875,31
7876,31
7877,31
7878,31
7879,31
7880,31
7881,31
7882,31
7883,31
7884,31
7885,31
7886,31
7887,31
7888,31
7889,31
7890,31
7891,31
7892,32
7893,31
7894,31
7895,31
7896,31
7897,31
7898,31
7899,31
7900,31
7901,31
7902,31
7903,31
7904,31
7905,31
7906,31
7907,31
7908,31
7909,31
7910,31
7911,31
7912,31
7913,31
7914,31
7915,31
7916,31
7917,31
7918,31
7919,31
7920,31
7921,31
7922,31
7923,31
7924,31
7925,31
7926,31
7927,31
7928,31
7929,32
7930,31
7931,31
7932,31
7933,31
7934,31
7935,31
7936,32
7937,32
7938,32
7939,32
7940,32
7941,32
7942,32
7943,32
7944,32
7945,32
7946,32
7947,32
7948,32
7949,32
7950,31
7951,31
7952,31
7953,31
7954,31
7955,31
7956,31
7957,31
7958,31
7959,31
7960,31
7961,31
7962,31
7963,31
7964,31
7965,31
7966,31
7967,31
7968,31
7969,31
7970,31
7971,31
7972,31
7973,31
7974,31
7975,31
7976,31
7977,31
7978,31
7979,31
7980,31
7981,31
7982,31
7983,31
7984,31
7985,31
7986,31
7987,31
7988,31
7989,31
7990,31
7991,31
7992,31
7993,31
7994,31
7995,31
7996,31
7997,31
7998,31
7999,31
8000,31
8001,31
8002,31
8003,31
8004,31
8005,31
8006,31
8007,31
8008,31
8009,31
8010,31
8011,31
8012,31
8013,31
8014,31
8015,32
8016,32
8017,32
8018,32
8019,32
8020,32
8021,32
8022,32
8023,32
8024,32
8025,32
8026,32
8027,32
8028,32
8029,32
8030,32
8031,33
8032,33
8033,33
8034,33
8035,33
8036,33
8037,33
8038,32
8039,32
8040,32
8041,32
8042,32
8043,32
8044,33
8045,32
8046,32
8047,32
8048,32
8049,32
8050,32
8051,32
8052,32
8053,32
8054,32
8055,32
8056,32
8057,32
8058,32
8059,32
8060,32
8061,32
8062,32
8063,32
8064,32
8065,32
8066,32
8067,32
8068,33
8069,32
8070,32
8071,32
8072,32
8073,32
8074,32
8075,33
8076,33
8077,32
8078,32
8079,32
8080,32
8081,32
8082,32
8083,31
8084,31
8085,31
8086,31
8087,31
8088,31
8089,31
8090,31
8091,31
8092,31
8093,31
8094,31
8095,31
8096,31
8097,31
8098,31
8099,31
8100,32
8101,31
8102,31
8103,31
8104,31
8105,31
8106,31
8107,31
8108,31
8109,31
8110,31
8111,31
8112,32
8113,31
8114,31
8115,31
8116,31
8117,32
8118,32
8119,31
8120,31
8121,31
8122,31
8123,31
8124,31
8125,31
8126,32
8127,32
8128,31
8129,31
8130,32
8131,32
8132,32
8133,32
8134,32
8135,33
8136,33
8137,33
8138,33
8139,33
8140,33
8141,33
8142,32
8143,32
8144,32
8145,31
8146,31
8147,31
8148,31
8149,31
8150,31
8151,31
8152,32
8153,32
8154,31
8155,31
8156,31
8157,31
8158,31
8159,32
8160,32
8161,32
8162,32
8163,31
8164,32
8165,32
8166,32
8167,32
8168,32
8169,32
8170,32
8171,32
8172,32
8173,32
8174,32
8175,32
8176,32
8177,32
8178,32
8179,32
8180,34
8181,34
8182,35
8183,33
8184,33
8185,33
8186,34
8187,34
8188,33
8189,33
8190,33
8191,33
8192,33
8193,33
8194,33
8195,33
8196,33
8197,33
8198,33
8199,33
8200,33
8201,33
8202,32
8203,32
8204,32
8205,32
8206,32
8207,32
8208,32
8209,32
8210,32
8211,32
8212,32
8213,33
8214,32
8215,32
8216,32
8217,32
8218,32
8219,32
8220,32
8221,32
8222,32
8223,32
8224,32
8225,32
8226,33
8227,33
8228,32
8229,32
8230,32
8231,32
8232,32
8233,32
8234,32
8235,32
8236,32
8237,32
8238,32
8239,33
8240,33
8241,33
8242,33
8243,33
8244,33
8245,34
8246,33
8247,33
8248,32
8249,32
8250,32
8251,32
8252,32
8253,32
8254,32
8255,32
8256,32
8257,32
8258,32
8259,32
8260,32
8261,32
8262,32
8263,32
8264,32
8265,32
8266,32
8267,32
8268,32
8269,32
8270,32
8271,32
8272,32
8273,32
8274,32
8275,32
8276,32
8277,33
8278,32
8279,32
8280,32
8281,32
8282,32
8283,34
8284,32
8285,32
8286,32
8287,32
8288,32
8289,32
8290,32
8291,33
8292,33
8293,33
8294,32
8295,32
8296,32
8297,32
8298,32
8299,32
8300,32
8301,32
8302,32
8303,32
8304,32
8305,32
8306,32
8307,32
8308,32
8309,32
8310,32
8311,32
8312,32
8313,32
8314,32
8315,32
8316,32
8317,32
8318,32
8319,32
8320,32
8321,32
8322,33
8323,32
8324,32
8325,32
8326,32
8327,32
8328,32
8329,33
8330,33
8331,33
8332,33
8333,33
8334,33
8335,33
8336,33
8337,33
8338,33
8339,33
8340,33
8341,33
8342,33
8343,33
8344,33
8345,33
8346,33
8347,33
8348,33
8349,33
8350,33
8351,33
8352,33
8353,33
8354,33
8355,33
8356,33
8357,33
8358,33
8359,34
8360,33
8361,34
8362,34
8363,33
8364,33
8365,33
8366,33
8367,34
8368,34
8369,34
8370,34
8371,34
8372,34
8373,34
8374,34
8375,34
8376,34
8377,34
8378,34
8379,35
8380,35
8381,34
8382,34
8383,34
8384,34
8385,34
8386,34
8387,34
8388,34
8389,34
8390,34
8391,34
8392,34
8393,33
8394,34
8395,34
8396,34
8397,33
8398,33
8399,33
8400,33
8401,33
8402,33
8403,33
8404,34
8405,34
8406,34
8407,34
8408,33
8409,33
8410,33
8411,33
8412,33
8413,33
8414,33
8415,33
8416,33
8417,33
8418,33
8419,33
8420,33
8421,33
8422,33
8423,33
8424,34
8425,34
8426,33
8427,34
8428,33
8429,33
8430,33
8431,33
8432,33
8433,33
8434,33
8435,33
8436,33
8437,33
8438,33
8439,33
8440,33
8441,33
8442,33
8443,33
8444,33
8445,33
8446,33
8447,34
8448,34
8449,34
8450,34
8451,34
8452,34
8453,34
8454,34
8455,34
8456,34
8457,33
8458,33
8459,33
8460,33
8461,33
8462,33
8463,33
8464,33
8465,33
8466,33
8467,33
8468,33
8469,33
8470,33
8471,33
8472,33
8473,33
8474,33
8475,33
8476,33
8477,33
8478,33
8479,33
8480,33
8481,33
8482,33
8483,33
8484,33
8485,33
8486,33
8487,33
8488,33
8489,33
8490,33
8491,33
8492,33
8493,34
8494,33
8495,33
8496,33
8497,33
8498,33
8499,33
8500,33
8501,33
8502,33
8503,33
8504,33
8505,33
8506,33
8507,33
8508,33
8509,33
8510,33
8511,33
8512,33
8513,33
8514,33
8515,33
8516,33
8517,33
8518,33
8519,33
8520,33
8521,33
8522,33
8523,33
8524,33
8525,33
8526,33
8527,33
8528,33
8529,33
8530,33
8531,33
8532,34
8533,33
8534,33
8535,33
8536,33
8537,33
8538,33
8539,33
8540,33
8541,33
8542,33
8543,34
8544,34
8545,34
8546,34
8547,34
8548,33
8549,34
8550,34
8551,34
8552,33
8553,33
8554,33
8555,34
8556,33
8557,33
8558,33
8559,34
8560,34
8561,34
8562,34
8563,34
8564,34
8565,34
8566,34
8567,34
8568,34
8569,34
8570,34
8571,34
8572,34
8573,34
8574,34
8575,34
8576,34
8577,34
8578,34
8579,35
8580,34
8581,33
8582,33
8583,33
8584,33
8585,33
8586,33
8587,33
8588,33
8589,33
8590,33
8591,33
8592,33
8593,33
8594,33
8595,33
8596,33
8597,34
8598,34
8599,34
8600,34
8601,34
8602,34
8603,34
8604,33
8605,33
8606,33
8607,33
8608,33
8609,33
8610,33
8611,33
8612,33
8613,33
8614,33
8615,33
8616,34
8617,33
8618,33
8619,33
8620,33
8621,33
8622,33
8623,33
8624,33
8625,33
8626,33
8627,33
8628,34
8629,33
8630,33
8631,33
8632,33
8633,33
8634,33
8635,33
8636,33
8637,33
8638,33
8639,33
8640,33
8641,33
8642,33
8643,34
8644,33
8645,33
8646,33
8647,33
8648,33
8649,33
8650,33
8651,33
8652,33
8653,33
8654,33
8655,33
8656,33
8657,33
8658,33
8659,33
8660,33
8661,33
8662,33
8663,33
8664,33
8665,33
8666,33
8667,33
8668,33
8669,33
8670,33
8671,34
8672,33
8673,33
8674,33
8675,33
8676,33
8677,33
8678,34
8679,34
8680,34
8681,33
8682,33
8683,33
8684,33
8685,33
8686,33
8687,34
8688,33
8689,33
8690,33
8691,33
8692,33
8693,34
8694,33
8695,33
8696,34
8697,33
8698,33
8699,33
8700,33
8701,33
8702,33
8703,33
8704,33
8705,33
8706,33
8707,33
8708,33
8709,33
8710,33
8711,33
8712,34
8713,34
8714,34
8715,33
8716,33
8717,33
8718,33
8719,33
8720,33
8721,33
8722,33
8723,33
8724,33
8725,33
8726,33
8727,33
8728,33
8729,33
8730,33
8731,33
8732,34
8733,34
8734,34
8735,33
8736,33
8737,33
8738,33
8739,33
8740,33
8741,33
8742,33
8743,33
8744,33
8745,33
8746,33
8747,33
8748,33
8749,33
8750,33
8751,33
8752,33
8753,33
8754,33
8755,33
8756,33
8757,33
8758,33
8759,33
8760,33
8761,33
8762,33
8763,33
8764,33
8765,33
8766,33
8767,33
8768,34
8769,33
8770,34
8771,33
8772,33
8773,33
8774,33
8775,33
8776,33
8777,33
8778,35
8779,34
8780,34
8781,34
8782,34
8783,34
8784,34
8785,34
8786,34
8787,34
8788,34
8789,34
8790,34
8791,34
8792,34
8793,34
8794,34
8795,34
8796,34
8797,34
8798,34
8799,34
8800,34
8801,34
8802,34
8803,34
8804,34
8805,34
8806,34
8807,34
8808,34
8809,34
8810,34
8811,33
8812,33
8813,33
8814,33
8815,33
8816,33
8817,33
8818,33
8819,33
8820,33
8821,33
8822,33
8823,33
8824,33
8825,33
8826,33
8827,34
8828,34
8829,34
8830,33
8831,33
8832,33
8833,33
8834,33
8835,33
8836,33
8837,33
8838,33
8839,33
8840,33
8841,33
8842,33
8843,33
8844,33
8845,33
8846,33
8847,33
8848,33
8849,33
8850,34
8851,34
8852,33
8853,33
8854,33
8855,33
8856,33
8857,33
8858,33
8859,33
8860,33
8861,33
8862,33
8863,33
8864,33
8865,33
8866,33
8867,33
8868,33
8869,33
8870,33
8871,33
8872,33
8873,33
8874,33
8875,33
8876,33
8877,33
8878,33
8879,33
8880,33
8881,33
8882,33
8883,33
8884,33
8885,33
8886,33
8887,33
8888,33
8889,33
8890,33
8891,33
8892,33
8893,33
8894,33
8895,33
8896,33
8897,33
8898,33
8899,33
8900,33
8901,33
8902,33
8903,33
8904,33
8905,33
8906,33
8907,33
8908,33
8909,33
8910,33
8911,33
8912,33
8913,33
8914,33
8915,33
8916,33
8917,34
8918,34
8919,33
8920,33
8921,33
8922,33
8923,33
8924,33
8925,33
8926,33
8927,33
8928,33
8929,33
8930,33
8931,34
8932,34
8933,33
8934,33
8935,33
8936,33
8937,33
8938,33
8939,33
8940,33
8941,33
8942,33
8943,33
8944,33
8945,33
8946,33
8947,33
8948,33
8949,33
8950,33
8951,33
8952,33
8953,33
8954,33
8955,33
8956,33
8957,33
8958,33
8959,33
8960,33
8961,33
8962,33
8963,33
8964,33
8965,33
8966,33
8967,33
8968,33
8969,33
8970,35
8971,35
8972,35
8973,36
8974,37
8975,37
8976,36
8977,35
8978,35
8979,36
8980,35
8981,35
8982,35
8983,35
8984,35
8985,35
8986,35
8987,35
8988,35
8989,33
8990,33
8991,33
8992,33
8993,33
8994,34
8995,33
8996,33
8997,33
8998,33
8999,33
9000,33
9001,33
9002,33
9003,33
9004,33
9005,33
9006,33
9007,33
9008,33
9009,33
9010,33
9011,33
9012,33
9013,33
9014,33
9015,33
9016,34
9017,34
9018,34
9019,34
9020,34
9021,34
9022,34
9023,35
9024,34
9025,34
9026,34
9027,33
9028,33
9029,34
9030,34
9031,33
9032,33
9033,33
9034,33
9035,33
9036,33
9037,33
9038,33
9039,33
9040,33
9041,33
9042,34
9043,34
9044,34
9045,33
9046,33
9047,33
9048,33
9049,33
9050,33
9051,33
9052,33
9053,33
9054,33
9055,33
9056,33
9057,34
9058,33
9059,33
9060,33
9061,33
9062,33
9063,33
9064,33
9065,33
9066,33
9067,33
9068,33
9069,33
9070,34
9071,35
9072,34
9073,34
9074,34
9075,34
9076,34
9077,34
9078,34
9079,34
9080,33
9081,33
9082,33
9083,33
9084,33
9085,33
9086,33
9087,33
9088,33
9089,33
9090,33
9091,33
9092,34
9093,33
9094,33
9095,33
9096,33
9097,33
9098,33
9099,33
9100,33
9101,33
9102,33
9103,33
9104,33
9105,33
9106,33
9107,33
9108,33
9109,33
9110,33
9111,33
9112,33
9113,33
9114,33
9115,33
9116,33
9117,33
9118,33
9119,33
9120,33
9121,33
9122,33
9123,33
9124,34
9125,35
9126,35
9127,34
9128,34
9129,34
9130,34
9131,34
9132,34
9133,34
9134,34
9135,34
9136,34
9137,34
9138,34
9139,33
9140,33
9141,33
9142,34
9143,33
9144,33
9145,33
9146,33
9147,33
9148,34
9149,34
9150,34
9151,34
9152,34
9153,34
9154,34
9155,34
9156,34
9157,35
9158,35
9159,35
9160,35
9161,35
9162,35
9163,35
9164,35
9165,35
9166,35
9167,35
9168,35
9169,35
9170,35
9171,35
9172,35
9173,35
9174,36
9175,36
9176,36
9177,36
9178,36
9179,36
9180,36
9181,35
9182,35
9183,35
9184,35
9185,35
9186,35
9187,35
9188,36
9189,36
9190,36
9191,36
9192,35
9193,35
9194,35
9195,35
9196,35
9197,35
9198,35
9199,35
9200,35
9201,35
9202,35
9203,35
9204,35
9205,35
9206,35
9207,35
9208,35
9209,35
9210,35
9211,35
9212,35
9213,35
9214,35
9215,35
9216,35
9217,35
9218,35
9219,35
9220,35
9221,35
9222,35
9223,35
9224,35
9225,35
9226,35
9227,36
9228,36
9229,36
9230,36
9231,35
9232,36
9233,35
9234,37
9235,37
9236,36
9237,36
9238,36
9239,36
9240,36
9241,36
9242,36
9243,36
9244,36
9245,36
9246,36
9247,36
9248,36
9249,36
9250,36
9251,36
9252,36
9253,36
9254,36
9255,36
9256,36
9257,36
9258,36
9259,36
9260,36
9261,37
9262,36
9263,36
9264,35
9265,35
9266,35
9267,35
9268,35
9269,35
9270,35
9271,35
9272,35
9273,35
9274,35
9275,35
9276,35
9277,35
9278,35
9279,36
9280,36
9281,36
9282,36
9283,36
9284,36
9285,36
9286,36
9287,36
9288,35
9289,35
9290,35
9291,35
9292,35
9293,35
9294,36
9295,36
9296,36
9297,35
9298,35
9299,36
9300,35
9301,35
9302,35
9303,35
9304,36
9305,35
9306,35
9307,35
9308,35
9309,35
9310,35
9311,35
9312,35
9313,35
9314,35
9315,35
9316,35
9317,35
9318,35
9319,35
9320,35
9321,35
9322,36
9323,35
9324,35
9325,35
9326,35
9327,35
9328,35
9329,35
9330,35
9331,35
9332,35
9333,35
9334,36
9335,35
9336,35
9337,35
9338,35
9339,36
9340,36
9341,36
9342,36
9343,36
9344,38
9345,38
9346,38
9347,38
9348,39
9349,38
9350,38
9351,37
9352,36
9353,36
9354,36
9355,36
9356,36
9357,36
9358,36
9359,36
9360,37
9361,37
9362,37
9363,37
9364,37
9365