1,3
2,3
3,3
4,3
5,3
6,3
7,3
8,3
9,3
10,3
11,3
12,3
13,3
14,3
15,3
16,3
17,3
18,3
19,3
20,3
21,3
22,3
23,3
24,3
25,3
26,3
27,3
28,3
29,3
30,3
31,3
32,4
33,4
34,4
35,4
36,4
37,4
38,5
39,5
40,5
41,5
42,5
43,5
44,5
45,5
46,5
47,5
48,5
49,5
50,5
51,5
52,5
53,5
54,6
55,7
56,7
57,7
58,6
59,6
60,6
61,6
62,6
63,6
64,6
65,6
66,6
67,6
68,6
69,6
70,6
71,6
72,6
73,6
74,6
75,6
76,6
77,6
78,6
79,6
80,6
81,6
82,6
83,6
84,6
85,6
86,6
87,6
88,6
89,6
90,6
91,7
92,6
93,6
94,6
95,6
96,6
97,6
98,7
99,7
100,7
101,7
102,8
103,7
104,7
105,7
106,7
107,7
108,7
109,7
110,7
111,7
112,7
113,7
114,8
115,8
116,8
117,8
118,8
119,8
120,8
121,8
122,8
123,8
124,8
125,8
126,8
127,8
128,8
129,8
130,9
131,9
132,9
133,9
134,9
135,8
136,8
137,8
138,8
139,8
140,8
141,8
142,8
143,8
144,8
145,8
146,8
147,9
148,9
149,8
150,8
151,8
152,8
153,8
154,8
155,8
156,8
157,8
158,8
159,8
160,8
161,8
162,9
163,8
164,8
165,8
166,8
167,9
168,9
169,8
170,8
171,8
172,8
173,8
174,8
175,8
176,8
177,8
178,9
179,9
180,9
181,9
182,9
183,9
184,9
185,9
186,9
187,9
188,9
189,9
190,9
191,9
192,9
193,9
194,9
195,9
196,9
197,9
198,9
199,9
200,9
201,9
202,9
203,10
204,10
205,10
206,9
207,9
208,9
209,9
210,9
211,9
212,9
213,9
214,9
215,9
216,9
217,9
218,9
219,9
220,9
221,9
222,9
223,9
224,9
225,9
226,9
227,9
228,9
229,9
230,9
231,10
232,10
233,10
234,10
235,10
236,10
237,10
238,10
239,10
240,10
241,10
242,10
243,10
244,10
245,10
246,10
247,10
248,10
249,10
250,10
251,10
252,10
253,10
254,10
255,11
256,11
257,11
258,11
259,11
260,11
261,11
262,11
263,11
264,11
265,10
266,10
267,11
268,11
269,10
270,10
271,10
272,10
273,10
274,10
275,10
276,10
277,10
278,11
279,10
280,10
281,10
282,10
283,10
284,10
285,10
286,10
287,11
288,11
289,10
290,10
291,10
292,10
293,10
294,10
295,10
296,10
297,10
298,10
299,10
300,10
301,10
302,10
303,10
304,10
305,11
306,11
307,10
308,10
309,10
310,10
311,10
312,11
313,11
314,11
315,11
316,11
317,11
318,11
319,11
320,11
321,11
322,11
323,11
324,11
325,11
326,11
327,11
328,11
329,11
330,11
331,11
332,11
333,11
334,11
335,11
336,11
337,11
338,11
339,11
340,11
341,11
342,11
343,11
344,11
345,11
346,11
347,11
348,11
349,11
350,11
351,11
352,11
353,11
354,12
355,11
356,11
357,11
358,11
359,11
360,11
361,11
362,11
363,11
364,11
365,11
366,11
367,11
368,11
369,11
370,11
371,11
372,11
373,11
374,11
375,11
376,11
377,11
378,11
379,11
380,11
381,11
382,11
383,11
384,11
385,11
386,11
387,11
388,11
389,11
390,12
391,12
392,12
393,12
394,12
395,12
396,12
397,12
398,13
399,12
400,12
401,12
402,12
403,12
404,12
405,12
406,12
407,12
408,12
409,13
410,13
411,13
412,13
413,13
414,13
415,13
416,13
417,13
418,13
419,13
420,13
421,14
422,13
423,13
424,13
425,13
426,14
427,14
428,13
429,13
430,14
431,15
432,14
433,14
434,14
435,14
436,14
437,13
438,13
439,13
440,13
441,13
442,13
443,13
444,13
445,13
446,13
447,13
448,13
449,14
450,14
451,14
452,15
453,14
454,14
455,14
456,14
457,14
458,14
459,13
460,13
461,13
462,13
463,13
464,13
465,13
466,14
467,14
468,14
469,14
470,13
471,13
472,13
473,13
474,13
475,13
476,13
477,13
478,14
479,13
480,13
481,13
482,13
483,13
484,13
485,13
486,13
487,13
488,13
489,13
490,14
491,14
492,13
493,13
494,13
495,13
496,13
497,14
498,13
499,13
500,13
501,13
502,13
503,13
504,13
505,13
506,13
507,13
508,13
509,13
510,13
511,13
512,13
513,13
514,13
515,14
516,13
517,13
518,13
519,13
520,13
521,13
522,13
523,13
524,13
525,13
526,13
527,13
528,13
529,13
530,13
531,14
532,13
533,13
534,13
535,14
536,14
537,14
538,13
539,13
540,13
541,13
542,13
543,13
544,13
545,14
546,14
547,14
548,14
549,14
550,14
551,14
552,14
553,14
554,14
555,14
556,14
557,14
558,14
559,14
560,14
561,14
562,14
563,15
564,14
565,14
566,14
567,14
568,14
569,14
570,14
571,14
572,14
573,14
574,14
575,14
576,14
577,14
578,14
579,14
580,14
581,14
582,14
583,14
584,14
585,14
586,14
587,14
588,14
589,14
590,14
591,14
592,14
593,14
594,15
595,15
596,15
597,15
598,15
599,15
600,15
601,15
602,15
603,15
604,16
605,16
606,16
607,16
608,16
609,16
610,16
611,16
612,16
613,16
614,16
615,16
616,16
617,16
618,16
619,16
620,16
621,16
622,16
623,16
624,16
625,16
626,16
627,16
628,16
629,16
630,16
631,16
632,16
633,16
634,16
635,16
636,16
637,16
638,16
639,16
640,18
641,17
642,17
643,17
644,17
645,17
646,16
647,16
648,17
649,17
650,17
651,17
652,17
653,17
654,17
655,17
656,17
657,17
658,17
659,17
660,16
661,16
662,16
663,16
664,16
665,16
666,16
667,16
668,16
669,17
670,17
671,16
672,16
673,16
674,16
675,16
676,16
677,16
678,16
679,16
680,16
681,16
682,16
683,16
684,16
685,16
686,16
687,16
688,16
689,16
690,16
691,16
692,16
693,16
694,16
695,16
696,16
697,16
698,16
699,16
700,16
701,16
702,16
703,16
704,16
705,16
706,16
707,16
708,16
709,16
710,16
711,16
712,16
713,16
714,16
715,17
716,16
717,16
718,16
719,16
720,16
721,16
722,16
723,16
724,16
725,16
726,16
727,16
728,16
729,17
730,17
731,17
732,17
733,17
734,17
735,17
736,17
737,17
738,17
739,17
740,17
741,17
742,18
743,18
744,18
745,18
746,19
747,19
748,19
749,18
750,18
751,18
752,18
753,18
754,18
755,18
756,18
757,18
758,18
759,18
760,19
761,19
762,19
763,19
764,19
765,19
766,19
767,20
768,19
769,19
770,19
771,19
772,20
773,20
774,20
775,20
776,20
777,19
778,19
779,20
780,19
781,19
782,20
783,20
784,19
785,19
786,19
787,19
788,20
789,20
790,19
791,19
792,19
793,19
794,19
795,19
796,19
797,19
798,20
799,20
800,20
801,19
802,19
803,19
804,19
805,19
806,19
807,19
808,19
809,19
810,19
811,19
812,19
813,19
814,19
815,20
816,19
817,19
818,19
819,19
820,19
821,19
822,19
823,19
824,19
825,19
826,19
827,19
828,19
829,19
830,19
831,19
832,19
833,19
834,19
835,19
836,19
837,19
838,19
839,19
840,19
841,19
842,19
843,19
844,20
845,19
846,19
847,19
848,19
849,19
850,19
851,19
852,19
853,19
854,19
855,19
856,19
857,19
858,19
859,20
860,20
861,20
862,20
863,20
864,20
865,19
866,20
867,20
868,20
869,19
870,19
871,19
872,19
873,19
874,19
875,19
876,19
877,19
878,19
879,19
880,19
881,19
882,19
883,19
884,19
885,19
886,19
887,19
888,19
889,19
890,19
891,19
892,19
893,19
894,19
895,19
896,19
897,19
898,19
899,19
900,19
901,19
902,19
903,19
904,19
905,19
906,19
907,19
908,20
909,19
910,19
911,19
912,19
913,19
914,19
915,19
916,19
917,19
918,19
919,19
920,19
921,20
922,21
923,21
924,20
925,21
926,20
927,20
928,21
929,21
930,21
931,21
932,21
933,22
934,22
935,22
936,22
937,22
938,22
939,22
940,22
941,22
942,22
943,22
944,22
945,22
946,22
947,22
948,22
949,22
950,23
951,23
952,23
953,23
954,23
955,23
956,22
957,22
958,22
959,22
960,21
961,21
962,21
963,21
964,21
965,21
966,21
967,21
968,21
969,21
970,21
971,22
972,21
973,22
974,22
975,21
976,23
977,21
978,20
979,20
980,20
981,20
982,20
983,20
984,21
985,21
986,20
987,20
988,20
989,20
990,20
991,20
992,20
993,20
994,20
995,20
996,20
997,20
998,20
999,20
1000,21
1001,21
1002,21
1003,20
1004,20
1005,20
1006,20
1007,20
1008,20
1009,20
1010,20
1011,20
1012,20
1013,21
1014,21
1015,20
1016,20
1017,20
1018,20
1019,20
1020,20
1021,20
1022,20
1023,20
1024,20
1025,20
1026,20
1027,20
1028,20
1029,20
1030,21
1031,21
1032,21
1033,20
1034,20
1035,20
1036,20
1037,20
1038,20
1039,20
1040,20
1041,20
1042,20
1043,20
1044,20
1045,20
1046,22
1047,21
1048,21
1049,21
1050,20
1051,20
1052,20
1053,20
1054,20
1055,21
1056,20
1057,20
1058,20
1059,20
1060,20
1061,20
1062,20
1063,20
1064,20
1065,20
1066,20
1067,20
1068,20
1069,20
1070,20
1071,20
1072,20
1073,20
1074,20
1075,21
1076,21
1077,21
1078,21
1079,21
1080,21
1081,21
1082,21
1083,22
1084,22
1085,21
1086,21
1087,21
1088,21
1089,21
1090,21
1091,21
1092,21
1093,21
1094,21
1095,21
1096,21
1097,21
1098,22
1099,22
1100,21
1101,22
1102,22
1103,22
1104,21
1105,21
1106,21
1107,21
1108,21
1109,21
1110,21
1111,21
1112,21
1113,21
1114,21
1115,21
1116,21
1117,21
1118,21
1119,21
1120,21
1121,21
1122,21
1123,21
1124,21
1125,21
1126,21
1127,21
1128,21
1129,21
1130,21
1131,22
1132,21
1133,21
1134,21
1135,21
1136,21
1137,21
1138,21
1139,21
1140,21
1141,21
1142,21
1143,21
1144,21
1145,23
1146,23
1147,21
1148,21
1149,21
1150,21
1151,21
1152,21
1153,21
1154,21
1155,21
1156,21
1157,21
1158,21
1159,21
1160,21
1161,21
1162,22
1163,22
1164,22
1165,22
1166,22
1167,22
1168,22
1169,22
1170,22
1171,22
1172,21
1173,22
1174,22
1175,21
1176,21
1177,21
1178,21
1179,21
1180,22
1181,22
1182,21
1183,21
1184,21
1185,21
1186,21
1187,21
1188,21
1189,21
1190,21
1191,21
1192,21
1193,21
1194,21
1195,21
1196,22
1197,21
1198,21
1199,21
1200,21
1201,21
1202,22
1203,22
1204,22
1205,21
1206,21
1207,21
1208,21
1209,21
1210,21
1211,21
1212,21
1213,21
1214,21
1215,21
1216,21
1217,21
1218,21
1219,21
1220,21
1221,21
1222,21
1223,21
1224,21
1225,21
1226,21
1227,21
1228,21
1229,21
1230,21
1231,21
1232,21
1233,21
1234,21
1235,21
1236,22
1237,21
1238,21
1239,21
1240,21
1241,21
1242,21
1243,21
1244,21
1245,21
1246,21
1247,21
1248,21
1249,21
1250,21
1251,21
1252,21
1253,22
1254,22
1255,22
1256,22
1257,22
1258,22
1259,22
1260,22
1261,21
1262,21
1263,21
1264,21
1265,21
1266,21
1267,21
1268,21
1269,21
1270,21
1271,21
1272,21
1273,21
1274,22
1275,21
1276,21
1277,21
1278,21
1279,21
1280,21
1281,21
1282,21
1283,21
1284,21
1285,21
1286,21
1287,21
1288,21
1289,21
1290,21
1291,21
1292,21
1293,21
1294,21
1295,21
1296,21
1297,21
1298,21
1299,22
1300,22
1301,21
1302,21
1303,21
1304,21
1305,21
1306,22
1307,22
1308,22
1309,21
1310,21
1311,21
1312,21
1313,21
1314,21
1315,21
1316,22
1317,21
1318,21
1319,21
1320,21
1321,21
1322,21
1323,21
1324,22
1325,22
1326,21
1327,21
1328,21
1329,21
1330,21
1331,21
1332,21
1333,21
1334,21
1335,21
1336,21
1337,21
1338,21
1339,21
1340,21
1341,22
1342,22
1343,22
1344,22
1345,22
1346,22
1347,23
1348,23
1349,23
1350,23
1351,23
1352,23
1353,23
1354,23
1355,23
1356,23
1357,23
1358,23
1359,23
1360,23
1361,23
1362,23
1363,23
1364,23
1365,23
1366,23
1367,23
1368,23
1369,23
1370,23
1371,23
1372,23
1373,23
1374,23
1375,23
1376,23
1377,23
1378,23
1379,23
1380,23
1381,23
1382,23
1383,23
1384,23
1385,23
1386,23
1387,23
1388,23
1389,23
1390,23
1391,23
1392,23
1393,23
1394,23
1395,23
1396,23
1397,23
1398,23
1399,23
1400,23
1401,23
1402,23
1403,23
1404,24
1405,23
1406,23
1407,23
1408,23
1409,23
1410,23
1411,23
1412,23
1413,23
1414,23
1415,23
1416,23
1417,23
1418,23
1419,23
1420,23
1421,23
1422,23
1423,23
1424,23
1425,23
1426,23
1427,23
1428,23
1429,23
1430,23
1431,23
1432,23
1433,23
1434,23
1435,23
1436,23
1437,23
1438,23
1439,23
1440,23
1441,23
1442,23
1443,23
1444,23
1445,23
1446,23
1447,23
1448,23
1449,23
1450,23
1451,23
1452,23
1453,23
1454,23
1455,23
1456,23
1457,23
1458,23
1459,23
1460,23
1461,23
1462,23
1463,23
1464,23
1465,23
1466,23
1467,23
1468,23
1469,23
1470,23
1471,23
1472,23
1473,23
1474,23
1475,23
1476,23
1477,23
1478,23
1479,23
1480,23
1481,23
1482,23
1483,23
1484,23
1485,23
1486,23
1487,23
1488,23
1489,23
1490,23
1491,23
1492,23
1493,23
1494,23
1495,23
1496,23
1497,23
1498,23
1499,23
1500,23
1501,23
1502,23
1503,23
1504,23
1505,23
1506,23
1507,23
1508,23
1509,23
1510,23
1511,23
1512,23
1513,23
1514,23
1515,23
1516,23
1517,23
1518,23
1519,23
1520,24
1521,23
1522,23
1523,23
1524,23
1525,23
1526,23
1527,23
1528,23
1529,23
1530,23
1531,23
1532,23
1533,24
1534,23
1535,23
1536,23
1537,24
1538,23
1539,23
1540,23
1541,23
1542,23
1543,23
1544,23
1545,23
1546,23
1547,23
1548,23
1549,23
1550,23
1551,23
1552,23
1553,23
1554,23
1555,23
1556,23
1557,23
1558,23
1559,23
1560,23
1561,24
1562,23
1563,23
1564,23
1565,23
1566,23
1567,23
1568,23
1569,23
1570,23
1571,23
1572,23
1573,23
1574,23
1575,23
1576,23
1577,23
1578,23
1579,23
1580,23
1581,23
1582,23
1583,23
1584,24
1585,24
1586,24
1587,23
1588,23
1589,23
1590,23
1591,23
1592,23
1593,23
1594,23
1595,23
1596,23
1597,23
1598,23
1599,23
1600,24
1601,23
1602,23
1603,23
1604,23
1605,23
1606,23
1607,23
1608,23
1609,23
1610,23
1611,23
1612,23
1613,23
1614,23
1615,23
1616,23
1617,23
1618,24
1619,24
1620,24
1621,24
1622,24
1623,24
1624,24
1625,23
1626,23
1627,23
1628,23
1629,23
1630,23
1631,23
1632,23
1633,23
1634,23
1635,23
1636,23
1637,23
1638,23
1639,23
1640,23
1641,23
1642,23
1643,23
1644,23
1645,23
1646,23
1647,23
1648,24
1649,23
1650,23
1651,23
1652,23
1653,23
1654,23
1655,24
1656,24
1657,24
1658,24
1659,24
1660,24
1661,24
1662,24
1663,24
1664,23
1665,23
1666,23
1667,24
1668,23
1669,23
1670,23
1671,23
1672,23
1673,23
1674,23
1675,23
1676,23
1677,23
1678,23
1679,23
1680,23
1681,23
1682,23
1683,23
1684,23
1685,23
1686,24
1687,24
1688,23
1689,23
1690,23
1691,23
1692,23
1693,23
1694,23
1695,23
1696,23
1697,24
1698,25
1699,25
1700,25
1701,25
1702,25
1703,25
1704,25
1705,25
1706,25
1707,25
1708,25
1709,24
1710,24
1711,24
1712,24
1713,24
1714,24
1715,24
1716,24
1717,24
1718,24
1719,24
1720,24
1721,24
1722,24
1723,24
1724,24
1725,23
1726,23
1727,23
1728,23
1729,23
1730,23
1731,23
1732,23
1733,23
1734,23
1735,23
1736,23
1737,23
1738,23
1739,23
1740,23
1741,23
1742,23
1743,23
1744,23
1745,23
1746,23
1747,24
1748,24
1749,24
1750,24
1751,24
1752,24
1753,24
1754,25
1755,26
1756,26
1757,25
1758,25
1759,24
1760,24
1761,25
1762,25
1763,25
1764,24
1765,24
1766,23
1767,23
1768,23
1769,23
1770,23
1771,23
1772,24
1773,23
1774,23
1775,23
1776,23
1777,24
1778,24
1779,24
1780,24
1781,25
1782,25
1783,25
1784,25
1785,25
1786,25
1787,24
1788,24
1789,24
1790,24
1791,24
1792,24
1793,24
1794,24
1795,24
1796,24
1797,25
1798,25
1799,25
1800,24
1801,24
1802,24
1803,24
1804,24
1805,24
1806,24
1807,25
1808,24
1809,24
1810,24
1811,24
1812,24
1813,24
1814,24
1815,24
1816,24
1817,24
1818,24
1819,24
1820,24
1821,25
1822,24
1823,24
1824,24
1825,24
1826,24
1827,26
1828,25
1829,25
1830,24
1831,24
1832,24
1833,24
1834,24
1835,24
1836,24
1837,24
1838,24
1839,24
1840,24
1841,24
1842,24
1843,24
1844,24
1845,24
1846,24
1847,24
1848,24
1849,24
1850,24
1851,24
1852,24
1853,24
1854,24
1855,24
1856,24
1857,24
1858,24
1859,24
1860,25
1861,24
1862,24
1863,24
1864,24
1865,24
1866,24
1867,24
1868,24
1869,24
1870,24
1871,24
1872,24
1873,24
1874,24
1875,24
1876,24
1877,24
1878,25
1879,25
1880,25
1881,25
1882,24
1883,24
1884,24
1885,24
1886,25
1887,25
1888,25
1889,26
1890,25
1891,24
1892,24
1893,24
1894,25
1895,24
1896,24
1897,24
1898,24
1899,24
1900,24
1901,24
1902,25
1903,25
1904,24
1905,24
1906,24
1907,24
1908,24
1909,24
1910,24
1911,24
1912,24
1913,24
1914,24
1915,24
1916,24
1917,25
1918,24
1919,24
1920,24
1921,24
1922,24
1923,24
1924,24
1925,24
1926,24
1927,24
1928,24
1929,25
1930,25
1931,25
1932,25
1933,26
1934,26
1935,25
1936,25
1937,25
1938,25
1939,25
1940,25
1941,24
1942,24
1943,24
1944,24
1945,24
1946,24
1947,24
1948,24
1949,24
1950,24
1951,24
1952,24
1953,24
1954,24
1955,24
1956,24
1957,24
1958,24
1959,24
1960,24
1961,25
1962,24
1963,24
1964,24
1965,24
1966,25
1967,24
1968,24
1969,24
1970,24
1971,24
1972,24
1973,24
1974,24
1975,26
1976,26
1977,25
1978,25
1979,24
1980,24
1981,24
1982,24
1983,24
1984,24
1985,24
1986,24
1987,24
1988,24
1989,24
1990,24
1991,24
1992,24
1993,25
1994,25
1995,25
1996,25
1997,25
1998,25
1999,25
2000,25
2001,25
2002,25
2003,25
2004,25
2005,25
2006,25
2007,25
2008,25
2009,25
2010,25
2011,25
2012,25
2013,25
2014,25
2015,25
2016,25
2017,25
2018,25
2019,25
2020,25
2021,25
2022,25
2023,25
2024,25
2025,25
2026,25
2027,25
2028,25
2029,26
2030,26
2031,26
2032,25
2033,25
2034,25
2035,25
2036,25
2037,25
2038,25
2039,25
2040,25
2041,25
2042,25
2043,25
2044,25
2045,25
2046,25
2047,25
2048,25
2049,25
2050,25
2051,25
2052,25
2053,25
2054,25
2055,25
2056,25
2057,25
2058,24
2059,24
2060,24
2061,24
2062,24
2063,24
2064,24
2065,24
2066,25
2067,25
2068,25
2069,25
2070,25
2071,25
2072,25
2073,25
2074,25
2075,25
2076,26
2077,25
2078,25
2079,25
2080,25
2081,26
2082,25
2083,25
2084,25
2085,25
2086,25
2087,25
2088,25
2089,25
2090,25
2091,25
2092,25
2093,25
2094,25
2095,25
2096,25
2097,25
2098,25
2099,25
2100,25
2101,25
2102,25
2103,25
2104,26
2105,26
2106,27
2107,27
2108,26
2109,26
2110,26
2111,26
2112,26
2113,26
2114,26
2115,26
2116,26
2117,26
2118,26
2119,26
2120,26
2121,26
2122,26
2123,26
2124,26
2125,26
2126,26
2127,26
2128,26
2129,26
2130,26
2131,26
2132,26
2133,26
2134,26
2135,26
2136,26
2137,26
2138,26
2139,26
2140,26
2141,26
2142,26
2143,26
2144,26
2145,26
2146,26
2147,26
2148,26
2149,26
2150,26
2151,26
2152,26
2153,26
2154,26
2155,26
2156,26
2157,26
2158,26
2159,26
2160,26
2161,26
2162,26
2163,26
2164,26
2165,26
2166,26
2167,26
2168,26
2169,26
2170,26
2171,26
2172,26
2173,26
2174,27
2175,26
2176,26
2177,26
2178,26
2179,26
2180,26
2181,26
2182,27
2183,26
2184,26
2185,26
2186,26
2187,26
2188,26
2189,26
2190,27
2191,26
2192,27
2193,27
2194,27
2195,26
2196,26
2197,26
2198,26
2199,26
2200,26
2201,26
2202,26
2203,26
2204,26
2205,26
2206,26
2207,26
2208,26
2209,27
2210,27
2211,26
2212,26
2213,26
2214,26
2215,26
2216,26
2217,26
2218,26
2219,26
2220,26
2221,26
2222,27
2223,27
2224,27
2225,27
2226,27
2227,26
2228,26
2229,26
2230,26
2231,26
2232,26
2233,26
2234,26
2235,26
2236,26
2237,26
2238,26
2239,26
2240,26
2241,26
2242,26
2243,26
2244,26
2245,26
2246,27
2247,27
2248,27
2249,27
2250,27
2251,27
2252,27
2253,27
2254,27
2255,27
2256,27
2257,27
2258,27
2259,27
2260,26
2261,26
2262,26
2263,26
2264,26
2265,26
2266,26
2267,26
2268,26
2269,26
2270,26
2271,26
2272,26
2273,26
2274,26
2275,26
2276,26
2277,26
2278,26
2279,26
2280,26
2281,26
2282,27
2283,27
2284,25
2285,25
2286,25
2287,26
2288,25
2289,25
2290,25
2291,25
2292,25
2293,25
2294,26
2295,26
2296,26
2297,26
2298,26
2299,26
2300,26
2301,26
2302,26
2303,26
2304,26
2305,26
2306,27
2307,27
2308,27
2309,27
2310,27
2311,25
2312,25
2313,25
2314,25
2315,25
2316,25
2317,25
2318,25
2319,25
2320,25
2321,25
2322,25
2323,25
2324,25
2325,25
2326,25
2327,25
2328,25
2329,25
2330,25
2331,25
2332,25
2333,25
2334,25
2335,25
2336,25
2337,25
2338,25
2339,25
2340,25
2341,25
2342,25
2343,25
2344,25
2345,25
2346,25
2347,25
2348,25
2349,25
2350,25
2351,25
2352,25
2353,25
2354,25
2355,25
2356,25
2357,25
2358,25
2359,25
2360,25
2361,25
2362,25
2363,25
2364,25
2365,25
2366,25
2367,25
2368,25
2369,25
2370,25
2371,25
2372,25
2373,25
2374,25
2375,25
2376,25
2377,25
2378,25
2379,25
2380,25
2381,25
2382,25
2383,25
2384,25
2385,25
2386,25
2387,25
2388,25
2389,25
2390,25
2391,25
2392,25
2393,25
2394,25
2395,25
2396,25
2397,25
2398,25
2399,25
2400,25
2401,25
2402,25
2403,25
2404,25
2405,26
2406,25
2407,25
2408,25
2409,25
2410,25
2411,25
2412,25
2413,26
2414,25
2415,25
2416,25
2417,25
2418,25
2419,25
2420,25
2421,25
2422,25
2423,25
2424,25
2425,25
2426,25
2427,25
2428,25
2429,25
2430,25
2431,25
2432,25
2433,25
2434,25
2435,25
2436,25
2437,25
2438,25
2439,25
2440,25
2441,25
2442,26
2443,26
2444,26
2445,26
2446,26
2447,26
2448,25
2449,25
2450,25
2451,25
2452,25
2453,25
2454,25
2455,25
2456,25
2457,25
2458,25
2459,26
2460,26
2461,26
2462,26
2463,26
2464,26
2465,26
2466,26
2467,26
2468,25
2469,26
2470,25
2471,25
2472,25
2473,25
2474,25
2475,25
2476,25
2477,25
2478,25
2479,25
2480,25
2481,25
2482,25
2483,25
2484,25
2485,25
2486,25
2487,25
2488,25
2489,25
2490,25
2491,25
2492,25
2493,25
2494,25
2495,25
2496,26
2497,26
2498,26
2499,26
2500,25
2501,25
2502,25
2503,25
2504,25
2505,25
2506,25
2507,25
2508,25
2509,25
2510,25
2511,25
2512,25
2513,25
2514,25
2515,25
2516,25
2517,25
2518,25
2519,25
2520,25
2521,25
2522,25
2523,25
2524,25
2525,25
2526,25
2527,25
2528,25
2529,25
2530,25
2531,25
2532,25
2533,25
2534,25
2535,25
2536,25
2537,26
2538,26
2539,26
2540,25
2541,25
2542,25
2543,25
2544,25
2545,25
2546,25
2547,25
2548,26
2549,26
2550,26
2551,26
2552,26
2553,26
2554,26
2555,26
2556,27
2557,26
2558,27
2559,27
2560,26
2561,26
2562,26
2563,26
2564,26
2565,26
2566,26
2567,26
2568,25
2569,25
2570,25
2571,26
2572,25
2573,25
2574,25
2575,25
2576,25
2577,25
2578,25
2579,26
2580,25
2581,25
2582,25
2583,25
2584,25
2585,25
2586,25
2587,25
2588,25
2589,25
2590,25
2591,25
2592,26
2593,26
2594,25
2595,25
2596,25
2597,25
2598,25
2599,25
2600,25
2601,25
2602,25
2603,25
2604,25
2605,25
2606,25
2607,26
2608,26
2609,26
2610,26
2611,25
2612,25
2613,26
2614,25
2615,25
2616,25
2617,25
2618,25
2619,25
2620,25
2621,25
2622,25
2623,25
2624,26
2625,26
2626,25
2627,25
2628,25
2629,25
2630,25
2631,25
2632,25
2633,25
2634,25
2635,25
2636,25
2637,25
2638,25
2639,26
2640,27
2641,26
2642,26
2643,26
2644,26
2645,26
2646,25
2647,25
2648,25
2649,25
2650,25
2651,25
2652,25
2653,25
2654,25
2655,25
2656,25
2657,25
2658,25
2659,25
2660,25
2661,25
2662,25
2663,25
2664,25
2665,25
2666,25
2667,25
2668,25
2669,25
2670,25
2671,25
2672,25
2673,25
2674,25
2675,25
2676,25
2677,25
2678,25
2679,25
2680,25
2681,25
2682,25
2683,25
2684,25
2685,25
2686,25
2687,25
2688,25
2689,25
2690,25
2691,25
2692,25
2693,25
2694,25
2695,25
2696,25
2697,25
2698,25
2699,25
2700,25
2701,25
2702,25
2703,25
2704,25
2705,26
2706,25
2707,25
2708,25
2709,25
2710,25
2711,25
2712,25
2713,25
2714,25
2715,25
2716,25
2717,25
2718,25
2719,26
2720,25
2721,25
2722,25
2723,25
2724,25
2725,25
2726,25
2727,25
2728,25
2729,25
2730,25
2731,25
2732,25
2733,25
2734,25
2735,25
2736,25
2737,25
2738,25
2739,25
2740,25
2741,25
2742,25
2743,25
2744,25
2745,25
2746,25
2747,25
2748,25
2749,25
2750,25
2751,25
2752,25
2753,25
2754,26
2755,25
2756,25
2757,25
2758,25
2759,25
2760,25
2761,25
2762,25
2763,25
2764,25
2765,25
2766,25
2767,26
2768,26
2769,26
2770,25
2771,25
2772,25
2773,25
2774,25
2775,25
2776,26
2777,25
2778,25
2779,25
2780,25
2781,25
2782,25
2783,25
2784,25
2785,25
2786,25
2787,25
2788,25
2789,25
2790,25
2791,25
2792,25
2793,25
2794,25
2795,25
2796,25
2797,25
2798,25
2799,25
2800,25
2801,25
2802,25
2803,25
2804,25
2805,25
2806,25
2807,25
2808,25
2809,25
2810,25
2811,25
2812,25
2813,25
2814,25
2815,25
2816,25
2817,25
2818,25
2819,25
2820,25
2821,25
2822,25
2823,25
2824,25
2825,26
2826,25
2827,25
2828,25
2829,25
2830,25
2831,25
2832,25
2833,25
2834,25
2835,25
2836,25
2837,25
2838,25
2839,25
2840,25
2841,25
2842,25
2843,25
2844,25
2845,25
2846,25
2847,25
2848,25
2849,25
2850,25
2851,25
2852,25
2853,25
2854,26
2855,26
2856,26
2857,25
2858,25
2859,25
2860,25
2861,25
2862,25
2863,25
2864,25
2865,25
2866,25
2867,25
2868,26
2869,25
2870,25
2871,25
2872,25
2873,25
2874,25
2875,25
2876,25
2877,25
2878,25
2879,26
2880,25
2881,25
2882,25
2883,25
2884,25
2885,25
2886,25
2887,25
2888,25
2889,25
2890,26
2891,28
2892,27
2893,27
2894,26
2895,26
2896,27
2897,26
2898,26
2899,26
2900,26
2901,27
2902,27
2903,27
2904,27
2905,27
2906,26
2907,26
2908,26
2909,27
2910,26
2911,26
2912,26
2913,26
2914,26
2915,26
2916,26
2917,26
2918,26
2919,26
2920,26
2921,26
2922,26
2923,26
2924,26
2925,26
2926,26
2927,26
2928,26
2929,27
2930,27
2931,27
2932,27
2933,28
2934,27
2935,27
2936,27
2937,27
2938,27
2939,27
2940,27
2941,28
2942,28
2943,28
2944,28
2945,28
2946,28
2947,28
2948,28
2949,27
2950,27
2951,27
2952,27
2953,27
2954,27
2955,27
2956,27
2957,27
2958,27
2959,27
2960,27
2961,27
2962,27
2963,27
2964,26
2965,26
2966,26
2967,26
2968,26
2969,26
2970,26
2971,27
2972,27
2973,27
2974,28
2975,28
2976,27
2977,27
2978,27
2979,27
2980,27
2981,27
2982,27
2983,27
2984,27
2985,27
2986,27
2987,27
2988,28
2989,27
2990,27
2991,28
2992,28
2993,27
2994,27
2995,28
2996,27
2997,28
2998,28
2999,27
3000,27
3001,27
3002,27
3003,27
3004,27
3005,27
3006,27
3007,27
3008,27
3009,28
3010,29
3011,29
3012,29
3013,29
3014,29
3015,27
3016,28
3017,27
3018,27
3019,27
3020,27
3021,27
3022,27
3023,27
3024,27
3025,27
3026,27
3027,27
3028,27
3029,27
3030,27
3031,27
3032,27
3033,27
3034,27
3035,27
3036,28
3037,27
3038,27
3039,27
3040,27
3041,27
3042,27
3043,28
3044,28
3045,28
3046,28
3047,28
3048,28
3049,28
3050,28
3051,28
3052,27
3053,27
3054,27
3055,27
3056,27
3057,28
3058,27
3059,27
3060,27
3061,27
3062,27
3063,27
3064,27
3065,27
3066,27
3067,27
3068,27
3069,27
3070,27
3071,27
3072,27
3073,27
3074,28
3075,28
3076,28
3077,28
3078,28
3079,28
3080,28
3081,28
3082,28
3083,28
3084,28
3085,28
3086,28
3087,28
3088,28
3089,28
3090,28
3091,28
3092,28
3093,28
3094,28
3095,28
3096,28
3097,28
3098,28
3099,28
3100,28
3101,28
3102,28
3103,28
3104,28
3105,27
3106,27
3107,27
3108,27
3109,27
3110,27
3111,27
3112,27
3113,27
3114,27
3115,27
3116,27
3117,27
3118,27
3119,27
3120,27
3121,27
3122,27
3123,27
3124,27
3125,27
3126,27
3127,27
3128,27
3129,27
3130,27
3131,27
3132,27
3133,27
3134,27
3135,27
3136,27
3137,28
3138,28
3139,29
3140,28
3141,28
3142,28
3143,28
3144,28
3145,28
3146,28
3147,28
3148,28
3149,28
3150,28
3151,28
3152,28
3153,28
3154,29
3155,28
3156,27
3157,27
3158,27
3159,27
3160,27
3161,27
3162,27
3163,27
3164,27
3165,27
3166,27
3167,27
3168,27
3169,27
3170,27
3171,27
3172,27
3173,27
3174,27
3175,27
3176,27
3177,27
3178,27
3179,27
3180,27
3181,27
3182,27
3183,27
3184,27
3185,27
3186,27
3187,27
3188,27
3189,27
3190,27
3191,27
3192,27
3193,27
3194,27
3195,27
3196,27
3197,27
3198,27
3199,27
3200,27
3201,27
3202,27
3203,27
3204,27
3205,27
3206,27
3207,27
3208,27
3209,27
3210,27
3211,27
3212,27
3213,27
3214,27
3215,27
3216,27
3217,27
3218,27
3219,27
3220,27
3221,27
3222,27
3223,27
3224,28
3225,28
3226,27
3227,27
3228,27
3229,27
3230,27
3231,27
3232,27
3233,27
3234,27
3235,27
3236,27
3237,27
3238,27
3239,27
3240,27
3241,27
3242,27
3243,27
3244,27
3245,27
3246,27
3247,27
3248,27
3249,27
3250,28
3251,28
3252,27
3253,27
3254,27
3255,27
3256,27
3257,27
3258,27
3259,27
3260,27
3261,28
3262,28
3263,28
3264,27
3265,27
3266,27
3267,27
3268,27
3269,27
3270,27
3271,27
3272,28
3273,28
3274,28
3275,28
3276,29
3277,28
3278,28
3279,28
3280,28
3281,28
3282,28
3283,28
3284,28
3285,28
3286,28
3287,28
3288,28
3289,28
3290,28
3291,29
3292,28
3293,28
3294,28
3295,28
3296,28
3297,28
3298,28
3299,28
3300,28
3301,28
3302,28
3303,28
3304,28
3305,28
3306,28
3307,28
3308,28
3309,28
3310,28
3311,28
3312,28
3313,28
3314,28
3315,28
3316,28
3317,28
3318,28
3319,28
3320,28
3321,28
3322,28
3323,28
3324,28
3325,28
3326,28
3327,28
3328,28
3329,28
3330,28
3331,28
3332,28
3333,28
3334,29
3335,28
3336,28
3337,28
3338,28
3339,28
3340,28
3341,28
3342,28
3343,28
3344,28
3345,28
3346,29
3347,29
3348,29
3349,29
3350,29
3351,29
3352,29
3353,28
3354,28
3355,28
3356,28
3357,28
3358,28
3359,28
3360,28
3361,28
3362,28
3363,28
3364,28
3365,28
3366,28
3367,28
3368,28
3369,28
3370,28
3371,28
3372,28
3373,28
3374,28
3375,28
3376,28
3377,28
3378,28
3379,28
3380,28
3381,28
3382,28
3383,28
3384,28
3385,28
3386,28
3387,28
3388,28
3389,28
3390,29
3391,30
3392,30
3393,29
3394,29
3395,28
3396,28
3397,28
3398,28
3399,28
3400,28
3401,28
3402,28
3403,28
3404,28
3405,28
3406,28
3407,28
3408,28
3409,28
3410,28
3411,28
3412,28
3413,28
3414,28
3415,28
3416,29
3417,29
3418,28
3419,28
3420,28
3421,28
3422,28
3423,29
3424,29
3425,28
3426,28
3427,28
3428,28
3429,29
3430,28
3431,28
3432,28
3433,28
3434,28
3435,28
3436,28
3437,28
3438,28
3439,29
3440,28
3441,28
3442,28
3443,28
3444,28
3445,28
3446,28
3447,29
3448,30
3449,29
3450,29
3451,29
3452,30
3453,29
3454,29
3455,29
3456,29
3457,29
3458,28
3459,28
3460,29
3461,28
3462,28
3463,28
3464,28
3465,28
3466,28
3467,28
3468,28
3469,28
3470,28
3471,28
3472,28
3473,28
3474,28
3475,28
3476,28
3477,28
3478,28
3479,28
3480,28
3481,28
3482,29
3483,29
3484,28
3485,28
3486,28
3487,28
3488,28
3489,28
3490,28
3491,28
3492,28
3493,28
3494,28
3495,28
3496,28
3497,29
3498,29
3499,29
3500,28
3501,28
3502,28
3503,28
3504,28
3505,28
3506,28
3507,28
3508,28
3509,28
3510,28
3511,28
3512,28
3513,28
3514,28
3515,28
3516,28
3517,28
3518,28
3519,28
3520,28
3521,28
3522,28
3523,28
3524,28
3525,28
3526,28
3527,28
3528,28
3529,28
3530,28
3531,28
3532,28
3533,28
3534,28
3535,28
3536,28
3537,28
3538,28
3539,28
3540,28
3541,28
3542,28
3543,28
3544,28
3545,28
3546,28
3547,28
3548,28
3549,28
3550,28
3551,28
3552,28
3553,28
3554,28
3555,28
3556,28
3557,28
3558,28
3559,28
3560,28
3561,28
3562,28
3563,28
3564,28
3565,28
3566,28
3567,28
3568,28
3569,28
3570,29
3571,29
3572,30
3573,30
3574,29
3575,29
3576,29
3577,30
3578,29
3579,29
3580,29
3581,29
3582,29
3583,29
3584,29
3585,30
3586,31
3587,30
3588,29
3589,28
3590,28
3591,28
3592,28
3593,28
3594,28
3595,28
3596,28
3597,28
3598,28
3599,29
3600,29
3601,29
3602,29
3603,29
3604,29
3605,29
3606,28
3607,28
3608,28
3609,29
3610,29
3611,29
3612,28
3613,28
3614,28
3615,28
3616,28
3617,28
3618,28
3619,28
3620,28
3621,28
3622,28
3623,28
3624,28
3625,28
3626,28
3627,28
3628,28
3629,28
3630,28
3631,28
3632,28
3633,28
3634,28
3635,29
3636,28
3637,28
3638,28
3639,28
3640,28
3641,28
3642,28
3643,28
3644,28
3645,28
3646,28
3647,28
3648,28
3649,28
3650,28
3651,28
3652,28
3653,28
3654,28
3655,28
3656,28
3657,28
3658,28
3659,28
3660,28
3661,28
3662,28
3663,28
3664,29
3665,29
3666,29
3667,29
3668,29
3669,29
3670,28
3671,28
3672,29
3673,28
3674,28
3675,28
3676,28
3677,28
3678,28
3679,28
3680,28
3681,28
3682,28
3683,28
3684,28
3685,28
3686,28
3687,28
3688,28
3689,28
3690,28
3691,28
3692,28
3693,28
3694,28
3695,28
3696,28
3697,28
3698,28
3699,28
3700,28
3701,28
3702,28
3703,28
3704,28
3705,28
3706,28
3707,28
3708,28
3709,28
3710,28
3711,28
3712,28
3713,28
3714,28
3715,28
3716,28
3717,28
3718,28
3719,28
3720,29
3721,29
3722,28
3723,28
3724,28
3725,29
3726,29
3727,28
3728,28
3729,29
3730,30
3731,29
3732,29
3733,28
3734,28
3735,28
3736,28
3737,28
3738,29
3739,28
3740,28
3741,29
3742,28
3743,28
3744,28
3745,28
3746,28
3747,28
3748,28
3749,29
3750,28
3751,28
3752,29
3753,29
3754,29
3755,29
3756,29
3757,29
3758,29
3759,29
3760,29
3761,29
3762,29
3763,29
3764,29
3765,29
3766,29
3767,29
3768,28
3769,28
3770,28
3771,28
3772,28
3773,28
3774,28
3775,28
3776,28
3777,28
3778,28
3779,28
3780,28
3781,28
3782,28
3783,29
3784,30
3785,29
3786,30
3787,30
3788,29
3789,29
3790,29
3791,29
3792,29
3793,29
3794,30
3795,29
3796,29
3797,29
3798,29
3799,29
3800,29
3801,29
3802,29
3803,29
3804,29
3805,29
3806,29
3807,28
3808,28
3809,28
3810,28
3811,28
3812,28
3813,28
3814,28
3815,28
3816,28
3817,28
3818,28
3819,28
3820,28
3821,28
3822,28
3823,28
3824,28
3825,28
3826,28
3827,28
3828,28
3829,28
3830,28
3831,28
3832,28
3833,28
3834,28
3835,28
3836,28
3837,29
3838,29
3839,28
3840,28
3841,28
3842,28
3843,28
3844,28
3845,28
3846,28
3847,28
3848,28
3849,29
3850,29
3851,29
3852,29
3853,29
3854,28
3855,28
3856,28
3857,28
3858,28
3859,29
3860,29
3861,29
3862,29
3863,29
3864,29
3865,28
3866,28
3867,28
3868,28
3869,28
3870,28
3871,28
3872,28
3873,29
3874,29
3875,29
3876,29
3877,29
3878,29
3879,29
3880,29
3881,29
3882,29
3883,29
3884,29
3885,29
3886,29
3887,29
3888,28
3889,28
3890,28
3891,28
3892,28
3893,28
3894,28
3895,28
3896,28
3897,28
3898,28
3899,28
3900,28
3901,28
3902,28
3903,28
3904,28
3905,29
3906,28
3907,28
3908,28
3909,28
3910,28
3911,28
3912,29
3913,29
3914,29
3915,29
3916,29
3917,29
3918,29
3919,29
3920,29
3921,29
3922,29
3923,28
3924,28
3925,28
3926,28
3927,28
3928,28
3929,29
3930,29
3931,29
3932,29
3933,29
3934,29
3935,29
3936,29
3937,30
3938,29
3939,29
3940,29
3941,29
3942,30
3943,30
3944,30
3945,30
3946,29
3947,29
3948,29
3949,29
3950,29
3951,30
3952,29
3953,30
3954,31
3955,31
3956,31
3957,31
3958,30
3959,30
3960,30
3961,31
3962,30
3963,30
3964,31
3965,30
3966,30
3967,30
3968,30
3969,30
3970,30
3971,30
3972,30
3973,30
3974,30
3975,30
3976,30
3977,30
3978,30
3979,30
3980,30
3981,31
3982,31
3983,31
3984,30
3985,30
3986,30
3987,30
3988,30
3989,30
3990,30
3991,30
3992,30
3993,30
3994,30
3995,30
3996,30
3997,30
3998,30
3999,30
4000,30
4001,30
4002,30
4003,30
4004,31
4005,31
4006,30
4007,30
4008,30
4009,30
4010,30
4011,30
4012,30
4013,30
4014,30
4015,30
4016,30
4017,31
4018,32
4019,32
4020,32
4021,32
4022,31
4023,31
4024,31
4025,31
4026,31
4027,31
4028,31
4029,31
4030,32
4031,32
4032,32
4033,32
4034,32
4035,32
4036,32
4037,32
4038,32
4039,32
4040,31
4041,31
4042,31
4043,31
4044,31
4045,32
4046,32
4047,32
4048,32
4049,32
4050,32
4051,32
4052,32
4053,32
4054,32
4055,32
4056,32
4057,31
4058,31
4059,31
4060,31
4061,31
4062,31
4063,31
4064,31
4065,31
4066,31
4067,31
4068,31
4069,31
4070,31
4071,31
4072,31
4073,32
4074,32
4075,32
4076,32
4077,32
4078,32
4079,32
4080,32
4081,31
4082,31
4083,31
4084,32
4085,32
4086,32
4087,32
4088,32
4089,32
4090,32
4091,33
4092,33
4093,33
4094,34
4095,34
4096,34
4097,33
4098,33
4099,33
4100,33
4101,34
4102,33
4103,33
4104,33
4105,33
4106,33
4107,33
4108,33
4109,33
4110,33
4111,33
4112,33
4113,33
4114,33
4115,34
4116,34
4117,34
4118,34
4119,35
4120,35
4121,35
4122,35
4123,35
4124,35
4125,35
4126,35
4127,34
4128,34
4129,34
4130,34
4131,33
4132,33
4133,33
4134,33
4135,33
4136,33
4137,33
4138,33
4139,33
4140,33
4141,33
4142,33
4143,33
4144,33
4145,32
4146,32
4147,32
4148,33
4149,33
4150,33
4151,33
4152,33
4153,32
4154,32
4155,32
4156,33
4157,33
4158,33
4159,33
4160,33
4161,33
4162,33
4163,33
4164,32
4165,32
4166,32
4167,32
4168,32
4169,32
4170,32
4171,32
4172,32
4173,32
4174,32
4175,32
4176,32
4177,32
4178,32
4179,32
4180,32
4181,32
4182,32
4183,32
4184,32
4185,32
4186,32
4187,33
4188,32
4189,32
4190,32
4191,32
4192,32
4193,32
4194,32
4195,32
4196,32
4197,32
4198,32
4199,32
4200,32
4201,32
4202,32
4203,32
4204,32
4205,32
4206,32
4207,32
4208,32
4209,32
4210,32
4211,32
4212,32
4213,32
4214,32
4215,32
4216,32
4217,32
4218,32
4219,32
4220,32
4221,32
4222,31
4223,31
4224,31
4225,31
4226,31
4227,31
4228,31
4229,31
4230,31
4231,31
4232,31
4233,31
4234,31
4235,31
4236,32
4237,31
4238,31
4239,31
4240,31
4241,31
4242,31
4243,31
4244,31
4245,31
4246,31
4247,31
4248,31
4249,31
4250,31
4251,31
4252,31
4253,31
4254,31
4255,31
4256,31
4257,31
4258,31
4259,31
4260,31
4261,31
4262,31
4263,31
4264,31
4265,31
4266,31
4267,31
4268,31
4269,32
4270,32
4271,31
4272,31
4273,31
4274,31
4275,32
4276,31
4277,31
4278,31
4279,31
4280,31
4281,31
4282,31
4283,31
4284,31
4285,31
4286,31
4287,31
4288,31
4289,31
4290,31
4291,31
4292,31
4293,31
4294,31
4295,31
4296,31
4297,31
4298,31
4299,31
4300,31
4301,31
4302,31
4303,32
4304,32
4305,32
4306,32
4307,32
4308,32
4309,32
4310,32
4311,32
4312,32
4313,32
4314,32
4315,32
4316,32
4317,32
4318,32
4319,33
4320,33
4321,33
4322,32
4323,32
4324,32
4325,32
4326,32
4327,32
4328,32
4329,32
4330,32
4331,32
4332,32
4333,32
4334,33
4335,33
4336,33
4337,33
4338,33
4339,33
4340,33
4341,33
4342,33
4343,33
4344,32
4345,32
4346,32
4347,32
4348,32
4349,32
4350,32
4351,32
4352,32
4353,32
4354,32
4355,31
4356,31
4357,31
4358,31
4359,31
4360,31
4361,31
4362,31
4363,31
4364,31
4365,31
4366,31
4367,31
4368,31
4369,31
4370,31
4371,31
4372,31
4373,31
4374,31
4375,31
4376,31
4377,31
4378,31
4379,31
4380,31
4381,32
4382,32
4383,32
4384,32
4385,32
4386,32
4387,32
4388,33
4389,33
4390,33
4391,32
4392,32
4393,32
4394,32
4395,32
4396,32
4397,32
4398,32
4399,32
4400,32
4401,32
4402,32
4403,32
4404,32
4405,32
4406,31
4407,31
4408,31
4409,32
4410,32
4411,31
4412,31
4413,31
4414,31
4415,31
4416,31
4417,31
4418,31
4419,33
4420,31
4421,31
4422,31
4423,31
4424,31
4425,31
4426,31
4427,31
4428,31
4429,31
4430,31
4431,31
4432,31
4433,31
4434,32
4435,31
4436,31
4437,31
4438,31
4439,31
4440,31
4441,31
4442,31
4443,31
4444,31
4445,31
4446,31
4447,31
4448,31
4449,31
4450,31
4451,31
4452,31
4453,31
4454,31
4455,31
4456,31
4457,31
4458,31
4459,31
4460,31
4461,31
4462,31
4463,31
4464,31
4465,31
4466,31
4467,31
4468,31
4469,31
4470,31
4471,31
4472,31
4473,31
4474,31
4475,31
4476,31
4477,31
4478,31
4479,31
4480,31
4481,31
4482,31
4483,31
4484,31
4485,31
4486,31
4487,31
4488,31
4489,31
4490,31
4491,31
4492,31
4493,31
4494,31
4495,31
4496,32
4497,32
4498,32
4499,32
4500,32
4501,32
4502,32
4503,32
4504,31
4505,31
4506,31
4507,31
4508,31
4509,32
4510,32
4511,32
4512,32
4513,31
4514,31
4515,31
4516,31
4517,31
4518,31
4519,31
4520,31
4521,31
4522,31
4523,31
4524,31
4525,31
4526,31
4527,32
4528,32
4529,32
4530,32
4531,32
4532,32
4533,32
4534,32
4535,31
4536,31
4537,31
4538,31
4539,31
4540,31
4541,31
4542,31
4543,31
4544,31
4545,31
4546,31
4547,32
4548,31
4549,31
4550,31
4551,31
4552,31
4553,31
4554,31
4555,31
4556,31
4557,31
4558,31
4559,31
4560,31
4561,31
4562,31
4563,32
4564,32
4565,32
4566,31
4567,31
4568,31
4569,31
4570,31
4571,31
4572,31
4573,31
4574,31
4575,31
4576,31
4577,31
4578,31
4579,31
4580,31
4581,31
4582,31
4583,31
4584,31
4585,31
4586,31
4587,31
4588,31
4589,31
4590,31
4591,31
4592,31
4593,31
4594,31
4595,31
4596,31
4597,31
4598,31
4599,31
4600,31
4601,31
4602,31
4603,31
4604,31
4605,32
4606,32
4607,31
4608,31
4609,31
4610,31
4611,31
4612,32
4613,31
4614,31
4615,31
4616,31
4617,31
4618,31
4619,31
4620,31
4621,31
4622,31
4623,31
4624,31
4625,31
4626,32
4627,32
4628,32
4629,31
4630,31
4631,31
4632,31
4633,31
4634,31
4635,31
4636,31
4637,32
4638,31
4639,31
4640,31
4641,31
4642,31
4643,31
4644,31
4645,31
4646,31
4647,31
4648,31
4649,32
4650,32
4651,32
4652,32
4653,32
4654,32
4655,32
4656,32
4657,32
4658,32
4659,32
4660,32
4661,32
4662,32
4663,32
4664,32
4665,32
4666,32
4667,32
4668,32
4669,32
4670,32
4671,32
4672,32
4673,32
4674,32
4675,32
4676,33
4677,32
4678,32
4679,32
4680,32
4681,32
4682,32
4683,32
4684,32
4685,32
4686,32
4687,33
4688,32
4689,32
4690,32
4691,33
4692,32
4693,32
4694,32
4695,32
4696,32
4697,32
4698,32
4699,32
4700,32
4701,32
4702,32
4703,32
4704,33
4705,33
4706,32
4707,32
4708,32
4709,32
4710,32
4711,33
4712,33
4713,33
4714,32
4715,32
4716,32
4717,32
4718,32
4719,32
4720,32
4721,32
4722,32
4723,32
4724,33
4725,32
4726,32
4727,32
4728,32
4729,33
4730,32
4731,32
4732,32
4733,32
4734,32
4735,32
4736,32
4737,32
4738,32
4739,32
4740,32
4741,32
4742,32
4743,32
4744,32
4745,32
4746,32
4747,32
4748,32
4749,32
4750,33
4751,33
4752,33
4753,33
4754,32
4755,32
4756,32
4757,32
4758,32
4759,33
4760,32
4761,32
4762,32
4763,32
4764,32
4765,32
4766,32
4767,33
4768,33
4769,33
4770,33
4771,34
4772,34
4773,33
4774,33
4775,33
4776,33
4777,33
4778,33
4779,33
4780,33
4781,33
4782,33
4783,33
4784,33
4785,33
4786,33
4787,33
4788,33
4789,33
4790,33
4791,33
4792,33
4793,33
4794,33
4795,33
4796,33
4797,34
4798,34
4799,34
4800,34
4801,34
4802,34
4803,33
4804,33
4805,33
4806,33
4807,33
4808,33
4809,33
4810,33
4811,33
4812,33
4813,33
4814,33
4815,33
4816,33
4817,33
4818,33
4819,33
4820,33
4821,33
4822,33
4823,33
4824,33
4825,33
4826,33
4827,33
4828,33
4829,33
4830,33
4831,33
4832,33
4833,33
4834,33
4835,33
4836,33
4837,33
4838,33
4839,33
4840,33
4841,33
4842,33
4843,33
4844,33
4845,33
4846,33
4847,33
4848,33
4849,33
4850,33
4851,33
4852,33
4853,33
4854,33
4855,33
4856,33
4857,33
4858,33
4859,33
4860,33
4861,33
4862,33
4863,33
4864,33
4865,33
4866,33
4867,33
4868,33
4869,33
4870,33
4871,33
4872,33
4873,33
4874,33
4875,33
4876,33
4877,33
4878,33
4879,33
4880,33
4881,33
4882,33
4883,33
4884,33
4885,33
4886,33
4887,33
4888,34
4889,34
4890,33
4891,33
4892,33
4893,33
4894,33
4895,33
4896,33
4897,33
4898,32
4899,32
4900,32
4901,32
4902,32
4903,32
4904,32
4905,32
4906,32
4907,32
4908,32
4909,32
4910,32
4911,32
4912,32
4913,32
4914,33
4915,32
4916,32
4917,33
4918,32
4919,32
4920,32
4921,32
4922,32
4923,32
4924,32
4925,32
4926,32
4927,32
4928,32
4929,32
4930,32
4931,32
4932,32
4933,32
4934,32
4935,32
4936,32
4937,32
4938,32
4939,32
4940,32
4941,32
4942,32
4943,32
4944,32
4945,32
4946,32
4947,32
4948,32
4949,32
4950,32
4951,32
4952,32
4953,31
4954,32
4955,31
4956,31
4957,31
4958,31
4959,31
4960,31
4961,31
4962,31
4963,32
4964,31
4965,31
4966,32
4967,31
4968,31
4969,31
4970,31
4971,31
4972,31
4973,31
4974,31
4975,32
4976,31
4977,31
4978,31
4979,32
4980,31
4981,31
4982,32
4983,31
4984,31
4985,32
4986,32
4987,31
4988,31
4989,31
4990,31
4991,31
4992,31
4993,31
4994,31
4995,31
4996,31
4997,31
4998,31
4999,31
5000,31
5001,31
5002,31
5003,31
5004,31
5005,31
5006,31
5007,31
5008,31
5009,31
5010,31
5011,31
5012,31
5013,31
5014,31
5015,31
5016,31
5017,31
5018,31
5019,31
5020,31
5021,31
5022,31
5023,31
5024,31
5025,31
5026,31
5027,31
5028,31
5029,33
5030,32
5031,32
5032,31
5033,31
5034,31
5035,31
5036,31
5037,31
5038,31
5039,31
5040,31
5041,31
5042,31
5043,31
5044,31
5045,31
5046,31
5047,31
5048,31
5049,31
5050,31
5051,31
5052,31
5053,31
5054,31
5055,31
5056,31
5057,31
5058,31
5059,31
5060,31
5061,31
5062,31
5063,31
5064,31
5065,31
5066,31
5067,31
5068,31
5069,31
5070,31
5071,31
5072,31
5073,31
5074,31
5075,31
5076,31
5077,31
5078,32
5079,32
5080,32
5081,32
5082,32
5083,32
5084,32
5085,32
5086,32
5087,31
5088,31
5089,32
5090,33
5091,32
5092,31
5093,31
5094,31
5095,31
5096,31
5097,31
5098,31
5099,31
5100,31
5101,31
5102,31
5103,32
5104,32
5105,32
5106,31
5107,31
5108,31
5109,31
5110,31
5111,31
5112,31
5113,31
5114,31
5115,31
5116,31
5117,31
5118,31
5119,32
5120,32
5121,32
5122,32
5123,32
5124,32
5125,32
5126,32
5127,32
5128,32
5129,32
5130,32
5131,32
5132,32
5133,32
5134,33
5135,33
5136,32
5137,32
5138,32
5139,33
5140,33
5141,33
5142,33
5143,33
5144,33
5145,33
5146,33
5147,32
5148,32
5149,32
5150,32
5151,32
5152,32
5153,32
5154,32
5155,32
5156,32
5157,32
5158,32
5159,32
5160,32
5161,32
5162,32
5163,32
5164,32
5165,32
5166,32
5167,32
5168,32
5169,32
5170,32
5171,32
5172,32
5173,32
5174,32
5175,32
5176,32
5177,32
5178,32
5179,32
5180,32
5181,32
5182,32
5183,32
5184,32
5185,32
5186,32
5187,32
5188,32
5189,32
5190,32
5191,32
5192,32
5193,32
5194,32
5195,32
5196,32
5197,32
5198,32
5199,32
5200,32
5201,32
5202,32
5203,33
5204,33
5205,33
5206,33
5207,33
5208,33
5209,34
5210,36
5211,34
5212,33
5213,32
5214,32
5215,32
5216,32
5217,32
5218,32
5219,32
5220,32
5221,32
5222,32
5223,32
5224,32
5225,32
5226,32
5227,32
5228,32
5229,32
5230,32
5231,32
5232,32
5233,32
5234,32
5235,32
5236,32
5237,32
5238,32
5239,31
5240,31
5241,31
5242,31
5243,31
5244,31
5245,31
5246,31
5247,31
5248,32
5249,31
5250,31
5251,31
5252,31
5253,31
5254,31
5255,31
5256,32
5257,31
5258,31
5259,31
5260,32
5261,32
5262,31
5263,32
5264,32
5265,32
5266,32
5267,32
5268,32
5269,32
5270,32
5271,33
5272,33
5273,33
5274,32
5275,32
5276,32
5277,32
5278,32
5279,32
5280,32
5281,32
5282,32
5283,32
5284,32
5285,32
5286,32
5287,32
5288,32
5289,32
5290,32
5291,32
5292,32
5293,32
5294,32
5295,32
5296,32
5297,32
5298,32
5299,32
5300,32
5301,32
5302,32
5303,32
5304,32
5305,32
5306,32
5307,32
5308,32
5309,32
5310,32
5311,32
5312,32
5313,32
5314,32
5315,32
5316,32
5317,32
5318,32
5319,32
5320,32
5321,32
5322,32
5323,32
5324,32
5325,32
5326,32
5327,32
5328,32
5329,32
5330,32
5331,32
5332,33
5333,33
5334,33
5335,33
5336,33
5337,33
5338,33
5339,33
5340,33
5341,33
5342,33
5343,33
5344,33
5345,33
5346,33
5347,33
5348,33
5349,33
5350,33
5351,33
5352,33
5353,33
5354,33
5355,33
5356,33
5357,33
5358,33
5359,33
5360,32
5361,32
5362,32
5363,32
5364,32
5365,32
5366,32
5367,32
5368,33
5369,32
5370,33
5371,32
5372,32
5373,32
5374,32
5375,32
5376,32
5377,32
5378,32
5379,32
5380,32
5381,32
5382,32
5383,32
5384,32
5385,32
5386,32
5387,32
5388,32
5389,32
5390,32
5391,32
5392,32
5393,32
5394,32
5395,32
5396,32
5397,32
5398,32
5399,32
5400,32
5401,32
5402,32
5403,32
5404,32
5405,32
5406,32
5407,32
5408,32
5409,32
5410,32
5411,32
5412,32
5413,32
5414,32
5415,32
5416,32
5417,32
5418,32
5419,32
5420,32
5421,32
5422,32
5423,33
5424,33
5425,33
5426,33
5427,33
5428,33
5429,33
5430,33
5431,32
5432,32
5433,33
5434,32
5435,32
5436,32
5437,32
5438,32
5439,32
5440,32
5441,31
5442,31
5443,31
5444,31
5445,31
5446,31
5447,31
5448,31
5449,31
5450,31
5451,31
5452,31
5453,31
5454,31
5455,32
5456,32
5457,32
5458,32
5459,31
5460,31
5461,31
5462,32
5463,32
5464,32
5465,32
5466,32
5467,32
5468,32
5469,32
5470,32
5471,32
5472,32
5473,32
5474,32
5475,32
5476,32
5477,32
5478,32
5479,32
5480,32
5481,32
5482,32
5483,32
5484,32
5485,32
5486,32
5487,32
5488,32
5489,32
5490,32
5491,32
5492,34
5493,33
5494,33
5495,33
5496,34
5497,33
5498,33
5499,32
5500,32
5501,32
5502,32
5503,32
5504,32
5505,32
5506,32
5507,32
5508,32
5509,33
5510,32
5511,32
5512,32
5513,32
5514,32
5515,32
5516,32
5517,32
5518,33
5519,33
5520,33
5521,32
5522,32
5523,32
5524,32
5525,32
5526,32
5527,33
5528,32
5529,32
5530,32
5531,32
5532,32
5533,33
5534,33
5535,32
5536,32
5537,32
5538,32
5539,32
5540,32
5541,32
5542,32
5543,32
5544,32
5545,32
5546,32
5547,32
5548,32
5549,32
5550,33
5551,33
5552,32
5553,32
5554,32
5555,33
5556,33
5557,33
5558,33
5559,33
5560,34
5561,33
5562,33
5563,33
5564,33
5565,32
5566,32
5567,32
5568,32
5569,32
5570,32
5571,32
5572,32
5573,32
5574,32
5575,32
5576,32
5577,32
5578,32
5579,32
5580,32
5581,32
5582,32
5583,32
5584,32
5585,32
5586,32
5587,32
5588,32
5589,32
5590,32
5591,32
5592,32
5593,32
5594,32
5595,32
5596,32
5597,32
5598,32
5599,31
5600,31
5601,31
5602,31
5603,31
5604,31
5605,31
5606,31
5607,31
5608,31
5609,31
5610,32
5611,32
5612,32
5613,32
5614,32
5615,32
5616,32
5617,32
5618,32
5619,32
5620,32
5621,32
5622,32
5623,32
5624,32
5625,32
5626,33
5627,33
5628,33
5629,33
5630,33
5631,32
5632,33
5633,34
5634,32
5635,32
5636,32
5637,32
5638,32
5639,32
5640,32
5641,32
5642,32
5643,32
5644,32
5645,33
5646,33
5647,33
5648,33
5649,33
5650,33
5651,33
5652,34
5653,34
5654,33
5655,33
5656,33
5657,33
5658,33
5659,33
5660,33
5661,33
5662,34
5663,34
5664,34
5665,34
5666,34
5667,33
5668,33
5669,33
5670,33
5671,33
5672,33
5673,33
5674,33
5675,33
5676,33
5677,34
5678,33
5679,33
5680,33
5681,33
5682,33
5683,33
5684,33
5685,33
5686,33
5687,32
5688,32
5689,32
5690,32
5691,32
5692,32
5693,32
5694,32
5695,32
5696,32
5697,32
5698,32
5699,32
5700,32
5701,32
5702,32
5703,32
5704,32
5705,32
5706,32
5707,32
5708,32
5709,32
5710,32
5711,32
5712,32
5713,32
5714,32
5715,32
5716,32
5717,32
5718,32
5719,33
5720,32
5721,32
5722,32
5723,32
5724,32
5725,32
5726,32
5727,32
5728,32
5729,32
5730,32
5731,32
5732,32
5733,32
5734,32
5735,32
5736,32
5737,32
5738,32
5739,32
5740,32
5741,32
5742,32
5743,32
5744,32
5745,32
5746,32
5747,32
5748,32
5749,32
5750,32
5751,32
5752,32
5753,32
5754,32
5755,32
5756,32
5757,33
5758,33
5759,33
5760,33
5761,33
5762,33
5763,33
5764,33
5765,33
5766,33
5767,33
5768,33
5769,33
5770,33
5771,33
5772,33
5773,33
5774,33
5775,32
5776,32
5777,32
5778,32
5779,32
5780,32
5781,32
5782,32
5783,32
5784,32
5785,32
5786,32
5787,32
5788,32
5789,32
5790,32
5791,32
5792,32
5793,32
5794,33
5795,32
5796,32
5797,32
5798,32
5799,32
5800,32
5801,32
5802,32
5803,32
5804,32
5805,32
5806,32
5807,32
5808,32
5809,32
5810,32
5811,32
5812,32
5813,32
5814,32
5815,32
5816,32
5817,32
5818,32
5819,32
5820,32
5821,32
5822,32
5823,32
5824,32
5825,32
5826,32
5827,32
5828,32
5829,32
5830,32
5831,32
5832,32
5833,33
5834,32
5835,32
5836,32
5837,32
5838,32
5839,32
5840,32
5841,32
5842,32
5843,32
5844,32
5845,32
5846,32
5847,32
5848,32
5849,32
5850,32
5851,32
5852,32
5853,33
5854,34
5855,33
5856,33
5857,33
5858,33
5859,33
5860,33
5861,32
5862,32
5863,32
5864,32
5865,32
5866,32
5867,32
5868,32
5869,32
5870,32
5871,32
5872,32
5873,32
5874,33
5875,33
5876,34
5877,34
5878,33
5879,32
5880,32
5881,32
5882,32
5883,32
5884,32
5885,33
5886,32
5887,32
5888,32
5889,32
5890,32
5891,32
5892,32
5893,32
5894,32
5895,32
5896,32
5897,32
5898,32
5899,32
5900,32
5901,32
5902,32
5903,32
5904,32
5905,32
5906,33
5907,33
5908,32
5909,32
5910,33
5911,33
5912,33
5913,33
5914,33
5915,33
5916,33
5917,34
5918,34
5919,34
5920,34
5921,35
5922,34
5923,33
5924,33
5925,33
5926,33
5927,34
5928,33
5929,33
5930,33
5931,33
5932,33
5933,33
5934,33
5935,34
5936,34
5937,33
5938,33
5939,33
5940,33
5941,33
5942,33
5943,33
5944,33
5945,33
5946,33
5947,33
5948,33
5949,33
5950,33
5951,33
5952,33
5953,33
5954,33
5955,33
5956,33
5957,33
5958,33
5959,33
5960,34
5961,33
5962,33
5963,34
5964,34
5965,33
5966,33
5967,33
5968,33
5969,33
5970,33
5971,33
5972,33
5973,33
5974,33
5975,33
5976,33
5977,33
5978,33
5979,33
5980,34
5981,33
5982,33
5983,33
5984,33
5985,33
5986,33
5987,35
5988,35
5989,34
5990,33
5991,33
5992,33
5993,33
5994,33
5995,33
5996,33
5997,33
5998,33
5999,33
6000,33
6001,33
6002,33
6003,33
6004,33
6005,33
6006,33
6007,34
6008,34
6009,33
6010,33
6011,33
6012,33
6013,33
6014,33
6015,33
6016,33
6017,33
6018,33
6019,33
6020,33
6021,33
6022,33
6023,33
6024,33
6025,33
6026,33
6027,33
6028,33
6029,33
6030,33
6031,33
6032,33
6033,33
6034,33
6035,33
6036,33
6037,33
6038,33
6039,33
6040,33
6041,33
6042,33
6043,33
6044,33
6045,33
6046,33
6047,33
6048,33
6049,33
6050,33
6051,33
6052,33
6053,33
6054,33
6055,33
6056,33
6057,33
6058,33
6059,33
6060,33
6061,33
6062,33
6063,33
6064,33
6065,33
6066,33
6067,33
6068,33
6069,33
6070,33
6071,33
6072,33
6073,33
6074,33
6075,34
6076,33
6077,33
6078,33
6079,33
6080,33
6081,33
6082,33
6083,33
6084,33
6085,33
6086,33
6087,33
6088,33
6089,33
6090,33
6091,33
6092,33
6093,33
6094,34
6095,35
6096,34
6097,34
6098,34
6099,34
6100,34
6101,34
6102,34
6103,34
6104,34
6105,35
6106,35
6107,35
6108,35
6109,36
6110,36
6111,36
6112,35
6113,35
6114,35
6115,35
6116,35
6117,35
6118,35
6119,35
6120,35
6121,35
6122,35
6123,35
6124,35
6125,35
6126,35
6127,34
6128,34
6129,34
6130,34
6131,34
6132,34
6133,34
6134,34
6135,34
6136,34
6137,34
6138,34
6139,34
6140,34
6141,35
6142,34
6143,34
6144,34
6145,34
6146,34
6147,35
6148,35
6149,35
6150,35
6151,35
6152,35
6153,35
6154,36
6155,36
6156,35
6157,35
6158,35
6159,35
6160,35
6161,35
6162,35
6163,35
6164,35
6165,35
6166,35
6167,35
6168,35
6169,35
6170,35
6171,35
6172,35
6173,35
6174,35
6175,35
6176,35
6177,35
6178,35
6179,35
6180,35
6181,35
6182,35
6183,35
6184,35
6185,35
6186,35
6187,35
6188,35
6189,35
6190,35
6191,35
6192,35
6193,35
6194,35
6195,36
6196,36
6197,36
6198,36
6199,36
6200,36
6201,36
6202,36
6203,37
6204,36
6205,36
6206,35
6207,36
6208,35
6209,35
6210,35
6211,35
6212,35
6213,36
6214,36
6215,35
6216,35
6217,35
6218,35
6219,35
6220,36
6221,36
6222,35
6223,35
6224,35
6225,35
6226,35
6227,35
6228,35
6229,35
6230,35
6231,35
6232,35
6233,35
6234,35
6235,35
6236,35
6237,35
6238,35
6239,35
6240,35
6241,35
6242,36
6243,35
6244,35
6245,35
6246,35
6247,35
6248,35
6249,35
6250,35
6251,35
6252,35
6253,35
6254,35
6255,35
6256,35
6257,35
6258,35
6259,35
6260,35
6261,35
6262,35
6263,35
6264,35
6265,35
6266,35
6267,35
6268,35
6269,35
6270,35
6271,35
6272,35
6273,35
6274,35
6275,35
6276,35
6277,35
6278,35
6279,35
6280,35
6281,35
6282,36
6283,36
6284,36
6285,35
6286,36
6287,36
6288,36
6289,36
6290,36
6291,35
6292,35
6293,35
6294,35
6295,35
6296,35
6297,36
6298,35
6299,35
6300,35
6301,35
6302,35
6303,35
6304,36
6305,36
6306,35
6307,35
6308,35
6309,35
6310,36
6311,35
6312,35
6313,35
6314,35
6315,35
6316,35
6317,35
6318,35
6319,35
6320,35
6321,35
6322,35
6323,35
6324,35
6325,35
6326,35
6327,35
6328,35
6329,35
6330,35
6331,35
6332,35
6333,35
6334,36
6335,36
6336,36
6337,36
6338,36
6339,36
6340,36
6341,36
6342,36
6343,36
6344,36
6345,36
6346,36
6347,36
6348,36
6349,36
6350,36
6351,36
6352,36
6353,36
6354,37
6355,36
6356,36
6357,36
6358,36
6359,37
6360,36
6361,36
6362,36
6363,37
6364,36
6365,36
6366,36
6367,36
6368,36
6369,36
6370,36
6371,36
6372,36
6373,36
6374,36
6375,36
6376,36
6377,36
6378,36
6379,36
6380,37
6381,36
6382,36
6383,36
6384,36
6385,36
6386,36
6387,36
6388,36
6389,36
6390,36
6391,36
6392,36
6393,37
6394,36
6395,36
6396,36
6397,36
6398,36
6399,36
6400,36
6401,36
6402,36
6403,35
6404,35
6405,35
6406,35
6407,35
6408,35
6409,35
6410,35
6411,35
6412,35
6413,35
6414,35
6415,35
6416,35
6417,35
6418,36
6419,36
6420,36
6421,36
6422,36
6423,36
6424,36
6425,36
6426,37
6427,37
6428,37
6429,37
6430,37
6431,37
6432,37
6433,37
6434,36
6435,35
6436,35
6437,35
6438,35
6439,35
6440,35
6441,35
6442,35
6443,35
6444,35
6445,35
6446,35
6447,35
6448,35
6449,35
6450,35
6451,35
6452,35
6453,35
6454,35
6455,35
6456,35
6457,35
6458,35
6459,35
6460,35
6461,35
6462,35
6463,35
6464,35
6465,36
6466,35
6467,35
6468,35
6469,35
6470,35
6471,35
6472,36
6473,36
6474,36
6475,36
6476,35
6477,35
6478,35
6479,35
6480,35
6481,35
6482,35
6483,35
6484,35
6485,35
6486,35
6487,35
6488,35
6489,35
6490,35
6491,35
6492,35
6493,35
6494,35
6495,36
6496,35
6497,35
6498,35
6499,36
6500,35
6501,35
6502,35
6503,35
6504,35
6505,35
6506,35
6507,35
6508,35
6509,35
6510,35
6511,35
6512,36
6513,36
6514,36
6515,36
6516,36
6517,36
6518,35
6519,35
6520,35
6521,35
6522,35
6523,35
6524,35
6525,35
6526,35
6527,35
6528,35
6529,35
6530,35
6531,35
6532,35
6533,35
6534,35
6535,35
6536,35
6537,35
6538,35
6539,35
6540,35
6541,35
6542,35
6543,35
6544,35
6545,35
6546,35
6547,35
6548,35
6549,35
6550,35
6551,35
6552,35
6553,35
6554,35
6555,35
6556,35
6557,35
6558,35
6559,35
6560,35
6561,35
6562,35
6563,35
6564,35
6565,35
6566,35
6567,35
6568,34
6569,34
6570,34
6571,34
6572,34
6573,34
6574,34
6575,33
6576,33
6577,34
6578,33
6579,33
6580,33
6581,33
6582,33
6583,33
6584,33
6585,33
6586,33
6587,33
6588,33
6589,33
6590,33
6591,33
6592,33
6593,33
6594,33
6595,33
6596,33
6597,33
6598,33
6599,33
6600,33
6601,33
6602,33
6603,34
6604,34
6605,34
6606,34
6607,34
6608,34
6609,34
6610,34
6611,33
6612,34
6613,34
6614,33
6615,33
6616,33
6617,33
6618,33
6619,33
6620,33
6621,33
6622,33
6623,33
6624,33
6625,33
6626,33
6627,33
6628,33
6629,33
6630,33
6631,33
6632,33
6633,33
6634,33
6635,33
6636,33
6637,33
6638,33
6639,33
6640,33
6641,33
6642,33
6643,33
6644,33
6645,33
6646,33
6647,33
6648,33
6649,33
6650,33
6651,33
6652,33
6653,33
6654,33
6655,33
6656,33
6657,33
6658,34
6659,33
6660,33
6661,33
6662,33
6663,33
6664,33
6665,33
6666,33
6667,34
6668,34
6669,33
6670,33
6671,33
6672,33
6673,33
6674,33
6675,34
6676,33
6677,33
6678,34
6679,33
6680,33
6681,33
6682,33
6683,33
6684,33
6685,33
6686,33
6687,33
6688,33
6689,33
6690,33
6691,33
6692,33
6693,33
6694,33
6695,33
6696,33
6697,33
6698,33
6699,33
6700,35
6701,35
6702,35
6703,34
6704,34
6705,34
6706,34
6707,34
6708,34
6709,34
6710,34
6711,34
6712,34
6713,34
6714,34
6715,34
6716,34
6717,34
6718,34
6719,34
6720,34
6721,34
6722,34
6723,34
6724,34
6725,34
6726,34
6727,34
6728,34
6729,34
6730,34
6731,34
6732,34
6733,34
6734,34
6735,34
6736,34
6737,34
6738,34
6739,34
6740,34
6741,34
6742,34
6743,34
6744,34
6745,34
6746,34
6747,34
6748,34
6749,34
6750,35
6751,35
6752,35
6753,35
6754,35
6755,35
6756,35
6757,35
6758,35
6759,35
6760,35
6761,36
6762,36
6763,35
6764,35
6765,34
6766,34
6767,34
6768,34
6769,34
6770,33
6771,33
6772,33
6773,33
6774,33
6775,33
6776,33
6777,33
6778,33
6779,33
6780,33
6781,33
6782,33
6783,33
6784,34
6785,34
6786,34
6787,34
6788,34
6789,34
6790,34
6791,34
6792,34
6793,34
6794,34
6795,34
6796,34
6797,34
6798,34
6799,34
6800,34
6801,34
6802,34
6803,34
6804,34
6805,34
6806,34
6807,34
6808,34
6809,34
6810,34
6811,34
6812,34
6813,34
6814,34
6815,34
6816,34
6817,34
6818,34
6819,34
6820,34
6821,34
6822,34
6823,34
6824,34
6825,34
6826,34
6827,35
6828,34
6829,34
6830,34
6831,34
6832,35
6833,35
6834,34
6835,34
6836,34
6837,35
6838,34
6839,34
6840,34
6841,34
6842,34
6843,34
6844,34
6845,34
6846,34
6847,34
6848,34
6849,34
6850,34
6851,34
6852,34
6853,34
6854,34
6855,34
6856,35
6857,34
6858,35
6859,35
6860,35
6861,35
6862,35
6863,34
6864,34
6865,34
6866,34
6867,35
6868,34
6869,34
6870,34
6871,34
6872,34
6873,34
6874,34
6875,34
6876,34
6877,34
6878,34
6879,34
6880,34
6881,34
6882,34
6883,34
6884,34
6885,34
6886,34
6887,34
6888,34
6889,33
6890,33
6891,33
6892,33
6893,33
6894,33
6895,33
6896,33
6897,33
6898,33
6899,33
6900,33
6901,33
6902,33
6903,33
6904,33
6905,33
6906,33
6907,33
6908,33
6909,34
6910,34
6911,34
6912,34
6913,34
6914,33
6915,33
6916,33
6917,33
6918,33
6919,33
6920,33
6921,34
6922,33
6923,33
6924,33
6925,33
6926,33
6927,33
6928,33
6929,33
6930,33
6931,33
6932,33
6933,33
6934,33
6935,33
6936,33
6937,33
6938,33
6939,33
6940,33
6941,33
6942,33
6943,33
6944,33
6945,33
6946,33
6947,33
6948,33
6949,33
6950,33
6951,33
6952,34
6953,34
6954,33
6955,33
6956,33
6957,33
6958,33
6959,33
6960,33
6961,33
6962,33
6963,34
6964,34
6965,34
6966,34
6967,35
6968,34
6969,34
6970,34
6971,34
6972,34
6973,35
6974,34
6975,34
6976,34
6977,34
6978,34
6979,34
6980,34
6981,34
6982,34
6983,34
6984,34
6985,34
6986,34
6987,34
6988,34
6989,34
6990,34
6991,35
6992,34
6993,34
6994,34
6995,34
6996,34
6997,34
6998,34
6999,34
7000,34
7001,34
7002,34
7003,34
7004,34
7005,34
7006,34
7007,34
7008,34
7009,34
7010,34
7011,34
7012,34
7013,34
7014,34
7015,34
7016,34
7017,34
7018,34
7019,34
7020,34
7021,34
7022,35
7023,35
7024,35
7025,35
7026,35
7027,35
7028,35
7029,35
7030,36
7031,35
7032,35
7033,35
7034,35
7035,35
7036,34
7037,34
7038,34
7039,34
7040,34
7041,34
7042,34
7043,34
7044,34
7045,34
7046,34
7047,34
7048,34
7049,34
7050,34
7051,34
7052,34
7053,34
7054,35
7055,35
7056,35
7057,35
7058,35
7059,35
7060,35
7061,34
7062,34
7063,34
7064,34
7065,34
7066,34
7067,34
7068,34
7069,35
7070,35
7071,35
7072,35
7073,35
7074,34
7075,34
7076,34
7077,34
7078,34
7079,34
7080,34
7081,34
7082,34
7083,34
7084,34
7085,34
7086,34
7087,34
7088,34
7089,34
7090,34
7091,34
7092,35
7093,35
7094,35
7095,35
7096,35
7097,35
7098,35
7099,35
7100,36
7101,36
7102,36
7103,35
7104,35
7105,35
7106,35
7107,35
7108,35
7109,35
7110,35
7111,35
7112,35
7113,35
7114,35
7115,35
7116,35
7117,35
7118,36
7119,36
7120,37
7121,37
7122,37
7123,37
7124,36
7125,36
7126,36
7127,36
7128,36
7129,35
7130,34
7131,34
7132,34
7133,34
7134,34
7135,34
7136,34
7137,34
7138,34
7139,34
7140,34
7141,34
7142,34
7143,34
7144,34
7145,34
7146,34
7147,34
7148,34
7149,34
7150,34
7151,34
7152,34
7153,34
7154,34
7155,34
7156,34
7157,34
7158,34
7159,34
7160,34
7161,36
7162,34
7163,34
7164,34
7165,34
7166,34
7167,34
7168,34
7169,34
7170,34
7171,34
7172,34
7173,34
7174,34
7175,34
7176,34
7177,34
7178,34
7179,34
7180,34
7181,35
7182,34
7183,34
7184,34
7185,34
7186,34
7187,34
7188,34
7189,34
7190,34
7191,34
7192,34
7193,34
7194,34
7195,34
7196,34
7197,34
7198,34
7199,34
7200,34
7201,34
7202,34
7203,34
7204,34
7205,34
7206,34
7207,34
7208,34
7209,34
7210,34
7211,34
7212,34
7213,34
7214,34
7215,34
7216,34
7217,34
7218,34
7219,34
7220,34
7221,34
7222,34
7223,34
7224,35
7225,36
7226,35
7227,35
7228,35
7229,34
7230,34
7231,34
7232,34
7233,34
7234,34
7235,34
7236,34
7237,34
7238,34
7239,34
7240,34
7241,34
7242,34
7243,34
7244,34
7245,34
7246,34
7247,34
7248,34
7249,34
7250,34
7251,34
7252,34
7253,34
7254,34
7255,34
7256,35
7257,35
7258,35
7259,35
7260,35
7261,35
7262,35
7263,35
7264,35
7265,34
7266,34
7267,34
7268,34
7269,34
7270,34
7271,34
7272,34
7273,34
7274,34
7275,34
7276,35
7277,35
7278,35
7279,35
7280,35
7281,35
7282,35
7283,35
7284,35
7285,35
7286,35
7287,35
7288,35
7289,35
7290,35
7291,36
7292,35
7293,35
7294,35
7295,35
7296,35
7297,35
7298,35
7299,35
7300,35
7301,35
7302,35
7303,36
7304,35
7305,35
7306,35
7307,35
7308,35
7309,35
7310,35
7311,35
7312,35
7313,36
7314,36
7315,36
7316,36
7317,36
7318,36
7319,36
7320,36
7321,36
7322,35
7323,35
7324,36
7325,36
7326,36
7327,36
7328,36
7329,36
7330,36
7331,35
7332,35
7333,35
7334,35
7335,35
7336,35
7337,35
7338,35
7339,35
7340,35
7341,35
7342,35
7343,35
7344,35
7345,35
7346,35
7347,35
7348,35
7349,35
7350,35
7351,35
7352,35
7353,35
7354,35
7355,35
7356,35
7357,35
7358,35
7359,35
7360,35
7361,35
7362,35
7363,35
7364,35
7365,35
7366,35
7367,35
7368,35
7369,36
7370,35
7371,35
7372,35
7373,35
7374,36
7375,35
7376,37
7377,35
7378,35
7379,35
7380,35
7381,35
7382,37
7383,35
7384,35
7385,35
7386,35
7387,35
7388,35
7389,35
7390,35
7391,35
7392,35
7393,35
7394,35
7395,35
7396,35
7397,35
7398,35
7399,35
7400,35
7401,35
7402,35
7403,35
7404,35
7405,35
7406,35
7407,35
7408,35
7409,35
7410,35
7411,35
7412,35
7413,35
7414,35
7415,35
7416,35
7417,35
7418,35
7419,35
7420,35
7421,35
7422,35
7423,35
7424,35
7425,35
7426,35
7427,35
7428,35
7429,35
7430,35
7431,35
7432,36
7433,36
7434,36
7435,36
7436,36
7437,36
7438,36
7439,36
7440,36
7441,36
7442,36
7443,36
7444,36
7445,36
7446,36
7447,36
7448,37
7449,36
7450,36
7451,37
7452,37
7453,38
7454,37
7455,37
7456,37
7457,37
7458,36
7459,36
7460,36
7461,36
7462,36
7463,36
7464,37
7465,36
7466,36
7467,36
7468,36
7469,36
7470,36
7471,36
7472,36
7473,36
7474,36
7475,36
7476,35
7477,35
7478,35
7479,35
7480,35
7481,35
7482,35
7483,35
7484,35
7485,35
7486,35
7487,35
7488,35
7489,35
7490,35
7491,35
7492,35
7493,35
7494,35
7495,35
7496,35
7497,35
7498,35
7499,36
7500,36
7501,36
7502,35
7503,36
7504,36
7505,36
7506,36
7507,36
7508,36
7509,36
7510,36
7511,36
7512,36
7513,36
7514,36
7515,36
7516,36
7517,36
7518,36
7519,36
7520,36
7521,36
7522,36
7523,36
7524,36
7525,35
7526,35
7527,35
7528,35
7529,35
7530,35
7531,35
7532,35
7533,35
7534,35
7535,35
7536,35
7537,35
7538,35
7539,35
7540,35
7541,35
7542,35
7543,35
7544,35
7545,35
7546,35
7547,35
7548,35
7549,35
7550,35
7551,35
7552,35
7553,35
7554,36
7555,36
7556,35
7557,35
7558,35
7559,35
7560,35
7561,35
7562,35
7563,35
7564,35
7565,35
7566,35
7567,35
7568,35
7569,35
7570,35
7571,35
7572,35
7573,35
7574,35
7575,35
7576,35
7577,35
7578,35
7579,35
7580,34
7581,34
7582,34
7583,34
7584,34
7585,34
7586,34
7587,34
7588,34
7589,34
7590,34
7591,34
7592,34
7593,34
7594,34
7595,34
7596,34
7597,34
7598,34
7599,34
7600,34
7601,34
7602,34
7603,34
7604,34
7605,34
7606,35
7607,35
7608,34
7609,34
7610,34
7611,35
7612,35
7613,34
7614,34
7615,35
7616,35
7617,35
7618,34
7619,34
7620,34
7621,34
7622,34
7623,34
7624,34
7625,35
7626,34
7627,34
7628,34
7629,34
7630,34
7631,34
7632,35
7633,35
7634,34
7635,34
7636,34
7637,34
7638,34
7639,34
7640,34
7641,35
7642,35
7643,35
7644,34
7645,34
7646,34
7647,34
7648,34
7649,34
7650,34
7651,34
7652,34
7653,34
7654,34
7655,35
7656,34
7657,34
7658,34
7659,34
7660,34
7661,34
7662,34
7663,34
7664,34
7665,34
7666,34
7667,34
7668,34
7669,34
7670,34
7671,34
7672,34
7673,34
7674,34
7675,34
7676,34
7677,35
7678,34
7679,34
7680,34
7681,34
7682,34
7683,34
7684,34
7685,33
7686,33
7687,32
7688,32
7689,32
7690,32
7691,32
7692,32
7693,32
7694,32
7695,32
7696,32
7697,32
7698,32
7699,32
7700,32
7701,32
7702,32
7703,32
7704,32
7705,32
7706,33
7707,33
7708,32
7709,32
7710,32
7711,32
7712,32
7713,32
7714,32
7715,32
7716,33
7717,34
7718,33
7719,33
7720,33
7721,33
7722,33
7723,33
7724,34
7725,33
7726,33
7727,33
7728,33
7729,33
7730,33
7731,33
7732,33
7733,33
7734,33
7735,33
7736,34
7737,34
7738,34
7739,33
7740,33
7741,33
7742,33
7743,33
7744,33
7745,33
7746,33
7747,33
7748,33
7749,33
7750,33
7751,33
7752,33
7753,33
7754,33
7755,33
7756,33
7757,33
7758,33
7759,34
7760,34
7761,34
7762,34
7763,34
7764,34
7765,34
7766,34
7767,34
7768,34
7769,34
7770,33
7771,33
7772,33
7773,33
7774,33
7775,33
7776,33
7777,33
7778,33
7779,33
7780,33
7781,33
7782,33
7783,33
7784,33
7785,33
7786,33
7787,33
7788,33
7789,33
7790,33
7791,33
7792,33
7793,33
7794,33
7795,34
7796,33
7797,33
7798,33
7799,33
7800,33
7801,33
7802,33
7803,34
7804,34
7805,34
7806,34
7807,34
7808,35
7809,35
7810,34
7811,34
7812,34
7813,34
7814,34
7815,34
7816,34
7817,34
7818,34
7819,34
7820,34
7821,34
7822,34
7823,34
7824,34
7825,34
7826,34
7827,35
7828,34
7829,35
7830,35
7831,35
7832,35
7833,35
7834,35
7835,35
7836,35
7837,35
7838,35
7839,35
7840,35
7841,35
7842,35
7843,35
7844,35
7845,35
7846,35
7847,35
7848,35
7849,36
7850,36
7851,35
7852,35
7853,35
7854,35
7855,35
7856,35
7857,35
7858,35
7859,35
7860,35
7861,35
7862,35
7863,35
7864,35
7865,35
7866,35
7867,35
7868,35
7869,34
7870,34
7871,34
7872,35
7873,34
7874,34
7875,34
7876,34
7877,34
7878,34
7879,34
7880,34
7881,34
7882,34
7883,34
7884,34
7885,33
7886,33
7887,33
7888,33
7889,33
7890,33
7891,33
7892,33
7893,33
7894,33
7895,33
7896,33
7897,33
7898,33
7899,33
7900,33
7901,33
7902,33
7903,33
7904,33
7905,33
7906,33
7907,34
7908,34
7909,33
7910,33
7911,33
7912,33
7913,33
7914,33
7915,33
7916,33
7917,33
7918,33
7919,33
7920,33
7921,33
7922,33
7923,33
7924,33
7925,33
7926,33
7927,33
7928,33
7929,33
7930,33
7931,33
7932,33
7933,33
7934,33
7935,34
7936,33
7937,33
7938,33
7939,33
7940,33
7941,33
7942,34
7943,34
7944,34
7945,34
7946,34
7947,34
7948,33
7949,33
7950,33
7951,33
7952,33
7953,33
7954,33
7955,33
7956,33
7957,33
7958,33
7959,33
7960,33
7961,33
7962,33
7963,33
7964,33
7965,33
7966,33
7967,33
7968,33
7969,33
7970,33
7971,33
7972,33
7973,33
7974,33
7975,33
7976,35
7977,34
7978,33
7979,33
7980,33
7981,33
7982,33
7983,33
7984,33
7985,33
7986,34
7987,33
7988,33
7989,33
7990,33
7991,34
7992,33
7993,33
7994,33
7995,33
7996,33
7997,33
7998,33
7999,33
8000,33
8001,33
8002,33
8003,33
8004,34
8005,33
8006,33
8007,33
8008,33
8009,33
8010,33
8011,33
8012,33
8013,33
8014,33
8015,34
8016,34
8017,33
8018,33
8019,33
8020,33
8021,33
8022,33
8023,33
8024,33
8025,33
8026,33
8027,34
8028,33
8029,33
8030,33
8031,33
8032,33
8033,33
8034,33
8035,33
8036,33
8037,33
8038,34
8039,33
8040,33
8041,33
8042,33
8043,33
8044,33
8045,33
8046,33
8047,33
8048,33
8049,33
8050,33
8051,33
8052,33
8053,33
8054,33
8055,33
8056,33
8057,33
8058,33
8059,33
8060,33
8061,33
8062,33
8063,33
8064,33
8065,33
8066,33
8067,33
8068,33
8069,34
8070,34
8071,34
8072,34
8073,34
8074,35
8075,34
8076,34
8077,34
8078,34
8079,34
8080,34
8081,34
8082,34
8083,34
8084,33
8085,33
8086,33
8087,33
8088,33
8089,34
8090,33
8091,33
8092,33
8093,33
8094,33
8095,33
8096,33
8097,33
8098,33
8099,33
8100,33
8101,33
8102,33
8103,33
8104,33
8105,33
8106,33
8107,33
8108,33
8109,33
8110,33
8111,33
8112,33
8113,33
8114,33
8115,33
8116,33
8117,33
8118,33
8119,33
8120,33
8121,33
8122,33
8123,33
8124,33
8125,33
8126,33
8127,33
8128,33
8129,33
8130,33
8131,33
8132,33
8133,33
8134,33
8135,33
8136,33
8137,33
8138,33
8139,33
8140,33
8141,33
8142,33
8143,34
8144,34
8145,34
8146,33
8147,33
8148,33
8149,33
8150,33
8151,33
8152,33
8153,33
8154,33
8155,33
8156,33
8157,33
8158,33
8159,33
8160,33
8161,33
8162,33
8163,33
8164,33
8165,34
8166,34
8167,33
8168,33
8169,33
8170,33
8171,33
8172,33
8173,33
8174,34
8175,34
8176,34
8177,34
8178,34
8179,34
8180,35
8181,33
8182,33
8183,34
8184,34
8185,34
8186,33
8187,33
8188,34
8189,34
8190,34
8191,34
8192,34
8193,33
8194,33
8195,33
8196,33
8197,33
8198,33
8199,33
8200,33
8201,33
8202,33
8203,33
8204,33
8205,33
8206,33
8207,34
8208,34
8209,34
8210,33
8211,33
8212,33
8213,33
8214,33
8215,34
8216,33
8217,33
8218,33
8219,33
8220,33
8221,33
8222,33
8223,33
8224,33
8225,33
8226,33
8227,33
8228,33
8229,34
8230,33
8231,33
8232,33
8233,33
8234,33
8235,33
8236,33
8237,33
8238,33
8239,33
8240,33
8241,33
8242,33
8243,33
8244,33
8245,33
8246,33
8247,33
8248,33
8249,33
8250,33
8251,33
8252,33
8253,33
8254,33
8255,33
8256,33
8257,33
8258,33
8259,33
8260,33
8261,33
8262,33
8263,33
8264,33
8265,33
8266,33
8267,33
8268,33
8269,33
8270,34
8271,33
8272,33
8273,33
8274,33
8275,33
8276,33
8277,33
8278,33
8279,33
8280,33
8281,33
8282,34
8283,33
8284,33
8285,33
8286,33
8287,33
8288,33
8289,33
8290,33
8291,33
8292,33
8293,33
8294,33
8295,33
8296,33
8297,33
8298,33
8299,33
8300,33
8301,33
8302,33
8303,33
8304,33
8305,33
8306,33
8307,33
8308,33
8309,33
8310,33
8311,33
8312,33
8313,33
8314,33
8315,33
8316,33
8317,33
8318,33
8319,33
8320,33
8321,33
8322,33
8323,33
8324,33
8325,33
8326,33
8327,33
8328,34
8329,34
8330,34
8331,33
8332,33
8333,34
8334,34
8335,34
8336,34
8337,34
8338,34
8339,33
8340,33
8341,33
8342,33
8343,33
8344,33
8345,33
8346,33
8347,33
8348,33
8349,33
8350,33
8351,33
8352,33
8353,34
8354,34
8355,32
8356,32
8357,32
8358,32
8359,33
8360,32
8361,32
8362,32
8363,32
8364,32
8365,32
8366,32
8367,32
8368,32
8369,32
8370,32
8371,32
8372,32
8373,32
8374,32
8375,32
8376,33
8377,33
8378,33
8379,33
8380,33
8381,33
8382,34
8383,34
8384,33
8385,33
8386,33
8387,33
8388,33
8389,33
8390,32
8391,32
8392,32
8393,32
8394,32
8395,32
8396,32
8397,32
8398,32
8399,32
8400,32
8401,32
8402,32
8403,32
8404,32
8405,32
8406,32
8407,32
8408,32
8409,32
8410,32
8411,32
8412,32
8413,32
8414,32
8415,32
8416,32
8417,32
8418,32
8419,32
8420,32
8421,32
8422,32
8423,32
8424,32
8425,32
8426,32
8427,32
8428,32
8429,32
8430,32
8431,32
8432,32
8433,32
8434,32
8435,32
8436,32
8437,32
8438,32
8439,32
8440,32
8441,32
8442,32
8443,32
8444,32
8445,32
8446,32
8447,32
8448,32
8449,32
8450,32
8451,32
8452,32
8453,32
8454,32
8455,32
8456,32
8457,32
8458,32
8459,32
8460,32
8461,32
8462,32
8463,32
8464,32
8465,32
8466,32
8467,32
8468,32
8469,32
8470,32
8471,32
8472,32
8473,32
8474,32
8475,32
8476,32
8477,32
8478,32
8479,32
8480,32
8481,32
8482,32
8483,33
8484,32
8485,32
8486,32
8487,32
8488,32
8489,32
8490,32
8491,32
8492,32
8493,32
8494,32
8495,32
8496,32
8497,32
8498,33
8499,32
8500,32
8501,32
8502,32
8503,32
8504,32
8505,32
8506,32
8507,32
8508,32
8509,32
8510,32
8511,32
8512,32
8513,32
8514,32
8515,32
8516,32
8517,32
8518,33
8519,32
8520,32
8521,32
8522,32
8523,32
8524,32
8525,32
8526,32
8527,32
8528,33
8529,33
8530,33
8531,34
8532,33
8533,33
8534,33
8535,33
8536,33
8537,33
8538,34
8539,33
8540,33
8541,33
8542,33
8543,34
8544,34
8545,33
8546,33
8547,33
8548,33
8549,33
8550,33
8551,34
8552,34
8553,33
8554,33
8555,33
8556,33
8557,33
8558,33
8559,33
8560,33
8561,33
8562,34
8563,34
8564,35
8565,34
8566,34
8567,34
8568,35
8569,34
8570,33
8571,33
8572,33
8573,33
8574,33
8575,33
8576,33
8577,33
8578,33
8579,33
8580,33
8581,33
8582,34
8583,34
8584,34
8585,34
8586,34
8587,34
8588,34
8589,34
8590,34
8591,34
8592,34
8593,35
8594,35
8595,34
8596,35
8597,34
8598,34
8599,34
8600,34
8601,34
8602,34
8603,35
8604,35
8605,35
8606,35
8607,35
8608,35
8609,35
8610,35
8611,35
8612,35
8613,35
8614,35
8615,35
8616,35
8617,35
8618,35
8619,35
8620,35
8621,35
8622,35
8623,36
8624,36
8625,36
8626,36
8627,36
8628,36
8629,36
8630,36
8631,35
8632,35
8633,35
8634,35
8635,35
8636,35
8637,35
8638,35
8639,35
8640,35
8641,35
8642,35
8643,35
8644,35
8645,35
8646,35
8647,35
8648,35
8649,35
8650,35
8651,35
8652,35
8653,35
8654,35
8655,35
8656,35
8657,35
8658,35
8659,35
8660,35
8661,36
8662,36
8663,35
8664,35
8665,36
8666,35
8667,35
8668,35
8669,35
8670,35
8671,35
8672,36
8673,36
8674,36
8675,36
8676,36
8677,36
8678,36
8679,36
8680,36
8681,36
8682,36
8683,36
8684,36
8685,36
8686,36
8687,36
8688,36
8689,37
8690,37
8691,37
8692,37
8693,37
8694,36
8695,37
8696,36
8697,37
8698,37
8699,37
8700,37
8701,37
8702,38
8703,37
8704,37
8705,37
8706,37
8707,37
8708,36
8709,35
8710,35
8711,36
8712,35
8713,35
8714,35
8715,35
8716,35
8717,36
8718,35
8719,35
8720,35
8721,35
8722,35
8723,35
8724,35
8725,35
8726,35
8727,35
8728,35
8729,35
8730,35
8731,35
8732,36
8733,35
8734,35
8735,35
8736,35
8737,35
8738,35
8739,35
8740,36
8741,35
8742,35
8743,35
8744,35
8745,35
8746,35
8747,35
8748,35
8749,35
8750,35
8751,35
8752,35
8753,35
8754,35
8755,35
8756,35
8757,35
8758,35
8759,35
8760,35
8761,35
8762,35
8763,35
8764,35
8765,35
8766,35
8767,35
8768,35
8769,35
8770,35
8771,35
8772,36
8773,36
8774,36
8775,36
8776,36
8777,36
8778,36
8779,36
8780,36
8781,36
8782,35
8783,35
8784,35
8785,35
8786,35
8787,35
8788,35
8789,34
8790,34
8791,34
8792,34
8793,34
8794,34
8795,34
8796,34
8797,34
8798,34
8799,34
8800,34
8801,34
8802,34
8803,34
8804,34
8805,34
8806,34
8807,34
8808,34
8809,34
8810,34
8811,34
8812,34
8813,34
8814,34
8815,36
8816,36
8817,36
8818,34
8819,34
8820,34
8821,34
8822,34
8823,34
8824,34
8825,34
8826,34
8827,34
8828,34
8829,34
8830,34
8831,34
8832,35
8833,35
8834,35
8835,35
8836,35
8837,35
8838,35
8839,35
8840,35
8841,35
8842,35
8843,35
8844,34
8845,34
8846,35
8847,36
8848,36
8849,36
8850,36
8851,36
8852,36
8853,36
8854,36
8855,36
8856,36
8857,35
8858,35
8859,34
8860,34
8861,34
8862,34
8863,34
8864,34
8865,34
8866,34
8867,34
8868,34
8869,34
8870,34
8871,34
8872,34
8873,34
8874,34
8875,34
8876,34
8877,34
8878,34
8879,34
8880,34
8881,34
8882,34
8883,34
8884,34
8885,35
8886,35
8887,35
8888,35
8889,36
8890,36
8891,35
8892,35
8893,35
8894,35
8895,35
8896,35
8897,35
8898,35
8899,34
8900,34
8901,34
8902,34
8903,34
8904,34
8905,34
8906,34
8907,34
8908,34
8909,34
8910,34
8911,34
8912,34
8913,34
8914,34
8915,34
8916,34
8917,34
8918,34
8919,34
8920,34
8921,34
8922,35
8923,34
8924,34
8925,34
8926,34
8927,34
8928,34
8929,34
8930,34
8931,34
8932,34
8933,34
8934,34
8935,34
8936,34
8937,34
8938,34
8939,34
8940,34
8941,34
8942,35
8943,34
8944,34
8945,34
8946,35
8947,35
8948,35
8949,35
8950,35
8951,35
8952,35
8953,35
8954,35
8955,35
8956,35
8957,35
8958,35
8959,35
8960,34
8961,34
8962,34
8963,34
8964,34
8965,34
8966,34
8967,34
8968,34
8969,35
8970,34
8971,34
8972,34
8973,34
8974,34
8975,34
8976,34
8977,34
8978,34
8979,34
8980,34
8981,34
8982,34
8983,34
8984,34
8985,34
8986,34
8987,34
8988,35
8989,34
8990,34
8991,34
8992,34
8993,34
8994,34
8995,34
8996,34
8997,34
8998,35
8999,34
9000,34
9001,34
9002,34
9003,34
9004,34
9005,34
9006,34
9007,34
9008,34
9009,34
9010,34
9011,34
9012,34
9013,34
9014,34
9015,34
9016,34
9017,34
9018,35
9019,35
9020,34
9021,34
9022,34
9023,34
9024,34
9025,34
9026,34
9027,34
9028,34
9029,34
9030,34
9031,34
9032,34
9033,34
9034,34
9035,34
9036,34
9037,34
9038,34
9039,34
9040,34
9041,34
9042,34
9043,34
9044,34
9045,34
9046,34
9047,34
9048,34
9049,34
9050,34
9051,34
9052,34
9053,34
9054,34
9055,34
9056,34
9057,34
9058,34
9059,34
9060,34
9061,34
9062,34
9063,34
9064,34
9065,34
9066,34
9067,34
9068,34
9069,34
9070,34
9071,34
9072,34
9073,34
9074,34
9075,34
9076,34
9077,34
9078,34
9079,34
9080,34
9081,34
9082,34
9083,34
9084,34
9085,34
9086,34
9087,34
9088,34
9089,34
9090,34
9091,34
9092,34
9093,34
9094,34
9095,35
9096,35
9097,35
9098,35
9099,35
9100,35
9101,34
9102,34
9103,34
9104,33
9105,33
9106,33
9107,33
9108,33
9109,33
9110,34
9111,33
9112,34
9113,34
9114,34
9115,34
9116,34
9117,34
9118,34
9119,34
9120,34
9121,34
9122,34
9123,34
9124,34
9125,34
9126,34
9127,34
9128,34
9129,35
9130,35
9131,35
9132,35
9133,36
9134,36
9135,36
9136,36
9137,35
9138,35
9139,35
9140,35
9141,35
9142,35
9143,35
9144,35
9145,35
9146,35
9147,35
9148,35
9149,35
9150,35
9151,36
9152,36
9153,36
9154,35
9155,35
9156,35
9157,35
9158,35
9159,35
9160,35
9161,35
9162,35
9163,35
9164,36
9165,36
9166,36
9167,36
9168,35
9169,35
9170,35
9171,35
9172,35
9173,35
9174,35
9175,36
9176,36
9177,36
9178,35
9179,35
9180,35
9181,35
9182,35
9183,35
9184,36
9185,35
9186,35
9187,35
9188,35
9189,35
9190,35
9191,35
9192,35
9193,35
9194,35
9195,35
9196,35
9197,35
9198,35
9199,35
9200,35
9201,35
9202,35
9203,35
9204,35
9205,35
9206,35
9207,35
9208,36
9209,36
9210,36
9211,36
9212,36
9213,36
9214,36
9215,36
9216,36
9217,36
9218,36
9219,35
9220,35
9221,35
9222,35
9223,35
9224,35
9225,35
9226,35
9227,35
9228,35
9229,35
9230,35
9231,35
9232,36
9233,36
9234,36
9235,36
9236,36
9237,36
9238,36
9239,37
9240,36
9241,37
9242,36
9243,35
9244,35
9245,35
9246,35
9247,35
9248,35
9249,35
9250,35
9251,35
9252,35
9253,35
9254,35
9255,35
9256,35
9257,35
9258,35
9259,35
9260,35
9261,35
9262,36
9263,35
9264,35
9265,35
9266,35
9267,35
9268,35
9269,35
9270,35
9271,35
9272,35
9273,35
9274,35
9275,35
9276,35
9277,35
9278,35
9279,35
9280,35
9281,35
9282,35
9283,35
9284,35
9285,35
9286,35
9287,35
9288,35
9289,35
9290,35
9291,35
9292,35
9293,35
9294,35
9295,36
9296,35
9297,35
9298,36
9299,36
9300,35
9301,35
9302,35
9303,35
9304,35
9305,35
9306,35
9307,35
9308,36
9309,37
9310,38
9311,35
9312,35
9313,35
9314,35
9315,35
9316,35
9317,35
9318,35
9319,35
9320,35
9321,35
9322,35
9323,35
9324,35
9325,35
9326,35
9327,35
9328,35
9329,35
9330,35
9331,35
9332,35
9333,35
9334,35
9335,35
9336,35
9337,35
9338,35
9339,35
9340,35
9341,35
9342,35
9343,35
9344,35
9345,36
9346,36
9347,36
9348,36
9349,36
9350,36
9351,36
9352,36
9353,36
9354,36
9355,36
9356,36
9357,36
9358,36
9359,36
9360,36
9361,36
9362,36
9363,37
9364,37
9365,37
9366,36
9367,36
9368,37
9369,36
9370,37
9371,36
9372,36
9373,36
9374,36
9375,36
9376,36
9377,36
9378,36
9379,36
9380,36
9381,36
9382,36
9383