1,3
2,3
3,3
4,3
5,4
6,4
7,4
8,4
9,4
10,4
11,5
12,4
13,4
14,5
15,5
16,5
17,4
18,4
19,4
20,4
21,4
22,4
23,4
24,4
25,4
26,4
27,4
28,4
29,4
30,4
31,4
32,4
33,4
34,4
35,4
36,5
37,5
38,5
39,5
40,5
41,5
42,5
43,5
44,5
45,6
46,6
47,6
48,6
49,6
50,6
51,6
52,6
53,6
54,6
55,6
56,6
57,6
58,6
59,6
60,7
61,7
62,6
63,6
64,6
65,6
66,6
67,6
68,6
69,6
70,6
71,6
72,6
73,6
74,6
75,6
76,6
77,7
78,6
79,6
80,6
81,6
82,6
83,6
84,6
85,6
86,6
87,6
88,6
89,6
90,6
91,6
92,6
93,6
94,7
95,7
96,7
97,6
98,6
99,6
100,6
101,6
102,6
103,6
104,6
105,6
106,6
107,7
108,6
109,6
110,6
111,6
112,6
113,6
114,6
115,6
116,7
117,7
118,7
119,6
120,6
121,6
122,6
123,7
124,7
125,7
126,6
127,6
128,6
129,6
130,6
131,6
132,6
133,6
134,6
135,6
136,6
137,6
138,6
139,6
140,6
141,6
142,6
143,6
144,6
145,6
146,6
147,6
148,7
149,7
150,7
151,7
152,7
153,7
154,7
155,7
156,7
157,8
158,7
159,7
160,7
161,7
162,7
163,7
164,7
165,7
166,8
167,7
168,7
169,7
170,7
171,7
172,7
173,7
174,7
175,8
176,7
177,7
178,7
179,7
180,7
181,7
182,7
183,7
184,7
185,7
186,7
187,7
188,7
189,7
190,7
191,7
192,7
193,7
194,7
195,7
196,7
197,7
198,7
199,7
200,7
201,7
202,7
203,7
204,7
205,7
206,7
207,7
208,7
209,7
210,7
211,8
212,7
213,7
214,7
215,7
216,7
217,7
218,7
219,8
220,8
221,8
222,7
223,7
224,7
225,7
226,7
227,7
228,7
229,7
230,7
231,7
232,7
233,7
234,7
235,7
236,7
237,7
238,7
239,7
240,7
241,7
242,7
243,7
244,7
245,7
246,7
247,7
248,8
249,7
250,7
251,7
252,8
253,7
254,7
255,7
256,7
257,7
258,7
259,7
260,7
261,7
262,7
263,7
264,7
265,7
266,7
267,7
268,7
269,7
270,7
271,7
272,7
273,7
274,7
275,7
276,7
277,7
278,7
279,7
280,7
281,7
282,7
283,7
284,7
285,7
286,7
287,7
288,7
289,7
290,8
291,8
292,8
293,8
294,8
295,8
296,8
297,8
298,8
299,8
300,8
301,8
302,8
303,8
304,8
305,8
306,8
307,8
308,8
309,8
310,8
311,8
312,8
313,8
314,9
315,9
316,8
317,8
318,8
319,8
320,8
321,8
322,8
323,8
324,8
325,8
326,8
327,8
328,8
329,8
330,8
331,8
332,8
333,9
334,9
335,8
336,8
337,8
338,8
339,8
340,8
341,8
342,8
343,8
344,8
345,8
346,8
347,8
348,8
349,8
350,8
351,8
352,8
353,8
354,8
355,8
356,8
357,8
358,8
359,8
360,8
361,8
362,8
363,8
364,9
365,9
366,9
367,10
368,9
369,9
370,9
371,9
372,9
373,9
374,9
375,9
376,9
377,9
378,9
379,9
380,9
381,9
382,9
383,9
384,9
385,9
386,9
387,9
388,9
389,9
390,9
391,10
392,10
393,10
394,10
395,10
396,11
397,11
398,11
399,11
400,11
401,11
402,10
403,10
404,10
405,10
406,10
407,10
408,12
409,12
410,12
411,11
412,11
413,11
414,11
415,11
416,11
417,11
418,11
419,11
420,11
421,11
422,11
423,11
424,11
425,12
426,11
427,11
428,11
429,11
430,12
431,12
432,12
433,12
434,12
435,12
436,13
437,12
438,12
439,12
440,12
441,12
442,12
443,12
444,12
445,12
446,12
447,12
448,12
449,12
450,12
451,12
452,12
453,12
454,13
455,12
456,12
457,12
458,13
459,12
460,12
461,12
462,12
463,12
464,12
465,12
466,12
467,12
468,12
469,12
470,12
471,12
472,12
473,12
474,12
475,12
476,12
477,12
478,12
479,12
480,13
481,13
482,13
483,13
484,13
485,13
486,13
487,13
488,13
489,13
490,13
491,13
492,13
493,13
494,13
495,13
496,13
497,13
498,13
499,13
500,13
501,13
502,14
503,14
504,14
505,14
506,14
507,14
508,14
509,14
510,14
511,15
512,14
513,14
514,14
515,14
516,14
517,14
518,14
519,15
520,15
521,15
522,15
523,15
524,15
525,15
526,15
527,14
528,14
529,14
530,14
531,14
532,14
533,14
534,14
535,14
536,14
537,15
538,14
539,14
540,14
541,14
542,14
543,14
544,15
545,14
546,14
547,14
548,14
549,14
550,14
551,14
552,14
553,14
554,14
555,14
556,14
557,14
558,14
559,14
560,14
561,14
562,14
563,14
564,14
565,14
566,14
567,15
568,15
569,15
570,15
571,15
572,15
573,14
574,14
575,14
576,14
577,14
578,14
579,14
580,14
581,15
582,15
583,15
584,15
585,15
586,15
587,15
588,15
589,15
590,15
591,15
592,15
593,14
594,14
595,14
596,14
597,14
598,14
599,14
600,14
601,14
602,14
603,14
604,14
605,14
606,14
607,14
608,14
609,14
610,14
611,14
612,14
613,14
614,14
615,14
616,14
617,14
618,14
619,15
620,15
621,15
622,15
623,14
624,14
625,14
626,14
627,14
628,14
629,14
630,14
631,14
632,14
633,14
634,14
635,14
636,14
637,14
638,14
639,14
640,14
641,14
642,14
643,14
644,14
645,14
646,14
647,14
648,15
649,15
650,15
651,15
652,15
653,15
654,15
655,14
656,14
657,14
658,14
659,14
660,14
661,14
662,14
663,14
664,15
665,14
666,14
667,14
668,14
669,14
670,14
671,14
672,14
673,14
674,14
675,14
676,14
677,14
678,14
679,14
680,14
681,14
682,14
683,14
684,14
685,14
686,14
687,14
688,15
689,15
690,16
691,15
692,15
693,15
694,15
695,15
696,15
697,15
698,15
699,15
700,15
701,15
702,15
703,15
704,16
705,16
706,15
707,15
708,15
709,15
710,16
711,16
712,16
713,16
714,15
715,15
716,15
717,15
718,15
719,15
720,15
721,15
722,15
723,15
724,15
725,16
726,17
727,15
728,15
729,15
730,15
731,15
732,15
733,15
734,15
735,15
736,15
737,15
738,15
739,15
740,15
741,15
742,15
743,15
744,15
745,15
746,15
747,15
748,15
749,15
750,15
751,15
752,15
753,15
754,15
755,15
756,15
757,16
758,16
759,16
760,16
761,15
762,15
763,15
764,15
765,15
766,15
767,15
768,15
769,15
770,15
771,16
772,16
773,16
774,16
775,16
776,16
777,16
778,16
779,16
780,16
781,16
782,16
783,16
784,16
785,16
786,17
787,17
788,17
789,17
790,16
791,16
792,16
793,16
794,16
795,16
796,15
797,15
798,15
799,15
800,15
801,16
802,16
803,16
804,16
805,16
806,16
807,16
808,16
809,17
810,16
811,16
812,16
813,16
814,15
815,15
816,15
817,15
818,15
819,15
820,16
821,15
822,15
823,15
824,15
825,15
826,15
827,15
828,15
829,15
830,15
831,15
832,15
833,15
834,15
835,15
836,15
837,15
838,15
839,15
840,15
841,15
842,15
843,15
844,15
845,15
846,15
847,15
848,16
849,15
850,15
851,16
852,15
853,16
854,16
855,15
856,15
857,15
858,15
859,15
860,15
861,15
862,15
863,15
864,15
865,15
866,15
867,15
868,15
869,15
870,15
871,15
872,15
873,15
874,15
875,15
876,15
877,15
878,15
879,15
880,15
881,15
882,15
883,15
884,16
885,16
886,15
887,15
888,16
889,15
890,15
891,15
892,16
893,16
894,16
895,15
896,15
897,15
898,15
899,15
900,15
901,15
902,15
903,15
904,16
905,15
906,15
907,15
908,15
909,15
910,15
911,15
912,15
913,16
914,16
915,15
916,15
917,15
918,15
919,15
920,15
921,16
922,16
923,16
924,16
925,16
926,15
927,15
928,15
929,15
930,15
931,15
932,15
933,15
934,15
935,15
936,16
937,16
938,16
939,16
940,16
941,16
942,17
943,17
944,17
945,18
946,17
947,16
948,16
949,16
950,16
951,16
952,16
953,16
954,16
955,16
956,16
957,16
958,17
959,16
960,16
961,16
962,16
963,16
964,16
965,17
966,17
967,17
968,18
969,17
970,18
971,18
972,18
973,17
974,17
975,17
976,17
977,17
978,17
979,16
980,16
981,16
982,16
983,16
984,16
985,16
986,16
987,16
988,16
989,16
990,16
991,16
992,16
993,16
994,16
995,16
996,16
997,16
998,16
999,16
1000,16
1001,16
1002,16
1003,16
1004,16
1005,16
1006,16
1007,16
1008,17
1009,16
1010,16
1011,16
1012,16
1013,16
1014,16
1015,16
1016,16
1017,16
1018,16
1019,16
1020,16
1021,16
1022,16
1023,16
1024,16
1025,16
1026,16
1027,16
1028,16
1029,16
1030,16
1031,16
1032,16
1033,16
1034,16
1035,16
1036,16
1037,16
1038,17
1039,17
1040,17
1041,17
1042,17
1043,17
1044,17
1045,16
1046,16
1047,16
1048,16
1049,16
1050,16
1051,16
1052,16
1053,16
1054,16
1055,16
1056,16
1057,16
1058,16
1059,16
1060,16
1061,16
1062,16
1063,16
1064,16
1065,17
1066,17
1067,16
1068,16
1069,16
1070,16
1071,16
1072,16
1073,17
1074,17
1075,17
1076,16
1077,16
1078,16
1079,16
1080,16
1081,16
1082,16
1083,17
1084,17
1085,17
1086,16
1087,16
1088,16
1089,17
1090,16
1091,16
1092,16
1093,16
1094,16
1095,16
1096,16
1097,16
1098,16
1099,16
1100,16
1101,16
1102,16
1103,16
1104,17
1105,18
1106,17
1107,17
1108,16
1109,16
1110,16
1111,16
1112,16
1113,16
1114,16
1115,16
1116,16
1117,16
1118,17
1119,16
1120,16
1121,16
1122,16
1123,16
1124,16
1125,16
1126,16
1127,16
1128,16
1129,16
1130,16
1131,16
1132,16
1133,16
1134,16
1135,16
1136,16
1137,16
1138,16
1139,16
1140,16
1141,16
1142,16
1143,16
1144,16
1145,16
1146,16
1147,16
1148,16
1149,16
1150,16
1151,16
1152,16
1153,16
1154,16
1155,16
1156,16
1157,16
1158,17
1159,17
1160,17
1161,17
1162,17
1163,18
1164,17
1165,17
1166,17
1167,18
1168,18
1169,18
1170,18
1171,17
1172,17
1173,17
1174,17
1175,17
1176,17
1177,17
1178,17
1179,16
1180,16
1181,16
1182,16
1183,16
1184,16
1185,16
1186,16
1187,16
1188,16
1189,16
1190,16
1191,16
1192,16
1193,16
1194,16
1195,16
1196,17
1197,18
1198,18
1199,17
1200,16
1201,16
1202,16
1203,17
1204,17
1205,17
1206,16
1207,16
1208,16
1209,16
1210,16
1211,16
1212,16
1213,16
1214,16
1215,16
1216,16
1217,16
1218,16
1219,16
1220,16
1221,16
1222,16
1223,16
1224,17
1225,17
1226,17
1227,17
1228,16
1229,16
1230,16
1231,16
1232,16
1233,16
1234,16
1235,16
1236,16
1237,16
1238,16
1239,16
1240,16
1241,16
1242,16
1243,16
1244,17
1245,18
1246,17
1247,18
1248,18
1249,17
1250,17
1251,17
1252,17
1253,17
1254,17
1255,17
1256,17
1257,17
1258,17
1259,17
1260,17
1261,17
1262,17
1263,17
1264,17
1265,18
1266,17
1267,17
1268,17
1269,17
1270,17
1271,17
1272,17
1273,17
1274,17
1275,17
1276,17
1277,17
1278,17
1279,17
1280,18
1281,18
1282,18
1283,18
1284,18
1285,18
1286,18
1287,18
1288,18
1289,18
1290,18
1291,18
1292,18
1293,18
1294,18
1295,19
1296,18
1297,18
1298,18
1299,18
1300,18
1301,18
1302,18
1303,18
1304,18
1305,18
1306,18
1307,18
1308,18
1309,18
1310,18
1311,18
1312,18
1313,18
1314,18
1315,18
1316,18
1317,18
1318,18
1319,18
1320,18
1321,18
1322,18
1323,18
1324,18
1325,18
1326,18
1327,18
1328,18
1329,19
1330,18
1331,18
1332,18
1333,18
1334,18
1335,18
1336,18
1337,18
1338,18
1339,18
1340,18
1341,18
1342,18
1343,18
1344,18
1345,18
1346,18
1347,18
1348,18
1349,18
1350,18
1351,18
1352,18
1353,18
1354,18
1355,18
1356,18
1357,18
1358,18
1359,18
1360,18
1361,18
1362,18
1363,18
1364,18
1365,18
1366,18
1367,18
1368,18
1369,18
1370,18
1371,19
1372,18
1373,18
1374,18
1375,18
1376,18
1377,18
1378,18
1379,18
1380,18
1381,18
1382,18
1383,18
1384,18
1385,18
1386,18
1387,18
1388,18
1389,18
1390,18
1391,18
1392,18
1393,18
1394,18
1395,18
1396,18
1397,18
1398,18
1399,18
1400,18
1401,18
1402,18
1403,18
1404,18
1405,18
1406,18
1407,18
1408,18
1409,18
1410,18
1411,19
1412,18
1413,18
1414,18
1415,18
1416,18
1417,18
1418,18
1419,18
1420,18
1421,18
1422,18
1423,18
1424,18
1425,18
1426,18
1427,18
1428,18
1429,18
1430,18
1431,18
1432,18
1433,18
1434,18
1435,19
1436,19
1437,19
1438,19
1439,19
1440,19
1441,19
1442,19
1443,19
1444,19
1445,19
1446,19
1447,19
1448,19
1449,19
1450,19
1451,19
1452,19
1453,19
1454,19
1455,20
1456,20
1457,19
1458,19
1459,19
1460,19
1461,18
1462,18
1463,18
1464,18
1465,18
1466,18
1467,18
1468,18
1469,18
1470,18
1471,18
1472,18
1473,18
1474,18
1475,18
1476,18
1477,18
1478,18
1479,18
1480,18
1481,18
1482,18
1483,18
1484,18
1485,18
1486,18
1487,18
1488,18
1489,18
1490,18
1491,18
1492,18
1493,18
1494,18
1495,18
1496,18
1497,18
1498,18
1499,18
1500,19
1501,19
1502,19
1503,18
1504,18
1505,18
1506,18
1507,18
1508,18
1509,18
1510,18
1511,18
1512,18
1513,18
1514,18
1515,18
1516,18
1517,18
1518,18
1519,18
1520,18
1521,18
1522,18
1523,18
1524,18
1525,18
1526,18
1527,18
1528,19
1529,19
1530,19
1531,19
1532,19
1533,19
1534,19
1535,18
1536,18
1537,18
1538,18
1539,18
1540,18
1541,18
1542,18
1543,18
1544,19
1545,20
1546,19
1547,19
1548,18
1549,18
1550,18
1551,18
1552,19
1553,18
1554,18
1555,18
1556,18
1557,18
1558,18
1559,18
1560,18
1561,19
1562,19
1563,18
1564,18
1565,18
1566,18
1567,18
1568,18
1569,18
1570,18
1571,18
1572,18
1573,18
1574,18
1575,18
1576,18
1577,18
1578,18
1579,18
1580,18
1581,18
1582,18
1583,18
1584,18
1585,18
1586,18
1587,18
1588,18
1589,18
1590,18
1591,18
1592,18
1593,18
1594,18
1595,19
1596,18
1597,18
1598,18
1599,18
1600,19
1601,19
1602,19
1603,18
1604,18
1605,18
1606,18
1607,18
1608,18
1609,18
1610,18
1611,18
1612,18
1613,18
1614,18
1615,18
1616,18
1617,18
1618,18
1619,19
1620,18
1621,18
1622,18
1623,18
1624,18
1625,18
1626,18
1627,18
1628,18
1629,18
1630,18
1631,18
1632,18
1633,19
1634,18
1635,18
1636,18
1637,18
1638,18
1639,18
1640,18
1641,18
1642,18
1643,18
1644,18
1645,18
1646,18
1647,18
1648,18
1649,18
1650,18
1651,18
1652,18
1653,18
1654,18
1655,18
1656,18
1657,18
1658,18
1659,18
1660,18
1661,18
1662,18
1663,18
1664,18
1665,18
1666,19
1667,19
1668,19
1669,19
1670,19
1671,19
1672,18
1673,18
1674,18
1675,18
1676,18
1677,18
1678,18
1679,18
1680,18
1681,18
1682,18
1683,18
1684,18
1685,18
1686,19
1687,19
1688,18
1689,18
1690,18
1691,18
1692,18
1693,18
1694,18
1695,18
1696,18
1697,18
1698,18
1699,18
1700,18
1701,18
1702,18
1703,18
1704,18
1705,18
1706,18
1707,18
1708,18
1709,18
1710,18
1711,18
1712,18
1713,18
1714,18
1715,18
1716,18
1717,18
1718,18
1719,18
1720,18
1721,18
1722,18
1723,18
1724,18
1725,18
1726,18
1727,18
1728,18
1729,18
1730,18
1731,18
1732,18
1733,18
1734,18
1735,18
1736,18
1737,18
1738,18
1739,18
1740,19
1741,18
1742,19
1743,19
1744,19
1745,19
1746,19
1747,19
1748,19
1749,19
1750,19
1751,20
1752,20
1753,20
1754,20
1755,20
1756,20
1757,21
1758,21
1759,21
1760,21
1761,21
1762,21
1763,21
1764,20
1765,20
1766,20
1767,20
1768,20
1769,19
1770,19
1771,19
1772,19
1773,19
1774,19
1775,19
1776,19
1777,19
1778,19
1779,19
1780,20
1781,19
1782,19
1783,19
1784,19
1785,19
1786,19
1787,19
1788,19
1789,19
1790,19
1791,19
1792,19
1793,19
1794,19
1795,19
1796,19
1797,19
1798,19
1799,19
1800,19
1801,20
1802,19
1803,19
1804,19
1805,19
1806,19
1807,19
1808,19
1809,19
1810,19
1811,20
1812,20
1813,20
1814,21
1815,21
1816,19
1817,19
1818,19
1819,19
1820,19
1821,19
1822,19
1823,19
1824,19
1825,19
1826,19
1827,19
1828,19
1829,20
1830,20
1831,21
1832,20
1833,20
1834,20
1835,19
1836,19
1837,19
1838,19
1839,19
1840,19
1841,19
1842,20
1843,20
1844,20
1845,20
1846,19
1847,19
1848,19
1849,19
1850,19
1851,19
1852,19
1853,19
1854,19
1855,19
1856,19
1857,19
1858,19
1859,19
1860,19
1861,19
1862,20
1863,20
1864,19
1865,19
1866,19
1867,19
1868,19
1869,19
1870,19
1871,19
1872,19
1873,19
1874,19
1875,19
1876,19
1877,19
1878,20
1879,20
1880,20
1881,20
1882,20
1883,20
1884,21
1885,20
1886,20
1887,20
1888,20
1889,20
1890,20
1891,19
1892,19
1893,19
1894,19
1895,19
1896,19
1897,19
1898,19
1899,19
1900,19
1901,19
1902,20
1903,19
1904,19
1905,19
1906,19
1907,19
1908,19
1909,19
1910,19
1911,19
1912,19
1913,19
1914,19
1915,19
1916,19
1917,19
1918,20
1919,20
1920,19
1921,19
1922,19
1923,19
1924,19
1925,19
1926,19
1927,19
1928,19
1929,19
1930,19
1931,19
1932,20
1933,19
1934,19
1935,20
1936,19
1937,19
1938,19
1939,19
1940,19
1941,19
1942,19
1943,19
1944,19
1945,19
1946,19
1947,19
1948,20
1949,20
1950,20
1951,21
1952,19
1953,19
1954,19
1955,19
1956,19
1957,19
1958,19
1959,19
1960,19
1961,19
1962,19
1963,19
1964,19
1965,19
1966,20
1967,20
1968,19
1969,19
1970,19
1971,19
1972,19
1973,19
1974,20
1975,19
1976,19
1977,19
1978,19
1979,19
1980,19
1981,19
1982,19
1983,19
1984,19
1985,19
1986,19
1987,19
1988,19
1989,19
1990,20
1991,19
1992,19
1993,19
1994,19
1995,19
1996,19
1997,19
1998,19
1999,19
2000,20
2001,20
2002,20
2003,20
2004,20
2005,21
2006,21
2007,21
2008,20
2009,20
2010,21
2011,21
2012,20
2013,20
2014,20
2015,20
2016,20
2017,20
2018,20
2019,20
2020,20
2021,20
2022,20
2023,20
2024,20
2025,20
2026,20
2027,20
2028,20
2029,20
2030,20
2031,20
2032,20
2033,20
2034,20
2035,20
2036,20
2037,20
2038,20
2039,20
2040,20
2041,20
2042,20
2043,19
2044,20
2045,19
2046,19
2047,19
2048,19
2049,19
2050,19
2051,19
2052,19
2053,19
2054,19
2055,19
2056,19
2057,19
2058,19
2059,19
2060,19
2061,19
2062,19
2063,19
2064,19
2065,20
2066,20
2067,20
2068,21
2069,21
2070,21
2071,21
2072,20
2073,20
2074,20
2075,20
2076,20
2077,20
2078,20
2079,20
2080,20
2081,20
2082,20
2083,20
2084,20
2085,20
2086,20
2087,19
2088,19
2089,19
2090,19
2091,19
2092,19
2093,20
2094,21
2095,19
2096,19
2097,19
2098,19
2099,19
2100,20
2101,20
2102,20
2103,20
2104,20
2105,20
2106,20
2107,20
2108,20
2109,20
2110,19
2111,19
2112,19
2113,19
2114,19
2115,19
2116,19
2117,19
2118,19
2119,19
2120,19
2121,19
2122,19
2123,19
2124,19
2125,19
2126,19
2127,19
2128,19
2129,19
2130,19
2131,19
2132,19
2133,19
2134,19
2135,19
2136,19
2137,19
2138,19
2139,19
2140,19
2141,19
2142,19
2143,19
2144,19
2145,19
2146,19
2147,19
2148,20
2149,20
2150,20
2151,20
2152,19
2153,19
2154,19
2155,19
2156,19
2157,19
2158,19
2159,19
2160,19
2161,19
2162,19
2163,19
2164,19
2165,19
2166,19
2167,19
2168,19
2169,19
2170,19
2171,19
2172,19
2173,19
2174,19
2175,19
2176,19
2177,19
2178,19
2179,19
2180,19
2181,19
2182,19
2183,19
2184,19
2185,19
2186,20
2187,20
2188,20
2189,20
2190,20
2191,20
2192,20
2193,19
2194,19
2195,19
2196,19
2197,19
2198,19
2199,19
2200,19
2201,20
2202,19
2203,19
2204,19
2205,19
2206,19
2207,19
2208,19
2209,19
2210,19
2211,19
2212,19
2213,19
2214,19
2215,19
2216,19
2217,19
2218,19
2219,20
2220,19
2221,19
2222,19
2223,19
2224,20
2225,20
2226,20
2227,20
2228,20
2229,20
2230,20
2231,19
2232,19
2233,19
2234,19
2235,19
2236,19
2237,19
2238,19
2239,19
2240,19
2241,19
2242,19
2243,19
2244,19
2245,19
2246,19
2247,19
2248,19
2249,20
2250,19
2251,19
2252,19
2253,19
2254,19
2255,19
2256,19
2257,19
2258,20
2259,20
2260,20
2261,20
2262,19
2263,19
2264,19
2265,19
2266,19
2267,19
2268,19
2269,19
2270,19
2271,19
2272,19
2273,19
2274,19
2275,19
2276,19
2277,19
2278,19
2279,20
2280,19
2281,19
2282,19
2283,19
2284,19
2285,19
2286,19
2287,19
2288,19
2289,19
2290,19
2291,19
2292,19
2293,19
2294,19
2295,19
2296,19
2297,19
2298,19
2299,19
2300,19
2301,19
2302,19
2303,19
2304,19
2305,19
2306,19
2307,19
2308,19
2309,19
2310,19
2311,19
2312,19
2313,19
2314,19
2315,19
2316,19
2317,19
2318,19
2319,19
2320,19
2321,19
2322,19
2323,19
2324,19
2325,19
2326,19
2327,19
2328,19
2329,19
2330,19
2331,19
2332,19
2333,19
2334,19
2335,19
2336,20
2337,19
2338,20
2339,19
2340,19
2341,19
2342,19
2343,19
2344,19
2345,19
2346,19
2347,19
2348,19
2349,19
2350,19
2351,19
2352,19
2353,19
2354,19
2355,19
2356,19
2357,19
2358,19
2359,19
2360,19
2361,19
2362,19
2363,19
2364,19
2365,19
2366,19
2367,19
2368,19
2369,19
2370,19
2371,19
2372,19
2373,19
2374,19
2375,19
2376,19
2377,19
2378,19
2379,19
2380,19
2381,19
2382,19
2383,19
2384,19
2385,19
2386,19
2387,19
2388,19
2389,19
2390,19
2391,19
2392,19
2393,19
2394,19
2395,19
2396,19
2397,19
2398,19
2399,19
2400,19
2401,19
2402,19
2403,19
2404,19
2405,19
2406,19
2407,19
2408,19
2409,19
2410,19
2411,19
2412,19
2413,19
2414,19
2415,19
2416,19
2417,19
2418,19
2419,19
2420,19
2421,19
2422,19
2423,19
2424,19
2425,19
2426,19
2427,19
2428,19
2429,19
2430,19
2431,19
2432,19
2433,19
2434,19
2435,19
2436,19
2437,19
2438,19
2439,19
2440,19
2441,19
2442,19
2443,19
2444,19
2445,19
2446,19
2447,19
2448,19
2449,19
2450,19
2451,19
2452,19
2453,19
2454,19
2455,19
2456,19
2457,19
2458,19
2459,19
2460,19
2461,19
2462,19
2463,19
2464,19
2465,20
2466,20
2467,19
2468,19
2469,19
2470,19
2471,19
2472,20
2473,20
2474,20
2475,19
2476,19
2477,19
2478,19
2479,19
2480,19
2481,19
2482,19
2483,19
2484,20
2485,20
2486,20
2487,20
2488,21
2489,21
2490,21
2491,21
2492,21
2493,22
2494,22
2495,22
2496,21
2497,21
2498,20
2499,20
2500,20
2501,20
2502,20
2503,21
2504,21
2505,21
2506,20
2507,20
2508,20
2509,20
2510,21
2511,22
2512,22
2513,21
2514,20
2515,20
2516,20
2517,21
2518,20
2519,20
2520,20
2521,20
2522,20
2523,20
2524,20
2525,20
2526,20
2527,20
2528,20
2529,20
2530,20
2531,20
2532,20
2533,20
2534,20
2535,20
2536,20
2537,20
2538,20
2539,21
2540,21
2541,21
2542,21
2543,21
2544,21
2545,20
2546,20
2547,20
2548,20
2549,20
2550,20
2551,21
2552,20
2553,20
2554,20
2555,20
2556,20
2557,20
2558,20
2559,20
2560,20
2561,20
2562,20
2563,20
2564,20
2565,20
2566,20
2567,20
2568,20
2569,20
2570,20
2571,20
2572,20
2573,20
2574,21
2575,21
2576,21
2577,21
2578,21
2579,21
2580,21
2581,21
2582,21
2583,22
2584,21
2585,21
2586,21
2587,21
2588,21
2589,21
2590,21
2591,21
2592,21
2593,21
2594,21
2595,21
2596,21
2597,21
2598,21
2599,21
2600,21
2601,21
2602,21
2603,20
2604,20
2605,20
2606,20
2607,20
2608,20
2609,20
2610,21
2611,20
2612,20
2613,20
2614,20
2615,20
2616,20
2617,20
2618,20
2619,20
2620,20
2621,20
2622,20
2623,20
2624,20
2625,20
2626,20
2627,20
2628,20
2629,20
2630,20
2631,20
2632,20
2633,20
2634,20
2635,20
2636,20
2637,20
2638,20
2639,20
2640,20
2641,20
2642,20
2643,21
2644,21
2645,20
2646,20
2647,20
2648,20
2649,20
2650,20
2651,20
2652,21
2653,21
2654,21
2655,21
2656,21
2657,21
2658,21
2659,21
2660,21
2661,21
2662,21
2663,21
2664,21
2665,21
2666,21
2667,21
2668,21
2669,21
2670,22
2671,21
2672,21
2673,21
2674,21
2675,20
2676,20
2677,20
2678,20
2679,21
2680,21
2681,20
2682,20
2683,20
2684,20
2685,20
2686,20
2687,20
2688,20
2689,21
2690,20
2691,20
2692,20
2693,20
2694,20
2695,20
2696,20
2697,20
2698,20
2699,21
2700,20
2701,20
2702,20
2703,20
2704,20
2705,20
2706,20
2707,20
2708,20
2709,20
2710,20
2711,20
2712,20
2713,20
2714,20
2715,20
2716,20
2717,21
2718,21
2719,21
2720,21
2721,21
2722,21
2723,22
2724,21
2725,21
2726,22
2727,21
2728,21
2729,21
2730,21
2731,21
2732,21
2733,21
2734,22
2735,21
2736,21
2737,21
2738,22
2739,22
2740,22
2741,23
2742,22
2743,21
2744,21
2745,22
2746,21
2747,21
2748,21
2749,21
2750,21
2751,21
2752,21
2753,21
2754,21
2755,21
2756,21
2757,21
2758,21
2759,22
2760,22
2761,22
2762,23
2763,23
2764,22
2765,22
2766,22
2767,22
2768,22
2769,22
2770,22
2771,22
2772,22
2773,22
2774,22
2775,22
2776,22
2777,22
2778,22
2779,22
2780,22
2781,22
2782,22
2783,22
2784,22
2785,22
2786,22
2787,22
2788,22
2789,22
2790,22
2791,22
2792,22
2793,22
2794,22
2795,22
2796,22
2797,22
2798,22
2799,22
2800,22
2801,22
2802,22
2803,22
2804,22
2805,22
2806,22
2807,22
2808,22
2809,22
2810,22
2811,22
2812,22
2813,22
2814,22
2815,22
2816,22
2817,22
2818,22
2819,22
2820,22
2821,22
2822,22
2823,22
2824,22
2825,22
2826,22
2827,22
2828,22
2829,22
2830,22
2831,22
2832,22
2833,22
2834,22
2835,22
2836,22
2837,22
2838,22
2839,22
2840,22
2841,22
2842,22
2843,22
2844,22
2845,22
2846,22
2847,22
2848,22
2849,22
2850,22
2851,22
2852,22
2853,22
2854,22
2855,22
2856,22
2857,22
2858,22
2859,22
2860,22
2861,22
2862,22
2863,22
2864,22
2865,22
2866,22
2867,22
2868,22
2869,22
2870,22
2871,22
2872,22
2873,22
2874,22
2875,22
2876,22
2877,22
2878,22
2879,22
2880,22
2881,22
2882,22
2883,22
2884,22
2885,22
2886,22
2887,22
2888,22
2889,22
2890,22
2891,22
2892,22
2893,22
2894,22
2895,22
2896,22
2897,22
2898,22
2899,22
2900,23
2901,22
2902,22
2903,22
2904,22
2905,22
2906,22
2907,22
2908,22
2909,22
2910,22
2911,22
2912,22
2913,22
2914,22
2915,22
2916,22
2917,22
2918,22
2919,22
2920,22
2921,22
2922,22
2923,23
2924,23
2925,23
2926,23
2927,23
2928,22
2929,23
2930,23
2931,23
2932,22
2933,22
2934,22
2935,22
2936,22
2937,22
2938,22
2939,22
2940,22
2941,22
2942,22
2943,22
2944,22
2945,22
2946,22
2947,22
2948,22
2949,22
2950,22
2951,22
2952,22
2953,22
2954,22
2955,22
2956,22
2957,22
2958,22
2959,22
2960,22
2961,22
2962,22
2963,22
2964,22
2965,22
2966,22
2967,22
2968,22
2969,22
2970,22
2971,22
2972,22
2973,22
2974,23
2975,23
2976,23
2977,23
2978,23
2979,23
2980,23
2981,22
2982,22
2983,23
2984,23
2985,23
2986,23
2987,23
2988,23
2989,23
2990,23
2991,23
2992,23
2993,23
2994,24
2995,25
2996,26
2997,25
2998,25
2999,25
3000,24
3001,25
3002,23
3003,23
3004,23
3005,23
3006,23
3007,23
3008,23
3009,23
3010,23
3011,23
3012,23
3013,23
3014,22
3015,22
3016,22
3017,22
3018,22
3019,22
3020,22
3021,22
3022,22
3023,22
3024,22
3025,22
3026,22
3027,22
3028,22
3029,22
3030,22
3031,22
3032,22
3033,22
3034,22
3035,22
3036,22
3037,22
3038,22
3039,22
3040,23
3041,22
3042,22
3043,22
3044,22
3045,22
3046,22
3047,22
3048,22
3049,22
3050,22
3051,22
3052,22
3053,22
3054,22
3055,23
3056,23
3057,23
3058,23
3059,23
3060,23
3061,22
3062,22
3063,22
3064,22
3065,22
3066,22
3067,22
3068,22
3069,22
3070,22
3071,22
3072,22
3073,22
3074,23
3075,22
3076,23
3077,22
3078,22
3079,22
3080,22
3081,22
3082,23
3083,23
3084,22
3085,22
3086,22
3087,22
3088,23
3089,23
3090,23
3091,22
3092,23
3093,23
3094,23
3095,23
3096,22
3097,22
3098,22
3099,22
3100,22
3101,22
3102,22
3103,22
3104,22
3105,22
3106,22
3107,23
3108,23
3109,22
3110,22
3111,22
3112,22
3113,22
3114,22
3115,22
3116,22
3117,22
3118,22
3119,23
3120,23
3121,23
3122,22
3123,22
3124,22
3125,22
3126,22
3127,23
3128,22
3129,22
3130,22
3131,22
3132,22
3133,22
3134,22
3135,22
3136,22
3137,22
3138,22
3139,22
3140,22
3141,22
3142,22
3143,23
3144,23
3145,23
3146,23
3147,23
3148,23
3149,23
3150,23
3151,23
3152,23
3153,23
3154,23
3155,23
3156,23
3157,22
3158,22
3159,22
3160,22
3161,22
3162,22
3163,22
3164,22
3165,22
3166,22
3167,22
3168,22
3169,22
3170,22
3171,22
3172,22
3173,22
3174,22
3175,22
3176,22
3177,22
3178,22
3179,22
3180,22
3181,22
3182,22
3183,22
3184,22
3185,22
3186,22
3187,22
3188,22
3189,22
3190,22
3191,22
3192,22
3193,22
3194,22
3195,22
3196,22
3197,22
3198,22
3199,22
3200,22
3201,22
3202,22
3203,22
3204,22
3205,22
3206,22
3207,22
3208,22
3209,22
3210,22
3211,22
3212,22
3213,22
3214,22
3215,22
3216,22
3217,22
3218,22
3219,22
3220,22
3221,22
3222,22
3223,22
3224,22
3225,22
3226,22
3227,22
3228,22
3229,22
3230,22
3231,22
3232,22
3233,22
3234,22
3235,22
3236,22
3237,22
3238,22
3239,22
3240,22
3241,22
3242,22
3243,22
3244,22
3245,23
3246,22
3247,22
3248,23
3249,24
3250,23
3251,23
3252,22
3253,22
3254,22
3255,22
3256,22
3257,22
3258,22
3259,22
3260,22
3261,22
3262,22
3263,22
3264,22
3265,22
3266,22
3267,22
3268,22
3269,22
3270,23
3271,23
3272,22
3273,22
3274,22
3275,22
3276,22
3277,22
3278,22
3279,22
3280,22
3281,22
3282,22
3283,22
3284,22
3285,22
3286,22
3287,22
3288,22
3289,22
3290,22
3291,22
3292,22
3293,22
3294,22
3295,22
3296,22
3297,22
3298,22
3299,22
3300,22
3301,22
3302,23
3303,23
3304,23
3305,22
3306,22
3307,22
3308,22
3309,22
3310,22
3311,22
3312,22
3313,22
3314,22
3315,22
3316,22
3317,23
3318,23
3319,22
3320,22
3321,22
3322,22
3323,22
3324,22
3325,22
3326,22
3327,22
3328,22
3329,22
3330,23
3331,22
3332,22
3333,22
3334,22
3335,22
3336,22
3337,22
3338,23
3339,22
3340,22
3341,22
3342,22
3343,23
3344,23
3345,23
3346,24
3347,23
3348,23
3349,23
3350,23
3351,23
3352,23
3353,23
3354,24
3355,24
3356,24
3357,25
3358,25
3359,24
3360,23
3361,23
3362,23
3363,23
3364,23
3365,23
3366,24
3367,24
3368,24
3369,24
3370,23
3371,23
3372,24
3373,23
3374,23
3375,23
3376,23
3377,23
3378,23
3379,23
3380,23
3381,23
3382,23
3383,23
3384,23
3385,23
3386,24
3387,24
3388,25
3389,24
3390,24
3391,24
3392,24
3393,24
3394,23
3395,23
3396,23
3397,23
3398,23
3399,22
3400,22
3401,22
3402,22
3403,22
3404,22
3405,22
3406,22
3407,22
3408,22
3409,22
3410,22
3411,22
3412,22
3413,22
3414,22
3415,22
3416,22
3417,22
3418,22
3419,22
3420,22
3421,22
3422,22
3423,22
3424,22
3425,22
3426,22
3427,22
3428,22
3429,22
3430,22
3431,22
3432,22
3433,22
3434,22
3435,22
3436,22
3437,22
3438,22
3439,22
3440,22
3441,22
3442,22
3443,22
3444,22
3445,22
3446,22
3447,22
3448,22
3449,22
3450,22
3451,22
3452,22
3453,22
3454,22
3455,22
3456,22
3457,22
3458,22
3459,22
3460,22
3461,22
3462,22
3463,23
3464,22
3465,22
3466,22
3467,22
3468,22
3469,23
3470,22
3471,22
3472,22
3473,22
3474,22
3475,22
3476,22
3477,23
3478,22
3479,22
3480,22
3481,22
3482,22
3483,22
3484,22
3485,22
3486,22
3487,22
3488,22
3489,22
3490,22
3491,22
3492,22
3493,23
3494,22
3495,22
3496,22
3497,22
3498,22
3499,22
3500,22
3501,22
3502,23
3503,23
3504,23
3505,22
3506,22
3507,22
3508,22
3509,22
3510,22
3511,22
3512,24
3513,23
3514,23
3515,23
3516,23
3517,23
3518,22
3519,22
3520,22
3521,22
3522,22
3523,22
3524,22
3525,22
3526,23
3527,23
3528,23
3529,23
3530,23
3531,23
3532,23
3533,24
3534,23
3535,23
3536,23
3537,23
3538,23
3539,23
3540,23
3541,23
3542,23
3543,23
3544,23
3545,23
3546,23
3547,23
3548,23
3549,23
3550,23
3551,22
3552,22
3553,22
3554,22
3555,22
3556,22
3557,22
3558,22
3559,22
3560,22
3561,22
3562,22
3563,22
3564,22
3565,22
3566,22
3567,22
3568,22
3569,22
3570,22
3571,22
3572,23
3573,22
3574,22
3575,22
3576,22
3577,22
3578,23
3579,23
3580,22
3581,22
3582,22
3583,23
3584,23
3585,23
3586,23
3587,23
3588,23
3589,23
3590,24
3591,24
3592,23
3593,23
3594,23
3595,23
3596,23
3597,23
3598,23
3599,23
3600,23
3601,24
3602,23
3603,23
3604,23
3605,23
3606,23
3607,23
3608,23
3609,23
3610,23
3611,23
3612,23
3613,23
3614,23
3615,23
3616,23
3617,23
3618,23
3619,23
3620,23
3621,23
3622,23
3623,23
3624,23
3625,23
3626,23
3627,23
3628,23
3629,23
3630,23
3631,23
3632,23
3633,23
3634,23
3635,23
3636,23
3637,23
3638,23
3639,23
3640,23
3641,23
3642,23
3643,23
3644,23
3645,23
3646,23
3647,23
3648,23
3649,23
3650,23
3651,23
3652,23
3653,23
3654,23
3655,23
3656,23
3657,23
3658,23
3659,23
3660,23
3661,23
3662,23
3663,23
3664,23
3665,23
3666,23
3667,23
3668,23
3669,24
3670,24
3671,24
3672,24
3673,24
3674,24
3675,25
3676,25
3677,25
3678,25
3679,24
3680,24
3681,24
3682,24
3683,24
3684,24
3685,24
3686,24
3687,25
3688,24
3689,24
3690,24
3691,24
3692,25
3693,25
3694,24
3695,24
3696,25
3697,25
3698,25
3699,25
3700,24
3701,24
3702,24
3703,23
3704,23
3705,23
3706,23
3707,23
3708,23
3709,23
3710,24
3711,24
3712,24
3713,24
3714,24
3715,24
3716,24
3717,24
3718,24
3719,24
3720,24
3721,24
3722,25
3723,25
3724,24
3725,24
3726,24
3727,24
3728,23
3729,23
3730,23
3731,23
3732,23
3733,23
3734,24
3735,24
3736,24
3737,24
3738,24
3739,24
3740,24
3741,24
3742,24
3743,24
3744,23
3745,23
3746,23
3747,24
3748,23
3749,23
3750,23
3751,23
3752,23
3753,23
3754,23
3755,23
3756,23
3757,23
3758,23
3759,24
3760,24
3761,23
3762,23
3763,23
3764,23
3765,23
3766,23
3767,23
3768,24
3769,24
3770,23
3771,23
3772,23
3773,23
3774,23
3775,23
3776,23
3777,23
3778,23
3779,23
3780,23
3781,23
3782,23
3783,23
3784,23
3785,23
3786,23
3787,23
3788,23
3789,23
3790,23
3791,23
3792,23
3793,23
3794,23
3795,23
3796,23
3797,23
3798,23
3799,23
3800,23
3801,24
3802,24
3803,25
3804,25
3805,25
3806,24
3807,26
3808,26
3809,25
3810,25
3811,24
3812,24
3813,24
3814,24
3815,24
3816,24
3817,24
3818,24
3819,24
3820,24
3821,24
3822,24
3823,24
3824,24
3825,24
3826,24
3827,24
3828,24
3829,25
3830,24
3831,24
3832,24
3833,24
3834,24
3835,24
3836,24
3837,24
3838,24
3839,24
3840,24
3841,24
3842,24
3843,24
3844,24
3845,24
3846,24
3847,24
3848,24
3849,24
3850,24
3851,24
3852,24
3853,24
3854,24
3855,24
3856,24
3857,24
3858,24
3859,24
3860,24
3861,24
3862,24
3863,24
3864,24
3865,24
3866,24
3867,24
3868,24
3869,24
3870,24
3871,24
3872,24
3873,24
3874,24
3875,24
3876,24
3877,25
3878,24
3879,24
3880,24
3881,24
3882,24
3883,24
3884,24
3885,24
3886,24
3887,24
3888,24
3889,24
3890,24
3891,24
3892,24
3893,24
3894,24
3895,24
3896,24
3897,24
3898,24
3899,25
3900,25
3901,24
3902,24
3903,24
3904,25
3905,25
3906,25
3907,24
3908,24
3909,24
3910,24
3911,24
3912,24
3913,24
3914,25
3915,25
3916,25
3917,25
3918,25
3919,25
3920,25
3921,25
3922,25
3923,25
3924,25
3925,25
3926,25
3927,26
3928,26
3929,26
3930,26
3931,26
3932,26
3933,26
3934,26
3935,26
3936,26
3937,26
3938,26
3939,26
3940,26
3941,26
3942,26
3943,26
3944,26
3945,26
3946,26
3947,26
3948,26
3949,26
3950,26
3951,26
3952,26
3953,26
3954,25
3955,25
3956,26
3957,26
3958,26
3959,26
3960,25
3961,26
3962,25
3963,25
3964,25
3965,25
3966,25
3967,26
3968,26
3969,25
3970,25
3971,25
3972,25
3973,25
3974,25
3975,25
3976,25
3977,25
3978,25
3979,25
3980,25
3981,27
3982,27
3983,26
3984,25
3985,25
3986,25
3987,25
3988,25
3989,25
3990,25
3991,26
3992,26
3993,25
3994,25
3995,25
3996,25
3997,25
3998,25
3999,25
4000,25
4001,25
4002,25
4003,25
4004,25
4005,25
4006,25
4007,25
4008,25
4009,25
4010,25
4011,26
4012,26
4013,25
4014,25
4015,25
4016,25
4017,25
4018,25
4019,25
4020,25
4021,25
4022,25
4023,25
4024,25
4025,25
4026,25
4027,25
4028,25
4029,25
4030,25
4031,25
4032,25
4033,25
4034,25
4035,25
4036,25
4037,25
4038,25
4039,25
4040,25
4041,25
4042,25
4043,25
4044,25
4045,25
4046,25
4047,25
4048,25
4049,25
4050,25
4051,25
4052,25
4053,25
4054,25
4055,25
4056,25
4057,25
4058,25
4059,25
4060,25
4061,25
4062,25
4063,25
4064,25
4065,25
4066,25
4067,25
4068,25
4069,25
4070,25
4071,25
4072,25
4073,25
4074,25
4075,25
4076,25
4077,25
4078,26
4079,25
4080,25
4081,25
4082,25
4083,25
4084,26
4085,26
4086,26
4087,26
4088,26
4089,26
4090,26
4091,26
4092,26
4093,26
4094,26
4095,27
4096,26
4097,25
4098,25
4099,26
4100,26
4101,26
4102,26
4103,26
4104,27
4105,26
4106,26
4107,26
4108,26
4109,26
4110,26
4111,26
4112,26
4113,26
4114,26
4115,26
4116,26
4117,26
4118,26
4119,26
4120,26
4121,26
4122,26
4123,26
4124,26
4125,26
4126,26
4127,26
4128,26
4129,26
4130,26
4131,26
4132,26
4133,26
4134,26
4135,26
4136,26
4137,26
4138,27
4139,26
4140,26
4141,27
4142,27
4143,26
4144,27
4145,26
4146,26
4147,26
4148,26
4149,26
4150,26
4151,26
4152,26
4153,26
4154,26
4155,26
4156,26
4157,26
4158,26
4159,26
4160,26
4161,26
4162,26
4163,26
4164,27
4165,27
4166,27
4167,27
4168,28
4169,28
4170,28
4171,27
4172,26
4173,27
4174,28
4175,27
4176,27
4177,28
4178,28
4179,28
4180,27
4181,27
4182,27
4183,27
4184,27
4185,27
4186,27
4187,27
4188,28
4189,27
4190,27
4191,27
4192,27
4193,27
4194,27
4195,27
4196,27
4197,27
4198,27
4199,27
4200,27
4201,27
4202,27
4203,27
4204,27
4205,27
4206,27
4207,27
4208,27
4209,27
4210,27
4211,27
4212,27
4213,27
4214,27
4215,27
4216,27
4217,27
4218,27
4219,27
4220,27
4221,27
4222,27
4223,27
4224,27
4225,27
4226,27
4227,27
4228,27
4229,27
4230,27
4231,27
4232,27
4233,27
4234,27
4235,28
4236,29
4237,29
4238,29
4239,29
4240,29
4241,29
4242,29
4243,29
4244,29
4245,29
4246,29
4247,29
4248,28
4249,28
4250,28
4251,29
4252,29
4253,28
4254,28
4255,28
4256,28
4257,27
4258,27
4259,27
4260,27
4261,27
4262,27
4263,28
4264,27
4265,27
4266,27
4267,27
4268,27
4269,27
4270,27
4271,27
4272,27
4273,27
4274,27
4275,27
4276,27
4277,27
4278,27
4279,27
4280,27
4281,27
4282,27
4283,27
4284,27
4285,27
4286,27
4287,27
4288,27
4289,27
4290,27
4291,27
4292,29
4293,28
4294,28
4295,28
4296,27
4297,27
4298,27
4299,27
4300,28
4301,29
4302,29
4303,29
4304,28
4305,28
4306,28
4307,27
4308,27
4309,27
4310,27
4311,27
4312,27
4313,27
4314,27
4315,27
4316,27
4317,27
4318,27
4319,27
4320,27
4321,27
4322,27
4323,27
4324,27
4325,27
4326,27
4327,27
4328,27
4329,27
4330,27
4331,27
4332,27
4333,27
4334,27
4335,27
4336,27
4337,27
4338,27
4339,27
4340,28
4341,29
4342,28
4343,28
4344,28
4345,28
4346,28
4347,28
4348,28
4349,28
4350,28
4351,28
4352,28
4353,28
4354,28
4355,28
4356,28
4357,28
4358,28
4359,28
4360,28
4361,28
4362,28
4363,28
4364,28
4365,28
4366,28
4367,28
4368,28
4369,28
4370,28
4371,28
4372,28
4373,28
4374,28
4375,28
4376,28
4377,28
4378,28
4379,28
4380,28
4381,28
4382,28
4383,29
4384,29
4385,29
4386,29
4387,29
4388,28
4389,29
4390,29
4391,29
4392,29
4393,30
4394,30
4395,29
4396,29
4397,29
4398,29
4399,29
4400,29
4401,29
4402,29
4403,29
4404,29
4405,29
4406,30
4407,29
4408,29
4409,29
4410,29
4411,29
4412,29
4413,29
4414,30
4415,30
4416,29
4417,29
4418,29
4419,29
4420,30
4421,30
4422,29
4423,29
4424,29
4425,29
4426,29
4427,29
4428,29
4429,29
4430,30
4431,30
4432,30
4433,30
4434,30
4435,30
4436,30
4437,30
4438,30
4439,30
4440,30
4441,29
4442,29
4443,29
4444,29
4445,29
4446,29
4447,29
4448,29
4449,29
4450,30
4451,29
4452,29
4453,29
4454,29
4455,29
4456,29
4457,29
4458,29
4459,29
4460,29
4461,29
4462,29
4463,29
4464,29
4465,29
4466,29
4467,29
4468,29
4469,29
4470,29
4471,29
4472,29
4473,29
4474,29
4475,29
4476,29
4477,30
4478,29
4479,29
4480,29
4481,30
4482,30
4483,30
4484,30
4485,29
4486,29
4487,29
4488,29
4489,29
4490,29
4491,29
4492,29
4493,29
4494,29
4495,29
4496,29
4497,29
4498,29
4499,29
4500,29
4501,29
4502,29
4503,29
4504,29
4505,29
4506,29
4507,29
4508,29
4509,29
4510,29
4511,29
4512,29
4513,29
4514,29
4515,29
4516,29
4517,29
4518,29
4519,29
4520,29
4521,30
4522,29
4523,29
4524,29
4525,30
4526,31
4527,29
4528,29
4529,29
4530,29
4531,29
4532,29
4533,29
4534,29
4535,29
4536,29
4537,29
4538,29
4539,29
4540,29
4541,29
4542,29
4543,29
4544,29
4545,29
4546,29
4547,29
4548,29
4549,29
4550,29
4551,29
4552,29
4553,29
4554,29
4555,29
4556,29
4557,29
4558,29
4559,29
4560,30
4561,30
4562,31
4563,31
4564,31
4565,31
4566,31
4567,30
4568,31
4569,32
4570,32
4571,32
4572,32
4573,32
4574,32
4575,31
4576,31
4577,31
4578,31
4579,31
4580,31
4581,31
4582,32
4583,31
4584,31
4585,32
4586,33
4587,32
4588,32
4589,32
4590,32
4591,32
4592,32
4593,32
4594,32
4595,32
4596,32
4597,32
4598,32
4599,32
4600,32
4601,32
4602,32
4603,32
4604,32
4605,32
4606,32
4607,32
4608,32
4609,32
4610,32
4611,32
4612,32
4613,32
4614,32
4615,32
4616,32
4617,32
4618,32
4619,31
4620,31
4621,31
4622,31
4623,31
4624,31
4625,31
4626,31
4627,31
4628,31
4629,31
4630,31
4631,31
4632,31
4633,31
4634,31
4635,31
4636,31
4637,31
4638,31
4639,31
4640,31
4641,31
4642,31
4643,31
4644,31
4645,31
4646,31
4647,31
4648,31
4649,31
4650,31
4651,31
4652,31
4653,31
4654,31
4655,31
4656,31
4657,31
4658,31
4659,31
4660,31
4661,31
4662,31
4663,31
4664,31
4665,31
4666,31
4667,31
4668,31
4669,32
4670,32
4671,32
4672,32
4673,32
4674,31
4675,31
4676,31
4677,31
4678,31
4679,31
4680,31
4681,31
4682,31
4683,31
4684,31
4685,31
4686,31
4687,31
4688,31
4689,31
4690,32
4691,32
4692,32
4693,32
4694,33
4695,33
4696,32
4697,32
4698,34
4699,33
4700,33
4701,33
4702,33
4703,32
4704,31
4705,31
4706,31
4707,32
4708,32
4709,32
4710,31
4711,31
4712,31
4713,31
4714,31
4715,31
4716,31
4717,31
4718,31
4719,31
4720,31
4721,31
4722,31
4723,31
4724,31
4725,31
4726,31
4727,31
4728,31
4729,31
4730,31
4731,31
4732,31
4733,31
4734,31
4735,31
4736,31
4737,31
4738,31
4739,31
4740,31
4741,31
4742,32
4743,31
4744,31
4745,31
4746,31
4747,31
4748,31
4749,31
4750,31
4751,30
4752,30
4753,30
4754,30
4755,30
4756,30
4757,30
4758,30
4759,30
4760,30
4761,30
4762,30
4763,30
4764,30
4765,30
4766,30
4767,30
4768,30
4769,30
4770,30
4771,30
4772,30
4773,30
4774,30
4775,30
4776,30
4777,30
4778,30
4779,30
4780,30
4781,30
4782,30
4783,31
4784,32
4785,32
4786,32
4787,32
4788,32
4789,33
4790,32
4791,31
4792,31
4793,31
4794,31
4795,31
4796,31
4797,32
4798,32
4799,33
4800,33
4801,33
4802,33
4803,33
4804,33
4805,33
4806,33
4807,33
4808,33
4809,32
4810,32
4811,32
4812,32
4813,32
4814,32
4815,32
4816,32
4817,32
4818,33
4819,33
4820,32
4821,32
4822,32
4823,32
4824,32
4825,32
4826,32
4827,32
4828,32
4829,32
4830,32
4831,32
4832,32
4833,32
4834,32
4835,32
4836,32
4837,32
4838,32
4839,32
4840,32
4841,32
4842,32
4843,32
4844,32
4845,32
4846,32
4847,32
4848,32
4849,33
4850,32
4851,32
4852,32
4853,32
4854,33
4855,32
4856,32
4857,32
4858,32
4859,32
4860,32
4861,32
4862,32
4863,33
4864,33
4865,32
4866,32
4867,32
4868,32
4869,33
4870,32
4871,32
4872,32
4873,32
4874,32
4875,32
4876,32
4877,32
4878,32
4879,33
4880,32
4881,32
4882,32
4883,32
4884,32
4885,33
4886,33
4887,33
4888,33
4889,33
4890,33
4891,33
4892,33
4893,33
4894,33
4895,34
4896,34
4897,34
4898,34
4899,34
4900,34
4901,34
4902,34
4903,34
4904,34
4905,34
4906,33
4907,33
4908,33
4909,33
4910,33
4911,33
4912,33
4913,33
4914,33
4915,33
4916,33
4917,33
4918,33
4919,33
4920,33
4921,33
4922,33
4923,34
4924,33
4925,33
4926,33
4927,33
4928,33
4929,33
4930,33
4931,33
4932,33
4933,33
4934,33
4935,33
4936,33
4937,34
4938,33
4939,33
4940,33
4941,33
4942,33
4943,34
4944,33
4945,33
4946,33
4947,33
4948,33
4949,33
4950,33
4951,33
4952,33
4953,33
4954,33
4955,33
4956,32
4957,32
4958,32
4959,32
4960,32
4961,32
4962,32
4963,32
4964,32
4965,32
4966,32
4967,32
4968,32
4969,32
4970,32
4971,32
4972,32
4973,32
4974,32
4975,32
4976,32
4977,33
4978,33
4979,33
4980,33
4981,33
4982,33
4983,33
4984,33
4985,33
4986,33
4987,33
4988,33
4989,33
4990,33
4991,33
4992,33
4993,33
4994,33
4995,33
4996,33
4997,34
4998,33
4999,33
5000,33
5001,33
5002,33
5003,33
5004,34
5005,33
5006,33
5007,33
5008,33
5009,33
5010,33
5011,34
5012,34
5013,34
5014,34
5015,34
5016,34
5017,34
5018,34
5019,34
5020,34
5021,34
5022,34
5023,34
5024,34
5025,34
5026,34
5027,34
5028,34
5029,34
5030,34
5031,34
5032,34
5033,34
5034,34
5035,34
5036,34
5037,34
5038,34
5039,34
5040,34
5041,34
5042,34
5043,34
5044,34
5045,34
5046,34
5047,34
5048,34
5049,34
5050,34
5051,34
5052,34
5053,34
5054,34
5055,34
5056,34
5057,34
5058,34
5059,34
5060,34
5061,34
5062,34
5063,34
5064,34
5065,34
5066,34
5067,34
5068,34
5069,34
5070,34
5071,34
5072,34
5073,35
5074,34
5075,34
5076,34
5077,34
5078,34
5079,34
5080,34
5081,34
5082,34
5083,34
5084,34
5085,35
5086,35
5087,35
5088,35
5089,35
5090,35
5091,36
5092,36
5093,36
5094,36
5095,36
5096,36
5097,36
5098,37
5099,36
5100,36
5101,36
5102,36
5103,36
5104,36
5105,36
5106,37
5107,36
5108,36
5109,36
5110,36
5111,36
5112,36
5113,36
5114,36
5115,36
5116,36
5117,35
5118,35
5119,35
5120,35
5121,35
5122,35
5123,35
5124,35
5125,35
5126,35
5127,35
5128,35
5129,35
5130,35
5131,35
5132,35
5133,35
5134,36
5135,36
5136,36
5137,36
5138,36
5139,36
5140,36
5141,36
5142,36
5143,36
5144,36
5145,36
5146,36
5147,36
5148,36
5149,36
5150,35
5151,35
5152,35
5153,35
5154,35
5155,35
5156,35
5157,35
5158,35
5159,35
5160,35
5161,35
5162,35
5163,35
5164,35
5165,35
5166,35
5167,35
5168,35
5169,35
5170,35
5171,35
5172,36
5173,36
5174,35
5175,35
5176,35
5177,35
5178,35
5179,35
5180,35
5181,35
5182,35
5183,35
5184,35
5185,35
5186,35
5187,35
5188,35
5189,35
5190,35
5191,35
5192,35
5193,35
5194,36
5195,36
5196,36
5197,36
5198,35
5199,35
5200,35
5201,35
5202,35
5203,35
5204,35
5205,35
5206,35
5207,35
5208,35
5209,35
5210,35
5211,35
5212,35
5213,35
5214,35
5215,35
5216,35
5217,35
5218,35
5219,35
5220,36
5221,37
5222,36
5223,36
5224,36
5225,36
5226,36
5227,36
5228,35
5229,35
5230,35
5231,35
5232,35
5233,35
5234,35
5235,35
5236,35
5237,35
5238,35
5239,35
5240,35
5241,35
5242,35
5243,35
5244,35
5245,35
5246,35
5247,35
5248,35
5249,35
5250,35
5251,35
5252,35
5253,35
5254,35
5255,35
5256,35
5257,35
5258,35
5259,35
5260,35
5261,36
5262,36
5263,36
5264,36
5265,36
5266,36
5267,35
5268,35
5269,35
5270,36
5271,36
5272,36
5273,36
5274,36
5275,36
5276,36
5277,36
5278,35
5279,35
5280,35
5281,35
5282,35
5283,35
5284,35
5285,35
5286,36
5287,36
5288,36
5289,35
5290,35
5291,35
5292,35
5293,35
5294,35
5295,35
5296,35
5297,35
5298,35
5299,35
5300,35
5301,35
5302,35
5303,36
5304,35
5305,35
5306,35
5307,35
5308,35
5309,35
5310,35
5311,35
5312,35
5313,35
5314,35
5315,35
5316,35
5317,35
5318,35
5319,35
5320,35
5321,35
5322,35
5323,36
5324,36
5325,36
5326,36
5327,37
5328,37
5329,37
5330,37
5331,37
5332,37
5333,37
5334,36
5335,35
5336,35
5337,35
5338,35
5339,35
5340,35
5341,35
5342,35
5343,35
5344,35
5345,35
5346,35
5347,35
5348,35
5349,35
5350,35
5351,36
5352,35
5353,35
5354,35
5355,35
5356,35
5357,35
5358,35
5359,35
5360,35
5361,35
5362,35
5363,35
5364,35
5365,35
5366,35
5367,35
5368,35
5369,35
5370,35
5371,35
5372,35
5373,36
5374,36
5375,36
5376,36
5377,36
5378,36
5379,36
5380,36
5381,37
5382,37
5383,37
5384,37
5385,37
5386,36
5387,36
5388,36
5389,36
5390,36
5391,36
5392,36
5393,36
5394,36
5395,36
5396,36
5397,36
5398,36
5399,36
5400,36
5401,36
5402,36
5403,36
5404,36
5405,36
5406,36
5407,35
5408,35
5409,35
5410,35
5411,35
5412,35
5413,35
5414,35
5415,35
5416,35
5417,34
5418,34
5419,34
5420,34
5421,35
5422,34
5423,34
5424,34
5425,34
5426,34
5427,34
5428,34
5429,34
5430,34
5431,34
5432,34
5433,34
5434,34
5435,34
5436,34
5437,34
5438,34
5439,34
5440,34
5441,34
5442,34
5443,34
5444,34
5445,34
5446,34
5447,34
5448,34
5449,34
5450,34
5451,34
5452,34
5453,34
5454,34
5455,34
5456,34
5457,34
5458,34
5459,33
5460,33
5461,33
5462,33
5463,33
5464,34
5465,34
5466,34
5467,34
5468,33
5469,33
5470,33
5471,33
5472,33
5473,33
5474,33
5475,33
5476,33
5477,34
5478,33
5479,33
5480,33
5481,33
5482,33
5483,33
5484,33
5485,33
5486,33
5487,33
5488,33
5489,33
5490,33
5491,33
5492,33
5493,33
5494,33
5495,33
5496,34
5497,34
5498,34
5499,34
5500,34
5501,34
5502,34
5503,34
5504,34
5505,34
5506,34
5507,34
5508,34
5509,34
5510,34
5511,34
5512,34
5513,34
5514,34
5515,34
5516,34
5517,34
5518,34
5519,35
5520,35
5521,35
5522,35
5523,35
5524,35
5525,34
5526,34
5527,34
5528,34
5529,34
5530,34
5531,34
5532,34
5533,35
5534,35
5535,34
5536,34
5537,34
5538,34
5539,34
5540,34
5541,34
5542,34
5543,34
5544,34
5545,34
5546,33
5547,33
5548,33
5549,33
5550,34
5551,33
5552,33
5553,33
5554,33
5555,33
5556,33
5557,33
5558,33
5559,33
5560,33
5561,33
5562,33
5563,33
5564,33
5565,33
5566,33
5567,34
5568,34
5569,34
5570,34
5571,34
5572,34
5573,33
5574,34
5575,34
5576,33
5577,33
5578,33
5579,33
5580,33
5581,33
5582,33
5583,33
5584,33
5585,33
5586,34
5587,33
5588,33
5589,33
5590,33
5591,33
5592,33
5593,33
5594,33
5595,34
5596,33
5597,33
5598,33
5599,33
5600,33
5601,34
5602,35
5603,34
5604,34
5605,34
5606,34
5607,34
5608,34
5609,34
5610,34
5611,34
5612,34
5613,34
5614,34
5615,35
5616,34
5617,34
5618,34
5619,35
5620,35
5621,35
5622,35
5623,34
5624,34
5625,34
5626,34
5627,34
5628,34
5629,34
5630,34
5631,34
5632,34
5633,34
5634,34
5635,34
5636,34
5637,34
5638,34
5639,33
5640,33
5641,33
5642,33
5643,33
5644,33
5645,33
5646,33
5647,33
5648,33
5649,33
5650,33
5651,33
5652,33
5653,33
5654,33
5655,33
5656,33
5657,33
5658,33
5659,33
5660,33
5661,33
5662,33
5663,33
5664,33
5665,33
5666,33
5667,33
5668,33
5669,33
5670,33
5671,33
5672,33
5673,33
5674,33
5675,33
5676,33
5677,33
5678,33
5679,33
5680,33
5681,33
5682,33
5683,33
5684,33
5685,33
5686,33
5687,33
5688,33
5689,33
5690,33
5691,33
5692,33
5693,33
5694,33
5695,33
5696,33
5697,33
5698,33
5699,33
5700,33
5701,33
5702,33
5703,33
5704,34
5705,33
5706,34
5707,34
5708,33
5709,33
5710,33
5711,34
5712,34
5713,34
5714,35
5715,34
5716,34
5717,35
5718,36
5719,35
5720,34
5721,34
5722,34
5723,34
5724,34
5725,34
5726,34
5727,34
5728,34
5729,34
5730,34
5731,34
5732,34
5733,34
5734,34
5735,35
5736,34
5737,34
5738,34
5739,34
5740,34
5741,34
5742,34
5743,34
5744,34
5745,34
5746,35
5747,35
5748,35
5749,35
5750,35
5751,35
5752,34
5753,34
5754,34
5755,33
5756,33
5757,33
5758,33
5759,33
5760,34
5761,34
5762,34
5763,34
5764,34
5765,34
5766,35
5767,35
5768,34
5769,34
5770,34
5771,34
5772,35
5773,34
5774,34
5775,34
5776,33
5777,33
5778,33
5779,33
5780,33
5781,33
5782,33
5783,33
5784,33
5785,33
5786,33
5787,33
5788,33
5789,33
5790,33
5791,33
5792,33
5793,33
5794,33
5795,33
5796,33
5797,33
5798,33
5799,33
5800,34
5801,33
5802,33
5803,33
5804,33
5805,33
5806,33
5807,33
5808,33
5809,33
5810,33
5811,34
5812,34
5813,35
5814,34
5815,34
5816,34
5817,34
5818,34
5819,34
5820,35
5821,35
5822,35
5823,35
5824,35
5825,36
5826,37
5827,37
5828,37
5829,37
5830,35
5831,35
5832,35
5833,35
5834,35
5835,35
5836,35
5837,35
5838,36
5839,35
5840,35
5841,35
5842,35
5843,35
5844,35
5845,35
5846,35
5847,36
5848,36
5849,36
5850,36
5851,36
5852,35
5853,35
5854,35
5855,35
5856,35
5857,35
5858,35
5859,35
5860,35
5861,35
5862,35
5863,35
5864,35
5865,34
5866,34
5867,34
5868,34
5869,34
5870,35
5871,34
5872,34
5873,34
5874,34
5875,35
5876,35
5877,35
5878,35
5879,35
5880,35
5881,34
5882,34
5883,34
5884,34
5885,34
5886,34
5887,35
5888,35
5889,35
5890,36
5891,37
5892,36
5893,35
5894,35
5895,35
5896,35
5897,35
5898,35
5899,35
5900,35
5901,34
5902,34
5903,34
5904,34
5905,34
5906,34
5907,34
5908,34
5909,34
5910,34
5911,34
5912,34
5913,34
5914,34
5915,33
5916,33
5917,33
5918,33
5919,33
5920,33
5921,33
5922,33
5923,33
5924,33
5925,33
5926,33
5927,33
5928,33
5929,33
5930,33
5931,33
5932,33
5933,33
5934,33
5935,33
5936,33
5937,33
5938,33
5939,33
5940,33
5941,33
5942,33
5943,33
5944,33
5945,33
5946,33
5947,33
5948,34
5949,34
5950,35
5951,35
5952,35
5953,34
5954,34
5955,34
5956,34
5957,34
5958,35
5959,35
5960,34
5961,34
5962,33
5963,33
5964,33
5965,33
5966,33
5967,33
5968,33
5969,33
5970,33
5971,33
5972,33
5973,33
5974,33
5975,34
5976,34
5977,34
5978,34
5979,34
5980,33
5981,33
5982,33
5983,33
5984,33
5985,33
5986,33
5987,33
5988,33
5989,34
5990,34
5991,34
5992,34
5993,34
5994,34
5995,34
5996,33
5997,33
5998,33
5999,33
6000,33
6001,33
6002,33
6003,33
6004,33
6005,33
6006,33
6007,33
6008,33
6009,33
6010,33
6011,33
6012,33
6013,33
6014,34
6015,33
6016,33
6017,33
6018,33
6019,33
6020,33
6021,33
6022,33
6023,33
6024,33
6025,33
6026,33
6027,33
6028,33
6029,33
6030,33
6031,33
6032,33
6033,33
6034,33
6035,33
6036,33
6037,33
6038,33
6039,33
6040,33
6041,33
6042,33
6043,33
6044,33
6045,33
6046,33
6047,33
6048,33
6049,33
6050,33
6051,33
6052,33
6053,33
6054,33
6055,33
6056,33
6057,33
6058,33
6059,33
6060,34
6061,33
6062,33
6063,34
6064,33
6065,34
6066,34
6067,34
6068,34
6069,34
6070,33
6071,33
6072,33
6073,33
6074,33
6075,33
6076,33
6077,33
6078,33
6079,33
6080,33
6081,34
6082,34
6083,34
6084,34
6085,34
6086,35
6087,34
6088,34
6089,34
6090,34
6091,34
6092,34
6093,34
6094,34
6095,34
6096,34
6097,34
6098,34
6099,34
6100,34
6101,33
6102,33
6103,33
6104,33
6105,33
6106,33
6107,33
6108,33
6109,33
6110,33
6111,33
6112,33
6113,33
6114,33
6115,33
6116,33
6117,33
6118,33
6119,33
6120,33
6121,33
6122,34
6123,34
6124,33
6125,33
6126,33
6127,33
6128,33
6129,33
6130,33
6131,33
6132,33
6133,33
6134,33
6135,33
6136,33
6137,33
6138,33
6139,33
6140,33
6141,33
6142,33
6143,33
6144,33
6145,35
6146,33
6147,33
6148,33
6149,33
6150,33
6151,33
6152,33
6153,33
6154,33
6155,33
6156,33
6157,33
6158,33
6159,33
6160,33
6161,33
6162,33
6163,33
6164,33
6165,33
6166,33
6167,33
6168,33
6169,33
6170,33
6171,34
6172,33
6173,34
6174,34
6175,34
6176,34
6177,34
6178,34
6179,34
6180,34
6181,34
6182,33
6183,33
6184,34
6185,34
6186,33
6187,33
6188,33
6189,33
6190,34
6191,33
6192,33
6193,33
6194,33
6195,33
6196,33
6197,33
6198,33
6199,33
6200,33
6201,33
6202,34
6203,34
6204,34
6205,34
6206,34
6207,34
6208,34
6209,34
6210,34
6211,33
6212,33
6213,33
6214,33
6215,33
6216,33
6217,33
6218,33
6219,33
6220,33
6221,33
6222,33
6223,33
6224,33
6225,33
6226,33
6227,33
6228,33
6229,33
6230,33
6231,34
6232,33
6233,33
6234,33
6235,33
6236,33
6237,33
6238,33
6239,33
6240,33
6241,33
6242,32
6243,32
6244,32
6245,32
6246,32
6247,32
6248,32
6249,32
6250,32
6251,32
6252,32
6253,32
6254,32
6255,32
6256,32
6257,32
6258,32
6259,32
6260,32
6261,32
6262,32
6263,32
6264,32
6265,32
6266,32
6267,32
6268,32
6269,32
6270,32
6271,32
6272,32
6273,32
6274,32
6275,32
6276,32
6277,33
6278,32
6279,32
6280,32
6281,32
6282,32
6283,32
6284,32
6285,32
6286,32
6287,32
6288,32
6289,32
6290,32
6291,32
6292,32
6293,32
6294,32
6295,32
6296,32
6297,32
6298,32
6299,32
6300,32
6301,32
6302,32
6303,32
6304,32
6305,32
6306,32
6307,32
6308,32
6309,32
6310,32
6311,32
6312,32
6313,32
6314,32
6315,32
6316,32
6317,32
6318,32
6319,32
6320,32
6321,32
6322,32
6323,32
6324,32
6325,32
6326,32
6327,32
6328,32
6329,32
6330,32
6331,32
6332,33
6333,32
6334,32
6335,32
6336,32
6337,32
6338,32
6339,32
6340,32
6341,32
6342,32
6343,32
6344,32
6345,32
6346,32
6347,32
6348,32
6349,32
6350,32
6351,32
6352,32
6353,32
6354,32
6355,32
6356,32
6357,32
6358,32
6359,32
6360,32
6361,32
6362,32
6363,32
6364,32
6365,32
6366,32
6367,32
6368,32
6369,33
6370,32
6371,33
6372,33
6373,33
6374,33
6375,32
6376,32
6377,32
6378,33
6379,32
6380,32
6381,32
6382,33
6383,33
6384,33
6385,32
6386,32
6387,32
6388,32
6389,32
6390,33
6391,33
6392,32
6393,32
6394,32
6395,33
6396,33
6397,33
6398,32
6399,32
6400,32
6401,32
6402,32
6403,32
6404,32
6405,32
6406,32
6407,32
6408,32
6409,32
6410,32
6411,32
6412,32
6413,32
6414,32
6415,33
6416,32
6417,32
6418,32
6419,32
6420,32
6421,32
6422,32
6423,32
6424,32
6425,32
6426,32
6427,32
6428,32
6429,32
6430,31
6431,31
6432,31
6433,31
6434,31
6435,31
6436,31
6437,31
6438,31
6439,31
6440,31
6441,31
6442,31
6443,31
6444,31
6445,31
6446,31
6447,31
6448,31
6449,31
6450,31
6451,31
6452,31
6453,31
6454,31
6455,31
6456,31
6457,31
6458,31
6459,31
6460,32
6461,31
6462,31
6463,31
6464,31
6465,31
6466,33
6467,32
6468,32
6469,32
6470,32
6471,32
6472,32
6473,31
6474,32
6475,31
6476,31
6477,31
6478,31
6479,31
6480,31
6481,31
6482,31
6483,31
6484,31
6485,31
6486,31
6487,31
6488,31
6489,31
6490,31
6491,31
6492,31
6493,31
6494,31
6495,31
6496,31
6497,31
6498,31
6499,31
6500,31
6501,31
6502,31
6503,31
6504,31
6505,31
6506,31
6507,31
6508,31
6509,31
6510,31
6511,31
6512,31
6513,31
6514,31
6515,31
6516,31
6517,31
6518,31
6519,31
6520,31
6521,31
6522,32
6523,31
6524,31
6525,31
6526,31
6527,31
6528,31
6529,31
6530,31
6531,31
6532,31
6533,31
6534,31
6535,31
6536,31
6537,31
6538,32
6539,32
6540,33
6541,31
6542,31
6543,31
6544,31
6545,31
6546,31
6547,31
6548,31
6549,31
6550,31
6551,31
6552,31
6553,31
6554,31
6555,31
6556,31
6557,31
6558,31
6559,31
6560,31
6561,31
6562,31
6563,31
6564,31
6565,31
6566,31
6567,31
6568,31
6569,31
6570,31
6571,31
6572,31
6573,31
6574,31
6575,31
6576,31
6577,31
6578,31
6579,31
6580,31
6581,31
6582,31
6583,31
6584,31
6585,31
6586,31
6587,31
6588,31
6589,31
6590,31
6591,31
6592,31
6593,32
6594,32
6595,32
6596,33
6597,32
6598,32
6599,32
6600,32
6601,32
6602,32
6603,32
6604,32
6605,33
6606,32
6607,32
6608,32
6609,32
6610,32
6611,32
6612,32
6613,32
6614,32
6615,32
6616,32
6617,32
6618,32
6619,32
6620,32
6621,32
6622,34
6623,35
6624,34
6625,34
6626,33
6627,32
6628,32
6629,32
6630,32
6631,32
6632,33
6633,33
6634,32
6635,32
6636,32
6637,32
6638,32
6639,32
6640,32
6641,33
6642,32
6643,32
6644,32
6645,33
6646,32
6647,32
6648,33
6649,32
6650,32
6651,32
6652,32
6653,32
6654,32
6655,32
6656,32
6657,32
6658,32
6659,32
6660,32
6661,32
6662,32
6663,32
6664,32
6665,32
6666,32
6667,32
6668,32
6669,32
6670,32
6671,32
6672,32
6673,32
6674,32
6675,32
6676,32
6677,32
6678,32
6679,32
6680,32
6681,32
6682,33
6683,33
6684,32
6685,32
6686,32
6687,32
6688,32
6689,32
6690,32
6691,32
6692,32
6693,32
6694,32
6695,32
6696,32
6697,32
6698,32
6699,32
6700,32
6701,32
6702,32
6703,32
6704,32
6705,32
6706,32
6707,32
6708,33
6709,32
6710,32
6711,32
6712,33
6713,33
6714,33
6715,33
6716,33
6717,33
6718,33
6719,33
6720,33
6721,33
6722,33
6723,33
6724,33
6725,33
6726,33
6727,33
6728,33
6729,33
6730,33
6731,33
6732,34
6733,34
6734,33
6735,33
6736,33
6737,34
6738,34
6739,33
6740,33
6741,33
6742,34
6743,34
6744,34
6745,34
6746,34
6747,34
6748,34
6749,34
6750,34
6751,34
6752,34
6753,34
6754,34
6755,34
6756,34
6757,34
6758,34
6759,34
6760,34
6761,34
6762,34
6763,34
6764,34
6765,34
6766,34
6767,34
6768,34
6769,34
6770,34
6771,33
6772,33
6773,33
6774,33
6775,33
6776,33
6777,33
6778,33
6779,33
6780,33
6781,33
6782,33
6783,33
6784,33
6785,33
6786,33
6787,33
6788,33
6789,33
6790,33
6791,33
6792,33
6793,33
6794,33
6795,33
6796,33
6797,33
6798,33
6799,33
6800,33
6801,33
6802,33
6803,34
6804,34
6805,34
6806,34
6807,34
6808,34
6809,35
6810,34
6811,34
6812,34
6813,34
6814,34
6815,34
6816,34
6817,34
6818,34
6819,35
6820,35
6821,35
6822,34
6823,34
6824,34
6825,34
6826,34
6827,34
6828,34
6829,34
6830,34
6831,34
6832,34
6833,34
6834,34
6835,34
6836,34
6837,34
6838,35
6839,34
6840,34
6841,34
6842,35
6843,34
6844,34
6845,34
6846,35
6847,35
6848,35
6849,35
6850,36
6851,35
6852,36
6853,35
6854,35
6855,35
6856,35
6857,36
6858,36
6859,36
6860,36
6861,36
6862,37
6863,37
6864,37
6865,37
6866,37
6867,37
6868,37
6869,37
6870,37
6871,37
6872,37
6873,37
6874,37
6875,37
6876,36
6877,36
6878,37
6879,37
6880,37
6881,37
6882,37
6883,36
6884,36
6885,36
6886,36
6887,36
6888,36
6889,36
6890,36
6891,36
6892,36
6893,36
6894,36
6895,36
6896,36
6897,36
6898,36
6899,36
6900,36
6901,36
6902,36
6903,36
6904,36
6905,36
6906,36
6907,36
6908,36
6909,36
6910,36
6911,36
6912,36
6913,36
6914,36
6915,36
6916,37
6917,37
6918,37
6919,37
6920,36
6921,36
6922,36
6923,36
6924,36
6925,36
6926,36
6927,36
6928,36
6929,36
6930,37
6931,37
6932,37
6933,36
6934,37
6935,36
6936,36
6937,36
6938,36
6939,36
6940,36
6941,36
6942,38
6943,38
6944,38
6945,38
6946,37
6947,36
6948,36
6949,36
6950,36
6951,36
6952,36
6953,36
6954,36
6955,36
6956,36
6957,36
6958,36
6959,36
6960,36
6961,36
6962,36
6963,36
6964,36
6965,36
6966,37
6967,37
6968,37
6969,37
6970,37
6971,37
6972,36
6973,36
6974,36
6975,36
6976,36
6977,36
6978,36
6979,36
6980,36
6981,36
6982,36
6983,36
6984,36
6985,36
6986,36
6987,36
6988,36
6989,36
6990,36
6991,36
6992,36
6993,36
6994,36
6995,36
6996,37
6997,37
6998,37
6999,37
7000,36
7001,36
7002,36
7003,36
7004,36
7005,36
7006,36
7007,36
7008,36
7009,36
7010,36
7011,36
7012,36
7013,36
7014,36
7015,36
7016,36
7017,36
7018,36
7019,37
7020,37
7021,38
7022,37
7023,37
7024,37
7025,37
7026,37
7027,38
7028,37
7029,37
7030,37
7031,37
7032,36
7033,36
7034,36
7035,36
7036,36
7037,36
7038,36
7039,36
7040,35
7041,35
7042,35
7043,35
7044,35
7045,35
7046,35
7047,36
7048,36
7049,36
7050,36
7051,36
7052,36
7053,36
7054,35
7055,35
7056,35
7057,35
7058,35
7059,35
7060,35
7061,35
7062,35
7063,35
7064,35
7065,35
7066,34
7067,34
7068,34
7069,34
7070,34
7071,34
7072,34
7073,34
7074,34
7075,34
7076,34
7077,34
7078,35
7079,34
7080,34
7081,34
7082,34
7083,34
7084,34
7085,34
7086,34
7087,34
7088,34
7089,34
7090,34
7091,34
7092,34
7093,34
7094,34
7095,34
7096,34
7097,34
7098,34
7099,34
7100,34
7101,34
7102,34
7103,34
7104,34
7105,34
7106,34
7107,34
7108,34
7109,34
7110,34
7111,34
7112,34
7113,34
7114,34
7115,34
7116,34
7117,34
7118,34
7119,34
7120,34
7121,34
7122,34
7123,34
7124,34
7125,34
7126,34
7127,34
7128,34
7129,35
7130,34
7131,34
7132,34
7133,34
7134,34
7135,34
7136,34
7137,34
7138,34
7139,34
7140,35
7141,35
7142,35
7143,36
7144,35
7145,35
7146,35
7147,35
7148,35
7149,35
7150,35
7151,35
7152,35
7153,35
7154,35
7155,35
7156,35
7157,35
7158,36
7159,36
7160,36
7161,36
7162,36
7163,36
7164,36
7165,36
7166,36
7167,36
7168,36
7169,36
7170,36
7171,36
7172,36
7173,36
7174,36
7175,36
7176,37
7177,36
7178,35
7179,35
7180,35
7181,36
7182,35
7183,35
7184,36
7185,35
7186,34
7187,34
7188,34
7189,34
7190,34
7191,34
7192,34
7193,34
7194,34
7195,34
7196,34
7197,34
7198,34
7199,34
7200,34
7201,34
7202,34
7203,34
7204,34
7205,34
7206,34
7207,34
7208,34
7209,34
7210,34
7211,34
7212,34
7213,34
7214,35
7215,35
7216,35
7217,35
7218,34
7219,34
7220,34
7221,34
7222,34
7223,34
7224,34
7225,34
7226,34
7227,34
7228,34
7229,34
7230,34
7231,36
7232,35
7233,34
7234,34
7235,34
7236,34
7237,34
7238,34
7239,34
7240,34
7241,34
7242,34
7243,34
7244,34
7245,34
7246,34
7247,34
7248,34
7249,35
7250,34
7251,34
7252,34
7253,34
7254,35
7255,35
7256,35
7257,35
7258,34
7259,35
7260,34
7261,34
7262,34
7263,34
7264,34
7265,34
7266,34
7267,34
7268,34
7269,34
7270,34
7271,35
7272,34
7273,34
7274,34
7275,34
7276,34
7277,34
7278,34
7279,34
7280,34
7281,35
7282,34
7283,34
7284,34
7285,34
7286,34
7287,34
7288,34
7289,34
7290,34
7291,34
7292,34
7293,34
7294,34
7295,34
7296,34
7297,34
7298,34
7299,35
7300,35
7301,34
7302,34
7303,34
7304,34
7305,34
7306,34
7307,34
7308,34
7309,35
7310,35
7311,35
7312,35
7313,35
7314,35
7315,35
7316,35
7317,35
7318,35
7319,35
7320,35
7321,35
7322,35
7323,35
7324,35
7325,35
7326,35
7327,35
7328,35
7329,35
7330,35
7331,35
7332,35
7333,36
7334,35
7335,35
7336,35
7337,35
7338,35
7339,35
7340,35
7341,35
7342,35
7343,35
7344,35
7345,35
7346,35
7347,35
7348,35
7349,35
7350,35
7351,35
7352,35
7353,36
7354,36
7355,35
7356,35
7357,35
7358,35
7359,35
7360,36
7361,36
7362,37
7363,37
7364,37
7365,36
7366,36
7367,35
7368,35
7369,35
7370,35
7371,35
7372,35
7373,35
7374,35
7375,35
7376,35
7377,35
7378,35
7379,36
7380,35
7381,35
7382,35
7383,35
7384,35
7385,35
7386,35
7387,35
7388,35
7389,35
7390,35
7391,35
7392,35
7393,35
7394,36
7395,35
7396,35
7397,35
7398,35
7399,35
7400,35
7401,35
7402,35
7403,35
7404,35
7405,36
7406,36
7407,36
7408,36
7409,36
7410,36
7411,36
7412,36
7413,36
7414,37
7415,37
7416,37
7417,37
7418,37
7419,37
7420,37
7421,37
7422,37
7423,36
7424,36
7425,37
7426,37
7427,36
7428,37
7429,36
7430,37
7431,36
7432,36
7433,36
7434,36
7435,36
7436,36
7437,36
7438,36
7439,36
7440,36
7441,36
7442,36
7443,36
7444,36
7445,36
7446,36
7447,36
7448,36
7449,36
7450,36
7451,36
7452,36
7453,36
7454,36
7455,36
7456,36
7457,36
7458,36
7459,36
7460,36
7461,36
7462,36
7463,36
7464,36
7465,36
7466,36
7467,36
7468,36
7469,36
7470,36
7471,36
7472,36
7473,36
7474,36
7475,36
7476,36
7477,36
7478,36
7479,36
7480,36
7481,36
7482,36
7483,36
7484,36
7485,37
7486,37
7487,36
7488,36
7489,36
7490,36
7491,36
7492,36
7493,37
7494,37
7495,37
7496,37
7497,36
7498,36
7499,36
7500,36
7501,36
7502,36
7503,36
7504,36
7505,36
7506,36
7507,36
7508,36
7509,36
7510,36
7511,36
7512,36
7513,36
7514,36
7515,36
7516,36
7517,36
7518,36
7519,37
7520,37
7521,37
7522,37
7523,37
7524,37
7525,37
7526,37
7527,37
7528,36
7529,36
7530,36
7531,36
7532,36
7533,36
7534,36
7535,36
7536,36
7537,36
7538,36
7539,36
7540,37
7541,37
7542,37
7543,36
7544,36
7545,36
7546,36
7547,36
7548,37
7549,38
7550,37
7551,37
7552,36
7553,36
7554,36
7555,37
7556,36
7557,36
7558,36
7559,36
7560,37
7561,36
7562,36
7563,37
7564,37
7565,36
7566,36
7567,36
7568,36
7569,36
7570,36
7571,36
7572,36
7573,36
7574,36
7575,36
7576,36
7577,36
7578,36
7579,36
7580,36
7581,36
7582,36
7583,36
7584,36
7585,36
7586,36
7587,36
7588,37
7589,37
7590,36
7591,36
7592,37
7593,36
7594,36
7595,36
7596,36
7597,36
7598,36
7599,36
7600,36
7601,37
7602,36
7603,36
7604,36
7605,36
7606,36
7607,36
7608,36
7609,36
7610,36
7611,36
7612,37
7613,36
7614,36
7615,36
7616,36
7617,36
7618,36
7619,36
7620,36
7621,36
7622,36
7623,36
7624,36
7625,36
7626,36
7627,36
7628,36
7629,36
7630,36
7631,36
7632,36
7633,36
7634,36
7635,36
7636,36
7637,36
7638,36
7639,36
7640,36
7641,36
7642,36
7643,36
7644,36
7645,36
7646,36
7647,36
7648,36
7649,36
7650,36
7651,36
7652,36
7653,36
7654,36
7655,36
7656,36
7657,36
7658,36
7659,37
7660,37
7661,37
7662,37
7663,37
7664,37
7665,37
7666,37
7667,36
7668,36
7669,36
7670,36
7671,36
7672,36
7673,36
7674,36
7675,36
7676,36
7677,36
7678,36
7679,36
7680,36
7681,36
7682,36
7683,36
7684,36
7685,36
7686,36
7687,36
7688,36
7689,36
7690,36
7691,36
7692,36
7693,36
7694,36
7695,36
7696,37
7697,37
7698,38
7699,38
7700,38
7701,38
7702,38
7703,38
7704,37
7705,37
7706,37
7707,37
7708,37
7709,36
7710,36
7711,38
7712,37
7713,36
7714,36
7715,36
7716,36
7717,36
7718,36
7719,36
7720,36
7721,36
7722,36
7723,36
7724,36
7725,36
7726,36
7727,36
7728,36
7729,36
7730,36
7731,36
7732,36
7733,36
7734,36
7735,36
7736,36
7737,36
7738,36
7739,36
7740,36
7741,36
7742,36
7743,37
7744,37
7745,37
7746,37
7747,36
7748,37
7749,36
7750,36
7751,36
7752,36
7753,36
7754,36
7755,37
7756,37
7757,37
7758,37
7759,37
7760,37
7761,37
7762,37
7763,36
7764,36
7765,36
7766,35
7767,35
7768,36
7769,36
7770,36
7771,36
7772,36
7773,36
7774,36
7775,36
7776,36
7777,36
7778,36
7779,36
7780,36
7781,36
7782,36
7783,36
7784,36
7785,36
7786,36
7787,36
7788,36
7789,36
7790,35
7791,35
7792,35
7793,35
7794,36
7795,35
7796,35
7797,35
7798,35
7799,35
7800,35
7801,35
7802,35
7803,35
7804,35
7805,35
7806,35
7807,35
7808,35
7809,35
7810,34
7811,34
7812,34
7813,34
7814,34
7815,34
7816,34
7817,34
7818,34
7819,34
7820,34
7821,34
7822,34
7823,34
7824,34
7825,34
7826,34
7827,34
7828,34
7829,34
7830,34
7831,34
7832,34
7833,34
7834,34
7835,34
7836,34
7837,34
7838,34
7839,34
7840,34
7841,35
7842,34
7843,34
7844,34
7845,35
7846,35
7847,35
7848,34
7849,34
7850,34
7851,34
7852,34
7853,35
7854,35
7855,36
7856,36
7857,36
7858,37
7859,36
7860,35
7861,35
7862,35
7863,35
7864,34
7865,34
7866,34
7867,35
7868,34
7869,34
7870,34
7871,34
7872,34
7873,34
7874,34
7875,34
7876,34
7877,35
7878,34
7879,35
7880,35
7881,35
7882,35
7883,35
7884,35
7885,35
7886,35
7887,35
7888,35
7889,35
7890,35
7891,35
7892,35
7893,35
7894,36
7895,35
7896,35
7897,35
7898,35
7899,35
7900,35
7901,35
7902,36
7903,36
7904,35
7905,35
7906,35
7907,35
7908,35
7909,35
7910,35
7911,35
7912,35
7913,35
7914,35
7915,35
7916,35
7917,36
7918,36
7919,36
7920,36
7921,35
7922,35
7923,35
7924,35
7925,36
7926,35
7927,35
7928,34
7929,34
7930,34
7931,35
7932,35
7933,34
7934,34
7935,35
7936,34
7937,34
7938,34
7939,34
7940,34
7941,34
7942,34
7943,34
7944,34
7945,34
7946,35
7947,34
7948,34
7949,34
7950,34
7951,34
7952,34
7953,34
7954,34
7955,34
7956,34
7957,34
7958,34
7959,34
7960,34
7961,34
7962,34
7963,34
7964,34
7965,34
7966,34
7967,34
7968,34
7969,34
7970,34
7971,34
7972,34
7973,34
7974,34
7975,34
7976,34
7977,34
7978,34
7979,34
7980,34
7981,34
7982,34
7983,34
7984,34
7985,34
7986,34
7987,34
7988,34
7989,35
7990,34
7991,34
7992,34
7993,34
7994,34
7995,34
7996,34
7997,34
7998,34
7999,34
8000,34
8001,34
8002,34
8003,34
8004,34
8005,34
8006,34
8007,34
8008,34
8009,34
8010,34
8011,34
8012,34
8013,34
8014,34
8015,34
8016,34
8017,34
8018,34
8019,34
8020,34
8021,34
8022,34
8023,34
8024,34
8025,34
8026,36
8027,34
8028,34
8029,34
8030,34
8031,34
8032,34
8033,34
8034,34
8035,34
8036,34
8037,34
8038,34
8039,34
8040,34
8041,35
8042,35
8043,35
8044,34
8045,34
8046,34
8047,34
8048,34
8049,34
8050,34
8051,34
8052,34
8053,34
8054,34
8055,34
8056,34
8057,34
8058,34
8059,34
8060,34
8061,34
8062,34
8063,34
8064,34
8065,34
8066,34
8067,34
8068,34
8069,34
8070,34
8071,34
8072,35
8073,34
8074,34
8075,34
8076,34
8077,34
8078,34
8079,34
8080,34
8081,34
8082,35
8083,35
8084,35
8085,35
8086,34
8087,34
8088,34
8089,34
8090,34
8091,34
8092,34
8093,34
8094,34
8095,34
8096,34
8097,34
8098,34
8099,34
8100,34
8101,34
8102,34
8103,35
8104,34
8105,34
8106,34
8107,34
8108,34
8109,34
8110,34
8111,34
8112,34
8113,34
8114,35
8115,35
8116,35
8117,35
8118,35
8119,35
8120,35
8121,35
8122,35
8123,36
8124,36
8125,36
8126,36
8127,36
8128,36
8129,36
8130,36
8131,36
8132,36
8133,36
8134,36
8135,36
8136,36
8137,36
8138,36
8139,36
8140,36
8141,36
8142,36
8143,36
8144,36
8145,37
8146,36
8147,36
8148,36
8149,36
8150,37
8151,37
8152,37
8153,37
8154,36
8155,37
8156,36
8157,36
8158,35
8159,35
8160,35
8161,35
8162,35
8163,35
8164,35
8165,35
8166,35
8167,35
8168,35
8169,35
8170,35
8171,35
8172,35
8173,35
8174,35
8175,35
8176,36
8177,35
8178,35
8179,35
8180,35
8181,35
8182,35
8183,35
8184,35
8185,35
8186,35
8187,35
8188,35
8189,35
8190,35
8191,35
8192,35
8193,35
8194,35
8195,35
8196,35
8197,35
8198,35
8199,35
8200,35
8201,35
8202,35
8203,35
8204,35
8205,35
8206,35
8207,35
8208,35
8209,36
8210,36
8211,36
8212,35
8213,35
8214,35
8215,35
8216,35
8217,35
8218,35
8219,35
8220,35
8221,35
8222,35
8223,35
8224,35
8225,35
8226,35
8227,35
8228,35
8229,35
8230,35
8231,35
8232,35
8233,35
8234,35
8235,35
8236,36
8237,36
8238,36
8239,35
8240,35
8241,35
8242,35
8243,35
8244,35
8245,35
8246,35
8247,35
8248,35
8249,35
8250,35
8251,35
8252,35
8253,35
8254,35
8255,35
8256,35
8257,35
8258,35
8259,35
8260,35
8261,35
8262,35
8263,35
8264,35
8265,35
8266,35
8267,36
8268,35
8269,35
8270,35
8271,35
8272,35
8273,35
8274,35
8275,36
8276,36
8277,36
8278,36
8279,36
8280,36
8281,36
8282,36
8283,36
8284,37
8285,37
8286,36
8287,36
8288,36
8289,35
8290,35
8291,35
8292,35
8293,35
8294,36
8295,37
8296,37
8297,36
8298,35
8299,36
8300,36
8301,36
8302,36
8303,35
8304,35
8305,35
8306,35
8307,35
8308,35
8309,35
8310,35
8311,35
8312,35
8313,35
8314,35
8315,35
8316,35
8317,35
8318,35
8319,35
8320,35
8321,35
8322,35
8323,36
8324,35
8325,35
8326,35
8327,35
8328,35
8329,35
8330,35
8331,35
8332,35
8333,35
8334,35
8335,35
8336,35
8337,35
8338,35
8339,35
8340,35
8341,35
8342,35
8343,35
8344,35
8345,35
8346,35
8347,35
8348,35
8349,35
8350,35
8351,35
8352,35
8353,35
8354,35
8355,35
8356,35
8357,35
8358,35
8359,35
8360,36
8361,35
8362,35
8363,35
8364,35
8365,35
8366,35
8367,35
8368,35
8369,35
8370,35
8371,35
8372,35
8373,35
8374,35
8375,35
8376,35
8377,35
8378,35
8379,35
8380,35
8381,36
8382,36
8383,36
8384,36
8385,36
8386,37
8387,37
8388,37
8389,37
8390,36
8391,36
8392,36
8393,36
8394,36
8395,36
8396,36
8397,36
8398,36
8399,36
8400,36
8401,36
8402,36
8403,36
8404,36
8405,36
8406,36
8407,36
8408,37
8409,37
8410,37
8411,36
8412,36
8413,36
8414,36
8415,36
8416,36
8417,36
8418,36
8419,36
8420,36
8421,36
8422,36
8423,36
8424,36
8425,36
8426,36
8427,36
8428,36
8429,36
8430,36
8431,37
8432,36
8433,36
8434,36
8435,36
8436,36
8437,36
8438,36
8439,36
8440,36
8441,37
8442,36
8443,36
8444,36
8445,36
8446,36
8447,36
8448,36
8449,36
8450,36
8451,37
8452,37
8453,37
8454,36
8455,36
8456,36
8457,36
8458,36
8459,36
8460,36
8461,36
8462,36
8463,36
8464,36
8465,36
8466,36
8467,36
8468,36
8469,36
8470,36
8471,36
8472,36
8473,36
8474,36
8475,36
8476,36
8477,36
8478,36
8479,36
8480,36
8481,36
8482,36
8483,36
8484,36
8485,37
8486,36
8487,36
8488,36
8489,36
8490,36
8491,36
8492,36
8493,36
8494,36
8495,36
8496,36
8497,36
8498,36
8499,36
8500,36
8501,36
8502,36
8503,36
8504,36
8505,36
8506,36
8507,36
8508,36
8509,36
8510,36
8511,36
8512,36
8513,36
8514,36
8515,36
8516,36
8517,36
8518,37
8519,37
8520,36
8521,36
8522,36
8523,36
8524,36
8525,36
8526,37
8527,36
8528,36
8529,36
8530,37
8531,36
8532,36
8533,36
8534,36
8535,36
8536,36
8537,36
8538,37
8539,37
8540,37
8541,37
8542,37
8543,37
8544,37
8545,37
8546,37
8547,37
8548,37
8549,37
8550,37
8551,37
8552,37
8553,37
8554,37
8555,37
8556,37
8557,37
8558,37
8559,37
8560,37
8561,37
8562,37
8563,36
8564,36
8565,36
8566,36
8567,36
8568,36
8569,36
8570,36
8571,36
8572,36
8573,36
8574,36
8575,36
8576,36
8577,36
8578,36
8579,36
8580,36
8581,36
8582,36
8583,36
8584,36
8585,36
8586,36
8587,36
8588,36
8589,36
8590,36
8591,36
8592,36
8593,36
8594,36
8595,36
8596,36
8597,36
8598,36
8599,36
8600,36
8601,36
8602,37
8603,37
8604,36
8605,36
8606,36
8607,36
8608,36
8609,36
8610,36
8611,36
8612,36
8613,36
8614,36
8615,36
8616,36
8617,36
8618,36
8619,36
8620,36
8621,36
8622,36
8623,36
8624,36
8625,36
8626,36
8627,36
8628,36
8629,36
8630,37
8631,37
8632,37
8633,37
8634,37
8635,37
8636,37
8637,37
8638,37
8639,37
8640,37
8641,37
8642,37
8643,37
8644,37
8645,37
8646,37
8647,37
8648,37
8649,37
8650,37
8651,37
8652,37
8653,37
8654,37
8655,37
8656,37
8657,37
8658,37
8659,37
8660,37
8661,37
8662,37
8663,37
8664,37
8665,37
8666,37
8667,37
8668,37
8669,37
8670,37
8671,37
8672,37
8673,37
8674,37
8675,37
8676,37
8677,37
8678,37
8679,37
8680,37
8681,38
8682,37
8683,37
8684,37
8685,37
8686,37
8687,37
8688,38
8689,38
8690,38
8691,38
8692,38
8693,37
8694,37
8695,37
8696,37
8697,37
8698,37
8699,37
8700,37
8701,37
8702,37
8703,37
8704,37
8705,37
8706,37
8707,37
8708,37
8709,37
8710,37
8711,37
8712,37
8713,37
8714,37
8715,37
8716,37
8717,37
8718,37
8719,36
8720,36
8721,36
8722,36
8723,36
8724,36
8725,36
8726,36
8727,36
8728,36
8729,36
8730,36
8731,36
8732,36
8733,36
8734,36
8735,38
8736,38
8737,37
8738,38
8739,37
8740,37
8741,38
8742,36
8743,36
8744,36
8745,36
8746,36
8747,36
8748,36
8749,36
8750,36
8751,36
8752,36
8753,36
8754,36
8755,36
8756,36
8757,36
8758,37
8759,36
8760,36
8761,36
8762,36
8763,36
8764,37
8765,36
8766,36
8767,36
8768,36
8769,36
8770,36
8771,36
8772,36
8773,36
8774,37
8775,37
8776,37
8777,37
8778,37
8779,37
8780,37
8781,37
8782,37
8783,37
8784,38
8785,38
8786,37
8787,37
8788,37
8789,37
8790,37
8791,36
8792,36
8793,36
8794,36
8795,36
8796,37
8797,37
8798,37
8799,37
8800,37
8801,37
8802,37
8803,37
8804,37
8805,37
8806,37
8807,37
8808,37
8809,37
8810,37
8811,37
8812,37
8813,37
8814,37
8815,37
8816,37
8817,37
8818,37
8819,37
8820,37
8821,37
8822,37
8823,37
8824,37
8825,37
8826,38
8827,37
8828,37
8829,37
8830,37
8831,37
8832,37
8833,37
8834,37
8835,37
8836,37
8837,37
8838,37
8839,37
8840,37
8841,37
8842,37
8843,37
8844,37
8845,37
8846,37
8847,37
8848,37
8849,37
8850,37
8851,37
8852,37
8853,37
8854,37
8855,37
8856,37
8857,37
8858,37
8859,37
8860,37
8861,37
8862,37
8863,37
8864,37
8865,37
8866,37
8867,37
8868,37
8869,37
8870,37
8871,37
8872,37
8873,37
8874,37
8875,37
8876,37
8877,37
8878,37
8879,37
8880,37
8881,37
8882,37
8883,37
8884,38
8885,38
8886,38
8887,37
8888,37
8889,37
8890,37
8891,37
8892,37
8893,37
8894,37
8895,37
8896,37
8897,37
8898,38
8899,38
8900,37
8901,37
8902,37
8903,37
8904,37
8905,37
8906,37
8907,37
8908,37
8909,38
8910,37
8911,37
8912,38
8913,37
8914,37
8915,37
8916,37
8917,37
8918,37
8919,38
8920,37
8921,37
8922,37
8923,37
8924,37
8925,37
8926,37
8927,37
8928,37
8929,37
8930,37
8931,37
8932,37
8933,37
8934,37
8935,38
8936,37
8937,37
8938,37
8939,37
8940,37
8941,37
8942,37
8943,37
8944,37
8945,37
8946,37
8947,37
8948,37
8949,37
8950,37
8951,37
8952,37
8953,38
8954,38
8955,39
8956,39
8957,38
8958,38
8959,38
8960,38
8961,38
8962,37
8963,37
8964,37
8965,37
8966,37
8967,37
8968,37
8969,37
8970,37
8971,37
8972,37
8973,37
8974,37
8975,37
8976,37
8977,37
8978,37
8979,37
8980,37
8981,37
8982,37
8983,37
8984,37
8985,37
8986,37
8987,37
8988,37
8989,37
8990,37
8991,37
8992,37
8993,37
8994,37
8995,37
8996,37
8997,37
8998,37
8999,37
9000,37
9001,37
9002,37
9003,37
9004,37
9005,37
9006,37
9007,37
9008,37
9009,37
9010,37
9011,37
9012,37
9013,37
9014,37
9015,37
9016,37
9017,37
9018,37
9019,38
9020,38
9021,39
9022,39
9023,38
9024,38
9025,38
9026,38
9027,38
9028,38
9029,38
9030,39
9031,38
9032,38
9033,38
9034,38
9035,38
9036,38
9037,38
9038,38
9039,38
9040,38
9041,38
9042,38
9043,38
9044,38
9045,38
9046,37
9047,37
9048,37
9049,37
9050,37
9051,37
9052,37
9053,37
9054,37
9055,37
9056,37
9057,37
9058,37
9059,37
9060,37
9061,37
9062,37
9063,37
9064,37
9065,37
9066,37
9067,37
9068,37
9069,37
9070,38
9071,38
9072,38
9073,38
9074,37
9075,37
9076,37
9077,37
9078,37
9079,37
9080,37
9081,37
9082,37
9083,37
9084,37
9085,37
9086,37
9087,37
9088,37
9089,37
9090,37
9091,37
9092,37
9093,37
9094,37
9095,37
9096,37
9097,37
9098,38
9099,38
9100,38
9101,38
9102,38
9103,38
9104,38
9105,37
9106,37
9107,37
9108,37
9109,37
9110,37
9111,37
9112,37
9113,37
9114,37
9115,37
9116,37
9117,37
9118,37
9119,37
9120,37
9121,37
9122,37
9123,37
9124,37
9125,37
9126,37
9127,37
9128,37
9129,37
9130,37
9131,37
9132,37
9133,37
9134,37
9135,37
9136,37
9137,37
9138,37
9139,37
9140,37
9141,37
9142,37
9143,37
9144,38
9145,38
9146,38
9147,39
9148,39
9149,39
9150,39
9151,39
9152,38
9153,38
9154,38
9155,38
9156,38
9157,38
9158,38
9159,38
9160,38
9161,38
9162,38
9163,38
9164,37
9165,37
9166,37
9167,37
9168,37
9169,37
9170,37
9171,38
9172,37
9173,38
9174,37
9175,37
9176,37
9177,37
9178,37
9179,37
9180,37
9181,37
9182,37
9183,37
9184,37
9185,37
9186,38
9187,38
9188,37
9189,37
9190,37
9191,37
9192,37
9193,37
9194,37
9195,37
9196,37
9197,37
9198,37
9199,37
9200,37
9201,37
9202,37
9203,37
9204,37
9205,37
9206,37
9207,37
9208,37
9209,37
9210,37
9211,37
9212,37
9213,37
9214,38
9215,38
9216,37
9217,37
9218,37
9219,37
9220,37
9221,38
9222,37
9223,38
9224,38
9225,38
9226,37
9227,37
9228,37
9229,37
9230,37
9231,38
9232,38
9233,37
9234,37
9235,37
9236,37
9237,37
9238,37
9239,37
9240,37
9241,37
9242,37
9243,37
9244,37
9245,37
9246,37
9247,37
9248,37
9249,37
9250,37
9251,37
9252,38
9253,37
9254,37
9255,37
9256,37
9257,37
9258,37
9259,37
9260,37
9261,37
9262,37
9263,37
9264,37
9265,37
9266,37
9267,38
9268,38
9269,38
9270,38
9271,38
9272,37
9273,37
9274,37
9275,37
9276,37
9277,37
9278,37
9279,37
9280,37
9281,37
9282,37
9283,37
9284,38
9285,38
9286,37
9287,38
9288,37
9289,37
9290,37
9291,37
9292,37
9293,37
9294,37
9295,37
9296,37
9297,37
9298,37
9299,37
9300,37
9301,37
9302,37
9303,37
9304,37
9305,37
9306,38
9307,38
9308,38
9309,38
9310,39
9311,37
9312,37
9313,37
9314,37
9315,37
9316,37
9317,37
9318,37
9319,37
9320,37
9321,38
9322,38
9323,38
9324,39
9325,39
9326,39
9327,39
9328,38
9329,38
9330,38
9331,38
9332,39
9333,38
9334,38
9335,38
9336,39
9337,38
9338,38
9339,38
9340,38
9341,38
9342,38
9343,38
9344,38
9345,38
9346,39
9347,38
9348,38
9349,38
9350,38
9351,38
9352,38
9353,38
9354,38
9355,38
9356,37
9357,37
9358,37
9359,37
9360,37
9361,37
9362,37
9363,37
9364,37
9365,37
9366,37
9367,37
9368,37
9369,37
9370,37
9371,37
9372,37
9373,37
9374,37
9375,37
9376,37
9377,37
9378,37
9379,37
9380,37
9381,37
9382,37
9383,37
9384,37
9385,37
9386,37
9387,37
9388,37
9389,37
9390,37
9391,37
9392,37
9393,37
9394,37
9395,37
9396,37
9397,37
9398,37
9399,37
9400,37
9401,37
9402,38
9403,38
9404,38
9405,38
9406,38
9407,38
9408,38
9409,38
9410,39
9411,38
9412,38
9413,38
9414,38
9415,38
9416,38
9417,38
9418,38
9419,38
9420,39
9421,39
9422,39
9423,40
9424,39
9425,39
9426,39
9427,38
9428,38
9429,38
9430,38
9431,38
9432,38
9433,38
9434,38
9435,38
9436,38
9437,38
9438,38
9439,38
9440,38
9441,38
9442,38
9443,38
9444,39
9445,39
9446,39
9447,39
9448,39
9449,39
9450,39
9451,38
9452,38
9453,38
9454,38
9455,38
9456,39
9457,39
9458,39
9459,39
9460,39
9461,39
9462,39
9463,38
9464,38
9465,38
9466,38
9467,38
9468,39
9469,38
9470,38
9471,38
9472,38
9473,38
9474,39
9475,38
9476,38
9477,38
9478,38
9479,38
9480,38
9481,38
9482,38
9483,38
9484,38
9485,38
9486,38
9487,38
9488,38
9489,38
9490,38
9491,38
9492,38
9493,38
9494,38
9495,38
9496,38
9497,38
9498,38
9499,38
9500,38
9501,38
9502,38
9503,38
9504,38
9505,38
9506,38
9507,38
9508,38
9509,38
9510,38
9511,38
9512,38
9513,38
9514,38
9515,38
9516,38
9517,38
9518,38
9519,38
9520,38
9521,38
9522,38
9523,38
9524,38
9525,37
9526,37
9527,37
9528,37
9529,38
9530,38
9531,38
9532,38
9533,38
9534,38
9535,38
9536,38
9537,38
9538,38
9539,38
9540,38
9541,38
9542,38
9543,38
9544,38
9545,38
9546,37
9547,37
9548,37
9549,37
9550,37
9551,37
9552,37
9553,37
9554,37
9555,37
9556,37
9557,38
9558,38
9559,38
9560,38
9561,37
9562,37
9563,37
9564,37
9565,37
9566,37
9567,37
9568,37
9569,37
9570,37
9571,37
9572,37
9573,37
9574,37
9575,37
9576,37
9577,37
9578,38
9579,38
9580,38
9581,38
9582,38
9583,38
9584,38
9585,38
9586,38
9587,38
9588,38
9589,38
9590,39
9591,39
9592,39
9593,40
9594,40
9595,39
9596,38
9597,38
9598,38
9599,38
9600,38
9601,38
9602,38
9603,38
9604,38
9605,38
9606,38
9607,38
9608,38
9609,38
9610,38
9611,38
9612,38
9613,38
9614,38
9615,38
9616,38
9617,38
9618,38
9619,38
9620,38
9621,38
9622,38
9623,38
9624,38
9625,37
9626,37
9627,37
9628,37
9629,37
9630,37
9631,37
9632,37
9633,37
9634,37
9635,37
9636,37
9637,37
9638,37
9639,37
9640,37
9641,37
9642,37
9643,37
9644,37
9645,37
9646,37
9647,37
9648,37
9649,37
9650,37
9651,37
9652,38
9653,37
9654,37
9655,37
9656,37
9657,37
9658,37
9659,37
9660,37
9661,38
9662,38
9663,37
9664,37
9665,37
9666,37
9667,37
9668,37
9669,37
9670,37
9671,37
9672,37
9673,37
9674,37
9675,37
9676,37
9677,37
9678,37
9679,37
9680,37
9681,38
9682,38
9683,38
9684,38
9685,39
9686,39
9687,39
9688,38
9689,38
9690,38
9691,38
9692,38
9693,39
9694,39
9695,39
9696,39
9697,39
9698,39
9699,39
9700,39
9701,39
9702,39
9703,39
9704,39
9705,39
9706,39
9707,39
9708,39
9709,39
9710,39
9711,40
9712,40
9713,41
9714,40
9715,39
9716,39
9717,39
9718,39
9719,39
9720,39
9721,39
9722,39
9723,39
9724,39
9725,39
9726,39
9727,39
9728,39
9729,39
9730,39
9731,39
9732,40
9733,40
9734,40
9735,40
9736,39
9737,39
9738,39
9739,39
9740,39
9741,39
9742,39
9743,39
9744,39
9745,39
9746,39
9747,39
9748,39
9749,39
9750,39
9751,39
9752,39
9753,39
9754,39
9755,39
9756,39
9757,39
9758,39
9759,39
9760,39
9761,39
9762,39
9763,39
9764,39
9765,39
9766,39
9767,39
9768,39
9769,40
9770,40
9771,40
9772,39
9773,39
9774,39
9775,39
9776,39
9777,39
9778,39
9779,39
9780,39
9781,39
9782,39
9783,39
9784,39
9785,39
9786,39
9787,39
9788,39
9789,39
9790,39
9791,39
9792,39
9793,39
9794,39
9795,39
9796,39
9797,39
9798,39
9799,39
9800,39
9801,39
9802,39
9803,40
9804,39
9805,40
9806,40
9807,40
9808,40
9809,40
9810,40
9811,40
9812,41
9813,40
9814,40
9815,40
9816,40
9817,40
9818,40
9819,40
9820,40
9821,40
9822,41
9823,42
9824,42
9825,42
9826,41
9827,41
9828,41
9829,41
9830,40
9831,40
9832,39
9833,39
9834,39
9835,39
9836,39
9837,39
9838,39
9839,39
9840,39
9841,39
9842,39
9843,39
9844,39
9845,39
9846,39
9847,39
9848,39
9849,39
9850,39
9851,39
9852,39
9853,39
9854,39
9855,39
9856,39
9857,39
9858,39
9859,39
9860,39
9861,39
9862,39
9863,39
9864,39
9865,39
9866,39
9867,39
9868,39
9869,39
9870,39
9871,39
9872,39
9873,39
9874,40
9875,39
9876,39
9877,39
9878,39
9879,39
9880,40
9881,40
9882,39
9883,39
9884,39
9885,39
9886,39
9887,39
9888,39
9889,39
9890,39
9891,39
9892,39
9893,39
9894,39
9895,39
9896,39
9897,39
9898,39
9899,39
9900,39
9901,39
9902,39
9903,39
9904,39
9905,39
9906,39
9907,39
9908,39
9909,38
9910,38
9911,38
9912,38
9913,38
9914,38
9915,38
9916,38
9917,38
9918,38
9919,38
9920,38
9921,38
9922,38
9923,38
9924,38
9925,38
9926,38
9927,38
9928,38
9929,38
9930,38
9931,38
9932,38
9933,38
9934,38
9935,38
9936,38
9937,38
9938,38
9939,38
9940,38
9941,38
9942,38
9943,38
9944,38
9945,38
9946,38
9947,38
9948,38
9949,38
9950,38
9951,38
9952,38
9953,38
9954,38
9955,39
9956,39
9957,39
9958,38
9959,38
9960,39
9961,38
9962,38
9963,38
9964,38
9965,38
9966,38
9967,38
9968,38
9969,38
9970,38
9971,38
9972,38
9973,38
9974,38
9975,38
9976,38
9977,38
9978,38
9979,38
9980,39
9981,39
9982,38
9983,38
9984,38
9985,38
9986,39
9987,38
9988,38
9989,38
9990,38
9991,38
9992,38
9993,38
9994,38
9995,38
9996,38
9997,38
9998,38
9999,38
10000,38
