1,3
2,3
3,3
4,3
5,3
6,3
7,3
8,3
9,3
10,3
11,3
12,3
13,3
14,3
15,3
16,3
17,3
18,3
19,3
20,3
21,3
22,3
23,3
24,3
25,3
26,4
27,4
28,4
29,4
30,4
31,4
32,4
33,4
34,4
35,4
36,4
37,4
38,4
39,4
40,4
41,4
42,4
43,4
44,4
45,4
46,4
47,4
48,4
49,4
50,4
51,4
52,5
53,5
54,5
55,4
56,4
57,4
58,5
59,5
60,5
61,5
62,6
63,6
64,6
65,6
66,6
67,7
68,7
69,7
70,7
71,7
72,8
73,8
74,8
75,8
76,8
77,8
78,8
79,8
80,8
81,8
82,8
83,8
84,8
85,8
86,8
87,8
88,8
89,8
90,8
91,8
92,8
93,8
94,8
95,8
96,8
97,8
98,8
99,8
100,8
101,8
102,8
103,8
104,8
105,8
106,8
107,8
108,8
109,8
110,8
111,8
112,8
113,8
114,8
115,8
116,8
117,8
118,8
119,9
120,10
121,10
122,10
123,9
124,8
125,8
126,8
127,8
128,8
129,8
130,8
131,8
132,8
133,8
134,9
135,9
136,9
137,9
138,9
139,9
140,9
141,9
142,9
143,9
144,9
145,9
146,9
147,9
148,9
149,9
150,9
151,9
152,9
153,9
154,10
155,9
156,10
157,10
158,10
159,10
160,10
161,10
162,10
163,10
164,10
165,10
166,10
167,10
168,10
169,10
170,10
171,11
172,12
173,11
174,11
175,11
176,10
177,10
178,10
179,10
180,10
181,10
182,10
183,10
184,10
185,10
186,10
187,10
188,10
189,10
190,10
191,10
192,10
193,10
194,10
195,10
196,10
197,10
198,10
199,10
200,10
201,10
202,10
203,10
204,10
205,10
206,10
207,10
208,10
209,10
210,10
211,10
212,10
213,10
214,10
215,10
216,10
217,10
218,10
219,11
220,10
221,10
222,10
223,10
224,10
225,10
226,10
227,10
228,10
229,10
230,10
231,10
232,10
233,10
234,10
235,10
236,10
237,10
238,10
239,10
240,10
241,10
242,10
243,10
244,11
245,10
246,10
247,10
248,10
249,11
250,11
251,11
252,11
253,11
254,11
255,11
256,11
257,11
258,11
259,11
260,11
261,11
262,11
263,11
264,12
265,12
266,12
267,12
268,11
269,11
270,11
271,11
272,11
273,11
274,11
275,11
276,11
277,11
278,11
279,11
280,11
281,11
282,11
283,11
284,12
285,11
286,11
287,11
288,11
289,11
290,11
291,11
292,11
293,11
294,11
295,11
296,11
297,11
298,11
299,11
300,11
301,11
302,11
303,11
304,11
305,11
306,11
307,11
308,11
309,11
310,11
311,11
312,11
313,11
314,11
315,11
316,11
317,11
318,11
319,11
320,11
321,11
322,11
323,11
324,11
325,11
326,11
327,11
328,11
329,11
330,11
331,12
332,12
333,12
334,12
335,12
336,12
337,12
338,12
339,13
340,12
341,12
342,12
343,12
344,12
345,12
346,12
347,12
348,12
349,12
350,12
351,12
352,12
353,12
354,12
355,12
356,14
357,12
358,12
359,12
360,12
361,12
362,12
363,12
364,12
365,12
366,12
367,12
368,12
369,12
370,12
371,13
372,13
373,13
374,13
375,13
376,13
377,13
378,13
379,13
380,13
381,13
382,13
383,13
384,13
385,13
386,13
387,13
388,13
389,13
390,13
391,13
392,13
393,13
394,13
395,13
396,13
397,13
398,13
399,13
400,13
401,13
402,13
403,13
404,13
405,13
406,13
407,13
408,13
409,13
410,13
411,13
412,13
413,13
414,13
415,13
416,13
417,13
418,13
419,13
420,13
421,13
422,13
423,13
424,13
425,13
426,13
427,13
428,13
429,13
430,13
431,13
432,13
433,13
434,13
435,13
436,13
437,13
438,13
439,13
440,13
441,13
442,13
443,13
444,13
445,13
446,13
447,13
448,13
449,13
450,13
451,13
452,13
453,14
454,13
455,13
456,13
457,13
458,13
459,13
460,13
461,13
462,13
463,13
464,13
465,13
466,13
467,13
468,13
469,13
470,13
471,13
472,13
473,13
474,13
475,13
476,13
477,13
478,13
479,13
480,13
481,13
482,13
483,13
484,13
485,14
486,13
487,13
488,13
489,14
490,13
491,13
492,13
493,13
494,13
495,13
496,13
497,13
498,13
499,13
500,14
501,14
502,13
503,13
504,13
505,13
506,13
507,14
508,14
509,13
510,13
511,13
512,13
513,13
514,13
515,13
516,13
517,13
518,13
519,13
520,13
521,13
522,13
523,13
524,13
525,13
526,13
527,13
528,13
529,13
530,13
531,13
532,13
533,13
534,13
535,13
536,13
537,13
538,13
539,13
540,13
541,13
542,13
543,13
544,13
545,13
546,13
547,13
548,13
549,13
550,13
551,13
552,13
553,13
554,13
555,13
556,13
557,13
558,13
559,13
560,13
561,13
562,13
563,13
564,13
565,13
566,13
567,13
568,13
569,13
570,13
571,13
572,13
573,13
574,13
575,13
576,13
577,13
578,13
579,13
580,13
581,13
582,13
583,13
584,13
585,13
586,13
587,13
588,13
589,13
590,13
591,13
592,13
593,13
594,13
595,13
596,13
597,13
598,13
599,13
600,13
601,13
602,13
603,13
604,13
605,13
606,13
607,13
608,13
609,13
610,13
611,13
612,13
613,13
614,13
615,14
616,14
617,13
618,13
619,13
620,13
621,13
622,13
623,13
624,13
625,13
626,13
627,13
628,13
629,13
630,13
631,13
632,13
633,14
634,13
635,13
636,13
637,13
638,13
639,13
640,13
641,13
642,13
643,13
644,13
645,13
646,13
647,13
648,13
649,13
650,13
651,13
652,13
653,13
654,13
655,13
656,13
657,13
658,13
659,13
660,13
661,14
662,14
663,14
664,14
665,14
666,14
667,13
668,13
669,13
670,13
671,14
672,13
673,13
674,13
675,13
676,13
677,13
678,14
679,15
680,14
681,14
682,14
683,14
684,14
685,14
686,14
687,14
688,14
689,14
690,14
691,14
692,14
693,14
694,14
695,15
696,15
697,15
698,15
699,15
700,15
701,15
702,15
703,15
704,15
705,15
706,15
707,15
708,15
709,15
710,15
711,15
712,15
713,15
714,15
715,15
716,15
717,15
718,15
719,15
720,15
721,15
722,15
723,15
724,15
725,15
726,15
727,15
728,15
729,15
730,15
731,15
732,15
733,15
734,15
735,15
736,15
737,15
738,15
739,15
740,15
741,15
742,15
743,16
744,15
745,15
746,15
747,15
748,15
749,15
750,15
751,15
752,15
753,15
754,15
755,15
756,15
757,15
758,17
759,16
760,15
761,15
762,15
763,15
764,16
765,16
766,16
767,16
768,16
769,16
770,17
771,17
772,17
773,17
774,17
775,17
776,17
777,17
778,17
779,17
780,17
781,17
782,17
783,17
784,17
785,17
786,17
787,17
788,17
789,17
790,17
791,17
792,17
793,17
794,17
795,17
796,17
797,17
798,17
799,17
800,17
801,17
802,17
803,17
804,17
805,17
806,17
807,17
808,17
809,17
810,17
811,17
812,17
813,17
814,17
815,17
816,17
817,17
818,17
819,17
820,17
821,17
822,17
823,17
824,17
825,17
826,17
827,17
828,17
829,17
830,17
831,17
832,17
833,17
834,17
835,17
836,17
837,17
838,17
839,17
840,18
841,17
842,17
843,17
844,17
845,17
846,17
847,17
848,17
849,17
850,17
851,17
852,17
853,17
854,17
855,17
856,17
857,17
858,17
859,17
860,17
861,17
862,17
863,17
864,17
865,17
866,17
867,17
868,17
869,17
870,17
871,17
872,17
873,17
874,17
875,17
876,17
877,17
878,17
879,18
880,18
881,18
882,18
883,17
884,18
885,18
886,18
887,17
888,17
889,17
890,17
891,17
892,17
893,17
894,18
895,18
896,18
897,17
898,17
899,17
900,17
901,17
902,17
903,17
904,17
905,17
906,17
907,17
908,17
909,17
910,18
911,18
912,17
913,17
914,18
915,17
916,18
917,18
918,18
919,18
920,18
921,18
922,18
923,18
924,18
925,18
926,18
927,18
928,18
929,18
930,18
931,18
932,18
933,18
934,18
935,18
936,18
937,18
938,19
939,19
940,19
941,19
942,19
943,19
944,19
945,19
946,19
947,19
948,18
949,18
950,18
951,19
952,19
953,19
954,19
955,18
956,18
957,18
958,18
959,18
960,18
961,18
962,18
963,18
964,18
965,18
966,19
967,19
968,18
969,18
970,19
971,18
972,18
973,18
974,18
975,18
976,18
977,18
978,18
979,19
980,18
981,18
982,18
983,18
984,18
985,18
986,18
987,18
988,18
989,19
990,18
991,18
992,18
993,18
994,18
995,18
996,18
997,18
998,18
999,18
1000,18
1001,18
1002,19
1003,19
1004,18
1005,18
1006,18
1007,18
1008,18
1009,18
1010,18
1011,18
1012,18
1013,18
1014,18
1015,18
1016,18
1017,18
1018,18
1019,18
1020,18
1021,18
1022,18
1023,18
1024,18
1025,18
1026,18
1027,18
1028,18
1029,18
1030,18
1031,18
1032,18
1033,18
1034,18
1035,18
1036,18
1037,18
1038,18
1039,18
1040,18
1041,18
1042,18
1043,18
1044,18
1045,18
1046,18
1047,18
1048,18
1049,18
1050,18
1051,18
1052,18
1053,18
1054,19
1055,19
1056,19
1057,20
1058,20
1059,19
1060,18
1061,18
1062,18
1063,18
1064,18
1065,18
1066,18
1067,18
1068,18
1069,18
1070,18
1071,18
1072,18
1073,18
1074,18
1075,18
1076,18
1077,18
1078,18
1079,18
1080,18
1081,19
1082,19
1083,18
1084,18
1085,18
1086,18
1087,18
1088,18
1089,19
1090,19
1091,20
1092,20
1093,20
1094,21
1095,21
1096,20
1097,20
1098,20
1099,19
1100,19
1101,19
1102,19
1103,19
1104,19
1105,19
1106,19
1107,19
1108,19
1109,19
1110,19
1111,19
1112,19
1113,19
1114,19
1115,20
1116,20
1117,19
1118,18
1119,18
1120,18
1121,18
1122,18
1123,18
1124,18
1125,18
1126,18
1127,18
1128,18
1129,18
1130,18
1131,18
1132,18
1133,18
1134,18
1135,18
1136,18
1137,18
1138,18
1139,18
1140,19
1141,18
1142,18
1143,18
1144,18
1145,18
1146,18
1147,18
1148,18
1149,18
1150,18
1151,18
1152,18
1153,18
1154,18
1155,18
1156,18
1157,19
1158,19
1159,19
1160,19
1161,19
1162,19
1163,20
1164,20
1165,19
1166,19
1167,19
1168,19
1169,19
1170,19
1171,19
1172,19
1173,19
1174,19
1175,18
1176,18
1177,19
1178,19
1179,19
1180,19
1181,19
1182,19
1183,19
1184,18
1185,18
1186,18
1187,18
1188,18
1189,18
1190,18
1191,18
1192,18
1193,18
1194,18
1195,18
1196,18
1197,18
1198,18
1199,18
1200,18
1201,18
1202,18
1203,18
1204,18
1205,18
1206,18
1207,18
1208,19
1209,18
1210,18
1211,18
1212,19
1213,19
1214,19
1215,19
1216,18
1217,18
1218,18
1219,18
1220,18
1221,18
1222,18
1223,18
1224,18
1225,18
1226,18
1227,18
1228,18
1229,18
1230,18
1231,18
1232,18
1233,18
1234,18
1235,18
1236,18
1237,18
1238,18
1239,18
1240,18
1241,18
1242,18
1243,18
1244,19
1245,19
1246,19
1247,19
1248,19
1249,19
1250,19
1251,19
1252,20
1253,19
1254,19
1255,19
1256,19
1257,19
1258,19
1259,19
1260,19
1261,19
1262,19
1263,19
1264,19
1265,19
1266,19
1267,19
1268,19
1269,19
1270,19
1271,20
1272,20
1273,20
1274,20
1275,20
1276,20
1277,20
1278,22
1279,22
1280,20
1281,20
1282,20
1283,21
1284,21
1285,21
1286,21
1287,21
1288,21
1289,21
1290,21
1291,21
1292,21
1293,21
1294,21
1295,21
1296,21
1297,21
1298,21
1299,21
1300,21
1301,21
1302,21
1303,21
1304,21
1305,21
1306,21
1307,22
1308,22
1309,22
1310,22
1311,22
1312,22
1313,22
1314,22
1315,23
1316,23
1317,23
1318,23
1319,23
1320,23
1321,23
1322,23
1323,23
1324,23
1325,23
1326,23
1327,23
1328,23
1329,23
1330,23
1331,23
1332,23
1333,23
1334,23
1335,23
1336,23
1337,23
1338,23
1339,23
1340,23
1341,23
1342,23
1343,23
1344,23
1345,23
1346,24
1347,23
1348,23
1349,23
1350,23
1351,23
1352,23
1353,23
1354,23
1355,23
1356,23
1357,23
1358,23
1359,23
1360,23
1361,23
1362,24
1363,24
1364,24
1365,24
1366,24
1367,24
1368,24
1369,24
1370,24
1371,24
1372,25
1373,25
1374,24
1375,24
1376,24
1377,24
1378,24
1379,24
1380,24
1381,24
1382,24
1383,24
1384,24
1385,24
1386,24
1387,24
1388,24
1389,24
1390,24
1391,24
1392,24
1393,23
1394,23
1395,23
1396,23
1397,23
1398,23
1399,23
1400,23
1401,23
1402,23
1403,24
1404,24
1405,24
1406,24
1407,24
1408,25
1409,24
1410,24
1411,24
1412,24
1413,24
1414,24
1415,24
1416,24
1417,24
1418,24
1419,23
1420,23
1421,23
1422,23
1423,23
1424,23
1425,23
1426,23
1427,23
1428,23
1429,24
1430,23
1431,23
1432,23
1433,23
1434,23
1435,23
1436,23
1437,23
1438,23
1439,23
1440,23
1441,23
1442,23
1443,23
1444,23
1445,23
1446,23
1447,23
1448,23
1449,23
1450,23
1451,23
1452,23
1453,23
1454,23
1455,24
1456,23
1457,23
1458,23
1459,23
1460,23
1461,23
1462,23
1463,23
1464,23
1465,23
1466,23
1467,23
1468,23
1469,23
1470,23
1471,24
1472,24
1473,24
1474,24
1475,23
1476,23
1477,23
1478,23
1479,23
1480,23
1481,23
1482,23
1483,24
1484,24
1485,24
1486,24
1487,24
1488,24
1489,24
1490,24
1491,24
1492,24
1493,25
1494,25
1495,24
1496,24
1497,24
1498,24
1499,24
1500,24
1501,24
1502,24
1503,24
1504,24
1505,24
1506,24
1507,24
1508,24
1509,24
1510,24
1511,24
1512,24
1513,24
1514,24
1515,24
1516,24
1517,24
1518,24
1519,24
1520,24
1521,24
1522,24
1523,24
1524,24
1525,24
1526,24
1527,24
1528,24
1529,24
1530,24
1531,24
1532,24
1533,24
1534,24
1535,24
1536,24
1537,24
1538,24
1539,24
1540,24
1541,24
1542,24
1543,24
1544,24
1545,24
1546,24
1547,24
1548,24
1549,24
1550,24
1551,24
1552,24
1553,24
1554,24
1555,24
1556,24
1557,24
1558,24
1559,24
1560,24
1561,24
1562,24
1563,25
1564,26
1565,27
1566,27
1567,27
1568,26
1569,25
1570,26
1571,27
1572,27
1573,26
1574,26
1575,26
1576,26
1577,26
1578,26
1579,26
1580,26
1581,26
1582,26
1583,26
1584,26
1585,26
1586,26
1587,26
1588,26
1589,26
1590,25
1591,25
1592,25
1593,25
1594,25
1595,26
1596,25
1597,25
1598,25
1599,25
1600,25
1601,25
1602,25
1603,25
1604,25
1605,25
1606,25
1607,25
1608,25
1609,25
1610,26
1611,26
1612,26
1613,26
1614,26
1615,26
1616,26
1617,27
1618,27
1619,27
1620,27
1621,27
1622,26
1623,26
1624,26
1625,26
1626,26
1627,27
1628,27
1629,26
1630,26
1631,25
1632,26
1633,25
1634,25
1635,25
1636,25
1637,25
1638,25
1639,25
1640,25
1641,25
1642,25
1643,25
1644,25
1645,25
1646,25
1647,25
1648,25
1649,26
1650,26
1651,26
1652,26
1653,26
1654,26
1655,26
1656,26
1657,26
1658,26
1659,26
1660,26
1661,26
1662,25
1663,25
1664,26
1665,26
1666,26
1667,26
1668,26
1669,26
1670,26
1671,26
1672,26
1673,25
1674,26
1675,26
1676,25
1677,26
1678,26
1679,26
1680,26
1681,26
1682,26
1683,26
1684,24
1685,24
1686,24
1687,24
1688,25
1689,25
1690,25
1691,25
1692,25
1693,25
1694,25
1695,25
1696,25
1697,25
1698,25
1699,25
1700,25
1701,25
1702,25
1703,25
1704,25
1705,25
1706,26
1707,25
1708,25
1709,25
1710,25
1711,26
1712,26
1713,25
1714,25
1715,25
1716,25
1717,25
1718,25
1719,25
1720,25
1721,25
1722,25
1723,25
1724,25
1725,25
1726,25
1727,25
1728,25
1729,25
1730,25
1731,25
1732,25
1733,25
1734,25
1735,25
1736,25
1737,25
1738,25
1739,25
1740,25
1741,25
1742,25
1743,25
1744,25
1745,25
1746,25
1747,25
1748,25
1749,25
1750,25
1751,25
1752,25
1753,25
1754,25
1755,25
1756,25
1757,25
1758,25
1759,25
1760,25
1761,25
1762,25
1763,25
1764,25
1765,25
1766,25
1767,25
1768,25
1769,25
1770,25
1771,25
1772,25
1773,25
1774,25
1775,25
1776,26
1777,26
1778,26
1779,26
1780,25
1781,25
1782,25
1783,26
1784,26
1785,27
1786,27
1787,26
1788,26
1789,26
1790,26
1791,25
1792,25
1793,25
1794,25
1795,25
1796,25
1797,26
1798,25
1799,25
1800,25
1801,25
1802,25
1803,25
1804,25
1805,26
1806,26
1807,26
1808,26
1809,26
1810,26
1811,26
1812,26
1813,26
1814,27
1815,27
1816,26
1817,26
1818,26
1819,26
1820,25
1821,25
1822,25
1823,27
1824,25
1825,25
1826,25
1827,25
1828,25
1829,25
1830,25
1831,25
1832,25
1833,25
1834,25
1835,25
1836,25
1837,25
1838,25
1839,25
1840,25
1841,25
1842,25
1843,25
1844,25
1845,25
1846,25
1847,25
1848,25
1849,25
1850,25
1851,25
1852,25
1853,25
1854,25
1855,25
1856,25
1857,25
1858,25
1859,25
1860,25
1861,25
1862,25
1863,25
1864,25
1865,25
1866,25
1867,25
1868,25
1869,25
1870,25
1871,25
1872,25
1873,25
1874,26
1875,26
1876,25
1877,25
1878,26
1879,25
1880,25
1881,25
1882,25
1883,25
1884,25
1885,25
1886,25
1887,25
1888,26
1889,26
1890,26
1891,26
1892,26
1893,26
1894,27
1895,27
1896,26
1897,25
1898,25
1899,25
1900,25
1901,25
1902,25
1903,25
1904,25
1905,25
1906,25
1907,25
1908,25
1909,25
1910,25
1911,25
1912,25
1913,25
1914,25
1915,26
1916,26
1917,26
1918,26
1919,26
1920,26
1921,26
1922,26
1923,26
1924,25
1925,25
1926,25
1927,25
1928,25
1929,25
1930,25
1931,25
1932,25
1933,25
1934,25
1935,25
1936,25
1937,25
1938,25
1939,25
1940,25
1941,25
1942,25
1943,25
1944,25
1945,25
1946,25
1947,25
1948,25
1949,25
1950,25
1951,25
1952,25
1953,25
1954,26
1955,26
1956,26
1957,26
1958,27
1959,26
1960,26
1961,26
1962,26
1963,26
1964,26
1965,26
1966,27
1967,27
1968,27
1969,27
1970,27
1971,27
1972,27
1973,27
1974,27
1975,27
1976,27
1977,27
1978,27
1979,27
1980,27
1981,27
1982,27
1983,27
1984,27
1985,27
1986,27
1987,27
1988,27
1989,27
1990,27
1991,27
1992,27
1993,27
1994,27
1995,27
1996,27
1997,27
1998,27
1999,27
2000,27
2001,27
2002,27
2003,27
2004,28
2005,28
2006,28
2007,28
2008,28
2009,28
2010,27
2011,27
2012,27
2013,27
2014,27
2015,27
2016,27
2017,27
2018,27
2019,27
2020,27
2021,27
2022,27
2023,27
2024,27
2025,27
2026,27
2027,27
2028,28
2029,28
2030,28
2031,28
2032,28
2033,27
2034,27
2035,27
2036,27
2037,27
2038,27
2039,27
2040,27
2041,27
2042,27
2043,27
2044,27
2045,27
2046,27
2047,27
2048,27
2049,27
2050,27
2051,27
2052,27
2053,27
2054,27
2055,27
2056,27
2057,27
2058,27
2059,27
2060,27
2061,27
2062,27
2063,27
2064,27
2065,27
2066,27
2067,27
2068,27
2069,27
2070,28
2071,27
2072,27
2073,27
2074,27
2075,27
2076,27
2077,27
2078,27
2079,27
2080,27
2081,27
2082,27
2083,27
2084,27
2085,27
2086,27
2087,27
2088,27
2089,27
2090,28
2091,27
2092,27
2093,28
2094,28
2095,28
2096,29
2097,29
2098,29
2099,29
2100,29
2101,30
2102,30
2103,30
2104,30
2105,30
2106,31
2107,31
2108,31
2109,31
2110,30
2111,30
2112,30
2113,30
2114,30
2115,30
2116,30
2117,30
2118,30
2119,30
2120,30
2121,30
2122,30
2123,30
2124,30
2125,30
2126,30
2127,30
2128,30
2129,31
2130,31
2131,31
2132,30
2133,30
2134,30
2135,30
2136,30
2137,30
2138,30
2139,30
2140,30
2141,30
2142,29
2143,30
2144,30
2145,30
2146,30
2147,30
2148,29
2149,29
2150,29
2151,29
2152,29
2153,30
2154,30
2155,30
2156,30
2157,30
2158,30
2159,30
2160,31
2161,31
2162,31
2163,31
2164,31
2165,30
2166,30
2167,30
2168,30
2169,30
2170,30
2171,30
2172,30
2173,30
2174,31
2175,30
2176,30
2177,30
2178,30
2179,30
2180,30
2181,30
2182,30
2183,30
2184,30
2185,30
2186,30
2187,30
2188,30
2189,30
2190,31
2191,31
2192,31
2193,32
2194,33
2195,33
2196,32
2197,32
2198,32
2199,32
2200,32
2201,32
2202,32
2203,31
2204,31
2205,31
2206,31
2207,31
2208,31
2209,31
2210,31
2211,31
2212,31
2213,31
2214,32
2215,31
2216,30
2217,30
2218,30
2219,30
2220,30
2221,30
2222,31
2223,31
2224,31
2225,31
2226,31
2227,31
2228,31
2229,31
2230,31
2231,31
2232,31
2233,31
2234,31
2235,31
2236,31
2237,31
2238,31
2239,32
2240,31
2241,31
2242,31
2243,31
2244,32
2245,32
2246,31
2247,31
2248,31
2249,31
2250,31
2251,31
2252,31
2253,31
2254,31
2255,31
2256,31
2257,31
2258,31
2259,31
2260,31
2261,31
2262,31
2263,31
2264,31
2265,31
2266,31
2267,31
2268,31
2269,31
2270,31
2271,31
2272,31
2273,31
2274,31
2275,31
2276,31
2277,31
2278,31
2279,31
2280,31
2281,32
2282,31
2283,31
2284,31
2285,31
2286,31
2287,31
2288,31
2289,31
2290,31
2291,31
2292,31
2293,31
2294,31
2295,31
2296,32
2297,32
2298,32
2299,31
2300,31
2301,31
2302,31
2303,31
2304,32
2305,31
2306,31
2307,31
2308,31
2309,31
2310,31
2311,31
2312,31
2313,31
2314,31
2315,31
2316,32
2317,31
2318,31
2319,31
2320,31
2321,31
2322,31
2323,31
2324,31
2325,31
2326,31
2327,31
2328,31
2329,31
2330,31
2331,32
2332,32
2333,31
2334,31
2335,31
2336,31
2337,31
2338,31
2339,31
2340,31
2341,31
2342,31
2343,32
2344,31
2345,31
2346,31
2347,31
2348,31
2349,31
2350,31
2351,31
2352,31
2353,31
2354,31
2355,32
2356,31
2357,31
2358,31
2359,31
2360,31
2361,31
2362,31
2363,32
2364,31
2365,31
2366,31
2367,31
2368,31
2369,32
2370,31
2371,31
2372,31
2373,31
2374,31
2375,31
2376,31
2377,31
2378,31
2379,31
2380,31
2381,31
2382,31
2383,31
2384,31
2385,31
2386,31
2387,31
2388,31
2389,31
2390,31
2391,31
2392,31
2393,31
2394,31
2395,31
2396,31
2397,31
2398,31
2399,31
2400,31
2401,31
2402,31
2403,31
2404,31
2405,31
2406,31
2407,31
2408,31
2409,31
2410,31
2411,31
2412,31
2413,31
2414,31
2415,31
2416,31
2417,31
2418,31
2419,31
2420,32
2421,31
2422,31
2423,31
2424,31
2425,31
2426,31
2427,31
2428,31
2429,31
2430,31
2431,31
2432,31
2433,32
2434,31
2435,31
2436,31
2437,31
2438,31
2439,31
2440,31
2441,31
2442,31
2443,31
2444,31
2445,31
2446,31
2447,31
2448,31
2449,31
2450,31
2451,31
2452,32
2453,32
2454,32
2455,31
2456,31
2457,32
2458,31
2459,31
2460,31
2461,31
2462,31
2463,31
2464,31
2465,31
2466,31
2467,31
2468,31
2469,31
2470,31
2471,31
2472,31
2473,31
2474,32
2475,32
2476,32
2477,32
2478,32
2479,32
2480,32
2481,32
2482,32
2483,32
2484,32
2485,32
2486,32
2487,32
2488,32
2489,32
2490,32
2491,31
2492,31
2493,32
2494,31
2495,31
2496,31
2497,31
2498,31
2499,31
2500,31
2501,31
2502,31
2503,31
2504,31
2505,31
2506,31
2507,31
2508,31
2509,31
2510,32
2511,32
2512,32
2513,31
2514,31
2515,31
2516,31
2517,32
2518,32
2519,32
2520,31
2521,31
2522,31
2523,31
2524,31
2525,31
2526,31
2527,31
2528,31
2529,31
2530,31
2531,31
2532,31
2533,31
2534,31
2535,31
2536,31
2537,32
2538,31
2539,31
2540,31
2541,31
2542,31
2543,31
2544,31
2545,31
2546,31
2547,31
2548,31
2549,31
2550,31
2551,31
2552,31
2553,31
2554,31
2555,31
2556,31
2557,31
2558,31
2559,31
2560,32
2561,32
2562,32
2563,32
2564,32
2565,32
2566,32
2567,32
2568,32
2569,32
2570,32
2571,32
2572,32
2573,32
2574,32
2575,32
2576,32
2577,32
2578,32
2579,32
2580,32
2581,32
2582,32
2583,32
2584,32
2585,32
2586,32
2587,32
2588,32
2589,32
2590,32
2591,32
2592,32
2593,32
2594,32
2595,32
2596,32
2597,32
2598,32
2599,32
2600,32
2601,32
2602,32
2603,32
2604,32
2605,32
2606,32
2607,32
2608,32
2609,32
2610,32
2611,32
2612,32
2613,32
2614,32
2615,32
2616,32
2617,32
2618,32
2619,32
2620,32
2621,32
2622,32
2623,33
2624,33
2625,33
2626,33
2627,33
2628,34
2629,33
2630,33
2631,33
2632,33
2633,33
2634,33
2635,32
2636,32
2637,32
2638,32
2639,32
2640,32
2641,32
2642,33
2643,33
2644,32
2645,32
2646,32
2647,32
2648,32
2649,32
2650,32
2651,33
2652,33
2653,33
2654,32
2655,32
2656,32
2657,32
2658,32
2659,33
2660,33
2661,32
2662,32
2663,32
2664,33
2665,32
2666,32
2667,32
2668,32
2669,32
2670,32
2671,32
2672,32
2673,32
2674,32
2675,32
2676,32
2677,32
2678,32
2679,32
2680,32
2681,32
2682,33
2683,32
2684,32
2685,32
2686,32
2687,32
2688,32
2689,32
2690,32
2691,32
2692,32
2693,32
2694,33
2695,33
2696,33
2697,34
2698,33
2699,33
2700,33
2701,33
2702,33
2703,33
2704,33
2705,33
2706,33
2707,33
2708,33
2709,33
2710,33
2711,33
2712,32
2713,32
2714,32
2715,32
2716,32
2717,32
2718,32
2719,32
2720,32
2721,32
2722,32
2723,32
2724,32
2725,33
2726,33
2727,33
2728,32
2729,32
2730,32
2731,32
2732,32
2733,32
2734,32
2735,32
2736,32
2737,32
2738,32
2739,32
2740,32
2741,32
2742,32
2743,32
2744,32
2745,32
2746,32
2747,32
2748,32
2749,32
2750,33
2751,32
2752,32
2753,32
2754,33
2755,32
2756,32
2757,32
2758,32
2759,32
2760,33
2761,32
2762,32
2763,32
2764,32
2765,32
2766,32
2767,32
2768,32
2769,32
2770,32
2771,32
2772,32
2773,32
2774,32
2775,32
2776,32
2777,32
2778,32
2779,32
2780,33
2781,33
2782,33
2783,33
2784,33
2785,33
2786,33
2787,33
2788,33
2789,32
2790,32
2791,32
2792,32
2793,32
2794,32
2795,32
2796,32
2797,32
2798,32
2799,32
2800,32
2801,32
2802,32
2803,32
2804,33
2805,32
2806,32
2807,32
2808,32
2809,32
2810,32
2811,32
2812,33
2813,32
2814,32
2815,32
2816,32
2817,33
2818,33
2819,33
2820,33
2821,33
2822,33
2823,33
2824,33
2825,33
2826,33
2827,33
2828,33
2829,34
2830,34
2831,33
2832,33
2833,33
2834,33
2835,33
2836,33
2837,33
2838,33
2839,32
2840,32
2841,32
2842,32
2843,32
2844,32
2845,32
2846,32
2847,32
2848,32
2849,32
2850,32
2851,32
2852,32
2853,32
2854,32
2855,32
2856,32
2857,32
2858,32
2859,32
2860,32
2861,32
2862,32
2863,32
2864,32
2865,32
2866,32
2867,32
2868,33
2869,33
2870,32
2871,32
2872,33
2873,33
2874,32
2875,32
2876,32
2877,32
2878,32
2879,32
2880,32
2881,32
2882,32
2883,32
2884,32
2885,32
2886,32
2887,32
2888,32
2889,32
2890,32
2891,32
2892,32
2893,32
2894,32
2895,32
2896,32
2897,32
2898,33
2899,32
2900,32
2901,32
2902,32
2903,32
2904,32
2905,32
2906,32
2907,32
2908,32
2909,32
2910,33
2911,33
2912,33
2913,33
2914,33
2915,34
2916,34
2917,34
2918,34
2919,34
2920,33
2921,33
2922,33
2923,33
2924,34
2925,33
2926,33
2927,33
2928,33
2929,33
2930,33
2931,33
2932,33
2933,33
2934,33
2935,33
2936,33
2937,33
2938,33
2939,33
2940,33
2941,33
2942,33
2943,33
2944,33
2945,33
2946,33
2947,33
2948,33
2949,33
2950,33
2951,33
2952,33
2953,33
2954,33
2955,33
2956,33
2957,33
2958,33
2959,33
2960,33
2961,33
2962,34
2963,34
2964,34
2965,34
2966,33
2967,33
2968,33
2969,33
2970,33
2971,33
2972,33
2973,33
2974,33
2975,33
2976,33
2977,33
2978,34
2979,34
2980,34
2981,34
2982,34
2983,34
2984,34
2985,34
2986,34
2987,34
2988,34
2989,34
2990,34
2991,34
2992,34
2993,33
2994,33
2995,33
2996,33
2997,33
2998,33
2999,33
3000,33
3001,33
3002,33
3003,33
3004,33
3005,33
3006,33
3007,33
3008,33
3009,33
3010,33
3011,33
3012,33
3013,33
3014,33
3015,33
3016,33
3017,33
3018,34
3019,33
3020,33
3021,33
3022,33
3023,33
3024,33
3025,33
3026,33
3027,33
3028,33
3029,33
3030,33
3031,33
3032,33
3033,33
3034,33
3035,33
3036,34
3037,33
3038,33
3039,33
3040,33
3041,33
3042,33
3043,34
3044,33
3045,33
3046,33
3047,33
3048,33
3049,33
3050,33
3051,33
3052,33
3053,33
3054,34
3055,34
3056,33
3057,33
3058,33
3059,33
3060,33
3061,33
3062,33
3063,33
3064,33
3065,33
3066,33
3067,33
3068,33
3069,33
3070,33
3071,33
3072,33
3073,33
3074,33
3075,33
3076,33
3077,33
3078,33
3079,34
3080,34
3081,34
3082,33
3083,33
3084,34
3085,34
3086,34
3087,34
3088,34
3089,34
3090,34
3091,34
3092,34
3093,34
3094,34
3095,34
3096,34
3097,34
3098,34
3099,34
3100,34
3101,34
3102,34
3103,34
3104,34
3105,34
3106,34
3107,34
3108,34
3109,34
3110,34
3111,34
3112,34
3113,34
3114,34
3115,34
3116,34
3117,34
3118,34
3119,34
3120,34
3121,34
3122,34
3123,34
3124,34
3125,34
3126,34
3127,34
3128,34
3129,34
3130,34
3131,34
3132,34
3133,34
3134,34
3135,34
3136,34
3137,34
3138,34
3139,34
3140,34
3141,35
3142,35
3143,35
3144,35
3145,35
3146,35
3147,35
3148,36
3149,36
3150,35
3151,34
3152,34
3153,34
3154,35
3155,35
3156,36
3157,35
3158,35
3159,36
3160,35
3161,35
3162,35
3163,35
3164,35
3165,34
3166,34
3167,34
3168,34
3169,34
3170,34
3171,34
3172,34
3173,34
3174,34
3175,35
3176,35
3177,35
3178,35
3179,35
3180,35
3181,35
3182,35
3183,35
3184,35
3185,35
3186,35
3187,35
3188,35
3189,35
3190,35
3191,35
3192,35
3193,35
3194,35
3195,35
3196,35
3197,35
3198,35
3199,35
3200,35
3201,36
3202,36
3203,36
3204,36
3205,36
3206,36
3207,36
3208,37
3209,36
3210,36
3211,36
3212,36
3213,37
3214,37
3215,37
3216,38
3217,37
3218,37
3219,37
3220,37
3221,37
3222,36
3223,36
3224,37
3225,37
3226,36
3227,36
3228,36
3229,36
3230,36
3231,36
3232,36
3233,37
3234,37
3235,37
3236,37
3237,37
3238,38
3239,38
3240,38
3241,38
3242,39
3243,39
3244,39
3245,38
3246,38
3247,38
3248,38
3249,38
3250,38
3251,38
3252,38
3253,37
3254,37
3255,37
3256,37
3257,37
3258,37
3259,36
3260,36
3261,36
3262,36
3263,36
3264,36
3265,36
3266,36
3267,36
3268,36
3269,36
3270,36
3271,36
3272,36
3273,36
3274,36
3275,36
3276,36
3277,36
3278,36
3279,36
3280,36
3281,36
3282,37
3283,37
3284,36
3285,37
3286,37
3287,37
3288,37
3289,36
3290,36
3291,36
3292,36
3293,36
3294,36
3295,36
3296,36
3297,36
3298,36
3299,36
3300,37
3301,37
3302,36
3303,36
3304,36
3305,36
3306,36
3307,36
3308,36
3309,36
3310,36
3311,36
3312,36
3313,36
3314,36
3315,36
3316,36
3317,36
3318,37
3319,37
3320,36
3321,36
3322,36
3323,36
3324,36
3325,36
3326,36
3327,36
3328,36
3329,36
3330,36
3331,36
3332,36
3333,36
3334,36
3335,36
3336,36
3337,36
3338,36
3339,36
3340,36
3341,36
3342,36
3343,36
3344,36
3345,36
3346,36
3347,36
3348,36
3349,36
3350,35
3351,35
3352,35
3353,35
3354,36
3355,35
3356,35
3357,35
3358,35
3359,35
3360,35
3361,35
3362,35
3363,35
3364,35
3365,35
3366,35
3367,35
3368,35
3369,35
3370,35
3371,35
3372,35
3373,35
3374,35
3375,36
3376,37
3377,37
3378,37
3379,37
3380,36
3381,36
3382,35
3383,35
3384,35
3385,35
3386,35
3387,35
3388,35
3389,35
3390,35
3391,35
3392,35
3393,35
3394,35
3395,35
3396,35
3397,35
3398,35
3399,35
3400,35
3401,35
3402,35
3403,35
3404,35
3405,35
3406,35
3407,35
3408,35
3409,35
3410,35
3411,35
3412,35
3413,35
3414,35
3415,35
3416,35
3417,35
3418,35
3419,35
3420,35
3421,35
3422,36
3423,36
3424,36
3425,38
3426,38
3427,37
3428,37
3429,37
3430,37
3431,36
3432,36
3433,35
3434,35
3435,36
3436,36
3437,36
3438,36
3439,36
3440,36
3441,36
3442,36
3443,35
3444,35
3445,35
3446,35
3447,35
3448,35
3449,35
3450,35
3451,35
3452,35
3453,36
3454,35
3455,35
3456,36
3457,35
3458,35
3459,35
3460,35
3461,35
3462,36
3463,36
3464,35
3465,35
3466,35
3467,36
3468,36
3469,36
3470,36
3471,36
3472,36
3473,36
3474,36
3475,36
3476,36
3477,36
3478,36
3479,36
3480,37
3481,36
3482,35
3483,35
3484,35
3485,36
3486,35
3487,35
3488,35
3489,35
3490,35
3491,35
3492,35
3493,35
3494,35
3495,35
3496,36
3497,36
3498,36
3499,36
3500,37
3501,37
3502,36
3503,36
3504,36
3505,36
3506,36
3507,36
3508,36
3509,36
3510,35
3511,35
3512,35
3513,35
3514,35
3515,35
3516,35
3517,35
3518,35
3519,36
3520,36
3521,36
3522,36
3523,37
3524,36
3525,36
3526,35
3527,35
3528,35
3529,35
3530,35
3531,35
3532,35
3533,35
3534,35
3535,35
3536,35
3537,35
3538,35
3539,35
3540,35
3541,35
3542,35
3543,35
3544,35
3545,35
3546,35
3547,35
3548,35
3549,35
3550,35
3551,35
3552,35
3553,35
3554,35
3555,35
3556,36
3557,35
3558,35
3559,35
3560,35
3561,35
3562,35
3563,35
3564,35
3565,35
3566,35
3567,36
3568,35
3569,35
3570,35
3571,35
3572,35
3573,35
3574,35
3575,35
3576,35
3577,35
3578,35
3579,35
3580,35
3581,35
3582,35
3583,35
3584,35
3585,35
3586,35
3587,35
3588,35
3589,35
3590,35
3591,35
3592,35
3593,36
3594,36
3595,35
3596,35
3597,35
3598,35
3599,35
3600,35
3601,35
3602,35
3603,35
3604,35
3605,35
3606,35
3607,35
3608,35
3609,35
3610,35
3611,35
3612,35
3613,35
3614,35
3615,35
3616,35
3617,35
3618,35
3619,35
3620,35
3621,35
3622,35
3623,35
3624,35
3625,35
3626,35
3627,35
3628,35
3629,35
3630,35
3631,35
3632,35
3633,35
3634,36
3635,36
3636,36
3637,35
3638,35
3639,35
3640,36
3641,36
3642,36
3643,36
3644,36
3645,36
3646,36
3647,36
3648,36
3649,36
3650,36
3651,35
3652,35
3653,35
3654,35
3655,35
3656,35
3657,36
3658,36
3659,36
3660,36
3661,35
3662,35
3663,35
3664,35
3665,35
3666,35
3667,35
3668,35
3669,35
3670,35
3671,35
3672,35
3673,35
3674,35
3675,35
3676,35
3677,36
3678,35
3679,35
3680,35
3681,36
3682,36
3683,36
3684,36
3685,36
3686,36
3687,36
3688,36
3689,35
3690,35
3691,35
3692,35
3693,35
3694,35
3695,35
3696,35
3697,35
3698,35
3699,35
3700,35
3701,35
3702,35
3703,35
3704,36
3705,36
3706,36
3707,35
3708,35
3709,35
3710,35
3711,35
3712,35
3713,35
3714,35
3715,35
3716,35
3717,35
3718,35
3719,36
3720,37
3721,36
3722,37
3723,37
3724,37
3725,36
3726,36
3727,36
3728,35
3729,35
3730,35
3731,36
3732,35
3733,35
3734,35
3735,35
3736,36
3737,36
3738,36
3739,36
3740,36
3741,36
3742,36
3743,36
3744,36
3745,36
3746,36
3747,36
3748,36
3749,36
3750,36
3751,36
3752,36
3753,36
3754,36
3755,36
3756,36
3757,36
3758,36
3759,36
3760,37
3761,36
3762,36
3763,36
3764,36
3765,36
3766,36
3767,36
3768,35
3769,35
3770,35
3771,35
3772,35
3773,35
3774,35
3775,35
3776,35
3777,35
3778,35
3779,35
3780,35
3781,35
3782,35
3783,35
3784,35
3785,35
3786,35
3787,36
3788,35
3789,35
3790,35
3791,35
3792,35
3793,35
3794,35
3795,35
3796,35
3797,35
3798,35
3799,35
3800,35
3801,35
3802,35
3803,35
3804,35
3805,35
3806,35
3807,35
3808,35
3809,36
3810,36
3811,36
3812,35
3813,35
3814,36
3815,36
3816,35
3817,35
3818,35
3819,35
3820,35
3821,35
3822,35
3823,35
3824,35
3825,35
3826,35
3827,35
3828,35
3829,35
3830,35
3831,35
3832,35
3833,35
3834,35
3835,35
3836,35
3837,35
3838,35
3839,35
3840,35
3841,35
3842,35
3843,35
3844,35
3845,35
3846,35
3847,35
3848,35
3849,35
3850,35
3851,35
3852,35
3853,35
3854,35
3855,35
3856,35
3857,35
3858,35
3859,34
3860,34
3861,34
3862,34
3863,34
3864,34
3865,34
3866,34
3867,34
3868,34
3869,34
3870,34
3871,34
3872,34
3873,34
3874,34
3875,34
3876,34
3877,34
3878,34
3879,34
3880,34
3881,34
3882,34
3883,34
3884,34
3885,35
3886,34
3887,34
3888,34
3889,34
3890,34
3891,34
3892,34
3893,34
3894,34
3895,34
3896,34
3897,34
3898,34
3899,34
3900,34
3901,34
3902,34
3903,34
3904,35
3905,34
3906,34
3907,34
3908,34
3909,34
3910,34
3911,34
3912,34
3913,34
3914,35
3915,35
3916,35
3917,35
3918,35
3919,35
3920,35
3921,35
3922,35
3923,35
3924,35
3925,34
3926,34
3927,34
3928,34
3929,34
3930,34
3931,34
3932,34
3933,34
3934,34
3935,34
3936,34
3937,34
3938,34
3939,34
3940,34
3941,34
3942,34
3943,34
3944,34
3945,34
3946,34
3947,34
3948,34
3949,34
3950,34
3951,34
3952,34
3953,34
3954,34
3955,34
3956,34
3957,34
3958,34
3959,34
3960,34
3961,34
3962,34
3963,34
3964,34
3965,34
3966,34
3967,34
3968,34
3969,34
3970,34
3971,34
3972,34
3973,34
3974,34
3975,34
3976,34
3977,34
3978,34
3979,34
3980,34
3981,34
3982,34
3983,34
3984,34
3985,34
3986,34
3987,34
3988,34
3989,34
3990,34
3991,35
3992,35
3993,35
3994,35
3995,36
3996,36
3997,36
3998,36
3999,36
4000,34
4001,34
4002,34
4003,34
4004,34
4005,34
4006,35
4007,35
4008,36
4009,36
4010,36
4011,36
4012,35
4013,35
4014,35
4015,35
4016,35
4017,35
4018,35
4019,35
4020,35
4021,35
4022,35
4023,35
4024,35
4025,35
4026,35
4027,35
4028,35
4029,35
4030,35
4031,35
4032,35
4033,35
4034,35
4035,35
4036,35
4037,35
4038,35
4039,35
4040,35
4041,36
4042,36
4043,36
4044,36
4045,36
4046,36
4047,36
4048,36
4049,35
4050,35
4051,35
4052,35
4053,35
4054,35
4055,35
4056,35
4057,36
4058,35
4059,35
4060,35
4061,35
4062,35
4063,35
4064,35
4065,35
4066,35
4067,35
4068,35
4069,35
4070,35
4071,35
4072,35
4073,35
4074,35
4075,36
4076,36
4077,35
4078,35
4079,35
4080,35
4081,35
4082,35
4083,35
4084,35
4085,36
4086,36
4087,35
4088,35
4089,35
4090,35
4091,35
4092,35
4093,36
4094,37
4095,37
4096,37
4097,37
4098,37
4099,37
4100,36
4101,35
4102,35
4103,35
4104,34
4105,34
4106,34
4107,34
4108,34
4109,34
4110,34
4111,34
4112,35
4113,35
4114,35
4115,35
4116,34
4117,34
4118,34
4119,34
4120,34
4121,34
4122,34
4123,34
4124,34
4125,34
4126,34
4127,34
4128,34
4129,34
4130,34
4131,34
4132,35
4133,35
4134,35
4135,35
4136,34
4137,34
4138,34
4139,34
4140,34
4141,34
4142,34
4143,34
4144,34
4145,34
4146,34
4147,34
4148,34
4149,34
4150,34
4151,34
4152,34
4153,34
4154,34
4155,34
4156,34
4157,35
4158,34
4159,34
4160,34
4161,34
4162,34
4163,34
4164,34
4165,34
4166,34
4167,34
4168,34
4169,34
4170,34
4171,34
4172,34
4173,34
4174,34
4175,34
4176,34
4177,34
4178,34
4179,35
4180,35
4181,34
4182,34
4183,34
4184,34
4185,34
4186,34
4187,34
4188,34
4189,34
4190,34
4191,34
4192,34
4193,34
4194,34
4195,34
4196,34
4197,34
4198,34
4199,34
4200,34
4201,34
4202,34
4203,34
4204,34
4205,34
4206,34
4207,34
4208,35
4209,35
4210,35
4211,34
4212,35
4213,34
4214,34
4215,34
4216,35
4217,34
4218,34
4219,34
4220,34
4221,34
4222,34
4223,34
4224,34
4225,34
4226,34
4227,34
4228,34
4229,34
4230,34
4231,34
4232,34
4233,34
4234,34
4235,34
4236,34
4237,34
4238,34
4239,34
4240,34
4241,34
4242,34
4243,34
4244,34
4245,34
4246,34
4247,34
4248,34
4249,34
4250,34
4251,34
4252,34
4253,34
4254,34
4255,34
4256,34
4257,34
4258,34
4259,34
4260,34
4261,34
4262,34
4263,34
4264,34
4265,34
4266,34
4267,34
4268,34
4269,34
4270,34
4271,34
4272,34
4273,34
4274,34
4275,34
4276,34
4277,34
4278,34
4279,34
4280,34
4281,34
4282,34
4283,34
4284,34
4285,34
4286,34
4287,34
4288,34
4289,34
4290,34
4291,34
4292,34
4293,34
4294,34
4295,34
4296,34
4297,34
4298,34
4299,35
4300,35
4301,34
4302,35
4303,35
4304,35
4305,35
4306,35
4307,35
4308,35
4309,36
4310,34
4311,34
4312,34
4313,34
4314,34
4315,34
4316,34
4317,34
4318,34
4319,34
4320,34
4321,34
4322,34
4323,34
4324,34
4325,34
4326,34
4327,34
4328,34
4329,35
4330,35
4331,35
4332,35
4333,35
4334,35
4335,35
4336,35
4337,35
4338,35
4339,35
4340,35
4341,35
4342,34
4343,34
4344,34
4345,34
4346,34
4347,34
4348,34
4349,34
4350,34
4351,34
4352,34
4353,34
4354,34
4355,34
4356,34
4357,34
4358,34
4359,34
4360,34
4361,34
4362,34
4363,34
4364,34
4365,34
4366,34
4367,34
4368,34
4369,34
4370,34
4371,34
4372,34
4373,34
4374,34
4375,34
4376,34
4377,34
4378,34
4379,35
4380,34
4381,34
4382,34
4383,34
4384,34
4385,34
4386,34
4387,34
4388,34
4389,34
4390,34
4391,34
4392,35
4393,34
4394,34
4395,34
4396,35
4397,34
4398,34
4399,34
4400,34
4401,34
4402,34
4403,34
4404,34
4405,34
4406,34
4407,34
4408,34
4409,34
4410,34
4411,34
4412,34
4413,34
4414,34
4415,34
4416,35
4417,34
4418,34
4419,34
4420,34
4421,34
4422,34
4423,34
4424,35
4425,34
4426,34
4427,34
4428,34
4429,34
4430,34
4431,34
4432,34
4433,34
4434,34
4435,34
4436,35
4437,35
4438,34
4439,34
4440,34
4441,34
4442,34
4443,34
4444,34
4445,34
4446,34
4447,34
4448,34
4449,34
4450,34
4451,34
4452,34
4453,34
4454,34
4455,34
4456,34
4457,34
4458,34
4459,35
4460,34
4461,34
4462,34
4463,34
4464,34
4465,34
4466,34
4467,34
4468,34
4469,34
4470,34
4471,34
4472,34
4473,34
4474,34
4475,34
4476,34
4477,34
4478,34
4479,34
4480,34
4481,34
4482,34
4483,34
4484,34
4485,34
4486,34
4487,34
4488,34
4489,34
4490,34
4491,35
4492,34
4493,34
4494,34
4495,34
4496,34
4497,34
4498,34
4499,34
4500,34
4501,34
4502,34
4503,34
4504,34
4505,34
4506,34
4507,34
4508,34
4509,34
4510,34
4511,34
4512,34
4513,34
4514,34
4515,34
4516,34
4517,34
4518,34
4519,34
4520,35
4521,34
4522,34
4523,34
4524,34
4525,34
4526,34
4527,34
4528,34
4529,34
4530,34
4531,34
4532,34
4533,34
4534,35
4535,35
4536,34
4537,34
4538,34
4539,34
4540,34
4541,34
4542,34
4543,35
4544,36
4545,34
4546,34
4547,34
4548,34
4549,34
4550,34
4551,34
4552,34
4553,34
4554,34
4555,34
4556,34
4557,35
4558,35
4559,36
4560,35
4561,34
4562,34
4563,34
4564,34
4565,34
4566,34
4567,34
4568,34
4569,34
4570,34
4571,34
4572,35
4573,35
4574,34
4575,34
4576,34
4577,34
4578,35
4579,35
4580,35
4581,35
4582,35
4583,35
4584,35
4585,35
4586,35
4587,35
4588,35
4589,35
4590,35
4591,35
4592,35
4593,35
4594,36
4595,35
4596,35
4597,35
4598,35
4599,35
4600,35
4601,35
4602,35
4603,35
4604,35
4605,35
4606,35
4607,34
4608,34
4609,34
4610,34
4611,34
4612,34
4613,34
4614,34
4615,34
4616,34
4617,34
4618,35
4619,34
4620,34
4621,34
4622,34
4623,34
4624,34
4625,35
4626,35
4627,34
4628,34
4629,35
4630,34
4631,34
4632,34
4633,34
4634,34
4635,34
4636,34
4637,34
4638,34
4639,34
4640,35
4641,34
4642,34
4643,34
4644,34
4645,35
4646,35
4647,34
4648,34
4649,34
4650,34
4651,34
4652,34
4653,34
4654,34
4655,34
4656,34
4657,34
4658,34
4659,34
4660,34
4661,34
4662,34
4663,34
4664,34
4665,34
4666,34
4667,34
4668,34
4669,34
4670,34
4671,34
4672,35
4673,35
4674,35
4675,34
4676,34
4677,34
4678,35
4679,34
4680,34
4681,34
4682,34
4683,34
4684,34
4685,34
4686,34
4687,34
4688,34
4689,34
4690,34
4691,35
4692,35
4693,34
4694,34
4695,34
4696,34
4697,35
4698,35
4699,35
4700,35
4701,35
4702,35
4703,36
4704,36
4705,36
4706,36
4707,35
4708,34
4709,34
4710,34
4711,34
4712,34
4713,34
4714,34
4715,34
4716,34
4717,34
4718,34
4719,34
4720,34
4721,34
4722,34
4723,34
4724,34
4725,34
4726,34
4727,34
4728,34
4729,35
4730,34
4731,34
4732,34
4733,34
4734,35
4735,34
4736,34
4737,34
4738,34
4739,34
4740,34
4741,34
4742,34
4743,34
4744,34
4745,34
4746,35
4747,34
4748,35
4749,35
4750,34
4751,34
4752,34
4753,35
4754,35
4755,35
4756,35
4757,35
4758,35
4759,34
4760,34
4761,34
4762,34
4763,34
4764,34
4765,34
4766,34
4767,34
4768,34
4769,34
4770,34
4771,34
4772,34
4773,34
4774,34
4775,34
4776,35
4777,34
4778,34
4779,34
4780,34
4781,34
4782,34
4783,34
4784,33
4785,33
4786,33
4787,33
4788,33
4789,33
4790,33
4791,33
4792,33
4793,33
4794,33
4795,33
4796,33
4797,33
4798,34
4799,33
4800,33
4801,33
4802,33
4803,33
4804,33
4805,33
4806,33
4807,33
4808,33
4809,33
4810,33
4811,33
4812,34
4813,33
4814,33
4815,33
4816,33
4817,33
4818,33
4819,33
4820,33
4821,33
4822,33
4823,33
4824,33
4825,33
4826,33
4827,33
4828,33
4829,33
4830,33
4831,33
4832,33
4833,33
4834,33
4835,33
4836,33
4837,34
4838,33
4839,34
4840,33
4841,33
4842,33
4843,33
4844,33
4845,33
4846,33
4847,33
4848,33
4849,33
4850,33
4851,34
4852,33
4853,33
4854,33
4855,33
4856,33
4857,33
4858,33
4859,33
4860,33
4861,33
4862,33
4863,33
4864,33
4865,33
4866,34
4867,33
4868,33
4869,33
4870,33
4871,33
4872,33
4873,33
4874,33
4875,33
4876,33
4877,33
4878,33
4879,33
4880,33
4881,33
4882,33
4883,33
4884,33
4885,33
4886,33
4887,33
4888,33
4889,33
4890,33
4891,33
4892,33
4893,33
4894,33
4895,33
4896,33
4897,33
4898,33
4899,33
4900,33
4901,33
4902,33
4903,33
4904,33
4905,33
4906,33
4907,33
4908,34
4909,36
4910,35
4911,35
4912,35
4913,35
4914,35
4915,35
4916,35
4917,35
4918,35
4919,35
4920,34
4921,34
4922,34
4923,34
4924,34
4925,34
4926,34
4927,34
4928,34
4929,34
4930,34
4931,34
4932,34
4933,34
4934,34
4935,34
4936,34
4937,34
4938,34
4939,34
4940,34
4941,34
4942,34
4943,34
4944,34
4945,34
4946,34
4947,34
4948,34
4949,34
4950,34
4951,33
4952,33
4953,33
4954,33
4955,33
4956,33
4957,33
4958,33
4959,33
4960,33
4961,33
4962,33
4963,33
4964,33
4965,33
4966,33
4967,33
4968,33
4969,34
4970,34
4971,33
4972,33
4973,33
4974,33
4975,33
4976,33
4977,33
4978,33
4979,33
4980,33
4981,33
4982,33
4983,33
4984,33
4985,33
4986,33
4987,33
4988,33
4989,33
4990,33
4991,33
4992,33
4993,33
4994,33
4995,33
4996,33
4997,33
4998,33
4999,33
5000,33
5001,33
5002,33
5003,33
5004,33
5005,34
5006,33
5007,33
5008,33
5009,33
5010,33
5011,33
5012,33
5013,34
5014,33
5015,33
5016,33
5017,33
5018,33
5019,33
5020,33
5021,33
5022,33
5023,33
5024,33
5025,33
5026,33
5027,33
5028,33
5029,33
5030,33
5031,33
5032,34
5033,34
5034,34
5035,33
5036,33
5037,33
5038,33
5039,33
5040,33
5041,33
5042,33
5043,33
5044,33
5045,33
5046,33
5047,33
5048,33
5049,33
5050,33
5051,33
5052,33
5053,33
5054,33
5055,33
5056,33
5057,33
5058,33
5059,33
5060,33
5061,33
5062,33
5063,33
5064,33
5065,33
5066,33
5067,33
5068,33
5069,33
5070,33
5071,33
5072,33
5073,33
5074,33
5075,33
5076,33
5077,33
5078,33
5079,33
5080,33
5081,33
5082,33
5083,33
5084,33
5085,33
5086,33
5087,33
5088,33
5089,33
5090,33
5091,33
5092,33
5093,33
5094,33
5095,33
5096,33
5097,33
5098,33
5099,33
5100,33
5101,33
5102,33
5103,33
5104,33
5105,33
5106,33
5107,33
5108,33
5109,33
5110,33
5111,33
5112,34
5113,34
5114,34
5115,34
5116,34
5117,34
5118,34
5119,34
5120,34
5121,34
5122,33
5123,33
5124,33
5125,33
5126,33
5127,34
5128,33
5129,33
5130,33
5131,33
5132,33
5133,33
5134,33
5135,33
5136,33
5137,33
5138,33
5139,33
5140,33
5141,33
5142,33
5143,33
5144,33
5145,33
5146,33
5147,33
5148,34
5149,34
5150,33
5151,33
5152,33
5153,33
5154,33
5155,34
5156,33
5157,33
5158,33
5159,33
5160,33
5161,33
5162,33
5163,33
5164,33
5165,33
5166,33
5167,33
5168,33
5169,33
5170,33
5171,33
5172,33
5173,33
5174,33
5175,33
5176,33
5177,33
5178,33
5179,33
5180,33
5181,33
5182,33
5183,33
5184,33
5185,33
5186,33
5187,33
5188,33
5189,33
5190,33
5191,33
5192,33
5193,33
5194,33
5195,33
5196,33
5197,33
5198,33
5199,33
5200,33
5201,33
5202,33
5203,33
5204,33
5205,33
5206,33
5207,33
5208,33
5209,33
5210,33
5211,33
5212,33
5213,33
5214,34
5215,34
5216,34
5217,34
5218,34
5219,33
5220,33
5221,33
5222,33
5223,33
5224,33
5225,33
5226,33
5227,33
5228,33
5229,33
5230,33
5231,33
5232,33
5233,33
5234,33
5235,33
5236,33
5237,34
5238,34
5239,34
5240,34
5241,33
5242,33
5243,33
5244,34
5245,33
5246,33
5247,34
5248,34
5249,33
5250,33
5251,33
5252,33
5253,33
5254,33
5255,33
5256,33
5257,33
5258,34
5259,34
5260,34
5261,34
5262,34
5263,33
5264,33
5265,33
5266,33
5267,33
5268,33
5269,33
5270,33
5271,33
5272,33
5273,33
5274,33
5275,33
5276,33
5277,33
5278,33
5279,33
5280,34
5281,34
5282,34
5283,34
5284,34
5285,34
5286,34
5287,34
5288,33
5289,33
5290,33
5291,33
5292,33
5293,33
5294,33
5295,34
5296,34
5297,33
5298,35
5299,34
5300,34
5301,34
5302,35
5303,34
5304,34
5305,35
5306,35
5307,35
5308,35
5309,35
5310,35
5311,35
5312,35
5313,35
5314,35
5315,35
5316,35
5317,35
5318,35
5319,35
5320,35
5321,35
5322,35
5323,36
5324,36
5325,37
5326,35
5327,35
5328,35
5329,35
5330,35
5331,35
5332,36
5333,36
5334,36
5335,36
5336,36
5337,35
5338,35
5339,35
5340,35
5341,35
5342,35
5343,35
5344,35
5345,36
5346,36
5347,35
5348,35
5349,35
5350,35
5351,35
5352,35
5353,35
5354,35
5355,35
5356,35
5357,35
5358,35
5359,35
5360,35
5361,35
5362,35
5363,35
5364,35
5365,35
5366,35
5367,35
5368,35
5369,35
5370,34
5371,34
5372,34
5373,35
5374,34
5375,34
5376,34
5377,34
5378,34
5379,34
5380,34
5381,34
5382,34
5383,34
5384,34
5385,34
5386,34
5387,34
5388,34
5389,34
5390,34
5391,34
5392,34
5393,34
5394,34
5395,34
5396,34
5397,35
5398,35
5399,35
5400,35
5401,35
5402,35
5403,35
5404,35
5405,35
5406,36
5407,36
5408,36
5409,35
5410,35
5411,35
5412,35
5413,35
5414,35
5415,35
5416,35
5417,35
5418,35
5419,35
5420,35
5421,35
5422,35
5423,35
5424,35
5425,35
5426,36
5427,36
5428,35
5429,35
5430,35
5431,35
5432,35
5433,35
5434,35
5435,35
5436,35
5437,35
5438,35
5439,35
5440,35
5441,35
5442,35
5443,36
5444,36
5445,36
5446,36
5447,36
5448,36
5449,36
5450,36
5451,36
5452,36
5453,36
5454,36
5455,36
5456,36
5457,36
5458,36
5459,36
5460,36
5461,36
5462,36
5463,36
5464,36
5465,36
5466,35
5467,35
5468,35
5469,36
5470,36
5471,36
5472,36
5473,36
5474,36
5475,36
5476,36
5477,36
5478,36
5479,36
5480,36
5481,36
5482,36
5483,36
5484,37
5485,37
5486,35
5487,35
5488,35
5489,35
5490,35
5491,35
5492,35
5493,35
5494,35
5495,35
5496,35
5497,36
5498,35
5499,36
5500,36
5501,37
5502,37
5503,37
5504,37
5505,36
5506,36
5507,36
5508,36
5509,36
5510,36
5511,36
5512,36
5513,36
5514,36
5515,36
5516,36
5517,36
5518,36
5519,36
5520,36
5521,36
5522,36
5523,36
5524,36
5525,36
5526,36
5527,36
5528,36
5529,36
5530,36
5531,36
5532,36
5533,36
5534,36
5535,36
5536,36
5537,36
5538,36
5539,36
5540,36
5541,36
5542,36
5543,36
5544,36
5545,36
5546,36
5547,36
5548,36
5549,36
5550,36
5551,36
5552,36
5553,36
5554,36
5555,36
5556,36
5557,36
5558,36
5559,36
5560,36
5561,36
5562,36
5563,36
5564,36
5565,36
5566,36
5567,36
5568,36
5569,36
5570,36
5571,36
5572,36
5573,37
5574,36
5575,36
5576,36
5577,36
5578,36
5579,37
5580,36
5581,36
5582,36
5583,37
5584,36
5585,36
5586,36
5587,36
5588,36
5589,36
5590,36
5591,36
5592,36
5593,36
5594,36
5595,37
5596,36
5597,36
5598,36
5599,36
5600,36
5601,36
5602,36
5603,36
5604,36
5605,36
5606,36
5607,36
5608,36
5609,36
5610,36
5611,36
5612,36
5613,36
5614,36
5615,36
5616,36
5617,36
5618,36
5619,36
5620,36
5621,36
5622,36
5623,36
5624,36
5625,36
5626,36
5627,37
5628,37
5629,37
5630,37
5631,37
5632,37
5633,37
5634,37
5635,37
5636,37
5637,37
5638,36
5639,36
5640,36
5641,36
5642,36
5643,36
5644,36
5645,36
5646,36
5647,36
5648,36
5649,36
5650,36
5651,36
5652,36
5653,36
5654,36
5655,36
5656,36
5657,36
5658,36
5659,36
5660,36
5661,36
5662,36
5663,36
5664,36
5665,36
5666,36
5667,37
5668,37
5669,37
5670,37
5671,37
5672,37
5673,37
5674,37
5675,37
5676,37
5677,37
5678,37
5679,37
5680,37
5681,37
5682,38
5683,37
5684,37
5685,37
5686,37
5687,37
5688,37
5689,37
5690,37
5691,37
5692,37
5693,37
5694,37
5695,37
5696,37
5697,37
5698,36
5699,36
5700,36
5701,36
5702,36
5703,38
5704,36
5705,36
5706,36
5707,36
5708,37
5709,37
5710,37
5711,37
5712,36
5713,36
5714,36
5715,36
5716,36
5717,36
5718,37
5719,37
5720,36
5721,36
5722,36
5723,36
5724,36
5725,36
5726,37
5727,37
5728,37
5729,36
5730,36
5731,36
5732,36
5733,36
5734,36
5735,36
5736,36
5737,36
5738,36
5739,36
5740,36
5741,36
5742,36
5743,36
5744,36
5745,36
5746,36
5747,36
5748,36
5749,36
5750,36
5751,36
5752,36
5753,37
5754,36
5755,36
5756,36
5757,36
5758,35
5759,35
5760,35
5761,35
5762,35
5763,35
5764,35
5765,35
5766,35
5767,35
5768,35
5769,35
5770,35
5771,35
5772,35
5773,35
5774,36
5775,36
5776,36
5777,36
5778,36
5779,36
5780,36
5781,36
5782,36
5783,36
5784,36
5785,37
5786,37
5787,37
5788,37
5789,37
5790,37
5791,37
5792,37
5793,37
5794,37
5795,37
5796,37
5797,38
5798,38
5799,38
5800,37
5801,36
5802,36
5803,36
5804,36
5805,36
5806,36
5807,37
5808,36
5809,36
5810,36
5811,36
5812,36
5813,37
5814,36
5815,36
5816,36
5817,36
5818,36
5819,36
5820,37
5821,36
5822,36
5823,35
5824,35
5825,35
5826,36
5827,35
5828,35
5829,35
5830,35
5831,35
5832,35
5833,35
5834,35
5835,35
5836,35
5837,35
5838,35
5839,35
5840,35
5841,35
5842,35
5843,35
5844,35
5845,35
5846,35
5847,35
5848,35
5849,35
5850,35
5851,35
5852,35
5853,35
5854,35
5855,35
5856,35
5857,35
5858,35
5859,35
5860,35
5861,35
5862,36
5863,35
5864,35
5865,35
5866,35
5867,35
5868,35
5869,36
5870,35
5871,35
5872,35
5873,35
5874,35
5875,35
5876,35
5877,35
5878,35
5879,35
5880,35
5881,35
5882,35
5883,35
5884,35
5885,35
5886,35
5887,35
5888,35
5889,35
5890,35
5891,35
5892,35
5893,35
5894,35
5895,35
5896,35
5897,35
5898,35
5899,35
5900,35
5901,36
5902,35
5903,35
5904,35
5905,35
5906,35
5907,35
5908,35
5909,35
5910,35
5911,35
5912,35
5913,35
5914,35
5915,35
5916,35
5917,36
5918,36
5919,36
5920,36
5921,36
5922,36
5923,36
5924,36
5925,36
5926,36
5927,36
5928,36
5929,36
5930,36
5931,36
5932,36
5933,36
5934,36
5935,36
5936,36
5937,36
5938,36
5939,36
5940,36
5941,36
5942,36
5943,36
5944,35
5945,36
5946,36
5947,36
5948,36
5949,35
5950,35
5951,35
5952,36
5953,36
5954,36
5955,36
5956,36
5957,36
5958,36
5959,36
5960,36
5961,36
5962,36
5963,36
5964,36
5965,37
5966,37
5967,37
5968,37
5969,37
5970,37
5971,37
5972,37
5973,37
5974,37
5975,37
5976,37
5977,37
5978,37
5979,37
5980,37
5981,37
5982,36
5983,36
5984,36
5985,36
5986,36
5987,36
5988,36
5989,36
5990,36
5991,36
5992,36
5993,36
5994,36
5995,36
5996,36
5997,36
5998,36
5999,36
6000,36
6001,36
6002,36
6003,37
6004,36
6005,36
6006,36
6007,36
6008,36
6009,36
6010,36
6011,36
6012,36
6013,36
6014,36
6015,36
6016,36
6017,36
6018,36
6019,36
6020,36
6021,36
6022,36
6023,36
6024,36
6025,36
6026,36
6027,36
6028,36
6029,36
6030,36
6031,37
6032,36
6033,36
6034,36
6035,36
6036,36
6037,36
6038,36
6039,36
6040,36
6041,36
6042,36
6043,36
6044,36
6045,36
6046,36
6047,36
6048,36
6049,36
6050,36
6051,36
6052,36
6053,36
6054,36
6055,36
6056,36
6057,36
6058,36
6059,37
6060,36
6061,36
6062,36
6063,36
6064,36
6065,36
6066,36
6067,36
6068,36
6069,37
6070,37
6071,37
6072,37
6073,37
6074,37
6075,37
6076,37
6077,37
6078,37
6079,37
6080,37
6081,37
6082,37
6083,37
6084,37
6085,37
6086,37
6087,37
6088,37
6089,37
6090,37
6091,37
6092,37
6093,37
6094,37
6095,37
6096,37
6097,37
6098,37
6099,37
6100,37
6101,37
6102,37
6103,37
6104,38
6105,38
6106,38
6107,38
6108,38
6109,37
6110,37
6111,37
6112,37
6113,37
6114,37
6115,38
6116,38
6117,38
6118,38
6119,38
6120,38
6121,38
6122,39
6123,38
6124,38
6125,38
6126,38
6127,37
6128,37
6129,38
6130,38
6131,38
6132,37
6133,37
6134,37
6135,37
6136,37
6137,37
6138,37
6139,37
6140,37
6141,37
6142,37
6143,37
6144,37
6145,37
6146,37
6147,37
6148,37
6149,37
6150,37
6151,37
6152,37
6153,37
6154,37
6155,37
6156,37
6157,37
6158,38
6159,38
6160,38
6161,38
6162,38
6163,38
6164,38
6165,38
6166,38
6167,38
6168,38
6169,38
6170,38
6171,38
6172,38
6173,38
6174,38
6175,38
6176,38
6177,38
6178,38
6179,38
6180,38
6181,40
6182,40
6183,41
6184,39
6185,39
6186,38
6187,38
6188,38
6189,38
6190,38
6191,38
6192,38
6193,38
6194,38
6195,38
6196,38
6197,39
6198,39
6199,38
6200,38
6201,38
6202,38
6203,38
6204,38
6205,38
6206,38
6207,38
6208,38
6209,38
6210,38
6211,38
6212,38
6213,38
6214,38
6215,38
6216,38
6217,38
6218,39
6219,38
6220,38
6221,38
6222,38
6223,38
6224,38
6225,38
6226,39
6227,39
6228,38
6229,38
6230,38
6231,38
6232,38
6233,38
6234,38
6235,38
6236,39
6237,40
6238,40
6239,38
6240,38
6241,38
6242,38
6243,38
6244,38
6245,38
6246,38
6247,38
6248,39
6249,39
6250,38
6251,38
6252,39
6253,38
6254,38
6255,38
6256,38
6257,38
6258,38
6259,38
6260,38
6261,38
6262,39
6263,38
6264,38
6265,39
6266,39
6267,39
6268,38
6269,38
6270,38
6271,38
6272,38
6273,38
6274,37
6275,36
6276,36
6277,36
6278,36
6279,36
6280,36
6281,36
6282,36
6283,36
6284,36
6285,36
6286,36
6287,36
6288,36
6289,36
6290,36
6291,36
6292,36
6293,36
6294,37
6295,37
6296,37
6297,37
6298,37
6299,37
6300,37
6301,37
6302,36
6303,36
6304,36
6305,36
6306,36
6307,36
6308,36
6309,36
6310,37
6311,36
6312,36
6313,36
6314,36
6315,36
6316,37
6317,36
6318,36
6319,36
6320,36
6321,36
6322,36
6323,37
6324,37
6325,38
6326,37
6327,37
6328,37
6329,38
6330,38
6331,37
6332,37
6333,37
6334,37
6335,37
6336,37
6337,37
6338,37
6339,37
6340,37
6341,38
6342,38
6343,38
6344,37
6345,37
6346,38
6347,38
6348,38
6349,38
6350,38
6351,38
6352,38
6353,38
6354,38
6355,37
6356,37
6357,37
6358,37
6359,37
6360,37
6361,36
6362,36
6363,36
6364,36
6365,36
6366,36
6367,36
6368,36
6369,36
6370,36
6371,36
6372,36
6373,36
6374,36
6375,36
6376,36
6377,36
6378,36
6379,36
6380,36
6381,36
6382,36
6383,36
6384,36
6385,36
6386,36
6387,36
6388,36
6389,36
6390,36
6391,36
6392,36
6393,36
6394,36
6395,36
6396,36
6397,36
6398,36
6399,36
6400,36
6401,36
6402,36
6403,36
6404,36
6405,36
6406,36
6407,36
6408,36
6409,37
6410,36
6411,36
6412,36
6413,35
6414,35
6415,35
6416,35
6417,35
6418,35
6419,35
6420,35
6421,35
6422,35
6423,35
6424,36
6425,36
6426,36
6427,36
6428,36
6429,36
6430,35
6431,35
6432,35
6433,35
6434,35
6435,35
6436,36
6437,36
6438,35
6439,35
6440,35
6441,35
6442,35
6443,36
6444,35
6445,35
6446,35
6447,35
6448,36
6449,35
6450,35
6451,35
6452,36
6453,36
6454,36
6455,36
6456,36
6457,35
6458,35
6459,35
6460,35
6461,35
6462,35
6463,35
6464,35
6465,35
6466,35
6467,35
6468,35
6469,35
6470,35
6471,35
6472,35
6473,35
6474,35
6475,35
6476,35
6477,35
6478,35
6479,35
6480,35
6481,35
6482,36
6483,36
6484,36
6485,36
6486,35
6487,35
6488,35
6489,35
6490,35
6491,35
6492,36
6493,36
6494,36
6495,35
6496,36
6497,35
6498,35
6499,35
6500,35
6501,35
6502,36
6503,36
6504,36
6505,36
6506,36
6507,36
6508,36
6509,36
6510,36
6511,36
6512,36
6513,36
6514,36
6515,36
6516,36
6517,37
6518,37
6519,36
6520,36
6521,36
6522,36
6523,35
6524,35
6525,35
6526,35
6527,35
6528,35
6529,35
6530,35
6531,35
6532,35
6533,35
6534,35
6535,35
6536,35
6537,35
6538,35
6539,35
6540,35
6541,35
6542,35
6543,35
6544,35
6545,36
6546,35
6547,35
6548,35
6549,35
6550,35
6551,36
6552,36
6553,36
6554,36
6555,36
6556,36
6557,36
6558,36
6559,36
6560,36
6561,35
6562,35
6563,35
6564,35
6565,35
6566,35
6567,35
6568,35
6569,35
6570,35
6571,35
6572,35
6573,35
6574,35
6575,35
6576,36
6577,35
6578,35
6579,35
6580,36
6581,36
6582,36
6583,36
6584,36
6585,36
6586,35
6587,35
6588,35
6589,35
6590,35
6591,35
6592,36
6593,36
6594,35
6595,35
6596,35
6597,35
6598,35
6599,35
6600,35
6601,35
6602,35
6603,35
6604,35
6605,35
6606,35
6607,35
6608,35
6609,35
6610,35
6611,35
6612,35
6613,35
6614,35
6615,35
6616,35
6617,35
6618,35
6619,35
6620,35
6621,37
6622,35
6623,35
6624,35
6625,35
6626,35
6627,35
6628,35
6629,35
6630,35
6631,35
6632,35
6633,35
6634,35
6635,35
6636,35
6637,35
6638,36
6639,35
6640,35
6641,35
6642,35
6643,36
6644,35
6645,35
6646,35
6647,35
6648,35
6649,35
6650,35
6651,35
6652,35
6653,35
6654,35
6655,35
6656,35
6657,35
6658,35
6659,35
6660,35
6661,36
6662,36
6663,36
6664,36
6665,36
6666,36
6667,36
6668,36
6669,36
6670,36
6671,36
6672,36
6673,36
6674,36
6675,36
6676,36
6677,36
6678,36
6679,35
6680,35
6681,35
6682,35
6683,35
6684,35
6685,35
6686,35
6687,35
6688,35
6689,35
6690,35
6691,35
6692,35
6693,35
6694,35
6695,36
6696,36
6697,35
6698,35
6699,36
6700,35
6701,35
6702,35
6703,35
6704,35
6705,35
6706,35
6707,35
6708,35
6709,35
6710,35
6711,35
6712,35
6713,35
6714,35
6715,35
6716,35
6717,35
6718,35
6719,36
6720,36
6721,36
6722,36
6723,35
6724,35
6725,35
6726,35
6727,35
6728,36
6729,35
6730,35
6731,35
6732,35
6733,35
6734,35
6735,35
6736,35
6737,35
6738,35
6739,35
6740,36
6741,36
6742,35
6743,35
6744,36
6745,36
6746,36
6747,37
6748,36
6749,36
6750,35
6751,35
6752,35
6753,35
6754,35
6755,35
6756,35
6757,35
6758,35
6759,35
6760,35
6761,35
6762,35
6763,35
6764,35
6765,35
6766,35
6767,35
6768,35
6769,35
6770,36
6771,35
6772,35
6773,35
6774,35
6775,35
6776,35
6777,36
6778,36
6779,37
6780,35
6781,35
6782,35
6783,35
6784,35
6785,35
6786,36
6787,35
6788,35
6789,36
6790,35
6791,35
6792,35
6793,35
6794,35
6795,35
6796,35
6797,35
6798,35
6799,35
6800,35
6801,35
6802,35
6803,35
6804,35
6805,35
6806,35
6807,35
6808,35
6809,35
6810,35
6811,35
6812,35
6813,35
6814,35
6815,35
6816,35
6817,35
6818,35
6819,35
6820,35
6821,35
6822,35
6823,35
6824,35
6825,35
6826,35
6827,35
6828,35
6829,35
6830,35
6831,35
6832,35
6833,35
6834,35
6835,36
6836,35
6837,35
6838,35
6839,35
6840,35
6841,35
6842,36
6843,36
6844,35
6845,35
6846,35
6847,35
6848,35
6849,35
6850,35
6851,35
6852,35
6853,35
6854,35
6855,35
6856,35
6857,35
6858,35
6859,36
6860,36
6861,36
6862,36
6863,36
6864,36
6865,36
6866,37
6867,37
6868,37
6869,37
6870,37
6871,37
6872,37
6873,37
6874,37
6875,37
6876,37
6877,37
6878,37
6879,37
6880,38
6881,36
6882,36
6883,36
6884,36
6885,36
6886,36
6887,36
6888,36
6889,36
6890,36
6891,36
6892,37
6893,36
6894,36
6895,36
6896,36
6897,36
6898,36
6899,36
6900,36
6901,36
6902,37
6903,36
6904,36
6905,36
6906,36
6907,36
6908,36
6909,37
6910,36
6911,36
6912,36
6913,37
6914,37
6915,36
6916,36
6917,36
6918,36
6919,36
6920,36
6921,36
6922,36
6923,36
6924,36
6925,36
6926,36
6927,36
6928,36
6929,36
6930,37
6931,37
6932,37
6933,37
6934,37
6935,37
6936,37
6937,37
6938,37
6939,37
6940,37
6941,37
6942,37
6943,37
6944,37
6945,38
6946,38
6947,38
6948,38
6949,38
6950,38
6951,38
6952,38
6953,39
6954,39
6955,39
6956,39
6957,39
6958,39
6959,39
6960,39
6961,39
6962,38
6963,38
6964,38
6965,38
6966,39
6967,39
6968,39
6969,40
6970,40
6971,39
6972,39
6973,39
6974,39
6975,39
6976,38
6977,38
6978,38
6979,38
6980,38
6981,39
6982,38
6983,38
6984,38
6985,38
6986,38
6987,38
6988,38
6989,38
6990,39
6991,38
6992,37
6993,37
6994,38
6995,37
6996,37
6997,37
6998,37
6999,37
7000,37
7001,37
7002,37
7003,37
7004,38
7005,38
7006,38
7007,41
7008,38
7009,38
7010,38
7011,38
7012,38
7013,38
7014,38
7015,38
7016,39
7017,38
7018,38
7019,38
7020,38
7021,38
7022,38
7023,38
7024,38
7025,38
7026,38
7027,38
7028,38
7029,38
7030,38
7031,38
7032,38
7033,38
7034,38
7035,38
7036,38
7037,38
7038,38
7039,38
7040,38
7041,38
7042,38
7043,38
7044,38
7045,38
7046,39
7047,38
7048,38
7049,38
7050,38
7051,38
7052,38
7053,37
7054,37
7055,37
7056,36
7057,36
7058,36
7059,36
7060,36
7061,36
7062,36
7063,36
7064,36
7065,36
7066,36
7067,36
7068,36
7069,36
7070,36
7071,36
7072,36
7073,36
7074,36
7075,36
7076,36
7077,36
7078,37
7079,37
7080,36
7081,36
7082,36
7083,36
7084,37
7085,37
7086,37
7087,37
7088,37
7089,37
7090,36
7091,36
7092,37
7093,37
7094,36
7095,36
7096,36
7097,36
7098,36
7099,36
7100,36
7101,36
7102,36
7103,36
7104,36
7105,36
7106,36
7107,36
7108,36
7109,36
7110,36
7111,36
7112,36
7113,36
7114,36
7115,36
7116,36
7117,36
7118,36
7119,36
7120,36
7121,36
7122,36
7123,36
7124,36
7125,36
7126,36
7127,36
7128,36
7129,36
7130,36
7131,37
7132,37
7133,36
7134,36
7135,36
7136,36
7137,36
7138,36
7139,36
7140,36
7141,36
7142,36
7143,36
7144,36
7145,36
7146,36
7147,38
7148,37
7149,37
7150,37
7151,37
7152,37
7153,37
7154,38
7155,37
7156,37
7157,37
7158,37
7159,37
7160,37
7161,37
7162,38
7163,38
7164,38
7165,38
7166,37
7167,37
7168,38
7169,38
7170,38
7171,38
7172,38
7173,37
7174,37
7175,37
7176,37
7177,37
7178,37
7179,37
7180,37
7181,37
7182,38
7183,38
7184,38
7185,37
7186,37
7187,37
7188,37
7189,37
7190,37
7191,37
7192,37
7193,37
7194,37
7195,37
7196,36
7197,36
7198,36
7199,36
7200,36
7201,36
7202,36
7203,36
7204,36
7205,36
7206,36
7207,36
7208,36
7209,36
7210,36
7211,36
7212,36
7213,36
7214,36
7215,37
7216,36
7217,36
7218,36
7219,36
7220,36
7221,36
7222,36
7223,36
7224,36
7225,35
7226,35
7227,35
7228,36
7229,35
7230,35
7231,35
7232,35
7233,35
7234,35
7235,35
7236,35
7237,35
7238,35
7239,35
7240,35
7241,36
7242,36
7243,35
7244,35
7245,35
7246,35
7247,35
7248,35
7249,35
7250,35
7251,35
7252,35
7253,35
7254,35
7255,35
7256,35
7257,35
7258,35
7259,35
7260,35
7261,35
7262,35
7263,35
7264,35
7265,36
7266,35
7267,35
7268,37
7269,37
7270,37
7271,37
7272,37
7273,36
7274,36
7275,36
7276,36
7277,36
7278,36
7279,36
7280,36
7281,36
7282,36
7283,36
7284,36
7285,36
7286,36
7287,37
7288,36
7289,36
7290,36
7291,36
7292,36
7293,36
7294,36
7295,36
7296,36
7297,36
7298,36
7299,36
7300,36
7301,36
7302,36
7303,36
7304,36
7305,36
7306,37
7307,37
7308,36
7309,36
7310,36
7311,36
7312,36
7313,36
7314,36
7315,36
7316,36
7317,37
7318,37
7319,36
7320,36
7321,36
7322,37
7323,37
7324,37
7325,37
7326,36
7327,36
7328,36
7329,36
7330,36
7331,36
7332,36
7333,36
7334,36
7335,36
7336,36
7337,36
7338,36
7339,36
7340,36
7341,36
7342,36
7343,36
7344,36
7345,36
7346,36
7347,36
7348,36
7349,36
7350,37
7351,37
7352,36
7353,36
7354,36
7355,36
7356,36
7357,36
7358,36
7359,36
7360,36
7361,36
7362,36
7363,36
7364,36
7365,36
7366,36
7367,36
7368,36
7369,36
7370,36
7371,36
7372,36
7373,36
7374,36
7375,37
7376,37
7377,37
7378,37
7379,37
7380,37
7381,37
7382,36
7383,37
7384,36
7385,36
7386,36
7387,36
7388,36
7389,36
7390,36
7391,36
7392,36
7393,36
7394,36
7395,36
7396,36
7397,36
7398,36
7399,36
7400,37
7401,37
7402,37
7403,37
7404,37
7405,37
7406,37
7407,37
7408,37
7409,37
7410,37
7411,37
7412,37
7413,37
7414,38
7415,38
7416,37
7417,37
7418,37
7419,37
7420,37
7421,37
7422,37
7423,37
7424,37
7425,37
7426,37
7427,37
7428,38
7429,38
7430,38
7431,38
7432,38
7433,38
7434,38
7435,39
7436,39
7437,39
7438,38
7439,38
7440,38
7441,38
7442,38
7443,38
7444,37
7445,37
7446,37
7447,37
7448,37
7449,37
7450,37
7451,37
7452,37
7453,37
7454,37
7455,37
7456,37
7457,37
7458,37
7459,37
7460,37
7461,38
7462,37
7463,37
7464,37
7465,37
7466,37
7467,37
7468,37
7469,37
7470,37
7471,37
7472,37
7473,37
7474,37
7475,37
7476,37
7477,37
7478,37
7479,37
7480,37
7481,37
7482,37
7483,37
7484,37
7485,37
7486,37
7487,37
7488,37
7489,37
7490,37
7491,37
7492,37
7493,37
7494,37
7495,37
7496,37
7497,37
7498,37
7499,37
7500,37
7501,37
7502,37
7503,37
7504,38
7505,38
7506,37
7507,37
7508,37
7509,37
7510,37
7511,37
7512,37
7513,37
7514,37
7515,37
7516,37
7517,38
7518,38
7519,38
7520,37
7521,37
7522,37
7523,37
7524,37
7525,37
7526,37
7527,37
7528,37
7529,37
7530,37
7531,37
7532,37
7533,37
7534,37
7535,37
7536,37
7537,37
7538,37
7539,38
7540,38
7541,39
7542,38
7543,39
7544,38
7545,38
7546,38
7547,38
7548,39
7549,39
7550,39
7551,38
7552,38
7553,38
7554,38
7555,38
7556,38
7557,37
7558,37
7559,37
7560,37
7561,37
7562,37
7563,38
7564,38
7565,38
7566,37
7567,37
7568,37
7569,37
7570,37
7571,37
7572,37
7573,37
7574,37
7575,37
7576,37
7577,37
7578,37
7579,37
7580,37
7581,37
7582,37
7583,37
7584,37
7585,37
7586,37
7587,37
7588,37
7589,37
7590,37
7591,37
7592,37
7593,38
7594,37
7595,37
7596,37
7597,37
7598,37
7599,37
7600,37
7601,37
7602,38
7603,38
7604,38
7605,37
7606,37
7607,37
7608,37
7609,37
7610,37
7611,37
7612,37
7613,37
7614,37
7615,37
7616,37
7617,37
7618,37
7619,37
7620,37
7621,37
7622,37
7623,37
7624,37
7625,37
7626,37
7627,37
7628,37
7629,37
7630,37
7631,37
7632,37
7633,37
7634,37
7635,37
7636,37
7637,37
7638,37
7639,38
7640,37
7641,37
7642,37
7643,37
7644,37
7645,37
7646,37
7647,37
7648,37
7649,37
7650,37
7651,37
7652,37
7653,37
7654,37
7655,37
7656,37
7657,37
7658,37
7659,37
7660,37
7661,37
7662,37
7663,37
7664,37
7665,37
7666,37
7667,38
7668,38
7669,38
7670,37
7671,37
7672,37
7673,37
7674,37
7675,37
7676,37
7677,37
7678,37
7679,38
7680,37
7681,37
7682,37
7683,38
7684,38
7685,37
7686,37
7687,37
7688,37
7689,37
7690,37
7691,37
7692,37
7693,37
7694,37
7695,37
7696,37
7697,37
7698,37
7699,37
7700,37
7701,37
7702,37
7703,37
7704,37
7705,37
7706,37
7707,37
7708,37
7709,37
7710,37
7711,37
7712,37
7713,37
7714,38
7715,38
7716,38
7717,38
7718,38
7719,38
7720,38
7721,38
7722,38
7723,38
7724,38
7725,38
7726,38
7727,38
7728,38
7729,37
7730,37
7731,37
7732,37
7733,37
7734,37
7735,37
7736,37
7737,37
7738,37
7739,37
7740,37
7741,36
7742,37
7743,36
7744,36
7745,36
7746,36
7747,36
7748,36
7749,36
7750,36
7751,36
7752,36
7753,36
7754,36
7755,37
7756,37
7757,37
7758,37
7759,37
7760,37
7761,37
7762,37
7763,37
7764,37
7765,37
7766,37
7767,37
7768,37
7769,38
7770,38
7771,38
7772,38
7773,38
7774,38
7775,38
7776,38
7777,38
7778,38
7779,38
7780,38
7781,38
7782,38
7783,38
7784,38
7785,38
7786,38
7787,38
7788,38
7789,37
7790,37
7791,37
7792,37
7793,37
7794,37
7795,37
7796,37
7797,38
7798,37
7799,37
7800,37
7801,37
7802,37
7803,37
7804,37
7805,37
7806,37
7807,37
7808,37
7809,37
7810,37
7811,37
7812,37
7813,37
7814,38
7815,39
7816,38
7817,37
7818,37
7819,37
7820,37
7821,37
7822,37
7823,37
7824,37
7825,37
7826,37
7827,37
7828,37
7829,37
7830,37
7831,37
7832,37
7833,37
7834,37
7835,37
7836,37
7837,37
7838,37
7839,37
7840,37
7841,37
7842,37
7843,38
7844,36
7845,36
7846,36
7847,36
7848,37
7849,37
7850,37
7851,36
7852,36
7853,36
7854,36
7855,36
7856,36
7857,36
7858,36
7859,36
7860,36
7861,36
7862,37
7863,37
7864,36
7865,36
7866,36
7867,36
7868,36
7869,36
7870,36
7871,36
7872,36
7873,36
7874,36
7875,36
7876,36
7877,36
7878,36
7879,36
7880,36
7881,36
7882,36
7883,36
7884,37
7885,36
7886,36
7887,36
7888,36
7889,36
7890,37
7891,37
7892,36
7893,36
7894,36
7895,36
7896,36
7897,36
7898,36
7899,36
7900,36
7901,36
7902,36
7903,36
7904,36
7905,36
7906,36
7907,36
7908,36
7909,36
7910,36
7911,36
7912,36
7913,36
7914,36
7915,36
7916,36
7917,36
7918,36
7919,36
7920,36
7921,36
7922,36
7923,36
7924,36
7925,36
7926,36
7927,36
7928,36
7929,36
7930,36
7931,36
7932,36
7933,36
7934,36
7935,36
7936,36
7937,36
7938,37
7939,37
7940,37
7941,37
7942,37
7943,37
7944,38
7945,38
7946,38
7947,38
7948,38
7949,36
7950,36
7951,36
7952,36
7953,36
7954,36
7955,36
7956,36
7957,36
7958,36
7959,36
7960,36
7961,36
7962,36
7963,36
7964,36
7965,36
7966,36
7967,36
7968,36
7969,36
7970,36
7971,36
7972,36
7973,36
7974,36
7975,36
7976,36
7977,36
7978,36
7979,37
7980,37
7981,36
7982,36
7983,36
7984,36
7985,36
7986,36
7987,36
7988,36
7989,36
7990,36
7991,36
7992,36
7993,36
7994,36
7995,36
7996,36
7997,36
7998,36
7999,36
8000,36
8001,36
8002,36
8003,37
8004,37
8005,37
8006,37
8007,37
8008,37
8009,37
8010,37
8011,37
8012,37
8013,37
8014,37
8015,37
8016,37
8017,37
8018,38
8019,38
8020,37
8021,37
8022,36
8023,36
8024,36
8025,36
8026,37
8027,37
8028,37
8029,37
8030,37
8031,37
8032,37
8033,37
8034,37
8035,36
8036,36
8037,36
8038,36
8039,36
8040,36
8041,36
8042,36
8043,36
8044,36
8045,36
8046,36
8047,36
8048,36
8049,36
8050,36
8051,37
8052,36
8053,36
8054,36
8055,36
8056,36
8057,36
8058,36
8059,36
8060,36
8061,36
8062,36
8063,36
8064,36
8065,36
8066,37
8067,37
8068,37
8069,36
8070,36
8071,36
8072,36
8073,36
8074,36
8075,36
8076,36
8077,36
8078,36
8079,36
8080,36
8081,36
8082,36
8083,36
8084,36
8085,36
8086,36
8087,36
8088,36
8089,36
8090,36
8091,36
8092,36
8093,36
8094,36
8095,37
8096,36
8097,36
8098,36
8099,36
8100,36
8101,37
8102,36
8103,36
8104,36
8105,36
8106,36
8107,36
8108,36
8109,36
8110,36
8111,36
8112,36
8113,36
8114,37
8115,36
8116,36
8117,36
8118,36
8119,36
8120,36
8121,36
8122,36
8123,36
8124,37
8125,36
8126,36
8127,36
8128,36
8129,36
8130,36
8131,36
8132,36
8133,36
8134,36
8135,36
8136,36
8137,36
8138,36
8139,36
8140,36
8141,36
8142,36
8143,36
8144,36
8145,36
8146,36
8147,36
8148,36
8149,36
8150,36
8151,36
8152,36
8153,36
8154,36
8155,36
8156,36
8157,36
8158,36
8159,36
8160,36
8161,36
8162,36
8163,36
8164,36
8165,36
8166,36
8167,36
8168,36
8169,36
8170,36
8171,36
8172,37
8173,37
8174,37
8175,37
8176,37
8177,37
8178,37
8179,37
8180,37
8181,37
8182,37
8183,36
8184,36
8185,36
8186,36
8187,36
8188,36
8189,37
8190,37
8191,37
8192,36
8193,36
8194,36
8195,36
8196,36
8197,36
8198,36
8199,36
8200,36
8201,36
8202,36
8203,36
8204,36
8205,36
8206,36
8207,36
8208,36
8209,36
8210,37
8211,36
8212,36
8213,36
8214,36
8215,36
8216,36
8217,36
8218,36
8219,36
8220,36
8221,36
8222,36
8223,36
8224,36
8225,36
8226,37
8227,36
8228,36
8229,36
8230,36
8231,37
8232,36
8233,36
8234,36
8235,36
8236,36
8237,36
8238,36
8239,36
8240,36
8241,36
8242,36
8243,36
8244,36
8245,36
8246,36
8247,36
8248,36
8249,36
8250,37
8251,37
8252,37
8253,37
8254,37
8255,37
8256,37
8257,37
8258,37
8259,37
8260,36
8261,36
8262,36
8263,37
8264,36
8265,36
8266,36
8267,36
8268,37
8269,37
8270,37
8271,37
8272,37
8273,37
8274,37
8275,37
8276,37
8277,37
8278,37
8279,37
8280,37
8281,37
8282,38
8283,38
8284,38
8285,39
8286,39
8287,39
8288,39
8289,39
8290,39
8291,39
8292,39
8293,39
8294,39
8295,40
8296,40
8297,40
8298,41
8299,40
8300,40
8301,40
8302,39
8303,39
8304,38
8305,38
8306,38
8307,38
8308,38
8309,38
8310,38
8311,38
8312,38
8313,38
8314,38
8315,38
8316,37
8317,38
8318,38
8319,38
8320,38
8321,37
8322,37
8323,37
8324,37
8325,36
8326,36
8327,36
8328,36
8329,36
8330,36
8331,36
8332,36
8333,36
8334,37
8335,36
8336,36
8337,36
8338,36
8339,36
8340,36
8341,36
8342,36
8343,36
8344,36
8345,36
8346,36
8347,36
8348,36
8349,36
8350,36
8351,36
8352,36
8353,36
8354,36
8355,36
8356,38
8357,38
8358,38
8359,37
8360,36
8361,36
8362,36
8363,36
8364,36
8365,36
8366,36
8367,37
8368,36
8369,36
8370,37
8371,36
8372,37
8373,36
8374,36
8375,36
8376,36
8377,36
8378,36
8379,36
8380,36
8381,37
8382,36
8383,36
8384,36
8385,36
8386,36
8387,36
8388,36
8389,36
8390,36
8391,37
8392,37
8393,36
8394,36
8395,36
8396,36
8397,36
8398,36
8399,36
8400,36
8401,36
8402,37
8403,36
8404,36
8405,36
8406,36
8407,36
8408,37
8409,36
8410,36
8411,36
8412,36
8413,36
8414,36
8415,36
8416,36
8417,36
8418,36
8419,36
8420,36
8421,36
8422,36
8423,36
8424,36
8425,36
8426,36
8427,36
8428,36
8429,36
8430,36
8431,36
8432,36
8433,36
8434,36
8435,36
8436,36
8437,37
8438,37
8439,37
8440,37
8441,37
8442,37
8443,37
8444,37
8445,37
8446,37
8447,36
8448,36
8449,36
8450,37
8451,37
8452,37
8453,36
8454,36
8455,36
8456,36
8457,36
8458,36
8459,36
8460,37
8461,36
8462,36
8463,36
8464,36
8465,36
8466,37
8467,37
8468,37
8469,37
8470,36
8471,36
8472,36
8473,36
8474,37
8475,36
8476,36
8477,36
8478,36
8479,37
8480,36
8481,36
8482,36
8483,36
8484,36
8485,36
8486,36
8487,36
8488,37
8489,36
8490,36
8491,36
8492,36
8493,36
8494,36
8495,36
8496,36
8497,37
8498,36
8499,36
8500,36
8501,36
8502,36
8503,36
8504,36
8505,36
8506,36
8507,36
8508,36
8509,36
8510,36
8511,36
8512,36
8513,36
8514,37
8515,37
8516,37
8517,37
8518,37
8519,37
8520,37
8521,37
8522,37
8523,37
8524,38
8525,37
8526,37
8527,37
8528,37
8529,36
8530,36
8531,36
8532,36
8533,36
8534,36
8535,36
8536,36
8537,36
8538,36
8539,36
8540,36
8541,36
8542,36
8543,36
8544,37
8545,36
8546,36
8547,36
8548,36
8549,36
8550,36
8551,36
8552,36
8553,36
8554,36
8555,36
8556,36
8557,36
8558,36
8559,36
8560,36
8561,36
8562,36
8563,36
8564,36
8565,36
8566,36
8567,36
8568,36
8569,36
8570,36
8571,36
8572,36
8573,36
8574,36
8575,36
8576,36
8577,36
8578,36
8579,37
8580,36
8581,36
8582,37
8583,36
8584,36
8585,36
8586,36
8587,36
8588,36
8589,36
8590,36
8591,37
8592,36
8593,36
8594,36
8595,36
8596,36
8597,36
8598,36
8599,36
8600,36
8601,36
8602,36
8603,36
8604,36
8605,36
8606,36
8607,36
8608,36
8609,36
8610,36
8611,36
8612,36
8613,36
8614,36
8615,36
8616,36
8617,36
8618,36
8619,36
8620,36
8621,36
8622,36
8623,37
8624,37
8625,37
8626,36
8627,36
8628,36
8629,36
8630,36
8631,36
8632,36
8633,36
8634,37
8635,37
8636,37
8637,37
8638,36
8639,36
8640,36
8641,36
8642,36
8643,36
8644,36
8645,36
8646,36
8647,36
8648,36
8649,36
8650,36
8651,36
8652,36
8653,36
8654,36
8655,36
8656,36
8657,36
8658,36
8659,36
8660,36
8661,36
8662,36
8663,36
8664,36
8665,36
8666,36
8667,36
8668,36
8669,36
8670,36
8671,36
8672,36
8673,36
8674,36
8675,36
8676,36
8677,36
8678,36
8679,36
8680,36
8681,36
8682,36
8683,37
8684,36
8685,36
8686,36
8687,36
8688,36
8689,36
8690,36
8691,36
8692,36
8693,36
8694,36
8695,36
8696,36
8697,36
8698,36
8699,36
8700,36
8701,36
8702,36
8703,36
8704,36
8705,36
8706,36
8707,36
8708,36
8709,36
8710,36
8711,36
8712,36
8713,36
8714,37
8715,37
8716,37
8717,37
8718,37
8719,37
8720,37
8721,37
8722,36
8723,36
8724,36
8725,36
8726,36
8727,36
8728,36
8729,36
8730,36
8731,36
8732,36
8733,36
8734,36
8735,36
8736,36
8737,36
8738,36
8739,36
8740,36
8741,37
8742,37
8743,37
8744,37
8745,38
8746,37
8747,36
8748,36
8749,36
8750,36
8751,36
8752,36
8753,36
8754,36
8755,36
8756,36
8757,36
8758,36
8759,36
8760,37
8761,36
8762,36
8763,36
8764,36
8765,36
8766,36
8767,36
8768,36
8769,36
8770,37
8771,36
8772,36
8773,36
8774,36
8775,36
8776,36
8777,36
8778,36
8779,36
8780,36
8781,36
8782,36
8783,36
8784,36
8785,36
8786,36
8787,36
8788,36
8789,36
8790,36
8791,36
8792,36
8793,36
8794,36
8795,36
8796,36
8797,36
8798,36
8799,37
8800,36
8801,36
8802,36
8803,36
8804,36
8805,36
8806,36
8807,37
8808,37
8809,37
8810,37
8811,37
8812,36
8813,36
8814,36
8815,36
8816,36
8817,36
8818,36
8819,36
8820,36
8821,36
8822,36
8823,36
8824,36
8825,36
8826,37
8827,36
8828,36
8829,36
8830,36
8831,36
8832,37
8833,37
8834,36
8835,36
8836,36
8837,36
8838,36
8839,36
8840,36
8841,36
8842,36
8843,36
8844,36
8845,36
8846,36
8847,36
8848,36
8849,36
8850,36
8851,36
8852,36
8853,37
8854,37
8855,35
8856,35
8857,35
8858,35
8859,35
8860,35
8861,35
8862,35
8863,35
8864,35
8865,35
8866,35
8867,35
8868,35
8869,35
8870,35
8871,35
8872,35
8873,36
8874,36
8875,36
8876,36
8877,36
8878,36
8879,36
8880,36
8881,36
8882,37
8883,37
8884,36
8885,36
8886,36
8887,36
8888,36
8889,36
8890,36
8891,36
8892,36
8893,36
8894,36
8895,36
8896,36
8897,36
8898,36
8899,36
8900,36
8901,36
8902,36
8903,36
8904,36
8905,36
8906,36
8907,36
8908,36
8909,36
8910,36
8911,36
8912,36
8913,36
8914,36
8915,36
8916,37
8917,37
8918,37
8919,38
8920,38
8921,38
8922,38
8923,38
8924,36
8925,36
8926,36
8927,36
8928,36
8929,36
8930,36
8931,36
8932,36
8933,36
8934,36
8935,36
8936,36
8937,36
8938,36
8939,36
8940,36
8941,37
8942,36
8943,37
8944,37
8945,37
8946,37
8947,37
8948,36
8949,36
8950,36
8951,37
8952,37
8953,36
8954,36
8955,36
8956,35
8957,35
8958,35
8959,35
8960,35
8961,36
8962,36
8963,35
8964,35
8965,35
8966,35
8967,35
8968,35
8969,35
8970,35
8971,35
8972,35
8973,35
8974,35
8975,36
8976,36
8977,36
8978,36
8979,36
8980,36
8981,36
8982,36
8983,36
8984,37
8985,36
8986,36
8987,36
8988,36
8989,36
8990,36
8991,36
8992,36
8993,36
8994,36
8995,36
8996,36
8997,36
8998,36
8999,36
9000,36
9001,36
9002,36
9003,37
9004,36
9005,36
9006,36
9007,36
9008,36
9009,38
9010,38
9011,38
9012,39
9013,39
9014,39
9015,39
9016,38
9017,38
9018,38
9019,38
9020,38
9021,38
9022,38
9023,38
9024,39
9025,39
9026,38
9027,38
9028,38
9029,38
9030,38
9031,38
9032,39
9033,39
9034,38
9035,38
9036,38
9037,38
9038,38
9039,38
9040,38
9041,38
9042,38
9043,38
9044,38
9045,38
9046,38
9047,38
9048,38
9049,38
9050,38
9051,38
9052,38
9053,38
9054,38
9055,38
9056,38
9057,38
9058,38
9059,38
9060,38
9061,39
9062,40
9063,38
9064,38
9065,38
9066,38
9067,38
9068,37
9069,37
9070,37
9071,37
9072,37
9073,37
9074,37
9075,37
9076,37
9077,37
9078,37
9079,37
9080,37
9081,37
9082,37
9083,37
9084,37
9085,38
9086,38
9087,38
9088,39
9089,39
9090,39
9091,39
9092,39
9093,39
9094,38
9095,38
9096,38
9097,38
9098,38
9099,38
9100,39
9101,39
9102,39
9103,39
9104,39
9105,39
9106,39
9107,39
9108,39
9109,39
9110,39
9111,39
9112,40
9113,40
9114,39
9115,39
9116,38
9117,38
9118,38
9119,38
9120,38
9121,38
9122,38
9123,38
9124,38
9125,38
9126,38
9127,38
9128,39
9129,38
9130,38
9131,38
9132,38
9133,38
9134,38
9135,38
9136,38
9137,38
9138,38
9139,37
9140,37
9141,38
9142,38
9143,38
9144,38
9145,38
9146,37
9147,37
9148,37
9149,37
9150,38
9151,38
9152,38
9153,38
9154,37
9155,37
9156,37
9157,37
9158,37
9159,37
9160,37
9161,37
9162,37
9163,37
9164,37
9165,37
9166,37
9167,37
9168,37
9169,37
9170,37
9171,37
9172,37
9173,37
9174,38
9175,38
9176,37
9177,37
9178,37
9179,37
9180,37
9181,37
9182,37
9183,37
9184,37
9185,37
9186,38
9187,38
9188,38
9189,38
9190,37
9191,37
9192,37
9193,37
9194,37
9195,37
9196,37
9197,38
9198,38
9199,38
9200,38
9201,38
9202,38
9203,37
9204,37
9205,37
9206,37
9207,37
9208,37
9209,37
9210,37
9211,37
9212,37
9213,37
9214,37
9215,37
9216,37
9217,37
9218,37
9219,37
9220,37
9221,37
9222,37
9223,37
9224,37
9225,37
9226,37
9227,37
9228,37
9229,37
9230,37
9231,37
9232,37
9233,37
9234,37
9235,37
9236,37
9237,37
9238,37
9239,37
9240,37
9241,37
9242,37
9243,37
9244,37
9245,37
9246,37
9247,37
9248,37
9249,37
9250,37
9251,37
9252,37
9253,37
9254,37
9255,37
9256,37
9257,37
9258,37
9259,37
9260,37
9261,37
9262,37
9263,37
9264,37
9265,37
9266,37
9267,37
9268,37
9269,38
9270,37
9271,37
9272,37
9273,37
9274,37
9275,37
9276,37
9277,37
9278,37
9279,37
9280,37
9281,37
9282,37
9283,37
9284,37
9285,37
9286,37
9287,37
9288,37
9289,37
9290,37
9291,37
9292,37
9293,37
9294,37
9295,37
9296,37
9297,37
9298,37
9299,37
9300,37
9301,37
9302,37
9303,37
9304,37
9305,37
9306,37
9307,37
9308,37
9309,37
9310,37
9311,37
9312,37
9313,37
9314,37
9315,37
9316,37
9317,38
9318,37
9319,37
9320,37
9321,37
9322,38
9323,38
9324,39
9325,38
9326,37
9327,37
9328,37
9329,37
9330,37
9331,37
9332,37
9333,37
9334,37
9335,37
9336,37
9337,37
9338,37
9339,37
9340,37
9341,38
9342,38
9343,39
9344,38
9345,38
9346,38
9347,38
9348,38
9349,39
9350,39
9351,39
9352,38
9353,38
9354,38
9355,38
9356,38
9357,38
9358,38
9359,38
9360,38
9361,38
9362,38
9363,38
9364,38
9365,38
9366,38
9367,38
9368,39
9369,39
9370,38
9371,38
9372,38
9373,38
9374