1,3
2,3
3,3
4,3
5,4
6,4
7,4
8,4
9,4
10,4
11,4
12,4
13,4
14,4
15,4
16,4
17,4
18,4
19,4
20,4
21,4
22,4
23,4
24,4
25,4
26,5
27,5
28,5
29,5
30,5
31,5
32,5
33,5
34,5
35,5
36,5
37,5
38,5
39,5
40,5
41,5
42,5
43,5
44,5
45,5
46,5
47,5
48,5
49,5
50,5
51,5
52,5
53,5
54,5
55,5
56,5
57,5
58,5
59,5
60,5
61,5
62,5
63,5
64,5
65,5
66,5
67,6
68,6
69,6
70,6
71,6
72,6
73,6
74,6
75,6
76,6
77,6
78,6
79,6
80,6
81,6
82,6
83,6
84,7
85,6
86,6
87,6
88,6
89,6
90,6
91,6
92,6
93,6
94,6
95,6
96,6
97,7
98,7
99,7
100,7
101,7
102,7
103,7
104,7
105,7
106,7
107,7
108,7
109,7
110,7
111,7
112,8
113,8
114,7
115,7
116,7
117,7
118,7
119,7
120,7
121,7
122,7
123,7
124,7
125,7
126,7
127,7
128,7
129,7
130,7
131,7
132,7
133,7
134,7
135,7
136,7
137,8
138,8
139,8
140,8
141,8
142,8
143,8
144,8
145,8
146,8
147,8
148,8
149,8
150,8
151,8
152,8
153,8
154,8
155,8
156,8
157,8
158,8
159,8
160,8
161,8
162,8
163,9
164,8
165,8
166,8
167,8
168,8
169,8
170,8
171,8
172,8
173,8
174,8
175,8
176,8
177,8
178,8
179,8
180,8
181,8
182,8
183,8
184,8
185,8
186,8
187,9
188,8
189,8
190,8
191,9
192,9
193,9
194,9
195,8
196,8
197,8
198,8
199,8
200,8
201,9
202,9
203,9
204,9
205,9
206,9
207,9
208,9
209,9
210,9
211,9
212,9
213,9
214,10
215,10
216,9
217,9
218,9
219,9
220,9
221,9
222,9
223,9
224,9
225,9
226,9
227,9
228,9
229,9
230,9
231,9
232,9
233,9
234,9
235,9
236,9
237,9
238,9
239,9
240,9
241,9
242,9
243,9
244,9
245,9
246,9
247,9
248,10
249,10
250,9
251,9
252,9
253,9
254,9
255,9
256,9
257,9
258,9
259,9
260,9
261,9
262,9
263,9
264,10
265,9
266,9
267,9
268,9
269,10
270,10
271,10
272,10
273,10
274,11
275,11
276,12
277,12
278,11
279,11
280,11
281,11
282,10
283,10
284,10
285,10
286,10
287,10
288,10
289,10
290,10
291,10
292,10
293,10
294,10
295,10
296,10
297,10
298,10
299,10
300,10
301,10
302,11
303,11
304,11
305,11
306,11
307,10
308,10
309,10
310,10
311,10
312,10
313,10
314,10
315,10
316,11
317,10
318,10
319,10
320,10
321,10
322,10
323,10
324,10
325,10
326,10
327,10
328,10
329,10
330,10
331,10
332,10
333,10
334,10
335,10
336,10
337,10
338,10
339,10
340,10
341,10
342,10
343,10
344,10
345,10
346,10
347,10
348,10
349,11
350,11
351,11
352,11
353,11
354,11
355,11
356,11
357,12
358,12
359,11
360,11
361,11
362,11
363,11
364,11
365,11
366,11
367,11
368,11
369,11
370,11
371,11
372,11
373,11
374,11
375,11
376,11
377,11
378,11
379,11
380,11
381,11
382,11
383,11
384,11
385,11
386,11
387,11
388,11
389,11
390,11
391,11
392,11
393,11
394,11
395,11
396,11
397,11
398,11
399,11
400,11
401,11
402,11
403,11
404,11
405,11
406,11
407,11
408,12
409,11
410,11
411,11
412,11
413,11
414,11
415,11
416,11
417,11
418,11
419,11
420,11
421,11
422,11
423,11
424,11
425,11
426,11
427,11
428,11
429,11
430,12
431,11
432,11
433,11
434,11
435,11
436,11
437,11
438,11
439,11
440,11
441,11
442,12
443,12
444,12
445,11
446,11
447,11
448,11
449,11
450,11
451,11
452,11
453,11
454,11
455,11
456,11
457,11
458,11
459,11
460,11
461,11
462,11
463,11
464,11
465,11
466,11
467,11
468,11
469,11
470,11
471,11
472,11
473,11
474,12
475,12
476,12
477,13
478,13
479,11
480,11
481,11
482,11
483,11
484,11
485,11
486,11
487,11
488,11
489,13
490,12
491,11
492,11
493,11
494,11
495,11
496,11
497,11
498,11
499,11
500,12
501,11
502,11
503,11
504,12
505,11
506,11
507,11
508,11
509,11
510,11
511,11
512,11
513,11
514,11
515,11
516,11
517,11
518,11
519,11
520,11
521,11
522,11
523,12
524,12
525,13
526,12
527,12
528,13
529,13
530,12
531,13
532,12
533,12
534,12
535,12
536,12
537,12
538,12
539,12
540,12
541,12
542,12
543,12
544,12
545,12
546,12
547,12
548,12
549,13
550,13
551,12
552,12
553,13
554,13
555,13
556,14
557,15
558,15
559,15
560,15
561,15
562,14
563,14
564,14
565,14
566,14
567,14
568,14
569,14
570,14
571,14
572,14
573,13
574,13
575,13
576,13
577,13
578,13
579,13
580,13
581,13
582,14
583,14
584,14
585,15
586,16
587,15
588,14
589,14
590,14
591,14
592,14
593,14
594,14
595,14
596,14
597,14
598,14
599,14
600,14
601,14
602,14
603,14
604,14
605,14
606,14
607,14
608,14
609,14
610,15
611,15
612,15
613,15
614,15
615,15
616,15
617,15
618,15
619,15
620,16
621,16
622,16
623,16
624,15
625,15
626,15
627,16
628,15
629,15
630,15
631,14
632,14
633,14
634,14
635,14
636,14
637,14
638,15
639,15
640,14
641,14
642,14
643,14
644,14
645,14
646,14
647,14
648,14
649,14
650,14
651,14
652,14
653,14
654,14
655,14
656,14
657,14
658,14
659,14
660,14
661,14
662,14
663,14
664,14
665,14
666,14
667,14
668,14
669,14
670,14
671,14
672,14
673,14
674,14
675,14
676,14
677,14
678,14
679,14
680,14
681,14
682,14
683,14
684,14
685,14
686,14
687,14
688,14
689,14
690,14
691,14
692,14
693,14
694,14
695,14
696,14
697,14
698,14
699,14
700,14
701,14
702,14
703,14
704,14
705,14
706,14
707,14
708,14
709,14
710,14
711,14
712,14
713,14
714,15
715,14
716,14
717,14
718,14
719,14
720,14
721,14
722,14
723,14
724,15
725,15
726,15
727,14
728,14
729,14
730,14
731,14
732,14
733,14
734,14
735,14
736,14
737,14
738,14
739,15
740,15
741,15
742,15
743,14
744,14
745,14
746,14
747,14
748,14
749,14
750,14
751,14
752,14
753,14
754,14
755,14
756,14
757,14
758,14
759,14
760,14
761,14
762,14
763,14
764,14
765,14
766,14
767,14
768,14
769,14
770,14
771,14
772,14
773,14
774,14
775,14
776,14
777,14
778,14
779,14
780,14
781,14
782,14
783,14
784,14
785,14
786,14
787,14
788,14
789,14
790,14
791,14
792,14
793,14
794,14
795,14
796,14
797,14
798,14
799,14
800,14
801,14
802,14
803,14
804,15
805,15
806,15
807,15
808,15
809,14
810,14
811,14
812,14
813,14
814,14
815,14
816,14
817,14
818,14
819,14
820,14
821,14
822,14
823,14
824,14
825,14
826,14
827,14
828,14
829,14
830,14
831,14
832,14
833,14
834,14
835,14
836,14
837,16
838,16
839,15
840,14
841,14
842,14
843,14
844,14
845,14
846,14
847,14
848,14
849,14
850,14
851,14
852,14
853,14
854,14
855,14
856,14
857,14
858,14
859,14
860,14
861,14
862,14
863,14
864,14
865,14
866,14
867,14
868,14
869,14
870,14
871,14
872,14
873,15
874,14
875,14
876,14
877,14
878,14
879,14
880,14
881,14
882,14
883,14
884,14
885,14
886,15
887,15
888,15
889,14
890,14
891,14
892,14
893,14
894,14
895,14
896,14
897,14
898,14
899,14
900,14
901,14
902,14
903,14
904,14
905,14
906,14
907,14
908,14
909,14
910,14
911,14
912,14
913,14
914,14
915,14
916,14
917,14
918,14
919,14
920,14
921,14
922,14
923,14
924,14
925,14
926,14
927,14
928,14
929,14
930,14
931,14
932,14
933,14
934,14
935,14
936,14
937,14
938,14
939,15
940,14
941,14
942,14
943,14
944,15
945,14
946,14
947,14
948,14
949,14
950,15
951,15
952,15
953,15
954,15
955,15
956,15
957,14
958,14
959,14
960,14
961,14
962,14
963,14
964,14
965,14
966,14
967,14
968,14
969,14
970,14
971,14
972,14
973,14
974,14
975,14
976,14
977,14
978,14
979,14
980,14
981,14
982,14
983,14
984,14
985,14
986,14
987,14
988,14
989,14
990,14
991,14
992,14
993,14
994,14
995,15
996,15
997,15
998,15
999,15
1000,15
1001,15
1002,15
1003,15
1004,15
1005,15
1006,15
1007,15
1008,15
1009,15
1010,15
1011,16
1012,15
1013,15
1014,15
1015,15
1016,15
1017,15
1018,15
1019,15
1020,15
1021,15
1022,15
1023,15
1024,15
1025,16
1026,16
1027,16
1028,16
1029,15
1030,15
1031,15
1032,15
1033,15
1034,15
1035,15
1036,15
1037,15
1038,15
1039,15
1040,15
1041,16
1042,16
1043,16
1044,15
1045,15
1046,15
1047,16
1048,16
1049,16
1050,16
1051,16
1052,18
1053,16
1054,16
1055,16
1056,16
1057,16
1058,16
1059,16
1060,16
1061,16
1062,16
1063,17
1064,18
1065,17
1066,16
1067,16
1068,16
1069,16
1070,16
1071,16
1072,17
1073,18
1074,18
1075,18
1076,19
1077,17
1078,17
1079,18
1080,18
1081,18
1082,18
1083,18
1084,18
1085,18
1086,18
1087,18
1088,18
1089,18
1090,18
1091,18
1092,19
1093,18
1094,18
1095,19
1096,19
1097,19
1098,19
1099,19
1100,19
1101,19
1102,19
1103,19
1104,18
1105,18
1106,19
1107,19
1108,19
1109,19
1110,19
1111,19
1112,19
1113,18
1114,18
1115,18
1116,18
1117,18
1118,18
1119,18
1120,18
1121,18
1122,18
1123,18
1124,18
1125,18
1126,18
1127,18
1128,18
1129,18
1130,18
1131,18
1132,18
1133,18
1134,18
1135,18
1136,18
1137,18
1138,19
1139,19
1140,19
1141,19
1142,19
1143,19
1144,19
1145,20
1146,19
1147,19
1148,19
1149,19
1150,19
1151,19
1152,19
1153,19
1154,19
1155,19
1156,19
1157,19
1158,19
1159,20
1160,19
1161,19
1162,19
1163,19
1164,19
1165,19
1166,19
1167,19
1168,19
1169,19
1170,19
1171,19
1172,19
1173,19
1174,19
1175,19
1176,19
1177,19
1178,19
1179,19
1180,19
1181,19
1182,19
1183,19
1184,19
1185,19
1186,19
1187,19
1188,19
1189,19
1190,19
1191,19
1192,19
1193,19
1194,19
1195,19
1196,19
1197,19
1198,20
1199,19
1200,19
1201,19
1202,19
1203,19
1204,19
1205,19
1206,19
1207,19
1208,19
1209,19
1210,19
1211,19
1212,19
1213,19
1214,19
1215,19
1216,19
1217,19
1218,19
1219,19
1220,19
1221,19
1222,19
1223,19
1224,19
1225,19
1226,19
1227,19
1228,19
1229,19
1230,19
1231,19
1232,19
1233,19
1234,19
1235,19
1236,19
1237,19
1238,19
1239,19
1240,19
1241,19
1242,19
1243,19
1244,19
1245,19
1246,19
1247,19
1248,19
1249,19
1250,19
1251,19
1252,19
1253,19
1254,19
1255,19
1256,19
1257,19
1258,19
1259,19
1260,19
1261,19
1262,19
1263,19
1264,19
1265,19
1266,19
1267,19
1268,19
1269,19
1270,19
1271,19
1272,19
1273,19
1274,19
1275,19
1276,19
1277,19
1278,19
1279,19
1280,19
1281,19
1282,19
1283,19
1284,19
1285,19
1286,19
1287,19
1288,19
1289,19
1290,19
1291,19
1292,19
1293,19
1294,19
1295,19
1296,19
1297,19
1298,19
1299,19
1300,19
1301,19
1302,19
1303,19
1304,19
1305,19
1306,19
1307,19
1308,19
1309,19
1310,19
1311,19
1312,19
1313,19
1314,19
1315,19
1316,19
1317,19
1318,20
1319,19
1320,19
1321,19
1322,19
1323,19
1324,19
1325,19
1326,19
1327,19
1328,19
1329,19
1330,19
1331,19
1332,19
1333,19
1334,19
1335,19
1336,19
1337,19
1338,19
1339,19
1340,19
1341,20
1342,20
1343,20
1344,20
1345,20
1346,20
1347,20
1348,20
1349,20
1350,20
1351,20
1352,20
1353,21
1354,20
1355,20
1356,20
1357,20
1358,20
1359,20
1360,20
1361,20
1362,21
1363,21
1364,21
1365,20
1366,20
1367,20
1368,20
1369,20
1370,20
1371,20
1372,20
1373,20
1374,20
1375,21
1376,20
1377,20
1378,20
1379,20
1380,20
1381,20
1382,20
1383,20
1384,20
1385,20
1386,20
1387,20
1388,20
1389,20
1390,20
1391,20
1392,20
1393,20
1394,20
1395,20
1396,20
1397,20
1398,21
1399,20
1400,20
1401,20
1402,20
1403,20
1404,20
1405,20
1406,20
1407,21
1408,21
1409,20
1410,20
1411,21
1412,21
1413,20
1414,20
1415,20
1416,20
1417,20
1418,20
1419,20
1420,20
1421,20
1422,20
1423,20
1424,20
1425,20
1426,20
1427,21
1428,21
1429,20
1430,20
1431,20
1432,20
1433,20
1434,20
1435,21
1436,21
1437,21
1438,21
1439,21
1440,21
1441,21
1442,21
1443,20
1444,20
1445,20
1446,20
1447,20
1448,20
1449,20
1450,20
1451,20
1452,20
1453,20
1454,20
1455,20
1456,20
1457,20
1458,20
1459,20
1460,20
1461,20
1462,20
1463,20
1464,20
1465,20
1466,20
1467,20
1468,20
1469,20
1470,20
1471,20
1472,20
1473,20
1474,20
1475,21
1476,20
1477,20
1478,20
1479,20
1480,20
1481,20
1482,20
1483,20
1484,20
1485,20
1486,20
1487,20
1488,20
1489,20
1490,20
1491,20
1492,20
1493,20
1494,20
1495,20
1496,21
1497,21
1498,21
1499,21
1500,21
1501,21
1502,21
1503,21
1504,21
1505,21
1506,21
1507,20
1508,21
1509,21
1510,21
1511,21
1512,21
1513,20
1514,20
1515,20
1516,20
1517,20
1518,20
1519,20
1520,20
1521,20
1522,20
1523,21
1524,21
1525,21
1526,20
1527,20
1528,20
1529,20
1530,20
1531,20
1532,20
1533,20
1534,21
1535,21
1536,21
1537,21
1538,21
1539,21
1540,21
1541,21
1542,21
1543,21
1544,21
1545,22
1546,21
1547,21
1548,21
1549,21
1550,21
1551,21
1552,21
1553,21
1554,21
1555,21
1556,21
1557,21
1558,21
1559,21
1560,21
1561,21
1562,21
1563,21
1564,21
1565,21
1566,21
1567,21
1568,21
1569,21
1570,22
1571,21
1572,21
1573,21
1574,22
1575,22
1576,22
1577,21
1578,21
1579,21
1580,21
1581,21
1582,21
1583,21
1584,21
1585,21
1586,22
1587,22
1588,21
1589,21
1590,21
1591,21
1592,21
1593,21
1594,21
1595,21
1596,21
1597,21
1598,21
1599,21
1600,21
1601,21
1602,21
1603,21
1604,21
1605,21
1606,21
1607,21
1608,21
1609,21
1610,21
1611,22
1612,21
1613,21
1614,21
1615,21
1616,21
1617,21
1618,22
1619,21
1620,21
1621,21
1622,21
1623,21
1624,21
1625,21
1626,22
1627,22
1628,22
1629,22
1630,22
1631,22
1632,22
1633,22
1634,22
1635,22
1636,22
1637,22
1638,22
1639,22
1640,22
1641,22
1642,22
1643,23
1644,23
1645,22
1646,22
1647,22
1648,22
1649,22
1650,22
1651,22
1652,22
1653,22
1654,22
1655,23
1656,22
1657,22
1658,22
1659,22
1660,22
1661,22
1662,22
1663,22
1664,22
1665,22
1666,22
1667,22
1668,22
1669,22
1670,22
1671,22
1672,22
1673,22
1674,22
1675,22
1676,22
1677,23
1678,23
1679,23
1680,23
1681,23
1682,23
1683,23
1684,23
1685,23
1686,22
1687,22
1688,22
1689,22
1690,22
1691,22
1692,23
1693,22
1694,22
1695,22
1696,22
1697,22
1698,22
1699,22
1700,22
1701,22
1702,22
1703,22
1704,22
1705,22
1706,22
1707,22
1708,22
1709,22
1710,23
1711,23
1712,24
1713,23
1714,23
1715,23
1716,24
1717,24
1718,24
1719,25
1720,24
1721,24
1722,24
1723,24
1724,24
1725,24
1726,24
1727,24
1728,24
1729,24
1730,24
1731,23
1732,23
1733,23
1734,23
1735,22
1736,22
1737,22
1738,22
1739,22
1740,22
1741,22
1742,23
1743,23
1744,23
1745,23
1746,23
1747,23
1748,23
1749,23
1750,23
1751,23
1752,23
1753,23
1754,23
1755,23
1756,23
1757,23
1758,23
1759,23
1760,23
1761,23
1762,23
1763,23
1764,23
1765,22
1766,22
1767,22
1768,22
1769,22
1770,22
1771,22
1772,22
1773,22
1774,22
1775,22
1776,22
1777,23
1778,23
1779,23
1780,22
1781,22
1782,23
1783,22
1784,22
1785,22
1786,22
1787,22
1788,22
1789,22
1790,22
1791,22
1792,22
1793,22
1794,22
1795,22
1796,22
1797,22
1798,22
1799,22
1800,22
1801,22
1802,22
1803,22
1804,22
1805,22
1806,22
1807,22
1808,22
1809,22
1810,22
1811,22
1812,22
1813,22
1814,22
1815,22
1816,22
1817,22
1818,22
1819,22
1820,22
1821,22
1822,22
1823,22
1824,22
1825,22
1826,22
1827,22
1828,22
1829,22
1830,22
1831,22
1832,22
1833,22
1834,22
1835,22
1836,22
1837,23
1838,22
1839,23
1840,23
1841,23
1842,23
1843,23
1844,22
1845,22
1846,22
1847,22
1848,22
1849,23
1850,22
1851,22
1852,22
1853,22
1854,22
1855,22
1856,22
1857,22
1858,22
1859,22
1860,22
1861,22
1862,22
1863,22
1864,22
1865,22
1866,22
1867,22
1868,22
1869,22
1870,23
1871,22
1872,22
1873,22
1874,22
1875,22
1876,22
1877,22
1878,22
1879,22
1880,22
1881,22
1882,22
1883,22
1884,22
1885,22
1886,22
1887,22
1888,22
1889,22
1890,22
1891,22
1892,22
1893,22
1894,22
1895,22
1896,22
1897,22
1898,22
1899,22
1900,22
1901,22
1902,22
1903,22
1904,22
1905,22
1906,22
1907,22
1908,22
1909,22
1910,22
1911,22
1912,22
1913,22
1914,22
1915,22
1916,22
1917,22
1918,22
1919,22
1920,22
1921,22
1922,23
1923,22
1924,22
1925,22
1926,22
1927,22
1928,22
1929,22
1930,22
1931,22
1932,22
1933,22
1934,22
1935,22
1936,22
1937,22
1938,22
1939,22
1940,22
1941,22
1942,22
1943,22
1944,22
1945,22
1946,22
1947,22
1948,22
1949,22
1950,22
1951,22
1952,22
1953,22
1954,22
1955,22
1956,22
1957,22
1958,22
1959,22
1960,22
1961,22
1962,22
1963,22
1964,22
1965,22
1966,22
1967,22
1968,22
1969,22
1970,22
1971,22
1972,22
1973,22
1974,22
1975,22
1976,22
1977,22
1978,22
1979,22
1980,22
1981,22
1982,22
1983,22
1984,23
1985,22
1986,22
1987,22
1988,22
1989,22
1990,23
1991,23
1992,24
1993,23
1994,23
1995,23
1996,23
1997,23
1998,23
1999,24
2000,24
2001,24
2002,24
2003,24
2004,24
2005,24
2006,24
2007,23
2008,24
2009,24
2010,24
2011,24
2012,24
2013,24
2014,24
2015,24
2016,24
2017,23
2018,23
2019,23
2020,23
2021,23
2022,23
2023,23
2024,23
2025,23
2026,23
2027,23
2028,23
2029,23
2030,23
2031,23
2032,23
2033,23
2034,23
2035,23
2036,23
2037,23
2038,23
2039,23
2040,23
2041,23
2042,23
2043,23
2044,23
2045,23
2046,23
2047,23
2048,23
2049,23
2050,23
2051,23
2052,23
2053,23
2054,23
2055,23
2056,23
2057,23
2058,23
2059,24
2060,24
2061,24
2062,24
2063,24
2064,24
2065,24
2066,24
2067,24
2068,24
2069,24
2070,24
2071,24
2072,24
2073,24
2074,24
2075,24
2076,24
2077,24
2078,24
2079,24
2080,25
2081,25
2082,25
2083,25
2084,25
2085,25
2086,25
2087,25
2088,25
2089,25
2090,25
2091,25
2092,25
2093,25
2094,25
2095,25
2096,25
2097,25
2098,26
2099,26
2100,26
2101,26
2102,26
2103,26
2104,26
2105,25
2106,25
2107,25
2108,25
2109,25
2110,26
2111,25
2112,25
2113,25
2114,25
2115,25
2116,25
2117,25
2118,25
2119,25
2120,26
2121,26
2122,25
2123,25
2124,25
2125,25
2126,25
2127,25
2128,25
2129,25
2130,25
2131,25
2132,25
2133,25
2134,25
2135,25
2136,25
2137,25
2138,25
2139,25
2140,25
2141,25
2142,25
2143,25
2144,25
2145,25
2146,25
2147,25
2148,26
2149,26
2150,26
2151,26
2152,25
2153,25
2154,25
2155,25
2156,25
2157,25
2158,25
2159,25
2160,25
2161,25
2162,25
2163,25
2164,25
2165,25
2166,25
2167,25
2168,25
2169,26
2170,26
2171,26
2172,26
2173,26
2174,26
2175,26
2176,26
2177,26
2178,26
2179,26
2180,26
2181,27
2182,27
2183,27
2184,28
2185,28
2186,27
2187,27
2188,27
2189,27
2190,26
2191,26
2192,26
2193,26
2194,26
2195,26
2196,26
2197,26
2198,26
2199,26
2200,26
2201,26
2202,26
2203,26
2204,26
2205,26
2206,26
2207,26
2208,26
2209,26
2210,26
2211,26
2212,26
2213,26
2214,26
2215,26
2216,27
2217,26
2218,26
2219,27
2220,27
2221,26
2222,26
2223,26
2224,26
2225,26
2226,26
2227,26
2228,26
2229,26
2230,26
2231,26
2232,26
2233,26
2234,26
2235,26
2236,26
2237,26
2238,27
2239,27
2240,27
2241,27
2242,27
2243,27
2244,27
2245,27
2246,27
2247,27
2248,27
2249,27
2250,27
2251,27
2252,27
2253,28
2254,27
2255,27
2256,27
2257,27
2258,27
2259,27
2260,27
2261,27
2262,27
2263,27
2264,27
2265,27
2266,27
2267,27
2268,27
2269,27
2270,27
2271,27
2272,27
2273,27
2274,27
2275,27
2276,27
2277,27
2278,27
2279,27
2280,28
2281,27
2282,27
2283,28
2284,27
2285,27
2286,27
2287,27
2288,27
2289,27
2290,27
2291,27
2292,27
2293,27
2294,27
2295,27
2296,27
2297,28
2298,28
2299,28
2300,28
2301,28
2302,28
2303,27
2304,27
2305,27
2306,27
2307,27
2308,27
2309,27
2310,27
2311,27
2312,27
2313,27
2314,27
2315,27
2316,27
2317,27
2318,27
2319,27
2320,27
2321,27
2322,27
2323,28
2324,27
2325,27
2326,28
2327,27
2328,27
2329,27
2330,27
2331,27
2332,27
2333,27
2334,27
2335,27
2336,27
2337,27
2338,27
2339,27
2340,27
2341,27
2342,27
2343,27
2344,27
2345,28
2346,28
2347,27
2348,27
2349,27
2350,28
2351,28
2352,28
2353,27
2354,27
2355,27
2356,27
2357,27
2358,27
2359,27
2360,27
2361,27
2362,27
2363,27
2364,27
2365,27
2366,28
2367,28
2368,28
2369,28
2370,28
2371,28
2372,27
2373,27
2374,27
2375,27
2376,27
2377,27
2378,27
2379,27
2380,27
2381,27
2382,27
2383,27
2384,27
2385,27
2386,27
2387,27
2388,27
2389,27
2390,27
2391,27
2392,27
2393,27
2394,27
2395,27
2396,28
2397,27
2398,27
2399,27
2400,27
2401,27
2402,27
2403,27
2404,27
2405,27
2406,28
2407,27
2408,27
2409,27
2410,27
2411,27
2412,27
2413,27
2414,27
2415,27
2416,27
2417,27
2418,27
2419,27
2420,27
2421,27
2422,27
2423,27
2424,27
2425,27
2426,27
2427,27
2428,27
2429,27
2430,27
2431,27
2432,27
2433,27
2434,27
2435,27
2436,27
2437,27
2438,27
2439,27
2440,27
2441,27
2442,27
2443,27
2444,27
2445,27
2446,27
2447,27
2448,27
2449,27
2450,27
2451,27
2452,27
2453,28
2454,27
2455,27
2456,27
2457,27
2458,27
2459,27
2460,27
2461,27
2462,27
2463,27
2464,27
2465,27
2466,27
2467,27
2468,27
2469,27
2470,27
2471,28
2472,29
2473,28
2474,27
2475,27
2476,27
2477,27
2478,27
2479,27
2480,27
2481,27
2482,27
2483,27
2484,27
2485,27
2486,27
2487,27
2488,27
2489,27
2490,28
2491,28
2492,27
2493,27
2494,27
2495,27
2496,27
2497,27
2498,27
2499,27
2500,28
2501,28
2502,28
2503,28
2504,27
2505,27
2506,27
2507,27
2508,27
2509,27
2510,27
2511,27
2512,27
2513,27
2514,27
2515,27
2516,27
2517,27
2518,27
2519,27
2520,27
2521,27
2522,27
2523,27
2524,27
2525,27
2526,27
2527,27
2528,27
2529,27
2530,27
2531,27
2532,27
2533,27
2534,27
2535,27
2536,27
2537,27
2538,27
2539,27
2540,27
2541,27
2542,27
2543,27
2544,27
2545,27
2546,27
2547,27
2548,27
2549,27
2550,27
2551,27
2552,27
2553,27
2554,27
2555,27
2556,27
2557,27
2558,27
2559,27
2560,27
2561,27
2562,27
2563,27
2564,27
2565,27
2566,27
2567,27
2568,27
2569,28
2570,28
2571,28
2572,28
2573,28
2574,28
2575,28
2576,28
2577,28
2578,28
2579,28
2580,28
2581,28
2582,28
2583,28
2584,28
2585,29
2586,29
2587,28
2588,28
2589,28
2590,28
2591,29
2592,28
2593,28
2594,28
2595,28
2596,28
2597,28
2598,28
2599,28
2600,28
2601,28
2602,28
2603,28
2604,28
2605,28
2606,28
2607,28
2608,28
2609,28
2610,28
2611,28
2612,28
2613,28
2614,28
2615,28
2616,28
2617,28
2618,28
2619,28
2620,28
2621,28
2622,28
2623,28
2624,28
2625,28
2626,28
2627,28
2628,28
2629,28
2630,28
2631,28
2632,28
2633,28
2634,28
2635,28
2636,28
2637,28
2638,28
2639,28
2640,28
2641,28
2642,28
2643,28
2644,28
2645,28
2646,28
2647,28
2648,28
2649,28
2650,28
2651,28
2652,29
2653,29
2654,28
2655,28
2656,28
2657,28
2658,28
2659,29
2660,29
2661,29
2662,28
2663,28
2664,28
2665,28
2666,28
2667,28
2668,29
2669,28
2670,28
2671,28
2672,29
2673,28
2674,29
2675,29
2676,29
2677,28
2678,28
2679,28
2680,28
2681,28
2682,28
2683,28
2684,28
2685,28
2686,28
2687,28
2688,28
2689,28
2690,28
2691,28
2692,28
2693,28
2694,28
2695,28
2696,28
2697,28
2698,28
2699,28
2700,28
2701,28
2702,28
2703,29
2704,30
2705,29
2706,29
2707,29
2708,29
2709,29
2710,29
2711,29
2712,29
2713,29
2714,29
2715,30
2716,29
2717,29
2718,29
2719,29
2720,28
2721,28
2722,28
2723,28
2724,28
2725,28
2726,28
2727,28
2728,28
2729,28
2730,28
2731,28
2732,28
2733,28
2734,28
2735,28
2736,28
2737,28
2738,28
2739,28
2740,28
2741,28
2742,28
2743,28
2744,29
2745,29
2746,29
2747,29
2748,29
2749,29
2750,29
2751,28
2752,28
2753,28
2754,28
2755,28
2756,28
2757,28
2758,28
2759,28
2760,29
2761,28
2762,28
2763,28
2764,28
2765,28
2766,29
2767,28
2768,28
2769,29
2770,29
2771,29
2772,29
2773,29
2774,30
2775,29
2776,29
2777,29
2778,29
2779,29
2780,29
2781,29
2782,29
2783,29
2784,29
2785,29
2786,29
2787,29
2788,29
2789,29
2790,29
2791,30
2792,31
2793,31
2794,31
2795,33
2796,32
2797,30
2798,30
2799,30
2800,30
2801,30
2802,31
2803,30
2804,30
2805,30
2806,30
2807,30
2808,30
2809,29
2810,29
2811,29
2812,29
2813,29
2814,29
2815,29
2816,29
2817,29
2818,29
2819,29
2820,29
2821,29
2822,29
2823,29
2824,29
2825,30
2826,29
2827,29
2828,29
2829,29
2830,29
2831,29
2832,29
2833,30
2834,30
2835,30
2836,29
2837,29
2838,29
2839,29
2840,29
2841,29
2842,29
2843,29
2844,29
2845,29
2846,29
2847,29
2848,29
2849,29
2850,29
2851,29
2852,29
2853,29
2854,29
2855,29
2856,29
2857,29
2858,29
2859,29
2860,29
2861,29
2862,29
2863,30
2864,30
2865,30
2866,30
2867,30
2868,31
2869,30
2870,30
2871,30
2872,30
2873,30
2874,30
2875,29
2876,29
2877,29
2878,29
2879,29
2880,29
2881,29
2882,29
2883,29
2884,29
2885,29
2886,29
2887,29
2888,29
2889,29
2890,29
2891,29
2892,30
2893,29
2894,29
2895,29
2896,30
2897,30
2898,30
2899,30
2900,30
2901,30
2902,31
2903,30
2904,30
2905,30
2906,30
2907,31
2908,30
2909,29
2910,29
2911,29
2912,29
2913,29
2914,29
2915,29
2916,29
2917,29
2918,29
2919,29
2920,29
2921,29
2922,29
2923,29
2924,30
2925,30
2926,30
2927,30
2928,30
2929,30
2930,30
2931,30
2932,31
2933,31
2934,32
2935,31
2936,29
2937,29
2938,29
2939,29
2940,29
2941,29
2942,29
2943,29
2944,29
2945,29
2946,29
2947,29
2948,29
2949,29
2950,29
2951,29
2952,29
2953,30
2954,29
2955,29
2956,29
2957,29
2958,29
2959,29
2960,29
2961,29
2962,29
2963,29
2964,29
2965,29
2966,29
2967,29
2968,29
2969,30
2970,30
2971,31
2972,31
2973,31
2974,31
2975,31
2976,31
2977,30
2978,30
2979,30
2980,30
2981,30
2982,30
2983,30
2984,30
2985,30
2986,31
2987,31
2988,30
2989,30
2990,30
2991,30
2992,30
2993,30
2994,30
2995,30
2996,30
2997,30
2998,30
2999,30
3000,30
3001,30
3002,30
3003,29
3004,29
3005,29
3006,29
3007,30
3008,30
3009,30
3010,30
3011,30
3012,30
3013,30
3014,30
3015,30
3016,30
3017,30
3018,30
3019,30
3020,30
3021,30
3022,30
3023,30
3024,30
3025,30
3026,31
3027,32
3028,32
3029,32
3030,31
3031,30
3032,30
3033,30
3034,30
3035,31
3036,31
3037,31
3038,31
3039,31
3040,30
3041,30
3042,30
3043,30
3044,30
3045,30
3046,30
3047,30
3048,30
3049,31
3050,30
3051,30
3052,30
3053,30
3054,30
3055,30
3056,30
3057,30
3058,30
3059,31
3060,30
3061,30
3062,30
3063,30
3064,30
3065,30
3066,30
3067,30
3068,30
3069,30
3070,30
3071,30
3072,30
3073,30
3074,30
3075,30
3076,30
3077,30
3078,30
3079,30
3080,30
3081,31
3082,31
3083,31
3084,31
3085,31
3086,31
3087,31
3088,30
3089,30
3090,30
3091,30
3092,30
3093,30
3094,30
3095,30
3096,30
3097,30
3098,30
3099,30
3100,30
3101,30
3102,30
3103,29
3104,29
3105,29
3106,29
3107,29
3108,29
3109,30
3110,30
3111,30
3112,29
3113,29
3114,29
3115,29
3116,29
3117,29
3118,29
3119,29
3120,29
3121,29
3122,29
3123,29
3124,30
3125,30
3126,30
3127,30
3128,30
3129,30
3130,30
3131,31
3132,30
3133,30
3134,30
3135,30
3136,30
3137,30
3138,30
3139,30
3140,30
3141,31
3142,31
3143,31
3144,31
3145,31
3146,31
3147,31
3148,31
3149,31
3150,31
3151,31
3152,31
3153,31
3154,31
3155,32
3156,31
3157,31
3158,30
3159,30
3160,30
3161,30
3162,30
3163,30
3164,30
3165,29
3166,29
3167,29
3168,29
3169,29
3170,29
3171,29
3172,29
3173,29
3174,30
3175,29
3176,30
3177,30
3178,30
3179,30
3180,30
3181,29
3182,29
3183,29
3184,29
3185,29
3186,29
3187,29
3188,29
3189,29
3190,29
3191,29
3192,29
3193,29
3194,29
3195,29
3196,29
3197,29
3198,29
3199,29
3200,29
3201,29
3202,29
3203,29
3204,29
3205,29
3206,29
3207,29
3208,29
3209,29
3210,29
3211,29
3212,29
3213,29
3214,29
3215,29
3216,29
3217,29
3218,29
3219,29
3220,29
3221,29
3222,29
3223,29
3224,29
3225,29
3226,29
3227,29
3228,29
3229,29
3230,29
3231,30
3232,30
3233,30
3234,29
3235,29
3236,29
3237,29
3238,29
3239,29
3240,29
3241,29
3242,29
3243,29
3244,29
3245,29
3246,29
3247,29
3248,29
3249,30
3250,29
3251,29
3252,29
3253,29
3254,29
3255,29
3256,29
3257,29
3258,29
3259,29
3260,29
3261,29
3262,29
3263,29
3264,29
3265,29
3266,29
3267,29
3268,29
3269,29
3270,29
3271,29
3272,29
3273,29
3274,29
3275,29
3276,29
3277,29
3278,29
3279,29
3280,29
3281,29
3282,29
3283,29
3284,29
3285,29
3286,29
3287,29
3288,30
3289,30
3290,30
3291,30
3292,30
3293,30
3294,30
3295,30
3296,30
3297,30
3298,30
3299,30
3300,30
3301,30
3302,30
3303,30
3304,30
3305,30
3306,30
3307,30
3308,31
3309,31
3310,31
3311,32
3312,31
3313,31
3314,31
3315,31
3316,31
3317,31
3318,31
3319,31
3320,31
3321,31
3322,31
3323,32
3324,31
3325,31
3326,31
3327,31
3328,31
3329,31
3330,31
3331,31
3332,31
3333,31
3334,31
3335,31
3336,31
3337,31
3338,31
3339,31
3340,31
3341,31
3342,30
3343,30
3344,30
3345,30
3346,30
3347,30
3348,31
3349,32
3350,31
3351,31
3352,31
3353,30
3354,30
3355,30
3356,30
3357,30
3358,30
3359,30
3360,30
3361,30
3362,30
3363,31
3364,31
3365,31
3366,30
3367,30
3368,30
3369,30
3370,30
3371,31
3372,30
3373,30
3374,31
3375,31
3376,31
3377,31
3378,32
3379,31
3380,31
3381,31
3382,31
3383,31
3384,31
3385,31
3386,31
3387,31
3388,31
3389,31
3390,31
3391,31
3392,31
3393,31
3394,31
3395,32
3396,31
3397,31
3398,31
3399,31
3400,31
3401,31
3402,31
3403,31
3404,31
3405,31
3406,31
3407,31
3408,31
3409,31
3410,31
3411,31
3412,31
3413,31
3414,31
3415,31
3416,31
3417,31
3418,31
3419,31
3420,31
3421,31
3422,31
3423,31
3424,31
3425,31
3426,31
3427,31
3428,31
3429,31
3430,31
3431,31
3432,31
3433,31
3434,31
3435,31
3436,31
3437,32
3438,32
3439,32
3440,33
3441,33
3442,33
3443,33
3444,33
3445,33
3446,33
3447,33
3448,32
3449,32
3450,32
3451,32
3452,32
3453,32
3454,32
3455,32
3456,32
3457,32
3458,32
3459,32
3460,32
3461,32
3462,32
3463,32
3464,32
3465,32
3466,32
3467,32
3468,32
3469,32
3470,32
3471,32
3472,32
3473,32
3474,32
3475,32
3476,32
3477,32
3478,32
3479,32
3480,32
3481,32
3482,32
3483,32
3484,32
3485,32
3486,32
3487,32
3488,32
3489,32
3490,32
3491,32
3492,32
3493,32
3494,32
3495,32
3496,32
3497,32
3498,32
3499,33
3500,33
3501,33
3502,33
3503,33
3504,33
3505,33
3506,33
3507,33
3508,33
3509,33
3510,33
3511,33
3512,33
3513,33
3514,34
3515,34
3516,34
3517,34
3518,33
3519,33
3520,33
3521,33
3522,33
3523,33
3524,33
3525,33
3526,33
3527,33
3528,33
3529,33
3530,33
3531,33
3532,33
3533,33
3534,33
3535,33
3536,33
3537,33
3538,33
3539,33
3540,34
3541,33
3542,33
3543,33
3544,33
3545,33
3546,33
3547,33
3548,33
3549,33
3550,33
3551,33
3552,33
3553,33
3554,33
3555,33
3556,33
3557,33
3558,33
3559,33
3560,33
3561,33
3562,33
3563,33
3564,33
3565,33
3566,33
3567,32
3568,32
3569,32
3570,32
3571,32
3572,33
3573,32
3574,32
3575,32
3576,32
3577,32
3578,32
3579,32
3580,32
3581,32
3582,32
3583,32
3584,32
3585,32
3586,32
3587,32
3588,32
3589,32
3590,32
3591,32
3592,32
3593,33
3594,33
3595,33
3596,33
3597,33
3598,33
3599,33
3600,33
3601,33
3602,32
3603,32
3604,32
3605,32
3606,32
3607,32
3608,33
3609,32
3610,32
3611,32
3612,32
3613,32
3614,33
3615,32
3616,32
3617,32
3618,32
3619,32
3620,32
3621,32
3622,32
3623,32
3624,33
3625,34
3626,35
3627,34
3628,35
3629,34
3630,34
3631,35
3632,34
3633,34
3634,34
3635,34
3636,34
3637,35
3638,34
3639,34
3640,34
3641,33
3642,33
3643,33
3644,33
3645,33
3646,33
3647,33
3648,32
3649,33
3650,32
3651,32
3652,32
3653,32
3654,32
3655,32
3656,32
3657,32
3658,32
3659,32
3660,32
3661,32
3662,32
3663,32
3664,33
3665,32
3666,32
3667,32
3668,32
3669,32
3670,32
3671,32
3672,32
3673,32
3674,32
3675,32
3676,33
3677,33
3678,33
3679,32
3680,33
3681,32
3682,32
3683,32
3684,32
3685,32
3686,32
3687,32
3688,32
3689,32
3690,32
3691,32
3692,32
3693,32
3694,33
3695,33
3696,33
3697,33
3698,33
3699,33
3700,33
3701,32
3702,33
3703,32
3704,32
3705,34
3706,33
3707,32
3708,34
3709,34
3710,33
3711,33
3712,32
3713,32
3714,32
3715,32
3716,32
3717,32
3718,32
3719,32
3720,32
3721,32
3722,32
3723,32
3724,32
3725,32
3726,32
3727,32
3728,32
3729,32
3730,32
3731,32
3732,32
3733,32
3734,32
3735,32
3736,32
3737,32
3738,32
3739,33
3740,33
3741,33
3742,32
3743,32
3744,32
3745,32
3746,32
3747,32
3748,32
3749,33
3750,32
3751,32
3752,32
3753,32
3754,32
3755,32
3756,33
3757,33
3758,33
3759,32
3760,32
3761,32
3762,32
3763,32
3764,32
3765,32
3766,32
3767,33
3768,32
3769,32
3770,33
3771,33
3772,33
3773,32
3774,32
3775,32
3776,32
3777,32
3778,32
3779,32
3780,32
3781,32
3782,32
3783,32
3784,32
3785,32
3786,32
3787,32
3788,32
3789,32
3790,32
3791,32
3792,32
3793,32
3794,32
3795,32
3796,32
3797,32
3798,32
3799,32
3800,32
3801,32
3802,32
3803,32
3804,32
3805,32
3806,32
3807,32
3808,32
3809,32
3810,32
3811,32
3812,32
3813,32
3814,33
3815,34
3816,33
3817,33
3818,33
3819,33
3820,33
3821,33
3822,33
3823,32
3824,32
3825,32
3826,32
3827,32
3828,33
3829,32
3830,32
3831,32
3832,32
3833,32
3834,32
3835,32
3836,32
3837,32
3838,32
3839,32
3840,32
3841,32
3842,32
3843,32
3844,32
3845,32
3846,32
3847,32
3848,32
3849,32
3850,32
3851,32
3852,32
3853,32
3854,32
3855,32
3856,32
3857,32
3858,32
3859,32
3860,32
3861,32
3862,32
3863,32
3864,32
3865,33
3866,33
3867,32
3868,32
3869,32
3870,32
3871,32
3872,32
3873,32
3874,32
3875,32
3876,32
3877,32
3878,32
3879,32
3880,32
3881,32
3882,32
3883,32
3884,33
3885,32
3886,32
3887,32
3888,32
3889,32
3890,33
3891,32
3892,33
3893,33
3894,33
3895,33
3896,33
3897,33
3898,33
3899,33
3900,33
3901,33
3902,33
3903,33
3904,33
3905,33
3906,33
3907,33
3908,33
3909,33
3910,33
3911,34
3912,33
3913,33
3914,33
3915,34
3916,34
3917,33
3918,33
3919,33
3920,33
3921,33
3922,33
3923,33
3924,33
3925,33
3926,33
3927,33
3928,33
3929,33
3930,33
3931,33
3932,33
3933,33
3934,33
3935,33
3936,33
3937,33
3938,33
3939,33
3940,33
3941,33
3942,33
3943,33
3944,33
3945,34
3946,34
3947,34
3948,34
3949,34
3950,34
3951,34
3952,34
3953,34
3954,34
3955,34
3956,34
3957,34
3958,34
3959,34
3960,34
3961,34
3962,34
3963,34
3964,34
3965,34
3966,34
3967,34
3968,34
3969,34
3970,34
3971,34
3972,34
3973,34
3974,34
3975,34
3976,34
3977,33
3978,33
3979,33
3980,33
3981,33
3982,33
3983,33
3984,33
3985,33
3986,34
3987,34
3988,35
3989,35
3990,35
3991,34
3992,34
3993,34
3994,34
3995,34
3996,34
3997,34
3998,34
3999,34
4000,34
4001,34
4002,35
4003,35
4004,35
4005,35
4006,35
4007,35
4008,35
4009,35
4010,35
4011,35
4012,35
4013,35
4014,35
4015,35
4016,34
4017,34
4018,34
4019,34
4020,34
4021,33
4022,33
4023,33
4024,33
4025,33
4026,33
4027,33
4028,33
4029,33
4030,33
4031,33
4032,33
4033,33
4034,33
4035,33
4036,33
4037,33
4038,33
4039,33
4040,33
4041,33
4042,33
4043,34
4044,34
4045,34
4046,33
4047,33
4048,33
4049,33
4050,33
4051,33
4052,33
4053,33
4054,33
4055,33
4056,33
4057,33
4058,33
4059,33
4060,33
4061,33
4062,33
4063,33
4064,33
4065,33
4066,33
4067,33
4068,33
4069,33
4070,33
4071,33
4072,33
4073,33
4074,33
4075,33
4076,33
4077,33
4078,33
4079,35
4080,33
4081,33
4082,33
4083,33
4084,33
4085,33
4086,34
4087,34
4088,34
4089,34
4090,34
4091,34
4092,34
4093,34
4094,33
4095,33
4096,33
4097,33
4098,33
4099,33
4100,33
4101,33
4102,33
4103,33
4104,33
4105,33
4106,33
4107,33
4108,33
4109,34
4110,34
4111,34
4112,34
4113,34
4114,33
4115,33
4116,33
4117,33
4118,33
4119,34
4120,34
4121,33
4122,33
4123,33
4124,33
4125,34
4126,34
4127,34
4128,33
4129,33
4130,33
4131,33
4132,33
4133,33
4134,33
4135,33
4136,33
4137,33
4138,33
4139,33
4140,33
4141,33
4142,33
4143,33
4144,33
4145,34
4146,34
4147,33
4148,33
4149,33
4150,33
4151,33
4152,33
4153,33
4154,33
4155,33
4156,33
4157,33
4158,33
4159,33
4160,33
4161,33
4162,33
4163,33
4164,33
4165,33
4166,33
4167,33
4168,33
4169,33
4170,33
4171,33
4172,33
4173,33
4174,33
4175,33
4176,33
4177,33
4178,33
4179,33
4180,33
4181,34
4182,33
4183,33
4184,33
4185,33
4186,34
4187,33
4188,34
4189,34
4190,34
4191,34
4192,34
4193,34
4194,33
4195,33
4196,33
4197,33
4198,33
4199,33
4200,33
4201,33
4202,33
4203,33
4204,33
4205,33
4206,33
4207,33
4208,33
4209,33
4210,33
4211,33
4212,33
4213,33
4214,33
4215,33
4216,33
4217,33
4218,33
4219,33
4220,33
4221,33
4222,33
4223,33
4224,32
4225,32
4226,32
4227,32
4228,32
4229,32
4230,32
4231,32
4232,32
4233,32
4234,32
4235,32
4236,32
4237,32
4238,32
4239,32
4240,33
4241,33
4242,33
4243,33
4244,33
4245,34
4246,34
4247,33
4248,33
4249,33
4250,33
4251,33
4252,33
4253,33
4254,33
4255,34
4256,35
4257,33
4258,32
4259,32
4260,32
4261,32
4262,33
4263,33
4264,33
4265,32
4266,32
4267,32
4268,32
4269,32
4270,32
4271,32
4272,32
4273,32
4274,32
4275,32
4276,32
4277,32
4278,32
4279,32
4280,32
4281,32
4282,32
4283,32
4284,32
4285,32
4286,32
4287,32
4288,32
4289,32
4290,32
4291,32
4292,32
4293,32
4294,32
4295,32
4296,33
4297,33
4298,33
4299,33
4300,33
4301,33
4302,33
4303,33
4304,33
4305,33
4306,33
4307,33
4308,33
4309,33
4310,33
4311,33
4312,33
4313,33
4314,33
4315,33
4316,33
4317,33
4318,33
4319,33
4320,33
4321,33
4322,33
4323,33
4324,33
4325,33
4326,33
4327,33
4328,33
4329,33
4330,33
4331,33
4332,33
4333,33
4334,33
4335,33
4336,33
4337,33
4338,33
4339,33
4340,33
4341,33
4342,33
4343,32
4344,32
4345,32
4346,32
4347,32
4348,32
4349,32
4350,32
4351,32
4352,32
4353,32
4354,32
4355,32
4356,32
4357,32
4358,33
4359,32
4360,32
4361,32
4362,32
4363,32
4364,32
4365,32
4366,32
4367,32
4368,32
4369,32
4370,32
4371,32
4372,32
4373,32
4374,32
4375,32
4376,32
4377,32
4378,32
4379,33
4380,33
4381,33
4382,32
4383,32
4384,32
4385,32
4386,32
4387,32
4388,32
4389,32
4390,32
4391,32
4392,32
4393,32
4394,32
4395,32
4396,32
4397,32
4398,32
4399,32
4400,32
4401,32
4402,32
4403,32
4404,32
4405,32
4406,32
4407,32
4408,32
4409,32
4410,32
4411,32
4412,32
4413,32
4414,32
4415,32
4416,32
4417,32
4418,32
4419,32
4420,33
4421,32
4422,32
4423,32
4424,32
4425,32
4426,32
4427,32
4428,32
4429,32
4430,32
4431,33
4432,33
4433,34
4434,33
4435,33
4436,33
4437,33
4438,33
4439,33
4440,33
4441,33
4442,33
4443,33
4444,33
4445,33
4446,33
4447,34
4448,33
4449,33
4450,33
4451,33
4452,33
4453,33
4454,33
4455,33
4456,33
4457,33
4458,33
4459,33
4460,33
4461,33
4462,33
4463,33
4464,33
4465,33
4466,33
4467,33
4468,34
4469,33
4470,33
4471,33
4472,33
4473,33
4474,33
4475,33
4476,33
4477,33
4478,33
4479,33
4480,33
4481,34
4482,34
4483,34
4484,34
4485,34
4486,34
4487,34
4488,34
4489,34
4490,34
4491,34
4492,34
4493,34
4494,34
4495,34
4496,35
4497,35
4498,35
4499,35
4500,34
4501,34
4502,33
4503,33
4504,33
4505,33
4506,33
4507,33
4508,33
4509,33
4510,33
4511,34
4512,33
4513,33
4514,33
4515,34
4516,34
4517,34
4518,34
4519,33
4520,33
4521,33
4522,33
4523,33
4524,33
4525,33
4526,33
4527,33
4528,33
4529,33
4530,33
4531,33
4532,33
4533,33
4534,33
4535,33
4536,33
4537,33
4538,33
4539,34
4540,34
4541,33
4542,33
4543,33
4544,33
4545,33
4546,33
4547,33
4548,33
4549,33
4550,33
4551,33
4552,33
4553,33
4554,33
4555,33
4556,33
4557,33
4558,33
4559,33
4560,33
4561,33
4562,33
4563,33
4564,34
4565,34
4566,34
4567,34
4568,34
4569,34
4570,34
4571,34
4572,34
4573,34
4574,34
4575,34
4576,34
4577,34
4578,34
4579,34
4580,34
4581,34
4582,34
4583,34
4584,34
4585,34
4586,34
4587,34
4588,35
4589,34
4590,34
4591,34
4592,34
4593,34
4594,34
4595,34
4596,34
4597,34
4598,34
4599,34
4600,34
4601,34
4602,34
4603,34
4604,34
4605,34
4606,34
4607,34
4608,34
4609,34
4610,34
4611,34
4612,34
4613,34
4614,34
4615,34
4616,34
4617,34
4618,34
4619,34
4620,34
4621,34
4622,34
4623,34
4624,34
4625,34
4626,34
4627,35
4628,35
4629,34
4630,34
4631,34
4632,34
4633,34
4634,34
4635,34
4636,34
4637,34
4638,34
4639,34
4640,34
4641,34
4642,34
4643,34
4644,34
4645,34
4646,34
4647,34
4648,34
4649,34
4650,34
4651,34
4652,34
4653,34
4654,34
4655,34
4656,34
4657,34
4658,34
4659,34
4660,34
4661,34
4662,34
4663,34
4664,34
4665,34
4666,34
4667,34
4668,34
4669,35
4670,35
4671,35
4672,35
4673,35
4674,34
4675,34
4676,34
4677,34
4678,34
4679,34
4680,34
4681,34
4682,34
4683,34
4684,34
4685,34
4686,34
4687,34
4688,34
4689,34
4690,34
4691,34
4692,34
4693,34
4694,34
4695,34
4696,34
4697,34
4698,35
4699,35
4700,34
4701,34
4702,34
4703,34
4704,34
4705,34
4706,34
4707,34
4708,34
4709,34
4710,34
4711,34
4712,34
4713,34
4714,34
4715,34
4716,34
4717,34
4718,36
4719,35
4720,35
4721,34
4722,34
4723,34
4724,34
4725,34
4726,36
4727,36
4728,36
4729,36
4730,36
4731,36
4732,34
4733,34
4734,34
4735,34
4736,34
4737,34
4738,34
4739,34
4740,34
4741,34
4742,34
4743,34
4744,34
4745,34
4746,34
4747,34
4748,34
4749,34
4750,34
4751,34
4752,34
4753,34
4754,34
4755,34
4756,35
4757,34
4758,34
4759,34
4760,34
4761,34
4762,34
4763,34
4764,35
4765,34
4766,34
4767,34
4768,34
4769,34
4770,34
4771,34
4772,34
4773,34
4774,34
4775,34
4776,34
4777,34
4778,34
4779,34
4780,34
4781,34
4782,34
4783,34
4784,34
4785,35
4786,34
4787,34
4788,34
4789,34
4790,34
4791,34
4792,34
4793,34
4794,34
4795,34
4796,33
4797,33
4798,33
4799,33
4800,33
4801,33
4802,33
4803,33
4804,33
4805,33
4806,33
4807,33
4808,33
4809,33
4810,33
4811,33
4812,33
4813,33
4814,33
4815,33
4816,33
4817,33
4818,33
4819,33
4820,33
4821,33
4822,33
4823,33
4824,33
4825,33
4826,33
4827,33
4828,33
4829,33
4830,33
4831,33
4832,33
4833,33
4834,33
4835,33
4836,33
4837,34
4838,34
4839,34
4840,34
4841,34
4842,34
4843,34
4844,34
4845,34
4846,36
4847,34
4848,34
4849,34
4850,34
4851,34
4852,34
4853,35
4854,35
4855,35
4856,34
4857,34
4858,34
4859,34
4860,34
4861,35
4862,35
4863,35
4864,35
4865,36
4866,34
4867,34
4868,34
4869,34
4870,34
4871,34
4872,34
4873,35
4874,34
4875,34
4876,34
4877,34
4878,34
4879,34
4880,34
4881,34
4882,34
4883,34
4884,34
4885,34
4886,34
4887,34
4888,36
4889,34
4890,34
4891,34
4892,34
4893,34
4894,34
4895,34
4896,34
4897,34
4898,34
4899,34
4900,35
4901,35
4902,35
4903,36
4904,35
4905,34
4906,34
4907,34
4908,34
4909,34
4910,34
4911,34
4912,35
4913,34
4914,33
4915,33
4916,33
4917,33
4918,33
4919,33
4920,33
4921,33
4922,33
4923,33
4924,33
4925,33
4926,33
4927,33
4928,33
4929,33
4930,33
4931,34
4932,34
4933,33
4934,33
4935,33
4936,33
4937,33
4938,33
4939,33
4940,33
4941,33
4942,33
4943,33
4944,33
4945,33
4946,33
4947,33
4948,33
4949,33
4950,33
4951,33
4952,33
4953,33
4954,33
4955,33
4956,33
4957,33
4958,33
4959,33
4960,33
4961,33
4962,33
4963,33
4964,34
4965,34
4966,34
4967,34
4968,34
4969,34
4970,34
4971,33
4972,33
4973,33
4974,33
4975,33
4976,33
4977,33
4978,33
4979,33
4980,34
4981,34
4982,33
4983,33
4984,33
4985,33
4986,33
4987,33
4988,33
4989,33
4990,33
4991,33
4992,34
4993,34
4994,34
4995,34
4996,34
4997,34
4998,34
4999,34
5000,34
5001,34
5002,34
5003,34
5004,34
5005,34
5006,33
5007,33
5008,33
5009,33
5010,33
5011,33
5012,33
5013,33
5014,33
5015,33
5016,33
5017,33
5018,33
5019,33
5020,33
5021,33
5022,33
5023,34
5024,34
5025,35
5026,34
5027,33
5028,33
5029,33
5030,33
5031,33
5032,33
5033,33
5034,33
5035,33
5036,33
5037,33
5038,33
5039,33
5040,33
5041,33
5042,33
5043,33
5044,33
5045,33
5046,33
5047,33
5048,33
5049,33
5050,33
5051,33
5052,33
5053,33
5054,33
5055,33
5056,33
5057,33
5058,33
5059,33
5060,33
5061,33
5062,33
5063,33
5064,33
5065,33
5066,33
5067,33
5068,33
5069,33
5070,33
5071,33
5072,33
5073,33
5074,33
5075,34
5076,34
5077,34
5078,33
5079,33
5080,34
5081,35
5082,34
5083,33
5084,33
5085,33
5086,33
5087,33
5088,33
5089,33
5090,33
5091,33
5092,33
5093,33
5094,33
5095,33
5096,33
5097,33
5098,33
5099,33
5100,33
5101,33
5102,33
5103,33
5104,33
5105,33
5106,33
5107,33
5108,33
5109,33
5110,33
5111,33
5112,33
5113,33
5114,33
5115,33
5116,33
5117,34
5118,34
5119,33
5120,33
5121,33
5122,33
5123,33
5124,33
5125,34
5126,34
5127,35
5128,35
5129,35
5130,35
5131,35
5132,35
5133,35
5134,35
5135,35
5136,35
5137,35
5138,34
5139,34
5140,34
5141,34
5142,34
5143,34
5144,34
5145,34
5146,33
5147,33
5148,33
5149,34
5150,33
5151,33
5152,33
5153,33
5154,33
5155,33
5156,33
5157,33
5158,33
5159,33
5160,33
5161,33
5162,33
5163,33
5164,33
5165,33
5166,33
5167,33
5168,33
5169,34
5170,34
5171,34
5172,33
5173,33
5174,33
5175,33
5176,33
5177,34
5178,34
5179,33
5180,33
5181,33
5182,33
5183,33
5184,33
5185,33
5186,33
5187,33
5188,33
5189,33
5190,34
5191,34
5192,34
5193,34
5194,34
5195,34
5196,34
5197,34
5198,34
5199,34
5200,34
5201,34
5202,34
5203,34
5204,34
5205,34
5206,34
5207,34
5208,34
5209,34
5210,34
5211,34
5212,34
5213,34
5214,34
5215,34
5216,34
5217,34
5218,34
5219,34
5220,34
5221,34
5222,35
5223,35
5224,35
5225,35
5226,35
5227,34
5228,34
5229,34
5230,34
5231,34
5232,34
5233,34
5234,34
5235,35
5236,35
5237,35
5238,36
5239,35
5240,34
5241,34
5242,34
5243,34
5244,34
5245,34
5246,34
5247,34
5248,34
5249,35
5250,35
5251,35
5252,35
5253,36
5254,35
5255,35
5256,34
5257,34
5258,34
5259,34
5260,34
5261,34
5262,33
5263,33
5264,33
5265,33
5266,33
5267,33
5268,33
5269,34
5270,34
5271,34
5272,33
5273,34
5274,34
5275,33
5276,33
5277,33
5278,33
5279,33
5280,33
5281,33
5282,33
5283,33
5284,33
5285,34
5286,33
5287,33
5288,33
5289,33
5290,34
5291,34
5292,33
5293,33
5294,33
5295,33
5296,33
5297,33
5298,33
5299,33
5300,33
5301,33
5302,33
5303,33
5304,33
5305,33
5306,33
5307,33
5308,33
5309,33
5310,33
5311,33
5312,33
5313,33
5314,33
5315,33
5316,33
5317,33
5318,33
5319,33
5320,33
5321,33
5322,33
5323,33
5324,33
5325,33
5326,33
5327,33
5328,33
5329,33
5330,33
5331,33
5332,33
5333,33
5334,33
5335,33
5336,33
5337,33
5338,33
5339,34
5340,34
5341,33
5342,33
5343,33
5344,33
5345,33
5346,33
5347,33
5348,33
5349,33
5350,33
5351,35
5352,34
5353,34
5354,34
5355,34
5356,34
5357,34
5358,34
5359,33
5360,33
5361,33
5362,33
5363,33
5364,33
5365,33
5366,33
5367,33
5368,33
5369,33
5370,33
5371,33
5372,33
5373,33
5374,33
5375,33
5376,33
5377,33
5378,33
5379,33
5380,33
5381,33
5382,33
5383,33
5384,33
5385,33
5386,34
5387,34
5388,33
5389,33
5390,33
5391,33
5392,33
5393,33
5394,33
5395,34
5396,34
5397,35
5398,35
5399,34
5400,34
5401,34
5402,34
5403,34
5404,34
5405,34
5406,34
5407,34
5408,34
5409,34
5410,34
5411,34
5412,34
5413,34
5414,34
5415,34
5416,33
5417,33
5418,33
5419,33
5420,33
5421,33
5422,33
5423,34
5424,35
5425,34
5426,34
5427,34
5428,34
5429,34
5430,34
5431,34
5432,33
5433,33
5434,33
5435,33
5436,33
5437,33
5438,33
5439,33
5440,33
5441,33
5442,33
5443,33
5444,33
5445,33
5446,33
5447,33
5448,33
5449,34
5450,34
5451,34
5452,34
5453,34
5454,34
5455,34
5456,34
5457,34
5458,34
5459,34
5460,34
5461,33
5462,33
5463,33
5464,33
5465,33
5466,33
5467,33
5468,33
5469,33
5470,33
5471,33
5472,33
5473,34
5474,34
5475,33
5476,33
5477,33
5478,33
5479,33
5480,33
5481,33
5482,34
5483,34
5484,33
5485,33
5486,33
5487,33
5488,33
5489,33
5490,33
5491,33
5492,33
5493,33
5494,33
5495,33
5496,34
5497,33
5498,33
5499,33
5500,33
5501,33
5502,33
5503,33
5504,33
5505,33
5506,33
5507,33
5508,34
5509,33
5510,33
5511,33
5512,33
5513,33
5514,33
5515,33
5516,33
5517,33
5518,33
5519,33
5520,33
5521,33
5522,34
5523,34
5524,34
5525,33
5526,33
5527,33
5528,33
5529,33
5530,33
5531,33
5532,33
5533,33
5534,33
5535,33
5536,34
5537,33
5538,33
5539,33
5540,33
5541,33
5542,33
5543,33
5544,33
5545,33
5546,33
5547,33
5548,33
5549,33
5550,33
5551,35
5552,35
5553,34
5554,34
5555,34
5556,34
5557,34
5558,33
5559,33
5560,33
5561,33
5562,34
5563,33
5564,33
5565,33
5566,33
5567,33
5568,33
5569,33
5570,33
5571,33
5572,33
5573,33
5574,33
5575,33
5576,33
5577,34
5578,34
5579,34
5580,34
5581,34
5582,34
5583,33
5584,33
5585,33
5586,33
5587,34
5588,34
5589,34
5590,34
5591,34
5592,34
5593,33
5594,33
5595,33
5596,33
5597,33
5598,34
5599,34
5600,34
5601,34
5602,34
5603,34
5604,35
5605,35
5606,34
5607,35
5608,35
5609,35
5610,35
5611,36
5612,36
5613,35
5614,34
5615,34
5616,34
5617,34
5618,34
5619,34
5620,34
5621,34
5622,34
5623,34
5624,34
5625,34
5626,34
5627,34
5628,34
5629,34
5630,34
5631,34
5632,35
5633,35
5634,35
5635,35
5636,35
5637,35
5638,35
5639,34
5640,34
5641,34
5642,34
5643,34
5644,34
5645,34
5646,34
5647,33
5648,33
5649,33
5650,33
5651,33
5652,33
5653,33
5654,33
5655,33
5656,33
5657,33
5658,33
5659,34
5660,33
5661,33
5662,33
5663,33
5664,33
5665,33
5666,33
5667,33
5668,33
5669,33
5670,33
5671,34
5672,33
5673,33
5674,33
5675,33
5676,33
5677,33
5678,33
5679,33
5680,34
5681,34
5682,34
5683,34
5684,35
5685,35
5686,34
5687,34
5688,34
5689,34
5690,34
5691,34
5692,34
5693,34
5694,34
5695,33
5696,33
5697,33
5698,32
5699,32
5700,32
5701,32
5702,32
5703,32
5704,32
5705,33
5706,32
5707,32
5708,32
5709,32
5710,32
5711,32
5712,32
5713,33
5714,32
5715,32
5716,32
5717,32
5718,32
5719,32
5720,32
5721,32
5722,32
5723,32
5724,33
5725,33
5726,32
5727,32
5728,32
5729,33
5730,33
5731,33
5732,33
5733,32
5734,32
5735,32
5736,32
5737,32
5738,32
5739,32
5740,32
5741,32
5742,32
5743,32
5744,32
5745,32
5746,32
5747,32
5748,32
5749,33
5750,32
5751,32
5752,32
5753,32
5754,32
5755,32
5756,32
5757,32
5758,32
5759,32
5760,33
5761,34
5762,34
5763,34
5764,33
5765,33
5766,32
5767,32
5768,32
5769,33
5770,33
5771,33
5772,33
5773,33
5774,32
5775,32
5776,32
5777,33
5778,33
5779,34
5780,33
5781,33
5782,33
5783,33
5784,34
5785,34
5786,34
5787,33
5788,32
5789,32
5790,32
5791,32
5792,32
5793,32
5794,32
5795,32
5796,32
5797,32
5798,32
5799,32
5800,32
5801,32
5802,33
5803,33
5804,33
5805,33
5806,33
5807,32
5808,32
5809,32
5810,32
5811,32
5812,32
5813,32
5814,32
5815,32
5816,32
5817,32
5818,33
5819,33
5820,32
5821,33
5822,32
5823,32
5824,32
5825,32
5826,32
5827,32
5828,32
5829,32
5830,32
5831,32
5832,32
5833,32
5834,32
5835,32
5836,32
5837,32
5838,32
5839,32
5840,33
5841,32
5842,32
5843,32
5844,32
5845,32
5846,32
5847,32
5848,32
5849,32
5850,32
5851,32
5852,32
5853,32
5854,32
5855,32
5856,32
5857,32
5858,32
5859,32
5860,32
5861,32
5862,32
5863,32
5864,32
5865,33
5866,32
5867,32
5868,32
5869,32
5870,32
5871,32
5872,32
5873,32
5874,32
5875,33
5876,33
5877,32
5878,32
5879,32
5880,32
5881,32
5882,32
5883,32
5884,32
5885,32
5886,32
5887,32
5888,32
5889,32
5890,32
5891,32
5892,32
5893,32
5894,32
5895,32
5896,32
5897,32
5898,32
5899,32
5900,32
5901,32
5902,33
5903,33
5904,33
5905,33
5906,32
5907,32
5908,32
5909,32
5910,32
5911,32
5912,32
5913,32
5914,32
5915,32
5916,32
5917,32
5918,32
5919,32
5920,32
5921,32
5922,32
5923,32
5924,32
5925,32
5926,32
5927,32
5928,32
5929,32
5930,32
5931,32
5932,32
5933,32
5934,32
5935,32
5936,32
5937,32
5938,32
5939,32
5940,32
5941,32
5942,32
5943,32
5944,32
5945,32
5946,32
5947,32
5948,32
5949,32
5950,32
5951,32
5952,32
5953,32
5954,32
5955,32
5956,32
5957,32
5958,32
5959,32
5960,32
5961,33
5962,33
5963,33
5964,32
5965,32
5966,32
5967,32
5968,32
5969,32
5970,32
5971,32
5972,32
5973,32
5974,32
5975,32
5976,32
5977,32
5978,32
5979,32
5980,32
5981,32
5982,32
5983,32
5984,33
5985,33
5986,33
5987,33
5988,32
5989,33
5990,33
5991,33
5992,33
5993,32
5994,32
5995,32
5996,32
5997,32
5998,32
5999,32
6000,32
6001,32
6002,32
6003,32
6004,32
6005,33
6006,33
6007,33
6008,33
6009,33
6010,33
6011,33
6012,33
6013,33
6014,33
6015,34
6016,33
6017,33
6018,33
6019,33
6020,33
6021,33
6022,32
6023,32
6024,32
6025,33
6026,32
6027,32
6028,32
6029,32
6030,32
6031,32
6032,32
6033,32
6034,33
6035,34
6036,34
6037,34
6038,34
6039,33
6040,32
6041,32
6042,32
6043,32
6044,32
6045,32
6046,32
6047,32
6048,32
6049,33
6050,33
6051,33
6052,33
6053,33
6054,33
6055,33
6056,33
6057,33
6058,33
6059,33
6060,33
6061,33
6062,33
6063,33
6064,33
6065,34
6066,34
6067,34
6068,34
6069,34
6070,34
6071,34
6072,34
6073,35
6074,34
6075,34
6076,34
6077,34
6078,34
6079,34
6080,34
6081,34
6082,34
6083,34
6084,34
6085,35
6086,34
6087,34
6088,34
6089,34
6090,34
6091,35
6092,34
6093,34
6094,34
6095,34
6096,34
6097,33
6098,33
6099,33
6100,33
6101,33
6102,33
6103,33
6104,33
6105,33
6106,33
6107,33
6108,33
6109,33
6110,33
6111,33
6112,34
6113,33
6114,33
6115,33
6116,33
6117,33
6118,34
6119,33
6120,33
6121,33
6122,33
6123,33
6124,33
6125,33
6126,34
6127,34
6128,34
6129,34
6130,34
6131,34
6132,35
6133,34
6134,34
6135,34
6136,34
6137,34
6138,34
6139,34
6140,34
6141,34
6142,34
6143,35
6144,35
6145,35
6146,35
6147,34
6148,34
6149,35
6150,34
6151,34
6152,34
6153,34
6154,34
6155,34
6156,34
6157,34
6158,33
6159,33
6160,33
6161,33
6162,33
6163,33
6164,33
6165,33
6166,33
6167,33
6168,33
6169,34
6170,33
6171,33
6172,33
6173,33
6174,33
6175,33
6176,33
6177,33
6178,33
6179,33
6180,33
6181,33
6182,33
6183,33
6184,33
6185,33
6186,33
6187,33
6188,33
6189,33
6190,33
6191,33
6192,33
6193,33
6194,33
6195,33
6196,33
6197,33
6198,33
6199,33
6200,34
6201,33
6202,33
6203,33
6204,33
6205,34
6206,34
6207,34
6208,34
6209,34
6210,33
6211,33
6212,33
6213,33
6214,33
6215,33
6216,32
6217,32
6218,32
6219,32
6220,32
6221,33
6222,33
6223,33
6224,33
6225,33
6226,33
6227,33
6228,33
6229,33
6230,33
6231,33
6232,33
6233,33
6234,33
6235,33
6236,33
6237,33
6238,33
6239,33
6240,33
6241,33
6242,33
6243,33
6244,33
6245,33
6246,34
6247,33
6248,33
6249,33
6250,33
6251,33
6252,33
6253,33
6254,33
6255,33
6256,33
6257,33
6258,33
6259,33
6260,33
6261,33
6262,33
6263,34
6264,34
6265,34
6266,34
6267,34
6268,34
6269,34
6270,34
6271,34
6272,34
6273,34
6274,34
6275,34
6276,34
6277,35
6278,34
6279,34
6280,34
6281,34
6282,34
6283,35
6284,35
6285,35
6286,35
6287,35
6288,35
6289,35
6290,35
6291,33
6292,33
6293,33
6294,33
6295,33
6296,33
6297,33
6298,33
6299,33
6300,33
6301,33
6302,33
6303,34
6304,33
6305,33
6306,33
6307,33
6308,33
6309,33
6310,33
6311,33
6312,33
6313,33
6314,33
6315,33
6316,33
6317,33
6318,33
6319,34
6320,33
6321,33
6322,33
6323,33
6324,33
6325,33
6326,33
6327,34
6328,34
6329,34
6330,34
6331,33
6332,33
6333,33
6334,33
6335,34
6336,34
6337,33
6338,33
6339,33
6340,33
6341,33
6342,33
6343,33
6344,33
6345,33
6346,33
6347,33
6348,33
6349,33
6350,33
6351,33
6352,34
6353,34
6354,34
6355,34
6356,34
6357,34
6358,34
6359,34
6360,34
6361,34
6362,34
6363,34
6364,33
6365,33
6366,33
6367,33
6368,33
6369,33
6370,33
6371,33
6372,33
6373,33
6374,33
6375,33
6376,33
6377,33
6378,33
6379,33
6380,33
6381,33
6382,33
6383,33
6384,33
6385,33
6386,33
6387,33
6388,33
6389,33
6390,33
6391,33
6392,33
6393,33
6394,33
6395,34
6396,34
6397,34
6398,33
6399,33
6400,33
6401,33
6402,33
6403,33
6404,33
6405,33
6406,33
6407,34
6408,35
6409,34
6410,34
6411,34
6412,34
6413,34
6414,34
6415,33
6416,33
6417,33
6418,33
6419,33
6420,33
6421,33
6422,33
6423,34
6424,33
6425,33
6426,33
6427,33
6428,33
6429,33
6430,34
6431,33
6432,33
6433,33
6434,33
6435,33
6436,33
6437,33
6438,33
6439,33
6440,33
6441,33
6442,33
6443,35
6444,35
6445,35
6446,35
6447,34
6448,34
6449,34
6450,34
6451,35
6452,35
6453,35
6454,35
6455,34
6456,34
6457,34
6458,34
6459,34
6460,34
6461,34
6462,34
6463,34
6464,34
6465,34
6466,34
6467,34
6468,34
6469,34
6470,34
6471,34
6472,34
6473,34
6474,34
6475,34
6476,34
6477,34
6478,34
6479,34
6480,34
6481,34
6482,34
6483,34
6484,34
6485,34
6486,35
6487,35
6488,34
6489,34
6490,34
6491,34
6492,34
6493,34
6494,34
6495,34
6496,34
6497,34
6498,34
6499,34
6500,34
6501,34
6502,35
6503,34
6504,34
6505,34
6506,35
6507,34
6508,34
6509,34
6510,34
6511,35
6512,34
6513,34
6514,34
6515,34
6516,34
6517,34
6518,35
6519,36
6520,36
6521,36
6522,36
6523,37
6524,37
6525,37
6526,37
6527,37
6528,35
6529,35
6530,35
6531,35
6532,35
6533,35
6534,35
6535,35
6536,35
6537,35
6538,35
6539,35
6540,36
6541,36
6542,36
6543,36
6544,36
6545,36
6546,36
6547,36
6548,36
6549,36
6550,36
6551,36
6552,36
6553,36
6554,36
6555,37
6556,37
6557,37
6558,37
6559,37
6560,37
6561,37
6562,37
6563,37
6564,37
6565,37
6566,37
6567,37
6568,37
6569,37
6570,37
6571,37
6572,37
6573,37
6574,37
6575,37
6576,37
6577,37
6578,37
6579,38
6580,38
6581,38
6582,37
6583,37
6584,37
6585,37
6586,37
6587,37
6588,37
6589,38
6590,38
6591,38
6592,38
6593,38
6594,38
6595,37
6596,37
6597,36
6598,37
6599,37
6600,37
6601,37
6602,37
6603,37
6604,37
6605,37
6606,37
6607,37
6608,37
6609,37
6610,37
6611,37
6612,37
6613,37
6614,37
6615,37
6616,37
6617,37
6618,37
6619,38
6620,37
6621,37
6622,37
6623,37
6624,37
6625,37
6626,37
6627,39
6628,38
6629,38
6630,38
6631,37
6632,37
6633,37
6634,37
6635,36
6636,36
6637,36
6638,36
6639,36
6640,36
6641,36
6642,36
6643,37
6644,36
6645,36
6646,36
6647,36
6648,36
6649,36
6650,36
6651,36
6652,36
6653,36
6654,36
6655,37
6656,37
6657,37
6658,37
6659,37
6660,37
6661,37
6662,37
6663,37
6664,37
6665,37
6666,37
6667,37
6668,37
6669,37
6670,37
6671,37
6672,37
6673,37
6674,37
6675,37
6676,37
6677,37
6678,37
6679,37
6680,37
6681,38
6682,37
6683,37
6684,37
6685,37
6686,37
6687,38
6688,39
6689,39
6690,40
6691,39
6692,38
6693,38
6694,38
6695,38
6696,38
6697,38
6698,38
6699,38
6700,38
6701,38
6702,38
6703,38
6704,38
6705,37
6706,37
6707,36
6708,36
6709,37
6710,37
6711,36
6712,36
6713,36
6714,36
6715,36
6716,36
6717,36
6718,35
6719,35
6720,35
6721,35
6722,36
6723,36
6724,36
6725,36
6726,36
6727,36
6728,36
6729,36
6730,36
6731,35
6732,35
6733,35
6734,35
6735,35
6736,35
6737,36
6738,36
6739,36
6740,36
6741,36
6742,36
6743,36
6744,36
6745,36
6746,36
6747,36
6748,36
6749,36
6750,35
6751,35
6752,35
6753,35
6754,36
6755,35
6756,35
6757,35
6758,35
6759,35
6760,35
6761,35
6762,35
6763,35
6764,35
6765,35
6766,35
6767,35
6768,35
6769,35
6770,35
6771,35
6772,35
6773,36
6774,36
6775,36
6776,37
6777,38
6778,38
6779,37
6780,37
6781,37
6782,37
6783,37
6784,36
6785,36
6786,36
6787,35
6788,35
6789,35
6790,35
6791,35
6792,35
6793,35
6794,35
6795,35
6796,35
6797,35
6798,35
6799,35
6800,35
6801,35
6802,35
6803,35
6804,35
6805,35
6806,35
6807,35
6808,35
6809,35
6810,35
6811,35
6812,35
6813,35
6814,35
6815,35
6816,35
6817,35
6818,35
6819,35
6820,35
6821,35
6822,35
6823,35
6824,35
6825,35
6826,35
6827,35
6828,35
6829,35
6830,35
6831,35
6832,35
6833,35
6834,35
6835,35
6836,35
6837,35
6838,35
6839,35
6840,35
6841,35
6842,35
6843,35
6844,35
6845,35
6846,35
6847,35
6848,35
6849,35
6850,35
6851,35
6852,35
6853,35
6854,35
6855,35
6856,35
6857,35
6858,35
6859,35
6860,35
6861,35
6862,35
6863,34
6864,34
6865,34
6866,34
6867,34
6868,34
6869,34
6870,34
6871,34
6872,34
6873,34
6874,34
6875,34
6876,34
6877,34
6878,34
6879,34
6880,34
6881,34
6882,34
6883,34
6884,34
6885,34
6886,35
6887,35
6888,35
6889,34
6890,34
6891,34
6892,34
6893,34
6894,34
6895,34
6896,34
6897,35
6898,35
6899,34
6900,34
6901,34
6902,34
6903,34
6904,34
6905,34
6906,34
6907,34
6908,34
6909,34
6910,34
6911,34
6912,34
6913,34
6914,34
6915,34
6916,34
6917,34
6918,34
6919,34
6920,34
6921,34
6922,34
6923,34
6924,34
6925,34
6926,34
6927,34
6928,34
6929,34
6930,34
6931,34
6932,34
6933,34
6934,34
6935,34
6936,34
6937,34
6938,34
6939,34
6940,34
6941,34
6942,34
6943,34
6944,34
6945,34
6946,34
6947,34
6948,34
6949,34
6950,34
6951,35
6952,34
6953,34
6954,34
6955,34
6956,34
6957,34
6958,34
6959,34
6960,34
6961,34
6962,34
6963,35
6964,34
6965,34
6966,34
6967,34
6968,34
6969,34
6970,34
6971,35
6972,35
6973,34
6974,34
6975,34
6976,34
6977,34
6978,34
6979,35
6980,34
6981,34
6982,34
6983,34
6984,34
6985,34
6986,34
6987,35
6988,34
6989,34
6990,34
6991,34
6992,35
6993,35
6994,36
6995,36
6996,36
6997,35
6998,35
6999,35
7000,35
7001,35
7002,35
7003,35
7004,35
7005,35
7006,35
7007,35
7008,35
7009,35
7010,35
7011,35
7012,35
7013,35
7014,36
7015,36
7016,36
7017,36
7018,36
7019,36
7020,36
7021,36
7022,37
7023,37
7024,38
7025,37
7026,37
7027,37
7028,37
7029,38
7030,38
7031,37
7032,37
7033,38
7034,38
7035,38
7036,38
7037,39
7038,39
7039,38
7040,38
7041,38
7042,38
7043,38
7044,38
7045,39
7046,38
7047,38
7048,38
7049,38
7050,38
7051,38
7052,38
7053,37
7054,37
7055,37
7056,37
7057,37
7058,37
7059,37
7060,37
7061,37
7062,37
7063,37
7064,37
7065,37
7066,37
7067,37
7068,37
7069,37
7070,37
7071,37
7072,37
7073,38
7074,37
7075,37
7076,37
7077,37
7078,37
7079,37
7080,37
7081,37
7082,37
7083,36
7084,36
7085,36
7086,36
7087,36
7088,36
7089,36
7090,36
7091,36
7092,36
7093,36
7094,36
7095,36
7096,37
7097,36
7098,36
7099,36
7100,36
7101,36
7102,36
7103,36
7104,36
7105,37
7106,36
7107,36
7108,36
7109,36
7110,36
7111,37
7112,37
7113,37
7114,37
7115,36
7116,36
7117,37
7118,37
7119,36
7120,36
7121,36
7122,36
7123,36
7124,36
7125,36
7126,36
7127,37
7128,36
7129,36
7130,36
7131,36
7132,36
7133,36
7134,36
7135,36
7136,36
7137,36
7138,36
7139,36
7140,36
7141,36
7142,36
7143,36
7144,36
7145,36
7146,36
7147,36
7148,36
7149,36
7150,36
7151,36
7152,36
7153,36
7154,36
7155,36
7156,36
7157,36
7158,36
7159,36
7160,36
7161,36
7162,36
7163,36
7164,36
7165,36
7166,36
7167,36
7168,36
7169,36
7170,36
7171,37
7172,37
7173,37
7174,37
7175,37
7176,37
7177,37
7178,37
7179,37
7180,37
7181,37
7182,38
7183,38
7184,37
7185,38
7186,37
7187,37
7188,37
7189,37
7190,37
7191,37
7192,37
7193,37
7194,37
7195,37
7196,37
7197,37
7198,37
7199,37
7200,37
7201,37
7202,37
7203,37
7204,37
7205,37
7206,37
7207,37
7208,37
7209,37
7210,37
7211,38
7212,38
7213,38
7214,38
7215,38
7216,38
7217,39
7218,38
7219,38
7220,38
7221,38
7222,37
7223,37
7224,37
7225,37
7226,37
7227,37
7228,37
7229,37
7230,37
7231,38
7232,38
7233,38
7234,37
7235,37
7236,37
7237,38
7238,39
7239,39
7240,38
7241,38
7242,38
7243,38
7244,38
7245,39
7246,39
7247,39
7248,38
7249,38
7250,38
7251,39
7252,38
7253,38
7254,38
7255,39
7256,39
7257,38
7258,38
7259,38
7260,38
7261,38
7262,38
7263,38
7264,38
7265,39
7266,39
7267,39
7268,38
7269,38
7270,38
7271,38
7272,38
7273,38
7274,38
7275,38
7276,38
7277,38
7278,38
7279,38
7280,38
7281,38
7282,38
7283,38
7284,38
7285,38
7286,38
7287,38
7288,38
7289,38
7290,38
7291,38
7292,38
7293,38
7294,38
7295,38
7296,39
7297,38
7298,38
7299,38
7300,38
7301,38
7302,38
7303,38
7304,38
7305,38
7306,38
7307,38
7308,38
7309,38
7310,38
7311,38
7312,38
7313,38
7314,38
7315,38
7316,38
7317,38
7318,38
7319,38
7320,38
7321,38
7322,38
7323,38
7324,38
7325,38
7326,38
7327,38
7328,38
7329,38
7330,38
7331,38
7332,38
7333,38
7334,38
7335,38
7336,38
7337,38
7338,38
7339,38
7340,38
7341,38
7342,38
7343,38
7344,38
7345,38
7346,39
7347,39
7348,39
7349,38
7350,38
7351,38
7352,38
7353,38
7354,38
7355,38
7356,38
7357,38
7358,38
7359,38
7360,38
7361,38
7362,38
7363,38
7364,38
7365,38
7366,38
7367,38
7368,38
7369,38
7370,38
7371,38
7372,38
7373,38
7374,38
7375,39
7376,38
7377,38
7378,38
7379,38
7380,38
7381,38
7382,38
7383,38
7384,38
7385,38
7386,38
7387,38
7388,38
7389,38
7390,38
7391,38
7392,38
7393,38
7394,38
7395,38
7396,38
7397,38
7398,38
7399,38
7400,38
7401,38
7402,38
7403,38
7404,38
7405,38
7406,38
7407,39
7408,38
7409,38
7410,38
7411,38
7412,38
7413,38
7414,38
7415,38
7416,38
7417,38
7418,38
7419,38
7420,38
7421,38
7422,38
7423,38
7424,39
7425,39
7426,39
7427,40
7428,39
7429,39
7430,39
7431,39
7432,39
7433,39
7434,39
7435,39
7436,39
7437,39
7438,39
7439,39
7440,39
7441,39
7442,39
7443,39
7444,39
7445,39
7446,39
7447,39
7448,39
7449,39
7450,39
7451,39
7452,39
7453,39
7454,39
7455,39
7456,39
7457,39
7458,39
7459,40
7460,40
7461,39
7462,39
7463,39
7464,39
7465,39
7466,39
7467,38
7468,38
7469,38
7470,38
7471,38
7472,38
7473,39
7474,39
7475,39
7476,39
7477,39
7478,39
7479,39
7480,40
7481,40
7482,38
7483,38
7484,38
7485,38
7486,38
7487,38
7488,38
7489,38
7490,38
7491,38
7492,38
7493,38
7494,38
7495,38
7496,39
7497,39
7498,39
7499,39
7500,39
7501,39
7502,38
7503,38
7504,38
7505,38
7506,38
7507,38
7508,39
7509,38
7510,38
7511,38
7512,38
7513,38
7514,38
7515,38
7516,38
7517,38
7518,38
7519,38
7520,38
7521,38
7522,38
7523,38
7524,38
7525,38
7526,38
7527,39
7528,40
7529,40
7530,40
7531,40
7532,40
7533,39
7534,38
7535,38
7536,38
7537,39
7538,39
7539,39
7540,38
7541,38
7542,39
7543,39
7544,38
7545,38
7546,38
7547,38
7548,38
7549,38
7550,38
7551,38
7552,38
7553,39
7554,39
7555,39
7556,40
7557,41
7558,40
7559,39
7560,39
7561,39
7562,40
7563,40
7564,40
7565,40
7566,40
7567,40
7568,40
7569,40
7570,40
7571,40
7572,40
7573,40
7574,39
7575,40
7576,40
7577,40
7578,40
7579,40
7580,40
7581,40
7582,40
7583,40
7584,40
7585,40
7586,40
7587,40
7588,40
7589,40
7590,40
7591,41
7592,40
7593,40
7594,40
7595,39
7596,39
7597,39
7598,39
7599,39
7600,39
7601,39
7602,39
7603,39
7604,39
7605,39
7606,39
7607,39
7608,39
7609,40
7610,39
7611,39
7612,39
7613,38
7614,38
7615,38
7616,38
7617,38
7618,38
7619,38
7620,38
7621,38
7622,38
7623,38
7624,38
7625,38
7626,38
7627,38
7628,38
7629,38
7630,38
7631,38
7632,38
7633,38
7634,38
7635,38
7636,38
7637,38
7638,38
7639,38
7640,38
7641,38
7642,38
7643,38
7644,38
7645,39
7646,39
7647,38
7648,38
7649,38
7650,38
7651,38
7652,38
7653,38
7654,38
7655,38
7656,38
7657,38
7658,38
7659,38
7660,38
7661,38
7662,38
7663,38
7664,38
7665,38
7666,38
7667,38
7668,38
7669,39
7670,38
7671,38
7672,38
7673,38
7674,38
7675,38
7676,38
7677,38
7678,38
7679,38
7680,38
7681,39
7682,38
7683,38
7684,38
7685,38
7686,38
7687,38
7688,38
7689,38
7690,38
7691,38
7692,38
7693,39
7694,38
7695,38
7696,39
7697,39
7698,39
7699,39
7700,39
7701,39
7702,39
7703,39
7704,39
7705,38
7706,38
7707,39
7708,39
7709,40
7710,40
7711,41
7712,41
7713,40
7714,40
7715,40
7716,40
7717,40
7718,40
7719,42
7720,42
7721,41
7722,41
7723,40
7724,40
7725,40
7726,40
7727,41
7728,40
7729,39
7730,39
7731,39
7732,39
7733,39
7734,39
7735,39
7736,39
7737,39
7738,39
7739,39
7740,39
7741,39
7742,39
7743,40
7744,40
7745,40
7746,40
7747,39
7748,39
7749,39
7750,39
7751,39
7752,39
7753,39
7754,39
7755,39
7756,39
7757,39
7758,39
7759,39
7760,39
7761,39
7762,39
7763,39
7764,39
7765,39
7766,39
7767,39
7768,39
7769,39
7770,39
7771,40
7772,39
7773,40
7774,40
7775,40
7776,40
7777,40
7778,39
7779,39
7780,39
7781,39
7782,40
7783,39
7784,40
7785,40
7786,40
7787,40
7788,40
7789,40
7790,39
7791,39
7792,39
7793,39
7794,39
7795,39
7796,39
7797,39
7798,39
7799,39
7800,39
7801,39
7802,39
7803,39
7804,40
7805,39
7806,39
7807,39
7808,39
7809,39
7810,39
7811,39
7812,39
7813,39
7814,39
7815,39
7816,39
7817,39
7818,39
7819,39
7820,39
7821,39
7822,39
7823,39
7824,40
7825,40
7826,39
7827,39
7828,39
7829,39
7830,39
7831,39
7832,39
7833,39
7834,40
7835,40
7836,40
7837,40
7838,40
7839,40
7840,40
7841,40
7842,41
7843,39
7844,39
7845,39
7846,39
7847,39
7848,39
7849,39
7850,39
7851,39
7852,39
7853,39
7854,39
7855,39
7856,39
7857,39
7858,39
7859,39
7860,39
7861,39
7862,39
7863,39
7864,39
7865,39
7866,39
7867,39
7868,39
7869,39
7870,39
7871,39
7872,39
7873,39
7874,39
7875,39
7876,39
7877,39
7878,39
7879,39
7880,39
7881,39
7882,39
7883,39
7884,39
7885,39
7886,39
7887,39
7888,39
7889,39
7890,39
7891,39
7892,39
7893,40
7894,40
7895,40
7896,40
7897,39
7898,39
7899,39
7900,39
7901,39
7902,39
7903,39
7904,39
7905,39
7906,39
7907,39
7908,39
7909,39
7910,39
7911,39
7912,39
7913,39
7914,39
7915,39
7916,39
7917,39
7918,39
7919,39
7920,39
7921,39
7922,40
7923,40
7924,40
7925,41
7926,40
7927,40
7928,41
7929,40
7930,40
7931,40
7932,40
7933,40
7934,40
7935,40
7936,40
7937,40
7938,40
7939,40
7940,40
7941,40
7942,40
7943,40
7944,40
7945,41
7946,41
7947,41
7948,42
7949,41
7950,41
7951,41
7952,41
7953,41
7954,40
7955,40
7956,40
7957,41
7958,41
7959,41
7960,41
7961,41
7962,41
7963,42
7964,41
7965,42
7966,42
7967,42
7968,42
7969,42
7970,42
7971,42
7972,42
7973,42
7974,42
7975,43
7976,42
7977,41
7978,41
7979,41
7980,41
7981,41
7982,41
7983,41
7984,41
7985,41
7986,41
7987,41
7988,41
7989,41
7990,41
7991,41
7992,41
7993,41
7994,41
7995,41
7996,41
7997,41
7998,41
7999,41
8000,41
8001,41
8002,41
8003,41
8004,41
8005,42
8006,41
8007,41
8008,41
8009,41
8010,41
8011,41
8012,41
8013,41
8014,41
8015,41
8016,41
8017,42
8018,41
8019,41
8020,41
8021,40
8022,40
8023,40
8024,40
8025,40
8026,40
8027,40
8028,40
8029,40
8030,40
8031,41
8032,41
8033,41
8034,41
8035,41
8036,40
8037,40
8038,40
8039,40
8040,40
8041,40
8042,40
8043,40
8044,40
8045,40
8046,40
8047,40
8048,40
8049,40
8050,40
8051,40
8052,40
8053,40
8054,40
8055,40
8056,40
8057,40
8058,40
8059,40
8060,40
8061,40
8062,40
8063,39
8064,39
8065,39
8066,39
8067,39
8068,40
8069,40
8070,39
8071,39
8072,39
8073,39
8074,39
8075,39
8076,39
8077,39
8078,39
8079,39
8080,39
8081,39
8082,39
8083,39
8084,39
8085,39
8086,39
8087,40
8088,40
8089,39
8090,39
8091,39
8092,39
8093,39
8094,39
8095,39
8096,39
8097,39
8098,39
8099,39
8100,40
8101,39
8102,39
8103,40
8104,40
8105,40
8106,39
8107,39
8108,39
8109,39
8110,39
8111,39
8112,40
8113,39
8114,40
8115,39
8116,39
8117,39
8118,39
8119,39
8120,40
8121,39
8122,39
8123,39
8124,39
8125,39
8126,39
8127,38
8128,38
8129,38
8130,38
8131,38
8132,38
8133,38
8134,38
8135,38
8136,38
8137,38
8138,38
8139,38
8140,38
8141,38
8142,38
8143,38
8144,39
8145,38
8146,39
8147,39
8148,39
8149,39
8150,39
8151,39
8152,39
8153,38
8154,38
8155,38
8156,38
8157,38
8158,38
8159,38
8160,38
8161,39
8162,38
8163,39
8164,39
8165,39
8166,39
8167,38
8168,38
8169,38
8170,38
8171,38
8172,38
8173,38
8174,38
8175,38
8176,38
8177,38
8178,38
8179,38
8180,38
8181,38
8182,38
8183,38
8184,39
8185,39
8186,39
8187,39
8188,39
8189,39
8190,39
8191,39
8192,39
8193,39
8194,40
8195,40
8196,40
8197,40
8198,40
8199,40
8200,41
8201,41
8202,41
8203,40
8204,40
8205,40
8206,40
8207,40
8208,39
8209,39
8210,39
8211,39
8212,39
8213,39
8214,39
8215,39
8216,39
8217,39
8218,39
8219,39
8220,39
8221,39
8222,40
8223,39
8224,39
8225,39
8226,39
8227,39
8228,39
8229,39
8230,39
8231,39
8232,39
8233,39
8234,39
8235,39
8236,39
8237,39
8238,39
8239,39
8240,39
8241,39
8242,38
8243,38
8244,38
8245,38
8246,38
8247,38
8248,38
8249,38
8250,38
8251,38
8252,38
8253,38
8254,38
8255,38
8256,38
8257,38
8258,38
8259,38
8260,38
8261,38
8262,38
8263,38
8264,38
8265,38
8266,38
8267,38
8268,38
8269,38
8270,38
8271,38
8272,39
8273,39
8274,39
8275,39
8276,39
8277,39
8278,39
8279,39
8280,39
8281,39
8282,39
8283,39
8284,39
8285,39
8286,39
8287,39
8288,39
8289,39
8290,39
8291,39
8292,39
8293,39
8294,39
8295,39
8296,39
8297,39
8298,39
8299,39
8300,39
8301,39
8302,39
8303,39
8304,39
8305,39
8306,39
8307,39
8308,39
8309,39
8310,39
8311,39
8312,39
8313,40
8314,40
8315,40
8316,39
8317,39
8318,39
8319,39
8320,39
8321,39
8322,39
8323,39
8324,39
8325,38
8326,38
8327,38
8328,38
8329,38
8330,38
8331,38
8332,38
8333,38
8334,38
8335,38
8336,38
8337,38
8338,38
8339,38
8340,38
8341,38
8342,38
8343,38
8344,38
8345,38
8346,39
8347,38
8348,38
8349,38
8350,38
8351,38
8352,38
8353,38
8354,38
8355,38
8356,38
8357,38
8358,38
8359,38
8360,38
8361,38
8362,38
8363,38
8364