1,3
2,6
3,5
4,5
5,5
6,5
7,5
8,5
9,5
10,5
11,5
12,5
13,6
14,6
15,6
16,6
17,6
18,6
19,6
20,6
21,6
22,6
23,6
24,6
25,6
26,8
27,7
28,7
29,7
30,7
31,7
32,7
33,8
34,8
35,8
36,8
37,8
38,8
39,8
40,8
41,8
42,8
43,8
44,8
45,8
46,8
47,8
48,8
49,8
50,8
51,8
52,8
53,8
54,8
55,8
56,8
57,8
58,8
59,8
60,8
61,8
62,8
63,8
64,8
65,8
66,8
67,8
68,8
69,8
70,8
71,8
72,8
73,8
74,8
75,8
76,8
77,8
78,8
79,8
80,8
81,8
82,8
83,8
84,8
85,8
86,8
87,8
88,8
89,8
90,8
91,8
92,8
93,8
94,8
95,8
96,8
97,8
98,8
99,8
100,8
101,8
102,8
103,8
104,8
105,9
106,9
107,9
108,9
109,9
110,9
111,10
112,9
113,9
114,9
115,9
116,9
117,9
118,9
119,9
120,9
121,9
122,10
123,9
124,9
125,9
126,9
127,9
128,9
129,9
130,9
131,9
132,9
133,9
134,9
135,9
136,9
137,9
138,9
139,9
140,9
141,9
142,9
143,9
144,9
145,9
146,9
147,9
148,9
149,9
150,9
151,9
152,9
153,9
154,9
155,9
156,9
157,9
158,9
159,10
160,10
161,10
162,10
163,10
164,10
165,10
166,10
167,10
168,10
169,10
170,10
171,10
172,10
173,10
174,11
175,11
176,11
177,12
178,11
179,11
180,11
181,11
182,11
183,12
184,12
185,12
186,12
187,12
188,12
189,12
190,12
191,12
192,12
193,12
194,11
195,11
196,11
197,11
198,11
199,11
200,11
201,11
202,11
203,10
204,10
205,10
206,10
207,10
208,10
209,10
210,10
211,10
212,10
213,10
214,10
215,10
216,10
217,10
218,10
219,10
220,10
221,10
222,10
223,10
224,10
225,11
226,11
227,10
228,10
229,10
230,10
231,10
232,10
233,10
234,10
235,10
236,10
237,10
238,10
239,10
240,10
241,10
242,10
243,10
244,10
245,10
246,10
247,10
248,10
249,10
250,10
251,10
252,10
253,10
254,10
255,10
256,10
257,10
258,11
259,10
260,10
261,10
262,10
263,10
264,10
265,11
266,11
267,11
268,11
269,11
270,11
271,11
272,12
273,12
274,12
275,12
276,12
277,12
278,11
279,11
280,11
281,11
282,10
283,10
284,10
285,10
286,10
287,10
288,10
289,10
290,10
291,10
292,10
293,10
294,10
295,10
296,10
297,11
298,11
299,10
300,10
301,10
302,10
303,10
304,10
305,10
306,10
307,10
308,10
309,10
310,10
311,10
312,10
313,10
314,10
315,10
316,10
317,10
318,10
319,10
320,10
321,12
322,11
323,10
324,10
325,10
326,10
327,10
328,10
329,10
330,10
331,10
332,10
333,10
334,10
335,10
336,10
337,10
338,10
339,10
340,10
341,10
342,10
343,10
344,10
345,10
346,10
347,10
348,10
349,10
350,10
351,10
352,10
353,10
354,11
355,11
356,11
357,11
358,11
359,11
360,11
361,11
362,11
363,11
364,11
365,11
366,11
367,11
368,11
369,11
370,11
371,11
372,11
373,11
374,11
375,11
376,11
377,11
378,11
379,11
380,11
381,11
382,11
383,11
384,11
385,11
386,11
387,11
388,11
389,11
390,11
391,11
392,11
393,11
394,11
395,11
396,11
397,11
398,11
399,11
400,11
401,11
402,11
403,11
404,11
405,11
406,11
407,11
408,11
409,11
410,11
411,11
412,11
413,11
414,11
415,11
416,11
417,11
418,11
419,11
420,11
421,11
422,11
423,11
424,11
425,11
426,11
427,11
428,11
429,11
430,11
431,11
432,11
433,11
434,11
435,11
436,11
437,11
438,11
439,11
440,11
441,11
442,11
443,11
444,11
445,11
446,11
447,12
448,12
449,12
450,12
451,12
452,12
453,12
454,12
455,12
456,12
457,12
458,12
459,12
460,12
461,12
462,12
463,12
464,12
465,12
466,12
467,13
468,13
469,13
470,13
471,13
472,13
473,13
474,12
475,13
476,12
477,12
478,12
479,12
480,12
481,12
482,12
483,12
484,12
485,12
486,12
487,12
488,12
489,12
490,12
491,11
492,11
493,11
494,11
495,11
496,11
497,11
498,11
499,11
500,11
501,11
502,11
503,11
504,11
505,11
506,11
507,12
508,12
509,11
510,11
511,11
512,12
513,11
514,11
515,11
516,11
517,11
518,11
519,11
520,11
521,11
522,11
523,11
524,11
525,11
526,11
527,11
528,11
529,11
530,11
531,12
532,12
533,11
534,11
535,11
536,11
537,11
538,11
539,11
540,11
541,11
542,11
543,11
544,11
545,11
546,11
547,11
548,11
549,11
550,11
551,11
552,11
553,12
554,12
555,12
556,12
557,12
558,12
559,12
560,12
561,13
562,13
563,12
564,12
565,12
566,12
567,12
568,12
569,12
570,12
571,12
572,12
573,12
574,12
575,12
576,12
577,12
578,12
579,12
580,12
581,12
582,13
583,14
584,14
585,14
586,14
587,14
588,14
589,13
590,13
591,13
592,13
593,13
594,13
595,14
596,14
597,14
598,14
599,13
600,13
601,13
602,13
603,13
604,13
605,13
606,13
607,13
608,13
609,13
610,13
611,13
612,13
613,13
614,13
615,14
616,14
617,14
618,14
619,14
620,14
621,13
622,13
623,13
624,13
625,13
626,14
627,14
628,15
629,14
630,13
631,13
632,13
633,13
634,13
635,13
636,14
637,14
638,14
639,14
640,13
641,13
642,13
643,13
644,13
645,13
646,13
647,14
648,14
649,14
650,13
651,13
652,13
653,13
654,13
655,13
656,13
657,13
658,13
659,13
660,13
661,13
662,13
663,13
664,13
665,14
666,14
667,14
668,14
669,14
670,14
671,15
672,15
673,14
674,14
675,14
676,14
677,14
678,14
679,14
680,14
681,14
682,15
683,14
684,14
685,14
686,15
687,14
688,14
689,14
690,15
691,15
692,14
693,14
694,14
695,14
696,14
697,14
698,14
699,14
700,14
701,14
702,14
703,15
704,15
705,15
706,15
707,15
708,15
709,15
710,15
711,15
712,15
713,14
714,16
715,16
716,16
717,16
718,16
719,16
720,16
721,16
722,17
723,17
724,16
725,16
726,16
727,16
728,16
729,16
730,17
731,16
732,16
733,15
734,15
735,15
736,15
737,15
738,17
739,17
740,15
741,15
742,15
743,15
744,15
745,15
746,15
747,15
748,15
749,15
750,15
751,15
752,15
753,15
754,15
755,15
756,15
757,15
758,15
759,15
760,15
761,15
762,17
763,17
764,16
765,16
766,16
767,16
768,16
769,16
770,16
771,16
772,16
773,15
774,15
775,15
776,15
777,15
778,16
779,15
780,16
781,16
782,16
783,16
784,16
785,16
786,16
787,16
788,16
789,16
790,16
791,16
792,16
793,16
794,16
795,16
796,16
797,16
798,16
799,16
800,16
801,16
802,16
803,17
804,16
805,16
806,16
807,16
808,16
809,16
810,16
811,16
812,16
813,16
814,16
815,16
816,16
817,16
818,16
819,16
820,16
821,16
822,16
823,16
824,16
825,16
826,16
827,16
828,17
829,16
830,16
831,16
832,16
833,16
834,16
835,16
836,16
837,16
838,16
839,16
840,16
841,17
842,17
843,18
844,18
845,17
846,17
847,17
848,17
849,17
850,17
851,17
852,17
853,17
854,17
855,17
856,17
857,17
858,17
859,17
860,17
861,17
862,17
863,17
864,17
865,17
866,17
867,17
868,17
869,17
870,17
871,17
872,17
873,17
874,17
875,17
876,17
877,17
878,17
879,17
880,17
881,17
882,17
883,17
884,17
885,17
886,17
887,17
888,17
889,17
890,17
891,17
892,17
893,17
894,17
895,17
896,17
897,17
898,18
899,18
900,17
901,17
902,17
903,17
904,17
905,17
906,17
907,17
908,17
909,17
910,17
911,17
912,17
913,17
914,17
915,17
916,17
917,17
918,17
919,17
920,17
921,17
922,18
923,17
924,18
925,17
926,17
927,17
928,17
929,17
930,17
931,17
932,17
933,17
934,17
935,17
936,17
937,17
938,17
939,17
940,17
941,17
942,17
943,17
944,17
945,17
946,17
947,17
948,18
949,17
950,17
951,17
952,17
953,17
954,17
955,17
956,17
957,17
958,17
959,17
960,17
961,17
962,17
963,17
964,17
965,17
966,17
967,17
968,17
969,17
970,17
971,17
972,17
973,17
974,17
975,17
976,17
977,17
978,17
979,17
980,18
981,18
982,18
983,18
984,18
985,18
986,18
987,18
988,18
989,18
990,18
991,18
992,18
993,18
994,18
995,18
996,18
997,19
998,18
999,19
1000,19
1001,19
1002,19
1003,18
1004,18
1005,18
1006,18
1007,18
1008,18
1009,19
1010,19
1011,19
1012,19
1013,19
1014,19
1015,19
1016,19
1017,20
1018,20
1019,20
1020,20
1021,19
1022,19
1023,19
1024,19
1025,19
1026,19
1027,19
1028,19
1029,19
1030,19
1031,19
1032,19
1033,19
1034,19
1035,19
1036,19
1037,19
1038,19
1039,19
1040,19
1041,19
1042,19
1043,19
1044,19
1045,19
1046,19
1047,19
1048,19
1049,19
1050,19
1051,19
1052,19
1053,20
1054,20
1055,20
1056,20
1057,20
1058,20
1059,20
1060,20
1061,20
1062,20
1063,20
1064,20
1065,20
1066,20
1067,20
1068,20
1069,20
1070,20
1071,19
1072,19
1073,19
1074,19
1075,19
1076,19
1077,19
1078,19
1079,19
1080,19
1081,19
1082,19
1083,19
1084,19
1085,19
1086,19
1087,19
1088,19
1089,19
1090,19
1091,19
1092,19
1093,19
1094,19
1095,19
1096,19
1097,19
1098,19
1099,19
1100,19
1101,19
1102,19
1103,19
1104,19
1105,19
1106,19
1107,19
1108,19
1109,19
1110,19
1111,19
1112,19
1113,19
1114,19
1115,19
1116,19
1117,19
1118,20
1119,20
1120,19
1121,19
1122,19
1123,19
1124,19
1125,19
1126,19
1127,19
1128,19
1129,19
1130,19
1131,19
1132,19
1133,19
1134,19
1135,19
1136,19
1137,19
1138,19
1139,19
1140,19
1141,19
1142,19
1143,19
1144,19
1145,19
1146,19
1147,19
1148,19
1149,19
1150,19
1151,19
1152,19
1153,19
1154,19
1155,19
1156,19
1157,19
1158,19
1159,19
1160,19
1161,19
1162,19
1163,19
1164,19
1165,19
1166,19
1167,19
1168,19
1169,19
1170,19
1171,19
1172,19
1173,19
1174,19
1175,19
1176,19
1177,20
1178,19
1179,19
1180,19
1181,19
1182,19
1183,19
1184,19
1185,19
1186,19
1187,19
1188,19
1189,19
1190,19
1191,19
1192,19
1193,19
1194,19
1195,19
1196,19
1197,19
1198,19
1199,20
1200,19
1201,19
1202,19
1203,19
1204,19
1205,19
1206,19
1207,19
1208,19
1209,19
1210,19
1211,20
1212,19
1213,19
1214,19
1215,19
1216,19
1217,19
1218,19
1219,20
1220,21
1221,21
1222,21
1223,21
1224,21
1225,21
1226,21
1227,21
1228,21
1229,21
1230,21
1231,21
1232,21
1233,21
1234,21
1235,21
1236,21
1237,21
1238,21
1239,21
1240,21
1241,21
1242,21
1243,21
1244,21
1245,21
1246,21
1247,21
1248,21
1249,21
1250,21
1251,21
1252,21
1253,21
1254,21
1255,21
1256,21
1257,21
1258,21
1259,21
1260,21
1261,21
1262,21
1263,21
1264,21
1265,21
1266,21
1267,21
1268,21
1269,21
1270,21
1271,21
1272,21
1273,21
1274,21
1275,21
1276,21
1277,21
1278,21
1279,21
1280,21
1281,21
1282,21
1283,21
1284,21
1285,22
1286,22
1287,22
1288,22
1289,22
1290,21
1291,21
1292,21
1293,21
1294,21
1295,21
1296,21
1297,21
1298,21
1299,21
1300,21
1301,22
1302,21
1303,21
1304,21
1305,21
1306,21
1307,21
1308,21
1309,21
1310,22
1311,21
1312,21
1313,21
1314,21
1315,21
1316,21
1317,21
1318,21
1319,21
1320,21
1321,21
1322,21
1323,21
1324,21
1325,21
1326,21
1327,21
1328,21
1329,21
1330,22
1331,21
1332,21
1333,21
1334,21
1335,22
1336,22
1337,21
1338,21
1339,21
1340,21
1341,21
1342,21
1343,21
1344,21
1345,21
1346,22
1347,21
1348,21
1349,21
1350,21
1351,21
1352,21
1353,22
1354,21
1355,21
1356,21
1357,21
1358,21
1359,22
1360,22
1361,21
1362,21
1363,21
1364,21
1365,21
1366,21
1367,21
1368,21
1369,21
1370,21
1371,21
1372,22
1373,21
1374,21
1375,21
1376,21
1377,21
1378,21
1379,21
1380,21
1381,21
1382,21
1383,21
1384,21
1385,21
1386,21
1387,21
1388,21
1389,21
1390,21
1391,21
1392,21
1393,21
1394,21
1395,21
1396,21
1397,21
1398,21
1399,21
1400,21
1401,21
1402,21
1403,21
1404,22
1405,22
1406,21
1407,21
1408,21
1409,21
1410,21
1411,21
1412,21
1413,21
1414,22
1415,21
1416,21
1417,21
1418,21
1419,21
1420,21
1421,21
1422,21
1423,21
1424,21
1425,22
1426,21
1427,21
1428,21
1429,22
1430,22
1431,22
1432,22
1433,21
1434,21
1435,21
1436,21
1437,21
1438,21
1439,21
1440,21
1441,21
1442,21
1443,21
1444,21
1445,21
1446,21
1447,21
1448,21
1449,21
1450,21
1451,21
1452,21
1453,21
1454,21
1455,21
1456,22
1457,21
1458,21
1459,21
1460,21
1461,21
1462,22
1463,21
1464,21
1465,21
1466,21
1467,21
1468,21
1469,21
1470,21
1471,22
1472,22
1473,22
1474,22
1475,22
1476,22
1477,22
1478,22
1479,22
1480,22
1481,22
1482,22
1483,22
1484,22
1485,22
1486,22
1487,22
1488,22
1489,23
1490,22
1491,22
1492,22
1493,22
1494,22
1495,22
1496,22
1497,22
1498,22
1499,22
1500,22
1501,22
1502,22
1503,22
1504,22
1505,22
1506,22
1507,22
1508,22
1509,22
1510,22
1511,22
1512,22
1513,22
1514,22
1515,22
1516,22
1517,22
1518,22
1519,22
1520,22
1521,22
1522,22
1523,22
1524,22
1525,22
1526,22
1527,22
1528,22
1529,22
1530,22
1531,22
1532,22
1533,22
1534,23
1535,23
1536,22
1537,22
1538,22
1539,22
1540,23
1541,22
1542,22
1543,22
1544,22
1545,22
1546,22
1547,23
1548,23
1549,23
1550,23
1551,23
1552,23
1553,23
1554,23
1555,24
1556,24
1557,25
1558,25
1559,25
1560,25
1561,23
1562,22
1563,23
1564,23
1565,23
1566,23
1567,23
1568,23
1569,23
1570,24
1571,24
1572,24
1573,24
1574,24
1575,24
1576,24
1577,23
1578,23
1579,23
1580,23
1581,23
1582,23
1583,23
1584,23
1585,24
1586,24
1587,24
1588,24
1589,24
1590,24
1591,24
1592,24
1593,24
1594,24
1595,24
1596,24
1597,24
1598,25
1599,26
1600,25
1601,25
1602,25
1603,25
1604,26
1605,25
1606,25
1607,25
1608,25
1609,25
1610,25
1611,24
1612,24
1613,24
1614,25
1615,25
1616,25
1617,24
1618,24
1619,24
1620,24
1621,24
1622,24
1623,24
1624,24
1625,24
1626,24
1627,24
1628,24
1629,24
1630,24
1631,24
1632,24
1633,24
1634,24
1635,24
1636,24
1637,24
1638,25
1639,24
1640,24
1641,24
1642,24
1643,25
1644,24
1645,24
1646,24
1647,24
1648,24
1649,24
1650,24
1651,24
1652,24
1653,24
1654,24
1655,24
1656,24
1657,24
1658,24
1659,24
1660,25
1661,25
1662,24
1663,24
1664,24
1665,24
1666,24
1667,24
1668,24
1669,24
1670,25
1671,25
1672,24
1673,24
1674,24
1675,24
1676,25
1677,25
1678,25
1679,25
1680,25
1681,26
1682,26
1683,27
1684,27
1685,26
1686,25
1687,24
1688,24
1689,24
1690,24
1691,24
1692,24
1693,24
1694,24
1695,24
1696,24
1697,24
1698,24
1699,24
1700,24
1701,24
1702,24
1703,24
1704,24
1705,24
1706,24
1707,24
1708,24
1709,24
1710,24
1711,24
1712,24
1713,24
1714,24
1715,24
1716,24
1717,25
1718,25
1719,25
1720,25
1721,24
1722,25
1723,25
1724,25
1725,25
1726,25
1727,24
1728,24
1729,24
1730,24
1731,24
1732,24
1733,24
1734,24
1735,24
1736,24
1737,24
1738,24
1739,25
1740,25
1741,25
1742,25
1743,25
1744,25
1745,25
1746,25
1747,24
1748,24
1749,24
1750,24
1751,24
1752,24
1753,24
1754,24
1755,24
1756,24
1757,24
1758,24
1759,24
1760,24
1761,24
1762,24
1763,24
1764,24
1765,24
1766,25
1767,25
1768,25
1769,25
1770,25
1771,25
1772,25
1773,25
1774,25
1775,25
1776,25
1777,25
1778,25
1779,25
1780,25
1781,25
1782,25
1783,25
1784,25
1785,25
1786,25
1787,25
1788,25
1789,25
1790,25
1791,25
1792,25
1793,24
1794,24
1795,24
1796,24
1797,24
1798,24
1799,24
1800,24
1801,24
1802,25
1803,25
1804,25
1805,25
1806,24
1807,24
1808,24
1809,24
1810,24
1811,24
1812,24
1813,24
1814,24
1815,24
1816,24
1817,24
1818,24
1819,24
1820,24
1821,24
1822,24
1823,24
1824,24
1825,24
1826,24
1827,24
1828,25
1829,25
1830,24
1831,24
1832,24
1833,24
1834,24
1835,25
1836,25
1837,25
1838,25
1839,25
1840,25
1841,25
1842,24
1843,24
1844,24
1845,24
1846,24
1847,24
1848,24
1849,24
1850,24
1851,24
1852,24
1853,24
1854,24
1855,24
1856,25
1857,25
1858,25
1859,25
1860,25
1861,25
1862,25
1863,25
1864,25
1865,25
1866,25
1867,25
1868,25
1869,24
1870,24
1871,24
1872,24
1873,24
1874,24
1875,24
1876,24
1877,24
1878,24
1879,24
1880,24
1881,24
1882,24
1883,24
1884,24
1885,24
1886,24
1887,24
1888,24
1889,24
1890,24
1891,24
1892,25
1893,25
1894,25
1895,25
1896,24
1897,24
1898,24
1899,24
1900,24
1901,24
1902,24
1903,25
1904,25
1905,24
1906,24
1907,24
1908,24
1909,24
1910,25
1911,24
1912,24
1913,24
1914,24
1915,24
1916,24
1917,24
1918,24
1919,24
1920,24
1921,24
1922,24
1923,24
1924,24
1925,24
1926,24
1927,24
1928,24
1929,24
1930,24
1931,24
1932,24
1933,24
1934,24
1935,25
1936,26
1937,26
1938,25
1939,25
1940,25
1941,25
1942,25
1943,25
1944,25
1945,25
1946,25
1947,25
1948,25
1949,25
1950,25
1951,25
1952,25
1953,25
1954,25
1955,25
1956,25
1957,25
1958,25
1959,25
1960,25
1961,26
1962,25
1963,24
1964,24
1965,24
1966,25
1967,26
1968,26
1969,26
1970,25
1971,25
1972,25
1973,24
1974,24
1975,25
1976,25
1977,25
1978,25
1979,25
1980,24
1981,24
1982,24
1983,24
1984,24
1985,24
1986,24
1987,24
1988,24
1989,24
1990,24
1991,24
1992,24
1993,24
1994,24
1995,24
1996,25
1997,25
1998,25
1999,25
2000,25
2001,25
2002,25
2003,25
2004,25
2005,25
2006,25
2007,26
2008,26
2009,26
2010,26
2011,26
2012,26
2013,25
2014,25
2015,25
2016,25
2017,25
2018,25
2019,25
2020,25
2021,25
2022,25
2023,25
2024,25
2025,25
2026,25
2027,25
2028,25
2029,25
2030,25
2031,25
2032,25
2033,25
2034,25
2035,25
2036,25
2037,25
2038,26
2039,25
2040,25
2041,25
2042,25
2043,26
2044,25
2045,25
2046,25
2047,25
2048,25
2049,25
2050,25
2051,25
2052,27
2053,26
2054,25
2055,25
2056,25
2057,26
2058,26
2059,25
2060,25
2061,25
2062,25
2063,25
2064,25
2065,25
2066,25
2067,25
2068,25
2069,25
2070,25
2071,25
2072,25
2073,25
2074,25
2075,25
2076,25
2077,25
2078,25
2079,25
2080,25
2081,26
2082,26
2083,25
2084,25
2085,25
2086,25
2087,25
2088,25
2089,25
2090,25
2091,25
2092,25
2093,25
2094,25
2095,25
2096,25
2097,25
2098,25
2099,25
2100,25
2101,26
2102,26
2103,26
2104,26
2105,26
2106,26
2107,26
2108,26
2109,26
2110,26
2111,26
2112,26
2113,26
2114,26
2115,26
2116,26
2117,26
2118,26
2119,27
2120,27
2121,27
2122,27
2123,27
2124,27
2125,27
2126,27
2127,27
2128,27
2129,27
2130,28
2131,27
2132,27
2133,25
2134,25
2135,25
2136,25
2137,25
2138,25
2139,25
2140,25
2141,26
2142,26
2143,26
2144,26
2145,25
2146,25
2147,25
2148,25
2149,25
2150,25
2151,25
2152,25
2153,25
2154,25
2155,25
2156,25
2157,25
2158,25
2159,25
2160,25
2161,25
2162,25
2163,25
2164,25
2165,25
2166,25
2167,25
2168,25
2169,25
2170,25
2171,25
2172,25
2173,25
2174,25
2175,25
2176,26
2177,26
2178,26
2179,26
2180,26
2181,26
2182,26
2183,26
2184,26
2185,26
2186,26
2187,26
2188,27
2189,26
2190,26
2191,26
2192,26
2193,26
2194,26
2195,25
2196,25
2197,25
2198,25
2199,25
2200,25
2201,25
2202,25
2203,25
2204,25
2205,25
2206,25
2207,25
2208,25
2209,25
2210,25
2211,25
2212,25
2213,25
2214,25
2215,25
2216,25
2217,25
2218,25
2219,25
2220,25
2221,25
2222,25
2223,25
2224,25
2225,25
2226,25
2227,25
2228,25
2229,25
2230,25
2231,25
2232,25
2233,25
2234,25
2235,25
2236,25
2237,25
2238,25
2239,25
2240,25
2241,26
2242,25
2243,27
2244,26
2245,25
2246,25
2247,25
2248,25
2249,25
2250,25
2251,25
2252,25
2253,25
2254,26
2255,26
2256,26
2257,25
2258,25
2259,25
2260,25
2261,25
2262,25
2263,25
2264,25
2265,25
2266,25
2267,25
2268,25
2269,25
2270,25
2271,26
2272,26
2273,26
2274,25
2275,25
2276,25
2277,25
2278,25
2279,25
2280,25
2281,25
2282,25
2283,25
2284,25
2285,25
2286,25
2287,25
2288,25
2289,25
2290,25
2291,25
2292,25
2293,25
2294,26
2295,27
2296,25
2297,25
2298,25
2299,25
2300,25
2301,25
2302,25
2303,25
2304,25
2305,25
2306,25
2307,25
2308,25
2309,25
2310,25
2311,25
2312,25
2313,25
2314,25
2315,25
2316,25
2317,26
2318,26
2319,26
2320,26
2321,25
2322,25
2323,25
2324,25
2325,25
2326,25
2327,25
2328,25
2329,25
2330,25
2331,25
2332,25
2333,25
2334,25
2335,25
2336,25
2337,25
2338,26
2339,25
2340,25
2341,25
2342,25
2343,25
2344,25
2345,25
2346,25
2347,25
2348,25
2349,25
2350,25
2351,25
2352,25
2353,25
2354,25
2355,25
2356,25
2357,25
2358,25
2359,25
2360,25
2361,26
2362,26
2363,25
2364,25
2365,25
2366,25
2367,25
2368,25
2369,25
2370,25
2371,25
2372,26
2373,26
2374,26
2375,26
2376,26
2377,26
2378,26
2379,26
2380,26
2381,26
2382,26
2383,27
2384,27
2385,27
2386,27
2387,27
2388,27
2389,27
2390,27
2391,27
2392,26
2393,26
2394,26
2395,26
2396,26
2397,25
2398,25
2399,25
2400,25
2401,25
2402,25
2403,25
2404,25
2405,25
2406,26
2407,26
2408,25
2409,25
2410,25
2411,25
2412,25
2413,25
2414,25
2415,25
2416,25
2417,25
2418,25
2419,25
2420,25
2421,25
2422,25
2423,26
2424,26
2425,26
2426,26
2427,26
2428,26
2429,26
2430,26
2431,26
2432,26
2433,26
2434,26
2435,26
2436,26
2437,26
2438,26
2439,26
2440,26
2441,26
2442,26
2443,26
2444,26
2445,26
2446,26
2447,26
2448,26
2449,26
2450,26
2451,26
2452,26
2453,26
2454,26
2455,26
2456,25
2457,25
2458,25
2459,25
2460,25
2461,25
2462,25
2463,25
2464,25
2465,25
2466,25
2467,25
2468,26
2469,26
2470,26
2471,25
2472,27
2473,27
2474,26
2475,25
2476,25
2477,25
2478,25
2479,25
2480,25
2481,25
2482,26
2483,26
2484,25
2485,26
2486,26
2487,26
2488,27
2489,27
2490,28
2491,27
2492,27
2493,27
2494,27
2495,27
2496,27
2497,28
2498,28
2499,30
2500,30
2501,28
2502,27
2503,27
2504,27
2505,27
2506,27
2507,27
2508,27
2509,27
2510,27
2511,27
2512,27
2513,27
2514,27
2515,27
2516,27
2517,27
2518,27
2519,27
2520,27
2521,27
2522,27
2523,27
2524,27
2525,27
2526,27
2527,27
2528,28
2529,27
2530,27
2531,27
2532,27
2533,27
2534,27
2535,28
2536,27
2537,27
2538,27
2539,27
2540,27
2541,27
2542,27
2543,27
2544,28
2545,28
2546,28
2547,28
2548,28
2549,28
2550,28
2551,28
2552,28
2553,28
2554,28
2555,28
2556,28
2557,28
2558,28
2559,29
2560,28
2561,28
2562,28
2563,28
2564,28
2565,28
2566,28
2567,28
2568,28
2569,28
2570,28
2571,28
2572,28
2573,29
2574,28
2575,28
2576,28
2577,28
2578,28
2579,28
2580,28
2581,28
2582,28
2583,28
2584,28
2585,28
2586,28
2587,28
2588,28
2589,28
2590,28
2591,28
2592,28
2593,28
2594,28
2595,28
2596,28
2597,28
2598,28
2599,28
2600,28
2601,28
2602,28
2603,28
2604,28
2605,28
2606,28
2607,28
2608,28
2609,28
2610,28
2611,28
2612,28
2613,28
2614,28
2615,28
2616,28
2617,28
2618,28
2619,28
2620,29
2621,29
2622,29
2623,29
2624,28
2625,28
2626,28
2627,28
2628,28
2629,28
2630,28
2631,28
2632,28
2633,28
2634,28
2635,28
2636,28
2637,28
2638,28
2639,28
2640,28
2641,28
2642,28
2643,28
2644,28
2645,28
2646,28
2647,28
2648,29
2649,29
2650,29
2651,29
2652,28
2653,28
2654,28
2655,28
2656,29
2657,29
2658,29
2659,29
2660,29
2661,29
2662,30
2663,28
2664,28
2665,28
2666,28
2667,28
2668,28
2669,28
2670,28
2671,28
2672,28
2673,28
2674,28
2675,28
2676,28
2677,28
2678,29
2679,29
2680,28
2681,28
2682,29
2683,28
2684,29
2685,28
2686,28
2687,28
2688,28
2689,28
2690,28
2691,28
2692,28
2693,28
2694,28
2695,28
2696,28
2697,28
2698,28
2699,28
2700,28
2701,28
2702,28
2703,28
2704,28
2705,28
2706,28
2707,28
2708,28
2709,28
2710,28
2711,28
2712,28
2713,28
2714,28
2715,28
2716,28
2717,28
2718,28
2719,28
2720,28
2721,28
2722,28
2723,28
2724,28
2725,28
2726,28
2727,28
2728,29
2729,28
2730,28
2731,28
2732,28
2733,28
2734,28
2735,28
2736,28
2737,28
2738,28
2739,28
2740,28
2741,28
2742,28
2743,28
2744,28
2745,28
2746,28
2747,28
2748,28
2749,28
2750,28
2751,28
2752,28
2753,28
2754,28
2755,28
2756,28
2757,28
2758,29
2759,28
2760,28
2761,28
2762,29
2763,29
2764,30
2765,30
2766,30
2767,29
2768,30
2769,30
2770,29
2771,29
2772,29
2773,29
2774,29
2775,29
2776,29
2777,29
2778,29
2779,29
2780,29
2781,29
2782,29
2783,30
2784,30
2785,30
2786,30
2787,30
2788,30
2789,30
2790,30
2791,30
2792,30
2793,30
2794,30
2795,30
2796,30
2797,30
2798,29
2799,29
2800,29
2801,29
2802,29
2803,29
2804,29
2805,29
2806,29
2807,29
2808,29
2809,29
2810,29
2811,29
2812,29
2813,29
2814,29
2815,29
2816,29
2817,29
2818,29
2819,29
2820,29
2821,29
2822,29
2823,29
2824,29
2825,29
2826,29
2827,29
2828,30
2829,30
2830,30
2831,29
2832,29
2833,29
2834,29
2835,29
2836,29
2837,29
2838,29
2839,29
2840,29
2841,29
2842,29
2843,29
2844,29
2845,29
2846,29
2847,29
2848,29
2849,29
2850,29
2851,29
2852,29
2853,29
2854,29
2855,29
2856,29
2857,29
2858,29
2859,29
2860,29
2861,29
2862,29
2863,30
2864,30
2865,30
2866,29
2867,29
2868,29
2869,29
2870,29
2871,29
2872,29
2873,29
2874,29
2875,29
2876,29
2877,29
2878,29
2879,29
2880,29
2881,29
2882,29
2883,29
2884,29
2885,29
2886,29
2887,29
2888,29
2889,29
2890,29
2891,29
2892,29
2893,29
2894,29
2895,29
2896,29
2897,29
2898,29
2899,29
2900,29
2901,29
2902,29
2903,29
2904,29
2905,29
2906,29
2907,29
2908,32
2909,31
2910,31
2911,29
2912,30
2913,30
2914,30
2915,31
2916,31
2917,31
2918,31
2919,30
2920,30
2921,30
2922,30
2923,30
2924,30
2925,30
2926,29
2927,29
2928,29
2929,29
2930,29
2931,30
2932,29
2933,29
2934,29
2935,29
2936,29
2937,29
2938,30
2939,29
2940,29
2941,29
2942,29
2943,29
2944,29
2945,29
2946,29
2947,29
2948,29
2949,30
2950,29
2951,29
2952,29
2953,29
2954,29
2955,29
2956,29
2957,29
2958,29
2959,29
2960,29
2961,29
2962,29
2963,29
2964,29
2965,29
2966,29
2967,29
2968,29
2969,29
2970,29
2971,29
2972,29
2973,29
2974,30
2975,29
2976,29
2977,29
2978,29
2979,29
2980,30
2981,30
2982,30
2983,30
2984,29
2985,29
2986,29
2987,29
2988,29
2989,30
2990,29
2991,29
2992,29
2993,29
2994,29
2995,29
2996,29
2997,29
2998,29
2999,29
3000,29
3001,29
3002,29
3003,29
3004,29
3005,29
3006,29
3007,29
3008,29
3009,29
3010,29
3011,29
3012,29
3013,29
3014,29
3015,29
3016,29
3017,29
3018,29
3019,29
3020,29
3021,29
3022,29
3023,29
3024,29
3025,30
3026,29
3027,29
3028,29
3029,29
3030,30
3031,29
3032,29
3033,29
3034,29
3035,29
3036,29
3037,29
3038,29
3039,29
3040,29
3041,29
3042,29
3043,29
3044,30
3045,29
3046,29
3047,29
3048,29
3049,29
3050,29
3051,29
3052,29
3053,29
3054,29
3055,29
3056,29
3057,29
3058,29
3059,29
3060,29
3061,29
3062,29
3063,29
3064,28
3065,29
3066,29
3067,29
3068,29
3069,29
3070,29
3071,29
3072,28
3073,28
3074,28
3075,28
3076,28
3077,28
3078,28
3079,28
3080,28
3081,28
3082,28
3083,28
3084,28
3085,28
3086,28
3087,28
3088,28
3089,28
3090,28
3091,28
3092,28
3093,28
3094,28
3095,28
3096,28
3097,28
3098,28
3099,28
3100,28
3101,28
3102,28
3103,28
3104,28
3105,28
3106,28
3107,28
3108,28
3109,28
3110,28
3111,28
3112,28
3113,28
3114,29
3115,29
3116,29
3117,29
3118,29
3119,29
3120,29
3121,29
3122,29
3123,29
3124,29
3125,28
3126,28
3127,28
3128,28
3129,29
3130,28
3131,28
3132,28
3133,28
3134,28
3135,30
3136,29
3137,28
3138,28
3139,28
3140,28
3141,28
3142,28
3143,28
3144,28
3145,28
3146,28
3147,28
3148,28
3149,28
3150,28
3151,28
3152,28
3153,28
3154,28
3155,28
3156,28
3157,28
3158,28
3159,28
3160,28
3161,28
3162,28
3163,29
3164,28
3165,28
3166,29
3167,28
3168,28
3169,28
3170,28
3171,28
3172,28
3173,28
3174,28
3175,28
3176,28
3177,29
3178,29
3179,29
3180,28
3181,28
3182,28
3183,28
3184,28
3185,28
3186,29
3187,28
3188,28
3189,28
3190,28
3191,28
3192,28
3193,28
3194,28
3195,28
3196,28
3197,28
3198,28
3199,28
3200,28
3201,28
3202,28
3203,28
3204,28
3205,28
3206,28
3207,28
3208,28
3209,28
3210,28
3211,28
3212,28
3213,28
3214,28
3215,28
3216,28
3217,28
3218,28
3219,29
3220,29
3221,30
3222,29
3223,29
3224,29
3225,28
3226,28
3227,28
3228,28
3229,28
3230,28
3231,28
3232,28
3233,28
3234,28
3235,28
3236,28
3237,29
3238,28
3239,28
3240,28
3241,28
3242,28
3243,28
3244,28
3245,28
3246,28
3247,28
3248,28
3249,28
3250,28
3251,28
3252,28
3253,28
3254,28
3255,28
3256,28
3257,28
3258,28
3259,28
3260,29
3261,29
3262,29
3263,28
3264,28
3265,28
3266,28
3267,28
3268,28
3269,28
3270,28
3271,28
3272,28
3273,28
3274,28
3275,28
3276,28
3277,28
3278,28
3279,28
3280,28
3281,28
3282,28
3283,28
3284,28
3285,28
3286,28
3287,28
3288,28
3289,28
3290,28
3291,29
3292,29
3293,29
3294,29
3295,29
3296,29
3297,29
3298,29
3299,29
3300,29
3301,30
3302,30
3303,30
3304,29
3305,30
3306,30
3307,29
3308,29
3309,29
3310,29
3311,29
3312,29
3313,29
3314,29
3315,29
3316,29
3317,29
3318,29
3319,29
3320,29
3321,29
3322,29
3323,30
3324,29
3325,29
3326,29
3327,29
3328,29
3329,29
3330,29
3331,29
3332,29
3333,30
3334,30
3335,30
3336,29
3337,29
3338,29
3339,29
3340,29
3341,29
3342,29
3343,29
3344,29
3345,29
3346,29
3347,29
3348,29
3349,29
3350,30
3351,29
3352,29
3353,29
3354,29
3355,29
3356,29
3357,29
3358,29
3359,29
3360,29
3361,29
3362,29
3363,29
3364,29
3365,29
3366,29
3367,29
3368,29
3369,29
3370,29
3371,29
3372,29
3373,30
3374,29
3375,29
3376,29
3377,29
3378,29
3379,29
3380,29
3381,29
3382,29
3383,29
3384,29
3385,30
3386,29
3387,29
3388,29
3389,29
3390,29
3391,30
3392,30
3393,30
3394,30
3395,30
3396,30
3397,30
3398,30
3399,30
3400,30
3401,30
3402,30
3403,30
3404,30
3405,30
3406,30
3407,30
3408,30
3409,30
3410,30
3411,30
3412,30
3413,30
3414,30
3415,30
3416,30
3417,30
3418,30
3419,30
3420,30
3421,30
3422,31
3423,31
3424,30
3425,30
3426,30
3427,30
3428,30
3429,29
3430,29
3431,29
3432,29
3433,29
3434,29
3435,29
3436,29
3437,29
3438,29
3439,30
3440,30
3441,30
3442,30
3443,30
3444,29
3445,29
3446,29
3447,29
3448,29
3449,29
3450,29
3451,29
3452,30
3453,29
3454,29
3455,29
3456,29
3457,29
3458,29
3459,29
3460,29
3461,29
3462,29
3463,29
3464,28
3465,28
3466,28
3467,28
3468,28
3469,29
3470,28
3471,28
3472,28
3473,28
3474,28
3475,28
3476,28
3477,28
3478,28
3479,28
3480,28
3481,28
3482,28
3483,28
3484,29
3485,29
3486,29
3487,28
3488,28
3489,28
3490,28
3491,28
3492,28
3493,28
3494,28
3495,28
3496,28
3497,28
3498,28
3499,28
3500,28
3501,28
3502,28
3503,28
3504,28
3505,28
3506,28
3507,28
3508,28
3509,28
3510,28
3511,28
3512,28
3513,28
3514,28
3515,28
3516,28
3517,28
3518,28
3519,28
3520,29
3521,28
3522,28
3523,28
3524,28
3525,28
3526,28
3527,28
3528,28
3529,28
3530,28
3531,28
3532,28
3533,28
3534,28
3535,28
3536,28
3537,28
3538,28
3539,28
3540,28
3541,28
3542,28
3543,28
3544,28
3545,29
3546,28
3547,28
3548,28
3549,28
3550,28
3551,28
3552,28
3553,28
3554,28
3555,28
3556,28
3557,28
3558,28
3559,28
3560,28
3561,29
3562,29
3563,29
3564,28
3565,28
3566,29
3567,28
3568,28
3569,28
3570,28
3571,28
3572,28
3573,28
3574,28
3575,28
3576,28
3577,28
3578,28
3579,28
3580,28
3581,28
3582,28
3583,28
3584,28
3585,28
3586,28
3587,28
3588,28
3589,28
3590,28
3591,28
3592,28
3593,28
3594,29
3595,28
3596,28
3597,28
3598,28
3599,28
3600,28
3601,28
3602,29
3603,29
3604,29
3605,29
3606,28
3607,28
3608,28
3609,28
3610,28
3611,28
3612,28
3613,28
3614,28
3615,28
3616,28
3617,28
3618,28
3619,28
3620,28
3621,28
3622,28
3623,28
3624,28
3625,28
3626,28
3627,28
3628,28
3629,28
3630,28
3631,28
3632,28
3633,28
3634,28
3635,28
3636,30
3637,31
3638,30
3639,29
3640,28
3641,28
3642,28
3643,28
3644,28
3645,28
3646,28
3647,28
3648,28
3649,28
3650,28
3651,28
3652,28
3653,28
3654,28
3655,29
3656,29
3657,29
3658,29
3659,29
3660,29
3661,29
3662,29
3663,28
3664,28
3665,28
3666,28
3667,28
3668,28
3669,28
3670,28
3671,28
3672,28
3673,28
3674,28
3675,28
3676,28
3677,28
3678,28
3679,28
3680,28
3681,28
3682,28
3683,28
3684,28
3685,28
3686,28
3687,28
3688,28
3689,28
3690,28
3691,28
3692,28
3693,28
3694,28
3695,28
3696,28
3697,28
3698,28
3699,28
3700,28
3701,28
3702,28
3703,28
3704,28
3705,28
3706,28
3707,28
3708,28
3709,28
3710,28
3711,28
3712,28
3713,28
3714,28
3715,28
3716,28
3717,28
3718,28
3719,28
3720,28
3721,28
3722,28
3723,28
3724,28
3725,28
3726,28
3727,28
3728,28
3729,28
3730,28
3731,28
3732,28
3733,28
3734,28
3735,28
3736,28
3737,28
3738,28
3739,28
3740,28
3741,29
3742,28
3743,28
3744,28
3745,28
3746,29
3747,28
3748,28
3749,28
3750,28
3751,28
3752,28
3753,28
3754,28
3755,28
3756,28
3757,28
3758,28
3759,28
3760,28
3761,28
3762,28
3763,28
3764,28
3765,28
3766,28
3767,28
3768,28
3769,28
3770,28
3771,28
3772,28
3773,28
3774,28
3775,28
3776,28
3777,28
3778,28
3779,28
3780,28
3781,28
3782,28
3783,28
3784,28
3785,29
3786,29
3787,28
3788,28
3789,28
3790,28
3791,28
3792,28
3793,28
3794,28
3795,28
3796,28
3797,28
3798,28
3799,28
3800,28
3801,28
3802,28
3803,28
3804,28
3805,28
3806,28
3807,28
3808,29
3809,28
3810,28
3811,28
3812,28
3813,28
3814,28
3815,28
3816,28
3817,28
3818,28
3819,28
3820,28
3821,28
3822,28
3823,28
3824,28
3825,28
3826,28
3827,28
3828,28
3829,28
3830,28
3831,29
3832,28
3833,28
3834,28
3835,28
3836,28
3837,28
3838,28
3839,28
3840,28
3841,28
3842,29
3843,29
3844,29
3845,29
3846,29
3847,29
3848,29
3849,29
3850,29
3851,29
3852,29
3853,29
3854,29
3855,29
3856,29
3857,29
3858,29
3859,30
3860,30
3861,30
3862,29
3863,29
3864,29
3865,29
3866,29
3867,29
3868,29
3869,29
3870,29
3871,29
3872,29
3873,29
3874,29
3875,29
3876,29
3877,29
3878,29
3879,29
3880,29
3881,29
3882,29
3883,30
3884,30
3885,30
3886,30
3887,30
3888,30
3889,30
3890,30
3891,30
3892,30
3893,30
3894,30
3895,30
3896,30
3897,30
3898,30
3899,30
3900,30
3901,31
3902,30
3903,30
3904,30
3905,30
3906,30
3907,30
3908,30
3909,30
3910,30
3911,30
3912,30
3913,30
3914,31
3915,31
3916,31
3917,31
3918,31
3919,31
3920,31
3921,31
3922,31
3923,31
3924,31
3925,31
3926,31
3927,31
3928,31
3929,31
3930,31
3931,31
3932,31
3933,31
3934,31
3935,31
3936,31
3937,31
3938,32
3939,32
3940,32
3941,32
3942,32
3943,32
3944,32
3945,32
3946,32
3947,32
3948,32
3949,32
3950,32
3951,32
3952,32
3953,32
3954,32
3955,32
3956,32
3957,33
3958,33
3959,33
3960,32
3961,32
3962,32
3963,32
3964,32
3965,32
3966,32
3967,32
3968,32
3969,32
3970,32
3971,32
3972,33
3973,32
3974,32
3975,32
3976,32
3977,32
3978,32
3979,32
3980,32
3981,32
3982,32
3983,32
3984,32
3985,32
3986,32
3987,32
3988,32
3989,32
3990,32
3991,32
3992,32
3993,32
3994,32
3995,32
3996,32
3997,32
3998,32
3999,32
4000,32
4001,32
4002,32
4003,32
4004,32
4005,33
4006,33
4007,33
4008,32
4009,32
4010,32
4011,32
4012,32
4013,32
4014,32
4015,32
4016,32
4017,32
4018,32
4019,32
4020,32
4021,32
4022,32
4023,32
4024,32
4025,32
4026,32
4027,33
4028,33
4029,32
4030,32
4031,32
4032,32
4033,32
4034,32
4035,32
4036,32
4037,32
4038,32
4039,32
4040,32
4041,32
4042,32
4043,32
4044,32
4045,32
4046,32
4047,32
4048,32
4049,32
4050,32
4051,32
4052,32
4053,32
4054,32
4055,32
4056,32
4057,32
4058,32
4059,32
4060,32
4061,32
4062,32
4063,32
4064,32
4065,32
4066,32
4067,32
4068,32
4069,32
4070,32
4071,32
4072,32
4073,32
4074,32
4075,32
4076,32
4077,32
4078,32
4079,32
4080,32
4081,32
4082,32
4083,32
4084,32
4085,32
4086,32
4087,32
4088,32
4089,32
4090,32
4091,32
4092,32
4093,32
4094,32
4095,32
4096,32
4097,32
4098,32
4099,32
4100,32
4101,32
4102,32
4103,32
4104,32
4105,32
4106,32
4107,32
4108,32
4109,32
4110,32
4111,32
4112,32
4113,32
4114,32
4115,32
4116,32
4117,32
4118,32
4119,32
4120,32
4121,32
4122,32
4123,32
4124,32
4125,32
4126,32
4127,32
4128,32
4129,32
4130,32
4131,32
4132,32
4133,32
4134,32
4135,32
4136,32
4137,32
4138,32
4139,32
4140,32
4141,32
4142,32
4143,32
4144,32
4145,32
4146,32
4147,32
4148,32
4149,32
4150,32
4151,32
4152,32
4153,32
4154,32
4155,32
4156,32
4157,32
4158,32
4159,32
4160,32
4161,32
4162,32
4163,32
4164,32
4165,32
4166,33
4167,32
4168,32
4169,32
4170,32
4171,32
4172,32
4173,32
4174,32
4175,32
4176,33
4177,33
4178,32
4179,32
4180,32
4181,32
4182,32
4183,32
4184,32
4185,33
4186,33
4187,33
4188,33
4189,34
4190,33
4191,33
4192,33
4193,33
4194,32
4195,32
4196,32
4197,32
4198,32
4199,32
4200,32
4201,32
4202,32
4203,32
4204,32
4205,32
4206,32
4207,32
4208,32
4209,32
4210,32
4211,32
4212,32
4213,32
4214,32
4215,32
4216,32
4217,32
4218,32
4219,32
4220,32
4221,32
4222,32
4223,32
4224,32
4225,32
4226,32
4227,33
4228,35
4229,34
4230,34
4231,35
4232,33
4233,33
4234,33
4235,32
4236,32
4237,32
4238,32
4239,32
4240,32
4241,32
4242,33
4243,32
4244,32
4245,32
4246,32
4247,32
4248,32
4249,32
4250,32
4251,32
4252,32
4253,32
4254,32
4255,32
4256,32
4257,32
4258,33
4259,32
4260,32
4261,33
4262,33
4263,33
4264,32
4265,32
4266,32
4267,32
4268,32
4269,32
4270,32
4271,32
4272,32
4273,32
4274,32
4275,32
4276,32
4277,32
4278,32
4279,32
4280,32
4281,32
4282,32
4283,32
4284,32
4285,32
4286,32
4287,32
4288,32
4289,32
4290,33
4291,32
4292,33
4293,33
4294,33
4295,33
4296,34
4297,33
4298,33
4299,33
4300,33
4301,32
4302,32
4303,32
4304,32
4305,32
4306,32
4307,32
4308,32
4309,32
4310,32
4311,32
4312,32
4313,32
4314,32
4315,33
4316,33
4317,33
4318,33
4319,33
4320,32
4321,32
4322,32
4323,32
4324,32
4325,32
4326,32
4327,32
4328,32
4329,32
4330,32
4331,32
4332,32
4333,32
4334,32
4335,32
4336,32
4337,32
4338,32
4339,32
4340,32
4341,32
4342,32
4343,32
4344,32
4345,32
4346,32
4347,32
4348,32
4349,32
4350,33
4351,33
4352,34
4353,34
4354,33
4355,34
4356,32
4357,32
4358,32
4359,32
4360,32
4361,32
4362,32
4363,32
4364,32
4365,32
4366,32
4367,32
4368,32
4369,32
4370,32
4371,32
4372,32
4373,32
4374,32
4375,32
4376,32
4377,32
4378,32
4379,32
4380,32
4381,32
4382,32
4383,32
4384,32
4385,32
4386,32
4387,32
4388,32
4389,32
4390,33
4391,32
4392,32
4393,32
4394,32
4395,32
4396,32
4397,32
4398,32
4399,32
4400,32
4401,32
4402,32
4403,32
4404,32
4405,32
4406,31
4407,31
4408,32
4409,31
4410,31
4411,31
4412,31
4413,31
4414,31
4415,31
4416,31
4417,31
4418,31
4419,31
4420,31
4421,31
4422,31
4423,31
4424,31
4425,31
4426,31
4427,31
4428,31
4429,31
4430,31
4431,31
4432,31
4433,31
4434,31
4435,31
4436,31
4437,31
4438,31
4439,31
4440,31
4441,31
4442,31
4443,31
4444,31
4445,31
4446,31
4447,31
4448,31
4449,32
4450,32
4451,32
4452,31
4453,31
4454,31
4455,31
4456,31
4457,31
4458,31
4459,31
4460,31
4461,31
4462,31
4463,31
4464,31
4465,31
4466,31
4467,31
4468,31
4469,31
4470,31
4471,31
4472,31
4473,31
4474,31
4475,32
4476,31
4477,31
4478,31
4479,31
4480,31
4481,31
4482,31
4483,31
4484,31
4485,31
4486,31
4487,31
4488,31
4489,31
4490,31
4491,31
4492,31
4493,31
4494,31
4495,31
4496,31
4497,31
4498,31
4499,31
4500,31
4501,32
4502,32
4503,32
4504,32
4505,32
4506,32
4507,33
4508,32
4509,32
4510,32
4511,32
4512,32
4513,32
4514,32
4515,32
4516,32
4517,32
4518,31
4519,31
4520,31
4521,31
4522,31
4523,31
4524,31
4525,31
4526,31
4527,31
4528,32
4529,31
4530,32
4531,32
4532,32
4533,31
4534,31
4535,31
4536,31
4537,31
4538,31
4539,31
4540,31
4541,31
4542,31
4543,31
4544,31
4545,31
4546,31
4547,31
4548,31
4549,31
4550,31
4551,32
4552,31
4553,31
4554,31
4555,31
4556,31
4557,31
4558,31
4559,31
4560,31
4561,32
4562,32
4563,32
4564,32
4565,32
4566,32
4567,32
4568,32
4569,32
4570,32
4571,32
4572,31
4573,31
4574,31
4575,31
4576,31
4577,31
4578,31
4579,31
4580,31
4581,31
4582,33
4583,32
4584,32
4585,32
4586,32
4587,32
4588,32
4589,31
4590,31
4591,31
4592,31
4593,31
4594,31
4595,31
4596,31
4597,31
4598,31
4599,31
4600,31
4601,31
4602,31
4603,31
4604,31
4605,31
4606,31
4607,31
4608,31
4609,31
4610,31
4611,31
4612,32
4613,31
4614,32
4615,31
4616,31
4617,31
4618,31
4619,31
4620,31
4621,31
4622,31
4623,31
4624,31
4625,31
4626,31
4627,31
4628,31
4629,31
4630,31
4631,31
4632,31
4633,31
4634,31
4635,31
4636,31
4637,31
4638,31
4639,31
4640,31
4641,31
4642,31
4643,31
4644,31
4645,31
4646,31
4647,31
4648,31
4649,31
4650,31
4651,31
4652,31
4653,31
4654,31
4655,31
4656,31
4657,31
4658,31
4659,31
4660,31
4661,31
4662,31
4663,31
4664,31
4665,32
4666,31
4667,31
4668,31
4669,31
4670,32
4671,32
4672,31
4673,31
4674,31
4675,31
4676,31
4677,31
4678,31
4679,31
4680,31
4681,31
4682,31
4683,31
4684,31
4685,31
4686,31
4687,31
4688,31
4689,31
4690,31
4691,31
4692,31
4693,31
4694,31
4695,31
4696,31
4697,31
4698,31
4699,31
4700,31
4701,31
4702,31
4703,31
4704,31
4705,31
4706,31
4707,31
4708,31
4709,32
4710,31
4711,32
4712,32
4713,31
4714,31
4715,31
4716,31
4717,31
4718,31
4719,31
4720,31
4721,31
4722,31
4723,31
4724,31
4725,31
4726,31
4727,31
4728,31
4729,31
4730,32
4731,32
4732,31
4733,31
4734,31
4735,31
4736,32
4737,32
4738,31
4739,31
4740,31
4741,31
4742,31
4743,31
4744,31
4745,31
4746,32
4747,32
4748,32
4749,32
4750,32
4751,32
4752,32
4753,32
4754,32
4755,32
4756,32
4757,32
4758,32
4759,32
4760,32
4761,33
4762,32
4763,32
4764,32
4765,32
4766,32
4767,31
4768,31
4769,31
4770,31
4771,32
4772,31
4773,31
4774,31
4775,31
4776,31
4777,31
4778,31
4779,31
4780,31
4781,31
4782,31
4783,31
4784,31
4785,31
4786,31
4787,31
4788,31
4789,31
4790,31
4791,31
4792,31
4793,31
4794,31
4795,31
4796,31
4797,31
4798,31
4799,31
4800,31
4801,31
4802,31
4803,31
4804,31
4805,31
4806,31
4807,31
4808,32
4809,32
4810,33
4811,32
4812,32
4813,32
4814,32
4815,32
4816,32
4817,32
4818,32
4819,31
4820,31
4821,31
4822,31
4823,31
4824,31
4825,31
4826,31
4827,31
4828,31
4829,31
4830,31
4831,31
4832,31
4833,31
4834,31
4835,31
4836,31
4837,31
4838,31
4839,31
4840,31
4841,31
4842,31
4843,31
4844,32
4845,32
4846,32
4847,32
4848,31
4849,31
4850,31
4851,31
4852,31
4853,32
4854,32
4855,32
4856,32
4857,32
4858,31
4859,31
4860,31
4861,31
4862,32
4863,31
4864,31
4865,31
4866,32
4867,31
4868,31
4869,31
4870,31
4871,31
4872,31
4873,31
4874,31
4875,31
4876,31
4877,31
4878,31
4879,31
4880,31
4881,31
4882,31
4883,31
4884,31
4885,31
4886,31
4887,31
4888,31
4889,31
4890,31
4891,31
4892,31
4893,31
4894,31
4895,31
4896,31
4897,31
4898,31
4899,31
4900,31
4901,31
4902,31
4903,31
4904,31
4905,31
4906,31
4907,31
4908,31
4909,31
4910,31
4911,31
4912,31
4913,31
4914,31
4915,31
4916,31
4917,32
4918,32
4919,32
4920,32
4921,32
4922,32
4923,32
4924,32
4925,32
4926,32
4927,32
4928,32
4929,33
4930,33
4931,32
4932,32
4933,32
4934,32
4935,32
4936,32
4937,32
4938,33
4939,33
4940,34
4941,32
4942,32
4943,33
4944,33
4945,32
4946,32
4947,32
4948,32
4949,32
4950,32
4951,32
4952,32
4953,32
4954,32
4955,32
4956,32
4957,32
4958,32
4959,32
4960,32
4961,32
4962,32
4963,32
4964,32
4965,32
4966,32
4967,32
4968,32
4969,32
4970,32
4971,32
4972,32
4973,32
4974,32
4975,32
4976,32
4977,32
4978,32
4979,32
4980,32
4981,32
4982,32
4983,32
4984,32
4985,32
4986,32
4987,32
4988,32
4989,32
4990,32
4991,31
4992,31
4993,31
4994,31
4995,32
4996,31
4997,31
4998,31
4999,31
5000,31
5001,31
5002,31
5003,31
5004,31
5005,31
5006,31
5007,31
5008,31
5009,31
5010,32
5011,31
5012,31
5013,31
5014,31
5015,31
5016,31
5017,31
5018,31
5019,31
5020,31
5021,31
5022,32
5023,32
5024,32
5025,32
5026,33
5027,33
5028,33
5029,33
5030,33
5031,33
5032,32
5033,32
5034,32
5035,33
5036,33
5037,33
5038,33
5039,32
5040,32
5041,32
5042,32
5043,32
5044,32
5045,32
5046,32
5047,32
5048,32
5049,32
5050,32
5051,32
5052,32
5053,32
5054,32
5055,32
5056,32
5057,32
5058,32
5059,32
5060,32
5061,32
5062,32
5063,32
5064,32
5065,32
5066,33
5067,33
5068,33
5069,32
5070,32
5071,32
5072,32
5073,32
5074,32
5075,32
5076,32
5077,32
5078,32
5079,32
5080,32
5081,32
5082,32
5083,32
5084,32
5085,32
5086,32
5087,32
5088,32
5089,32
5090,32
5091,32
5092,32
5093,32
5094,32
5095,32
5096,32
5097,32
5098,33
5099,33
5100,33
5101,33
5102,33
5103,33
5104,33
5105,34
5106,34
5107,34
5108,34
5109,34
5110,34
5111,34
5112,33
5113,33
5114,33
5115,33
5116,33
5117,33
5118,33
5119,33
5120,33
5121,33
5122,33
5123,33
5124,33
5125,33
5126,33
5127,33
5128,33
5129,33
5130,33
5131,34
5132,34
5133,34
5134,34
5135,33
5136,33
5137,33
5138,33
5139,33
5140,33
5141,33
5142,33
5143,33
5144,33
5145,34
5146,34
5147,34
5148,33
5149,33
5150,33
5151,33
5152,33
5153,33
5154,33
5155,33
5156,33
5157,33
5158,33
5159,33
5160,33
5161,33
5162,33
5163,33
5164,34
5165,34
5166,34
5167,33
5168,33
5169,33
5170,33
5171,33
5172,33
5173,33
5174,33
5175,33
5176,33
5177,33
5178,33
5179,33
5180,33
5181,33
5182,33
5183,33
5184,33
5185,33
5186,33
5187,33
5188,33
5189,33
5190,33
5191,33
5192,33
5193,33
5194,33
5195,33
5196,33
5197,33
5198,33
5199,33
5200,33
5201,33
5202,33
5203,33
5204,33
5205,33
5206,33
5207,33
5208,33
5209,33
5210,33
5211,33
5212,33
5213,33
5214,33
5215,33
5216,33
5217,33
5218,33
5219,33
5220,33
5221,33
5222,33
5223,33
5224,33
5225,33
5226,33
5227,33
5228,33
5229,34
5230,34
5231,34
5232,34
5233,34
5234,34
5235,33
5236,33
5237,33
5238,33
5239,33
5240,33
5241,33
5242,33
5243,33
5244,33
5245,33
5246,33
5247,33
5248,33
5249,33
5250,33
5251,33
5252,33
5253,33
5254,33
5255,33
5256,33
5257,33
5258,33
5259,33
5260,33
5261,33
5262,33
5263,33
5264,33
5265,33
5266,33
5267,33
5268,33
5269,33
5270,34
5271,33
5272,33
5273,33
5274,33
5275,33
5276,33
5277,33
5278,33
5279,33
5280,33
5281,33
5282,33
5283,33
5284,33
5285,33
5286,33
5287,33
5288,33
5289,34
5290,33
5291,33
5292,33
5293,34
5294,33
5295,33
5296,33
5297,33
5298,33
5299,33
5300,33
5301,33
5302,33
5303,33
5304,34
5305,33
5306,33
5307,34
5308,34
5309,33
5310,33
5311,33
5312,33
5313,33
5314,33
5315,33
5316,33
5317,33
5318,33
5319,33
5320,33
5321,33
5322,34
5323,34
5324,34
5325,34
5326,34
5327,34
5328,33
5329,33
5330,33
5331,33
5332,33
5333,33
5334,33
5335,33
5336,33
5337,33
5338,33
5339,33
5340,33
5341,33
5342,33
5343,33
5344,33
5345,33
5346,33
5347,34
5348,34
5349,34
5350,34
5351,34
5352,33
5353,33
5354,33
5355,33
5356,33
5357,33
5358,33
5359,33
5360,33
5361,33
5362,34
5363,34
5364,34
5365,33
5366,33
5367,33
5368,33
5369,33
5370,33
5371,33
5372,33
5373,33
5374,33
5375,33
5376,34
5377,34
5378,33
5379,33
5380,33
5381,33
5382,33
5383,33
5384,33
5385,33
5386,33
5387,33
5388,33
5389,33
5390,33
5391,33
5392,33
5393,33
5394,33
5395,33
5396,33
5397,33
5398,33
5399,33
5400,33
5401,33
5402,33
5403,33
5404,33
5405,33
5406,33
5407,33
5408,33
5409,33
5410,33
5411,33
5412,33
5413,33
5414,33
5415,33
5416,33
5417,33
5418,33
5419,33
5420,33
5421,33
5422,33
5423,33
5424,32
5425,32
5426,32
5427,32
5428,32
5429,32
5430,32
5431,32
5432,32
5433,32
5434,32
5435,32
5436,32
5437,32
5438,32
5439,32
5440,32
5441,32
5442,32
5443,32
5444,32
5445,32
5446,32
5447,32
5448,32
5449,32
5450,32
5451,32
5452,32
5453,32
5454,32
5455,32
5456,32
5457,32
5458,33
5459,33
5460,33
5461,33
5462,33
5463,32
5464,32
5465,33
5466,34
5467,34
5468,33
5469,33
5470,33
5471,33
5472,33
5473,33
5474,33
5475,33
5476,33
5477,33
5478,33
5479,33
5480,32
5481,32
5482,32
5483,32
5484,32
5485,32
5486,32
5487,32
5488,33
5489,33
5490,33
5491,33
5492,32
5493,32
5494,32
5495,32
5496,32
5497,32
5498,32
5499,32
5500,32
5501,32
5502,32
5503,32
5504,33
5505,33
5506,33
5507,33
5508,33
5509,33
5510,33
5511,33
5512,33
5513,33
5514,33
5515,33
5516,33
5517,33
5518,33
5519,33
5520,33
5521,33
5522,33
5523,33
5524,33
5525,33
5526,33
5527,33
5528,33
5529,33
5530,33
5531,33
5532,33
5533,33
5534,33
5535,33
5536,33
5537,33
5538,33
5539,33
5540,33
5541,33
5542,33
5543,33
5544,33
5545,33
5546,33
5547,33
5548,33
5549,33
5550,33
5551,33
5552,33
5553,33
5554,33
5555,33
5556,33
5557,33
5558,33
5559,33
5560,33
5561,33
5562,33
5563,33
5564,33
5565,33
5566,33
5567,33
5568,33
5569,33
5570,33
5571,33
5572,33
5573,33
5574,33
5575,33
5576,33
5577,33
5578,33
5579,33
5580,33
5581,34
5582,34
5583,34
5584,33
5585,33
5586,33
5587,33
5588,33
5589,33
5590,33
5591,34
5592,34
5593,34
5594,34
5595,34
5596,34
5597,34
5598,34
5599,34
5600,34
5601,35
5602,34
5603,34
5604,35
5605,35
5606,35
5607,35
5608,35
5609,35
5610,35
5611,35
5612,35
5613,35
5614,35
5615,34
5616,34
5617,34
5618,34
5619,34
5620,34
5621,34
5622,34
5623,34
5624,34
5625,34
5626,34
5627,34
5628,35
5629,35
5630,35
5631,34
5632,34
5633,34
5634,34
5635,34
5636,34
5637,34
5638,34
5639,34
5640,34
5641,34
5642,34
5643,34
5644,34
5645,34
5646,34
5647,34
5648,34
5649,35
5650,35
5651,34
5652,34
5653,34
5654,34
5655,34
5656,34
5657,35
5658,34
5659,34
5660,34
5661,34
5662,34
5663,34
5664,34
5665,35
5666,34
5667,34
5668,34
5669,34
5670,34
5671,35
5672,34
5673,34
5674,34
5675,34
5676,34
5677,34
5678,35
5679,35
5680,34
5681,34
5682,34
5683,34
5684,34
5685,35
5686,35
5687,35
5688,35
5689,34
5690,34
5691,34
5692,34
5693,34
5694,34
5695,34
5696,34
5697,34
5698,34
5699,34
5700,34
5701,33
5702,33
5703,33
5704,33
5705,33
5706,33
5707,33
5708,33
5709,33
5710,33
5711,33
5712,33
5713,33
5714,33
5715,33
5716,33
5717,33
5718,33
5719,33
5720,33
5721,33
5722,33
5723,33
5724,33
5725,33
5726,33
5727,33
5728,33
5729,33
5730,33
5731,33
5732,33
5733,33
5734,33
5735,33
5736,33
5737,33
5738,33
5739,33
5740,33
5741,33
5742,33
5743,33
5744,33
5745,33
5746,33
5747,33
5748,33
5749,33
5750,33
5751,33
5752,33
5753,33
5754,33
5755,33
5756,33
5757,33
5758,33
5759,33
5760,33
5761,33
5762,33
5763,33
5764,33
5765,33
5766,33
5767,33
5768,33
5769,33
5770,33
5771,33
5772,33
5773,33
5774,33
5775,33
5776,33
5777,33
5778,33
5779,33
5780,33
5781,33
5782,33
5783,33
5784,33
5785,33
5786,33
5787,33
5788,33
5789,34
5790,34
5791,33
5792,33
5793,33
5794,33
5795,33
5796,34
5797,33
5798,33
5799,33
5800,33
5801,33
5802,33
5803,33
5804,33
5805,33
5806,33
5807,33
5808,33
5809,34
5810,33
5811,33
5812,33
5813,33
5814,34
5815,34
5816,34
5817,34
5818,34
5819,34
5820,34
5821,34
5822,34
5823,34
5824,34
5825,34
5826,34
5827,34
5828,34
5829,34
5830,34
5831,34
5832,34
5833,34
5834,34
5835,34
5836,34
5837,34
5838,34
5839,34
5840,34
5841,34
5842,35
5843,35
5844,33
5845,33
5846,33
5847,33
5848,33
5849,34
5850,33
5851,33
5852,33
5853,34
5854,33
5855,33
5856,33
5857,33
5858,33
5859,33
5860,34
5861,34
5862,34
5863,34
5864,33
5865,33
5866,33
5867,33
5868,33
5869,33
5870,33
5871,34
5872,34
5873,33
5874,33
5875,33
5876,34
5877,34
5878,34
5879,34
5880,34
5881,34
5882,34
5883,34
5884,34
5885,34
5886,34
5887,34
5888,34
5889,34
5890,34
5891,34
5892,34
5893,34
5894,34
5895,34
5896,35
5897,36
5898,34
5899,34
5900,34
5901,34
5902,34
5903,33
5904,33
5905,33
5906,33
5907,33
5908,33
5909,33
5910,33
5911,33
5912,33
5913,33
5914,34
5915,34
5916,33
5917,33
5918,33
5919,33
5920,33
5921,33
5922,33
5923,34
5924,34
5925,34
5926,34
5927,34
5928,34
5929,34
5930,34
5931,34
5932,33
5933,33
5934,33
5935,33
5936,34
5937,33
5938,33
5939,33
5940,33
5941,33
5942,33
5943,33
5944,33
5945,33
5946,33
5947,33
5948,33
5949,33
5950,33
5951,33
5952,33
5953,33
5954,33
5955,33
5956,33
5957,33
5958,33
5959,34
5960,34
5961,35
5962,33
5963,33
5964,34
5965,34
5966,34
5967,34
5968,34
5969,34
5970,33
5971,33
5972,33
5973,32
5974,32
5975,32
5976,33
5977,33
5978,33
5979,33
5980,33
5981,33
5982,33
5983,33
5984,33
5985,33
5986,33
5987,33
5988,33
5989,34
5990,34
5991,35
5992,34
5993,33
5994,33
5995,33
5996,33
5997,33
5998,34
5999,34
6000,33
6001,33
6002,33
6003,34
6004,33
6005,33
6006,33
6007,33
6008,33
6009,33
6010,33
6011,33
6012,33
6013,33
6014,33
6015,33
6016,33
6017,33
6018,33
6019,32
6020,32
6021,32
6022,32
6023,32
6024,32
6025,32
6026,32
6027,32
6028,32
6029,32
6030,32
6031,32
6032,32
6033,32
6034,32
6035,32
6036,32
6037,32
6038,32
6039,32
6040,32
6041,33
6042,32
6043,32
6044,32
6045,33
6046,33
6047,33
6048,33
6049,33
6050,33
6051,33
6052,33
6053,33
6054,33
6055,33
6056,32
6057,33
6058,32
6059,32
6060,32
6061,32
6062,32
6063,32
6064,32
6065,32
6066,32
6067,32
6068,32
6069,32
6070,32
6071,32
6072,32
6073,32
6074,32
6075,32
6076,32
6077,32
6078,32
6079,32
6080,32
6081,32
6082,32
6083,32
6084,32
6085,32
6086,32
6087,32
6088,33
6089,32
6090,32
6091,32
6092,32
6093,32
6094,32
6095,32
6096,33
6097,32
6098,32
6099,32
6100,32
6101,32
6102,32
6103,32
6104,32
6105,32
6106,32
6107,32
6108,32
6109,32
6110,32
6111,32
6112,32
6113,32
6114,32
6115,32
6116,32
6117,32
6118,32
6119,32
6120,32
6121,32
6122,32
6123,32
6124,32
6125,32
6126,32
6127,32
6128,32
6129,32
6130,32
6131,32
6132,32
6133,32
6134,33
6135,32
6136,32
6137,32
6138,32
6139,32
6140,32
6141,32
6142,32
6143,32
6144,32
6145,32
6146,32
6147,32
6148,32
6149,32
6150,32
6151,32
6152,32
6153,32
6154,32
6155,32
6156,32
6157,32
6158,32
6159,32
6160,32
6161,32
6162,32
6163,32
6164,32
6165,32
6166,32
6167,32
6168,32
6169,32
6170,32
6171,32
6172,32
6173,32
6174,32
6175,33
6176,33
6177,33
6178,33
6179,32
6180,32
6181,32
6182,32
6183,32
6184,32
6185,32
6186,32
6187,32
6188,32
6189,32
6190,32
6191,32
6192,32
6193,32
6194,32
6195,32
6196,32
6197,32
6198,32
6199,32
6200,32
6201,32
6202,32
6203,32
6204,32
6205,32
6206,32
6207,32
6208,32
6209,32
6210,32
6211,32
6212,32
6213,33
6214,33
6215,33
6216,33
6217,32
6218,32
6219,32
6220,32
6221,32
6222,32
6223,32
6224,32
6225,32
6226,32
6227,32
6228,32
6229,32
6230,32
6231,32
6232,32
6233,32
6234,32
6235,32
6236,33
6237,32
6238,32
6239,32
6240,32
6241,32
6242,32
6243,32
6244,32
6245,32
6246,32
6247,32
6248,32
6249,32
6250,32
6251,32
6252,32
6253,32
6254,32
6255,32
6256,32
6257,32
6258,32
6259,32
6260,32
6261,32
6262,32
6263,32
6264,32
6265,32
6266,32
6267,32
6268,32
6269,32
6270,33
6271,33
6272,32
6273,32
6274,32
6275,32
6276,32
6277,32
6278,32
6279,32
6280,32
6281,32
6282,32
6283,32
6284,32
6285,32
6286,32
6287,32
6288,32
6289,32
6290,34
6291,33
6292,32
6293,32
6294,32
6295,32
6296,32
6297,32
6298,32
6299,32
6300,32
6301,32
6302,32
6303,32
6304,32
6305,32
6306,32
6307,32
6308,32
6309,32
6310,32
6311,32
6312,32
6313,32
6314,32
6315,32
6316,33
6317,32
6318,32
6319,32
6320,32
6321,32
6322,32
6323,32
6324,32
6325,33
6326,32
6327,32
6328,32
6329,32
6330,32
6331,32
6332,33
6333,32
6334,32
6335,32
6336,32
6337,32
6338,32
6339,32
6340,32
6341,32
6342,32
6343,32
6344,32
6345,32
6346,32
6347,32
6348,32
6349,32
6350,32
6351,32
6352,32
6353,32
6354,32
6355,32
6356,32
6357,32
6358,32
6359,33
6360,33
6361,33
6362,32
6363,32
6364,32
6365,33
6366,33
6367,32
6368,32
6369,32
6370,32
6371,32
6372,32
6373,32
6374,32
6375,32
6376,32
6377,32
6378,32
6379,32
6380,32
6381,32
6382,32
6383,32
6384,33
6385,34
6386,34
6387,34
6388,34
6389,34
6390,34
6391,34
6392,34
6393,34
6394,34
6395,34
6396,34
6397,34
6398,34
6399,34
6400,34
6401,34
6402,34
6403,35
6404,35
6405,36
6406,36
6407,36
6408,36
6409,36
6410,36
6411,36
6412,36
6413,35
6414,34
6415,34
6416,34
6417,34
6418,34
6419,34
6420,34
6421,34
6422,34
6423,34
6424,34
6425,34
6426,34
6427,34
6428,33
6429,33
6430,33
6431,33
6432,33
6433,33
6434,33
6435,33
6436,33
6437,33
6438,33
6439,33
6440,33
6441,33
6442,33
6443,33
6444,33
6445,33
6446,34
6447,34
6448,34
6449,33
6450,33
6451,33
6452,33
6453,32
6454,32
6455,32
6456,33
6457,32
6458,32
6459,32
6460,32
6461,33
6462,32
6463,32
6464,33
6465,33
6466,32
6467,32
6468,32
6469,32
6470,33
6471,33
6472,32
6473,32
6474,32
6475,32
6476,32
6477,32
6478,32
6479,32
6480,32
6481,32
6482,32
6483,32
6484,32
6485,32
6486,32
6487,32
6488,32
6489,32
6490,32
6491,33
6492,33
6493,33
6494,32
6495,32
6496,32
6497,32
6498,32
6499,32
6500,32
6501,32
6502,32
6503,32
6504,33
6505,33
6506,33
6507,33
6508,34
6509,33
6510,32
6511,32
6512,32
6513,32
6514,32
6515,32
6516,32
6517,32
6518,32
6519,32
6520,32
6521,32
6522,33
6523,32
6524,32
6525,32
6526,32
6527,32
6528,33
6529,33
6530,33
6531,32
6532,32
6533,32
6534,32
6535,32
6536,32
6537,32
6538,32
6539,32
6540,32
6541,32
6542,32
6543,32
6544,32
6545,32
6546,32
6547,32
6548,32
6549,32
6550,32
6551,32
6552,32
6553,32
6554,32
6555,32
6556,32
6557,32
6558,32
6559,32
6560,32
6561,32
6562,32
6563,32
6564,32
6565,33
6566,32
6567,32
6568,32
6569,32
6570,32
6571,32
6572,32
6573,32
6574,32
6575,32
6576,32
6577,32
6578,32
6579,32
6580,32
6581,32
6582,32
6583,32
6584,32
6585,32
6586,32
6587,32
6588,32
6589,32
6590,32
6591,33
6592,32
6593,32
6594,32
6595,32
6596,32
6597,32
6598,32
6599,32
6600,32
6601,32
6602,32
6603,32
6604,32
6605,32
6606,32
6607,33
6608,33
6609,33
6610,33
6611,32
6612,32
6613,32
6614,32
6615,32
6616,32
6617,32
6618,32
6619,32
6620,32
6621,32
6622,32
6623,32
6624,32
6625,32
6626,32
6627,32
6628,32
6629,32
6630,32
6631,32
6632,32
6633,32
6634,32
6635,32
6636,32
6637,33
6638,32
6639,32
6640,32
6641,32
6642,32
6643,33
6644,32
6645,32
6646,32
6647,32
6648,32
6649,32
6650,32
6651,32
6652,32
6653,32
6654,32
6655,32
6656,32
6657,32
6658,33
6659,33
6660,33
6661,34
6662,34
6663,34
6664,34
6665,34
6666,34
6667,34
6668,34
6669,34
6670,34
6671,33
6672,33
6673,33
6674,33
6675,33
6676,33
6677,33
6678,33
6679,33
6680,33
6681,33
6682,34
6683,34
6684,34
6685,34
6686,35
6687,34
6688,34
6689,34
6690,35
6691,34
6692,33
6693,33
6694,33
6695,33
6696,33
6697,33
6698,33
6699,33
6700,33
6701,33
6702,33
6703,33
6704,33
6705,33
6706,33
6707,33
6708,33
6709,33
6710,33
6711,33
6712,33
6713,33
6714,33
6715,33
6716,33
6717,33
6718,33
6719,33
6720,33
6721,33
6722,33
6723,33
6724,33
6725,33
6726,33
6727,33
6728,33
6729,34
6730,34
6731,34
6732,33
6733,34
6734,34
6735,34
6736,34
6737,34
6738,34
6739,34
6740,34
6741,33
6742,33
6743,33
6744,33
6745,33
6746,33
6747,33
6748,33
6749,33
6750,33
6751,33
6752,33
6753,33
6754,33
6755,33
6756,33
6757,33
6758,33
6759,33
6760,33
6761,33
6762,34
6763,34
6764,35
6765,35
6766,34
6767,34
6768,34
6769,34
6770,34
6771,34
6772,34
6773,35
6774,34
6775,34
6776,34
6777,35
6778,35
6779,35
6780,34
6781,33
6782,33
6783,33
6784,33
6785,33
6786,33
6787,33
6788,33
6789,33
6790,33
6791,33
6792,33
6793,33
6794,33
6795,33
6796,33
6797,33
6798,33
6799,33
6800,34
6801,34
6802,33
6803,33
6804,33
6805,33
6806,33
6807,33
6808,33
6809,33
6810,33
6811,33
6812,33
6813,33
6814,33
6815,33
6816,33
6817,33
6818,33
6819,33
6820,33
6821,33
6822,33
6823,33
6824,33
6825,33
6826,33
6827,33
6828,33
6829,33
6830,33
6831,33
6832,33
6833,33
6834,33
6835,33
6836,33
6837,33
6838,33
6839,33
6840,33
6841,34
6842,34
6843,34
6844,34
6845,34
6846,34
6847,33
6848,33
6849,33
6850,33
6851,33
6852,33
6853,33
6854,33
6855,35
6856,34
6857,34
6858,34
6859,34
6860,34
6861,34
6862,34
6863,34
6864,34
6865,34
6866,34
6867,34
6868,34
6869,35
6870,35
6871,36
6872,35
6873,35
6874,34
6875,34
6876,34
6877,34
6878,34
6879,34
6880,34
6881,34
6882,34
6883,34
6884,34
6885,34
6886,34
6887,34
6888,34
6889,34
6890,34
6891,34
6892,34
6893,34
6894,35
6895,34
6896,34
6897,34
6898,34
6899,34
6900,34
6901,34
6902,34
6903,34
6904,34
6905,35
6906,35
6907,35
6908,35
6909,35
6910,35
6911,35
6912,34
6913,34
6914,34
6915,34
6916,34
6917,35
6918,34
6919,34
6920,34
6921,34
6922,34
6923,34
6924,34
6925,34
6926,34
6927,35
6928,35
6929,35
6930,35
6931,35
6932,35
6933,34
6934,34
6935,35
6936,34
6937,34
6938,34
6939,35
6940,35
6941,36
6942,36
6943,36
6944,35
6945,35
6946,35
6947,35
6948,35
6949,34
6950,34
6951,34
6952,34
6953,34
6954,34
6955,34
6956,34
6957,34
6958,34
6959,34
6960,34
6961,34
6962,34
6963,34
6964,34
6965,34
6966,34
6967,34
6968,35
6969,35
6970,35
6971,35
6972,35
6973,34
6974,34
6975,34
6976,34
6977,34
6978,35
6979,35
6980,35
6981,35
6982,35
6983,34
6984,34
6985,34
6986,35
6987,34
6988,34
6989,34
6990,34
6991,34
6992,34
6993,34
6994,34
6995,35
6996,35
6997,35
6998,35
6999,35
7000,35
7001,35
7002,35
7003,35
7004,35
7005,35
7006,35
7007,35
7008,35
7009,35
7010,35
7011,35
7012,35
7013,36
7014,35
7015,35
7016,35
7017,35
7018,35
7019,35
7020,35
7021,35
7022,34
7023,34
7024,34
7025,34
7026,35
7027,36
7028,35
7029,35
7030,35
7031,34
7032,34
7033,34
7034,34
7035,34
7036,34
7037,34
7038,34
7039,34
7040,34
7041,34
7042,34
7043,34
7044,34
7045,34
7046,35
7047,35
7048,35
7049,34
7050,34
7051,34
7052,34
7053,34
7054,34
7055,34
7056,34
7057,34
7058,34
7059,34
7060,34
7061,34
7062,34
7063,34
7064,34
7065,34
7066,34
7067,34
7068,34
7069,34
7070,34
7071,34
7072,34
7073,34
7074,34
7075,34
7076,34
7077,34
7078,34
7079,34
7080,34
7081,34
7082,34
7083,34
7084,34
7085,34
7086,35
7087,34
7088,35
7089,34
7090,34
7091,34
7092,34
7093,34
7094,34
7095,34
7096,34
7097,34
7098,34
7099,34
7100,34
7101,34
7102,34
7103,34
7104,34
7105,34
7106,34
7107,34
7108,34
7109,34
7110,35
7111,35
7112,34
7113,34
7114,35
7115,34
7116,34
7117,34
7118,34
7119,34
7120,34
7121,34
7122,34
7123,34
7124,35
7125,34
7126,34
7127,34
7128,34
7129,34
7130,34
7131,34
7132,34
7133,34
7134,35
7135,36
7136,36
7137,36
7138,35
7139,34
7140,34
7141,34
7142,34
7143,34
7144,34
7145,35
7146,35
7147,34
7148,34
7149,34
7150,34
7151,34
7152,34
7153,34
7154,34
7155,34
7156,35
7157,34
7158,34
7159,34
7160,34
7161,34
7162,34
7163,34
7164,34
7165,34
7166,34
7167,34
7168,34
7169,34
7170,34
7171,34
7172,34
7173,34
7174,34
7175,34
7176,34
7177,34
7178,34
7179,34
7180,34
7181,34
7182,34
7183,35
7184,35
7185,35
7186,35
7187,35
7188,34
7189,34
7190,34
7191,34
7192,34
7193,34
7194,34
7195,34
7196,35
7197,35
7198,34
7199,34
7200,34
7201,34
7202,34
7203,34
7204,34
7205,34
7206,34
7207,34
7208,34
7209,34
7210,34
7211,34
7212,34
7213,34
7214,34
7215,34
7216,34
7217,34
7218,34
7219,34
7220,35
7221,34
7222,34
7223,34
7224,34
7225,34
7226,34
7227,34
7228,34
7229,34
7230,34
7231,34
7232,34
7233,34
7234,34
7235,34
7236,34
7237,34
7238,34
7239,35
7240,35
7241,34
7242,34
7243,35
7244,35
7245,35
7246,35
7247,35
7248,35
7249,34
7250,34
7251,34
7252,34
7253,34
7254,34
7255,34
7256,34
7257,34
7258,34
7259,34
7260,34
7261,34
7262,34
7263,34
7264,34
7265,34
7266,34
7267,34
7268,34
7269,34
7270,34
7271,34
7272,34
7273,34
7274,34
7275,34
7276,34
7277,34
7278,34
7279,34
7280,34
7281,34
7282,34
7283,34
7284,34
7285,34
7286,34
7287,34
7288,34
7289,34
7290,34
7291,35
7292,35
7293,34
7294,34
7295,35
7296,34
7297,35
7298,34
7299,34
7300,34
7301,34
7302,34
7303,34
7304,34
7305,34
7306,34
7307,34
7308,34
7309,34
7310,34
7311,34
7312,34
7313,34
7314,34
7315,34
7316,35
7317,34
7318,35
7319,35
7320,35
7321,35
7322,36
7323,36
7324,36
7325,36
7326,36
7327,35
7328,35
7329,35
7330,36
7331,35
7332,35
7333,35
7334,35
7335,35
7336,35
7337,35
7338,36
7339,37
7340,38
7341,37
7342,37
7343,36
7344,36
7345,35
7346,35
7347,35
7348,35
7349,35
7350,36
7351,36
7352,36
7353,36
7354,35
7355,34
7356,34
7357,34
7358,34
7359,34
7360,34
7361,35
7362,35
7363,35
7364,35
7365,35
7366,35
7367,35
7368,34
7369,34
7370,34
7371,34
7372,34
7373,34
7374,34
7375,34
7376,34
7377,34
7378,34
7379,34
7380,34
7381,34
7382,34
7383,34
7384,35
7385,35
7386,35
7387,35
7388,35
7389,35
7390,35
7391,35
7392,35
7393,35
7394,35
7395,34
7396,34
7397,34
7398,34
7399,34
7400,34
7401,34
7402,34
7403,34
7404,34
7405,34
7406,34
7407,34
7408,34
7409,34
7410,34
7411,34
7412,34
7413,34
7414,34
7415,34
7416,34
7417,34
7418,34
7419,34
7420,34
7421,34
7422,34
7423,34
7424,34
7425,34
7426,34
7427,34
7428,34
7429,34
7430,34
7431,34
7432,34
7433,34
7434,34
7435,34
7436,34
7437,34
7438,34
7439,34
7440,34
7441,34
7442,34
7443,34
7444,34
7445,34
7446,34
7447,34
7448,34
7449,34
7450,34
7451,34
7452,34
7453,34
7454,34
7455,34
7456,34
7457,34
7458,34
7459,34
7460,34
7461,34
7462,34
7463,34
7464,35
7465,34
7466,34
7467,35
7468,34
7469,34
7470,34
7471,34
7472,34
7473,34
7474,34
7475,34
7476,34
7477,34
7478,34
7479,34
7480,34
7481,34
7482,34
7483,34
7484,34
7485,34
7486,35
7487,35
7488,35
7489,35
7490,35
7491,35
7492,34
7493,34
7494,34
7495,34
7496,34
7497,34
7498,34
7499,34
7500,34
7501,34
7502,34
7503,34
7504,34
7505,34
7506,34
7507,34
7508,34
7509,34
7510,34
7511,34
7512,35
7513,35
7514,35
7515,34
7516,34
7517,34
7518,34
7519,34
7520,34
7521,34
7522,34
7523,34
7524,34
7525,34
7526,35
7527,34
7528,34
7529,34
7530,34
7531,34
7532,34
7533,34
7534,34
7535,34
7536,34
7537,34
7538,34
7539,34
7540,34
7541,34
7542,34
7543,34
7544,34
7545,34
7546,34
7547,34
7548,33
7549,33
7550,33
7551,33
7552,33
7553,33
7554,33
7555,33
7556,33
7557,33
7558,33
7559,33
7560,33
7561,33
7562,33
7563,33
7564,33
7565,33
7566,33
7567,33
7568,33
7569,33
7570,33
7571,33
7572,33
7573,33
7574,33
7575,33
7576,33
7577,33
7578,33
7579,33
7580,33
7581,34
7582,34
7583,34
7584,33
7585,33
7586,33
7587,33
7588,33
7589,33
7590,33
7591,33
7592,33
7593,33
7594,33
7595,33
7596,33
7597,33
7598,33
7599,33
7600,33
7601,33
7602,33
7603,33
7604,33
7605,33
7606,33
7607,33
7608,33
7609,33
7610,34
7611,34
7612,33
7613,34
7614,34
7615,34
7616,33
7617,33
7618,33
7619,33
7620,33
7621,33
7622,33
7623,33
7624,33
7625,33
7626,33
7627,33
7628,33
7629,33
7630,33
7631,33
7632,33
7633,33
7634,33
7635,33
7636,33
7637,33
7638,33
7639,33
7640,33
7641,33
7642,33
7643,33
7644,33
7645,33
7646,33
7647,33
7648,33
7649,33
7650,34
7651,33
7652,33
7653,34
7654,34
7655,34
7656,33
7657,33
7658,33
7659,33
7660,33
7661,33
7662,33
7663,34
7664,33
7665,33
7666,33
7667,33
7668,33
7669,33
7670,33
7671,34
7672,33
7673,33
7674,33
7675,33
7676,33
7677,33
7678,33
7679,34
7680,34
7681,34
7682,33
7683,34
7684,34
7685,34
7686,33
7687,33
7688,33
7689,33
7690,33
7691,33
7692,33
7693,33
7694,33
7695,33
7696,33
7697,33
7698,34
7699,34
7700,34
7701,34
7702,34
7703,34
7704,33
7705,33
7706,33
7707,33
7708,33
7709,34
7710,33
7711,33
7712,33
7713,34
7714,33
7715,33
7716,33
7717,33
7718,33
7719,33
7720,33
7721,33
7722,33
7723,33
7724,33
7725,33
7726,33
7727,33
7728,33
7729,33
7730,33
7731,33
7732,33
7733,33
7734,33
7735,33
7736,33
7737,33
7738,33
7739,34
7740,33
7741,33
7742,33
7743,33
7744,33
7745,33
7746,33
7747,33
7748,33
7749,33
7750,33
7751,33
7752,33
7753,33
7754,33
7755,33
7756,33
7757,33
7758,33
7759,33
7760,33
7761,33
7762,33
7763,33
7764,33
7765,33
7766,33
7767,33
7768,33
7769,33
7770,33
7771,33
7772,34
7773,34
7774,34
7775,34
7776,34
7777,34
7778,33
7779,33
7780,33
7781,33
7782,33
7783,33
7784,33
7785,33
7786,33
7787,33
7788,33
7789,33
7790,33
7791,34
7792,34
7793,34
7794,34
7795,34
7796,34
7797,34
7798,35
7799,35
7800,35
7801,34
7802,34
7803,34
7804,34
7805,34
7806,34
7807,34
7808,34
7809,34
7810,34
7811,34
7812,33
7813,33
7814,33
7815,33
7816,34
7817,33
7818,33
7819,33
7820,33
7821,33
7822,33
7823,33
7824,33
7825,33
7826,33
7827,33
7828,33
7829,34
7830,33
7831,33
7832,33
7833,33
7834,33
7835,34
7836,33
7837,33
7838,33
7839,33
7840,33
7841,33
7842,33
7843,33
7844,33
7845,33
7846,33
7847,34
7848,34
7849,34
7850,34
7851,34
7852,35
7853,34
7854,35
7855,35
7856,34
7857,34
7858,34
7859,34
7860,34
7861,34
7862,34
7863,34
7864,35
7865,34
7866,34
7867,34
7868,34
7869,34
7870,33
7871,33
7872,33
7873,33
7874,33
7875,33
7876,33
7877,33
7878,33
7879,33
7880,33
7881,33
7882,33
7883,33
7884,33
7885,33
7886,33
7887,33
7888,33
7889,33
7890,33
7891,33
7892,33
7893,33
7894,33
7895,33
7896,33
7897,33
7898,33
7899,33
7900,33
7901,33
7902,33
7903,33
7904,33
7905,33
7906,33
7907,33
7908,34
7909,33
7910,33
7911,33
7912,33
7913,33
7914,33
7915,33
7916,33
7917,33
7918,33
7919,33
7920,33
7921,33
7922,33
7923,33
7924,33
7925,33
7926,34
7927,34
7928,33
7929,33
7930,33
7931,34
7932,34
7933,34
7934,33
7935,33
7936,33
7937,33
7938,33
7939,33
7940,33
7941,33
7942,33
7943,33
7944,33
7945,34
7946,33
7947,33
7948,33
7949,33
7950,33
7951,33
7952,33
7953,33
7954,34
7955,33
7956,34
7957,34
7958,34
7959,33
7960,33
7961,33
7962,33
7963,33
7964,33
7965,33
7966,33
7967,33
7968,33
7969,33
7970,33
7971,34
7972,34
7973,34
7974,34
7975,34
7976,34
7977,34
7978,34
7979,34
7980,34
7981,34
7982,34
7983,34
7984,34
7985,33
7986,33
7987,34
7988,33
7989,33
7990,33
7991,33
7992,33
7993,33
7994,33
7995,33
7996,33
7997,33
7998,33
7999,34
8000,34
8001,33
8002,34
8003,33
8004,33
8005,33
8006,33
8007,33
8008,33
8009,33
8010,34
8011,33
8012,33
8013,33
8014,33
8015,33
8016,33
8017,33
8018,33
8019,33
8020,34
8021,33
8022,33
8023,34
8024,34
8025,34
8026,33
8027,33
8028,33
8029,33
8030,33
8031,33
8032,33
8033,33
8034,33
8035,33
8036,33
8037,33
8038,33
8039,33
8040,33
8041,33
8042,33
8043,33
8044,34
8045,34
8046,33
8047,33
8048,33
8049,33
8050,34
8051,33
8052,33
8053,33
8054,33
8055,33
8056,33
8057,33
8058,33
8059,33
8060,33
8061,33
8062,33
8063,33
8064,33
8065,34
8066,34
8067,34
8068,34
8069,34
8070,34
8071,34
8072,33
8073,33
8074,33
8075,33
8076,33
8077,33
8078,33
8079,33
8080,33
8081,33
8082,34
8083,34
8084,33
8085,33
8086,33
8087,33
8088,33
8089,33
8090,33
8091,33
8092,33
8093,34
8094,34
8095,33
8096,33
8097,34
8098,34
8099,34
8100,34
8101,34
8102,34
8103,34
8104,33
8105,33
8106,33
8107,33
8108,33
8109,33
8110,33
8111,33
8112,33
8113,34
8114,33
8115,33
8116,33
8117,33
8118,33
8119,33
8120,34
8121,34
8122,34
8123,34
8124,34
8125,33
8126,33
8127,34
8128,34
8129,33
8130,33
8131,33
8132,33
8133,33
8134,33
8135,34
8136,33
8137,33
8138,33
8139,33
8140,33
8141,33
8142,33
8143,33
8144,33
8145,33
8146,33
8147,33
8148,33
8149,33
8150,33
8151,33
8152,33
8153,33
8154,33
8155,33
8156,33
8157,33
8158,33
8159,33
8160,33
8161,33
8162,33
8163,33
8164,33
8165,33
8166,33
8167,33
8168,33
8169,33
8170,33
8171,33
8172,33
8173,33
8174,33
8175,33
8176,33
8177,33
8178,33
8179,33
8180,33
8181,33
8182,33
8183,33
8184,33
8185,33
8186,33
8187,33
8188,33
8189,33
8190,33
8191,33
8192,34
8193,34
8194,35
8195,34
8196,33
8197,33
8198,33
8199,33
8200,33
8201,33
8202,33
8203,33
8204,33
8205,33
8206,33
8207,33
8208,33
8209,33
8210,33
8211,33
8212,34
8213,34
8214,34
8215,34
8216,33
8217,33
8218,33
8219,33
8220,33
8221,33
8222,33
8223,33
8224,33
8225,33
8226,33
8227,33
8228,33
8229,33
8230,33
8231,34
8232,33
8233,33
8234,33
8235,33
8236,33
8237,33
8238,33
8239,33
8240,33
8241,33
8242,33
8243,33
8244,33
8245,33
8246,33
8247,34
8248,33
8249,33
8250,33
8251,34
8252,34
8253,34
8254,33
8255,33
8256,33
8257,33
8258,33
8259,33
8260,33
8261,33
8262,34
8263,34
8264,33
8265,33
8266,33
8267,33
8268,33
8269,33
8270,33
8271,33
8272,33
8273,33
8274,33
8275,33
8276,33
8277,33
8278,33
8279,33
8280,33
8281,33
8282,33
8283,33
8284,33
8285,33
8286,33
8287,33
8288,33
8289,33
8290,34
8291,35
8292,35
8293,34
8294,34
8295,34
8296,34
8297,34
8298,34
8299,34
8300,34
8301,34
8302,34
8303,34
8304,35
8305,35
8306,35
8307,35
8308,35
8309,34
8310,34
8311,34
8312,34
8313,34
8314,34
8315,34
8316,34
8317,33
8318,33
8319,33
8320,33
8321,33
8322,33
8323,33
8324,33
8325,33
8326,33
8327,33
8328,33
8329,33
8330,33
8331,33
8332,34
8333,34
8334,34
8335,34
8336,34
8337,34
8338,34
8339,34
8340,34
8341,34
8342,33
8343,33
8344,33
8345,33
8346,33
8347,33
8348,33
8349,33
8350,33
8351,33
8352,34
8353,33
8354,33
8355,33
8356,33
8357,33
8358,33
8359,33
8360,33
8361,32
8362,32
8363,32
8364,32
8365,32
8366,32
8367,32
8368,32
8369,32
8370,32
8371,32
8372,32
8373,32
8374,32
8375,32
8376,32
8377,32
8378,32
8379,32
8380,32
8381,32
8382,32
8383,32
8384,32
8385,32
8386,32
8387,32
8388,32
8389,32
8390,32
8391,32
8392,32
8393,32
8394,32
8395,32
8396,32
8397,32
8398,32
8399,32
8400,32
8401,32
8402,32
8403,32
8404,32
8405,32
8406,32
8407,32
8408,32
8409,32
8410,32
8411,32
8412,32
8413,32
8414,32
8415,32
8416,32
8417,32
8418,33
8419,33
8420,33
8421,33
8422,33
8423,33
8424,32
8425,32
8426,32
8427,32
8428,32
8429,32
8430,33
8431,33
8432,33
8433,33
8434,33
8435,33
8436,33
8437,32
8438,32
8439,32
8440,32
8441,32
8442,32
8443,32
8444,32
8445,33
8446,33
8447,33
8448,33
8449,33
8450,33
8451,33
8452,32
8453,33
8454,32
8455,32
8456,32
8457,32
8458,32
8459,32
8460,33
8461,33
8462,33
8463,33
8464,33
8465,33
8466,33
8467,33
8468,33
8469,33
8470,33
8471,33
8472,33
8473,33
8474,33
8475,33
8476,33
8477,33
8478,33
8479,33
8480,33
8481,33
8482,33
8483,33
8484,33
8485,33
8486,33
8487,33
8488,33
8489,33
8490,33
8491,33
8492,33
8493,33
8494,34
8495,34
8496,34
8497,34
8498,34
8499,34
8500,34
8501,33
8502,33
8503,33
8504,33
8505,33
8506,33
8507,33
8508,33
8509,33
8510,33
8511,33
8512,33
8513,33
8514,33
8515,33
8516,33
8517,33
8518,33
8519,33
8520,33
8521,33
8522,33
8523,33
8524,33
8525,33
8526,33
8527,33
8528,33
8529,33
8530,33
8531,33
8532,33
8533,33
8534,33
8535,33
8536,34
8537,33
8538,33
8539,34
8540,34
8541,34
8542,34
8543,34
8544,34
8545,33
8546,34
8547,33
8548,33
8549,33
8550,33
8551,34
8552,34
8553,33
8554,34
8555,34
8556,34
8557,34
8558,33
8559,33
8560,33
8561,33
8562,33
8563,33
8564,33
8565,33
8566,33
8567,33
8568,33
8569,33
8570,34
8571,33
8572,33
8573,33
8574,33
8575,33
8576,33
8577,33
8578,33
8579,33
8580,33
8581,33
8582,33
8583,33
8584,33
8585,33
8586,33
8587,33
8588,33
8589,33
8590,34
8591,34
8592,35
8593,34
8594,34
8595,35
8596,34
8597,34
8598,34
8599,34
8600,34
8601,34
8602,34
8603,33
8604,33
8605,33
8606,35
8607,36
8608,36
8609,36
8610,36
8611,35
8612,35
8613,35
8614,35
8615,35
8616,35
8617,35
8618,35
8619,35
8620,35
8621,35
8622,35
8623,35
8624,35
8625,35
8626,35
8627,35
8628,35
8629,35
8630,35
8631,36
8632,36
8633,36
8634,36
8635,36
8636,35
8637,35
8638,35
8639,35
8640,35
8641,35
8642,35
8643,34
8644,36
8645,36
8646,36
8647,36
8648,36
8649,36
8650,36
8651,35
8652,35
8653,34
8654,35
8655,34
8656,34
8657,34
8658,34
8659,34
8660,34
8661,34
8662,34
8663,34
8664,34
8665,34
8666,34
8667,34
8668,34
8669,34
8670,34
8671,34
8672,34
8673,35
8674,35
8675,35
8676,35
8677,35
8678,35
8679,35
8680,35
8681,35
8682,35
8683,35
8684,35
8685,35
8686,36
8687,35
8688,35
8689,35
8690,35
8691,36
8692,35
8693,35
8694,35
8695,35
8696,35
8697,35
8698,35
8699,35
8700,35
8701,35
8702,35
8703,35
8704,36
8705,35
8706,35
8707,35
8708,35
8709,35
8710,35
8711,35
8712,35
8713,35
8714,35
8715,35
8716,35
8717,35
8718,35
8719,35
8720,35
8721,34
8722,34
8723,34
8724,34
8725,35
8726,35
8727,35
8728,35
8729,35
8730,35
8731,35
8732,34
8733,34
8734,34
8735,34
8736,34
8737,34
8738,34
8739,35
8740,35
8741,35
8742,35
8743,35
8744,35
8745,35
8746,35
8747,35
8748,34
8749,34
8750,34
8751,34
8752,34
8753,35
8754,34
8755,34
8756,34
8757,34
8758,34
8759,34
8760,34
8761,34
8762,34
8763,34
8764,34
8765,34
8766,34
8767,34
8768,34
8769,34
8770,34
8771,34
8772,34
8773,34
8774,34
8775,34
8776,34
8777,34
8778,34
8779,35
8780,35
8781,35
8782,35
8783,35
8784,35
8785,35
8786,35
8787,35
8788,35
8789,35
8790,35
8791,36
8792,36
8793,37
8794,36
8795,36
8796,36
8797,36
8798,36
8799,35
8800,35
8801,35
8802,35
8803,35
8804,35
8805,35
8806,34
8807,34
8808,34
8809,34
8810,34
8811,34
8812,34
8813,34
8814,34
8815,34
8816,34
8817,34
8818,34
8819,34
8820,35
8821,34
8822,34
8823,35
8824,35
8825,35
8826,34
8827,34
8828,34
8829,34
8830,34
8831,34
8832,34
8833,34
8834,34
8835,34
8836,34
8837,34
8838,34
8839,34
8840,34
8841,34
8842,34
8843,34
8844,34
8845,34
8846,34
8847,34
8848,34
8849,34
8850,34
8851,34
8852,34
8853,35
8854,34
8855,34
8856,34
8857,34
8858,34
8859,34
8860,34
8861,34
8862,34
8863,34
8864,34
8865,34
8866,34
8867,34
8868,34
8869,34
8870,34
8871,34
8872,34
8873,34
8874,34
8875,34
8876,34
8877,34
8878,34
8879,34
8880,34
8881,34
8882,34
8883,34
8884,34
8885,34
8886,34
8887,34
8888,34
8889,34
8890,34
8891,34
8892,34
8893,35
8894,35
8895,34
8896,34
8897,34
8898,34
8899,34
8900,34
8901,34
8902,34
8903,35
8904,35
8905,34
8906,35
8907,34
8908,35
8909,35
8910,35
8911,35
8912,35
8913,34
8914,34
8915,34
8916,35
8917,35
8918,34
8919,34
8920,34
8921,34
8922,34
8923,34
8924,34
8925,34
8926,34
8927,35
8928,35
8929,35
8930,35
8931,35
8932,35
8933,37
8934,36
8935,36
8936,36
8937,36
8938,34
8939,34
8940,35
8941,34
8942,34
8943,34
8944,34
8945,34
8946,34
8947,35
8948,34
8949,34
8950,35
8951,35
8952,35
8953,35
8954,35
8955,35
8956,35
8957,35
8958,35
8959,35
8960,35
8961,35
8962,35
8963,35
8964,35
8965,35
8966,35
8967,35
8968,35
8969,35
8970,35
8971,35
8972,35
8973,35
8974,35
8975,35
8976,35
8977,35
8978,36
8979,36
8980,35
8981,35
8982,35
8983,35
8984,35
8985,35
8986,35
8987,36
8988,35
8989,35
8990,35
8991,35
8992,36
8993,36
8994,36
8995,35
8996,35
8997,35
8998,36
8999,35
9000,35
9001,35
9002,35
9003,35
9004,35
9005,35
9006,36
9007,36
9008,36
9009,35
9010,35
9011,35
9012,35
9013,35
9014,35
9015,35
9016,35
9017,35
9018,35
9019,35
9020,35
9021,35
9022,35
9023,35
9024,35
9025,35
9026,35
9027,35
9028,35
9029,35
9030,35
9031,35
9032,35
9033,35
9034,35
9035,36
9036,36
9037,36
9038,36
9039,35
9040,35
9041,35
9042,35
9043,35
9044,35
9045,35
9046,35
9047,35
9048,35
9049,35
9050,35
9051,35
9052,35
9053,35
9054,35
9055,35
9056,35
9057,35
9058,35
9059,35
9060,35
9061,35
9062,35
9063,35
9064,36
9065,36
9066,36
9067,36
9068,36
9069,35
9070,35
9071,35
9072,35
9073,35
9074,36
9075,36
9076,36
9077,36
9078,35
9079,35
9080,35
9081,36
9082,36
9083,36
9084,36
9085,36
9086,35
9087,35
9088,35
9089,35
9090,35
9091,35
9092,35
9093,35
9094,35
9095,35
9096,35
9097,35
9098,35
9099,35
9100,35
9101,35
9102,35
9103,35
9104,35
9105,35
9106,35
9107,35
9108,35
9109,35
9110,35
9111,35
9112,35
9113,35
9114,35
9115,35
9116,35
9117,35
9118,35
9119,35
9120,35
9121,35
9122,35
9123,35
9124,35
9125,35
9126,35
9127,36
9128,35
9129,35
9130,35
9131,35
9132,35
9133,35
9134,36
9135,35
9136,35
9137,35
9138,35
9139,35
9140,35
9141,35
9142,35
9143,35
9144,35
9145,35
9146,35
9147,35
9148,35
9149,36
9150,35
9151,35
9152,35
9153,35
9154,35
9155,35
9156,35
9157,35
9158,35
9159,35
9160,35
9161,35
9162,35
9163,35
9164,35
9165,35
9166,35
9167,35
9168,35
9169,35
9170,35
9171,35
9172,35
9173,35
9174,35
9175,35
9176,36
9177,36
9178,36
9179,36
9180,35
9181,35
9182,35
9183,35
9184,35
9185,35
9186,35
9187,36
9188,36
9189,36
9190,36
9191,37
9192,37
9193,36
9194,37
9195,36
9196,36
9197,37
9198,36
9199,36
9200,36
9201,36
9202,36
9203,36
9204,36
9205,36
9206,36
9207,36
9208,36
9209,36
9210,36
9211,36
9212,36
9213,36
9214,36
9215,36
9216,37
9217,36
9218,36
9219,36
9220,36
9221,36
9222,36
9223,36
9224,36
9225,36
9226,36
9227,36
9228,36
9229,37
9230,37
9231,37
9232,37
9233,37
9234,37
9235,37
9236,38
9237,38
9238,38
9239,38
9240,38
9241,38
9242,38
9243,38
9244,38
9245,38
9246,38
9247,38
9248,38
9249,38
9250,38
9251,39
9252,38
9253,38
9254,38
9255,38
9256,38
9257,38
9258,38
9259,38
9260,38
9261,38
9262,38
9263,38
9264,38
9265,38
9266,38
9267,38
9268,38
9269,38
9270,39
9271,39
9272,39
9273,39
9274,38
9275,38
9276,38
9277,38
9278,38
9279,38
9280,38
9281,38
9282,38
9283,38
9284,38
9285,38
9286,38
9287,38
9288,39
9289,39
9290,38
9291,38
9292,38
9293,38
9294,38
9295,38
9296,38
9297,38
9298,38
9299,38
9300,39
9301,38
9302,39
9303,39
9304,39
9305,40
9306,38
9307,38
9308,38
9309,38
9310,38
9311,38
9312,38
9313,38
9314,38
9315,38
9316,38
9317,38
9318,38
9319,38
9320,38
9321,38
9322,38
9323,38
9324,38
9325,38
9326,38
9327,38
9328,38
9329,38
9330,40
9331,38
9332,38
9333,38
9334,38
9335,38
9336,38
9337,38
9338,38
9339,38
9340,39
9341,40
9342,39
9343,38
9344,38
9345,38
9346,38
9347,38
9348,38
9349,38
9350,38
9351,38
9352,38
9353,38
9354,38
9355,38
9356,38
9357,38
9358,38
9359,38
9360,38
9361,38
9362,38
9363,38
9364,38
9365,39
9366,39
9367,39
9368,39
9369,39
9370,39
9371,39
9372,39
9373,39
9374,39
9375,39
9376,39
9377,39
9378,38
9379,38
9380,38
9381,38
9382,38
9383,38
9384,38
9385,38
9386,38
9387,38
9388,38
9389,38
9390,38
9391,38
9392,38
9393,38
9394,38
9395,38
9396,38
9397,38
9398,39
9399,40
9400,39
9401,39
9402,39
9403,39
9404,39
9405,39
9406,39
9407,39
9408,39
9409,38
9410,38
9411,38
9412,38
9413,37
9414,37
9415,37
9416,37
9417,37
9418,37
9419,37
9420,37
9421,37
9422,37
9423,37
9424,37
9425,37
9426,37
9427,37
9428,37
9429,37
9430,37
9431,37
9432,38
9433,37
9434,37
9435,37
9436,37
9437,37
9438,37
9439,37
9440,37
9441,37
9442,38
9443,37
9444,37
9445,37
9446,37
9447,37
9448,38
9449,38
9450,38
9451,38
9452,38
9453,38
9454,38
9455,37
9456,37
9457,37
9458,37
9459,37
9460,38
9461,38
9462,38
9463,38
9464,38
9465,38
9466,39
9467,38
9468,38
9469,38
9470,38
9471,38
9472,38
9473,37
9474,37
9475,37
9476,37
9477,37
9478,37
9479,37
9480,38
9481,38
9482,38
9483,38
9484,39
9485,39
9486,39
9487,39
9488,38
9489,38
9490,38
9491,39
9492,38
9493,38
9494,38
9495,38
9496,38
9497,38
9498,38
9499,38
9500,38
9501,38
9502,38
9503,38
9504,38
9505,38
9506,39
9507,39
9508,39
9509,38
9510,38
9511,38
9512,38
9513,38
9514,38
9515,39
9516,38
9517,38
9518,38
9519,38
9520,38
9521,38
9522,38
9523,38
9524,38
9525,38
9526,38
9527,38
9528,38
9529,38
9530,38
9531,38
9532,38
9533,38
9534,38
9535,39
9536,38
9537,38
9538,38
9539,38
9540,38
9541,38
9542,38
9543,38
9544,38
9545,38
9546,38
9547,38
9548,38
9549,37
9550,37
9551,37
9552,37
9553,37
9554,37
9555,37
9556,37
9557,37
9558,37
9559,37
9560,37
9561,37
9562,37
9563,37
9564,37
9565,37
9566,37
9567,37
9568,37
9569,37
9570,37
9571,37
9572,37
9573,37
9574,37
9575,37
9576,37
9577,37
9578,36
9579,37
9580,37
9581,37
9582,38
9583,38
9584,38
9585,38
9586,38
9587,38
9588,38
9589,38
9590,39
9591,38
9592,38
9593,38
9594,39
9595,38
9596,37
9597,36
9598,36
9599,36
9600,36
9601,36
9602,36
9603,36
9604,36
9605,36
9606,36
9607,36
9608,36
9609,36
9610,36
9611,36
9612,36
9613,36
9614,36
9615,36
9616,36
9617,36
9618,36
9619,36
9620,36
9621,36
9622,36
9623,36
9624,36
9625,36
9626,36
9627,36
9628,36
9629,36
9630,36
9631,36
9632,36
9633,36
9634,36
9635,36
9636,36
9637,36
9638,36
9639,36
9640,36
9641,36
9642,36
9643,36
9644,36
9645,36
9646,36
9647,37
9648,36
9649,36
9650,36
9651,36
9652,36
9653,36
9654,36
9655,36
9656,36
9657,37
9658,36
9659,36
9660,36
9661,36
9662,36
9663,36
9664,37
9665,36
9666,36
9667,36
9668,36
9669,36
9670,36
9671,36
9672,36
9673,36
9674,37
9675,37
9676,37
9677,37
9678,36
9679,36
9680,36
9681,36
9682,35
9683,35
9684,35
9685,35
9686,35
9687,35
9688,35
9689,35
9690,35
9691,35
9692,35
9693,36
9694,36
9695,35
9696,35
9697,35
9698,35
9699,35
9700,35
9701,35
9702,35
9703,35
9704,35
9705,35
9706,35
9707,35
9708,35
9709,35
9710,35
9711,35
9712,35
9713,35
9714,35
9715,35
9716,35
9717,35
9718,35
9719,35
9720,35
9721,35
9722,35
9723,35
9724,35
9725,35
9726,35
9727,35
9728,35
9729,35
9730,36
9731,36
9732,35
9733,35
9734,35
9735,35
9736,35
9737,35
9738,35
9739,35
9740,35
9741,35
9742,35
9743,35
9744,35
9745,35
9746,35
9747,35
9748,35
9749,35
9750,35
9751,35
9752,35
9753,35
9754,35
9755,35
9756,35
9757,35
9758,35
9759,35
9760,35
9761,35
9762,35
9763,35
9764,35
9765,35
9766,35
9767,35
9768,35
9769,35
9770,35
9771,35
9772,35
9773,35
9774,35
9775,35
9776,35
9777,35
9778,35
9779,35
9780,35
9781,35
9782,35
9783,35
9784,35
9785,35
9786,35
9787,35
9788,35
9789,35
9790,35
9791,35
9792,35
9793,35
9794,35
9795,35
9796,35
9797,35
9798,35
9799,36
9800,36
9801,36
9802,36
9803,35
9804,35
9805,35
9806,35
9807,36
9808,35
9809,35
9810,35
9811,35
9812,35
9813,35
9814,35
9815,35
9816,35
9817,35
9818,35
9819,35
9820,35
9821,35
9822,35
9823,35
9824,35
9825,35
9826,35
9827,35
9828,35
9829,35
9830,35
9831,35
9832,35
9833,35
9834,37
9835,36
9836,36
9837,36
9838,36
9839,36
9840,36
9841,36
9842,37
9843,36
9844,36
9845,36
9846,36
9847,35
9848,35
9849,35
9850,35
9851,35
9852,35
9853,35
9854,35
9855,35
9856,35
9857,35
9858,36
9859,35
9860,35
9861,35
9862,35
9863,35
9864,35
9865,35
9866,35
9867,35
9868,35
9869,35
9870,35
9871,35
9872,35
9873,35
9874,35
9875,35
9876,35
9877,35
9878,35
9879,35
9880,35
9881,35
9882,35
9883,35
9884,36
9885,36
9886,35
9887,35
9888,35
9889,35
9890,35
9891,35
9892,35
9893,35
9894,35
9895,35
9896,35
9897,35
9898,35
9899,35
9900,35
9901,35
9902,35
9903,36
9904,36
9905,36
9906,35
9907,35
9908,35
9909,35
9910,35
9911,35
9912,35
9913,35
9914,35
9915,35
9916,35
9917,35
9918,36
9919,35
9920,36
9921,35
9922,35
9923,35
9924,35
9925,35
9926,35
9927,35
9928,35
9929,35
9930,35
9931,35
9932,35
9933,35
9934,35
9935,35
9936,35
9937,35
9938,35
9939,35
9940,35
9941,35
9942,35
9943,35
9944,35
9945,35
9946,35
9947,35
9948,35
9949,35
9950,35
9951,35
9952,35
9953,35
9954,35
9955,35
9956,35
9957,35
9958,35
9959,35
9960,35
9961,35
9962,35
9963,36
9964,36
9965,36
9966,36
9967,36
9968,36
9969,36
9970,35
9971,35
9972,35
9973,35
9974,35
9975,35
9976,35
9977,35
9978,35
9979,35
9980,35
9981,35
9982,35
9983,35
9984,36
9985,36
9986,36
9987,36
9988,36
9989,36
9990,36
9991,36
9992,36
9993,36
9994,36
9995,35
9996,35
9997,35
9998,35
9999,35
10000,35
