1,3
2,3
3,3
4,3
5,3
6,3
7,3
8,3
9,3
10,3
11,3
12,3
13,3
14,3
15,3
16,3
17,3
18,3
19,3
20,3
21,3
22,3
23,4
24,3
25,3
26,3
27,3
28,3
29,3
30,3
31,3
32,4
33,3
34,3
35,3
36,3
37,3
38,3
39,3
40,3
41,3
42,3
43,3
44,3
45,3
46,3
47,3
48,3
49,3
50,3
51,3
52,3
53,3
54,4
55,4
56,4
57,5
58,5
59,5
60,5
61,5
62,5
63,5
64,5
65,5
66,5
67,5
68,5
69,5
70,5
71,5
72,5
73,5
74,5
75,5
76,5
77,5
78,5
79,5
80,5
81,5
82,5
83,5
84,5
85,5
86,5
87,5
88,5
89,5
90,5
91,5
92,5
93,5
94,5
95,5
96,5
97,6
98,6
99,6
100,6
101,6
102,6
103,6
104,6
105,6
106,6
107,6
108,6
109,6
110,6
111,6
112,6
113,6
114,7
115,6
116,6
117,6
118,6
119,6
120,6
121,6
122,6
123,6
124,7
125,7
126,7
127,7
128,7
129,7
130,7
131,7
132,7
133,7
134,8
135,6
136,6
137,6
138,6
139,6
140,7
141,6
142,6
143,6
144,6
145,6
146,6
147,7
148,6
149,6
150,6
151,6
152,6
153,6
154,6
155,6
156,6
157,6
158,6
159,6
160,6
161,6
162,6
163,6
164,6
165,6
166,6
167,6
168,6
169,6
170,6
171,6
172,6
173,6
174,6
175,6
176,6
177,6
178,6
179,6
180,7
181,7
182,7
183,7
184,7
185,8
186,8
187,8
188,8
189,8
190,8
191,7
192,7
193,7
194,7
195,7
196,7
197,7
198,7
199,8
200,8
201,7
202,7
203,7
204,7
205,7
206,7
207,7
208,7
209,7
210,7
211,7
212,7
213,7
214,7
215,7
216,7
217,7
218,7
219,7
220,7
221,7
222,7
223,7
224,7
225,8
226,7
227,7
228,7
229,7
230,8
231,8
232,8
233,8
234,8
235,8
236,8
237,8
238,8
239,8
240,8
241,8
242,8
243,8
244,8
245,8
246,8
247,8
248,8
249,8
250,8
251,8
252,8
253,8
254,8
255,8
256,8
257,8
258,8
259,8
260,9
261,9
262,9
263,9
264,9
265,9
266,9
267,9
268,8
269,8
270,8
271,8
272,8
273,8
274,8
275,8
276,8
277,8
278,8
279,8
280,8
281,8
282,8
283,9
284,9
285,8
286,8
287,8
288,8
289,8
290,8
291,8
292,8
293,8
294,8
295,8
296,8
297,8
298,8
299,8
300,8
301,8
302,8
303,8
304,8
305,8
306,8
307,8
308,8
309,8
310,9
311,8
312,8
313,8
314,8
315,8
316,8
317,8
318,8
319,8
320,8
321,8
322,8
323,8
324,8
325,8
326,8
327,8
328,8
329,8
330,8
331,8
332,8
333,8
334,8
335,8
336,8
337,8
338,8
339,8
340,8
341,8
342,8
343,8
344,8
345,8
346,8
347,8
348,8
349,8
350,8
351,9
352,9
353,9
354,9
355,9
356,9
357,9
358,9
359,9
360,9
361,9
362,9
363,9
364,8
365,8
366,8
367,8
368,8
369,8
370,8
371,8
372,8
373,8
374,8
375,8
376,8
377,8
378,8
379,8
380,8
381,8
382,8
383,8
384,8
385,8
386,8
387,9
388,9
389,9
390,9
391,9
392,9
393,9
394,10
395,10
396,10
397,10
398,10
399,10
400,10
401,10
402,10
403,10
404,10
405,10
406,10
407,10
408,10
409,10
410,10
411,10
412,10
413,10
414,10
415,10
416,10
417,10
418,10
419,10
420,10
421,10
422,10
423,10
424,10
425,10
426,10
427,10
428,10
429,10
430,10
431,10
432,10
433,10
434,10
435,11
436,10
437,10
438,10
439,10
440,10
441,10
442,10
443,10
444,10
445,10
446,10
447,10
448,10
449,10
450,10
451,10
452,10
453,11
454,11
455,11
456,12
457,12
458,12
459,12
460,12
461,12
462,12
463,12
464,13
465,13
466,12
467,12
468,12
469,11
470,11
471,11
472,11
473,11
474,11
475,11
476,11
477,11
478,11
479,11
480,11
481,11
482,11
483,11
484,11
485,11
486,11
487,11
488,11
489,11
490,11
491,11
492,11
493,11
494,11
495,11
496,11
497,11
498,11
499,11
500,11
501,11
502,11
503,11
504,11
505,12
506,12
507,11
508,11
509,11
510,11
511,11
512,11
513,11
514,11
515,11
516,11
517,11
518,11
519,11
520,11
521,11
522,11
523,11
524,11
525,12
526,12
527,12
528,12
529,11
530,11
531,11
532,11
533,11
534,11
535,12
536,12
537,11
538,11
539,11
540,11
541,12
542,12
543,12
544,12
545,12
546,12
547,12
548,12
549,12
550,12
551,12
552,12
553,12
554,12
555,12
556,12
557,12
558,12
559,12
560,12
561,12
562,13
563,12
564,12
565,12
566,12
567,12
568,12
569,12
570,12
571,12
572,12
573,12
574,12
575,12
576,12
577,12
578,12
579,12
580,12
581,12
582,12
583,12
584,12
585,12
586,12
587,12
588,12
589,12
590,13
591,13
592,13
593,13
594,13
595,13
596,14
597,14
598,13
599,13
600,13
601,13
602,13
603,13
604,13
605,13
606,13
607,13
608,13
609,13
610,13
611,13
612,13
613,13
614,13
615,13
616,13
617,13
618,13
619,13
620,14
621,14
622,14
623,14
624,14
625,14
626,14
627,14
628,15
629,15
630,15
631,15
632,15
633,15
634,15
635,15
636,15
637,15
638,15
639,15
640,15
641,15
642,15
643,15
644,15
645,15
646,15
647,15
648,15
649,15
650,15
651,15
652,15
653,15
654,14
655,14
656,14
657,14
658,14
659,14
660,14
661,14
662,14
663,14
664,14
665,14
666,14
667,14
668,14
669,14
670,14
671,14
672,14
673,14
674,15
675,15
676,15
677,15
678,15
679,15
680,15
681,15
682,15
683,15
684,15
685,15
686,15
687,15
688,15
689,15
690,15
691,15
692,15
693,15
694,15
695,15
696,15
697,15
698,15
699,15
700,15
701,15
702,15
703,15
704,15
705,15
706,15
707,15
708,15
709,15
710,15
711,15
712,16
713,15
714,15
715,15
716,15
717,15
718,15
719,15
720,16
721,16
722,17
723,16
724,16
725,16
726,16
727,16
728,16
729,16
730,16
731,16
732,16
733,16
734,15
735,15
736,15
737,15
738,15
739,16
740,16
741,15
742,15
743,15
744,15
745,16
746,15
747,15
748,15
749,15
750,15
751,15
752,15
753,15
754,15
755,15
756,16
757,16
758,16
759,17
760,17
761,17
762,17
763,17
764,17
765,17
766,17
767,17
768,17
769,17
770,17
771,17
772,17
773,17
774,17
775,17
776,17
777,17
778,17
779,16
780,16
781,16
782,16
783,16
784,16
785,16
786,16
787,16
788,16
789,16
790,16
791,16
792,16
793,16
794,16
795,16
796,16
797,16
798,16
799,16
800,16
801,16
802,16
803,16
804,16
805,16
806,16
807,16
808,16
809,16
810,16
811,17
812,16
813,16
814,16
815,16
816,16
817,16
818,16
819,16
820,16
821,16
822,16
823,16
824,16
825,16
826,16
827,16
828,16
829,16
830,16
831,16
832,16
833,16
834,16
835,16
836,16
837,16
838,16
839,18
840,17
841,17
842,17
843,17
844,17
845,17
846,17
847,17
848,17
849,17
850,17
851,17
852,17
853,17
854,17
855,17
856,17
857,17
858,18
859,17
860,17
861,17
862,17
863,17
864,17
865,17
866,17
867,17
868,17
869,17
870,17
871,17
872,17
873,17
874,17
875,18
876,18
877,18
878,17
879,17
880,17
881,17
882,17
883,18
884,17
885,17
886,18
887,17
888,17
889,18
890,17
891,17
892,17
893,17
894,17
895,17
896,17
897,17
898,18
899,17
900,17
901,17
902,17
903,17
904,17
905,17
906,17
907,17
908,17
909,17
910,17
911,17
912,17
913,17
914,17
915,18
916,17
917,17
918,17
919,18
920,17
921,17
922,17
923,17
924,17
925,17
926,17
927,17
928,18
929,18
930,18
931,18
932,18
933,18
934,18
935,18
936,18
937,18
938,18
939,18
940,18
941,18
942,18
943,18
944,18
945,18
946,18
947,18
948,18
949,18
950,18
951,18
952,18
953,18
954,18
955,18
956,18
957,18
958,18
959,18
960,18
961,18
962,18
963,18
964,18
965,18
966,18
967,18
968,18
969,18
970,18
971,18
972,18
973,18
974,18
975,18
976,18
977,18
978,18
979,18
980,18
981,18
982,19
983,19
984,19
985,19
986,19
987,19
988,19
989,19
990,19
991,19
992,19
993,19
994,19
995,19
996,19
997,18
998,18
999,18
1000,18
1001,18
1002,18
1003,18
1004,18
1005,18
1006,18
1007,18
1008,18
1009,18
1010,18
1011,18
1012,18
1013,18
1014,18
1015,18
1016,18
1017,18
1018,19
1019,19
1020,19
1021,19
1022,19
1023,19
1024,19
1025,19
1026,19
1027,19
1028,19
1029,20
1030,20
1031,19
1032,19
1033,19
1034,19
1035,19
1036,19
1037,19
1038,19
1039,19
1040,19
1041,19
1042,19
1043,19
1044,19
1045,19
1046,19
1047,19
1048,19
1049,19
1050,19
1051,19
1052,19
1053,19
1054,19
1055,19
1056,19
1057,19
1058,19
1059,19
1060,19
1061,19
1062,19
1063,19
1064,19
1065,19
1066,19
1067,19
1068,19
1069,19
1070,19
1071,19
1072,19
1073,19
1074,19
1075,19
1076,19
1077,19
1078,19
1079,19
1080,19
1081,20
1082,20
1083,20
1084,20
1085,20
1086,20
1087,20
1088,20
1089,20
1090,20
1091,20
1092,20
1093,20
1094,20
1095,21
1096,20
1097,20
1098,20
1099,20
1100,20
1101,19
1102,19
1103,19
1104,19
1105,20
1106,20
1107,19
1108,19
1109,19
1110,19
1111,19
1112,19
1113,19
1114,19
1115,19
1116,19
1117,19
1118,19
1119,19
1120,19
1121,20
1122,20
1123,20
1124,19
1125,19
1126,19
1127,19
1128,19
1129,19
1130,19
1131,19
1132,19
1133,19
1134,19
1135,19
1136,19
1137,19
1138,19
1139,19
1140,19
1141,19
1142,20
1143,20
1144,20
1145,19
1146,19
1147,19
1148,19
1149,19
1150,19
1151,19
1152,19
1153,19
1154,19
1155,19
1156,19
1157,19
1158,19
1159,19
1160,19
1161,19
1162,20
1163,20
1164,20
1165,19
1166,19
1167,20
1168,19
1169,19
1170,19
1171,19
1172,19
1173,19
1174,19
1175,19
1176,19
1177,19
1178,19
1179,19
1180,19
1181,19
1182,19
1183,19
1184,19
1185,19
1186,19
1187,19
1188,19
1189,19
1190,19
1191,19
1192,19
1193,19
1194,19
1195,19
1196,19
1197,19
1198,19
1199,19
1200,19
1201,19
1202,19
1203,19
1204,19
1205,19
1206,19
1207,19
1208,20
1209,19
1210,19
1211,20
1212,20
1213,19
1214,19
1215,19
1216,19
1217,19
1218,19
1219,19
1220,19
1221,19
1222,19
1223,19
1224,19
1225,19
1226,19
1227,19
1228,19
1229,19
1230,19
1231,19
1232,19
1233,20
1234,19
1235,19
1236,19
1237,19
1238,19
1239,19
1240,19
1241,19
1242,19
1243,20
1244,19
1245,19
1246,19
1247,19
1248,19
1249,19
1250,19
1251,19
1252,19
1253,20
1254,20
1255,20
1256,20
1257,19
1258,19
1259,19
1260,19
1261,19
1262,19
1263,19
1264,19
1265,20
1266,20
1267,19
1268,19
1269,19
1270,19
1271,19
1272,19
1273,19
1274,20
1275,19
1276,19
1277,19
1278,19
1279,19
1280,19
1281,19
1282,19
1283,19
1284,19
1285,19
1286,19
1287,19
1288,19
1289,19
1290,19
1291,19
1292,19
1293,19
1294,19
1295,19
1296,19
1297,19
1298,19
1299,19
1300,19
1301,19
1302,19
1303,19
1304,19
1305,19
1306,19
1307,19
1308,19
1309,19
1310,19
1311,19
1312,19
1313,19
1314,19
1315,19
1316,19
1317,19
1318,19
1319,19
1320,19
1321,19
1322,19
1323,19
1324,20
1325,21
1326,20
1327,20
1328,20
1329,20
1330,20
1331,20
1332,20
1333,20
1334,20
1335,20
1336,20
1337,20
1338,21
1339,20
1340,20
1341,20
1342,20
1343,20
1344,20
1345,20
1346,20
1347,20
1348,20
1349,20
1350,20
1351,20
1352,20
1353,20
1354,20
1355,20
1356,20
1357,20
1358,20
1359,20
1360,20
1361,20
1362,20
1363,20
1364,20
1365,20
1366,20
1367,20
1368,20
1369,20
1370,21
1371,21
1372,22
1373,22
1374,22
1375,22
1376,22
1377,22
1378,23
1379,23
1380,23
1381,22
1382,22
1383,23
1384,23
1385,23
1386,24
1387,23
1388,23
1389,23
1390,23
1391,23
1392,23
1393,23
1394,24
1395,24
1396,24
1397,24
1398,24
1399,24
1400,24
1401,24
1402,24
1403,24
1404,24
1405,23
1406,23
1407,23
1408,23
1409,24
1410,24
1411,24
1412,24
1413,24
1414,24
1415,24
1416,24
1417,24
1418,25
1419,24
1420,24
1421,24
1422,24
1423,24
1424,24
1425,24
1426,24
1427,24
1428,25
1429,24
1430,23
1431,23
1432,23
1433,23
1434,23
1435,24
1436,25
1437,24
1438,24
1439,23
1440,23
1441,23
1442,24
1443,25
1444,24
1445,24
1446,24
1447,24
1448,24
1449,24
1450,24
1451,25
1452,24
1453,24
1454,25
1455,24
1456,24
1457,24
1458,24
1459,24
1460,24
1461,24
1462,24
1463,24
1464,24
1465,24
1466,24
1467,24
1468,24
1469,24
1470,24
1471,24
1472,24
1473,24
1474,24
1475,24
1476,24
1477,24
1478,24
1479,24
1480,24
1481,24
1482,24
1483,24
1484,23
1485,23
1486,23
1487,23
1488,23
1489,23
1490,23
1491,23
1492,23
1493,23
1494,23
1495,23
1496,23
1497,23
1498,23
1499,23
1500,23
1501,23
1502,23
1503,23
1504,23
1505,23
1506,23
1507,23
1508,23
1509,23
1510,23
1511,23
1512,23
1513,23
1514,23
1515,23
1516,23
1517,23
1518,23
1519,24
1520,24
1521,23
1522,23
1523,23
1524,23
1525,23
1526,23
1527,23
1528,23
1529,23
1530,23
1531,23
1532,23
1533,23
1534,23
1535,23
1536,23
1537,23
1538,23
1539,23
1540,23
1541,23
1542,23
1543,23
1544,23
1545,23
1546,24
1547,23
1548,23
1549,23
1550,23
1551,23
1552,23
1553,23
1554,23
1555,23
1556,23
1557,23
1558,23
1559,23
1560,23
1561,23
1562,23
1563,23
1564,23
1565,23
1566,23
1567,23
1568,23
1569,23
1570,23
1571,23
1572,23
1573,23
1574,23
1575,23
1576,23
1577,23
1578,23
1579,24
1580,24
1581,24
1582,24
1583,24
1584,25
1585,24
1586,24
1587,24
1588,24
1589,24
1590,24
1591,24
1592,24
1593,24
1594,24
1595,24
1596,24
1597,24
1598,24
1599,24
1600,24
1601,24
1602,24
1603,24
1604,24
1605,24
1606,24
1607,24
1608,24
1609,25
1610,25
1611,25
1612,25
1613,25
1614,25
1615,25
1616,25
1617,25
1618,25
1619,25
1620,25
1621,25
1622,25
1623,25
1624,25
1625,25
1626,26
1627,25
1628,25
1629,25
1630,25
1631,25
1632,25
1633,25
1634,25
1635,25
1636,25
1637,25
1638,25
1639,25
1640,25
1641,25
1642,25
1643,25
1644,25
1645,25
1646,25
1647,25
1648,25
1649,25
1650,25
1651,25
1652,25
1653,25
1654,25
1655,25
1656,25
1657,25
1658,25
1659,25
1660,25
1661,25
1662,25
1663,25
1664,25
1665,25
1666,25
1667,25
1668,26
1669,26
1670,26
1671,25
1672,25
1673,25
1674,25
1675,25
1676,25
1677,25
1678,25
1679,26
1680,25
1681,25
1682,25
1683,25
1684,25
1685,25
1686,25
1687,25
1688,25
1689,25
1690,25
1691,26
1692,26
1693,26
1694,27
1695,27
1696,26
1697,26
1698,26
1699,26
1700,26
1701,26
1702,26
1703,26
1704,26
1705,26
1706,26
1707,26
1708,26
1709,26
1710,25
1711,25
1712,25
1713,25
1714,25
1715,25
1716,25
1717,25
1718,25
1719,25
1720,25
1721,25
1722,25
1723,25
1724,25
1725,25
1726,26
1727,26
1728,26
1729,26
1730,26
1731,26
1732,26
1733,26
1734,26
1735,26
1736,27
1737,27
1738,27
1739,27
1740,27
1741,26
1742,26
1743,26
1744,26
1745,26
1746,26
1747,26
1748,26
1749,26
1750,26
1751,26
1752,26
1753,26
1754,26
1755,26
1756,26
1757,26
1758,26
1759,26
1760,26
1761,26
1762,26
1763,26
1764,26
1765,26
1766,26
1767,26
1768,26
1769,26
1770,26
1771,26
1772,26
1773,26
1774,26
1775,26
1776,26
1777,26
1778,26
1779,28
1780,27
1781,27
1782,26
1783,26
1784,26
1785,26
1786,27
1787,27
1788,27
1789,26
1790,26
1791,26
1792,26
1793,27
1794,27
1795,27
1796,27
1797,27
1798,27
1799,27
1800,28
1801,28
1802,27
1803,27
1804,28
1805,28
1806,27
1807,27
1808,27
1809,27
1810,27
1811,27
1812,27
1813,27
1814,27
1815,27
1816,27
1817,27
1818,27
1819,28
1820,28
1821,27
1822,28
1823,27
1824,27
1825,27
1826,27
1827,27
1828,27
1829,27
1830,27
1831,27
1832,27
1833,27
1834,27
1835,27
1836,27
1837,27
1838,27
1839,27
1840,27
1841,27
1842,27
1843,27
1844,27
1845,27
1846,27
1847,27
1848,27
1849,27
1850,27
1851,27
1852,27
1853,27
1854,27
1855,27
1856,27
1857,27
1858,27
1859,27
1860,27
1861,27
1862,27
1863,27
1864,27
1865,27
1866,27
1867,27
1868,27
1869,28
1870,28
1871,28
1872,27
1873,27
1874,27
1875,27
1876,27
1877,27
1878,27
1879,27
1880,27
1881,27
1882,27
1883,27
1884,27
1885,27
1886,27
1887,27
1888,27
1889,27
1890,27
1891,27
1892,28
1893,29
1894,28
1895,27
1896,27
1897,27
1898,27
1899,27
1900,27
1901,27
1902,27
1903,27
1904,27
1905,28
1906,28
1907,28
1908,28
1909,28
1910,28
1911,28
1912,28
1913,28
1914,27
1915,27
1916,27
1917,27
1918,27
1919,27
1920,27
1921,27
1922,27
1923,27
1924,27
1925,27
1926,27
1927,27
1928,27
1929,27
1930,27
1931,27
1932,27
1933,27
1934,27
1935,27
1936,28
1937,28
1938,28
1939,28
1940,28
1941,28
1942,29
1943,29
1944,28
1945,28
1946,28
1947,29
1948,29
1949,29
1950,28
1951,28
1952,28
1953,28
1954,28
1955,29
1956,29
1957,29
1958,29
1959,29
1960,29
1961,30
1962,29
1963,29
1964,29
1965,29
1966,29
1967,28
1968,28
1969,28
1970,28
1971,28
1972,29
1973,30
1974,30
1975,29
1976,29
1977,29
1978,28
1979,28
1980,28
1981,28
1982,28
1983,28
1984,28
1985,28
1986,28
1987,28
1988,28
1989,28
1990,28
1991,28
1992,28
1993,29
1994,29
1995,29
1996,28
1997,29
1998,28
1999,28
2000,28
2001,28
2002,28
2003,28
2004,28
2005,28
2006,28
2007,28
2008,28
2009,28
2010,28
2011,28
2012,28
2013,28
2014,28
2015,28
2016,28
2017,28
2018,28
2019,28
2020,29
2021,29
2022,29
2023,30
2024,29
2025,29
2026,29
2027,28
2028,28
2029,28
2030,28
2031,28
2032,28
2033,28
2034,28
2035,28
2036,28
2037,28
2038,28
2039,28
2040,28
2041,28
2042,28
2043,28
2044,28
2045,28
2046,28
2047,28
2048,28
2049,28
2050,28
2051,28
2052,29
2053,29
2054,29
2055,29
2056,29
2057,29
2058,29
2059,29
2060,28
2061,28
2062,28
2063,28
2064,28
2065,28
2066,28
2067,28
2068,28
2069,28
2070,28
2071,29
2072,29
2073,28
2074,28
2075,28
2076,29
2077,28
2078,28
2079,28
2080,28
2081,28
2082,28
2083,28
2084,28
2085,28
2086,28
2087,28
2088,28
2089,28
2090,28
2091,28
2092,28
2093,28
2094,28
2095,28
2096,28
2097,28
2098,28
2099,28
2100,28
2101,28
2102,28
2103,28
2104,28
2105,28
2106,28
2107,28
2108,28
2109,28
2110,28
2111,28
2112,28
2113,28
2114,28
2115,28
2116,28
2117,28
2118,28
2119,29
2120,29
2121,29
2122,28
2123,28
2124,28
2125,28
2126,28
2127,28
2128,28
2129,28
2130,28
2131,28
2132,28
2133,28
2134,28
2135,28
2136,29
2137,29
2138,29
2139,29
2140,28
2141,28
2142,28
2143,28
2144,28
2145,28
2146,28
2147,28
2148,28
2149,28
2150,28
2151,28
2152,28
2153,28
2154,28
2155,28
2156,29
2157,29
2158,29
2159,29
2160,29
2161,28
2162,28
2163,28
2164,28
2165,28
2166,28
2167,28
2168,28
2169,28
2170,28
2171,28
2172,28
2173,28
2174,28
2175,28
2176,28
2177,28
2178,28
2179,29
2180,29
2181,29
2182,29
2183,29
2184,28
2185,28
2186,28
2187,28
2188,28
2189,28
2190,28
2191,28
2192,29
2193,29
2194,28
2195,29
2196,28
2197,28
2198,28
2199,28
2200,28
2201,28
2202,28
2203,29
2204,28
2205,28
2206,28
2207,28
2208,28
2209,28
2210,28
2211,28
2212,28
2213,28
2214,28
2215,28
2216,28
2217,28
2218,28
2219,28
2220,28
2221,28
2222,28
2223,28
2224,28
2225,28
2226,28
2227,28
2228,28
2229,28
2230,28
2231,28
2232,29
2233,29
2234,30
2235,30
2236,30
2237,30
2238,30
2239,30
2240,30
2241,29
2242,28
2243,28
2244,28
2245,28
2246,28
2247,28
2248,28
2249,29
2250,29
2251,29
2252,29
2253,29
2254,29
2255,29
2256,29
2257,29
2258,29
2259,29
2260,29
2261,29
2262,29
2263,29
2264,29
2265,29
2266,29
2267,29
2268,29
2269,29
2270,28
2271,28
2272,28
2273,28
2274,28
2275,28
2276,28
2277,28
2278,28
2279,28
2280,28
2281,28
2282,29
2283,29
2284,28
2285,28
2286,28
2287,28
2288,28
2289,28
2290,28
2291,28
2292,28
2293,28
2294,28
2295,28
2296,28
2297,28
2298,28
2299,28
2300,28
2301,29
2302,29
2303,28
2304,28
2305,28
2306,29
2307,29
2308,29
2309,30
2310,30
2311,30
2312,30
2313,30
2314,29
2315,29
2316,29
2317,29
2318,29
2319,29
2320,29
2321,29
2322,29
2323,29
2324,30
2325,30
2326,31
2327,30
2328,30
2329,29
2330,28
2331,29
2332,29
2333,29
2334,29
2335,29
2336,29
2337,29
2338,30
2339,31
2340,30
2341,29
2342,29
2343,30
2344,30
2345,28
2346,29
2347,28
2348,28
2349,28
2350,28
2351,28
2352,28
2353,28
2354,28
2355,29
2356,28
2357,28
2358,28
2359,28
2360,28
2361,28
2362,28
2363,28
2364,28
2365,28
2366,28
2367,28
2368,28
2369,28
2370,28
2371,28
2372,28
2373,29
2374,29
2375,29
2376,29
2377,29
2378,30
2379,29
2380,28
2381,28
2382,28
2383,28
2384,28
2385,29
2386,29
2387,28
2388,28
2389,28
2390,28
2391,28
2392,28
2393,28
2394,28
2395,28
2396,28
2397,28
2398,28
2399,28
2400,28
2401,28
2402,28
2403,28
2404,28
2405,28
2406,28
2407,29
2408,28
2409,28
2410,28
2411,28
2412,28
2413,28
2414,28
2415,28
2416,28
2417,28
2418,28
2419,28
2420,28
2421,28
2422,29
2423,29
2424,29
2425,28
2426,28
2427,28
2428,28
2429,28
2430,28
2431,28
2432,28
2433,28
2434,28
2435,28
2436,28
2437,28
2438,28
2439,28
2440,28
2441,28
2442,28
2443,28
2444,28
2445,28
2446,28
2447,28
2448,28
2449,28
2450,28
2451,28
2452,28
2453,28
2454,28
2455,28
2456,28
2457,28
2458,28
2459,28
2460,28
2461,29
2462,29
2463,29
2464,29
2465,29
2466,29
2467,29
2468,29
2469,29
2470,29
2471,29
2472,29
2473,28
2474,28
2475,28
2476,28
2477,28
2478,28
2479,28
2480,28
2481,28
2482,28
2483,29
2484,28
2485,28
2486,28
2487,29
2488,29
2489,28
2490,28
2491,28
2492,28
2493,28
2494,28
2495,28
2496,28
2497,28
2498,28
2499,28
2500,28
2501,27
2502,27
2503,28
2504,27
2505,27
2506,27
2507,27
2508,27
2509,27
2510,28
2511,28
2512,28
2513,28
2514,28
2515,28
2516,28
2517,28
2518,27
2519,27
2520,27
2521,27
2522,27
2523,26
2524,26
2525,26
2526,26
2527,26
2528,26
2529,26
2530,26
2531,26
2532,26
2533,26
2534,27
2535,27
2536,27
2537,27
2538,27
2539,26
2540,26
2541,26
2542,26
2543,26
2544,26
2545,26
2546,26
2547,26
2548,26
2549,26
2550,26
2551,26
2552,26
2553,26
2554,26
2555,26
2556,26
2557,26
2558,26
2559,26
2560,26
2561,26
2562,26
2563,26
2564,26
2565,26
2566,26
2567,26
2568,26
2569,26
2570,27
2571,27
2572,27
2573,27
2574,27
2575,27
2576,27
2577,28
2578,27
2579,27
2580,27
2581,27
2582,27
2583,27
2584,27
2585,27
2586,27
2587,27
2588,26
2589,26
2590,26
2591,26
2592,26
2593,26
2594,26
2595,26
2596,26
2597,26
2598,26
2599,26
2600,26
2601,26
2602,26
2603,26
2604,26
2605,26
2606,26
2607,26
2608,26
2609,26
2610,26
2611,26
2612,26
2613,26
2614,26
2615,26
2616,26
2617,26
2618,26
2619,26
2620,26
2621,27
2622,27
2623,27
2624,27
2625,27
2626,27
2627,27
2628,27
2629,27
2630,27
2631,27
2632,27
2633,28
2634,29
2635,29
2636,28
2637,27
2638,27
2639,27
2640,27
2641,27
2642,27
2643,27
2644,27
2645,27
2646,27
2647,28
2648,28
2649,27
2650,27
2651,27
2652,27
2653,27
2654,26
2655,26
2656,26
2657,27
2658,26
2659,26
2660,26
2661,26
2662,26
2663,26
2664,26
2665,26
2666,26
2667,26
2668,26
2669,26
2670,26
2671,26
2672,26
2673,26
2674,26
2675,26
2676,26
2677,26
2678,26
2679,26
2680,26
2681,26
2682,26
2683,26
2684,26
2685,26
2686,26
2687,26
2688,26
2689,26
2690,26
2691,26
2692,26
2693,26
2694,26
2695,26
2696,26
2697,26
2698,26
2699,26
2700,26
2701,26
2702,26
2703,26
2704,26
2705,26
2706,26
2707,26
2708,26
2709,26
2710,26
2711,26
2712,26
2713,26
2714,26
2715,26
2716,27
2717,28
2718,27
2719,28
2720,28
2721,28
2722,28
2723,27
2724,27
2725,27
2726,27
2727,27
2728,27
2729,27
2730,27
2731,26
2732,26
2733,26
2734,26
2735,26
2736,26
2737,26
2738,26
2739,26
2740,26
2741,27
2742,27
2743,27
2744,27
2745,27
2746,27
2747,27
2748,27
2749,27
2750,27
2751,27
2752,27
2753,27
2754,28
2755,28
2756,27
2757,27
2758,27
2759,27
2760,26
2761,26
2762,26
2763,26
2764,26
2765,26
2766,26
2767,26
2768,26
2769,27
2770,27
2771,27
2772,27
2773,27
2774,27
2775,27
2776,26
2777,26
2778,26
2779,26
2780,26
2781,26
2782,27
2783,28
2784,26
2785,26
2786,26
2787,26
2788,26
2789,26
2790,26
2791,26
2792,26
2793,26
2794,26
2795,26
2796,26
2797,26
2798,26
2799,26
2800,26
2801,26
2802,26
2803,26
2804,26
2805,26
2806,26
2807,26
2808,26
2809,26
2810,26
2811,26
2812,26
2813,26
2814,26
2815,27
2816,26
2817,26
2818,26
2819,26
2820,26
2821,26
2822,26
2823,26
2824,26
2825,26
2826,26
2827,26
2828,26
2829,26
2830,26
2831,26
2832,26
2833,26
2834,26
2835,26
2836,26
2837,27
2838,26
2839,26
2840,26
2841,26
2842,27
2843,26
2844,26
2845,26
2846,26
2847,26
2848,26
2849,26
2850,27
2851,28
2852,27
2853,27
2854,27
2855,27
2856,27
2857,27
2858,27
2859,26
2860,26
2861,26
2862,26
2863,26
2864,26
2865,27
2866,26
2867,26
2868,26
2869,26
2870,26
2871,27
2872,26
2873,26
2874,26
2875,26
2876,26
2877,26
2878,26
2879,26
2880,27
2881,27
2882,27
2883,26
2884,26
2885,26
2886,26
2887,27
2888,27
2889,28
2890,28
2891,28
2892,28
2893,27
2894,27
2895,27
2896,27
2897,27
2898,27
2899,27
2900,27
2901,27
2902,27
2903,27
2904,27
2905,27
2906,27
2907,27
2908,27
2909,27
2910,27
2911,27
2912,27
2913,28
2914,27
2915,27
2916,28
2917,27
2918,27
2919,28
2920,28
2921,27
2922,27
2923,27
2924,27
2925,27
2926,27
2927,27
2928,27
2929,27
2930,27
2931,27
2932,27
2933,27
2934,27
2935,27
2936,27
2937,27
2938,27
2939,27
2940,27
2941,27
2942,27
2943,28
2944,27
2945,27
2946,27
2947,27
2948,27
2949,28
2950,27
2951,27
2952,27
2953,27
2954,27
2955,27
2956,27
2957,28
2958,27
2959,27
2960,27
2961,27
2962,27
2963,27
2964,27
2965,28
2966,28
2967,27
2968,27
2969,27
2970,27
2971,27
2972,27
2973,27
2974,27
2975,27
2976,27
2977,27
2978,27
2979,27
2980,27
2981,27
2982,27
2983,27
2984,27
2985,27
2986,27
2987,27
2988,27
2989,27
2990,27
2991,28
2992,27
2993,27
2994,27
2995,27
2996,27
2997,27
2998,27
2999,27
3000,27
3001,27
3002,27
3003,27
3004,27
3005,27
3006,27
3007,27
3008,28
3009,28
3010,27
3011,27
3012,27
3013,28
3014,27
3015,28
3016,27
3017,27
3018,27
3019,27
3020,27
3021,27
3022,28
3023,28
3024,28
3025,28
3026,28
3027,28
3028,28
3029,28
3030,28
3031,28
3032,28
3033,28
3034,28
3035,28
3036,28
3037,28
3038,28
3039,28
3040,28
3041,28
3042,28
3043,28
3044,28
3045,28
3046,28
3047,28
3048,28
3049,28
3050,28
3051,28
3052,28
3053,28
3054,28
3055,28
3056,28
3057,28
3058,28
3059,28
3060,29
3061,29
3062,29
3063,29
3064,29
3065,29
3066,29
3067,29
3068,28
3069,28
3070,28
3071,28
3072,28
3073,28
3074,28
3075,28
3076,28
3077,28
3078,28
3079,28
3080,28
3081,28
3082,28
3083,28
3084,28
3085,29
3086,29
3087,29
3088,29
3089,29
3090,29
3091,28
3092,28
3093,28
3094,28
3095,28
3096,28
3097,28
3098,28
3099,28
3100,28
3101,28
3102,28
3103,28
3104,28
3105,28
3106,28
3107,28
3108,28
3109,28
3110,28
3111,28
3112,28
3113,28
3114,28
3115,28
3116,28
3117,28
3118,28
3119,28
3120,28
3121,28
3122,28
3123,29
3124,29
3125,29
3126,29
3127,29
3128,29
3129,29
3130,28
3131,28
3132,28
3133,29
3134,29
3135,29
3136,28
3137,28
3138,28
3139,28
3140,28
3141,28
3142,28
3143,28
3144,28
3145,28
3146,28
3147,28
3148,28
3149,28
3150,28
3151,28
3152,28
3153,28
3154,28
3155,28
3156,28
3157,28
3158,28
3159,29
3160,29
3161,28
3162,28
3163,29
3164,29
3165,29
3166,28
3167,29
3168,29
3169,28
3170,28
3171,29
3172,29
3173,29
3174,29
3175,29
3176,29
3177,29
3178,29
3179,29
3180,29
3181,29
3182,30
3183,30
3184,30
3185,30
3186,28
3187,28
3188,28
3189,28
3190,28
3191,28
3192,28
3193,28
3194,29
3195,29
3196,29
3197,28
3198,28
3199,28
3200,28
3201,28
3202,28
3203,28
3204,28
3205,28
3206,28
3207,28
3208,28
3209,28
3210,28
3211,28
3212,28
3213,28
3214,28
3215,28
3216,28
3217,28
3218,28
3219,28
3220,28
3221,28
3222,28
3223,28
3224,28
3225,28
3226,28
3227,28
3228,28
3229,28
3230,28
3231,28
3232,28
3233,28
3234,28
3235,28
3236,28
3237,28
3238,28
3239,28
3240,28
3241,28
3242,28
3243,28
3244,28
3245,28
3246,28
3247,28
3248,28
3249,28
3250,28
3251,28
3252,28
3253,28
3254,28
3255,28
3256,28
3257,28
3258,28
3259,29
3260,29
3261,29
3262,29
3263,29
3264,28
3265,28
3266,28
3267,28
3268,28
3269,28
3270,28
3271,28
3272,28
3273,28
3274,28
3275,28
3276,28
3277,28
3278,28
3279,28
3280,28
3281,28
3282,29
3283,29
3284,29
3285,29
3286,29
3287,29
3288,29
3289,29
3290,29
3291,30
3292,29
3293,29
3294,29
3295,29
3296,29
3297,29
3298,29
3299,29
3300,29
3301,29
3302,29
3303,29
3304,29
3305,29
3306,29
3307,29
3308,29
3309,29
3310,29
3311,29
3312,30
3313,29
3314,29
3315,29
3316,29
3317,29
3318,29
3319,29
3320,29
3321,29
3322,29
3323,29
3324,29
3325,29
3326,29
3327,29
3328,30
3329,30
3330,29
3331,30
3332,30
3333,29
3334,29
3335,29
3336,30
3337,31
3338,30
3339,30
3340,30
3341,30
3342,30
3343,30
3344,30
3345,30
3346,29
3347,29
3348,29
3349,29
3350,30
3351,30
3352,29
3353,29
3354,29
3355,29
3356,29
3357,29
3358,29
3359,29
3360,29
3361,29
3362,29
3363,29
3364,29
3365,29
3366,29
3367,29
3368,29
3369,29
3370,29
3371,29
3372,29
3373,29
3374,29
3375,29
3376,29
3377,29
3378,29
3379,29
3380,29
3381,29
3382,29
3383,29
3384,29
3385,29
3386,29
3387,29
3388,29
3389,30
3390,30
3391,29
3392,29
3393,29
3394,29
3395,29
3396,29
3397,29
3398,29
3399,29
3400,29
3401,29
3402,29
3403,29
3404,29
3405,29
3406,29
3407,29
3408,29
3409,29
3410,29
3411,29
3412,29
3413,30
3414,30
3415,30
3416,30
3417,30
3418,30
3419,29
3420,29
3421,29
3422,29
3423,29
3424,29
3425,29
3426,29
3427,29
3428,29
3429,29
3430,29
3431,29
3432,29
3433,29
3434,29
3435,29
3436,29
3437,29
3438,29
3439,29
3440,29
3441,29
3442,29
3443,29
3444,29
3445,29
3446,29
3447,29
3448,29
3449,29
3450,29
3451,29
3452,30
3453,30
3454,29
3455,29
3456,29
3457,29
3458,29
3459,29
3460,29
3461,29
3462,29
3463,29
3464,30
3465,30
3466,30
3467,30
3468,30
3469,29
3470,29
3471,29
3472,29
3473,29
3474,29
3475,29
3476,29
3477,30
3478,30
3479,29
3480,29
3481,29
3482,29
3483,29
3484,30
3485,30
3486,30
3487,30
3488,30
3489,30
3490,30
3491,30
3492,30
3493,30
3494,30
3495,30
3496,30
3497,31
3498,30
3499,30
3500,30
3501,30
3502,30
3503,30
3504,31
3505,31
3506,31
3507,31
3508,32
3509,32
3510,32
3511,32
3512,32
3513,33
3514,33
3515,33
3516,32
3517,32
3518,32
3519,32
3520,32
3521,33
3522,33
3523,32
3524,32
3525,32
3526,33
3527,32
3528,32
3529,32
3530,31
3531,31
3532,31
3533,31
3534,31
3535,31
3536,31
3537,31
3538,31
3539,31
3540,31
3541,31
3542,31
3543,31
3544,31
3545,31
3546,31
3547,31
3548,31
3549,31
3550,31
3551,31
3552,31
3553,31
3554,31
3555,31
3556,31
3557,31
3558,31
3559,31
3560,31
3561,31
3562,31
3563,31
3564,31
3565,31
3566,31
3567,31
3568,31
3569,31
3570,31
3571,31
3572,31
3573,31
3574,31
3575,31
3576,31
3577,31
3578,32
3579,32
3580,32
3581,32
3582,32
3583,32
3584,32
3585,32
3586,32
3587,32
3588,32
3589,32
3590,32
3591,32
3592,32
3593,32
3594,32
3595,32
3596,32
3597,32
3598,32
3599,32
3600,32
3601,33
3602,33
3603,33
3604,32
3605,32
3606,32
3607,32
3608,31
3609,31
3610,31
3611,31
3612,31
3613,32
3614,32
3615,32
3616,32
3617,32
3618,32
3619,32
3620,32
3621,32
3622,32
3623,32
3624,32
3625,32
3626,32
3627,32
3628,31
3629,31
3630,32
3631,31
3632,31
3633,31
3634,31
3635,31
3636,31
3637,31
3638,31
3639,31
3640,31
3641,31
3642,31
3643,31
3644,32
3645,31
3646,31
3647,31
3648,31
3649,31
3650,31
3651,31
3652,31
3653,31
3654,31
3655,31
3656,31
3657,31
3658,31
3659,31
3660,31
3661,31
3662,31
3663,31
3664,31
3665,32
3666,32
3667,32
3668,32
3669,31
3670,31
3671,31
3672,31
3673,31
3674,31
3675,31
3676,32
3677,31
3678,31
3679,31
3680,31
3681,31
3682,31
3683,31
3684,31
3685,31
3686,31
3687,31
3688,31
3689,31
3690,31
3691,31
3692,31
3693,31
3694,31
3695,31
3696,31
3697,31
3698,31
3699,32
3700,32
3701,32
3702,32
3703,32
3704,32
3705,32
3706,32
3707,32
3708,32
3709,32
3710,32
3711,32
3712,32
3713,32
3714,32
3715,32
3716,32
3717,32
3718,32
3719,32
3720,32
3721,32
3722,32
3723,31
3724,32
3725,32
3726,32
3727,32
3728,32
3729,32
3730,32
3731,32
3732,32
3733,32
3734,32
3735,32
3736,32
3737,32
3738,32
3739,33
3740,33
3741,33
3742,33
3743,34
3744,33
3745,33
3746,33
3747,33
3748,33
3749,33
3750,33
3751,33
3752,32
3753,32
3754,32
3755,32
3756,32
3757,32
3758,32
3759,32
3760,32
3761,32
3762,32
3763,32
3764,33
3765,33
3766,33
3767,33
3768,33
3769,34
3770,34
3771,35
3772,35
3773,34
3774,34
3775,34
3776,34
3777,34
3778,34
3779,34
3780,33
3781,33
3782,33
3783,33
3784,34
3785,34
3786,34
3787,33
3788,33
3789,33
3790,33
3791,33
3792,33
3793,33
3794,33
3795,33
3796,33
3797,34
3798,33
3799,33
3800,33
3801,33
3802,33
3803,33
3804,33
3805,33
3806,33
3807,33
3808,33
3809,33
3810,33
3811,33
3812,33
3813,33
3814,33
3815,33
3816,33
3817,33
3818,33
3819,33
3820,33
3821,33
3822,34
3823,34
3824,34
3825,34
3826,34
3827,34
3828,34
3829,34
3830,34
3831,34
3832,34
3833,34
3834,34
3835,34
3836,34
3837,34
3838,34
3839,34
3840,34
3841,34
3842,35
3843,34
3844,34
3845,34
3846,34
3847,34
3848,34
3849,34
3850,34
3851,34
3852,34
3853,34
3854,34
3855,34
3856,33
3857,33
3858,33
3859,33
3860,33
3861,33
3862,33
3863,33
3864,33
3865,34
3866,34
3867,34
3868,34
3869,34
3870,34
3871,34
3872,34
3873,34
3874,33
3875,33
3876,33
3877,33
3878,33
3879,33
3880,33
3881,33
3882,33
3883,33
3884,33
3885,33
3886,33
3887,33
3888,33
3889,33
3890,33
3891,33
3892,33
3893,33
3894,33
3895,33
3896,33
3897,33
3898,33
3899,33
3900,33
3901,33
3902,33
3903,33
3904,33
3905,34
3906,34
3907,33
3908,33
3909,33
3910,33
3911,33
3912,34
3913,33
3914,34
3915,33
3916,33
3917,34
3918,34
3919,34
3920,34
3921,34
3922,34
3923,34
3924,35
3925,35
3926,35
3927,35
3928,35
3929,36
3930,35
3931,34
3932,33
3933,33
3934,33
3935,33
3936,33
3937,33
3938,33
3939,33
3940,33
3941,33
3942,33
3943,33
3944,33
3945,34
3946,33
3947,33
3948,33
3949,33
3950,33
3951,34
3952,34
3953,33
3954,34
3955,34
3956,35
3957,34
3958,33
3959,33
3960,33
3961,33
3962,33
3963,33
3964,33
3965,33
3966,33
3967,33
3968,33
3969,33
3970,33
3971,33
3972,33
3973,33
3974,33
3975,33
3976,33
3977,33
3978,33
3979,33
3980,33
3981,33
3982,33
3983,33
3984,33
3985,33
3986,33
3987,34
3988,34
3989,35
3990,35
3991,35
3992,35
3993,35
3994,34
3995,35
3996,35
3997,35
3998,35
3999,34
4000,34
4001,34
4002,34
4003,34
4004,34
4005,34
4006,34
4007,34
4008,34
4009,34
4010,33
4011,33
4012,33
4013,33
4014,33
4015,33
4016,33
4017,33
4018,33
4019,33
4020,33
4021,33
4022,33
4023,33
4024,33
4025,33
4026,33
4027,33
4028,33
4029,33
4030,33
4031,33
4032,33
4033,33
4034,33
4035,33
4036,33
4037,33
4038,33
4039,33
4040,33
4041,33
4042,33
4043,33
4044,33
4045,33
4046,33
4047,33
4048,33
4049,33
4050,34
4051,34
4052,34
4053,34
4054,33
4055,33
4056,33
4057,33
4058,33
4059,33
4060,33
4061,33
4062,33
4063,33
4064,33
4065,34
4066,34
4067,34
4068,34
4069,34
4070,35
4071,35
4072,36
4073,34
4074,34
4075,33
4076,33
4077,33
4078,34
4079,34
4080,34
4081,35
4082,36
4083,36
4084,36
4085,36
4086,36
4087,35
4088,35
4089,33
4090,33
4091,34
4092,34
4093,34
4094,33
4095,33
4096,33
4097,32
4098,32
4099,32
4100,32
4101,32
4102,32
4103,32
4104,33
4105,33
4106,33
4107,32
4108,32
4109,32
4110,32
4111,32
4112,32
4113,32
4114,32
4115,32
4116,32
4117,32
4118,32
4119,32
4120,32
4121,32
4122,32
4123,32
4124,32
4125,32
4126,32
4127,32
4128,32
4129,32
4130,32
4131,32
4132,32
4133,32
4134,32
4135,33
4136,32
4137,32
4138,32
4139,32
4140,32
4141,32
4142,32
4143,32
4144,32
4145,32
4146,32
4147,32
4148,32
4149,32
4150,32
4151,32
4152,33
4153,32
4154,32
4155,35
4156,34
4157,33
4158,32
4159,32
4160,32
4161,32
4162,32
4163,32
4164,32
4165,32
4166,32
4167,32
4168,32
4169,32
4170,32
4171,32
4172,32
4173,32
4174,32
4175,32
4176,32
4177,32
4178,32
4179,32
4180,32
4181,32
4182,32
4183,32
4184,32
4185,32
4186,32
4187,32
4188,32
4189,32
4190,32
4191,32
4192,33
4193,33
4194,33
4195,33
4196,33
4197,33
4198,33
4199,33
4200,33
4201,32
4202,32
4203,32
4204,32
4205,32
4206,33
4207,33
4208,33
4209,33
4210,33
4211,32
4212,32
4213,32
4214,32
4215,33
4216,32
4217,32
4218,32
4219,32
4220,32
4221,32
4222,33
4223,33
4224,33
4225,33
4226,33
4227,33
4228,33
4229,33
4230,33
4231,33
4232,33
4233,33
4234,33
4235,33
4236,33
4237,33
4238,33
4239,33
4240,33
4241,33
4242,33
4243,33
4244,33
4245,33
4246,33
4247,33
4248,33
4249,34
4250,33
4251,33
4252,33
4253,33
4254,33
4255,33
4256,33
4257,33
4258,33
4259,33
4260,33
4261,33
4262,34
4263,34
4264,34
4265,34
4266,33
4267,33
4268,33
4269,33
4270,33
4271,34
4272,34
4273,33
4274,33
4275,33
4276,33
4277,33
4278,33
4279,33
4280,33
4281,34
4282,33
4283,33
4284,33
4285,33
4286,33
4287,33
4288,33
4289,32
4290,32
4291,32
4292,32
4293,32
4294,32
4295,33
4296,33
4297,33
4298,33
4299,33
4300,33
4301,33
4302,32
4303,32
4304,32
4305,32
4306,32
4307,32
4308,32
4309,32
4310,32
4311,32
4312,32
4313,32
4314,32
4315,32
4316,32
4317,32
4318,32
4319,32
4320,32
4321,32
4322,33
4323,33
4324,33
4325,33
4326,33
4327,33
4328,33
4329,33
4330,33
4331,33
4332,33
4333,33
4334,33
4335,33
4336,32
4337,32
4338,32
4339,32
4340,32
4341,32
4342,32
4343,32
4344,32
4345,32
4346,32
4347,32
4348,32
4349,32
4350,32
4351,32
4352,32
4353,32
4354,32
4355,32
4356,32
4357,32
4358,32
4359,32
4360,32
4361,32
4362,32
4363,32
4364,32
4365,32
4366,32
4367,32
4368,32
4369,32
4370,32
4371,32
4372,32
4373,32
4374,32
4375,32
4376,32
4377,32
4378,32
4379,32
4380,32
4381,32
4382,32
4383,32
4384,32
4385,32
4386,32
4387,32
4388,33
4389,33
4390,33
4391,33
4392,33
4393,33
4394,33
4395,33
4396,33
4397,34
4398,34
4399,34
4400,34
4401,34
4402,34
4403,34
4404,34
4405,34
4406,34
4407,34
4408,34
4409,34
4410,32
4411,32
4412,32
4413,32
4414,33
4415,33
4416,33
4417,33
4418,33
4419,33
4420,33
4421,33
4422,33
4423,33
4424,33
4425,33
4426,33
4427,33
4428,33
4429,33
4430,33
4431,33
4432,33
4433,33
4434,33
4435,33
4436,33
4437,33
4438,33
4439,33
4440,33
4441,34
4442,34
4443,33
4444,33
4445,32
4446,32
4447,32
4448,32
4449,32
4450,32
4451,32
4452,32
4453,32
4454,32
4455,32
4456,32
4457,32
4458,32
4459,32
4460,32
4461,32
4462,32
4463,32
4464,32
4465,32
4466,32
4467,32
4468,32
4469,32
4470,33
4471,32
4472,32
4473,32
4474,32
4475,33
4476,34
4477,35
4478,35
4479,35
4480,34
4481,34
4482,35
4483,36
4484,35
4485,35
4486,35
4487,35
4488,36
4489,35
4490,34
4491,34
4492,34
4493,34
4494,34
4495,33
4496,34
4497,34
4498,33
4499,33
4500,33
4501,33
4502,32
4503,32
4504,32
4505,32
4506,32
4507,32
4508,32
4509,32
4510,32
4511,32
4512,32
4513,32
4514,32
4515,32
4516,32
4517,32
4518,32
4519,32
4520,32
4521,32
4522,32
4523,32
4524,32
4525,32
4526,32
4527,32
4528,32
4529,32
4530,32
4531,32
4532,32
4533,32
4534,32
4535,32
4536,32
4537,32
4538,32
4539,33
4540,33
4541,33
4542,33
4543,33
4544,33
4545,33
4546,34
4547,35
4548,35
4549,35
4550,35
4551,34
4552,34
4553,34
4554,34
4555,33
4556,33
4557,33
4558,33
4559,33
4560,33
4561,33
4562,33
4563,34
4564,33
4565,33
4566,33
4567,33
4568,33
4569,35
4570,34
4571,35
4572,34
4573,33
4574,33
4575,33
4576,33
4577,33
4578,33
4579,33
4580,33
4581,33
4582,33
4583,33
4584,33
4585,33
4586,33
4587,33
4588,33
4589,33
4590,33
4591,33
4592,33
4593,34
4594,34
4595,34
4596,35
4597,35
4598,34
4599,34
4600,34
4601,34
4602,34
4603,33
4604,33
4605,33
4606,33
4607,33
4608,33
4609,33
4610,33
4611,33
4612,33
4613,33
4614,33
4615,33
4616,33
4617,33
4618,33
4619,33
4620,33
4621,33
4622,33
4623,33
4624,33
4625,33
4626,33
4627,33
4628,33
4629,33
4630,33
4631,33
4632,33
4633,33
4634,33
4635,33
4636,33
4637,33
4638,33
4639,33
4640,33
4641,33
4642,33
4643,33
4644,33
4645,33
4646,33
4647,33
4648,33
4649,33
4650,33
4651,34
4652,34
4653,34
4654,34
4655,34
4656,35
4657,35
4658,36
4659,36
4660,35
4661,35
4662,35
4663,35
4664,35
4665,35
4666,35
4667,35
4668,35
4669,36
4670,36
4671,36
4672,36
4673,37
4674,37
4675,37
4676,37
4677,36
4678,36
4679,36
4680,35
4681,35
4682,35
4683,36
4684,36
4685,36
4686,35
4687,35
4688,35
4689,35
4690,35
4691,35
4692,35
4693,35
4694,35
4695,35
4696,36
4697,35
4698,35
4699,35
4700,35
4701,35
4702,35
4703,35
4704,35
4705,35
4706,35
4707,35
4708,35
4709,35
4710,35
4711,35
4712,35
4713,35
4714,35
4715,35
4716,35
4717,35
4718,35
4719,35
4720,35
4721,35
4722,36
4723,36
4724,36
4725,36
4726,36
4727,36
4728,36
4729,36
4730,36
4731,36
4732,35
4733,35
4734,35
4735,35
4736,35
4737,35
4738,37
4739,37
4740,37
4741,37
4742,37
4743,37
4744,37
4745,37
4746,37
4747,37
4748,37
4749,36
4750,36
4751,35
4752,34
4753,34
4754,34
4755,34
4756,34
4757,34
4758,34
4759,34
4760,34
4761,34
4762,34
4763,34
4764,34
4765,34
4766,35
4767,34
4768,34
4769,34
4770,34
4771,34
4772,34
4773,34
4774,34
4775,34
4776,34
4777,34
4778,36
4779,36
4780,36
4781,36
4782,36
4783,35
4784,35
4785,34
4786,34
4787,34
4788,34
4789,34
4790,34
4791,34
4792,34
4793,34
4794,34
4795,34
4796,34
4797,34
4798,34
4799,34
4800,34
4801,34
4802,34
4803,34
4804,34
4805,34
4806,34
4807,34
4808,34
4809,34
4810,33
4811,33
4812,33
4813,33
4814,33
4815,33
4816,33
4817,33
4818,33
4819,33
4820,33
4821,33
4822,33
4823,33
4824,34
4825,34
4826,34
4827,34
4828,34
4829,34
4830,34
4831,34
4832,34
4833,34
4834,35
4835,34
4836,34
4837,34
4838,34
4839,33
4840,33
4841,33
4842,33
4843,33
4844,33
4845,33
4846,33
4847,33
4848,33
4849,33
4850,33
4851,33
4852,33
4853,34
4854,33
4855,33
4856,33
4857,33
4858,33
4859,33
4860,34
4861,34
4862,34
4863,35
4864,35
4865,35
4866,35
4867,35
4868,35
4869,35
4870,35
4871,35
4872,35
4873,35
4874,35
4875,35
4876,35
4877,35
4878,35
4879,35
4880,35
4881,35
4882,34
4883,34
4884,34
4885,34
4886,34
4887,34
4888,34
4889,34
4890,34
4891,34
4892,34
4893,34
4894,34
4895,34
4896,34
4897,34
4898,34
4899,34
4900,34
4901,34
4902,34
4903,34
4904,34
4905,34
4906,34
4907,34
4908,34
4909,34
4910,34
4911,34
4912,34
4913,34
4914,34
4915,34
4916,34
4917,34
4918,34
4919,34
4920,34
4921,34
4922,34
4923,35
4924,34
4925,34
4926,34
4927,34
4928,34
4929,34
4930,34
4931,34
4932,34
4933,34
4934,34
4935,34
4936,34
4937,34
4938,34
4939,34
4940,34
4941,34
4942,34
4943,34
4944,34
4945,35
4946,35
4947,36
4948,35
4949,35
4950,35
4951,35
4952,34
4953,34
4954,34
4955,34
4956,34
4957,34
4958,34
4959,34
4960,34
4961,34
4962,34
4963,34
4964,34
4965,34
4966,34
4967,34
4968,34
4969,34
4970,34
4971,34
4972,33
4973,33
4974,33
4975,33
4976,33
4977,33
4978,33
4979,33
4980,33
4981,33
4982,33
4983,33
4984,33
4985,33
4986,33
4987,33
4988,33
4989,33
4990,33
4991,33
4992,35
4993,34
4994,35
4995,34
4996,34
4997,33
4998,34
4999,34
5000,33
5001,33
5002,33
5003,33
5004,33
5005,33
5006,33
5007,33
5008,33
5009,34
5010,34
5011,34
5012,34
5013,34
5014,34
5015,34
5016,34
5017,33
5018,33
5019,33
5020,33
5021,33
5022,33
5023,33
5024,33
5025,33
5026,33
5027,33
5028,33
5029,33
5030,34
5031,34
5032,33
5033,33
5034,33
5035,33
5036,33
5037,33
5038,33
5039,33
5040,33
5041,33
5042,33
5043,33
5044,33
5045,33
5046,34
5047,33
5048,33
5049,33
5050,34
5051,33
5052,34
5053,34
5054,34
5055,34
5056,33
5057,33
5058,33
5059,33
5060,33
5061,33
5062,33
5063,32
5064,32
5065,32
5066,32
5067,32
5068,32
5069,32
5070,32
5071,32
5072,32
5073,32
5074,32
5075,32
5076,32
5077,32
5078,32
5079,32
5080,32
5081,32
5082,32
5083,32
5084,32
5085,34
5086,33
5087,33
5088,32
5089,32
5090,32
5091,32
5092,32
5093,32
5094,32
5095,32
5096,32
5097,32
5098,32
5099,32
5100,32
5101,32
5102,33
5103,33
5104,33
5105,32
5106,32
5107,32
5108,32
5109,32
5110,32
5111,32
5112,32
5113,32
5114,32
5115,32
5116,32
5117,32
5118,32
5119,32
5120,32
5121,32
5122,32
5123,32
5124,33
5125,33
5126,32
5127,32
5128,32
5129,32
5130,32
5131,32
5132,32
5133,32
5134,32
5135,32
5136,32
5137,32
5138,32
5139,32
5140,32
5141,32
5142,32
5143,32
5144,32
5145,32
5146,32
5147,32
5148,32
5149,32
5150,32
5151,32
5152,32
5153,32
5154,32
5155,32
5156,32
5157,32
5158,32
5159,33
5160,33
5161,32
5162,32
5163,32
5164,32
5165,32
5166,32
5167,32
5168,32
5169,32
5170,32
5171,32
5172,32
5173,32
5174,32
5175,33
5176,32
5177,32
5178,32
5179,32
5180,32
5181,32
5182,32
5183,32
5184,33
5185,32
5186,32
5187,32
5188,32
5189,32
5190,32
5191,32
5192,32
5193,32
5194,32
5195,32
5196,32
5197,32
5198,33
5199,33
5200,34
5201,33
5202,33
5203,33
5204,34
5205,33
5206,33
5207,33
5208,33
5209,32
5210,32
5211,32
5212,32
5213,32
5214,33
5215,32
5216,32
5217,32
5218,32
5219,32
5220,32
5221,32
5222,32
5223,32
5224,32
5225,32
5226,32
5227,32
5228,32
5229,32
5230,32
5231,32
5232,32
5233,32
5234,32
5235,33
5236,33
5237,32
5238,33
5239,33
5240,33
5241,33
5242,33
5243,33
5244,33
5245,33
5246,33
5247,33
5248,33
5249,33
5250,33
5251,33
5252,33
5253,33
5254,33
5255,34
5256,33
5257,33
5258,33
5259,33
5260,33
5261,33
5262,33
5263,33
5264,34
5265,33
5266,33
5267,32
5268,32
5269,32
5270,32
5271,32
5272,32
5273,33
5274,32
5275,33
5276,33
5277,33
5278,33
5279,33
5280,33
5281,33
5282,33
5283,33
5284,32
5285,32
5286,32
5287,32
5288,32
5289,32
5290,32
5291,32
5292,32
5293,32
5294,32
5295,32
5296,32
5297,32
5298,32
5299,32
5300,32
5301,32
5302,32
5303,32
5304,32
5305,32
5306,32
5307,32
5308,32
5309,32
5310,32
5311,32
5312,32
5313,32
5314,32
5315,32
5316,33
5317,33
5318,33
5319,33
5320,32
5321,32
5322,32
5323,33
5324,33
5325,32
5326,32
5327,32
5328,32
5329,32
5330,32
5331,32
5332,32
5333,32
5334,32
5335,33
5336,33
5337,32
5338,32
5339,32
5340,32
5341,32
5342,32
5343,33
5344,33
5345,33
5346,32
5347,32
5348,32
5349,32
5350,32
5351,32
5352,32
5353,32
5354,32
5355,32
5356,33
5357,33
5358,33
5359,33
5360,33
5361,33
5362,33
5363,33
5364,33
5365,33
5366,33
5367,33
5368,33
5369,33
5370,33
5371,33
5372,33
5373,33
5374,33
5375,33
5376,33
5377,33
5378,33
5379,34
5380,34
5381,32
5382,32
5383,32
5384,33
5385,33
5386,33
5387,33
5388,32
5389,33
5390,33
5391,32
5392,32
5393,32
5394,32
5395,32
5396,32
5397,32
5398,32
5399,32
5400,32
5401,32
5402,32
5403,32
5404,32
5405,32
5406,32
5407,32
5408,32
5409,32
5410,32
5411,32
5412,32
5413,32
5414,32
5415,32
5416,32
5417,32
5418,32
5419,33
5420,34
5421,34
5422,33
5423,33
5424,33
5425,33
5426,32
5427,32
5428,32
5429,32
5430,32
5431,33
5432,33
5433,33
5434,33
5435,33
5436,33
5437,33
5438,33
5439,33
5440,33
5441,33
5442,33
5443,33
5444,33
5445,33
5446,34
5447,33
5448,33
5449,33
5450,33
5451,33
5452,33
5453,34
5454,34
5455,33
5456,33
5457,33
5458,33
5459,33
5460,33
5461,33
5462,33
5463,33
5464,33
5465,33
5466,33
5467,33
5468,33
5469,33
5470,33
5471,33
5472,34
5473,34
5474,35
5475,34
5476,34
5477,34
5478,34
5479,34
5480,34
5481,34
5482,34
5483,35
5484,35
5485,35
5486,35
5487,35
5488,35
5489,34
5490,34
5491,34
5492,34
5493,34
5494,34
5495,34
5496,34
5497,34
5498,34
5499,34
5500,34
5501,34
5502,34
5503,34
5504,34
5505,34
5506,34
5507,34
5508,34
5509,34
5510,34
5511,34
5512,34
5513,35
5514,34
5515,33
5516,33
5517,33
5518,34
5519,33
5520,33
5521,33
5522,33
5523,33
5524,34
5525,33
5526,33
5527,33
5528,33
5529,33
5530,33
5531,33
5532,33
5533,33
5534,33
5535,33
5536,33
5537,33
5538,33
5539,33
5540,33
5541,33
5542,33
5543,33
5544,33
5545,33
5546,33
5547,33
5548,33
5549,33
5550,33
5551,33
5552,33
5553,33
5554,34
5555,34
5556,34
5557,34
5558,34
5559,35
5560,34
5561,34
5562,33
5563,33
5564,33
5565,33
5566,33
5567,33
5568,33
5569,33
5570,33
5571,33
5572,33
5573,33
5574,33
5575,33
5576,33
5577,33
5578,33
5579,33
5580,33
5581,33
5582,33
5583,33
5584,33
5585,33
5586,33
5587,33
5588,33
5589,33
5590,33
5591,33
5592,33
5593,33
5594,33
5595,33
5596,33
5597,33
5598,33
5599,33
5600,33
5601,33
5602,33
5603,33
5604,33
5605,33
5606,33
5607,33
5608,33
5609,33
5610,33
5611,33
5612,33
5613,33
5614,33
5615,33
5616,33
5617,33
5618,34
5619,33
5620,33
5621,33
5622,33
5623,33
5624,33
5625,33
5626,33
5627,33
5628,33
5629,33
5630,33
5631,33
5632,33
5633,34
5634,33
5635,33
5636,34
5637,34
5638,33
5639,33
5640,33
5641,33
5642,33
5643,33
5644,33
5645,33
5646,33
5647,33
5648,33
5649,33
5650,33
5651,33
5652,33
5653,33
5654,33
5655,33
5656,33
5657,33
5658,33
5659,33
5660,34
5661,34
5662,33
5663,33
5664,33
5665,33
5666,33
5667,33
5668,33
5669,33
5670,33
5671,33
5672,34
5673,34
5674,34
5675,34
5676,34
5677,34
5678,34
5679,34
5680,34
5681,34
5682,34
5683,34
5684,34
5685,34
5686,34
5687,34
5688,34
5689,34
5690,34
5691,34
5692,34
5693,34
5694,34
5695,35
5696,34
5697,34
5698,34
5699,34
5700,34
5701,34
5702,34
5703,34
5704,34
5705,34
5706,34
5707,34
5708,34
5709,34
5710,34
5711,34
5712,34
5713,34
5714,34
5715,34
5716,34
5717,34
5718,34
5719,34
5720,34
5721,34
5722,34
5723,34
5724,34
5725,35
5726,35
5727,35
5728,35
5729,35
5730,36
5731,35
5732,35
5733,35
5734,35
5735,35
5736,35
5737,35
5738,34
5739,34
5740,34
5741,34
5742,34
5743,34
5744,34
5745,34
5746,34
5747,34
5748,34
5749,34
5750,34
5751,34
5752,34
5753,34
5754,34
5755,34
5756,34
5757,34
5758,34
5759,34
5760,34
5761,34
5762,34
5763,34
5764,34
5765,34
5766,34
5767,34
5768,35
5769,34
5770,34
5771,34
5772,34
5773,34
5774,34
5775,34
5776,34
5777,34
5778,34
5779,34
5780,34
5781,34
5782,34
5783,34
5784,34
5785,34
5786,34
5787,34
5788,34
5789,34
5790,34
5791,34
5792,34
5793,34
5794,34
5795,34
5796,34
5797,35
5798,34
5799,34
5800,34
5801,34
5802,34
5803,34
5804,34
5805,34
5806,34
5807,34
5808,34
5809,34
5810,34
5811,34
5812,34
5813,34
5814,34
5815,34
5816,34
5817,34
5818,35
5819,35
5820,35
5821,35
5822,35
5823,36
5824,35
5825,35
5826,35
5827,34
5828,34
5829,34
5830,34
5831,34
5832,34
5833,34
5834,34
5835,34
5836,34
5837,35
5838,34
5839,34
5840,34
5841,34
5842,34
5843,34
5844,34
5845,34
5846,34
5847,34
5848,34
5849,34
5850,34
5851,34
5852,34
5853,35
5854,34
5855,34
5856,34
5857,34
5858,34
5859,34
5860,34
5861,34
5862,34
5863,34
5864,34
5865,34
5866,34
5867,34
5868,35
5869,35
5870,35
5871,35
5872,35
5873,35
5874,35
5875,35
5876,35
5877,35
5878,35
5879,35
5880,35
5881,35
5882,35
5883,35
5884,35
5885,35
5886,35
5887,35
5888,35
5889,35
5890,35
5891,35
5892,35
5893,35
5894,35
5895,35
5896,34
5897,34
5898,34
5899,34
5900,34
5901,34
5902,34
5903,34
5904,34
5905,34
5906,34
5907,34
5908,34
5909,34
5910,34
5911,34
5912,34
5913,34
5914,34
5915,34
5916,35
5917,35
5918,35
5919,34
5920,34
5921,34
5922,34
5923,34
5924,35
5925,34
5926,34
5927,34
5928,34
5929,34
5930,34
5931,34
5932,34
5933,34
5934,34
5935,34
5936,35
5937,34
5938,34
5939,34
5940,34
5941,34
5942,34
5943,34
5944,34
5945,34
5946,34
5947,34
5948,34
5949,34
5950,34
5951,34
5952,34
5953,35
5954,36
5955,36
5956,35
5957,34
5958,34
5959,34
5960,33
5961,35
5962,35
5963,35
5964,36
5965,35
5966,35
5967,35
5968,34
5969,34
5970,33
5971,33
5972,34
5973,34
5974,33
5975,33
5976,33
5977,33
5978,33
5979,33
5980,33
5981,33
5982,33
5983,33
5984,33
5985,33
5986,33
5987,33
5988,34
5989,34
5990,34
5991,34
5992,34
5993,34
5994,34
5995,34
5996,34
5997,34
5998,34
5999,34
6000,34
6001,33
6002,33
6003,33
6004,33
6005,33
6006,33
6007,33
6008,33
6009,33
6010,33
6011,33
6012,33
6013,33
6014,33
6015,33
6016,33
6017,33
6018,33
6019,33
6020,33
6021,33
6022,33
6023,33
6024,33
6025,33
6026,33
6027,34
6028,34
6029,33
6030,33
6031,33
6032,33
6033,35
6034,34
6035,34
6036,34
6037,34
6038,34
6039,34
6040,34
6041,34
6042,34
6043,34
6044,33
6045,34
6046,33
6047,33
6048,33
6049,33
6050,33
6051,33
6052,34
6053,33
6054,33
6055,33
6056,34
6057,33
6058,33
6059,33
6060,33
6061,33
6062,33
6063,33
6064,33
6065,33
6066,33
6067,33
6068,33
6069,33
6070,33
6071,34
6072,34
6073,34
6074,35
6075,33
6076,33
6077,33
6078,33
6079,33
6080,33
6081,33
6082,33
6083,33
6084,33
6085,34
6086,34
6087,34
6088,34
6089,33
6090,33
6091,33
6092,34
6093,33
6094,33
6095,33
6096,33
6097,33
6098,33
6099,34
6100,34
6101,34
6102,34
6103,35
6104,35
6105,35
6106,35
6107,35
6108,35
6109,35
6110,35
6111,34
6112,34
6113,34
6114,34
6115,34
6116,34
6117,34
6118,34
6119,34
6120,34
6121,34
6122,34
6123,34
6124,34
6125,34
6126,34
6127,35
6128,35
6129,35
6130,35
6131,35
6132,35
6133,35
6134,33
6135,33
6136,34
6137,34
6138,34
6139,34
6140,34
6141,34
6142,33
6143,33
6144,33
6145,33
6146,33
6147,33
6148,33
6149,33
6150,33
6151,33
6152,33
6153,33
6154,33
6155,33
6156,34
6157,34
6158,33
6159,33
6160,33
6161,33
6162,33
6163,34
6164,34
6165,33
6166,33
6167,33
6168,33
6169,33
6170,34
6171,33
6172,33
6173,33
6174,33
6175,33
6176,33
6177,33
6178,33
6179,33
6180,33
6181,33
6182,33
6183,34
6184,34
6185,34
6186,34
6187,34
6188,34
6189,34
6190,34
6191,33
6192,33
6193,33
6194,33
6195,33
6196,33
6197,33
6198,33
6199,33
6200,33
6201,33
6202,33
6203,33
6204,33
6205,33
6206,33
6207,33
6208,33
6209,33
6210,33
6211,33
6212,33
6213,33
6214,33
6215,33
6216,33
6217,33
6218,33
6219,33
6220,33
6221,33
6222,33
6223,33
6224,33
6225,33
6226,33
6227,33
6228,33
6229,33
6230,33
6231,33
6232,33
6233,33
6234,33
6235,33
6236,33
6237,33
6238,33
6239,33
6240,33
6241,33
6242,34
6243,33
6244,34
6245,33
6246,33
6247,33
6248,33
6249,33
6250,33
6251,33
6252,33
6253,33
6254,33
6255,33
6256,33
6257,33
6258,33
6259,33
6260,33
6261,33
6262,33
6263,33
6264,33
6265,33
6266,33
6267,33
6268,33
6269,33
6270,33
6271,33
6272,33
6273,33
6274,33
6275,33
6276,33
6277,33
6278,33
6279,33
6280,33
6281,33
6282,33
6283,33
6284,33
6285,33
6286,33
6287,33
6288,33
6289,33
6290,33
6291,33
6292,33
6293,33
6294,33
6295,33
6296,33
6297,33
6298,33
6299,33
6300,33
6301,33
6302,33
6303,33
6304,33
6305,33
6306,33
6307,33
6308,33
6309,33
6310,33
6311,33
6312,33
6313,33
6314,33
6315,33
6316,34
6317,34
6318,33
6319,33
6320,33
6321,33
6322,33
6323,33
6324,33
6325,33
6326,33
6327,33
6328,33
6329,33
6330,33
6331,33
6332,33
6333,33
6334,33
6335,33
6336,33
6337,33
6338,33
6339,33
6340,33
6341,33
6342,33
6343,34
6344,34
6345,34
6346,35
6347,35
6348,35
6349,35
6350,35
6351,35
6352,35
6353,35
6354,34
6355,34
6356,34
6357,34
6358,33
6359,33
6360,33
6361,33
6362,33
6363,33
6364,33
6365,33
6366,33
6367,33
6368,33
6369,33
6370,33
6371,33
6372,33
6373,33
6374,33
6375,33
6376,33
6377,33
6378,34
6379,33
6380,33
6381,33
6382,33
6383,33
6384,33
6385,33
6386,33
6387,33
6388,33
6389,33
6390,33
6391,33
6392,33
6393,33
6394,33
6395,33
6396,33
6397,33
6398,33
6399,33
6400,33
6401,33
6402,33
6403,33
6404,34
6405,34
6406,34
6407,33
6408,33
6409,33
6410,33
6411,33
6412,33
6413,33
6414,33
6415,33
6416,33
6417,33
6418,33
6419,34
6420,34
6421,33
6422,33
6423,33
6424,33
6425,33
6426,33
6427,33
6428,33
6429,34
6430,34
6431,34
6432,34
6433,34
6434,33
6435,33
6436,33
6437,33
6438,33
6439,33
6440,33
6441,33
6442,33
6443,33
6444,33
6445,33
6446,33
6447,33
6448,33
6449,33
6450,33
6451,33
6452,33
6453,33
6454,33
6455,34
6456,33
6457,33
6458,33
6459,33
6460,33
6461,33
6462,33
6463,33
6464,33
6465,33
6466,33
6467,33
6468,33
6469,33
6470,33
6471,33
6472,33
6473,34
6474,34
6475,34
6476,34
6477,34
6478,34
6479,34
6480,34
6481,34
6482,34
6483,34
6484,34
6485,35
6486,34
6487,34
6488,34
6489,34
6490,35
6491,34
6492,34
6493,34
6494,34
6495,34
6496,34
6497,34
6498,34
6499,34
6500,34
6501,34
6502,34
6503,34
6504,34
6505,34
6506,34
6507,34
6508,34
6509,34
6510,34
6511,34
6512,34
6513,34
6514,34
6515,34
6516,34
6517,34
6518,34
6519,34
6520,34
6521,34
6522,34
6523,34
6524,34
6525,34
6526,34
6527,34
6528,34
6529,34
6530,34
6531,34
6532,34
6533,34
6534,34
6535,34
6536,34
6537,34
6538,34
6539,34
6540,35
6541,35
6542,34
6543,34
6544,34
6545,34
6546,35
6547,35
6548,35
6549,35
6550,35
6551,35
6552,35
6553,34
6554,34
6555,34
6556,34
6557,34
6558,34
6559,34
6560,34
6561,35
6562,34
6563,34
6564,34
6565,34
6566,34
6567,34
6568,34
6569,34
6570,34
6571,34
6572,34
6573,34
6574,34
6575,34
6576,34
6577,34
6578,34
6579,34
6580,34
6581,34
6582,34
6583,34
6584,34
6585,34
6586,35
6587,34
6588,34
6589,34
6590,34
6591,34
6592,34
6593,34
6594,34
6595,34
6596,34
6597,34
6598,34
6599,34
6600,34
6601,34
6602,34
6603,34
6604,34
6605,34
6606,35
6607,34
6608,34
6609,34
6610,34
6611,35
6612,34
6613,34
6614,34
6615,34
6616,35
6617,35
6618,35
6619,34
6620,34
6621,34
6622,35
6623,35
6624,34
6625,34
6626,34
6627,34
6628,34
6629,34
6630,34
6631,34
6632,34
6633,34
6634,34
6635,34
6636,33
6637,33
6638,33
6639,33
6640,33
6641,33
6642,33
6643,33
6644,33
6645,33
6646,34
6647,34
6648,36
6649,35
6650,34
6651,35
6652,34
6653,34
6654,35
6655,35
6656,35
6657,36
6658,36
6659,36
6660,36
6661,36
6662,36
6663,36
6664,36
6665,36
6666,36
6667,35
6668,35
6669,35
6670,34
6671,34
6672,34
6673,34
6674,34
6675,34
6676,34
6677,34
6678,34
6679,34
6680,34
6681,34
6682,34
6683,34
6684,34
6685,34
6686,34
6687,34
6688,34
6689,34
6690,34
6691,34
6692,34
6693,34
6694,34
6695,34
6696,34
6697,34
6698,34
6699,35
6700,35
6701,34
6702,34
6703,34
6704,34
6705,34
6706,34
6707,34
6708,34
6709,34
6710,34
6711,34
6712,34
6713,34
6714,34
6715,34
6716,34
6717,34
6718,34
6719,34
6720,34
6721,34
6722,34
6723,34
6724,34
6725,34
6726,34
6727,34
6728,34
6729,34
6730,35
6731,34
6732,34
6733,34
6734,34
6735,34
6736,34
6737,34
6738,35
6739,34
6740,34
6741,34
6742,34
6743,35
6744,35
6745,35
6746,36
6747,36
6748,36
6749,36
6750,36
6751,36
6752,35
6753,35
6754,35
6755,35
6756,35
6757,35
6758,35
6759,36
6760,35
6761,35
6762,35
6763,34
6764,34
6765,34
6766,34
6767,34
6768,34
6769,35
6770,34
6771,34
6772,34
6773,34
6774,34
6775,34
6776,34
6777,34
6778,34
6779,34
6780,34
6781,34
6782,34
6783,35
6784,34
6785,34
6786,34
6787,34
6788,34
6789,34
6790,34
6791,34
6792,35
6793,35
6794,35
6795,35
6796,34
6797,34
6798,34
6799,34
6800,34
6801,34
6802,34
6803,34
6804,34
6805,34
6806,34
6807,34
6808,34
6809,34
6810,34
6811,34
6812,34
6813,34
6814,34
6815,34
6816,34
6817,34
6818,34
6819,34
6820,34
6821,34
6822,34
6823,34
6824,34
6825,34
6826,34
6827,34
6828,34
6829,34
6830,34
6831,35
6832,35
6833,35
6834,34
6835,34
6836,34
6837,34
6838,35
6839,34
6840,34
6841,34
6842,34
6843,34
6844,34
6845,34
6846,34
6847,34
6848,34
6849,34
6850,34
6851,34
6852,34
6853,35
6854,35
6855,35
6856,35
6857,35
6858,35
6859,36
6860,36
6861,35
6862,35
6863,35
6864,35
6865,34
6866,34
6867,34
6868,34
6869,34
6870,34
6871,34
6872,34
6873,34
6874,34
6875,34
6876,34
6877,34
6878,34
6879,34
6880,34
6881,34
6882,34
6883,34
6884,34
6885,34
6886,36
6887,35
6888,35
6889,35
6890,34
6891,34
6892,34
6893,34
6894,34
6895,34
6896,34
6897,34
6898,34
6899,34
6900,34
6901,34
6902,34
6903,35
6904,35
6905,34
6906,34
6907,34
6908,34
6909,34
6910,34
6911,34
6912,34
6913,34
6914,34
6915,34
6916,34
6917,34
6918,34
6919,34
6920,34
6921,34
6922,34
6923,34
6924,34
6925,35
6926,35
6927,35
6928,35
6929,35
6930,35
6931,35
6932,35
6933,35
6934,35
6935,35
6936,35
6937,35
6938,35
6939,35
6940,35
6941,35
6942,35
6943,35
6944,35
6945,36
6946,36
6947,36
6948,36
6949,36
6950,36
6951,36
6952,36
6953,35
6954,35
6955,35
6956,35
6957,35
6958,35
6959,35
6960,35
6961,35
6962,35
6963,35
6964,36
6965,35
6966,35
6967,35
6968,35
6969,35
6970,35
6971,35
6972,35
6973,35
6974,35
6975,35
6976,35
6977,35
6978,35
6979,35
6980,35
6981,35
6982,36
6983,36
6984,35
6985,35
6986,35
6987,35
6988,35
6989,35
6990,35
6991,35
6992,35
6993,35
6994,35
6995,34
6996,34
6997,34
6998,34
6999,34
7000,34
7001,35
7002,35
7003,34
7004,34
7005,34
7006,34
7007,34
7008,34
7009,34
7010,34
7011,34
7012,34
7013,34
7014,34
7015,34
7016,34
7017,34
7018,34
7019,34
7020,34
7021,34
7022,34
7023,34
7024,34
7025,34
7026,34
7027,34
7028,34
7029,34
7030,34
7031,35
7032,34
7033,34
7034,34
7035,34
7036,34
7037,34
7038,34
7039,34
7040,34
7041,34
7042,34
7043,35
7044,34
7045,34
7046,34
7047,34
7048,34
7049,34
7050,34
7051,34
7052,34
7053,34
7054,34
7055,34
7056,34
7057,34
7058,34
7059,34
7060,35
7061,35
7062,35
7063,36
7064,35
7065,35
7066,35
7067,36
7068,36
7069,36
7070,36
7071,36
7072,36
7073,36
7074,36
7075,36
7076,36
7077,35
7078,35
7079,35
7080,35
7081,35
7082,35
7083,35
7084,35
7085,35
7086,35
7087,35
7088,36
7089,35
7090,35
7091,35
7092,35
7093,35
7094,35
7095,35
7096,35
7097,35
7098,35
7099,35
7100,36
7101,35
7102,35
7103,35
7104,35
7105,35
7106,35
7107,35
7108,35
7109,36
7110,36
7111,37
7112,37
7113,36
7114,36
7115,36
7116,36
7117,36
7118,35
7119,35
7120,35
7121,35
7122,35
7123,35
7124,35
7125,35
7126,35
7127,35
7128,36
7129,37
7130,36
7131,36
7132,35
7133,34
7134,34
7135,34
7136,34
7137,34
7138,35
7139,34
7140,34
7141,34
7142,34
7143,34
7144,34
7145,34
7146,34
7147,34
7148,34
7149,33
7150,33
7151,33
7152,33
7153,33
7154,33
7155,33
7156,33
7157,33
7158,33
7159,33
7160,33
7161,33
7162,33
7163,33
7164,33
7165,33
7166,33
7167,33
7168,33
7169,33
7170,34
7171,34
7172,33
7173,33
7174,33
7175,33
7176,33
7177,33
7178,33
7179,33
7180,33
7181,33
7182,33
7183,33
7184,33
7185,33
7186,34
7187,33
7188,33
7189,33
7190,33
7191,33
7192,33
7193,33
7194,33
7195,33
7196,33
7197,33
7198,33
7199,33
7200,33
7201,33
7202,33
7203,33
7204,33
7205,33
7206,33
7207,33
7208,33
7209,33
7210,33
7211,33
7212,33
7213,33
7214,33
7215,33
7216,33
7217,33
7218,33
7219,33
7220,33
7221,34
7222,34
7223,34
7224,33
7225,33
7226,33
7227,33
7228,33
7229,33
7230,33
7231,33
7232,33
7233,33
7234,33
7235,33
7236,33
7237,33
7238,33
7239,33
7240,33
7241,33
7242,33
7243,33
7244,33
7245,33
7246,33
7247,33
7248,33
7249,34
7250,34
7251,34
7252,34
7253,35
7254,35
7255,34
7256,34
7257,34
7258,34
7259,34
7260,34
7261,34
7262,33
7263,33
7264,33
7265,34
7266,34
7267,34
7268,33
7269,33
7270,33
7271,34
7272,34
7273,34
7274,34
7275,33
7276,33
7277,33
7278,33
7279,33
7280,33
7281,34
7282,33
7283,33
7284,33
7285,33
7286,33
7287,33
7288,33
7289,33
7290,33
7291,33
7292,33
7293,33
7294,33
7295,33
7296,33
7297,33
7298,33
7299,33
7300,33
7301,33
7302,33
7303,33
7304,33
7305,33
7306,33
7307,33
7308,33
7309,33
7310,34
7311,34
7312,34
7313,34
7314,34
7315,34
7316,34
7317,33
7318,33
7319,33
7320,34
7321,33
7322,34
7323,35
7324,34
7325,34
7326,34
7327,33
7328,33
7329,33
7330,33
7331,33
7332,33
7333,33
7334,33
7335,33
7336,33
7337,33
7338,33
7339,33
7340,33
7341,33
7342,33
7343,33
7344,33
7345,34
7346,34
7347,33
7348,33
7349,33
7350,33
7351,33
7352,33
7353,33
7354,33
7355,33
7356,33
7357,33
7358,33
7359,33
7360,33
7361,33
7362,33
7363,33
7364,33
7365,33
7366,33
7367,33
7368,33
7369,33
7370,33
7371,33
7372,33
7373,33
7374,33
7375,33
7376,33
7377,33
7378,33
7379,33
7380,33
7381,33
7382,33
7383,33
7384,33
7385,33
7386,33
7387,33
7388,33
7389,33
7390,33
7391,33
7392,33
7393,33
7394,33
7395,33
7396,33
7397,33
7398,33
7399,33
7400,33
7401,33
7402,33
7403,33
7404,33
7405,33
7406,33
7407,33
7408,33
7409,33
7410,33
7411,33
7412,33
7413,33
7414,33
7415,33
7416,33
7417,33
7418,33
7419,34
7420,34
7421,33
7422,33
7423,34
7424,33
7425,33
7426,33
7427,33
7428,34
7429,34
7430,34
7431,33
7432,33
7433,33
7434,33
7435,33
7436,33
7437,33
7438,33
7439,33
7440,33
7441,33
7442,33
7443,33
7444,33
7445,33
7446,33
7447,33
7448,33
7449,33
7450,33
7451,33
7452,33
7453,33
7454,33
7455,33
7456,33
7457,33
7458,33
7459,33
7460,33
7461,33
7462,33
7463,33
7464,33
7465,33
7466,33
7467,33
7468,33
7469,33
7470,33
7471,33
7472,33
7473,33
7474,33
7475,33
7476,33
7477,33
7478,33
7479,33
7480,33
7481,33
7482,33
7483,33
7484,33
7485,33
7486,33
7487,33
7488,34
7489,34
7490,34
7491,33
7492,33
7493,33
7494,33
7495,33
7496,33
7497,33
7498,33
7499,33
7500,33
7501,33
7502,33
7503,33
7504,33
7505,32
7506,32
7507,32
7508,32
7509,32
7510,32
7511,32
7512,32
7513,32
7514,32
7515,32
7516,32
7517,32
7518,32
7519,32
7520,32
7521,32
7522,32
7523,32
7524,32
7525,32
7526,32
7527,32
7528,33
7529,34
7530,32
7531,32
7532,32
7533,32
7534,32
7535,32
7536,32
7537,32
7538,32
7539,32
7540,33
7541,33
7542,32
7543,32
7544,33
7545,33
7546,32
7547,32
7548,32
7549,32
7550,33
7551,32
7552,32
7553,32
7554,32
7555,32
7556,33
7557,32
7558,32
7559,33
7560,33
7561,33
7562,33
7563,32
7564,32
7565,32
7566,32
7567,32
7568,32
7569,32
7570,32
7571,32
7572,32
7573,32
7574,31
7575,31
7576,31
7577,31
7578,31
7579,31
7580,31
7581,31
7582,31
7583,31
7584,31
7585,31
7586,31
7587,31
7588,32
7589,32
7590,32
7591,32
7592,32
7593,32
7594,32
7595,32
7596,32
7597,32
7598,33
7599,32
7600,32
7601,31
7602,31
7603,31
7604,31
7605,32
7606,32
7607,32
7608,32
7609,32
7610,32
7611,32
7612,32
7613,32
7614,32
7615,32
7616,32
7617,32
7618,32
7619,32
7620,32
7621,32
7622,32
7623,32
7624,32
7625,32
7626,32
7627,33
7628,32
7629,32
7630,32
7631,32
7632,32
7633,32
7634,32
7635,32
7636,32
7637,32
7638,32
7639,32
7640,32
7641,32
7642,32
7643,32
7644,32
7645,32
7646,32
7647,32
7648,32
7649,32
7650,32
7651,32
7652,32
7653,32
7654,32
7655,32
7656,32
7657,32
7658,32
7659,32
7660,32
7661,32
7662,32
7663,32
7664,32
7665,32
7666,31
7667,31
7668,31
7669,31
7670,31
7671,31
7672,31
7673,32
7674,32
7675,31
7676,31
7677,31
7678,31
7679,31
7680,31
7681,32
7682,31
7683,31
7684,31
7685,31
7686,31
7687,31
7688,31
7689,31
7690,31
7691,31
7692,31
7693,31
7694,31
7695,31
7696,31
7697,31
7698,31
7699,31
7700,31
7701,31
7702,31
7703,31
7704,31
7705,32
7706,31
7707,31
7708,31
7709,31
7710,31
7711,31
7712,31
7713,31
7714,31
7715,31
7716,31
7717,31
7718,31
7719,32
7720,31
7721,31
7722,31
7723,31
7724,31
7725,31
7726,31
7727,31
7728,31
7729,31
7730,31
7731,31
7732,31
7733,31
7734,31
7735,31
7736,31
7737,31
7738,31
7739,31
7740,31
7741,31
7742,31
7743,31
7744,32
7745,31
7746,31
7747,31
7748,31
7749,32
7750,31
7751,31
7752,31
7753,31
7754,31
7755,31
7756,31
7757,31
7758,31
7759,31
7760,31
7761,31
7762,31
7763,31
7764,31
7765,31
7766,31
7767,31
7768,32
7769,31
7770,31
7771,31
7772,31
7773,31
7774,31
7775,31
7776,31
7777,31
7778,31
7779,31
7780,31
7781,31
7782,31
7783,32
7784,32
7785,33
7786,32
7787,32
7788,32
7789,32
7790,32
7791,32
7792,33
7793,33
7794,33
7795,32
7796,32
7797,32
7798,32
7799,32
7800,32
7801,32
7802,32
7803,32
7804,32
7805,34
7806,34
7807,34
7808,34
7809,34
7810,35
7811,34
7812,34
7813,34
7814,34
7815,34
7816,34
7817,34
7818,34
7819,34
7820,33
7821,33
7822,33
7823,33
7824,33
7825,33
7826,33
7827,34
7828,34
7829,34
7830,34
7831,34
7832,34
7833,34
7834,34
7835,34
7836,34
7837,34
7838,34
7839,34
7840,34
7841,35
7842,35
7843,34
7844,34
7845,34
7846,34
7847,35
7848,33
7849,33
7850,33
7851,33
7852,33
7853,33
7854,33
7855,33
7856,34
7857,33
7858,33
7859,33
7860,33
7861,33
7862,33
7863,33
7864,33
7865,33
7866,33
7867,33
7868,33
7869,33
7870,33
7871,33
7872,33
7873,33
7874,33
7875,33
7876,33
7877,33
7878,33
7879,33
7880,33
7881,33
7882,33
7883,34
7884,33
7885,33
7886,33
7887,33
7888,33
7889,33
7890,33
7891,34
7892,33
7893,33
7894,33
7895,33
7896,33
7897,33
7898,33
7899,33
7900,33
7901,33
7902,33
7903,34
7904,34
7905,34
7906,34
7907,34
7908,34
7909,34
7910,33
7911,33
7912,33
7913,33
7914,33
7915,33
7916,33
7917,33
7918,33
7919,33
7920,33
7921,33
7922,33
7923,33
7924,33
7925,33
7926,33
7927,33
7928,33
7929,34
7930,33
7931,34
7932,34
7933,34
7934,34
7935,33
7936,33
7937,33
7938,33
7939,33
7940,33
7941,33
7942,33
7943,33
7944,33
7945,33
7946,33
7947,33
7948,33
7949,33
7950,33
7951,33
7952,33
7953,33
7954,33
7955,33
7956,33
7957,33
7958,33
7959,34
7960,34
7961,34
7962,34
7963,34
7964,34
7965,34
7966,34
7967,34
7968,34
7969,34
7970,33
7971,33
7972,33
7973,33
7974,33
7975,33
7976,33
7977,33
7978,33
7979,33
7980,33
7981,33
7982,33
7983,33
7984,33
7985,33
7986,33
7987,33
7988,33
7989,33
7990,33
7991,33
7992,33
7993,33
7994,33
7995,33
7996,33
7997,33
7998,33
7999,34
8000,34
8001,34
8002,34
8003,33
8004,33
8005,33
8006,33
8007,33
8008,33
8009,33
8010,33
8011,33
8012,33
8013,33
8014,33
8015,33
8016,33
8017,33
8018,33
8019,33
8020,33
8021,33
8022,33
8023,33
8024,33
8025,33
8026,33
8027,33
8028,33
8029,33
8030,33
8031,33
8032,33
8033,33
8034,33
8035,33
8036,33
8037,33
8038,33
8039,33
8040,33
8041,33
8042,33
8043,33
8044,33
8045,33
8046,34
8047,33
8048,33
8049,33
8050,33
8051,33
8052,33
8053,33
8054,33
8055,33
8056,33
8057,33
8058,33
8059,33
8060,33
8061,33
8062,33
8063,33
8064,33
8065,33
8066,33
8067,34
8068,33
8069,33
8070,33
8071,33
8072,33
8073,33
8074,33
8075,33
8076,33
8077,33
8078,33
8079,33
8080,33
8081,33
8082,33
8083,33
8084,33
8085,33
8086,33
8087,33
8088,34
8089,34
8090,34
8091,34
8092,34
8093,33
8094,33
8095,33
8096,33
8097,33
8098,33
8099,33
8100,33
8101,33
8102,33
8103,34
8104,33
8105,33
8106,33
8107,33
8108,33
8109,33
8110,33
8111,33
8112,33
8113,33
8114,33
8115,33
8116,33
8117,33
8118,33
8119,33
8120,33
8121,33
8122,33
8123,33
8124,33
8125,33
8126,33
8127,33
8128,33
8129,33
8130,33
8131,33
8132,33
8133,33
8134,33
8135,33
8136,33
8137,33
8138,33
8139,34
8140,33
8141,33
8142,33
8143,33
8144,33
8145,32
8146,32
8147,32
8148,32
8149,32
8150,32
8151,32
8152,32
8153,32
8154,33
8155,33
8156,33
8157,33
8158,33
8159,33
8160,33
8161,32
8162,32
8163,32
8164,32
8165,32
8166,32
8167,32
8168,32
8169,32
8170,32
8171,32
8172,32
8173,32
8174,32
8175,32
8176,32
8177,32
8178,32
8179,32
8180,32
8181,32
8182,32
8183,32
8184,32
8185,32
8186,32
8187,32
8188,32
8189,32
8190,32
8191,33
8192,33
8193,33
8194,33
8195,33
8196,33
8197,34
8198,34
8199,34
8200,34
8201,34
8202,34
8203,34
8204,34
8205,34
8206,34
8207,34
8208,34
8209,34
8210,34
8211,34
8212,34
8213,34
8214,34
8215,34
8216,34
8217,34
8218,34
8219,34
8220,35
8221,34
8222,34
8223,34
8224,34
8225,34
8226,35
8227,34
8228,34
8229,34
8230,34
8231,35
8232,34
8233,34
8234,34
8235,33
8236,33
8237,33
8238,33
8239,33
8240,33
8241,33
8242,33
8243,33
8244,33
8245,33
8246,33
8247,33
8248,34
8249,33
8250,33
8251,33
8252,33
8253,33
8254,33
8255,33
8256,33
8257,33
8258,33
8259,33
8260,33
8261,33
8262,33
8263,34
8264,34
8265,34
8266,34
8267,33
8268,33
8269,33
8270,33
8271,33
8272,33
8273,33
8274,33
8275,33
8276,33
8277,33
8278,33
8279,33
8280,33
8281,33
8282,33
8283,33
8284,33
8285,33
8286,33
8287,33
8288,33
8289,33
8290,33
8291,33
8292,33
8293,33
8294,33
8295,33
8296,33
8297,33
8298,33
8299,33
8300,33
8301,33
8302,33
8303,33
8304,33
8305,33
8306,33
8307,33
8308,33
8309,33
8310,33
8311,33
8312,33
8313,33
8314,34
8315,33
8316,34
8317,34
8318,34
8319,34
8320,34
8321,34
8322,34
8323,34
8324,34
8325,34
8326,34
8327,35
8328,35
8329,35
8330,35
8331,35
8332,35
8333,35
8334,35
8335,34
8336,34
8337,34
8338,34
8339,34
8340,34
8341,34
8342,34
8343,34
8344,34
8345,33
8346,33
8347,33
8348,33
8349,33
8350,33
8351,33
8352,33
8353,34
8354,34
8355,34
8356,34
8357,33
8358,33
8359,33
8360,33
8361,33
8362,33
8363,33
8364,33
8365,33
8366,33
8367,33
8368,33
8369,33
8370,33
8371,33
8372,33
8373,33
8374,33
8375,33
8376,33
8377,33
8378,33
8379,33
8380