1,3
2,3
3,3
4,3
5,3
6,3
7,3
8,4
9,4
10,4
11,5
12,4
13,4
14,4
15,4
16,4
17,4
18,4
19,5
20,5
21,5
22,5
23,5
24,5
25,5
26,5
27,5
28,5
29,6
30,6
31,6
32,5
33,5
34,5
35,5
36,5
37,5
38,5
39,5
40,5
41,5
42,5
43,5
44,5
45,5
46,7
47,6
48,6
49,6
50,7
51,7
52,7
53,7
54,7
55,7
56,7
57,7
58,7
59,7
60,7
61,7
62,7
63,7
64,7
65,7
66,7
67,7
68,7
69,7
70,7
71,7
72,8
73,8
74,9
75,9
76,9
77,9
78,9
79,10
80,9
81,9
82,9
83,9
84,9
85,9
86,9
87,9
88,9
89,9
90,9
91,9
92,9
93,9
94,9
95,9
96,9
97,9
98,9
99,9
100,9
101,9
102,9
103,9
104,9
105,9
106,9
107,9
108,9
109,9
110,9
111,9
112,9
113,9
114,9
115,9
116,9
117,9
118,9
119,9
120,9
121,10
122,10
123,10
124,9
125,9
126,10
127,10
128,10
129,10
130,10
131,10
132,10
133,10
134,10
135,10
136,10
137,10
138,10
139,10
140,10
141,10
142,10
143,10
144,10
145,11
146,11
147,11
148,11
149,11
150,10
151,10
152,11
153,11
154,11
155,11
156,11
157,10
158,11
159,11
160,11
161,11
162,11
163,11
164,11
165,11
166,11
167,11
168,11
169,11
170,11
171,11
172,11
173,11
174,11
175,11
176,11
177,11
178,11
179,10
180,10
181,10
182,10
183,10
184,10
185,10
186,10
187,10
188,11
189,11
190,11
191,11
192,11
193,11
194,11
195,11
196,11
197,11
198,11
199,11
200,11
201,11
202,11
203,11
204,11
205,11
206,11
207,11
208,11
209,11
210,11
211,11
212,11
213,11
214,11
215,11
216,11
217,11
218,11
219,11
220,11
221,11
222,11
223,11
224,12
225,11
226,11
227,11
228,11
229,11
230,11
231,11
232,11
233,11
234,12
235,12
236,12
237,12
238,12
239,12
240,12
241,12
242,12
243,12
244,12
245,12
246,12
247,12
248,12
249,12
250,13
251,13
252,13
253,12
254,12
255,12
256,12
257,12
258,12
259,13
260,12
261,12
262,12
263,12
264,12
265,12
266,13
267,12
268,12
269,12
270,12
271,12
272,12
273,12
274,13
275,12
276,12
277,12
278,12
279,12
280,12
281,13
282,13
283,12
284,13
285,13
286,13
287,12
288,12
289,12
290,12
291,12
292,12
293,12
294,12
295,12
296,12
297,12
298,12
299,12
300,12
301,12
302,12
303,12
304,12
305,12
306,12
307,12
308,12
309,12
310,12
311,12
312,12
313,12
314,12
315,12
316,12
317,12
318,12
319,12
320,12
321,12
322,12
323,12
324,12
325,12
326,12
327,12
328,12
329,13
330,12
331,12
332,12
333,12
334,12
335,12
336,12
337,12
338,12
339,12
340,12
341,12
342,12
343,12
344,12
345,12
346,12
347,12
348,12
349,12
350,12
351,12
352,12
353,13
354,13
355,13
356,13
357,13
358,13
359,13
360,13
361,13
362,13
363,13
364,13
365,14
366,13
367,14
368,13
369,13
370,13
371,13
372,13
373,13
374,13
375,13
376,13
377,13
378,13
379,13
380,13
381,13
382,13
383,14
384,15
385,14
386,13
387,13
388,13
389,13
390,14
391,13
392,13
393,13
394,13
395,13
396,13
397,13
398,13
399,13
400,13
401,13
402,13
403,13
404,13
405,14
406,14
407,14
408,14
409,14
410,15
411,15
412,14
413,14
414,13
415,14
416,13
417,13
418,13
419,13
420,13
421,13
422,13
423,13
424,13
425,13
426,14
427,13
428,13
429,13
430,13
431,13
432,13
433,13
434,13
435,13
436,13
437,13
438,13
439,13
440,13
441,13
442,13
443,13
444,13
445,13
446,13
447,13
448,13
449,13
450,13
451,13
452,13
453,14
454,14
455,14
456,14
457,14
458,14
459,14
460,13
461,13
462,13
463,13
464,13
465,13
466,13
467,13
468,13
469,13
470,13
471,13
472,13
473,13
474,13
475,13
476,13
477,13
478,13
479,13
480,13
481,13
482,13
483,13
484,13
485,13
486,13
487,13
488,13
489,13
490,13
491,13
492,13
493,13
494,15
495,14
496,13
497,13
498,13
499,13
500,13
501,13
502,13
503,13
504,13
505,14
506,14
507,14
508,14
509,13
510,13
511,13
512,14
513,14
514,14
515,14
516,14
517,14
518,14
519,13
520,13
521,13
522,13
523,13
524,13
525,13
526,13
527,13
528,13
529,13
530,13
531,13
532,13
533,13
534,13
535,13
536,13
537,13
538,13
539,13
540,13
541,13
542,13
543,14
544,13
545,13
546,13
547,13
548,13
549,13
550,13
551,13
552,13
553,13
554,13
555,13
556,13
557,13
558,13
559,13
560,13
561,13
562,13
563,13
564,13
565,13
566,13
567,13
568,13
569,13
570,13
571,13
572,13
573,13
574,13
575,13
576,13
577,13
578,13
579,13
580,14
581,14
582,14
583,13
584,13
585,13
586,13
587,13
588,13
589,13
590,13
591,14
592,14
593,13
594,13
595,13
596,13
597,13
598,13
599,13
600,13
601,13
602,13
603,13
604,13
605,13
606,13
607,13
608,13
609,13
610,13
611,13
612,13
613,13
614,14
615,14
616,14
617,15
618,15
619,15
620,14
621,14
622,14
623,14
624,14
625,14
626,14
627,14
628,14
629,14
630,14
631,14
632,14
633,14
634,14
635,14
636,14
637,14
638,14
639,14
640,14
641,15
642,15
643,14
644,14
645,14
646,14
647,14
648,14
649,14
650,14
651,14
652,14
653,14
654,14
655,14
656,14
657,17
658,16
659,16
660,15
661,15
662,14
663,14
664,14
665,14
666,15
667,15
668,15
669,15
670,15
671,15
672,15
673,15
674,15
675,15
676,15
677,14
678,14
679,14
680,14
681,14
682,14
683,15
684,15
685,15
686,15
687,14
688,14
689,14
690,15
691,14
692,14
693,14
694,14
695,14
696,14
697,14
698,14
699,14
700,14
701,15
702,14
703,14
704,14
705,14
706,14
707,14
708,14
709,14
710,14
711,14
712,14
713,14
714,14
715,14
716,14
717,14
718,14
719,14
720,14
721,14
722,15
723,15
724,15
725,14
726,14
727,14
728,14
729,14
730,14
731,14
732,14
733,14
734,14
735,14
736,14
737,14
738,14
739,14
740,14
741,14
742,14
743,14
744,14
745,14
746,14
747,14
748,14
749,14
750,14
751,14
752,14
753,14
754,14
755,14
756,14
757,14
758,14
759,14
760,14
761,14
762,14
763,14
764,14
765,15
766,15
767,15
768,15
769,15
770,15
771,15
772,16
773,16
774,15
775,15
776,15
777,15
778,15
779,15
780,15
781,15
782,15
783,15
784,15
785,15
786,15
787,15
788,15
789,15
790,15
791,15
792,15
793,16
794,16
795,16
796,16
797,16
798,16
799,16
800,16
801,16
802,16
803,16
804,16
805,16
806,16
807,16
808,15
809,16
810,15
811,15
812,15
813,14
814,14
815,14
816,14
817,14
818,14
819,14
820,14
821,14
822,14
823,14
824,14
825,14
826,14
827,14
828,14
829,14
830,14
831,14
832,15
833,15
834,14
835,14
836,15
837,15
838,15
839,15
840,16
841,15
842,15
843,16
844,15
845,15
846,15
847,15
848,15
849,15
850,15
851,15
852,15
853,15
854,15
855,15
856,15
857,15
858,15
859,15
860,15
861,15
862,15
863,15
864,15
865,15
866,15
867,15
868,15
869,15
870,15
871,15
872,15
873,15
874,16
875,15
876,15
877,15
878,15
879,15
880,15
881,15
882,15
883,15
884,15
885,15
886,15
887,15
888,16
889,16
890,16
891,15
892,15
893,15
894,15
895,15
896,15
897,15
898,15
899,15
900,15
901,15
902,16
903,15
904,15
905,15
906,15
907,15
908,15
909,15
910,15
911,15
912,15
913,15
914,15
915,15
916,15
917,15
918,15
919,15
920,16
921,15
922,15
923,15
924,15
925,15
926,15
927,15
928,15
929,15
930,15
931,15
932,15
933,15
934,15
935,15
936,15
937,15
938,15
939,15
940,16
941,15
942,15
943,15
944,15
945,15
946,15
947,15
948,15
949,15
950,15
951,15
952,15
953,15
954,15
955,15
956,15
957,15
958,15
959,15
960,15
961,15
962,15
963,15
964,15
965,15
966,15
967,15
968,15
969,15
970,15
971,15
972,15
973,15
974,15
975,15
976,15
977,15
978,15
979,15
980,15
981,15
982,15
983,15
984,15
985,15
986,15
987,15
988,15
989,15
990,15
991,15
992,15
993,15
994,15
995,15
996,15
997,15
998,15
999,15
1000,16
1001,16
1002,16
1003,16
1004,16
1005,17
1006,15
1007,15
1008,15
1009,15
1010,15
1011,15
1012,15
1013,15
1014,15
1015,16
1016,16
1017,16
1018,16
1019,16
1020,16
1021,16
1022,16
1023,16
1024,16
1025,16
1026,16
1027,16
1028,15
1029,15
1030,15
1031,17
1032,16
1033,16
1034,17
1035,17
1036,18
1037,17
1038,17
1039,17
1040,17
1041,17
1042,17
1043,17
1044,16
1045,16
1046,16
1047,16
1048,16
1049,16
1050,16
1051,16
1052,16
1053,16
1054,16
1055,16
1056,16
1057,16
1058,16
1059,16
1060,16
1061,16
1062,16
1063,16
1064,16
1065,17
1066,16
1067,16
1068,16
1069,17
1070,16
1071,17
1072,17
1073,16
1074,16
1075,16
1076,17
1077,16
1078,16
1079,16
1080,16
1081,16
1082,16
1083,17
1084,16
1085,16
1086,17
1087,17
1088,17
1089,17
1090,16
1091,16
1092,16
1093,16
1094,16
1095,16
1096,16
1097,16
1098,16
1099,16
1100,16
1101,16
1102,16
1103,16
1104,16
1105,16
1106,16
1107,16
1108,16
1109,16
1110,16
1111,16
1112,16
1113,16
1114,16
1115,16
1116,16
1117,16
1118,16
1119,16
1120,17
1121,17
1122,16
1123,17
1124,17
1125,16
1126,16
1127,16
1128,16
1129,16
1130,16
1131,17
1132,16
1133,16
1134,16
1135,16
1136,16
1137,16
1138,16
1139,16
1140,16
1141,16
1142,16
1143,16
1144,16
1145,16
1146,16
1147,16
1148,16
1149,16
1150,16
1151,16
1152,16
1153,16
1154,16
1155,16
1156,16
1157,16
1158,16
1159,16
1160,16
1161,16
1162,16
1163,16
1164,16
1165,16
1166,16
1167,16
1168,16
1169,16
1170,16
1171,16
1172,16
1173,16
1174,16
1175,16
1176,16
1177,16
1178,16
1179,16
1180,17
1181,16
1182,16
1183,16
1184,17
1185,17
1186,17
1187,17
1188,17
1189,17
1190,17
1191,17
1192,17
1193,17
1194,16
1195,16
1196,16
1197,16
1198,17
1199,17
1200,16
1201,17
1202,17
1203,16
1204,16
1205,17
1206,17
1207,17
1208,16
1209,16
1210,16
1211,16
1212,16
1213,16
1214,16
1215,16
1216,16
1217,16
1218,16
1219,16
1220,16
1221,16
1222,16
1223,16
1224,16
1225,16
1226,16
1227,16
1228,16
1229,16
1230,16
1231,16
1232,17
1233,17
1234,17
1235,16
1236,16
1237,16
1238,16
1239,16
1240,16
1241,16
1242,16
1243,16
1244,16
1245,16
1246,16
1247,16
1248,16
1249,16
1250,17
1251,16
1252,16
1253,16
1254,16
1255,16
1256,17
1257,18
1258,16
1259,16
1260,16
1261,16
1262,16
1263,16
1264,16
1265,16
1266,16
1267,17
1268,17
1269,17
1270,16
1271,16
1272,16
1273,16
1274,16
1275,16
1276,16
1277,16
1278,16
1279,16
1280,16
1281,16
1282,16
1283,16
1284,16
1285,16
1286,16
1287,16
1288,16
1289,16
1290,16
1291,16
1292,16
1293,16
1294,16
1295,16
1296,16
1297,16
1298,16
1299,16
1300,16
1301,16
1302,16
1303,16
1304,16
1305,16
1306,16
1307,16
1308,17
1309,16
1310,16
1311,16
1312,16
1313,16
1314,16
1315,16
1316,16
1317,16
1318,16
1319,16
1320,17
1321,16
1322,16
1323,16
1324,16
1325,16
1326,16
1327,16
1328,16
1329,16
1330,16
1331,16
1332,16
1333,16
1334,17
1335,17
1336,17
1337,17
1338,17
1339,16
1340,16
1341,16
1342,16
1343,16
1344,16
1345,16
1346,16
1347,16
1348,16
1349,16
1350,16
1351,17
1352,17
1353,17
1354,16
1355,16
1356,16
1357,16
1358,16
1359,16
1360,16
1361,16
1362,16
1363,16
1364,17
1365,16
1366,16
1367,16
1368,16
1369,16
1370,16
1371,16
1372,16
1373,16
1374,17
1375,16
1376,16
1377,16
1378,16
1379,16
1380,16
1381,16
1382,16
1383,16
1384,16
1385,16
1386,16
1387,16
1388,16
1389,16
1390,16
1391,16
1392,16
1393,16
1394,16
1395,16
1396,16
1397,16
1398,16
1399,16
1400,16
1401,16
1402,16
1403,16
1404,16
1405,16
1406,16
1407,16
1408,16
1409,17
1410,16
1411,16
1412,16
1413,16
1414,16
1415,16
1416,16
1417,16
1418,16
1419,16
1420,16
1421,16
1422,16
1423,16
1424,16
1425,16
1426,16
1427,16
1428,16
1429,16
1430,16
1431,16
1432,16
1433,16
1434,16
1435,16
1436,16
1437,16
1438,16
1439,16
1440,16
1441,16
1442,16
1443,17
1444,17
1445,17
1446,16
1447,16
1448,16
1449,16
1450,16
1451,16
1452,17
1453,17
1454,17
1455,16
1456,16
1457,16
1458,16
1459,16
1460,16
1461,16
1462,16
1463,16
1464,16
1465,16
1466,16
1467,16
1468,16
1469,16
1470,16
1471,16
1472,16
1473,18
1474,17
1475,17
1476,17
1477,16
1478,16
1479,16
1480,16
1481,16
1482,16
1483,16
1484,16
1485,16
1486,16
1487,16
1488,16
1489,16
1490,16
1491,16
1492,17
1493,16
1494,16
1495,17
1496,16
1497,16
1498,16
1499,16
1500,16
1501,16
1502,16
1503,16
1504,16
1505,16
1506,16
1507,16
1508,16
1509,16
1510,16
1511,16
1512,16
1513,16
1514,16
1515,16
1516,16
1517,16
1518,16
1519,16
1520,16
1521,16
1522,16
1523,16
1524,16
1525,16
1526,17
1527,17
1528,16
1529,16
1530,16
1531,16
1532,16
1533,16
1534,16
1535,16
1536,16
1537,16
1538,16
1539,16
1540,16
1541,16
1542,17
1543,17
1544,17
1545,16
1546,16
1547,16
1548,16
1549,16
1550,16
1551,16
1552,16
1553,16
1554,16
1555,16
1556,16
1557,16
1558,17
1559,16
1560,16
1561,16
1562,16
1563,16
1564,16
1565,16
1566,16
1567,16
1568,16
1569,16
1570,16
1571,16
1572,16
1573,16
1574,16
1575,16
1576,16
1577,16
1578,16
1579,16
1580,16
1581,16
1582,16
1583,16
1584,16
1585,16
1586,16
1587,16
1588,16
1589,16
1590,16
1591,16
1592,16
1593,16
1594,16
1595,17
1596,17
1597,17
1598,17
1599,17
1600,17
1601,16
1602,16
1603,16
1604,16
1605,16
1606,16
1607,16
1608,16
1609,16
1610,16
1611,16
1612,16
1613,16
1614,16
1615,16
1616,16
1617,16
1618,16
1619,16
1620,16
1621,16
1622,16
1623,16
1624,16
1625,16
1626,16
1627,16
1628,16
1629,16
1630,16
1631,16
1632,16
1633,16
1634,16
1635,16
1636,16
1637,17
1638,17
1639,17
1640,19
1641,17
1642,17
1643,17
1644,17
1645,17
1646,17
1647,17
1648,17
1649,17
1650,17
1651,17
1652,17
1653,16
1654,16
1655,16
1656,16
1657,16
1658,16
1659,16
1660,17
1661,17
1662,17
1663,17
1664,16
1665,17
1666,16
1667,16
1668,16
1669,16
1670,16
1671,16
1672,16
1673,16
1674,16
1675,16
1676,16
1677,16
1678,16
1679,16
1680,16
1681,16
1682,16
1683,16
1684,16
1685,16
1686,16
1687,16
1688,16
1689,16
1690,16
1691,16
1692,16
1693,16
1694,16
1695,16
1696,16
1697,16
1698,16
1699,16
1700,16
1701,16
1702,16
1703,16
1704,16
1705,17
1706,16
1707,16
1708,17
1709,17
1710,16
1711,16
1712,17
1713,16
1714,16
1715,16
1716,16
1717,17
1718,17
1719,17
1720,17
1721,17
1722,17
1723,16
1724,16
1725,16
1726,16
1727,17
1728,17
1729,17
1730,17
1731,16
1732,16
1733,16
1734,16
1735,16
1736,16
1737,16
1738,16
1739,16
1740,16
1741,16
1742,16
1743,16
1744,16
1745,16
1746,16
1747,16
1748,16
1749,16
1750,16
1751,16
1752,16
1753,16
1754,16
1755,17
1756,17
1757,17
1758,17
1759,16
1760,16
1761,16
1762,16
1763,16
1764,16
1765,16
1766,16
1767,16
1768,16
1769,16
1770,16
1771,16
1772,16
1773,16
1774,16
1775,16
1776,16
1777,16
1778,16
1779,16
1780,16
1781,16
1782,17
1783,17
1784,17
1785,17
1786,17
1787,17
1788,17
1789,17
1790,17
1791,17
1792,18
1793,17
1794,17
1795,17
1796,17
1797,17
1798,17
1799,17
1800,17
1801,17
1802,17
1803,18
1804,19
1805,18
1806,17
1807,17
1808,17
1809,19
1810,19
1811,18
1812,17
1813,18
1814,18
1815,17
1816,17
1817,17
1818,17
1819,17
1820,17
1821,17
1822,17
1823,17
1824,17
1825,17
1826,17
1827,17
1828,17
1829,17
1830,17
1831,17
1832,17
1833,17
1834,17
1835,17
1836,18
1837,18
1838,18
1839,18
1840,18
1841,18
1842,18
1843,18
1844,18
1845,18
1846,18
1847,18
1848,19
1849,20
1850,19
1851,19
1852,18
1853,18
1854,18
1855,19
1856,18
1857,17
1858,17
1859,17
1860,17
1861,17
1862,17
1863,17
1864,17
1865,17
1866,17
1867,17
1868,17
1869,17
1870,17
1871,17
1872,17
1873,18
1874,17
1875,18
1876,18
1877,17
1878,17
1879,17
1880,17
1881,17
1882,17
1883,17
1884,17
1885,17
1886,17
1887,17
1888,17
1889,17
1890,17
1891,17
1892,17
1893,17
1894,17
1895,17
1896,17
1897,18
1898,17
1899,17
1900,18
1901,18
1902,17
1903,17
1904,17
1905,17
1906,17
1907,17
1908,17
1909,17
1910,17
1911,17
1912,17
1913,17
1914,17
1915,17
1916,17
1917,18
1918,17
1919,17
1920,17
1921,17
1922,17
1923,17
1924,17
1925,19
1926,17
1927,17
1928,17
1929,17
1930,17
1931,17
1932,17
1933,17
1934,17
1935,17
1936,17
1937,17
1938,18
1939,18
1940,17
1941,17
1942,17
1943,17
1944,17
1945,18
1946,19
1947,19
1948,18
1949,18
1950,18
1951,19
1952,18
1953,17
1954,17
1955,17
1956,17
1957,17
1958,17
1959,17
1960,17
1961,17
1962,17
1963,17
1964,17
1965,17
1966,17
1967,17
1968,17
1969,18
1970,18
1971,18
1972,18
1973,18
1974,17
1975,17
1976,17
1977,17
1978,17
1979,17
1980,17
1981,17
1982,17
1983,17
1984,17
1985,17
1986,17
1987,17
1988,17
1989,17
1990,17
1991,17
1992,17
1993,17
1994,17
1995,17
1996,17
1997,17
1998,18
1999,18
2000,19
2001,17
2002,17
2003,17
2004,17
2005,17
2006,17
2007,17
2008,17
2009,17
2010,17
2011,17
2012,17
2013,17
2014,17
2015,17
2016,17
2017,17
2018,17
2019,17
2020,17
2021,17
2022,18
2023,18
2024,17
2025,17
2026,17
2027,17
2028,17
2029,17
2030,17
2031,17
2032,17
2033,17
2034,17
2035,17
2036,17
2037,17
2038,17
2039,17
2040,18
2041,18
2042,18
2043,18
2044,18
2045,18
2046,18
2047,18
2048,17
2049,17
2050,17
2051,17
2052,17
2053,17
2054,18
2055,18
2056,18
2057,18
2058,18
2059,18
2060,17
2061,17
2062,17
2063,17
2064,17
2065,17
2066,17
2067,17
2068,17
2069,17
2070,17
2071,17
2072,17
2073,17
2074,17
2075,17
2076,18
2077,18
2078,17
2079,17
2080,17
2081,17
2082,17
2083,17
2084,17
2085,17
2086,17
2087,17
2088,17
2089,17
2090,17
2091,17
2092,17
2093,17
2094,17
2095,17
2096,17
2097,17
2098,17
2099,17
2100,17
2101,17
2102,17
2103,17
2104,17
2105,17
2106,17
2107,17
2108,17
2109,17
2110,17
2111,17
2112,17
2113,17
2114,18
2115,18
2116,18
2117,17
2118,17
2119,17
2120,17
2121,17
2122,17
2123,17
2124,17
2125,17
2126,17
2127,17
2128,17
2129,17
2130,17
2131,17
2132,17
2133,17
2134,17
2135,17
2136,17
2137,17
2138,17
2139,17
2140,17
2141,17
2142,18
2143,18
2144,18
2145,18
2146,18
2147,18
2148,18
2149,18
2150,18
2151,18
2152,18
2153,18
2154,18
2155,18
2156,18
2157,18
2158,18
2159,18
2160,18
2161,19
2162,18
2163,18
2164,18
2165,18
2166,18
2167,18
2168,18
2169,18
2170,18
2171,18
2172,18
2173,18
2174,18
2175,18
2176,18
2177,18
2178,18
2179,18
2180,18
2181,18
2182,18
2183,18
2184,18
2185,18
2186,18
2187,18
2188,19
2189,20
2190,19
2191,19
2192,18
2193,18
2194,18
2195,18
2196,19
2197,19
2198,18
2199,18
2200,18
2201,18
2202,18
2203,18
2204,18
2205,18
2206,18
2207,18
2208,18
2209,18
2210,18
2211,18
2212,18
2213,18
2214,18
2215,18
2216,18
2217,19
2218,18
2219,18
2220,18
2221,18
2222,18
2223,18
2224,18
2225,18
2226,18
2227,18
2228,18
2229,18
2230,18
2231,18
2232,18
2233,18
2234,18
2235,18
2236,18
2237,18
2238,18
2239,18
2240,18
2241,18
2242,18
2243,18
2244,18
2245,18
2246,18
2247,18
2248,18
2249,18
2250,18
2251,18
2252,18
2253,18
2254,18
2255,18
2256,18
2257,18
2258,18
2259,18
2260,18
2261,18
2262,18
2263,18
2264,18
2265,18
2266,18
2267,19
2268,20
2269,19
2270,19
2271,19
2272,19
2273,19
2274,19
2275,19
2276,19
2277,19
2278,19
2279,19
2280,19
2281,19
2282,19
2283,19
2284,19
2285,19
2286,20
2287,19
2288,19
2289,19
2290,19
2291,19
2292,19
2293,19
2294,19
2295,19
2296,19
2297,19
2298,19
2299,19
2300,20
2301,20
2302,20
2303,19
2304,19
2305,18
2306,18
2307,18
2308,18
2309,18
2310,19
2311,19
2312,18
2313,18
2314,18
2315,18
2316,19
2317,19
2318,19
2319,19
2320,18
2321,18
2322,18
2323,18
2324,18
2325,18
2326,18
2327,18
2328,18
2329,18
2330,18
2331,18
2332,18
2333,18
2334,18
2335,19
2336,19
2337,18
2338,18
2339,18
2340,18
2341,18
2342,18
2343,18
2344,18
2345,18
2346,18
2347,18
2348,19
2349,19
2350,20
2351,20
2352,19
2353,19
2354,18
2355,18
2356,18
2357,18
2358,18
2359,18
2360,18
2361,18
2362,19
2363,19
2364,19
2365,19
2366,19
2367,19
2368,19
2369,19
2370,19
2371,18
2372,18
2373,18
2374,18
2375,18
2376,18
2377,18
2378,18
2379,18
2380,18
2381,18
2382,18
2383,18
2384,18
2385,18
2386,18
2387,18
2388,18
2389,18
2390,18
2391,18
2392,18
2393,19
2394,19
2395,18
2396,18
2397,18
2398,19
2399,18
2400,18
2401,18
2402,18
2403,19
2404,18
2405,18
2406,18
2407,18
2408,18
2409,18
2410,18
2411,18
2412,18
2413,18
2414,19
2415,19
2416,19
2417,19
2418,19
2419,19
2420,18
2421,18
2422,18
2423,18
2424,18
2425,18
2426,18
2427,18
2428,18
2429,18
2430,18
2431,18
2432,18
2433,18
2434,18
2435,18
2436,18
2437,18
2438,18
2439,18
2440,18
2441,18
2442,18
2443,18
2444,18
2445,18
2446,18
2447,18
2448,18
2449,18
2450,19
2451,19
2452,19
2453,19
2454,19
2455,19
2456,20
2457,19
2458,18
2459,18
2460,19
2461,19
2462,19
2463,19
2464,18
2465,18
2466,18
2467,19
2468,19
2469,19
2470,19
2471,19
2472,19
2473,19
2474,19
2475,19
2476,20
2477,20
2478,20
2479,19
2480,19
2481,19
2482,19
2483,19
2484,19
2485,19
2486,19
2487,19
2488,19
2489,19
2490,20
2491,20
2492,20
2493,20
2494,20
2495,20
2496,19
2497,19
2498,19
2499,19
2500,19
2501,19
2502,19
2503,19
2504,19
2505,19
2506,19
2507,19
2508,20
2509,20
2510,19
2511,19
2512,19
2513,19
2514,19
2515,19
2516,19
2517,19
2518,19
2519,19
2520,19
2521,19
2522,19
2523,19
2524,19
2525,19
2526,19
2527,19
2528,19
2529,19
2530,19
2531,19
2532,19
2533,19
2534,19
2535,19
2536,19
2537,19
2538,19
2539,19
2540,19
2541,19
2542,19
2543,19
2544,19
2545,19
2546,19
2547,19
2548,19
2549,19
2550,19
2551,19
2552,19
2553,19
2554,19
2555,19
2556,19
2557,19
2558,19
2559,19
2560,19
2561,19
2562,19
2563,19
2564,19
2565,19
2566,19
2567,19
2568,19
2569,19
2570,19
2571,19
2572,20
2573,20
2574,20
2575,20
2576,20
2577,20
2578,20
2579,20
2580,20
2581,20
2582,20
2583,20
2584,20
2585,20
2586,20
2587,20
2588,20
2589,20
2590,20
2591,20
2592,20
2593,20
2594,20
2595,21
2596,21
2597,21
2598,21
2599,21
2600,20
2601,20
2602,20
2603,20
2604,20
2605,20
2606,20
2607,20
2608,20
2609,20
2610,20
2611,20
2612,20
2613,20
2614,20
2615,20
2616,20
2617,20
2618,20
2619,20
2620,20
2621,20
2622,20
2623,21
2624,22
2625,21
2626,21
2627,22
2628,22
2629,22
2630,22
2631,22
2632,22
2633,22
2634,21
2635,21
2636,21
2637,21
2638,21
2639,21
2640,21
2641,21
2642,20
2643,20
2644,20
2645,20
2646,20
2647,20
2648,20
2649,20
2650,21
2651,20
2652,20
2653,20
2654,20
2655,20
2656,20
2657,20
2658,20
2659,20
2660,20
2661,20
2662,20
2663,20
2664,20
2665,20
2666,20
2667,20
2668,20
2669,20
2670,20
2671,20
2672,20
2673,20
2674,20
2675,20
2676,20
2677,20
2678,20
2679,20
2680,20
2681,21
2682,22
2683,20
2684,20
2685,20
2686,20
2687,20
2688,20
2689,20
2690,20
2691,20
2692,20
2693,20
2694,20
2695,20
2696,20
2697,20
2698,20
2699,20
2700,20
2701,20
2702,20
2703,20
2704,20
2705,20
2706,21
2707,21
2708,20
2709,20
2710,21
2711,21
2712,21
2713,20
2714,20
2715,20
2716,20
2717,20
2718,20
2719,20
2720,21
2721,21
2722,20
2723,20
2724,20
2725,20
2726,20
2727,20
2728,20
2729,20
2730,20
2731,20
2732,20
2733,20
2734,20
2735,20
2736,20
2737,20
2738,20
2739,20
2740,20
2741,20
2742,20
2743,20
2744,20
2745,20
2746,20
2747,20
2748,20
2749,20
2750,20
2751,20
2752,20
2753,20
2754,20
2755,20
2756,20
2757,21
2758,21
2759,21
2760,20
2761,20
2762,20
2763,20
2764,20
2765,20
2766,20
2767,20
2768,20
2769,20
2770,20
2771,21
2772,20
2773,20
2774,20
2775,20
2776,20
2777,20
2778,20
2779,20
2780,21
2781,20
2782,20
2783,20
2784,20
2785,20
2786,20
2787,20
2788,20
2789,20
2790,20
2791,20
2792,20
2793,20
2794,20
2795,20
2796,20
2797,20
2798,20
2799,20
2800,20
2801,20
2802,20
2803,20
2804,20
2805,20
2806,20
2807,20
2808,20
2809,20
2810,20
2811,20
2812,20
2813,20
2814,20
2815,20
2816,20
2817,20
2818,20
2819,20
2820,20
2821,20
2822,20
2823,21
2824,21
2825,21
2826,21
2827,21
2828,21
2829,21
2830,21
2831,21
2832,21
2833,21
2834,21
2835,21
2836,21
2837,21
2838,21
2839,21
2840,21
2841,21
2842,21
2843,21
2844,20
2845,20
2846,20
2847,20
2848,20
2849,20
2850,20
2851,20
2852,20
2853,20
2854,20
2855,21
2856,21
2857,21
2858,21
2859,21
2860,21
2861,21
2862,21
2863,21
2864,21
2865,21
2866,21
2867,21
2868,21
2869,20
2870,20
2871,20
2872,20
2873,20
2874,20
2875,20
2876,20
2877,20
2878,21
2879,22
2880,21
2881,21
2882,21
2883,21
2884,21
2885,21
2886,21
2887,21
2888,21
2889,21
2890,21
2891,21
2892,21
2893,21
2894,21
2895,21
2896,21
2897,21
2898,21
2899,21
2900,21
2901,22
2902,21
2903,21
2904,21
2905,21
2906,21
2907,21
2908,21
2909,21
2910,21
2911,21
2912,21
2913,21
2914,22
2915,22
2916,22
2917,22
2918,22
2919,22
2920,22
2921,22
2922,22
2923,22
2924,22
2925,22
2926,22
2927,22
2928,22
2929,22
2930,22
2931,22
2932,22
2933,22
2934,22
2935,22
2936,22
2937,22
2938,22
2939,22
2940,22
2941,22
2942,21
2943,21
2944,21
2945,21
2946,21
2947,21
2948,21
2949,21
2950,21
2951,21
2952,21
2953,21
2954,21
2955,21
2956,21
2957,21
2958,21
2959,21
2960,21
2961,22
2962,21
2963,21
2964,21
2965,21
2966,21
2967,21
2968,21
2969,21
2970,21
2971,21
2972,21
2973,21
2974,21
2975,21
2976,21
2977,21
2978,21
2979,21
2980,21
2981,21
2982,21
2983,21
2984,21
2985,21
2986,21
2987,21
2988,21
2989,21
2990,21
2991,21
2992,21
2993,21
2994,21
2995,21
2996,21
2997,21
2998,21
2999,21
3000,21
3001,21
3002,21
3003,21
3004,21
3005,21
3006,21
3007,21
3008,22
3009,23
3010,22
3011,21
3012,21
3013,21
3014,21
3015,21
3016,21
3017,21
3018,21
3019,21
3020,21
3021,21
3022,21
3023,21
3024,21
3025,22
3026,22
3027,22
3028,22
3029,22
3030,22
3031,22
3032,22
3033,22
3034,22
3035,22
3036,22
3037,22
3038,23
3039,22
3040,22
3041,22
3042,22
3043,22
3044,22
3045,22
3046,22
3047,22
3048,22
3049,22
3050,22
3051,22
3052,22
3053,22
3054,22
3055,22
3056,22
3057,22
3058,22
3059,22
3060,22
3061,22
3062,22
3063,22
3064,22
3065,22
3066,22
3067,22
3068,22
3069,22
3070,22
3071,22
3072,22
3073,22
3074,22
3075,22
3076,22
3077,22
3078,22
3079,22
3080,22
3081,22
3082,22
3083,22
3084,22
3085,22
3086,23
3087,22
3088,22
3089,22
3090,22
3091,22
3092,22
3093,22
3094,22
3095,22
3096,22
3097,22
3098,22
3099,22
3100,22
3101,22
3102,22
3103,22
3104,22
3105,22
3106,23
3107,23
3108,23
3109,22
3110,22
3111,22
3112,22
3113,22
3114,22
3115,22
3116,22
3117,22
3118,22
3119,22
3120,22
3121,22
3122,23
3123,22
3124,22
3125,23
3126,23
3127,23
3128,23
3129,23
3130,23
3131,23
3132,24
3133,24
3134,24
3135,23
3136,23
3137,23
3138,23
3139,23
3140,23
3141,24
3142,23
3143,23
3144,24
3145,23
3146,23
3147,23
3148,23
3149,23
3150,23
3151,23
3152,23
3153,23
3154,23
3155,23
3156,23
3157,23
3158,23
3159,23
3160,23
3161,23
3162,23
3163,23
3164,23
3165,23
3166,23
3167,23
3168,23
3169,23
3170,23
3171,23
3172,23
3173,23
3174,23
3175,23
3176,23
3177,23
3178,23
3179,23
3180,23
3181,23
3182,23
3183,23
3184,24
3185,23
3186,23
3187,23
3188,23
3189,23
3190,23
3191,23
3192,23
3193,23
3194,24
3195,24
3196,24
3197,25
3198,24
3199,23
3200,23
3201,23
3202,23
3203,23
3204,23
3205,23
3206,23
3207,23
3208,23
3209,23
3210,23
3211,23
3212,24
3213,23
3214,23
3215,23
3216,23
3217,23
3218,23
3219,23
3220,23
3221,23
3222,23
3223,24
3224,24
3225,24
3226,24
3227,24
3228,24
3229,24
3230,23
3231,23
3232,23
3233,23
3234,23
3235,23
3236,23
3237,23
3238,23
3239,23
3240,23
3241,23
3242,23
3243,23
3244,23
3245,23
3246,23
3247,23
3248,24
3249,24
3250,24
3251,24
3252,24
3253,24
3254,24
3255,24
3256,24
3257,24
3258,24
3259,24
3260,25
3261,25
3262,25
3263,25
3264,25
3265,25
3266,25
3267,25
3268,25
3269,25
3270,25
3271,25
3272,25
3273,25
3274,25
3275,25
3276,26
3277,26
3278,26
3279,26
3280,26
3281,26
3282,27
3283,26
3284,26
3285,26
3286,25
3287,25
3288,24
3289,24
3290,24
3291,24
3292,24
3293,24
3294,24
3295,24
3296,24
3297,24
3298,25
3299,25
3300,24
3301,24
3302,24
3303,24
3304,24
3305,24
3306,24
3307,25
3308,25
3309,25
3310,25
3311,24
3312,24
3313,24
3314,24
3315,24
3316,24
3317,24
3318,24
3319,24
3320,24
3321,24
3322,24
3323,25
3324,24
3325,24
3326,24
3327,24
3328,24
3329,24
3330,24
3331,24
3332,25
3333,24
3334,24
3335,24
3336,24
3337,24
3338,24
3339,24
3340,24
3341,24
3342,24
3343,24
3344,24
3345,24
3346,24
3347,24
3348,25
3349,25
3350,25
3351,25
3352,25
3353,25
3354,26
3355,26
3356,25
3357,25
3358,25
3359,25
3360,25
3361,25
3362,25
3363,25
3364,25
3365,25
3366,25
3367,25
3368,25
3369,25
3370,25
3371,25
3372,25
3373,25
3374,25
3375,25
3376,25
3377,25
3378,25
3379,25
3380,25
3381,25
3382,25
3383,25
3384,25
3385,25
3386,25
3387,25
3388,25
3389,25
3390,25
3391,25
3392,25
3393,26
3394,25
3395,25
3396,25
3397,25
3398,25
3399,25
3400,25
3401,25
3402,25
3403,25
3404,25
3405,25
3406,25
3407,25
3408,25
3409,26
3410,26
3411,25
3412,26
3413,25
3414,25
3415,25
3416,25
3417,25
3418,25
3419,25
3420,25
3421,25
3422,26
3423,25
3424,25
3425,25
3426,25
3427,25
3428,26
3429,26
3430,26
3431,26
3432,26
3433,25
3434,25
3435,25
3436,25
3437,25
3438,25
3439,25
3440,25
3441,25
3442,25
3443,26
3444,26
3445,26
3446,26
3447,26
3448,26
3449,26
3450,26
3451,26
3452,26
3453,25
3454,25
3455,26
3456,25
3457,25
3458,25
3459,25
3460,25
3461,26
3462,26
3463,26
3464,26
3465,26
3466,25
3467,26
3468,26
3469,26
3470,26
3471,26
3472,25
3473,25
3474,25
3475,25
3476,25
3477,25
3478,25
3479,25
3480,25
3481,25
3482,25
3483,25
3484,25
3485,25
3486,25
3487,25
3488,25
3489,25
3490,25
3491,25
3492,25
3493,25
3494,25
3495,25
3496,25
3497,25
3498,25
3499,25
3500,25
3501,25
3502,25
3503,25
3504,25
3505,25
3506,25
3507,25
3508,25
3509,25
3510,25
3511,25
3512,25
3513,25
3514,25
3515,25
3516,25
3517,25
3518,25
3519,25
3520,25
3521,25
3522,25
3523,25
3524,25
3525,26
3526,26
3527,26
3528,26
3529,26
3530,26
3531,26
3532,26
3533,26
3534,26
3535,26
3536,27
3537,27
3538,27
3539,27
3540,25
3541,25
3542,25
3543,25
3544,25
3545,25
3546,25
3547,25
3548,25
3549,25
3550,25
3551,26
3552,26
3553,26
3554,26
3555,26
3556,26
3557,26
3558,26
3559,26
3560,26
3561,26
3562,26
3563,26
3564,26
3565,26
3566,26
3567,26
3568,26
3569,27
3570,26
3571,26
3572,26
3573,26
3574,26
3575,26
3576,26
3577,26
3578,26
3579,26
3580,25
3581,25
3582,25
3583,25
3584,25
3585,25
3586,25
3587,25
3588,25
3589,25
3590,25
3591,25
3592,25
3593,25
3594,25
3595,25
3596,25
3597,25
3598,25
3599,25
3600,25
3601,25
3602,25
3603,25
3604,25
3605,25
3606,25
3607,25
3608,25
3609,25
3610,25
3611,25
3612,25
3613,25
3614,25
3615,25
3616,25
3617,25
3618,26
3619,26
3620,26
3621,25
3622,25
3623,25
3624,25
3625,25
3626,25
3627,25
3628,25
3629,25
3630,25
3631,25
3632,25
3633,25
3634,25
3635,25
3636,25
3637,25
3638,25
3639,25
3640,25
3641,25
3642,25
3643,25
3644,25
3645,25
3646,25
3647,25
3648,25
3649,25
3650,25
3651,25
3652,25
3653,25
3654,25
3655,25
3656,25
3657,25
3658,25
3659,25
3660,25
3661,25
3662,26
3663,26
3664,27
3665,27
3666,27
3667,27
3668,27
3669,27
3670,26
3671,26
3672,26
3673,26
3674,26
3675,26
3676,26
3677,26
3678,27
3679,26
3680,26
3681,26
3682,27
3683,26
3684,26
3685,26
3686,26
3687,26
3688,26
3689,26
3690,26
3691,26
3692,26
3693,26
3694,26
3695,26
3696,26
3697,26
3698,26
3699,26
3700,26
3701,26
3702,27
3703,26
3704,26
3705,26
3706,26
3707,26
3708,26
3709,26
3710,26
3711,26
3712,26
3713,26
3714,26
3715,26
3716,26
3717,26
3718,26
3719,26
3720,26
3721,26
3722,26
3723,26
3724,26
3725,27
3726,27
3727,26
3728,26
3729,26
3730,27
3731,26
3732,26
3733,26
3734,26
3735,26
3736,26
3737,26
3738,26
3739,26
3740,25
3741,25
3742,25
3743,25
3744,25
3745,26
3746,25
3747,25
3748,25
3749,25
3750,25
3751,25
3752,25
3753,25
3754,25
3755,25
3756,25
3757,25
3758,25
3759,25
3760,25
3761,25
3762,25
3763,25
3764,25
3765,25
3766,25
3767,25
3768,25
3769,25
3770,25
3771,25
3772,25
3773,25
3774,25
3775,25
3776,26
3777,26
3778,26
3779,26
3780,26
3781,26
3782,25
3783,25
3784,25
3785,25
3786,25
3787,25
3788,25
3789,25
3790,25
3791,25
3792,25
3793,25
3794,25
3795,25
3796,25
3797,25
3798,26
3799,25
3800,25
3801,25
3802,25
3803,25
3804,25
3805,25
3806,25
3807,25
3808,25
3809,25
3810,25
3811,25
3812,25
3813,25
3814,25
3815,25
3816,25
3817,25
3818,25
3819,25
3820,25
3821,25
3822,25
3823,25
3824,25
3825,25
3826,25
3827,25
3828,25
3829,25
3830,25
3831,25
3832,25
3833,25
3834,25
3835,25
3836,26
3837,25
3838,25
3839,25
3840,25
3841,25
3842,25
3843,25
3844,25
3845,25
3846,25
3847,25
3848,25
3849,25
3850,25
3851,25
3852,26
3853,25
3854,25
3855,25
3856,25
3857,25
3858,25
3859,25
3860,25
3861,25
3862,25
3863,25
3864,25
3865,25
3866,25
3867,25
3868,25
3869,25
3870,25
3871,25
3872,25
3873,25
3874,26
3875,25
3876,25
3877,25
3878,25
3879,26
3880,26
3881,26
3882,26
3883,26
3884,26
3885,26
3886,26
3887,26
3888,26
3889,26
3890,26
3891,26
3892,26
3893,26
3894,26
3895,26
3896,26
3897,26
3898,27
3899,26
3900,26
3901,26
3902,26
3903,26
3904,26
3905,26
3906,26
3907,26
3908,26
3909,26
3910,26
3911,26
3912,26
3913,26
3914,26
3915,27
3916,27
3917,27
3918,27
3919,28
3920,28
3921,27
3922,28
3923,28
3924,27
3925,27
3926,27
3927,27
3928,27
3929,27
3930,27
3931,27
3932,27
3933,27
3934,27
3935,27
3936,27
3937,27
3938,27
3939,27
3940,27
3941,27
3942,27
3943,27
3944,28
3945,28
3946,27
3947,27
3948,27
3949,27
3950,27
3951,27
3952,27
3953,27
3954,27
3955,27
3956,28
3957,26
3958,26
3959,26
3960,26
3961,26
3962,26
3963,26
3964,26
3965,26
3966,26
3967,26
3968,26
3969,27
3970,27
3971,26
3972,26
3973,26
3974,26
3975,26
3976,26
3977,26
3978,26
3979,26
3980,26
3981,26
3982,26
3983,26
3984,26
3985,26
3986,26
3987,26
3988,26
3989,26
3990,26
3991,26
3992,26
3993,26
3994,26
3995,26
3996,26
3997,26
3998,26
3999,26
4000,26
4001,26
4002,26
4003,26
4004,26
4005,26
4006,27
4007,26
4008,26
4009,26
4010,26
4011,26
4012,26
4013,26
4014,26
4015,26
4016,26
4017,26
4018,26
4019,26
4020,26
4021,26
4022,26
4023,27
4024,26
4025,26
4026,26
4027,26
4028,26
4029,26
4030,26
4031,26
4032,26
4033,26
4034,26
4035,26
4036,27
4037,27
4038,27
4039,27
4040,27
4041,27
4042,27
4043,27
4044,27
4045,27
4046,28
4047,28
4048,28
4049,27
4050,27
4051,27
4052,27
4053,27
4054,27
4055,28
4056,28
4057,28
4058,28
4059,28
4060,28
4061,29
4062,29
4063,28
4064,29
4065,28
4066,28
4067,28
4068,28
4069,28
4070,28
4071,29
4072,28
4073,28
4074,28
4075,28
4076,28
4077,28
4078,28
4079,28
4080,28
4081,27
4082,27
4083,27
4084,27
4085,28
4086,28
4087,28
4088,28
4089,28
4090,28
4091,28
4092,28
4093,28
4094,28
4095,28
4096,28
4097,28
4098,28
4099,28
4100,28
4101,28
4102,28
4103,28
4104,28
4105,28
4106,28
4107,28
4108,28
4109,28
4110,28
4111,28
4112,28
4113,28
4114,28
4115,28
4116,29
4117,29
4118,29
4119,29
4120,29
4121,29
4122,29
4123,29
4124,29
4125,29
4126,29
4127,29
4128,29
4129,29
4130,28
4131,28
4132,28
4133,28
4134,28
4135,28
4136,28
4137,28
4138,28
4139,28
4140,28
4141,28
4142,28
4143,28
4144,28
4145,28
4146,28
4147,28
4148,28
4149,28
4150,28
4151,29
4152,29
4153,29
4154,28
4155,28
4156,28
4157,29
4158,29
4159,28
4160,28
4161,28
4162,28
4163,28
4164,28
4165,28
4166,28
4167,28
4168,28
4169,28
4170,28
4171,28
4172,28
4173,28
4174,28
4175,28
4176,28
4177,28
4178,28
4179,28
4180,28
4181,28
4182,28
4183,28
4184,28
4185,28
4186,28
4187,28
4188,28
4189,28
4190,28
4191,28
4192,28
4193,28
4194,28
4195,29
4196,28
4197,28
4198,28
4199,28
4200,28
4201,28
4202,29
4203,28
4204,28
4205,29
4206,29
4207,29
4208,29
4209,29
4210,29
4211,29
4212,29
4213,29
4214,29
4215,29
4216,29
4217,30
4218,30
4219,29
4220,28
4221,28
4222,28
4223,29
4224,29
4225,28
4226,28
4227,28
4228,28
4229,28
4230,28
4231,28
4232,28
4233,28
4234,28
4235,28
4236,28
4237,28
4238,28
4239,28
4240,28
4241,28
4242,28
4243,28
4244,28
4245,29
4246,29
4247,29
4248,29
4249,29
4250,29
4251,28
4252,28
4253,28
4254,28
4255,28
4256,28
4257,28
4258,28
4259,28
4260,28
4261,28
4262,28
4263,29
4264,29
4265,29
4266,29
4267,29
4268,29
4269,30
4270,30
4271,31
4272,30
4273,30
4274,30
4275,30
4276,30
4277,30
4278,30
4279,30
4280,31
4281,32
4282,31
4283,31
4284,31
4285,31
4286,31
4287,30
4288,30
4289,30
4290,30
4291,30
4292,30
4293,30
4294,30
4295,30
4296,30
4297,30
4298,31
4299,31
4300,31
4301,31
4302,30
4303,30
4304,31
4305,30
4306,30
4307,30
4308,30
4309,30
4310,29
4311,29
4312,29
4313,29
4314,29
4315,29
4316,29
4317,29
4318,29
4319,29
4320,29
4321,29
4322,29
4323,29
4324,29
4325,29
4326,29
4327,29
4328,29
4329,29
4330,30
4331,29
4332,29
4333,29
4334,29
4335,30
4336,29
4337,29
4338,29
4339,29
4340,29
4341,29
4342,29
4343,29
4344,29
4345,29
4346,29
4347,29
4348,29
4349,29
4350,29
4351,29
4352,29
4353,29
4354,29
4355,29
4356,29
4357,29
4358,29
4359,29
4360,29
4361,29
4362,29
4363,29
4364,29
4365,30
4366,30
4367,30
4368,29
4369,29
4370,29
4371,29
4372,29
4373,29
4374,29
4375,29
4376,29
4377,29
4378,29
4379,29
4380,29
4381,29
4382,29
4383,29
4384,29
4385,29
4386,29
4387,29
4388,29
4389,30
4390,29
4391,29
4392,29
4393,29
4394,29
4395,29
4396,29
4397,29
4398,29
4399,29
4400,29
4401,29
4402,29
4403,29
4404,29
4405,29
4406,29
4407,29
4408,29
4409,29
4410,29
4411,30
4412,29
4413,29
4414,29
4415,29
4416,29
4417,29
4418,30
4419,30
4420,30
4421,30
4422,29
4423,29
4424,29
4425,29
4426,29
4427,29
4428,29
4429,29
4430,29
4431,30
4432,30
4433,30
4434,30
4435,31
4436,31
4437,31
4438,30
4439,30
4440,30
4441,30
4442,30
4443,31
4444,31
4445,31
4446,31
4447,31
4448,31
4449,31
4450,31
4451,30
4452,30
4453,31
4454,31
4455,31
4456,31
4457,31
4458,30
4459,30
4460,30
4461,30
4462,30
4463,30
4464,30
4465,30
4466,30
4467,30
4468,30
4469,30
4470,30
4471,30
4472,30
4473,30
4474,30
4475,30
4476,30
4477,30
4478,30
4479,30
4480,30
4481,30
4482,30
4483,31
4484,30
4485,30
4486,30
4487,30
4488,30
4489,30
4490,30
4491,30
4492,30
4493,30
4494,29
4495,29
4496,29
4497,29
4498,29
4499,29
4500,29
4501,29
4502,30
4503,29
4504,29
4505,29
4506,29
4507,29
4508,29
4509,29
4510,29
4511,29
4512,31
4513,29
4514,29
4515,29
4516,29
4517,29
4518,30
4519,29
4520,29
4521,30
4522,29
4523,29
4524,29
4525,29
4526,29
4527,29
4528,29
4529,29
4530,29
4531,29
4532,29
4533,29
4534,29
4535,29
4536,29
4537,29
4538,29
4539,29
4540,29
4541,29
4542,29
4543,29
4544,29
4545,29
4546,29
4547,30
4548,30
4549,29
4550,29
4551,29
4552,29
4553,29
4554,29
4555,30
4556,29
4557,29
4558,29
4559,29
4560,29
4561,29
4562,29
4563,29
4564,29
4565,30
4566,29
4567,29
4568,29
4569,30
4570,29
4571,29
4572,29
4573,29
4574,29
4575,29
4576,29
4577,29
4578,30
4579,30
4580,30
4581,30
4582,30
4583,29
4584,29
4585,29
4586,29
4587,29
4588,29
4589,29
4590,29
4591,29
4592,30
4593,30
4594,29
4595,29
4596,30
4597,30
4598,30
4599,30
4600,30
4601,29
4602,29
4603,29
4604,29
4605,29
4606,29
4607,29
4608,30
4609,30
4610,29
4611,29
4612,29
4613,29
4614,29
4615,29
4616,29
4617,29
4618,29
4619,29
4620,29
4621,29
4622,29
4623,29
4624,29
4625,29
4626,29
4627,29
4628,29
4629,29
4630,29
4631,29
4632,29
4633,29
4634,29
4635,30
4636,30
4637,29
4638,29
4639,29
4640,29
4641,29
4642,29
4643,29
4644,29
4645,29
4646,29
4647,29
4648,29
4649,29
4650,29
4651,29
4652,29
4653,29
4654,29
4655,29
4656,29
4657,29
4658,29
4659,29
4660,29
4661,29
4662,29
4663,29
4664,29
4665,29
4666,29
4667,29
4668,30
4669,29
4670,29
4671,29
4672,29
4673,29
4674,29
4675,29
4676,29
4677,29
4678,29
4679,29
4680,29
4681,29
4682,29
4683,29
4684,29
4685,29
4686,29
4687,29
4688,29
4689,29
4690,30
4691,29
4692,29
4693,29
4694,29
4695,29
4696,29
4697,29
4698,29
4699,29
4700,29
4701,29
4702,29
4703,29
4704,29
4705,29
4706,29
4707,29
4708,29
4709,29
4710,29
4711,29
4712,29
4713,29
4714,29
4715,29
4716,29
4717,29
4718,29
4719,29
4720,29
4721,30
4722,30
4723,30
4724,30
4725,30
4726,30
4727,30
4728,30
4729,31
4730,31
4731,31
4732,30
4733,30
4734,30
4735,30
4736,30
4737,30
4738,30
4739,30
4740,30
4741,30
4742,30
4743,30
4744,30
4745,30
4746,30
4747,30
4748,31
4749,31
4750,31
4751,31
4752,31
4753,31
4754,31
4755,31
4756,31
4757,31
4758,31
4759,31
4760,31
4761,31
4762,30
4763,30
4764,30
4765,30
4766,30
4767,30
4768,30
4769,30
4770,30
4771,30
4772,30
4773,30
4774,31
4775,32
4776,32
4777,32
4778,33
4779,33
4780,31
4781,31
4782,31
4783,30
4784,30
4785,30
4786,30
4787,31
4788,31
4789,30
4790,30
4791,30
4792,30
4793,30
4794,30
4795,30
4796,31
4797,31
4798,31
4799,31
4800,31
4801,31
4802,31
4803,31
4804,31
4805,31
4806,31
4807,30
4808,30
4809,30
4810,30
4811,30
4812,30
4813,30
4814,30
4815,30
4816,30
4817,31
4818,30
4819,30
4820,30
4821,30
4822,29
4823,29
4824,29
4825,29
4826,29
4827,29
4828,29
4829,29
4830,29
4831,29
4832,29
4833,29
4834,29
4835,29
4836,29
4837,29
4838,29
4839,29
4840,29
4841,29
4842,29
4843,29
4844,29
4845,29
4846,30
4847,29
4848,30
4849,29
4850,29
4851,29
4852,29
4853,30
4854,29
4855,29
4856,29
4857,30
4858,29
4859,29
4860,29
4861,29
4862,29
4863,29
4864,29
4865,29
4866,29
4867,29
4868,29
4869,29
4870,29
4871,29
4872,29
4873,29
4874,29
4875,29
4876,29
4877,29
4878,29
4879,30
4880,30
4881,30
4882,30
4883,30
4884,30
4885,30
4886,30
4887,30
4888,30
4889,30
4890,30
4891,30
4892,29
4893,29
4894,29
4895,29
4896,29
4897,29
4898,29
4899,29
4900,29
4901,29
4902,29
4903,29
4904,29
4905,29
4906,30
4907,29
4908,30
4909,30
4910,30
4911,30
4912,30
4913,30
4914,30
4915,29
4916,29
4917,29
4918,29
4919,29
4920,29
4921,29
4922,29
4923,29
4924,29
4925,29
4926,29
4927,29
4928,29
4929,29
4930,29
4931,30
4932,29
4933,29
4934,29
4935,29
4936,29
4937,29
4938,29
4939,29
4940,29
4941,29
4942,29
4943,29
4944,29
4945,29
4946,29
4947,29
4948,29
4949,29
4950,29
4951,29
4952,29
4953,29
4954,29
4955,29
4956,29
4957,29
4958,30
4959,30
4960,29
4961,29
4962,29
4963,29
4964,29
4965,29
4966,29
4967,30
4968,30
4969,29
4970,29
4971,29
4972,30
4973,30
4974,29
4975,29
4976,29
4977,29
4978,29
4979,29
4980,29
4981,29
4982,29
4983,30
4984,29
4985,29
4986,29
4987,29
4988,29
4989,29
4990,30
4991,29
4992,29
4993,29
4994,29
4995,29
4996,29
4997,29
4998,29
4999,29
5000,29
5001,30
5002,30
5003,30
5004,30
5005,30
5006,30
5007,30
5008,29
5009,29
5010,30
5011,30
5012,30
5013,29
5014,29
5015,29
5016,29
5017,29
5018,29
5019,29
5020,29
5021,29
5022,29
5023,29
5024,29
5025,29
5026,29
5027,29
5028,29
5029,29
5030,29
5031,29
5032,30
5033,30
5034,30
5035,30
5036,31
5037,32
5038,31
5039,30
5040,29
5041,29
5042,29
5043,29
5044,30
5045,30
5046,30
5047,30
5048,30
5049,30
5050,30
5051,30
5052,30
5053,30
5054,30
5055,30
5056,30
5057,30
5058,30
5059,31
5060,30
5061,30
5062,30
5063,30
5064,30
5065,31
5066,31
5067,31
5068,30
5069,30
5070,30
5071,30
5072,31
5073,30
5074,30
5075,30
5076,30
5077,30
5078,30
5079,30
5080,30
5081,30
5082,30
5083,30
5084,30
5085,30
5086,30
5087,30
5088,30
5089,30
5090,30
5091,31
5092,31
5093,31
5094,30
5095,30
5096,30
5097,30
5098,31
5099,30
5100,30
5101,30
5102,30
5103,30
5104,30
5105,30
5106,30
5107,32
5108,31
5109,30
5110,30
5111,30
5112,31
5113,31
5114,31
5115,31
5116,31
5117,31
5118,31
5119,31
5120,31
5121,30
5122,31
5123,30
5124,30
5125,30
5126,30
5127,30
5128,30
5129,30
5130,30
5131,30
5132,31
5133,31
5134,31
5135,31
5136,31
5137,31
5138,31
5139,31
5140,31
5141,31
5142,31
5143,31
5144,32
5145,31
5146,31
5147,32
5148,32
5149,31
5150,31
5151,31
5152,32
5153,31
5154,31
5155,31
5156,31
5157,31
5158,31
5159,31
5160,32
5161,31
5162,31
5163,31
5164,31
5165,31
5166,33
5167,33
5168,32
5169,32
5170,34
5171,34
5172,33
5173,32
5174,32
5175,32
5176,32
5177,32
5178,32
5179,32
5180,31
5181,31
5182,31
5183,31
5184,31
5185,31
5186,31
5187,31
5188,31
5189,31
5190,31
5191,31
5192,31
5193,31
5194,31
5195,31
5196,31
5197,31
5198,31
5199,31
5200,31
5201,31
5202,31
5203,31
5204,31
5205,31
5206,31
5207,31
5208,31
5209,31
5210,31
5211,31
5212,31
5213,31
5214,31
5215,31
5216,31
5217,31
5218,31
5219,31
5220,31
5221,31
5222,31
5223,31
5224,31
5225,31
5226,31
5227,31
5228,31
5229,31
5230,31
5231,31
5232,31
5233,31
5234,31
5235,31
5236,31
5237,31
5238,31
5239,32
5240,31
5241,31
5242,31
5243,31
5244,31
5245,31
5246,31
5247,31
5248,31
5249,31
5250,31
5251,31
5252,31
5253,31
5254,31
5255,31
5256,31
5257,31
5258,31
5259,31
5260,31
5261,31
5262,31
5263,31
5264,31
5265,31
5266,31
5267,31
5268,31
5269,31
5270,31
5271,31
5272,31
5273,31
5274,32
5275,32
5276,31
5277,31
5278,31
5279,31
5280,31
5281,31
5282,31
5283,31
5284,31
5285,31
5286,31
5287,32
5288,32
5289,32
5290,32
5291,32
5292,31
5293,31
5294,31
5295,32
5296,31
5297,31
5298,31
5299,31
5300,31
5301,31
5302,31
5303,31
5304,31
5305,31
5306,31
5307,31
5308,31
5309,31
5310,31
5311,31
5312,31
5313,31
5314,31
5315,31
5316,31
5317,31
5318,31
5319,31
5320,31
5321,31
5322,32
5323,32
5324,31
5325,31
5326,32
5327,32
5328,32
5329,32
5330,32
5331,32
5332,32
5333,32
5334,32
5335,31
5336,31
5337,31
5338,31
5339,31
5340,31
5341,31
5342,31
5343,31
5344,31
5345,31
5346,31
5347,31
5348,31
5349,31
5350,31
5351,31
5352,31
5353,31
5354,31
5355,31
5356,31
5357,31
5358,31
5359,31
5360,31
5361,31
5362,31
5363,31
5364,31
5365,31
5366,31
5367,31
5368,31
5369,31
5370,31
5371,31
5372,31
5373,32
5374,32
5375,32
5376,31
5377,31
5378,31
5379,31
5380,31
5381,31
5382,31
5383,31
5384,31
5385,31
5386,31
5387,31
5388,31
5389,31
5390,31
5391,31
5392,31
5393,31
5394,31
5395,31
5396,31
5397,31
5398,31
5399,32
5400,31
5401,31
5402,31
5403,31
5404,31
5405,31
5406,33
5407,33
5408,33
5409,32
5410,32
5411,32
5412,32
5413,32
5414,32
5415,33
5416,32
5417,32
5418,32
5419,32
5420,33
5421,33
5422,33
5423,33
5424,33
5425,33
5426,33
5427,33
5428,34
5429,33
5430,34
5431,34
5432,34
5433,33
5434,33
5435,32
5436,32
5437,32
5438,32
5439,32
5440,32
5441,32
5442,32
5443,32
5444,32
5445,33
5446,33
5447,33
5448,32
5449,32
5450,32
5451,32
5452,32
5453,32
5454,32
5455,32
5456,32
5457,32
5458,32
5459,32
5460,32
5461,32
5462,32
5463,32
5464,32
5465,32
5466,32
5467,31
5468,31
5469,31
5470,32
5471,32
5472,32
5473,32
5474,32
5475,32
5476,31
5477,31
5478,31
5479,32
5480,32
5481,31
5482,31
5483,31
5484,31
5485,31
5486,31
5487,31
5488,31
5489,31
5490,31
5491,31
5492,31
5493,32
5494,32
5495,32
5496,32
5497,32
5498,32
5499,32
5500,32
5501,32
5502,32
5503,32
5504,32
5505,32
5506,32
5507,32
5508,32
5509,32
5510,32
5511,33
5512,32
5513,32
5514,32
5515,32
5516,32
5517,32
5518,32
5519,32
5520,32
5521,32
5522,32
5523,32
5524,32
5525,32
5526,32
5527,32
5528,32
5529,32
5530,32
5531,32
5532,33
5533,33
5534,33
5535,33
5536,33
5537,33
5538,33
5539,33
5540,33
5541,33
5542,33
5543,33
5544,33
5545,33
5546,33
5547,33
5548,33
5549,33
5550,33
5551,33
5552,33
5553,33
5554,33
5555,33
5556,33
5557,33
5558,33
5559,33
5560,33
5561,33
5562,33
5563,33
5564,33
5565,33
5566,33
5567,33
5568,33
5569,33
5570,33
5571,33
5572,33
5573,33
5574,33
5575,33
5576,33
5577,33
5578,33
5579,33
5580,34
5581,34
5582,33
5583,33
5584,33
5585,33
5586,33
5587,33
5588,33
5589,33
5590,33
5591,33
5592,33
5593,33
5594,35
5595,35
5596,34
5597,34
5598,34
5599,34
5600,33
5601,33
5602,33
5603,33
5604,33
5605,33
5606,34
5607,34
5608,34
5609,33
5610,33
5611,33
5612,33
5613,33
5614,33
5615,33
5616,33
5617,33
5618,33
5619,33
5620,33
5621,33
5622,33
5623,34
5624,34
5625,34
5626,34
5627,34
5628,34
5629,34
5630,34
5631,34
5632,34
5633,34
5634,34
5635,34
5636,34
5637,34
5638,34
5639,34
5640,34
5641,34
5642,34
5643,34
5644,34
5645,34
5646,34
5647,34
5648,34
5649,34
5650,34
5651,34
5652,34
5653,34
5654,34
5655,34
5656,34
5657,34
5658,34
5659,34
5660,34
5661,34
5662,34
5663,34
5664,34
5665,35
5666,34
5667,35
5668,35
5669,35
5670,34
5671,34
5672,34
5673,34
5674,33
5675,33
5676,33
5677,33
5678,33
5679,33
5680,33
5681,33
5682,33
5683,33
5684,33
5685,33
5686,33
5687,33
5688,34
5689,33
5690,33
5691,33
5692,33
5693,33
5694,33
5695,33
5696,34
5697,33
5698,33
5699,33
5700,34
5701,33
5702,33
5703,33
5704,34
5705,33
5706,33
5707,33
5708,33
5709,33
5710,33
5711,33
5712,33
5713,33
5714,33
5715,33
5716,33
5717,33
5718,33
5719,33
5720,33
5721,33
5722,33
5723,34
5724,34
5725,33
5726,33
5727,33
5728,33
5729,33
5730,34
5731,34
5732,35
5733,34
5734,34
5735,34
5736,34
5737,34
5738,34
5739,34
5740,34
5741,34
5742,34
5743,34
5744,34
5745,33
5746,33
5747,33
5748,33
5749,33
5750,33
5751,33
5752,33
5753,34
5754,33
5755,33
5756,33
5757,33
5758,33
5759,33
5760,33
5761,33
5762,33
5763,33
5764,33
5765,33
5766,33
5767,33
5768,33
5769,33
5770,33
5771,33
5772,33
5773,33
5774,33
5775,33
5776,33
5777,34
5778,33
5779,33
5780,33
5781,33
5782,33
5783,33
5784,33
5785,33
5786,33
5787,33
5788,33
5789,33
5790,33
5791,33
5792,33
5793,33
5794,33
5795,33
5796,33
5797,33
5798,33
5799,33
5800,33
5801,33
5802,33
5803,34
5804,35
5805,34
5806,34
5807,35
5808,35
5809,36
5810,35
5811,35
5812,34
5813,34
5814,34
5815,34
5816,34
5817,35
5818,34
5819,34
5820,33
5821,33
5822,33
5823,33
5824,33
5825,33
5826,33
5827,33
5828,33
5829,33
5830,33
5831,33
5832,33
5833,33
5834,33
5835,33
5836,33
5837,33
5838,33
5839,34
5840,33
5841,33
5842,34
5843,34
5844,34
5845,34
5846,34
5847,34
5848,34
5849,34
5850,34
5851,34
5852,34
5853,34
5854,34
5855,34
5856,34
5857,34
5858,34
5859,34
5860,34
5861,34
5862,34
5863,34
5864,34
5865,35
5866,35
5867,35
5868,35
5869,35
5870,35
5871,35
5872,35
5873,35
5874,35
5875,35
5876,35
5877,35
5878,34
5879,34
5880,34
5881,34
5882,34
5883,34
5884,34
5885,34
5886,34
5887,34
5888,34
5889,34
5890,34
5891,34
5892,34
5893,34
5894,34
5895,34
5896,34
5897,34
5898,34
5899,34
5900,34
5901,34
5902,34
5903,34
5904,34
5905,34
5906,34
5907,34
5908,34
5909,34
5910,34
5911,34
5912,34
5913,34
5914,34
5915,34
5916,34
5917,34
5918,35
5919,34
5920,34
5921,34
5922,34
5923,34
5924,34
5925,35
5926,35
5927,35
5928,34
5929,34
5930,34
5931,34
5932,34
5933,34
5934,34
5935,34
5936,34
5937,34
5938,35
5939,36
5940,35
5941,35
5942,35
5943,35
5944,35
5945,35
5946,34
5947,34
5948,34
5949,34
5950,34
5951,34
5952,34
5953,34
5954,35
5955,34
5956,34
5957,34
5958,34
5959,34
5960,34
5961,34
5962,34
5963,34
5964,34
5965,34
5966,34
5967,34
5968,34
5969,34
5970,35
5971,34
5972,34
5973,34
5974,34
5975,34
5976,34
5977,34
5978,34
5979,34
5980,34
5981,34
5982,34
5983,34
5984,34
5985,34
5986,34
5987,34
5988,34
5989,34
5990,34
5991,34
5992,34
5993,34
5994,34
5995,34
5996,34
5997,34
5998,34
5999,34
6000,34
6001,34
6002,34
6003,34
6004,34
6005,34
6006,34
6007,34
6008,34
6009,34
6010,34
6011,34
6012,35
6013,34
6014,34
6015,34
6016,34
6017,34
6018,34
6019,35
6020,35
6021,35
6022,35
6023,34
6024,34
6025,34
6026,34
6027,34
6028,34
6029,34
6030,34
6031,35
6032,35
6033,35
6034,35
6035,35
6036,35
6037,35
6038,35
6039,35
6040,35
6041,35
6042,35
6043,35
6044,35
6045,35
6046,35
6047,35
6048,35
6049,36
6050,35
6051,35
6052,35
6053,35
6054,35
6055,35
6056,35
6057,36
6058,36
6059,35
6060,35
6061,35
6062,35
6063,35
6064,35
6065,35
6066,35
6067,35
6068,35
6069,36
6070,36
6071,36
6072,36
6073,36
6074,36
6075,36
6076,36
6077,36
6078,36
6079,36
6080,36
6081,36
6082,36
6083,36
6084,36
6085,36
6086,36
6087,37
6088,37
6089,36
6090,36
6091,36
6092,36
6093,36
6094,36
6095,37
6096,37
6097,37
6098,37
6099,37
6100,37
6101,38
6102,38
6103,38
6104,38
6105,38
6106,39
6107,38
6108,38
6109,38
6110,37
6111,37
6112,38
6113,38
6114,38
6115,38
6116,39
6117,39
6118,39
6119,39
6120,39
6121,38
6122,38
6123,38
6124,38
6125,38
6126,38
6127,38
6128,38
6129,38
6130,37
6131,37
6132,37
6133,37
6134,37
6135,37
6136,37
6137,37
6138,37
6139,37
6140,37
6141,37
6142,37
6143,37
6144,37
6145,37
6146,37
6147,37
6148,37
6149,37
6150,37
6151,37
6152,37
6153,37
6154,37
6155,37
6156,37
6157,37
6158,37
6159,37
6160,36
6161,36
6162,36
6163,36
6164,36
6165,36
6166,36
6167,36
6168,36
6169,36
6170,36
6171,36
6172,37
6173,37
6174,36
6175,36
6176,36
6177,36
6178,36
6179,36
6180,36
6181,36
6182,36
6183,36
6184,36
6185,36
6186,36
6187,36
6188,36
6189,36
6190,36
6191,36
6192,36
6193,36
6194,36
6195,36
6196,36
6197,36
6198,36
6199,36
6200,36
6201,36
6202,36
6203,36
6204,36
6205,36
6206,36
6207,36
6208,36
6209,36
6210,36
6211,36
6212,36
6213,37
6214,37
6215,37
6216,36
6217,36
6218,36
6219,36
6220,36
6221,36
6222,36
6223,36
6224,36
6225,36
6226,36
6227,36
6228,36
6229,36
6230,36
6231,36
6232,36
6233,36
6234,36
6235,36
6236,36
6237,36
6238,36
6239,36
6240,36
6241,36
6242,36
6243,36
6244,36
6245,36
6246,37
6247,37
6248,37
6249,36
6250,36
6251,36
6252,36
6253,36
6254,38
6255,38
6256,37
6257,37
6258,37
6259,37
6260,37
6261,37
6262,37
6263,38
6264,38
6265,38
6266,38
6267,38
6268,38
6269,38
6270,37
6271,38
6272,37
6273,37
6274,36
6275,36
6276,36
6277,36
6278,36
6279,36
6280,36
6281,36
6282,36
6283,36
6284,37
6285,36
6286,36
6287,36
6288,36
6289,36
6290,36
6291,36
6292,36
6293,36
6294,36
6295,36
6296,36
6297,36
6298,36
6299,36
6300,37
6301,36
6302,36
6303,36
6304,36
6305,36
6306,36
6307,36
6308,36
6309,36
6310,36
6311,36
6312,36
6313,36
6314,37
6315,36
6316,36
6317,36
6318,36
6319,36
6320,36
6321,36
6322,37
6323,36
6324,36
6325,36
6326,36
6327,36
6328,36
6329,37
6330,37
6331,37
6332,37
6333,36
6334,36
6335,36
6336,36
6337,36
6338,36
6339,36
6340,36
6341,36
6342,36
6343,36
6344,36
6345,36
6346,36
6347,36
6348,36
6349,37
6350,37
6351,37
6352,36
6353,36
6354,36
6355,36
6356,36
6357,36
6358,36
6359,36
6360,36
6361,36
6362,36
6363,36
6364,36
6365,36
6366,36
6367,36
6368,36
6369,36
6370,36
6371,36
6372,37
6373,36
6374,36
6375,36
6376,36
6377,36
6378,36
6379,36
6380,36
6381,36
6382,36
6383,36
6384,36
6385,36
6386,36
6387,36
6388,37
6389,37
6390,37
6391,37
6392,37
6393,37
6394,37
6395,37
6396,37
6397,37
6398,37
6399,38
6400,38
6401,37
6402,37
6403,37
6404,37
6405,37
6406,37
6407,37
6408,37
6409,37
6410,37
6411,38
6412,37
6413,37
6414,37
6415,37
6416,37
6417,37
6418,37
6419,37
6420,37
6421,37
6422,37
6423,38
6424,38
6425,37
6426,37
6427,37
6428,37
6429,37
6430,37
6431,37
6432,37
6433,37
6434,37
6435,37
6436,37
6437,37
6438,37
6439,37
6440,37
6441,37
6442,37
6443,37
6444,37
6445,37
6446,37
6447,37
6448,37
6449,37
6450,37
6451,37
6452,37
6453,37
6454,37
6455,37
6456,37
6457,37
6458,37
6459,37
6460,37
6461,37
6462,37
6463,37
6464,37
6465,38
6466,37
6467,36
6468,36
6469,36
6470,36
6471,36
6472,37
6473,37
6474,36
6475,36
6476,36
6477,36
6478,36
6479,36
6480,36
6481,36
6482,36
6483,36
6484,36
6485,36
6486,37
6487,37
6488,37
6489,36
6490,36
6491,36
6492,36
6493,36
6494,36
6495,36
6496,36
6497,36
6498,36
6499,36
6500,36
6501,36
6502,36
6503,36
6504,36
6505,36
6506,36
6507,36
6508,36
6509,37
6510,36
6511,37
6512,37
6513,37
6514,36
6515,36
6516,36
6517,36
6518,36
6519,36
6520,36
6521,36
6522,36
6523,36
6524,36
6525,36
6526,37
6527,36
6528,36
6529,36
6530,36
6531,36
6532,36
6533,36
6534,36
6535,36
6536,36
6537,36
6538,36
6539,37
6540,36
6541,36
6542,36
6543,36
6544,36
6545,36
6546,36
6547,36
6548,36
6549,36
6550,37
6551,36
6552,36
6553,36
6554,36
6555,36
6556,36
6557,36
6558,36
6559,36
6560,36
6561,36
6562,36
6563,36
6564,36
6565,36
6566,36
6567,36
6568,36
6569,36
6570,36
6571,36
6572,36
6573,36
6574,36
6575,36
6576,36
6577,39
6578,37
6579,37
6580,37
6581,37
6582,37
6583,37
6584,37
6585,36
6586,38
6587,37
6588,36
6589,36
6590,36
6591,36
6592,36
6593,36
6594,36
6595,36
6596,37
6597,37
6598,37
6599,36
6600,36
6601,36
6602,36
6603,36
6604,36
6605,36
6606,36
6607,36
6608,36
6609,36
6610,36
6611,36
6612,36
6613,36
6614,36
6615,36
6616,37
6617,36
6618,36
6619,36
6620,36
6621,36
6622,36
6623,36
6624,36
6625,36
6626,36
6627,36
6628,36
6629,36
6630,36
6631,36
6632,36
6633,36
6634,36
6635,36
6636,36
6637,36
6638,36
6639,36
6640,36
6641,36
6642,36
6643,36
6644,37
6645,36
6646,36
6647,36
6648,36
6649,37
6650,36
6651,36
6652,36
6653,36
6654,36
6655,36
6656,36
6657,36
6658,36
6659,36
6660,36
6661,36
6662,36
6663,36
6664,36
6665,36
6666,36
6667,36
6668,36
6669,36
6670,36
6671,36
6672,36
6673,36
6674,36
6675,36
6676,36
6677,36
6678,36
6679,36
6680,36
6681,36
6682,36
6683,36
6684,36
6685,36
6686,36
6687,36
6688,36
6689,36
6690,36
6691,36
6692,36
6693,36
6694,38
6695,36
6696,36
6697,36
6698,36
6699,36
6700,36
6701,36
6702,36
6703,36
6704,36
6705,36
6706,36
6707,36
6708,36
6709,36
6710,36
6711,36
6712,36
6713,36
6714,37
6715,37
6716,37
6717,38
6718,38
6719,38
6720,37
6721,36
6722,36
6723,36
6724,36
6725,36
6726,36
6727,37
6728,37
6729,37
6730,37
6731,37
6732,37
6733,37
6734,36
6735,36
6736,36
6737,36
6738,36
6739,36
6740,36
6741,36
6742,36
6743,36
6744,36
6745,36
6746,36
6747,36
6748,36
6749,36
6750,36
6751,36
6752,36
6753,37
6754,37
6755,37
6756,36
6757,37
6758,37
6759,37
6760,36
6761,36
6762,36
6763,36
6764,36
6765,36
6766,36
6767,36
6768,36
6769,36
6770,36
6771,36
6772,36
6773,36
6774,36
6775,36
6776,36
6777,36
6778,36
6779,36
6780,36
6781,36
6782,36
6783,36
6784,36
6785,36
6786,37
6787,38
6788,37
6789,37
6790,37
6791,37
6792,37
6793,37
6794,37
6795,37
6796,37
6797,37
6798,37
6799,36
6800,37
6801,37
6802,37
6803,36
6804,37
6805,36
6806,36
6807,36
6808,36
6809,36
6810,36
6811,36
6812,36
6813,36
6814,36
6815,36
6816,36
6817,36
6818,36
6819,37
6820,36
6821,36
6822,36
6823,36
6824,36
6825,36
6826,36
6827,36
6828,36
6829,36
6830,36
6831,36
6832,36
6833,36
6834,36
6835,36
6836,36
6837,36
6838,36
6839,37
6840,36
6841,36
6842,36
6843,36
6844,36
6845,36
6846,36
6847,36
6848,36
6849,37
6850,36
6851,37
6852,36
6853,36
6854,37
6855,37
6856,37
6857,36
6858,36
6859,36
6860,36
6861,36
6862,36
6863,36
6864,36
6865,36
6866,37
6867,36
6868,36
6869,36
6870,36
6871,36
6872,36
6873,36
6874,36
6875,36
6876,36
6877,36
6878,37
6879,37
6880,37
6881,38
6882,38
6883,39
6884,38
6885,38
6886,38
6887,38
6888,37
6889,37
6890,37
6891,37
6892,37
6893,38
6894,37
6895,37
6896,37
6897,37
6898,37
6899,37
6900,37
6901,37
6902,37
6903,37
6904,37
6905,37
6906,37
6907,37
6908,38
6909,38
6910,37
6911,37
6912,37
6913,37
6914,37
6915,37
6916,37
6917,37
6918,37
6919,38
6920,37
6921,37
6922,37
6923,37
6924,37
6925,37
6926,37
6927,37
6928,38
6929,38
6930,37
6931,37
6932,37
6933,37
6934,37
6935,37
6936,37
6937,37
6938,37
6939,38
6940,38
6941,38
6942,37
6943,37
6944,38
6945,38
6946,37
6947,37
6948,37
6949,37
6950,37
6951,37
6952,37
6953,37
6954,38
6955,38
6956,38
6957,37
6958,37
6959,37
6960,37
6961,37
6962,38
6963,37
6964,37
6965,37
6966,37
6967,37
6968,37
6969,37
6970,37
6971,37
6972,37
6973,37
6974,37
6975,37
6976,38
6977,38
6978,38
6979,38
6980,37
6981,38
6982,37
6983,37
6984,37
6985,37
6986,37
6987,37
6988,37
6989,38
6990,38
6991,38
6992,37
6993,37
6994,37
6995,37
6996,38
6997,38
6998,38
6999,38
7000,38
7001,38
7002,38
7003,38
7004,38
7005,37
7006,37
7007,37
7008,37
7009,37
7010,37
7011,37
7012,37
7013,37
7014,37
7015,37
7016,37
7017,37
7018,37
7019,37
7020,38
7021,38
7022,37
7023,37
7024,38
7025,38
7026,38
7027,38
7028,38
7029,38
7030,37
7031,37
7032,37
7033,37
7034,37
7035,37
7036,37
7037,37
7038,37
7039,37
7040,38
7041,38
7042,38
7043,38
7044,38
7045,38
7046,38
7047,38
7048,37
7049,37
7050,37
7051,37
7052,37
7053,37
7054,37
7055,38
7056,38
7057,37
7058,37
7059,37
7060,37
7061,37
7062,37
7063,37
7064,37
7065,37
7066,37
7067,38
7068,38
7069,38
7070,38
7071,38
7072,38
7073,38
7074,38
7075,38
7076,38
7077,38
7078,37
7079,37
7080,37
7081,37
7082,37
7083,37
7084,37
7085,37
7086,37
7087,37
7088,37
7089,37
7090,37
7091,37
7092,37
7093,37
7094,37
7095,38
7096,38
7097,38
7098,38
7099,39
7100,37
7101,37
7102,37
7103,37
7104,37
7105,37
7106,37
7107,37
7108,37
7109,37
7110,37
7111,37
7112,37
7113,37
7114,37
7115,37
7116,37
7117,37
7118,37
7119,37
7120,37
7121,38
7122,37
7123,37
7124,37
7125,37
7126,37
7127,37
7128,37
7129,37
7130,38
7131,37
7132,37
7133,37
7134,37
7135,37
7136,37
7137,37
7138,37
7139,37
7140,37
7141,37
7142,37
7143,37
7144,37
7145,38
7146,37
7147,37
7148,37
7149,37
7150,37
7151,37
7152,37
7153,37
7154,37
7155,37
7156,37
7157,37
7158,37
7159,37
7160,37
7161,37
7162,37
7163,37
7164,37
7165,37
7166,37
7167,37
7168,37
7169,37
7170,37
7171,37
7172,37
7173,37
7174,39
7175,37
7176,37
7177,37
7178,37
7179,37
7180,37
7181,37
7182,37
7183,37
7184,37
7185,37
7186,37
7187,38
7188,37
7189,37
7190,37
7191,37
7192,37
7193,37
7194,37
7195,37
7196,38
7197,38
7198,37
7199,37
7200,37
7201,37
7202,37
7203,37
7204,37
7205,37
7206,37
7207,37
7208,37
7209,37
7210,38
7211,37
7212,37
7213,37
7214,37
7215,37
7216,38
7217,38
7218,38
7219,38
7220,38
7221,38
7222,38
7223,38
7224,38
7225,38
7226,38
7227,38
7228,38
7229,38
7230,38
7231,38
7232,38
7233,38
7234,38
7235,38
7236,38
7237,38
7238,38
7239,38
7240,38
7241,38
7242,38
7243,38
7244,38
7245,38
7246,38
7247,39
7248,39
7249,39
7250,39
7251,39
7252,38
7253,38
7254,38
7255,38
7256,38
7257,38
7258,38
7259,38
7260,38
7261,38
7262,38
7263,38
7264,38
7265,38
7266,38
7267,38
7268,38
7269,38
7270,38
7271,38
7272,38
7273,38
7274,38
7275,38
7276,38
7277,38
7278,38
7279,38
7280,38
7281,38
7282,38
7283,38
7284,39
7285,39
7286,39
7287,39
7288,39
7289,39
7290,39
7291,40
7292,39
7293,38
7294,38
7295,38
7296,38
7297,38
7298,38
7299,39
7300,40
7301,39
7302,39
7303,39
7304,39
7305,38
7306,38
7307,38
7308,38
7309,38
7310,38
7311,38
7312,38
7313,38
7314,38
7315,38
7316,38
7317,38
7318,38
7319,38
7320,38
7321,38
7322,38
7323,38
7324,38
7325,38
7326,38
7327,38
7328,38
7329,38
7330,38
7331,38
7332,38
7333,38
7334,38
7335,38
7336,38
7337,38
7338,38
7339,37
7340,37
7341,37
7342,37
7343,37
7344,37
7345,37
7346,37
7347,37
7348,37
7349,37
7350,36
7351,36
7352,36
7353,36
7354,36
7355,36
7356,36
7357,36
7358,36
7359,36
7360,36
7361,36
7362,36
7363,36
7364,36
7365,35
7366,35
7367,35
7368,35
7369,35
7370,35
7371,35
7372,35
7373,35
7374,35
7375,35
7376,35
7377,35
7378,35
7379,35
7380,35
7381,35
7382,35
7383,35
7384,36
7385,35
7386,35
7387,35
7388,35
7389,35
7390,35
7391,35
7392,35
7393,35
7394,35
7395,35
7396,35
7397,35
7398,35
7399,35
7400,35
7401,35
7402,35
7403,35
7404,35
7405,35
7406,35
7407,35
7408,35
7409,35
7410,35
7411,35
7412,35
7413,35
7414,35
7415,35
7416,35
7417,35
7418,35
7419,35
7420,35
7421,35
7422,35
7423,35
7424,35
7425,35
7426,35
7427,36
7428,36
7429,36
7430,36
7431,35
7432,35
7433,35
7434,35
7435,35
7436,35
7437,35
7438,36
7439,36
7440,36
7441,35
7442,35
7443,35
7444,35
7445,35
7446,35
7447,35
7448,35
7449,35
7450,35
7451,35
7452,35
7453,35
7454,35
7455,35
7456,35
7457,35
7458,35
7459,35
7460,35
7461,35
7462,35
7463,35
7464,35
7465,35
7466,35
7467,35
7468,35
7469,35
7470,35
7471,35
7472,35
7473,35
7474,35
7475,35
7476,35
7477,35
7478,36
7479,36
7480,36
7481,36
7482,36
7483,36
7484,36
7485,36
7486,36
7487,36
7488,36
7489,36
7490,36
7491,36
7492,36
7493,36
7494,36
7495,36
7496,36
7497,36
7498,35
7499,35
7500,35
7501,35
7502,35
7503,35
7504,35
7505,35
7506,36
7507,35
7508,35
7509,35
7510,35
7511,35
7512,35
7513,35
7514,35
7515,36
7516,35
7517,35
7518,35
7519,35
7520,35
7521,35
7522,35
7523,35
7524,35
7525,35
7526,35
7527,35
7528,35
7529,35
7530,35
7531,35
7532,35
7533,35
7534,35
7535,35
7536,35
7537,35
7538,35
7539,35
7540,35
7541,35
7542,35
7543,35
7544,35
7545,35
7546,35
7547,35
7548,35
7549,35
7550,35
7551,35
7552,35
7553,35
7554,35
7555,35
7556,35
7557,35
7558,35
7559,35
7560,35
7561,35
7562,35
7563,35
7564,35
7565,35
7566,35
7567,35
7568,35
7569,35
7570,35
7571,35
7572,35
7573,35
7574,35
7575,35
7576,35
7577,35
7578,35
7579,35
7580,35
7581,35
7582,35
7583,35
7584,35
7585,35
7586,35
7587,35
7588,35
7589,35
7590,35
7591,35
7592,35
7593,35
7594,35
7595,35
7596,35
7597,35
7598,35
7599,35
7600,35
7601,35
7602,35
7603,35
7604,35
7605,35
7606,35
7607,35
7608,36
7609,36
7610,36
7611,36
7612,36
7613,36
7614,35
7615,35
7616,35
7617,35
7618,35
7619,35
7620,35
7621,35
7622,35
7623,36
7624,35
7625,35
7626,35
7627,35
7628,35
7629,35
7630,35
7631,35
7632,35
7633,35
7634,35
7635,35
7636,35
7637,35
7638,35
7639,35
7640,35
7641,35
7642,35
7643,35
7644,35
7645,35
7646,35
7647,36
7648,36
7649,36
7650,35
7651,35
7652,35
7653,35
7654,35
7655,35
7656,35
7657,35
7658,35
7659,35
7660,36
7661,36
7662,36
7663,36
7664,37
7665,37
7666,37
7667,36
7668,35
7669,35
7670,35
7671,35
7672,35
7673,35
7674,35
7675,35
7676,35
7677,35
7678,35
7679,36
7680,36
7681,36
7682,35
7683,35
7684,35
7685,35
7686,35
7687,35
7688,35
7689,35
7690,35
7691,35
7692,35
7693,35
7694,35
7695,35
7696,35
7697,35
7698,35
7699,35
7700,35
7701,35
7702,35
7703,35
7704,35
7705,35
7706,35
7707,35
7708,35
7709,35
7710,35
7711,35
7712,35
7713,35
7714,35
7715,35
7716,35
7717,35
7718,35
7719,35
7720,35
7721,35
7722,35
7723,35
7724,35
7725,35
7726,35
7727,36
7728,36
7729,36
7730,36
7731,36
7732,36
7733,36
7734,36
7735,37
7736,36
7737,35
7738,36
7739,35
7740,35
7741,35
7742,35
7743,35
7744,35
7745,35
7746,35
7747,35
7748,35
7749,34
7750,34
7751,34
7752,34
7753,34
7754,34
7755,34
7756,34
7757,34
7758,34
7759,34
7760,34
7761,34
7762,34
7763,34
7764,34
7765,34
7766,34
7767,34
7768,34
7769,34
7770,35
7771,34
7772,34
7773,34
7774,34
7775,34
7776,34
7777,34
7778,34
7779,34
7780,34
7781,34
7782,34
7783,34
7784,35
7785,34
7786,34
7787,35
7788,35
7789,34
7790,34
7791,34
7792,34
7793,34
7794,34
7795,34
7796,34
7797,34
7798,34
7799,34
7800,34
7801,34
7802,34
7803,34
7804,34
7805,34
7806,34
7807,34
7808,34
7809,34
7810,35
7811,34
7812,34
7813,34
7814,34
7815,34
7816,34
7817,34
7818,34
7819,34
7820,34
7821,34
7822,35
7823,34
7824,35
7825,34
7826,34
7827,34
7828,34
7829,35
7830,35
7831,35
7832,35
7833,35
7834,35
7835,35
7836,35
7837,35
7838,35
7839,35
7840,35
7841,35
7842,35
7843,36
7844,35
7845,35
7846,35
7847,35
7848,35
7849,35
7850,35
7851,35
7852,35
7853,35
7854,35
7855,35
7856,35
7857,35
7858,35
7859,35
7860,35
7861,36
7862,36
7863,35
7864,35
7865,36
7866,36
7867,35
7868,35
7869,35
7870,35
7871,35
7872,35
7873,35
7874,35
7875,36
7876,36
7877,36
7878,36
7879,36
7880,36
7881,36
7882,35
7883,35
7884,35
7885,35
7886,35
7887,35
7888,35
7889,35
7890,35
7891,35
7892,35
7893,35
7894,35
7895,36
7896,34
7897,35
7898,35
7899,35
7900,34
7901,35
7902,34
7903,34
7904,34
7905,34
7906,34
7907,34
7908,34
7909,34
7910,34
7911,34
7912,34
7913,34
7914,34
7915,34
7916,34
7917,34
7918,34
7919,35
7920,35
7921,35
7922,35
7923,35
7924,35
7925,35
7926,35
7927,35
7928,35
7929,35
7930,35
7931,35
7932,35
7933,35
7934,35
7935,35
7936,34
7937,34
7938,34
7939,34
7940,34
7941,34
7942,34
7943,34
7944,34
7945,34
7946,34
7947,34
7948,34
7949,34
7950,34
7951,34
7952,34
7953,34
7954,34
7955,34
7956,35
7957,34
7958,34
7959,34
7960,34
7961,34
7962,35
7963,35
7964,35
7965,34
7966,34
7967,34
7968,34
7969,34
7970,34
7971,34
7972,34
7973,34
7974,34
7975,34
7976,35
7977,35
7978,35
7979,35
7980,35
7981,34
7982,34
7983,34
7984,34
7985,34
7986,34
7987,34
7988,34
7989,34
7990,34
7991,34
7992,34
7993,34
7994,34
7995,34
7996,34
7997,34
7998,34
7999,34
8000,34
8001,34
8002,34
8003,34
8004,34
8005,34
8006,34
8007,34
8008,34
8009,35
8010,35
8011,35
8012,35
8013,34
8014,34
8015,34
8016,34
8017,34
8018,34
8019,34
8020,34
8021,34
8022,34
8023,34
8024,34
8025,34
8026,34
8027,34
8028,34
8029,34
8030,34
8031,34
8032,34
8033,34
8034,34
8035,34
8036,34
8037,34
8038,34
8039,34
8040,34
8041,34
8042,34
8043,34
8044,34
8045,34
8046,34
8047,34
8048,34
8049,34
8050,34
8051,35
8052,34
8053,34
8054,34
8055,34
8056,34
8057,34
8058,34
8059,34
8060,34
8061,34
8062,34
8063,34
8064,34
8065,34
8066,34
8067,34
8068,34
8069,34
8070,34
8071,34
8072,34
8073,34
8074,34
8075,34
8076,34
8077,35
8078,35
8079,34
8080,34
8081,34
8082,34
8083,34
8084,34
8085,34
8086,34
8087,34
8088,34
8089,34
8090,34
8091,35
8092,35
8093,35
8094,35
8095,35
8096,34
8097,34
8098,34
8099,34
8100,34
8101,34
8102,34
8103,34
8104,34
8105,34
8106,34
8107,34
8108,34
8109,34
8110,34
8111,35
8112,34
8113,34
8114,34
8115,35
8116,35
8117,35
8118,35
8119,34
8120,34
8121,34
8122,34
8123,34
8124,34
8125,35
8126,35
8127,34
8128,34
8129,35
8130,34
8131,34
8132,34
8133,34
8134,34
8135,34
8136,34
8137,34
8138,34
8139,34
8140,34
8141,34
8142,34
8143,34
8144,34
8145,35
8146,34
8147,34
8148,34
8149,34
8150,34
8151,34
8152,34
8153,34
8154,34
8155,34
8156,34
8157,34
8158,34
8159,34
8160,34
8161,34
8162,34
8163,35
8164,35
8165,35
8166,36
8167,36
8168,36
8169,35
8170,34
8171,34
8172,34
8173,35
8174,35
8175,36
8176,35
8177,34
8178,35
8179,35
8180,34
8181,34
8182,34
8183,34
8184,34
8185,34
8186,34
8187,34
8188,34
8189,35
8190,35
8191,35
8192,36
8193,36
8194,36
8195,36
8196,36
8197,36
8198,36
8199,36
8200,37
8201,36
8202,36
8203,36
8204,36
8205,36
8206,36
8207,36
8208,37
8209,37
8210,37
8211,36
8212,36
8213,36
8214,36
8215,36
8216,36
8217,36
8218,36
8219,36
8220,36
8221,36
8222,36
8223,36
8224,36
8225,36
8226,36
8227,36
8228,36
8229,36
8230,36
8231,36
8232,36
8233,36
8234,36
8235,36
8236,36
8237,36
8238,36
8239,36
8240,36
8241,36
8242,36
8243,36
8244,36
8245,36
8246,36
8247,36
8248,36
8249,36
8250,36
8251,37
8252,38
8253,36
8254,37
8255,37
8256,36
8257,36
8258,35
8259,35
8260,35
8261,35
8262,35
8263,35
8264,35
8265,35
8266,35
8267,35
8268,35
8269,35
8270,35
8271,35
8272,36
8273,35
8274,35
8275,35
8276,35
8277,35
8278,35
8279,36
8280,35
8281,35
8282,35
8283,35
8284,35
8285,35
8286,35
8287,35
8288,35
8289,35
8290,35
8291,35
8292,35
8293,35
8294,35
8295,35
8296,35
8297,35
8298,35
8299,35
8300,35
8301,35
8302,35
8303,35
8304,35
8305,35
8306,35
8307,35
8308,35
8309,35
8310,35
8311,36
8312,35
8313,35
8314,35
8315,35
8316,35
8317,35
8318,35
8319,35
8320,35
8321,35
8322,35
8323,35
8324,35
8325,35
8326,35
8327,35
8328,35
8329,35
8330,35
8331,35
8332,35
8333,35
8334,35
8335,35
8336,35
8337,36
8338,35
8339,35
8340,35
8341,35
8342,35
8343,35
8344,35
8345,35
8346,35
8347,35
8348,35
8349,35
8350,35
8351,35
8352,35
8353,35
8354,35
8355,36
8356,36
8357,35
8358,35
8359,35
8360,35
8361,35
8362,35
8363,35
8364,35
8365,35
8366,35
8367,36
8368,35
8369,35
8370,35
8371,35
8372,35
8373,35
8374,35
8375,35
8376,35
8377,35
8378,35
8379,35
8380,36
8381,36
8382,36
8383,35
8384,36
8385,35
8386,35
8387,35
8388,36
8389,35
8390,35
8391,35
8392,35
8393,35
8394,35
8395,35
8396,36
8397,36
8398,36
8399,36
8400,35
8401,35
8402,35
8403,35
8404,35
8405,35
8406,35
8407,35
8408,35
8409,35
8410,35
8411,35
8412,35
8413,35
8414,36
8415,35
8416,35
8417,35
8418,35
8419,35
8420,35
8421,36
8422,36
8423,35
8424,35
8425,35
8426,35
8427,35
8428,35
8429,35
8430,35
8431,35
8432,35
8433,35
8434,35
8435,35
8436,36
8437,36
8438,36
8439,36
8440,36
8441,36
8442,36
8443,35
8444,35
8445,35
8446,35
8447,35
8448,35
8449,35
8450,35
8451,35
8452,35
8453,35
8454,35
8455,35
8456,35
8457,35
8458,35
8459,35
8460,35
8461,35
8462,35
8463,35
8464,35
8465,35
8466,35
8467,35
8468,35
8469,35
8470,35
8471,35
8472,35
8473,35
8474,35
8475,35
8476,35
8477,36
8478,35
8479,35
8480,36
8481,37
8482,36
8483,35
8484,35
8485,35
8486,35
8487,35
8488,35
8489,35
8490,35
8491,35
8492,35
8493,35
8494,35
8495,35
8496,35
8497,35
8498,35
8499,35
8500,35
8501,35
8502,35
8503,36
8504,36
8505,36
8506,36
8507,36
8508,37
8509,35
8510,35
8511,35
8512,35
8513,35
8514,35
8515,35
8516,36
8517,36
8518,36
8519,35
8520,36
8521,36
8522,35
8523,36
8524,35
8525,35
8526,35
8527,35
8528,35
8529,35
8530,36
8531,36
8532,36
8533,36
8534,35
8535,35
8536,35
8537,35
8538,35
8539,35
8540,35
8541,35
8542,36
8543,36
8544,35
8545,35
8546,35
8547,35
8548,35
8549,35
8550,35
8551,35
8552,35
8553,35
8554,35
8555,35
8556,35
8557,35
8558,35
8559,35
8560,35
8561,35
8562,35
8563,36
8564,36
8565,36
8566,37
8567,35
8568,35
8569,35
8570,35
8571,35
8572,35
8573,35
8574,35
8575,35
8576,35
8577,35
8578,35
8579,35
8580,35
8581,36
8582,35
8583,36
8584,36
8585,36
8586,36
8587,36
8588,35
8589,35
8590,35
8591,35
8592,35
8593,35
8594,35
8595,35
8596,35
8597,35
8598,35
8599,35
8600,35
8601,35
8602,35
8603,35
8604,35
8605,35
8606,35
8607,35
8608,35
8609,35
8610,35
8611,35
8612,35
8613,35
8614,35
8615,35
8616,35
8617,35
8618,35
8619,35
8620,35
8621,35
8622,35
8623,35
8624,35
8625,35
8626,35
8627,36
8628,36
8629,36
8630,36
8631,36
8632,36
8633,36
8634,36
8635,36
8636,36
8637,36
8638,36
8639,36
8640,36
8641,36
8642,37
8643,36
8644,36
8645,36
8646,36
8647,36
8648,36
8649,37
8650,38
8651,36
8652,36
8653,36
8654,36
8655,36
8656,36
8657,37
8658,36
8659,36
8660,36
8661,36
8662,36
8663,36
8664,36
8665,36
8666,36
8667,36
8668,36
8669,36
8670,36
8671,36
8672,36
8673,36
8674,36
8675,36
8676,36
8677,36
8678,36
8679,36
8680,36
8681,36
8682,36
8683,36
8684,36
8685,36
8686,36
8687,36
8688,36
8689,36
8690,38
8691,37
8692,37
8693,37
8694,37
8695,37
8696,36
8697,36
8698,36
8699,36
8700,36
8701,36
8702,36
8703,36
8704,37
8705,36
8706,36
8707,36
8708,36
8709,36
8710,36
8711,36
8712,36
8713,36
8714,36
8715,36
8716,36
8717,36
8718,36
8719,36
8720,36
8721,36
8722,36
8723,36
8724,37
8725,37
8726,36
8727,36
8728,36
8729,37
8730,36
8731,36
8732,36
8733,36
8734,36
8735,36
8736,36
8737,36
8738,36
8739,36
8740,36
8741,36
8742,36
8743,36
8744,36
8745,36
8746,36
8747,36
8748,36
8749,36
8750,36
8751,36
8752,36
8753,36
8754,36
8755,36
8756,36
8757,36
8758,36
8759,36
8760,36
8761,36
8762,36
8763,36
8764,36
8765,36
8766,36
8767,36
8768,36
8769,36
8770,36
8771,36
8772,36
8773,36
8774,36
8775,36
8776,36
8777,36
8778,36
8779,36
8780,36
8781,36
8782,36
8783,36
8784,36
8785,36
8786,37
8787,37
8788,36
8789,36
8790,36
8791,37
8792,37
8793,36
8794,36
8795,36
8796,36
8797,36
8798,36
8799,36
8800,36
8801,36
8802,36
8803,36
8804,36
8805,36
8806,36
8807,36
8808,37
8809,37
8810,37
8811,37
8812,36
8813,36
8814,36
8815,36
8816,36
8817,36
8818,36
8819,36
8820,36
8821,36
8822,37
8823,37
8824,37
8825,37
8826,36
8827,36
8828,36
8829,36
8830,36
8831,36
8832,36
8833,36
8834,36
8835,36
8836,36
8837,36
8838,36
8839,36
8840,37
8841,36
8842,36
8843,36
8844,36
8845,36
8846,37
8847,36
8848,37
8849,36
8850,36
8851,36
8852,36
8853,36
8854,36
8855,36
8856,36
8857,36
8858,36
8859,36
8860,36
8861,36
8862,36
8863,36
8864,36
8865,36
8866,36
8867,37
8868,36
8869,36
8870,36
8871,36
8872,36
8873,36
8874,36
8875,36
8876,37
8877,37
8878,37
8879,37
8880,37
8881,37
8882,36
8883,36
8884,36
8885,36
8886,36
8887,36
8888,36
8889,36
8890,36
8891,36
8892,37
8893,36
8894,36
8895,36
8896,36
8897,36
8898,36
8899,36
8900,36
8901,36
8902,36
8903,36
8904,36
8905,36
8906,36
8907,36
8908,36
8909,36
8910,36
8911,36
8912,36
8913,36
8914,36
8915,36
8916,36
8917,36
8918,36
8919,36
8920,36
8921,36
8922,36
8923,36
8924,36
8925,36
8926,36
8927,36
8928,36
8929,36
8930,36
8931,36
8932,36
8933,36
8934,36
8935,36
8936,36
8937,36
8938,36
8939,36
8940,36
8941,36
8942,36
8943,36
8944,36
8945,36
8946,36
8947,37
8948,37
8949,37
8950,37
8951,36
8952,36
8953,36
8954,36
8955,37
8956,36
8957,36
8958,36
8959,36
8960,36
8961,36
8962,36
8963,36
8964,36
8965,36
8966,36
8967,36
8968,36
8969,36
8970,36
8971,36
8972,36
8973,36
8974,36
8975,36
8976,36
8977,36
8978,36
8979,36
8980,36
8981,36
8982,36
8983,36
8984,37
8985,37
8986,37
8987,37
8988,37
8989,38
8990,37
8991,37
8992,37
8993,37
8994,37
8995,37
8996,37
8997,37
8998,37
8999,37
9000,37
9001,37
9002,37
9003,37
9004,37
9005,37
9006,37
9007,36
9008,37
9009,36
9010,36
9011,36
9012,36
9013,36
9014,36
9015,36
9016,36
9017,36
9018,36
9019,36
9020,36
9021,36
9022,36
9023,36
9024,36
9025,36
9026,36
9027,36
9028,36
9029,37
9030,38
9031,38
9032,37
9033,36
9034,36
9035,36
9036,36
9037,36
9038,36
9039,36
9040,36
9041,36
9042,36
9043,36
9044,36
9045,36
9046,36
9047,37
9048,36
9049,36
9050,36
9051,36
9052,36
9053,36
9054,36
9055,36
9056,36
9057,36
9058,36
9059,36
9060,36
9061,36
9062,36
9063,36
9064,37
9065,37
9066,37
9067,37
9068,37
9069,37
9070,37
9071,37
9072,37
9073,37
9074,37
9075,37
9076,37
9077,37
9078,37
9079,37
9080,37
9081,38
9082,38
9083,38
9084,38
9085,38
9086,36
9087,36
9088,36
9089,36
9090,36
9091,36
9092,37
9093,37
9094,36
9095,36
9096,36
9097,36
9098,36
9099,36
9100,37
9101,36
9102,36
9103,36
9104,36
9105,36
9106,36
9107,36
9108,36
9109,36
9110,36
9111,36
9112,36
9113,36
9114,36
9115,36
9116,36
9117,36
9118,36
9119,36
9120,36
9121,36
9122,36
9123,36
9124,36
9125,36
9126,36
9127,36
9128,36
9129,37
9130,36
9131,36
9132,36
9133,36
9134,36
9135,36
9136,36
9137,36
9138,36
9139,36
9140,36
9141,36
9142,36
9143,36
9144,36
9145,36
9146,36
9147,36
9148,36
9149,36
9150,36
9151,36
9152,36
9153,36
9154,36
9155,36
9156,36
9157,36
9158,36
9159,36
9160,36
9161,37
9162,36
9163,36
9164,36
9165,36
9166,36
9167,36
9168,36
9169,36
9170,36
9171,36
9172,36
9173,36
9174,36
9175,36
9176,36
9177,36
9178,36
9179,36
9180,37
9181,37
9182,36
9183,36
9184,36
9185,36
9186,36
9187,36
9188,36
9189,36
9190,36
9191,36
9192,36
9193,36
9194,36
9195,36
9196,37
9197,37
9198,37
9199,36
9200,36
9201,36
9202,36
9203,36
9204,36
9205,36
9206,36
9207,36
9208,36
9209,36
9210,36
9211,36
9212,36
9213,36
9214,36
9215,35
9216,35
9217,35
9218,35
9219,35
9220,35
9221,35
9222,35
9223,35
9224,35
9225,35
9226,35
9227,36
9228,36
9229,36
9230,36
9231,36
9232,36
9233,36
9234,36
9235,36
9236,36
9237,36
9238,36
9239,35
9240,35
9241,35
9242,35
9243,35
9244,36
9245,35
9246,35
9247,35
9248,35
9249,35
9250,35
9251,35
9252,35
9253,35
9254,35
9255,35
9256,35
9257,35
9258,35
9259,35
9260,35
9261,35
9262,35
9263,35
9264,35
9265,35
9266,35
9267,35
9268,35
9269,35
9270,35
9271,35
9272,35
9273,35
9274,35
9275,35
9276,35
9277,35
9278,35
9279,35
9280,35
9281,35
9282,35
9283,35
9284,35
9285,35
9286,35
9287,35
9288,35
9289,35
9290,35
9291,35
9292,35
9293,35
9294,36
9295,36
9296,36
9297,36
9298,36
9299,36
9300,36
9301,36
9302,36
9303,36
9304,36
9305,36
9306,35
9307,35
9308,36
9309,36
9310,36
9311,36
9312,37
9313,36
9314,37
9315,38
9316,37
9317,37
9318,37
9319,38
9320,38
9321,38
9322,38
9323,37
9324,37
9325,37
9326,37
9327,37
9328,37
9329,38
9330,38
9331,37
9332,37
9333,37
9334,37
9335,37
9336,37
9337,37
9338,37
9339,37
9340,37
9341,37
9342,37
9343,37
9344,37
9345,37
9346,37
9347,37
9348,37
9349,37
9350,37
9351,37
9352,37
9353,37
9354,37
9355,37
9356,37
9357,37
9358,37
9359,37
9360,37
9361,36
9362,36
9363,36
9364,36
9365,36
9366,36
9367,36
9368,36
9369,36
9370