1,3
2,3
3,4
4,4
5,4
6,4
7,4
8,4
9,4
10,5
11,5
12,5
13,6
14,6
15,6
16,7
17,7
18,7
19,7
20,7
21,7
22,7
23,7
24,7
25,7
26,7
27,7
28,7
29,7
30,7
31,7
32,7
33,7
34,7
35,7
36,7
37,7
38,7
39,7
40,7
41,7
42,7
43,7
44,7
45,7
46,7
47,7
48,7
49,7
50,8
51,7
52,7
53,7
54,7
55,7
56,8
57,8
58,9
59,9
60,9
61,9
62,9
63,9
64,9
65,9
66,9
67,9
68,8
69,8
70,8
71,8
72,8
73,8
74,8
75,8
76,8
77,8
78,8
79,8
80,8
81,8
82,8
83,8
84,9
85,8
86,8
87,8
88,8
89,8
90,9
91,9
92,8
93,8
94,8
95,9
96,9
97,9
98,9
99,9
100,9
101,8
102,8
103,8
104,8
105,8
106,8
107,8
108,8
109,8
110,8
111,9
112,9
113,9
114,9
115,9
116,8
117,9
118,10
119,10
120,8
121,8
122,8
123,8
124,8
125,8
126,8
127,8
128,8
129,8
130,8
131,8
132,8
133,8
134,8
135,8
136,8
137,8
138,8
139,8
140,8
141,8
142,8
143,8
144,8
145,9
146,9
147,9
148,9
149,9
150,9
151,9
152,9
153,9
154,9
155,9
156,9
157,9
158,9
159,9
160,9
161,9
162,9
163,9
164,9
165,9
166,9
167,9
168,9
169,10
170,10
171,10
172,10
173,10
174,10
175,10
176,10
177,9
178,9
179,9
180,9
181,10
182,10
183,10
184,10
185,10
186,10
187,10
188,10
189,10
190,10
191,10
192,11
193,11
194,10
195,10
196,10
197,10
198,10
199,10
200,10
201,10
202,11
203,11
204,11
205,11
206,11
207,11
208,11
209,11
210,11
211,11
212,11
213,10
214,10
215,10
216,10
217,10
218,10
219,10
220,10
221,10
222,10
223,10
224,10
225,10
226,10
227,10
228,10
229,10
230,10
231,11
232,11
233,11
234,11
235,11
236,11
237,11
238,11
239,11
240,11
241,11
242,11
243,12
244,12
245,12
246,12
247,12
248,12
249,12
250,12
251,12
252,12
253,12
254,12
255,13
256,13
257,13
258,13
259,13
260,13
261,13
262,12
263,12
264,12
265,12
266,12
267,12
268,12
269,12
270,12
271,12
272,12
273,12
274,12
275,12
276,12
277,12
278,12
279,12
280,12
281,12
282,12
283,12
284,12
285,12
286,12
287,12
288,12
289,12
290,12
291,14
292,13
293,13
294,13
295,13
296,13
297,12
298,13
299,13
300,13
301,13
302,13
303,12
304,12
305,12
306,12
307,12
308,12
309,12
310,12
311,12
312,12
313,12
314,12
315,12
316,13
317,13
318,13
319,13
320,12
321,12
322,12
323,12
324,12
325,12
326,12
327,12
328,12
329,12
330,12
331,12
332,12
333,12
334,12
335,12
336,13
337,12
338,12
339,12
340,12
341,12
342,12
343,13
344,13
345,13
346,13
347,13
348,12
349,12
350,12
351,12
352,12
353,12
354,12
355,12
356,12
357,13
358,12
359,12
360,12
361,12
362,12
363,12
364,12
365,12
366,12
367,12
368,12
369,13
370,14
371,14
372,14
373,15
374,14
375,14
376,14
377,14
378,14
379,14
380,14
381,15
382,15
383,15
384,15
385,15
386,15
387,15
388,15
389,15
390,15
391,15
392,15
393,15
394,15
395,15
396,15
397,15
398,15
399,15
400,16
401,16
402,16
403,15
404,15
405,15
406,15
407,15
408,15
409,15
410,15
411,15
412,15
413,15
414,16
415,16
416,16
417,15
418,16
419,15
420,15
421,15
422,15
423,15
424,15
425,15
426,15
427,15
428,15
429,15
430,15
431,15
432,15
433,15
434,15
435,15
436,15
437,15
438,15
439,15
440,15
441,15
442,15
443,15
444,16
445,16
446,16
447,16
448,16
449,16
450,15
451,15
452,15
453,15
454,16
455,16
456,16
457,16
458,16
459,16
460,16
461,16
462,16
463,16
464,16
465,16
466,16
467,16
468,16
469,17
470,17
471,17
472,17
473,17
474,17
475,16
476,16
477,16
478,16
479,16
480,16
481,16
482,17
483,16
484,16
485,16
486,16
487,16
488,16
489,16
490,16
491,16
492,16
493,16
494,16
495,16
496,16
497,16
498,16
499,16
500,16
501,16
502,16
503,16
504,16
505,16
506,16
507,16
508,16
509,16
510,16
511,16
512,16
513,16
514,16
515,18
516,17
517,16
518,16
519,17
520,17
521,17
522,17
523,18
524,18
525,18
526,17
527,17
528,17
529,17
530,17
531,17
532,17
533,17
534,17
535,17
536,17
537,17
538,17
539,17
540,17
541,18
542,18
543,18
544,17
545,17
546,17
547,17
548,17
549,18
550,18
551,18
552,18
553,18
554,18
555,19
556,19
557,19
558,19
559,18
560,18
561,17
562,17
563,17
564,17
565,17
566,17
567,17
568,17
569,17
570,17
571,17
572,17
573,17
574,17
575,17
576,17
577,17
578,17
579,17
580,17
581,17
582,17
583,17
584,17
585,18
586,18
587,17
588,17
589,17
590,17
591,17
592,17
593,17
594,18
595,17
596,17
597,17
598,17
599,17
600,17
601,18
602,18
603,18
604,18
605,17
606,17
607,17
608,17
609,17
610,17
611,17
612,17
613,17
614,17
615,17
616,17
617,17
618,17
619,17
620,17
621,17
622,17
623,18
624,18
625,17
626,18
627,18
628,18
629,18
630,18
631,18
632,18
633,18
634,19
635,19
636,18
637,18
638,18
639,18
640,18
641,19
642,19
643,18
644,17
645,17
646,17
647,17
648,17
649,17
650,17
651,18
652,19
653,19
654,19
655,18
656,17
657,17
658,17
659,17
660,18
661,18
662,18
663,18
664,18
665,18
666,18
667,18
668,18
669,18
670,19
671,19
672,19
673,19
674,19
675,18
676,18
677,18
678,18
679,18
680,18
681,18
682,18
683,18
684,18
685,18
686,18
687,18
688,18
689,18
690,18
691,18
692,18
693,18
694,18
695,18
696,18
697,18
698,18
699,18
700,18
701,18
702,18
703,19
704,18
705,18
706,18
707,18
708,18
709,18
710,18
711,18
712,18
713,18
714,18
715,18
716,18
717,18
718,18
719,18
720,18
721,18
722,18
723,18
724,18
725,18
726,18
727,19
728,19
729,19
730,19
731,19
732,18
733,18
734,18
735,18
736,18
737,18
738,18
739,18
740,18
741,18
742,18
743,18
744,18
745,18
746,18
747,18
748,18
749,18
750,18
751,18
752,18
753,18
754,18
755,18
756,18
757,18
758,18
759,18
760,18
761,18
762,18
763,18
764,18
765,18
766,18
767,18
768,18
769,18
770,18
771,18
772,18
773,19
774,19
775,18
776,18
777,18
778,18
779,19
780,19
781,19
782,19
783,19
784,20
785,19
786,19
787,19
788,19
789,19
790,19
791,19
792,19
793,19
794,19
795,19
796,19
797,19
798,19
799,19
800,19
801,19
802,19
803,19
804,19
805,19
806,19
807,19
808,19
809,19
810,19
811,19
812,19
813,19
814,19
815,20
816,20
817,19
818,20
819,20
820,19
821,19
822,19
823,19
824,19
825,19
826,19
827,19
828,19
829,19
830,19
831,19
832,19
833,19
834,19
835,20
836,20
837,20
838,20
839,19
840,19
841,19
842,19
843,19
844,19
845,19
846,19
847,19
848,19
849,19
850,19
851,19
852,21
853,20
854,20
855,20
856,20
857,20
858,20
859,20
860,20
861,20
862,21
863,21
864,19
865,19
866,19
867,19
868,19
869,19
870,19
871,19
872,19
873,19
874,19
875,19
876,19
877,19
878,19
879,19
880,19
881,19
882,19
883,19
884,19
885,19
886,19
887,19
888,19
889,19
890,19
891,19
892,19
893,19
894,19
895,19
896,19
897,19
898,19
899,19
900,19
901,19
902,19
903,19
904,19
905,19
906,19
907,19
908,19
909,19
910,19
911,19
912,19
913,19
914,19
915,19
916,19
917,20
918,20
919,20
920,20
921,20
922,20
923,20
924,20
925,20
926,19
927,19
928,20
929,19
930,19
931,19
932,19
933,19
934,19
935,19
936,19
937,19
938,20
939,20
940,20
941,20
942,20
943,20
944,20
945,19
946,19
947,19
948,19
949,19
950,19
951,19
952,19
953,19
954,19
955,19
956,19
957,19
958,19
959,19
960,19
961,19
962,19
963,19
964,19
965,19
966,19
967,19
968,19
969,19
970,19
971,19
972,19
973,19
974,20
975,20
976,19
977,19
978,19
979,19
980,19
981,19
982,19
983,19
984,20
985,19
986,19
987,19
988,19
989,19
990,19
991,19
992,19
993,19
994,19
995,19
996,19
997,19
998,19
999,19
1000,19
1001,19
1002,19
1003,19
1004,19
1005,19
1006,19
1007,19
1008,19
1009,19
1010,19
1011,19
1012,19
1013,19
1014,20
1015,19
1016,19
1017,19
1018,19
1019,19
1020,19
1021,20
1022,19
1023,19
1024,19
1025,19
1026,19
1027,19
1028,19
1029,20
1030,20
1031,20
1032,19
1033,19
1034,19
1035,19
1036,19
1037,19
1038,19
1039,19
1040,19
1041,19
1042,19
1043,19
1044,19
1045,19
1046,19
1047,19
1048,19
1049,19
1050,20
1051,19
1052,19
1053,19
1054,19
1055,19
1056,19
1057,20
1058,20
1059,20
1060,20
1061,20
1062,20
1063,20
1064,20
1065,20
1066,21
1067,21
1068,20
1069,20
1070,20
1071,20
1072,20
1073,20
1074,20
1075,20
1076,20
1077,20
1078,20
1079,20
1080,20
1081,20
1082,21
1083,22
1084,20
1085,19
1086,20
1087,19
1088,19
1089,19
1090,19
1091,21
1092,21
1093,21
1094,21
1095,21
1096,21
1097,21
1098,21
1099,21
1100,21
1101,21
1102,21
1103,21
1104,22
1105,22
1106,21
1107,21
1108,21
1109,21
1110,21
1111,21
1112,21
1113,21
1114,21
1115,21
1116,21
1117,21
1118,21
1119,21
1120,21
1121,22
1122,22
1123,22
1124,22
1125,23
1126,23
1127,23
1128,23
1129,22
1130,23
1131,23
1132,22
1133,22
1134,22
1135,22
1136,22
1137,22
1138,22
1139,22
1140,22
1141,21
1142,21
1143,21
1144,21
1145,21
1146,21
1147,21
1148,21
1149,21
1150,21
1151,21
1152,21
1153,21
1154,21
1155,21
1156,21
1157,21
1158,21
1159,21
1160,21
1161,21
1162,21
1163,21
1164,21
1165,21
1166,21
1167,21
1168,21
1169,21
1170,21
1171,21
1172,21
1173,21
1174,21
1175,21
1176,21
1177,21
1178,22
1179,22
1180,21
1181,21
1182,21
1183,21
1184,21
1185,22
1186,22
1187,22
1188,21
1189,21
1190,21
1191,21
1192,21
1193,21
1194,21
1195,21
1196,21
1197,21
1198,21
1199,21
1200,21
1201,21
1202,21
1203,22
1204,21
1205,21
1206,21
1207,21
1208,21
1209,21
1210,21
1211,21
1212,22
1213,21
1214,21
1215,21
1216,21
1217,21
1218,21
1219,21
1220,21
1221,21
1222,21
1223,22
1224,21
1225,21
1226,21
1227,21
1228,21
1229,23
1230,23
1231,23
1232,22
1233,22
1234,22
1235,22
1236,22
1237,23
1238,23
1239,23
1240,22
1241,22
1242,22
1243,22
1244,22
1245,22
1246,22
1247,22
1248,22
1249,22
1250,22
1251,22
1252,22
1253,22
1254,23
1255,23
1256,23
1257,22
1258,22
1259,22
1260,22
1261,22
1262,22
1263,22
1264,23
1265,23
1266,23
1267,23
1268,23
1269,23
1270,23
1271,23
1272,23
1273,23
1274,24
1275,24
1276,24
1277,24
1278,24
1279,24
1280,24
1281,24
1282,25
1283,25
1284,25
1285,25
1286,24
1287,23
1288,23
1289,23
1290,22
1291,22
1292,21
1293,21
1294,21
1295,21
1296,21
1297,21
1298,21
1299,21
1300,21
1301,21
1302,21
1303,21
1304,21
1305,22
1306,22
1307,22
1308,22
1309,22
1310,22
1311,22
1312,23
1313,23
1314,22
1315,22
1316,22
1317,22
1318,22
1319,22
1320,22
1321,22
1322,23
1323,22
1324,22
1325,22
1326,22
1327,22
1328,22
1329,22
1330,22
1331,22
1332,22
1333,22
1334,22
1335,22
1336,22
1337,22
1338,22
1339,22
1340,22
1341,22
1342,22
1343,22
1344,22
1345,22
1346,22
1347,22
1348,22
1349,22
1350,22
1351,22
1352,22
1353,22
1354,22
1355,22
1356,22
1357,22
1358,22
1359,22
1360,22
1361,22
1362,22
1363,22
1364,22
1365,22
1366,22
1367,23
1368,23
1369,23
1370,23
1371,22
1372,22
1373,22
1374,22
1375,22
1376,22
1377,23
1378,22
1379,22
1380,22
1381,22
1382,22
1383,22
1384,22
1385,22
1386,22
1387,22
1388,22
1389,22
1390,22
1391,22
1392,22
1393,22
1394,22
1395,22
1396,22
1397,23
1398,22
1399,23
1400,22
1401,22
1402,22
1403,22
1404,22
1405,22
1406,22
1407,22
1408,22
1409,22
1410,22
1411,22
1412,22
1413,22
1414,22
1415,22
1416,22
1417,22
1418,22
1419,22
1420,22
1421,22
1422,22
1423,23
1424,22
1425,22
1426,22
1427,22
1428,22
1429,22
1430,22
1431,22
1432,22
1433,22
1434,22
1435,22
1436,22
1437,22
1438,22
1439,22
1440,22
1441,22
1442,22
1443,22
1444,22
1445,22
1446,22
1447,22
1448,22
1449,22
1450,22
1451,22
1452,22
1453,22
1454,23
1455,22
1456,22
1457,22
1458,22
1459,22
1460,22
1461,22
1462,22
1463,22
1464,22
1465,22
1466,22
1467,22
1468,22
1469,22
1470,22
1471,22
1472,22
1473,24
1474,23
1475,23
1476,23
1477,22
1478,22
1479,22
1480,22
1481,22
1482,22
1483,23
1484,22
1485,22
1486,22
1487,22
1488,22
1489,22
1490,22
1491,22
1492,22
1493,22
1494,22
1495,22
1496,22
1497,22
1498,22
1499,23
1500,23
1501,23
1502,23
1503,23
1504,23
1505,22
1506,22
1507,22
1508,22
1509,22
1510,22
1511,22
1512,22
1513,22
1514,23
1515,23
1516,22
1517,22
1518,23
1519,22
1520,22
1521,22
1522,22
1523,22
1524,22
1525,22
1526,22
1527,22
1528,22
1529,22
1530,22
1531,22
1532,22
1533,22
1534,22
1535,22
1536,22
1537,23
1538,24
1539,23
1540,23
1541,23
1542,23
1543,22
1544,22
1545,22
1546,22
1547,22
1548,22
1549,22
1550,22
1551,22
1552,22
1553,22
1554,23
1555,23
1556,24
1557,24
1558,24
1559,24
1560,24
1561,23
1562,23
1563,23
1564,22
1565,22
1566,23
1567,22
1568,22
1569,22
1570,22
1571,22
1572,22
1573,23
1574,22
1575,22
1576,22
1577,22
1578,22
1579,22
1580,22
1581,22
1582,22
1583,22
1584,22
1585,22
1586,22
1587,22
1588,22
1589,22
1590,22
1591,22
1592,22
1593,23
1594,23
1595,23
1596,23
1597,23
1598,24
1599,24
1600,23
1601,23
1602,23
1603,23
1604,23
1605,23
1606,22
1607,23
1608,22
1609,22
1610,22
1611,22
1612,22
1613,22
1614,22
1615,22
1616,22
1617,22
1618,23
1619,23
1620,23
1621,23
1622,23
1623,23
1624,23
1625,22
1626,22
1627,22
1628,22
1629,23
1630,22
1631,23
1632,22
1633,22
1634,22
1635,22
1636,22
1637,22
1638,22
1639,22
1640,22
1641,22
1642,22
1643,22
1644,22
1645,22
1646,22
1647,22
1648,22
1649,22
1650,22
1651,22
1652,22
1653,22
1654,22
1655,22
1656,22
1657,22
1658,22
1659,22
1660,22
1661,22
1662,22
1663,22
1664,22
1665,22
1666,22
1667,22
1668,22
1669,22
1670,22
1671,22
1672,22
1673,22
1674,22
1675,22
1676,22
1677,22
1678,22
1679,22
1680,22
1681,22
1682,22
1683,22
1684,22
1685,23
1686,23
1687,22
1688,22
1689,22
1690,22
1691,22
1692,22
1693,22
1694,22
1695,22
1696,22
1697,23
1698,22
1699,23
1700,23
1701,22
1702,22
1703,22
1704,22
1705,22
1706,22
1707,22
1708,22
1709,22
1710,22
1711,22
1712,22
1713,22
1714,22
1715,22
1716,23
1717,23
1718,23
1719,22
1720,22
1721,22
1722,22
1723,22
1724,22
1725,22
1726,22
1727,22
1728,22
1729,22
1730,22
1731,22
1732,22
1733,22
1734,22
1735,22
1736,22
1737,22
1738,22
1739,22
1740,22
1741,22
1742,23
1743,23
1744,23
1745,22
1746,23
1747,23
1748,22
1749,22
1750,22
1751,22
1752,22
1753,23
1754,23
1755,22
1756,22
1757,23
1758,23
1759,23
1760,22
1761,22
1762,22
1763,22
1764,22
1765,22
1766,22
1767,23
1768,22
1769,22
1770,22
1771,22
1772,22
1773,22
1774,23
1775,23
1776,23
1777,23
1778,23
1779,23
1780,23
1781,23
1782,23
1783,23
1784,23
1785,23
1786,23
1787,23
1788,23
1789,23
1790,23
1791,23
1792,23
1793,23
1794,23
1795,23
1796,23
1797,23
1798,23
1799,24
1800,24
1801,25
1802,24
1803,24
1804,24
1805,24
1806,23
1807,23
1808,23
1809,23
1810,23
1811,23
1812,23
1813,23
1814,24
1815,24
1816,23
1817,23
1818,23
1819,23
1820,23
1821,23
1822,23
1823,25
1824,24
1825,23
1826,23
1827,23
1828,23
1829,23
1830,23
1831,23
1832,23
1833,23
1834,23
1835,23
1836,23
1837,23
1838,23
1839,23
1840,23
1841,23
1842,23
1843,23
1844,23
1845,23
1846,23
1847,23
1848,23
1849,24
1850,23
1851,23
1852,24
1853,24
1854,24
1855,23
1856,23
1857,23
1858,23
1859,23
1860,23
1861,23
1862,23
1863,23
1864,23
1865,23
1866,23
1867,23
1868,23
1869,23
1870,23
1871,23
1872,23
1873,23
1874,23
1875,23
1876,23
1877,23
1878,23
1879,23
1880,23
1881,23
1882,23
1883,23
1884,23
1885,23
1886,23
1887,23
1888,23
1889,23
1890,23
1891,23
1892,23
1893,23
1894,23
1895,23
1896,23
1897,23
1898,23
1899,23
1900,23
1901,23
1902,23
1903,23
1904,23
1905,23
1906,23
1907,23
1908,23
1909,23
1910,23
1911,23
1912,23
1913,24
1914,24
1915,24
1916,23
1917,23
1918,23
1919,23
1920,23
1921,23
1922,23
1923,23
1924,23
1925,23
1926,23
1927,23
1928,23
1929,23
1930,23
1931,23
1932,23
1933,23
1934,23
1935,23
1936,23
1937,23
1938,23
1939,23
1940,23
1941,23
1942,23
1943,23
1944,23
1945,23
1946,23
1947,23
1948,23
1949,23
1950,23
1951,23
1952,23
1953,23
1954,23
1955,23
1956,24
1957,25
1958,23
1959,23
1960,23
1961,24
1962,24
1963,23
1964,23
1965,23
1966,23
1967,23
1968,23
1969,23
1970,23
1971,23
1972,23
1973,23
1974,24
1975,23
1976,23
1977,23
1978,23
1979,23
1980,23
1981,23
1982,23
1983,23
1984,24
1985,25
1986,26
1987,24
1988,24
1989,24
1990,24
1991,24
1992,24
1993,24
1994,25
1995,24
1996,24
1997,24
1998,24
1999,24
2000,24
2001,24
2002,24
2003,24
2004,24
2005,24
2006,24
2007,23
2008,23
2009,23
2010,23
2011,23
2012,23
2013,23
2014,23
2015,23
2016,23
2017,23
2018,23
2019,23
2020,23
2021,24
2022,24
2023,24
2024,24
2025,24
2026,24
2027,24
2028,24
2029,24
2030,24
2031,24
2032,24
2033,24
2034,23
2035,23
2036,23
2037,23
2038,24
2039,24
2040,24
2041,24
2042,24
2043,24
2044,24
2045,24
2046,24
2047,24
2048,24
2049,24
2050,24
2051,24
2052,24
2053,23
2054,23
2055,24
2056,23
2057,23
2058,23
2059,23
2060,23
2061,23
2062,23
2063,23
2064,23
2065,23
2066,23
2067,24
2068,25
2069,25
2070,25
2071,25
2072,25
2073,24
2074,24
2075,24
2076,24
2077,24
2078,24
2079,24
2080,24
2081,24
2082,24
2083,24
2084,24
2085,24
2086,24
2087,24
2088,24
2089,25
2090,25
2091,24
2092,24
2093,24
2094,24
2095,24
2096,24
2097,24
2098,25
2099,24
2100,24
2101,24
2102,25
2103,25
2104,24
2105,24
2106,24
2107,24
2108,24
2109,24
2110,24
2111,24
2112,24
2113,24
2114,24
2115,24
2116,24
2117,24
2118,24
2119,24
2120,24
2121,24
2122,24
2123,24
2124,24
2125,24
2126,24
2127,24
2128,24
2129,24
2130,24
2131,24
2132,24
2133,24
2134,25
2135,25
2136,25
2137,25
2138,25
2139,25
2140,24
2141,24
2142,24
2143,24
2144,24
2145,24
2146,24
2147,24
2148,24
2149,24
2150,24
2151,24
2152,24
2153,24
2154,24
2155,24
2156,24
2157,24
2158,24
2159,24
2160,24
2161,24
2162,24
2163,24
2164,24
2165,24
2166,24
2167,24
2168,24
2169,24
2170,24
2171,24
2172,24
2173,24
2174,24
2175,24
2176,24
2177,24
2178,24
2179,24
2180,24
2181,24
2182,24
2183,24
2184,24
2185,24
2186,24
2187,24
2188,24
2189,24
2190,24
2191,24
2192,24
2193,24
2194,24
2195,24
2196,24
2197,24
2198,24
2199,24
2200,24
2201,24
2202,24
2203,24
2204,24
2205,24
2206,24
2207,24
2208,24
2209,24
2210,24
2211,24
2212,24
2213,24
2214,24
2215,24
2216,24
2217,24
2218,24
2219,24
2220,24
2221,24
2222,24
2223,24
2224,24
2225,24
2226,24
2227,24
2228,24
2229,25
2230,25
2231,25
2232,25
2233,26
2234,26
2235,25
2236,26
2237,24
2238,24
2239,24
2240,24
2241,24
2242,24
2243,24
2244,24
2245,24
2246,24
2247,24
2248,24
2249,24
2250,24
2251,24
2252,24
2253,24
2254,24
2255,24
2256,24
2257,24
2258,24
2259,24
2260,24
2261,24
2262,24
2263,24
2264,24
2265,24
2266,24
2267,24
2268,24
2269,24
2270,24
2271,24
2272,24
2273,24
2274,24
2275,24
2276,24
2277,25
2278,26
2279,26
2280,26
2281,26
2282,26
2283,26
2284,26
2285,26
2286,26
2287,26
2288,26
2289,26
2290,26
2291,26
2292,26
2293,26
2294,26
2295,27
2296,26
2297,26
2298,26
2299,26
2300,26
2301,26
2302,26
2303,25
2304,25
2305,25
2306,25
2307,25
2308,25
2309,25
2310,25
2311,25
2312,25
2313,25
2314,25
2315,25
2316,25
2317,25
2318,25
2319,25
2320,25
2321,25
2322,25
2323,25
2324,26
2325,25
2326,25
2327,25
2328,25
2329,25
2330,25
2331,25
2332,25
2333,25
2334,25
2335,25
2336,25
2337,25
2338,25
2339,25
2340,25
2341,25
2342,25
2343,25
2344,25
2345,25
2346,25
2347,25
2348,25
2349,25
2350,25
2351,25
2352,25
2353,25
2354,25
2355,25
2356,25
2357,25
2358,25
2359,25
2360,25
2361,25
2362,25
2363,25
2364,25
2365,25
2366,25
2367,25
2368,25
2369,25
2370,25
2371,25
2372,25
2373,26
2374,25
2375,25
2376,25
2377,25
2378,26
2379,25
2380,25
2381,25
2382,25
2383,25
2384,25
2385,25
2386,25
2387,25
2388,25
2389,25
2390,25
2391,25
2392,25
2393,25
2394,25
2395,25
2396,25
2397,26
2398,26
2399,27
2400,27
2401,27
2402,27
2403,27
2404,27
2405,27
2406,27
2407,27
2408,27
2409,27
2410,27
2411,25
2412,25
2413,25
2414,25
2415,26
2416,25
2417,25
2418,25
2419,25
2420,25
2421,25
2422,25
2423,25
2424,25
2425,25
2426,25
2427,25
2428,25
2429,25
2430,25
2431,25
2432,25
2433,25
2434,25
2435,25
2436,25
2437,25
2438,26
2439,26
2440,26
2441,25
2442,25
2443,25
2444,25
2445,25
2446,25
2447,26
2448,25
2449,26
2450,25
2451,25
2452,26
2453,25
2454,25
2455,25
2456,25
2457,25
2458,25
2459,25
2460,25
2461,25
2462,25
2463,25
2464,25
2465,25
2466,25
2467,25
2468,25
2469,25
2470,25
2471,25
2472,25
2473,25
2474,26
2475,26
2476,26
2477,26
2478,26
2479,26
2480,26
2481,26
2482,26
2483,26
2484,26
2485,26
2486,26
2487,26
2488,26
2489,26
2490,26
2491,26
2492,26
2493,26
2494,26
2495,26
2496,26
2497,27
2498,27
2499,27
2500,27
2501,27
2502,27
2503,27
2504,27
2505,26
2506,27
2507,28
2508,27
2509,26
2510,26
2511,26
2512,26
2513,26
2514,26
2515,26
2516,26
2517,26
2518,26
2519,26
2520,26
2521,26
2522,26
2523,26
2524,26
2525,26
2526,26
2527,26
2528,26
2529,28
2530,28
2531,28
2532,28
2533,28
2534,28
2535,27
2536,27
2537,27
2538,27
2539,28
2540,26
2541,26
2542,26
2543,27
2544,26
2545,26
2546,26
2547,26
2548,26
2549,26
2550,26
2551,26
2552,26
2553,26
2554,26
2555,26
2556,26
2557,26
2558,26
2559,26
2560,26
2561,26
2562,26
2563,26
2564,26
2565,26
2566,27
2567,27
2568,27
2569,27
2570,27
2571,27
2572,27
2573,27
2574,27
2575,27
2576,27
2577,27
2578,28
2579,27
2580,27
2581,27
2582,27
2583,27
2584,27
2585,27
2586,27
2587,27
2588,27
2589,27
2590,27
2591,27
2592,27
2593,27
2594,27
2595,28
2596,28
2597,27
2598,27
2599,28
2600,28
2601,28
2602,28
2603,28
2604,27
2605,27
2606,26
2607,26
2608,26
2609,27
2610,26
2611,26
2612,26
2613,26
2614,26
2615,26
2616,26
2617,26
2618,26
2619,26
2620,26
2621,26
2622,26
2623,26
2624,26
2625,26
2626,26
2627,26
2628,26
2629,26
2630,26
2631,26
2632,26
2633,26
2634,27
2635,27
2636,27
2637,27
2638,27
2639,27
2640,27
2641,26
2642,26
2643,26
2644,26
2645,26
2646,26
2647,26
2648,26
2649,26
2650,26
2651,26
2652,26
2653,26
2654,26
2655,26
2656,26
2657,26
2658,26
2659,26
2660,27
2661,26
2662,27
2663,27
2664,26
2665,26
2666,27
2667,26
2668,26
2669,26
2670,26
2671,26
2672,26
2673,27
2674,27
2675,27
2676,27
2677,27
2678,27
2679,27
2680,27
2681,28
2682,29
2683,28
2684,28
2685,27
2686,27
2687,27
2688,28
2689,26
2690,26
2691,26
2692,26
2693,26
2694,26
2695,26
2696,26
2697,26
2698,26
2699,26
2700,26
2701,26
2702,26
2703,26
2704,26
2705,26
2706,26
2707,26
2708,26
2709,26
2710,26
2711,26
2712,26
2713,26
2714,27
2715,26
2716,26
2717,26
2718,26
2719,27
2720,27
2721,27
2722,26
2723,26
2724,26
2725,26
2726,26
2727,26
2728,26
2729,26
2730,26
2731,26
2732,26
2733,27
2734,26
2735,26
2736,27
2737,28
2738,27
2739,27
2740,27
2741,27
2742,27
2743,27
2744,27
2745,27
2746,27
2747,28
2748,29
2749,28
2750,28
2751,28
2752,28
2753,28
2754,28
2755,28
2756,28
2757,28
2758,28
2759,29
2760,28
2761,28
2762,28
2763,28
2764,28
2765,28
2766,28
2767,28
2768,29
2769,29
2770,28
2771,28
2772,28
2773,28
2774,28
2775,28
2776,28
2777,28
2778,28
2779,28
2780,28
2781,28
2782,28
2783,28
2784,29
2785,29
2786,28
2787,29
2788,28
2789,29
2790,29
2791,28
2792,28
2793,28
2794,28
2795,28
2796,28
2797,28
2798,28
2799,27
2800,27
2801,27
2802,27
2803,27
2804,27
2805,27
2806,27
2807,27
2808,27
2809,27
2810,27
2811,27
2812,27
2813,27
2814,27
2815,27
2816,27
2817,27
2818,27
2819,27
2820,27
2821,27
2822,27
2823,27
2824,27
2825,27
2826,27
2827,27
2828,27
2829,27
2830,27
2831,27
2832,27
2833,27
2834,27
2835,27
2836,27
2837,27
2838,27
2839,27
2840,27
2841,27
2842,27
2843,27
2844,27
2845,28
2846,28
2847,28
2848,28
2849,28
2850,28
2851,28
2852,28
2853,28
2854,28
2855,28
2856,28
2857,27
2858,27
2859,27
2860,28
2861,28
2862,28
2863,28
2864,28
2865,28
2866,28
2867,27
2868,27
2869,27
2870,27
2871,27
2872,27
2873,27
2874,27
2875,27
2876,27
2877,27
2878,27
2879,28
2880,27
2881,27
2882,27
2883,27
2884,27
2885,27
2886,27
2887,27
2888,27
2889,27
2890,27
2891,27
2892,27
2893,27
2894,27
2895,27
2896,27
2897,27
2898,27
2899,27
2900,27
2901,27
2902,27
2903,27
2904,28
2905,28
2906,28
2907,28
2908,28
2909,28
2910,28
2911,27
2912,27
2913,27
2914,27
2915,28
2916,27
2917,27
2918,27
2919,27
2920,27
2921,27
2922,27
2923,27
2924,27
2925,27
2926,27
2927,27
2928,27
2929,27
2930,27
2931,27
2932,27
2933,28
2934,28
2935,27
2936,27
2937,27
2938,27
2939,27
2940,27
2941,27
2942,27
2943,27
2944,27
2945,27
2946,27
2947,27
2948,27
2949,27
2950,27
2951,27
2952,27
2953,27
2954,27
2955,27
2956,27
2957,27
2958,27
2959,27
2960,27
2961,27
2962,27
2963,27
2964,27
2965,27
2966,27
2967,27
2968,28
2969,28
2970,29
2971,29
2972,28
2973,29
2974,29
2975,28
2976,29
2977,27
2978,27
2979,27
2980,27
2981,27
2982,27
2983,27
2984,28
2985,27
2986,27
2987,27
2988,27
2989,27
2990,27
2991,27
2992,27
2993,27
2994,27
2995,27
2996,27
2997,27
2998,27
2999,27
3000,27
3001,27
3002,27
3003,27
3004,27
3005,27
3006,27
3007,27
3008,27
3009,27
3010,27
3011,27
3012,27
3013,27
3014,27
3015,27
3016,27
3017,27
3018,27
3019,27
3020,27
3021,27
3022,27
3023,27
3024,27
3025,27
3026,27
3027,27
3028,28
3029,27
3030,27
3031,27
3032,27
3033,27
3034,27
3035,27
3036,27
3037,27
3038,27
3039,27
3040,27
3041,27
3042,27
3043,27
3044,27
3045,27
3046,27
3047,27
3048,27
3049,27
3050,28
3051,28
3052,28
3053,28
3054,28
3055,28
3056,28
3057,28
3058,28
3059,29
3060,29
3061,28
3062,28
3063,28
3064,28
3065,28
3066,28
3067,28
3068,28
3069,28
3070,27
3071,27
3072,27
3073,27
3074,27
3075,27
3076,27
3077,27
3078,27
3079,27
3080,27
3081,27
3082,27
3083,27
3084,27
3085,27
3086,27
3087,27
3088,27
3089,27
3090,27
3091,27
3092,27
3093,27
3094,27
3095,27
3096,27
3097,27
3098,27
3099,28
3100,28
3101,27
3102,27
3103,27
3104,27
3105,27
3106,27
3107,27
3108,27
3109,27
3110,27
3111,27
3112,27
3113,27
3114,27
3115,27
3116,27
3117,27
3118,27
3119,27
3120,27
3121,27
3122,27
3123,27
3124,27
3125,27
3126,27
3127,27
3128,27
3129,27
3130,27
3131,27
3132,28
3133,27
3134,27
3135,27
3136,27
3137,27
3138,27
3139,27
3140,27
3141,27
3142,27
3143,27
3144,27
3145,27
3146,27
3147,27
3148,27
3149,27
3150,27
3151,27
3152,27
3153,27
3154,27
3155,27
3156,27
3157,27
3158,27
3159,27
3160,27
3161,27
3162,27
3163,27
3164,27
3165,27
3166,27
3167,27
3168,27
3169,28
3170,28
3171,28
3172,28
3173,28
3174,29
3175,28
3176,28
3177,28
3178,28
3179,28
3180,28
3181,28
3182,28
3183,28
3184,28
3185,28
3186,28
3187,28
3188,28
3189,28
3190,28
3191,29
3192,29
3193,29
3194,29
3195,28
3196,28
3197,28
3198,28
3199,28
3200,28
3201,28
3202,28
3203,29
3204,29
3205,29
3206,27
3207,27
3208,27
3209,27
3210,27
3211,27
3212,27
3213,27
3214,27
3215,27
3216,27
3217,28
3218,28
3219,27
3220,27
3221,27
3222,27
3223,27
3224,27
3225,27
3226,27
3227,27
3228,27
3229,27
3230,27
3231,27
3232,27
3233,27
3234,27
3235,27
3236,27
3237,27
3238,27
3239,27
3240,27
3241,27
3242,27
3243,27
3244,27
3245,27
3246,27
3247,27
3248,28
3249,28
3250,28
3251,28
3252,28
3253,28
3254,28
3255,28
3256,28
3257,28
3258,28
3259,28
3260,28
3261,28
3262,28
3263,28
3264,29
3265,28
3266,28
3267,28
3268,28
3269,28
3270,28
3271,28
3272,28
3273,28
3274,28
3275,28
3276,28
3277,28
3278,28
3279,28
3280,28
3281,28
3282,28
3283,28
3284,28
3285,28
3286,28
3287,28
3288,28
3289,28
3290,28
3291,28
3292,28
3293,28
3294,28
3295,28
3296,28
3297,28
3298,28
3299,28
3300,28
3301,28
3302,28
3303,29
3304,29
3305,29
3306,29
3307,29
3308,29
3309,29
3310,29
3311,29
3312,29
3313,29
3314,29
3315,29
3316,29
3317,30
3318,29
3319,29
3320,29
3321,29
3322,29
3323,29
3324,29
3325,29
3326,29
3327,29
3328,29
3329,29
3330,30
3331,29
3332,29
3333,29
3334,29
3335,29
3336,29
3337,30
3338,30
3339,30
3340,30
3341,30
3342,30
3343,31
3344,30
3345,30
3346,30
3347,30
3348,30
3349,29
3350,29
3351,29
3352,30
3353,30
3354,30
3355,30
3356,30
3357,29
3358,29
3359,29
3360,29
3361,29
3362,29
3363,29
3364,29
3365,29
3366,29
3367,30
3368,29
3369,29
3370,29
3371,29
3372,29
3373,29
3374,29
3375,29
3376,29
3377,29
3378,29
3379,29
3380,29
3381,29
3382,30
3383,30
3384,30
3385,30
3386,30
3387,30
3388,30
3389,30
3390,30
3391,30
3392,30
3393,30
3394,30
3395,30
3396,30
3397,30
3398,30
3399,30
3400,30
3401,30
3402,30
3403,30
3404,30
3405,30
3406,31
3407,30
3408,30
3409,30
3410,30
3411,29
3412,29
3413,29
3414,29
3415,29
3416,29
3417,29
3418,29
3419,29
3420,29
3421,29
3422,30
3423,29
3424,29
3425,29
3426,29
3427,29
3428,29
3429,29
3430,29
3431,29
3432,29
3433,29
3434,29
3435,29
3436,30
3437,30
3438,30
3439,30
3440,30
3441,31
3442,30
3443,30
3444,30
3445,30
3446,30
3447,30
3448,30
3449,30
3450,30
3451,30
3452,30
3453,31
3454,31
3455,32
3456,31
3457,31
3458,31
3459,31
3460,31
3461,31
3462,31
3463,31
3464,31
3465,31
3466,31
3467,31
3468,31
3469,31
3470,31
3471,31
3472,31
3473,31
3474,31
3475,31
3476,31
3477,31
3478,31
3479,31
3480,31
3481,31
3482,31
3483,31
3484,31
3485,31
3486,31
3487,31
3488,31
3489,31
3490,31
3491,31
3492,31
3493,31
3494,31
3495,31
3496,31
3497,31
3498,31
3499,31
3500,31
3501,31
3502,31
3503,31
3504,31
3505,31
3506,31
3507,31
3508,31
3509,31
3510,31
3511,31
3512,31
3513,31
3514,31
3515,31
3516,31
3517,31
3518,32
3519,32
3520,32
3521,31
3522,31
3523,32
3524,31
3525,31
3526,31
3527,31
3528,31
3529,31
3530,31
3531,31
3532,31
3533,31
3534,31
3535,31
3536,31
3537,31
3538,30
3539,30
3540,30
3541,30
3542,30
3543,30
3544,30
3545,30
3546,30
3547,30
3548,30
3549,30
3550,30
3551,30
3552,30
3553,30
3554,30
3555,30
3556,30
3557,30
3558,30
3559,30
3560,30
3561,30
3562,30
3563,30
3564,30
3565,30
3566,30
3567,30
3568,30
3569,30
3570,30
3571,30
3572,30
3573,30
3574,30
3575,30
3576,30
3577,30
3578,30
3579,30
3580,30
3581,30
3582,30
3583,30
3584,30
3585,30
3586,30
3587,30
3588,30
3589,30
3590,30
3591,30
3592,31
3593,31
3594,31
3595,31
3596,31
3597,31
3598,31
3599,31
3600,31
3601,31
3602,31
3603,31
3604,31
3605,31
3606,31
3607,31
3608,31
3609,31
3610,31
3611,31
3612,31
3613,31
3614,31
3615,31
3616,31
3617,31
3618,31
3619,31
3620,31
3621,31
3622,31
3623,31
3624,31
3625,31
3626,31
3627,31
3628,31
3629,31
3630,31
3631,32
3632,32
3633,32
3634,32
3635,32
3636,32
3637,32
3638,32
3639,32
3640,32
3641,32
3642,32
3643,32
3644,32
3645,32
3646,32
3647,32
3648,32
3649,32
3650,32
3651,32
3652,32
3653,31
3654,31
3655,31
3656,31
3657,31
3658,31
3659,31
3660,31
3661,31
3662,31
3663,31
3664,31
3665,31
3666,31
3667,31
3668,32
3669,31
3670,31
3671,31
3672,31
3673,31
3674,31
3675,31
3676,31
3677,31
3678,31
3679,31
3680,31
3681,31
3682,31
3683,31
3684,31
3685,31
3686,31
3687,32
3688,31
3689,31
3690,31
3691,31
3692,31
3693,32
3694,31
3695,31
3696,31
3697,32
3698,31
3699,31
3700,32
3701,31
3702,31
3703,31
3704,31
3705,32
3706,32
3707,32
3708,32
3709,32
3710,32
3711,32
3712,32
3713,32
3714,32
3715,32
3716,32
3717,32
3718,32
3719,32
3720,32
3721,32
3722,32
3723,32
3724,32
3725,32
3726,32
3727,32
3728,32
3729,32
3730,32
3731,32
3732,32
3733,32
3734,32
3735,32
3736,32
3737,32
3738,32
3739,32
3740,32
3741,32
3742,32
3743,32
3744,32
3745,33
3746,33
3747,33
3748,32
3749,32
3750,32
3751,32
3752,32
3753,33
3754,33
3755,33
3756,33
3757,34
3758,33
3759,33
3760,33
3761,33
3762,33
3763,33
3764,33
3765,33
3766,33
3767,33
3768,33
3769,33
3770,33
3771,33
3772,33
3773,33
3774,33
3775,33
3776,33
3777,33
3778,33
3779,33
3780,33
3781,33
3782,33
3783,33
3784,33
3785,33
3786,33
3787,33
3788,33
3789,33
3790,33
3791,33
3792,33
3793,34
3794,34
3795,34
3796,34
3797,34
3798,33
3799,33
3800,33
3801,33
3802,32
3803,32
3804,32
3805,32
3806,32
3807,32
3808,32
3809,32
3810,32
3811,32
3812,32
3813,32
3814,32
3815,32
3816,32
3817,32
3818,32
3819,32
3820,33
3821,33
3822,33
3823,33
3824,33
3825,33
3826,33
3827,33
3828,33
3829,33
3830,33
3831,33
3832,33
3833,33
3834,33
3835,33
3836,33
3837,33
3838,33
3839,33
3840,33
3841,33
3842,33
3843,34
3844,34
3845,33
3846,33
3847,33
3848,33
3849,33
3850,33
3851,33
3852,33
3853,33
3854,33
3855,33
3856,33
3857,33
3858,33
3859,33
3860,33
3861,33
3862,33
3863,33
3864,34
3865,34
3866,34
3867,34
3868,34
3869,34
3870,34
3871,34
3872,34
3873,34
3874,34
3875,34
3876,34
3877,34
3878,34
3879,34
3880,34
3881,34
3882,34
3883,34
3884,34
3885,34
3886,34
3887,34
3888,34
3889,34
3890,34
3891,34
3892,34
3893,34
3894,34
3895,34
3896,34
3897,34
3898,34
3899,34
3900,34
3901,34
3902,34
3903,34
3904,34
3905,34
3906,34
3907,34
3908,34
3909,34
3910,34
3911,34
3912,34
3913,34
3914,34
3915,34
3916,34
3917,34
3918,34
3919,34
3920,34
3921,34
3922,34
3923,34
3924,34
3925,34
3926,34
3927,34
3928,35
3929,34
3930,34
3931,35
3932,34
3933,34
3934,34
3935,34
3936,34
3937,34
3938,34
3939,34
3940,35
3941,35
3942,34
3943,34
3944,34
3945,34
3946,34
3947,34
3948,34
3949,34
3950,34
3951,34
3952,34
3953,34
3954,34
3955,34
3956,35
3957,34
3958,34
3959,34
3960,34
3961,34
3962,34
3963,34
3964,34
3965,34
3966,34
3967,34
3968,34
3969,34
3970,33
3971,33
3972,33
3973,33
3974,33
3975,33
3976,33
3977,33
3978,33
3979,33
3980,33
3981,34
3982,34
3983,33
3984,33
3985,33
3986,33
3987,33
3988,33
3989,33
3990,33
3991,33
3992,33
3993,33
3994,33
3995,33
3996,33
3997,33
3998,33
3999,33
4000,33
4001,33
4002,33
4003,33
4004,33
4005,33
4006,33
4007,33
4008,33
4009,33
4010,33
4011,33
4012,33
4013,33
4014,33
4015,33
4016,33
4017,33
4018,33
4019,33
4020,33
4021,33
4022,34
4023,34
4024,33
4025,33
4026,33
4027,33
4028,33
4029,33
4030,33
4031,33
4032,33
4033,33
4034,33
4035,33
4036,33
4037,33
4038,33
4039,33
4040,33
4041,33
4042,33
4043,33
4044,33
4045,33
4046,33
4047,34
4048,34
4049,34
4050,34
4051,33
4052,33
4053,33
4054,33
4055,33
4056,33
4057,33
4058,33
4059,33
4060,34
4061,33
4062,33
4063,33
4064,33
4065,33
4066,33
4067,33
4068,33
4069,33
4070,33
4071,33
4072,33
4073,33
4074,33
4075,33
4076,33
4077,33
4078,33
4079,33
4080,33
4081,33
4082,33
4083,33
4084,33
4085,33
4086,33
4087,33
4088,33
4089,33
4090,34
4091,33
4092,33
4093,33
4094,33
4095,33
4096,33
4097,33
4098,33
4099,33
4100,33
4101,33
4102,33
4103,33
4104,33
4105,33
4106,33
4107,33
4108,33
4109,33
4110,33
4111,33
4112,33
4113,33
4114,33
4115,33
4116,33
4117,33
4118,33
4119,33
4120,34
4121,34
4122,34
4123,34
4124,34
4125,34
4126,35
4127,35
4128,35
4129,35
4130,34
4131,34
4132,34
4133,35
4134,34
4135,34
4136,35
4137,34
4138,34
4139,34
4140,34
4141,34
4142,34
4143,34
4144,34
4145,34
4146,35
4147,35
4148,34
4149,34
4150,34
4151,34
4152,34
4153,34
4154,34
4155,34
4156,34
4157,34
4158,34
4159,34
4160,34
4161,35
4162,35
4163,34
4164,34
4165,34
4166,34
4167,34
4168,34
4169,34
4170,35
4171,34
4172,34
4173,34
4174,34
4175,34
4176,34
4177,34
4178,34
4179,34
4180,34
4181,34
4182,34
4183,34
4184,34
4185,35
4186,34
4187,34
4188,34
4189,34
4190,34
4191,34
4192,34
4193,34
4194,34
4195,34
4196,34
4197,34
4198,34
4199,34
4200,34
4201,34
4202,35
4203,35
4204,35
4205,36
4206,35
4207,35
4208,35
4209,34
4210,34
4211,34
4212,34
4213,34
4214,34
4215,34
4216,34
4217,34
4218,35
4219,35
4220,35
4221,35
4222,34
4223,34
4224,34
4225,34
4226,34
4227,34
4228,34
4229,34
4230,34
4231,34
4232,34
4233,35
4234,35
4235,35
4236,35
4237,35
4238,35
4239,36
4240,36
4241,36
4242,35
4243,36
4244,35
4245,35
4246,35
4247,35
4248,35
4249,35
4250,35
4251,35
4252,35
4253,35
4254,35
4255,35
4256,35
4257,35
4258,34
4259,34
4260,34
4261,34
4262,34
4263,34
4264,35
4265,35
4266,35
4267,35
4268,35
4269,34
4270,34
4271,34
4272,34
4273,34
4274,34
4275,34
4276,34
4277,34
4278,34
4279,34
4280,34
4281,34
4282,34
4283,34
4284,34
4285,34
4286,34
4287,34
4288,34
4289,34
4290,35
4291,36
4292,36
4293,36
4294,36
4295,37
4296,35
4297,35
4298,35
4299,35
4300,35
4301,35
4302,35
4303,35
4304,35
4305,36
4306,36
4307,36
4308,36
4309,36
4310,36
4311,36
4312,36
4313,36
4314,36
4315,36
4316,36
4317,36
4318,36
4319,36
4320,36
4321,36
4322,36
4323,36
4324,36
4325,36
4326,37
4327,36
4328,36
4329,36
4330,37
4331,37
4332,37
4333,38
4334,36
4335,36
4336,36
4337,36
4338,36
4339,36
4340,36
4341,36
4342,36
4343,36
4344,36
4345,36
4346,36
4347,36
4348,36
4349,36
4350,36
4351,36
4352,36
4353,36
4354,36
4355,36
4356,36
4357,36
4358,36
4359,36
4360,36
4361,36
4362,36
4363,36
4364,36
4365,36
4366,36
4367,36
4368,36
4369,36
4370,36
4371,36
4372,36
4373,36
4374,36
4375,36
4376,36
4377,36
4378,36
4379,36
4380,36
4381,36
4382,36
4383,36
4384,36
4385,36
4386,36
4387,36
4388,36
4389,36
4390,36
4391,36
4392,36
4393,36
4394,36
4395,36
4396,36
4397,36
4398,36
4399,36
4400,36
4401,36
4402,36
4403,36
4404,36
4405,36
4406,36
4407,36
4408,36
4409,36
4410,36
4411,36
4412,36
4413,36
4414,36
4415,36
4416,36
4417,36
4418,36
4419,36
4420,36
4421,36
4422,36
4423,36
4424,36
4425,36
4426,36
4427,36
4428,36
4429,36
4430,36
4431,36
4432,36
4433,36
4434,36
4435,36
4436,36
4437,36
4438,36
4439,36
4440,36
4441,36
4442,36
4443,36
4444,36
4445,36
4446,36
4447,36
4448,36
4449,36
4450,36
4451,36
4452,36
4453,36
4454,36
4455,36
4456,36
4457,36
4458,36
4459,36
4460,36
4461,36
4462,36
4463,36
4464,36
4465,36
4466,36
4467,36
4468,36
4469,36
4470,36
4471,36
4472,36
4473,36
4474,36
4475,36
4476,36
4477,36
4478,36
4479,36
4480,36
4481,36
4482,36
4483,36
4484,36
4485,36
4486,36
4487,36
4488,36
4489,36
4490,36
4491,36
4492,36
4493,36
4494,36
4495,36
4496,37
4497,37
4498,37
4499,37
4500,37
4501,37
4502,37
4503,37
4504,37
4505,37
4506,38
4507,37
4508,37
4509,37
4510,37
4511,37
4512,37
4513,37
4514,37
4515,37
4516,37
4517,37
4518,37
4519,37
4520,37
4521,37
4522,37
4523,38
4524,39
4525,38
4526,38
4527,38
4528,38
4529,38
4530,37
4531,37
4532,37
4533,37
4534,37
4535,36
4536,36
4537,36
4538,36
4539,36
4540,36
4541,36
4542,36
4543,37
4544,36
4545,36
4546,36
4547,36
4548,36
4549,36
4550,37
4551,36
4552,36
4553,37
4554,37
4555,37
4556,37
4557,37
4558,37
4559,37
4560,37
4561,37
4562,36
4563,36
4564,36
4565,36
4566,36
4567,36
4568,36
4569,36
4570,36
4571,37
4572,36
4573,36
4574,36
4575,36
4576,36
4577,36
4578,36
4579,36
4580,36
4581,36
4582,37
4583,37
4584,37
4585,37
4586,37
4587,37
4588,37
4589,37
4590,37
4591,37
4592,37
4593,37
4594,38
4595,37
4596,37
4597,37
4598,37
4599,38
4600,37
4601,37
4602,37
4603,37
4604,37
4605,37
4606,37
4607,37
4608,37
4609,37
4610,37
4611,37
4612,37
4613,37
4614,37
4615,37
4616,37
4617,37
4618,37
4619,37
4620,37
4621,37
4622,37
4623,37
4624,37
4625,37
4626,37
4627,37
4628,37
4629,37
4630,37
4631,37
4632,37
4633,37
4634,37
4635,37
4636,37
4637,37
4638,37
4639,37
4640,37
4641,37
4642,37
4643,37
4644,36
4645,36
4646,36
4647,36
4648,36
4649,36
4650,36
4651,36
4652,36
4653,37
4654,36
4655,37
4656,36
4657,36
4658,36
4659,36
4660,36
4661,36
4662,36
4663,36
4664,36
4665,36
4666,36
4667,36
4668,36
4669,36
4670,36
4671,37
4672,37
4673,37
4674,37
4675,37
4676,37
4677,37
4678,37
4679,37
4680,37
4681,37
4682,37
4683,37
4684,37
4685,37
4686,37
4687,37
4688,37
4689,37
4690,37
4691,37
4692,37
4693,37
4694,36
4695,36
4696,36
4697,36
4698,36
4699,36
4700,36
4701,36
4702,36
4703,36
4704,36
4705,36
4706,36
4707,36
4708,36
4709,36
4710,36
4711,37
4712,36
4713,36
4714,37
4715,36
4716,38
4717,38
4718,37
4719,37
4720,37
4721,37
4722,37
4723,37
4724,37
4725,37
4726,37
4727,37
4728,37
4729,37
4730,37
4731,37
4732,37
4733,37
4734,36
4735,36
4736,36
4737,36
4738,36
4739,36
4740,36
4741,36
4742,36
4743,36
4744,36
4745,36
4746,36
4747,36
4748,36
4749,36
4750,36
4751,36
4752,36
4753,36
4754,36
4755,36
4756,36
4757,36
4758,36
4759,36
4760,36
4761,36
4762,37
4763,37
4764,37
4765,37
4766,36
4767,36
4768,36
4769,36
4770,36
4771,36
4772,36
4773,36
4774,36
4775,36
4776,36
4777,36
4778,36
4779,36
4780,36
4781,36
4782,36
4783,36
4784,37
4785,36
4786,36
4787,36
4788,36
4789,36
4790,36
4791,36
4792,36
4793,36
4794,36
4795,36
4796,36
4797,36
4798,36
4799,36
4800,36
4801,36
4802,36
4803,36
4804,36
4805,36
4806,36
4807,36
4808,36
4809,36
4810,36
4811,36
4812,36
4813,36
4814,36
4815,36
4816,36
4817,36
4818,36
4819,36
4820,36
4821,36
4822,36
4823,36
4824,36
4825,36
4826,36
4827,36
4828,36
4829,36
4830,36
4831,36
4832,36
4833,36
4834,36
4835,36
4836,37
4837,37
4838,37
4839,36
4840,37
4841,37
4842,37
4843,37
4844,37
4845,37
4846,37
4847,37
4848,37
4849,37
4850,37
4851,37
4852,37
4853,37
4854,37
4855,38
4856,38
4857,37
4858,37
4859,37
4860,37
4861,37
4862,37
4863,37
4864,36
4865,36
4866,36
4867,36
4868,36
4869,36
4870,36
4871,36
4872,36
4873,36
4874,36
4875,36
4876,36
4877,36
4878,36
4879,36
4880,36
4881,36
4882,36
4883,36
4884,36
4885,36
4886,36
4887,36
4888,36
4889,36
4890,36
4891,36
4892,36
4893,36
4894,36
4895,36
4896,37
4897,37
4898,37
4899,37
4900,38
4901,38
4902,38
4903,38
4904,38
4905,38
4906,38
4907,38
4908,37
4909,37
4910,37
4911,37
4912,37
4913,37
4914,37
4915,37
4916,37
4917,36
4918,36
4919,36
4920,36
4921,36
4922,36
4923,36
4924,36
4925,36
4926,36
4927,36
4928,36
4929,36
4930,36
4931,36
4932,36
4933,36
4934,36
4935,36
4936,36
4937,36
4938,36
4939,36
4940,36
4941,36
4942,36
4943,36
4944,36
4945,36
4946,36
4947,36
4948,36
4949,36
4950,36
4951,36
4952,36
4953,36
4954,36
4955,36
4956,36
4957,36
4958,36
4959,36
4960,36
4961,36
4962,37
4963,37
4964,37
4965,37
4966,37
4967,37
4968,37
4969,37
4970,36
4971,37
4972,37
4973,36
4974,36
4975,36
4976,36
4977,36
4978,36
4979,36
4980,36
4981,36
4982,36
4983,36
4984,38
4985,37
4986,37
4987,37
4988,37
4989,37
4990,36
4991,36
4992,36
4993,36
4994,36
4995,36
4996,36
4997,36
4998,36
4999,36
5000,36
5001,36
5002,36
5003,36
5004,36
5005,36
5006,37
5007,36
5008,36
5009,36
5010,36
5011,36
5012,36
5013,36
5014,36
5015,36
5016,36
5017,36
5018,36
5019,36
5020,36
5021,36
5022,36
5023,36
5024,37
5025,36
5026,36
5027,36
5028,36
5029,36
5030,36
5031,36
5032,36
5033,36
5034,36
5035,36
5036,36
5037,36
5038,36
5039,36
5040,36
5041,36
5042,36
5043,36
5044,36
5045,36
5046,36
5047,36
5048,36
5049,36
5050,36
5051,36
5052,36
5053,36
5054,36
5055,36
5056,36
5057,36
5058,36
5059,36
5060,38
5061,37
5062,37
5063,37
5064,38
5065,37
5066,37
5067,39
5068,38
5069,37
5070,37
5071,37
5072,37
5073,37
5074,37
5075,37
5076,37
5077,37
5078,38
5079,37
5080,37
5081,37
5082,37
5083,37
5084,37
5085,38
5086,38
5087,37
5088,38
5089,38
5090,38
5091,38
5092,38
5093,37
5094,37
5095,37
5096,37
5097,37
5098,37
5099,37
5100,37
5101,37
5102,37
5103,37
5104,37
5105,37
5106,37
5107,37
5108,37
5109,37
5110,37
5111,37
5112,37
5113,37
5114,37
5115,37
5116,37
5117,37
5118,37
5119,37
5120,37
5121,37
5122,37
5123,37
5124,37
5125,37
5126,37
5127,37
5128,37
5129,37
5130,37
5131,37
5132,37
5133,37
5134,37
5135,37
5136,37
5137,37
5138,37
5139,37
5140,37
5141,37
5142,37
5143,37
5144,37
5145,36
5146,36
5147,37
5148,36
5149,36
5150,36
5151,37
5152,36
5153,36
5154,36
5155,37
5156,36
5157,36
5158,36
5159,36
5160,36
5161,36
5162,36
5163,36
5164,36
5165,36
5166,36
5167,36
5168,36
5169,36
5170,36
5171,36
5172,36
5173,36
5174,36
5175,36
5176,36
5177,36
5178,36
5179,36
5180,37
5181,37
5182,36
5183,36
5184,36
5185,36
5186,36
5187,36
5188,36
5189,36
5190,36
5191,36
5192,36
5193,36
5194,36
5195,36
5196,36
5197,36
5198,36
5199,36
5200,36
5201,36
5202,36
5203,36
5204,36
5205,36
5206,36
5207,36
5208,36
5209,36
5210,36
5211,36
5212,36
5213,36
5214,37
5215,37
5216,36
5217,36
5218,36
5219,36
5220,36
5221,36
5222,36
5223,36
5224,36
5225,36
5226,37
5227,37
5228,37
5229,37
5230,36
5231,36
5232,36
5233,36
5234,36
5235,36
5236,36
5237,36
5238,35
5239,35
5240,36
5241,35
5242,36
5243,35
5244,35
5245,35
5246,35
5247,35
5248,36
5249,35
5250,35
5251,35
5252,35
5253,35
5254,35
5255,35
5256,35
5257,35
5258,35
5259,36
5260,35
5261,35
5262,35
5263,35
5264,35
5265,35
5266,35
5267,35
5268,35
5269,35
5270,35
5271,35
5272,35
5273,35
5274,35
5275,35
5276,35
5277,35
5278,35
5279,35
5280,35
5281,35
5282,35
5283,35
5284,35
5285,35
5286,35
5287,35
5288,35
5289,35
5290,35
5291,35
5292,35
5293,35
5294,35
5295,35
5296,35
5297,35
5298,35
5299,35
5300,35
5301,35
5302,35
5303,35
5304,35
5305,35
5306,35
5307,35
5308,35
5309,35
5310,35
5311,35
5312,35
5313,35
5314,35
5315,35
5316,35
5317,35
5318,35
5319,35
5320,35
5321,35
5322,35
5323,35
5324,35
5325,35
5326,35
5327,35
5328,35
5329,35
5330,35
5331,35
5332,35
5333,35
5334,35
5335,35
5336,35
5337,35
5338,35
5339,35
5340,35
5341,35
5342,35
5343,35
5344,35
5345,35
5346,35
5347,35
5348,35
5349,35
5350,35
5351,35
5352,35
5353,35
5354,35
5355,35
5356,36
5357,36
5358,36
5359,35
5360,35
5361,35
5362,35
5363,35
5364,35
5365,35
5366,35
5367,35
5368,35
5369,35
5370,35
5371,35
5372,35
5373,35
5374,35
5375,35
5376,35
5377,35
5378,35
5379,35
5380,35
5381,35
5382,35
5383,35
5384,35
5385,35
5386,35
5387,35
5388,35
5389,35
5390,35
5391,36
5392,36
5393,35
5394,35
5395,35
5396,35
5397,35
5398,35
5399,35
5400,35
5401,35
5402,35
5403,35
5404,35
5405,36
5406,36
5407,36
5408,36
5409,36
5410,36
5411,36
5412,36
5413,36
5414,36
5415,36
5416,36
5417,36
5418,36
5419,36
5420,36
5421,36
5422,36
5423,36
5424,36
5425,37
5426,36
5427,36
5428,36
5429,36
5430,37
5431,37
5432,37
5433,37
5434,37
5435,37
5436,37
5437,37
5438,37
5439,37
5440,37
5441,37
5442,37
5443,37
5444,37
5445,35
5446,35
5447,35
5448,35
5449,35
5450,35
5451,35
5452,35
5453,35
5454,35
5455,35
5456,35
5457,35
5458,35
5459,35
5460,35
5461,35
5462,35
5463,35
5464,35
5465,35
5466,35
5467,35
5468,35
5469,35
5470,36
5471,36
5472,36
5473,36
5474,36
5475,36
5476,37
5477,36
5478,35
5479,35
5480,35
5481,35
5482,35
5483,35
5484,35
5485,35
5486,36
5487,36
5488,36
5489,36
5490,35
5491,35
5492,35
5493,35
5494,35
5495,35
5496,35
5497,35
5498,35
5499,35
5500,35
5501,35
5502,35
5503,35
5504,35
5505,35
5506,35
5507,35
5508,36
5509,36
5510,36
5511,36
5512,36
5513,36
5514,36
5515,36
5516,36
5517,37
5518,36
5519,35
5520,35
5521,35
5522,35
5523,35
5524,35
5525,35
5526,35
5527,35
5528,35
5529,35
5530,35
5531,35
5532,35
5533,35
5534,35
5535,35
5536,35
5537,35
5538,35
5539,35
5540,35
5541,35
5542,35
5543,35
5544,35
5545,35
5546,35
5547,35
5548,35
5549,35
5550,35
5551,35
5552,35
5553,35
5554,35
5555,35
5556,35
5557,35
5558,35
5559,35
5560,35
5561,35
5562,35
5563,35
5564,35
5565,35
5566,35
5567,35
5568,35
5569,35
5570,35
5571,35
5572,35
5573,35
5574,35
5575,35
5576,35
5577,35
5578,35
5579,35
5580,35
5581,35
5582,35
5583,35
5584,35
5585,35
5586,35
5587,35
5588,35
5589,35
5590,35
5591,35
5592,34
5593,34
5594,36
5595,35
5596,35
5597,35
5598,35
5599,35
5600,35
5601,35
5602,35
5603,35
5604,34
5605,34
5606,34
5607,35
5608,35
5609,35
5610,35
5611,36
5612,36
5613,36
5614,36
5615,36
5616,36
5617,36
5618,36
5619,36
5620,36
5621,36
5622,36
5623,36
5624,36
5625,35
5626,35
5627,35
5628,35
5629,35
5630,35
5631,35
5632,35
5633,35
5634,35
5635,35
5636,35
5637,35
5638,35
5639,35
5640,35
5641,35
5642,35
5643,35
5644,35
5645,35
5646,35
5647,35
5648,35
5649,36
5650,35
5651,35
5652,35
5653,35
5654,35
5655,35
5656,35
5657,35
5658,35
5659,35
5660,35
5661,35
5662,35
5663,35
5664,35
5665,35
5666,35
5667,35
5668,35
5669,36
5670,36
5671,35
5672,35
5673,35
5674,35
5675,35
5676,35
5677,35
5678,35
5679,35
5680,35
5681,35
5682,35
5683,35
5684,35
5685,35
5686,35
5687,35
5688,35
5689,35
5690,35
5691,35
5692,35
5693,35
5694,35
5695,35
5696,35
5697,35
5698,35
5699,35
5700,35
5701,35
5702,35
5703,35
5704,35
5705,36
5706,36
5707,37
5708,37
5709,37
5710,37
5711,37
5712,37
5713,37
5714,37
5715,37
5716,37
5717,37
5718,37
5719,37
5720,37
5721,37
5722,38
5723,37
5724,37
5725,37
5726,37
5727,37
5728,37
5729,37
5730,37
5731,37
5732,37
5733,37
5734,37
5735,37
5736,37
5737,37
5738,37
5739,37
5740,37
5741,38
5742,38
5743,38
5744,38
5745,38
5746,38
5747,39
5748,38
5749,39
5750,38
5751,38
5752,37
5753,37
5754,37
5755,37
5756,37
5757,37
5758,37
5759,37
5760,37
5761,37
5762,37
5763,36
5764,36
5765,36
5766,36
5767,36
5768,36
5769,36
5770,36
5771,36
5772,36
5773,36
5774,36
5775,36
5776,36
5777,35
5778,35
5779,35
5780,35
5781,35
5782,35
5783,35
5784,35
5785,35
5786,35
5787,35
5788,35
5789,35
5790,35
5791,35
5792,35
5793,35
5794,35
5795,35
5796,35
5797,35
5798,35
5799,35
5800,35
5801,35
5802,35
5803,35
5804,35
5805,35
5806,35
5807,35
5808,35
5809,35
5810,35
5811,36
5812,36
5813,36
5814,36
5815,36
5816,36
5817,36
5818,36
5819,36
5820,36
5821,36
5822,36
5823,36
5824,36
5825,36
5826,36
5827,36
5828,36
5829,36
5830,36
5831,36
5832,36
5833,36
5834,36
5835,36
5836,36
5837,35
5838,35
5839,35
5840,35
5841,35
5842,35
5843,35
5844,35
5845,35
5846,35
5847,35
5848,35
5849,36
5850,35
5851,35
5852,35
5853,35
5854,35
5855,35
5856,35
5857,35
5858,35
5859,36
5860,36
5861,35
5862,35
5863,35
5864,35
5865,35
5866,35
5867,35
5868,36
5869,36
5870,36
5871,35
5872,35
5873,35
5874,35
5875,36
5876,35
5877,35
5878,35
5879,35
5880,35
5881,35
5882,35
5883,35
5884,35
5885,35
5886,35
5887,35
5888,35
5889,35
5890,35
5891,35
5892,35
5893,35
5894,35
5895,35
5896,35
5897,35
5898,35
5899,35
5900,35
5901,35
5902,35
5903,35
5904,35
5905,35
5906,35
5907,35
5908,35
5909,35
5910,35
5911,35
5912,35
5913,35
5914,35
5915,35
5916,35
5917,35
5918,35
5919,35
5920,35
5921,35
5922,35
5923,35
5924,35
5925,36
5926,36
5927,37
5928,37
5929,36
5930,36
5931,35
5932,35
5933,35
5934,35
5935,35
5936,35
5937,35
5938,35
5939,35
5940,35
5941,35
5942,35
5943,35
5944,35
5945,35
5946,35
5947,35
5948,35
5949,35
5950,35
5951,35
5952,35
5953,35
5954,36
5955,36
5956,35
5957,35
5958,35
5959,35
5960,35
5961,35
5962,35
5963,35
5964,35
5965,35
5966,35
5967,36
5968,35
5969,35
5970,35
5971,36
5972,36
5973,36
5974,36
5975,35
5976,35
5977,36
5978,36
5979,36
5980,36
5981,36
5982,36
5983,36
5984,36
5985,36
5986,36
5987,36
5988,37
5989,36
5990,36
5991,35
5992,36
5993,36
5994,36
5995,35
5996,35
5997,35
5998,35
5999,35
6000,35
6001,35
6002,35
6003,35
6004,35
6005,35
6006,35
6007,35
6008,35
6009,36
6010,36
6011,36
6012,36
6013,36
6014,36
6015,36
6016,36
6017,36
6018,36
6019,35
6020,35
6021,35
6022,35
6023,35
6024,35
6025,35
6026,35
6027,35
6028,36
6029,35
6030,35
6031,35
6032,35
6033,35
6034,35
6035,35
6036,35
6037,35
6038,35
6039,36
6040,35
6041,35
6042,36
6043,36
6044,36
6045,37
6046,36
6047,35
6048,36
6049,35
6050,35
6051,35
6052,35
6053,35
6054,35
6055,35
6056,35
6057,35
6058,36
6059,36
6060,37
6061,36
6062,36
6063,36
6064,35
6065,35
6066,35
6067,35
6068,35
6069,35
6070,35
6071,35
6072,35
6073,35
6074,35
6075,35
6076,35
6077,35
6078,35
6079,35
6080,35
6081,35
6082,35
6083,35
6084,35
6085,35
6086,35
6087,35
6088,35
6089,35
6090,35
6091,35
6092,36
6093,36
6094,36
6095,35
6096,34
6097,34
6098,34
6099,34
6100,34
6101,34
6102,34
6103,34
6104,34
6105,34
6106,34
6107,34
6108,34
6109,34
6110,34
6111,34
6112,34
6113,34
6114,34
6115,34
6116,34
6117,34
6118,34
6119,34
6120,34
6121,34
6122,34
6123,34
6124,35
6125,35
6126,34
6127,34
6128,34
6129,34
6130,34
6131,35
6132,34
6133,34
6134,34
6135,35
6136,34
6137,34
6138,34
6139,34
6140,34
6141,34
6142,35
6143,35
6144,34
6145,34
6146,34
6147,34
6148,34
6149,34
6150,34
6151,34
6152,34
6153,34
6154,35
6155,35
6156,35
6157,35
6158,34
6159,34
6160,34
6161,34
6162,34
6163,34
6164,34
6165,34
6166,34
6167,34
6168,34
6169,34
6170,34
6171,34
6172,34
6173,34
6174,34
6175,34
6176,34
6177,34
6178,34
6179,34
6180,34
6181,34
6182,34
6183,34
6184,34
6185,34
6186,34
6187,34
6188,34
6189,34
6190,34
6191,34
6192,34
6193,34
6194,34
6195,34
6196,34
6197,34
6198,34
6199,34
6200,35
6201,35
6202,35
6203,34
6204,34
6205,34
6206,34
6207,34
6208,34
6209,34
6210,34
6211,34
6212,34
6213,34
6214,34
6215,34
6216,34
6217,34
6218,34
6219,34
6220,34
6221,34
6222,34
6223,34
6224,34
6225,34
6226,34
6227,34
6228,34
6229,35
6230,35
6231,35
6232,35
6233,35
6234,35
6235,34
6236,34
6237,34
6238,34
6239,34
6240,34
6241,34
6242,34
6243,34
6244,34
6245,34
6246,34
6247,34
6248,35
6249,34
6250,34
6251,34
6252,34
6253,34
6254,35
6255,34
6256,34
6257,34
6258,34
6259,34
6260,34
6261,34
6262,35
6263,34
6264,34
6265,35
6266,35
6267,35
6268,34
6269,34
6270,34
6271,34
6272,34
6273,34
6274,34
6275,34
6276,34
6277,34
6278,34
6279,34
6280,34
6281,34
6282,35
6283,34
6284,34
6285,34
6286,34
6287,34
6288,34
6289,35
6290,34
6291,34
6292,34
6293,34
6294,34
6295,34
6296,34
6297,34
6298,34
6299,34
6300,34
6301,34
6302,34
6303,34
6304,34
6305,34
6306,34
6307,34
6308,34
6309,35
6310,35
6311,35
6312,35
6313,35
6314,35
6315,35
6316,35
6317,35
6318,35
6319,35
6320,35
6321,36
6322,35
6323,35
6324,35
6325,35
6326,35
6327,35
6328,35
6329,34
6330,34
6331,34
6332,34
6333,34
6334,34
6335,34
6336,35
6337,35
6338,35
6339,35
6340,36
6341,35
6342,35
6343,35
6344,35
6345,35
6346,35
6347,35
6348,35
6349,35
6350,35
6351,35
6352,35
6353,36
6354,35
6355,35
6356,35
6357,35
6358,35
6359,35
6360,35
6361,35
6362,35
6363,35
6364,35
6365,35
6366,35
6367,35
6368,35
6369,35
6370,35
6371,35
6372,35
6373,35
6374,35
6375,35
6376,34
6377,34
6378,34
6379,34
6380,34
6381,34
6382,34
6383,34
6384,34
6385,34
6386,34
6387,35
6388,34
6389,34
6390,34
6391,34
6392,35
6393,35
6394,34
6395,34
6396,34
6397,34
6398,34
6399,34
6400,34
6401,34
6402,34
6403,34
6404,34
6405,33
6406,33
6407,33
6408,33
6409,33
6410,33
6411,33
6412,33
6413,33
6414,33
6415,33
6416,33
6417,33
6418,33
6419,33
6420,33
6421,33
6422,33
6423,33
6424,33
6425,33
6426,33
6427,33
6428,33
6429,33
6430,33
6431,33
6432,34
6433,33
6434,33
6435,33
6436,33
6437,33
6438,33
6439,33
6440,33
6441,33
6442,33
6443,33
6444,33
6445,33
6446,33
6447,33
6448,33
6449,33
6450,33
6451,33
6452,33
6453,33
6454,33
6455,33
6456,33
6457,33
6458,34
6459,33
6460,33
6461,33
6462,33
6463,33
6464,34
6465,34
6466,33
6467,33
6468,33
6469,33
6470,33
6471,33
6472,33
6473,34
6474,33
6475,33
6476,33
6477,33
6478,33
6479,33
6480,33
6481,33
6482,33
6483,34
6484,34
6485,34
6486,34
6487,34
6488,34
6489,34
6490,35
6491,35
6492,35
6493,35
6494,35
6495,35
6496,35
6497,34
6498,34
6499,34
6500,34
6501,35
6502,35
6503,34
6504,34
6505,34
6506,34
6507,34
6508,34
6509,34
6510,34
6511,34
6512,34
6513,34
6514,34
6515,34
6516,34
6517,34
6518,34
6519,35
6520,35
6521,35
6522,35
6523,35
6524,35
6525,35
6526,35
6527,35
6528,35
6529,35
6530,35
6531,35
6532,35
6533,35
6534,35
6535,35
6536,35
6537,35
6538,35
6539,36
6540,35
6541,35
6542,35
6543,35
6544,35
6545,35
6546,35
6547,35
6548,35
6549,35
6550,35
6551,35
6552,35
6553,35
6554,35
6555,35
6556,35
6557,35
6558,35
6559,35
6560,35
6561,35
6562,36
6563,36
6564,35
6565,36
6566,35
6567,35
6568,35
6569,35
6570,35
6571,35
6572,35
6573,35
6574,35
6575,35
6576,35
6577,35
6578,35
6579,36
6580,36
6581,36
6582,37
6583,36
6584,35
6585,35
6586,35
6587,35
6588,35
6589,35
6590,35
6591,35
6592,35
6593,35
6594,35
6595,36
6596,36
6597,36
6598,36
6599,36
6600,36
6601,36
6602,36
6603,36
6604,37
6605,36
6606,36
6607,36
6608,36
6609,36
6610,35
6611,35
6612,35
6613,35
6614,35
6615,35
6616,35
6617,35
6618,35
6619,35
6620,36
6621,36
6622,35
6623,35
6624,35
6625,35
6626,35
6627,35
6628,35
6629,35
6630,35
6631,35
6632,35
6633,35
6634,35
6635,35
6636,36
6637,36
6638,36
6639,36
6640,36
6641,36
6642,36
6643,36
6644,36
6645,35
6646,35
6647,35
6648,35
6649,35
6650,35
6651,35
6652,35
6653,35
6654,35
6655,35
6656,35
6657,35
6658,35
6659,35
6660,35
6661,35
6662,35
6663,35
6664,35
6665,35
6666,35
6667,35
6668,35
6669,35
6670,35
6671,35
6672,35
6673,35
6674,35
6675,35
6676,35
6677,35
6678,35
6679,35
6680,35
6681,35
6682,35
6683,35
6684,35
6685,35
6686,35
6687,35
6688,35
6689,36
6690,35
6691,35
6692,35
6693,35
6694,35
6695,35
6696,35
6697,35
6698,35
6699,35
6700,35
6701,35
6702,35
6703,35
6704,35
6705,35
6706,35
6707,35
6708,35
6709,35
6710,35
6711,35
6712,35
6713,36
6714,36
6715,36
6716,36
6717,36
6718,36
6719,36
6720,36
6721,36
6722,36
6723,36
6724,36
6725,36
6726,36
6727,36
6728,36
6729,36
6730,36
6731,36
6732,37
6733,37
6734,37
6735,37
6736,37
6737,37
6738,36
6739,36
6740,36
6741,36
6742,36
6743,36
6744,37
6745,36
6746,36
6747,36
6748,36
6749,36
6750,36
6751,36
6752,36
6753,36
6754,36
6755,36
6756,36
6757,36
6758,36
6759,36
6760,36
6761,36
6762,38
6763,38
6764,38
6765,37
6766,37
6767,37
6768,37
6769,37
6770,37
6771,37
6772,37
6773,37
6774,37
6775,37
6776,37
6777,37
6778,37
6779,37
6780,37
6781,37
6782,37
6783,37
6784,37
6785,37
6786,38
6787,37
6788,37
6789,37
6790,37
6791,37
6792,37
6793,37
6794,37
6795,37
6796,37
6797,37
6798,37
6799,37
6800,37
6801,37
6802,37
6803,37
6804,37
6805,37
6806,37
6807,37
6808,37
6809,37
6810,37
6811,37
6812,37
6813,37
6814,37
6815,37
6816,37
6817,37
6818,37
6819,37
6820,37
6821,37
6822,37
6823,37
6824,37
6825,37
6826,37
6827,37
6828,37
6829,37
6830,37
6831,37
6832,37
6833,37
6834,37
6835,37
6836,37
6837,38
6838,37
6839,37
6840,37
6841,37
6842,37
6843,37
6844,37
6845,37
6846,37
6847,38
6848,37
6849,37
6850,37
6851,37
6852,37
6853,37
6854,37
6855,37
6856,37
6857,37
6858,37
6859,37
6860,37
6861,37
6862,37
6863,37
6864,37
6865,37
6866,37
6867,37
6868,37
6869,37
6870,37
6871,37
6872,37
6873,37
6874,37
6875,37
6876,37
6877,37
6878,37
6879,37
6880,37
6881,37
6882,37
6883,37
6884,37
6885,37
6886,37
6887,37
6888,37
6889,37
6890,37
6891,37
6892,37
6893,37
6894,37
6895,37
6896,37
6897,37
6898,37
6899,37
6900,38
6901,38
6902,38
6903,38
6904,38
6905,38
6906,38
6907,38
6908,38
6909,38
6910,38
6911,38
6912,38
6913,38
6914,38
6915,38
6916,38
6917,38
6918,38
6919,38
6920,38
6921,38
6922,38
6923,38
6924,38
6925,38
6926,38
6927,38
6928,38
6929,38
6930,38
6931,38
6932,38
6933,38
6934,38
6935,38
6936,38
6937,39
6938,38
6939,38
6940,38
6941,38
6942,38
6943,38
6944,38
6945,38
6946,38
6947,38
6948,38
6949,38
6950,38
6951,38
6952,38
6953,38
6954,38
6955,38
6956,38
6957,38
6958,38
6959,38
6960,38
6961,38
6962,38
6963,38
6964,38
6965,38
6966,38
6967,38
6968,38
6969,38
6970,38
6971,38
6972,38
6973,38
6974,38
6975,38
6976,38
6977,38
6978,38
6979,38
6980,38
6981,38
6982,38
6983,38
6984,37
6985,37
6986,37
6987,37
6988,37
6989,37
6990,37
6991,38
6992,38
6993,38
6994,39
6995,38
6996,38
6997,38
6998,39
6999,38
7000,38
7001,38
7002,38
7003,37
7004,37
7005,37
7006,37
7007,37
7008,37
7009,37
7010,37
7011,37
7012,37
7013,37
7014,37
7015,38
7016,39
7017,37
7018,37
7019,37
7020,37
7021,37
7022,37
7023,37
7024,37
7025,37
7026,37
7027,37
7028,37
7029,37
7030,37
7031,37
7032,37
7033,37
7034,37
7035,37
7036,37
7037,37
7038,37
7039,37
7040,37
7041,37
7042,37
7043,37
7044,37
7045,37
7046,37
7047,37
7048,37
7049,37
7050,37
7051,37
7052,37
7053,37
7054,37
7055,37
7056,38
7057,38
7058,38
7059,38
7060,38
7061,38
7062,38
7063,38
7064,37
7065,37
7066,37
7067,37
7068,37
7069,37
7070,37
7071,38
7072,38
7073,37
7074,37
7075,37
7076,37
7077,37
7078,37
7079,37
7080,37
7081,37
7082,37
7083,37
7084,37
7085,37
7086,37
7087,37
7088,37
7089,37
7090,37
7091,37
7092,37
7093,37
7094,37
7095,37
7096,37
7097,37
7098,37
7099,37
7100,37
7101,37
7102,37
7103,37
7104,37
7105,37
7106,37
7107,37
7108,37
7109,37
7110,37
7111,37
7112,37
7113,38
7114,37
7115,37
7116,37
7117,37
7118,37
7119,37
7120,37
7121,37
7122,37
7123,37
7124,37
7125,37
7126,37
7127,37
7128,37
7129,37
7130,37
7131,37
7132,37
7133,37
7134,37
7135,37
7136,37
7137,37
7138,37
7139,37
7140,37
7141,37
7142,37
7143,37
7144,37
7145,38
7146,38
7147,38
7148,38
7149,38
7150,38
7151,38
7152,38
7153,38
7154,39
7155,38
7156,38
7157,38
7158,38
7159,38
7160,37
7161,37
7162,37
7163,37
7164,37
7165,37
7166,37
7167,37
7168,37
7169,37
7170,38
7171,38
7172,38
7173,37
7174,37
7175,37
7176,37
7177,37
7178,37
7179,37
7180,37
7181,37
7182,37
7183,37
7184,38
7185,38
7186,38
7187,39
7188,39
7189,39
7190,39
7191,38
7192,38
7193,38
7194,38
7195,38
7196,38
7197,38
7198,38
7199,38
7200,38
7201,38
7202,38
7203,38
7204,38
7205,37
7206,37
7207,37
7208,37
7209,37
7210,37
7211,37
7212,37
7213,37
7214,37
7215,37
7216,37
7217,37
7218,37
7219,37
7220,37
7221,37
7222,37
7223,37
7224,37
7225,37
7226,37
7227,37
7228,37
7229,37
7230,37
7231,37
7232,37
7233,38
7234,38
7235,38
7236,38
7237,38
7238,38
7239,38
7240,38
7241,38
7242,39
7243,38
7244,38
7245,38
7246,38
7247,38
7248,38
7249,38
7250,38
7251,38
7252,38
7253,38
7254,38
7255,38
7256,38
7257,38
7258,38
7259,38
7260,38
7261,38
7262,38
7263,38
7264,38
7265,38
7266,38
7267,38
7268,38
7269,38
7270,38
7271,38
7272,38
7273,38
7274,38
7275,38
7276,38
7277,38
7278,38
7279,38
7280,38
7281,38
7282,38
7283,38
7284,38
7285,38
7286,38
7287,38
7288,38
7289,38
7290,38
7291,38
7292,40
7293,40
7294,39
7295,39
7296,38
7297,38
7298,38
7299,38
7300,39
7301,39
7302,38
7303,38
7304,38
7305,38
7306,39
7307,38
7308,38
7309,38
7310,38
7311,38
7312,38
7313,38
7314,38
7315,38
7316,38
7317,38
7318,38
7319,38
7320,39
7321,38
7322,39
7323,38
7324,38
7325,38
7326,38
7327,38
7328,38
7329,38
7330,38
7331,38
7332,39
7333,39
7334,39
7335,39
7336,39
7337,39
7338,39
7339,39
7340,39
7341,38
7342,38
7343,38
7344,38
7345,38
7346,38
7347,38
7348,39
7349,39
7350,38
7351,38
7352,38
7353,38
7354,38
7355,38
7356,38
7357,38
7358,38
7359,37
7360,37
7361,37
7362,37
7363,37
7364,37
7365,37
7366,38
7367,37
7368,37
7369,37
7370,37
7371,37
7372,37
7373,38
7374,38
7375,38
7376,38
7377,37
7378,37
7379,37
7380,37
7381,37
7382,37
7383,37
7384,37
7385,37
7386,37
7387,37
7388,37
7389,38
7390,37
7391,37
7392,38
7393,37
7394,37
7395,37
7396,37
7397,37
7398,37
7399,37
7400,37
7401,37
7402,38
7403,37
7404,39
7405,38
7406,37
7407,37
7408,37
7409,37
7410,37
7411,37
7412,37
7413,37
7414,38
7415,38
7416,37
7417,38
7418,37
7419,37
7420,37
7421,37
7422,37
7423,38
7424,38
7425,37
7426,37
7427,37
7428,36
7429,36
7430,36
7431,36
7432,36
7433,36
7434,36
7435,36
7436,36
7437,36
7438,36
7439,36
7440,36
7441,36
7442,36
7443,36
7444,37
7445,37
7446,37
7447,37
7448,37
7449,37
7450,37
7451,37
7452,37
7453,37
7454,37
7455,37
7456,37
7457,37
7458,37
7459,37
7460,37
7461,37
7462,37
7463,37
7464,37
7465,37
7466,37
7467,37
7468,37
7469,37
7470,37
7471,37
7472,38
7473,37
7474,36
7475,36
7476,37
7477,37
7478,36
7479,36
7480,36
7481,36
7482,36
7483,36
7484,36
7485,36
7486,36
7487,36
7488,36
7489,36
7490,36
7491,37
7492,38
7493,38
7494,37
7495,36
7496,36
7497,36
7498,36
7499,36
7500,36
7501,36
7502,36
7503,36
7504,36
7505,36
7506,36
7507,36
7508,36
7509,36
7510,36
7511,36
7512,36
7513,36
7514,36
7515,36
7516,36
7517,36
7518,36
7519,37
7520,36
7521,36
7522,36
7523,36
7524,36
7525,36
7526,36
7527,36
7528,36
7529,36
7530,36
7531,36
7532,36
7533,36
7534,36
7535,36
7536,36
7537,36
7538,36
7539,36
7540,36
7541,36
7542,36
7543,36
7544,36
7545,36
7546,36
7547,36
7548,36
7549,36
7550,36
7551,36
7552,36
7553,36
7554,36
7555,37
7556,36
7557,36
7558,36
7559,36
7560,36
7561,36
7562,36
7563,36
7564,36
7565,36
7566,37
7567,37
7568,37
7569,37
7570,37
7571,37
7572,37
7573,37
7574,38
7575,37
7576,37
7577,37
7578,37
7579,37
7580,37
7581,36
7582,36
7583,36
7584,36
7585,36
7586,36
7587,36
7588,36
7589,36
7590,36
7591,36
7592,36
7593,36
7594,36
7595,36
7596,36
7597,36
7598,36
7599,36
7600,36
7601,36
7602,36
7603,36
7604,36
7605,36
7606,36
7607,36
7608,36
7609,36
7610,36
7611,36
7612,36
7613,36
7614,36
7615,36
7616,36
7617,36
7618,36
7619,36
7620,36
7621,36
7622,36
7623,36
7624,36
7625,36
7626,36
7627,36
7628,36
7629,36
7630,36
7631,36
7632,36
7633,36
7634,36
7635,36
7636,36
7637,36
7638,36
7639,36
7640,36
7641,36
7642,36
7643,37
7644,36
7645,36
7646,36
7647,36
7648,36
7649,36
7650,36
7651,36
7652,36
7653,37
7654,37
7655,37
7656,37
7657,37
7658,37
7659,37
7660,37
7661,37
7662,37
7663,37
7664,37
7665,37
7666,37
7667,37
7668,37
7669,37
7670,37
7671,37
7672,37
7673,37
7674,37
7675,37
7676,37
7677,37
7678,37
7679,37
7680,37
7681,37
7682,37
7683,37
7684,37
7685,37
7686,37
7687,37
7688,37
7689,37
7690,37
7691,37
7692,37
7693,37
7694,37
7695,37
7696,37
7697,37
7698,37
7699,37
7700,37
7701,37
7702,37
7703,37
7704,37
7705,39
7706,39
7707,39
7708,39
7709,39
7710,38
7711,38
7712,38
7713,38
7714,38
7715,38
7716,38
7717,38
7718,38
7719,40
7720,40
7721,40
7722,40
7723,40
7724,40
7725,40
7726,39
7727,39
7728,40
7729,39
7730,39
7731,39
7732,39
7733,39
7734,39
7735,40
7736,39
7737,39
7738,39
7739,39
7740,39
7741,39
7742,39
7743,39
7744,39
7745,38
7746,38
7747,38
7748,38
7749,38
7750,38
7751,38
7752,38
7753,38
7754,38
7755,38
7756,38
7757,38
7758,38
7759,38
7760,39
7761,39
7762,39
7763,38
7764,38
7765,38
7766,39
7767,39
7768,39
7769,39
7770,39
7771,38
7772,38
7773,38
7774,38
7775,39
7776,39
7777,39
7778,39
7779,38
7780,39
7781,39
7782,39
7783,39
7784,39
7785,39
7786,39
7787,39
7788,40
7789,40
7790,40
7791,40
7792,40
7793,39
7794,39
7795,38
7796,39
7797,38
7798,38
7799,38
7800,38
7801,38
7802,38
7803,38
7804,38
7805,38
7806,37
7807,37
7808,37
7809,37
7810,37
7811,37
7812,37
7813,37
7814,37
7815,37
7816,37
7817,37
7818,37
7819,37
7820,37
7821,37
7822,37
7823,37
7824,37
7825,37
7826,37
7827,37
7828,37
7829,37
7830,37
7831,37
7832,38
7833,38
7834,38
7835,38
7836,38
7837,38
7838,37
7839,37
7840,37
7841,37
7842,37
7843,37
7844,37
7845,37
7846,37
7847,37
7848,37
7849,37
7850,37
7851,37
7852,37
7853,37
7854,37
7855,37
7856,37
7857,37
7858,37
7859,37
7860,37
7861,37
7862,38
7863,38
7864,38
7865,38
7866,39
7867,39
7868,39
7869,39
7870,39
7871,39
7872,40
7873,38
7874,38
7875,38
7876,39
7877,38
7878,39
7879,39
7880,40
7881,39
7882,39
7883,39
7884,40
7885,40
7886,40
7887,40
7888,40
7889,39
7890,41
7891,40
7892,40
7893,39
7894,39
7895,39
7896,39
7897,39
7898,38
7899,38
7900,38
7901,38
7902,38
7903,38
7904,38
7905,39
7906,38
7907,38
7908,38
7909,38
7910,38
7911,38
7912,38
7913,38
7914,38
7915,38
7916,38
7917,38
7918,38
7919,38
7920,38
7921,38
7922,38
7923,38
7924,38
7925,38
7926,38
7927,38
7928,38
7929,38
7930,38
7931,38
7932,38
7933,38
7934,38
7935,38
7936,38
7937,38
7938,38
7939,38
7940,39
7941,39
7942,39
7943,39
7944,39
7945,39
7946,39
7947,38
7948,38
7949,38
7950,38
7951,38
7952,38
7953,38
7954,38
7955,38
7956,38
7957,38
7958,38
7959,38
7960,38
7961,38
7962,38
7963,38
7964,38
7965,38
7966,38
7967,38
7968,38
7969,38
7970,38
7971,38
7972,38
7973,38
7974,38
7975,38
7976,38
7977,38
7978,38
7979,38
7980,38
7981,38
7982,38
7983,38
7984,38
7985,38
7986,38
7987,38
7988,38
7989,38
7990,39
7991,39
7992,38
7993,38
7994,38
7995,38
7996,38
7997,38
7998,38
7999,38
8000,38
8001,38
8002,39
8003,39
8004,38
8005,38
8006,38
8007,38
8008,38
8009,38
8010,38
8011,39
8012,39
8013,39
8014,39
8015,39
8016,39
8017,38
8018,38
8019,38
8020,38
8021,38
8022,38
8023,38
8024,38
8025,38
8026,38
8027,38
8028,38
8029,38
8030,38
8031,38
8032,38
8033,38
8034,38
8035,38
8036,38
8037,38
8038,38
8039,38
8040,38
8041,38
8042,38
8043,38
8044,38
8045,38
8046,38
8047,38
8048,38
8049,38
8050,38
8051,38
8052,38
8053,38
8054,38
8055,38
8056,38
8057,38
8058,38
8059,38
8060,38
8061,38
8062,38
8063,38
8064,38
8065,38
8066,38
8067,38
8068,38
8069,38
8070,38
8071,38
8072,38
8073,38
8074,38
8075,38
8076,38
8077,38
8078,38
8079,38
8080,38
8081,38
8082,38
8083,38
8084,38
8085,38
8086,38
8087,38
8088,38
8089,38
8090,38
8091,38
8092,38
8093,38
8094,38
8095,38
8096,38
8097,38
8098,38
8099,38
8100,38
8101,38
8102,38
8103,38
8104,38
8105,38
8106,38
8107,38
8108,38
8109,38
8110,38
8111,37
8112,37
8113,37
8114,37
8115,37
8116,37
8117,37
8118,37
8119,37
8120,37
8121,37
8122,37
8123,37
8124,37
8125,38
8126,37
8127,37
8128,37
8129,38
8130,38
8131,39
8132,38
8133,37
8134,37
8135,38
8136,37
8137,37
8138,37
8139,37
8140,37
8141,37
8142,37
8143,37
8144,37
8145,37
8146,37
8147,37
8148,37
8149,37
8150,37
8151,37
8152,37
8153,37
8154,37
8155,38
8156,37
8157,37
8158,37
8159,37
8160,37
8161,37
8162,37
8163,37
8164,37
8165,37
8166,37
8167,38
8168,37
8169,37
8170,37
8171,37
8172,37
8173,37
8174,37
8175,37
8176,37
8177,37
8178,37
8179,37
8180,37
8181,37
8182,37
8183,37
8184,37
8185,37
8186,37
8187,37
8188,37
8189,37
8190,37
8191,37
8192,37
8193,37
8194,37
8195,37
8196,37
8197,37
8198,37
8199,37
8200,37
8201,37
8202,37
8203,37
8204,37
8205,37
8206,38
8207,38
8208,37
8209,37
8210,37
8211,37
8212,37
8213,38
8214,38
8215,38
8216,37
8217,37
8218,37
8219,37
8220,37
8221,38
8222,38
8223,38
8224,38
8225,38
8226,38
8227,38
8228,38
8229,38
8230,38
8231,38
8232,38
8233,38
8234,38
8235,38
8236,38
8237,38
8238,38
8239,38
8240,38
8241,38
8242,38
8243,38
8244,38
8245,38
8246,38
8247,38
8248,38
8249,38
8250,38
8251,38
8252,38
8253,38
8254,38
8255,38
8256,38
8257,38
8258,38
8259,38
8260,38
8261,38
8262,38
8263,38
8264,38
8265,38
8266,38
8267,38
8268,38
8269,38
8270,38
8271,38
8272,38
8273,38
8274,38
8275,38
8276,38
8277,38
8278,38
8279,38
8280,38
8281,38
8282,39
8283,39
8284,39
8285,39
8286,39
8287,39
8288,39
8289,39
8290,39
8291,39
8292,39
8293,39
8294,38
8295,38
8296,38
8297,38
8298,38
8299,38
8300,38
8301,38
8302,38
8303,38
8304,38
8305,38
8306,38
8307,38
8308,38
8309,38
8310,38
8311,38
8312,38
8313,38
8314,38
8315,38
8316,38
8317,38
8318,39
8319,38
8320,38
8321,38
8322,38
8323,38
8324,38
8325,38
8326,38
8327,38
8328,38
8329,38
8330,38
8331,38
8332,38
8333,38
8334,38
8335,38
8336,38
8337,38
8338,38
8339,38
8340,37
8341,37
8342,37
8343,37
8344,37
8345,37
8346,37
8347,37
8348,37
8349,37
8350,37
8351,38
8352,38
8353,38
8354,39
8355,39
8356,39
8357,39
8358,40
8359,38
8360,38
8361,38
8362,38
8363,38
8364,38
8365,38
8366,38
8367,38
8368,38
8369,38
8370,38
8371,38
8372,38
8373,39
8374,40
8375,39
8376,39
8377,39
8378,39
8379,39
8380,38
8381,38
8382,38
8383,38
8384,38
8385,39
8386,39
8387,38
8388,38
8389,38
8390,38
8391,38
8392,38
8393,38
8394,38
8395,38
8396,38
8397,38
8398,39
8399,38
8400,38
8401,37
8402,37
8403,37
8404,37
8405,37
8406,37
8407,37
8408,37
8409,37
8410,37
8411,37
8412,37
8413,37
8414,37
8415,37
8416,37
8417,37
8418,37
8419,37
8420,38
8421,38
8422,39
8423,38
8424,37
8425,37
8426,37
8427,37
8428,37
8429,37
8430,37
8431,37
8432,37
8433,37
8434,37
8435,37
8436,37
8437,37
8438,37
8439,37
8440,37
8441,37
8442,37
8443,37
8444,37
8445,38
8446,37
8447,37
8448,37
8449,37
8450,37
8451,37
8452,37
8453,37
8454,38
8455,38
8456,38
8457,38
8458,38
8459,38
8460,38
8461,37
8462,37
8463,37
8464,37
8465,37
8466,37
8467,38
8468,37
8469,37
8470,37
8471,37
8472,37
8473,37
8474,37
8475,37
8476,37
8477,37
8478,38
8479,37
8480,37
8481,37
8482,37
8483,37
8484,37
8485,37
8486,37
8487,37
8488,37
8489,37
8490,37
8491,37
8492,37
8493,37
8494,37
8495,37
8496,37
8497,37
8498,37
8499,37
8500,37
8501,37
8502,37
8503,37
8504,37
8505,37
8506,37
8507,37
8508,37
8509,37
8510,37
8511,37
8512,37
8513,37
8514,37
8515,36
8516,36
8517,36
8518,36
8519,36
8520,36
8521,36
8522,36
8523,36
8524,36
8525,36
8526,36
8527,36
8528,36
8529,36
8530,36
8531,36
8532,36
8533,36
8534,36
8535,36
8536,36
8537,37
8538,36
8539,36
8540,36
8541,36
8542,36
8543,36
8544,36
8545,36
8546,36
8547,37
8548,37
8549,38
8550,38
8551,38
8552,37
8553,37
8554,36
8555,36
8556,36
8557,36
8558,36
8559,36
8560,36
8561,36
8562,36
8563,36
8564,36
8565,36
8566,36
8567,36
8568,36
8569,36
8570,36
8571,36
8572,36
8573,36
8574,36
8575,36
8576,37
8577,36
8578,36
8579,36
8580,36
8581,36
8582,36
8583,36
8584,36
8585,36
8586,36
8587,36
8588,36
8589,36
8590,36
8591,36
8592,36
8593,36
8594,36
8595,36
8596,37
8597,37
8598,36
8599,36
8600,36
8601,36
8602,36
8603,36
8604,36
8605,36
8606,36
8607,36
8608,36
8609,36
8610,36
8611,36
8612,36
8613,37
8614,36
8615,36
8616,36
8617,36
8618,36
8619,36
8620,36
8621,36
8622,36
8623,36
8624,37
8625,37
8626,37
8627,37
8628,37
8629,37
8630,37
8631,37
8632,38
8633,38
8634,38
8635,38
8636,38
8637,38
8638,38
8639,37
8640,37
8641,37
8642,37
8643,37
8644,37
8645,37
8646,37
8647,37
8648,37
8649,37
8650,37
8651,37
8652,37
8653,37
8654,37
8655,37
8656,37
8657,37
8658,37
8659,37
8660,37
8661,37
8662,37
8663,37
8664,37
8665,37
8666,37
8667,37
8668,37
8669,37
8670,37
8671,37
8672,37
8673,37
8674,37
8675,37
8676,36
8677,36
8678,36
8679,36
8680,36
8681,36
8682,36
8683,36
8684,36
8685,36
8686,36
8687,37
8688,37
8689,37
8690,37
8691,38
8692,38
8693,37
8694,37
8695,37
8696,38
8697,38
8698,38
8699,38
8700,38
8701,39
8702,38
8703,37
8704,37
8705,37
8706,37
8707,37
8708,36
8709,36
8710,36
8711,36
8712,36
8713,36
8714,36
8715,36
8716,36
8717,36
8718,36
8719,36
8720,36
8721,36
8722,36
8723,36
8724,36
8725,36
8726,36
8727,36
8728,36
8729,36
8730,36
8731,36
8732,36
8733,36
8734,36
8735,36
8736,36
8737,36
8738,36
8739,36
8740,36
8741,36
8742,37
8743,37
8744,37
8745,37
8746,37
8747,37
8748,37
8749,37
8750,37
8751,37
8752,37
8753,37
8754,37
8755,37
8756,37
8757,37
8758,37
8759,37
8760,37
8761,37
8762,37
8763,37
8764,37
8765,37
8766,37
8767,37
8768,37
8769,37
8770,37
8771,37
8772,37
8773,37
8774,37
8775,38
8776,38
8777,38
8778,38
8779,38
8780,38
8781,38
8782,38
8783,38
8784,39
8785,39
8786,39
8787,39
8788,39
8789,39
8790,39
8791,39
8792,39
8793,39
8794,39
8795,39
8796,39
8797,39
8798,40
8799,40
8800,39
8801,39
8802,39
8803,39
8804,39
8805,39
8806,39
8807,39
8808,39
8809,39
8810,39
8811,40
8812,40
8813,40
8814,40
8815,40
8816,40
8817,40
8818,39
8819,39
8820,39
8821,39
8822,39
8823,39
8824,39
8825,39
8826,39
8827,39
8828,40
8829,39
8830,39
8831,39
8832,39
8833,39
8834,39
8835,39
8836,39
8837,40
8838,40
8839,40
8840,40
8841,40
8842,40
8843,41
8844,41
8845,41
8846,42
8847,41
8848,41
8849,40
8850,40
8851,40
8852,40
8853,40
8854,40
8855,40
8856,40
8857,39
8858,39
8859,39
8860,39
8861,39
8862,39
8863,39
8864,39
8865,39
8866,39
8867,39
8868,39
8869,40
8870,40
8871,40
8872,40
8873,39
8874,39
8875,39
8876,39
8877,39
8878,39
8879,40
8880,39
8881,39
8882,39
8883,39
8884,39
8885,40
8886,39
8887,39
8888,39
8889,39
8890,39
8891,39
8892,39
8893,39
8894,39
8895,39
8896,39
8897,39
8898,39
8899,39
8900,39
8901,39
8902,39
8903,39
8904,39
8905,39
8906,39
8907,39
8908,39
8909,39
8910,39
8911,39
8912,39
8913,38
8914,38
8915,38
8916,39
8917,39
8918,38
8919,38
8920,38
8921,38
8922,38
8923,38
8924,38
8925,38
8926,38
8927,40
8928,39
8929,39
8930,39
8931,39
8932,39
8933,40
8934,40
8935,39
8936,39
8937,39
8938,39
8939,39
8940,39
8941,39
8942,39
8943,39
8944,39
8945,39
8946,39
8947,39
8948,39
8949,39
8950,39
8951,39
8952,39
8953,39
8954,39
8955,39
8956,39
8957,39
8958,39
8959,39
8960,39
8961,39
8962,39
8963,39
8964,40
8965,40
8966,40
8967,40
8968,39
8969,39
8970,40
8971,40
8972,40
8973,39
8974,39
8975,39
8976,39
8977,39
8978,39
8979,39
8980,39
8981,40
8982,39
8983,38
8984,38
8985,38
8986,38
8987,38
8988,38
8989,38
8990,38
8991,38
8992,38
8993,38
8994,38
8995,38
8996,38
8997,38
8998,38
8999,38
9000,38
9001,38
9002,39
9003,39
9004,38
9005,38
9006,38
9007,37
9008,37
9009,37
9010,37
9011,37
9012,38
9013,37
9014,37
9015,38
9016,38
9017,38
9018,38
9019,38
9020,38
9021,38
9022,38
9023,38
9024,38
9025,38
9026,38
9027,39
9028,39
9029,39
9030,38
9031,38
9032,38
9033,38
9034,38
9035,38
9036,38
9037,38
9038,38
9039,38
9040,38
9041,38
9042,38
9043,38
9044,38
9045,38
9046,38
9047,38
9048,38
9049,38
9050,38
9051,38
9052,38
9053,39
9054,39
9055,39
9056,38
9057,38
9058,38
9059,38
9060,38
9061,38
9062,38
9063,38
9064,38
9065,38
9066,38
9067,38
9068,38
9069,38
9070,38
9071,38
9072,38
9073,38
9074,38
9075,39
9076,39
9077,39
9078,39
9079,39
9080,39
9081,38
9082,39
9083,38
9084,39
9085,38
9086,38
9087,38
9088,38
9089,38
9090,38
9091,38
9092,39
9093,39
9094,39
9095,39
9096,39
9097,39
9098,39
9099,38
9100,38
9101,38
9102,38
9103,38
9104,38
9105,38
9106,38
9107,38
9108,38
9109,38
9110,38
9111,38
9112,38
9113,38
9114,38
9115,38
9116,38
9117,38
9118,38
9119,38
9120,39
9121,38
9122,38
9123,38
9124,38
9125,38
9126,38
9127,38
9128,38
9129,38
9130,38
9131,38
9132,38
9133,38
9134,38
9135,38
9136,38
9137,38
9138,38
9139,38
9140,38
9141,38
9142,38
9143,38
9144,38
9145,38
9146,38
9147,39
9148,39
9149,39
9150,39
9151,39
9152,39
9153,39
9154,39
9155,38
9156,38
9157,38
9158,38
9159,38
9160,38
9161,38
9162,39
9163,39
9164,39
9165,39
9166,38
9167,38
9168,38
9169,38
9170,38
9171,38
9172,38
9173,38
9174,38
9175,38
9176,38
9177,38
9178,38
9179,38
9180,38
9181,38
9182,38
9183,38
9184,38
9185,38
9186,38
9187,38
9188,38
9189,38
9190,38
9191,39
9192,39
9193,40
9194,40
9195,40
9196,40
9197,40
9198,40
9199,40
9200,40
9201,40
9202,40
9203,39
9204,39
9205,39
9206,39
9207,39
9208,39
9209,39
9210,39
9211,39
9212,39
9213,39
9214,39
9215,39
9216,39
9217,39
9218,39
9219,39
9220,39
9221,39
9222,39
9223,39
9224,39
9225,39
9226,39
9227,39
9228,39
9229,39
9230,39
9231,39
9232,40
9233,40
9234,39
9235,40
9236,40
9237,39
9238,39
9239,39
9240,39
9241,39
9242,39
9243,39
9244,40
9245,39
9246,39
9247,39
9248,39
9249,40
9250,39
9251,39
9252,38
9253,38
9254,38
9255,38
9256,38
9257,38
9258,38
9259,38
9260,39
9261,39
9262,39
9263,38
9264,38
9265,38
9266,38
9267,38
9268,38
9269,38
9270,38
9271,38
9272,38
9273,38
9274,38
9275,38
9276,38
9277,38
9278,38
9279,37
9280,37
9281,37
9282,38
9283,37
9284,37
9285,37
9286,37
9287,37
9288,37
9289,38
9290,38
9291,38
9292,39
9293,39
9294,39
9295,39
9296,39
9297,38
9298,38
9299,38
9300,37
9301,37
9302,37
9303,37
9304,37
9305,37
9306,37
9307,37
9308,38
9309,38
9310,38
9311,37
9312,37
9313,37
9314,37
9315,37
9316,37
9317,37
9318,37
9319,37
9320,37
9321,37
9322,37
9323,37
9324,38
9325,38
9326,38
9327,37
9328,37
9329,37
9330,37
9331,37
9332,37
9333,37
9334,37
9335,36
9336,36
9337,36
9338,36
9339,36
9340,36
9341,36
9342,36
9343,36
9344,36
9345,36
9346,36
9347,36
9348,36
9349,36
9350,36
9351,36
9352,36
9353,36
9354,36
9355,36
9356,36
9357,37
9358,36
9359,36
9360,36
9361,36
9362,36
9363,36
9364,36
9365,36
9366,37
9367,36
9368,36
9369,36
9370,36
9371,36
9372,36
9373,36
9374,36
9375,36
9376