1,3
2,3
3,3
4,3
5,3
6,3
7,3
8,4
9,4
10,4
11,4
12,4
13,4
14,4
15,4
16,4
17,4
18,4
19,4
20,5
21,5
22,5
23,5
24,5
25,5
26,5
27,5
28,5
29,5
30,5
31,5
32,5
33,5
34,5
35,5
36,5
37,5
38,5
39,5
40,5
41,6
42,6
43,6
44,6
45,6
46,6
47,7
48,6
49,6
50,6
51,7
52,7
53,7
54,7
55,8
56,8
57,8
58,7
59,7
60,7
61,8
62,7
63,7
64,7
65,7
66,7
67,7
68,7
69,7
70,7
71,7
72,7
73,7
74,7
75,7
76,7
77,7
78,7
79,7
80,7
81,7
82,7
83,7
84,7
85,7
86,8
87,8
88,8
89,7
90,7
91,7
92,7
93,7
94,8
95,7
96,7
97,7
98,7
99,7
100,7
101,8
102,8
103,8
104,8
105,8
106,7
107,7
108,7
109,7
110,8
111,8
112,8
113,8
114,8
115,8
116,8
117,8
118,8
119,8
120,8
121,8
122,8
123,8
124,8
125,8
126,8
127,8
128,8
129,8
130,8
131,8
132,8
133,8
134,8
135,8
136,8
137,8
138,8
139,8
140,8
141,8
142,8
143,8
144,8
145,8
146,8
147,8
148,8
149,8
150,8
151,8
152,8
153,8
154,8
155,8
156,8
157,8
158,8
159,8
160,8
161,8
162,8
163,8
164,8
165,8
166,8
167,8
168,8
169,8
170,9
171,8
172,8
173,9
174,8
175,8
176,9
177,9
178,9
179,10
180,10
181,9
182,9
183,9
184,9
185,9
186,9
187,9
188,9
189,9
190,9
191,9
192,9
193,9
194,9
195,9
196,9
197,9
198,9
199,9
200,9
201,9
202,9
203,10
204,9
205,9
206,9
207,9
208,9
209,9
210,10
211,10
212,9
213,9
214,9
215,9
216,9
217,9
218,9
219,9
220,9
221,9
222,9
223,9
224,9
225,9
226,9
227,9
228,9
229,9
230,9
231,9
232,9
233,9
234,9
235,9
236,9
237,9
238,9
239,9
240,9
241,9
242,9
243,9
244,9
245,9
246,9
247,9
248,9
249,9
250,9
251,9
252,9
253,9
254,10
255,9
256,9
257,9
258,9
259,9
260,9
261,9
262,9
263,9
264,9
265,9
266,9
267,9
268,9
269,9
270,9
271,9
272,9
273,9
274,9
275,9
276,9
277,9
278,9
279,9
280,9
281,9
282,9
283,9
284,9
285,9
286,9
287,9
288,9
289,9
290,9
291,10
292,10
293,10
294,11
295,10
296,10
297,10
298,12
299,12
300,11
301,11
302,11
303,11
304,11
305,11
306,11
307,11
308,11
309,11
310,10
311,10
312,11
313,12
314,11
315,10
316,10
317,10
318,10
319,10
320,10
321,10
322,10
323,10
324,10
325,10
326,10
327,10
328,10
329,10
330,11
331,11
332,11
333,11
334,12
335,11
336,11
337,11
338,11
339,11
340,11
341,11
342,11
343,11
344,11
345,12
346,12
347,12
348,12
349,12
350,12
351,12
352,12
353,11
354,11
355,11
356,12
357,12
358,12
359,11
360,11
361,11
362,10
363,11
364,11
365,10
366,10
367,10
368,10
369,10
370,10
371,10
372,10
373,10
374,10
375,10
376,10
377,10
378,10
379,10
380,10
381,10
382,10
383,10
384,10
385,10
386,10
387,10
388,10
389,10
390,10
391,10
392,10
393,10
394,10
395,10
396,10
397,10
398,10
399,10
400,10
401,10
402,10
403,11
404,11
405,11
406,11
407,11
408,11
409,11
410,11
411,11
412,11
413,11
414,11
415,10
416,10
417,10
418,10
419,10
420,10
421,10
422,11
423,11
424,10
425,11
426,11
427,11
428,11
429,11
430,11
431,11
432,11
433,11
434,11
435,11
436,11
437,11
438,11
439,11
440,11
441,11
442,11
443,11
444,11
445,11
446,11
447,11
448,11
449,11
450,12
451,12
452,12
453,12
454,12
455,12
456,12
457,12
458,12
459,12
460,12
461,12
462,12
463,12
464,12
465,12
466,12
467,12
468,12
469,12
470,12
471,12
472,12
473,12
474,12
475,12
476,11
477,12
478,11
479,11
480,11
481,11
482,11
483,11
484,12
485,11
486,11
487,11
488,11
489,11
490,11
491,11
492,11
493,11
494,11
495,11
496,11
497,11
498,11
499,11
500,11
501,11
502,11
503,11
504,11
505,11
506,11
507,11
508,11
509,11
510,11
511,11
512,11
513,11
514,11
515,11
516,11
517,11
518,12
519,11
520,11
521,11
522,11
523,11
524,11
525,11
526,12
527,12
528,11
529,11
530,11
531,11
532,11
533,11
534,11
535,11
536,11
537,11
538,11
539,11
540,11
541,11
542,11
543,11
544,11
545,12
546,12
547,12
548,12
549,11
550,11
551,11
552,11
553,11
554,11
555,11
556,11
557,11
558,11
559,11
560,11
561,11
562,11
563,11
564,11
565,11
566,11
567,11
568,11
569,11
570,11
571,11
572,11
573,11
574,12
575,12
576,12
577,13
578,13
579,13
580,12
581,12
582,12
583,13
584,13
585,12
586,12
587,12
588,12
589,12
590,12
591,12
592,12
593,13
594,13
595,13
596,13
597,12
598,12
599,12
600,12
601,12
602,13
603,12
604,12
605,12
606,12
607,12
608,12
609,12
610,12
611,12
612,13
613,13
614,13
615,13
616,13
617,14
618,14
619,14
620,13
621,13
622,13
623,14
624,14
625,14
626,13
627,13
628,13
629,13
630,13
631,14
632,13
633,13
634,13
635,13
636,13
637,13
638,13
639,13
640,13
641,13
642,13
643,13
644,13
645,13
646,13
647,13
648,13
649,14
650,13
651,13
652,13
653,13
654,13
655,13
656,13
657,13
658,13
659,13
660,13
661,13
662,13
663,13
664,13
665,13
666,13
667,13
668,13
669,13
670,13
671,13
672,13
673,13
674,13
675,13
676,13
677,13
678,13
679,13
680,13
681,13
682,13
683,13
684,13
685,13
686,13
687,13
688,14
689,14
690,14
691,13
692,13
693,13
694,13
695,13
696,13
697,13
698,13
699,13
700,13
701,13
702,13
703,13
704,13
705,13
706,13
707,13
708,13
709,14
710,14
711,15
712,14
713,14
714,13
715,13
716,13
717,13
718,13
719,13
720,13
721,13
722,13
723,13
724,13
725,13
726,13
727,13
728,13
729,13
730,13
731,13
732,13
733,13
734,13
735,13
736,13
737,13
738,13
739,13
740,13
741,13
742,13
743,13
744,13
745,13
746,13
747,13
748,13
749,13
750,13
751,13
752,13
753,13
754,14
755,14
756,14
757,14
758,14
759,14
760,14
761,14
762,14
763,14
764,14
765,14
766,15
767,14
768,14
769,14
770,14
771,14
772,14
773,14
774,15
775,14
776,14
777,14
778,13
779,13
780,13
781,14
782,14
783,14
784,14
785,14
786,14
787,15
788,17
789,17
790,16
791,16
792,15
793,15
794,15
795,15
796,14
797,15
798,14
799,14
800,14
801,14
802,14
803,14
804,14
805,14
806,14
807,14
808,14
809,14
810,14
811,14
812,14
813,14
814,14
815,14
816,14
817,14
818,14
819,14
820,14
821,14
822,14
823,14
824,14
825,14
826,14
827,14
828,14
829,14
830,14
831,14
832,14
833,14
834,14
835,14
836,14
837,14
838,14
839,14
840,14
841,14
842,14
843,14
844,14
845,14
846,14
847,14
848,14
849,14
850,14
851,14
852,14
853,14
854,14
855,14
856,15
857,14
858,14
859,14
860,14
861,14
862,14
863,14
864,14
865,14
866,14
867,14
868,14
869,14
870,14
871,14
872,14
873,14
874,14
875,15
876,14
877,14
878,14
879,14
880,14
881,14
882,14
883,14
884,14
885,14
886,14
887,14
888,14
889,14
890,14
891,14
892,14
893,14
894,14
895,14
896,14
897,14
898,14
899,14
900,14
901,14
902,14
903,14
904,14
905,14
906,14
907,14
908,14
909,14
910,14
911,14
912,14
913,14
914,14
915,14
916,14
917,14
918,14
919,14
920,14
921,14
922,14
923,14
924,14
925,14
926,14
927,14
928,14
929,14
930,14
931,14
932,15
933,15
934,14
935,14
936,14
937,14
938,14
939,15
940,15
941,15
942,15
943,15
944,14
945,14
946,14
947,14
948,14
949,14
950,14
951,14
952,14
953,14
954,14
955,14
956,14
957,14
958,14
959,15
960,14
961,14
962,14
963,14
964,14
965,14
966,14
967,14
968,14
969,14
970,14
971,14
972,14
973,14
974,14
975,15
976,16
977,15
978,15
979,15
980,15
981,15
982,15
983,15
984,15
985,15
986,15
987,15
988,14
989,14
990,14
991,14
992,14
993,14
994,14
995,14
996,14
997,14
998,15
999,14
1000,14
1001,14
1002,14
1003,14
1004,14
1005,14
1006,14
1007,14
1008,14
1009,14
1010,14
1011,14
1012,14
1013,14
1014,14
1015,14
1016,14
1017,14
1018,14
1019,14
1020,14
1021,14
1022,14
1023,14
1024,14
1025,14
1026,15
1027,15
1028,15
1029,15
1030,15
1031,15
1032,15
1033,15
1034,15
1035,15
1036,15
1037,15
1038,15
1039,15
1040,15
1041,15
1042,15
1043,14
1044,14
1045,14
1046,14
1047,14
1048,14
1049,14
1050,14
1051,14
1052,14
1053,14
1054,14
1055,14
1056,16
1057,15
1058,15
1059,14
1060,14
1061,14
1062,14
1063,14
1064,14
1065,14
1066,14
1067,14
1068,14
1069,14
1070,14
1071,14
1072,14
1073,14
1074,14
1075,14
1076,15
1077,15
1078,15
1079,15
1080,15
1081,15
1082,15
1083,15
1084,16
1085,15
1086,15
1087,15
1088,15
1089,15
1090,15
1091,15
1092,15
1093,15
1094,15
1095,15
1096,15
1097,15
1098,15
1099,15
1100,15
1101,16
1102,15
1103,15
1104,15
1105,15
1106,15
1107,15
1108,16
1109,15
1110,15
1111,15
1112,15
1113,15
1114,16
1115,15
1116,15
1117,16
1118,16
1119,17
1120,18
1121,17
1122,17
1123,17
1124,17
1125,17
1126,18
1127,16
1128,16
1129,16
1130,16
1131,16
1132,16
1133,16
1134,16
1135,16
1136,16
1137,16
1138,16
1139,16
1140,16
1141,16
1142,16
1143,16
1144,16
1145,16
1146,17
1147,16
1148,16
1149,16
1150,16
1151,16
1152,16
1153,16
1154,16
1155,16
1156,17
1157,17
1158,16
1159,17
1160,17
1161,17
1162,16
1163,16
1164,16
1165,16
1166,16
1167,16
1168,16
1169,16
1170,16
1171,16
1172,16
1173,16
1174,16
1175,16
1176,16
1177,16
1178,16
1179,16
1180,17
1181,16
1182,16
1183,16
1184,16
1185,16
1186,17
1187,16
1188,16
1189,16
1190,17
1191,17
1192,17
1193,17
1194,17
1195,18
1196,18
1197,18
1198,18
1199,17
1200,17
1201,17
1202,17
1203,17
1204,17
1205,17
1206,17
1207,17
1208,17
1209,17
1210,17
1211,17
1212,17
1213,17
1214,17
1215,17
1216,17
1217,17
1218,17
1219,17
1220,17
1221,17
1222,17
1223,17
1224,17
1225,17
1226,17
1227,17
1228,17
1229,17
1230,17
1231,17
1232,17
1233,17
1234,17
1235,17
1236,17
1237,17
1238,17
1239,17
1240,17
1241,17
1242,17
1243,17
1244,17
1245,17
1246,17
1247,17
1248,17
1249,17
1250,17
1251,17
1252,17
1253,17
1254,17
1255,17
1256,17
1257,17
1258,17
1259,17
1260,17
1261,17
1262,17
1263,17
1264,17
1265,17
1266,17
1267,17
1268,17
1269,17
1270,17
1271,17
1272,17
1273,18
1274,18
1275,18
1276,18
1277,17
1278,17
1279,17
1280,17
1281,17
1282,17
1283,18
1284,17
1285,17
1286,17
1287,17
1288,17
1289,17
1290,17
1291,17
1292,17
1293,17
1294,17
1295,17
1296,17
1297,17
1298,17
1299,17
1300,17
1301,17
1302,17
1303,17
1304,17
1305,17
1306,17
1307,17
1308,17
1309,17
1310,17
1311,17
1312,17
1313,17
1314,17
1315,17
1316,17
1317,17
1318,17
1319,17
1320,17
1321,17
1322,17
1323,17
1324,17
1325,17
1326,17
1327,17
1328,18
1329,18
1330,19
1331,18
1332,17
1333,17
1334,17
1335,17
1336,18
1337,18
1338,18
1339,18
1340,18
1341,18
1342,18
1343,18
1344,18
1345,18
1346,18
1347,18
1348,18
1349,18
1350,18
1351,18
1352,18
1353,18
1354,18
1355,18
1356,18
1357,18
1358,18
1359,18
1360,18
1361,18
1362,18
1363,18
1364,18
1365,18
1366,18
1367,18
1368,18
1369,18
1370,18
1371,18
1372,18
1373,18
1374,19
1375,18
1376,18
1377,18
1378,19
1379,19
1380,18
1381,18
1382,18
1383,18
1384,18
1385,18
1386,18
1387,18
1388,18
1389,18
1390,18
1391,18
1392,18
1393,18
1394,18
1395,18
1396,18
1397,18
1398,18
1399,18
1400,18
1401,18
1402,18
1403,19
1404,19
1405,19
1406,19
1407,19
1408,18
1409,18
1410,18
1411,18
1412,18
1413,18
1414,18
1415,18
1416,18
1417,18
1418,18
1419,18
1420,18
1421,19
1422,19
1423,18
1424,18
1425,18
1426,18
1427,18
1428,18
1429,18
1430,18
1431,18
1432,18
1433,18
1434,18
1435,18
1436,18
1437,18
1438,18
1439,19
1440,18
1441,18
1442,18
1443,18
1444,18
1445,18
1446,18
1447,18
1448,18
1449,18
1450,18
1451,18
1452,18
1453,18
1454,18
1455,18
1456,18
1457,18
1458,18
1459,18
1460,18
1461,18
1462,18
1463,18
1464,18
1465,19
1466,19
1467,19
1468,19
1469,19
1470,19
1471,19
1472,19
1473,19
1474,19
1475,19
1476,20
1477,20
1478,20
1479,19
1480,19
1481,19
1482,19
1483,19
1484,19
1485,19
1486,20
1487,19
1488,19
1489,19
1490,19
1491,19
1492,19
1493,19
1494,19
1495,19
1496,20
1497,19
1498,19
1499,19
1500,19
1501,19
1502,19
1503,19
1504,19
1505,19
1506,19
1507,19
1508,19
1509,20
1510,19
1511,19
1512,19
1513,19
1514,19
1515,20
1516,19
1517,19
1518,19
1519,19
1520,19
1521,19
1522,19
1523,19
1524,19
1525,19
1526,19
1527,19
1528,19
1529,20
1530,21
1531,21
1532,21
1533,21
1534,21
1535,21
1536,21
1537,21
1538,21
1539,21
1540,21
1541,22
1542,21
1543,20
1544,20
1545,20
1546,20
1547,20
1548,20
1549,20
1550,20
1551,20
1552,20
1553,21
1554,20
1555,20
1556,20
1557,20
1558,20
1559,20
1560,20
1561,20
1562,20
1563,20
1564,20
1565,20
1566,20
1567,20
1568,20
1569,20
1570,21
1571,21
1572,21
1573,21
1574,21
1575,21
1576,21
1577,21
1578,21
1579,21
1580,21
1581,21
1582,21
1583,21
1584,21
1585,21
1586,21
1587,21
1588,22
1589,21
1590,21
1591,21
1592,21
1593,21
1594,21
1595,21
1596,21
1597,21
1598,21
1599,21
1600,21
1601,21
1602,21
1603,21
1604,21
1605,21
1606,21
1607,21
1608,21
1609,21
1610,21
1611,21
1612,21
1613,21
1614,21
1615,21
1616,21
1617,21
1618,21
1619,21
1620,21
1621,21
1622,21
1623,21
1624,21
1625,21
1626,21
1627,21
1628,21
1629,21
1630,21
1631,21
1632,21
1633,21
1634,21
1635,21
1636,21
1637,21
1638,22
1639,22
1640,22
1641,22
1642,21
1643,21
1644,22
1645,22
1646,22
1647,22
1648,21
1649,21
1650,21
1651,21
1652,21
1653,21
1654,21
1655,21
1656,21
1657,21
1658,21
1659,21
1660,21
1661,21
1662,21
1663,21
1664,21
1665,21
1666,21
1667,21
1668,21
1669,21
1670,21
1671,21
1672,21
1673,21
1674,21
1675,21
1676,21
1677,21
1678,21
1679,21
1680,21
1681,21
1682,21
1683,21
1684,21
1685,21
1686,21
1687,21
1688,21
1689,21
1690,21
1691,21
1692,21
1693,21
1694,21
1695,21
1696,21
1697,21
1698,21
1699,21
1700,21
1701,21
1702,21
1703,22
1704,22
1705,22
1706,22
1707,21
1708,21
1709,21
1710,21
1711,21
1712,21
1713,21
1714,21
1715,21
1716,21
1717,21
1718,21
1719,21
1720,21
1721,21
1722,21
1723,21
1724,22
1725,23
1726,22
1727,22
1728,22
1729,22
1730,22
1731,22
1732,21
1733,21
1734,21
1735,21
1736,21
1737,21
1738,21
1739,21
1740,21
1741,21
1742,22
1743,21
1744,21
1745,21
1746,21
1747,21
1748,21
1749,21
1750,21
1751,21
1752,21
1753,21
1754,21
1755,21
1756,21
1757,21
1758,21
1759,21
1760,21
1761,21
1762,21
1763,21
1764,21
1765,22
1766,21
1767,21
1768,21
1769,21
1770,21
1771,21
1772,21
1773,21
1774,21
1775,21
1776,21
1777,21
1778,21
1779,21
1780,21
1781,21
1782,21
1783,22
1784,21
1785,21
1786,21
1787,21
1788,21
1789,21
1790,21
1791,21
1792,21
1793,21
1794,21
1795,22
1796,21
1797,21
1798,21
1799,21
1800,21
1801,21
1802,22
1803,22
1804,22
1805,22
1806,22
1807,22
1808,22
1809,22
1810,22
1811,22
1812,22
1813,22
1814,22
1815,22
1816,23
1817,23
1818,23
1819,23
1820,23
1821,23
1822,23
1823,24
1824,23
1825,23
1826,23
1827,23
1828,23
1829,23
1830,23
1831,23
1832,23
1833,23
1834,23
1835,23
1836,23
1837,23
1838,23
1839,23
1840,23
1841,24
1842,24
1843,25
1844,25
1845,25
1846,24
1847,24
1848,24
1849,25
1850,25
1851,24
1852,24
1853,24
1854,24
1855,24
1856,24
1857,24
1858,24
1859,24
1860,24
1861,24
1862,24
1863,24
1864,24
1865,24
1866,25
1867,25
1868,24
1869,25
1870,24
1871,24
1872,24
1873,25
1874,25
1875,25
1876,26
1877,26
1878,26
1879,26
1880,27
1881,26
1882,26
1883,26
1884,26
1885,26
1886,26
1887,26
1888,26
1889,26
1890,25
1891,25
1892,25
1893,25
1894,25
1895,25
1896,25
1897,25
1898,25
1899,25
1900,25
1901,25
1902,25
1903,25
1904,25
1905,25
1906,25
1907,25
1908,25
1909,25
1910,25
1911,25
1912,26
1913,26
1914,26
1915,26
1916,26
1917,26
1918,26
1919,26
1920,26
1921,26
1922,26
1923,26
1924,26
1925,26
1926,26
1927,26
1928,26
1929,26
1930,26
1931,26
1932,26
1933,26
1934,26
1935,26
1936,26
1937,26
1938,26
1939,26
1940,26
1941,26
1942,26
1943,26
1944,26
1945,26
1946,26
1947,26
1948,26
1949,26
1950,26
1951,26
1952,26
1953,26
1954,26
1955,27
1956,26
1957,26
1958,26
1959,26
1960,26
1961,26
1962,26
1963,26
1964,26
1965,26
1966,26
1967,26
1968,26
1969,26
1970,26
1971,26
1972,26
1973,26
1974,26
1975,26
1976,26
1977,26
1978,26
1979,26
1980,26
1981,26
1982,26
1983,26
1984,26
1985,26
1986,26
1987,26
1988,26
1989,26
1990,26
1991,26
1992,26
1993,26
1994,26
1995,26
1996,26
1997,26
1998,26
1999,26
2000,26
2001,26
2002,26
2003,26
2004,26
2005,26
2006,26
2007,26
2008,26
2009,26
2010,27
2011,27
2012,27
2013,27
2014,27
2015,27
2016,27
2017,26
2018,26
2019,26
2020,26
2021,26
2022,26
2023,26
2024,26
2025,26
2026,26
2027,26
2028,26
2029,26
2030,26
2031,26
2032,26
2033,26
2034,26
2035,26
2036,26
2037,26
2038,26
2039,26
2040,26
2041,26
2042,26
2043,26
2044,26
2045,26
2046,26
2047,26
2048,26
2049,26
2050,26
2051,26
2052,27
2053,27
2054,27
2055,27
2056,28
2057,28
2058,27
2059,27
2060,27
2061,27
2062,27
2063,27
2064,27
2065,27
2066,27
2067,27
2068,27
2069,27
2070,27
2071,27
2072,27
2073,27
2074,27
2075,27
2076,27
2077,27
2078,27
2079,27
2080,27
2081,27
2082,27
2083,28
2084,27
2085,27
2086,27
2087,27
2088,27
2089,27
2090,26
2091,26
2092,26
2093,26
2094,26
2095,26
2096,26
2097,26
2098,26
2099,27
2100,26
2101,26
2102,26
2103,26
2104,26
2105,26
2106,26
2107,26
2108,27
2109,27
2110,27
2111,27
2112,27
2113,27
2114,27
2115,26
2116,26
2117,26
2118,26
2119,26
2120,26
2121,26
2122,26
2123,26
2124,26
2125,26
2126,26
2127,26
2128,26
2129,26
2130,26
2131,26
2132,26
2133,26
2134,26
2135,26
2136,26
2137,26
2138,26
2139,26
2140,26
2141,26
2142,26
2143,26
2144,26
2145,26
2146,26
2147,26
2148,26
2149,26
2150,26
2151,26
2152,26
2153,26
2154,26
2155,26
2156,26
2157,26
2158,26
2159,26
2160,26
2161,26
2162,26
2163,26
2164,26
2165,26
2166,26
2167,26
2168,26
2169,26
2170,26
2171,26
2172,26
2173,26
2174,26
2175,26
2176,26
2177,26
2178,26
2179,26
2180,26
2181,26
2182,26
2183,26
2184,26
2185,26
2186,26
2187,26
2188,26
2189,26
2190,26
2191,26
2192,26
2193,26
2194,26
2195,26
2196,26
2197,26
2198,27
2199,27
2200,27
2201,27
2202,27
2203,27
2204,27
2205,27
2206,27
2207,27
2208,26
2209,26
2210,26
2211,26
2212,26
2213,26
2214,26
2215,26
2216,26
2217,26
2218,26
2219,26
2220,26
2221,26
2222,26
2223,27
2224,26
2225,26
2226,26
2227,26
2228,26
2229,26
2230,26
2231,27
2232,27
2233,26
2234,26
2235,26
2236,26
2237,26
2238,27
2239,27
2240,27
2241,27
2242,26
2243,26
2244,26
2245,26
2246,26
2247,26
2248,26
2249,26
2250,27
2251,27
2252,26
2253,26
2254,26
2255,26
2256,27
2257,26
2258,26
2259,26
2260,27
2261,26
2262,26
2263,26
2264,26
2265,26
2266,26
2267,26
2268,26
2269,26
2270,26
2271,26
2272,26
2273,26
2274,26
2275,26
2276,26
2277,26
2278,26
2279,26
2280,26
2281,26
2282,26
2283,26
2284,26
2285,26
2286,26
2287,26
2288,26
2289,26
2290,26
2291,26
2292,26
2293,26
2294,26
2295,26
2296,26
2297,26
2298,26
2299,26
2300,27
2301,27
2302,27
2303,27
2304,27
2305,26
2306,26
2307,26
2308,26
2309,26
2310,26
2311,26
2312,26
2313,26
2314,26
2315,26
2316,26
2317,26
2318,26
2319,26
2320,26
2321,26
2322,26
2323,26
2324,26
2325,26
2326,26
2327,26
2328,26
2329,26
2330,26
2331,26
2332,26
2333,26
2334,26
2335,26
2336,26
2337,26
2338,26
2339,26
2340,27
2341,26
2342,26
2343,26
2344,26
2345,26
2346,26
2347,26
2348,26
2349,26
2350,26
2351,26
2352,26
2353,26
2354,26
2355,26
2356,26
2357,26
2358,26
2359,26
2360,26
2361,26
2362,26
2363,26
2364,27
2365,27
2366,26
2367,26
2368,26
2369,26
2370,26
2371,26
2372,26
2373,26
2374,26
2375,26
2376,27
2377,26
2378,26
2379,27
2380,27
2381,26
2382,26
2383,26
2384,26
2385,26
2386,26
2387,26
2388,26
2389,26
2390,26
2391,26
2392,26
2393,26
2394,26
2395,26
2396,26
2397,27
2398,26
2399,26
2400,26
2401,26
2402,26
2403,26
2404,26
2405,26
2406,26
2407,26
2408,26
2409,26
2410,26
2411,26
2412,26
2413,26
2414,26
2415,26
2416,26
2417,26
2418,26
2419,26
2420,26
2421,26
2422,26
2423,26
2424,26
2425,27
2426,26
2427,26
2428,26
2429,26
2430,26
2431,26
2432,26
2433,26
2434,26
2435,27
2436,27
2437,27
2438,27
2439,27
2440,28
2441,27
2442,27
2443,27
2444,27
2445,27
2446,27
2447,27
2448,27
2449,27
2450,26
2451,26
2452,26
2453,27
2454,28
2455,27
2456,27
2457,27
2458,27
2459,27
2460,27
2461,27
2462,27
2463,27
2464,27
2465,27
2466,27
2467,27
2468,26
2469,26
2470,26
2471,27
2472,26
2473,26
2474,26
2475,26
2476,26
2477,26
2478,26
2479,26
2480,26
2481,26
2482,26
2483,26
2484,26
2485,26
2486,27
2487,26
2488,26
2489,26
2490,26
2491,26
2492,26
2493,26
2494,26
2495,26
2496,26
2497,26
2498,26
2499,26
2500,26
2501,26
2502,26
2503,26
2504,26
2505,26
2506,26
2507,26
2508,26
2509,26
2510,26
2511,26
2512,27
2513,28
2514,28
2515,28
2516,28
2517,28
2518,27
2519,27
2520,27
2521,27
2522,27
2523,27
2524,27
2525,27
2526,27
2527,27
2528,27
2529,27
2530,28
2531,27
2532,26
2533,27
2534,27
2535,28
2536,27
2537,27
2538,27
2539,27
2540,27
2541,28
2542,27
2543,27
2544,27
2545,28
2546,28
2547,28
2548,28
2549,28
2550,28
2551,28
2552,27
2553,27
2554,27
2555,27
2556,27
2557,27
2558,27
2559,27
2560,27
2561,27
2562,27
2563,28
2564,28
2565,27
2566,27
2567,28
2568,28
2569,28
2570,28
2571,27
2572,27
2573,27
2574,27
2575,27
2576,27
2577,27
2578,27
2579,27
2580,27
2581,27
2582,27
2583,27
2584,27
2585,27
2586,27
2587,27
2588,27
2589,27
2590,27
2591,27
2592,27
2593,27
2594,27
2595,27
2596,27
2597,27
2598,27
2599,27
2600,27
2601,27
2602,27
2603,27
2604,27
2605,27
2606,27
2607,27
2608,27
2609,27
2610,27
2611,27
2612,27
2613,27
2614,27
2615,27
2616,27
2617,28
2618,28
2619,28
2620,28
2621,27
2622,27
2623,27
2624,27
2625,27
2626,27
2627,27
2628,27
2629,27
2630,27
2631,27
2632,27
2633,27
2634,27
2635,27
2636,27
2637,27
2638,27
2639,27
2640,27
2641,27
2642,27
2643,27
2644,27
2645,27
2646,27
2647,27
2648,27
2649,27
2650,27
2651,27
2652,27
2653,27
2654,27
2655,27
2656,27
2657,27
2658,27
2659,27
2660,27
2661,27
2662,27
2663,27
2664,27
2665,27
2666,28
2667,27
2668,28
2669,27
2670,28
2671,28
2672,28
2673,28
2674,28
2675,28
2676,28
2677,28
2678,28
2679,28
2680,28
2681,27
2682,27
2683,28
2684,28
2685,28
2686,27
2687,27
2688,27
2689,27
2690,27
2691,27
2692,27
2693,27
2694,27
2695,27
2696,27
2697,28
2698,28
2699,28
2700,28
2701,27
2702,27
2703,27
2704,27
2705,27
2706,27
2707,27
2708,27
2709,27
2710,27
2711,27
2712,27
2713,27
2714,27
2715,27
2716,27
2717,27
2718,27
2719,27
2720,27
2721,27
2722,27
2723,27
2724,27
2725,27
2726,28
2727,27
2728,27
2729,27
2730,27
2731,28
2732,27
2733,27
2734,27
2735,27
2736,27
2737,27
2738,27
2739,27
2740,27
2741,27
2742,27
2743,27
2744,27
2745,27
2746,27
2747,27
2748,27
2749,27
2750,27
2751,27
2752,27
2753,28
2754,28
2755,29
2756,29
2757,29
2758,30
2759,30
2760,29
2761,29
2762,29
2763,29
2764,29
2765,29
2766,29
2767,29
2768,29
2769,29
2770,28
2771,28
2772,28
2773,28
2774,28
2775,28
2776,28
2777,28
2778,28
2779,28
2780,28
2781,28
2782,28
2783,28
2784,28
2785,28
2786,28
2787,28
2788,28
2789,28
2790,28
2791,28
2792,28
2793,28
2794,28
2795,28
2796,28
2797,28
2798,28
2799,28
2800,28
2801,28
2802,28
2803,28
2804,29
2805,28
2806,28
2807,28
2808,28
2809,29
2810,29
2811,29
2812,29
2813,29
2814,29
2815,28
2816,28
2817,28
2818,29
2819,29
2820,29
2821,30
2822,29
2823,29
2824,28
2825,28
2826,28
2827,28
2828,28
2829,28
2830,28
2831,28
2832,28
2833,28
2834,28
2835,28
2836,28
2837,28
2838,28
2839,28
2840,28
2841,28
2842,28
2843,28
2844,28
2845,28
2846,28
2847,28
2848,28
2849,28
2850,28
2851,28
2852,28
2853,28
2854,29
2855,28
2856,29
2857,30
2858,30
2859,29
2860,29
2861,29
2862,29
2863,29
2864,29
2865,28
2866,28
2867,28
2868,28
2869,28
2870,28
2871,28
2872,28
2873,28
2874,28
2875,28
2876,28
2877,28
2878,28
2879,28
2880,28
2881,28
2882,28
2883,29
2884,29
2885,29
2886,29
2887,29
2888,29
2889,29
2890,29
2891,29
2892,28
2893,28
2894,28
2895,28
2896,28
2897,28
2898,28
2899,28
2900,28
2901,28
2902,29
2903,29
2904,28
2905,28
2906,28
2907,28
2908,28
2909,28
2910,29
2911,29
2912,29
2913,28
2914,28
2915,28
2916,28
2917,28
2918,28
2919,28
2920,28
2921,28
2922,28
2923,28
2924,29
2925,28
2926,28
2927,28
2928,28
2929,28
2930,28
2931,28
2932,28
2933,28
2934,28
2935,28
2936,28
2937,28
2938,28
2939,28
2940,28
2941,28
2942,28
2943,29
2944,29
2945,28
2946,28
2947,28
2948,28
2949,28
2950,29
2951,29
2952,28
2953,28
2954,28
2955,28
2956,28
2957,28
2958,28
2959,28
2960,28
2961,28
2962,28
2963,28
2964,28
2965,28
2966,28
2967,28
2968,28
2969,28
2970,28
2971,28
2972,28
2973,28
2974,28
2975,28
2976,28
2977,28
2978,28
2979,28
2980,28
2981,28
2982,28
2983,28
2984,28
2985,28
2986,28
2987,28
2988,28
2989,28
2990,28
2991,30
2992,29
2993,28
2994,28
2995,28
2996,28
2997,28
2998,28
2999,28
3000,28
3001,28
3002,28
3003,28
3004,29
3005,29
3006,29
3007,28
3008,29
3009,29
3010,29
3011,29
3012,29
3013,29
3014,30
3015,30
3016,30
3017,29
3018,29
3019,29
3020,29
3021,29
3022,29
3023,29
3024,29
3025,30
3026,30
3027,29
3028,29
3029,30
3030,30
3031,29
3032,29
3033,29
3034,29
3035,29
3036,29
3037,29
3038,29
3039,29
3040,29
3041,29
3042,30
3043,30
3044,29
3045,29
3046,29
3047,29
3048,29
3049,29
3050,29
3051,29
3052,29
3053,29
3054,29
3055,29
3056,29
3057,29
3058,29
3059,29
3060,29
3061,29
3062,29
3063,29
3064,29
3065,29
3066,29
3067,29
3068,29
3069,29
3070,29
3071,29
3072,29
3073,29
3074,29
3075,29
3076,29
3077,29
3078,30
3079,29
3080,29
3081,29
3082,29
3083,29
3084,29
3085,29
3086,29
3087,29
3088,29
3089,29
3090,29
3091,29
3092,29
3093,29
3094,29
3095,29
3096,29
3097,30
3098,30
3099,29
3100,29
3101,29
3102,29
3103,29
3104,29
3105,29
3106,29
3107,29
3108,29
3109,29
3110,29
3111,29
3112,29
3113,29
3114,29
3115,29
3116,29
3117,29
3118,29
3119,29
3120,29
3121,29
3122,29
3123,29
3124,29
3125,29
3126,29
3127,29
3128,29
3129,29
3130,29
3131,29
3132,29
3133,29
3134,29
3135,29
3136,29
3137,29
3138,29
3139,29
3140,29
3141,29
3142,29
3143,29
3144,29
3145,29
3146,29
3147,29
3148,29
3149,29
3150,29
3151,30
3152,30
3153,30
3154,30
3155,29
3156,29
3157,29
3158,29
3159,29
3160,29
3161,29
3162,29
3163,29
3164,29
3165,29
3166,29
3167,29
3168,29
3169,29
3170,29
3171,29
3172,29
3173,29
3174,29
3175,29
3176,29
3177,29
3178,29
3179,29
3180,29
3181,29
3182,29
3183,29
3184,29
3185,29
3186,29
3187,29
3188,29
3189,29
3190,29
3191,29
3192,29
3193,29
3194,29
3195,29
3196,29
3197,29
3198,29
3199,29
3200,29
3201,29
3202,30
3203,30
3204,30
3205,30
3206,30
3207,30
3208,30
3209,29
3210,29
3211,29
3212,29
3213,29
3214,29
3215,29
3216,29
3217,29
3218,29
3219,29
3220,29
3221,29
3222,29
3223,29
3224,29
3225,29
3226,29
3227,29
3228,29
3229,29
3230,29
3231,29
3232,29
3233,29
3234,29
3235,30
3236,29
3237,29
3238,29
3239,29
3240,30
3241,29
3242,29
3243,29
3244,29
3245,29
3246,29
3247,29
3248,29
3249,29
3250,29
3251,29
3252,30
3253,29
3254,29
3255,29
3256,29
3257,29
3258,29
3259,29
3260,29
3261,29
3262,29
3263,29
3264,29
3265,29
3266,29
3267,29
3268,29
3269,29
3270,29
3271,29
3272,29
3273,29
3274,29
3275,30
3276,30
3277,30
3278,30
3279,30
3280,30
3281,30
3282,30
3283,30
3284,29
3285,29
3286,29
3287,29
3288,29
3289,29
3290,29
3291,29
3292,29
3293,29
3294,29
3295,29
3296,29
3297,29
3298,29
3299,29
3300,29
3301,29
3302,29
3303,29
3304,29
3305,29
3306,29
3307,29
3308,29
3309,29
3310,29
3311,29
3312,29
3313,29
3314,29
3315,29
3316,29
3317,29
3318,29
3319,29
3320,29
3321,29
3322,30
3323,30
3324,30
3325,30
3326,30
3327,30
3328,30
3329,30
3330,30
3331,30
3332,30
3333,30
3334,30
3335,30
3336,30
3337,30
3338,30
3339,30
3340,30
3341,30
3342,30
3343,30
3344,30
3345,30
3346,31
3347,31
3348,31
3349,31
3350,31
3351,31
3352,31
3353,31
3354,30
3355,30
3356,30
3357,30
3358,30
3359,30
3360,30
3361,30
3362,30
3363,30
3364,30
3365,30
3366,30
3367,30
3368,30
3369,30
3370,30
3371,30
3372,30
3373,30
3374,30
3375,30
3376,30
3377,30
3378,31
3379,31
3380,30
3381,30
3382,29
3383,29
3384,29
3385,29
3386,29
3387,29
3388,29
3389,29
3390,29
3391,29
3392,29
3393,29
3394,29
3395,30
3396,29
3397,29
3398,29
3399,29
3400,29
3401,29
3402,29
3403,29
3404,29
3405,29
3406,29
3407,29
3408,29
3409,29
3410,29
3411,29
3412,29
3413,30
3414,29
3415,29
3416,29
3417,29
3418,29
3419,29
3420,29
3421,29
3422,29
3423,29
3424,29
3425,29
3426,29
3427,29
3428,29
3429,29
3430,29
3431,29
3432,29
3433,29
3434,29
3435,29
3436,29
3437,29
3438,29
3439,29
3440,29
3441,29
3442,29
3443,29
3444,29
3445,29
3446,30
3447,29
3448,29
3449,29
3450,29
3451,29
3452,29
3453,29
3454,29
3455,29
3456,29
3457,29
3458,29
3459,29
3460,30
3461,30
3462,30
3463,30
3464,30
3465,30
3466,30
3467,30
3468,30
3469,30
3470,30
3471,30
3472,30
3473,30
3474,30
3475,30
3476,30
3477,30
3478,30
3479,30
3480,30
3481,30
3482,30
3483,30
3484,30
3485,30
3486,30
3487,29
3488,29
3489,29
3490,29
3491,29
3492,29
3493,29
3494,29
3495,29
3496,29
3497,29
3498,29
3499,29
3500,29
3501,29
3502,29
3503,29
3504,29
3505,29
3506,29
3507,29
3508,29
3509,29
3510,29
3511,29
3512,29
3513,29
3514,29
3515,29
3516,29
3517,29
3518,29
3519,29
3520,29
3521,29
3522,29
3523,29
3524,30
3525,29
3526,29
3527,29
3528,29
3529,29
3530,29
3531,29
3532,29
3533,30
3534,29
3535,29
3536,30
3537,29
3538,29
3539,29
3540,29
3541,29
3542,29
3543,29
3544,29
3545,29
3546,30
3547,30
3548,30
3549,30
3550,29
3551,29
3552,29
3553,30
3554,29
3555,29
3556,29
3557,29
3558,30
3559,31
3560,29
3561,29
3562,29
3563,29
3564,29
3565,29
3566,29
3567,29
3568,29
3569,29
3570,29
3571,29
3572,29
3573,29
3574,29
3575,29
3576,29
3577,29
3578,29
3579,29
3580,29
3581,29
3582,29
3583,29
3584,29
3585,29
3586,29
3587,29
3588,29
3589,29
3590,29
3591,29
3592,29
3593,30
3594,30
3595,30
3596,30
3597,30
3598,29
3599,29
3600,30
3601,30
3602,30
3603,31
3604,30
3605,30
3606,30
3607,30
3608,30
3609,30
3610,30
3611,31
3612,31
3613,31
3614,32
3615,31
3616,31
3617,31
3618,33
3619,32
3620,32
3621,32
3622,32
3623,31
3624,31
3625,31
3626,31
3627,31
3628,31
3629,31
3630,32
3631,31
3632,31
3633,31
3634,31
3635,31
3636,31
3637,31
3638,31
3639,31
3640,31
3641,31
3642,31
3643,31
3644,32
3645,32
3646,32
3647,32
3648,31
3649,31
3650,31
3651,31
3652,32
3653,31
3654,31
3655,31
3656,31
3657,31
3658,31
3659,31
3660,31
3661,31
3662,31
3663,31
3664,31
3665,31
3666,31
3667,31
3668,31
3669,32
3670,31
3671,31
3672,31
3673,31
3674,31
3675,31
3676,31
3677,31
3678,31
3679,31
3680,31
3681,31
3682,31
3683,32
3684,32
3685,32
3686,32
3687,32
3688,32
3689,33
3690,33
3691,33
3692,33
3693,33
3694,33
3695,33
3696,33
3697,33
3698,33
3699,33
3700,33
3701,33
3702,33
3703,33
3704,33
3705,33
3706,33
3707,33
3708,33
3709,33
3710,33
3711,33
3712,33
3713,33
3714,33
3715,33
3716,33
3717,33
3718,34
3719,33
3720,33
3721,32
3722,32
3723,32
3724,32
3725,32
3726,32
3727,32
3728,32
3729,32
3730,32
3731,32
3732,32
3733,32
3734,32
3735,32
3736,32
3737,32
3738,32
3739,32
3740,32
3741,32
3742,33
3743,33
3744,33
3745,33
3746,33
3747,32
3748,32
3749,32
3750,32
3751,32
3752,33
3753,33
3754,33
3755,32
3756,32
3757,32
3758,32
3759,32
3760,32
3761,32
3762,32
3763,32
3764,32
3765,32
3766,32
3767,32
3768,32
3769,32
3770,32
3771,32
3772,32
3773,32
3774,32
3775,32
3776,32
3777,32
3778,32
3779,33
3780,33
3781,34
3782,34
3783,32
3784,32
3785,32
3786,32
3787,32
3788,32
3789,32
3790,32
3791,32
3792,32
3793,32
3794,32
3795,32
3796,32
3797,32
3798,32
3799,32
3800,32
3801,32
3802,32
3803,32
3804,32
3805,32
3806,32
3807,32
3808,32
3809,32
3810,32
3811,32
3812,32
3813,32
3814,32
3815,32
3816,32
3817,32
3818,32
3819,32
3820,32
3821,32
3822,32
3823,33
3824,33
3825,34
3826,34
3827,33
3828,33
3829,33
3830,33
3831,33
3832,33
3833,34
3834,34
3835,34
3836,34
3837,34
3838,34
3839,34
3840,34
3841,34
3842,34
3843,34
3844,34
3845,34
3846,34
3847,34
3848,34
3849,34
3850,34
3851,34
3852,33
3853,33
3854,33
3855,33
3856,33
3857,33
3858,32
3859,32
3860,33
3861,32
3862,32
3863,32
3864,32
3865,32
3866,32
3867,33
3868,33
3869,32
3870,32
3871,32
3872,32
3873,32
3874,32
3875,32
3876,32
3877,32
3878,32
3879,32
3880,32
3881,32
3882,32
3883,32
3884,32
3885,32
3886,32
3887,32
3888,32
3889,32
3890,32
3891,32
3892,32
3893,32
3894,32
3895,32
3896,32
3897,32
3898,32
3899,32
3900,32
3901,32
3902,32
3903,32
3904,33
3905,33
3906,33
3907,32
3908,32
3909,32
3910,32
3911,32
3912,32
3913,32
3914,32
3915,32
3916,32
3917,32
3918,32
3919,32
3920,32
3921,32
3922,32
3923,32
3924,32
3925,32
3926,32
3927,32
3928,33
3929,33
3930,33
3931,33
3932,33
3933,33
3934,33
3935,33
3936,33
3937,33
3938,33
3939,33
3940,33
3941,33
3942,33
3943,33
3944,33
3945,33
3946,33
3947,33
3948,33
3949,33
3950,33
3951,33
3952,33
3953,33
3954,33
3955,32
3956,32
3957,32
3958,32
3959,32
3960,32
3961,32
3962,32
3963,32
3964,32
3965,32
3966,32
3967,32
3968,32
3969,32
3970,32
3971,32
3972,32
3973,32
3974,33
3975,33
3976,33
3977,32
3978,32
3979,32
3980,32
3981,32
3982,32
3983,33
3984,32
3985,32
3986,32
3987,32
3988,32
3989,32
3990,32
3991,32
3992,32
3993,32
3994,32
3995,32
3996,32
3997,32
3998,32
3999,32
4000,32
4001,32
4002,32
4003,32
4004,32
4005,32
4006,32
4007,32
4008,32
4009,33
4010,33
4011,33
4012,33
4013,33
4014,34
4015,34
4016,34
4017,34
4018,34
4019,35
4020,34
4021,34
4022,34
4023,34
4024,34
4025,34
4026,33
4027,34
4028,33
4029,33
4030,33
4031,34
4032,34
4033,33
4034,33
4035,33
4036,33
4037,33
4038,33
4039,33
4040,33
4041,33
4042,33
4043,33
4044,33
4045,33
4046,33
4047,33
4048,33
4049,33
4050,33
4051,33
4052,33
4053,33
4054,34
4055,34
4056,34
4057,33
4058,33
4059,33
4060,33
4061,33
4062,33
4063,33
4064,33
4065,33
4066,33
4067,33
4068,33
4069,33
4070,33
4071,33
4072,33
4073,33
4074,33
4075,33
4076,33
4077,33
4078,33
4079,33
4080,33
4081,34
4082,34
4083,34
4084,33
4085,33
4086,33
4087,33
4088,33
4089,33
4090,33
4091,33
4092,33
4093,33
4094,33
4095,33
4096,33
4097,33
4098,33
4099,33
4100,33
4101,33
4102,33
4103,33
4104,33
4105,33
4106,33
4107,33
4108,33
4109,33
4110,33
4111,33
4112,33
4113,33
4114,33
4115,33
4116,33
4117,33
4118,33
4119,33
4120,33
4121,33
4122,33
4123,33
4124,33
4125,33
4126,33
4127,33
4128,33
4129,33
4130,33
4131,33
4132,34
4133,33
4134,33
4135,33
4136,33
4137,33
4138,33
4139,33
4140,33
4141,33
4142,33
4143,33
4144,33
4145,33
4146,33
4147,33
4148,33
4149,33
4150,33
4151,34
4152,34
4153,34
4154,34
4155,34
4156,34
4157,34
4158,34
4159,34
4160,33
4161,33
4162,33
4163,33
4164,33
4165,33
4166,33
4167,33
4168,33
4169,33
4170,33
4171,33
4172,33
4173,33
4174,33
4175,33
4176,35
4177,35
4178,34
4179,34
4180,34
4181,34
4182,34
4183,34
4184,34
4185,34
4186,34
4187,34
4188,34
4189,34
4190,34
4191,34
4192,34
4193,34
4194,34
4195,34
4196,34
4197,34
4198,35
4199,35
4200,34
4201,34
4202,34
4203,34
4204,34
4205,33
4206,33
4207,33
4208,33
4209,34
4210,34
4211,34
4212,34
4213,33
4214,33
4215,33
4216,33
4217,33
4218,33
4219,33
4220,33
4221,33
4222,33
4223,33
4224,33
4225,33
4226,33
4227,33
4228,33
4229,33
4230,33
4231,33
4232,33
4233,33
4234,33
4235,33
4236,33
4237,33
4238,33
4239,33
4240,33
4241,33
4242,33
4243,33
4244,33
4245,33
4246,33
4247,33
4248,33
4249,33
4250,33
4251,33
4252,33
4253,33
4254,33
4255,33
4256,33
4257,33
4258,33
4259,33
4260,33
4261,33
4262,34
4263,33
4264,33
4265,33
4266,33
4267,33
4268,33
4269,34
4270,34
4271,34
4272,34
4273,34
4274,34
4275,34
4276,34
4277,34
4278,34
4279,33
4280,33
4281,33
4282,33
4283,33
4284,33
4285,33
4286,33
4287,33
4288,33
4289,34
4290,33
4291,33
4292,33
4293,33
4294,33
4295,33
4296,33
4297,33
4298,33
4299,33
4300,33
4301,33
4302,33
4303,33
4304,33
4305,33
4306,33
4307,33
4308,33
4309,33
4310,33
4311,33
4312,33
4313,33
4314,33
4315,33
4316,33
4317,33
4318,33
4319,33
4320,34
4321,34
4322,34
4323,34
4324,34
4325,34
4326,34
4327,33
4328,33
4329,33
4330,33
4331,33
4332,33
4333,33
4334,33
4335,33
4336,33
4337,34
4338,33
4339,33
4340,33
4341,33
4342,33
4343,33
4344,33
4345,33
4346,33
4347,33
4348,33
4349,33
4350,33
4351,33
4352,33
4353,33
4354,33
4355,33
4356,33
4357,33
4358,34
4359,34
4360,34
4361,34
4362,34
4363,34
4364,34
4365,34
4366,34
4367,34
4368,34
4369,34
4370,34
4371,34
4372,34
4373,34
4374,33
4375,33
4376,33
4377,33
4378,33
4379,33
4380,33
4381,33
4382,33
4383,33
4384,33
4385,33
4386,33
4387,33
4388,33
4389,33
4390,33
4391,33
4392,33
4393,33
4394,33
4395,33
4396,33
4397,34
4398,34
4399,33
4400,33
4401,33
4402,33
4403,34
4404,33
4405,33
4406,33
4407,33
4408,33
4409,33
4410,33
4411,34
4412,35
4413,34
4414,33
4415,33
4416,33
4417,33
4418,33
4419,33
4420,33
4421,33
4422,34
4423,34
4424,33
4425,33
4426,33
4427,33
4428,33
4429,33
4430,33
4431,33
4432,33
4433,33
4434,33
4435,33
4436,33
4437,33
4438,33
4439,34
4440,34
4441,33
4442,33
4443,33
4444,33
4445,33
4446,33
4447,33
4448,33
4449,33
4450,33
4451,33
4452,33
4453,33
4454,33
4455,33
4456,33
4457,33
4458,33
4459,33
4460,33
4461,33
4462,33
4463,33
4464,33
4465,33
4466,33
4467,33
4468,33
4469,33
4470,33
4471,33
4472,34
4473,33
4474,33
4475,33
4476,33
4477,33
4478,33
4479,33
4480,33
4481,33
4482,33
4483,33
4484,33
4485,33
4486,33
4487,33
4488,33
4489,33
4490,33
4491,33
4492,33
4493,34
4494,33
4495,33
4496,33
4497,33
4498,35
4499,34
4500,34
4501,34
4502,35
4503,34
4504,34
4505,34
4506,34
4507,34
4508,35
4509,35
4510,34
4511,34
4512,33
4513,33
4514,33
4515,33
4516,33
4517,33
4518,33
4519,33
4520,33
4521,33
4522,33
4523,33
4524,33
4525,33
4526,33
4527,33
4528,33
4529,33
4530,33
4531,34
4532,33
4533,33
4534,34
4535,33
4536,33
4537,33
4538,33
4539,33
4540,33
4541,33
4542,33
4543,33
4544,33
4545,33
4546,33
4547,33
4548,33
4549,33
4550,34
4551,33
4552,33
4553,33
4554,33
4555,33
4556,33
4557,33
4558,33
4559,33
4560,33
4561,33
4562,33
4563,33
4564,33
4565,33
4566,33
4567,33
4568,33
4569,33
4570,33
4571,33
4572,33
4573,33
4574,33
4575,33
4576,33
4577,33
4578,33
4579,33
4580,33
4581,33
4582,33
4583,33
4584,33
4585,33
4586,33
4587,33
4588,33
4589,33
4590,34
4591,34
4592,34
4593,34
4594,34
4595,34
4596,34
4597,34
4598,34
4599,34
4600,34
4601,34
4602,34
4603,33
4604,33
4605,33
4606,33
4607,33
4608,33
4609,33
4610,33
4611,33
4612,33
4613,33
4614,33
4615,33
4616,33
4617,33
4618,33
4619,33
4620,33
4621,33
4622,33
4623,33
4624,33
4625,33
4626,33
4627,33
4628,33
4629,33
4630,33
4631,34
4632,34
4633,34
4634,34
4635,34
4636,34
4637,34
4638,34
4639,35
4640,35
4641,34
4642,34
4643,34
4644,34
4645,34
4646,34
4647,34
4648,34
4649,34
4650,34
4651,34
4652,34
4653,34
4654,34
4655,34
4656,35
4657,35
4658,35
4659,34
4660,34
4661,34
4662,34
4663,34
4664,35
4665,34
4666,34
4667,36
4668,35
4669,35
4670,35
4671,35
4672,34
4673,34
4674,34
4675,34
4676,34
4677,34
4678,34
4679,34
4680,34
4681,34
4682,34
4683,34
4684,34
4685,34
4686,35
4687,35
4688,35
4689,35
4690,35
4691,35
4692,35
4693,35
4694,35
4695,35
4696,35
4697,35
4698,35
4699,36
4700,36
4701,35
4702,35
4703,35
4704,35
4705,35
4706,35
4707,35
4708,36
4709,35
4710,35
4711,35
4712,35
4713,35
4714,35
4715,35
4716,36
4717,35
4718,35
4719,35
4720,35
4721,35
4722,35
4723,35
4724,35
4725,35
4726,35
4727,35
4728,35
4729,35
4730,35
4731,35
4732,35
4733,35
4734,36
4735,35
4736,35
4737,35
4738,35
4739,35
4740,36
4741,36
4742,35
4743,36
4744,35
4745,35
4746,35
4747,35
4748,35
4749,35
4750,35
4751,35
4752,35
4753,35
4754,35
4755,35
4756,35
4757,35
4758,35
4759,35
4760,35
4761,35
4762,35
4763,35
4764,35
4765,35
4766,36
4767,36
4768,36
4769,36
4770,35
4771,36
4772,36
4773,36
4774,36
4775,37
4776,36
4777,36
4778,36
4779,36
4780,36
4781,37
4782,37
4783,37
4784,37
4785,37
4786,36
4787,36
4788,36
4789,36
4790,36
4791,36
4792,36
4793,36
4794,36
4795,36
4796,36
4797,36
4798,36
4799,36
4800,36
4801,36
4802,36
4803,36
4804,36
4805,36
4806,36
4807,37
4808,37
4809,37
4810,36
4811,36
4812,36
4813,36
4814,36
4815,36
4816,36
4817,36
4818,36
4819,36
4820,36
4821,36
4822,36
4823,36
4824,36
4825,36
4826,36
4827,36
4828,36
4829,36
4830,37
4831,37
4832,37
4833,37
4834,36
4835,36
4836,36
4837,36
4838,37
4839,37
4840,37
4841,37
4842,37
4843,38
4844,38
4845,37
4846,37
4847,37
4848,37
4849,37
4850,37
4851,37
4852,37
4853,37
4854,37
4855,37
4856,37
4857,37
4858,37
4859,37
4860,37
4861,37
4862,37
4863,37
4864,37
4865,37
4866,37
4867,37
4868,37
4869,37
4870,37
4871,37
4872,37
4873,37
4874,37
4875,37
4876,37
4877,37
4878,37
4879,38
4880,38
4881,38
4882,38
4883,38
4884,37
4885,37
4886,37
4887,37
4888,37
4889,37
4890,37
4891,37
4892,37
4893,37
4894,37
4895,37
4896,37
4897,37
4898,37
4899,38
4900,36
4901,37
4902,37
4903,37
4904,37
4905,37
4906,37
4907,37
4908,37
4909,37
4910,37
4911,36
4912,36
4913,37
4914,36
4915,37
4916,37
4917,36
4918,36
4919,36
4920,36
4921,36
4922,36
4923,36
4924,36
4925,36
4926,36
4927,36
4928,36
4929,36
4930,36
4931,36
4932,36
4933,36
4934,36
4935,36
4936,36
4937,36
4938,36
4939,36
4940,36
4941,36
4942,36
4943,36
4944,36
4945,36
4946,36
4947,36
4948,36
4949,36
4950,36
4951,36
4952,36
4953,36
4954,36
4955,36
4956,36
4957,36
4958,36
4959,36
4960,36
4961,36
4962,36
4963,36
4964,36
4965,36
4966,36
4967,36
4968,36
4969,36
4970,36
4971,36
4972,36
4973,36
4974,37
4975,36
4976,36
4977,36
4978,36
4979,36
4980,36
4981,36
4982,36
4983,36
4984,36
4985,36
4986,37
4987,37
4988,37
4989,38
4990,38
4991,38
4992,38
4993,37
4994,37
4995,37
4996,37
4997,37
4998,37
4999,37
5000,38
5001,38
5002,38
5003,37
5004,37
5005,37
5006,38
5007,38
5008,38
5009,37
5010,37
5011,37
5012,37
5013,37
5014,37
5015,37
5016,37
5017,37
5018,37
5019,37
5020,37
5021,37
5022,37
5023,37
5024,37
5025,37
5026,37
5027,37
5028,37
5029,37
5030,37
5031,37
5032,37
5033,37
5034,37
5035,37
5036,37
5037,37
5038,37
5039,37
5040,37
5041,37
5042,37
5043,38
5044,37
5045,37
5046,37
5047,37
5048,37
5049,37
5050,37
5051,37
5052,38
5053,38
5054,38
5055,38
5056,38
5057,38
5058,38
5059,38
5060,38
5061,38
5062,38
5063,38
5064,38
5065,37
5066,37
5067,37
5068,37
5069,37
5070,38
5071,38
5072,38
5073,38
5074,37
5075,37
5076,37
5077,37
5078,37
5079,37
5080,37
5081,37
5082,37
5083,37
5084,37
5085,37
5086,37
5087,37
5088,37
5089,37
5090,37
5091,37
5092,37
5093,37
5094,37
5095,37
5096,37
5097,37
5098,37
5099,37
5100,37
5101,37
5102,37
5103,38
5104,38
5105,38
5106,38
5107,38
5108,38
5109,38
5110,38
5111,38
5112,38
5113,37
5114,37
5115,38
5116,38
5117,38
5118,39
5119,38
5120,39
5121,39
5122,39
5123,39
5124,39
5125,39
5126,39
5127,38
5128,39
5129,39
5130,37
5131,37
5132,37
5133,37
5134,37
5135,37
5136,37
5137,37
5138,37
5139,37
5140,37
5141,37
5142,37
5143,38
5144,37
5145,37
5146,37
5147,37
5148,37
5149,37
5150,37
5151,37
5152,37
5153,37
5154,37
5155,37
5156,37
5157,37
5158,37
5159,37
5160,37
5161,37
5162,37
5163,37
5164,37
5165,37
5166,37
5167,37
5168,37
5169,37
5170,37
5171,37
5172,37
5173,37
5174,37
5175,37
5176,37
5177,37
5178,39
5179,37
5180,37
5181,37
5182,37
5183,37
5184,37
5185,37
5186,37
5187,37
5188,37
5189,37
5190,37
5191,37
5192,38
5193,38
5194,36
5195,36
5196,36
5197,36
5198,36
5199,36
5200,36
5201,37
5202,37
5203,38
5204,36
5205,36
5206,36
5207,36
5208,36
5209,36
5210,37
5211,37
5212,37
5213,37
5214,37
5215,37
5216,37
5217,37
5218,37
5219,37
5220,37
5221,37
5222,37
5223,37
5224,37
5225,37
5226,37
5227,37
5228,37
5229,37
5230,37
5231,37
5232,37
5233,37
5234,37
5235,37
5236,38
5237,38
5238,37
5239,37
5240,37
5241,37
5242,37
5243,37
5244,37
5245,37
5246,37
5247,37
5248,37
5249,37
5250,37
5251,37
5252,37
5253,37
5254,37
5255,37
5256,37
5257,37
5258,37
5259,37
5260,37
5261,37
5262,38
5263,38
5264,38
5265,38
5266,39
5267,38
5268,38
5269,38
5270,38
5271,38
5272,38
5273,38
5274,38
5275,38
5276,38
5277,38
5278,38
5279,38
5280,39
5281,38
5282,37
5283,37
5284,38
5285,38
5286,37
5287,37
5288,37
5289,37
5290,37
5291,37
5292,37
5293,37
5294,37
5295,37
5296,37
5297,37
5298,37
5299,38
5300,38
5301,38
5302,38
5303,38
5304,37
5305,37
5306,38
5307,37
5308,37
5309,38
5310,37
5311,37
5312,37
5313,38
5314,38
5315,38
5316,38
5317,37
5318,37
5319,37
5320,37
5321,37
5322,37
5323,37
5324,37
5325,37
5326,37
5327,37
5328,38
5329,38
5330,38
5331,38
5332,37
5333,37
5334,37
5335,37
5336,37
5337,37
5338,37
5339,37
5340,37
5341,37
5342,37
5343,37
5344,37
5345,37
5346,37
5347,37
5348,37
5349,37
5350,37
5351,36
5352,36
5353,36
5354,35
5355,35
5356,35
5357,35
5358,35
5359,35
5360,35
5361,35
5362,35
5363,35
5364,35
5365,35
5366,35
5367,35
5368,35
5369,35
5370,35
5371,35
5372,35
5373,35
5374,35
5375,35
5376,35
5377,35
5378,36
5379,36
5380,35
5381,35
5382,35
5383,35
5384,35
5385,35
5386,35
5387,35
5388,35
5389,35
5390,35
5391,35
5392,35
5393,36
5394,36
5395,36
5396,35
5397,35
5398,35
5399,35
5400,35
5401,36
5402,36
5403,36
5404,36
5405,35
5406,35
5407,35
5408,35
5409,35
5410,35
5411,35
5412,35
5413,35
5414,36
5415,36
5416,36
5417,36
5418,35
5419,35
5420,35
5421,35
5422,35
5423,35
5424,35
5425,35
5426,35
5427,35
5428,35
5429,35
5430,35
5431,35
5432,35
5433,35
5434,35
5435,35
5436,36
5437,36
5438,36
5439,37
5440,37
5441,37
5442,36
5443,36
5444,36
5445,35
5446,35
5447,35
5448,35
5449,35
5450,35
5451,35
5452,35
5453,35
5454,35
5455,35
5456,35
5457,35
5458,35
5459,35
5460,35
5461,35
5462,35
5463,35
5464,35
5465,35
5466,35
5467,35
5468,35
5469,35
5470,35
5471,35
5472,35
5473,35
5474,35
5475,35
5476,35
5477,35
5478,35
5479,35
5480,35
5481,35
5482,35
5483,36
5484,35
5485,35
5486,35
5487,35
5488,35
5489,35
5490,35
5491,35
5492,35
5493,35
5494,35
5495,35
5496,35
5497,36
5498,35
5499,35
5500,35
5501,35
5502,35
5503,35
5504,35
5505,35
5506,36
5507,36
5508,36
5509,36
5510,36
5511,37
5512,35
5513,35
5514,35
5515,35
5516,35
5517,35
5518,35
5519,35
5520,35
5521,35
5522,35
5523,35
5524,35
5525,35
5526,35
5527,35
5528,35
5529,35
5530,35
5531,35
5532,35
5533,35
5534,35
5535,35
5536,35
5537,35
5538,35
5539,35
5540,35
5541,35
5542,35
5543,35
5544,35
5545,35
5546,35
5547,35
5548,35
5549,35
5550,35
5551,35
5552,35
5553,35
5554,35
5555,35
5556,35
5557,35
5558,35
5559,35
5560,35
5561,35
5562,35
5563,35
5564,35
5565,35
5566,35
5567,35
5568,35
5569,35
5570,35
5571,35
5572,35
5573,36
5574,36
5575,36
5576,36
5577,35
5578,35
5579,35
5580,36
5581,36
5582,36
5583,35
5584,35
5585,35
5586,35
5587,35
5588,35
5589,35
5590,35
5591,36
5592,36
5593,36
5594,36
5595,36
5596,36
5597,37
5598,36
5599,36
5600,36
5601,37
5602,37
5603,36
5604,36
5605,36
5606,36
5607,36
5608,36
5609,35
5610,35
5611,35
5612,35
5613,35
5614,35
5615,35
5616,35
5617,35
5618,35
5619,35
5620,35
5621,36
5622,36
5623,36
5624,36
5625,36
5626,35
5627,36
5628,36
5629,36
5630,36
5631,36
5632,36
5633,36
5634,36
5635,36
5636,36
5637,36
5638,36
5639,36
5640,36
5641,36
5642,36
5643,36
5644,36
5645,36
5646,36
5647,36
5648,36
5649,36
5650,36
5651,36
5652,36
5653,36
5654,36
5655,36
5656,36
5657,36
5658,36
5659,36
5660,36
5661,36
5662,36
5663,36
5664,36
5665,36
5666,36
5667,36
5668,36
5669,36
5670,36
5671,36
5672,36
5673,36
5674,36
5675,36
5676,36
5677,36
5678,36
5679,36
5680,37
5681,38
5682,39
5683,37
5684,37
5685,37
5686,37
5687,37
5688,37
5689,37
5690,38
5691,38
5692,38
5693,38
5694,37
5695,37
5696,36
5697,36
5698,36
5699,36
5700,36
5701,36
5702,36
5703,36
5704,36
5705,36
5706,38
5707,37
5708,36
5709,36
5710,36
5711,36
5712,36
5713,36
5714,36
5715,36
5716,36
5717,36
5718,36
5719,37
5720,37
5721,37
5722,36
5723,36
5724,36
5725,37
5726,38
5727,37
5728,38
5729,38
5730,38
5731,38
5732,38
5733,37
5734,37
5735,37
5736,37
5737,37
5738,36
5739,36
5740,36
5741,36
5742,36
5743,36
5744,36
5745,36
5746,36
5747,36
5748,36
5749,36
5750,36
5751,36
5752,37
5753,37
5754,37
5755,37
5756,37
5757,37
5758,37
5759,37
5760,38
5761,38
5762,38
5763,37
5764,36
5765,36
5766,36
5767,36
5768,37
5769,37
5770,36
5771,36
5772,36
5773,36
5774,36
5775,36
5776,36
5777,36
5778,36
5779,36
5780,37
5781,36
5782,36
5783,36
5784,36
5785,36
5786,36
5787,36
5788,36
5789,36
5790,36
5791,36
5792,36
5793,36
5794,36
5795,36
5796,36
5797,36
5798,36
5799,36
5800,36
5801,37
5802,37
5803,37
5804,37
5805,37
5806,36
5807,36
5808,37
5809,36
5810,36
5811,36
5812,36
5813,36
5814,36
5815,35
5816,35
5817,35
5818,35
5819,35
5820,35
5821,35
5822,35
5823,35
5824,35
5825,35
5826,35
5827,35
5828,36
5829,36
5830,35
5831,35
5832,35
5833,35
5834,35
5835,35
5836,35
5837,35
5838,35
5839,35
5840,35
5841,35
5842,35
5843,35
5844,35
5845,35
5846,35
5847,36
5848,35
5849,35
5850,35
5851,35
5852,35
5853,35
5854,35
5855,35
5856,35
5857,36
5858,36
5859,36
5860,36
5861,36
5862,36
5863,36
5864,36
5865,36
5866,36
5867,36
5868,36
5869,36
5870,35
5871,35
5872,35
5873,35
5874,35
5875,35
5876,35
5877,35
5878,35
5879,35
5880,35
5881,35
5882,35
5883,35
5884,35
5885,35
5886,35
5887,35
5888,35
5889,35
5890,35
5891,35
5892,35
5893,35
5894,35
5895,35
5896,35
5897,35
5898,35
5899,35
5900,35
5901,35
5902,35
5903,35
5904,35
5905,35
5906,35
5907,35
5908,35
5909,35
5910,35
5911,35
5912,35
5913,35
5914,35
5915,35
5916,35
5917,35
5918,35
5919,35
5920,35
5921,35
5922,35
5923,35
5924,35
5925,35
5926,35
5927,36
5928,36
5929,35
5930,35
5931,36
5932,35
5933,35
5934,35
5935,35
5936,35
5937,35
5938,35
5939,35
5940,35
5941,35
5942,35
5943,35
5944,35
5945,35
5946,35
5947,35
5948,35
5949,35
5950,35
5951,35
5952,35
5953,35
5954,35
5955,35
5956,35
5957,37
5958,37
5959,37
5960,37
5961,37
5962,37
5963,37
5964,37
5965,37
5966,37
5967,37
5968,37
5969,37
5970,37
5971,37
5972,37
5973,37
5974,37
5975,37
5976,37
5977,37
5978,37
5979,37
5980,37
5981,37
5982,37
5983,37
5984,37
5985,37
5986,37
5987,37
5988,37
5989,37
5990,37
5991,37
5992,37
5993,37
5994,37
5995,37
5996,37
5997,37
5998,37
5999,37
6000,37
6001,37
6002,37
6003,37
6004,37
6005,37
6006,37
6007,37
6008,37
6009,37
6010,36
6011,36
6012,36
6013,36
6014,36
6015,36
6016,36
6017,36
6018,36
6019,36
6020,36
6021,37
6022,36
6023,36
6024,36
6025,36
6026,36
6027,36
6028,36
6029,36
6030,36
6031,36
6032,36
6033,36
6034,36
6035,36
6036,36
6037,36
6038,36
6039,36
6040,36
6041,36
6042,36
6043,36
6044,36
6045,36
6046,36
6047,36
6048,36
6049,36
6050,37
6051,36
6052,36
6053,36
6054,36
6055,36
6056,36
6057,36
6058,36
6059,36
6060,36
6061,36
6062,37
6063,37
6064,37
6065,37
6066,37
6067,37
6068,38
6069,37
6070,37
6071,36
6072,36
6073,36
6074,36
6075,36
6076,37
6077,37
6078,37
6079,36
6080,37
6081,37
6082,37
6083,37
6084,37
6085,37
6086,38
6087,38
6088,37
6089,37
6090,36
6091,36
6092,36
6093,36
6094,36
6095,36
6096,36
6097,36
6098,36
6099,37
6100,37
6101,36
6102,36
6103,36
6104,36
6105,36
6106,36
6107,36
6108,36
6109,36
6110,36
6111,36
6112,36
6113,36
6114,36
6115,36
6116,36
6117,36
6118,36
6119,36
6120,36
6121,36
6122,36
6123,37
6124,36
6125,36
6126,36
6127,36
6128,36
6129,36
6130,36
6131,36
6132,37
6133,37
6134,37
6135,37
6136,37
6137,37
6138,37
6139,37
6140,38
6141,38
6142,38
6143,38
6144,38
6145,38
6146,38
6147,37
6148,37
6149,37
6150,36
6151,37
6152,37
6153,37
6154,37
6155,37
6156,37
6157,37
6158,37
6159,37
6160,37
6161,37
6162,37
6163,37
6164,37
6165,37
6166,37
6167,37
6168,37
6169,37
6170,37
6171,38
6172,38
6173,38
6174,37
6175,37
6176,37
6177,37
6178,38
6179,38
6180,38
6181,38
6182,38
6183,38
6184,38
6185,38
6186,38
6187,38
6188,38
6189,38
6190,38
6191,37
6192,37
6193,37
6194,37
6195,37
6196,37
6197,37
6198,37
6199,37
6200,37
6201,37
6202,37
6203,37
6204,37
6205,37
6206,37
6207,37
6208,37
6209,37
6210,37
6211,37
6212,37
6213,37
6214,37
6215,37
6216,37
6217,37
6218,37
6219,37
6220,37
6221,37
6222,37
6223,37
6224,38
6225,38
6226,37
6227,37
6228,37
6229,37
6230,37
6231,37
6232,37
6233,37
6234,37
6235,37
6236,37
6237,37
6238,37
6239,37
6240,37
6241,37
6242,37
6243,37
6244,37
6245,37
6246,37
6247,37
6248,37
6249,37
6250,37
6251,37
6252,37
6253,37
6254,37
6255,37
6256,37
6257,37
6258,37
6259,37
6260,37
6261,37
6262,37
6263,37
6264,37
6265,37
6266,37
6267,37
6268,37
6269,37
6270,37
6271,37
6272,37
6273,37
6274,37
6275,37
6276,37
6277,37
6278,37
6279,37
6280,37
6281,37
6282,37
6283,37
6284,37
6285,37
6286,38
6287,38
6288,37
6289,37
6290,37
6291,37
6292,37
6293,37
6294,37
6295,37
6296,37
6297,37
6298,37
6299,37
6300,37
6301,37
6302,38
6303,37
6304,37
6305,37
6306,37
6307,37
6308,37
6309,37
6310,37
6311,37
6312,37
6313,37
6314,37
6315,37
6316,37
6317,37
6318,37
6319,38
6320,37
6321,37
6322,37
6323,37
6324,37
6325,38
6326,37
6327,37
6328,38
6329,38
6330,37
6331,37
6332,37
6333,37
6334,37
6335,37
6336,37
6337,37
6338,37
6339,37
6340,37
6341,37
6342,37
6343,37
6344,38
6345,37
6346,37
6347,37
6348,37
6349,37
6350,37
6351,37
6352,37
6353,37
6354,37
6355,37
6356,37
6357,37
6358,37
6359,37
6360,37
6361,37
6362,37
6363,37
6364,36
6365,36
6366,36
6367,36
6368,36
6369,36
6370,36
6371,36
6372,36
6373,36
6374,36
6375,36
6376,36
6377,36
6378,36
6379,36
6380,36
6381,36
6382,37
6383,36
6384,36
6385,36
6386,36
6387,36
6388,36
6389,36
6390,36
6391,36
6392,36
6393,36
6394,36
6395,36
6396,36
6397,36
6398,36
6399,36
6400,36
6401,36
6402,36
6403,36
6404,36
6405,36
6406,36
6407,36
6408,36
6409,36
6410,36
6411,36
6412,36
6413,36
6414,36
6415,36
6416,36
6417,36
6418,36
6419,36
6420,36
6421,36
6422,36
6423,36
6424,36
6425,37
6426,37
6427,37
6428,37
6429,37
6430,37
6431,37
6432,36
6433,36
6434,36
6435,36
6436,36
6437,36
6438,36
6439,36
6440,36
6441,36
6442,36
6443,36
6444,36
6445,36
6446,36
6447,36
6448,36
6449,36
6450,36
6451,36
6452,36
6453,36
6454,36
6455,36
6456,36
6457,36
6458,36
6459,36
6460,36
6461,36
6462,36
6463,36
6464,36
6465,36
6466,36
6467,36
6468,36
6469,36
6470,36
6471,36
6472,36
6473,36
6474,36
6475,36
6476,36
6477,36
6478,37
6479,36
6480,36
6481,36
6482,36
6483,36
6484,37
6485,36
6486,36
6487,36
6488,36
6489,36
6490,36
6491,36
6492,36
6493,36
6494,36
6495,36
6496,36
6497,36
6498,36
6499,36
6500,36
6501,36
6502,36
6503,36
6504,36
6505,36
6506,36
6507,36
6508,36
6509,36
6510,36
6511,37
6512,37
6513,37
6514,37
6515,37
6516,37
6517,37
6518,37
6519,37
6520,37
6521,37
6522,37
6523,37
6524,37
6525,37
6526,37
6527,37
6528,37
6529,37
6530,37
6531,37
6532,37
6533,37
6534,37
6535,36
6536,36
6537,36
6538,36
6539,36
6540,36
6541,36
6542,36
6543,36
6544,36
6545,37
6546,37
6547,37
6548,36
6549,36
6550,36
6551,36
6552,36
6553,36
6554,36
6555,36
6556,36
6557,37
6558,37
6559,37
6560,37
6561,37
6562,37
6563,37
6564,37
6565,37
6566,37
6567,38
6568,37
6569,37
6570,37
6571,37
6572,37
6573,37
6574,37
6575,37
6576,37
6577,37
6578,37
6579,37
6580,37
6581,37
6582,37
6583,37
6584,37
6585,37
6586,37
6587,37
6588,37
6589,37
6590,37
6591,38
6592,38
6593,38
6594,36
6595,36
6596,36
6597,36
6598,36
6599,36
6600,36
6601,36
6602,36
6603,36
6604,36
6605,36
6606,36
6607,36
6608,36
6609,36
6610,36
6611,36
6612,36
6613,36
6614,36
6615,36
6616,36
6617,36
6618,36
6619,36
6620,36
6621,36
6622,36
6623,36
6624,36
6625,36
6626,36
6627,36
6628,36
6629,36
6630,36
6631,36
6632,36
6633,37
6634,36
6635,36
6636,36
6637,36
6638,36
6639,36
6640,36
6641,36
6642,36
6643,36
6644,36
6645,36
6646,36
6647,37
6648,37
6649,37
6650,37
6651,38
6652,37
6653,37
6654,37
6655,37
6656,37
6657,37
6658,37
6659,37
6660,37
6661,37
6662,37
6663,37
6664,37
6665,37
6666,37
6667,37
6668,37
6669,37
6670,37
6671,38
6672,37
6673,37
6674,37
6675,37
6676,37
6677,37
6678,37
6679,37
6680,37
6681,37
6682,37
6683,37
6684,37
6685,37
6686,37
6687,37
6688,37
6689,37
6690,37
6691,37
6692,37
6693,37
6694,38
6695,37
6696,38
6697,38
6698,38
6699,38
6700,38
6701,38
6702,38
6703,38
6704,38
6705,38
6706,38
6707,39
6708,38
6709,38
6710,38
6711,38
6712,38
6713,38
6714,39
6715,39
6716,38
6717,38
6718,38
6719,38
6720,37
6721,37
6722,37
6723,37
6724,37
6725,37
6726,37
6727,38
6728,38
6729,37
6730,37
6731,37
6732,37
6733,37
6734,37
6735,37
6736,37
6737,37
6738,37
6739,37
6740,37
6741,37
6742,37
6743,37
6744,37
6745,37
6746,37
6747,37
6748,37
6749,37
6750,37
6751,37
6752,37
6753,37
6754,37
6755,37
6756,38
6757,38
6758,37
6759,37
6760,37
6761,37
6762,37
6763,37
6764,37
6765,37
6766,37
6767,37
6768,37
6769,37
6770,37
6771,37
6772,37
6773,38
6774,38
6775,38
6776,38
6777,38
6778,38
6779,38
6780,38
6781,38
6782,38
6783,38
6784,38
6785,38
6786,38
6787,39
6788,38
6789,38
6790,38
6791,38
6792,38
6793,38
6794,38
6795,38
6796,38
6797,38
6798,38
6799,38
6800,38
6801,39
6802,39
6803,38
6804,38
6805,38
6806,38
6807,39
6808,39
6809,40
6810,39
6811,39
6812,40
6813,39
6814,39
6815,39
6816,39
6817,39
6818,40
6819,39
6820,39
6821,38
6822,38
6823,38
6824,38
6825,38
6826,38
6827,38
6828,38
6829,39
6830,39
6831,39
6832,39
6833,38
6834,38
6835,38
6836,38
6837,38
6838,38
6839,38
6840,37
6841,37
6842,37
6843,37
6844,37
6845,37
6846,37
6847,37
6848,37
6849,37
6850,37
6851,37
6852,37
6853,37
6854,37
6855,37
6856,37
6857,37
6858,37
6859,37
6860,37
6861,37
6862,37
6863,37
6864,37
6865,37
6866,37
6867,37
6868,37
6869,37
6870,37
6871,37
6872,39
6873,38
6874,38
6875,38
6876,38
6877,38
6878,38
6879,38
6880,38
6881,38
6882,38
6883,38
6884,38
6885,39
6886,39
6887,38
6888,38
6889,38
6890,38
6891,38
6892,38
6893,38
6894,38
6895,38
6896,38
6897,38
6898,38
6899,38
6900,38
6901,38
6902,39
6903,39
6904,39
6905,39
6906,39
6907,39
6908,39
6909,39
6910,39
6911,39
6912,39
6913,39
6914,39
6915,39
6916,39
6917,39
6918,39
6919,39
6920,39
6921,39
6922,40
6923,39
6924,40
6925,40
6926,40
6927,40
6928,41
6929,40
6930,40
6931,39
6932,39
6933,39
6934,39
6935,38
6936,38
6937,38
6938,38
6939,38
6940,38
6941,38
6942,38
6943,38
6944,38
6945,38
6946,38
6947,38
6948,38
6949,38
6950,38
6951,38
6952,38
6953,38
6954,38
6955,38
6956,38
6957,38
6958,38
6959,38
6960,38
6961,39
6962,38
6963,38
6964,38
6965,38
6966,38
6967,38
6968,38
6969,38
6970,38
6971,39
6972,39
6973,39
6974,39
6975,39
6976,39
6977,39
6978,39
6979,39
6980,39
6981,39
6982,39
6983,39
6984,39
6985,39
6986,40
6987,39
6988,39
6989,40
6990,40
6991,39
6992,39
6993,39
6994,39
6995,39
6996,39
6997,39
6998,39
6999,40
7000,39
7001,39
7002,39
7003,39
7004,39
7005,39
7006,39
7007,39
7008,39
7009,39
7010,39
7011,39
7012,39
7013,39
7014,39
7015,39
7016,39
7017,39
7018,39
7019,39
7020,39
7021,39
7022,39
7023,39
7024,39
7025,39
7026,39
7027,39
7028,39
7029,39
7030,39
7031,39
7032,39
7033,39
7034,39
7035,39
7036,39
7037,39
7038,39
7039,39
7040,39
7041,39
7042,39
7043,39
7044,39
7045,39
7046,39
7047,39
7048,39
7049,39
7050,39
7051,39
7052,39
7053,39
7054,39
7055,39
7056,39
7057,39
7058,39
7059,39
7060,39
7061,39
7062,39
7063,39
7064,39
7065,40
7066,40
7067,40
7068,40
7069,40
7070,39
7071,39
7072,39
7073,39
7074,39
7075,39
7076,38
7077,38
7078,38
7079,38
7080,38
7081,38
7082,38
7083,38
7084,38
7085,38
7086,38
7087,38
7088,38
7089,38
7090,38
7091,38
7092,38
7093,38
7094,38
7095,38
7096,38
7097,38
7098,38
7099,38
7100,38
7101,38
7102,38
7103,38
7104,38
7105,38
7106,39
7107,38
7108,38
7109,38
7110,38
7111,38
7112,38
7113,38
7114,38
7115,38
7116,38
7117,38
7118,38
7119,38
7120,38
7121,38
7122,38
7123,38
7124,38
7125,38
7126,38
7127,38
7128,38
7129,38
7130,38
7131,38
7132,39
7133,37
7134,37
7135,37
7136,37
7137,37
7138,38
7139,37
7140,37
7141,37
7142,37
7143,38
7144,38
7145,37
7146,37
7147,37
7148,37
7149,37
7150,37
7151,37
7152,37
7153,37
7154,37
7155,37
7156,37
7157,37
7158,37
7159,37
7160,37
7161,37
7162,37
7163,38
7164,39
7165,38
7166,38
7167,38
7168,39
7169,37
7170,37
7171,37
7172,37
7173,37
7174,37
7175,37
7176,37
7177,37
7178,37
7179,37
7180,37
7181,37
7182,37
7183,37
7184,37
7185,37
7186,37
7187,37
7188,37
7189,38
7190,38
7191,38
7192,37
7193,37
7194,37
7195,37
7196,37
7197,37
7198,38
7199,37
7200,37
7201,37
7202,37
7203,37
7204,37
7205,37
7206,37
7207,37
7208,37
7209,37
7210,37
7211,37
7212,37
7213,37
7214,37
7215,37
7216,37
7217,37
7218,37
7219,38
7220,37
7221,37
7222,37
7223,37
7224,37
7225,37
7226,37
7227,37
7228,37
7229,37
7230,37
7231,37
7232,37
7233,38
7234,38
7235,38
7236,38
7237,38
7238,38
7239,38
7240,38
7241,37
7242,37
7243,37
7244,37
7245,37
7246,37
7247,37
7248,37
7249,37
7250,37
7251,37
7252,37
7253,37
7254,37
7255,37
7256,37
7257,37
7258,37
7259,38
7260,38
7261,38
7262,38
7263,38
7264,38
7265,38
7266,38
7267,38
7268,38
7269,38
7270,37
7271,37
7272,37
7273,37
7274,37
7275,37
7276,37
7277,37
7278,37
7279,37
7280,37
7281,37
7282,37
7283,37
7284,38
7285,38
7286,38
7287,37
7288,37
7289,37
7290,37
7291,37
7292,37
7293,37
7294,37
7295,37
7296,37
7297,38
7298,38
7299,37
7300,37
7301,37
7302,37
7303,37
7304,37
7305,37
7306,37
7307,37
7308,37
7309,37
7310,37
7311,38
7312,37
7313,37
7314,37
7315,37
7316,37
7317,37
7318,37
7319,38
7320,37
7321,37
7322,37
7323,37
7324,37
7325,37
7326,37
7327,37
7328,38
7329,38
7330,38
7331,38
7332,38
7333,38
7334,38
7335,38
7336,38
7337,38
7338,38
7339,38
7340,38
7341,38
7342,38
7343,38
7344,38
7345,38
7346,38
7347,38
7348,38
7349,38
7350,38
7351,37
7352,37
7353,37
7354,37
7355,37
7356,37
7357,37
7358,37
7359,37
7360,37
7361,37
7362,37
7363,37
7364,38
7365,38
7366,37
7367,37
7368,37
7369,37
7370,37
7371,38
7372,37
7373,37
7374,37
7375,37
7376,37
7377,37
7378,37
7379,37
7380,37
7381,36
7382,36
7383,36
7384,36
7385,36
7386,36
7387,36
7388,36
7389,36
7390,37
7391,37
7392,37
7393,36
7394,36
7395,36
7396,36
7397,36
7398,36
7399,36
7400,36
7401,36
7402,36
7403,36
7404,36
7405,36
7406,36
7407,36
7408,36
7409,36
7410,36
7411,36
7412,36
7413,37
7414,36
7415,36
7416,37
7417,37
7418,36
7419,36
7420,36
7421,37
7422,36
7423,36
7424,36
7425,36
7426,36
7427,36
7428,36
7429,36
7430,36
7431,36
7432,36
7433,36
7434,36
7435,36
7436,36
7437,36
7438,36
7439,36
7440,36
7441,36
7442,36
7443,36
7444,36
7445,36
7446,36
7447,36
7448,36
7449,36
7450,36
7451,36
7452,36
7453,37
7454,38
7455,36
7456,36
7457,36
7458,36
7459,36
7460,36
7461,36
7462,36
7463,36
7464,36
7465,36
7466,36
7467,37
7468,36
7469,36
7470,36
7471,36
7472,36
7473,36
7474,36
7475,36
7476,36
7477,36
7478,37
7479,37
7480,37
7481,36
7482,36
7483,36
7484,36
7485,36
7486,36
7487,36
7488,36
7489,36
7490,36
7491,36
7492,36
7493,36
7494,36
7495,36
7496,36
7497,36
7498,36
7499,37
7500,37
7501,37
7502,37
7503,37
7504,37
7505,37
7506,37
7507,37
7508,37
7509,36
7510,36
7511,36
7512,36
7513,37
7514,36
7515,36
7516,36
7517,36
7518,36
7519,36
7520,36
7521,38
7522,38
7523,36
7524,36
7525,36
7526,36
7527,36
7528,36
7529,36
7530,36
7531,36
7532,36
7533,36
7534,36
7535,36
7536,36
7537,36
7538,36
7539,36
7540,36
7541,36
7542,36
7543,36
7544,36
7545,36
7546,36
7547,36
7548,36
7549,36
7550,36
7551,36
7552,36
7553,36
7554,36
7555,36
7556,36
7557,36
7558,36
7559,36
7560,36
7561,36
7562,36
7563,36
7564,36
7565,36
7566,36
7567,36
7568,36
7569,36
7570,36
7571,35
7572,35
7573,35
7574,35
7575,35
7576,35
7577,35
7578,35
7579,35
7580,35
7581,35
7582,35
7583,35
7584,35
7585,35
7586,35
7587,35
7588,35
7589,35
7590,35
7591,35
7592,35
7593,35
7594,35
7595,35
7596,35
7597,35
7598,35
7599,35
7600,35
7601,35
7602,35
7603,35
7604,35
7605,35
7606,35
7607,35
7608,35
7609,35
7610,35
7611,35
7612,35
7613,36
7614,36
7615,36
7616,36
7617,35
7618,35
7619,35
7620,35
7621,35
7622,35
7623,35
7624,35
7625,35
7626,35
7627,35
7628,35
7629,35
7630,35
7631,36
7632,36
7633,36
7634,35
7635,35
7636,36
7637,35
7638,35
7639,35
7640,35
7641,35
7642,35
7643,35
7644,35
7645,35
7646,35
7647,35
7648,35
7649,35
7650,36
7651,35
7652,35
7653,36
7654,35
7655,35
7656,36
7657,35
7658,35
7659,36
7660,35
7661,34
7662,34
7663,34
7664,34
7665,35
7666,35
7667,35
7668,35
7669,35
7670,35
7671,35
7672,35
7673,34
7674,34
7675,34
7676,34
7677,33
7678,33
7679,33
7680,33
7681,33
7682,33
7683,33
7684,33
7685,33
7686,33
7687,33
7688,33
7689,33
7690,33
7691,33
7692,33
7693,33
7694,33
7695,33
7696,33
7697,33
7698,33
7699,33
7700,33
7701,33
7702,33
7703,33
7704,34
7705,33
7706,33
7707,33
7708,33
7709,33
7710,33
7711,33
7712,33
7713,33
7714,33
7715,33
7716,33
7717,33
7718,33
7719,33
7720,33
7721,33
7722,33
7723,33
7724,33
7725,33
7726,33
7727,33
7728,33
7729,33
7730,33
7731,33
7732,33
7733,33
7734,33
7735,33
7736,34
7737,33
7738,33
7739,33
7740,33
7741,33
7742,33
7743,33
7744,33
7745,34
7746,33
7747,33
7748,33
7749,33
7750,33
7751,33
7752,34
7753,33
7754,33
7755,33
7756,33
7757,33
7758,33
7759,33
7760,33
7761,33
7762,33
7763,33
7764,33
7765,33
7766,33
7767,33
7768,33
7769,33
7770,33
7771,33
7772,33
7773,33
7774,33
7775,33
7776,33
7777,34
7778,34
7779,33
7780,33
7781,33
7782,33
7783,34
7784,34
7785,34
7786,33
7787,33
7788,33
7789,33
7790,33
7791,33
7792,33
7793,33
7794,33
7795,33
7796,33
7797,33
7798,33
7799,33
7800,33
7801,33
7802,33
7803,33
7804,33
7805,33
7806,33
7807,33
7808,33
7809,33
7810,33
7811,33
7812,33
7813,33
7814,33
7815,34
7816,34
7817,35
7818,34
7819,34
7820,34
7821,34
7822,34
7823,34
7824,34
7825,34
7826,34
7827,33
7828,33
7829,33
7830,33
7831,33
7832,33
7833,33
7834,33
7835,33
7836,33
7837,33
7838,33
7839,33
7840,33
7841,33
7842,33
7843,33
7844,33
7845,33
7846,33
7847,33
7848,33
7849,33
7850,33
7851,33
7852,33
7853,33
7854,34
7855,35
7856,34
7857,34
7858,34
7859,34
7860,34
7861,34
7862,34
7863,34
7864,34
7865,34
7866,34
7867,34
7868,34
7869,34
7870,34
7871,34
7872,34
7873,34
7874,34
7875,34
7876,34
7877,34
7878,34
7879,34
7880,33
7881,33
7882,33
7883,33
7884,34
7885,35
7886,33
7887,33
7888,32
7889,32
7890,32
7891,32
7892,32
7893,32
7894,32
7895,32
7896,32
7897,32
7898,32
7899,32
7900,32
7901,32
7902,32
7903,32
7904,32
7905,32
7906,32
7907,32
7908,32
7909,32
7910,32
7911,33
7912,32
7913,33
7914,32
7915,32
7916,32
7917,32
7918,32
7919,32
7920,32
7921,32
7922,32
7923,32
7924,32
7925,32
7926,32
7927,32
7928,32
7929,33
7930,34
7931,32
7932,32
7933,33
7934,33
7935,33
7936,33
7937,33
7938,32
7939,32
7940,32
7941,32
7942,32
7943,32
7944,33
7945,32
7946,32
7947,32
7948,32
7949,32
7950,32
7951,32
7952,32
7953,33
7954,33
7955,34
7956,33
7957,33
7958,33
7959,33
7960,33
7961,32
7962,32
7963,32
7964,32
7965,33
7966,33
7967,33
7968,33
7969,33
7970,33
7971,33
7972,33
7973,33
7974,33
7975,33
7976,33
7977,33
7978,33
7979,33
7980,33
7981,33
7982,33
7983,33
7984,33
7985,33
7986,33
7987,33
7988,33
7989,33
7990,34
7991,34
7992,34
7993,34
7994,34
7995,34
7996,34
7997,34
7998,34
7999,34
8000,34
8001,33
8002,33
8003,33
8004,33
8005,33
8006,33
8007,33
8008,33
8009,33
8010,33
8011,33
8012,33
8013,33
8014,33
8015,33
8016,33
8017,33
8018,33
8019,33
8020,33
8021,33
8022,33
8023,33
8024,33
8025,33
8026,33
8027,33
8028,34
8029,34
8030,34
8031,34
8032,34
8033,33
8034,33
8035,34
8036,33
8037,33
8038,33
8039,33
8040,33
8041,33
8042,33
8043,33
8044,33
8045,33
8046,33
8047,35
8048,34
8049,34
8050,34
8051,34
8052,34
8053,33
8054,33
8055,33
8056,33
8057,33
8058,33
8059,33
8060,33
8061,33
8062,33
8063,33
8064,33
8065,33
8066,33
8067,33
8068,33
8069,33
8070,33
8071,33
8072,33
8073,33
8074,33
8075,33
8076,33
8077,33
8078,33
8079,33
8080,33
8081,33
8082,33
8083,33
8084,33
8085,33
8086,33
8087,33
8088,33
8089,33
8090,33
8091,33
8092,33
8093,33
8094,33
8095,33
8096,33
8097,33
8098,34
8099,34
8100,34
8101,34
8102,34
8103,34
8104,34
8105,34
8106,34
8107,34
8108,34
8109,34
8110,34
8111,34
8112,35
8113,35
8114,35
8115,35
8116,34
8117,34
8118,34
8119,33
8120,33
8121,33
8122,33
8123,33
8124,33
8125,33
8126,33
8127,33
8128,33
8129,33
8130,33
8131,33
8132,33
8133,33
8134,33
8135,33
8136,33
8137,33
8138,33
8139,33
8140,33
8141,33
8142,33
8143,33
8144,33
8145,33
8146,33
8147,33
8148,33
8149,33
8150,33
8151,33
8152,33
8153,33
8154,33
8155,33
8156,33
8157,34
8158,34
8159,33
8160,33
8161,33
8162,33
8163,33
8164,33
8165,33
8166,33
8167,33
8168,33
8169,33
8170,33
8171,33
8172,33
8173,33
8174,33
8175,33
8176,33
8177,33
8178,33
8179,33
8180,33
8181,33
8182,33
8183,33
8184,33
8185,33
8186,33
8187,33
8188,33
8189,33
8190,33
8191,33
8192,33
8193,33
8194,33
8195,33
8196,33
8197,33
8198,33
8199,33
8200,33
8201,33
8202,33
8203,33
8204,33
8205,33
8206,33
8207,33
8208,33
8209,33
8210,33
8211,33
8212,33
8213,33
8214,33
8215,33
8216,33
8217,33
8218,33
8219,33
8220,33
8221,33
8222,33
8223,33
8224,33
8225,33
8226,33
8227,33
8228,33
8229,33
8230,33
8231,33
8232,33
8233,33
8234,33
8235,33
8236,33
8237,33
8238,33
8239,33
8240,33
8241,33
8242,33
8243,33
8244,33
8245,33
8246,33
8247,33
8248,33
8249,33
8250,33
8251,33
8252,33
8253,33
8254,33
8255,33
8256,33
8257,33
8258,33
8259,33
8260,33
8261,33
8262,33
8263,33
8264,33
8265,33
8266,33
8267,33
8268,34
8269,34
8270,33
8271,33
8272,33
8273,33
8274,33
8275,33
8276,33
8277,33
8278,33
8279,33
8280,33
8281,33
8282,33
8283,33
8284,33
8285,33
8286,33
8287,33
8288,34
8289,34
8290,34
8291,34
8292,35
8293,35
8294,35
8295,35
8296,34
8297,34
8298,34
8299,34
8300,34
8301,34
8302,34
8303,34
8304,34
8305,34
8306,34
8307,34
8308,34
8309,34
8310,34
8311,34
8312,34
8313,34
8314,34
8315,34
8316,34
8317,34
8318,34
8319,34
8320,34
8321,34
8322,34
8323,34
8324,34
8325,33
8326,33
8327,33
8328,33
8329,33
8330,33
8331,33
8332,33
8333,33
8334,33
8335,33
8336,33
8337,33
8338,34
8339,34
8340,34
8341,34
8342,34
8343,34
8344,34
8345,34
8346,34
8347,34
8348,35
8349,35
8350,35
8351,35
8352,33
8353,33
8354,33
8355,33
8356,33
8357,33
8358,33
8359,33
8360,33
8361,33
8362,33
8363,33
8364,33
8365,33
8366,33
8367,34
8368,34
8369,34
8370,34
8371,34
8372,33
8373,33
8374,33
8375,33
8376,32
8377,32
8378,33
8379,33
8380,32
8381,32
8382,32
8383,32
8384,32
8385,32
8386,32
8387,32
8388,32
8389,32
8390,32
8391,33
8392,33
8393,33
8394,33
8395,33
8396,33
8397,33
8398,33
8399,32
8400,32
8401,32
8402,32
8403,33
8404,32
8405,32
8406,32
8407,32
8408,32
8409,32
8410,32
8411,32
8412,32
8413,32
8414,32
8415,32
8416,32
8417,32
8418,32
8419,32
8420,32
8421,32
8422,32
8423,32
8424,32
8425,32
8426,32
8427,32
8428,32
8429,32
8430,32
8431,32
8432,32
8433,32
8434,32
8435,32
8436,32
8437,32
8438,32
8439,32
8440,33
8441,33
8442,33
8443,33
8444,33
8445,33
8446,33
8447,33
8448,33
8449,33
8450,33
8451,33
8452,33
8453,33
8454,33
8455,33
8456,33
8457,33
8458,33
8459,33
8460,33
8461,33
8462,33
8463,33
8464,33
8465,33
8466,33
8467,33
8468,33
8469,33
8470,33
8471,33
8472,33
8473,33
8474,33
8475,33
8476,33
8477,34
8478,33
8479,34
8480,34
8481,34
8482,34
8483,33
8484,33
8485,33
8486,33
8487,33
8488,33
8489,33
8490,33
8491,33
8492,33
8493,33
8494,33
8495,33
8496,33
8497,33
8498,33
8499,33
8500,33
8501,33
8502,33
8503,33
8504,33
8505,33
8506,33
8507,33
8508,33
8509,33
8510,33
8511,33
8512,33
8513,33
8514,33
8515,33
8516,33
8517,33
8518,33
8519,33
8520,33
8521,33
8522,33
8523,33
8524,34
8525,34
8526,34
8527,33
8528,33
8529,33
8530,33
8531,33
8532,33
8533,33
8534,33
8535,34
8536,34
8537,33
8538,33
8539,33
8540,33
8541,33
8542,33
8543,33
8544,33
8545,33
8546,33
8547,33
8548,33
8549,33
8550,33
8551,33
8552,33
8553,33
8554,33
8555,33
8556,33
8557,33
8558,33
8559,33
8560,33
8561,33
8562,33
8563,34
8564,34
8565,33
8566,33
8567,33
8568,33
8569,33
8570,33
8571,33
8572,33
8573,33
8574,33
8575,33
8576,33
8577,33
8578,33
8579,33
8580,33
8581,33
8582,33
8583,33
8584,33
8585,33
8586,33
8587,33
8588,33
8589,33
8590,33
8591,33
8592,33
8593,33
8594,33
8595,33
8596,33
8597,33
8598,33
8599,33
8600,33
8601,34
8602,33
8603,33
8604,33
8605,33
8606,33
8607,33
8608,33
8609,33
8610,33
8611,34
8612,34
8613,34
8614,34
8615,34
8616,34
8617,34
8618,35
8619,35
8620,34
8621,34
8622,35
8623,34
8624,34
8625,34
8626,34
8627,34
8628,34
8629,34
8630,34
8631,34
8632,34
8633,34
8634,34
8635,34
8636,34
8637,34
8638,34
8639,34
8640,34
8641,34
8642,34
8643,34
8644,34
8645,34
8646,34
8647,34
8648,35
8649,35
8650,34
8651,34
8652,34
8653,34
8654,34
8655,34
8656,34
8657,35
8658,34
8659,34
8660,34
8661,34
8662,34
8663,34
8664,34
8665,34
8666,34
8667,34
8668,34
8669,34
8670,34
8671,34
8672,34
8673,34
8674,34
8675,34
8676,34
8677,34
8678,34
8679,34
8680,34
8681,34
8682,34
8683,34
8684,34
8685,34
8686,34
8687,34
8688,34
8689,34
8690,34
8691,35
8692,35
8693,34
8694,34
8695,34
8696,34
8697,34
8698,34
8699,34
8700,34
8701,34
8702,34
8703,34
8704,34
8705,34
8706,34
8707,34
8708,35
8709,34
8710,34
8711,34
8712,34
8713,34
8714,34
8715,34
8716,35
8717,35
8718,35
8719,35
8720,35
8721,35
8722,35
8723,36
8724,36
8725,36
8726,36
8727,35
8728,35
8729,34
8730,34
8731,34
8732,34
8733,34
8734,34
8735,34
8736,35
8737,35
8738,35
8739,36
8740,35
8741,35
8742,35
8743,34
8744,34
8745,34
8746,34
8747,34
8748,34
8749,34
8750,34
8751,34
8752,34
8753,34
8754,34
8755,34
8756,34
8757,34
8758,34
8759,34
8760,34
8761,34
8762,34
8763,34
8764,34
8765,34
8766,34
8767,34
8768,34
8769,34
8770,34
8771,35
8772,35
8773,35
8774,34
8775,34
8776,34
8777,34
8778,34
8779,34
8780,34
8781,34
8782,34
8783,34
8784,34
8785,34
8786,34
8787,34
8788,34
8789,34
8790,34
8791,34
8792,34
8793,34
8794,34
8795,34
8796,35
8797,34
8798,34
8799,35
8800,34
8801,34
8802,34
8803,34
8804,34
8805,34
8806,34
8807,34
8808,34
8809,34
8810,34
8811,34
8812,34
8813,35
8814,35
8815,36
8816,36
8817,36
8818,36
8819,35
8820,35
8821,34
8822,34
8823,34
8824,34
8825,34
8826,34
8827,34
8828,34
8829,33
8830,34
8831,34
8832,34
8833,33
8834,33
8835,33
8836,34
8837,34
8838,34
8839,34
8840,34
8841,34
8842,33
8843,33
8844,33
8845,33
8846,33
8847,33
8848,33
8849,34
8850,34
8851,33
8852,33
8853,33
8854,33
8855,33
8856,33
8857,33
8858,33
8859,33
8860,33
8861,33
8862,34
8863,34
8864,34
8865,33
8866,33
8867,33
8868,34
8869,33
8870,34
8871,33
8872,33
8873,33
8874,33
8875,33
8876,33
8877,33
8878,33
8879,33
8880,33
8881,33
8882,33
8883,33
8884,33
8885,33
8886,33
8887,33
8888,33
8889,33
8890,34
8891,34
8892,34
8893,34
8894,36
8895,36
8896,36
8897,36
8898,36
8899,37
8900,37
8901,37
8902,36
8903,36
8904,35
8905,35
8906,35
8907,34
8908,34
8909,34
8910,34
8911,34
8912,34
8913,34
8914,34
8915,34
8916,34
8917,35
8918,35
8919,35
8920,35
8921,35
8922,35
8923,34
8924,34
8925,34
8926,34
8927,34
8928,34
8929,34
8930,34
8931,34
8932,34
8933,34
8934,34
8935,34
8936,35
8937,35
8938,34
8939,34
8940,34
8941,34
8942,34
8943,34
8944,34
8945,34
8946,34
8947,34
8948,34
8949,34
8950,35
8951,34
8952,34
8953,34
8954,34
8955,34
8956,34
8957,34
8958,34
8959,34
8960,34
8961,35
8962,34
8963,34
8964,34
8965,34
8966,34
8967,34
8968,34
8969,34
8970,35
8971,35
8972,34
8973,34
8974,34
8975,34
8976,34
8977,34
8978,34
8979,34
8980,34
8981,34
8982,34
8983,34
8984,34
8985,34
8986,34
8987,34
8988,34
8989,34
8990,34
8991,34
8992,34
8993,34
8994,35
8995,34
8996,34
8997,35
8998,34
8999,34
9000,34
9001,34
9002,34
9003,34
9004,35
9005,35
9006,35
9007,35
9008,35
9009,35
9010,35
9011,35
9012,35
9013,35
9014,34
9015,34
9016,34
9017,34
9018,34
9019,34
9020,35
9021,34
9022,34
9023,35
9024,35
9025,36
9026,35
9027,35
9028,35
9029,35
9030,35
9031,35
9032,36
9033,34
9034,34
9035,34
9036,34
9037,34
9038,34
9039,33
9040,33
9041,33
9042,33
9043,33
9044,33
9045,33
9046,33
9047,33
9048,34
9049,34
9050,34
9051,34
9052,34
9053,34
9054,34
9055,34
9056,34
9057,34
9058,34
9059,34
9060,34
9061,34
9062,34
9063,34
9064,34
9065,33
9066,33
9067,33
9068,33
9069,33
9070,33
9071,33
9072,33
9073,33
9074,33
9075,33
9076,33
9077,34
9078,33
9079,33
9080,33
9081,33
9082,33
9083,33
9084,33
9085,33
9086,33
9087,34
9088,33
9089,33
9090,34
9091,34
9092,34
9093,34
9094,34
9095,35
9096,34
9097,34
9098,34
9099,34
9100,34
9101,34
9102,34
9103,34
9104,34
9105,34
9106,34
9107,34
9108,35
9109,34
9110,34
9111,34
9112,34
9113,34
9114,34
9115,34
9116,35
9117,35
9118,35
9119,35
9120,35
9121,34
9122,34
9123,34
9124,34
9125,34
9126,34
9127,34
9128,33
9129,33
9130,33
9131,33
9132,34
9133,34
9134,34
9135,34
9136,34
9137,34
9138,33
9139,33
9140,33
9141,33
9142,33
9143,33
9144,33
9145,33
9146,33
9147,33
9148,33
9149,33
9150,33
9151,33
9152,34
9153,33
9154,33
9155,33
9156,34
9157,34
9158,34
9159,34
9160,34
9161,34
9162,34
9163,34
9164,34
9165,34
9166,34
9167,33
9168,33
9169,34
9170,33
9171,33
9172,33
9173,33
9174,33
9175,33
9176,33
9177,33
9178,33
9179,33
9180,33
9181,33
9182,33
9183,33
9184,33
9185,33
9186,33
9187,33
9188,33
9189,33
9190,33
9191,33
9192,33
9193,33
9194,33
9195,33
9196,33
9197,33
9198,33
9199,33
9200,33
9201,33
9202,33
9203,33
9204,33
9205,33
9206,33
9207,33
9208,33
9209,33
9210,33
9211,34
9212,34
9213,34
9214,34
9215,34
9216,34
9217,34
9218,34
9219,34
9220,34
9221,33
9222,33
9223,33
9224,33
9225,33
9226,33
9227,33
9228,33
9229,33
9230,33
9231,33
9232,34
9233,33
9234,32
9235,32
9236,32
9237,32
9238,32
9239,32
9240,32
9241,32
9242,32
9243,32
9244,32
9245,32
9246,32
9247,32
9248,32
9249,32
9250,32
9251,32
9252,32
9253,32
9254,32
9255,32
9256,32
9257,32
9258,32
9259,32
9260,32
9261,32
9262,33
9263,32
9264,32
9265,32
9266,32
9267,32
9268,32
9269,32
9270,32
9271,32
9272,32
9273,32
9274,32
9275,32
9276,32
9277,32
9278,32
9279,32
9280,32
9281,32
9282,32
9283,32
9284,32
9285,32
9286,32
9287,32
9288,32
9289,32
9290,32
9291,32
9292,32
9293,32
9294,32
9295,32
9296,33
9297,33
9298,33
9299,33
9300,33
9301,33
9302,33
9303,33
9304,33
9305,34
9306,33
9307,33
9308,33
9309,33
9310,33
9311,34
9312,34
9313,34
9314,34
9315,35
9316,35
9317,35
9318,35
9319,35
9320,35
9321,34
9322,34
9323,34
9324,35
9325,35
9326,35
9327,35
9328,35
9329,35
9330,35
9331,35
9332,35
9333,35
9334,35
9335,35
9336,35
9337,35
9338,34
9339,34
9340,34
9341,34
9342,34
9343,34
9344,34
9345,36
9346,34
9347,34
9348,34
9349,34
9350,33
9351,33
9352,33
9353,33
9354,32
9355,32
9356,32
9357,32
9358,32
9359,32
9360,32
9361,32
9362,32
9363,32
9364,32
9365,32
9366,32
9367,32
9368,32
9369,32
9370,32
9371,32
9372,32
9373,32
9374,32
9375,31
9376,31
9377,31
9378,31
9379,31
9380,32
9381,33
9382,33
9383,33
9384,32
9385,32
9386,33
9387,32
9388,32
9389,33
9390,32
9391,32
9392,31
9393,31
9394,31
9395,31
9396,31
9397,31
9398,31
9399,31
9400,32
9401,32
9402,32
9403,31
9404,31
9405,31
9406,31
9407,31
9408,31
9409,31
9410,31
9411,32
9412,31
9413,31
9414,31
9415,31
9416,31
9417,31
9418,31
9419,31
9420,31
9421,31
9422,31
9423,31
9424,31
9425,32
9426,32
9427,31
9428,31
9429,31
9430,31
9431,31
9432,31
9433,31
9434,31
9435,31
9436,31
9437,31
9438,31
9439,31
9440,31
9441,31
9442,31
9443,31
9444,31
9445,31
9446,31
9447,31
9448,31
9449,31
9450,31
9451,31
9452,31
9453,31
9454,31
9455,31
9456,31
9457,31
9458,31
9459,32
9460,32
9461,32
9462,32
9463,32
9464,31
9465,31
9466,31
9467,31
9468,32
9469,31
9470,31
9471,31
9472,31
9473,31
9474,31
9475,31
9476,31
9477,32
9478,32
9479,31
9480,31
9481,31
9482,31
9483,31
9484,31
9485,31
9486,31
9487,31
9488,31
9489,31
9490,31
9491,31
9492,31
9493,31
9494,31
9495,31
9496,32
9497,32
9498,32
9499,32
9500,32
9501,33
9502,34
9503,33
9504,33
9505,34
9506,34
9507,33
9508,33
9509,33
9510,33
9511,33
9512,33
9513,33
9514,33
9515,33
9516,32
9517,32
9518,32
9519,31
9520,31
9521,31
9522,31
9523,31
9524,31
9525,31
9526,31
9527,31
9528,31
9529,30
9530,30
9531,30
9532,30
9533,30
9534,30
9535,30
9536,31
9537,30
9538,30
9539,30
9540,30
9541,30
9542,30
9543,30
9544,30
9545,30
9546,30
9547,30
9548,30
9549,30
9550,30
9551,30
9552,30
9553,30
9554,30
9555,31
9556,32
9557,32
9558,31
9559,31
9560,32
9561,32
9562,31
9563,30
9564,30
9565,30
9566,30
9567,30
9568,30
9569,30
9570,30
9571,30
9572,30
9573,30
9574,30
9575,30
9576,31
9577,30
9578,30
9579,31
9580,31
9581,31
9582,31
9583,31
9584,31
9585,31
9586,31
9587,30
9588,30
9589,30
9590,30
9591,30
9592,30
9593,30
9594,30
9595,30
9596,30
9597,30
9598,30
9599,30
9600,30
9601,30
9602,30
9603,30
9604,30
9605,30
9606,30
9607,30
9608,30
9609,30
9610,30
9611,30
9612,30
9613,30
9614,30
9615,30
9616,30
9617,30
9618,30
9619,30
9620,30
9621,30
9622,30
9623,30
9624,30
9625,30
9626,30
9627,30
9628,30
9629,30
9630,30
9631,30
9632,30
9633,30
9634,30
9635,30
9636,30
9637,30
9638,30
9639,30
9640,30
9641,30
9642,30
9643,30
9644,30
9645,30
9646,30
9647,30
9648,30
9649,30
9650,30
9651,30
9652,30
9653,30
9654,30
9655,30
9656,30
9657,30
9658,30
9659,30
9660,30
9661,30
9662,30
9663,30
9664,30
9665,30
9666,30
9667,30
9668,30
9669,30
9670,30
9671,30
9672,30
9673,30
9674,30
9675,30
9676,30
9677,30
9678,30
9679,30
9680,30
9681,31
9682,31
9683,31
9684,30
9685,30
9686,30
9687,31
9688,31
9689,30
9690,30
9691,30
9692,30
9693,30
9694,30
9695,30
9696,30
9697,30
9698,30
9699,31
9700,30
9701,30
9702,30
9703,30
9704,30
9705,30
9706,30
9707,30
9708,30
9709,30
9710,30
9711,30
9712,30
9713,30
9714,30
9715,30
9716,30
9717,30
9718,30
9719,30
9720,30
9721,30
9722,30
9723,30
9724,30
9725,30
9726,30
9727,31
9728,31
9729,31
9730,30
9731,30
9732,30
9733,30
9734,30
9735,30
9736,30
9737,30
9738,30
9739,30
9740,31
9741,30
9742,30
9743,30
9744,30
9745,30
9746,30
9747,30
9748,30
9749,30
9750,30
9751,30
9752,30
9753,30
9754,30
9755,30
9756,30
9757,31
9758,30
9759,30
9760,30
9761,30
9762,30
9763,30
9764,30
9765,30
9766,30
9767,30
9768,31
9769,31
9770,31
9771,31
9772,31
9773,31
9774,31
9775,31
9776,31
9777,31
9778,31
9779,31
9780,31
9781,31
9782,31
9783,31
9784,31
9785,31
9786,31
9787,31
9788,31
9789,31
9790,31
9791,31
9792,31
9793,31
9794,32
9795,32
9796,32
9797,32
9798,31
9799,30
9800,30
9801,30
9802,30
9803,30
9804,30
9805,30
9806,30
9807,30
9808,30
9809,30
9810,30
9811,30
9812,30
9813,30
9814,30
9815,30
9816,30
9817,30
9818,30
9819,30
9820,30
9821,30
9822,30
9823,30
9824,30
9825,30
9826,30
9827,30
9828,30
9829,30
9830,30
9831,30
9832,30
9833,30
9834,30
9835,30
9836,30
9837,30
9838,30
9839,30
9840,30
9841,30
9842,30
9843,30
9844,30
9845,30
9846,30
9847,30
9848,30
9849,30
9850,30
9851,30
9852,30
9853,30
9854,30
9855,30
9856,30
9857,30
9858,30
9859,30
9860,30
9861,30
9862,30
9863,30
9864,30
9865,30
9866,30
9867,30
9868,30
9869,30
9870,30
9871,31
9872,31
9873,31
9874,31
9875,31
9876,31
9877,31
9878,31
9879,31
9880,31
9881,30
9882,30
9883,30
9884,30
9885,30
9886,30
9887,30
9888,30
9889,30
9890,30
9891,30
9892,30
9893,30
9894,30
9895,30
9896,30
9897,30
9898,30
9899,30
9900,30
9901,30
9902,30
9903,30
9904,30
9905,30
9906,30
9907,30
9908,30
9909,30
9910,30
9911,30
9912,30
9913,30
9914,30
9915,30
9916,30
9917,30
9918,30
9919,30
9920,30
9921,30
9922,30
9923,30
9924,30
9925,30
9926,31
9927,32
9928,33
9929,33
9930,33
9931,33
9932,33
9933,32
9934,32
9935,32
9936,32
9937,32
9938,32
9939,32
9940,32
9941,32
9942,32
9943,31
9944,31
9945,31
9946,31
9947,31
9948,31
9949,32
9950,32
9951,32
9952,32
9953,32
9954,31
9955,31
9956,31
9957,31
9958,31
9959,31
9960,31
9961,31
9962,31
9963,31
9964,31
9965,31
9966,31
9967,31
9968,31
9969,31
9970,31
9971,31
9972,31
9973,31
9974,31
9975,31
9976,31
9977,31
9978,31
9979,31
9980,31
9981,31
9982,31
9983,31
9984,31
9985,31
9986,31
9987,31
9988,31
9989,31
9990,31
9991,31
9992,31
9993,31
9994,31
9995,31
9996,31
9997,31
9998,31
9999,31
10000,31
