1,3
2,3
3,4
4,4
5,4
6,4
7,4
8,4
9,4
10,4
11,4
12,4
13,4
14,4
15,5
16,5
17,5
18,5
19,5
20,5
21,5
22,5
23,5
24,5
25,5
26,5
27,5
28,5
29,5
30,5
31,5
32,5
33,5
34,5
35,5
36,5
37,5
38,5
39,5
40,5
41,5
42,5
43,5
44,5
45,5
46,5
47,5
48,5
49,5
50,5
51,5
52,5
53,5
54,5
55,5
56,5
57,5
58,5
59,5
60,5
61,5
62,5
63,5
64,5
65,5
66,5
67,5
68,5
69,5
70,5
71,5
72,5
73,5
74,5
75,6
76,5
77,5
78,6
79,6
80,6
81,6
82,6
83,6
84,6
85,6
86,6
87,6
88,6
89,6
90,6
91,6
92,6
93,6
94,6
95,6
96,6
97,7
98,6
99,6
100,6
101,6
102,6
103,6
104,6
105,7
106,7
107,7
108,7
109,7
110,7
111,7
112,7
113,7
114,7
115,7
116,7
117,7
118,9
119,8
120,8
121,9
122,8
123,8
124,8
125,8
126,8
127,8
128,8
129,8
130,8
131,8
132,9
133,9
134,9
135,9
136,9
137,9
138,8
139,8
140,8
141,8
142,8
143,8
144,8
145,8
146,8
147,8
148,8
149,8
150,8
151,8
152,8
153,8
154,8
155,8
156,8
157,8
158,8
159,8
160,8
161,8
162,8
163,8
164,8
165,9
166,9
167,9
168,10
169,10
170,10
171,9
172,9
173,9
174,9
175,9
176,9
177,9
178,10
179,9
180,9
181,9
182,9
183,9
184,9
185,9
186,9
187,9
188,9
189,9
190,9
191,9
192,9
193,9
194,9
195,9
196,9
197,9
198,9
199,9
200,9
201,10
202,10
203,10
204,10
205,10
206,10
207,10
208,10
209,10
210,10
211,10
212,10
213,10
214,10
215,10
216,10
217,10
218,10
219,10
220,10
221,10
222,10
223,10
224,10
225,10
226,10
227,10
228,10
229,10
230,10
231,10
232,11
233,11
234,11
235,11
236,11
237,10
238,10
239,10
240,10
241,10
242,10
243,10
244,10
245,10
246,10
247,10
248,10
249,10
250,10
251,10
252,10
253,10
254,10
255,10
256,10
257,10
258,10
259,10
260,10
261,10
262,10
263,10
264,10
265,10
266,10
267,11
268,10
269,11
270,10
271,10
272,10
273,10
274,10
275,10
276,10
277,10
278,10
279,10
280,10
281,10
282,10
283,10
284,10
285,10
286,10
287,10
288,10
289,10
290,10
291,10
292,10
293,10
294,10
295,10
296,10
297,10
298,10
299,10
300,10
301,10
302,10
303,10
304,10
305,10
306,10
307,10
308,10
309,10
310,10
311,10
312,10
313,10
314,10
315,10
316,10
317,10
318,10
319,10
320,10
321,10
322,10
323,10
324,10
325,10
326,10
327,10
328,10
329,10
330,10
331,10
332,10
333,10
334,10
335,11
336,10
337,10
338,10
339,10
340,10
341,10
342,11
343,11
344,11
345,11
346,11
347,11
348,11
349,11
350,11
351,11
352,12
353,11
354,12
355,12
356,12
357,12
358,11
359,11
360,11
361,11
362,11
363,11
364,11
365,11
366,11
367,11
368,11
369,11
370,11
371,12
372,12
373,12
374,12
375,12
376,12
377,12
378,12
379,12
380,12
381,12
382,12
383,13
384,13
385,12
386,12
387,12
388,12
389,12
390,12
391,12
392,12
393,12
394,12
395,12
396,12
397,12
398,12
399,12
400,13
401,13
402,13
403,13
404,13
405,13
406,13
407,13
408,12
409,12
410,13
411,13
412,13
413,13
414,13
415,13
416,13
417,13
418,13
419,12
420,12
421,12
422,13
423,13
424,15
425,14
426,14
427,13
428,13
429,14
430,14
431,14
432,14
433,14
434,14
435,14
436,14
437,14
438,13
439,13
440,13
441,16
442,13
443,13
444,13
445,13
446,13
447,13
448,13
449,13
450,13
451,13
452,13
453,13
454,13
455,13
456,13
457,13
458,13
459,13
460,13
461,13
462,13
463,13
464,13
465,13
466,13
467,13
468,13
469,13
470,14
471,14
472,13
473,13
474,13
475,13
476,13
477,13
478,13
479,13
480,14
481,14
482,14
483,14
484,13
485,13
486,13
487,13
488,13
489,13
490,13
491,13
492,13
493,13
494,13
495,13
496,13
497,13
498,13
499,13
500,13
501,13
502,13
503,13
504,13
505,13
506,13
507,13
508,14
509,14
510,14
511,13
512,13
513,13
514,13
515,13
516,13
517,13
518,13
519,13
520,13
521,13
522,13
523,13
524,13
525,13
526,14
527,13
528,13
529,13
530,13
531,13
532,13
533,13
534,13
535,13
536,13
537,13
538,13
539,13
540,13
541,13
542,13
543,13
544,13
545,13
546,13
547,13
548,13
549,13
550,13
551,13
552,13
553,13
554,13
555,13
556,13
557,13
558,13
559,13
560,13
561,13
562,13
563,13
564,13
565,13
566,13
567,13
568,13
569,13
570,13
571,13
572,13
573,13
574,13
575,13
576,13
577,13
578,13
579,13
580,13
581,13
582,13
583,13
584,13
585,13
586,13
587,13
588,13
589,13
590,13
591,14
592,14
593,13
594,13
595,13
596,13
597,13
598,13
599,13
600,13
601,13
602,13
603,13
604,13
605,13
606,13
607,13
608,13
609,13
610,13
611,13
612,13
613,13
614,13
615,13
616,13
617,13
618,13
619,13
620,13
621,13
622,13
623,13
624,13
625,13
626,14
627,14
628,13
629,13
630,13
631,13
632,14
633,14
634,14
635,14
636,14
637,14
638,14
639,14
640,14
641,14
642,14
643,14
644,14
645,14
646,14
647,14
648,14
649,14
650,14
651,14
652,14
653,14
654,15
655,14
656,14
657,15
658,15
659,15
660,14
661,14
662,14
663,14
664,14
665,14
666,14
667,15
668,15
669,15
670,15
671,14
672,14
673,14
674,14
675,14
676,14
677,14
678,14
679,14
680,14
681,14
682,14
683,14
684,14
685,14
686,14
687,14
688,14
689,14
690,14
691,14
692,14
693,14
694,15
695,15
696,15
697,14
698,14
699,14
700,14
701,14
702,14
703,14
704,14
705,14
706,14
707,14
708,14
709,14
710,14
711,14
712,14
713,14
714,14
715,14
716,14
717,14
718,14
719,14
720,14
721,14
722,15
723,14
724,14
725,14
726,14
727,14
728,14
729,14
730,14
731,14
732,14
733,14
734,14
735,14
736,14
737,14
738,14
739,14
740,14
741,14
742,15
743,15
744,15
745,14
746,14
747,15
748,16
749,15
750,14
751,14
752,14
753,14
754,14
755,14
756,14
757,14
758,14
759,14
760,14
761,14
762,14
763,15
764,14
765,14
766,14
767,14
768,14
769,14
770,14
771,14
772,14
773,14
774,14
775,14
776,14
777,14
778,14
779,15
780,16
781,15
782,14
783,14
784,14
785,14
786,14
787,14
788,14
789,14
790,14
791,14
792,14
793,14
794,14
795,14
796,14
797,14
798,14
799,14
800,14
801,14
802,14
803,15
804,14
805,14
806,14
807,14
808,14
809,14
810,14
811,14
812,14
813,14
814,14
815,14
816,14
817,14
818,14
819,14
820,14
821,14
822,14
823,14
824,14
825,14
826,14
827,15
828,15
829,15
830,15
831,15
832,15
833,15
834,15
835,15
836,15
837,15
838,15
839,15
840,15
841,15
842,15
843,15
844,16
845,15
846,15
847,15
848,15
849,15
850,15
851,15
852,15
853,15
854,16
855,16
856,15
857,15
858,15
859,14
860,14
861,14
862,14
863,14
864,15
865,15
866,15
867,15
868,15
869,15
870,15
871,15
872,15
873,15
874,15
875,15
876,15
877,15
878,15
879,15
880,15
881,16
882,15
883,15
884,15
885,15
886,15
887,15
888,15
889,15
890,15
891,15
892,15
893,15
894,15
895,15
896,15
897,15
898,15
899,15
900,15
901,15
902,15
903,16
904,15
905,15
906,15
907,15
908,15
909,15
910,15
911,15
912,15
913,15
914,15
915,15
916,15
917,15
918,15
919,15
920,16
921,16
922,16
923,15
924,16
925,16
926,16
927,15
928,15
929,16
930,17
931,16
932,15
933,15
934,15
935,15
936,15
937,16
938,16
939,16
940,16
941,15
942,15
943,15
944,15
945,15
946,15
947,15
948,15
949,15
950,15
951,16
952,16
953,16
954,16
955,16
956,16
957,16
958,16
959,16
960,16
961,16
962,16
963,16
964,16
965,16
966,17
967,18
968,18
969,18
970,18
971,17
972,18
973,17
974,18
975,17
976,17
977,17
978,17
979,17
980,17
981,17
982,17
983,17
984,17
985,17
986,17
987,17
988,17
989,17
990,17
991,17
992,17
993,16
994,16
995,16
996,16
997,16
998,16
999,16
1000,16
1001,16
1002,16
1003,16
1004,16
1005,17
1006,17
1007,17
1008,17
1009,16
1010,16
1011,16
1012,16
1013,16
1014,16
1015,16
1016,16
1017,16
1018,16
1019,16
1020,16
1021,16
1022,16
1023,16
1024,16
1025,16
1026,16
1027,16
1028,16
1029,16
1030,16
1031,16
1032,16
1033,16
1034,16
1035,16
1036,16
1037,16
1038,16
1039,16
1040,16
1041,16
1042,16
1043,17
1044,17
1045,17
1046,17
1047,17
1048,17
1049,17
1050,17
1051,17
1052,17
1053,17
1054,17
1055,17
1056,17
1057,17
1058,17
1059,17
1060,17
1061,18
1062,18
1063,19
1064,18
1065,18
1066,18
1067,18
1068,18
1069,18
1070,18
1071,18
1072,18
1073,18
1074,18
1075,18
1076,18
1077,18
1078,18
1079,18
1080,18
1081,17
1082,17
1083,17
1084,17
1085,17
1086,17
1087,17
1088,17
1089,17
1090,17
1091,17
1092,17
1093,17
1094,17
1095,17
1096,17
1097,17
1098,17
1099,17
1100,17
1101,17
1102,17
1103,17
1104,17
1105,17
1106,17
1107,17
1108,17
1109,17
1110,17
1111,17
1112,17
1113,17
1114,17
1115,17
1116,17
1117,17
1118,17
1119,17
1120,17
1121,17
1122,17
1123,17
1124,17
1125,17
1126,17
1127,17
1128,17
1129,18
1130,17
1131,17
1132,17
1133,17
1134,17
1135,17
1136,17
1137,17
1138,17
1139,17
1140,17
1141,17
1142,18
1143,17
1144,17
1145,17
1146,17
1147,17
1148,17
1149,17
1150,17
1151,17
1152,17
1153,17
1154,17
1155,17
1156,17
1157,17
1158,17
1159,17
1160,17
1161,17
1162,17
1163,17
1164,17
1165,17
1166,17
1167,17
1168,17
1169,17
1170,17
1171,17
1172,18
1173,18
1174,18
1175,18
1176,18
1177,19
1178,18
1179,18
1180,18
1181,19
1182,18
1183,18
1184,19
1185,19
1186,19
1187,20
1188,19
1189,18
1190,18
1191,18
1192,18
1193,18
1194,18
1195,18
1196,18
1197,18
1198,18
1199,18
1200,18
1201,18
1202,18
1203,18
1204,18
1205,18
1206,18
1207,18
1208,18
1209,18
1210,18
1211,18
1212,18
1213,18
1214,18
1215,18
1216,18
1217,18
1218,18
1219,18
1220,18
1221,18
1222,18
1223,18
1224,18
1225,18
1226,19
1227,19
1228,19
1229,19
1230,19
1231,19
1232,19
1233,19
1234,19
1235,19
1236,19
1237,19
1238,19
1239,19
1240,19
1241,18
1242,19
1243,19
1244,19
1245,19
1246,19
1247,19
1248,19
1249,19
1250,19
1251,19
1252,19
1253,19
1254,19
1255,20
1256,19
1257,19
1258,19
1259,19
1260,20
1261,19
1262,19
1263,19
1264,19
1265,19
1266,18
1267,18
1268,18
1269,18
1270,18
1271,18
1272,18
1273,18
1274,18
1275,18
1276,18
1277,18
1278,18
1279,18
1280,18
1281,18
1282,18
1283,18
1284,18
1285,18
1286,18
1287,18
1288,18
1289,18
1290,18
1291,18
1292,18
1293,18
1294,18
1295,18
1296,18
1297,18
1298,18
1299,18
1300,18
1301,19
1302,18
1303,18
1304,18
1305,18
1306,18
1307,18
1308,18
1309,18
1310,18
1311,18
1312,18
1313,18
1314,18
1315,18
1316,18
1317,18
1318,19
1319,19
1320,19
1321,19
1322,19
1323,20
1324,20
1325,20
1326,19
1327,19
1328,19
1329,18
1330,19
1331,18
1332,18
1333,18
1334,18
1335,18
1336,18
1337,18
1338,18
1339,18
1340,18
1341,18
1342,18
1343,18
1344,18
1345,18
1346,18
1347,18
1348,18
1349,18
1350,18
1351,18
1352,18
1353,18
1354,18
1355,18
1356,18
1357,18
1358,18
1359,18
1360,18
1361,18
1362,18
1363,18
1364,18
1365,18
1366,19
1367,19
1368,19
1369,20
1370,19
1371,19
1372,18
1373,18
1374,18
1375,18
1376,18
1377,18
1378,18
1379,18
1380,18
1381,18
1382,19
1383,19
1384,18
1385,18
1386,18
1387,18
1388,18
1389,18
1390,18
1391,18
1392,18
1393,18
1394,18
1395,18
1396,18
1397,18
1398,18
1399,18
1400,18
1401,18
1402,18
1403,18
1404,18
1405,18
1406,18
1407,18
1408,18
1409,18
1410,18
1411,19
1412,18
1413,18
1414,18
1415,18
1416,18
1417,18
1418,18
1419,18
1420,18
1421,18
1422,19
1423,20
1424,20
1425,20
1426,20
1427,19
1428,19
1429,18
1430,18
1431,18
1432,18
1433,18
1434,18
1435,18
1436,19
1437,19
1438,19
1439,19
1440,18
1441,18
1442,18
1443,18
1444,18
1445,18
1446,19
1447,19
1448,19
1449,19
1450,19
1451,19
1452,19
1453,19
1454,19
1455,19
1456,19
1457,19
1458,19
1459,19
1460,19
1461,19
1462,19
1463,19
1464,19
1465,19
1466,19
1467,19
1468,19
1469,19
1470,19
1471,19
1472,19
1473,19
1474,19
1475,19
1476,19
1477,19
1478,19
1479,19
1480,19
1481,20
1482,20
1483,20
1484,19
1485,19
1486,19
1487,19
1488,19
1489,19
1490,19
1491,19
1492,19
1493,19
1494,19
1495,19
1496,19
1497,19
1498,19
1499,19
1500,19
1501,19
1502,19
1503,19
1504,19
1505,19
1506,19
1507,19
1508,19
1509,19
1510,19
1511,19
1512,19
1513,19
1514,19
1515,19
1516,19
1517,19
1518,19
1519,19
1520,20
1521,20
1522,20
1523,20
1524,20
1525,21
1526,21
1527,20
1528,20
1529,19
1530,19
1531,19
1532,19
1533,19
1534,19
1535,20
1536,19
1537,19
1538,19
1539,19
1540,19
1541,19
1542,19
1543,19
1544,19
1545,19
1546,19
1547,19
1548,19
1549,19
1550,19
1551,19
1552,19
1553,19
1554,19
1555,19
1556,19
1557,19
1558,19
1559,19
1560,19
1561,19
1562,19
1563,19
1564,19
1565,19
1566,19
1567,19
1568,19
1569,19
1570,19
1571,19
1572,19
1573,19
1574,19
1575,19
1576,19
1577,19
1578,19
1579,19
1580,19
1581,19
1582,19
1583,19
1584,19
1585,19
1586,19
1587,19
1588,19
1589,19
1590,19
1591,19
1592,19
1593,19
1594,19
1595,19
1596,19
1597,19
1598,19
1599,19
1600,19
1601,19
1602,19
1603,19
1604,19
1605,19
1606,19
1607,19
1608,19
1609,19
1610,19
1611,19
1612,19
1613,19
1614,19
1615,19
1616,19
1617,19
1618,19
1619,19
1620,19
1621,19
1622,20
1623,20
1624,20
1625,19
1626,19
1627,19
1628,20
1629,19
1630,19
1631,19
1632,19
1633,19
1634,19
1635,19
1636,19
1637,19
1638,19
1639,19
1640,19
1641,19
1642,19
1643,19
1644,19
1645,19
1646,19
1647,19
1648,19
1649,19
1650,19
1651,19
1652,19
1653,19
1654,19
1655,19
1656,19
1657,19
1658,19
1659,19
1660,19
1661,19
1662,19
1663,19
1664,19
1665,19
1666,19
1667,19
1668,20
1669,20
1670,19
1671,19
1672,19
1673,19
1674,19
1675,19
1676,19
1677,19
1678,19
1679,19
1680,19
1681,19
1682,19
1683,19
1684,19
1685,19
1686,19
1687,19
1688,19
1689,19
1690,19
1691,19
1692,19
1693,19
1694,19
1695,19
1696,19
1697,19
1698,19
1699,19
1700,19
1701,19
1702,19
1703,19
1704,19
1705,19
1706,19
1707,19
1708,19
1709,19
1710,19
1711,19
1712,19
1713,19
1714,19
1715,19
1716,19
1717,19
1718,19
1719,19
1720,19
1721,19
1722,19
1723,19
1724,19
1725,19
1726,20
1727,20
1728,20
1729,20
1730,20
1731,20
1732,20
1733,20
1734,20
1735,20
1736,20
1737,20
1738,20
1739,20
1740,20
1741,19
1742,19
1743,20
1744,20
1745,20
1746,20
1747,21
1748,21
1749,21
1750,21
1751,21
1752,21
1753,21
1754,22
1755,22
1756,22
1757,22
1758,22
1759,21
1760,21
1761,21
1762,21
1763,21
1764,21
1765,21
1766,21
1767,21
1768,21
1769,20
1770,20
1771,20
1772,20
1773,20
1774,20
1775,21
1776,21
1777,20
1778,20
1779,20
1780,20
1781,20
1782,20
1783,20
1784,21
1785,20
1786,20
1787,20
1788,20
1789,20
1790,20
1791,20
1792,20
1793,20
1794,20
1795,20
1796,20
1797,20
1798,20
1799,20
1800,20
1801,20
1802,20
1803,20
1804,20
1805,21
1806,20
1807,20
1808,20
1809,20
1810,20
1811,21
1812,20
1813,20
1814,20
1815,20
1816,20
1817,22
1818,21
1819,21
1820,21
1821,21
1822,21
1823,21
1824,20
1825,20
1826,20
1827,20
1828,20
1829,20
1830,20
1831,20
1832,20
1833,20
1834,21
1835,21
1836,21
1837,21
1838,21
1839,21
1840,21
1841,21
1842,21
1843,21
1844,21
1845,21
1846,21
1847,21
1848,21
1849,21
1850,21
1851,21
1852,21
1853,21
1854,21
1855,21
1856,21
1857,21
1858,21
1859,21
1860,21
1861,21
1862,21
1863,21
1864,21
1865,21
1866,21
1867,23
1868,21
1869,21
1870,21
1871,22
1872,23
1873,23
1874,22
1875,22
1876,22
1877,22
1878,22
1879,22
1880,22
1881,22
1882,22
1883,22
1884,21
1885,21
1886,21
1887,21
1888,21
1889,21
1890,21
1891,21
1892,21
1893,21
1894,21
1895,21
1896,21
1897,21
1898,21
1899,21
1900,21
1901,21
1902,21
1903,21
1904,21
1905,21
1906,22
1907,21
1908,21
1909,21
1910,21
1911,21
1912,21
1913,21
1914,21
1915,21
1916,22
1917,22
1918,22
1919,22
1920,22
1921,22
1922,22
1923,22
1924,22
1925,22
1926,22
1927,22
1928,22
1929,22
1930,22
1931,21
1932,21
1933,21
1934,21
1935,21
1936,21
1937,21
1938,21
1939,21
1940,21
1941,21
1942,21
1943,21
1944,21
1945,22
1946,22
1947,22
1948,22
1949,22
1950,23
1951,23
1952,22
1953,22
1954,22
1955,22
1956,22
1957,22
1958,22
1959,22
1960,23
1961,23
1962,21
1963,21
1964,21
1965,21
1966,21
1967,21
1968,21
1969,21
1970,21
1971,21
1972,21
1973,21
1974,21
1975,21
1976,21
1977,21
1978,21
1979,21
1980,21
1981,21
1982,21
1983,21
1984,21
1985,21
1986,21
1987,21
1988,21
1989,21
1990,21
1991,21
1992,21
1993,21
1994,21
1995,21
1996,21
1997,21
1998,21
1999,21
2000,21
2001,21
2002,21
2003,21
2004,21
2005,21
2006,21
2007,21
2008,21
2009,21
2010,21
2011,21
2012,21
2013,21
2014,21
2015,21
2016,21
2017,21
2018,22
2019,21
2020,21
2021,21
2022,21
2023,21
2024,21
2025,21
2026,21
2027,21
2028,21
2029,21
2030,21
2031,21
2032,21
2033,21
2034,21
2035,21
2036,22
2037,22
2038,22
2039,21
2040,21
2041,21
2042,21
2043,21
2044,21
2045,21
2046,21
2047,21
2048,21
2049,21
2050,21
2051,21
2052,21
2053,21
2054,22
2055,21
2056,21
2057,21
2058,21
2059,21
2060,21
2061,22
2062,22
2063,21
2064,21
2065,21
2066,21
2067,21
2068,22
2069,22
2070,22
2071,23
2072,21
2073,21
2074,21
2075,21
2076,23
2077,22
2078,22
2079,21
2080,21
2081,21
2082,21
2083,21
2084,21
2085,21
2086,21
2087,21
2088,22
2089,22
2090,22
2091,21
2092,21
2093,21
2094,22
2095,22
2096,22
2097,22
2098,22
2099,22
2100,22
2101,22
2102,22
2103,22
2104,22
2105,22
2106,23
2107,22
2108,22
2109,22
2110,22
2111,22
2112,22
2113,22
2114,22
2115,22
2116,23
2117,22
2118,22
2119,22
2120,22
2121,22
2122,22
2123,22
2124,22
2125,22
2126,22
2127,22
2128,22
2129,22
2130,22
2131,22
2132,22
2133,22
2134,22
2135,22
2136,22
2137,22
2138,22
2139,22
2140,22
2141,22
2142,22
2143,23
2144,23
2145,23
2146,23
2147,22
2148,22
2149,23
2150,23
2151,23
2152,23
2153,23
2154,23
2155,23
2156,23
2157,23
2158,23
2159,24
2160,24
2161,24
2162,24
2163,24
2164,24
2165,23
2166,23
2167,23
2168,23
2169,23
2170,23
2171,23
2172,23
2173,23
2174,23
2175,23
2176,23
2177,23
2178,23
2179,23
2180,23
2181,23
2182,23
2183,23
2184,23
2185,23
2186,23
2187,23
2188,23
2189,24
2190,24
2191,24
2192,24
2193,24
2194,24
2195,24
2196,24
2197,24
2198,24
2199,25
2200,25
2201,25
2202,25
2203,25
2204,25
2205,26
2206,26
2207,25
2208,25
2209,25
2210,25
2211,25
2212,25
2213,25
2214,25
2215,25
2216,24
2217,24
2218,24
2219,24
2220,24
2221,24
2222,24
2223,24
2224,24
2225,24
2226,24
2227,24
2228,24
2229,24
2230,24
2231,24
2232,24
2233,24
2234,24
2235,24
2236,24
2237,24
2238,24
2239,24
2240,24
2241,24
2242,24
2243,24
2244,24
2245,24
2246,24
2247,24
2248,25
2249,24
2250,25
2251,25
2252,24
2253,24
2254,24
2255,24
2256,24
2257,24
2258,24
2259,24
2260,24
2261,24
2262,24
2263,24
2264,24
2265,24
2266,24
2267,24
2268,24
2269,24
2270,24
2271,24
2272,24
2273,25
2274,24
2275,24
2276,24
2277,24
2278,24
2279,24
2280,24
2281,24
2282,25
2283,26
2284,24
2285,24
2286,24
2287,25
2288,24
2289,24
2290,24
2291,24
2292,24
2293,24
2294,24
2295,24
2296,24
2297,24
2298,24
2299,24
2300,24
2301,24
2302,24
2303,24
2304,24
2305,24
2306,24
2307,24
2308,24
2309,24
2310,24
2311,24
2312,24
2313,24
2314,24
2315,24
2316,24
2317,24
2318,24
2319,24
2320,25
2321,25
2322,25
2323,25
2324,25
2325,25
2326,25
2327,25
2328,25
2329,25
2330,25
2331,25
2332,25
2333,25
2334,25
2335,25
2336,25
2337,25
2338,25
2339,26
2340,26
2341,25
2342,25
2343,25
2344,26
2345,24
2346,24
2347,24
2348,25
2349,24
2350,24
2351,24
2352,24
2353,25
2354,24
2355,24
2356,24
2357,25
2358,24
2359,24
2360,24
2361,24
2362,24
2363,24
2364,24
2365,24
2366,24
2367,24
2368,25
2369,25
2370,25
2371,25
2372,25
2373,25
2374,25
2375,24
2376,24
2377,24
2378,24
2379,24
2380,24
2381,24
2382,24
2383,24
2384,24
2385,24
2386,24
2387,24
2388,24
2389,24
2390,24
2391,24
2392,24
2393,24
2394,24
2395,24
2396,24
2397,24
2398,24
2399,24
2400,24
2401,24
2402,24
2403,24
2404,24
2405,24
2406,24
2407,24
2408,24
2409,24
2410,24
2411,24
2412,24
2413,24
2414,24
2415,24
2416,24
2417,24
2418,24
2419,24
2420,24
2421,24
2422,24
2423,24
2424,24
2425,24
2426,24
2427,24
2428,24
2429,24
2430,24
2431,24
2432,24
2433,24
2434,24
2435,24
2436,24
2437,25
2438,24
2439,24
2440,24
2441,24
2442,24
2443,24
2444,24
2445,24
2446,24
2447,24
2448,24
2449,24
2450,24
2451,24
2452,24
2453,24
2454,24
2455,25
2456,25
2457,24
2458,25
2459,24
2460,25
2461,25
2462,25
2463,25
2464,25
2465,25
2466,25
2467,25
2468,25
2469,25
2470,25
2471,25
2472,25
2473,24
2474,24
2475,25
2476,25
2477,24
2478,24
2479,24
2480,24
2481,24
2482,24
2483,24
2484,24
2485,24
2486,24
2487,24
2488,24
2489,24
2490,24
2491,25
2492,25
2493,25
2494,25
2495,25
2496,25
2497,25
2498,25
2499,24
2500,24
2501,24
2502,24
2503,24
2504,24
2505,24
2506,24
2507,24
2508,24
2509,24
2510,24
2511,24
2512,24
2513,24
2514,24
2515,24
2516,24
2517,24
2518,24
2519,24
2520,24
2521,24
2522,24
2523,24
2524,24
2525,24
2526,24
2527,24
2528,24
2529,24
2530,24
2531,24
2532,24
2533,24
2534,24
2535,24
2536,24
2537,24
2538,24
2539,24
2540,24
2541,24
2542,24
2543,24
2544,24
2545,24
2546,24
2547,24
2548,24
2549,24
2550,24
2551,24
2552,24
2553,24
2554,24
2555,24
2556,24
2557,24
2558,24
2559,24
2560,25
2561,24
2562,24
2563,24
2564,24
2565,24
2566,24
2567,24
2568,24
2569,24
2570,24
2571,24
2572,24
2573,24
2574,24
2575,24
2576,24
2577,24
2578,24
2579,24
2580,24
2581,24
2582,24
2583,24
2584,25
2585,24
2586,24
2587,24
2588,24
2589,24
2590,24
2591,24
2592,24
2593,24
2594,24
2595,24
2596,24
2597,24
2598,24
2599,24
2600,24
2601,24
2602,24
2603,24
2604,24
2605,24
2606,24
2607,24
2608,24
2609,24
2610,24
2611,24
2612,24
2613,24
2614,24
2615,24
2616,24
2617,25
2618,25
2619,25
2620,25
2621,25
2622,25
2623,25
2624,25
2625,25
2626,26
2627,26
2628,26
2629,26
2630,26
2631,26
2632,26
2633,26
2634,26
2635,26
2636,26
2637,26
2638,26
2639,26
2640,26
2641,26
2642,26
2643,26
2644,26
2645,26
2646,26
2647,26
2648,26
2649,26
2650,26
2651,26
2652,26
2653,26
2654,26
2655,26
2656,26
2657,26
2658,26
2659,26
2660,26
2661,26
2662,25
2663,25
2664,25
2665,25
2666,25
2667,25
2668,25
2669,25
2670,26
2671,26
2672,26
2673,26
2674,26
2675,26
2676,26
2677,26
2678,26
2679,26
2680,26
2681,26
2682,26
2683,26
2684,26
2685,26
2686,26
2687,26
2688,27
2689,27
2690,27
2691,27
2692,27
2693,28
2694,27
2695,27
2696,27
2697,27
2698,27
2699,27
2700,27
2701,27
2702,28
2703,27
2704,27
2705,27
2706,27
2707,27
2708,27
2709,27
2710,27
2711,27
2712,27
2713,27
2714,27
2715,27
2716,27
2717,28
2718,27
2719,27
2720,28
2721,29
2722,29
2723,29
2724,29
2725,29
2726,29
2727,28
2728,28
2729,28
2730,28
2731,28
2732,28
2733,28
2734,28
2735,28
2736,28
2737,28
2738,28
2739,28
2740,28
2741,28
2742,28
2743,28
2744,28
2745,28
2746,28
2747,28
2748,28
2749,27
2750,27
2751,27
2752,27
2753,27
2754,27
2755,27
2756,27
2757,27
2758,27
2759,27
2760,27
2761,27
2762,27
2763,27
2764,27
2765,27
2766,27
2767,27
2768,27
2769,27
2770,28
2771,27
2772,27
2773,27
2774,27
2775,27
2776,27
2777,27
2778,27
2779,27
2780,27
2781,27
2782,27
2783,27
2784,27
2785,27
2786,27
2787,27
2788,27
2789,27
2790,27
2791,27
2792,27
2793,27
2794,27
2795,27
2796,27
2797,27
2798,27
2799,27
2800,27
2801,27
2802,27
2803,27
2804,27
2805,27
2806,27
2807,27
2808,27
2809,27
2810,27
2811,27
2812,27
2813,27
2814,27
2815,27
2816,27
2817,27
2818,27
2819,27
2820,27
2821,27
2822,27
2823,27
2824,27
2825,27
2826,27
2827,27
2828,27
2829,27
2830,27
2831,27
2832,28
2833,27
2834,27
2835,27
2836,27
2837,27
2838,27
2839,27
2840,27
2841,27
2842,28
2843,27
2844,27
2845,27
2846,28
2847,28
2848,28
2849,28
2850,28
2851,28
2852,28
2853,29
2854,29
2855,29
2856,29
2857,29
2858,29
2859,29
2860,28
2861,28
2862,28
2863,28
2864,28
2865,28
2866,28
2867,28
2868,28
2869,28
2870,28
2871,28
2872,28
2873,30
2874,28
2875,28
2876,28
2877,28
2878,28
2879,28
2880,28
2881,28
2882,28
2883,29
2884,28
2885,27
2886,27
2887,27
2888,27
2889,27
2890,27
2891,28
2892,28
2893,28
2894,28
2895,27
2896,27
2897,27
2898,27
2899,27
2900,28
2901,28
2902,28
2903,28
2904,28
2905,29
2906,29
2907,29
2908,30
2909,31
2910,29
2911,28
2912,28
2913,28
2914,29
2915,29
2916,29
2917,29
2918,29
2919,29
2920,29
2921,29
2922,29
2923,29
2924,29
2925,30
2926,30
2927,30
2928,29
2929,29
2930,29
2931,29
2932,29
2933,29
2934,29
2935,29
2936,29
2937,29
2938,29
2939,29
2940,29
2941,29
2942,29
2943,29
2944,29
2945,30
2946,29
2947,29
2948,29
2949,29
2950,29
2951,29
2952,29
2953,29
2954,29
2955,29
2956,29
2957,29
2958,29
2959,29
2960,29
2961,29
2962,29
2963,29
2964,29
2965,29
2966,29
2967,29
2968,29
2969,29
2970,29
2971,29
2972,29
2973,29
2974,29
2975,29
2976,29
2977,29
2978,29
2979,29
2980,29
2981,29
2982,29
2983,29
2984,29
2985,29
2986,29
2987,29
2988,29
2989,29
2990,29
2991,29
2992,29
2993,29
2994,29
2995,29
2996,29
2997,29
2998,29
2999,29
3000,29
3001,29
3002,29
3003,29
3004,29
3005,29
3006,29
3007,29
3008,29
3009,29
3010,29
3011,29
3012,29
3013,29
3014,29
3015,29
3016,29
3017,29
3018,29
3019,29
3020,29
3021,29
3022,29
3023,29
3024,29
3025,29
3026,29
3027,29
3028,29
3029,29
3030,29
3031,29
3032,29
3033,29
3034,29
3035,30
3036,30
3037,30
3038,30
3039,30
3040,30
3041,29
3042,29
3043,29
3044,29
3045,29
3046,29
3047,29
3048,29
3049,29
3050,29
3051,29
3052,29
3053,29
3054,29
3055,29
3056,29
3057,29
3058,29
3059,29
3060,29
3061,29
3062,30
3063,30
3064,30
3065,30
3066,30
3067,30
3068,30
3069,30
3070,30
3071,30
3072,30
3073,30
3074,30
3075,30
3076,31
3077,31
3078,31
3079,31
3080,31
3081,31
3082,30
3083,30
3084,29
3085,29
3086,29
3087,29
3088,29
3089,29
3090,29
3091,29
3092,29
3093,29
3094,29
3095,29
3096,29
3097,29
3098,30
3099,30
3100,30
3101,30
3102,30
3103,30
3104,30
3105,30
3106,30
3107,30
3108,30
3109,30
3110,30
3111,30
3112,30
3113,30
3114,30
3115,30
3116,30
3117,30
3118,30
3119,29
3120,29
3121,29
3122,29
3123,29
3124,29
3125,29
3126,29
3127,29
3128,29
3129,29
3130,29
3131,29
3132,29
3133,29
3134,29
3135,29
3136,29
3137,29
3138,29
3139,29
3140,30
3141,30
3142,30
3143,30
3144,30
3145,30
3146,30
3147,30
3148,29
3149,29
3150,29
3151,29
3152,29
3153,29
3154,29
3155,29
3156,29
3157,29
3158,29
3159,29
3160,29
3161,29
3162,29
3163,29
3164,29
3165,29
3166,29
3167,29
3168,29
3169,29
3170,29
3171,29
3172,29
3173,29
3174,29
3175,29
3176,31
3177,30
3178,30
3179,31
3180,30
3181,30
3182,30
3183,29
3184,29
3185,29
3186,29
3187,29
3188,29
3189,29
3190,29
3191,29
3192,29
3193,29
3194,29
3195,29
3196,29
3197,29
3198,29
3199,29
3200,29
3201,29
3202,29
3203,29
3204,29
3205,29
3206,29
3207,29
3208,29
3209,29
3210,29
3211,29
3212,29
3213,29
3214,29
3215,29
3216,29
3217,29
3218,29
3219,29
3220,29
3221,29
3222,29
3223,29
3224,29
3225,29
3226,29
3227,29
3228,29
3229,29
3230,29
3231,29
3232,30
3233,30
3234,29
3235,30
3236,29
3237,29
3238,29
3239,29
3240,29
3241,29
3242,29
3243,29
3244,29
3245,29
3246,30
3247,30
3248,30
3249,30
3250,30
3251,30
3252,29
3253,29
3254,29
3255,29
3256,29
3257,29
3258,29
3259,29
3260,29
3261,29
3262,29
3263,29
3264,30
3265,30
3266,30
3267,30
3268,30
3269,30
3270,29
3271,29
3272,29
3273,29
3274,29
3275,30
3276,29
3277,29
3278,29
3279,29
3280,29
3281,29
3282,29
3283,29
3284,29
3285,29
3286,29
3287,29
3288,29
3289,29
3290,29
3291,29
3292,29
3293,29
3294,29
3295,29
3296,30
3297,30
3298,30
3299,30
3300,30
3301,30
3302,29
3303,29
3304,29
3305,29
3306,29
3307,29
3308,29
3309,29
3310,29
3311,29
3312,29
3313,29
3314,29
3315,29
3316,29
3317,29
3318,29
3319,29
3320,29
3321,29
3322,29
3323,29
3324,29
3325,29
3326,29
3327,29
3328,29
3329,29
3330,29
3331,29
3332,29
3333,29
3334,29
3335,29
3336,29
3337,29
3338,29
3339,29
3340,29
3341,29
3342,29
3343,29
3344,30
3345,29
3346,29
3347,29
3348,29
3349,29
3350,29
3351,29
3352,29
3353,29
3354,29
3355,29
3356,29
3357,29
3358,29
3359,29
3360,29
3361,29
3362,29
3363,29
3364,29
3365,29
3366,29
3367,30
3368,29
3369,29
3370,30
3371,29
3372,29
3373,29
3374,29
3375,29
3376,29
3377,29
3378,30
3379,30
3380,29
3381,30
3382,30
3383,30
3384,29
3385,29
3386,29
3387,29
3388,29
3389,29
3390,29
3391,29
3392,29
3393,30
3394,30
3395,30
3396,30
3397,30
3398,30
3399,30
3400,30
3401,30
3402,30
3403,29
3404,29
3405,29
3406,29
3407,29
3408,30
3409,30
3410,29
3411,29
3412,29
3413,29
3414,29
3415,29
3416,29
3417,29
3418,30
3419,30
3420,30
3421,30
3422,30
3423,31
3424,30
3425,29
3426,29
3427,29
3428,29
3429,29
3430,29
3431,29
3432,29
3433,29
3434,29
3435,29
3436,29
3437,29
3438,29
3439,29
3440,29
3441,29
3442,29
3443,29
3444,30
3445,29
3446,30
3447,30
3448,30
3449,30
3450,31
3451,31
3452,31
3453,30
3454,30
3455,30
3456,30
3457,30
3458,31
3459,30
3460,30
3461,30
3462,30
3463,30
3464,30
3465,30
3466,30
3467,30
3468,30
3469,30
3470,30
3471,30
3472,30
3473,30
3474,30
3475,30
3476,30
3477,30
3478,30
3479,30
3480,30
3481,30
3482,30
3483,30
3484,30
3485,30
3486,30
3487,30
3488,30
3489,30
3490,30
3491,30
3492,30
3493,30
3494,30
3495,30
3496,30
3497,30
3498,30
3499,30
3500,30
3501,30
3502,30
3503,30
3504,30
3505,30
3506,30
3507,31
3508,30
3509,30
3510,30
3511,30
3512,30
3513,30
3514,30
3515,30
3516,30
3517,30
3518,30
3519,30
3520,30
3521,30
3522,31
3523,30
3524,30
3525,30
3526,30
3527,30
3528,30
3529,30
3530,30
3531,30
3532,30
3533,30
3534,30
3535,30
3536,30
3537,30
3538,30
3539,30
3540,30
3541,30
3542,30
3543,30
3544,30
3545,30
3546,30
3547,30
3548,30
3549,30
3550,30
3551,30
3552,30
3553,30
3554,30
3555,30
3556,30
3557,30
3558,30
3559,30
3560,30
3561,30
3562,30
3563,30
3564,30
3565,30
3566,30
3567,30
3568,30
3569,30
3570,30
3571,31
3572,31
3573,30
3574,30
3575,30
3576,30
3577,30
3578,31
3579,31
3580,31
3581,30
3582,30
3583,30
3584,30
3585,30
3586,31
3587,31
3588,31
3589,31
3590,31
3591,30
3592,31
3593,30
3594,30
3595,30
3596,30
3597,30
3598,30
3599,30
3600,30
3601,30
3602,30
3603,30
3604,30
3605,30
3606,30
3607,30
3608,32
3609,32
3610,31
3611,31
3612,31
3613,31
3614,31
3615,31
3616,31
3617,31
3618,33
3619,32
3620,31
3621,32
3622,32
3623,32
3624,32
3625,32
3626,32
3627,33
3628,32
3629,32
3630,32
3631,32
3632,32
3633,32
3634,32
3635,32
3636,31
3637,30
3638,30
3639,30
3640,30
3641,30
3642,30
3643,30
3644,30
3645,31
3646,30
3647,30
3648,30
3649,31
3650,31
3651,30
3652,30
3653,30
3654,30
3655,30
3656,30
3657,30
3658,30
3659,30
3660,30
3661,30
3662,30
3663,30
3664,30
3665,30
3666,30
3667,30
3668,30
3669,30
3670,30
3671,30
3672,30
3673,30
3674,30
3675,30
3676,30
3677,30
3678,30
3679,30
3680,30
3681,30
3682,30
3683,30
3684,30
3685,30
3686,30
3687,30
3688,30
3689,30
3690,30
3691,32
3692,30
3693,30
3694,30
3695,30
3696,30
3697,30
3698,31
3699,31
3700,31
3701,31
3702,30
3703,31
3704,31
3705,31
3706,31
3707,30
3708,30
3709,30
3710,30
3711,30
3712,30
3713,30
3714,31
3715,31
3716,31
3717,31
3718,31
3719,31
3720,31
3721,31
3722,31
3723,31
3724,31
3725,31
3726,31
3727,31
3728,31
3729,32
3730,32
3731,31
3732,31
3733,31
3734,31
3735,31
3736,30
3737,30
3738,30
3739,30
3740,30
3741,30
3742,30
3743,30
3744,30
3745,30
3746,30
3747,30
3748,30
3749,30
3750,30
3751,30
3752,30
3753,30
3754,30
3755,30
3756,30
3757,30
3758,31
3759,31
3760,31
3761,31
3762,31
3763,31
3764,31
3765,32
3766,31
3767,31
3768,32
3769,31
3770,30
3771,30
3772,30
3773,30
3774,30
3775,30
3776,30
3777,30
3778,30
3779,30
3780,31
3781,31
3782,31
3783,31
3784,31
3785,31
3786,31
3787,30
3788,31
3789,31
3790,31
3791,31
3792,30
3793,30
3794,30
3795,31
3796,31
3797,30
3798,30
3799,31
3800,31
3801,31
3802,31
3803,31
3804,31
3805,31
3806,32
3807,32
3808,32
3809,31
3810,31
3811,31
3812,31
3813,31
3814,31
3815,31
3816,31
3817,31
3818,32
3819,32
3820,32
3821,32
3822,32
3823,32
3824,33
3825,33
3826,33
3827,32
3828,32
3829,32
3830,31
3831,31
3832,31
3833,31
3834,31
3835,31
3836,31
3837,31
3838,31
3839,31
3840,31
3841,31
3842,31
3843,31
3844,31
3845,31
3846,31
3847,31
3848,31
3849,31
3850,31
3851,31
3852,31
3853,31
3854,32
3855,31
3856,31
3857,31
3858,31
3859,31
3860,31
3861,31
3862,31
3863,31
3864,31
3865,31
3866,31
3867,31
3868,31
3869,31
3870,31
3871,31
3872,32
3873,31
3874,31
3875,31
3876,31
3877,31
3878,32
3879,32
3880,32
3881,32
3882,32
3883,32
3884,32
3885,32
3886,32
3887,32
3888,32
3889,32
3890,32
3891,32
3892,32
3893,31
3894,31
3895,31
3896,31
3897,31
3898,31
3899,31
3900,32
3901,32
3902,32
3903,32
3904,32
3905,32
3906,32
3907,32
3908,32
3909,32
3910,32
3911,32
3912,32
3913,32
3914,32
3915,32
3916,32
3917,32
3918,32
3919,32
3920,32
3921,32
3922,33
3923,32
3924,32
3925,32
3926,32
3927,32
3928,32
3929,31
3930,31
3931,31
3932,31
3933,31
3934,31
3935,31
3936,31
3937,31
3938,31
3939,31
3940,31
3941,31
3942,32
3943,32
3944,32
3945,32
3946,32
3947,32
3948,31
3949,31
3950,31
3951,31
3952,31
3953,31
3954,31
3955,31
3956,31
3957,31
3958,31
3959,31
3960,31
3961,31
3962,31
3963,31
3964,31
3965,31
3966,31
3967,31
3968,31
3969,31
3970,31
3971,31
3972,32
3973,32
3974,31
3975,31
3976,31
3977,31
3978,31
3979,31
3980,31
3981,31
3982,31
3983,31
3984,32
3985,31
3986,31
3987,31
3988,31
3989,31
3990,31
3991,31
3992,31
3993,31
3994,31
3995,31
3996,31
3997,31
3998,31
3999,31
4000,31
4001,31
4002,32
4003,32
4004,32
4005,32
4006,32
4007,31
4008,31
4009,31
4010,31
4011,31
4012,31
4013,31
4014,31
4015,31
4016,31
4017,31
4018,31
4019,31
4020,31
4021,31
4022,31
4023,31
4024,31
4025,31
4026,31
4027,31
4028,31
4029,31
4030,31
4031,31
4032,31
4033,31
4034,31
4035,32
4036,31
4037,31
4038,31
4039,31
4040,31
4041,31
4042,31
4043,32
4044,32
4045,32
4046,32
4047,32
4048,32
4049,32
4050,32
4051,32
4052,32
4053,32
4054,32
4055,32
4056,32
4057,32
4058,32
4059,32
4060,32
4061,32
4062,32
4063,33
4064,31
4065,31
4066,31
4067,31
4068,32
4069,31
4070,31
4071,31
4072,31
4073,31
4074,31
4075,31
4076,31
4077,31
4078,31
4079,31
4080,31
4081,32
4082,31
4083,32
4084,31
4085,31
4086,31
4087,31
4088,31
4089,31
4090,31
4091,32
4092,34
4093,33
4094,33
4095,33
4096,34
4097,34
4098,33
4099,33
4100,33
4101,33
4102,33
4103,33
4104,33
4105,33
4106,32
4107,32
4108,32
4109,32
4110,31
4111,31
4112,31
4113,32
4114,31
4115,31
4116,31
4117,31
4118,31
4119,31
4120,31
4121,31
4122,31
4123,31
4124,31
4125,31
4126,31
4127,31
4128,31
4129,31
4130,31
4131,31
4132,31
4133,31
4134,31
4135,31
4136,31
4137,31
4138,31
4139,31
4140,31
4141,31
4142,31
4143,31
4144,31
4145,31
4146,31
4147,31
4148,32
4149,32
4150,33
4151,33
4152,32
4153,33
4154,32
4155,32
4156,32
4157,32
4158,32
4159,32
4160,31
4161,31
4162,31
4163,31
4164,31
4165,31
4166,31
4167,31
4168,31
4169,31
4170,31
4171,31
4172,31
4173,31
4174,31
4175,31
4176,32
4177,32
4178,32
4179,32
4180,32
4181,31
4182,31
4183,31
4184,32
4185,32
4186,33
4187,32
4188,33
4189,33
4190,33
4191,33
4192,32
4193,32
4194,32
4195,32
4196,32
4197,31
4198,31
4199,31
4200,31
4201,31
4202,31
4203,31
4204,31
4205,31
4206,31
4207,31
4208,31
4209,31
4210,32
4211,31
4212,31
4213,31
4214,31
4215,31
4216,31
4217,31
4218,31
4219,31
4220,31
4221,31
4222,31
4223,31
4224,31
4225,31
4226,31
4227,31
4228,31
4229,31
4230,31
4231,31
4232,31
4233,31
4234,31
4235,31
4236,31
4237,31
4238,31
4239,31
4240,31
4241,31
4242,31
4243,31
4244,31
4245,31
4246,31
4247,31
4248,31
4249,31
4250,32
4251,31
4252,31
4253,30
4254,30
4255,30
4256,30
4257,30
4258,30
4259,30
4260,30
4261,30
4262,30
4263,30
4264,30
4265,30
4266,30
4267,30
4268,30
4269,30
4270,30
4271,30
4272,31
4273,31
4274,31
4275,31
4276,30
4277,30
4278,30
4279,30
4280,30
4281,30
4282,30
4283,30
4284,30
4285,30
4286,30
4287,30
4288,30
4289,30
4290,30
4291,30
4292,30
4293,30
4294,30
4295,30
4296,30
4297,30
4298,30
4299,30
4300,30
4301,30
4302,30
4303,30
4304,30
4305,30
4306,30
4307,30
4308,30
4309,30
4310,30
4311,30
4312,30
4313,30
4314,31
4315,31
4316,31
4317,31
4318,31
4319,32
4320,32
4321,31
4322,31
4323,31
4324,31
4325,31
4326,31
4327,31
4328,30
4329,30
4330,30
4331,30
4332,30
4333,30
4334,30
4335,30
4336,31
4337,31
4338,31
4339,31
4340,32
4341,32
4342,32
4343,32
4344,32
4345,32
4346,32
4347,32
4348,31
4349,31
4350,31
4351,31
4352,31
4353,31
4354,31
4355,32
4356,32
4357,31
4358,31
4359,31
4360,32
4361,32
4362,32
4363,31
4364,31
4365,31
4366,31
4367,31
4368,31
4369,31
4370,31
4371,31
4372,32
4373,31
4374,31
4375,31
4376,31
4377,31
4378,31
4379,31
4380,31
4381,31
4382,31
4383,31
4384,31
4385,31
4386,31
4387,32
4388,32
4389,32
4390,32
4391,32
4392,32
4393,31
4394,31
4395,31
4396,31
4397,31
4398,31
4399,31
4400,31
4401,31
4402,31
4403,31
4404,31
4405,31
4406,31
4407,31
4408,31
4409,31
4410,31
4411,31
4412,31
4413,31
4414,31
4415,33
4416,33
4417,32
4418,32
4419,32
4420,32
4421,32
4422,32
4423,32
4424,32
4425,32
4426,32
4427,32
4428,31
4429,31
4430,31
4431,31
4432,31
4433,31
4434,31
4435,31
4436,31
4437,31
4438,31
4439,31
4440,31
4441,32
4442,32
4443,32
4444,31
4445,31
4446,31
4447,31
4448,31
4449,31
4450,31
4451,31
4452,31
4453,31
4454,31
4455,31
4456,31
4457,31
4458,32
4459,32
4460,32
4461,32
4462,32
4463,31
4464,31
4465,31
4466,31
4467,31
4468,31
4469,31
4470,31
4471,31
4472,31
4473,31
4474,31
4475,31
4476,31
4477,31
4478,31
4479,31
4480,31
4481,31
4482,31
4483,31
4484,32
4485,32
4486,32
4487,32
4488,31
4489,31
4490,31
4491,31
4492,31
4493,31
4494,31
4495,31
4496,31
4497,31
4498,31
4499,32
4500,31
4501,31
4502,31
4503,31
4504,31
4505,31
4506,31
4507,31
4508,31
4509,31
4510,32
4511,31
4512,31
4513,31
4514,31
4515,31
4516,31
4517,31
4518,31
4519,31
4520,31
4521,31
4522,31
4523,31
4524,31
4525,31
4526,31
4527,32
4528,33
4529,31
4530,31
4531,31
4532,31
4533,31
4534,31
4535,31
4536,31
4537,31
4538,31
4539,32
4540,32
4541,31
4542,31
4543,31
4544,31
4545,31
4546,31
4547,31
4548,31
4549,31
4550,31
4551,31
4552,31
4553,31
4554,31
4555,31
4556,31
4557,31
4558,31
4559,31
4560,31
4561,31
4562,31
4563,31
4564,31
4565,31
4566,31
4567,31
4568,31
4569,31
4570,31
4571,31
4572,31
4573,31
4574,31
4575,31
4576,31
4577,31
4578,31
4579,31
4580,31
4581,32
4582,32
4583,32
4584,32
4585,32
4586,32
4587,32
4588,31
4589,32
4590,31
4591,31
4592,31
4593,32
4594,31
4595,31
4596,31
4597,31
4598,31
4599,31
4600,31
4601,31
4602,31
4603,31
4604,31
4605,31
4606,31
4607,31
4608,31
4609,31
4610,31
4611,31
4612,31
4613,31
4614,31
4615,31
4616,31
4617,31
4618,31
4619,31
4620,31
4621,31
4622,31
4623,32
4624,32
4625,32
4626,31
4627,31
4628,31
4629,31
4630,31
4631,31
4632,31
4633,31
4634,31
4635,31
4636,31
4637,31
4638,31
4639,31
4640,31
4641,31
4642,31
4643,31
4644,31
4645,31
4646,31
4647,32
4648,31
4649,31
4650,31
4651,31
4652,31
4653,31
4654,32
4655,32
4656,32
4657,33
4658,32
4659,32
4660,32
4661,32
4662,32
4663,32
4664,32
4665,32
4666,32
4667,32
4668,33
4669,33
4670,33
4671,33
4672,33
4673,33
4674,32
4675,32
4676,32
4677,32
4678,32
4679,32
4680,32
4681,32
4682,32
4683,32
4684,32
4685,32
4686,32
4687,32
4688,32
4689,33
4690,32
4691,32
4692,32
4693,33
4694,32
4695,32
4696,32
4697,33
4698,33
4699,33
4700,32
4701,32
4702,32
4703,32
4704,32
4705,32
4706,32
4707,32
4708,32
4709,32
4710,32
4711,32
4712,32
4713,32
4714,32
4715,32
4716,32
4717,32
4718,32
4719,32
4720,32
4721,32
4722,32
4723,32
4724,32
4725,32
4726,32
4727,32
4728,32
4729,32
4730,32
4731,32
4732,32
4733,32
4734,32
4735,32
4736,33
4737,32
4738,32
4739,32
4740,32
4741,32
4742,32
4743,32
4744,32
4745,32
4746,32
4747,32
4748,32
4749,32
4750,32
4751,32
4752,32
4753,32
4754,32
4755,32
4756,32
4757,32
4758,32
4759,32
4760,32
4761,32
4762,32
4763,32
4764,33
4765,32
4766,32
4767,32
4768,32
4769,32
4770,32
4771,32
4772,32
4773,32
4774,32
4775,32
4776,32
4777,32
4778,32
4779,32
4780,32
4781,32
4782,32
4783,32
4784,32
4785,32
4786,32
4787,32
4788,32
4789,32
4790,32
4791,32
4792,32
4793,32
4794,32
4795,32
4796,32
4797,32
4798,32
4799,32
4800,32
4801,32
4802,32
4803,32
4804,32
4805,32
4806,32
4807,32
4808,32
4809,32
4810,32
4811,32
4812,32
4813,32
4814,32
4815,32
4816,32
4817,32
4818,32
4819,32
4820,32
4821,32
4822,32
4823,32
4824,32
4825,32
4826,32
4827,32
4828,32
4829,32
4830,32
4831,32
4832,32
4833,32
4834,32
4835,32
4836,32
4837,32
4838,32
4839,33
4840,32
4841,32
4842,32
4843,32
4844,33
4845,33
4846,32
4847,32
4848,32
4849,32
4850,32
4851,32
4852,32
4853,32
4854,32
4855,32
4856,32
4857,32
4858,32
4859,32
4860,32
4861,32
4862,32
4863,32
4864,32
4865,32
4866,32
4867,32
4868,32
4869,32
4870,33
4871,32
4872,32
4873,32
4874,32
4875,32
4876,32
4877,33
4878,32
4879,32
4880,32
4881,32
4882,32
4883,32
4884,32
4885,32
4886,32
4887,32
4888,32
4889,32
4890,32
4891,32
4892,32
4893,32
4894,32
4895,32
4896,32
4897,32
4898,32
4899,32
4900,32
4901,32
4902,32
4903,32
4904,32
4905,32
4906,32
4907,32
4908,32
4909,32
4910,32
4911,32
4912,32
4913,32
4914,32
4915,32
4916,32
4917,32
4918,32
4919,32
4920,32
4921,32
4922,32
4923,32
4924,32
4925,32
4926,32
4927,32
4928,32
4929,32
4930,32
4931,32
4932,32
4933,32
4934,32
4935,32
4936,32
4937,32
4938,32
4939,32
4940,32
4941,32
4942,32
4943,32
4944,32
4945,32
4946,32
4947,32
4948,32
4949,32
4950,32
4951,32
4952,32
4953,32
4954,32
4955,32
4956,33
4957,33
4958,33
4959,33
4960,33
4961,33
4962,33
4963,33
4964,33
4965,33
4966,33
4967,33
4968,33
4969,33
4970,33
4971,33
4972,33
4973,33
4974,33
4975,33
4976,33
4977,33
4978,33
4979,34
4980,32
4981,32
4982,33
4983,33
4984,33
4985,33
4986,33
4987,33
4988,33
4989,33
4990,33
4991,33
4992,33
4993,34
4994,34
4995,33
4996,32
4997,32
4998,32
4999,32
5000,32
5001,32
5002,32
5003,32
5004,32
5005,32
5006,32
5007,32
5008,32
5009,32
5010,32
5011,32
5012,32
5013,32
5014,32
5015,32
5016,32
5017,32
5018,32
5019,32
5020,32
5021,32
5022,32
5023,32
5024,32
5025,32
5026,32
5027,32
5028,32
5029,32
5030,32
5031,33
5032,32
5033,32
5034,32
5035,32
5036,32
5037,32
5038,32
5039,33
5040,33
5041,33
5042,33
5043,33
5044,34
5045,34
5046,34
5047,34
5048,34
5049,34
5050,34
5051,34
5052,32
5053,32
5054,32
5055,32
5056,32
5057,32
5058,32
5059,32
5060,32
5061,32
5062,32
5063,31
5064,31
5065,31
5066,31
5067,31
5068,31
5069,31
5070,31
5071,31
5072,31
5073,31
5074,31
5075,31
5076,31
5077,31
5078,31
5079,31
5080,31
5081,31
5082,31
5083,31
5084,31
5085,31
5086,31
5087,31
5088,31
5089,31
5090,31
5091,31
5092,31
5093,32
5094,31
5095,31
5096,31
5097,31
5098,31
5099,32
5100,31
5101,32
5102,32
5103,32
5104,32
5105,33
5106,32
5107,31
5108,31
5109,31
5110,31
5111,31
5112,31
5113,31
5114,31
5115,31
5116,31
5117,31
5118,31
5119,31
5120,31
5121,31
5122,31
5123,31
5124,31
5125,31
5126,32
5127,32
5128,32
5129,32
5130,33
5131,31
5132,31
5133,31
5134,31
5135,31
5136,31
5137,31
5138,31
5139,31
5140,31
5141,31
5142,31
5143,31
5144,31
5145,31
5146,31
5147,31
5148,31
5149,31
5150,31
5151,31
5152,31
5153,31
5154,31
5155,31
5156,31
5157,31
5158,32
5159,31
5160,31
5161,31
5162,33
5163,32
5164,32
5165,31
5166,31
5167,31
5168,31
5169,31
5170,32
5171,32
5172,33
5173,33
5174,33
5175,32
5176,31
5177,31
5178,31
5179,31
5180,31
5181,31
5182,31
5183,31
5184,31
5185,31
5186,31
5187,31
5188,31
5189,31
5190,31
5191,31
5192,31
5193,31
5194,32
5195,31
5196,31
5197,31
5198,32
5199,31
5200,31
5201,31
5202,31
5203,31
5204,31
5205,31
5206,31
5207,31
5208,31
5209,31
5210,31
5211,31
5212,31
5213,31
5214,31
5215,31
5216,32
5217,32
5218,31
5219,31
5220,31
5221,31
5222,31
5223,31
5224,31
5225,31
5226,31
5227,31
5228,31
5229,31
5230,31
5231,31
5232,31
5233,31
5234,31
5235,31
5236,31
5237,31
5238,31
5239,31
5240,31
5241,31
5242,31
5243,31
5244,31
5245,31
5246,31
5247,31
5248,31
5249,31
5250,31
5251,31
5252,31
5253,31
5254,31
5255,31
5256,31
5257,31
5258,31
5259,31
5260,31
5261,31
5262,31
5263,31
5264,31
5265,31
5266,31
5267,31
5268,32
5269,33
5270,33
5271,33
5272,33
5273,32
5274,32
5275,32
5276,32
5277,32
5278,32
5279,32
5280,32
5281,32
5282,32
5283,32
5284,32
5285,33
5286,33
5287,32
5288,32
5289,32
5290,32
5291,32
5292,32
5293,32
5294,32
5295,32
5296,32
5297,32
5298,32
5299,32
5300,32
5301,32
5302,32
5303,32
5304,32
5305,33
5306,33
5307,33
5308,33
5309,33
5310,33
5311,33
5312,33
5313,33
5314,33
5315,33
5316,33
5317,33
5318,33
5319,33
5320,33
5321,33
5322,32
5323,32
5324,32
5325,32
5326,32
5327,32
5328,32
5329,32
5330,32
5331,32
5332,32
5333,32
5334,32
5335,32
5336,32
5337,32
5338,32
5339,32
5340,32
5341,32
5342,32
5343,32
5344,32
5345,32
5346,32
5347,32
5348,32
5349,32
5350,32
5351,32
5352,32
5353,33
5354,32
5355,32
5356,32
5357,32
5358,32
5359,32
5360,32
5361,32
5362,32
5363,32
5364,32
5365,32
5366,32
5367,32
5368,33
5369,33
5370,33
5371,32
5372,32
5373,33
5374,32
5375,32
5376,32
5377,33
5378,33
5379,33
5380,33
5381,33
5382,33
5383,33
5384,35
5385,34
5386,34
5387,34
5388,34
5389,33
5390,33
5391,33
5392,33
5393,32
5394,32
5395,32
5396,32
5397,32
5398,32
5399,32
5400,32
5401,32
5402,32
5403,32
5404,32
5405,32
5406,32
5407,32
5408,32
5409,32
5410,32
5411,32
5412,32
5413,32
5414,32
5415,32
5416,32
5417,32
5418,33
5419,33
5420,34
5421,34
5422,34
5423,34
5424,34
5425,34
5426,33
5427,33
5428,32
5429,32
5430,32
5431,32
5432,32
5433,32
5434,32
5435,32
5436,32
5437,32
5438,32
5439,32
5440,32
5441,33
5442,33
5443,32
5444,32
5445,32
5446,32
5447,32
5448,32
5449,32
5450,32
5451,32
5452,32
5453,32
5454,32
5455,32
5456,32
5457,32
5458,32
5459,32
5460,32
5461,32
5462,33
5463,33
5464,33
5465,33
5466,33
5467,34
5468,34
5469,34
5470,34
5471,34
5472,34
5473,34
5474,33
5475,32
5476,32
5477,32
5478,32
5479,32
5480,32
5481,32
5482,32
5483,32
5484,32
5485,32
5486,32
5487,32
5488,32
5489,32
5490,32
5491,32
5492,32
5493,32
5494,32
5495,32
5496,32
5497,32
5498,32
5499,32
5500,32
5501,32
5502,32
5503,32
5504,32
5505,32
5506,32
5507,32
5508,33
5509,32
5510,32
5511,32
5512,33
5513,32
5514,32
5515,32
5516,33
5517,32
5518,32
5519,32
5520,32
5521,32
5522,32
5523,32
5524,32
5525,32
5526,32
5527,32
5528,32
5529,32
5530,32
5531,32
5532,32
5533,32
5534,32
5535,32
5536,32
5537,32
5538,32
5539,32
5540,32
5541,32
5542,32
5543,32
5544,32
5545,32
5546,32
5547,32
5548,32
5549,32
5550,32
5551,32
5552,32
5553,32
5554,32
5555,32
5556,32
5557,32
5558,33
5559,33
5560,32
5561,32
5562,32
5563,32
5564,32
5565,32
5566,32
5567,32
5568,32
5569,32
5570,32
5571,32
5572,32
5573,32
5574,32
5575,32
5576,32
5577,32
5578,32
5579,32
5580,32
5581,32
5582,32
5583,32
5584,32
5585,32
5586,32
5587,32
5588,32
5589,32
5590,32
5591,32
5592,32
5593,32
5594,32
5595,32
5596,32
5597,32
5598,32
5599,32
5600,32
5601,32
5602,32
5603,32
5604,32
5605,33
5606,33
5607,33
5608,32
5609,32
5610,32
5611,32
5612,32
5613,32
5614,32
5615,32
5616,32
5617,32
5618,32
5619,32
5620,32
5621,32
5622,32
5623,32
5624,32
5625,32
5626,32
5627,32
5628,32
5629,32
5630,32
5631,32
5632,32
5633,32
5634,32
5635,32
5636,33
5637,32
5638,32
5639,32
5640,32
5641,32
5642,32
5643,32
5644,32
5645,32
5646,32
5647,32
5648,32
5649,33
5650,32
5651,33
5652,32
5653,32
5654,32
5655,32
5656,32
5657,33
5658,33
5659,33
5660,33
5661,33
5662,33
5663,33
5664,33
5665,33
5666,33
5667,33
5668,33
5669,33
5670,33
5671,33
5672,33
5673,33
5674,33
5675,33
5676,33
5677,33
5678,33
5679,33
5680,33
5681,33
5682,33
5683,33
5684,33
5685,33
5686,33
5687,33
5688,33
5689,33
5690,33
5691,33
5692,33
5693,33
5694,33
5695,33
5696,34
5697,34
5698,33
5699,33
5700,33
5701,33
5702,33
5703,33
5704,33
5705,33
5706,33
5707,33
5708,33
5709,33
5710,33
5711,33
5712,33
5713,33
5714,34
5715,34
5716,33
5717,33
5718,33
5719,33
5720,33
5721,33
5722,33
5723,33
5724,33
5725,33
5726,33
5727,33
5728,33
5729,33
5730,33
5731,33
5732,33
5733,33
5734,33
5735,33
5736,33
5737,33
5738,33
5739,33
5740,33
5741,33
5742,33
5743,33
5744,33
5745,33
5746,33
5747,33
5748,33
5749,33
5750,33
5751,33
5752,33
5753,33
5754,34
5755,34
5756,34
5757,33
5758,33
5759,33
5760,33
5761,34
5762,33
5763,33
5764,33
5765,33
5766,33
5767,33
5768,33
5769,33
5770,33
5771,33
5772,34
5773,34
5774,34
5775,34
5776,34
5777,35
5778,35
5779,35
5780,35
5781,35
5782,34
5783,33
5784,33
5785,33
5786,33
5787,33
5788,33
5789,33
5790,33
5791,33
5792,33
5793,33
5794,33
5795,33
5796,33
5797,33
5798,33
5799,33
5800,33
5801,33
5802,33
5803,33
5804,34
5805,33
5806,33
5807,33
5808,34
5809,33
5810,33
5811,33
5812,34
5813,34
5814,34
5815,34
5816,34
5817,34
5818,33
5819,33
5820,33
5821,33
5822,33
5823,33
5824,33
5825,33
5826,33
5827,33
5828,33
5829,33
5830,33
5831,33
5832,33
5833,33
5834,33
5835,33
5836,33
5837,33
5838,33
5839,33
5840,33
5841,33
5842,33
5843,33
5844,33
5845,33
5846,33
5847,33
5848,33
5849,33
5850,33
5851,33
5852,33
5853,33
5854,33
5855,33
5856,33
5857,33
5858,33
5859,33
5860,33
5861,33
5862,33
5863,33
5864,33
5865,33
5866,33
5867,34
5868,34
5869,33
5870,33
5871,33
5872,33
5873,33
5874,33
5875,33
5876,33
5877,33
5878,33
5879,33
5880,33
5881,33
5882,33
5883,33
5884,33
5885,33
5886,33
5887,33
5888,33
5889,33
5890,33
5891,33
5892,34
5893,33
5894,33
5895,33
5896,33
5897,33
5898,33
5899,33
5900,33
5901,33
5902,33
5903,33
5904,33
5905,33
5906,33
5907,33
5908,33
5909,33
5910,33
5911,33
5912,33
5913,33
5914,33
5915,33
5916,33
5917,33
5918,33
5919,33
5920,33
5921,33
5922,33
5923,33
5924,33
5925,33
5926,33
5927,33
5928,33
5929,33
5930,33
5931,33
5932,33
5933,33
5934,33
5935,33
5936,33
5937,34
5938,34
5939,34
5940,34
5941,34
5942,34
5943,34
5944,34
5945,34
5946,34
5947,34
5948,34
5949,33
5950,33
5951,33
5952,33
5953,33
5954,33
5955,33
5956,33
5957,33
5958,33
5959,33
5960,34
5961,34
5962,34
5963,34
5964,34
5965,34
5966,34
5967,34
5968,34
5969,34
5970,34
5971,34
5972,34
5973,34
5974,34
5975,34
5976,34
5977,34
5978,34
5979,35
5980,34
5981,35
5982,36
5983,35
5984,35
5985,35
5986,35
5987,35
5988,35
5989,35
5990,35
5991,35
5992,34
5993,34
5994,34
5995,34
5996,34
5997,34
5998,34
5999,33
6000,33
6001,33
6002,33
6003,33
6004,34
6005,33
6006,33
6007,34
6008,33
6009,33
6010,33
6011,33
6012,33
6013,33
6014,33
6015,33
6016,33
6017,33
6018,33
6019,33
6020,33
6021,33
6022,33
6023,33
6024,33
6025,33
6026,33
6027,33
6028,33
6029,35
6030,35
6031,35
6032,34
6033,34
6034,34
6035,34
6036,35
6037,34
6038,34
6039,34
6040,34
6041,34
6042,34
6043,33
6044,33
6045,33
6046,33
6047,33
6048,33
6049,33
6050,33
6051,34
6052,33
6053,33
6054,33
6055,33
6056,33
6057,33
6058,33
6059,33
6060,33
6061,33
6062,33
6063,34
6064,34
6065,34
6066,34
6067,34
6068,34
6069,33
6070,33
6071,34
6072,34
6073,35
6074,34
6075,34
6076,34
6077,34
6078,34
6079,34
6080,33
6081,34
6082,34
6083,34
6084,34
6085,34
6086,34
6087,34
6088,34
6089,34
6090,34
6091,34
6092,34
6093,34
6094,34
6095,33
6096,33
6097,33
6098,33
6099,33
6100,33
6101,33
6102,33
6103,33
6104,33
6105,33
6106,33
6107,33
6108,33
6109,33
6110,33
6111,33
6112,33
6113,33
6114,34
6115,34
6116,33
6117,33
6118,33
6119,33
6120,33
6121,33
6122,33
6123,33
6124,33
6125,33
6126,33
6127,33
6128,33
6129,33
6130,33
6131,33
6132,33
6133,33
6134,33
6135,33
6136,33
6137,33
6138,33
6139,33
6140,33
6141,33
6142,33
6143,33
6144,33
6145,34
6146,33
6147,32
6148,33
6149,32
6150,32
6151,32
6152,32
6153,32
6154,32
6155,32
6156,32
6157,32
6158,32
6159,32
6160,32
6161,32
6162,32
6163,32
6164,32
6165,32
6166,32
6167,32
6168,32
6169,32
6170,32
6171,32
6172,32
6173,33
6174,32
6175,32
6176,32
6177,32
6178,32
6179,32
6180,32
6181,33
6182,33
6183,33
6184,32
6185,32
6186,32
6187,32
6188,32
6189,32
6190,32
6191,32
6192,32
6193,32
6194,32
6195,32
6196,32
6197,32
6198,32
6199,32
6200,32
6201,32
6202,32
6203,32
6204,32
6205,32
6206,32
6207,32
6208,33
6209,33
6210,33
6211,33
6212,33
6213,33
6214,33
6215,33
6216,33
6217,33
6218,33
6219,33
6220,33
6221,33
6222,33
6223,33
6224,33
6225,33
6226,33
6227,33
6228,33
6229,33
6230,33
6231,34
6232,33
6233,33
6234,33
6235,33
6236,33
6237,33
6238,33
6239,33
6240,33
6241,33
6242,33
6243,33
6244,33
6245,33
6246,33
6247,33
6248,33
6249,33
6250,33
6251,33
6252,33
6253,33
6254,33
6255,33
6256,33
6257,33
6258,33
6259,33
6260,33
6261,34
6262,34
6263,34
6264,33
6265,33
6266,33
6267,33
6268,33
6269,33
6270,33
6271,33
6272,33
6273,33
6274,33
6275,33
6276,33
6277,33
6278,33
6279,33
6280,33
6281,33
6282,33
6283,33
6284,33
6285,33
6286,33
6287,33
6288,33
6289,33
6290,33
6291,33
6292,33
6293,33
6294,33
6295,33
6296,33
6297,33
6298,33
6299,33
6300,33
6301,33
6302,33
6303,33
6304,33
6305,33
6306,33
6307,33
6308,33
6309,33
6310,33
6311,33
6312,33
6313,34
6314,34
6315,34
6316,34
6317,34
6318,34
6319,34
6320,34
6321,34
6322,34
6323,34
6324,34
6325,34
6326,34
6327,34
6328,34
6329,34
6330,34
6331,34
6332,34
6333,34
6334,34
6335,35
6336,34
6337,34
6338,34
6339,34
6340,34
6341,34
6342,34
6343,34
6344,34
6345,34
6346,34
6347,34
6348,34
6349,34
6350,34
6351,34
6352,34
6353,34
6354,34
6355,34
6356,34
6357,34
6358,34
6359,34
6360,34
6361,33
6362,33
6363,33
6364,33
6365,33
6366,33
6367,33
6368,33
6369,33
6370,33
6371,33
6372,33
6373,33
6374,33
6375,33
6376,33
6377,33
6378,33
6379,33
6380,33
6381,33
6382,34
6383,34
6384,34
6385,34
6386,33
6387,33
6388,33
6389,33
6390,33
6391,33
6392,33
6393,33
6394,33
6395,33
6396,33
6397,34
6398,33
6399,33
6400,33
6401,33
6402,33
6403,33
6404,33
6405,34
6406,34
6407,34
6408,34
6409,34
6410,34
6411,34
6412,34
6413,33
6414,33
6415,33
6416,33
6417,33
6418,33
6419,33
6420,33
6421,33
6422,33
6423,33
6424,33
6425,33
6426,33
6427,33
6428,33
6429,33
6430,33
6431,33
6432,33
6433,33
6434,33
6435,33
6436,33
6437,33
6438,33
6439,33
6440,33
6441,33
6442,33
6443,33
6444,33
6445,33
6446,34
6447,34
6448,33
6449,33
6450,33
6451,33
6452,33
6453,33
6454,33
6455,33
6456,33
6457,33
6458,33
6459,33
6460,33
6461,33
6462,33
6463,33
6464,33
6465,33
6466,33
6467,33
6468,33
6469,33
6470,33
6471,33
6472,33
6473,33
6474,33
6475,33
6476,34
6477,33
6478,33
6479,34
6480,33
6481,33
6482,34
6483,33
6484,33
6485,33
6486,33
6487,33
6488,33
6489,33
6490,33
6491,33
6492,33
6493,33
6494,33
6495,33
6496,33
6497,33
6498,33
6499,33
6500,33
6501,33
6502,33
6503,33
6504,33
6505,33
6506,33
6507,34
6508,33
6509,33
6510,33
6511,33
6512,33
6513,33
6514,33
6515,33
6516,33
6517,33
6518,34
6519,34
6520,34
6521,35
6522,34
6523,34
6524,34
6525,35
6526,34
6527,34
6528,34
6529,34
6530,34
6531,34
6532,34
6533,34
6534,34
6535,34
6536,34
6537,34
6538,34
6539,34
6540,34
6541,34
6542,34
6543,34
6544,34
6545,34
6546,34
6547,34
6548,34
6549,34
6550,34
6551,34
6552,34
6553,34
6554,34
6555,34
6556,34
6557,35
6558,34
6559,34
6560,34
6561,35
6562,34
6563,34
6564,34
6565,34
6566,34
6567,34
6568,34
6569,34
6570,34
6571,34
6572,34
6573,34
6574,34
6575,34
6576,34
6577,34
6578,34
6579,34
6580,34
6581,34
6582,34
6583,34
6584,34
6585,34
6586,34
6587,34
6588,34
6589,34
6590,34
6591,34
6592,34
6593,34
6594,34
6595,34
6596,34
6597,34
6598,34
6599,34
6600,34
6601,34
6602,34
6603,34
6604,33
6605,33
6606,34
6607,33
6608,33
6609,33
6610,33
6611,33
6612,33
6613,34
6614,34
6615,34
6616,35
6617,35
6618,34
6619,34
6620,34
6621,34
6622,34
6623,33
6624,33
6625,33
6626,33
6627,33
6628,33
6629,33
6630,33
6631,33
6632,33
6633,33
6634,33
6635,33
6636,33
6637,33
6638,33
6639,33
6640,34
6641,34
6642,34
6643,34
6644,35
6645,35
6646,35
6647,35
6648,35
6649,35
6650,35
6651,35
6652,34
6653,33
6654,33
6655,33
6656,33
6657,33
6658,33
6659,33
6660,33
6661,33
6662,33
6663,33
6664,32
6665,32
6666,32
6667,32
6668,32
6669,32
6670,32
6671,33
6672,32
6673,32
6674,32
6675,32
6676,32
6677,32
6678,32
6679,32
6680,32
6681,32
6682,32
6683,32
6684,32
6685,32
6686,32
6687,32
6688,32
6689,32
6690,32
6691,32
6692,32
6693,32
6694,32
6695,32
6696,32
6697,32
6698,32
6699,32
6700,33
6701,33
6702,32
6703,32
6704,32
6705,33
6706,33
6707,33
6708,33
6709,33
6710,33
6711,33
6712,33
6713,33
6714,32
6715,32
6716,33
6717,32
6718,32
6719,32
6720,32
6721,32
6722,33
6723,33
6724,32
6725,32
6726,32
6727,32
6728,32
6729,32
6730,32
6731,32
6732,32
6733,32
6734,32
6735,32
6736,32
6737,32
6738,32
6739,32
6740,32
6741,32
6742,32
6743,32
6744,32
6745,32
6746,32
6747,32
6748,32
6749,32
6750,32
6751,32
6752,32
6753,32
6754,33
6755,32
6756,32
6757,32
6758,32
6759,32
6760,32
6761,32
6762,32
6763,32
6764,32
6765,32
6766,32
6767,32
6768,32
6769,32
6770,34
6771,34
6772,34
6773,34
6774,34
6775,33
6776,33
6777,33
6778,32
6779,32
6780,32
6781,32
6782,32
6783,32
6784,32
6785,33
6786,33
6787,33
6788,34
6789,34
6790,34
6791,34
6792,34
6793,34
6794,34
6795,34
6796,34
6797,34
6798,34
6799,33
6800,33
6801,34
6802,34
6803,34
6804,34
6805,35
6806,36
6807,36
6808,34
6809,34
6810,34
6811,34
6812,34
6813,34
6814,34
6815,34
6816,34
6817,33
6818,33
6819,33
6820,33
6821,33
6822,33
6823,33
6824,33
6825,33
6826,32
6827,32
6828,32
6829,32
6830,33
6831,33
6832,33
6833,33
6834,32
6835,32
6836,32
6837,32
6838,32
6839,32
6840,32
6841,32
6842,32
6843,32
6844,32
6845,32
6846,32
6847,32
6848,32
6849,32
6850,32
6851,32
6852,32
6853,32
6854,32
6855,32
6856,33
6857,33
6858,32
6859,32
6860,32
6861,32
6862,32
6863,32
6864,32
6865,32
6866,32
6867,32
6868,32
6869,32
6870,32
6871,32
6872,32
6873,32
6874,33
6875,33
6876,33
6877,33
6878,33
6879,33
6880,33
6881,33
6882,33
6883,34
6884,35
6885,34
6886,33
6887,33
6888,33
6889,32
6890,33
6891,32
6892,32
6893,32
6894,32
6895,32
6896,32
6897,32
6898,32
6899,32
6900,32
6901,32
6902,32
6903,32
6904,32
6905,32
6906,32
6907,33
6908,32
6909,32
6910,32
6911,32
6912,32
6913,32
6914,32
6915,32
6916,32
6917,32
6918,32
6919,32
6920,32
6921,32
6922,32
6923,32
6924,32
6925,33
6926,33
6927,33
6928,32
6929,32
6930,31
6931,31
6932,31
6933,31
6934,32
6935,32
6936,32
6937,32
6938,32
6939,32
6940,32
6941,33
6942,32
6943,32
6944,32
6945,32
6946,32
6947,32
6948,32
6949,32
6950,32
6951,32
6952,32
6953,32
6954,31
6955,31
6956,31
6957,31
6958,31
6959,32
6960,32
6961,32
6962,31
6963,31
6964,31
6965,31
6966,31
6967,31
6968,31
6969,31
6970,31
6971,31
6972,31
6973,31
6974,31
6975,31
6976,31
6977,31
6978,31
6979,31
6980,31
6981,31
6982,31
6983,31
6984,31
6985,31
6986,31
6987,31
6988,31
6989,31
6990,31
6991,31
6992,31
6993,30
6994,30
6995,30
6996,31
6997,31
6998,31
6999,31
7000,31
7001,31
7002,30
7003,30
7004,30
7005,30
7006,31
7007,30
7008,30
7009,30
7010,30
7011,30
7012,30
7013,31
7014,31
7015,31
7016,31
7017,31
7018,31
7019,31
7020,31
7021,31
7022,31
7023,31
7024,31
7025,31
7026,32
7027,32
7028,32
7029,32
7030,32
7031,32
7032,32
7033,32
7034,32
7035,32
7036,32
7037,32
7038,32
7039,32
7040,32
7041,32
7042,32
7043,32
7044,32
7045,32
7046,32
7047,32
7048,32
7049,32
7050,32
7051,32
7052,32
7053,32
7054,33
7055,33
7056,33
7057,33
7058,34
7059,33
7060,33
7061,33
7062,33
7063,33
7064,33
7065,32
7066,32
7067,32
7068,32
7069,32
7070,32
7071,32
7072,32
7073,32
7074,32
7075,32
7076,32
7077,32
7078,32
7079,31
7080,31
7081,31
7082,31
7083,31
7084,31
7085,32
7086,32
7087,32
7088,32
7089,31
7090,32
7091,32
7092,31
7093,32
7094,32
7095,31
7096,32
7097,32
7098,31
7099,31
7100,31
7101,31
7102,31
7103,31
7104,31
7105,31
7106,31
7107,32
7108,31
7109,31
7110,31
7111,31
7112,31
7113,31
7114,31
7115,31
7116,31
7117,31
7118,31
7119,31
7120,31
7121,32
7122,32
7123,32
7124,32
7125,32
7126,32
7127,31
7128,31
7129,31
7130,31
7131,31
7132,31
7133,31
7134,31
7135,31
7136,31
7137,31
7138,31
7139,31
7140,31
7141,31
7142,31
7143,31
7144,31
7145,31
7146,31
7147,31
7148,31
7149,31
7150,31
7151,31
7152,31
7153,31
7154,31
7155,31
7156,31
7157,31
7158,31
7159,31
7160,31
7161,31
7162,31
7163,31
7164,31
7165,31
7166,31
7167,31
7168,31
7169,31
7170,31
7171,31
7172,31
7173,31
7174,31
7175,31
7176,31
7177,31
7178,31
7179,31
7180,31
7181,31
7182,31
7183,31
7184,31
7185,31
7186,31
7187,31
7188,31
7189,31
7190,31
7191,31
7192,31
7193,31
7194,31
7195,31
7196,31
7197,31
7198,31
7199,31
7200,32
7201,32
7202,32
7203,32
7204,32
7205,32
7206,32
7207,32
7208,32
7209,32
7210,32
7211,32
7212,32
7213,32
7214,32
7215,32
7216,32
7217,32
7218,32
7219,32
7220,32
7221,32
7222,32
7223,32
7224,32
7225,32
7226,32
7227,32
7228,32
7229,32
7230,32
7231,32
7232,32
7233,32
7234,32
7235,32
7236,32
7237,32
7238,32
7239,32
7240,32
7241,32
7242,33
7243,33
7244,33
7245,33
7246,32
7247,32
7248,32
7249,32
7250,32
7251,32
7252,32
7253,32
7254,32
7255,32
7256,32
7257,32
7258,32
7259,32
7260,32
7261,32
7262,32
7263,32
7264,32
7265,32
7266,32
7267,32
7268,32
7269,32
7270,32
7271,32
7272,32
7273,32
7274,32
7275,32
7276,32
7277,32
7278,32
7279,32
7280,32
7281,32
7282,32
7283,32
7284,32
7285,32
7286,32
7287,32
7288,32
7289,32
7290,32
7291,32
7292,32
7293,32
7294,32
7295,32
7296,32
7297,32
7298,32
7299,32
7300,32
7301,32
7302,32
7303,32
7304,32
7305,32
7306,32
7307,32
7308,32
7309,32
7310,32
7311,31
7312,31
7313,32
7314,31
7315,31
7316,31
7317,31
7318,31
7319,31
7320,31
7321,31
7322,31
7323,31
7324,32
7325,31
7326,31
7327,31
7328,32
7329,31
7330,31
7331,31
7332,31
7333,31
7334,31
7335,31
7336,31
7337,31
7338,31
7339,31
7340,31
7341,31
7342,31
7343,31
7344,31
7345,31
7346,31
7347,31
7348,31
7349,31
7350,31
7351,31
7352,31
7353,31
7354,31
7355,31
7356,31
7357,31
7358,31
7359,31
7360,31
7361,31
7362,31
7363,31
7364,31
7365,31
7366,31
7367,31
7368,31
7369,31
7370,31
7371,31
7372,31
7373,31
7374,31
7375,31
7376,32
7377,32
7378,32
7379,31
7380,31
7381,31
7382,31
7383,31
7384,31
7385,31
7386,31
7387,31
7388,31
7389,31
7390,31
7391,31
7392,32
7393,32
7394,32
7395,33
7396,32
7397,32
7398,31
7399,31
7400,31
7401,31
7402,31
7403,31
7404,31
7405,31
7406,32
7407,31
7408,31
7409,31
7410,31
7411,31
7412,31
7413,31
7414,31
7415,31
7416,31
7417,31
7418,31
7419,31
7420,31
7421,31
7422,31
7423,31
7424,31
7425,31
7426,31
7427,31
7428,31
7429,31
7430,31
7431,31
7432,31
7433,31
7434,31
7435,31
7436,31
7437,31
7438,31
7439,31
7440,31
7441,31
7442,31
7443,31
7444,31
7445,31
7446,31
7447,31
7448,31
7449,31
7450,31
7451,31
7452,31
7453,31
7454,31
7455,31
7456,31
7457,31
7458,31
7459,31
7460,31
7461,31
7462,31
7463,31
7464,31
7465,31
7466,32
7467,31
7468,31
7469,31
7470,31
7471,31
7472,31
7473,32
7474,32
7475,32
7476,32
7477,32
7478,32
7479,32
7480,32
7481,32
7482,32
7483,32
7484,32
7485,33
7486,32
7487,32
7488,32
7489,32
7490,32
7491,32
7492,32
7493,32
7494,32
7495,32
7496,32
7497,33
7498,33
7499,33
7500,33
7501,33
7502,33
7503,32
7504,32
7505,32
7506,32
7507,32
7508,32
7509,32
7510,32
7511,32
7512,32
7513,32
7514,32
7515,32
7516,32
7517,32
7518,32
7519,32
7520,32
7521,32
7522,32
7523,32
7524,33
7525,32
7526,33
7527,32
7528,32
7529,32
7530,32
7531,32
7532,32
7533,33
7534,33
7535,32
7536,32
7537,32
7538,32
7539,32
7540,32
7541,32
7542,32
7543,33
7544,33
7545,33
7546,33
7547,33
7548,33
7549,34
7550,33
7551,33
7552,33
7553,33
7554,33
7555,33
7556,33
7557,34
7558,33
7559,33
7560,33
7561,33
7562,33
7563,33
7564,32
7565,32
7566,32
7567,32
7568,32
7569,32
7570,33
7571,33
7572,33
7573,32
7574,32
7575,32
7576,32
7577,32
7578,33
7579,33
7580,33
7581,33
7582,33
7583,33
7584,33
7585,32
7586,32
7587,32
7588,32
7589,32
7590,32
7591,32
7592,32
7593,33
7594,33
7595,33
7596,33
7597,33
7598,31
7599,31
7600,31
7601,31
7602,31
7603,31
7604,31
7605,31
7606,31
7607,31
7608,31
7609,31
7610,31
7611,31
7612,31
7613,31
7614,31
7615,31
7616,32
7617,32
7618,32
7619,32
7620,32
7621,32
7622,32
7623,32
7624,32
7625,32
7626,32
7627,32
7628,32
7629,32
7630,32
7631,32
7632,32
7633,32
7634,32
7635,32
7636,32
7637,32
7638,32
7639,32
7640,32
7641,32
7642,32
7643,32
7644,33
7645,32
7646,32
7647,33
7648,32
7649,32
7650,33
7651,32
7652,32
7653,32
7654,32
7655,32
7656,33
7657,33
7658,32
7659,32
7660,32
7661,32
7662,32
7663,32
7664,33
7665,32
7666,32
7667,32
7668,32
7669,32
7670,32
7671,32
7672,32
7673,32
7674,32
7675,32
7676,32
7677,32
7678,32
7679,32
7680,32
7681,32
7682,32
7683,32
7684,32
7685,32
7686,32
7687,32
7688,32
7689,33
7690,33
7691,33
7692,33
7693,33
7694,33
7695,33
7696,33
7697,33
7698,33
7699,32
7700,33
7701,32
7702,32
7703,32
7704,32
7705,32
7706,32
7707,32
7708,32
7709,32
7710,32
7711,33
7712,33
7713,33
7714,33
7715,32
7716,32
7717,32
7718,32
7719,32
7720,32
7721,32
7722,32
7723,32
7724,32
7725,32
7726,32
7727,32
7728,32
7729,32
7730,32
7731,32
7732,32
7733,32
7734,32
7735,32
7736,32
7737,32
7738,32
7739,32
7740,32
7741,32
7742,32
7743,32
7744,32
7745,32
7746,32
7747,32
7748,32
7749,32
7750,32
7751,32
7752,32
7753,32
7754,32
7755,32
7756,32
7757,32
7758,32
7759,32
7760,32
7761,32
7762,32
7763,32
7764,32
7765,32
7766,32
7767,32
7768,32
7769,32
7770,32
7771,32
7772,32
7773,32
7774,32
7775,32
7776,32
7777,32
7778,32
7779,32
7780,32
7781,33
7782,33
7783,33
7784,33
7785,34
7786,34
7787,34
7788,34
7789,34
7790,34
7791,34
7792,32
7793,32
7794,32
7795,32
7796,32
7797,32
7798,32
7799,32
7800,32
7801,33
7802,33
7803,32
7804,32
7805,32
7806,32
7807,32
7808,32
7809,32
7810,32
7811,32
7812,32
7813,32
7814,33
7815,32
7816,32
7817,32
7818,32
7819,32
7820,32
7821,32
7822,32
7823,32
7824,32
7825,32
7826,32
7827,32
7828,32
7829,32
7830,32
7831,32
7832,32
7833,32
7834,32
7835,32
7836,32
7837,32
7838,32
7839,32
7840,32
7841,32
7842,32
7843,32
7844,32
7845,32
7846,32
7847,32
7848,32
7849,32
7850,32
7851,32
7852,33
7853,33
7854,32
7855,32
7856,32
7857,32
7858,32
7859,32
7860,32
7861,32
7862,33
7863,33
7864,32
7865,32
7866,33
7867,33
7868,32
7869,32
7870,32
7871,32
7872,32
7873,32
7874,32
7875,32
7876,32
7877,32
7878,32
7879,32
7880,32
7881,32
7882,32
7883,32
7884,32
7885,32
7886,32
7887,33
7888,33
7889,33
7890,34
7891,33
7892,33
7893,33
7894,33
7895,32
7896,32
7897,33
7898,33
7899,32
7900,32
7901,32
7902,32
7903,32
7904,32
7905,32
7906,32
7907,32
7908,32
7909,32
7910,32
7911,32
7912,32
7913,32
7914,32
7915,32
7916,32
7917,32
7918,32
7919,32
7920,32
7921,32
7922,32
7923,32
7924,32
7925,32
7926,32
7927,32
7928,32
7929,32
7930,32
7931,32
7932,32
7933,32
7934,32
7935,32
7936,32
7937,32
7938,32
7939,32
7940,32
7941,32
7942,32
7943,32
7944,32
7945,33
7946,32
7947,32
7948,32
7949,32
7950,32
7951,32
7952,32
7953,33
7954,33
7955,33
7956,32
7957,32
7958,32
7959,33
7960,32
7961,32
7962,32
7963,32
7964,32
7965,32
7966,32
7967,32
7968,32
7969,33
7970,32
7971,32
7972,32
7973,32
7974,32
7975,32
7976,32
7977,32
7978,32
7979,32
7980,32
7981,32
7982,32
7983,32
7984,33
7985,33
7986,33
7987,33
7988,33
7989,32
7990,34
7991,33
7992,33
7993,33
7994,33
7995,32
7996,32
7997,32
7998,32
7999,32
8000,32
8001,32
8002,32
8003,32
8004,32
8005,32
8006,32
8007,32
8008,32
8009,32
8010,33
8011,33
8012,33
8013,33
8014,32
8015,33
8016,33
8017,33
8018,33
8019,33
8020,34
8021,33
8022,33
8023,33
8024,33
8025,33
8026,33
8027,33
8028,33
8029,32
8030,32
8031,32
8032,32
8033,32
8034,32
8035,32
8036,32
8037,32
8038,32
8039,32
8040,32
8041,32
8042,32
8043,32
8044,32
8045,32
8046,32
8047,32
8048,32
8049,32
8050,32
8051,32
8052,32
8053,32
8054,32
8055,32
8056,32
8057,32
8058,32
8059,32
8060,33
8061,33
8062,33
8063,33
8064,33
8065,34
8066,34
8067,33
8068,33
8069,33
8070,33
8071,33
8072,33
8073,33
8074,33
8075,33
8076,33
8077,33
8078,33
8079,33
8080,33
8081,33
8082,33
8083,33
8084,33
8085,33
8086,33
8087,33
8088,34
8089,34
8090,34
8091,34
8092,33
8093,33
8094,33
8095,33
8096,32
8097,33
8098,32
8099,32
8100,32
8101,32
8102,32
8103,32
8104,32
8105,32
8106,32
8107,32
8108,32
8109,32
8110,32
8111,32
8112,32
8113,32
8114,32
8115,32
8116,32
8117,33
8118,32
8119,32
8120,32
8121,32
8122,32
8123,32
8124,32
8125,32
8126,32
8127,32
8128,32
8129,32
8130,33
8131,32
8132,32
8133,32
8134,32
8135,32
8136,32
8137,32
8138,32
8139,32
8140,32
8141,32
8142,32
8143,33
8144,33
8145,33
8146,33
8147,33
8148,33
8149,33
8150,33
8151,33
8152,33
8153,33
8154,33
8155,32
8156,32
8157,32
8158,32
8159,32
8160,32
8161,33
8162,33
8163,32
8164,32
8165,32
8166,32
8167,32
8168,32
8169,32
8170,32
8171,32
8172,32
8173,33
8174,32
8175,32
8176,32
8177,32
8178,32
8179,32
8180,33
8181,33
8182,32
8183,32
8184,32
8185,32
8186,32
8187,33
8188,34
8189,32
8190,32
8191,32
8192,32
8193,32
8194,32
8195,32
8196,33
8197,33
8198,33
8199,33
8200,33
8201,32
8202,32
8203,32
8204,32
8205,32
8206,32
8207,32
8208,32
8209,32
8210,32
8211,32
8212,32
8213,32
8214,32
8215,32
8216,32
8217,32
8218,32
8219,32
8220,32
8221,32
8222,32
8223,32
8224,32
8225,32
8226,32
8227,32
8228,32
8229,32
8230,32
8231,32
8232,32
8233,32
8234,32
8235,32
8236,32
8237,32
8238,32
8239,32
8240,32
8241,32
8242,33
8243,32
8244,32
8245,32
8246,32
8247,32
8248,32
8249,32
8250,32
8251,32
8252,32
8253,32
8254,32
8255,32
8256,32
8257,32
8258,32
8259,32
8260,32
8261,32
8262,32
8263,32
8264,33
8265,32
8266,32
8267,32
8268,32
8269,32
8270,32
8271,32
8272,32
8273,32
8274,33
8275,32
8276,32
8277,32
8278,32
8279,32
8280,32
8281,32
8282,32
8283,32
8284,32
8285,32
8286,32
8287,32
8288,33
8289,33
8290,33
8291,33
8292,33
8293,34
8294,33
8295,33
8296,33
8297,33
8298,33
8299,33
8300,33
8301,33
8302,33
8303,33
8304,33
8305,33
8306,33
8307,33
8308,33
8309,33
8310,33
8311,33
8312,33
8313,33
8314,33
8315,33
8316,33
8317,33
8318,33
8319,33
8320,33
8321,33
8322,33
8323,33
8324,33
8325,33
8326,33
8327,34
8328,33
8329,33
8330,33
8331,33
8332,33
8333,33
8334,33
8335,33
8336,34
8337,33
8338,33
8339,33
8340,33
8341,33
8342,33
8343,33
8344,33
8345,33
8346,33
8347,33
8348,34
8349,34
8350,34
8351,33
8352,33
8353,33
8354,33
8355,33
8356,33
8357,33
8358,33
8359,33
8360,34
8361,34
8362,34
8363,33
8364,33
8365,33
8366,33
8367,33
8368,33
8369,33
8370,33
8371,33
8372,33
8373,33
8374,33
8375,33
8376,33
8377,33
8378,33
8379,33
8380,34
8381,33
8382,33
8383,33
8384,33
8385,34
8386,33
8387,33
8388,33
8389,33
8390,33
8391,33
8392,33
8393,33
8394,33
8395,33
8396,33
8397,33
8398,34
8399,34
8400,34
8401,33
8402,33
8403,33
8404,33
8405,33
8406,33
8407,33
8408,33
8409,33
8410,33
8411,33
8412,33
8413,33
8414,33
8415,33
8416,34
8417,34
8418,33
8419,33
8420,33
8421,33
8422,34
8423,34
8424,34
8425,33
8426,33
8427,33
8428,34
8429,33
8430,33
8431,33
8432,33
8433,33
8434,33
8435,33
8436,33
8437,33
8438,33
8439,33
8440,33
8441,33
8442,33
8443,33
8444,33
8445,33
8446,33
8447,33
8448,33
8449,33
8450,33
8451,33
8452,33
8453,33
8454,33
8455,33
8456,33
8457,33
8458,33
8459,33
8460,34
8461,33
8462,33
8463,33
8464,33
8465,33
8466,33
8467,33
8468,33
8469,33
8470,33
8471,33
8472,33
8473,34
8474,33
8475,33
8476,33
8477,33
8478,33
8479,33
8480,33
8481,33
8482,33
8483,33
8484,33
8485,33
8486,33
8487,33
8488,33
8489,33
8490,33
8491,33
8492,33
8493,33
8494,33
8495,33
8496,33
8497,33
8498,33
8499,33
8500,33
8501,33
8502,33
8503,33
8504,34
8505,34
8506,34
8507,34
8508,34
8509,34
8510,34
8511,34
8512,34
8513,34
8514,34
8515,34
8516,34
8517,34
8518,34
8519,34
8520,34
8521,34
8522,34
8523,34
8524,34
8525,33
8526,33
8527,33
8528,33
8529,33
8530,33
8531,33
8532,33
8533,33
8534,33
8535,33
8536,33
8537,33
8538,33
8539,33
8540,33
8541,33
8542,33
8543,33
8544,33
8545,33
8546,33
8547,33
8548,33
8549,33
8550,33
8551,33
8552,33
8553,33
8554,33
8555,33
8556,33
8557,33
8558,33
8559,33
8560,33
8561,33
8562,33
8563,33
8564,33
8565,33
8566,33
8567,33
8568,33
8569,33
8570,33
8571,33
8572,34
8573,33
8574,33
8575,34
8576,34
8577,34
8578,36
8579,36
8580,35
8581,35
8582,34
8583,34
8584,34
8585,34
8586,33
8587,34
8588,33
8589,33
8590,33
8591,33
8592,33
8593,33
8594,33
8595,34
8596,34
8597,33
8598,33
8599,33
8600,33
8601,33
8602,33
8603,33
8604,33
8605,33
8606,33
8607,33
8608,33
8609,33
8610,33
8611,33
8612,33
8613,33
8614,33
8615,33
8616,33
8617,33
8618,33
8619,33
8620,33
8621,33
8622,33
8623,33
8624,33
8625,33
8626,33
8627,33
8628,33
8629,33
8630,33
8631,33
8632,33
8633,33
8634,33
8635,33
8636,34
8637,34
8638,34
8639,34
8640,34
8641,34
8642,34
8643,34
8644,34
8645,34
8646,34
8647,34
8648,34
8649,34
8650,35
8651,35
8652,35
8653,35
8654,35
8655,35
8656,35
8657,35
8658,35
8659,35
8660,36
8661,35
8662,35
8663,35
8664,35
8665,36
8666,36
8667,36
8668,36
8669,36
8670,36
8671,36
8672,36
8673,36
8674,36
8675,36
8676,36
8677,35
8678,35
8679,35
8680,35
8681,35
8682,35
8683,35
8684,35
8685,35
8686,36
8687,35
8688,35
8689,35
8690,35
8691,35
8692,35
8693,35
8694,35
8695,35
8696,35
8697,35
8698,35
8699,36
8700,37
8701,36
8702,36
8703,36
8704,35
8705,35
8706,35
8707,35
8708,35
8709,35
8710,35
8711,35
8712,35
8713,35
8714,35
8715,35
8716,35
8717,35
8718,35
8719,35
8720,35
8721,34
8722,34
8723,34
8724,34
8725,34
8726,34
8727,34
8728,34
8729,33
8730,33
8731,33
8732,33
8733,33
8734,33
8735,33
8736,33
8737,33
8738,33
8739,33
8740,33
8741,33
8742,33
8743,33
8744,33
8745,33
8746,33
8747,33
8748,33
8749,33
8750,33
8751,33
8752,33
8753,33
8754,33
8755,33
8756,33
8757,33
8758,33
8759,33
8760,33
8761,33
8762,33
8763,33
8764,33
8765,33
8766,33
8767,33
8768,33
8769,33
8770,33
8771,33
8772,33
8773,33
8774,33
8775,33
8776,33
8777,33
8778,33
8779,33
8780,33
8781,34
8782,34
8783,34
8784,34
8785,33
8786,33
8787,33
8788,33
8789,33
8790,33
8791,33
8792,33
8793,33
8794,33
8795,33
8796,33
8797,33
8798,33
8799,33
8800,33
8801,33
8802,33
8803,34
8804,34
8805,33
8806,33
8807,34
8808,34
8809,33
8810,33
8811,33
8812,33
8813,33
8814,33
8815,33
8816,33
8817,33
8818,33
8819,33
8820,34
8821,34
8822,34
8823,34
8824,34
8825,34
8826,34
8827,34
8828,34
8829,34
8830,34
8831,34
8832,34
8833,34
8834,34
8835,34
8836,34
8837,34
8838,34
8839,34
8840,34
8841,34
8842,34
8843,34
8844,34
8845,35
8846,34
8847,34
8848,34
8849,34
8850,34
8851,34
8852,34
8853,34
8854,34
8855,34
8856,34
8857,34
8858,34
8859,34
8860,34
8861,34
8862,34
8863,35
8864,34
8865,34
8866,34
8867,34
8868,34
8869,34
8870,34
8871,34
8872,34
8873,34
8874,34
8875,34
8876,35
8877,35
8878,35
8879,34
8880,34
8881,34
8882,34
8883,34
8884,34
8885,34
8886,34
8887,34
8888,34
8889,34
8890,34
8891,34
8892,34
8893,34
8894,34
8895,34
8896,34
8897,34
8898,34
8899,34
8900,35
8901,35
8902,34
8903,34
8904,34
8905,34
8906,35
8907,35
8908,35
8909,34
8910,34
8911,34
8912,34
8913,34
8914,34
8915,34
8916,34
8917,34
8918,34
8919,34
8920,34
8921,34
8922,34
8923,34
8924,34
8925,34
8926,34
8927,34
8928,34
8929,34
8930,34
8931,34
8932,34
8933,34
8934,34
8935,34
8936,34
8937,35
8938,34
8939,35
8940,34
8941,34
8942,34
8943,34
8944,34
8945,34
8946,34
8947,34
8948,34
8949,34
8950,34
8951,34
8952,34
8953,34
8954,34
8955,34
8956,34
8957,34
8958,34
8959,34
8960,34
8961,35
8962,34
8963,34
8964,34
8965,34
8966,34
8967,35
8968,34
8969,34
8970,34
8971,35
8972,35
8973,36
8974,37
8975,36
8976,36
8977,35
8978,35
8979,35
8980,36
8981,36
8982,35
8983,35
8984,35
8985,35
8986,34
8987,34
8988,34
8989,34
8990,34
8991,34
8992,34
8993,34
8994,34
8995,34
8996,34
8997,35
8998,35
8999,34
9000,34
9001,34
9002,34
9003,35
9004,35
9005,35
9006,35
9007,35
9008,34
9009,34
9010,34
9011,34
9012,34
9013,35
9014,35
9015,35
9016,35
9017,35
9018,35
9019,36
9020,35
9021,34
9022,34
9023,34
9024,34
9025,34
9026,34
9027,35
9028,35
9029,35
9030,35
9031,35
9032,34
9033,34
9034,34
9035,34
9036,34
9037,34
9038,34
9039,34
9040,35
9041,34
9042,34
9043,34
9044,34
9045,34
9046,35
9047,34
9048,34
9049,34
9050,34
9051,34
9052,34
9053,34
9054,34
9055,34
9056,35
9057,35
9058,34
9059,34
9060,34
9061,34
9062,34
9063,34
9064,34
9065,34
9066,35
9067,34
9068,34
9069,34
9070,34
9071,34
9072,35
9073,35
9074,35
9075,35
9076,35
9077,35
9078,35
9079,35
9080,35
9081,35
9082,36
9083,36
9084,36
9085,35
9086,35
9087,35
9088,35
9089,35
9090,35
9091,35
9092,35
9093,35
9094,35
9095,35
9096,35
9097,35
9098,35
9099,35
9100,35
9101,35
9102,35
9103,35
9104,36
9105,36
9106,36
9107,36
9108,36
9109,37
9110,37
9111,37
9112,37
9113,36
9114,36
9115,35
9116,35
9117,35
9118,35
9119,35
9120,35
9121,35
9122,35
9123,35
9124,35
9125,35
9126,35
9127,35
9128,35
9129,36
9130,36
9131,35
9132,36
9133,36
9134,36
9135,35
9136,35
9137,35
9138,35
9139,35
9140,35
9141,35
9142,35
9143,35
9144,35
9145,35
9146,35
9147,35
9148,35
9149,35
9150,35
9151,35
9152,35
9153,35
9154,35
9155,36
9156,35
9157,35
9158,35
9159,35
9160,35
9161,35
9162,36
9163,35
9164,35
9165,36
9166,36
9167,36
9168,36
9169,36
9170,36
9171,36
9172,35
9173,35
9174,35
9175,35
9176,35
9177,35
9178,35
9179,35
9180,35
9181,35
9182,35
9183,35
9184,35
9185,35
9186,35
9187,35
9188,35
9189,35
9190,35
9191,35
9192,35
9193,35
9194,35
9195,35
9196,35
9197,35
9198,35
9199,35
9200,36
9201,35
9202,35
9203,35
9204,35
9205,35
9206,35
9207,36
9208,36
9209,36
9210,36
9211,35
9212,35
9213,35
9214,35
9215,35
9216,36
9217,35
9218,35
9219,35
9220,35
9221,36
9222,36
9223,36
9224,36
9225,36
9226,36
9227,36
9228,36
9229,37
9230,36
9231,36
9232,36
9233,36
9234,36
9235,36
9236,36
9237,36
9238,36
9239,36
9240,36
9241,36
9242,36
9243,36
9244,36
9245,36
9246,37
9247,37
9248,37
9249,37
9250,37
9251,37
9252,37
9253,37
9254,36
9255,36
9256,36
9257,36
9258,36
9259,35
9260,35
9261,35
9262,35
9263,35
9264,35
9265,35
9266,35
9267,35
9268,36
9269,36
9270,36
9271,36
9272,36
9273,36
9274,36
9275,36
9276,36
9277,36
9278,37
9279,37
9280,37
9281,37
9282,36
9283,36
9284,37
9285,36
9286,36
9287,37
9288,36
9289,36
9290,36
9291,36
9292,36
9293,36
9294,36
9295,36
9296,36
9297,36
9298,36
9299,36
9300,36
9301,36
9302,36
9303,36
9304,35
9305,36
9306,35
9307,36
9308,37
9309,37
9310,37
9311,37
9312,37
9313,36
9314,36
9315,37
9316,37
9317,38
9318,37
9319,37
9320,38
9321,38
9322,38
9323,38
9324,38
9325,39
9326,39
9327,39
9328,39
9329,39
9330,39
9331,39
9332,39
9333,39
9334,38
9335,38
9336,38
9337,38
9338,38
9339,38
9340,38
9341,38
9342,38
9343,38
9344,38
9345,38
9346,38
9347,38
9348,38
9349,38
9350,38
9351,38
9352,38
9353,38
9354,38
9355,38
9356,38
9357,38
9358,38
9359,38
9360,37
9361,37
9362,37
9363,37
9364,37
9365,37
9366,37
9367,37
9368,37
9369,37
9370,37
9371,37
9372,38
9373,39
9374,37
9375,37
9376,37
9377,37
9378,37
9379,37
9380,37
9381,37
9382,37
9383,37
9384,37
9385,37
9386,37
9387,37
9388,37
9389,37
9390,37
9391,37
9392,37
9393,37
9394,37
9395,37
9396,37
9397,37
9398,37
9399,37
9400,37
9401,37
9402,38
9403,38
9404,37
9405,37
9406,37
9407,37
9408,37
9409,37
9410,37
9411,37
9412,37
9413,37
9414,37
9415,37
9416,37
9417,37
9418,37
9419,37
9420,38
9421,38
9422,38
9423,37
9424,37
9425,37
9426,37
9427,37
9428,37
9429,37
9430,37
9431,37
9432,37
9433,38
9434,37
9435,37
9436,37
9437,37
9438,37
9439,37
9440,37
9441,37
9442,37
9443,37
9444,37
9445,37
9446,37
9447,37
9448,37
9449,37
9450,37
9451,37
9452,37
9453,37
9454,37
9455,37
9456,37
9457,38
9458,37
9459,37
9460,37
9461,37
9462,37
9463,37
9464,37
9465,37
9466,37
9467,37
9468,37
9469,37
9470,37
9471,37
9472,37
9473,37
9474,37
9475,37
9476,37
9477,37
9478,37
9479,37
9480,37
9481,37
9482,37
9483,37
9484,37
9485,37
9486,37
9487,38
9488,37
9489,37
9490,37
9491,37
9492,37
9493,37
9494,37
9495,37
9496,37
9497,37
9498,37
9499,37
9500,37
9501,37
9502,37
9503,37
9504,37
9505,37
9506,37
9507,37
9508,37
9509,37
9510,37
9511,37
9512,37
9513,37
9514,37
9515,37
9516,37
9517,37
9518,37
9519,37
9520,36
9521,36
9522,36
9523,36
9524,36
9525,36
9526,36
9527,36
9528,36
9529,36
9530,36
9531,36
9532,36
9533,36
9534,36
9535,36
9536,36
9537,36
9538,36
9539,36
9540,36
9541,36
9542,36
9543,36
9544,36
9545,36
9546,36
9547,36
9548,36
9549,36
9550,36
9551,36
9552,35
9553,35
9554,35
9555,35
9556,35
9557,35
9558,35
9559,36
9560,36
9561,36
9562,36
9563,36
9564,36
9565,36
9566,36
9567,36
9568,37
9569,37
9570,36
9571,36
9572,36
9573,36
9574,36
9575,36
9576,36
9577,36
9578,36
9579,36
9580,36
9581,36
9582,36
9583,36
9584,36
9585,36
9586,36
9587,36
9588,37
9589,37
9590,37
9591,36
9592,36
9593,35
9594,35
9595,35
9596,35
9597,35
9598,35
9599,35
9600,35
9601,35
9602,35
9603,35
9604,35
9605,35
9606,36
9607,35
9608,35
9609,35
9610,35
9611,35
9612,35
9613,35
9614,35
9615,35
9616,35
9617,35
9618,35
9619,35
9620,35
9621,35
9622,35
9623,35
9624,35
9625,35
9626,35
9627,35
9628,35
9629,35
9630,35
9631,35
9632,35
9633,35
9634,35
9635,35
9636,35
9637,35
9638,35
9639,35
9640,35
9641,35
9642,35
9643,35
9644,35
9645,35
9646,34
9647,34
9648,34
9649,34
9650,34
9651,34
9652,34
9653,34
9654,34
9655,34
9656,34
9657,34
9658,34
9659,34
9660,34
9661,34
9662,34
9663,34
9664,34
9665,34
9666,34
9667,34
9668,34
9669,34
9670,34
9671,34
9672,34
9673,34
9674,34
9675,34
9676,34
9677,34
9678,34
9679,34
9680,34
9681,34
9682,34
9683,34
9684,34
9685,34
9686,34
9687,34
9688,34
9689,34
9690,34
9691,34
9692,34
9693,34
9694,34
9695,34
9696,34
9697,34
9698,34
9699,34
9700,34
9701,35
9702,35
9703,35
9704,35
9705,36
9706,36
9707,36
9708,36
9709,36
9710,36
9711,35
9712,35
9713,35
9714,35
9715,35
9716,35
9717,34
9718,34
9719,34
9720,34
9721,34
9722,34
9723,34
9724,34
9725,34
9726,34
9727,34
9728,34
9729,34
9730,34
9731,34
9732,34
9733,34
9734,34
9735,34
9736,34
9737,34
9738,35
9739,34
9740,34
9741,34
9742,34
9743,34
9744,34
9745,34
9746,34
9747,34
9748,34
9749,34
9750,34
9751,34
9752,34
9753,34
9754,34
9755,34
9756,34
9757,34
9758,34
9759,34
9760,34
9761,34
9762,34
9763,34
9764,34
9765,34
9766,34
9767,34
9768,34
9769,34
9770,34
9771,34
9772,34
9773,34
9774,35
9775,35
9776,35
9777,35
9778,35
9779,35
9780,34
9781,34
9782,34
9783,34
9784,34
9785,34
9786,34
9787,35
9788,35
9789,35
9790,34
9791,34
9792,34
9793,34
9794,34
9795,34
9796,35
9797,34
9798,34
9799,34
9800,34
9801,34
9802,34
9803,34
9804,34
9805,34
9806,35
9807,34
9808,34
9809,34
9810,34
9811,34
9812,34
9813,35
9814,34
9815,34
9816,34
9817,34
9818,34
9819,34
9820,34
9821,35
9822,35
9823,35
9824,35
9825,35
9826,36
9827,35
9828,34
9829,34
9830,34
9831,34
9832,34
9833,34
9834,34
9835,34
9836,34
9837,34
9838,34
9839,34
9840,34
9841,34
9842,34
9843,34
9844,34
9845,34
9846,34
9847,34
9848,34
9849,34
9850,34
9851,34
9852,34
9853,34
9854,34
9855,34
9856,34
9857,34
9858,35
9859,35
9860,34
9861,34
9862,34
9863,34
9864,34
9865,34
9866,34
9867,34
9868,34
9869,34
9870,34
9871,34
9872,34
9873,34
9874,34
9875,34
9876,34
9877,34
9878,35
9879,34
9880,34
9881,34
9882,34
9883,34
9884,34
9885,34
9886,34
9887,34
9888,34
9889,34
9890,34
9891,34
9892,34
9893,34
9894,34
9895,34
9896,34
9897,34
9898,34
9899,34
9900,34
9901,34
9902,35
9903,34
9904,34
9905,34
9906,34
9907,34
9908,35
9909,35
9910,35
9911,36
9912,36
9913,36
9914,36
9915,36
9916,36
9917,36
9918,36
9919,35
9920,35
9921,35
9922,35
9923,35
9924,36
9925,36
9926,36
9927,36
9928,36
9929,36
9930,36
9931,36
9932,36
9933,36
9934,36
9935,36
9936,36
9937,36
9938,36
9939,36
9940,37
9941,37
9942,38
9943,38
9944,38
9945,37
9946,37
9947,37
9948,37
9949,37
9950,36
9951,36
9952,36
9953,36
9954,36
9955,36
9956,36
9957,36
9958,36
9959,36
9960,35
9961,35
9962,35
9963,35
9964,35
9965,35
9966,35
9967,35
9968,35
9969,35
9970,35
9971,35
9972,35
9973,35
9974,36
9975,36
9976,35
9977,35
9978,35
9979,35
9980,34
9981,34
9982,34
9983,34
9984,34
9985,34
9986,34
9987,34
9988,34
9989,34
9990,35
9991,35
9992,35
9993,36
9994,35
9995,35
9996,35
9997,36
9998,37
9999,36
10000,36
