1,3
2,3
3,3
4,3
5,3
6,3
7,3
8,3
9,4
10,4
11,4
12,5
13,4
14,4
15,4
16,4
17,4
18,4
19,4
20,4
21,4
22,5
23,5
24,5
25,5
26,5
27,5
28,5
29,5
30,5
31,5
32,5
33,5
34,5
35,5
36,5
37,5
38,5
39,5
40,5
41,5
42,5
43,5
44,5
45,5
46,5
47,5
48,5
49,5
50,5
51,5
52,5
53,5
54,5
55,7
56,5
57,5
58,5
59,5
60,5
61,5
62,5
63,5
64,5
65,5
66,5
67,5
68,5
69,5
70,5
71,5
72,6
73,5
74,5
75,5
76,5
77,6
78,6
79,5
80,5
81,5
82,5
83,5
84,5
85,5
86,5
87,5
88,5
89,5
90,5
91,6
92,6
93,6
94,5
95,5
96,5
97,5
98,5
99,5
100,5
101,5
102,5
103,5
104,5
105,5
106,5
107,5
108,5
109,5
110,5
111,5
112,5
113,5
114,5
115,5
116,5
117,5
118,6
119,6
120,7
121,9
122,8
123,8
124,8
125,8
126,9
127,9
128,8
129,8
130,8
131,8
132,8
133,8
134,8
135,8
136,8
137,8
138,8
139,8
140,8
141,8
142,8
143,8
144,8
145,8
146,8
147,8
148,8
149,8
150,8
151,8
152,8
153,8
154,8
155,8
156,8
157,8
158,8
159,9
160,9
161,9
162,9
163,9
164,9
165,9
166,9
167,9
168,9
169,9
170,9
171,9
172,10
173,10
174,11
175,11
176,11
177,11
178,12
179,12
180,12
181,11
182,11
183,11
184,11
185,10
186,10
187,11
188,12
189,12
190,13
191,13
192,13
193,13
194,13
195,13
196,13
197,13
198,13
199,13
200,13
201,13
202,13
203,13
204,13
205,13
206,13
207,13
208,13
209,13
210,13
211,13
212,14
213,14
214,13
215,13
216,13
217,13
218,13
219,13
220,13
221,13
222,13
223,13
224,13
225,13
226,13
227,14
228,13
229,13
230,13
231,13
232,13
233,13
234,13
235,13
236,14
237,13
238,13
239,14
240,13
241,13
242,13
243,13
244,13
245,13
246,13
247,13
248,13
249,13
250,13
251,13
252,13
253,13
254,13
255,13
256,13
257,13
258,13
259,13
260,13
261,14
262,14
263,14
264,13
265,13
266,13
267,13
268,13
269,13
270,13
271,13
272,13
273,13
274,14
275,14
276,13
277,13
278,13
279,13
280,13
281,13
282,13
283,13
284,13
285,13
286,13
287,13
288,13
289,13
290,13
291,13
292,13
293,13
294,13
295,13
296,13
297,13
298,13
299,13
300,13
301,13
302,13
303,14
304,14
305,14
306,14
307,14
308,14
309,14
310,14
311,14
312,14
313,14
314,14
315,15
316,15
317,14
318,14
319,14
320,14
321,14
322,14
323,14
324,14
325,14
326,14
327,14
328,14
329,14
330,14
331,14
332,14
333,14
334,14
335,14
336,15
337,14
338,14
339,14
340,14
341,14
342,14
343,14
344,14
345,14
346,14
347,14
348,14
349,14
350,14
351,14
352,14
353,14
354,14
355,14
356,14
357,14
358,14
359,14
360,14
361,14
362,14
363,14
364,14
365,14
366,14
367,14
368,14
369,14
370,14
371,14
372,14
373,14
374,15
375,14
376,14
377,14
378,14
379,14
380,14
381,14
382,14
383,14
384,14
385,14
386,14
387,15
388,14
389,14
390,14
391,14
392,14
393,14
394,14
395,14
396,14
397,14
398,14
399,14
400,14
401,14
402,14
403,14
404,14
405,14
406,14
407,14
408,14
409,14
410,14
411,14
412,14
413,14
414,14
415,14
416,14
417,14
418,14
419,14
420,14
421,14
422,14
423,14
424,14
425,14
426,14
427,14
428,14
429,14
430,14
431,14
432,14
433,14
434,14
435,14
436,14
437,14
438,14
439,14
440,14
441,14
442,14
443,14
444,14
445,16
446,14
447,14
448,14
449,14
450,14
451,14
452,14
453,14
454,14
455,14
456,14
457,14
458,14
459,14
460,14
461,15
462,14
463,14
464,14
465,14
466,14
467,14
468,14
469,14
470,14
471,14
472,14
473,14
474,14
475,14
476,14
477,14
478,14
479,14
480,15
481,15
482,14
483,14
484,14
485,14
486,14
487,14
488,14
489,14
490,14
491,14
492,14
493,14
494,14
495,15
496,15
497,15
498,15
499,15
500,14
501,14
502,15
503,14
504,14
505,14
506,14
507,14
508,14
509,14
510,14
511,14
512,14
513,15
514,14
515,14
516,14
517,14
518,14
519,14
520,14
521,14
522,14
523,14
524,14
525,14
526,14
527,14
528,14
529,14
530,14
531,14
532,14
533,14
534,14
535,14
536,14
537,14
538,14
539,14
540,14
541,14
542,14
543,14
544,14
545,14
546,14
547,14
548,14
549,14
550,14
551,14
552,14
553,14
554,14
555,14
556,14
557,14
558,14
559,14
560,15
561,15
562,15
563,15
564,15
565,15
566,15
567,15
568,14
569,14
570,15
571,15
572,15
573,14
574,14
575,14
576,15
577,14
578,14
579,14
580,14
581,14
582,14
583,14
584,14
585,14
586,14
587,14
588,14
589,14
590,14
591,14
592,14
593,14
594,14
595,14
596,14
597,14
598,15
599,15
600,15
601,14
602,14
603,14
604,14
605,14
606,15
607,14
608,14
609,14
610,14
611,14
612,14
613,14
614,14
615,14
616,14
617,15
618,14
619,14
620,14
621,14
622,14
623,14
624,14
625,14
626,14
627,14
628,14
629,14
630,14
631,14
632,14
633,14
634,14
635,14
636,14
637,14
638,14
639,14
640,14
641,14
642,14
643,14
644,14
645,14
646,14
647,14
648,14
649,14
650,15
651,15
652,15
653,15
654,15
655,14
656,14
657,14
658,14
659,14
660,14
661,14
662,14
663,14
664,14
665,14
666,14
667,14
668,14
669,14
670,14
671,14
672,14
673,14
674,14
675,14
676,14
677,14
678,14
679,14
680,14
681,14
682,15
683,15
684,15
685,15
686,15
687,15
688,15
689,15
690,16
691,16
692,16
693,16
694,16
695,16
696,16
697,16
698,16
699,16
700,16
701,16
702,16
703,16
704,16
705,16
706,16
707,16
708,16
709,16
710,16
711,16
712,16
713,16
714,16
715,16
716,16
717,16
718,16
719,17
720,17
721,17
722,17
723,17
724,17
725,17
726,17
727,17
728,17
729,17
730,17
731,17
732,18
733,18
734,18
735,18
736,18
737,18
738,18
739,18
740,18
741,18
742,18
743,18
744,18
745,18
746,18
747,18
748,18
749,19
750,19
751,19
752,19
753,19
754,19
755,19
756,19
757,19
758,20
759,18
760,18
761,19
762,18
763,18
764,18
765,18
766,18
767,18
768,18
769,18
770,18
771,19
772,19
773,18
774,18
775,18
776,18
777,18
778,19
779,19
780,19
781,19
782,19
783,19
784,19
785,19
786,19
787,20
788,20
789,20
790,20
791,20
792,20
793,20
794,20
795,20
796,19
797,19
798,19
799,19
800,19
801,19
802,19
803,19
804,19
805,19
806,19
807,19
808,19
809,20
810,19
811,20
812,20
813,19
814,19
815,19
816,19
817,19
818,19
819,19
820,19
821,19
822,19
823,19
824,19
825,19
826,19
827,19
828,19
829,19
830,19
831,19
832,19
833,19
834,19
835,19
836,19
837,19
838,19
839,19
840,19
841,19
842,19
843,19
844,19
845,19
846,19
847,19
848,19
849,19
850,19
851,19
852,19
853,19
854,20
855,20
856,20
857,20
858,20
859,20
860,20
861,20
862,20
863,19
864,19
865,19
866,19
867,19
868,19
869,19
870,19
871,19
872,19
873,19
874,19
875,19
876,19
877,19
878,20
879,19
880,19
881,19
882,20
883,20
884,20
885,20
886,20
887,20
888,20
889,20
890,20
891,20
892,20
893,20
894,20
895,20
896,20
897,20
898,19
899,19
900,19
901,19
902,19
903,19
904,19
905,19
906,19
907,19
908,19
909,19
910,19
911,19
912,20
913,20
914,21
915,21
916,21
917,20
918,20
919,20
920,20
921,19
922,19
923,20
924,20
925,20
926,20
927,20
928,20
929,20
930,20
931,20
932,20
933,20
934,20
935,20
936,20
937,20
938,20
939,20
940,20
941,21
942,20
943,20
944,20
945,20
946,20
947,20
948,20
949,20
950,20
951,21
952,21
953,20
954,20
955,20
956,20
957,20
958,20
959,20
960,20
961,20
962,20
963,20
964,20
965,20
966,20
967,20
968,20
969,20
970,21
971,20
972,20
973,20
974,20
975,20
976,20
977,20
978,20
979,20
980,20
981,20
982,20
983,20
984,20
985,20
986,20
987,20
988,20
989,20
990,21
991,21
992,20
993,20
994,20
995,20
996,20
997,20
998,21
999,21
1000,21
1001,20
1002,20
1003,21
1004,20
1005,20
1006,21
1007,22
1008,22
1009,22
1010,22
1011,22
1012,22
1013,23
1014,22
1015,22
1016,22
1017,22
1018,22
1019,22
1020,22
1021,22
1022,21
1023,21
1024,20
1025,20
1026,20
1027,20
1028,20
1029,20
1030,20
1031,20
1032,20
1033,20
1034,20
1035,20
1036,20
1037,20
1038,20
1039,20
1040,20
1041,20
1042,20
1043,20
1044,20
1045,20
1046,20
1047,20
1048,20
1049,20
1050,20
1051,20
1052,20
1053,20
1054,20
1055,20
1056,20
1057,20
1058,20
1059,20
1060,20
1061,20
1062,20
1063,20
1064,20
1065,20
1066,20
1067,20
1068,20
1069,20
1070,20
1071,20
1072,20
1073,20
1074,20
1075,20
1076,20
1077,20
1078,20
1079,20
1080,20
1081,20
1082,20
1083,20
1084,20
1085,20
1086,20
1087,21
1088,22
1089,22
1090,20
1091,20
1092,20
1093,20
1094,20
1095,20
1096,20
1097,20
1098,20
1099,20
1100,20
1101,20
1102,20
1103,20
1104,20
1105,20
1106,20
1107,20
1108,20
1109,20
1110,20
1111,20
1112,21
1113,21
1114,21
1115,21
1116,21
1117,20
1118,20
1119,20
1120,20
1121,20
1122,20
1123,20
1124,21
1125,22
1126,22
1127,21
1128,21
1129,20
1130,20
1131,20
1132,20
1133,20
1134,20
1135,21
1136,21
1137,21
1138,21
1139,20
1140,20
1141,20
1142,20
1143,20
1144,20
1145,20
1146,20
1147,20
1148,20
1149,20
1150,20
1151,20
1152,20
1153,20
1154,20
1155,20
1156,20
1157,20
1158,20
1159,20
1160,21
1161,20
1162,20
1163,21
1164,21
1165,20
1166,20
1167,20
1168,21
1169,21
1170,21
1171,21
1172,21
1173,21
1174,21
1175,21
1176,21
1177,21
1178,21
1179,21
1180,21
1181,22
1182,21
1183,21
1184,21
1185,21
1186,21
1187,21
1188,21
1189,22
1190,21
1191,21
1192,21
1193,21
1194,21
1195,21
1196,21
1197,21
1198,22
1199,22
1200,22
1201,22
1202,21
1203,21
1204,21
1205,21
1206,21
1207,21
1208,21
1209,21
1210,22
1211,22
1212,22
1213,21
1214,21
1215,21
1216,21
1217,21
1218,22
1219,22
1220,21
1221,21
1222,21
1223,21
1224,21
1225,21
1226,21
1227,21
1228,21
1229,21
1230,21
1231,21
1232,21
1233,21
1234,21
1235,21
1236,21
1237,22
1238,22
1239,21
1240,21
1241,22
1242,22
1243,22
1244,22
1245,22
1246,22
1247,22
1248,22
1249,23
1250,23
1251,23
1252,23
1253,23
1254,24
1255,22
1256,22
1257,22
1258,22
1259,23
1260,22
1261,23
1262,23
1263,23
1264,23
1265,23
1266,23
1267,22
1268,22
1269,22
1270,22
1271,22
1272,22
1273,22
1274,22
1275,22
1276,22
1277,22
1278,22
1279,22
1280,22
1281,22
1282,22
1283,22
1284,22
1285,22
1286,22
1287,22
1288,22
1289,22
1290,22
1291,23
1292,24
1293,24
1294,24
1295,24
1296,24
1297,24
1298,24
1299,24
1300,23
1301,23
1302,22
1303,22
1304,22
1305,22
1306,23
1307,22
1308,22
1309,22
1310,23
1311,22
1312,22
1313,22
1314,22
1315,22
1316,23
1317,23
1318,22
1319,22
1320,22
1321,22
1322,22
1323,22
1324,22
1325,22
1326,22
1327,22
1328,22
1329,22
1330,22
1331,22
1332,22
1333,22
1334,22
1335,22
1336,22
1337,22
1338,23
1339,22
1340,22
1341,22
1342,22
1343,22
1344,22
1345,23
1346,23
1347,24
1348,23
1349,23
1350,23
1351,23
1352,22
1353,22
1354,23
1355,23
1356,22
1357,22
1358,22
1359,22
1360,22
1361,22
1362,22
1363,22
1364,23
1365,23
1366,22
1367,22
1368,22
1369,22
1370,22
1371,22
1372,22
1373,22
1374,22
1375,22
1376,22
1377,22
1378,22
1379,22
1380,22
1381,22
1382,22
1383,22
1384,22
1385,22
1386,22
1387,22
1388,22
1389,22
1390,22
1391,22
1392,22
1393,22
1394,22
1395,22
1396,22
1397,22
1398,22
1399,22
1400,22
1401,23
1402,22
1403,22
1404,22
1405,22
1406,22
1407,22
1408,22
1409,22
1410,22
1411,22
1412,22
1413,22
1414,22
1415,22
1416,22
1417,22
1418,22
1419,22
1420,22
1421,22
1422,22
1423,22
1424,22
1425,22
1426,22
1427,22
1428,22
1429,22
1430,22
1431,22
1432,22
1433,22
1434,22
1435,22
1436,23
1437,23
1438,23
1439,22
1440,22
1441,22
1442,23
1443,22
1444,22
1445,22
1446,23
1447,23
1448,22
1449,22
1450,22
1451,22
1452,22
1453,22
1454,23
1455,23
1456,23
1457,23
1458,23
1459,24
1460,23
1461,23
1462,23
1463,23
1464,23
1465,23
1466,23
1467,23
1468,23
1469,22
1470,22
1471,22
1472,22
1473,23
1474,23
1475,23
1476,22
1477,22
1478,22
1479,22
1480,22
1481,22
1482,22
1483,22
1484,22
1485,22
1486,22
1487,22
1488,22
1489,22
1490,22
1491,24
1492,23
1493,23
1494,23
1495,24
1496,22
1497,22
1498,22
1499,22
1500,22
1501,22
1502,22
1503,22
1504,22
1505,22
1506,23
1507,23
1508,22
1509,22
1510,22
1511,22
1512,22
1513,22
1514,22
1515,22
1516,23
1517,23
1518,23
1519,23
1520,23
1521,22
1522,22
1523,22
1524,22
1525,22
1526,22
1527,22
1528,22
1529,22
1530,22
1531,22
1532,22
1533,22
1534,22
1535,22
1536,22
1537,22
1538,22
1539,22
1540,22
1541,22
1542,22
1543,22
1544,22
1545,22
1546,22
1547,22
1548,23
1549,22
1550,22
1551,22
1552,22
1553,23
1554,23
1555,23
1556,23
1557,23
1558,23
1559,23
1560,22
1561,22
1562,22
1563,22
1564,22
1565,22
1566,22
1567,22
1568,22
1569,22
1570,22
1571,22
1572,22
1573,22
1574,22
1575,22
1576,22
1577,22
1578,22
1579,22
1580,22
1581,22
1582,22
1583,22
1584,22
1585,22
1586,22
1587,22
1588,22
1589,22
1590,22
1591,22
1592,22
1593,22
1594,22
1595,22
1596,22
1597,22
1598,22
1599,22
1600,22
1601,22
1602,22
1603,22
1604,22
1605,22
1606,22
1607,22
1608,22
1609,23
1610,23
1611,23
1612,24
1613,24
1614,24
1615,24
1616,24
1617,24
1618,24
1619,23
1620,22
1621,22
1622,23
1623,22
1624,22
1625,22
1626,22
1627,22
1628,22
1629,23
1630,22
1631,22
1632,22
1633,22
1634,22
1635,22
1636,22
1637,22
1638,22
1639,22
1640,22
1641,22
1642,22
1643,22
1644,22
1645,22
1646,22
1647,22
1648,22
1649,22
1650,22
1651,22
1652,22
1653,22
1654,22
1655,22
1656,22
1657,22
1658,22
1659,22
1660,22
1661,22
1662,22
1663,22
1664,22
1665,22
1666,23
1667,22
1668,22
1669,23
1670,23
1671,23
1672,24
1673,24
1674,24
1675,23
1676,23
1677,24
1678,24
1679,24
1680,24
1681,24
1682,24
1683,24
1684,24
1685,24
1686,24
1687,24
1688,24
1689,25
1690,24
1691,24
1692,24
1693,24
1694,24
1695,24
1696,24
1697,23
1698,23
1699,23
1700,23
1701,23
1702,23
1703,23
1704,23
1705,23
1706,23
1707,23
1708,23
1709,23
1710,23
1711,23
1712,23
1713,23
1714,23
1715,23
1716,23
1717,23
1718,23
1719,23
1720,23
1721,23
1722,23
1723,24
1724,24
1725,24
1726,24
1727,25
1728,24
1729,24
1730,24
1731,24
1732,24
1733,24
1734,24
1735,24
1736,25
1737,25
1738,24
1739,24
1740,24
1741,24
1742,24
1743,24
1744,24
1745,24
1746,24
1747,24
1748,24
1749,24
1750,24
1751,23
1752,23
1753,23
1754,23
1755,23
1756,23
1757,23
1758,23
1759,23
1760,23
1761,23
1762,23
1763,23
1764,23
1765,23
1766,23
1767,23
1768,23
1769,23
1770,23
1771,23
1772,24
1773,23
1774,23
1775,23
1776,23
1777,23
1778,23
1779,24
1780,23
1781,23
1782,23
1783,23
1784,23
1785,23
1786,23
1787,23
1788,23
1789,23
1790,23
1791,23
1792,23
1793,23
1794,23
1795,23
1796,23
1797,23
1798,23
1799,23
1800,23
1801,23
1802,23
1803,23
1804,23
1805,23
1806,23
1807,24
1808,23
1809,23
1810,23
1811,23
1812,23
1813,23
1814,23
1815,23
1816,23
1817,23
1818,23
1819,23
1820,23
1821,23
1822,23
1823,23
1824,23
1825,23
1826,23
1827,23
1828,24
1829,23
1830,23
1831,23
1832,23
1833,23
1834,23
1835,23
1836,23
1837,23
1838,23
1839,23
1840,23
1841,23
1842,23
1843,23
1844,24
1845,23
1846,23
1847,23
1848,23
1849,23
1850,24
1851,24
1852,23
1853,23
1854,23
1855,23
1856,23
1857,23
1858,23
1859,23
1860,23
1861,23
1862,23
1863,23
1864,23
1865,23
1866,23
1867,23
1868,23
1869,23
1870,23
1871,23
1872,23
1873,23
1874,23
1875,24
1876,23
1877,23
1878,23
1879,23
1880,23
1881,23
1882,23
1883,23
1884,23
1885,23
1886,24
1887,24
1888,24
1889,24
1890,24
1891,25
1892,24
1893,24
1894,24
1895,24
1896,24
1897,24
1898,23
1899,23
1900,23
1901,23
1902,23
1903,23
1904,23
1905,23
1906,23
1907,23
1908,23
1909,23
1910,23
1911,23
1912,23
1913,23
1914,23
1915,23
1916,23
1917,24
1918,24
1919,24
1920,23
1921,23
1922,23
1923,23
1924,23
1925,23
1926,23
1927,23
1928,23
1929,23
1930,23
1931,23
1932,23
1933,23
1934,23
1935,24
1936,24
1937,23
1938,23
1939,23
1940,23
1941,23
1942,23
1943,23
1944,23
1945,24
1946,23
1947,23
1948,24
1949,23
1950,23
1951,23
1952,23
1953,23
1954,23
1955,23
1956,23
1957,23
1958,23
1959,23
1960,23
1961,23
1962,23
1963,23
1964,23
1965,23
1966,23
1967,23
1968,23
1969,23
1970,23
1971,23
1972,23
1973,24
1974,23
1975,23
1976,24
1977,24
1978,24
1979,24
1980,24
1981,25
1982,25
1983,25
1984,24
1985,24
1986,24
1987,24
1988,24
1989,24
1990,24
1991,24
1992,24
1993,24
1994,24
1995,24
1996,25
1997,25
1998,24
1999,24
2000,25
2001,25
2002,25
2003,25
2004,25
2005,25
2006,25
2007,25
2008,25
2009,25
2010,24
2011,24
2012,24
2013,24
2014,24
2015,24
2016,24
2017,24
2018,24
2019,24
2020,24
2021,24
2022,24
2023,24
2024,24
2025,24
2026,24
2027,25
2028,25
2029,25
2030,25
2031,25
2032,25
2033,25
2034,25
2035,26
2036,27
2037,26
2038,26
2039,26
2040,26
2041,26
2042,26
2043,26
2044,26
2045,26
2046,26
2047,26
2048,26
2049,26
2050,26
2051,26
2052,26
2053,26
2054,25
2055,25
2056,25
2057,25
2058,25
2059,25
2060,25
2061,25
2062,25
2063,26
2064,26
2065,25
2066,25
2067,25
2068,25
2069,25
2070,25
2071,25
2072,25
2073,25
2074,25
2075,25
2076,25
2077,25
2078,25
2079,25
2080,25
2081,25
2082,25
2083,25
2084,25
2085,25
2086,25
2087,26
2088,25
2089,25
2090,25
2091,25
2092,26
2093,26
2094,25
2095,25
2096,25
2097,25
2098,25
2099,26
2100,25
2101,26
2102,25
2103,26
2104,25
2105,25
2106,25
2107,25
2108,25
2109,25
2110,25
2111,25
2112,25
2113,25
2114,25
2115,25
2116,25
2117,25
2118,25
2119,25
2120,25
2121,25
2122,25
2123,25
2124,25
2125,25
2126,25
2127,25
2128,25
2129,25
2130,25
2131,25
2132,25
2133,25
2134,25
2135,25
2136,25
2137,25
2138,25
2139,25
2140,25
2141,25
2142,26
2143,26
2144,26
2145,26
2146,26
2147,26
2148,26
2149,26
2150,26
2151,26
2152,26
2153,26
2154,26
2155,26
2156,26
2157,26
2158,26
2159,26
2160,26
2161,26
2162,26
2163,26
2164,26
2165,26
2166,26
2167,26
2168,26
2169,26
2170,26
2171,27
2172,27
2173,27
2174,27
2175,26
2176,26
2177,26
2178,26
2179,26
2180,26
2181,26
2182,27
2183,26
2184,26
2185,26
2186,26
2187,26
2188,26
2189,26
2190,26
2191,26
2192,26
2193,26
2194,26
2195,26
2196,26
2197,26
2198,26
2199,26
2200,26
2201,26
2202,27
2203,26
2204,26
2205,26
2206,26
2207,27
2208,26
2209,26
2210,27
2211,26
2212,26
2213,26
2214,26
2215,26
2216,26
2217,26
2218,27
2219,27
2220,26
2221,26
2222,26
2223,26
2224,26
2225,27
2226,26
2227,26
2228,26
2229,26
2230,26
2231,26
2232,27
2233,26
2234,26
2235,27
2236,26
2237,26
2238,26
2239,26
2240,26
2241,26
2242,26
2243,26
2244,26
2245,26
2246,26
2247,26
2248,29
2249,27
2250,27
2251,26
2252,26
2253,26
2254,26
2255,26
2256,26
2257,26
2258,26
2259,27
2260,26
2261,26
2262,26
2263,26
2264,27
2265,27
2266,27
2267,27
2268,27
2269,27
2270,27
2271,26
2272,26
2273,26
2274,26
2275,26
2276,26
2277,26
2278,26
2279,26
2280,26
2281,26
2282,26
2283,26
2284,26
2285,26
2286,26
2287,26
2288,26
2289,26
2290,26
2291,26
2292,26
2293,26
2294,26
2295,27
2296,27
2297,27
2298,26
2299,26
2300,26
2301,26
2302,26
2303,26
2304,26
2305,26
2306,26
2307,27
2308,27
2309,27
2310,27
2311,27
2312,27
2313,27
2314,27
2315,27
2316,27
2317,28
2318,28
2319,27
2320,27
2321,27
2322,27
2323,27
2324,27
2325,27
2326,27
2327,27
2328,27
2329,27
2330,27
2331,27
2332,27
2333,27
2334,27
2335,27
2336,27
2337,27
2338,28
2339,27
2340,27
2341,27
2342,27
2343,27
2344,27
2345,27
2346,27
2347,27
2348,27
2349,28
2350,28
2351,29
2352,29
2353,29
2354,28
2355,28
2356,28
2357,29
2358,29
2359,29
2360,28
2361,28
2362,27
2363,27
2364,27
2365,27
2366,27
2367,27
2368,27
2369,27
2370,27
2371,27
2372,27
2373,27
2374,27
2375,27
2376,27
2377,27
2378,26
2379,26
2380,26
2381,26
2382,26
2383,26
2384,26
2385,26
2386,26
2387,26
2388,26
2389,26
2390,26
2391,26
2392,26
2393,26
2394,26
2395,26
2396,26
2397,26
2398,26
2399,26
2400,26
2401,26
2402,26
2403,26
2404,26
2405,26
2406,26
2407,26
2408,26
2409,26
2410,26
2411,26
2412,27
2413,26
2414,26
2415,26
2416,26
2417,26
2418,26
2419,26
2420,26
2421,26
2422,26
2423,26
2424,26
2425,27
2426,27
2427,26
2428,26
2429,26
2430,26
2431,26
2432,26
2433,26
2434,26
2435,26
2436,26
2437,26
2438,26
2439,26
2440,26
2441,26
2442,26
2443,26
2444,26
2445,26
2446,26
2447,26
2448,26
2449,26
2450,26
2451,26
2452,26
2453,26
2454,26
2455,26
2456,26
2457,26
2458,26
2459,26
2460,26
2461,26
2462,26
2463,26
2464,26
2465,26
2466,26
2467,26
2468,26
2469,26
2470,26
2471,26
2472,27
2473,26
2474,26
2475,26
2476,26
2477,26
2478,27
2479,26
2480,26
2481,26
2482,26
2483,26
2484,26
2485,26
2486,26
2487,26
2488,27
2489,29
2490,28
2491,28
2492,28
2493,28
2494,28
2495,27
2496,27
2497,27
2498,27
2499,27
2500,26
2501,26
2502,26
2503,26
2504,26
2505,26
2506,26
2507,26
2508,26
2509,26
2510,26
2511,26
2512,26
2513,26
2514,26
2515,26
2516,26
2517,26
2518,26
2519,26
2520,26
2521,26
2522,26
2523,26
2524,26
2525,26
2526,26
2527,26
2528,26
2529,26
2530,26
2531,27
2532,27
2533,27
2534,26
2535,26
2536,26
2537,26
2538,26
2539,26
2540,26
2541,26
2542,26
2543,26
2544,26
2545,26
2546,26
2547,26
2548,26
2549,26
2550,26
2551,26
2552,27
2553,26
2554,26
2555,26
2556,26
2557,26
2558,26
2559,26
2560,26
2561,26
2562,26
2563,26
2564,26
2565,26
2566,26
2567,27
2568,27
2569,27
2570,27
2571,26
2572,26
2573,26
2574,26
2575,26
2576,26
2577,26
2578,26
2579,26
2580,26
2581,26
2582,26
2583,26
2584,26
2585,26
2586,26
2587,26
2588,26
2589,26
2590,26
2591,26
2592,26
2593,26
2594,26
2595,26
2596,27
2597,27
2598,27
2599,27
2600,26
2601,26
2602,27
2603,26
2604,26
2605,26
2606,26
2607,26
2608,26
2609,26
2610,26
2611,26
2612,26
2613,26
2614,26
2615,26
2616,26
2617,26
2618,26
2619,27
2620,27
2621,27
2622,26
2623,26
2624,26
2625,26
2626,26
2627,26
2628,26
2629,26
2630,26
2631,26
2632,26
2633,26
2634,26
2635,26
2636,26
2637,26
2638,26
2639,26
2640,26
2641,26
2642,26
2643,26
2644,26
2645,26
2646,26
2647,26
2648,26
2649,26
2650,26
2651,26
2652,26
2653,26
2654,26
2655,26
2656,26
2657,26
2658,27
2659,27
2660,27
2661,27
2662,27
2663,26
2664,26
2665,26
2666,26
2667,27
2668,27
2669,27
2670,27
2671,26
2672,26
2673,26
2674,26
2675,26
2676,26
2677,26
2678,26
2679,26
2680,26
2681,26
2682,26
2683,26
2684,26
2685,26
2686,26
2687,26
2688,26
2689,26
2690,26
2691,26
2692,26
2693,26
2694,27
2695,27
2696,27
2697,26
2698,26
2699,26
2700,26
2701,26
2702,26
2703,27
2704,27
2705,27
2706,27
2707,27
2708,27
2709,27
2710,27
2711,27
2712,27
2713,27
2714,27
2715,27
2716,27
2717,27
2718,27
2719,27
2720,27
2721,28
2722,28
2723,28
2724,28
2725,28
2726,28
2727,28
2728,28
2729,28
2730,28
2731,28
2732,28
2733,28
2734,28
2735,28
2736,28
2737,28
2738,28
2739,28
2740,28
2741,28
2742,28
2743,28
2744,29
2745,28
2746,28
2747,28
2748,28
2749,28
2750,28
2751,28
2752,28
2753,28
2754,28
2755,28
2756,29
2757,28
2758,28
2759,28
2760,28
2761,28
2762,28
2763,29
2764,28
2765,28
2766,28
2767,28
2768,28
2769,28
2770,28
2771,28
2772,28
2773,28
2774,28
2775,28
2776,28
2777,28
2778,28
2779,28
2780,28
2781,28
2782,28
2783,28
2784,28
2785,28
2786,28
2787,28
2788,28
2789,28
2790,28
2791,28
2792,28
2793,28
2794,28
2795,28
2796,28
2797,28
2798,28
2799,28
2800,28
2801,28
2802,28
2803,29
2804,29
2805,29
2806,29
2807,29
2808,29
2809,30
2810,30
2811,30
2812,30
2813,30
2814,30
2815,30
2816,30
2817,30
2818,30
2819,30
2820,30
2821,30
2822,30
2823,30
2824,29
2825,29
2826,29
2827,29
2828,30
2829,29
2830,29
2831,30
2832,30
2833,30
2834,30
2835,30
2836,30
2837,29
2838,30
2839,30
2840,30
2841,30
2842,30
2843,30
2844,30
2845,30
2846,30
2847,30
2848,30
2849,30
2850,30
2851,30
2852,30
2853,30
2854,30
2855,30
2856,30
2857,30
2858,30
2859,30
2860,30
2861,30
2862,30
2863,30
2864,30
2865,30
2866,30
2867,30
2868,30
2869,30
2870,30
2871,30
2872,31
2873,31
2874,31
2875,31
2876,31
2877,31
2878,31
2879,31
2880,31
2881,31
2882,31
2883,31
2884,32
2885,32
2886,32
2887,32
2888,31
2889,31
2890,31
2891,31
2892,31
2893,31
2894,31
2895,31
2896,31
2897,31
2898,31
2899,31
2900,31
2901,31
2902,32
2903,32
2904,32
2905,31
2906,31
2907,31
2908,31
2909,31
2910,31
2911,31
2912,31
2913,31
2914,31
2915,33
2916,32
2917,32
2918,32
2919,32
2920,32
2921,32
2922,32
2923,32
2924,32
2925,32
2926,32
2927,32
2928,32
2929,32
2930,32
2931,32
2932,32
2933,32
2934,32
2935,32
2936,32
2937,32
2938,32
2939,32
2940,32
2941,32
2942,32
2943,32
2944,32
2945,32
2946,32
2947,32
2948,33
2949,33
2950,32
2951,32
2952,32
2953,32
2954,32
2955,32
2956,32
2957,32
2958,32
2959,32
2960,33
2961,33
2962,33
2963,32
2964,32
2965,32
2966,32
2967,32
2968,32
2969,32
2970,32
2971,32
2972,32
2973,32
2974,32
2975,32
2976,32
2977,32
2978,32
2979,32
2980,32
2981,32
2982,32
2983,32
2984,32
2985,32
2986,32
2987,32
2988,32
2989,32
2990,32
2991,32
2992,32
2993,32
2994,32
2995,32
2996,32
2997,32
2998,32
2999,32
3000,32
3001,32
3002,31
3003,31
3004,32
3005,33
3006,32
3007,32
3008,31
3009,31
3010,31
3011,31
3012,31
3013,31
3014,31
3015,31
3016,31
3017,31
3018,32
3019,31
3020,31
3021,31
3022,31
3023,31
3024,32
3025,33
3026,32
3027,30
3028,30
3029,30
3030,30
3031,30
3032,30
3033,30
3034,30
3035,30
3036,30
3037,30
3038,31
3039,30
3040,30
3041,30
3042,30
3043,30
3044,31
3045,31
3046,31
3047,31
3048,31
3049,31
3050,31
3051,31
3052,31
3053,31
3054,31
3055,31
3056,31
3057,32
3058,31
3059,31
3060,31
3061,31
3062,31
3063,31
3064,31
3065,31
3066,31
3067,31
3068,31
3069,31
3070,32
3071,31
3072,32
3073,32
3074,31
3075,31
3076,31
3077,32
3078,32
3079,32
3080,33
3081,34
3082,33
3083,33
3084,32
3085,32
3086,32
3087,32
3088,32
3089,32
3090,32
3091,32
3092,32
3093,32
3094,32
3095,32
3096,32
3097,32
3098,32
3099,32
3100,32
3101,32
3102,32
3103,32
3104,32
3105,32
3106,32
3107,32
3108,32
3109,32
3110,32
3111,32
3112,32
3113,32
3114,32
3115,32
3116,32
3117,32
3118,32
3119,32
3120,32
3121,32
3122,32
3123,32
3124,32
3125,32
3126,32
3127,32
3128,32
3129,32
3130,32
3131,32
3132,32
3133,32
3134,32
3135,32
3136,32
3137,32
3138,33
3139,33
3140,33
3141,33
3142,33
3143,33
3144,33
3145,33
3146,33
3147,34
3148,33
3149,33
3150,33
3151,33
3152,34
3153,34
3154,33
3155,33
3156,33
3157,33
3158,34
3159,33
3160,33
3161,33
3162,32
3163,32
3164,32
3165,32
3166,32
3167,32
3168,32
3169,32
3170,32
3171,32
3172,32
3173,32
3174,32
3175,32
3176,32
3177,32
3178,32
3179,32
3180,32
3181,32
3182,32
3183,32
3184,32
3185,32
3186,32
3187,32
3188,32
3189,32
3190,32
3191,32
3192,32
3193,32
3194,32
3195,32
3196,32
3197,32
3198,32
3199,32
3200,32
3201,32
3202,32
3203,32
3204,33
3205,34
3206,34
3207,33
3208,33
3209,33
3210,33
3211,33
3212,33
3213,33
3214,33
3215,33
3216,33
3217,32
3218,32
3219,32
3220,32
3221,32
3222,32
3223,32
3224,32
3225,32
3226,32
3227,32
3228,32
3229,32
3230,32
3231,32
3232,32
3233,32
3234,32
3235,32
3236,32
3237,32
3238,32
3239,32
3240,32
3241,32
3242,32
3243,32
3244,32
3245,32
3246,32
3247,32
3248,32
3249,32
3250,32
3251,32
3252,32
3253,32
3254,32
3255,32
3256,32
3257,32
3258,32
3259,32
3260,32
3261,32
3262,32
3263,32
3264,32
3265,32
3266,32
3267,32
3268,32
3269,32
3270,32
3271,32
3272,33
3273,32
3274,32
3275,32
3276,32
3277,32
3278,32
3279,32
3280,32
3281,32
3282,32
3283,32
3284,32
3285,32
3286,32
3287,32
3288,33
3289,33
3290,34
3291,34
3292,34
3293,33
3294,33
3295,33
3296,33
3297,33
3298,33
3299,33
3300,33
3301,33
3302,33
3303,33
3304,33
3305,33
3306,33
3307,33
3308,33
3309,33
3310,33
3311,33
3312,33
3313,33
3314,33
3315,33
3316,33
3317,34
3318,34
3319,34
3320,34
3321,34
3322,34
3323,34
3324,34
3325,34
3326,33
3327,33
3328,33
3329,33
3330,33
3331,33
3332,33
3333,33
3334,33
3335,33
3336,33
3337,33
3338,33
3339,33
3340,33
3341,33
3342,33
3343,33
3344,33
3345,33
3346,33
3347,33
3348,33
3349,33
3350,33
3351,33
3352,33
3353,33
3354,33
3355,33
3356,33
3357,33
3358,33
3359,34
3360,33
3361,33
3362,33
3363,33
3364,33
3365,33
3366,33
3367,33
3368,34
3369,33
3370,33
3371,33
3372,33
3373,33
3374,33
3375,33
3376,34
3377,33
3378,33
3379,33
3380,33
3381,33
3382,33
3383,33
3384,33
3385,33
3386,33
3387,33
3388,33
3389,33
3390,33
3391,33
3392,33
3393,32
3394,32
3395,32
3396,32
3397,32
3398,32
3399,32
3400,32
3401,32
3402,33
3403,33
3404,33
3405,33
3406,33
3407,33
3408,33
3409,33
3410,33
3411,34
3412,32
3413,32
3414,32
3415,32
3416,32
3417,32
3418,32
3419,32
3420,32
3421,32
3422,32
3423,32
3424,32
3425,32
3426,32
3427,32
3428,33
3429,33
3430,33
3431,33
3432,33
3433,33
3434,33
3435,33
3436,32
3437,32
3438,32
3439,32
3440,33
3441,33
3442,32
3443,32
3444,32
3445,32
3446,32
3447,32
3448,32
3449,32
3450,32
3451,32
3452,32
3453,32
3454,32
3455,32
3456,32
3457,32
3458,33
3459,33
3460,33
3461,33
3462,33
3463,32
3464,32
3465,32
3466,32
3467,32
3468,32
3469,32
3470,32
3471,33
3472,32
3473,32
3474,32
3475,33
3476,32
3477,32
3478,32
3479,32
3480,32
3481,32
3482,32
3483,32
3484,32
3485,32
3486,32
3487,32
3488,32
3489,33
3490,33
3491,33
3492,33
3493,33
3494,33
3495,33
3496,34
3497,34
3498,33
3499,33
3500,34
3501,34
3502,34
3503,34
3504,34
3505,34
3506,34
3507,34
3508,33
3509,33
3510,33
3511,33
3512,33
3513,33
3514,33
3515,32
3516,32
3517,32
3518,32
3519,32
3520,32
3521,32
3522,32
3523,32
3524,32
3525,33
3526,33
3527,33
3528,33
3529,33
3530,33
3531,33
3532,33
3533,33
3534,33
3535,33
3536,33
3537,33
3538,33
3539,33
3540,33
3541,33
3542,33
3543,33
3544,33
3545,33
3546,33
3547,33
3548,33
3549,33
3550,33
3551,33
3552,33
3553,33
3554,33
3555,33
3556,33
3557,33
3558,33
3559,33
3560,33
3561,33
3562,33
3563,33
3564,33
3565,34
3566,33
3567,33
3568,33
3569,33
3570,33
3571,33
3572,33
3573,33
3574,33
3575,33
3576,33
3577,33
3578,34
3579,33
3580,34
3581,33
3582,34
3583,34
3584,35
3585,34
3586,34
3587,33
3588,33
3589,33
3590,33
3591,33
3592,34
3593,34
3594,34
3595,34
3596,34
3597,34
3598,34
3599,34
3600,34
3601,34
3602,34
3603,34
3604,34
3605,34
3606,34
3607,34
3608,34
3609,34
3610,34
3611,34
3612,34
3613,34
3614,34
3615,34
3616,34
3617,34
3618,34
3619,34
3620,34
3621,34
3622,34
3623,34
3624,34
3625,35
3626,35
3627,34
3628,34
3629,34
3630,34
3631,34
3632,35
3633,34
3634,34
3635,34
3636,34
3637,34
3638,34
3639,34
3640,34
3641,34
3642,34
3643,34
3644,34
3645,34
3646,34
3647,34
3648,34
3649,34
3650,34
3651,34
3652,34
3653,34
3654,34
3655,34
3656,34
3657,34
3658,34
3659,35
3660,34
3661,34
3662,34
3663,34
3664,34
3665,34
3666,34
3667,34
3668,34
3669,34
3670,34
3671,34
3672,34
3673,34
3674,34
3675,34
3676,34
3677,34
3678,34
3679,34
3680,34
3681,34
3682,34
3683,34
3684,34
3685,34
3686,34
3687,34
3688,34
3689,34
3690,34
3691,34
3692,34
3693,34
3694,35
3695,35
3696,34
3697,34
3698,34
3699,34
3700,34
3701,34
3702,34
3703,34
3704,34
3705,34
3706,34
3707,34
3708,35
3709,35
3710,34
3711,34
3712,34
3713,34
3714,35
3715,35
3716,34
3717,34
3718,34
3719,34
3720,34
3721,34
3722,34
3723,34
3724,35
3725,34
3726,34
3727,34
3728,34
3729,34
3730,34
3731,35
3732,35
3733,35
3734,34
3735,34
3736,34
3737,34
3738,34
3739,34
3740,34
3741,34
3742,34
3743,34
3744,34
3745,34
3746,35
3747,34
3748,34
3749,34
3750,34
3751,34
3752,34
3753,34
3754,34
3755,34
3756,34
3757,34
3758,34
3759,34
3760,34
3761,34
3762,34
3763,34
3764,34
3765,34
3766,34
3767,34
3768,34
3769,34
3770,34
3771,34
3772,34
3773,34
3774,34
3775,34
3776,35
3777,34
3778,34
3779,34
3780,34
3781,34
3782,34
3783,33
3784,33
3785,33
3786,33
3787,33
3788,33
3789,33
3790,34
3791,34
3792,34
3793,34
3794,34
3795,33
3796,33
3797,33
3798,33
3799,33
3800,33
3801,33
3802,33
3803,33
3804,33
3805,33
3806,33
3807,33
3808,33
3809,33
3810,33
3811,33
3812,33
3813,33
3814,33
3815,33
3816,33
3817,33
3818,33
3819,33
3820,33
3821,33
3822,33
3823,33
3824,33
3825,33
3826,33
3827,33
3828,33
3829,33
3830,34
3831,33
3832,33
3833,33
3834,33
3835,33
3836,33
3837,33
3838,33
3839,33
3840,33
3841,33
3842,33
3843,33
3844,33
3845,33
3846,33
3847,33
3848,33
3849,33
3850,33
3851,33
3852,33
3853,33
3854,33
3855,33
3856,33
3857,33
3858,33
3859,33
3860,33
3861,33
3862,33
3863,33
3864,33
3865,33
3866,33
3867,33
3868,33
3869,33
3870,33
3871,33
3872,33
3873,33
3874,33
3875,33
3876,33
3877,33
3878,33
3879,33
3880,33
3881,33
3882,33
3883,33
3884,33
3885,33
3886,34
3887,33
3888,33
3889,33
3890,33
3891,33
3892,33
3893,33
3894,33
3895,34
3896,34
3897,34
3898,34
3899,33
3900,33
3901,33
3902,33
3903,33
3904,34
3905,33
3906,33
3907,33
3908,33
3909,33
3910,33
3911,33
3912,33
3913,33
3914,33
3915,33
3916,33
3917,33
3918,33
3919,34
3920,33
3921,33
3922,33
3923,33
3924,33
3925,33
3926,33
3927,33
3928,33
3929,33
3930,33
3931,33
3932,34
3933,33
3934,33
3935,33
3936,33
3937,33
3938,33
3939,33
3940,33
3941,34
3942,33
3943,33
3944,33
3945,33
3946,33
3947,33
3948,33
3949,33
3950,33
3951,33
3952,33
3953,33
3954,33
3955,33
3956,33
3957,34
3958,34
3959,35
3960,35
3961,35
3962,35
3963,36
3964,36
3965,36
3966,35
3967,35
3968,34
3969,34
3970,34
3971,34
3972,34
3973,34
3974,34
3975,34
3976,34
3977,34
3978,34
3979,34
3980,34
3981,34
3982,34
3983,34
3984,34
3985,34
3986,34
3987,34
3988,34
3989,34
3990,34
3991,34
3992,34
3993,34
3994,34
3995,34
3996,34
3997,34
3998,35
3999,35
4000,35
4001,35
4002,35
4003,35
4004,35
4005,35
4006,35
4007,35
4008,35
4009,35
4010,35
4011,35
4012,35
4013,35
4014,34
4015,35
4016,34
4017,33
4018,33
4019,33
4020,34
4021,34
4022,34
4023,35
4024,36
4025,34
4026,34
4027,34
4028,35
4029,34
4030,33
4031,33
4032,33
4033,33
4034,33
4035,33
4036,33
4037,33
4038,34
4039,34
4040,34
4041,34
4042,33
4043,33
4044,33
4045,33
4046,33
4047,33
4048,33
4049,33
4050,34
4051,34
4052,33
4053,33
4054,33
4055,33
4056,33
4057,33
4058,33
4059,33
4060,33
4061,33
4062,33
4063,33
4064,33
4065,33
4066,33
4067,33
4068,33
4069,33
4070,33
4071,34
4072,34
4073,34
4074,34
4075,33
4076,33
4077,33
4078,33
4079,33
4080,33
4081,33
4082,33
4083,33
4084,33
4085,33
4086,33
4087,34
4088,34
4089,34
4090,34
4091,34
4092,35
4093,34
4094,34
4095,34
4096,34
4097,34
4098,34
4099,34
4100,34
4101,34
4102,34
4103,34
4104,34
4105,34
4106,34
4107,34
4108,34
4109,33
4110,33
4111,33
4112,33
4113,33
4114,33
4115,33
4116,34
4117,34
4118,33
4119,33
4120,34
4121,34
4122,34
4123,34
4124,34
4125,34
4126,34
4127,34
4128,35
4129,35
4130,35
4131,35
4132,35
4133,35
4134,35
4135,35
4136,35
4137,35
4138,35
4139,35
4140,35
4141,35
4142,35
4143,35
4144,35
4145,36
4146,36
4147,35
4148,35
4149,35
4150,35
4151,35
4152,35
4153,35
4154,35
4155,35
4156,35
4157,35
4158,35
4159,35
4160,35
4161,35
4162,35
4163,35
4164,35
4165,35
4166,34
4167,34
4168,34
4169,34
4170,34
4171,34
4172,34
4173,34
4174,34
4175,34
4176,34
4177,34
4178,34
4179,34
4180,34
4181,34
4182,34
4183,34
4184,34
4185,34
4186,34
4187,34
4188,34
4189,34
4190,34
4191,34
4192,34
4193,34
4194,34
4195,34
4196,34
4197,34
4198,34
4199,34
4200,34
4201,34
4202,34
4203,34
4204,33
4205,33
4206,33
4207,33
4208,33
4209,33
4210,33
4211,33
4212,33
4213,33
4214,33
4215,33
4216,33
4217,33
4218,33
4219,33
4220,33
4221,33
4222,33
4223,33
4224,33
4225,33
4226,33
4227,33
4228,33
4229,33
4230,33
4231,33
4232,33
4233,33
4234,33
4235,33
4236,33
4237,33
4238,33
4239,33
4240,33
4241,33
4242,33
4243,33
4244,33
4245,33
4246,33
4247,34
4248,35
4249,34
4250,34
4251,34
4252,33
4253,33
4254,33
4255,33
4256,33
4257,33
4258,33
4259,33
4260,33
4261,33
4262,33
4263,33
4264,33
4265,33
4266,33
4267,33
4268,33
4269,33
4270,33
4271,33
4272,33
4273,33
4274,33
4275,33
4276,33
4277,33
4278,33
4279,33
4280,33
4281,33
4282,33
4283,33
4284,33
4285,33
4286,33
4287,33
4288,33
4289,33
4290,33
4291,33
4292,33
4293,33
4294,33
4295,33
4296,33
4297,33
4298,33
4299,33
4300,33
4301,33
4302,33
4303,33
4304,33
4305,33
4306,33
4307,33
4308,33
4309,33
4310,33
4311,33
4312,33
4313,33
4314,33
4315,33
4316,33
4317,33
4318,33
4319,33
4320,33
4321,33
4322,34
4323,35
4324,35
4325,35
4326,35
4327,35
4328,35
4329,35
4330,35
4331,34
4332,34
4333,33
4334,33
4335,33
4336,33
4337,33
4338,33
4339,33
4340,33
4341,33
4342,33
4343,33
4344,33
4345,33
4346,33
4347,33
4348,33
4349,33
4350,33
4351,33
4352,33
4353,33
4354,33
4355,33
4356,33
4357,33
4358,33
4359,32
4360,32
4361,32
4362,32
4363,32
4364,32
4365,32
4366,32
4367,32
4368,32
4369,32
4370,32
4371,32
4372,32
4373,32
4374,33
4375,32
4376,32
4377,32
4378,32
4379,32
4380,32
4381,33
4382,32
4383,32
4384,32
4385,32
4386,32
4387,32
4388,32
4389,32
4390,32
4391,32
4392,32
4393,32
4394,32
4395,32
4396,32
4397,32
4398,32
4399,32
4400,32
4401,32
4402,32
4403,32
4404,32
4405,32
4406,32
4407,32
4408,32
4409,32
4410,32
4411,32
4412,32
4413,32
4414,32
4415,32
4416,32
4417,32
4418,32
4419,32
4420,32
4421,32
4422,32
4423,32
4424,32
4425,32
4426,32
4427,32
4428,32
4429,33
4430,33
4431,32
4432,32
4433,32
4434,32
4435,32
4436,32
4437,32
4438,33
4439,33
4440,33
4441,32
4442,32
4443,32
4444,32
4445,32
4446,32
4447,32
4448,32
4449,32
4450,32
4451,32
4452,32
4453,33
4454,32
4455,32
4456,32
4457,32
4458,32
4459,32
4460,32
4461,32
4462,32
4463,33
4464,32
4465,32
4466,32
4467,32
4468,32
4469,32
4470,32
4471,32
4472,32
4473,32
4474,32
4475,32
4476,32
4477,32
4478,32
4479,32
4480,32
4481,32
4482,32
4483,32
4484,32
4485,32
4486,33
4487,32
4488,32
4489,32
4490,33
4491,32
4492,32
4493,32
4494,33
4495,32
4496,33
4497,33
4498,33
4499,33
4500,33
4501,33
4502,33
4503,33
4504,33
4505,33
4506,33
4507,33
4508,33
4509,33
4510,33
4511,33
4512,33
4513,33
4514,33
4515,33
4516,33
4517,33
4518,33
4519,34
4520,34
4521,34
4522,35
4523,35
4524,35
4525,35
4526,34
4527,34
4528,34
4529,33
4530,34
4531,33
4532,33
4533,33
4534,33
4535,33
4536,33
4537,33
4538,33
4539,33
4540,33
4541,33
4542,34
4543,33
4544,33
4545,33
4546,33
4547,33
4548,33
4549,33
4550,33
4551,33
4552,33
4553,33
4554,33
4555,33
4556,33
4557,33
4558,33
4559,33
4560,34
4561,34
4562,34
4563,34
4564,34
4565,34
4566,33
4567,33
4568,33
4569,33
4570,33
4571,33
4572,33
4573,33
4574,34
4575,34
4576,33
4577,33
4578,33
4579,33
4580,33
4581,33
4582,33
4583,33
4584,33
4585,34
4586,34
4587,34
4588,34
4589,34
4590,35
4591,34
4592,34
4593,33
4594,33
4595,33
4596,33
4597,33
4598,33
4599,33
4600,33
4601,33
4602,33
4603,33
4604,33
4605,33
4606,33
4607,33
4608,33
4609,33
4610,33
4611,33
4612,34
4613,33
4614,33
4615,33
4616,33
4617,33
4618,33
4619,33
4620,33
4621,33
4622,33
4623,33
4624,33
4625,33
4626,33
4627,33
4628,33
4629,33
4630,33
4631,34
4632,34
4633,34
4634,34
4635,34
4636,33
4637,33
4638,33
4639,33
4640,33
4641,33
4642,33
4643,33
4644,33
4645,33
4646,33
4647,33
4648,33
4649,34
4650,34
4651,34
4652,34
4653,34
4654,33
4655,33
4656,33
4657,33
4658,33
4659,33
4660,33
4661,33
4662,33
4663,33
4664,33
4665,33
4666,33
4667,33
4668,33
4669,33
4670,33
4671,33
4672,33
4673,33
4674,33
4675,33
4676,34
4677,34
4678,34
4679,34
4680,34
4681,34
4682,34
4683,35
4684,34
4685,34
4686,34
4687,35
4688,34
4689,33
4690,34
4691,34
4692,33
4693,33
4694,33
4695,33
4696,33
4697,33
4698,33
4699,33
4700,33
4701,33
4702,33
4703,33
4704,33
4705,33
4706,34
4707,33
4708,34
4709,34
4710,34
4711,33
4712,33
4713,33
4714,33
4715,33
4716,33
4717,33
4718,33
4719,33
4720,33
4721,33
4722,33
4723,33
4724,33
4725,34
4726,34
4727,34
4728,34
4729,34
4730,34
4731,34
4732,34
4733,34
4734,34
4735,34
4736,33
4737,33
4738,33
4739,33
4740,33
4741,33
4742,33
4743,33
4744,33
4745,33
4746,34
4747,34
4748,34
4749,34
4750,34
4751,35
4752,35
4753,35
4754,35
4755,35
4756,35
4757,35
4758,35
4759,35
4760,35
4761,34
4762,34
4763,34
4764,34
4765,34
4766,35
4767,35
4768,34
4769,34
4770,34
4771,34
4772,34
4773,35
4774,35
4775,35
4776,34
4777,34
4778,34
4779,34
4780,34
4781,35
4782,35
4783,36
4784,36
4785,35
4786,35
4787,34
4788,34
4789,34
4790,34
4791,34
4792,34
4793,34
4794,34
4795,34
4796,34
4797,34
4798,34
4799,34
4800,34
4801,34
4802,34
4803,34
4804,34
4805,34
4806,34
4807,34
4808,34
4809,34
4810,34
4811,34
4812,34
4813,34
4814,34
4815,35
4816,35
4817,36
4818,36
4819,35
4820,35
4821,36
4822,35
4823,35
4824,35
4825,35
4826,35
4827,35
4828,35
4829,35
4830,35
4831,35
4832,35
4833,35
4834,35
4835,35
4836,35
4837,35
4838,35
4839,35
4840,35
4841,35
4842,35
4843,35
4844,36
4845,36
4846,36
4847,36
4848,36
4849,37
4850,38
4851,38
4852,37
4853,37
4854,37
4855,37
4856,37
4857,37
4858,36
4859,37
4860,35
4861,34
4862,34
4863,34
4864,34
4865,34
4866,34
4867,34
4868,34
4869,34
4870,34
4871,34
4872,34
4873,34
4874,34
4875,34
4876,34
4877,34
4878,34
4879,34
4880,34
4881,34
4882,34
4883,34
4884,34
4885,35
4886,34
4887,34
4888,35
4889,35
4890,35
4891,35
4892,35
4893,35
4894,35
4895,35
4896,35
4897,34
4898,34
4899,34
4900,34
4901,34
4902,35
4903,35
4904,34
4905,34
4906,34
4907,34
4908,34
4909,34
4910,34
4911,34
4912,34
4913,34
4914,34
4915,34
4916,34
4917,34
4918,34
4919,34
4920,34
4921,34
4922,34
4923,34
4924,34
4925,34
4926,34
4927,34
4928,34
4929,34
4930,34
4931,34
4932,35
4933,35
4934,34
4935,34
4936,34
4937,34
4938,34
4939,34
4940,34
4941,34
4942,34
4943,34
4944,34
4945,34
4946,34
4947,34
4948,34
4949,34
4950,34
4951,35
4952,35
4953,35
4954,34
4955,34
4956,35
4957,34
4958,34
4959,34
4960,34
4961,34
4962,34
4963,34
4964,34
4965,34
4966,34
4967,34
4968,34
4969,34
4970,34
4971,34
4972,34
4973,34
4974,34
4975,34
4976,34
4977,34
4978,34
4979,34
4980,34
4981,34
4982,34
4983,34
4984,34
4985,34
4986,34
4987,34
4988,34
4989,34
4990,34
4991,34
4992,34
4993,34
4994,34
4995,34
4996,34
4997,34
4998,34
4999,34
5000,34
5001,34
5002,34
5003,34
5004,35
5005,35
5006,34
5007,34
5008,34
5009,34
5010,34
5011,34
5012,34
5013,34
5014,34
5015,34
5016,34
5017,34
5018,35
5019,35
5020,35
5021,35
5022,35
5023,35
5024,35
5025,35
5026,35
5027,35
5028,35
5029,35
5030,34
5031,34
5032,34
5033,34
5034,34
5035,34
5036,34
5037,34
5038,34
5039,34
5040,34
5041,34
5042,34
5043,34
5044,34
5045,34
5046,35
5047,34
5048,34
5049,34
5050,34
5051,34
5052,34
5053,34
5054,34
5055,34
5056,34
5057,34
5058,34
5059,34
5060,35
5061,35
5062,35
5063,36
5064,35
5065,35
5066,34
5067,34
5068,34
5069,34
5070,34
5071,34
5072,34
5073,34
5074,34
5075,35
5076,35
5077,35
5078,35
5079,35
5080,35
5081,35
5082,35
5083,35
5084,35
5085,35
5086,35
5087,35
5088,35
5089,35
5090,35
5091,35
5092,36
5093,36
5094,36
5095,37
5096,37
5097,36
5098,35
5099,35
5100,35
5101,35
5102,34
5103,34
5104,34
5105,34
5106,34
5107,34
5108,34
5109,34
5110,34
5111,34
5112,34
5113,34
5114,35
5115,35
5116,36
5117,35
5118,35
5119,35
5120,35
5121,35
5122,35
5123,35
5124,35
5125,35
5126,35
5127,35
5128,35
5129,35
5130,35
5131,35
5132,35
5133,35
5134,35
5135,35
5136,35
5137,35
5138,36
5139,36
5140,36
5141,35
5142,35
5143,35
5144,35
5145,35
5146,35
5147,34
5148,34
5149,34
5150,34
5151,34
5152,34
5153,34
5154,35
5155,35
5156,35
5157,35
5158,36
5159,35
5160,35
5161,35
5162,35
5163,35
5164,35
5165,36
5166,35
5167,35
5168,35
5169,35
5170,35
5171,35
5172,35
5173,35
5174,35
5175,35
5176,35
5177,35
5178,35
5179,35
5180,35
5181,34
5182,34
5183,35
5184,37
5185,36
5186,35
5187,34
5188,34
5189,34
5190,34
5191,34
5192,34
5193,34
5194,34
5195,35
5196,34
5197,34
5198,35
5199,35
5200,35
5201,34
5202,34
5203,34
5204,34
5205,34
5206,34
5207,34
5208,34
5209,34
5210,34
5211,34
5212,34
5213,34
5214,34
5215,34
5216,34
5217,34
5218,34
5219,34
5220,35
5221,35
5222,35
5223,35
5224,35
5225,35
5226,35
5227,35
5228,35
5229,34
5230,34
5231,34
5232,34
5233,34
5234,34
5235,34
5236,34
5237,34
5238,34
5239,34
5240,34
5241,34
5242,34
5243,34
5244,34
5245,34
5246,34
5247,34
5248,34
5249,34
5250,34
5251,34
5252,34
5253,34
5254,34
5255,36
5256,36
5257,37
5258,36
5259,35
5260,35
5261,35
5262,35
5263,35
5264,35
5265,35
5266,37
5267,37
5268,36
5269,36
5270,36
5271,36
5272,36
5273,36
5274,36
5275,36
5276,36
5277,36
5278,36
5279,36
5280,36
5281,36
5282,36
5283,36
5284,36
5285,36
5286,36
5287,36
5288,37
5289,36
5290,36
5291,36
5292,36
5293,36
5294,36
5295,36
5296,36
5297,36
5298,36
5299,36
5300,36
5301,37
5302,36
5303,36
5304,35
5305,35
5306,35
5307,35
5308,35
5309,35
5310,35
5311,35
5312,35
5313,35
5314,35
5315,35
5316,35
5317,35
5318,35
5319,35
5320,35
5321,35
5322,35
5323,35
5324,35
5325,35
5326,35
5327,35
5328,35
5329,35
5330,35
5331,35
5332,36
5333,36
5334,36
5335,37
5336,37
5337,36
5338,36
5339,36
5340,36
5341,36
5342,36
5343,36
5344,36
5345,35
5346,35
5347,35
5348,35
5349,35
5350,35
5351,35
5352,35
5353,35
5354,36
5355,35
5356,35
5357,35
5358,35
5359,35
5360,35
5361,35
5362,35
5363,34
5364,34
5365,34
5366,34
5367,34
5368,34
5369,34
5370,34
5371,34
5372,34
5373,34
5374,33
5375,33
5376,33
5377,33
5378,33
5379,33
5380,33
5381,33
5382,33
5383,33
5384,34
5385,35
5386,34
5387,33
5388,34
5389,34
5390,34
5391,33
5392,33
5393,33
5394,33
5395,33
5396,33
5397,33
5398,33
5399,33
5400,33
5401,34
5402,33
5403,33
5404,33
5405,33
5406,33
5407,33
5408,33
5409,33
5410,33
5411,33
5412,33
5413,33
5414,33
5415,33
5416,33
5417,33
5418,33
5419,33
5420,33
5421,34
5422,33
5423,33
5424,33
5425,33
5426,33
5427,33
5428,33
5429,33
5430,33
5431,33
5432,33
5433,35
5434,35
5435,34
5436,34
5437,33
5438,34
5439,33
5440,34
5441,34
5442,33
5443,33
5444,33
5445,33
5446,33
5447,33
5448,33
5449,33
5450,33
5451,33
5452,33
5453,33
5454,34
5455,33
5456,33
5457,33
5458,33
5459,33
5460,33
5461,33
5462,33
5463,33
5464,33
5465,33
5466,33
5467,34
5468,33
5469,33
5470,33
5471,33
5472,33
5473,33
5474,33
5475,33
5476,33
5477,33
5478,33
5479,33
5480,33
5481,33
5482,33
5483,33
5484,33
5485,33
5486,33
5487,33
5488,33
5489,33
5490,33
5491,33
5492,33
5493,33
5494,33
5495,33
5496,33
5497,33
5498,33
5499,33
5500,33
5501,33
5502,33
5503,33
5504,33
5505,33
5506,33
5507,33
5508,33
5509,33
5510,33
5511,33
5512,33
5513,33
5514,33
5515,33
5516,33
5517,33
5518,33
5519,33
5520,33
5521,33
5522,33
5523,33
5524,33
5525,33
5526,33
5527,33
5528,33
5529,33
5530,33
5531,33
5532,33
5533,33
5534,33
5535,34
5536,34
5537,34
5538,33
5539,33
5540,33
5541,33
5542,33
5543,33
5544,34
5545,33
5546,33
5547,33
5548,33
5549,33
5550,33
5551,33
5552,33
5553,33
5554,33
5555,33
5556,33
5557,33
5558,33
5559,33
5560,33
5561,33
5562,33
5563,33
5564,33
5565,33
5566,33
5567,33
5568,33
5569,33
5570,33
5571,33
5572,33
5573,33
5574,33
5575,33
5576,33
5577,33
5578,33
5579,33
5580,33
5581,33
5582,33
5583,33
5584,33
5585,33
5586,33
5587,33
5588,33
5589,33
5590,33
5591,33
5592,33
5593,33
5594,33
5595,33
5596,33
5597,33
5598,33
5599,33
5600,34
5601,33
5602,33
5603,34
5604,33
5605,33
5606,33
5607,33
5608,33
5609,33
5610,33
5611,32
5612,32
5613,32
5614,32
5615,32
5616,32
5617,32
5618,33
5619,32
5620,32
5621,32
5622,32
5623,33
5624,32
5625,32
5626,32
5627,32
5628,32
5629,32
5630,32
5631,32
5632,32
5633,33
5634,32
5635,32
5636,32
5637,32
5638,34
5639,34
5640,34
5641,34
5642,34
5643,34
5644,34
5645,34
5646,33
5647,33
5648,33
5649,33
5650,33
5651,32
5652,32
5653,32
5654,32
5655,32
5656,32
5657,32
5658,32
5659,32
5660,32
5661,32
5662,32
5663,32
5664,32
5665,32
5666,32
5667,32
5668,33
5669,32
5670,32
5671,32
5672,32
5673,32
5674,32
5675,32
5676,32
5677,32
5678,33
5679,33
5680,34
5681,34
5682,33
5683,33
5684,34
5685,33
5686,33
5687,33
5688,33
5689,33
5690,33
5691,32
5692,32
5693,32
5694,32
5695,32
5696,33
5697,32
5698,32
5699,33
5700,33
5701,33
5702,33
5703,33
5704,33
5705,33
5706,33
5707,33
5708,34
5709,33
5710,33
5711,33
5712,33
5713,33
5714,33
5715,33
5716,33
5717,33
5718,33
5719,33
5720,33
5721,33
5722,33
5723,33
5724,35
5725,33
5726,32
5727,32
5728,32
5729,32
5730,32
5731,32
5732,32
5733,32
5734,32
5735,32
5736,32
5737,32
5738,32
5739,32
5740,32
5741,32
5742,32
5743,32
5744,32
5745,32
5746,32
5747,32
5748,32
5749,32
5750,32
5751,32
5752,32
5753,32
5754,33
5755,32
5756,32
5757,32
5758,32
5759,33
5760,33
5761,33
5762,33
5763,33
5764,33
5765,32
5766,32
5767,32
5768,33
5769,32
5770,32
5771,32
5772,32
5773,32
5774,32
5775,32
5776,32
5777,32
5778,32
5779,32
5780,32
5781,32
5782,33
5783,32
5784,32
5785,32
5786,32
5787,32
5788,32
5789,32
5790,32
5791,32
5792,32
5793,32
5794,32
5795,33
5796,32
5797,32
5798,32
5799,32
5800,32
5801,32
5802,32
5803,32
5804,32
5805,32
5806,32
5807,32
5808,32
5809,32
5810,33
5811,32
5812,32
5813,32
5814,32
5815,32
5816,32
5817,32
5818,32
5819,32
5820,32
5821,32
5822,32
5823,32
5824,32
5825,32
5826,32
5827,32
5828,32
5829,33
5830,33
5831,33
5832,33
5833,33
5834,33
5835,33
5836,33
5837,33
5838,33
5839,33
5840,33
5841,33
5842,33
5843,33
5844,33
5845,33
5846,33
5847,32
5848,33
5849,33
5850,33
5851,33
5852,33
5853,33
5854,33
5855,33
5856,33
5857,32
5858,32
5859,32
5860,32
5861,32
5862,32
5863,32
5864,32
5865,32
5866,32
5867,32
5868,32
5869,33
5870,31
5871,31
5872,31
5873,31
5874,31
5875,31
5876,31
5877,31
5878,31
5879,31
5880,31
5881,31
5882,31
5883,31
5884,31
5885,31
5886,31
5887,31
5888,31
5889,31
5890,32
5891,32
5892,32
5893,32
5894,32
5895,32
5896,31
5897,31
5898,31
5899,31
5900,32
5901,31
5902,31
5903,31
5904,32
5905,32
5906,32
5907,32
5908,32
5909,32
5910,33
5911,32
5912,32
5913,32
5914,31
5915,31
5916,32
5917,32
5918,32
5919,32
5920,32
5921,33
5922,34
5923,33
5924,33
5925,33
5926,33
5927,33
5928,33
5929,32
5930,33
5931,32
5932,32
5933,32
5934,32
5935,32
5936,32
5937,32
5938,32
5939,32
5940,32
5941,32
5942,32
5943,32
5944,32
5945,32
5946,32
5947,32
5948,32
5949,32
5950,32
5951,32
5952,32
5953,32
5954,32
5955,32
5956,32
5957,32
5958,32
5959,32
5960,32
5961,32
5962,32
5963,32
5964,32
5965,32
5966,32
5967,32
5968,31
5969,31
5970,32
5971,31
5972,32
5973,31
5974,31
5975,31
5976,31
5977,31
5978,31
5979,31
5980,31
5981,31
5982,31
5983,31
5984,31
5985,31
5986,31
5987,31
5988,31
5989,31
5990,31
5991,31
5992,31
5993,31
5994,31
5995,31
5996,31
5997,31
5998,31
5999,31
6000,31
6001,31
6002,31
6003,31
6004,31
6005,31
6006,31
6007,31
6008,31
6009,31
6010,31
6011,31
6012,31
6013,31
6014,31
6015,31
6016,31
6017,31
6018,31
6019,31
6020,31
6021,31
6022,31
6023,31
6024,31
6025,31
6026,31
6027,31
6028,31
6029,31
6030,31
6031,31
6032,31
6033,31
6034,31
6035,31
6036,31
6037,31
6038,31
6039,31
6040,31
6041,31
6042,31
6043,31
6044,31
6045,31
6046,31
6047,31
6048,31
6049,31
6050,31
6051,32
6052,31
6053,32
6054,32
6055,32
6056,32
6057,32
6058,32
6059,31
6060,31
6061,31
6062,31
6063,31
6064,31
6065,31
6066,31
6067,31
6068,31
6069,31
6070,31
6071,31
6072,31
6073,31
6074,31
6075,31
6076,31
6077,31
6078,31
6079,31
6080,31
6081,31
6082,31
6083,31
6084,31
6085,31
6086,31
6087,32
6088,32
6089,31
6090,31
6091,31
6092,32
6093,31
6094,31
6095,31
6096,31
6097,31
6098,31
6099,31
6100,31
6101,31
6102,31
6103,31
6104,31
6105,31
6106,31
6107,32
6108,32
6109,33
6110,31
6111,31
6112,31
6113,31
6114,31
6115,31
6116,31
6117,31
6118,31
6119,31
6120,31
6121,32
6122,32
6123,31
6124,32
6125,32
6126,32
6127,31
6128,31
6129,31
6130,32
6131,32
6132,31
6133,31
6134,31
6135,31
6136,31
6137,31
6138,31
6139,32
6140,32
6141,32
6142,32
6143,32
6144,32
6145,32
6146,32
6147,32
6148,32
6149,32
6150,32
6151,32
6152,32
6153,32
6154,32
6155,32
6156,32
6157,32
6158,32
6159,32
6160,32
6161,32
6162,32
6163,32
6164,32
6165,32
6166,32
6167,32
6168,32
6169,32
6170,32
6171,32
6172,32
6173,32
6174,33
6175,33
6176,32
6177,32
6178,32
6179,32
6180,33
6181,32
6182,32
6183,32
6184,32
6185,32
6186,32
6187,32
6188,32
6189,32
6190,32
6191,32
6192,32
6193,32
6194,32
6195,32
6196,32
6197,32
6198,32
6199,32
6200,32
6201,32
6202,32
6203,32
6204,32
6205,32
6206,33
6207,34
6208,33
6209,33
6210,33
6211,32
6212,32
6213,32
6214,33
6215,33
6216,32
6217,32
6218,32
6219,32
6220,32
6221,32
6222,32
6223,32
6224,32
6225,32
6226,32
6227,32
6228,32
6229,32
6230,33
6231,32
6232,32
6233,32
6234,32
6235,33
6236,32
6237,32
6238,32
6239,32
6240,32
6241,32
6242,32
6243,32
6244,32
6245,32
6246,32
6247,33
6248,33
6249,33
6250,33
6251,33
6252,33
6253,33
6254,33
6255,33
6256,33
6257,33
6258,34
6259,33
6260,34
6261,34
6262,34
6263,34
6264,34
6265,34
6266,33
6267,33
6268,34
6269,34
6270,35
6271,35
6272,35
6273,34
6274,34
6275,34
6276,34
6277,34
6278,34
6279,34
6280,34
6281,34
6282,34
6283,34
6284,35
6285,34
6286,35
6287,36
6288,36
6289,36
6290,35
6291,35
6292,35
6293,35
6294,36
6295,36
6296,36
6297,36
6298,36
6299,36
6300,36
6301,35
6302,35
6303,35
6304,36
6305,36
6306,35
6307,35
6308,35
6309,36
6310,35
6311,34
6312,34
6313,34
6314,34
6315,34
6316,34
6317,34
6318,34
6319,34
6320,34
6321,35
6322,34
6323,34
6324,34
6325,34
6326,34
6327,34
6328,35
6329,34
6330,34
6331,34
6332,34
6333,34
6334,34
6335,34
6336,34
6337,34
6338,34
6339,34
6340,34
6341,34
6342,34
6343,34
6344,34
6345,34
6346,34
6347,34
6348,34
6349,34
6350,34
6351,34
6352,34
6353,34
6354,34
6355,34
6356,34
6357,34
6358,34
6359,34
6360,34
6361,34
6362,34
6363,34
6364,34
6365,34
6366,34
6367,34
6368,34
6369,34
6370,34
6371,34
6372,34
6373,34
6374,34
6375,34
6376,34
6377,34
6378,34
6379,34
6380,34
6381,35
6382,35
6383,35
6384,35
6385,35
6386,35
6387,35
6388,35
6389,35
6390,34
6391,34
6392,34
6393,34
6394,35
6395,34
6396,34
6397,34
6398,34
6399,34
6400,34
6401,34
6402,34
6403,34
6404,34
6405,34
6406,34
6407,34
6408,34
6409,34
6410,34
6411,34
6412,34
6413,34
6414,34
6415,34
6416,34
6417,34
6418,34
6419,34
6420,34
6421,34
6422,34
6423,34
6424,34
6425,34
6426,34
6427,34
6428,34
6429,34
6430,34
6431,34
6432,34
6433,34
6434,34
6435,34
6436,34
6437,34
6438,34
6439,34
6440,34
6441,34
6442,34
6443,35
6444,34
6445,34
6446,34
6447,34
6448,34
6449,34
6450,34
6451,35
6452,36
6453,36
6454,35
6455,35
6456,35
6457,35
6458,35
6459,35
6460,35
6461,35
6462,35
6463,35
6464,35
6465,34
6466,34
6467,34
6468,34
6469,34
6470,34
6471,35
6472,34
6473,34
6474,34
6475,34
6476,34
6477,34
6478,34
6479,35
6480,35
6481,35
6482,35
6483,35
6484,35
6485,35
6486,35
6487,35
6488,35
6489,34
6490,34
6491,34
6492,34
6493,34
6494,34
6495,34
6496,34
6497,34
6498,34
6499,34
6500,34
6501,34
6502,34
6503,34
6504,34
6505,34
6506,34
6507,34
6508,34
6509,34
6510,34
6511,34
6512,34
6513,34
6514,34
6515,34
6516,34
6517,34
6518,34
6519,34
6520,34
6521,35
6522,34
6523,34
6524,34
6525,34
6526,34
6527,34
6528,36
6529,35
6530,34
6531,34
6532,34
6533,34
6534,34
6535,34
6536,34
6537,34
6538,34
6539,34
6540,34
6541,34
6542,35
6543,35
6544,35
6545,35
6546,35
6547,35
6548,35
6549,35
6550,35
6551,35
6552,35
6553,35
6554,35
6555,35
6556,35
6557,36
6558,35
6559,35
6560,35
6561,35
6562,35
6563,35
6564,35
6565,35
6566,35
6567,35
6568,35
6569,35
6570,35
6571,35
6572,35
6573,35
6574,35
6575,35
6576,36
6577,36
6578,36
6579,36
6580,36
6581,36
6582,36
6583,37
6584,37
6585,37
6586,36
6587,35
6588,36
6589,36
6590,35
6591,35
6592,35
6593,35
6594,35
6595,35
6596,35
6597,35
6598,35
6599,35
6600,35
6601,35
6602,35
6603,35
6604,35
6605,35
6606,36
6607,36
6608,36
6609,36
6610,36
6611,35
6612,35
6613,35
6614,35
6615,35
6616,35
6617,35
6618,35
6619,35
6620,35
6621,35
6622,35
6623,35
6624,35
6625,35
6626,35
6627,35
6628,35
6629,35
6630,36
6631,35
6632,35
6633,35
6634,35
6635,35
6636,35
6637,35
6638,36
6639,36
6640,35
6641,35
6642,35
6643,35
6644,35
6645,35
6646,35
6647,35
6648,35
6649,35
6650,35
6651,35
6652,35
6653,35
6654,35
6655,35
6656,35
6657,35
6658,35
6659,35
6660,35
6661,35
6662,35
6663,35
6664,35
6665,35
6666,35
6667,35
6668,35
6669,35
6670,35
6671,34
6672,35
6673,35
6674,35
6675,34
6676,34
6677,34
6678,34
6679,34
6680,34
6681,34
6682,34
6683,34
6684,34
6685,34
6686,34
6687,34
6688,34
6689,34
6690,34
6691,34
6692,34
6693,34
6694,34
6695,34
6696,34
6697,34
6698,34
6699,34
6700,34
6701,35
6702,35
6703,35
6704,35
6705,35
6706,35
6707,35
6708,34
6709,34
6710,34
6711,34
6712,34
6713,34
6714,34
6715,34
6716,34
6717,34
6718,34
6719,34
6720,34
6721,34
6722,34
6723,34
6724,34
6725,34
6726,34
6727,34
6728,34
6729,34
6730,34
6731,35
6732,34
6733,34
6734,34
6735,34
6736,34
6737,34
6738,34
6739,34
6740,34
6741,34
6742,34
6743,34
6744,34
6745,34
6746,34
6747,34
6748,34
6749,34
6750,34
6751,34
6752,34
6753,35
6754,35
6755,35
6756,35
6757,35
6758,35
6759,35
6760,35
6761,35
6762,35
6763,35
6764,35
6765,35
6766,35
6767,35
6768,35
6769,35
6770,35
6771,35
6772,35
6773,35
6774,35
6775,34
6776,34
6777,34
6778,34
6779,34
6780,34
6781,34
6782,35
6783,34
6784,35
6785,35
6786,35
6787,35
6788,35
6789,35
6790,35
6791,34
6792,34
6793,34
6794,34
6795,34
6796,34
6797,34
6798,34
6799,34
6800,35
6801,34
6802,34
6803,34
6804,35
6805,35
6806,35
6807,36
6808,36
6809,35
6810,35
6811,34
6812,34
6813,34
6814,34
6815,34
6816,34
6817,35
6818,34
6819,34
6820,34
6821,34
6822,34
6823,34
6824,34
6825,34
6826,34
6827,34
6828,34
6829,34
6830,34
6831,34
6832,34
6833,34
6834,35
6835,35
6836,34
6837,34
6838,34
6839,34
6840,34
6841,34
6842,34
6843,34
6844,34
6845,34
6846,34
6847,34
6848,34
6849,34
6850,34
6851,35
6852,34
6853,34
6854,34
6855,34
6856,34
6857,34
6858,34
6859,34
6860,34
6861,34
6862,34
6863,34
6864,34
6865,34
6866,34
6867,34
6868,34
6869,34
6870,34
6871,34
6872,34
6873,35
6874,34
6875,34
6876,34
6877,34
6878,34
6879,34
6880,34
6881,34
6882,34
6883,35
6884,35
6885,35
6886,35
6887,35
6888,35
6889,36
6890,35
6891,35
6892,35
6893,35
6894,35
6895,35
6896,35
6897,35
6898,35
6899,35
6900,35
6901,35
6902,35
6903,35
6904,35
6905,35
6906,35
6907,35
6908,37
6909,37
6910,37
6911,36
6912,36
6913,35
6914,35
6915,35
6916,34
6917,35
6918,34
6919,34
6920,35
6921,35
6922,35
6923,35
6924,35
6925,35
6926,35
6927,35
6928,35
6929,35
6930,35
6931,35
6932,35
6933,35
6934,35
6935,35
6936,35
6937,35
6938,35
6939,35
6940,35
6941,35
6942,35
6943,35
6944,35
6945,35
6946,36
6947,36
6948,35
6949,35
6950,35
6951,35
6952,35
6953,35
6954,35
6955,36
6956,36
6957,36
6958,36
6959,36
6960,36
6961,36
6962,36
6963,36
6964,36
6965,36
6966,36
6967,36
6968,38
6969,36
6970,36
6971,36
6972,36
6973,36
6974,36
6975,36
6976,36
6977,36
6978,36
6979,36
6980,36
6981,36
6982,36
6983,36
6984,37
6985,36
6986,37
6987,36
6988,36
6989,36
6990,36
6991,36
6992,36
6993,36
6994,36
6995,36
6996,36
6997,36
6998,36
6999,36
7000,36
7001,36
7002,36
7003,36
7004,36
7005,36
7006,36
7007,36
7008,36
7009,36
7010,36
7011,36
7012,36
7013,37
7014,37
7015,36
7016,36
7017,36
7018,35
7019,35
7020,36
7021,36
7022,36
7023,35
7024,35
7025,35
7026,35
7027,35
7028,35
7029,35
7030,35
7031,35
7032,35
7033,35
7034,35
7035,35
7036,35
7037,35
7038,35
7039,35
7040,35
7041,35
7042,35
7043,35
7044,35
7045,35
7046,35
7047,36
7048,36
7049,36
7050,36
7051,36
7052,36
7053,36
7054,36
7055,36
7056,36
7057,36
7058,36
7059,36
7060,36
7061,36
7062,36
7063,35
7064,35
7065,35
7066,35
7067,35
7068,35
7069,35
7070,35
7071,35
7072,35
7073,35
7074,35
7075,36
7076,36
7077,36
7078,35
7079,35
7080,35
7081,35
7082,35
7083,35
7084,35
7085,36
7086,35
7087,35
7088,35
7089,35
7090,35
7091,35
7092,35
7093,35
7094,35
7095,35
7096,35
7097,35
7098,35
7099,35
7100,35
7101,35
7102,35
7103,35
7104,35
7105,35
7106,35
7107,35
7108,35
7109,35
7110,35
7111,35
7112,35
7113,35
7114,35
7115,35
7116,35
7117,35
7118,35
7119,35
7120,35
7121,35
7122,36
7123,36
7124,35
7125,35
7126,35
7127,35
7128,35
7129,36
7130,36
7131,36
7132,36
7133,36
7134,35
7135,35
7136,35
7137,35
7138,35
7139,35
7140,35
7141,35
7142,35
7143,35
7144,36
7145,35
7146,35
7147,35
7148,35
7149,35
7150,36
7151,35
7152,35
7153,35
7154,35
7155,35
7156,35
7157,35
7158,35
7159,35
7160,35
7161,35
7162,36
7163,35
7164,35
7165,35
7166,35
7167,35
7168,35
7169,36
7170,36
7171,35
7172,36
7173,37
7174,36
7175,36
7176,36
7177,36
7178,35
7179,35
7180,35
7181,35
7182,35
7183,35
7184,35
7185,35
7186,36
7187,36
7188,36
7189,36
7190,36
7191,36
7192,36
7193,36
7194,36
7195,35
7196,35
7197,35
7198,35
7199,35
7200,35
7201,35
7202,35
7203,35
7204,35
7205,35
7206,36
7207,35
7208,35
7209,36
7210,36
7211,36
7212,35
7213,35
7214,35
7215,35
7216,35
7217,35
7218,35
7219,35
7220,35
7221,35
7222,35
7223,35
7224,35
7225,36
7226,36
7227,36
7228,36
7229,36
7230,36
7231,36
7232,37
7233,37
7234,36
7235,36
7236,36
7237,36
7238,36
7239,36
7240,36
7241,36
7242,36
7243,36
7244,36
7245,36
7246,36
7247,36
7248,36
7249,36
7250,36
7251,36
7252,36
7253,36
7254,36
7255,36
7256,36
7257,36
7258,36
7259,36
7260,36
7261,36
7262,36
7263,36
7264,36
7265,36
7266,36
7267,36
7268,36
7269,36
7270,36
7271,36
7272,36
7273,36
7274,36
7275,36
7276,36
7277,36
7278,37
7279,37
7280,37
7281,37
7282,37
7283,37
7284,37
7285,37
7286,37
7287,37
7288,38
7289,38
7290,38
7291,39
7292,39
7293,38
7294,38
7295,39
7296,38
7297,38
7298,38
7299,38
7300,38
7301,38
7302,38
7303,38
7304,38
7305,38
7306,39
7307,38
7308,38
7309,38
7310,38
7311,38
7312,38
7313,38
7314,38
7315,38
7316,38
7317,38
7318,38
7319,38
7320,38
7321,38
7322,38
7323,38
7324,37
7325,38
7326,38
7327,38
7328,38
7329,38
7330,38
7331,38
7332,38
7333,38
7334,38
7335,39
7336,39
7337,39
7338,38
7339,38
7340,37
7341,37
7342,37
7343,37
7344,37
7345,37
7346,37
7347,37
7348,37
7349,37
7350,37
7351,37
7352,37
7353,37
7354,37
7355,38
7356,37
7357,37
7358,37
7359,37
7360,37
7361,37
7362,36
7363,36
7364,36
7365,36
7366,36
7367,36
7368,36
7369,36
7370,36
7371,36
7372,36
7373,36
7374,36
7375,36
7376,36
7377,37
7378,37
7379,37
7380,37
7381,36
7382,36
7383,37
7384,37
7385,36
7386,36
7387,36
7388,37
7389,36
7390,36
7391,36
7392,36
7393,36
7394,36
7395,36
7396,36
7397,36
7398,36
7399,36
7400,35
7401,35
7402,35
7403,35
7404,35
7405,35
7406,35
7407,35
7408,35
7409,35
7410,35
7411,35
7412,36
7413,35
7414,35
7415,35
7416,35
7417,35
7418,35
7419,35
7420,36
7421,35
7422,35
7423,35
7424,35
7425,35
7426,35
7427,35
7428,35
7429,35
7430,35
7431,36
7432,35
7433,35
7434,35
7435,35
7436,35
7437,35
7438,35
7439,35
7440,35
7441,35
7442,35
7443,36
7444,36
7445,36
7446,36
7447,36
7448,36
7449,35
7450,36
7451,36
7452,36
7453,35
7454,35
7455,35
7456,35
7457,35
7458,35
7459,35
7460,35
7461,35
7462,35
7463,35
7464,35
7465,35
7466,35
7467,35
7468,35
7469,35
7470,36
7471,36
7472,35
7473,35
7474,35
7475,35
7476,36
7477,35
7478,35
7479,35
7480,35
7481,35
7482,35
7483,35
7484,35
7485,35
7486,35
7487,35
7488,35
7489,35
7490,35
7491,35
7492,35
7493,35
7494,35
7495,35
7496,36
7497,35
7498,35
7499,35
7500,35
7501,34
7502,34
7503,34
7504,34
7505,34
7506,35
7507,35
7508,34
7509,34
7510,35
7511,35
7512,34
7513,35
7514,35
7515,35
7516,35
7517,35
7518,34
7519,34
7520,34
7521,34
7522,34
7523,34
7524,34
7525,34
7526,34
7527,34
7528,34
7529,34
7530,34
7531,34
7532,34
7533,34
7534,34
7535,34
7536,34
7537,34
7538,34
7539,34
7540,35
7541,35
7542,35
7543,35
7544,35
7545,35
7546,36
7547,35
7548,35
7549,35
7550,35
7551,35
7552,35
7553,35
7554,35
7555,35
7556,35
7557,35
7558,36
7559,35
7560,35
7561,35
7562,35
7563,35
7564,35
7565,34
7566,34
7567,35
7568,35
7569,35
7570,35
7571,34
7572,34
7573,35
7574,34
7575,34
7576,34
7577,35
7578,35
7579,35
7580,36
7581,36
7582,34
7583,34
7584,34
7585,34
7586,34
7587,34
7588,34
7589,34
7590,34
7591,34
7592,35
7593,34
7594,34
7595,34
7596,34
7597,34
7598,35
7599,35
7600,34
7601,34
7602,35
7603,35
7604,35
7605,35
7606,34
7607,34
7608,34
7609,34
7610,34
7611,34
7612,35
7613,34
7614,34
7615,34
7616,34
7617,34
7618,35
7619,35
7620,34
7621,34
7622,34
7623,34
7624,34
7625,34
7626,34
7627,34
7628,34
7629,34
7630,34
7631,34
7632,34
7633,34
7634,34
7635,35
7636,35
7637,34
7638,34
7639,35
7640,34
7641,34
7642,34
7643,34
7644,34
7645,35
7646,35
7647,35
7648,35
7649,35
7650,35
7651,35
7652,35
7653,36
7654,36
7655,36
7656,36
7657,36
7658,36
7659,36
7660,36
7661,36
7662,35
7663,36
7664,36
7665,36
7666,35
7667,35
7668,35
7669,35
7670,35
7671,35
7672,35
7673,36
7674,36
7675,35
7676,35
7677,35
7678,35
7679,35
7680,34
7681,34
7682,34
7683,34
7684,34
7685,34
7686,34
7687,34
7688,34
7689,34
7690,34
7691,34
7692,34
7693,34
7694,34
7695,34
7696,34
7697,34
7698,34
7699,34
7700,34
7701,34
7702,34
7703,34
7704,34
7705,34
7706,34
7707,34
7708,34
7709,34
7710,34
7711,34
7712,34
7713,34
7714,34
7715,34
7716,34
7717,34
7718,34
7719,34
7720,34
7721,34
7722,34
7723,34
7724,34
7725,34
7726,34
7727,34
7728,34
7729,34
7730,34
7731,34
7732,34
7733,34
7734,34
7735,34
7736,34
7737,34
7738,34
7739,34
7740,34
7741,34
7742,34
7743,34
7744,34
7745,34
7746,34
7747,34
7748,34
7749,34
7750,34
7751,34
7752,34
7753,34
7754,34
7755,34
7756,35
7757,35
7758,35
7759,35
7760,35
7761,35
7762,35
7763,35
7764,34
7765,34
7766,34
7767,34
7768,34
7769,34
7770,33
7771,33
7772,33
7773,33
7774,33
7775,33
7776,33
7777,33
7778,33
7779,33
7780,33
7781,33
7782,33
7783,33
7784,33
7785,33
7786,33
7787,33
7788,33
7789,33
7790,33
7791,33
7792,33
7793,33
7794,33
7795,33
7796,33
7797,33
7798,33
7799,33
7800,33
7801,33
7802,33
7803,34
7804,33
7805,33
7806,33
7807,33
7808,33
7809,33
7810,33
7811,33
7812,34
7813,34
7814,34
7815,34
7816,33
7817,33
7818,33
7819,33
7820,33
7821,33
7822,33
7823,33
7824,33
7825,33
7826,33
7827,33
7828,33
7829,33
7830,33
7831,33
7832,33
7833,33
7834,33
7835,33
7836,33
7837,33
7838,33
7839,33
7840,33
7841,33
7842,33
7843,33
7844,34
7845,33
7846,33
7847,33
7848,33
7849,33
7850,33
7851,33
7852,33
7853,33
7854,33
7855,33
7856,33
7857,33
7858,33
7859,33
7860,33
7861,33
7862,33
7863,33
7864,33
7865,33
7866,34
7867,34
7868,34
7869,33
7870,33
7871,33
7872,33
7873,33
7874,33
7875,33
7876,33
7877,33
7878,33
7879,33
7880,33
7881,33
7882,33
7883,33
7884,33
7885,33
7886,33
7887,33
7888,33
7889,33
7890,33
7891,33
7892,33
7893,34
7894,34
7895,34
7896,35
7897,34
7898,34
7899,34
7900,34
7901,34
7902,34
7903,34
7904,34
7905,34
7906,34
7907,34
7908,34
7909,34
7910,34
7911,34
7912,34
7913,33
7914,33
7915,33
7916,33
7917,33
7918,33
7919,33
7920,33
7921,33
7922,33
7923,33
7924,33
7925,33
7926,34
7927,34
7928,34
7929,34
7930,33
7931,33
7932,33
7933,33
7934,33
7935,33
7936,33
7937,33
7938,33
7939,33
7940,33
7941,33
7942,33
7943,33
7944,33
7945,33
7946,33
7947,34
7948,35
7949,36
7950,36
7951,34
7952,34
7953,34
7954,34
7955,34
7956,34
7957,33
7958,33
7959,33
7960,33
7961,33
7962,33
7963,33
7964,33
7965,33
7966,33
7967,33
7968,33
7969,33
7970,33
7971,33
7972,33
7973,33
7974,33
7975,33
7976,33
7977,33
7978,33
7979,33
7980,33
7981,33
7982,33
7983,33
7984,33
7985,33
7986,33
7987,33
7988,33
7989,33
7990,33
7991,33
7992,33
7993,34
7994,34
7995,34
7996,33
7997,33
7998,33
7999,33
8000,33
8001,34
8002,33
8003,33
8004,33
8005,33
8006,33
8007,33
8008,33
8009,33
8010,33
8011,33
8012,33
8013,33
8014,33
8015,33
8016,33
8017,33
8018,34
8019,34
8020,33
8021,32
8022,32
8023,33
8024,32
8025,32
8026,32
8027,32
8028,32
8029,32
8030,32
8031,32
8032,32
8033,32
8034,32
8035,32
8036,33
8037,33
8038,33
8039,33
8040,33
8041,32
8042,32
8043,32
8044,32
8045,32
8046,32
8047,32
8048,32
8049,32
8050,32
8051,33
8052,32
8053,32
8054,32
8055,32
8056,32
8057,32
8058,32
8059,32
8060,32
8061,32
8062,32
8063,32
8064,32
8065,32
8066,34
8067,32
8068,32
8069,32
8070,32
8071,32
8072,32
8073,32
8074,32
8075,32
8076,32
8077,32
8078,32
8079,32
8080,33
8081,32
8082,33
8083,33
8084,33
8085,34
8086,33
8087,33
8088,33
8089,33
8090,33
8091,33
8092,33
8093,33
8094,33
8095,34
8096,34
8097,33
8098,33
8099,33
8100,33
8101,33
8102,33
8103,33
8104,33
8105,33
8106,33
8107,33
8108,34
8109,34
8110,33
8111,34
8112,34
8113,34
8114,33
8115,33
8116,33
8117,33
8118,33
8119,33
8120,33
8121,33
8122,33
8123,33
8124,33
8125,33
8126,33
8127,33
8128,33
8129,34
8130,34
8131,34
8132,34
8133,33
8134,34
8135,34
8136,34
8137,34
8138,33
8139,33
8140,33
8141,33
8142,33
8143,33
8144,33
8145,33
8146,33
8147,33
8148,33
8149,33
8150,33
8151,33
8152,33
8153,33
8154,33
8155,33
8156,33
8157,33
8158,33
8159,33
8160,33
8161,33
8162,33
8163,33
8164,33
8165,33
8166,33
8167,34
8168,33
8169,33
8170,33
8171,33
8172,33
8173,33
8174,33
8175,33
8176,33
8177,33
8178,33
8179,33
8180,33
8181,33
8182,33
8183,33
8184,33
8185,33
8186,33
8187,33
8188,33
8189,33
8190,33
8191,34
8192,33
8193,33
8194,33
8195,33
8196,33
8197,33
8198,33
8199,34
8200,33
8201,33
8202,33
8203,33
8204,33
8205,33
8206,34
8207,33
8208,33
8209,33
8210,33
8211,33
8212,33
8213,33
8214,33
8215,33
8216,33
8217,33
8218,33
8219,33
8220,33
8221,34
8222,34
8223,34
8224,34
8225,34
8226,34
8227,34
8228,34
8229,34
8230,34
8231,34
8232,34
8233,35
8234,35
8235,35
8236,34
8237,34
8238,34
8239,34
8240,34
8241,34
8242,34
8243,34
8244,34
8245,34
8246,34
8247,34
8248,34
8249,34
8250,34
8251,34
8252,34
8253,34
8254,34
8255,34
8256,34
8257,34
8258,34
8259,34
8260,34
8261,33
8262,33
8263,33
8264,33
8265,33
8266,33
8267,33
8268,33
8269,33
8270,34
8271,34
8272,34
8273,34
8274,34
8275,34
8276,35
8277,35
8278,36
8279,36
8280,35
8281,34
8282,34
8283,34
8284,35
8285,35
8286,35
8287,36
8288,35
8289,36
8290,35
8291,35
8292,35
8293,35
8294,35
8295,35
8296,36
8297,36
8298,35
8299,35
8300,35
8301,34
8302,34
8303,34
8304,34
8305,34
8306,34
8307,34
8308,34
8309,34
8310,35
8311,34
8312,35
8313,35
8314,35
8315,35
8316,35
8317,35
8318,34
8319,34
8320,34
8321,34
8322,34
8323,34
8324,34
8325,34
8326,33
8327,33
8328,33
8329,33
8330,33
8331,33
8332,33
8333,33
8334,33
8335,33
8336,33
8337,33
8338,33
8339,33
8340,33
8341,33
8342,33
8343,33
8344,33
8345,34
8346,34
8347,34
8348,34
8349,34
8350,33
8351,33
8352