1,3
2,3
3,3
4,3
5,3
6,3
7,3
8,3
9,3
10,3
11,4
12,3
13,3
14,4
15,4
16,4
17,4
18,4
19,4
20,4
21,4
22,4
23,5
24,5
25,5
26,5
27,5
28,5
29,5
30,5
31,5
32,5
33,6
34,5
35,5
36,5
37,5
38,5
39,5
40,5
41,5
42,5
43,5
44,5
45,5
46,5
47,5
48,5
49,5
50,5
51,5
52,5
53,5
54,5
55,5
56,5
57,5
58,5
59,5
60,5
61,5
62,5
63,5
64,5
65,5
66,5
67,5
68,5
69,5
70,5
71,5
72,5
73,5
74,5
75,5
76,5
77,5
78,5
79,6
80,5
81,5
82,5
83,5
84,5
85,5
86,5
87,5
88,5
89,5
90,5
91,5
92,5
93,5
94,5
95,5
96,5
97,5
98,5
99,5
100,5
101,5
102,5
103,5
104,5
105,5
106,5
107,5
108,5
109,5
110,5
111,5
112,5
113,5
114,5
115,5
116,5
117,5
118,5
119,5
120,5
121,5
122,5
123,5
124,5
125,5
126,5
127,5
128,5
129,5
130,5
131,5
132,5
133,5
134,5
135,5
136,5
137,5
138,5
139,5
140,5
141,5
142,5
143,5
144,5
145,5
146,5
147,5
148,5
149,5
150,5
151,5
152,5
153,6
154,6
155,6
156,8
157,8
158,8
159,7
160,8
161,8
162,8
163,8
164,9
165,8
166,9
167,9
168,9
169,9
170,9
171,9
172,9
173,9
174,9
175,9
176,9
177,9
178,10
179,10
180,9
181,9
182,9
183,9
184,9
185,9
186,10
187,9
188,9
189,9
190,9
191,9
192,9
193,9
194,9
195,9
196,9
197,9
198,9
199,9
200,9
201,9
202,9
203,9
204,9
205,9
206,9
207,9
208,9
209,9
210,9
211,9
212,9
213,9
214,9
215,9
216,9
217,9
218,9
219,9
220,9
221,9
222,9
223,9
224,9
225,9
226,9
227,9
228,9
229,9
230,9
231,9
232,9
233,9
234,9
235,9
236,9
237,10
238,10
239,10
240,10
241,10
242,10
243,10
244,10
245,10
246,10
247,10
248,10
249,10
250,10
251,10
252,10
253,10
254,10
255,10
256,10
257,10
258,10
259,10
260,11
261,11
262,11
263,11
264,10
265,10
266,10
267,10
268,10
269,10
270,10
271,10
272,10
273,10
274,10
275,10
276,10
277,10
278,10
279,10
280,10
281,10
282,10
283,10
284,11
285,11
286,11
287,11
288,11
289,11
290,11
291,11
292,11
293,11
294,11
295,11
296,11
297,12
298,13
299,12
300,12
301,12
302,13
303,12
304,12
305,12
306,12
307,12
308,12
309,13
310,13
311,13
312,13
313,13
314,13
315,13
316,13
317,14
318,14
319,14
320,14
321,15
322,15
323,15
324,16
325,16
326,16
327,16
328,16
329,16
330,16
331,16
332,16
333,16
334,15
335,15
336,15
337,15
338,15
339,15
340,15
341,15
342,15
343,15
344,15
345,15
346,15
347,15
348,15
349,15
350,15
351,15
352,15
353,15
354,15
355,15
356,15
357,15
358,15
359,15
360,15
361,15
362,15
363,15
364,15
365,15
366,15
367,15
368,15
369,15
370,16
371,16
372,16
373,15
374,15
375,15
376,15
377,15
378,16
379,15
380,15
381,15
382,15
383,15
384,15
385,15
386,16
387,16
388,16
389,16
390,15
391,15
392,15
393,15
394,15
395,15
396,15
397,15
398,15
399,15
400,16
401,16
402,17
403,17
404,16
405,16
406,16
407,16
408,16
409,16
410,16
411,16
412,16
413,16
414,16
415,16
416,16
417,16
418,16
419,16
420,16
421,16
422,16
423,16
424,16
425,16
426,16
427,16
428,16
429,16
430,15
431,16
432,16
433,15
434,15
435,15
436,16
437,16
438,15
439,15
440,15
441,16
442,15
443,15
444,15
445,15
446,16
447,15
448,15
449,15
450,15
451,15
452,15
453,15
454,15
455,15
456,15
457,16
458,16
459,15
460,15
461,15
462,15
463,15
464,15
465,15
466,15
467,15
468,15
469,16
470,16
471,16
472,15
473,15
474,15
475,15
476,15
477,15
478,15
479,15
480,15
481,15
482,15
483,15
484,15
485,15
486,15
487,15
488,15
489,16
490,15
491,15
492,15
493,15
494,16
495,16
496,16
497,15
498,15
499,15
500,15
501,15
502,15
503,15
504,15
505,15
506,15
507,15
508,15
509,15
510,15
511,15
512,15
513,16
514,15
515,15
516,15
517,15
518,15
519,15
520,15
521,15
522,15
523,16
524,16
525,17
526,16
527,16
528,16
529,16
530,16
531,16
532,16
533,16
534,17
535,17
536,16
537,16
538,16
539,16
540,16
541,16
542,16
543,16
544,16
545,16
546,16
547,16
548,16
549,16
550,17
551,16
552,16
553,16
554,16
555,16
556,16
557,16
558,17
559,17
560,17
561,16
562,16
563,16
564,16
565,16
566,16
567,16
568,16
569,17
570,17
571,16
572,16
573,16
574,16
575,16
576,16
577,16
578,16
579,16
580,16
581,17
582,17
583,17
584,17
585,17
586,18
587,16
588,16
589,16
590,16
591,16
592,16
593,16
594,16
595,16
596,16
597,16
598,17
599,17
600,17
601,17
602,17
603,17
604,17
605,16
606,16
607,16
608,16
609,16
610,16
611,16
612,16
613,16
614,16
615,16
616,16
617,16
618,16
619,16
620,16
621,16
622,16
623,16
624,16
625,16
626,16
627,16
628,16
629,16
630,16
631,16
632,16
633,16
634,16
635,16
636,16
637,16
638,16
639,17
640,17
641,16
642,16
643,16
644,16
645,16
646,16
647,16
648,16
649,16
650,16
651,16
652,16
653,16
654,16
655,16
656,16
657,16
658,16
659,17
660,17
661,16
662,16
663,16
664,16
665,16
666,16
667,16
668,16
669,16
670,16
671,16
672,16
673,16
674,16
675,16
676,16
677,16
678,16
679,16
680,16
681,16
682,16
683,16
684,16
685,16
686,16
687,16
688,16
689,16
690,16
691,16
692,16
693,16
694,16
695,17
696,16
697,17
698,17
699,16
700,16
701,16
702,16
703,16
704,16
705,16
706,16
707,16
708,16
709,16
710,16
711,16
712,16
713,16
714,16
715,16
716,16
717,16
718,16
719,16
720,16
721,17
722,17
723,17
724,17
725,17
726,18
727,18
728,18
729,18
730,18
731,18
732,18
733,18
734,18
735,18
736,18
737,18
738,18
739,18
740,18
741,18
742,18
743,19
744,19
745,19
746,19
747,18
748,18
749,18
750,18
751,18
752,18
753,18
754,18
755,18
756,18
757,18
758,18
759,18
760,18
761,18
762,18
763,18
764,18
765,18
766,18
767,18
768,18
769,18
770,18
771,18
772,18
773,18
774,19
775,18
776,18
777,18
778,18
779,18
780,18
781,20
782,20
783,20
784,20
785,20
786,20
787,20
788,19
789,19
790,20
791,20
792,20
793,20
794,20
795,20
796,20
797,20
798,20
799,20
800,20
801,20
802,20
803,20
804,19
805,19
806,19
807,19
808,19
809,19
810,20
811,21
812,21
813,21
814,20
815,21
816,21
817,21
818,21
819,22
820,21
821,20
822,20
823,19
824,19
825,19
826,19
827,19
828,20
829,19
830,19
831,19
832,19
833,20
834,19
835,19
836,19
837,19
838,19
839,19
840,19
841,19
842,19
843,19
844,19
845,20
846,20
847,20
848,19
849,19
850,20
851,19
852,19
853,19
854,19
855,19
856,19
857,19
858,19
859,19
860,19
861,19
862,19
863,20
864,20
865,20
866,20
867,20
868,21
869,20
870,20
871,20
872,20
873,20
874,20
875,20
876,20
877,20
878,20
879,20
880,20
881,20
882,20
883,20
884,20
885,20
886,20
887,20
888,20
889,20
890,20
891,19
892,19
893,19
894,19
895,19
896,19
897,19
898,19
899,19
900,19
901,19
902,19
903,19
904,19
905,19
906,19
907,19
908,20
909,19
910,19
911,19
912,19
913,19
914,19
915,19
916,19
917,19
918,19
919,19
920,19
921,19
922,19
923,19
924,19
925,19
926,20
927,19
928,19
929,19
930,19
931,19
932,19
933,19
934,19
935,19
936,20
937,20
938,20
939,20
940,20
941,20
942,20
943,19
944,19
945,19
946,19
947,19
948,19
949,19
950,19
951,19
952,19
953,19
954,19
955,19
956,19
957,19
958,19
959,19
960,19
961,19
962,19
963,20
964,20
965,20
966,20
967,20
968,20
969,19
970,19
971,19
972,19
973,19
974,19
975,19
976,19
977,19
978,19
979,19
980,19
981,19
982,20
983,21
984,21
985,19
986,19
987,19
988,19
989,19
990,19
991,19
992,19
993,19
994,19
995,19
996,19
997,19
998,19
999,19
1000,19
1001,19
1002,19
1003,19
1004,19
1005,19
1006,19
1007,19
1008,20
1009,20
1010,21
1011,20
1012,21
1013,20
1014,20
1015,20
1016,20
1017,21
1018,20
1019,20
1020,19
1021,19
1022,19
1023,20
1024,20
1025,19
1026,19
1027,19
1028,19
1029,19
1030,19
1031,19
1032,19
1033,19
1034,19
1035,19
1036,20
1037,19
1038,19
1039,19
1040,19
1041,19
1042,19
1043,19
1044,19
1045,19
1046,19
1047,19
1048,20
1049,20
1050,20
1051,19
1052,19
1053,19
1054,19
1055,19
1056,19
1057,19
1058,19
1059,19
1060,19
1061,19
1062,19
1063,19
1064,20
1065,20
1066,19
1067,19
1068,19
1069,19
1070,19
1071,19
1072,19
1073,19
1074,19
1075,19
1076,19
1077,19
1078,19
1079,19
1080,19
1081,19
1082,19
1083,20
1084,20
1085,20
1086,20
1087,20
1088,21
1089,21
1090,21
1091,20
1092,21
1093,20
1094,20
1095,20
1096,21
1097,21
1098,21
1099,21
1100,20
1101,20
1102,21
1103,21
1104,21
1105,21
1106,21
1107,21
1108,22
1109,22
1110,22
1111,21
1112,21
1113,21
1114,21
1115,21
1116,20
1117,20
1118,20
1119,20
1120,20
1121,20
1122,20
1123,20
1124,20
1125,20
1126,20
1127,20
1128,20
1129,20
1130,20
1131,20
1132,20
1133,20
1134,20
1135,20
1136,20
1137,20
1138,20
1139,21
1140,21
1141,21
1142,21
1143,21
1144,21
1145,21
1146,21
1147,21
1148,21
1149,21
1150,21
1151,21
1152,21
1153,21
1154,21
1155,21
1156,21
1157,21
1158,20
1159,20
1160,20
1161,20
1162,20
1163,20
1164,20
1165,20
1166,20
1167,21
1168,21
1169,20
1170,20
1171,20
1172,20
1173,20
1174,20
1175,20
1176,20
1177,20
1178,20
1179,20
1180,20
1181,20
1182,20
1183,20
1184,20
1185,20
1186,20
1187,20
1188,20
1189,20
1190,20
1191,20
1192,20
1193,20
1194,20
1195,21
1196,21
1197,20
1198,21
1199,20
1200,20
1201,20
1202,20
1203,20
1204,20
1205,20
1206,20
1207,20
1208,20
1209,20
1210,20
1211,20
1212,20
1213,20
1214,20
1215,20
1216,20
1217,20
1218,20
1219,20
1220,20
1221,20
1222,20
1223,20
1224,20
1225,20
1226,20
1227,20
1228,20
1229,20
1230,20
1231,20
1232,20
1233,20
1234,21
1235,20
1236,21
1237,21
1238,21
1239,21
1240,21
1241,21
1242,20
1243,20
1244,20
1245,20
1246,20
1247,20
1248,20
1249,20
1250,20
1251,20
1252,20
1253,20
1254,20
1255,20
1256,20
1257,20
1258,20
1259,20
1260,20
1261,21
1262,21
1263,20
1264,20
1265,20
1266,20
1267,20
1268,20
1269,20
1270,20
1271,20
1272,20
1273,20
1274,20
1275,20
1276,20
1277,20
1278,20
1279,20
1280,20
1281,20
1282,20
1283,20
1284,20
1285,20
1286,20
1287,20
1288,21
1289,21
1290,20
1291,21
1292,21
1293,21
1294,22
1295,22
1296,22
1297,22
1298,22
1299,21
1300,21
1301,21
1302,22
1303,21
1304,21
1305,22
1306,21
1307,21
1308,21
1309,21
1310,22
1311,21
1312,21
1313,21
1314,21
1315,22
1316,21
1317,20
1318,20
1319,20
1320,20
1321,20
1322,20
1323,20
1324,20
1325,21
1326,21
1327,21
1328,21
1329,22
1330,22
1331,21
1332,22
1333,22
1334,21
1335,21
1336,21
1337,21
1338,21
1339,21
1340,22
1341,21
1342,21
1343,21
1344,20
1345,20
1346,20
1347,20
1348,21
1349,21
1350,22
1351,21
1352,20
1353,20
1354,20
1355,20
1356,20
1357,21
1358,21
1359,21
1360,21
1361,21
1362,22
1363,21
1364,22
1365,20
1366,20
1367,21
1368,21
1369,20
1370,20
1371,20
1372,20
1373,20
1374,20
1375,20
1376,20
1377,20
1378,20
1379,20
1380,20
1381,20
1382,20
1383,20
1384,20
1385,20
1386,20
1387,20
1388,20
1389,20
1390,20
1391,20
1392,20
1393,20
1394,20
1395,20
1396,20
1397,20
1398,21
1399,21
1400,21
1401,21
1402,22
1403,21
1404,22
1405,21
1406,21
1407,20
1408,20
1409,20
1410,20
1411,20
1412,20
1413,20
1414,20
1415,20
1416,20
1417,20
1418,20
1419,20
1420,20
1421,20
1422,20
1423,20
1424,20
1425,20
1426,20
1427,20
1428,20
1429,20
1430,20
1431,20
1432,20
1433,21
1434,20
1435,20
1436,20
1437,20
1438,20
1439,20
1440,20
1441,20
1442,20
1443,21
1444,21
1445,21
1446,21
1447,21
1448,21
1449,21
1450,21
1451,21
1452,21
1453,21
1454,21
1455,21
1456,21
1457,21
1458,21
1459,21
1460,21
1461,21
1462,21
1463,21
1464,21
1465,21
1466,21
1467,21
1468,21
1469,21
1470,21
1471,21
1472,21
1473,21
1474,21
1475,21
1476,21
1477,21
1478,21
1479,21
1480,21
1481,21
1482,21
1483,21
1484,21
1485,21
1486,21
1487,21
1488,21
1489,21
1490,21
1491,21
1492,21
1493,21
1494,21
1495,21
1496,21
1497,21
1498,21
1499,21
1500,21
1501,21
1502,22
1503,21
1504,21
1505,21
1506,21
1507,21
1508,21
1509,21
1510,21
1511,21
1512,21
1513,22
1514,21
1515,21
1516,21
1517,21
1518,21
1519,21
1520,21
1521,21
1522,21
1523,21
1524,21
1525,21
1526,21
1527,21
1528,21
1529,22
1530,21
1531,21
1532,21
1533,21
1534,21
1535,21
1536,21
1537,21
1538,21
1539,21
1540,21
1541,21
1542,21
1543,22
1544,21
1545,21
1546,21
1547,21
1548,21
1549,21
1550,21
1551,22
1552,22
1553,22
1554,21
1555,21
1556,21
1557,21
1558,21
1559,21
1560,21
1561,21
1562,21
1563,21
1564,21
1565,21
1566,21
1567,21
1568,21
1569,21
1570,21
1571,21
1572,21
1573,21
1574,21
1575,21
1576,21
1577,21
1578,21
1579,22
1580,21
1581,21
1582,21
1583,21
1584,21
1585,21
1586,21
1587,21
1588,21
1589,21
1590,21
1591,21
1592,21
1593,21
1594,21
1595,21
1596,21
1597,22
1598,22
1599,22
1600,23
1601,22
1602,22
1603,22
1604,22
1605,21
1606,21
1607,21
1608,21
1609,21
1610,21
1611,21
1612,21
1613,21
1614,21
1615,21
1616,21
1617,21
1618,21
1619,21
1620,21
1621,21
1622,21
1623,21
1624,21
1625,21
1626,21
1627,21
1628,21
1629,21
1630,21
1631,21
1632,21
1633,21
1634,21
1635,21
1636,21
1637,21
1638,21
1639,21
1640,21
1641,21
1642,21
1643,21
1644,21
1645,21
1646,21
1647,21
1648,21
1649,22
1650,21
1651,21
1652,21
1653,21
1654,21
1655,21
1656,21
1657,21
1658,21
1659,21
1660,21
1661,21
1662,21
1663,22
1664,22
1665,22
1666,21
1667,21
1668,21
1669,21
1670,21
1671,21
1672,21
1673,21
1674,21
1675,21
1676,21
1677,21
1678,21
1679,21
1680,21
1681,21
1682,21
1683,21
1684,21
1685,22
1686,22
1687,21
1688,21
1689,21
1690,21
1691,22
1692,21
1693,22
1694,22
1695,22
1696,22
1697,22
1698,22
1699,23
1700,22
1701,21
1702,21
1703,21
1704,21
1705,21
1706,21
1707,21
1708,21
1709,21
1710,21
1711,21
1712,21
1713,21
1714,21
1715,21
1716,21
1717,22
1718,23
1719,21
1720,21
1721,21
1722,21
1723,21
1724,21
1725,21
1726,22
1727,21
1728,21
1729,21
1730,21
1731,21
1732,21
1733,21
1734,21
1735,21
1736,21
1737,21
1738,21
1739,21
1740,22
1741,21
1742,21
1743,21
1744,21
1745,21
1746,21
1747,21
1748,21
1749,21
1750,21
1751,21
1752,21
1753,21
1754,21
1755,22
1756,21
1757,21
1758,21
1759,21
1760,21
1761,21
1762,21
1763,21
1764,21
1765,21
1766,21
1767,21
1768,21
1769,21
1770,21
1771,21
1772,21
1773,21
1774,21
1775,21
1776,21
1777,21
1778,21
1779,21
1780,21
1781,21
1782,21
1783,21
1784,21
1785,21
1786,21
1787,21
1788,21
1789,21
1790,21
1791,21
1792,21
1793,21
1794,21
1795,21
1796,21
1797,21
1798,21
1799,21
1800,21
1801,21
1802,21
1803,21
1804,21
1805,21
1806,21
1807,21
1808,21
1809,21
1810,21
1811,21
1812,22
1813,21
1814,21
1815,21
1816,21
1817,21
1818,21
1819,21
1820,21
1821,21
1822,22
1823,21
1824,21
1825,22
1826,22
1827,22
1828,21
1829,21
1830,21
1831,21
1832,21
1833,21
1834,21
1835,21
1836,21
1837,21
1838,21
1839,21
1840,21
1841,21
1842,21
1843,21
1844,21
1845,21
1846,21
1847,21
1848,21
1849,21
1850,21
1851,21
1852,21
1853,21
1854,21
1855,21
1856,21
1857,21
1858,21
1859,21
1860,21
1861,21
1862,21
1863,21
1864,21
1865,21
1866,21
1867,21
1868,21
1869,21
1870,21
1871,21
1872,21
1873,21
1874,21
1875,21
1876,22
1877,21
1878,21
1879,21
1880,21
1881,21
1882,22
1883,21
1884,21
1885,21
1886,21
1887,21
1888,21
1889,21
1890,21
1891,21
1892,21
1893,21
1894,21
1895,21
1896,21
1897,21
1898,21
1899,21
1900,21
1901,21
1902,21
1903,21
1904,21
1905,21
1906,21
1907,21
1908,21
1909,21
1910,21
1911,21
1912,21
1913,21
1914,21
1915,21
1916,21
1917,21
1918,21
1919,21
1920,21
1921,21
1922,21
1923,21
1924,22
1925,22
1926,22
1927,22
1928,22
1929,23
1930,23
1931,23
1932,23
1933,23
1934,24
1935,23
1936,22
1937,22
1938,22
1939,22
1940,22
1941,22
1942,22
1943,21
1944,21
1945,21
1946,22
1947,22
1948,22
1949,22
1950,22
1951,22
1952,22
1953,22
1954,22
1955,22
1956,22
1957,22
1958,22
1959,22
1960,22
1961,22
1962,22
1963,22
1964,22
1965,22
1966,22
1967,22
1968,22
1969,22
1970,22
1971,21
1972,21
1973,21
1974,21
1975,22
1976,21
1977,21
1978,21
1979,21
1980,21
1981,21
1982,21
1983,21
1984,21
1985,21
1986,21
1987,21
1988,21
1989,21
1990,21
1991,21
1992,21
1993,21
1994,21
1995,21
1996,21
1997,21
1998,21
1999,21
2000,21
2001,21
2002,21
2003,21
2004,22
2005,21
2006,21
2007,21
2008,21
2009,21
2010,21
2011,21
2012,21
2013,21
2014,21
2015,21
2016,21
2017,21
2018,21
2019,21
2020,21
2021,21
2022,21
2023,21
2024,21
2025,21
2026,21
2027,21
2028,21
2029,21
2030,21
2031,21
2032,21
2033,21
2034,21
2035,21
2036,21
2037,21
2038,21
2039,21
2040,21
2041,21
2042,21
2043,21
2044,21
2045,21
2046,21
2047,21
2048,21
2049,21
2050,22
2051,21
2052,21
2053,21
2054,22
2055,21
2056,21
2057,21
2058,21
2059,21
2060,22
2061,22
2062,22
2063,22
2064,22
2065,22
2066,22
2067,22
2068,22
2069,22
2070,22
2071,22
2072,22
2073,22
2074,22
2075,22
2076,22
2077,22
2078,22
2079,22
2080,22
2081,22
2082,22
2083,22
2084,22
2085,22
2086,22
2087,22
2088,22
2089,22
2090,22
2091,22
2092,22
2093,23
2094,23
2095,23
2096,23
2097,23
2098,23
2099,23
2100,23
2101,23
2102,24
2103,24
2104,24
2105,24
2106,23
2107,23
2108,23
2109,23
2110,23
2111,22
2112,22
2113,22
2114,22
2115,22
2116,22
2117,22
2118,22
2119,22
2120,22
2121,22
2122,22
2123,23
2124,23
2125,23
2126,22
2127,22
2128,22
2129,22
2130,22
2131,22
2132,22
2133,22
2134,22
2135,22
2136,22
2137,22
2138,22
2139,22
2140,22
2141,22
2142,22
2143,22
2144,22
2145,22
2146,22
2147,22
2148,22
2149,22
2150,22
2151,22
2152,22
2153,23
2154,22
2155,22
2156,22
2157,22
2158,22
2159,22
2160,22
2161,22
2162,22
2163,22
2164,22
2165,22
2166,22
2167,22
2168,22
2169,22
2170,22
2171,22
2172,22
2173,22
2174,22
2175,22
2176,22
2177,22
2178,22
2179,22
2180,22
2181,22
2182,22
2183,22
2184,22
2185,22
2186,22
2187,22
2188,22
2189,22
2190,22
2191,22
2192,23
2193,23
2194,23
2195,23
2196,23
2197,23
2198,22
2199,22
2200,22
2201,22
2202,22
2203,22
2204,22
2205,22
2206,22
2207,22
2208,22
2209,22
2210,22
2211,22
2212,22
2213,22
2214,22
2215,22
2216,22
2217,22
2218,22
2219,22
2220,22
2221,22
2222,22
2223,22
2224,22
2225,23
2226,22
2227,22
2228,23
2229,22
2230,22
2231,23
2232,23
2233,23
2234,23
2235,23
2236,22
2237,22
2238,22
2239,22
2240,23
2241,22
2242,22
2243,22
2244,22
2245,22
2246,23
2247,24
2248,22
2249,22
2250,22
2251,22
2252,22
2253,22
2254,22
2255,23
2256,23
2257,23
2258,23
2259,22
2260,22
2261,22
2262,22
2263,22
2264,22
2265,22
2266,22
2267,22
2268,22
2269,22
2270,22
2271,22
2272,22
2273,22
2274,23
2275,23
2276,23
2277,23
2278,23
2279,22
2280,22
2281,22
2282,22
2283,22
2284,23
2285,23
2286,23
2287,23
2288,23
2289,23
2290,23
2291,23
2292,23
2293,23
2294,23
2295,23
2296,23
2297,23
2298,23
2299,23
2300,23
2301,23
2302,23
2303,23
2304,23
2305,23
2306,23
2307,23
2308,23
2309,23
2310,23
2311,23
2312,23
2313,23
2314,23
2315,23
2316,23
2317,23
2318,23
2319,23
2320,23
2321,23
2322,23
2323,23
2324,23
2325,23
2326,23
2327,23
2328,23
2329,23
2330,23
2331,23
2332,23
2333,23
2334,23
2335,23
2336,23
2337,24
2338,24
2339,24
2340,23
2341,23
2342,23
2343,23
2344,23
2345,23
2346,23
2347,23
2348,23
2349,23
2350,23
2351,23
2352,23
2353,23
2354,23
2355,23
2356,23
2357,23
2358,23
2359,23
2360,23
2361,23
2362,23
2363,23
2364,23
2365,23
2366,23
2367,23
2368,23
2369,23
2370,23
2371,23
2372,23
2373,23
2374,23
2375,23
2376,23
2377,23
2378,23
2379,23
2380,23
2381,23
2382,24
2383,23
2384,23
2385,23
2386,23
2387,23
2388,23
2389,23
2390,23
2391,23
2392,23
2393,23
2394,23
2395,23
2396,24
2397,23
2398,23
2399,23
2400,23
2401,24
2402,23
2403,23
2404,23
2405,23
2406,23
2407,23
2408,23
2409,23
2410,23
2411,24
2412,24
2413,24
2414,24
2415,24
2416,24
2417,24
2418,24
2419,24
2420,25
2421,24
2422,24
2423,24
2424,24
2425,24
2426,24
2427,24
2428,24
2429,24
2430,24
2431,24
2432,24
2433,24
2434,24
2435,24
2436,24
2437,24
2438,24
2439,24
2440,24
2441,24
2442,24
2443,24
2444,24
2445,24
2446,24
2447,24
2448,24
2449,24
2450,25
2451,25
2452,25
2453,25
2454,25
2455,26
2456,25
2457,25
2458,24
2459,24
2460,24
2461,25
2462,26
2463,26
2464,26
2465,26
2466,25
2467,24
2468,24
2469,24
2470,24
2471,25
2472,25
2473,25
2474,25
2475,24
2476,24
2477,24
2478,24
2479,24
2480,24
2481,24
2482,25
2483,25
2484,24
2485,24
2486,24
2487,24
2488,24
2489,24
2490,24
2491,24
2492,24
2493,24
2494,24
2495,24
2496,24
2497,24
2498,24
2499,24
2500,24
2501,24
2502,24
2503,25
2504,24
2505,24
2506,24
2507,24
2508,24
2509,24
2510,24
2511,24
2512,24
2513,24
2514,24
2515,24
2516,24
2517,24
2518,24
2519,24
2520,24
2521,24
2522,24
2523,24
2524,24
2525,24
2526,24
2527,24
2528,24
2529,24
2530,24
2531,24
2532,25
2533,25
2534,25
2535,25
2536,25
2537,25
2538,25
2539,25
2540,26
2541,26
2542,26
2543,26
2544,26
2545,25
2546,25
2547,26
2548,26
2549,27
2550,27
2551,26
2552,27
2553,26
2554,26
2555,26
2556,27
2557,27
2558,27
2559,27
2560,27
2561,26
2562,26
2563,27
2564,26
2565,26
2566,26
2567,26
2568,26
2569,26
2570,26
2571,26
2572,26
2573,26
2574,26
2575,27
2576,27
2577,27
2578,27
2579,27
2580,27
2581,27
2582,27
2583,27
2584,27
2585,27
2586,27
2587,27
2588,27
2589,27
2590,27
2591,27
2592,27
2593,27
2594,27
2595,27
2596,27
2597,27
2598,27
2599,27
2600,27
2601,27
2602,27
2603,27
2604,27
2605,28
2606,27
2607,27
2608,27
2609,27
2610,27
2611,27
2612,27
2613,28
2614,28
2615,28
2616,29
2617,28
2618,28
2619,28
2620,28
2621,27
2622,27
2623,27
2624,27
2625,27
2626,27
2627,27
2628,27
2629,27
2630,27
2631,27
2632,27
2633,27
2634,27
2635,27
2636,27
2637,27
2638,27
2639,27
2640,27
2641,28
2642,28
2643,28
2644,27
2645,27
2646,27
2647,27
2648,27
2649,27
2650,27
2651,27
2652,27
2653,27
2654,27
2655,27
2656,27
2657,27
2658,27
2659,27
2660,27
2661,27
2662,27
2663,27
2664,27
2665,27
2666,27
2667,27
2668,27
2669,27
2670,27
2671,27
2672,27
2673,27
2674,27
2675,27
2676,28
2677,27
2678,27
2679,27
2680,27
2681,27
2682,27
2683,27
2684,28
2685,28
2686,28
2687,28
2688,29
2689,29
2690,29
2691,29
2692,29
2693,29
2694,29
2695,29
2696,30
2697,30
2698,30
2699,30
2700,29
2701,29
2702,29
2703,28
2704,28
2705,27
2706,27
2707,27
2708,27
2709,27
2710,27
2711,27
2712,27
2713,27
2714,27
2715,27
2716,27
2717,27
2718,27
2719,27
2720,28
2721,28
2722,28
2723,28
2724,27
2725,27
2726,27
2727,27
2728,28
2729,28
2730,27
2731,27
2732,27
2733,27
2734,27
2735,28
2736,28
2737,28
2738,28
2739,28
2740,28
2741,28
2742,28
2743,28
2744,28
2745,28
2746,28
2747,29
2748,29
2749,29
2750,29
2751,29
2752,29
2753,28
2754,28
2755,28
2756,28
2757,28
2758,27
2759,27
2760,27
2761,27
2762,27
2763,27
2764,27
2765,27
2766,27
2767,27
2768,27
2769,28
2770,27
2771,27
2772,27
2773,27
2774,27
2775,28
2776,27
2777,27
2778,27
2779,27
2780,27
2781,27
2782,27
2783,27
2784,27
2785,27
2786,27
2787,27
2788,27
2789,27
2790,27
2791,27
2792,27
2793,27
2794,27
2795,28
2796,28
2797,28
2798,28
2799,28
2800,28
2801,28
2802,28
2803,28
2804,28
2805,28
2806,28
2807,28
2808,28
2809,28
2810,28
2811,28
2812,28
2813,28
2814,28
2815,28
2816,28
2817,28
2818,29
2819,29
2820,29
2821,29
2822,29
2823,29
2824,29
2825,29
2826,29
2827,29
2828,29
2829,30
2830,29
2831,29
2832,29
2833,29
2834,29
2835,29
2836,29
2837,30
2838,30
2839,30
2840,29
2841,29
2842,29
2843,29
2844,29
2845,29
2846,29
2847,29
2848,29
2849,30
2850,30
2851,30
2852,30
2853,30
2854,30
2855,30
2856,29
2857,29
2858,29
2859,29
2860,29
2861,29
2862,29
2863,29
2864,29
2865,29
2866,29
2867,29
2868,29
2869,29
2870,29
2871,29
2872,29
2873,30
2874,30
2875,30
2876,30
2877,30
2878,30
2879,30
2880,30
2881,30
2882,30
2883,30
2884,30
2885,30
2886,30
2887,30
2888,30
2889,30
2890,30
2891,30
2892,30
2893,30
2894,29
2895,29
2896,29
2897,28
2898,28
2899,28
2900,28
2901,28
2902,29
2903,29
2904,29
2905,29
2906,29
2907,28
2908,28
2909,28
2910,28
2911,28
2912,29
2913,28
2914,28
2915,28
2916,28
2917,28
2918,28
2919,28
2920,28
2921,28
2922,28
2923,28
2924,28
2925,28
2926,28
2927,28
2928,28
2929,28
2930,28
2931,29
2932,29
2933,29
2934,28
2935,28
2936,28
2937,28
2938,28
2939,28
2940,28
2941,28
2942,28
2943,28
2944,28
2945,28
2946,28
2947,28
2948,28
2949,28
2950,28
2951,28
2952,28
2953,28
2954,28
2955,28
2956,28
2957,28
2958,28
2959,28
2960,28
2961,28
2962,28
2963,28
2964,28
2965,28
2966,28
2967,28
2968,28
2969,28
2970,29
2971,29
2972,28
2973,28
2974,28
2975,28
2976,28
2977,28
2978,28
2979,28
2980,28
2981,28
2982,28
2983,28
2984,28
2985,28
2986,28
2987,28
2988,28
2989,28
2990,28
2991,28
2992,28
2993,28
2994,28
2995,28
2996,28
2997,29
2998,28
2999,28
3000,28
3001,28
3002,28
3003,28
3004,28
3005,28
3006,28
3007,28
3008,28
3009,28
3010,28
3011,28
3012,28
3013,28
3014,28
3015,28
3016,28
3017,28
3018,28
3019,28
3020,29
3021,28
3022,28
3023,28
3024,28
3025,28
3026,28
3027,28
3028,28
3029,28
3030,28
3031,28
3032,28
3033,28
3034,29
3035,29
3036,29
3037,29
3038,29
3039,29
3040,29
3041,29
3042,29
3043,29
3044,29
3045,29
3046,29
3047,29
3048,29
3049,29
3050,29
3051,28
3052,28
3053,28
3054,28
3055,28
3056,28
3057,28
3058,28
3059,28
3060,28
3061,27
3062,27
3063,27
3064,28
3065,27
3066,27
3067,27
3068,27
3069,27
3070,27
3071,27
3072,27
3073,28
3074,27
3075,27
3076,27
3077,27
3078,27
3079,27
3080,27
3081,27
3082,27
3083,27
3084,28
3085,27
3086,27
3087,27
3088,27
3089,27
3090,28
3091,28
3092,28
3093,28
3094,28
3095,28
3096,28
3097,28
3098,28
3099,28
3100,28
3101,28
3102,28
3103,28
3104,28
3105,29
3106,29
3107,29
3108,29
3109,29
3110,29
3111,29
3112,29
3113,29
3114,29
3115,29
3116,28
3117,28
3118,28
3119,28
3120,28
3121,28
3122,28
3123,28
3124,28
3125,28
3126,28
3127,28
3128,28
3129,28
3130,28
3131,28
3132,28
3133,28
3134,28
3135,28
3136,28
3137,28
3138,28
3139,29
3140,28
3141,28
3142,28
3143,28
3144,28
3145,28
3146,28
3147,28
3148,28
3149,28
3150,28
3151,30
3152,29
3153,29
3154,29
3155,28
3156,28
3157,28
3158,28
3159,28
3160,28
3161,29
3162,28
3163,28
3164,28
3165,28
3166,28
3167,28
3168,28
3169,28
3170,28
3171,28
3172,28
3173,29
3174,28
3175,28
3176,28
3177,28
3178,28
3179,28
3180,28
3181,28
3182,28
3183,28
3184,28
3185,28
3186,29
3187,29
3188,29
3189,29
3190,28
3191,28
3192,28
3193,28
3194,29
3195,29
3196,28
3197,28
3198,28
3199,28
3200,28
3201,28
3202,28
3203,28
3204,28
3205,28
3206,28
3207,28
3208,28
3209,28
3210,28
3211,28
3212,28
3213,28
3214,29
3215,29
3216,28
3217,28
3218,28
3219,28
3220,28
3221,28
3222,28
3223,28
3224,28
3225,28
3226,28
3227,29
3228,29
3229,29
3230,29
3231,28
3232,28
3233,28
3234,28
3235,28
3236,28
3237,28
3238,28
3239,28
3240,28
3241,28
3242,28
3243,28
3244,28
3245,28
3246,28
3247,28
3248,28
3249,28
3250,28
3251,28
3252,28
3253,28
3254,28
3255,28
3256,28
3257,28
3258,28
3259,28
3260,28
3261,28
3262,28
3263,28
3264,28
3265,28
3266,28
3267,29
3268,29
3269,28
3270,28
3271,28
3272,28
3273,28
3274,28
3275,28
3276,28
3277,28
3278,28
3279,28
3280,28
3281,28
3282,28
3283,28
3284,28
3285,28
3286,28
3287,28
3288,28
3289,28
3290,28
3291,28
3292,28
3293,28
3294,29
3295,29
3296,29
3297,28
3298,28
3299,28
3300,28
3301,28
3302,28
3303,28
3304,28
3305,28
3306,28
3307,28
3308,28
3309,28
3310,28
3311,28
3312,29
3313,28
3314,28
3315,28
3316,28
3317,28
3318,28
3319,28
3320,28
3321,28
3322,28
3323,28
3324,28
3325,28
3326,28
3327,28
3328,28
3329,28
3330,28
3331,28
3332,28
3333,28
3334,28
3335,28
3336,28
3337,28
3338,28
3339,28
3340,28
3341,28
3342,28
3343,28
3344,28
3345,28
3346,28
3347,28
3348,28
3349,28
3350,28
3351,28
3352,28
3353,28
3354,28
3355,28
3356,28
3357,28
3358,28
3359,28
3360,28
3361,28
3362,28
3363,28
3364,28
3365,28
3366,28
3367,28
3368,28
3369,28
3370,28
3371,28
3372,28
3373,29
3374,28
3375,28
3376,28
3377,29
3378,29
3379,29
3380,28
3381,28
3382,28
3383,28
3384,28
3385,28
3386,28
3387,28
3388,29
3389,28
3390,28
3391,28
3392,28
3393,28
3394,28
3395,28
3396,28
3397,28
3398,28
3399,28
3400,28
3401,28
3402,28
3403,29
3404,29
3405,31
3406,31
3407,31
3408,31
3409,30
3410,31
3411,30
3412,30
3413,30
3414,30
3415,30
3416,29
3417,29
3418,30
3419,30
3420,29
3421,29
3422,29
3423,28
3424,28
3425,28
3426,28
3427,28
3428,28
3429,28
3430,28
3431,28
3432,28
3433,28
3434,28
3435,28
3436,28
3437,28
3438,28
3439,28
3440,28
3441,28
3442,28
3443,29
3444,28
3445,28
3446,28
3447,28
3448,28
3449,28
3450,28
3451,29
3452,29
3453,29
3454,28
3455,28
3456,28
3457,28
3458,28
3459,28
3460,28
3461,28
3462,28
3463,28
3464,28
3465,28
3466,28
3467,28
3468,29
3469,28
3470,28
3471,28
3472,28
3473,28
3474,28
3475,28
3476,28
3477,28
3478,28
3479,29
3480,29
3481,29
3482,29
3483,29
3484,29
3485,29
3486,29
3487,29
3488,29
3489,29
3490,29
3491,29
3492,29
3493,29
3494,28
3495,28
3496,29
3497,28
3498,28
3499,28
3500,28
3501,28
3502,28
3503,28
3504,28
3505,28
3506,28
3507,28
3508,28
3509,28
3510,28
3511,28
3512,28
3513,28
3514,28
3515,28
3516,28
3517,28
3518,28
3519,28
3520,28
3521,28
3522,28
3523,28
3524,28
3525,28
3526,28
3527,28
3528,28
3529,28
3530,28
3531,28
3532,28
3533,28
3534,28
3535,28
3536,29
3537,29
3538,28
3539,28
3540,28
3541,28
3542,28
3543,28
3544,28
3545,28
3546,28
3547,28
3548,28
3549,28
3550,28
3551,28
3552,28
3553,28
3554,28
3555,28
3556,28
3557,28
3558,28
3559,30
3560,30
3561,29
3562,29
3563,28
3564,28
3565,28
3566,28
3567,28
3568,28
3569,28
3570,28
3571,28
3572,28
3573,28
3574,28
3575,28
3576,28
3577,28
3578,28
3579,28
3580,28
3581,28
3582,28
3583,28
3584,28
3585,28
3586,28
3587,28
3588,28
3589,29
3590,29
3591,29
3592,29
3593,29
3594,29
3595,29
3596,29
3597,29
3598,29
3599,29
3600,29
3601,29
3602,29
3603,28
3604,28
3605,28
3606,28
3607,28
3608,28
3609,28
3610,28
3611,29
3612,30
3613,29
3614,29
3615,29
3616,29
3617,29
3618,29
3619,29
3620,29
3621,29
3622,29
3623,29
3624,29
3625,29
3626,29
3627,29
3628,29
3629,29
3630,29
3631,29
3632,29
3633,29
3634,29
3635,29
3636,29
3637,30
3638,30
3639,31
3640,30
3641,30
3642,30
3643,30
3644,30
3645,30
3646,30
3647,30
3648,30
3649,30
3650,30
3651,30
3652,30
3653,30
3654,30
3655,30
3656,30
3657,30
3658,30
3659,30
3660,30
3661,30
3662,30
3663,30
3664,30
3665,30
3666,30
3667,31
3668,31
3669,32
3670,31
3671,30
3672,30
3673,30
3674,30
3675,30
3676,30
3677,30
3678,30
3679,30
3680,30
3681,30
3682,30
3683,30
3684,30
3685,30
3686,30
3687,30
3688,30
3689,30
3690,30
3691,30
3692,30
3693,30
3694,30
3695,30
3696,30
3697,30
3698,30
3699,30
3700,30
3701,30
3702,30
3703,30
3704,30
3705,30
3706,30
3707,30
3708,30
3709,30
3710,30
3711,30
3712,30
3713,30
3714,30
3715,30
3716,30
3717,30
3718,30
3719,30
3720,30
3721,30
3722,30
3723,30
3724,31
3725,31
3726,31
3727,31
3728,31
3729,31
3730,32
3731,32
3732,30
3733,30
3734,30
3735,30
3736,30
3737,30
3738,30
3739,30
3740,30
3741,30
3742,30
3743,30
3744,31
3745,31
3746,30
3747,30
3748,30
3749,30
3750,31
3751,30
3752,30
3753,30
3754,30
3755,30
3756,30
3757,30
3758,30
3759,30
3760,30
3761,30
3762,30
3763,30
3764,30
3765,30
3766,30
3767,30
3768,31
3769,31
3770,31
3771,31
3772,31
3773,31
3774,31
3775,30
3776,30
3777,30
3778,30
3779,30
3780,31
3781,30
3782,30
3783,30
3784,30
3785,30
3786,30
3787,30
3788,30
3789,30
3790,30
3791,30
3792,30
3793,31
3794,31
3795,30
3796,30
3797,30
3798,30
3799,30
3800,30
3801,30
3802,30
3803,30
3804,30
3805,30
3806,30
3807,30
3808,30
3809,30
3810,30
3811,30
3812,30
3813,30
3814,30
3815,30
3816,30
3817,30
3818,30
3819,30
3820,30
3821,30
3822,30
3823,30
3824,30
3825,30
3826,30
3827,30
3828,30
3829,30
3830,30
3831,30
3832,30
3833,30
3834,30
3835,30
3836,30
3837,30
3838,30
3839,30
3840,30
3841,30
3842,30
3843,30
3844,30
3845,30
3846,30
3847,30
3848,30
3849,30
3850,30
3851,30
3852,30
3853,30
3854,30
3855,30
3856,31
3857,31
3858,30
3859,30
3860,30
3861,30
3862,30
3863,30
3864,30
3865,31
3866,30
3867,30
3868,30
3869,31
3870,31
3871,31
3872,30
3873,30
3874,30
3875,30
3876,30
3877,30
3878,30
3879,30
3880,30
3881,30
3882,30
3883,30
3884,30
3885,31
3886,30
3887,30
3888,30
3889,30
3890,30
3891,31
3892,31
3893,30
3894,30
3895,30
3896,30
3897,30
3898,30
3899,30
3900,30
3901,30
3902,30
3903,30
3904,30
3905,30
3906,30
3907,30
3908,31
3909,30
3910,30
3911,30
3912,30
3913,30
3914,30
3915,30
3916,30
3917,30
3918,30
3919,30
3920,30
3921,30
3922,30
3923,30
3924,32
3925,30
3926,31
3927,30
3928,30
3929,30
3930,30
3931,30
3932,30
3933,30
3934,30
3935,30
3936,30
3937,30
3938,30
3939,30
3940,30
3941,30
3942,30
3943,30
3944,30
3945,30
3946,31
3947,31
3948,31
3949,31
3950,31
3951,31
3952,30
3953,30
3954,30
3955,30
3956,30
3957,30
3958,30
3959,30
3960,30
3961,30
3962,30
3963,30
3964,30
3965,30
3966,30
3967,30
3968,30
3969,30
3970,30
3971,30
3972,30
3973,30
3974,30
3975,30
3976,30
3977,30
3978,30
3979,30
3980,30
3981,30
3982,31
3983,31
3984,31
3985,31
3986,31
3987,31
3988,30
3989,30
3990,30
3991,30
3992,31
3993,31
3994,30
3995,30
3996,30
3997,30
3998,30
3999,30
4000,33
4001,31
4002,31
4003,31
4004,31
4005,31
4006,30
4007,30
4008,30
4009,30
4010,30
4011,30
4012,30
4013,30
4014,30
4015,30
4016,30
4017,31
4018,30
4019,30
4020,30
4021,30
4022,30
4023,30
4024,30
4025,30
4026,30
4027,30
4028,30
4029,30
4030,31
4031,32
4032,32
4033,32
4034,32
4035,32
4036,33
4037,32
4038,31
4039,31
4040,31
4041,31
4042,31
4043,31
4044,30
4045,30
4046,30
4047,30
4048,30
4049,30
4050,30
4051,30
4052,30
4053,30
4054,30
4055,30
4056,30
4057,30
4058,30
4059,30
4060,30
4061,30
4062,30
4063,30
4064,30
4065,30
4066,30
4067,30
4068,30
4069,30
4070,30
4071,31
4072,30
4073,30
4074,30
4075,30
4076,30
4077,30
4078,30
4079,30
4080,30
4081,30
4082,30
4083,30
4084,30
4085,30
4086,30
4087,30
4088,30
4089,30
4090,30
4091,30
4092,30
4093,30
4094,30
4095,31
4096,31
4097,30
4098,30
4099,30
4100,30
4101,30
4102,30
4103,30
4104,30
4105,31
4106,31
4107,31
4108,31
4109,31
4110,31
4111,31
4112,31
4113,31
4114,31
4115,31
4116,31
4117,31
4118,31
4119,31
4120,31
4121,31
4122,31
4123,31
4124,31
4125,31
4126,31
4127,31
4128,31
4129,31
4130,31
4131,31
4132,31
4133,31
4134,31
4135,31
4136,31
4137,31
4138,31
4139,31
4140,31
4141,31
4142,31
4143,31
4144,31
4145,31
4146,31
4147,31
4148,31
4149,31
4150,31
4151,31
4152,31
4153,31
4154,31
4155,31
4156,31
4157,31
4158,31
4159,31
4160,31
4161,31
4162,31
4163,31
4164,32
4165,33
4166,32
4167,32
4168,32
4169,31
4170,31
4171,31
4172,31
4173,31
4174,31
4175,31
4176,31
4177,31
4178,32
4179,32
4180,31
4181,31
4182,31
4183,31
4184,31
4185,31
4186,31
4187,31
4188,31
4189,31
4190,31
4191,31
4192,31
4193,31
4194,31
4195,31
4196,31
4197,31
4198,31
4199,31
4200,31
4201,31
4202,31
4203,31
4204,31
4205,31
4206,31
4207,31
4208,31
4209,31
4210,31
4211,31
4212,32
4213,32
4214,31
4215,31
4216,31
4217,31
4218,31
4219,31
4220,31
4221,31
4222,31
4223,31
4224,31
4225,31
4226,31
4227,31
4228,31
4229,31
4230,31
4231,32
4232,32
4233,32
4234,32
4235,32
4236,31
4237,31
4238,31
4239,31
4240,31
4241,31
4242,31
4243,31
4244,31
4245,31
4246,31
4247,31
4248,31
4249,31
4250,31
4251,31
4252,31
4253,31
4254,31
4255,31
4256,31
4257,31
4258,31
4259,31
4260,31
4261,32
4262,32
4263,32
4264,32
4265,32
4266,32
4267,32
4268,32
4269,31
4270,30
4271,30
4272,30
4273,30
4274,30
4275,30
4276,31
4277,31
4278,30
4279,30
4280,30
4281,30
4282,31
4283,31
4284,31
4285,31
4286,31
4287,31
4288,31
4289,31
4290,31
4291,31
4292,31
4293,31
4294,31
4295,31
4296,31
4297,31
4298,31
4299,31
4300,31
4301,31
4302,31
4303,31
4304,30
4305,30
4306,30
4307,30
4308,30
4309,30
4310,30
4311,30
4312,30
4313,30
4314,30
4315,30
4316,30
4317,30
4318,30
4319,30
4320,30
4321,30
4322,30
4323,30
4324,30
4325,30
4326,30
4327,31
4328,30
4329,30
4330,30
4331,30
4332,30
4333,30
4334,30
4335,30
4336,30
4337,30
4338,30
4339,30
4340,30
4341,30
4342,30
4343,30
4344,30
4345,30
4346,30
4347,30
4348,30
4349,30
4350,30
4351,30
4352,30
4353,30
4354,30
4355,30
4356,30
4357,30
4358,30
4359,30
4360,30
4361,30
4362,30
4363,30
4364,30
4365,30
4366,30
4367,30
4368,31
4369,30
4370,30
4371,30
4372,30
4373,30
4374,30
4375,30
4376,30
4377,31
4378,31
4379,31
4380,31
4381,31
4382,31
4383,30
4384,30
4385,30
4386,30
4387,30
4388,30
4389,30
4390,30
4391,30
4392,30
4393,30
4394,31
4395,31
4396,31
4397,30
4398,30
4399,30
4400,30
4401,30
4402,30
4403,30
4404,30
4405,30
4406,30
4407,30
4408,30
4409,30
4410,30
4411,30
4412,30
4413,30
4414,30
4415,30
4416,30
4417,30
4418,30
4419,30
4420,30
4421,30
4422,30
4423,30
4424,30
4425,30
4426,30
4427,30
4428,30
4429,30
4430,30
4431,30
4432,30
4433,30
4434,30
4435,30
4436,30
4437,30
4438,30
4439,30
4440,30
4441,30
4442,30
4443,30
4444,30
4445,30
4446,30
4447,30
4448,30
4449,30
4450,30
4451,30
4452,30
4453,30
4454,30
4455,31
4456,31
4457,30
4458,30
4459,30
4460,30
4461,30
4462,30
4463,30
4464,30
4465,30
4466,30
4467,30
4468,30
4469,30
4470,31
4471,30
4472,30
4473,31
4474,30
4475,30
4476,30
4477,30
4478,30
4479,30
4480,30
4481,30
4482,30
4483,30
4484,30
4485,30
4486,30
4487,30
4488,30
4489,30
4490,30
4491,30
4492,30
4493,30
4494,30
4495,30
4496,30
4497,30
4498,30
4499,30
4500,30
4501,30
4502,30
4503,30
4504,30
4505,30
4506,30
4507,30
4508,31
4509,31
4510,31
4511,31
4512,31
4513,31
4514,31
4515,30
4516,30
4517,30
4518,30
4519,30
4520,30
4521,30
4522,30
4523,30
4524,30
4525,30
4526,30
4527,30
4528,31
4529,30
4530,30
4531,30
4532,30
4533,30
4534,30
4535,30
4536,30
4537,30
4538,30
4539,30
4540,31
4541,31
4542,31
4543,31
4544,32
4545,32
4546,32
4547,32
4548,31
4549,30
4550,30
4551,30
4552,30
4553,30
4554,30
4555,30
4556,30
4557,30
4558,30
4559,30
4560,30
4561,30
4562,30
4563,30
4564,30
4565,30
4566,30
4567,30
4568,30
4569,30
4570,30
4571,30
4572,30
4573,30
4574,30
4575,30
4576,30
4577,30
4578,30
4579,30
4580,31
4581,31
4582,31
4583,31
4584,31
4585,31
4586,31
4587,31
4588,31
4589,31
4590,31
4591,31
4592,31
4593,31
4594,31
4595,31
4596,31
4597,31
4598,31
4599,31
4600,31
4601,31
4602,31
4603,31
4604,31
4605,31
4606,31
4607,31
4608,31
4609,31
4610,31
4611,31
4612,31
4613,31
4614,31
4615,31
4616,31
4617,32
4618,32
4619,32
4620,32
4621,32
4622,32
4623,32
4624,32
4625,32
4626,32
4627,32
4628,33
4629,32
4630,32
4631,32
4632,32
4633,32
4634,32
4635,32
4636,32
4637,32
4638,33
4639,33
4640,33
4641,33
4642,32
4643,31
4644,31
4645,31
4646,31
4647,31
4648,31
4649,31
4650,31
4651,31
4652,31
4653,31
4654,31
4655,31
4656,31
4657,31
4658,31
4659,31
4660,31
4661,31
4662,31
4663,31
4664,31
4665,31
4666,31
4667,31
4668,31
4669,31
4670,31
4671,31
4672,31
4673,31
4674,32
4675,31
4676,31
4677,31
4678,31
4679,31
4680,32
4681,33
4682,32
4683,31
4684,31
4685,31
4686,31
4687,31
4688,31
4689,31
4690,31
4691,31
4692,31
4693,31
4694,31
4695,32
4696,32
4697,32
4698,32
4699,32
4700,32
4701,31
4702,31
4703,31
4704,31
4705,31
4706,31
4707,31
4708,31
4709,31
4710,31
4711,31
4712,31
4713,33
4714,32
4715,31
4716,31
4717,31
4718,31
4719,31
4720,31
4721,31
4722,31
4723,31
4724,31
4725,31
4726,31
4727,31
4728,31
4729,32
4730,32
4731,31
4732,31
4733,31
4734,31
4735,31
4736,31
4737,31
4738,31
4739,31
4740,31
4741,31
4742,31
4743,31
4744,31
4745,31
4746,31
4747,31
4748,31
4749,31
4750,31
4751,31
4752,31
4753,31
4754,31
4755,31
4756,32
4757,31
4758,31
4759,31
4760,31
4761,31
4762,31
4763,31
4764,32
4765,32
4766,32
4767,32
4768,32
4769,31
4770,31
4771,31
4772,31
4773,31
4774,33
4775,32
4776,32
4777,32
4778,32
4779,32
4780,32
4781,32
4782,32
4783,32
4784,32
4785,32
4786,32
4787,32
4788,32
4789,32
4790,32
4791,32
4792,32
4793,32
4794,31
4795,31
4796,31
4797,31
4798,31
4799,31
4800,31
4801,31
4802,31
4803,32
4804,31
4805,31
4806,31
4807,31
4808,31
4809,31
4810,31
4811,31
4812,31
4813,31
4814,31
4815,31
4816,31
4817,31
4818,31
4819,31
4820,31
4821,31
4822,32
4823,32
4824,32
4825,32
4826,32
4827,32
4828,32
4829,32
4830,32
4831,31
4832,31
4833,31
4834,31
4835,31
4836,31
4837,32
4838,31
4839,31
4840,31
4841,31
4842,31
4843,31
4844,31
4845,32
4846,31
4847,31
4848,32
4849,32
4850,32
4851,32
4852,32
4853,32
4854,33
4855,32
4856,32
4857,32
4858,32
4859,32
4860,32
4861,32
4862,32
4863,32
4864,31
4865,32
4866,32
4867,32
4868,32
4869,32
4870,32
4871,32
4872,32
4873,32
4874,32
4875,32
4876,32
4877,32
4878,32
4879,32
4880,32
4881,32
4882,32
4883,32
4884,32
4885,32
4886,32
4887,32
4888,32
4889,32
4890,32
4891,32
4892,32
4893,32
4894,32
4895,32
4896,32
4897,32
4898,32
4899,32
4900,32
4901,33
4902,32
4903,33
4904,33
4905,33
4906,32
4907,32
4908,32
4909,32
4910,32
4911,32
4912,32
4913,32
4914,33
4915,32
4916,33
4917,32
4918,32
4919,32
4920,32
4921,32
4922,32
4923,32
4924,32
4925,32
4926,32
4927,32
4928,32
4929,32
4930,32
4931,32
4932,32
4933,32
4934,33
4935,33
4936,32
4937,32
4938,32
4939,33
4940,32
4941,32
4942,32
4943,32
4944,32
4945,32
4946,32
4947,32
4948,32
4949,32
4950,32
4951,32
4952,32
4953,32
4954,32
4955,32
4956,32
4957,32
4958,32
4959,33
4960,33
4961,33
4962,33
4963,33
4964,33
4965,33
4966,33
4967,34
4968,34
4969,33
4970,33
4971,33
4972,33
4973,33
4974,32
4975,32
4976,33
4977,32
4978,32
4979,32
4980,32
4981,32
4982,32
4983,32
4984,32
4985,32
4986,32
4987,32
4988,32
4989,32
4990,32
4991,32
4992,32
4993,32
4994,32
4995,32
4996,32
4997,32
4998,32
4999,32
5000,32
5001,32
5002,32
5003,32
5004,32
5005,32
5006,32
5007,32
5008,32
5009,32
5010,32
5011,32
5012,32
5013,32
5014,32
5015,32
5016,32
5017,32
5018,32
5019,32
5020,32
5021,32
5022,32
5023,33
5024,33
5025,33
5026,33
5027,33
5028,33
5029,33
5030,33
5031,33
5032,33
5033,34
5034,34
5035,33
5036,34
5037,34
5038,33
5039,33
5040,33
5041,33
5042,33
5043,33
5044,33
5045,33
5046,33
5047,33
5048,33
5049,34
5050,33
5051,33
5052,33
5053,33
5054,33
5055,33
5056,33
5057,33
5058,33
5059,33
5060,33
5061,33
5062,33
5063,33
5064,33
5065,33
5066,33
5067,33
5068,33
5069,33
5070,33
5071,33
5072,33
5073,33
5074,33
5075,33
5076,33
5077,33
5078,33
5079,33
5080,33
5081,33
5082,33
5083,33
5084,33
5085,33
5086,33
5087,33
5088,34
5089,34
5090,34
5091,34
5092,34
5093,34
5094,33
5095,33
5096,33
5097,33
5098,33
5099,33
5100,34
5101,34
5102,34
5103,33
5104,33
5105,33
5106,33
5107,33
5108,33
5109,33
5110,33
5111,33
5112,33
5113,33
5114,33
5115,33
5116,34
5117,34
5118,34
5119,34
5120,34
5121,34
5122,34
5123,33
5124,33
5125,33
5126,34
5127,33
5128,33
5129,33
5130,33
5131,33
5132,33
5133,33
5134,33
5135,33
5136,33
5137,33
5138,33
5139,33
5140,33
5141,33
5142,33
5143,33
5144,33
5145,33
5146,34
5147,33
5148,33
5149,33
5150,33
5151,33
5152,33
5153,33
5154,33
5155,33
5156,33
5157,33
5158,33
5159,33
5160,33
5161,33
5162,33
5163,33
5164,33
5165,33
5166,33
5167,33
5168,33
5169,33
5170,33
5171,33
5172,33
5173,33
5174,33
5175,33
5176,33
5177,33
5178,33
5179,33
5180,33
5181,33
5182,33
5183,34
5184,33
5185,33
5186,33
5187,33
5188,33
5189,33
5190,33
5191,33
5192,33
5193,34
5194,33
5195,33
5196,33
5197,33
5198,33
5199,33
5200,33
5201,33
5202,33
5203,33
5204,33
5205,34
5206,34
5207,34
5208,34
5209,35
5210,35
5211,34
5212,34
5213,34
5214,34
5215,34
5216,34
5217,34
5218,34
5219,34
5220,34
5221,34
5222,33
5223,33
5224,34
5225,34
5226,34
5227,34
5228,34
5229,34
5230,35
5231,35
5232,35
5233,35
5234,35
5235,35
5236,35
5237,35
5238,35
5239,35
5240,34
5241,34
5242,34
5243,34
5244,34
5245,35
5246,35
5247,34
5248,34
5249,34
5250,34
5251,34
5252,34
5253,34
5254,33
5255,33
5256,33
5257,33
5258,33
5259,33
5260,33
5261,33
5262,33
5263,33
5264,33
5265,33
5266,33
5267,33
5268,33
5269,33
5270,33
5271,33
5272,33
5273,33
5274,34
5275,34
5276,34
5277,34
5278,34
5279,34
5280,34
5281,35
5282,34
5283,34
5284,34
5285,34
5286,34
5287,33
5288,33
5289,33
5290,33
5291,33
5292,33
5293,33
5294,33
5295,33
5296,33
5297,34
5298,34
5299,34
5300,34
5301,34
5302,34
5303,34
5304,33
5305,33
5306,33
5307,33
5308,34
5309,33
5310,33
5311,33
5312,33
5313,33
5314,33
5315,33
5316,33
5317,33
5318,33
5319,33
5320,33
5321,33
5322,33
5323,33
5324,33
5325,33
5326,33
5327,33
5328,33
5329,33
5330,33
5331,35
5332,34
5333,33
5334,33
5335,33
5336,33
5337,33
5338,33
5339,33
5340,33
5341,33
5342,33
5343,33
5344,33
5345,33
5346,33
5347,33
5348,33
5349,33
5350,33
5351,33
5352,33
5353,33
5354,34
5355,33
5356,33
5357,33
5358,33
5359,33
5360,33
5361,33
5362,33
5363,33
5364,33
5365,33
5366,33
5367,33
5368,33
5369,33
5370,33
5371,33
5372,33
5373,33
5374,34
5375,33
5376,33
5377,33
5378,33
5379,33
5380,33
5381,33
5382,33
5383,33
5384,33
5385,33
5386,33
5387,33
5388,33
5389,33
5390,33
5391,33
5392,33
5393,33
5394,33
5395,34
5396,34
5397,35
5398,34
5399,33
5400,33
5401,34
5402,34
5403,34
5404,33
5405,33
5406,33
5407,33
5408,33
5409,33
5410,33
5411,33
5412,33
5413,33
5414,33
5415,33
5416,33
5417,33
5418,34
5419,33
5420,33
5421,34
5422,34
5423,35
5424,34
5425,34
5426,33
5427,33
5428,33
5429,33
5430,33
5431,33
5432,33
5433,33
5434,33
5435,33
5436,33
5437,33
5438,33
5439,33
5440,33
5441,33
5442,33
5443,33
5444,33
5445,34
5446,34
5447,34
5448,34
5449,34
5450,34
5451,34
5452,33
5453,33
5454,33
5455,33
5456,33
5457,33
5458,33
5459,33
5460,33
5461,33
5462,33
5463,33
5464,33
5465,33
5466,33
5467,34
5468,33
5469,33
5470,33
5471,33
5472,33
5473,33
5474,33
5475,33
5476,33
5477,33
5478,34
5479,34
5480,33
5481,33
5482,33
5483,33
5484,33
5485,33
5486,33
5487,33
5488,33
5489,33
5490,33
5491,33
5492,33
5493,33
5494,33
5495,33
5496,33
5497,33
5498,33
5499,34
5500,35
5501,34
5502,33
5503,33
5504,33
5505,33
5506,33
5507,33
5508,33
5509,33
5510,33
5511,33
5512,33
5513,33
5514,33
5515,33
5516,33
5517,33
5518,33
5519,33
5520,33
5521,33
5522,33
5523,33
5524,33
5525,33
5526,33
5527,33
5528,33
5529,33
5530,33
5531,33
5532,33
5533,33
5534,33
5535,33
5536,33
5537,33
5538,33
5539,33
5540,33
5541,33
5542,33
5543,33
5544,33
5545,34
5546,34
5547,34
5548,34
5549,34
5550,34
5551,34
5552,34
5553,33
5554,34
5555,34
5556,34
5557,34
5558,34
5559,34
5560,34
5561,34
5562,34
5563,34
5564,34
5565,34
5566,34
5567,34
5568,34
5569,34
5570,33
5571,34
5572,34
5573,34
5574,34
5575,34
5576,34
5577,34
5578,34
5579,34
5580,34
5581,34
5582,34
5583,34
5584,34
5585,34
5586,34
5587,35
5588,34
5589,34
5590,34
5591,35
5592,34
5593,34
5594,34
5595,34
5596,34
5597,34
5598,34
5599,35
5600,34
5601,34
5602,34
5603,34
5604,34
5605,34
5606,34
5607,34
5608,34
5609,34
5610,34
5611,35
5612,34
5613,34
5614,34
5615,34
5616,34
5617,34
5618,34
5619,35
5620,35
5621,34
5622,34
5623,34
5624,34
5625,34
5626,34
5627,34
5628,34
5629,34
5630,34
5631,34
5632,34
5633,34
5634,34
5635,34
5636,34
5637,34
5638,34
5639,34
5640,34
5641,34
5642,34
5643,34
5644,34
5645,34
5646,34
5647,34
5648,34
5649,34
5650,33
5651,33
5652,33
5653,33
5654,33
5655,33
5656,33
5657,33
5658,33
5659,33
5660,33
5661,33
5662,33
5663,33
5664,33
5665,33
5666,33
5667,33
5668,33
5669,33
5670,33
5671,33
5672,33
5673,33
5674,33
5675,33
5676,33
5677,33
5678,33
5679,33
5680,33
5681,33
5682,33
5683,33
5684,33
5685,33
5686,33
5687,34
5688,34
5689,34
5690,34
5691,33
5692,33
5693,33
5694,33
5695,33
5696,33
5697,33
5698,33
5699,33
5700,33
5701,33
5702,33
5703,33
5704,33
5705,33
5706,33
5707,33
5708,33
5709,33
5710,34
5711,33
5712,33
5713,33
5714,33
5715,33
5716,33
5717,33
5718,33
5719,33
5720,33
5721,33
5722,33
5723,33
5724,33
5725,33
5726,33
5727,33
5728,33
5729,33
5730,33
5731,33
5732,33
5733,33
5734,33
5735,33
5736,33
5737,33
5738,33
5739,33
5740,33
5741,33
5742,33
5743,33
5744,33
5745,33
5746,33
5747,33
5748,33
5749,33
5750,33
5751,33
5752,33
5753,33
5754,33
5755,33
5756,33
5757,33
5758,33
5759,33
5760,33
5761,33
5762,33
5763,33
5764,33
5765,33
5766,33
5767,33
5768,33
5769,33
5770,33
5771,33
5772,33
5773,33
5774,33
5775,33
5776,33
5777,33
5778,33
5779,33
5780,33
5781,33
5782,34
5783,34
5784,34
5785,33
5786,33
5787,33
5788,33
5789,33
5790,33
5791,33
5792,33
5793,33
5794,33
5795,33
5796,33
5797,33
5798,33
5799,33
5800,33
5801,33
5802,33
5803,33
5804,33
5805,33
5806,33
5807,33
5808,33
5809,33
5810,33
5811,33
5812,33
5813,33
5814,33
5815,33
5816,33
5817,33
5818,33
5819,33
5820,33
5821,33
5822,34
5823,34
5824,34
5825,34
5826,34
5827,33
5828,33
5829,33
5830,33
5831,33
5832,33
5833,33
5834,33
5835,33
5836,33
5837,33
5838,33
5839,33
5840,33
5841,33
5842,33
5843,33
5844,33
5845,33
5846,33
5847,33
5848,33
5849,33
5850,33
5851,33
5852,33
5853,33
5854,33
5855,33
5856,34
5857,34
5858,33
5859,33
5860,33
5861,33
5862,33
5863,33
5864,33
5865,33
5866,33
5867,33
5868,33
5869,34
5870,34
5871,34
5872,34
5873,34
5874,34
5875,33
5876,33
5877,33
5878,33
5879,34
5880,34
5881,34
5882,33
5883,33
5884,33
5885,33
5886,34
5887,34
5888,33
5889,33
5890,33
5891,33
5892,33
5893,33
5894,33
5895,33
5896,33
5897,34
5898,34
5899,34
5900,34
5901,34
5902,34
5903,34
5904,34
5905,34
5906,33
5907,33
5908,33
5909,33
5910,33
5911,33
5912,33
5913,33
5914,33
5915,33
5916,33
5917,33
5918,33
5919,33
5920,33
5921,33
5922,33
5923,33
5924,33
5925,33
5926,33
5927,33
5928,33
5929,33
5930,33
5931,33
5932,33
5933,33
5934,33
5935,33
5936,33
5937,33
5938,33
5939,33
5940,33
5941,33
5942,33
5943,34
5944,35
5945,36
5946,35
5947,34
5948,34
5949,33
5950,33
5951,33
5952,33
5953,33
5954,33
5955,33
5956,33
5957,33
5958,33
5959,33
5960,33
5961,33
5962,33
5963,33
5964,33
5965,33
5966,33
5967,33
5968,33
5969,34
5970,33
5971,33
5972,33
5973,33
5974,33
5975,33
5976,33
5977,33
5978,33
5979,33
5980,33
5981,33
5982,33
5983,33
5984,33
5985,34
5986,34
5987,34
5988,34
5989,34
5990,33
5991,33
5992,33
5993,33
5994,33
5995,33
5996,33
5997,33
5998,33
5999,34
6000,33
6001,33
6002,33
6003,33
6004,33
6005,33
6006,33
6007,33
6008,33
6009,33
6010,33
6011,33
6012,33
6013,33
6014,33
6015,34
6016,34
6017,34
6018,34
6019,34
6020,34
6021,34
6022,34
6023,34
6024,33
6025,33
6026,33
6027,33
6028,33
6029,33
6030,33
6031,33
6032,33
6033,33
6034,33
6035,33
6036,33
6037,34
6038,34
6039,34
6040,34
6041,34
6042,34
6043,34
6044,34
6045,34
6046,34
6047,35
6048,35
6049,34
6050,35
6051,35
6052,35
6053,35
6054,35
6055,36
6056,35
6057,35
6058,35
6059,35
6060,34
6061,34
6062,34
6063,34
6064,34
6065,34
6066,34
6067,34
6068,34
6069,35
6070,35
6071,35
6072,35
6073,35
6074,35
6075,35
6076,34
6077,34
6078,35
6079,35
6080,35
6081,35
6082,35
6083,35
6084,35
6085,34
6086,34
6087,34
6088,34
6089,35
6090,35
6091,35
6092,35
6093,34
6094,35
6095,34
6096,34
6097,34
6098,34
6099,34
6100,34
6101,34
6102,34
6103,34
6104,34
6105,34
6106,34
6107,34
6108,34
6109,34
6110,34
6111,34
6112,34
6113,34
6114,34
6115,34
6116,34
6117,34
6118,34
6119,34
6120,34
6121,34
6122,34
6123,34
6124,34
6125,34
6126,34
6127,34
6128,34
6129,34
6130,34
6131,34
6132,35
6133,34
6134,34
6135,34
6136,34
6137,34
6138,34
6139,34
6140,34
6141,34
6142,34
6143,34
6144,34
6145,34
6146,34
6147,34
6148,34
6149,34
6150,34
6151,34
6152,34
6153,34
6154,34
6155,34
6156,34
6157,34
6158,34
6159,34
6160,34
6161,34
6162,34
6163,34
6164,34
6165,35
6166,35
6167,35
6168,34
6169,34
6170,34
6171,34
6172,34
6173,34
6174,35
6175,35
6176,35
6177,34
6178,34
6179,34
6180,34
6181,34
6182,34
6183,34
6184,34
6185,34
6186,34
6187,34
6188,34
6189,34
6190,34
6191,34
6192,34
6193,34
6194,35
6195,36
6196,37
6197,37
6198,37
6199,36
6200,36
6201,35
6202,35
6203,35
6204,35
6205,35
6206,35
6207,35
6208,34
6209,34
6210,35
6211,35
6212,35
6213,34
6214,34
6215,34
6216,34
6217,34
6218,34
6219,34
6220,34
6221,35
6222,35
6223,34
6224,34
6225,34
6226,34
6227,34
6228,34
6229,34
6230,34
6231,34
6232,34
6233,34
6234,34
6235,34
6236,34
6237,34
6238,34
6239,34
6240,34
6241,34
6242,35
6243,34
6244,34
6245,34
6246,34
6247,34
6248,34
6249,34
6250,34
6251,34
6252,34
6253,34
6254,34
6255,34
6256,34
6257,34
6258,34
6259,34
6260,34
6261,34
6262,34
6263,34
6264,34
6265,34
6266,34
6267,34
6268,34
6269,35
6270,34
6271,34
6272,34
6273,34
6274,34
6275,34
6276,34
6277,34
6278,34
6279,34
6280,34
6281,35
6282,35
6283,35
6284,35
6285,35
6286,35
6287,35
6288,35
6289,35
6290,35
6291,35
6292,35
6293,35
6294,35
6295,35
6296,35
6297,35
6298,35
6299,35
6300,35
6301,35
6302,34
6303,35
6304,35
6305,35
6306,35
6307,35
6308,35
6309,35
6310,35
6311,35
6312,35
6313,35
6314,35
6315,35
6316,35
6317,37
6318,36
6319,36
6320,36
6321,36
6322,36
6323,36
6324,36
6325,36
6326,35
6327,35
6328,35
6329,35
6330,35
6331,35
6332,35
6333,35
6334,36
6335,35
6336,35
6337,35
6338,35
6339,35
6340,35
6341,35
6342,35
6343,35
6344,35
6345,35
6346,36
6347,35
6348,35
6349,35
6350,35
6351,35
6352,35
6353,36
6354,36
6355,35
6356,35
6357,35
6358,35
6359,36
6360,36
6361,35
6362,35
6363,35
6364,35
6365,35
6366,35
6367,35
6368,35
6369,35
6370,35
6371,35
6372,35
6373,35
6374,36
6375,35
6376,35
6377,36
6378,36
6379,36
6380,36
6381,35
6382,36
6383,36
6384,35
6385,35
6386,35
6387,35
6388,35
6389,35
6390,35
6391,35
6392,35
6393,35
6394,35
6395,35
6396,35
6397,35
6398,35
6399,35
6400,35
6401,35
6402,35
6403,35
6404,35
6405,35
6406,35
6407,35
6408,35
6409,35
6410,35
6411,35
6412,35
6413,35
6414,35
6415,35
6416,35
6417,35
6418,35
6419,36
6420,36
6421,36
6422,36
6423,36
6424,36
6425,36
6426,36
6427,36
6428,36
6429,36
6430,36
6431,36
6432,36
6433,37
6434,37
6435,37
6436,37
6437,37
6438,36
6439,36
6440,37
6441,35
6442,35
6443,35
6444,35
6445,35
6446,35
6447,35
6448,35
6449,35
6450,35
6451,35
6452,35
6453,35
6454,35
6455,36
6456,36
6457,35
6458,35
6459,35
6460,35
6461,35
6462,35
6463,35
6464,36
6465,35
6466,35
6467,36
6468,36
6469,36
6470,36
6471,36
6472,36
6473,36
6474,36
6475,36
6476,35
6477,35
6478,35
6479,35
6480,35
6481,35
6482,35
6483,35
6484,35
6485,35
6486,35
6487,35
6488,35
6489,35
6490,35
6491,35
6492,35
6493,36
6494,35
6495,35
6496,35
6497,35
6498,35
6499,35
6500,35
6501,35
6502,35
6503,35
6504,35
6505,35
6506,35
6507,35
6508,35
6509,35
6510,35
6511,35
6512,35
6513,35
6514,35
6515,35
6516,35
6517,35
6518,35
6519,35
6520,35
6521,35
6522,35
6523,35
6524,35
6525,35
6526,35
6527,35
6528,35
6529,35
6530,35
6531,35
6532,35
6533,35
6534,35
6535,36
6536,36
6537,36
6538,36
6539,36
6540,36
6541,36
6542,36
6543,36
6544,36
6545,36
6546,36
6547,36
6548,36
6549,37
6550,37
6551,36
6552,36
6553,36
6554,36
6555,36
6556,36
6557,36
6558,36
6559,36
6560,36
6561,36
6562,35
6563,36
6564,35
6565,35
6566,35
6567,36
6568,36
6569,36
6570,36
6571,36
6572,36
6573,36
6574,36
6575,36
6576,36
6577,36
6578,35
6579,35
6580,35
6581,35
6582,35
6583,36
6584,36
6585,36
6586,36
6587,36
6588,36
6589,36
6590,36
6591,35
6592,35
6593,35
6594,34
6595,34
6596,34
6597,34
6598,34
6599,34
6600,34
6601,34
6602,34
6603,34
6604,34
6605,34
6606,34
6607,34
6608,34
6609,34
6610,34
6611,34
6612,34
6613,34
6614,34
6615,34
6616,34
6617,34
6618,34
6619,34
6620,34
6621,34
6622,34
6623,34
6624,34
6625,34
6626,34
6627,35
6628,35
6629,35
6630,35
6631,37
6632,36
6633,36
6634,35
6635,35
6636,35
6637,35
6638,35
6639,35
6640,35
6641,36
6642,36
6643,36
6644,36
6645,36
6646,36
6647,37
6648,37
6649,37
6650,37
6651,37
6652,37
6653,37
6654,37
6655,37
6656,37
6657,35
6658,35
6659,36
6660,36
6661,35
6662,35
6663,35
6664,35
6665,35
6666,35
6667,35
6668,35
6669,35
6670,35
6671,35
6672,35
6673,35
6674,35
6675,35
6676,35
6677,35
6678,35
6679,35
6680,35
6681,35
6682,35
6683,34
6684,34
6685,34
6686,34
6687,34
6688,34
6689,34
6690,34
6691,34
6692,34
6693,34
6694,34
6695,34
6696,34
6697,34
6698,35
6699,34
6700,34
6701,34
6702,34
6703,34
6704,34
6705,34
6706,34
6707,34
6708,34
6709,34
6710,34
6711,34
6712,34
6713,35
6714,35
6715,35
6716,35
6717,35
6718,35
6719,35
6720,35
6721,35
6722,35
6723,35
6724,35
6725,35
6726,35
6727,35
6728,35
6729,35
6730,35
6731,35
6732,35
6733,34
6734,34
6735,34
6736,34
6737,34
6738,34
6739,34
6740,34
6741,35
6742,35
6743,34
6744,34
6745,34
6746,34
6747,34
6748,34
6749,33
6750,33
6751,33
6752,33
6753,33
6754,33
6755,34
6756,34
6757,34
6758,34
6759,34
6760,34
6761,34
6762,34
6763,34
6764,34
6765,34
6766,34
6767,34
6768,34
6769,34
6770,35
6771,35
6772,35
6773,35
6774,35
6775,35
6776,35
6777,35
6778,35
6779,35
6780,35
6781,35
6782,35
6783,34
6784,34
6785,34
6786,34
6787,34
6788,34
6789,35
6790,34
6791,34
6792,34
6793,34
6794,34
6795,34
6796,34
6797,34
6798,34
6799,34
6800,34
6801,34
6802,34
6803,34
6804,34
6805,34
6806,34
6807,34
6808,34
6809,34
6810,34
6811,34
6812,34
6813,34
6814,34
6815,34
6816,34
6817,34
6818,34
6819,34
6820,34
6821,34
6822,34
6823,34
6824,34
6825,34
6826,34
6827,34
6828,34
6829,34
6830,34
6831,34
6832,34
6833,34
6834,34
6835,34
6836,34
6837,35
6838,34
6839,34
6840,34
6841,34
6842,34
6843,34
6844,34
6845,34
6846,34
6847,34
6848,34
6849,34
6850,34
6851,34
6852,34
6853,34
6854,34
6855,34
6856,34
6857,34
6858,34
6859,34
6860,34
6861,34
6862,34
6863,34
6864,34
6865,34
6866,34
6867,34
6868,34
6869,34
6870,34
6871,34
6872,34
6873,34
6874,34
6875,34
6876,34
6877,34
6878,34
6879,34
6880,34
6881,34
6882,34
6883,34
6884,34
6885,34
6886,34
6887,34
6888,34
6889,34
6890,34
6891,34
6892,35
6893,35
6894,35
6895,34
6896,34
6897,34
6898,34
6899,35
6900,35
6901,35
6902,35
6903,35
6904,35
6905,35
6906,35
6907,35
6908,35
6909,35
6910,35
6911,34
6912,34
6913,34
6914,34
6915,34
6916,34
6917,34
6918,35
6919,34
6920,34
6921,34
6922,34
6923,34
6924,34
6925,34
6926,34
6927,34
6928,34
6929,34
6930,34
6931,34
6932,34
6933,34
6934,34
6935,34
6936,34
6937,34
6938,34
6939,34
6940,34
6941,34
6942,34
6943,34
6944,34
6945,34
6946,34
6947,35
6948,35
6949,35
6950,34
6951,34
6952,34
6953,34
6954,34
6955,34
6956,34
6957,34
6958,35
6959,35
6960,35
6961,35
6962,35
6963,35
6964,35
6965,35
6966,35
6967,34
6968,34
6969,34
6970,34
6971,34
6972,34
6973,34
6974,34
6975,34
6976,34
6977,34
6978,34
6979,34
6980,34
6981,34
6982,34
6983,34
6984,34
6985,34
6986,34
6987,34
6988,34
6989,34
6990,34
6991,35
6992,35
6993,35
6994,34
6995,34
6996,34
6997,34
6998,34
6999,34
7000,34
7001,34
7002,34
7003,35
7004,35
7005,35
7006,35
7007,34
7008,34
7009,34
7010,34
7011,36
7012,36
7013,35
7014,35
7015,35
7016,35
7017,35
7018,35
7019,35
7020,35
7021,35
7022,35
7023,35
7024,35
7025,35
7026,35
7027,35
7028,35
7029,35
7030,35
7031,35
7032,35
7033,35
7034,35
7035,35
7036,35
7037,35
7038,35
7039,35
7040,35
7041,35
7042,35
7043,35
7044,35
7045,35
7046,35
7047,35
7048,35
7049,36
7050,35
7051,35
7052,35
7053,35
7054,35
7055,35
7056,35
7057,35
7058,35
7059,35
7060,35
7061,35
7062,35
7063,35
7064,35
7065,36
7066,36
7067,36
7068,36
7069,36
7070,35
7071,35
7072,35
7073,35
7074,35
7075,35
7076,35
7077,35
7078,35
7079,35
7080,35
7081,35
7082,35
7083,35
7084,35
7085,35
7086,35
7087,35
7088,35
7089,34
7090,34
7091,34
7092,34
7093,34
7094,34
7095,34
7096,34
7097,34
7098,34
7099,35
7100,35
7101,36
7102,36
7103,36
7104,36
7105,36
7106,36
7107,35
7108,34
7109,35
7110,34
7111,34
7112,34
7113,34
7114,34
7115,34
7116,34
7117,34
7118,34
7119,34
7120,34
7121,34
7122,34
7123,34
7124,34
7125,34
7126,34
7127,34
7128,34
7129,34
7130,34
7131,34
7132,34
7133,34
7134,34
7135,35
7136,35
7137,35
7138,35
7139,36
7140,36
7141,36
7142,35
7143,35
7144,35
7145,35
7146,35
7147,36
7148,35
7149,35
7150,35
7151,35
7152,35
7153,35
7154,34
7155,34
7156,35
7157,35
7158,35
7159,34
7160,35
7161,34
7162,34
7163,34
7164,34
7165,35
7166,35
7167,35
7168,34
7169,34
7170,35
7171,35
7172,34
7173,35
7174,35
7175,34
7176,34
7177,34
7178,34
7179,34
7180,34
7181,34
7182,34
7183,34
7184,34
7185,34
7186,34
7187,34
7188,34
7189,34
7190,34
7191,34
7192,34
7193,34
7194,34
7195,34
7196,34
7197,34
7198,36
7199,36
7200,36
7201,36
7202,36
7203,36
7204,36
7205,36
7206,36
7207,36
7208,36
7209,36
7210,36
7211,36
7212,36
7213,36
7214,36
7215,36
7216,36
7217,36
7218,36
7219,36
7220,36
7221,36
7222,36
7223,36
7224,36
7225,36
7226,36
7227,36
7228,36
7229,36
7230,36
7231,36
7232,36
7233,36
7234,36
7235,36
7236,36
7237,36
7238,36
7239,36
7240,36
7241,37
7242,37
7243,37
7244,37
7245,37
7246,37
7247,37
7248,37
7249,37
7250,36
7251,37
7252,37
7253,37
7254,37
7255,38
7256,38
7257,38
7258,37
7259,36
7260,36
7261,36
7262,36
7263,36
7264,37
7265,36
7266,36
7267,36
7268,36
7269,36
7270,36
7271,36
7272,36
7273,36
7274,36
7275,36
7276,36
7277,36
7278,36
7279,36
7280,36
7281,36
7282,36
7283,37
7284,36
7285,35
7286,35
7287,35
7288,35
7289,35
7290,35
7291,35
7292,35
7293,35
7294,36
7295,36
7296,35
7297,35
7298,35
7299,35
7300,35
7301,35
7302,35
7303,35
7304,35
7305,35
7306,35
7307,35
7308,35
7309,35
7310,35
7311,35
7312,35
7313,36
7314,36
7315,35
7316,35
7317,36
7318,37
7319,35
7320,35
7321,35
7322,35
7323,35
7324,35
7325,35
7326,35
7327,35
7328,35
7329,35
7330,35
7331,35
7332,35
7333,35
7334,35
7335,35
7336,35
7337,35
7338,35
7339,35
7340,35
7341,35
7342,35
7343,35
7344,35
7345,35
7346,35
7347,35
7348,35
7349,35
7350,35
7351,35
7352,35
7353,35
7354,35
7355,35
7356,36
7357,36
7358,36
7359,37
7360,36
7361,36
7362,36
7363,36
7364,36
7365,36
7366,36
7367,36
7368,36
7369,36
7370,36
7371,36
7372,36
7373,37
7374,36
7375,36
7376,35
7377,35
7378,35
7379,35
7380,35
7381,35
7382,35
7383,35
7384,35
7385,36
7386,35
7387,35
7388,35
7389,36
7390,35
7391,35
7392,35
7393,35
7394,35
7395,35
7396,35
7397,35
7398,36
7399,36
7400,36
7401,36
7402,36
7403,36
7404,37
7405,35
7406,35
7407,35
7408,35
7409,35
7410,35
7411,36
7412,35
7413,35
7414,35
7415,35
7416,35
7417,35
7418,35
7419,35
7420,35
7421,35
7422,35
7423,35
7424,35
7425,35
7426,35
7427,35
7428,36
7429,36
7430,36
7431,35
7432,35
7433,35
7434,35
7435,35
7436,35
7437,35
7438,35
7439,35
7440,35
7441,35
7442,35
7443,35
7444,35
7445,35
7446,35
7447,35
7448,35
7449,35
7450,35
7451,35
7452,35
7453,35
7454,35
7455,35
7456,35
7457,35
7458,35
7459,36
7460,36
7461,36
7462,36
7463,35
7464,35
7465,36
7466,35
7467,35
7468,35
7469,35
7470,35
7471,35
7472,35
7473,35
7474,35
7475,35
7476,35
7477,35
7478,35
7479,35
7480,35
7481,35
7482,35
7483,35
7484,35
7485,35
7486,35
7487,35
7488,35
7489,35
7490,35
7491,35
7492,36
7493,36
7494,36
7495,36
7496,36
7497,35
7498,35
7499,36
7500,36
7501,36
7502,36
7503,36
7504,35
7505,35
7506,35
7507,35
7508,35
7509,35
7510,35
7511,35
7512,35
7513,35
7514,36
7515,36
7516,35
7517,35
7518,35
7519,35
7520,35
7521,35
7522,35
7523,35
7524,35
7525,35
7526,35
7527,35
7528,35
7529,35
7530,35
7531,35
7532,35
7533,35
7534,35
7535,35
7536,35
7537,35
7538,36
7539,35
7540,35
7541,35
7542,35
7543,35
7544,35
7545,35
7546,35
7547,35
7548,35
7549,35
7550,35
7551,35
7552,35
7553,36
7554,36
7555,36
7556,36
7557,36
7558,35
7559,35
7560,35
7561,35
7562,35
7563,35
7564,35
7565,35
7566,35
7567,35
7568,35
7569,35
7570,35
7571,35
7572,35
7573,35
7574,35
7575,35
7576,35
7577,35
7578,35
7579,35
7580,35
7581,35
7582,35
7583,35
7584,35
7585,35
7586,35
7587,35
7588,35
7589,35
7590,36
7591,36
7592,36
7593,36
7594,35
7595,35
7596,35
7597,35
7598,35
7599,35
7600,35
7601,35
7602,35
7603,35
7604,36
7605,36
7606,36
7607,36
7608,36
7609,36
7610,36
7611,36
7612,36
7613,36
7614,35
7615,35
7616,35
7617,35
7618,35
7619,35
7620,35
7621,35
7622,35
7623,35
7624,35
7625,35
7626,35
7627,35
7628,35
7629,35
7630,35
7631,35
7632,35
7633,35
7634,35
7635,35
7636,35
7637,35
7638,35
7639,35
7640,36
7641,35
7642,35
7643,35
7644,35
7645,36
7646,36
7647,36
7648,35
7649,35
7650,35
7651,35
7652,35
7653,36
7654,36
7655,36
7656,36
7657,36
7658,36
7659,37
7660,37
7661,37
7662,37
7663,37
7664,37
7665,37
7666,36
7667,36
7668,36
7669,36
7670,36
7671,36
7672,36
7673,36
7674,36
7675,36
7676,36
7677,36
7678,38
7679,38
7680,38
7681,36
7682,36
7683,36
7684,36
7685,36
7686,36
7687,36
7688,36
7689,37
7690,37
7691,37
7692,36
7693,36
7694,37
7695,37
7696,36
7697,37
7698,37
7699,37
7700,37
7701,37
7702,36
7703,36
7704,36
7705,36
7706,36
7707,36
7708,36
7709,37
7710,36
7711,36
7712,36
7713,36
7714,37
7715,37
7716,37
7717,36
7718,36
7719,36
7720,36
7721,36
7722,36
7723,36
7724,36
7725,36
7726,36
7727,36
7728,36
7729,37
7730,37
7731,37
7732,36
7733,36
7734,36
7735,36
7736,36
7737,36
7738,36
7739,36
7740,36
7741,36
7742,36
7743,36
7744,36
7745,36
7746,36
7747,36
7748,36
7749,36
7750,36
7751,36
7752,36
7753,36
7754,36
7755,36
7756,36
7757,36
7758,36
7759,37
7760,36
7761,36
7762,36
7763,36
7764,36
7765,36
7766,36
7767,36
7768,36
7769,37
7770,37
7771,37
7772,37
7773,37
7774,37
7775,37
7776,37
7777,37
7778,37
7779,37
7780,37
7781,37
7782,37
7783,38
7784,37
7785,37
7786,37
7787,37
7788,37
7789,37
7790,37
7791,37
7792,37
7793,37
7794,37
7795,37
7796,37
7797,38
7798,37
7799,37
7800,37
7801,37
7802,37
7803,37
7804,37
7805,37
7806,37
7807,37
7808,37
7809,37
7810,37
7811,37
7812,37
7813,38
7814,37
7815,37
7816,37
7817,37
7818,37
7819,37
7820,37
7821,37
7822,37
7823,37
7824,37
7825,37
7826,37
7827,37
7828,37
7829,37
7830,37
7831,38
7832,38
7833,37
7834,37
7835,37
7836,37
7837,37
7838,37
7839,37
7840,37
7841,37
7842,37
7843,37
7844,37
7845,37
7846,37
7847,37
7848,37
7849,36
7850,36
7851,36
7852,36
7853,36
7854,36
7855,36
7856,36
7857,36
7858,36
7859,36
7860,36
7861,36
7862,36
7863,36
7864,36
7865,36
7866,36
7867,36
7868,36
7869,36
7870,36
7871,36
7872,36
7873,36
7874,36
7875,36
7876,36
7877,36
7878,36
7879,36
7880,36
7881,36
7882,36
7883,36
7884,36
7885,36
7886,36
7887,36
7888,36
7889,36
7890,36
7891,36
7892,36
7893,36
7894,37
7895,37
7896,37
7897,37
7898,37
7899,36
7900,36
7901,36
7902,36
7903,36
7904,36
7905,36
7906,36
7907,36
7908,36
7909,36
7910,36
7911,36
7912,36
7913,37
7914,37
7915,37
7916,36
7917,36
7918,36
7919,36
7920,36
7921,36
7922,36
7923,36
7924,36
7925,37
7926,37
7927,37
7928,36
7929,36
7930,36
7931,36
7932,36
7933,36
7934,36
7935,36
7936,36
7937,36
7938,37
7939,37
7940,36
7941,36
7942,36
7943,36
7944,36
7945,36
7946,36
7947,36
7948,36
7949,36
7950,36
7951,36
7952,36
7953,36
7954,36
7955,36
7956,36
7957,36
7958,36
7959,36
7960,36
7961,36
7962,36
7963,36
7964,36
7965,36
7966,36
7967,36
7968,36
7969,36
7970,36
7971,36
7972,36
7973,36
7974,36
7975,36
7976,36
7977,36
7978,36
7979,36
7980,36
7981,37
7982,37
7983,37
7984,36
7985,36
7986,36
7987,36
7988,36
7989,36
7990,36
7991,36
7992,36
7993,36
7994,37
7995,37
7996,37
7997,37
7998,37
7999,37
8000,37
8001,37
8002,37
8003,36
8004,36
8005,36
8006,37
8007,37
8008,37
8009,37
8010,37
8011,37
8012,37
8013,37
8014,37
8015,37
8016,38
8017,38
8018,38
8019,38
8020,38
8021,38
8022,37
8023,39
8024,40
8025,39
8026,39
8027,38
8028,38
8029,38
8030,38
8031,38
8032,38
8033,38
8034,38
8035,38
8036,38
8037,38
8038,38
8039,38
8040,38
8041,38
8042,38
8043,38
8044,37
8045,37
8046,38
8047,38
8048,37
8049,37
8050,37
8051,37
8052,37
8053,37
8054,37
8055,37
8056,37
8057,37
8058,37
8059,37
8060,37
8061,37
8062,37
8063,37
8064,37
8065,37
8066,37
8067,37
8068,37
8069,37
8070,37
8071,37
8072,38
8073,37
8074,38
8075,38
8076,38
8077,38
8078,38
8079,38
8080,38
8081,37
8082,37
8083,37
8084,37
8085,37
8086,37
8087,37
8088,37
8089,37
8090,37
8091,37
8092,37
8093,37
8094,37
8095,37
8096,37
8097,37
8098,37
8099,37
8100,37
8101,37
8102,38
8103,37
8104,36
8105,36
8106,36
8107,36
8108,36
8109,37
8110,36
8111,36
8112,36
8113,36
8114,36
8115,36
8116,37
8117,37
8118,37
8119,37
8120,37
8121,37
8122,37
8123,37
8124,37
8125,37
8126,37
8127,37
8128,37
8129,38
8130,38
8131,38
8132,38
8133,38
8134,38
8135,38
8136,38
8137,38
8138,38
8139,38
8140,38
8141,38
8142,38
8143,38
8144,38
8145,38
8146,38
8147,38
8148,38
8149,37
8150,36
8151,37
8152,37
8153,36
8154,36
8155,36
8156,36
8157,36
8158,36
8159,36
8160,36
8161,36
8162,36
8163,36
8164,36
8165,36
8166,36
8167,36
8168,36
8169,36
8170,36
8171,36
8172,36
8173,36
8174,36
8175,36
8176,35
8177,35
8178,36
8179,36
8180,36
8181,35
8182,35
8183,35
8184,35
8185,35
8186,35
8187,35
8188,35
8189,35
8190,35
8191,35
8192,35
8193,35
8194,35
8195,35
8196,35
8197,35
8198,35
8199,35
8200,35
8201,35
8202,36
8203,35
8204,35
8205,35
8206,35
8207,35
8208,35
8209,35
8210,35
8211,35
8212,35
8213,35
8214,35
8215,35
8216,35
8217,35
8218,35
8219,35
8220,35
8221,35
8222,35
8223,36
8224,35
8225,35
8226,35
8227,35
8228,35
8229,35
8230,35
8231,35
8232,35
8233,36
8234,36
8235,36
8236,36
8237,36
8238,35
8239,35
8240,35
8241,35
8242,35
8243,35
8244,35
8245,35
8246,36
8247,38
8248,37
8249,37
8250,38
8251,37
8252,38
8253,37
8254,36
8255,36
8256,36
8257,36
8258,35
8259,35
8260,35
8261,35
8262,35
8263,35
8264,35
8265,35
8266,35
8267,35
8268,35
8269,35
8270,35
8271,35
8272,35
8273,35
8274,35
8275,35
8276,35
8277,35
8278,35
8279,35
8280,35
8281,35
8282,35
8283,35
8284,35
8285,35
8286,35
8287,35
8288,35
8289,35
8290,35
8291,35
8292,35
8293,35
8294,35
8295,35
8296,35
8297,35
8298,35
8299,35
8300,35
8301,35
8302,35
8303,35
8304,35
8305,35
8306,35
8307,35
8308,35
8309,35
8310,35
8311,35
8312,35
8313,35
8314,35
8315,35
8316,35
8317,35
8318,35
8319,35
8320,35
8321,35
8322,35
8323,35
8324,35
8325,35
8326,35
8327,35
8328,35
8329,35
8330,35
8331,36
8332,36
8333,35
8334,35
8335,36
8336,36
8337,36
8338,36
8339,36
8340,36
8341,35
8342,35
8343,35
8344,35
8345,35
8346,35
8347,35
8348,35
8349,35
8350,35
8351,35
8352,35
8353,35
8354,35
8355,35
8356,35
8357,35
8358,35
8359,35
8360,35
8361,35
8362,35
8363,35
8364,35
8365,35
8366,35
8367,35
8368,35
8369,35
8370,35
8371,35
8372,35
8373,35
8374,35
8375,35
8376,35
8377,35
8378,35
8379,35
8380,35
8381,35
8382,35
8383,35
8384,35
8385,35
8386,35
8387,35
8388,35
8389,35
8390,35
8391,35
8392,35
8393,36
8394,36
8395,36
8396,35
8397,35
8398,35
8399,35
8400,35
8401,35
8402,37
8403,36
8404,36
8405,36
8406,35
8407,35
8408,35
8409,35
8410,35
8411,35
8412,35
8413,35
8414,35
8415,35
8416,35
8417,35
8418,35
8419,35
8420,35
8421,35
8422,35
8423,36
8424,35
8425,35
8426,35
8427,35
8428,35
8429,36
8430,36
8431,36
8432,36
8433,36
8434,36
8435,36
8436,36
8437,36
8438,36
8439,36
8440,36
8441,36
8442,36
8443,36
8444,36
8445,36
8446,36
8447,36
8448,36
8449,36
8450,36
8451,36
8452,35
8453,35
8454,35
8455,35
8456,36
8457,36
8458,36
8459,36
8460,36
8461,37
8462,37
8463,36
8464,36
8465,37
8466,36
8467,36
8468,36
8469,36
8470,36
8471,37
8472,37
8473,37
8474,36
8475,36
8476,36
8477,36
8478,36
8479,36
8480,36
8481,36
8482,36
8483,36
8484,36
8485,36
8486,36
8487,36
8488,36
8489,36
8490,36
8491,36
8492,36
8493,36
8494,36
8495,36
8496,36
8497,36
8498,36
8499,36
8500,36
8501,36
8502,36
8503,36
8504,36
8505,36
8506,36
8507,36
8508,36
8509,36
8510,36
8511,36
8512,36
8513,36
8514,36
8515,36
8516,36
8517,36
8518,36
8519,36
8520,36
8521,36
8522,36
8523,36
8524,36
8525,36
8526,36
8527,36
8528,36
8529,36
8530,36
8531,36
8532,37
8533,36
8534,36
8535,36
8536,36
8537,36
8538,36
8539,36
8540,36
8541,36
8542,36
8543,36
8544,36
8545,36
8546,36
8547,36
8548,36
8549,36
8550,37
8551,37
8552,37
8553,37
8554,37
8555,37
8556,37
8557,37
8558,37
8559,37
8560,37
8561,38
8562,38
8563,37
8564,38
8565,38
8566,38
8567,38
8568,38
8569,37
8570,37
8571,37
8572,37
8573,37
8574,38
8575,38
8576,38
8577,37
8578,37
8579,37
8580,36
8581,36
8582,36
8583,36
8584,36
8585,36
8586,36
8587,36
8588,36
8589,36
8590,36
8591,36
8592,36
8593,36
8594,36
8595,36
8596,36
8597,36
8598,36
8599,37
8600,37
8601,37
8602,37
8603,36
8604,36
8605,36
8606,36
8607,36
8608,36
8609,36
8610,36
8611,36
8612,36
8613,37
8614,38
8615,36
8616,36
8617,36
8618,36
8619,36
8620,36
8621,36
8622,37
8623,37
8624,36
8625,36
8626,36
8627,36
8628,36
8629,36
8630,36
8631,36
8632,36
8633,37
8634,36
8635,36
8636,36
8637,36
8638,36
8639,36
8640,36
8641,36
8642,37
8643,37
8644,37
8645,37
8646,37
8647,37
8648,36
8649,36
8650,36
8651,36
8652,36
8653,36
8654,36
8655,36
8656,36
8657,36
8658,36
8659,36
8660,36
8661,36
8662,36
8663,36
8664,36
8665,36
8666,36
8667,36
8668,36
8669,36
8670,36
8671,36
8672,36
8673,36
8674,36
8675,36
8676,36
8677,36
8678,36
8679,36
8680,36
8681,36
8682,36
8683,36
8684,37
8685,36
8686,36
8687,37
8688,37
8689,37
8690,36
8691,36
8692,36
8693,36
8694,36
8695,36
8696,36
8697,36
8698,36
8699,36
8700,36
8701,36
8702,37
8703,37
8704,37
8705,37
8706,37
8707,37
8708,37
8709,37
8710,37
8711,37
8712,37
8713,37
8714,38
8715,38
8716,38
8717,38
8718,38
8719,38
8720,38
8721,39
8722,38
8723,38
8724,38
8725,38
8726,38
8727,38
8728,38
8729,38
8730,38
8731,38
8732,38
8733,38
8734,38
8735,38
8736,38
8737,38
8738,37
8739,37
8740,38
8741,38
8742,37
8743,36
8744,36
8745,36
8746,36
8747,37
8748,38
8749,38
8750,38
8751,38
8752,38
8753,38
8754,38
8755,38
8756,38
8757,38
8758,39
8759,38
8760,36
8761,36
8762,36
8763,36
8764,36
8765,36
8766,36
8767,36
8768,36
8769,36
8770,36
8771,36
8772,36
8773,36
8774,36
8775,36
8776,38
8777,37
8778,37
8779,37
8780,37
8781,37
8782,37
8783,38
8784,38
8785,38
8786,37
8787,37
8788,37
8789,37
8790,36
8791,36
8792,36
8793,36
8794,36
8795,36
8796,36
8797,36
8798,36
8799,37
8800,37
8801,37
8802,37
8803,37
8804,37
8805,37
8806,39
8807,39
8808,37
8809,36
8810,36
8811,36
8812,36
8813,36
8814,36
8815,36
8816,36
8817,36
8818,36
8819,36
8820,36
8821,36
8822,36
8823,36
8824,36
8825,36
8826,36
8827,36
8828,36
8829,36
8830,36
8831,36
8832,36
8833,36
8834,36
8835,36
8836,36
8837,36
8838,36
8839,36
8840,36
8841,36
8842,36
8843,36
8844,36
8845,36
8846,36
8847,36
8848,37
8849,36
8850,36
8851,36
8852,36
8853,36
8854,36
8855,36
8856,36
8857,36
8858,36
8859,36
8860,36
8861,36
8862,36
8863,36
8864,36
8865,36
8866,37
8867,37
8868,36
8869,36
8870,36
8871,36
8872,36
8873,36
8874,36
8875,36
8876,36
8877,36
8878,36
8879,36
8880,36
8881,36
8882,36
8883,36
8884,36
8885,36
8886,36
8887,36
8888,36
8889,36
8890,36
8891,36
8892,36
8893,37
8894,36
8895,36
8896,36
8897,36
8898,36
8899,36
8900,36
8901,36
8902,36
8903,36
8904,36
8905,36
8906,36
8907,36
8908,36
8909,36
8910,36
8911,36
8912,36
8913,36
8914,37
8915,37
8916,38
8917,37
8918,36
8919,36
8920,36
8921,36
8922,36
8923,36
8924,36
8925,36
8926,36
8927,36
8928,36
8929,36
8930,36
8931,36
8932,36
8933,37
8934,36
8935,36
8936,36
8937,37
8938,36
8939,36
8940,36
8941,36
8942,36
8943,36
8944,36
8945,36
8946,37
8947,36
8948,36
8949,36
8950,36
8951,36
8952,36
8953,36
8954,36
8955,37
8956,37
8957,36
8958,36
8959,36
8960,36
8961,36
8962,36
8963,36
8964,36
8965,36
8966,36
8967,36
8968,37
8969,37
8970,36
8971,36
8972,37
8973,37
8974,37
8975,37
8976,37
8977,37
8978,37
8979,37
8980,37
8981,37
8982,37
8983,37
8984,37
8985,37
8986,37
8987,37
8988,37
8989,37
8990,37
8991,38
8992,38
8993,38
8994,38
8995,37
8996,37
8997,37
8998,37
8999,37
9000,37
9001,37
9002,37
9003,37
9004,37
9005,37
9006,37
9007,37
9008,37
9009,37
9010,37
9011,37
9012,37
9013,38
9014,37
9015,39
9016,38
9017,38
9018,37
9019,38
9020,37
9021,37
9022,37
9023,38
9024,37
9025,37
9026,37
9027,37
9028,38
9029,39
9030,39
9031,38
9032,38
9033,37
9034,37
9035,37
9036,37
9037,37
9038,37
9039,38
9040,38
9041,39
9042,40
9043,37
9044,37
9045,37
9046,37
9047,37
9048,37
9049,37
9050,37
9051,37
9052,37
9053,37
9054,37
9055,37
9056,37
9057,37
9058,37
9059,37
9060,37
9061,37
9062,37
9063,38
9064,37
9065,37
9066,37
9067,37
9068,37
9069,37
9070,37
9071,37
9072,37
9073,37
9074,37
9075,37
9076,37
9077,37
9078,38
9079,38
9080,37
9081,37
9082,38
9083,38
9084,38
9085,38
9086,37
9087,37
9088,37
9089,37
9090,37
9091,37
9092,37
9093,37
9094,37
9095,37
9096,37
9097,37
9098,37
9099,37
9100,37
9101,37
9102,37
9103,37
9104,37
9105,38
9106,38
9107,38
9108,37
9109,37
9110,37
9111,37
9112,37
9113,37
9114,37
9115,38
9116,37
9117,37
9118,37
9119,37
9120,37
9121,37
9122,37
9123,37
9124,37
9125,37
9126,37
9127,38
9128,38
9129,38
9130,38
9131,39
9132,39
9133,39
9134,39
9135,38
9136,38
9137,38
9138,38
9139,38
9140,38
9141,38
9142,38
9143,38
9144,38
9145,38
9146,38
9147,38
9148,38
9149,38
9150,38
9151,38
9152,38
9153,38
9154,38
9155,39
9156,38
9157,39
9158,39
9159,39
9160,39
9161,39
9162,39
9163,40
9164,39
9165,39
9166,39
9167,40
9168,40
9169,39
9170,39
9171,39
9172,39
9173,39
9174,39
9175,39
9176,39
9177,39
9178,39
9179,39
9180,40
9181,40
9182,40
9183,40
9184,39
9185,39
9186,39
9187,39
9188,39
9189,39
9190,39
9191,39
9192,40
9193,39
9194,39
9195,39
9196,39
9197,39
9198,39
9199,39
9200,39
9201,38
9202,38
9203,38
9204,38
9205,38
9206,38
9207,38
9208,38
9209,38
9210,38
9211,38
9212,38
9213,39
9214,38
9215,38
9216,39
9217,39
9218,38
9219,38
9220,38
9221,38
9222,38
9223,38
9224,38
9225,38
9226,38
9227,38
9228,38
9229,38
9230,38
9231,38
9232,38
9233,38
9234,38
9235,38
9236,38
9237,39
9238,38
9239,38
9240,39
9241,38
9242,38
9243,38
9244,38
9245,38
9246,38
9247,38
9248,38
9249,38
9250,38
9251,39
9252,39
9253,38
9254,37
9255,37
9256,37
9257,37
9258,37
9259,37
9260,37
9261,37
9262,37
9263,37
9264,37
9265,38
9266,37
9267,38
9268,38
9269,37
9270,37
9271,37
9272,37
9273,37
9274,37
9275,36
9276,36
9277,36
9278,36
9279,36
9280,36
9281,36
9282,36
9283,36
9284,36
9285,36
9286,36
9287,36
9288,36
9289,36
9290,36
9291,36
9292,36
9293,36
9294,36
9295,36
9296,36
9297,36
9298,36
9299,36
9300,36
9301,36
9302,36
9303,36
9304,36
9305,36
9306,36
9307,36
9308,37
9309,37
9310,37
9311,37
9312,36
9313,36
9314,36
9315,36
9316,36
9317,36
9318,36
9319,36
9320,36
9321,36
9322,36
9323,36
9324,36
9325,36
9326,36
9327,36
9328,36
9329,36
9330,36
9331,36
9332,36
9333,36
9334,36
9335,36
9336,36
9337,36
9338,36
9339,36
9340,36
9341,36
9342,36
9343,36
9344,36
9345,36
9346,36
9347,36
9348,36
9349,36
9350,36
9351,36
9352,36
9353,36
9354,36
9355,36
9356,36
9357,36
9358,36
9359,36
9360,36
9361,36
9362,36
9363,36
9364,36
9365,36
9366,36
9367,36
9368,36
9369,36
9370,36
9371,36
9372,37
9373,36
9374,36
9375,36
9376,36
9377,36
9378,36
9379,36
9380,37
9381,36
9382,36
9383,36
9384